2021-07-01 00:03:29;3.54;1;3.80;0;1.30
2021-07-01 00:33:33;3.54;1;3.10;0;1.20
2021-07-01 01:03:33;3.54;1;3.80;0;1.60
2021-07-01 01:33:32;3.54;1;4.50;0;2.29
2021-07-01 02:03:32;3.54;1;4.80;0;1.80
2021-07-01 02:33:32;3.54;1;4.00;0;1.70
2021-07-01 03:03:32;3.53;1;3.80;0;2.00
2021-07-01 03:33:32;3.54;17;2.90;0;1.30
2021-07-01 04:03:31;3.54;33;2.50;0;1.40
2021-07-01 04:33:30;3.53;99;1.60;0;0.00
2021-07-01 05:03:29;3.53;99;1.00;0;0.00
2021-07-01 05:33:32;3.53;99;0.90;0;0.00
2021-07-01 06:03:30;3.53;99;0.90;0;0.00
2021-07-01 06:33:28;3.53;99;1.20;0;1.40
2021-07-01 07:03:31;3.53;99;1.50;0;1.30
2021-07-01 07:33:30;3.53;99;1.90;0;1.90
2021-07-01 08:03:28;3.53;99;2.20;0;1.90
2021-07-01 08:33:32;3.53;99;2.80;0;2.19
2021-07-01 09:03:31;3.53;99;4.40;0;2.39
2021-07-01 09:33:32;3.53;30;6.40;0;2.69
2021-07-01 10:03:33;3.54;1;7.70;0;3.38
2021-07-01 10:33:31;3.53;1;9.10;0;4.47
2021-07-01 11:03:34;3.54;1;11.10;0;3.78
2021-07-01 11:33:34;3.53;1;13.00;0;2.09
2021-07-01 12:03:34;3.53;1;13.40;0;4.07
2021-07-01 12:33:35;3.53;1;14.50;0;4.27
2021-07-01 13:03:38;3.53;1;15.00;0;3.58
2021-07-01 13:33:37;3.53;1;16.50;0;3.58
2021-07-01 14:03:41;3.53;1;16.90;0;2.79
2021-07-01 14:33:37;3.53;1;17.20;0;3.68
2021-07-01 15:03:38;3.53;1;17.50;0;2.99
2021-07-01 15:33:39;3.53;1;17.80;0;3.48
2021-07-01 16:03:40;3.53;1;18.20;0;2.69
2021-07-01 16:33:40;3.53;1;17.20;0;2.79
2021-07-01 17:03:41;3.53;1;16.70;0;1.90
2021-07-01 17:33:40;3.53;1;15.20;0;1.80
2021-07-01 18:03:39;3.53;1;12.80;0;0.00
2021-07-01 18:33:35;3.53;1;11.60;0;0.00
2021-07-01 19:03:34;3.53;1;10.20;0;0.00
2021-07-01 19:33:33;3.53;1;9.00;0;0.00
2021-07-01 20:03:36;3.53;1;8.80;0;0.00
2021-07-01 20:33:33;3.53;1;7.80;0;1.30
2021-07-01 21:03:31;3.53;1;7.70;0;0.00
2021-07-01 21:33:33;3.53;1;7.40;0;0.00
2021-07-01 22:03:34;3.53;5;6.30;0;0.00
2021-07-01 22:33:31;3.53;26;5.70;0;0.00
2021-07-01 23:03:31;3.53;15;6.40;0;0.00
2021-07-01 23:33:32;3.53;24;6.70;0;0.00
