2021-12-16 00:00:33;4.16;80;19.30;0;0.00
2021-12-16 00:05:35;4.16;79;19.20;0;0.00
2021-12-16 00:10:32;4.16;79;19.00;0;0.00
2021-12-16 00:15:34;4.16;78;19.00;0;0.00
2021-12-16 00:20:31;4.16;78;19.00;0;0.00
2021-12-16 00:25:33;4.16;78;18.90;0;0.00
2021-12-16 00:30:30;4.16;78;19.10;0;0.00
2021-12-16 00:35:32;4.15;79;19.00;0;0.00
2021-12-16 00:40:34;4.16;78;18.70;0;0.00
2021-12-16 00:45:31;4.15;77;18.60;0;0.00
2021-12-16 00:50:33;4.16;77;18.50;0;0.00
2021-12-16 00:55:35;4.15;76;18.40;0;0.00
2021-12-16 01:00:32;4.15;75;18.20;0;0.00
2021-12-16 01:05:34;4.15;75;18.30;0;0.00
2021-12-16 01:10:31;4.15;75;18.30;0;0.00
2021-12-16 01:15:33;4.15;75;18.20;0;0.00
2021-12-16 01:20:35;4.15;74;18.10;0;0.00
2021-12-16 01:25:32;4.15;75;18.20;0;0.00
2021-12-16 01:30:33;4.15;76;18.30;0;0.00
2021-12-16 01:35:31;4.15;76;18.40;0;0.00
2021-12-16 01:40:32;4.15;76;18.20;0;0.00
2021-12-16 01:45:34;4.15;75;18.20;0;0.00
2021-12-16 01:50:31;4.15;75;18.20;0;0.00
2021-12-16 01:55:33;4.15;76;18.40;0;0.00
2021-12-16 02:00:35;4.15;76;18.20;0;0.00
2021-12-16 02:05:32;4.15;76;18.20;0;0.00
2021-12-16 02:10:33;4.15;76;18.10;0;0.00
2021-12-16 02:15:31;4.15;76;18.10;0;0.00
2021-12-16 02:20:32;4.15;75;18.00;0;0.00
2021-12-16 02:25:34;4.15;75;17.90;0;0.00
2021-12-16 02:30:31;4.14;74;17.80;0;0.00
2021-12-16 02:35:33;4.15;73;17.70;0;0.00
2021-12-16 02:40:34;4.15;72;17.70;0;0.00
2021-12-16 02:45:31;4.15;72;17.60;0;0.00
2021-12-16 02:50:33;4.15;71;17.60;0;0.00
2021-12-16 02:55:35;4.14;71;17.70;0;0.00
2021-12-16 03:00:32;4.14;72;17.70;0;0.00
2021-12-16 03:05:33;4.14;71;17.70;0;0.00
2021-12-16 03:10:31;4.14;72;17.80;0;0.00
2021-12-16 03:15:32;4.14;72;17.70;0;0.00
2021-12-16 03:20:34;4.14;71;17.70;0;0.00
2021-12-16 03:25:31;4.14;71;17.70;0;0.00
2021-12-16 03:30:32;4.14;73;17.80;0;0.00
2021-12-16 03:35:34;4.14;74;17.80;0;0.00
2021-12-16 03:40:31;4.14;74;17.60;0;0.00
2021-12-16 03:45:33;4.14;73;17.40;0;0.00
2021-12-16 03:50:34;4.14;72;17.40;0;0.00
2021-12-16 03:55:32;4.14;73;17.40;0;0.00
2021-12-16 04:00:33;4.14;73;17.20;0;0.00
2021-12-16 04:05:30;4.14;73;17.30;0;0.00
2021-12-16 04:10:32;4.14;73;17.20;0;1.10
2021-12-16 04:15:33;4.14;73;17.20;0;0.00
2021-12-16 04:20:30;4.14;73;17.10;0;0.00
2021-12-16 04:25:32;4.14;72;17.00;0;0.00
2021-12-16 04:30:34;4.14;71;16.90;0;0.00
2021-12-16 04:35:31;4.14;69;16.70;0;0.00
2021-12-16 04:40:32;4.14;68;16.50;0;0.00
2021-12-16 04:45:34;4.14;64;16.50;0;0.00
2021-12-16 04:50:31;4.14;64;16.50;0;0.00
2021-12-16 04:55:32;4.14;63;16.20;0;0.00
2021-12-16 05:00:34;4.14;62;16.20;0;0.00
2021-12-16 05:05:31;4.14;61;16.10;0;0.00
2021-12-16 05:10:32;4.14;60;15.90;0;0.00
2021-12-16 05:15:34;4.14;56;15.90;0;0.00
2021-12-16 05:20:31;4.13;56;16.20;0;0.00
2021-12-16 05:25:32;4.14;57;16.30;0;0.00
2021-12-16 05:30:34;4.14;56;16.20;0;0.00
2021-12-16 05:35:31;4.13;55;16.10;0;0.00
2021-12-16 05:40:32;4.14;54;15.80;0;0.00
2021-12-16 05:45:34;4.14;52;15.70;0;0.00
2021-12-16 05:50:31;4.13;49;15.80;0;0.00
2021-12-16 05:55:32;4.13;48;15.70;0;0.00
2021-12-16 06:00:34;4.13;47;15.70;0;0.00
2021-12-16 06:05:30;4.13;45;15.80;0;0.00
2021-12-16 06:10:32;4.13;45;15.70;0;0.00
2021-12-16 06:15:33;4.13;44;15.70;0;0.00
2021-12-16 06:20:30;4.13;43;15.60;0;0.00
2021-12-16 06:25:32;4.13;41;15.60;0;0.00
2021-12-16 06:30:33;4.13;39;15.80;0;0.00
2021-12-16 06:35:35;4.13;37;16.10;0;0.00
2021-12-16 06:40:31;4.13;36;16.30;0;0.00
2021-12-16 06:45:33;4.13;34;17.00;0;0.00
2021-12-16 06:50:34;4.13;36;17.60;0;0.00
2021-12-16 06:55:31;4.14;45;18.00;0;0.00
2021-12-16 07:00:33;4.13;57;18.40;0;0.00
2021-12-16 07:05:35;4.13;64;18.90;0;0.00
2021-12-16 07:10:32;4.13;71;20.10;0;0.00
2021-12-16 07:15:33;4.14;76;20.90;0;0.00
2021-12-16 07:20:31;4.14;77;21.30;0;0.00
2021-12-16 07:25:33;4.14;77;21.40;0;0.00
2021-12-16 07:30:34;4.14;78;21.80;0;0.00
2021-12-16 07:35:32;4.14;78;21.90;0;0.00
2021-12-16 07:40:34;4.14;78;22.30;0;0.00
2021-12-16 07:45:32;4.14;77;22.50;0;0.00
2021-12-16 07:50:34;4.15;78;22.30;0;0.00
2021-12-16 07:55:31;4.15;79;22.80;0;0.00
2021-12-16 08:00:34;4.15;78;22.90;0;0.00
2021-12-16 08:05:31;4.15;79;22.80;0;0.00
2021-12-16 08:10:34;4.15;78;23.00;0;0.00
2021-12-16 08:15:31;4.15;78;23.90;0;0.00
2021-12-16 08:20:34;4.16;77;23.90;0;1.50
2021-12-16 08:25:32;4.16;77;23.90;0;0.00
2021-12-16 08:30:34;4.16;77;24.30;0;0.00
2021-12-16 08:35:32;4.17;77;24.40;0;0.00
2021-12-16 08:40:35;4.17;77;24.20;0;1.20
2021-12-16 08:45:33;4.17;77;24.40;0;0.00
2021-12-16 08:50:31;4.17;77;25.10;0;0.00
2021-12-16 08:55:34;4.17;77;25.00;0;1.20
2021-12-16 09:00:32;4.17;76;25.00;0;0.00
2021-12-16 09:05:35;4.17;76;25.50;0;1.20
2021-12-16 09:10:33;4.18;76;25.40;0;1.40
2021-12-16 09:15:32;4.18;76;25.30;0;1.10
2021-12-16 09:20:35;4.18;75;25.60;0;0.00
2021-12-16 09:25:33;4.17;75;25.80;0;1.30
2021-12-16 09:30:32;4.18;75;25.80;0;1.50
2021-12-16 09:35:35;4.18;75;26.30;0;1.20
2021-12-16 09:40:33;4.18;75;26.30;0;1.30
2021-12-16 09:45:32;4.18;72;26.80;0;1.10
2021-12-16 09:50:35;4.18;75;26.70;0;0.00
2021-12-16 09:55:33;4.18;74;27.20;0;0.00
2021-12-16 10:00:32;4.18;74;26.90;0;0.00
2021-12-16 10:05:35;4.18;71;28.20;0;0.00
2021-12-16 10:10:34;4.18;71;27.70;0;0.00
2021-12-16 10:15:33;4.18;71;27.90;0;1.80
2021-12-16 10:20:36;4.18;73;27.80;0;0.00
2021-12-16 10:25:35;4.18;71;28.80;0;0.00
2021-12-16 10:30:34;4.18;70;28.30;0;0.00
2021-12-16 10:35:33;4.18;71;28.50;0;0.00
2021-12-16 10:40:32;4.19;70;28.50;0;1.80
2021-12-16 10:45:36;4.19;69;28.80;0;0.00
2021-12-16 10:50:35;4.19;70;28.70;0;0.00
2021-12-16 10:55:34;4.19;69;28.50;0;1.30
2021-12-16 11:00:33;4.19;69;28.60;0;0.00
2021-12-16 11:05:32;4.19;68;29.00;0;0.00
2021-12-16 11:10:36;4.19;69;28.80;0;0.00
2021-12-16 11:15:35;4.19;68;29.40;0;0.00
2021-12-16 11:20:34;4.19;69;28.90;0;0.00
2021-12-16 11:25:34;4.19;69;29.70;0;1.40
2021-12-16 11:30:33;4.19;69;29.00;0;0.00
2021-12-16 11:35:37;4.19;69;29.60;0;0.00
2021-12-16 11:40:36;4.19;68;29.50;0;0.00
2021-12-16 11:45:35;4.19;69;29.80;0;0.00
2021-12-16 11:50:35;4.19;66;29.70;0;1.20
2021-12-16 11:55:34;4.19;69;29.90;0;0.00
2021-12-16 12:00:33;4.19;68;29.70;0;0.00
2021-12-16 12:05:33;4.19;66;29.50;0;0.00
2021-12-16 12:10:37;4.19;66;30.60;0;0.00
2021-12-16 12:15:36;4.20;67;30.00;0;0.00
2021-12-16 12:20:36;4.20;66;29.90;0;1.10
2021-12-16 12:25:35;4.20;67;30.80;0;0.00
2021-12-16 12:30:34;4.20;66;30.00;0;1.90
2021-12-16 12:35:34;4.20;66;30.50;0;0.00
2021-12-16 12:40:33;4.20;65;30.80;0;1.20
2021-12-16 12:45:33;4.20;68;30.50;0;0.00
2021-12-16 12:50:37;4.20;65;30.30;0;0.00
2021-12-16 12:55:37;4.20;66;31.20;0;0.00
2021-12-16 13:00:36;4.20;66;30.90;0;0.00
2021-12-16 13:05:36;4.20;62;31.30;0;0.00
2021-12-16 13:10:35;4.20;66;30.90;0;0.00
2021-12-16 13:15:35;4.20;66;30.50;0;0.00
2021-12-16 13:20:34;4.20;63;31.10;0;0.00
2021-12-16 13:25:34;4.20;65;30.40;0;0.00
2021-12-16 13:30:34;4.20;64;31.20;0;0.00
2021-12-16 13:35:33;4.20;62;31.60;0;1.70
2021-12-16 13:40:33;4.20;68;31.20;0;0.00
2021-12-16 13:45:37;4.20;62;31.90;0;0.00
2021-12-16 13:50:37;4.20;61;31.10;0;0.00
2021-12-16 13:55:36;4.20;60;31.60;0;0.00
2021-12-16 14:00:36;4.20;61;31.00;0;0.00
2021-12-16 14:05:36;4.20;59;32.00;0;0.00
2021-12-16 14:10:35;4.21;61;32.30;0;0.00
2021-12-16 14:15:35;4.20;62;31.60;0;0.00
2021-12-16 14:20:35;4.21;58;32.30;0;0.00
2021-12-16 14:25:34;4.21;58;32.20;0;0.00
2021-12-16 14:30:34;4.21;57;32.70;0;0.00
2021-12-16 14:35:34;4.21;58;32.30;0;0.00
2021-12-16 14:40:34;4.21;58;32.60;0;0.00
2021-12-16 14:45:34;4.21;58;31.70;0;0.00
2021-12-16 14:50:33;4.21;56;32.40;0;0.00
2021-12-16 14:55:33;4.21;57;32.70;0;0.00
2021-12-16 15:00:37;4.21;57;31.90;0;0.00
2021-12-16 15:05:33;4.21;55;32.70;0;0.00
2021-12-16 15:10:37;4.21;52;33.00;0;1.30
2021-12-16 15:15:32;4.21;52;33.00;0;1.70
2021-12-16 15:20:37;4.21;55;33.40;0;1.20
2021-12-16 15:25:37;4.21;53;33.10;0;0.00
2021-12-16 15:30:36;4.21;49;32.70;0;1.50
2021-12-16 15:35:36;4.21;51;33.00;0;0.00
2021-12-16 15:40:36;4.21;51;33.50;0;1.10
2021-12-16 15:45:36;4.21;49;33.00;0;1.10
2021-12-16 15:50:36;4.21;54;33.00;0;0.00
2021-12-16 15:55:35;4.21;55;33.50;0;0.00
2021-12-16 16:00:35;4.21;52;33.60;0;1.10
2021-12-16 16:05:35;4.21;54;33.90;0;0.00
2021-12-16 16:10:35;4.21;52;33.30;0;0.00
2021-12-16 16:15:35;4.21;52;33.40;0;0.00
2021-12-16 16:20:35;4.21;54;33.20;0;0.00
2021-12-16 16:25:34;4.21;52;33.50;0;0.00
2021-12-16 16:30:34;4.21;53;33.90;0;0.00
2021-12-16 16:35:34;4.21;52;33.20;0;0.00
2021-12-16 16:40:34;4.21;55;33.50;0;0.00
2021-12-16 16:45:34;4.21;54;33.10;0;0.00
2021-12-16 16:50:34;4.21;53;33.40;0;0.00
2021-12-16 16:55:33;4.21;56;33.70;0;0.00
2021-12-16 17:00:33;4.21;52;34.00;0;0.00
2021-12-16 17:05:33;4.21;53;33.40;0;0.00
2021-12-16 17:10:37;4.21;54;32.80;0;0.00
2021-12-16 17:15:32;4.21;54;33.20;0;0.00
2021-12-16 17:20:37;4.21;49;34.00;0;0.00
2021-12-16 17:25:37;4.22;51;33.70;0;0.00
2021-12-16 17:30:36;4.21;52;33.00;0;0.00
2021-12-16 17:35:36;4.21;51;33.40;0;0.00
2021-12-16 17:40:36;4.21;50;33.60;0;0.00
2021-12-16 17:45:35;4.21;52;33.20;0;0.00
2021-12-16 17:50:35;4.21;52;32.80;0;0.00
2021-12-16 17:55:35;4.21;51;32.40;0;0.00
2021-12-16 18:00:34;4.21;51;33.10;0;0.00
2021-12-16 18:05:34;4.21;52;34.10;0;0.00
2021-12-16 18:10:34;4.22;51;32.80;0;0.00
2021-12-16 18:15:33;4.21;50;33.00;0;0.00
2021-12-16 18:20:33;4.21;50;33.40;0;0.00
2021-12-16 18:25:37;4.21;50;32.60;0;0.00
2021-12-16 18:30:36;4.21;51;32.80;0;1.40
2021-12-16 18:35:36;4.21;52;32.70;0;0.00
2021-12-16 18:40:35;4.21;51;31.90;0;0.00
2021-12-16 18:45:35;4.21;51;32.10;0;0.00
2021-12-16 18:50:34;4.21;53;31.60;0;0.00
2021-12-16 18:55:34;4.21;53;31.50;0;0.00
2021-12-16 19:00:33;4.21;55;31.60;0;0.00
2021-12-16 19:05:37;4.21;54;31.40;0;0.00
2021-12-16 19:10:36;4.21;54;31.30;0;0.00
2021-12-16 19:15:35;4.21;54;30.90;0;0.00
2021-12-16 19:20:34;4.21;55;31.30;0;0.00
2021-12-16 19:25:34;4.21;56;30.70;0;0.00
2021-12-16 19:30:33;4.21;59;30.30;0;0.00
2021-12-16 19:35:36;4.21;61;28.70;0;0.00
2021-12-16 19:40:35;4.21;64;27.90;0;0.00
2021-12-16 19:45:34;4.20;63;27.90;0;0.00
2021-12-16 19:50:33;4.21;64;27.40;0;0.00
2021-12-16 19:55:36;4.20;66;26.60;0;0.00
2021-12-16 20:00:35;4.20;67;26.20;0;0.00
2021-12-16 20:05:34;4.20;69;25.70;0;0.00
2021-12-16 20:10:32;4.20;69;25.50;0;0.00
2021-12-16 20:15:35;4.20;71;25.00;0;0.00
2021-12-16 20:20:33;4.20;71;24.50;0;0.00
2021-12-16 20:25:32;4.19;73;23.90;0;0.00
2021-12-16 20:30:34;4.20;75;23.10;0;0.00
2021-12-16 20:35:32;4.19;74;23.20;0;0.00
2021-12-16 20:40:35;4.19;75;23.00;0;0.00
2021-12-16 20:45:33;4.19;76;22.40;0;0.00
2021-12-16 20:50:35;4.19;76;22.40;0;0.00
2021-12-16 20:55:33;4.19;77;21.90;0;0.00
2021-12-16 21:00:31;4.19;76;22.60;0;0.00
2021-12-16 21:05:33;4.19;77;22.20;0;0.00
2021-12-16 21:10:31;4.18;77;22.30;0;0.00
2021-12-16 21:15:33;4.18;78;22.00;0;0.00
2021-12-16 21:20:31;4.18;78;21.90;0;0.00
2021-12-16 21:25:33;4.18;79;21.70;0;0.00
2021-12-16 21:30:31;4.18;79;21.60;0;0.00
2021-12-16 21:35:33;4.18;79;21.50;0;0.00
2021-12-16 21:40:35;4.18;80;21.20;0;0.00
2021-12-16 21:45:33;4.18;80;21.10;0;0.00
2021-12-16 21:50:35;4.18;80;20.90;0;0.00
2021-12-16 21:55:32;4.18;80;20.90;0;0.00
2021-12-16 22:00:34;4.17;81;20.90;0;0.00
2021-12-16 22:05:32;4.17;81;20.70;0;0.00
2021-12-16 22:10:34;4.17;81;20.60;0;0.00
2021-12-16 22:15:31;4.17;81;20.20;0;0.00
2021-12-16 22:20:33;4.17;81;20.10;0;0.00
2021-12-16 22:25:31;4.17;81;19.90;0;0.00
2021-12-16 22:30:33;4.17;82;19.80;0;0.00
2021-12-16 22:35:35;4.17;81;19.80;0;0.00
2021-12-16 22:40:32;4.17;82;19.60;0;0.00
2021-12-16 22:45:34;4.17;82;19.50;0;0.00
2021-12-16 22:50:31;4.17;82;19.50;0;0.00
2021-12-16 22:55:33;4.17;82;19.40;0;0.00
2021-12-16 23:00:31;4.17;81;19.40;0;0.00
2021-12-16 23:05:32;4.17;82;19.10;0;0.00
2021-12-16 23:10:34;4.16;82;19.00;0;0.00
2021-12-16 23:15:32;4.16;81;19.30;0;0.00
2021-12-16 23:20:33;4.16;81;19.60;0;0.00
2021-12-16 23:25:31;4.16;81;19.40;0;0.00
2021-12-16 23:30:32;4.16;82;19.10;0;0.00
2021-12-16 23:35:34;4.16;81;19.20;0;0.00
2021-12-16 23:40:31;4.16;82;19.00;0;0.00
2021-12-16 23:45:33;4.16;82;19.00;0;0.00
2021-12-16 23:50:30;4.16;82;18.70;0;0.00
2021-12-16 23:55:32;4.16;82;18.60;0;0.00
