2022-06-26 00:00:05;3.88;106.99
2022-06-26 00:01:06;3.88;106.99
2022-06-26 00:02:02;3.88;106.66
2022-06-26 00:03:03;3.88;106.99
2022-06-26 00:04:03;3.88;106.99
2022-06-26 00:05:04;3.88;107.31
2022-06-26 00:06:04;3.88;106.99
2022-06-26 00:07:05;3.88;106.99
2022-06-26 00:08:06;3.88;106.99
2022-06-26 00:09:02;3.88;106.99
2022-06-26 00:10:02;3.88;106.66
2022-06-26 00:11:03;3.88;107.31
2022-06-26 00:12:04;3.88;106.99
2022-06-26 00:13:04;3.88;106.99
2022-06-26 00:14:05;3.88;106.99
2022-06-26 00:15:05;3.88;106.99
2022-06-26 00:16:01;3.88;106.99
2022-06-26 00:17:02;3.88;106.99
2022-06-26 00:18:03;3.88;106.99
2022-06-26 00:19:03;3.88;106.99
2022-06-26 00:20:04;3.88;107.31
2022-06-26 00:21:05;3.88;106.99
2022-06-26 00:22:05;3.88;106.99
2022-06-26 00:23:06;3.88;106.66
2022-06-26 00:24:02;3.88;107.31
2022-06-26 00:25:03;3.88;106.99
2022-06-26 00:26:03;3.88;106.99
2022-06-26 00:27:04;3.88;107.31
2022-06-26 00:28:04;3.88;107.31
2022-06-26 00:29:05;3.88;107.31
2022-06-26 00:30:05;3.88;106.99
2022-06-26 00:31:02;3.88;106.99
2022-06-26 00:32:02;3.88;107.31
2022-06-26 00:33:03;3.88;107.31
2022-06-26 00:34:03;3.88;107.31
2022-06-26 00:35:04;3.88;107.31
2022-06-26 00:36:05;3.88;106.99
2022-06-26 00:37:05;3.88;106.99
2022-06-26 00:38:06;3.88;106.99
2022-06-26 00:39:02;3.88;106.99
2022-06-26 00:40:02;3.88;106.99
2022-06-26 00:41:03;3.88;106.99
2022-06-26 00:42:04;3.88;107.31
2022-06-26 00:43:04;3.88;106.99
2022-06-26 00:44:05;3.88;107.31
2022-06-26 00:45:05;3.88;107.47
2022-06-26 00:46:01;3.88;107.31
2022-06-26 00:47:02;3.88;107.31
2022-06-26 00:48:03;3.88;107.47
2022-06-26 00:49:03;3.88;107.47
2022-06-26 00:50:04;3.88;107.47
2022-06-26 00:51:04;3.88;107.47
2022-06-26 00:52:05;3.88;107.31
2022-06-26 00:53:06;3.88;107.47
2022-06-26 00:54:02;3.88;107.47
2022-06-26 00:55:02;3.88;107.31
2022-06-26 00:56:03;3.88;107.31
2022-06-26 00:57:03;3.88;107.47
2022-06-26 00:58:04;3.88;106.99
2022-06-26 00:59:05;3.88;107.47
2022-06-26 01:00:05;3.88;107.31
2022-06-26 01:01:06;3.88;107.31
2022-06-26 01:02:02;3.88;107.47
2022-06-26 01:03:03;3.88;107.47
2022-06-26 01:04:03;3.88;107.31
2022-06-26 01:05:04;3.88;107.47
2022-06-26 01:06:04;3.88;107.31
2022-06-26 01:07:05;3.88;107.47
2022-06-26 01:08:05;3.88;107.47
2022-06-26 01:09:02;3.88;107.31
2022-06-26 01:10:02;3.88;107.47
2022-06-26 01:11:03;3.88;107.47
2022-06-26 01:12:03;3.88;107.31
2022-06-26 01:13:04;3.88;107.31
2022-06-26 01:14:05;3.88;107.47
2022-06-26 01:15:05;3.88;107.47
2022-06-26 01:16:06;3.88;107.47
2022-06-26 01:17:02;3.88;107.47
2022-06-26 01:18:02;3.88;107.31
2022-06-26 01:19:03;3.88;107.47
2022-06-26 01:20:04;3.88;107.47
2022-06-26 01:21:04;3.88;107.47
2022-06-26 01:22:05;3.87;107.47
2022-06-26 01:23:05;3.88;107.47
2022-06-26 01:24:02;3.87;107.31
2022-06-26 01:25:02;3.88;107.47
2022-06-26 01:26:03;3.88;107.47
2022-06-26 01:27:03;3.88;107.47
2022-06-26 01:28:04;3.88;107.31
2022-06-26 01:29:05;3.87;107.47
2022-06-26 01:30:05;3.87;107.47
2022-06-26 01:31:06;3.88;107.47
2022-06-26 01:32:02;3.87;107.31
2022-06-26 01:33:02;3.87;107.31
2022-06-26 01:34:03;3.88;107.47
2022-06-26 01:35:04;3.87;107.31
2022-06-26 01:36:04;3.88;107.47
2022-06-26 01:37:05;3.87;107.47
2022-06-26 01:38:05;3.88;107.47
2022-06-26 01:39:02;3.88;107.47
2022-06-26 01:40:02;3.88;107.31
2022-06-26 01:41:03;3.87;107.31
2022-06-26 01:42:03;3.88;107.31
2022-06-26 01:43:04;3.87;107.31
2022-06-26 01:44:05;3.88;107.31
2022-06-26 01:45:05;3.87;107.31
2022-06-26 01:46:06;3.87;107.47
2022-06-26 01:47:02;3.87;107.47
2022-06-26 01:48:03;3.87;107.31
2022-06-26 01:49:03;3.87;107.47
2022-06-26 01:50:04;3.87;107.47
2022-06-26 01:51:04;3.87;107.31
2022-06-26 01:52:05;3.87;107.47
2022-06-26 01:53:06;3.87;107.31
2022-06-26 01:54:02;3.87;107.47
2022-06-26 01:55:02;3.88;107.31
2022-06-26 01:56:03;3.87;107.31
2022-06-26 01:57:04;3.88;107.31
2022-06-26 01:58:04;3.87;107.47
2022-06-26 01:59:05;3.87;107.31
2022-06-26 02:00:05;3.87;107.47
2022-06-26 02:01:06;3.87;107.31
2022-06-26 02:02:02;3.87;107.47
2022-06-26 02:03:03;3.87;107.47
2022-06-26 02:04:03;3.87;107.47
2022-06-26 02:05:04;3.88;107.47
2022-06-26 02:06:04;3.87;107.31
2022-06-26 02:07:05;3.87;107.47
2022-06-26 02:08:06;3.87;107.47
2022-06-26 02:09:02;3.87;107.31
2022-06-26 02:10:02;3.87;107.47
2022-06-26 02:11:03;3.87;107.47
2022-06-26 02:12:03;3.87;107.31
2022-06-26 02:13:04;3.87;107.47
2022-06-26 02:14:05;3.87;107.47
2022-06-26 02:15:05;3.87;107.47
2022-06-26 02:16:06;3.87;107.47
2022-06-26 02:17:02;3.87;107.47
2022-06-26 02:18:03;3.88;107.47
2022-06-26 02:19:03;3.87;107.47
2022-06-26 02:20:04;3.87;107.47
2022-06-26 02:21:04;3.87;107.47
2022-06-26 02:22:05;3.87;107.47
2022-06-26 02:23:06;3.87;107.47
2022-06-26 02:24:02;3.87;107.47
2022-06-26 02:25:02;3.87;107.47
2022-06-26 02:26:03;3.87;107.31
2022-06-26 02:27:03;3.87;107.31
2022-06-26 02:28:04;3.87;107.47
2022-06-26 02:29:05;3.87;107.47
2022-06-26 02:30:05;3.87;107.31
2022-06-26 02:31:06;3.87;107.31
2022-06-26 02:32:02;3.87;107.47
2022-06-26 02:33:03;3.87;106.99
2022-06-26 02:34:03;3.87;107.47
2022-06-26 02:35:04;3.87;107.47
2022-06-26 02:36:04;3.87;107.47
2022-06-26 02:37:05;3.87;107.47
2022-06-26 02:38:06;3.87;107.47
2022-06-26 02:39:02;3.87;107.47
2022-06-26 02:40:02;3.87;107.47
2022-06-26 02:41:03;3.87;107.31
2022-06-26 02:42:03;3.87;107.31
2022-06-26 02:43:04;3.87;107.47
2022-06-26 02:44:05;3.87;107.47
2022-06-26 02:45:05;3.87;107.47
2022-06-26 02:46:06;3.87;107.31
2022-06-26 02:47:02;3.87;107.47
2022-06-26 02:48:03;3.87;107.47
2022-06-26 02:49:03;3.87;107.47
2022-06-26 02:50:04;3.87;107.31
2022-06-26 02:51:04;3.87;107.31
2022-06-26 02:52:05;3.87;107.47
2022-06-26 02:53:06;3.87;107.47
2022-06-26 02:54:02;3.87;107.79
2022-06-26 02:55:02;3.87;107.79
2022-06-26 02:56:03;3.87;107.47
2022-06-26 02:57:04;3.87;107.47
2022-06-26 02:58:04;3.87;107.47
2022-06-26 02:59:05;3.87;107.47
2022-06-26 03:00:05;3.87;107.47
2022-06-26 03:01:02;3.87;107.47
2022-06-26 03:02:02;3.87;107.47
2022-06-26 03:03:03;3.87;107.47
2022-06-26 03:04:03;3.87;107.47
2022-06-26 03:05:04;3.87;107.47
2022-06-26 03:06:05;3.87;107.47
2022-06-26 03:07:05;3.87;107.47
2022-06-26 03:08:06;3.87;107.47
2022-06-26 03:09:02;3.87;107.47
2022-06-26 03:10:02;3.87;107.47
2022-06-26 03:11:03;3.87;107.47
2022-06-26 03:12:04;3.87;107.47
2022-06-26 03:13:04;3.87;107.47
2022-06-26 03:14:05;3.87;107.47
2022-06-26 03:15:06;3.87;107.47
2022-06-26 03:16:02;3.87;107.47
2022-06-26 03:17:02;3.87;107.47
2022-06-26 03:18:03;3.87;107.47
2022-06-26 03:19:03;3.87;107.47
2022-06-26 03:20:04;3.87;107.47
2022-06-26 03:21:05;3.87;107.47
2022-06-26 03:22:05;3.87;107.31
2022-06-26 03:23:02;3.87;107.47
2022-06-26 03:24:02;3.87;107.31
2022-06-26 03:25:03;3.87;107.31
2022-06-26 03:26:03;3.87;107.47
2022-06-26 03:27:04;3.87;107.31
2022-06-26 03:28:05;3.87;106.99
2022-06-26 03:29:05;3.87;106.99
2022-06-26 03:30:06;3.87;107.31
2022-06-26 03:31:02;3.87;107.31
2022-06-26 03:32:02;3.87;107.31
2022-06-26 03:33:03;3.87;107.31
2022-06-26 03:34:04;3.87;107.31
2022-06-26 03:35:04;3.87;107.31
2022-06-26 03:36:05;3.87;106.99
2022-06-26 03:37:05;3.87;107.31
2022-06-26 03:38:02;3.87;107.31
2022-06-26 03:39:02;3.87;107.31
2022-06-26 03:40:03;3.87;106.99
2022-06-26 03:41:03;3.87;107.31
2022-06-26 03:42:04;3.87;107.31
2022-06-26 03:43:04;3.87;107.31
2022-06-26 03:44:05;3.87;107.31
2022-06-26 03:45:06;3.87;107.31
2022-06-26 03:46:02;3.87;106.99
2022-06-26 03:47:02;3.87;106.99
2022-06-26 03:48:03;3.87;107.31
2022-06-26 03:49:04;3.87;107.31
2022-06-26 03:50:04;3.87;107.31
2022-06-26 03:51:05;3.87;107.31
2022-06-26 03:52:05;3.87;107.31
2022-06-26 03:53:02;3.87;107.31
2022-06-26 03:54:02;3.87;106.99
2022-06-26 03:55:03;3.87;107.31
2022-06-26 03:56:03;3.87;106.99
2022-06-26 03:57:04;3.87;107.31
2022-06-26 03:58:05;3.87;107.31
2022-06-26 03:59:05;3.87;107.31
2022-06-26 04:00:06;3.87;107.31
2022-06-26 04:01:02;3.87;106.99
2022-06-26 04:02:02;3.87;106.99
2022-06-26 04:03:03;3.87;107.31
2022-06-26 04:04:04;3.87;107.31
2022-06-26 04:05:04;3.87;107.31
2022-06-26 04:06:05;3.87;107.31
2022-06-26 04:07:05;3.87;106.99
2022-06-26 04:08:02;3.87;107.31
2022-06-26 04:09:02;3.87;107.31
2022-06-26 04:10:03;3.87;107.31
2022-06-26 04:11:03;3.87;107.31
2022-06-26 04:12:04;3.87;107.31
2022-06-26 04:13:05;3.87;107.31
2022-06-26 04:14:05;3.87;107.31
2022-06-26 04:15:06;3.87;107.31
2022-06-26 04:16:02;3.87;107.31
2022-06-26 04:17:03;3.87;107.31
2022-06-26 04:18:03;3.87;107.31
2022-06-26 04:19:04;3.87;107.31
2022-06-26 04:20:04;3.87;107.31
2022-06-26 04:21:05;3.87;106.99
2022-06-26 04:22:06;3.87;107.31
2022-06-26 04:23:02;3.87;107.31
2022-06-26 04:24:02;3.87;107.31
2022-06-26 04:25:03;3.87;107.31
2022-06-26 04:26:04;3.87;107.31
2022-06-26 04:27:04;3.87;107.31
2022-06-26 04:28:05;3.87;107.31
2022-06-26 04:29:06;3.87;107.31
2022-06-26 04:30:02;3.87;106.99
2022-06-26 04:31:02;3.87;106.99
2022-06-26 04:32:03;3.87;107.31
2022-06-26 04:33:04;3.87;107.31
2022-06-26 04:34:04;3.87;107.31
2022-06-26 04:35:05;3.87;107.31
2022-06-26 04:36:05;3.87;107.31
2022-06-26 04:37:02;3.87;107.31
2022-06-26 04:38:02;3.87;107.31
2022-06-26 04:39:03;3.87;107.31
2022-06-26 04:40:03;3.87;107.47
2022-06-26 04:41:04;3.87;107.31
2022-06-26 04:42:05;3.87;107.31
2022-06-26 04:43:05;3.87;107.31
2022-06-26 04:44:06;3.87;107.31
2022-06-26 04:45:02;3.87;107.31
2022-06-26 04:46:03;3.87;107.31
2022-06-26 04:47:03;3.87;107.31
2022-06-26 04:48:04;3.87;106.99
2022-06-26 04:49:04;3.87;107.31
2022-06-26 04:50:05;3.87;107.31
2022-06-26 04:51:06;3.87;107.31
2022-06-26 04:52:02;3.87;107.31
2022-06-26 04:53:03;3.87;107.31
2022-06-26 04:54:03;3.87;107.47
2022-06-26 04:55:04;3.87;107.31
2022-06-26 04:56:04;3.87;107.31
2022-06-26 04:57:05;3.87;107.31
2022-06-26 04:58:06;3.87;107.31
2022-06-26 04:59:02;3.87;107.31
2022-06-26 05:00:02;3.87;107.31
2022-06-26 05:01:03;3.87;107.31
2022-06-26 05:02:04;3.87;107.31
2022-06-26 05:03:04;3.87;106.99
2022-06-26 05:04:05;3.87;107.31
2022-06-26 05:05:06;3.87;107.31
2022-06-26 05:06:02;3.87;107.31
2022-06-26 05:07:02;3.87;106.99
2022-06-26 05:08:03;3.87;106.99
2022-06-26 05:09:03;3.87;107.31
2022-06-26 05:10:04;3.87;107.31
2022-06-26 05:11:05;3.87;107.31
2022-06-26 05:12:05;3.87;107.31
2022-06-26 05:13:06;3.87;107.31
2022-06-26 05:14:02;3.86;107.31
2022-06-26 05:15:02;3.87;107.31
2022-06-26 05:16:03;3.87;107.31
2022-06-26 05:17:04;3.87;107.31
2022-06-26 05:18:04;3.87;107.31
2022-06-26 05:19:05;3.87;107.31
2022-06-26 05:20:05;3.87;106.99
2022-06-26 05:21:02;3.87;107.31
2022-06-26 05:22:02;3.87;107.31
2022-06-26 05:23:03;3.87;107.31
2022-06-26 05:24:03;3.87;107.31
2022-06-26 05:25:04;3.87;107.31
2022-06-26 05:26:04;3.87;106.99
2022-06-26 05:27:05;3.87;107.31
2022-06-26 05:28:06;3.86;106.99
2022-06-26 05:29:02;3.87;107.31
2022-06-26 05:30:02;3.87;107.31
2022-06-26 05:31:03;3.86;107.47
2022-06-26 05:32:04;3.87;107.31
2022-06-26 05:33:04;3.87;107.31
2022-06-26 05:34:05;3.87;107.31
2022-06-26 05:35:05;3.86;107.31
2022-06-26 05:36:02;3.87;107.31
2022-06-26 05:37:02;3.87;107.31
2022-06-26 05:38:03;3.87;106.99
2022-06-26 05:39:03;3.86;107.47
2022-06-26 05:40:04;3.86;107.31
2022-06-26 05:41:05;3.86;107.31
2022-06-26 05:42:05;3.87;106.99
2022-06-26 05:43:06;3.86;107.31
2022-06-26 05:44:02;3.86;107.31
2022-06-26 05:45:02;3.87;107.31
2022-06-26 05:46:03;3.86;107.31
2022-06-26 05:47:04;3.86;107.31
2022-06-26 05:48:04;3.87;107.31
2022-06-26 05:49:05;3.87;107.31
2022-06-26 05:50:05;3.86;107.31
2022-06-26 05:51:02;3.86;107.31
2022-06-26 05:52:02;3.86;107.31
2022-06-26 05:53:03;3.87;107.31
2022-06-26 05:54:03;3.87;107.31
2022-06-26 05:55:04;3.86;107.31
2022-06-26 05:56:05;3.86;106.99
2022-06-26 05:57:05;3.86;107.31
2022-06-26 05:58:06;3.86;107.31
2022-06-26 05:59:02;3.86;107.31
2022-06-26 06:00:03;3.86;107.31
2022-06-26 06:01:03;3.86;107.31
2022-06-26 06:02:04;3.86;106.99
2022-06-26 06:03:04;3.86;107.31
2022-06-26 06:04:05;3.87;107.31
2022-06-26 06:05:06;3.86;107.31
2022-06-26 06:06:02;3.86;107.31
2022-06-26 06:07:02;3.86;107.31
2022-06-26 06:08:03;3.86;107.31
2022-06-26 06:09:04;3.86;107.31
2022-06-26 06:10:04;3.86;106.99
2022-06-26 06:11:05;3.86;107.31
2022-06-26 06:12:05;3.86;107.31
2022-06-26 06:13:01;3.86;107.31
2022-06-26 06:14:02;3.86;107.31
2022-06-26 06:15:03;3.86;107.31
2022-06-26 06:16:03;3.86;107.31
2022-06-26 06:17:04;3.86;107.31
2022-06-26 06:18:05;3.86;107.31
2022-06-26 06:19:05;3.86;107.31
2022-06-26 06:20:01;3.86;107.31
2022-06-26 06:21:02;3.86;106.99
2022-06-26 06:22:03;3.86;107.31
2022-06-26 06:23:03;3.86;106.99
2022-06-26 06:24:04;3.86;107.31
2022-06-26 06:25:04;3.86;107.31
2022-06-26 06:26:05;3.86;107.31
2022-06-26 06:27:06;3.86;107.31
2022-06-26 06:28:02;3.86;107.31
2022-06-26 06:29:02;3.86;107.47
2022-06-26 06:30:03;3.86;107.31
2022-06-26 06:31:03;3.86;107.31
2022-06-26 06:32:04;3.86;107.31
2022-06-26 06:33:05;3.86;106.99
2022-06-26 06:34:05;3.86;107.47
2022-06-26 06:35:06;3.86;106.99
2022-06-26 06:36:02;3.86;107.31
2022-06-26 06:37:03;3.86;107.47
2022-06-26 06:38:03;3.86;107.31
2022-06-26 06:39:04;3.86;107.47
2022-06-26 06:40:04;3.86;107.31
2022-06-26 06:41:05;3.86;107.31
2022-06-26 06:42:06;3.86;107.31
2022-06-26 06:43:02;3.86;107.31
2022-06-26 06:44:02;3.86;107.31
2022-06-26 06:45:03;3.86;107.31
2022-06-26 06:46:04;3.86;107.31
2022-06-26 06:47:04;3.86;106.99
2022-06-26 06:48:05;3.86;107.31
2022-06-26 06:49:05;3.86;107.31
2022-06-26 06:50:06;3.86;107.31
2022-06-26 06:51:02;3.86;107.31
2022-06-26 06:52:03;3.86;107.31
2022-06-26 06:53:03;3.86;107.47
2022-06-26 06:54:04;3.86;107.31
2022-06-26 06:55:04;3.86;107.31
2022-06-26 06:56:05;3.86;107.31
2022-06-26 06:57:06;3.86;107.31
2022-06-26 06:58:02;3.86;107.31
2022-06-26 06:59:02;3.86;107.31
2022-06-26 07:00:03;3.86;107.31
2022-06-26 07:01:04;3.86;107.31
2022-06-26 07:02:04;3.86;107.31
2022-06-26 07:03:05;3.86;107.31
2022-06-26 07:04:05;3.86;107.31
2022-06-26 07:05:01;3.86;107.31
2022-06-26 07:06:02;3.86;107.31
2022-06-26 07:07:03;3.86;107.31
2022-06-26 07:08:03;3.86;107.31
2022-06-26 07:09:04;3.86;107.47
2022-06-26 07:10:04;3.86;107.31
2022-06-26 07:11:05;3.86;107.47
2022-06-26 07:12:06;3.86;107.47
2022-06-26 07:13:02;3.86;107.47
2022-06-26 07:14:02;3.86;107.31
2022-06-26 07:15:03;3.86;106.99
2022-06-26 07:16:04;3.86;107.31
2022-06-26 07:17:04;3.86;107.31
2022-06-26 07:18:05;3.86;107.47
2022-06-26 07:19:05;3.86;107.31
2022-06-26 07:20:02;3.86;107.31
2022-06-26 07:21:02;3.86;107.31
2022-06-26 07:22:03;3.86;107.47
2022-06-26 07:23:03;3.86;106.99
2022-06-26 07:24:04;3.86;107.47
2022-06-26 07:25:05;3.86;107.31
2022-06-26 07:26:05;3.86;107.47
2022-06-26 07:27:06;3.86;107.31
2022-06-26 07:28:02;3.86;107.31
2022-06-26 07:29:03;3.86;107.31
2022-06-26 07:30:03;3.86;106.99
2022-06-26 07:31:04;3.86;107.47
2022-06-26 07:32:04;3.86;107.31
2022-06-26 07:33:05;3.86;107.31
2022-06-26 07:34:06;3.86;107.31
2022-06-26 07:35:02;3.86;107.31
2022-06-26 07:36:02;3.86;107.31
2022-06-26 07:37:03;3.86;107.31
2022-06-26 07:38:04;3.86;107.31
2022-06-26 07:39:04;3.86;107.31
2022-06-26 07:40:05;3.86;107.31
2022-06-26 07:41:05;3.86;107.31
2022-06-26 07:42:01;3.86;107.31
2022-06-26 07:43:02;3.86;106.99
2022-06-26 07:44:03;3.86;107.31
2022-06-26 07:45:03;3.86;107.31
2022-06-26 07:46:04;3.86;107.31
2022-06-26 07:47:05;3.86;107.31
2022-06-26 07:48:05;3.86;107.31
2022-06-26 07:49:06;3.86;107.31
2022-06-26 07:50:02;3.86;107.31
2022-06-26 07:51:03;3.86;107.31
2022-06-26 07:52:03;3.86;107.31
2022-06-26 07:53:04;3.86;107.47
2022-06-26 07:54:04;3.86;107.31
2022-06-26 07:55:05;3.86;107.47
2022-06-26 07:56:06;3.86;107.31
2022-06-26 07:57:02;3.86;107.31
2022-06-26 07:58:02;3.86;107.31
2022-06-26 07:59:03;3.86;107.31
2022-06-26 08:00:04;3.86;107.31
2022-06-26 08:01:04;3.86;107.47
2022-06-26 08:02:05;3.86;107.31
2022-06-26 08:03:05;3.86;107.31
2022-06-26 08:04:02;3.86;107.47
2022-06-26 08:05:02;3.86;107.31
2022-06-26 08:06:03;3.86;107.31
2022-06-26 08:07:03;3.86;107.31
2022-06-26 08:08:04;3.86;107.47
2022-06-26 08:09:05;3.86;107.47
2022-06-26 08:10:05;3.86;107.31
2022-06-26 08:11:06;3.86;107.31
2022-06-26 08:12:02;3.86;107.31
2022-06-26 08:13:03;3.86;107.31
2022-06-26 08:14:03;3.86;107.31
2022-06-26 08:15:04;3.86;107.47
2022-06-26 08:16:04;3.86;107.31
2022-06-26 08:17:05;3.86;107.31
2022-06-26 08:18:06;3.86;107.31
2022-06-26 08:19:02;3.86;107.47
2022-06-26 08:20:02;3.86;107.31
2022-06-26 08:21:03;3.86;107.31
2022-06-26 08:22:04;3.86;107.31
2022-06-26 08:23:04;3.86;107.31
2022-06-26 08:24:05;3.86;107.31
2022-06-26 08:25:05;3.86;107.47
2022-06-26 08:26:02;3.86;107.31
2022-06-26 08:27:02;3.86;107.47
2022-06-26 08:28:03;3.86;107.47
2022-06-26 08:29:03;3.86;107.31
2022-06-26 08:30:04;3.86;107.31
2022-06-26 08:31:05;3.86;106.99
2022-06-26 08:32:05;3.86;107.31
2022-06-26 08:33:06;3.86;107.31
2022-06-26 08:34:02;3.86;107.31
2022-06-26 08:35:03;3.86;107.31
2022-06-26 08:36:03;3.86;107.31
2022-06-26 08:37:04;3.86;107.47
2022-06-26 08:38:04;3.86;107.31
2022-06-26 08:39:05;3.86;107.31
2022-06-26 08:40:06;3.86;107.31
2022-06-26 08:41:02;3.86;107.47
2022-06-26 08:42:02;3.86;107.31
2022-06-26 08:43:03;3.86;107.47
2022-06-26 08:44:04;3.86;107.31
2022-06-26 08:45:04;3.86;107.31
2022-06-26 08:46:05;3.86;107.47
2022-06-26 08:47:06;3.86;107.31
2022-06-26 08:48:02;3.86;107.31
2022-06-26 08:49:02;3.86;107.47
2022-06-26 08:50:03;3.86;107.47
2022-06-26 08:51:04;3.86;107.31
2022-06-26 08:52:04;3.86;107.47
2022-06-26 08:53:05;3.86;107.31
2022-06-26 08:54:05;3.86;107.47
2022-06-26 08:55:02;3.86;107.31
2022-06-26 08:56:02;3.86;107.31
2022-06-26 08:57:03;3.86;107.31
2022-06-26 08:58:03;3.86;107.31
2022-06-26 08:59:04;3.86;107.31
2022-06-26 09:00:05;3.86;107.31
2022-06-26 09:01:05;3.86;107.31
2022-06-26 09:02:01;3.86;107.31
2022-06-26 09:03:02;3.86;107.31
2022-06-26 09:04:03;3.86;107.31
2022-06-26 09:05:03;3.86;107.31
2022-06-26 09:06:04;3.86;107.31
2022-06-26 09:07:05;3.86;107.31
2022-06-26 09:08:05;3.86;106.99
2022-06-26 09:09:02;3.86;107.31
2022-06-26 09:10:02;3.86;107.31
2022-06-26 09:11:03;3.86;107.47
2022-06-26 09:12:03;3.86;107.31
2022-06-26 09:13:04;3.86;107.31
2022-06-26 09:14:05;3.86;107.31
2022-06-26 09:15:05;3.86;106.99
2022-06-26 09:16:06;3.86;107.47
2022-06-26 09:17:02;3.86;107.31
2022-06-26 09:18:03;3.86;107.31
2022-06-26 09:19:03;3.86;107.31
2022-06-26 09:20:04;3.86;107.47
2022-06-26 09:21:05;3.86;107.47
2022-06-26 09:22:05;3.86;107.31
2022-06-26 09:23:06;3.86;107.31
2022-06-26 09:24:02;3.86;107.31
2022-06-26 09:25:03;3.86;107.31
2022-06-26 09:26:03;3.86;107.47
2022-06-26 09:27:04;3.86;107.47
2022-06-26 09:28:04;3.86;107.47
2022-06-26 09:29:05;3.86;107.31
2022-06-26 09:30:06;3.86;107.47
2022-06-26 09:31:02;3.86;107.47
2022-06-26 09:32:02;3.86;107.47
2022-06-26 09:33:03;3.86;107.31
2022-06-26 09:34:04;3.86;107.47
2022-06-26 09:35:04;3.86;107.47
2022-06-26 09:36:05;3.86;107.47
2022-06-26 09:37:05;3.86;107.31
2022-06-26 09:38:01;3.86;107.31
2022-06-26 09:39:02;3.86;107.47
2022-06-26 09:40:03;3.86;107.31
2022-06-26 09:41:03;3.86;107.31
2022-06-26 09:42:04;3.86;107.31
2022-06-26 09:43:04;3.86;107.31
2022-06-26 09:44:05;3.86;107.31
2022-06-26 09:45:06;3.86;107.31
2022-06-26 09:46:02;3.86;107.31
2022-06-26 09:47:02;3.86;107.31
2022-06-26 09:48:03;3.86;107.47
2022-06-26 09:49:04;3.86;107.31
2022-06-26 09:50:04;3.86;107.47
2022-06-26 09:51:05;3.86;107.47
2022-06-26 09:52:05;3.86;107.47
2022-06-26 09:53:02;3.86;107.47
2022-06-26 09:54:02;3.85;107.31
2022-06-26 09:55:03;3.86;106.99
2022-06-26 09:56:03;3.86;107.31
2022-06-26 09:57:04;3.86;107.47
2022-06-26 09:58:05;3.86;107.47
2022-06-26 09:59:05;3.86;107.47
2022-06-26 10:00:06;3.86;107.31
2022-06-26 10:01:02;3.86;107.31
2022-06-26 10:02:03;3.86;107.47
2022-06-26 10:03:03;3.86;107.31
2022-06-26 10:04:04;3.86;107.31
2022-06-26 10:05:04;3.86;107.31
2022-06-26 10:06:05;3.86;107.31
2022-06-26 10:07:06;3.86;107.47
2022-06-26 10:08:02;3.86;107.47
2022-06-26 10:09:02;3.86;107.31
2022-06-26 10:10:03;3.86;107.31
2022-06-26 10:11:04;3.86;107.31
2022-06-26 10:12:04;3.86;107.31
2022-06-26 10:13:05;3.86;107.47
2022-06-26 10:14:06;3.86;107.47
2022-06-26 10:15:02;3.86;107.31
2022-06-26 10:16:02;3.86;107.31
2022-06-26 10:17:03;3.86;107.31
2022-06-26 10:18:04;3.86;107.47
2022-06-26 10:19:04;3.86;107.31
2022-06-26 10:20:05;3.86;107.31
2022-06-26 10:21:05;3.85;107.47
2022-06-26 10:22:02;3.86;107.47
2022-06-26 10:23:02;3.85;107.47
2022-06-26 10:24:03;3.86;107.31
2022-06-26 10:25:03;3.86;107.31
2022-06-26 10:26:04;3.85;107.47
2022-06-26 10:27:05;3.85;107.31
2022-06-26 10:28:05;3.85;107.47
2022-06-26 10:29:06;3.85;106.99
2022-06-26 10:30:02;3.85;107.47
2022-06-26 10:31:03;3.86;107.47
2022-06-26 10:32:03;3.86;107.47
2022-06-26 10:33:04;3.86;107.47
2022-06-26 10:34:05;3.85;107.47
2022-06-26 10:35:05;3.85;107.47
2022-06-26 10:36:06;3.85;107.47
2022-06-26 10:37:02;3.86;107.31
2022-06-26 10:38:03;3.85;107.47
2022-06-26 10:39:03;3.85;107.47
2022-06-26 10:40:04;3.85;106.99
2022-06-26 10:41:04;3.85;107.31
2022-06-26 10:42:05;3.85;107.31
2022-06-26 10:43:06;3.85;107.47
2022-06-26 10:44:02;3.86;107.31
2022-06-26 10:45:02;3.85;107.47
2022-06-26 10:46:03;3.85;107.31
2022-06-26 10:47:04;3.85;107.47
2022-06-26 10:48:04;3.85;107.47
2022-06-26 10:49:05;3.85;107.47
2022-06-26 10:50:06;3.85;107.47
2022-06-26 10:51:02;3.85;107.31
2022-06-26 10:52:03;3.85;107.47
2022-06-26 10:53:03;3.85;107.47
2022-06-26 10:54:04;3.86;107.31
2022-06-26 10:55:04;3.85;107.31
2022-06-26 10:56:05;3.86;107.47
2022-06-26 10:57:06;3.85;107.47
2022-06-26 10:58:02;3.85;107.47
2022-06-26 10:59:02;3.85;107.31
2022-06-26 11:00:03;3.85;107.31
2022-06-26 11:01:04;3.85;107.31
2022-06-26 11:02:04;3.85;107.47
2022-06-26 11:03:05;3.85;107.31
2022-06-26 11:04:05;3.85;107.47
2022-06-26 11:05:02;3.85;107.47
2022-06-26 11:06:02;3.85;107.47
2022-06-26 11:07:03;3.85;107.31
2022-06-26 11:08:03;3.85;107.31
2022-06-26 11:09:04;3.85;107.47
2022-06-26 11:10:05;3.85;107.47
2022-06-26 11:11:05;3.85;107.47
2022-06-26 11:12:06;3.85;107.47
2022-06-26 11:13:02;3.85;107.31
2022-06-26 11:14:03;3.85;107.47
2022-06-26 11:15:03;3.85;107.47
2022-06-26 11:16:04;3.85;107.47
2022-06-26 11:17:05;3.85;107.47
2022-06-26 11:18:05;3.85;107.47
2022-06-26 11:19:06;3.85;107.47
2022-06-26 11:20:02;3.85;107.47
2022-06-26 11:21:03;3.85;107.47
2022-06-26 11:22:03;3.85;107.47
2022-06-26 11:23:04;3.85;107.47
2022-06-26 11:24:04;3.85;107.47
2022-06-26 11:25:05;3.85;107.47
2022-06-26 11:26:06;3.85;107.47
2022-06-26 11:27:02;3.85;107.47
2022-06-26 11:28:02;3.85;107.47
2022-06-26 11:29:03;3.85;107.47
2022-06-26 11:30:04;3.85;107.47
2022-06-26 11:31:04;3.85;107.47
2022-06-26 11:32:05;3.85;107.31
2022-06-26 11:33:06;3.85;107.47
2022-06-26 11:34:02;3.85;107.31
2022-06-26 11:35:02;3.85;107.31
2022-06-26 11:36:03;3.85;107.47
2022-06-26 11:37:04;3.85;107.47
2022-06-26 11:38:04;3.85;107.47
2022-06-26 11:39:05;3.85;107.47
2022-06-26 11:40:06;3.85;107.47
2022-06-26 11:41:02;3.85;107.47
2022-06-26 11:42:02;3.85;107.47
2022-06-26 11:43:03;3.85;107.47
2022-06-26 11:44:04;3.85;107.47
2022-06-26 11:45:04;3.85;107.47
2022-06-26 11:46:05;3.85;107.47
2022-06-26 11:47:05;3.85;107.31
2022-06-26 11:48:02;3.85;107.47
2022-06-26 11:49:02;3.85;107.47
2022-06-26 11:50:03;3.85;107.47
2022-06-26 11:51:04;3.85;107.47
2022-06-26 11:52:04;3.85;107.31
2022-06-26 11:53:05;3.85;107.47
2022-06-26 11:54:05;3.85;107.47
2022-06-26 11:55:02;3.85;107.47
2022-06-26 11:56:02;3.85;107.47
2022-06-26 11:57:03;3.85;107.47
2022-06-26 11:58:04;3.85;107.47
2022-06-26 11:59:04;3.85;107.47
2022-06-26 12:00:05;3.85;107.47
2022-06-26 12:01:06;3.85;107.47
2022-06-26 12:02:02;3.85;107.47
2022-06-26 12:03:02;3.85;107.47
2022-06-26 12:04:03;3.85;107.47
2022-06-26 12:05:04;3.85;107.47
2022-06-26 12:06:04;3.85;107.47
2022-06-26 12:07:05;3.85;107.31
2022-06-26 12:08:06;3.85;107.47
2022-06-26 12:09:02;3.85;107.47
2022-06-26 12:10:02;3.85;107.47
2022-06-26 12:11:03;3.85;107.79
2022-06-26 12:12:04;3.85;107.47
2022-06-26 12:13:04;3.85;107.47
2022-06-26 12:14:05;3.85;107.47
2022-06-26 12:15:06;3.85;107.47
2022-06-26 12:16:02;3.85;107.47
2022-06-26 12:17:02;3.85;107.47
2022-06-26 12:18:03;3.85;107.47
2022-06-26 12:19:04;3.85;107.31
2022-06-26 12:20:05;3.85;107.47
2022-06-26 12:21:05;3.85;107.31
2022-06-26 12:22:01;3.85;107.31
2022-06-26 12:23:02;3.85;107.47
2022-06-26 12:24:03;3.85;107.79
2022-06-26 12:25:03;3.85;107.47
2022-06-26 12:26:04;3.85;107.47
2022-06-26 12:27:05;3.85;107.47
2022-06-26 12:28:05;3.85;107.47
2022-06-26 12:29:02;3.85;107.47
2022-06-26 12:30:02;3.85;107.47
2022-06-26 12:31:03;3.85;107.47
2022-06-26 12:32:03;3.85;107.31
2022-06-26 12:33:04;3.85;107.47
2022-06-26 12:34:05;3.85;107.47
2022-06-26 12:35:05;3.85;107.79
2022-06-26 12:36:02;3.85;107.79
2022-06-26 12:37:02;3.85;107.79
2022-06-26 12:38:03;3.85;107.79
2022-06-26 12:39:04;3.85;107.47
2022-06-26 12:40:04;3.85;107.79
2022-06-26 12:41:05;3.85;107.79
2022-06-26 12:42:06;3.85;107.79
2022-06-26 12:43:02;3.85;107.79
2022-06-26 12:44:02;3.85;107.79
2022-06-26 12:45:03;3.85;107.79
2022-06-26 12:46:04;3.85;107.79
2022-06-26 12:47:04;3.85;107.79
2022-06-26 12:48:05;3.85;107.79
2022-06-26 12:49:06;3.85;107.79
2022-06-26 12:50:02;3.85;108.11
2022-06-26 12:51:03;3.85;107.47
2022-06-26 12:52:03;3.85;107.79
2022-06-26 12:53:04;3.85;107.79
2022-06-26 12:54:05;3.85;107.79
2022-06-26 12:55:05;3.85;107.79
2022-06-26 12:56:06;3.85;107.79
2022-06-26 12:57:02;3.85;107.79
2022-06-26 12:58:03;3.85;107.79
2022-06-26 12:59:04;3.85;107.47
2022-06-26 13:00:04;3.85;107.79
2022-06-26 13:01:05;3.85;107.79
2022-06-26 13:02:06;3.85;107.79
2022-06-26 13:03:02;3.85;107.79
2022-06-26 13:04:02;3.85;107.47
2022-06-26 13:05:03;3.85;107.79
2022-06-26 13:06:04;3.85;108.11
2022-06-26 13:07:04;3.85;108.11
2022-06-26 13:08:05;3.85;107.79
2022-06-26 13:09:06;3.85;108.11
2022-06-26 13:10:02;3.85;108.11
2022-06-26 13:11:03;3.85;108.11
2022-06-26 13:12:03;3.85;107.79
2022-06-26 13:13:04;3.85;108.11
2022-06-26 13:14:05;3.85;108.11
2022-06-26 13:15:06;3.85;108.11
2022-06-26 13:16:02;3.85;108.11
2022-06-26 13:17:02;3.85;107.79
2022-06-26 13:18:03;3.85;107.79
2022-06-26 13:19:04;3.85;108.11
2022-06-26 13:20:04;3.85;107.79
2022-06-26 13:21:05;3.85;108.11
2022-06-26 13:22:06;3.85;108.11
2022-06-26 13:23:02;3.85;107.79
2022-06-26 13:24:03;3.85;108.11
2022-06-26 13:25:03;3.85;108.11
2022-06-26 13:26:04;3.85;107.79
2022-06-26 13:27:05;3.85;108.11
2022-06-26 13:28:05;3.85;108.11
2022-06-26 13:29:06;3.85;108.11
2022-06-26 13:30:02;3.85;108.11
2022-06-26 13:31:03;3.85;107.79
2022-06-26 13:32:03;3.85;108.11
2022-06-26 13:33:04;3.85;108.11
2022-06-26 13:34:05;3.85;108.11
2022-06-26 13:35:05;3.85;108.11
2022-06-26 13:36:02;3.85;108.11
2022-06-26 13:37:02;3.85;108.11
2022-06-26 13:38:03;3.85;107.79
2022-06-26 13:39:04;3.85;108.11
2022-06-26 13:40:04;3.85;108.11
2022-06-26 13:41:05;3.85;108.11
2022-06-26 13:42:06;3.85;108.11
2022-06-26 13:43:02;3.85;108.11
2022-06-26 13:44:02;3.85;108.11
2022-06-26 13:45:03;3.85;107.79
2022-06-26 13:46:04;3.85;108.11
2022-06-26 13:47:04;3.85;108.11
2022-06-26 13:48:05;3.85;107.79
2022-06-26 13:49:06;3.85;107.79
2022-06-26 13:50:02;3.85;108.11
2022-06-26 13:51:03;3.85;108.11
2022-06-26 13:52:03;3.85;108.11
2022-06-26 13:53:04;3.85;107.79
2022-06-26 13:54:05;3.85;108.11
2022-06-26 13:55:05;3.85;108.11
2022-06-26 13:56:02;3.85;108.11
2022-06-26 13:57:02;3.85;108.11
2022-06-26 13:58:03;3.85;107.79
2022-06-26 13:59:04;3.85;107.79
2022-06-26 14:00:04;3.85;108.11
2022-06-26 14:01:05;3.85;108.11
2022-06-26 14:02:06;3.85;107.79
2022-06-26 14:03:02;3.85;108.11
2022-06-26 14:04:02;3.85;107.79
2022-06-26 14:05:03;3.85;107.79
2022-06-26 14:06:04;3.85;108.11
2022-06-26 14:07:04;3.85;108.11
2022-06-26 14:08:05;3.85;107.79
2022-06-26 14:09:06;3.85;108.11
2022-06-26 14:10:02;3.85;108.11
2022-06-26 14:11:02;3.85;108.11
2022-06-26 14:12:03;3.85;108.11
2022-06-26 14:13:04;3.85;108.11
2022-06-26 14:14:04;3.85;108.11
2022-06-26 14:15:05;3.85;107.79
2022-06-26 14:16:06;3.85;108.11
2022-06-26 14:17:02;3.85;108.11
2022-06-26 14:18:03;3.85;108.11
2022-06-26 14:19:03;3.85;108.11
2022-06-26 14:20:04;3.85;107.79
2022-06-26 14:21:05;3.85;107.79
2022-06-26 14:22:05;3.85;107.79
2022-06-26 14:23:06;3.85;107.79
2022-06-26 14:24:02;3.85;107.79
2022-06-26 14:25:03;3.85;107.47
2022-06-26 14:26:03;3.85;107.79
2022-06-26 14:27:04;3.85;107.79
2022-06-26 14:28:05;3.85;107.79
2022-06-26 14:29:05;3.85;107.47
2022-06-26 14:30:02;3.85;107.79
2022-06-26 14:31:02;3.85;107.79
2022-06-26 14:32:03;3.85;107.47
2022-06-26 14:33:04;3.85;107.79
2022-06-26 14:34:04;3.85;107.79
2022-06-26 14:35:05;3.85;107.31
2022-06-26 14:36:06;3.85;107.79
2022-06-26 14:37:02;3.85;107.79
2022-06-26 14:38:02;3.85;107.79
2022-06-26 14:39:03;3.85;107.79
2022-06-26 14:40:04;3.85;107.79
2022-06-26 14:41:04;3.85;107.79
2022-06-26 14:42:05;3.85;107.79
2022-06-26 14:43:06;3.85;107.79
2022-06-26 14:44:02;3.85;107.79
2022-06-26 14:45:03;3.85;107.47
2022-06-26 14:46:03;3.84;107.79
2022-06-26 14:47:04;3.84;107.79
2022-06-26 14:48:05;3.85;107.79
2022-06-26 14:49:05;3.84;107.47
2022-06-26 14:50:06;3.85;107.79
2022-06-26 14:51:02;3.85;107.79
2022-06-26 14:52:03;3.84;107.79
2022-06-26 14:53:03;3.85;107.79
2022-06-26 14:54:04;3.85;107.79
2022-06-26 14:55:05;3.85;107.79
2022-06-26 14:56:05;3.85;107.79
2022-06-26 14:57:02;3.85;107.79
2022-06-26 14:58:02;3.85;107.79
2022-06-26 14:59:03;3.84;107.79
2022-06-26 15:00:03;3.85;107.79
2022-06-26 15:01:04;3.84;107.79
2022-06-26 15:02:05;3.84;107.79
2022-06-26 15:03:05;3.85;107.79
2022-06-26 15:04:02;3.85;107.79
2022-06-26 15:05:02;3.85;107.79
2022-06-26 15:06:03;3.85;107.79
2022-06-26 15:07:04;3.85;107.79
2022-06-26 15:08:04;3.85;107.47
2022-06-26 15:09:05;3.84;107.79
2022-06-26 15:10:06;3.85;107.79
2022-06-26 15:11:02;3.84;107.79
2022-06-26 15:12:02;3.85;107.79
2022-06-26 15:13:03;3.84;107.79
2022-06-26 15:14:04;3.85;107.79
2022-06-26 15:15:04;3.84;107.79
2022-06-26 15:16:05;3.85;107.79
2022-06-26 15:17:06;3.84;107.79
2022-06-26 15:18:02;3.85;107.79
2022-06-26 15:19:03;3.84;107.79
2022-06-26 15:20:03;3.84;107.79
2022-06-26 15:21:04;3.85;107.79
2022-06-26 15:22:05;3.84;107.79
2022-06-26 15:23:05;3.84;107.79
2022-06-26 15:24:02;3.85;107.79
2022-06-26 15:25:02;3.84;107.79
2022-06-26 15:26:03;3.84;107.79
2022-06-26 15:27:04;3.84;107.79
2022-06-26 15:28:04;3.85;107.79
2022-06-26 15:29:05;3.84;107.79
2022-06-26 15:30:05;3.84;107.47
2022-06-26 15:31:02;3.84;107.79
2022-06-26 15:32:02;3.84;107.79
2022-06-26 15:33:03;3.84;107.79
2022-06-26 15:34:04;3.84;107.79
2022-06-26 15:35:04;3.84;107.47
2022-06-26 15:36:05;3.84;107.79
2022-06-26 15:37:06;3.84;107.79
2022-06-26 15:38:02;3.84;107.79
2022-06-26 15:39:02;3.84;108.11
2022-06-26 15:40:03;3.85;107.79
2022-06-26 15:41:04;3.84;107.79
2022-06-26 15:42:04;3.84;107.79
2022-06-26 15:43:05;3.84;107.79
2022-06-26 15:44:06;3.84;107.79
2022-06-26 15:45:02;3.84;107.79
2022-06-26 15:46:02;3.84;107.79
2022-06-26 15:47:03;3.84;107.79
2022-06-26 15:48:04;3.84;107.79
2022-06-26 15:49:04;3.84;107.47
2022-06-26 15:50:05;3.84;107.79
2022-06-26 15:51:06;3.84;107.79
2022-06-26 15:52:02;3.84;107.79
2022-06-26 15:53:02;3.84;107.47
2022-06-26 15:54:03;3.84;107.79
2022-06-26 15:55:04;3.84;107.79
2022-06-26 15:56:04;3.84;107.79
2022-06-26 15:57:05;3.84;108.11
2022-06-26 15:58:06;3.84;107.79
2022-06-26 15:59:02;3.84;107.79
2022-06-26 16:00:03;3.84;107.79
2022-06-26 16:01:03;3.84;107.47
2022-06-26 16:02:04;3.84;107.79
2022-06-26 16:03:04;3.84;107.79
2022-06-26 16:04:05;3.84;107.79
2022-06-26 16:05:06;3.84;107.79
2022-06-26 16:06:02;3.84;107.79
2022-06-26 16:07:03;3.84;107.79
2022-06-26 16:08:03;3.84;107.79
2022-06-26 16:09:04;3.84;107.79
2022-06-26 16:10:05;3.84;107.47
2022-06-26 16:11:05;3.84;108.11
2022-06-26 16:12:06;3.84;108.11
2022-06-26 16:13:02;3.84;107.79
2022-06-26 16:14:03;3.84;107.79
2022-06-26 16:15:03;3.84;107.79
2022-06-26 16:16:04;3.84;107.79
2022-06-26 16:17:05;3.84;107.79
2022-06-26 16:18:05;3.84;107.47
2022-06-26 16:19:06;3.84;107.79
2022-06-26 16:20:02;3.84;107.79
2022-06-26 16:21:03;3.84;107.79
2022-06-26 16:22:03;3.84;107.79
2022-06-26 16:23:04;3.84;107.79
2022-06-26 16:24:05;3.84;108.11
2022-06-26 16:25:05;3.84;107.79
2022-06-26 16:26:06;3.84;107.47
2022-06-26 16:27:02;3.84;107.79
2022-06-26 16:28:03;3.84;107.79
2022-06-26 16:29:03;3.84;107.79
2022-06-26 16:30:04;3.84;107.79
2022-06-26 16:31:05;3.84;107.79
2022-06-26 16:32:05;3.84;107.79
2022-06-26 16:33:02;3.84;107.79
2022-06-26 16:34:02;3.84;107.79
2022-06-26 16:35:03;3.84;108.11
2022-06-26 16:36:04;3.84;107.79
2022-06-26 16:37:04;3.84;107.79
2022-06-26 16:38:05;3.84;107.79
2022-06-26 16:39:06;3.84;107.79
2022-06-26 16:40:02;3.84;107.79
2022-06-26 16:41:02;3.84;107.79
2022-06-26 16:42:03;3.84;107.79
2022-06-26 16:43:04;3.84;108.11
2022-06-26 16:44:04;3.84;107.79
2022-06-26 16:45:05;3.84;107.79
2022-06-26 16:46:06;3.84;107.79
2022-06-26 16:47:02;3.84;107.79
2022-06-26 16:48:03;3.84;107.47
2022-06-26 16:49:03;3.84;107.79
2022-06-26 16:50:04;3.84;108.11
2022-06-26 16:51:05;3.84;107.79
2022-06-26 16:52:05;3.84;107.47
2022-06-26 16:53:02;3.84;107.79
2022-06-26 16:54:02;3.84;107.79
2022-06-26 16:55:03;3.84;108.11
2022-06-26 16:56:03;3.84;107.79
2022-06-26 16:57:04;3.84;107.47
2022-06-26 16:58:05;3.84;107.79
2022-06-26 16:59:05;3.84;107.79
2022-06-26 17:00:02;3.84;107.79
2022-06-26 17:01:02;3.84;107.79
2022-06-26 17:02:03;3.84;107.79
2022-06-26 17:03:03;3.84;107.79
2022-06-26 17:04:04;3.84;107.79
2022-06-26 17:05:05;3.84;107.79
2022-06-26 17:06:05;3.84;107.79
2022-06-26 17:07:02;3.84;107.79
2022-06-26 17:08:02;3.84;107.79
2022-06-26 17:09:03;3.84;107.79
2022-06-26 17:10:04;3.84;107.79
2022-06-26 17:11:04;3.84;107.79
2022-06-26 17:12:05;3.84;107.79
2022-06-26 17:13:06;3.84;107.79
2022-06-26 17:14:02;3.84;107.79
2022-06-26 17:15:02;3.84;107.79
2022-06-26 17:16:03;3.84;107.79
2022-06-26 17:17:04;3.84;107.79
2022-06-26 17:18:04;3.84;107.79
2022-06-26 17:19:05;3.84;107.79
2022-06-26 17:20:06;3.84;108.11
2022-06-26 17:21:02;3.84;107.79
2022-06-26 17:22:02;3.84;107.47
2022-06-26 17:23:03;3.84;107.79
2022-06-26 17:24:04;3.84;108.11
2022-06-26 17:25:05;3.84;107.79
2022-06-26 17:26:05;3.84;107.79
2022-06-26 17:27:06;3.84;107.79
2022-06-26 17:28:02;3.84;107.79
2022-06-26 17:29:03;3.84;107.79
2022-06-26 17:30:03;3.84;107.47
2022-06-26 17:31:04;3.84;107.79
2022-06-26 17:32:05;3.84;107.79
2022-06-26 17:33:05;3.84;107.79
2022-06-26 17:34:06;3.84;108.11
2022-06-26 17:35:02;3.84;107.79
2022-06-26 17:36:03;3.84;107.79
2022-06-26 17:37:03;3.84;108.11
2022-06-26 17:38:04;3.84;107.79
2022-06-26 17:39:05;3.84;107.79
2022-06-26 17:40:05;3.84;107.79
2022-06-26 17:41:06;3.84;107.79
2022-06-26 17:42:02;3.84;107.79
2022-06-26 17:43:03;3.84;108.11
2022-06-26 17:44:03;3.84;108.11
2022-06-26 17:45:04;3.84;107.79
2022-06-26 17:46:05;3.84;108.11
2022-06-26 17:47:05;3.84;108.11
2022-06-26 17:48:06;3.84;107.79
2022-06-26 17:49:02;3.84;107.79
2022-06-26 17:50:03;3.84;107.79
2022-06-26 17:51:03;3.84;108.11
2022-06-26 17:52:04;3.84;107.79
2022-06-26 17:53:05;3.84;108.11
2022-06-26 17:54:05;3.84;107.79
2022-06-26 17:55:06;3.84;107.79
2022-06-26 17:56:02;3.84;107.79
2022-06-26 17:57:03;3.84;107.79
2022-06-26 17:58:03;3.84;108.11
2022-06-26 17:59:04;3.84;107.79
2022-06-26 18:00:05;3.84;108.11
2022-06-26 18:01:05;3.84;108.11
2022-06-26 18:02:06;3.84;107.79
2022-06-26 18:03:02;3.84;107.79
2022-06-26 18:04:03;3.84;108.11
2022-06-26 18:05:03;3.84;107.79
2022-06-26 18:06:04;3.84;108.11
2022-06-26 18:07:05;3.84;108.11
2022-06-26 18:08:05;3.84;108.11
2022-06-26 18:09:06;3.84;107.79
2022-06-26 18:10:02;3.84;107.79
2022-06-26 18:11:03;3.84;107.79
2022-06-26 18:12:03;3.84;107.79
2022-06-26 18:13:04;3.84;107.79
2022-06-26 18:14:05;3.84;107.47
2022-06-26 18:15:05;3.84;107.79
2022-06-26 18:16:06;3.84;107.79
2022-06-26 18:17:02;3.84;107.79
2022-06-26 18:18:03;3.84;107.79
2022-06-26 18:19:03;3.84;108.11
2022-06-26 18:20:04;3.84;108.11
2022-06-26 18:21:05;3.84;108.11
2022-06-26 18:22:05;3.84;108.11
2022-06-26 18:23:01;3.84;108.11
2022-06-26 18:24:02;3.84;107.79
2022-06-26 18:25:03;3.84;107.79
2022-06-26 18:26:03;3.84;107.79
2022-06-26 18:27:04;3.84;108.11
2022-06-26 18:28:05;3.84;107.79
2022-06-26 18:29:05;3.84;107.79
2022-06-26 18:30:06;3.84;108.11
2022-06-26 18:31:02;3.84;108.11
2022-06-26 18:32:03;3.84;107.79
2022-06-26 18:33:03;3.84;107.79
2022-06-26 18:34:04;3.84;108.11
2022-06-26 18:35:04;3.84;108.11
2022-06-26 18:36:05;3.84;107.79
2022-06-26 18:37:06;3.84;108.11
2022-06-26 18:38:02;3.84;107.47
2022-06-26 18:39:02;3.84;107.79
2022-06-26 18:40:03;3.84;108.11
2022-06-26 18:41:04;3.84;107.79
2022-06-26 18:42:04;3.84;107.79
2022-06-26 18:43:05;3.84;107.79
2022-06-26 18:44:06;3.84;107.79
2022-06-26 18:45:02;3.84;108.11
2022-06-26 18:46:02;3.84;107.79
2022-06-26 18:47:03;3.84;108.11
2022-06-26 18:48:04;3.84;107.79
2022-06-26 18:49:04;3.84;108.11
2022-06-26 18:50:05;3.84;107.79
2022-06-26 18:51:05;3.84;108.11
2022-06-26 18:52:02;3.84;108.11
2022-06-26 18:53:02;3.84;107.79
2022-06-26 18:54:03;3.84;107.79
2022-06-26 18:55:04;3.84;108.11
2022-06-26 18:56:04;3.84;107.79
2022-06-26 18:57:05;3.84;107.79
2022-06-26 18:58:05;3.84;107.79
2022-06-26 18:59:02;3.84;108.11
2022-06-26 19:00:02;3.84;108.11
2022-06-26 19:01:03;3.84;107.79
2022-06-26 19:02:03;3.84;108.11
2022-06-26 19:03:04;3.84;107.79
2022-06-26 19:04:05;3.84;108.11
2022-06-26 19:05:05;3.84;108.11
2022-06-26 19:06:01;3.84;108.11
2022-06-26 19:07:02;3.84;107.79
2022-06-26 19:08:03;3.84;108.11
2022-06-26 19:09:03;3.84;107.79
2022-06-26 19:10:04;3.84;107.79
2022-06-26 19:11:05;3.84;108.11
2022-06-26 19:12:05;3.84;108.11
2022-06-26 19:13:01;3.84;107.79
2022-06-26 19:14:02;3.84;108.11
2022-06-26 19:15:03;3.84;108.11
2022-06-26 19:16:03;3.84;107.79
2022-06-26 19:17:04;3.84;107.79
2022-06-26 19:18:05;3.84;107.79
2022-06-26 19:19:05;3.84;108.11
2022-06-26 19:20:06;3.84;107.79
2022-06-26 19:21:02;3.84;108.11
2022-06-26 19:22:03;3.84;107.79
2022-06-26 19:23:03;3.84;108.11
2022-06-26 19:24:04;3.83;108.11
2022-06-26 19:25:05;3.84;108.11
2022-06-26 19:26:05;3.84;107.79
2022-06-26 19:27:06;3.84;108.11
2022-06-26 19:28:02;3.84;107.79
2022-06-26 19:29:03;3.83;107.79
2022-06-26 19:30:03;3.84;107.79
2022-06-26 19:31:04;3.84;107.47
2022-06-26 19:32:04;3.84;107.79
2022-06-26 19:33:05;3.84;107.79
2022-06-26 19:34:06;3.84;107.79
2022-06-26 19:35:02;3.84;107.79
2022-06-26 19:36:03;3.84;108.11
2022-06-26 19:37:03;3.84;107.79
2022-06-26 19:38:04;3.84;108.11
2022-06-26 19:39:04;3.84;107.79
2022-06-26 19:40:05;3.83;107.79
2022-06-26 19:41:06;3.84;107.79
2022-06-26 19:42:02;3.83;107.79
2022-06-26 19:43:02;3.84;108.11
2022-06-26 19:44:03;3.83;108.11
2022-06-26 19:45:04;3.83;108.11
2022-06-26 19:46:04;3.83;107.47
2022-06-26 19:47:05;3.84;107.79
2022-06-26 19:48:06;3.83;108.11
2022-06-26 19:49:02;3.84;107.79
2022-06-26 19:50:03;3.83;108.11
2022-06-26 19:51:03;3.84;107.79
2022-06-26 19:52:04;3.84;108.11
2022-06-26 19:53:04;3.84;107.79
2022-06-26 19:54:05;3.83;108.11
2022-06-26 19:55:06;3.83;107.79
2022-06-26 19:56:02;3.83;108.11
2022-06-26 19:57:02;3.83;108.11
2022-06-26 19:58:03;3.83;107.79
2022-06-26 19:59:04;3.83;107.79
2022-06-26 20:00:04;3.84;108.11
2022-06-26 20:01:05;3.83;108.11
2022-06-26 20:02:06;3.83;107.79
2022-06-26 20:03:02;3.83;107.79
2022-06-26 20:04:02;3.83;108.11
2022-06-26 20:05:03;3.83;108.11
2022-06-26 20:06:04;3.83;108.11
2022-06-26 20:07:04;3.83;108.11
2022-06-26 20:08:05;3.83;107.79
2022-06-26 20:09:05;3.83;107.79
2022-06-26 20:10:02;3.83;107.79
2022-06-26 20:11:02;3.83;108.11
2022-06-26 20:12:03;3.83;107.79
2022-06-26 20:13:03;3.83;107.79
2022-06-26 20:14:04;3.83;107.79
2022-06-26 20:15:05;3.83;107.79
2022-06-26 20:16:05;3.83;107.79
2022-06-26 20:17:01;3.83;107.79
2022-06-26 20:18:02;3.83;108.11
2022-06-26 20:19:03;3.83;107.79
2022-06-26 20:20:03;3.83;107.79
2022-06-26 20:21:04;3.83;107.79
2022-06-26 20:22:05;3.83;107.79
2022-06-26 20:23:05;3.83;108.11
2022-06-26 20:24:06;3.83;107.79
2022-06-26 20:25:02;3.83;108.11
2022-06-26 20:26:03;3.83;107.79
2022-06-26 20:27:03;3.83;107.79
2022-06-26 20:28:04;3.83;107.79
2022-06-26 20:29:05;3.83;107.79
2022-06-26 20:30:05;3.83;107.79
2022-06-26 20:31:06;3.83;107.79
2022-06-26 20:32:02;3.83;107.79
2022-06-26 20:33:03;3.83;108.11
2022-06-26 20:34:03;3.83;108.11
2022-06-26 20:35:04;3.83;107.79
2022-06-26 20:36:04;3.83;107.79
2022-06-26 20:37:05;3.83;108.11
2022-06-26 20:38:06;3.83;107.79
2022-06-26 20:39:02;3.83;107.79
2022-06-26 20:40:03;3.83;107.79
2022-06-26 20:41:03;3.83;108.11
2022-06-26 20:42:04;3.83;107.79
2022-06-26 20:43:04;3.83;108.11
2022-06-26 20:44:05;3.83;108.11
2022-06-26 20:45:06;3.83;107.79
2022-06-26 20:46:02;3.83;107.79
2022-06-26 20:47:02;3.83;108.11
2022-06-26 20:48:03;3.83;107.79
2022-06-26 20:49:04;3.83;108.11
2022-06-26 20:50:04;3.83;107.79
2022-06-26 20:51:05;3.83;107.79
2022-06-26 20:52:06;3.83;107.79
2022-06-26 20:53:02;3.83;107.79
2022-06-26 20:54:02;3.83;107.79
2022-06-26 20:55:03;3.83;108.11
2022-06-26 20:56:04;3.83;107.47
2022-06-26 20:57:04;3.83;108.11
2022-06-26 20:58:05;3.83;108.11
2022-06-26 20:59:06;3.83;107.79
2022-06-26 21:00:02;3.83;108.11
2022-06-26 21:01:02;3.83;108.11
2022-06-26 21:02:03;3.83;107.47
2022-06-26 21:03:04;3.83;108.11
2022-06-26 21:04:04;3.83;108.11
2022-06-26 21:05:05;3.83;107.79
2022-06-26 21:06:06;3.83;107.79
2022-06-26 21:07:02;3.83;107.79
2022-06-26 21:08:02;3.83;107.79
2022-06-26 21:09:03;3.83;108.11
2022-06-26 21:10:04;3.83;107.79
2022-06-26 21:11:04;3.83;108.11
2022-06-26 21:12:05;3.83;108.11
2022-06-26 21:13:06;3.83;108.11
2022-06-26 21:14:02;3.83;108.11
2022-06-26 21:15:03;3.83;108.11
2022-06-26 21:16:03;3.83;107.79
2022-06-26 21:17:04;3.83;108.11
2022-06-26 21:18:04;3.83;108.11
2022-06-26 21:19:05;3.83;107.79
2022-06-26 21:20:01;3.83;107.79
2022-06-26 21:21:02;3.83;108.11
2022-06-26 21:22:03;3.83;107.79
2022-06-26 21:23:03;3.83;108.11
2022-06-26 21:24:04;3.83;108.11
2022-06-26 21:25:05;3.83;108.11
2022-06-26 21:26:05;3.83;108.11
2022-06-26 21:27:06;3.83;108.11
2022-06-26 21:28:02;3.83;107.79
2022-06-26 21:29:03;3.83;108.11
2022-06-26 21:30:03;3.83;108.11
2022-06-26 21:31:04;3.83;108.11
2022-06-26 21:32:05;3.83;107.79
2022-06-26 21:33:05;3.83;108.11
2022-06-26 21:34:01;3.83;108.11
2022-06-26 21:35:02;3.83;108.11
2022-06-26 21:36:03;3.83;108.11
2022-06-26 21:37:03;3.83;107.79
2022-06-26 21:38:04;3.83;108.11
2022-06-26 21:39:05;3.83;108.11
2022-06-26 21:40:05;3.83;108.11
2022-06-26 21:41:06;3.83;108.11
2022-06-26 21:42:02;3.83;108.11
2022-06-26 21:43:03;3.83;108.11
2022-06-26 21:44:03;3.83;108.11
2022-06-26 21:45:04;3.83;108.11
2022-06-26 21:46:04;3.83;107.79
2022-06-26 21:47:05;3.83;108.11
2022-06-26 21:48:06;3.83;108.27
2022-06-26 21:49:02;3.83;108.11
2022-06-26 21:50:02;3.83;108.27
2022-06-26 21:51:03;3.83;108.27
2022-06-26 21:52:04;3.83;108.27
2022-06-26 21:53:04;3.83;108.27
2022-06-26 21:54:05;3.83;108.27
2022-06-26 21:55:06;3.83;108.27
2022-06-26 21:56:02;3.83;108.27
2022-06-26 21:57:02;3.83;108.27
2022-06-26 21:58:03;3.83;108.27
2022-06-26 21:59:04;3.83;108.27
2022-06-26 22:00:04;3.83;108.11
2022-06-26 22:01:05;3.83;108.27
2022-06-26 22:02:05;3.83;108.11
2022-06-26 22:03:02;3.83;108.27
2022-06-26 22:04:02;3.83;108.27
2022-06-26 22:05:03;3.83;108.11
2022-06-26 22:06:04;3.83;108.27
2022-06-26 22:07:04;3.83;108.27
2022-06-26 22:08:05;3.83;108.27
2022-06-26 22:09:05;3.83;108.27
2022-06-26 22:10:02;3.83;108.27
2022-06-26 22:11:02;3.83;108.27
2022-06-26 22:12:03;3.83;108.11
2022-06-26 22:13:03;3.83;108.27
2022-06-26 22:14:04;3.83;108.11
2022-06-26 22:15:05;3.83;108.27
2022-06-26 22:16:05;3.83;108.11
2022-06-26 22:17:02;3.83;108.27
2022-06-26 22:18:02;3.83;108.27
2022-06-26 22:19:03;3.83;108.27
2022-06-26 22:20:03;3.83;108.11
2022-06-26 22:21:04;3.83;108.27
2022-06-26 22:22:05;3.83;108.11
2022-06-26 22:23:05;3.83;108.11
2022-06-26 22:24:01;3.83;108.11
2022-06-26 22:25:02;3.83;108.27
2022-06-26 22:26:03;3.83;108.27
2022-06-26 22:27:03;3.83;107.79
2022-06-26 22:28:04;3.83;108.27
2022-06-26 22:29:05;3.83;108.27
2022-06-26 22:30:05;3.83;108.27
2022-06-26 22:31:02;3.83;108.27
2022-06-26 22:32:02;3.83;108.27
2022-06-26 22:33:03;3.83;108.27
2022-06-26 22:34:03;3.83;108.11
2022-06-26 22:35:04;3.83;108.11
2022-06-26 22:36:05;3.83;108.27
2022-06-26 22:37:05;3.83;108.27
2022-06-26 22:38:02;3.83;108.27
2022-06-26 22:39:02;3.83;108.27
2022-06-26 22:40:03;3.83;108.27
2022-06-26 22:41:03;3.83;108.11
2022-06-26 22:42:04;3.83;108.11
2022-06-26 22:43:05;3.83;108.27
2022-06-26 22:44:05;3.83;108.11
2022-06-26 22:45:02;3.83;108.11
2022-06-26 22:46:02;3.83;108.11
2022-06-26 22:47:03;3.83;108.11
2022-06-26 22:48:04;3.83;108.27
2022-06-26 22:49:04;3.83;108.11
2022-06-26 22:50:05;3.83;108.27
2022-06-26 22:51:06;3.83;108.27
2022-06-26 22:52:02;3.83;108.27
2022-06-26 22:53:02;3.83;108.27
2022-06-26 22:54:03;3.83;107.79
2022-06-26 22:55:04;3.83;108.27
2022-06-26 22:56:05;3.83;108.11
2022-06-26 22:57:05;3.83;108.11
2022-06-26 22:58:06;3.83;108.27
2022-06-26 22:59:02;3.83;108.27
2022-06-26 23:00:02;3.83;108.27
2022-06-26 23:01:03;3.83;108.27
2022-06-26 23:02:04;3.83;108.11
2022-06-26 23:03:04;3.83;108.27
2022-06-26 23:04:05;3.83;108.27
2022-06-26 23:05:06;3.83;108.27
2022-06-26 23:06:02;3.83;108.27
2022-06-26 23:07:02;3.83;108.11
2022-06-26 23:08:03;3.83;108.27
2022-06-26 23:09:04;3.83;108.27
2022-06-26 23:10:04;3.83;108.27
2022-06-26 23:11:05;3.83;108.27
2022-06-26 23:12:05;3.83;108.27
2022-06-26 23:13:02;3.83;108.27
2022-06-26 23:14:02;3.83;108.27
2022-06-26 23:15:03;3.83;108.27
2022-06-26 23:16:03;3.83;108.27
2022-06-26 23:17:04;3.83;108.27
2022-06-26 23:18:05;3.83;108.27
2022-06-26 23:19:05;3.83;108.11
2022-06-26 23:20:01;3.83;108.11
2022-06-26 23:21:02;3.83;108.27
2022-06-26 23:22:03;3.83;108.27
2022-06-26 23:23:03;3.83;108.11
2022-06-26 23:24:04;3.83;108.27
2022-06-26 23:25:05;3.83;108.27
2022-06-26 23:26:05;3.83;108.11
2022-06-26 23:27:06;3.83;108.27
2022-06-26 23:28:02;3.83;108.27
2022-06-26 23:29:03;3.83;108.27
2022-06-26 23:30:03;3.83;108.27
2022-06-26 23:31:04;3.83;108.27
2022-06-26 23:32:05;3.83;108.11
2022-06-26 23:33:05;3.83;108.27
2022-06-26 23:34:06;3.83;108.27
2022-06-26 23:35:02;3.83;108.27
2022-06-26 23:36:03;3.83;108.27
2022-06-26 23:37:03;3.83;108.27
2022-06-26 23:38:04;3.83;108.27
2022-06-26 23:39:05;3.83;108.11
2022-06-26 23:40:05;3.83;108.11
2022-06-26 23:41:06;3.83;108.27
2022-06-26 23:42:02;3.83;108.27
2022-06-26 23:43:03;3.83;108.27
2022-06-26 23:44:03;3.83;108.27
2022-06-26 23:45:04;3.83;108.27
2022-06-26 23:46:05;3.83;108.27
2022-06-26 23:47:05;3.83;108.27
2022-06-26 23:48:06;3.83;108.27
2022-06-26 23:49:02;3.83;108.11
2022-06-26 23:50:03;3.83;108.11
2022-06-26 23:51:03;3.83;108.27
2022-06-26 23:52:04;3.83;108.27
2022-06-26 23:53:05;3.83;108.27
2022-06-26 23:54:05;3.83;108.11
2022-06-26 23:55:06;3.83;108.27
2022-06-26 23:56:02;3.83;108.27
2022-06-26 23:57:03;3.83;108.27
2022-06-26 23:58:03;3.83;108.27
2022-06-26 23:59:04;3.83;108.27
