2021-02-07 00:03:41;4.24;59;19.20;0;0.00
2021-02-07 00:33:42;4.24;62;19.10;0;0.00
2021-02-07 01:03:38;4.23;65;18.50;0;0.00
2021-02-07 01:33:38;4.24;64;18.90;0;0.00
2021-02-07 02:03:38;4.23;71;17.70;0;0.00
2021-02-07 02:33:38;4.23;75;17.30;0;0.00
2021-02-07 03:03:38;4.23;80;17.00;0;0.00
2021-02-07 03:33:37;4.23;80;17.10;0;0.00
2021-02-07 04:03:41;4.23;99;16.40;0;0.00
2021-02-07 04:33:39;4.22;99;16.00;0;0.00
2021-02-07 05:03:38;4.22;99;15.70;0;0.00
2021-02-07 05:33:36;4.23;99;15.00;0;0.00
2021-02-07 06:03:35;4.22;99;14.80;0;0.00
2021-02-07 06:33:37;4.22;99;14.80;0;0.00
2021-02-07 07:03:39;4.22;99;14.80;0;0.00
2021-02-07 07:33:38;4.22;76;18.80;0;0.00
2021-02-07 08:03:38;4.23;63;20.40;0;1.20
2021-02-07 08:33:40;4.23;59;22.70;0;0.00
2021-02-07 09:03:44;4.23;52;25.10;0;0.00
2021-02-07 09:33:45;4.24;43;25.80;0;1.60
2021-02-07 10:03:44;4.24;40;27.20;0;1.80
2021-02-07 10:33:48;4.24;37;28.20;0;1.90
2021-02-07 11:03:49;4.24;33;28.90;0;2.49
2021-02-07 11:33:50;4.24;29;30.10;0;1.10
2021-02-07 12:03:49;4.24;28;29.70;0;2.99
2021-02-07 12:33:53;4.24;29;30.20;0;2.09
2021-02-07 13:03:52;4.25;21;31.80;0;1.40
2021-02-07 13:33:53;4.25;21;31.80;0;1.80
2021-02-07 14:03:53;4.25;24;32.30;0;0.00
2021-02-07 14:33:50;4.25;20;32.10;0;0.00
2021-02-07 15:03:51;4.25;20;32.70;0;0.00
2021-02-07 15:33:53;4.25;18;32.40;0;0.00
2021-02-07 16:03:54;4.25;18;32.40;0;1.70
2021-02-07 16:33:51;4.25;18;33.20;0;1.20
2021-02-07 17:03:53;4.25;16;33.00;0;0.00
2021-02-07 17:33:54;4.25;17;33.80;0;0.00
2021-02-07 18:03:50;4.25;17;34.30;0;0.00
2021-02-07 18:33:50;4.26;26;32.10;0;0.00
2021-02-07 19:03:49;4.26;26;31.20;0;0.00
2021-02-07 19:33:50;4.25;30;29.10;0;0.00
2021-02-07 20:03:45;4.25;42;26.00;0;0.00
2021-02-07 20:33:42;4.25;48;24.70;0;0.00
2021-02-07 21:03:42;4.25;47;24.00;0;0.00
2021-02-07 21:33:42;4.25;50;23.40;0;0.00
2021-02-07 22:03:41;4.25;54;22.30;0;0.00
2021-02-07 22:33:44;4.25;58;22.10;0;0.00
2021-02-07 23:03:42;4.24;65;21.20;0;0.00
2021-02-07 23:33:39;4.24;75;20.40;0;0.00
