2021-03-06 00:03:37;4.23;73;17.80;0;0.00
2021-03-06 00:33:36;4.23;88;17.80;0;0.00
2021-03-06 01:03:36;4.23;74;17.70;0;0.00
2021-03-06 01:33:40;4.23;80;17.00;0;0.00
2021-03-06 02:03:35;4.23;88;16.40;0;0.00
2021-03-06 02:33:38;4.22;78;16.10;0;0.00
2021-03-06 03:03:36;4.22;86;15.50;0;0.00
2021-03-06 03:33:35;4.22;88;15.50;0;0.00
2021-03-06 04:03:37;4.22;88;14.90;0;0.00
2021-03-06 04:33:35;4.22;68;15.00;0;0.00
2021-03-06 05:03:37;4.21;72;14.80;0;0.00
2021-03-06 05:33:35;4.22;96;14.40;0;0.00
2021-03-06 06:03:37;4.21;92;14.70;0;0.00
2021-03-06 06:33:34;4.22;94;14.60;0;0.00
2021-03-06 07:03:36;4.22;88;14.50;0;0.00
2021-03-06 07:33:34;4.21;57;15.10;0;0.00
2021-03-06 08:03:37;4.22;46;16.40;0;0.00
2021-03-06 08:33:35;4.22;34;17.90;0;1.50
2021-03-06 09:03:40;4.22;16;19.70;0;2.29
2021-03-06 09:33:41;4.23;5;21.00;0;1.70
2021-03-06 10:03:40;4.23;1;22.10;0;2.39
2021-03-06 10:33:41;4.23;1;24.00;0;2.49
2021-03-06 11:03:43;4.23;1;24.60;0;1.20
2021-03-06 11:33:46;4.23;1;24.80;0;2.09
2021-03-06 12:03:45;4.23;1;25.30;0;1.80
2021-03-06 12:33:46;4.24;1;26.70;0;0.00
2021-03-06 13:03:47;4.24;1;27.70;0;0.00
2021-03-06 13:33:50;4.24;1;28.00;0;0.00
2021-03-06 14:03:49;4.24;1;28.80;0;1.40
2021-03-06 14:33:48;4.24;1;28.80;0;0.00
2021-03-06 15:03:52;4.24;1;28.30;0;0.00
2021-03-06 15:33:52;4.25;1;30.40;0;0.00
2021-03-06 16:03:52;4.24;1;29.50;0;0.00
2021-03-06 16:33:51;4.25;1;30.10;0;0.00
2021-03-06 17:03:50;4.25;1;29.40;0;0.00
2021-03-06 17:33:49;4.25;1;29.40;0;0.00
2021-03-06 18:03:47;4.25;1;29.50;0;0.00
2021-03-06 18:33:48;4.25;1;27.00;0;0.00
2021-03-06 19:03:47;4.25;1;25.10;0;0.00
2021-03-06 19:33:44;4.25;1;22.40;0;0.00
2021-03-06 20:03:43;4.24;1;20.40;0;0.00
2021-03-06 20:33:40;4.24;14;18.40;0;0.00
2021-03-06 21:03:36;4.24;13;17.90;0;0.00
2021-03-06 21:33:36;4.24;26;16.90;0;0.00
2021-03-06 22:03:35;4.23;32;16.60;0;0.00
2021-03-06 22:33:38;4.23;42;16.30;0;0.00
2021-03-06 23:03:37;4.23;43;16.00;0;0.00
2021-03-06 23:33:35;4.23;36;15.80;0;0.00
