2021-03-02 00:03:47;1;117;117;117;117;117;117;117;117;117;117;
2021-03-02 00:03:47;2;115;115;115;115;115;115;115;115;115;115;
2021-03-02 00:03:47;3;64;64;64;64;64;64;64;64;64;64;
2021-03-02 00:03:47;4;118;118;118;118;118;118;118;118;118;118;
2021-03-02 00:03:47;5;2;2;2;2;2;2;2;2;2;2;
2021-03-02 00:03:47;ht;99;21.30
2021-03-02 00:03:47;v;4.16
2021-03-02 00:33:48;1;115;115;115;115;115;116;115;116;116;116;
2021-03-02 00:33:48;2;113;113;113;114;113;114;114;114;114;114;
2021-03-02 00:33:48;3;64;64;64;64;64;64;64;64;64;64;
2021-03-02 00:33:48;4;116;116;116;116;116;116;116;117;116;116;
2021-03-02 00:33:48;5;2;1;1;1;2;1;2;2;1;2;
2021-03-02 00:33:48;ht;99;21.80
2021-03-02 00:33:48;v;4.16
2021-03-02 01:03:48;1;1;1;1;1;1;1;1;1;1;1;
2021-03-02 01:03:48;2;116;116;115;116;116;116;115;115;116;116;
2021-03-02 01:03:48;3;64;64;64;64;64;64;64;64;64;64;
2021-03-02 01:03:48;4;116;116;116;116;116;116;116;116;116;116;
2021-03-02 01:03:48;5;136;137;137;136;137;136;136;136;136;137;
2021-03-02 01:03:48;ht;99;21.30
2021-03-02 01:03:48;v;4.15
2021-03-02 01:33:48;1;118;118;118;118;118;117;118;118;118;118;
2021-03-02 01:33:48;2;115;115;115;114;115;115;115;114;114;115;
2021-03-02 01:33:48;3;64;64;64;64;64;64;64;64;64;64;
2021-03-02 01:33:48;4;116;116;116;116;116;116;116;116;116;116;
2021-03-02 01:33:48;5;1;1;1;1;1;1;1;1;1;1;
2021-03-02 01:33:48;ht;99;20.60
2021-03-02 01:33:48;v;4.15
2021-03-02 02:03:48;1;119;119;119;119;119;119;118;119;119;119;
2021-03-02 02:03:48;2;117;117;117;117;117;117;117;116;116;117;
2021-03-02 02:03:48;3;65;65;65;65;65;65;65;65;65;65;
2021-03-02 02:03:48;4;116;116;116;116;116;116;116;116;116;116;
2021-03-02 02:03:48;5;109;109;108;109;109;109;109;109;109;109;
2021-03-02 02:03:48;ht;99;20.70
2021-03-02 02:03:48;v;4.15
2021-03-02 02:33:48;1;118;118;118;118;118;118;117;118;117;117;
2021-03-02 02:33:48;2;117;116;117;116;117;117;116;117;116;117;
2021-03-02 02:33:48;3;65;65;65;65;65;65;65;65;64;65;
2021-03-02 02:33:48;4;118;118;118;118;118;118;118;118;118;118;
2021-03-02 02:33:48;5;1;1;1;2;1;2;2;1;1;1;
2021-03-02 02:33:48;ht;99;19.90
2021-03-02 02:33:48;v;4.15
2021-03-02 03:03:47;1;1;1;1;1;1;1;1;1;1;1;
2021-03-02 03:03:47;2;118;118;118;117;118;118;117;118;118;117;
2021-03-02 03:03:47;3;65;65;65;65;65;65;65;65;65;65;
2021-03-02 03:03:47;4;119;119;119;119;119;119;119;119;119;119;
2021-03-02 03:03:47;5;118;118;118;118;118;118;118;118;118;118;
2021-03-02 03:03:47;ht;99;19.70
2021-03-02 03:03:47;v;4.15
2021-03-02 03:33:51;1;119;118;118;119;118;118;119;118;118;118;
2021-03-02 03:33:51;2;117;117;117;117;117;117;117;117;117;117;
2021-03-02 03:33:51;3;65;65;65;65;65;65;65;65;65;65;
2021-03-02 03:33:51;4;119;119;119;119;119;119;119;127;123;120;
2021-03-02 03:33:51;5;117;117;117;117;117;117;125;118;118;117;
2021-03-02 03:33:51;ht;99;18.80
2021-03-02 03:33:51;v;4.15
2021-03-02 04:03:49;1;118;118;117;118;117;118;117;118;118;118;
2021-03-02 04:03:49;2;118;119;118;119;119;119;118;119;118;119;
2021-03-02 04:03:49;3;65;65;65;65;65;65;65;65;65;65;
2021-03-02 04:03:49;4;122;122;122;122;122;122;122;122;122;122;
2021-03-02 04:03:49;5;1;2;2;2;1;2;1;2;1;1;
2021-03-02 04:03:49;ht;99;18.70
2021-03-02 04:03:49;v;4.14
2021-03-02 04:33:48;1;117;118;118;118;118;118;117;118;118;118;
2021-03-02 04:33:48;2;117;117;117;117;117;117;117;117;117;117;
2021-03-02 04:33:48;3;65;65;65;65;65;65;65;65;65;65;
2021-03-02 04:33:48;4;123;123;123;123;123;123;123;123;123;123;
2021-03-02 04:33:48;5;120;120;121;121;121;121;121;121;121;121;
2021-03-02 04:33:48;ht;99;18.60
2021-03-02 04:33:48;v;4.15
2021-03-02 05:03:46;1;122;121;121;121;121;121;121;121;121;121;
2021-03-02 05:03:46;2;119;119;119;119;119;119;119;119;119;119;
2021-03-02 05:03:46;3;65;65;65;65;65;65;65;65;66;65;
2021-03-02 05:03:46;4;123;123;123;123;123;123;123;123;133;125;
2021-03-02 05:03:46;5;2;1;2;1;1;1;1;1;2;1;
2021-03-02 05:03:46;ht;99;18.70
2021-03-02 05:03:46;v;4.15
2021-03-02 05:33:49;1;120;120;120;120;121;120;121;120;120;120;
2021-03-02 05:33:49;2;119;118;119;119;119;119;118;119;119;119;
2021-03-02 05:33:49;3;66;66;66;66;66;66;66;66;66;66;
2021-03-02 05:33:49;4;124;124;125;136;127;125;125;125;125;124;
2021-03-02 05:33:49;5;1;7;4;2;2;2;2;2;2;1;
2021-03-02 05:33:49;ht;99;19.10
2021-03-02 05:33:49;v;4.15
2021-03-02 06:03:47;1;119;119;119;119;118;119;119;119;119;119;
2021-03-02 06:03:47;2;121;121;121;121;121;121;121;121;121;121;
2021-03-02 06:03:47;3;66;66;66;66;66;66;66;66;66;66;
2021-03-02 06:03:47;4;115;115;115;115;115;115;115;115;115;115;
2021-03-02 06:03:47;5;1;1;1;1;1;1;1;1;1;1;
2021-03-02 06:03:47;ht;99;18.80
2021-03-02 06:03:47;v;4.15
2021-03-02 06:33:50;1;1;1;2;1;1;1;2;1;1;1;
2021-03-02 06:33:50;2;123;124;124;124;124;124;124;124;124;124;
2021-03-02 06:33:50;3;66;66;66;65;66;66;66;66;66;66;
2021-03-02 06:33:50;4;117;117;117;117;117;117;117;117;117;117;
2021-03-02 06:33:50;5;119;119;119;119;126;120;119;119;119;119;
2021-03-02 06:33:50;ht;99;18.80
2021-03-02 06:33:50;v;4.15
2021-03-02 07:03:49;1;116;116;116;115;116;116;116;116;115;116;
2021-03-02 07:03:49;2;121;121;121;121;121;121;121;120;121;120;
2021-03-02 07:03:49;3;66;66;66;66;66;66;66;66;66;66;
2021-03-02 07:03:49;4;117;117;117;117;117;117;117;127;119;118;
2021-03-02 07:03:49;5;118;118;118;118;118;118;118;118;118;118;
2021-03-02 07:03:49;ht;99;18.90
2021-03-02 07:03:49;v;4.15
2021-03-02 07:33:47;1;118;118;118;118;118;118;118;118;118;118;
2021-03-02 07:33:47;2;125;125;125;125;125;125;125;125;125;125;
2021-03-02 07:33:47;3;65;65;65;64;65;65;65;64;65;64;
2021-03-02 07:33:47;4;120;120;120;120;120;120;120;120;120;120;
2021-03-02 07:33:47;5;113;113;114;114;114;114;114;114;114;114;
2021-03-02 07:33:47;ht;99;20.00
2021-03-02 07:33:47;v;4.15
2021-03-02 08:03:47;1;118;118;118;118;118;118;118;117;118;118;
2021-03-02 08:03:47;2;125;125;125;125;125;125;124;125;125;125;
2021-03-02 08:03:47;3;64;64;64;64;64;65;64;64;64;64;
2021-03-02 08:03:47;4;119;119;119;119;118;118;119;119;119;119;
2021-03-02 08:03:47;5;117;117;117;117;117;117;117;117;117;117;
2021-03-02 08:03:47;ht;99;21.10
2021-03-02 08:03:47;v;4.15
2021-03-02 08:33:52;1;119;119;119;119;119;119;119;119;119;119;
2021-03-02 08:33:52;2;1;2;2;1;1;2;2;1;2;2;
2021-03-02 08:33:52;3;64;64;64;64;64;64;64;64;64;64;
2021-03-02 08:33:52;4;119;119;119;119;119;119;119;119;119;119;
2021-03-02 08:33:52;5;2;3;2;2;2;2;2;1;2;2;
2021-03-02 08:33:52;ht;99;22.40
2021-03-02 08:33:52;v;4.15
2021-03-02 09:03:49;1;122;122;122;122;122;122;122;122;122;122;
2021-03-02 09:03:49;2;127;127;127;127;127;127;127;127;127;127;
2021-03-02 09:03:49;3;62;62;62;62;62;62;62;62;61;62;
2021-03-02 09:03:49;4;124;124;124;124;124;124;124;124;124;124;
2021-03-02 09:03:49;5;121;121;121;121;121;121;121;121;121;121;
2021-03-02 09:03:49;ht;99;25.50
2021-03-02 09:03:49;v;4.15
2021-03-02 09:33:54;1;122;122;122;122;122;122;122;122;122;122;
2021-03-02 09:33:54;2;119;119;120;120;120;119;119;120;119;120;
2021-03-02 09:33:54;3;61;61;61;61;61;61;61;61;61;61;
2021-03-02 09:33:54;4;123;123;123;123;123;123;123;123;123;123;
2021-03-02 09:33:54;5;117;117;117;117;117;117;118;117;117;117;
2021-03-02 09:33:54;ht;99;26.70
2021-03-02 09:33:54;v;4.15
2021-03-02 10:03:54;1;119;119;119;119;119;119;119;119;119;119;
2021-03-02 10:03:54;2;122;122;122;123;122;122;122;123;122;122;
2021-03-02 10:03:54;3;61;62;61;61;61;61;61;61;61;61;
2021-03-02 10:03:54;4;123;123;123;123;123;123;123;123;123;123;
2021-03-02 10:03:54;5;2;1;1;1;1;1;2;2;2;2;
2021-03-02 10:03:54;ht;99;27.00
2021-03-02 10:03:54;v;4.16
2021-03-02 10:33:56;1;123;123;123;123;123;123;123;123;123;123;
2021-03-02 10:33:56;2;119;119;119;118;119;119;119;119;119;119;
2021-03-02 10:33:56;3;61;61;61;61;61;61;60;61;61;61;
2021-03-02 10:33:56;4;122;122;122;122;122;122;122;122;122;122;
2021-03-02 10:33:56;5;121;121;121;121;121;121;121;121;121;121;
2021-03-02 10:33:56;ht;99;27.50
2021-03-02 10:33:56;v;4.16
2021-03-02 11:03:53;1;123;123;123;123;123;123;123;123;123;123;
2021-03-02 11:03:53;2;125;125;125;125;125;125;125;125;125;125;
2021-03-02 11:03:53;3;60;60;60;60;60;60;60;60;60;60;
2021-03-02 11:03:53;4;133;123;123;122;122;122;122;122;122;122;
2021-03-02 11:03:53;5;131;126;125;125;125;125;125;125;125;125;
2021-03-02 11:03:53;ht;99;27.90
2021-03-02 11:03:53;v;4.16
2021-03-02 11:33:56;1;123;123;123;123;123;123;123;123;123;123;
2021-03-02 11:33:56;2;117;117;117;117;117;117;117;117;116;117;
2021-03-02 11:33:56;3;60;60;60;60;60;60;60;60;60;60;
2021-03-02 11:33:56;4;128;128;128;128;127;127;127;128;127;127;
2021-03-02 11:33:56;5;1;2;2;1;1;7;6;2;2;2;
2021-03-02 11:33:56;ht;99;28.80
2021-03-02 11:33:56;v;4.16
2021-03-02 12:03:54;1;124;124;124;124;124;124;124;124;124;124;
2021-03-02 12:03:54;2;128;128;128;128;129;129;129;129;129;129;
2021-03-02 12:03:54;3;60;60;60;60;60;59;60;60;60;60;
2021-03-02 12:03:54;4;125;125;125;125;124;125;124;124;125;125;
2021-03-02 12:03:54;5;138;137;138;137;137;137;138;137;138;137;
2021-03-02 12:03:54;ht;99;29.80
2021-03-02 12:03:54;v;4.16
2021-03-02 12:33:58;1;120;120;120;120;120;120;120;120;120;120;
2021-03-02 12:33:58;2;121;121;121;121;121;121;121;121;121;121;
2021-03-02 12:33:58;3;59;59;59;59;59;59;59;59;59;59;
2021-03-02 12:33:58;4;122;122;122;122;122;122;122;122;123;123;
2021-03-02 12:33:58;5;2;1;2;2;2;2;2;2;2;2;
2021-03-02 12:33:58;ht;99;28.60
2021-03-02 12:33:58;v;4.16
2021-03-02 13:03:57;1;124;124;124;124;124;124;124;124;124;124;
2021-03-02 13:03:57;2;122;122;122;123;122;122;122;122;123;122;
2021-03-02 13:03:57;3;59;59;59;59;59;59;59;59;59;59;
2021-03-02 13:03:57;4;122;123;123;122;122;122;123;123;122;122;
2021-03-02 13:03:57;5;121;121;121;121;121;121;120;121;121;121;
2021-03-02 13:03:57;ht;97;31.70
2021-03-02 13:03:57;v;4.16
2021-03-02 13:33:59;1;124;124;124;124;124;124;124;124;124;124;
2021-03-02 13:33:59;2;118;118;118;118;118;118;118;118;118;118;
2021-03-02 13:33:59;3;56;56;56;56;56;56;56;56;56;56;
2021-03-02 13:33:59;4;120;120;120;120;120;120;120;120;120;120;
2021-03-02 13:33:59;5;121;121;121;121;121;121;121;121;121;121;
2021-03-02 13:33:59;ht;90;33.60
2021-03-02 13:33:59;v;4.16
2021-03-02 14:03:59;1;122;122;122;122;122;122;122;122;122;122;
2021-03-02 14:03:59;2;120;120;120;120;120;120;120;120;120;120;
2021-03-02 14:03:59;3;57;56;57;57;57;57;57;57;57;57;
2021-03-02 14:03:59;4;117;117;117;117;117;117;117;117;117;117;
2021-03-02 14:03:59;5;113;113;113;113;113;113;113;113;113;113;
2021-03-02 14:03:59;ht;85;34.20
2021-03-02 14:03:59;v;4.16
2021-03-02 14:34:04;1;1;1;1;1;2;1;1;1;1;1;
2021-03-02 14:34:04;2;119;119;119;119;118;119;119;119;119;119;
2021-03-02 14:34:04;3;56;56;56;57;56;56;56;56;56;56;
2021-03-02 14:34:04;4;8;8;8;8;8;8;8;8;8;7;
2021-03-02 14:34:04;5;119;119;119;119;120;119;119;119;119;119;
2021-03-02 14:34:04;ht;72;33.50
2021-03-02 14:34:04;v;4.16
2021-03-02 15:03:59;1;122;121;121;121;121;121;121;121;121;121;
2021-03-02 15:03:59;2;119;120;120;128;121;120;120;120;120;120;
2021-03-02 15:03:59;3;56;56;56;57;56;56;56;56;56;56;
2021-03-02 15:03:59;4;123;123;123;123;123;123;123;123;123;123;
2021-03-02 15:03:59;5;122;122;122;122;122;122;122;122;122;122;
2021-03-02 15:03:59;ht;74;33.40
2021-03-02 15:03:59;v;4.16
2021-03-02 15:33:59;1;2;1;1;2;2;1;1;2;1;1;
2021-03-02 15:33:59;2;120;120;129;121;120;120;120;120;120;120;
2021-03-02 15:33:59;3;57;57;57;57;57;57;57;57;57;57;
2021-03-02 15:33:59;4;121;121;121;121;121;121;121;121;121;121;
2021-03-02 15:33:59;5;2;2;2;2;2;2;2;2;2;2;
2021-03-02 15:33:59;ht;72;33.20
2021-03-02 15:33:59;v;4.17
2021-03-02 16:03:59;1;123;123;123;123;123;123;123;123;123;123;
2021-03-02 16:03:59;2;110;111;111;111;111;111;117;112;111;111;
2021-03-02 16:03:59;3;56;55;55;56;55;56;56;56;55;56;
2021-03-02 16:03:59;4;119;119;119;119;119;119;119;119;119;119;
2021-03-02 16:03:59;5;121;121;121;121;121;121;121;121;121;121;
2021-03-02 16:03:59;ht;71;33.10
2021-03-02 16:03:59;v;4.17
2021-03-02 16:33:59;1;123;123;123;123;123;123;123;123;130;124;
2021-03-02 16:33:59;2;117;117;117;117;117;117;117;117;117;117;
2021-03-02 16:33:59;3;56;56;56;56;56;56;56;56;56;56;
2021-03-02 16:33:59;4;7;7;7;7;7;7;7;7;7;7;
2021-03-02 16:33:59;5;2;1;1;1;1;1;1;2;2;1;
2021-03-02 16:33:59;ht;74;33.40
2021-03-02 16:33:59;v;4.16
2021-03-02 17:03:59;1;124;123;124;123;123;123;123;123;123;124;
2021-03-02 17:03:59;2;119;118;118;118;118;118;118;118;118;118;
2021-03-02 17:03:59;3;56;56;56;56;56;56;56;56;56;56;
2021-03-02 17:03:59;4;116;116;116;116;116;116;116;116;116;116;
2021-03-02 17:03:59;5;2;2;2;2;2;2;2;2;2;2;
2021-03-02 17:03:59;ht;70;33.50
2021-03-02 17:03:59;v;4.17
2021-03-02 17:34:03;1;123;123;123;123;123;123;123;128;126;123;
2021-03-02 17:34:03;2;118;118;118;118;118;118;118;118;118;118;
2021-03-02 17:34:03;3;56;56;56;56;56;56;56;56;56;56;
2021-03-02 17:34:03;4;7;6;6;6;6;7;7;7;7;7;
2021-03-02 17:34:03;5;2;1;1;1;1;1;1;1;2;1;
2021-03-02 17:34:03;ht;74;32.90
2021-03-02 17:34:03;v;4.17
2021-03-02 18:04:01;1;129;129;129;129;129;129;129;129;129;129;
2021-03-02 18:04:01;2;1;1;1;1;1;2;1;1;1;1;
2021-03-02 18:04:01;3;57;57;57;57;57;57;57;57;57;57;
2021-03-02 18:04:01;4;6;6;6;6;6;6;6;6;6;6;
2021-03-02 18:04:01;5;1;1;1;1;1;1;1;1;1;1;
2021-03-02 18:04:01;ht;82;31.80
2021-03-02 18:04:01;v;4.17
2021-03-02 18:33:58;1;123;123;123;123;123;123;123;123;123;123;
2021-03-02 18:33:58;2;117;116;116;117;117;116;117;117;116;117;
2021-03-02 18:33:58;3;57;57;57;57;57;57;57;57;57;57;
2021-03-02 18:33:58;4;123;123;123;123;123;123;123;123;123;123;
2021-03-02 18:33:58;5;2;1;1;1;2;1;1;1;1;1;
2021-03-02 18:33:58;ht;85;31.10
2021-03-02 18:33:58;v;4.17
2021-03-02 19:03:59;1;124;124;124;124;124;124;124;124;124;124;
2021-03-02 19:03:59;2;129;129;129;129;129;129;129;129;129;129;
2021-03-02 19:03:59;3;58;58;58;58;58;57;58;57;58;58;
2021-03-02 19:03:59;4;123;123;123;123;123;123;123;123;123;123;
2021-03-02 19:03:59;5;127;127;127;127;126;127;127;127;126;127;
2021-03-02 19:03:59;ht;91;29.20
2021-03-02 19:03:59;v;4.17
2021-03-02 19:33:57;1;125;125;124;125;125;125;124;124;125;125;
2021-03-02 19:33:57;2;126;126;126;126;126;127;126;126;126;126;
2021-03-02 19:33:57;3;58;58;58;58;58;58;58;59;58;59;
2021-03-02 19:33:57;4;125;125;124;125;125;125;125;125;125;125;
2021-03-02 19:33:57;5;1;1;1;1;1;1;1;1;1;1;
2021-03-02 19:33:57;ht;98;26.80
2021-03-02 19:33:57;v;4.16
2021-03-02 20:03:53;1;126;126;126;126;126;126;126;126;126;126;
2021-03-02 20:03:53;2;114;114;114;114;114;114;114;114;114;114;
2021-03-02 20:03:53;3;61;61;61;61;61;61;61;61;61;61;
2021-03-02 20:03:53;4;124;124;124;124;124;124;124;124;124;124;
2021-03-02 20:03:53;5;1;1;1;1;2;1;1;1;1;1;
2021-03-02 20:03:53;ht;99;24.70
2021-03-02 20:03:53;v;4.16
2021-03-02 20:33:52;1;126;125;126;126;126;126;126;126;126;126;
2021-03-02 20:33:52;2;129;129;129;129;129;129;129;129;129;129;
2021-03-02 20:33:52;3;62;62;62;62;62;62;62;62;62;62;
2021-03-02 20:33:52;4;122;123;122;123;122;122;122;122;123;122;
2021-03-02 20:33:52;5;118;118;118;117;118;118;117;118;118;118;
2021-03-02 20:33:52;ht;99;24.30
2021-03-02 20:33:52;v;4.16
2021-03-02 21:03:50;1;126;126;126;126;126;125;126;126;126;126;
2021-03-02 21:03:50;2;129;129;129;129;129;129;129;129;129;129;
2021-03-02 21:03:50;3;62;62;62;62;62;62;62;62;62;62;
2021-03-02 21:03:50;4;121;121;121;121;121;121;122;121;121;121;
2021-03-02 21:03:50;5;119;118;119;118;118;118;119;118;119;119;
2021-03-02 21:03:50;ht;99;23.50
2021-03-02 21:03:50;v;4.16
2021-03-02 21:33:52;1;125;125;125;125;125;125;125;125;125;125;
2021-03-02 21:33:52;2;130;130;130;130;130;130;130;130;130;130;
2021-03-02 21:33:52;3;62;62;63;63;63;63;63;62;62;63;
2021-03-02 21:33:52;4;124;124;124;124;123;124;124;123;124;124;
2021-03-02 21:33:52;5;1;1;1;1;1;1;1;1;2;1;
2021-03-02 21:33:52;ht;99;23.70
2021-03-02 21:33:52;v;4.16
2021-03-02 22:03:49;1;126;126;126;126;126;126;126;126;126;126;
2021-03-02 22:03:49;2;131;131;131;131;131;131;131;131;131;131;
2021-03-02 22:03:49;3;62;62;62;62;62;62;62;62;62;62;
2021-03-02 22:03:49;4;119;119;119;119;119;118;118;119;119;118;
2021-03-02 22:03:49;5;1;2;2;2;2;1;1;2;2;1;
2021-03-02 22:03:49;ht;99;23.30
2021-03-02 22:03:49;v;4.16
2021-03-02 22:33:51;1;125;125;125;125;125;125;125;125;125;125;
2021-03-02 22:33:51;2;134;134;134;134;134;134;134;134;134;134;
2021-03-02 22:33:51;3;62;62;62;62;62;62;62;62;62;62;
2021-03-02 22:33:51;4;123;123;123;123;123;123;123;123;123;123;
2021-03-02 22:33:51;5;1;1;1;1;1;1;1;1;1;1;
2021-03-02 22:33:51;ht;99;21.70
2021-03-02 22:33:51;v;4.16
2021-03-02 23:03:52;1;127;127;127;127;127;127;127;127;127;127;
2021-03-02 23:03:52;2;118;118;118;117;118;118;118;117;118;118;
2021-03-02 23:03:52;3;63;63;63;63;63;63;63;63;63;63;
2021-03-02 23:03:52;4;123;123;123;123;123;123;123;123;123;123;
2021-03-02 23:03:52;5;117;116;116;116;116;116;116;116;116;116;
2021-03-02 23:03:52;ht;99;21.60
2021-03-02 23:03:52;v;4.16
2021-03-02 23:33:48;1;126;126;126;125;126;125;125;126;126;125;
2021-03-02 23:33:48;2;1;1;1;1;1;1;1;1;1;1;
2021-03-02 23:33:48;3;62;62;63;62;63;63;63;63;63;63;
2021-03-02 23:33:48;4;126;126;126;127;127;127;126;126;126;127;
2021-03-02 23:33:48;5;1;1;1;1;1;1;1;1;1;1;
2021-03-02 23:33:48;ht;99;21.30
2021-03-02 23:33:48;v;4.16
