2021-10-26 00:00:41;4.12;135.18;82;21.60
2021-10-26 00:05:40;4.12;135.18;82;21.30
2021-10-26 00:10:39;4.12;137.44;81;21.50
2021-10-26 00:15:43;4.12;135.50;80;21.90
2021-10-26 00:20:41;4.12;135.18;80;21.80
2021-10-26 00:25:40;4.12;137.12;80;21.70
2021-10-26 00:30:39;4.12;137.12;81;21.50
2021-10-26 00:35:43;4.12;135.18;81;21.40
2021-10-26 00:40:42;4.12;137.12;81;21.10
2021-10-26 00:45:40;4.12;135.50;82;21.10
2021-10-26 00:50:39;4.12;137.12;83;20.70
2021-10-26 00:55:43;4.12;135.50;82;20.80
2021-10-26 01:00:41;4.12;135.83;84;20.60
2021-10-26 01:05:40;4.12;135.50;84;20.40
2021-10-26 01:10:39;4.12;135.18;84;20.30
2021-10-26 01:15:42;4.12;137.12;83;20.40
2021-10-26 01:20:41;4.12;137.12;83;20.40
2021-10-26 01:25:40;4.12;135.50;84;20.20
2021-10-26 01:30:43;4.12;135.50;84;20.30
2021-10-26 01:35:42;4.12;137.12;85;20.10
2021-10-26 01:40:41;4.12;137.12;84;20.00
2021-10-26 01:45:39;4.12;135.50;85;19.80
2021-10-26 01:50:43;4.12;135.50;86;19.70
2021-10-26 01:55:41;4.12;135.18;87;19.40
2021-10-26 02:00:40;4.12;135.50;86;19.70
2021-10-26 02:05:43;4.12;137.12;87;19.40
2021-10-26 02:10:42;4.12;137.12;86;19.80
2021-10-26 02:15:40;4.12;135.18;86;19.80
2021-10-26 02:20:39;4.11;135.50;86;19.70
2021-10-26 02:25:42;4.11;137.12;86;19.60
2021-10-26 02:30:41;4.11;135.18;86;19.80
2021-10-26 02:35:39;4.11;137.12;86;19.80
2021-10-26 02:40:42;4.11;135.18;86;19.80
2021-10-26 02:45:41;4.11;135.18;86;20.00
2021-10-26 02:50:39;4.11;135.50;86;19.50
2021-10-26 02:55:43;4.11;134.86;87;19.60
2021-10-26 03:00:41;4.11;135.50;87;19.80
2021-10-26 03:05:40;4.11;137.12;89;19.30
2021-10-26 03:10:43;4.11;137.12;90;18.90
2021-10-26 03:15:42;4.11;137.12;90;19.10
2021-10-26 03:20:40;4.11;135.50;91;18.80
2021-10-26 03:25:39;4.11;135.50;92;18.50
2021-10-26 03:30:42;4.11;135.18;92;18.70
2021-10-26 03:35:40;4.11;137.12;92;18.30
2021-10-26 03:40:39;4.11;135.18;92;18.70
2021-10-26 03:45:42;4.11;137.12;91;18.60
2021-10-26 03:50:40;4.11;137.12;91;18.80
2021-10-26 03:55:39;4.11;136.79;92;18.50
2021-10-26 04:00:42;4.11;135.18;92;18.30
2021-10-26 04:05:40;4.11;137.12;93;18.10
2021-10-26 04:10:38;4.11;135.18;94;18.10
2021-10-26 04:15:41;4.11;136.79;95;17.80
2021-10-26 04:20:40;4.11;135.18;96;17.40
2021-10-26 04:25:43;4.11;135.18;97;17.40
2021-10-26 04:30:41;4.11;136.79;99;16.80
2021-10-26 04:35:39;4.11;136.79;99;16.30
2021-10-26 04:40:42;4.11;136.79;99;15.70
2021-10-26 04:45:41;4.11;136.79;99;15.40
2021-10-26 04:50:39;4.11;135.50;99;15.10
2021-10-26 04:55:41;4.11;136.79;99;15.10
2021-10-26 05:00:40;4.11;136.79;99;15.20
2021-10-26 05:05:42;4.11;134.86;99;15.40
2021-10-26 05:10:40;4.11;134.86;99;14.80
2021-10-26 05:15:38;4.11;136.79;99;14.70
2021-10-26 05:20:41;4.11;134.86;99;14.70
2021-10-26 05:25:39;4.11;135.18;99;15.70
2021-10-26 05:30:41;4.11;134.86;99;15.20
2021-10-26 05:35:39;4.11;136.79;99;14.30
2021-10-26 05:40:42;4.11;136.79;99;14.10
2021-10-26 05:45:40;4.11;134.86;99;13.60
2021-10-26 05:50:42;4.11;134.86;99;13.70
2021-10-26 05:55:40;4.11;135.18;99;13.70
2021-10-26 06:00:38;4.11;136.79;99;13.90
2021-10-26 06:05:40;4.11;136.79;99;13.70
2021-10-26 06:10:38;4.11;136.79;99;13.10
2021-10-26 06:15:41;4.11;135.18;99;13.30
2021-10-26 06:20:38;4.11;136.79;99;13.70
2021-10-26 06:25:41;4.11;134.54;99;14.20
2021-10-26 06:30:39;4.11;134.86;99;14.90
2021-10-26 06:35:41;4.11;136.79;99;14.90
2021-10-26 06:40:39;4.11;136.47;99;15.10
2021-10-26 06:45:42;4.11;136.47;99;15.20
2021-10-26 06:50:40;4.11;134.86;99;15.50
2021-10-26 06:55:42;4.11;134.86;99;15.70
2021-10-26 07:00:41;4.11;134.54;99;16.10
2021-10-26 07:05:39;4.11;134.86;99;16.10
2021-10-26 07:10:42;4.11;136.47;99;16.40
2021-10-26 07:15:40;4.11;136.47;99;16.90
2021-10-26 07:20:38;4.11;136.47;99;17.30
2021-10-26 07:25:41;4.11;136.47;99;17.70
2021-10-26 07:30:40;4.11;134.86;99;18.10
2021-10-26 07:35:38;4.11;134.22;97;19.10
2021-10-26 07:40:42;4.11;134.22;96;19.10
2021-10-26 07:45:41;4.11;134.54;96;19.60
2021-10-26 07:50:39;4.11;136.47;95;19.70
2021-10-26 07:55:43;4.11;136.47;93;20.20
2021-10-26 08:00:42;4.11;134.22;91;21.00
2021-10-26 08:05:41;4.11;134.22;90;21.50
2021-10-26 08:10:40;4.11;134.86;88;22.40
2021-10-26 08:15:43;4.11;134.22;88;22.30
2021-10-26 08:20:43;4.11;136.15;87;22.30
2021-10-26 08:25:42;4.11;136.15;87;22.70
2021-10-26 08:30:41;4.11;136.15;86;23.00
2021-10-26 08:35:41;4.11;136.47;86;23.30
2021-10-26 08:40:40;4.11;134.22;85;24.10
2021-10-26 08:45:39;4.11;136.15;81;24.60
2021-10-26 08:50:43;4.12;134.22;80;25.10
2021-10-26 08:55:43;4.11;134.54;82;25.50
2021-10-26 09:00:43;4.11;136.15;80;25.70
2021-10-26 09:05:42;4.12;136.15;78;25.80
2021-10-26 09:10:42;4.12;134.54;78;26.40
2021-10-26 09:15:42;4.11;134.54;76;26.40
2021-10-26 09:20:42;4.12;136.47;72;26.90
2021-10-26 09:25:42;4.12;136.47;73;27.10
2021-10-26 09:30:41;4.12;134.86;73;27.50
2021-10-26 09:35:42;4.12;134.22;73;28.00
2021-10-26 09:40:42;4.12;136.47;70;28.10
2021-10-26 09:45:42;4.12;134.22;70;28.00
2021-10-26 09:50:42;4.12;134.22;68;28.40
2021-10-26 09:55:42;4.12;136.47;68;29.10
2021-10-26 10:00:42;4.12;136.47;67;29.10
2021-10-26 10:05:43;4.12;134.54;65;29.10
2021-10-26 10:10:43;4.12;136.15;68;29.70
2021-10-26 10:15:43;4.12;134.22;64;29.80
2021-10-26 10:20:44;4.12;136.15;66;30.30
2021-10-26 10:25:44;4.12;134.22;64;30.00
2021-10-26 10:30:40;4.12;134.54;63;30.40
2021-10-26 10:35:41;4.12;134.86;63;30.60
2021-10-26 10:40:41;4.12;136.47;62;30.90
2021-10-26 10:45:42;4.12;134.54;62;31.20
2021-10-26 10:50:42;4.12;134.54;63;31.20
2021-10-26 10:55:43;4.12;134.54;61;31.60
2021-10-26 11:00:44;4.12;136.15;60;31.80
2021-10-26 11:05:40;4.12;134.86;59;31.80
2021-10-26 11:10:41;4.12;134.54;57;32.20
2021-10-26 11:15:42;4.12;136.47;57;32.40
2021-10-26 11:20:43;4.13;134.22;57;32.60
2021-10-26 11:25:44;4.13;136.47;57;32.30
2021-10-26 11:30:45;4.13;134.86;57;32.70
2021-10-26 11:35:41;4.13;134.86;58;33.10
2021-10-26 11:40:42;4.13;136.47;56;33.20
2021-10-26 11:45:43;4.13;136.79;56;33.60
2021-10-26 11:50:44;4.13;134.54;56;33.80
2021-10-26 11:55:41;4.13;134.86;56;34.00
2021-10-26 12:00:42;4.13;136.79;54;34.00
2021-10-26 12:05:43;4.13;136.47;58;33.90
2021-10-26 12:10:45;4.13;135.18;54;34.50
2021-10-26 12:15:41;4.13;136.79;55;34.20
2021-10-26 12:20:42;4.13;134.54;55;34.40
2021-10-26 12:25:44;4.13;134.54;55;34.50
2021-10-26 12:30:45;4.13;134.86;54;34.90
2021-10-26 12:35:42;4.13;134.86;55;34.80
2021-10-26 12:40:43;4.13;134.86;52;35.00
2021-10-26 12:45:45;4.13;136.79;53;34.90
2021-10-26 12:50:42;4.13;134.86;52;35.50
2021-10-26 12:55:43;4.13;136.79;53;35.30
2021-10-26 13:00:45;4.13;136.79;53;35.50
2021-10-26 13:05:42;4.13;137.12;52;35.40
2021-10-26 13:10:43;4.13;136.79;54;35.80
2021-10-26 13:15:45;4.13;135.50;54;36.30
2021-10-26 13:20:42;4.13;136.79;53;35.50
2021-10-26 13:25:44;4.13;135.18;52;36.30
2021-10-26 13:30:46;4.13;137.44;53;36.10
2021-10-26 13:35:43;4.13;137.76;51;36.10
2021-10-26 13:40:45;4.13;137.76;51;35.90
2021-10-26 13:45:42;4.13;135.83;51;36.00
