2021-05-12 00:04:14;4.11;145.17;99;3.50
2021-05-12 00:34:10;4.11;145.49;99;2.30
2021-05-12 01:04:11;4.11;146.30;99;2.20
2021-05-12 01:34:11;4.11;145.49;99;1.90
2021-05-12 02:04:11;4.11;146.94;99;1.50
2021-05-12 02:34:11;4.11;146.62;99;1.10
2021-05-12 03:04:11;4.11;147.91;99;0.80
2021-05-12 03:34:11;4.11;147.59;99;0.50
2021-05-12 04:04:10;4.11;147.27;99;0.20
2021-05-12 04:34:09;4.11;147.27;99;0.20
2021-05-12 05:04:12;4.11;146.62;99;-1.00
2021-05-12 05:34:11;4.11;147.59;99;-0.70
2021-05-12 06:04:10;4.10;146.62;99;-0.20
2021-05-12 06:34:08;4.10;146.62;99;-0.80
2021-05-12 07:04:11;4.10;146.30;99;-1.20
2021-05-12 07:34:10;4.10;146.94;99;-1.40
2021-05-12 08:04:08;4.10;147.59;99;-0.10
2021-05-12 08:34:11;4.10;145.82;99;4.20
2021-05-12 09:04:12;4.11;145.17;99;9.60
2021-05-12 09:34:17;4.11;145.98;89;13.90
2021-05-12 10:04:20;4.11;145.98;86;15.50
2021-05-12 10:34:21;4.11;144.85;78;17.90
2021-05-12 11:04:20;4.11;146.30;75;17.50
2021-05-12 11:34:23;4.12;146.94;72;17.70
2021-05-12 12:04:22;4.12;146.30;61;21.30
2021-05-12 12:34:24;4.12;147.27;58;21.80
2021-05-12 13:04:26;4.12;146.30;57;22.20
2021-05-12 13:34:25;4.12;145.98;57;23.20
2021-05-12 14:04:28;4.12;147.91;57;22.10
2021-05-12 14:34:26;4.12;146.94;56;21.30
2021-05-12 15:04:24;4.12;148.88;53;22.40
2021-05-12 15:34:27;4.13;147.59;56;21.60
2021-05-12 16:04:25;4.13;149.52;56;21.30
2021-05-12 16:34:27;4.13;146.94;57;20.50
2021-05-12 17:04:25;4.13;147.91;60;19.90
2021-05-12 17:34:26;4.13;146.30;66;18.40
2021-05-12 18:04:21;4.13;146.94;78;15.30
2021-05-12 18:34:18;4.12;146.62;93;11.40
2021-05-12 19:04:16;4.12;147.27;99;8.90
2021-05-12 19:34:17;4.12;147.27;99;8.30
2021-05-12 20:04:17;4.12;147.91;99;8.10
2021-05-12 20:34:16;4.12;146.94;99;7.20
2021-05-12 21:04:15;4.12;145.98;99;6.20
2021-05-12 21:34:13;4.12;146.30;99;6.90
2021-05-12 22:04:11;4.12;145.98;99;6.10
2021-05-12 22:34:14;4.12;147.59;99;6.40
2021-05-12 23:04:12;4.11;147.91;99;6.60
2021-05-12 23:34:15;4.11;147.91;99;6.20
