2021-04-26 00:04:15;4.12;140.82;99;8.80
2021-04-26 00:34:15;4.12;139.53;99;8.20
2021-04-26 01:04:15;4.12;139.85;99;8.20
2021-04-26 01:34:15;4.12;141.47;99;8.30
2021-04-26 02:04:15;4.12;140.18;99;7.80
2021-04-26 02:34:14;4.12;141.47;99;7.10
2021-04-26 03:04:13;4.12;141.79;99;7.40
2021-04-26 03:34:13;4.12;142.27;99;6.60
2021-04-26 04:04:16;4.12;142.59;99;6.60
2021-04-26 04:34:15;4.11;141.47;99;6.30
2021-04-26 05:04:13;4.11;142.92;99;6.10
2021-04-26 05:34:12;4.11;142.59;99;6.30
2021-04-26 06:04:15;4.11;141.14;99;6.30
2021-04-26 06:34:13;4.11;141.95;99;5.70
2021-04-26 07:04:16;4.11;141.79;99;5.50
2021-04-26 07:34:13;4.11;140.18;99;5.40
2021-04-26 08:04:11;4.11;140.18;99;8.70
2021-04-26 08:34:16;4.11;141.47;99;10.90
2021-04-26 09:04:18;4.12;139.53;99;13.80
2021-04-26 09:34:17;4.12;141.47;99;16.50
2021-04-26 10:04:24;4.12;141.47;89;20.00
2021-04-26 10:34:24;4.12;139.53;88;20.40
2021-04-26 11:04:26;4.12;141.47;74;24.00
2021-04-26 11:34:25;4.12;139.53;87;20.80
2021-04-26 12:04:26;4.12;139.85;78;22.10
2021-04-26 12:34:26;4.12;141.79;70;25.50
2021-04-26 13:04:26;4.13;140.50;79;22.70
2021-04-26 13:34:27;4.13;142.27;69;25.10
2021-04-26 14:04:27;4.13;141.47;70;24.50
2021-04-26 14:34:28;4.13;141.79;73;24.00
2021-04-26 15:04:28;4.13;143.56;74;24.40
2021-04-26 15:34:29;4.13;142.92;73;23.70
2021-04-26 16:04:25;4.13;142.59;73;23.20
2021-04-26 16:34:30;4.13;141.14;72;23.00
2021-04-26 17:04:26;4.13;142.59;77;22.40
2021-04-26 17:34:25;4.13;140.82;79;22.30
2021-04-26 18:04:24;4.13;140.82;90;21.20
2021-04-26 18:34:26;4.13;141.95;99;16.70
2021-04-26 19:04:20;4.13;140.18;99;14.20
2021-04-26 19:34:20;4.13;140.18;99;12.90
2021-04-26 20:04:19;4.13;141.47;99;13.00
2021-04-26 20:34:17;4.13;141.95;99;12.30
2021-04-26 21:04:15;4.13;141.95;99;12.00
2021-04-26 21:34:17;4.13;140.82;99;11.90
2021-04-26 22:04:15;4.13;140.50;99;12.00
2021-04-26 22:34:17;4.12;140.82;99;10.80
2021-04-26 23:04:19;4.12;142.27;99;10.50
2021-04-26 23:34:15;4.12;141.14;99;10.00
