2021-04-24 00:04:20;4.12;138.24;99;18.50
2021-04-24 00:34:23;4.12;138.24;99;19.00
2021-04-24 01:04:22;4.12;137.92;99;18.70
2021-04-24 01:34:21;4.12;137.92;99;18.00
2021-04-24 02:04:20;4.12;139.53;99;18.30
2021-04-24 02:34:23;4.12;139.85;99;18.50
2021-04-24 03:04:22;4.12;139.85;99;18.50
2021-04-24 03:34:21;4.12;139.85;99;18.30
2021-04-24 04:04:24;4.12;138.57;99;17.90
2021-04-24 04:34:22;4.12;140.18;99;17.40
2021-04-24 05:04:20;4.12;140.18;99;16.60
2021-04-24 05:34:22;4.12;138.24;99;16.30
2021-04-24 06:04:18;4.12;139.85;99;15.70
2021-04-24 06:34:19;4.12;138.57;99;15.30
2021-04-24 07:04:20;4.12;138.24;99;15.20
2021-04-24 07:34:21;4.12;140.18;99;15.40
2021-04-24 08:04:22;4.12;140.18;99;15.90
2021-04-24 08:34:18;4.12;140.18;99;16.30
2021-04-24 09:04:20;4.12;140.18;99;17.10
2021-04-24 09:34:22;4.12;139.85;99;17.50
2021-04-24 10:04:21;4.12;140.18;99;17.50
2021-04-24 10:34:24;4.12;138.24;99;19.40
2021-04-24 11:04:24;4.12;140.50;99;19.50
2021-04-24 11:34:26;4.12;140.50;99;20.00
2021-04-24 12:04:22;4.12;140.50;99;21.70
2021-04-24 12:34:25;4.13;139.53;99;21.00
2021-04-24 13:04:28;4.13;139.85;99;21.80
2021-04-24 13:34:26;4.13;139.85;98;22.10
2021-04-24 14:04:25;4.13;141.14;95;21.90
2021-04-24 14:34:24;4.13;139.53;96;22.00
2021-04-24 15:04:28;4.13;141.14;97;22.30
2021-04-24 15:34:27;4.13;138.89;96;22.10
2021-04-24 16:04:25;4.13;138.89;97;22.10
2021-04-24 16:34:24;4.13;138.89;94;22.50
2021-04-24 17:04:28;4.13;140.50;95;22.40
2021-04-24 17:34:27;4.13;140.18;97;22.10
2021-04-24 18:04:25;4.13;138.57;99;20.90
2021-04-24 18:34:27;4.13;138.24;99;18.60
2021-04-24 19:04:21;4.13;140.18;99;17.10
2021-04-24 19:34:19;4.13;138.24;99;16.40
2021-04-24 20:04:21;4.13;138.24;99;14.90
2021-04-24 20:34:21;4.13;138.57;99;14.80
2021-04-24 21:04:21;4.13;138.24;99;14.30
2021-04-24 21:34:16;4.13;139.85;99;13.90
2021-04-24 22:04:20;4.13;139.85;99;13.50
2021-04-24 22:34:20;4.13;138.24;99;14.50
2021-04-24 23:04:19;4.13;137.92;99;14.20
2021-04-24 23:34:18;4.12;138.24;99;14.20
