2021-3-9 0:2:38;4.33;99;17.20;11;0.325;0.057;23.01;73.4;0.056;21.4081;20.087;21.795;20.644;212;212;212;212;212;212;212;212;212;212;902;903;903;903;903;903;904;904;904;904;216;216;216;216;216;216;216;216;216;216
2021-3-9 0:32:36;4.33;99;17.00;11;0.325;0.057;23.01;73.4;0.056;21.4081;20.087;21.795;20.644;212;212;212;212;212;212;212;212;212;212;934;934;934;934;934;934;930;926;921;917;216;216;216;216;216;216;216;216;216;216
2021-3-9 1:2:37;4.33;99;16.90;11;0.325;0.057;23.01;73.4;0.056;21.4081;20.087;21.795;20.644;212;212;212;212;212;212;212;212;212;212;253;253;253;253;253;253;253;253;254;254;216;216;216;216;216;216;216;216;216;216
2021-3-9 1:32:35;4.33;99;16.70;11;0.327;0.056;23.01;73.4;0.055;21.5811;19.765;21.972;20.313;212;212;212;212;212;212;212;212;212;212;799;800;799;800;800;800;800;800;800;800;216;216;216;216;216;216;216;216;216;216
2021-3-9 2:2:37;4.32;99;16.60;11;0.327;0.056;23.01;73.4;0.055;21.5811;19.765;21.972;20.313;212;212;212;212;212;212;212;212;212;212;239;240;239;240;240;240;239;239;239;239;216;216;216;216;216;216;216;216;216;216
2021-3-9 2:32:34;4.32;99;16.10;11;0.327;0.056;23.01;73.4;0.055;21.5811;19.765;21.972;20.313;212;212;212;212;212;212;212;212;212;212;239;239;239;239;239;239;239;239;239;239;216;216;216;216;216;216;216;216;216;216
2021-3-9 3:2:35;4.32;99;16.20;11;0.327;0.056;23.01;73.4;0.055;21.5811;19.765;21.972;20.313;212;212;212;212;212;212;212;212;212;212;916;917;918;918;918;915;916;918;918;917;217;216;216;216;216;216;216;216;216;216
2021-3-9 3:32:36;4.32;99;16.30;11;0.321;0.058;23.01;73.4;0.056;21.0181;20.196;21.403;20.731;212;212;212;212;212;212;212;212;212;212;239;239;239;239;239;240;240;239;239;239;216;216;216;216;216;216;216;216;216;216
2021-3-9 4:2:37;4.32;99;16.10;11;0.321;0.058;23.01;73.4;0.056;21.0141;20.192;21.394;20.752;212;212;212;212;212;212;212;212;212;212;239;239;239;239;239;239;239;239;239;239;216;216;216;216;216;216;216;216;216;216
2021-3-9 4:32:34;4.31;99;15.70;11;0.327;0.056;23.01;73.4;0.055;21.5811;19.765;21.972;20.313;212;212;212;212;212;212;212;212;212;212;239;238;238;239;238;239;238;238;239;238;216;216;216;216;216;216;216;216;216;216
2021-3-9 5:2:35;4.31;99;15.70;11;0.321;0.058;23.01;73.4;0.056;21.0141;20.192;21.394;20.752;212;212;212;212;212;212;212;212;212;212;238;238;238;238;238;238;238;238;238;238;216;216;216;216;216;216;216;216;216;216
2021-3-9 5:32:35;4.31;99;15.40;11;0.321;0.058;23.01;73.4;0.056;21.0181;20.196;21.403;20.731;212;212;212;212;212;212;212;212;212;212;238;238;238;238;238;238;238;238;238;238;216;216;216;216;216;216;216;216;216;216
2021-3-9 6:2:36;4.30;99;14.80;11;0.321;0.058;23.01;73.4;0.056;21.0141;20.192;21.394;20.752;212;212;212;212;212;212;212;212;212;212;238;238;238;238;238;238;238;238;238;238;216;216;217;217;216;217;216;216;217;217
2021-3-9 6:32:35;4.30;99;13.40;11;0.327;0.056;23.01;73.4;0.055;21.5811;19.765;21.972;20.313;212;212;212;212;212;212;212;212;212;212;238;238;238;238;238;238;238;238;238;238;217;216;216;216;217;216;217;216;217;216
2021-3-9 7:2:35;4.30;99;12.90;11;0.321;0.058;23.01;73.4;0.056;21.0141;20.192;21.394;20.752;212;212;212;212;212;212;212;212;212;212;238;238;238;238;238;238;238;238;238;238;217;216;217;216;217;217;216;216;217;217
2021-3-9 7:32:34;4.30;99;17.90;11;0.321;0.058;23.01;73.4;0.056;21.0141;20.192;21.394;20.752;212;212;212;212;212;212;212;212;212;212;238;238;238;238;238;238;238;238;238;238;217;217;217;217;217;216;216;217;216;217
2021-3-9 8:2:34;4.31;99;24.70;11;0.321;0.058;23.01;73.4;0.056;21.0181;20.196;21.403;20.731;212;212;212;212;212;212;212;212;212;212;238;238;238;238;238;238;238;238;238;238;217;217;216;216;216;216;217;216;217;216
2021-3-9 8:32:37;4.33;89;27.70;11;0.321;0.058;23.01;73.4;0.056;21.0141;20.192;21.394;20.752;212;212;212;212;212;212;212;212;212;212;238;238;238;238;238;238;238;238;238;238;216;216;216;216;216;216;216;216;216;216
2021-3-9 9:2:39;4.36;89;27.00;11;0.323;0.057;23.01;73.4;0.055;21.1941;19.870;21.578;20.421;212;212;212;212;212;212;212;212;212;212;238;238;238;238;238;238;238;238;238;238;216;216;216;216;216;216;216;216;216;216
2021-3-9 9:32:44;4.38;57;32.10;11;0.323;0.057;23.01;73.4;0.055;21.1941;19.870;21.578;20.421;212;212;212;212;212;212;212;212;212;212;237;237;237;237;237;237;237;237;237;237;216;216;216;216;216;216;216;216;216;216
2021-3-9 10:2:48;4.39;48;34.60;11;0.329;0.056;23.01;73.4;0.054;21.7481;19.448;22.142;19.987;212;212;212;212;212;212;212;212;212;212;238;238;238;238;238;237;238;237;238;238;216;216;216;216;216;216;216;216;216;216
2021-3-9 10:32:52;4.41;47;35.60;11;0.329;0.056;23.01;73.4;0.054;21.7481;19.448;22.142;19.987;212;212;212;212;212;212;212;212;212;212;237;237;237;237;237;237;237;237;237;237;216;216;216;216;216;216;216;216;216;216
2021-3-9 11:2:54;4.41;41;36.40;11;0.323;0.057;23.01;73.4;0.055;21.1941;19.870;21.578;20.421;212;212;212;212;212;212;212;212;212;212;237;237;237;237;237;237;237;237;237;237;216;216;216;216;216;216;216;216;216;216
2021-3-9 11:32:54;4.41;38;36.30;11;0.326;0.056;23.01;73.4;0.055;21.5001;19.708;21.889;20.254;212;212;212;212;212;212;212;212;212;212;237;237;237;237;237;237;237;237;237;237;216;216;216;216;216;216;216;216;216;216
2021-3-9 12:2:55;4.41;37;36.90;11;0.328;0.055;23.01;73.4;0.054;21.6661;19.392;22.059;19.929;212;212;212;212;212;212;212;212;212;212;237;237;237;237;237;237;237;237;237;237;216;216;216;216;216;216;216;216;216;216
2021-3-9 12:32:58;4.42;40;36.80;11;0.326;0.056;23.01;73.4;0.055;21.5001;19.708;21.889;20.254;212;212;212;212;212;212;212;212;212;212;237;237;237;237;237;237;237;237;237;237;216;216;216;216;216;216;216;216;216;216
2021-3-9 13:2:59;4.43;31;38.60;11;0.328;0.055;23.01;73.4;0.054;21.6661;19.392;22.059;19.929;212;212;212;212;212;212;212;212;212;212;237;237;237;237;237;237;237;237;237;237;216;216;216;216;216;216;216;216;216;216
2021-3-9 13:33:0;4.43;32;39.20;11;0.328;0.055;23.01;73.4;0.054;21.6621;19.389;22.050;19.950;213;212;212;212;213;212;212;212;212;212;237;237;237;237;237;237;237;237;237;237;216;216;216;216;216;216;216;216;216;216
2021-3-9 14:2:58;4.44;37;40.30;11;0.322;0.057;23.01;73.4;0.055;21.1141;19.812;21.496;20.362;213;213;213;213;213;213;213;213;213;213;237;237;237;237;237;237;237;237;237;237;216;216;216;216;216;216;216;216;216;216
2021-3-9 14:33:2;4.43;32;38.20;11;0.328;0.055;23.01;73.4;0.054;21.6661;19.392;22.059;19.929;213;213;213;213;213;213;213;213;213;213;237;237;237;237;237;237;237;237;237;237;216;216;216;216;216;216;216;216;216;216
2021-3-9 15:3:1;4.44;30;39.40;11;0.322;0.057;23.01;73.4;0.055;21.1141;19.812;21.496;20.362;213;213;213;213;213;213;213;213;213;213;237;237;237;237;237;237;237;237;237;237;216;216;216;216;216;216;216;216;216;216
2021-3-9 15:33:0;4.44;29;41.20;11;0.322;0.057;23.01;73.4;0.055;21.1141;19.812;21.496;20.362;213;213;213;213;213;213;213;213;213;213;237;237;237;237;237;237;237;237;237;237;216;216;216;216;216;216;216;216;216;216
2021-3-9 16:3:3;4.44;27;38.90;11;0.322;0.057;23.01;73.4;0.055;21.1141;19.812;21.496;20.362;213;213;213;213;213;213;213;213;213;213;238;237;238;238;238;237;237;238;238;237;216;216;216;216;216;216;216;216;216;216
2021-3-9 16:33:1;4.43;26;38.80;11;0.317;0.057;23.01;73.4;0.055;20.7261;19.916;21.101;20.468;214;213;213;213;214;214;214;214;214;214;875;876;875;875;875;876;876;876;876;876;216;216;216;216;216;216;216;216;216;216
2021-3-9 17:2:57;4.43;27;37.50;11;0.321;0.056;23.01;73.4;0.055;21.0351;19.754;21.416;20.302;214;213;213;213;213;213;213;213;213;213;912;912;913;913;913;913;914;914;913;913;217;216;216;216;216;216;216;216;216;216
2021-3-9 17:32:56;4.42;31;36.80;11;0.324;0.056;23.01;73.4;0.054;21.2871;19.496;21.672;20.037;213;213;213;213;213;213;213;213;213;213;239;239;239;239;239;239;239;239;239;239;216;216;216;216;216;216;216;216;216;216
2021-3-9 18:2:53;4.42;31;35.10;11;0.321;0.056;23.01;73.4;0.055;21.0301;19.751;21.407;20.323;213;213;213;213;213;213;213;213;213;213;239;239;239;239;239;239;239;239;239;239;216;216;216;216;216;216;216;216;216;216
2021-3-9 18:32:52;4.41;40;31.20;11;0.321;0.056;23.01;73.4;0.055;21.0301;19.751;21.407;20.323;213;213;213;213;213;213;213;213;213;213;238;238;239;238;238;238;238;239;238;238;216;216;216;216;216;216;216;216;216;216
2021-3-9 19:2:51;4.39;60;28.30;11;0.327;0.055;23.01;73.4;0.054;21.5811;19.333;21.968;19.892;213;213;213;213;213;213;213;213;213;213;238;238;238;238;238;238;238;238;238;238;216;216;216;216;216;216;216;216;216;216
2021-3-9 19:32:47;4.38;95;24.30;11;0.323;0.056;23.01;73.4;0.054;21.2071;19.440;21.591;19.979;213;213;213;213;213;213;213;213;213;213;239;239;240;240;240;239;240;240;239;239;216;217;216;216;216;216;217;216;216;216
2021-3-9 20:2:44;4.36;99;21.40;11;0.329;0.054;23.01;73.4;0.053;21.7411;19.022;22.131;19.573;213;213;213;213;213;213;213;213;213;213;905;906;906;906;906;906;906;906;906;906;217;217;216;216;216;216;216;216;216;216
2021-3-9 20:32:43;4.35;99;20.70;11;0.323;0.056;23.01;73.4;0.054;21.2031;19.437;21.583;19.999;213;213;213;213;213;213;213;213;213;213;942;943;943;943;943;942;943;943;943;943;217;217;217;217;217;217;217;217;216;217
2021-3-9 21:2:40;4.35;99;20.10;11;0.323;0.056;23.01;73.4;0.054;21.2071;19.440;21.591;19.979;213;213;213;213;213;213;213;213;213;213;940;940;941;941;941;941;941;941;941;941;217;217;217;217;216;217;217;217;217;217
2021-3-9 21:32:41;4.34;99;19.10;11;0.323;0.056;23.01;73.4;0.054;21.2031;19.437;21.583;19.999;213;213;213;213;213;213;213;213;213;213;944;944;944;944;944;944;944;944;944;944;217;217;217;217;217;217;217;217;216;217
2021-3-9 22:2:36;4.33;99;18.50;11;0.316;0.057;23.01;73.4;0.055;20.6481;19.857;21.022;20.408;213;213;213;213;213;213;213;213;213;213;937;938;937;938;938;938;938;938;938;938;217;217;217;217;217;217;217;217;217;217
2021-3-9 22:32:39;4.33;99;18.10;11;0.323;0.056;23.01;73.4;0.054;21.2071;19.440;21.591;19.979;213;213;213;213;213;213;213;213;213;213;939;940;940;940;940;940;940;940;940;940;217;217;217;217;217;217;217;217;217;217
2021-3-9 23:2:38;4.33;99;17.50;11;0.316;0.057;23.01;73.4;0.055;20.6481;19.857;21.022;20.408;213;213;213;213;213;213;213;213;213;213;945;946;946;946;946;946;946;946;946;946;217;217;217;217;217;217;217;217;217;217
2021-3-9 23:32:36;4.33;99;16.60;11;0.323;0.056;23.01;73.4;0.054;21.2031;19.437;21.583;19.999;213;213;213;213;213;213;213;213;213;213;944;944;944;944;944;944;944;944;944;944;217;217;217;217;217;217;217;217;217;217
