2021-3-7 0:2:33;4.31;99;13.70;11;0.337;0.060;23.31;73.9;0.058;22.4321;21.017;22.851;21.523;210;210;210;210;210;210;210;210;211;210;902;903;903;903;903;903;902;902;903;902;215;215;215;215;215;215;215;215;215;215
2021-3-7 0:32:32;4.30;99;13.50;11;0.337;0.060;23.31;73.9;0.058;22.4321;21.017;22.851;21.523;210;210;210;210;210;210;210;210;210;210;451;451;452;452;452;452;452;452;451;452;215;215;215;215;215;215;215;215;215;215
2021-3-7 1:2:35;4.30;99;13.30;11;0.337;0.060;23.31;73.9;0.058;22.4321;21.017;22.851;21.523;210;210;210;210;210;210;210;210;210;210;919;915;911;907;903;900;896;894;897;901;215;215;215;215;215;215;215;215;215;215
2021-3-7 1:32:33;4.30;99;13.10;11;0.337;0.060;23.31;73.9;0.058;22.4321;21.017;22.851;21.523;210;210;210;210;210;210;210;210;210;210;939;940;940;940;940;940;940;940;940;940;215;215;215;215;215;215;215;215;215;215
2021-3-7 2:2:32;4.30;99;13.10;11;0.333;0.060;23.31;73.9;0.059;22.0231;21.132;22.439;21.616;211;210;211;211;210;211;210;211;210;211;926;926;926;925;925;925;925;925;925;925;215;215;215;215;215;215;215;215;215;215
2021-3-7 2:32:34;4.30;99;13.20;11;0.339;0.059;23.31;73.9;0.057;22.6091;20.676;23.031;21.175;210;210;211;211;210;211;210;210;211;210;934;934;934;934;934;935;934;934;935;934;215;215;215;215;215;215;215;215;215;215
2021-3-7 3:2:32;4.30;99;12.80;11;0.333;0.060;23.31;73.9;0.059;22.0231;21.132;22.439;21.616;211;211;210;210;210;211;210;210;210;210;921;921;921;922;922;922;922;922;922;922;215;215;215;215;215;215;215;215;215;215
2021-3-7 3:32:30;4.29;99;12.60;11;0.333;0.060;23.31;73.9;0.059;22.0231;21.132;22.439;21.616;211;210;211;210;211;211;210;211;210;210;927;927;927;927;926;927;927;927;928;928;215;215;215;215;215;215;215;215;215;215
2021-3-7 4:2:33;4.29;99;12.40;11;0.332;0.060;23.31;73.9;0.059;22.0181;21.129;22.430;21.638;211;210;211;210;210;211;211;211;211;211;922;922;922;922;922;922;922;922;922;922;215;215;215;215;215;215;215;215;215;215
2021-3-7 4:32:30;4.29;99;12.70;11;0.333;0.060;23.31;73.9;0.059;22.0231;21.132;22.439;21.616;211;210;211;211;211;211;210;211;211;210;936;936;937;937;937;937;937;937;937;937;215;215;215;215;215;215;215;215;215;215
2021-3-7 5:2:32;4.29;99;12.10;11;0.332;0.060;23.31;73.9;0.059;22.0181;21.129;22.430;21.638;211;211;211;211;211;211;211;211;211;211;914;915;915;916;917;917;916;912;908;904;215;215;215;215;215;215;215;215;215;215
2021-3-7 5:32:34;4.28;99;12.00;11;0.333;0.060;23.31;73.9;0.059;22.0231;21.132;22.439;21.616;211;210;210;211;211;210;211;210;211;211;519;519;519;519;519;519;519;519;519;519;215;215;215;215;215;215;215;215;215;215
2021-3-7 6:2:31;4.28;99;11.90;11;0.332;0.060;23.31;73.9;0.059;22.0181;21.129;22.430;21.638;211;211;211;211;211;211;210;211;211;211;939;940;940;940;940;940;940;940;940;940;215;215;215;215;215;215;215;215;215;215
2021-3-7 6:32:33;4.28;99;11.30;11;0.332;0.060;23.31;73.9;0.059;22.0181;21.129;22.430;21.638;210;211;210;210;210;210;210;210;211;210;736;736;737;738;738;739;739;740;741;741;215;215;215;215;215;215;215;215;215;215
2021-3-7 7:2:30;4.28;99;10.70;11;0.332;0.060;23.31;73.9;0.059;22.0181;21.129;22.430;21.638;211;211;211;211;211;211;211;211;211;211;932;932;932;933;933;933;933;933;933;932;216;215;215;215;215;215;215;215;215;215
2021-3-7 7:32:31;4.28;99;17.30;11;0.332;0.060;23.31;73.9;0.059;22.0181;21.129;22.430;21.638;210;210;210;210;210;210;210;210;210;210;898;899;899;899;899;899;898;898;898;898;216;215;215;215;215;215;215;215;215;215
2021-3-7 8:2:30;4.30;99;20.90;11;0.332;0.060;23.31;73.9;0.059;22.0181;21.129;22.430;21.638;210;211;210;210;211;210;210;211;211;210;482;484;485;486;486;487;488;489;490;491;215;215;215;215;215;215;215;215;215;215
2021-3-7 8:32:36;4.32;95;25.10;11;0.332;0.060;23.31;73.9;0.059;22.0181;21.129;22.430;21.638;211;210;211;210;210;211;210;211;210;211;902;902;901;901;900;900;900;902;903;905;215;215;215;215;215;215;215;215;215;215
2021-3-7 9:2:40;4.34;91;26.30;11;0.332;0.060;23.31;73.9;0.059;22.0181;21.129;22.430;21.638;211;210;211;211;210;211;211;210;210;210;899;899;899;899;899;900;900;900;900;900;215;215;215;215;215;215;215;215;215;215
2021-3-7 9:32:43;4.37;58;30.40;11;0.332;0.060;23.31;73.9;0.059;22.0181;21.129;22.430;21.638;211;210;211;211;211;211;211;211;211;211;922;922;922;923;923;924;924;924;924;924;215;215;215;215;215;215;215;215;215;215
2021-3-7 10:2:44;4.38;50;32.20;11;0.332;0.060;23.31;73.9;0.059;22.0181;21.129;22.430;21.638;211;211;211;211;211;211;211;211;211;211;939;939;939;939;939;939;939;939;939;939;215;215;215;215;215;215;215;215;215;215
2021-3-7 10:32:49;4.39;48;31.70;11;0.335;0.059;23.31;73.9;0.058;22.2021;20.788;22.617;21.289;211;211;211;211;211;211;211;211;211;211;928;928;928;928;929;928;926;926;925;925;215;215;215;215;215;215;215;215;215;215
2021-3-7 11:2:47;4.40;41;34.10;11;0.335;0.059;23.31;73.9;0.058;22.2021;20.788;22.617;21.289;211;211;211;211;211;211;211;211;211;211;906;906;906;907;906;906;906;906;906;907;215;215;215;215;215;215;215;215;215;215
2021-3-7 11:32:52;4.41;41;35.40;11;0.335;0.059;23.31;73.9;0.058;22.2021;20.788;22.617;21.289;211;211;211;211;211;211;211;211;211;211;934;934;934;934;934;934;934;934;934;934;215;215;215;215;215;215;215;215;215;215
2021-3-7 12:2:55;4.41;34;36.00;11;0.335;0.059;23.31;73.9;0.058;22.2021;20.788;22.617;21.289;212;211;211;211;211;211;211;211;211;211;927;927;927;927;927;928;928;928;928;929;215;215;215;215;215;215;215;215;215;215
2021-3-7 12:32:56;4.42;33;38.40;11;0.335;0.059;23.31;73.9;0.058;22.1971;20.784;22.607;21.310;211;211;211;211;211;211;211;211;211;211;424;424;424;424;424;423;423;423;423;423;215;215;215;215;215;215;215;215;215;215
2021-3-7 13:2:59;4.43;29;38.10;11;0.335;0.059;23.31;73.9;0.058;22.1971;20.784;22.607;21.310;211;211;211;211;211;211;211;211;211;211;605;605;605;605;606;605;605;606;605;605;215;215;215;215;215;215;215;215;215;215
2021-3-7 13:32:58;4.43;31;37.30;11;0.331;0.060;23.31;73.9;0.059;21.9321;21.064;22.341;21.571;212;212;212;212;212;212;212;212;212;212;920;921;921;921;921;921;921;921;921;921;215;215;215;215;215;215;215;215;215;215
2021-3-7 14:2:59;4.43;32;35.50;11;0.334;0.059;23.31;73.9;0.058;22.1111;20.721;22.519;21.245;212;212;212;212;212;212;212;212;212;212;901;899;900;901;899;900;904;907;910;912;215;215;215;215;215;215;215;215;215;215
2021-3-7 14:32:59;4.43;32;37.90;11;0.334;0.059;23.31;73.9;0.058;22.1111;20.721;22.519;21.245;211;211;211;211;211;211;211;211;211;211;242;242;242;242;242;242;242;242;242;242;215;215;214;215;215;215;214;215;214;215
2021-3-7 15:3:0;4.43;29;37.40;11;0.334;0.059;23.31;73.9;0.058;22.1111;20.721;22.519;21.245;211;211;211;211;211;211;211;211;211;211;240;240;240;239;240;240;240;240;240;240;214;214;215;215;215;215;215;215;214;214
2021-3-7 15:33:1;4.43;31;37.70;11;0.334;0.059;23.31;73.9;0.058;22.1111;20.721;22.519;21.245;211;211;211;211;211;211;211;211;211;211;239;239;239;239;239;239;239;239;239;239;215;215;215;215;214;214;214;214;215;214
2021-3-7 16:2:56;4.42;32;35.30;11;0.334;0.059;23.01;73.4;0.058;22.1111;20.721;22.519;21.245;211;211;211;211;211;211;211;211;211;211;239;239;239;239;239;239;239;239;239;239;214;214;214;214;215;214;215;214;215;215
2021-3-7 16:32:59;4.42;33;34.90;11;0.334;0.059;23.31;73.9;0.058;22.1111;20.721;22.519;21.245;211;211;211;211;211;211;211;211;211;211;239;239;239;239;239;239;239;239;239;239;215;215;215;215;215;215;215;214;215;215
2021-3-7 17:2:56;4.41;34;33.90;11;0.336;0.058;23.31;73.9;0.057;22.2861;20.387;22.698;20.903;212;211;212;211;211;212;211;211;211;211;828;828;828;828;828;828;827;827;827;827;215;215;215;215;215;215;215;215;215;215
2021-3-7 17:32:52;4.41;37;32.70;11;0.336;0.058;23.31;73.9;0.057;22.2861;20.387;22.698;20.903;211;211;211;211;211;211;211;211;211;211;239;239;239;239;239;239;239;239;239;239;215;215;215;215;215;215;215;215;215;215
2021-3-7 18:2:55;4.41;38;31.20;11;0.329;0.059;23.31;73.9;0.058;21.7031;20.831;22.104;21.358;211;211;211;211;211;211;211;211;211;211;239;238;239;239;238;238;239;238;238;239;215;215;215;215;215;215;215;215;215;215
2021-3-7 18:32:50;4.40;43;29.30;11;0.329;0.059;23.31;73.9;0.058;21.7081;20.834;22.113;21.336;211;211;211;211;211;211;211;211;211;211;238;238;238;238;238;238;238;238;238;238;215;215;215;215;215;215;215;215;215;215
2021-3-7 19:2:47;4.38;65;25.60;11;0.329;0.059;23.31;73.9;0.058;21.7031;20.831;22.104;21.358;211;211;211;211;211;211;211;211;211;211;238;238;238;238;238;238;238;238;238;238;215;215;215;215;215;215;215;215;215;215
2021-3-7 19:32:41;4.37;99;21.10;11;0.329;0.059;23.31;73.9;0.058;21.7031;20.831;22.104;21.358;211;211;211;211;211;211;211;211;211;211;238;238;238;238;238;238;238;238;238;238;215;215;215;215;215;215;215;215;215;215
2021-3-7 20:2:40;4.35;99;18.60;11;0.322;0.061;23.01;73.4;0.059;21.0951;21.279;21.485;21.818;211;211;211;211;211;211;211;211;211;211;239;239;239;239;238;239;239;239;239;238;215;215;215;215;215;215;215;215;215;215
2021-3-7 20:32:40;4.34;99;17.90;11;0.324;0.060;23.31;73.9;0.058;21.2981;20.943;21.695;21.448;211;211;211;211;211;211;211;211;211;211;240;240;240;240;240;240;240;240;240;240;215;215;215;215;215;215;215;215;215;215
2021-3-7 21:2:35;4.33;99;17.20;11;0.324;0.060;23.31;73.9;0.058;21.2931;20.940;21.687;21.469;211;211;211;211;211;211;211;211;211;211;240;240;240;240;240;239;240;240;240;240;215;215;215;215;215;215;215;215;215;215
2021-3-7 21:32:38;4.33;99;16.90;11;0.324;0.060;23.31;73.9;0.058;21.2931;20.940;21.687;21.469;211;211;211;211;211;211;211;211;211;211;239;239;238;238;239;239;239;239;239;239;215;215;215;215;215;215;215;215;215;215
2021-3-7 22:2:35;4.33;99;16.10;11;0.335;0.058;23.31;73.9;0.057;22.2001;20.326;22.610;20.840;211;211;211;211;211;211;211;211;211;211;239;239;239;239;239;239;239;239;239;239;216;216;216;216;216;215;216;216;215;215
2021-3-7 22:32:36;4.32;99;15.40;11;0.335;0.058;23.01;73.4;0.057;22.2001;20.326;22.610;20.840;211;211;211;211;211;211;211;211;211;211;239;239;239;239;239;239;239;239;239;239;216;216;215;216;216;216;216;216;216;216
2021-3-7 23:2:33;4.32;99;14.50;11;0.335;0.058;23.31;73.9;0.057;22.2001;20.326;22.610;20.840;211;211;211;211;211;212;211;211;211;211;239;239;239;239;239;239;239;239;239;239;216;216;216;216;216;216;216;216;216;216
2021-3-7 23:32:33;4.31;99;14.60;11;0.335;0.058;23.31;73.9;0.057;22.2001;20.326;22.610;20.840;211;211;211;211;211;211;211;211;211;211;239;239;239;239;239;239;239;239;239;239;216;216;216;216;216;216;216;216;216;216
