2021-9-21 0:2:37;4.31;99;16.30;94;17.60;11;0.177;0.022;17.31;63.2;0.019;10.6871;6.990;10.738;7.858;26;26;26;27;27;26;27;27;27;26;368;368;368;368;368;368;368;368;368;368;385;385;386;386;385;385;385;386;386;385
2021-9-21 0:32:34;4.30;99;15.90;95;17.20;11;0.183;0.021;16.81;62.3;0.019;11.0111;6.688;11.054;7.566;27;27;27;26;27;26;27;27;27;27;368;368;368;369;368;368;368;369;368;369;386;386;386;386;386;386;386;386;386;386
2021-9-21 1:2:35;4.30;99;15.50;96;16.80;11;0.180;0.021;16.51;61.7;0.019;10.8211;6.717;10.851;7.662;27;27;26;27;26;27;26;27;27;27;368;368;368;369;369;368;368;368;368;368;386;386;386;386;386;386;386;386;386;386
2021-9-21 1:32:32;4.30;99;14.90;97;16.30;11;0.179;0.021;16.01;60.8;0.019;10.7941;6.703;10.813;7.701;26;27;27;26;26;26;26;26;27;27;368;369;368;368;369;368;368;369;369;369;387;386;387;387;387;387;387;387;386;387
2021-9-21 2:2:32;4.29;99;14.50;97;15.70;11;0.178;0.021;15.51;59.9;0.018;10.7191;6.622;10.726;7.670;27;26;26;26;26;26;26;26;26;26;369;369;369;369;369;369;369;369;369;369;387;387;387;387;387;387;387;387;387;387
2021-9-21 2:32:32;4.29;99;14.10;98;15.30;11;0.179;0.021;15.01;59.1;0.018;10.7831;6.489;10.778;7.577;26;26;27;26;26;26;26;26;26;26;370;370;370;369;370;370;369;370;370;369;388;388;387;387;387;387;387;387;387;388
2021-9-21 3:2:31;4.28;99;13.50;98;14.90;11;0.178;0.021;14.41;58.0;0.018;10.7561;6.476;10.739;7.622;26;26;26;26;26;26;26;26;26;26;369;369;370;370;369;370;369;369;370;370;388;388;388;388;388;388;388;388;388;388
2021-9-21 3:32:31;4.28;99;13.20;99;14.30;11;0.177;0.021;14.11;57.4;0.018;10.6821;6.397;10.654;7.589;26;26;26;26;26;26;27;26;26;26;370;370;370;370;370;370;370;370;370;370;388;388;388;388;388;388;388;388;388;388
2021-9-21 4:2:34;4.27;99;12.90;99;13.90;11;0.178;0.021;13.51;56.4;0.017;10.7451;6.267;10.708;7.487;26;26;26;26;26;26;26;26;26;26;371;371;370;370;370;370;370;370;370;370;389;389;388;389;388;389;388;389;389;389
2021-9-21 4:32:32;4.27;99;12.70;99;13.60;11;0.178;0.021;13.31;55.9;0.017;10.7191;6.255;10.672;7.524;26;26;26;26;26;26;26;26;26;26;371;370;371;370;370;371;370;371;371;370;389;389;389;389;389;389;389;389;389;389
2021-9-21 5:2:30;4.27;99;12.40;99;13.40;11;0.177;0.021;12.81;55.1;0.017;10.6481;6.178;10.594;7.476;26;26;26;26;26;26;26;26;26;26;371;371;371;371;371;371;371;371;371;371;389;389;389;390;390;389;389;389;389;389
2021-9-21 5:32:33;4.27;99;12.10;99;13.10;11;0.176;0.021;12.61;54.6;0.017;10.6241;6.167;10.562;7.505;26;26;26;26;26;26;26;26;26;26;371;371;372;371;371;371;371;371;371;372;390;390;390;390;390;389;390;389;389;390
2021-9-21 6:2:31;4.27;99;11.80;99;12.90;11;0.174;0.021;12.11;53.9;0.017;10.4651;6.206;10.397;7.597;26;26;26;26;26;26;26;26;26;26;371;371;372;371;372;371;371;371;372;371;390;390;390;390;390;390;390;390;390;390
2021-9-21 6:32:33;4.27;99;11.50;98;12.60;11;0.173;0.021;11.91;53.4;0.017;10.4421;6.194;10.365;7.626;26;26;26;26;26;26;26;26;26;26;371;371;371;371;372;371;371;372;371;371;390;390;390;390;390;390;390;390;390;391
2021-9-21 7:2:30;4.27;99;11.20;99;12.30;11;0.172;0.021;11.51;52.7;0.017;10.3721;6.119;10.288;7.583;26;26;26;26;26;26;26;26;26;26;371;371;372;371;371;371;372;371;371;371;391;391;391;391;391;391;391;391;390;391
2021-9-21 7:32:32;4.27;99;11.30;99;12.00;11;0.172;0.021;11.31;52.4;0.017;10.3511;6.108;10.263;7.592;26;26;26;26;26;26;26;26;26;26;372;372;371;371;372;371;371;372;372;371;391;391;391;391;391;391;391;391;391;391
2021-9-21 8:2:29;4.27;99;11.90;98;12.00;11;0.173;0.021;11.51;52.7;0.017;10.4431;5.997;10.362;7.411;26;26;26;26;26;26;26;26;26;26;373;374;374;374;374;374;374;374;373;374;391;391;391;391;391;391;391;391;391;391
2021-9-21 8:32:32;4.29;90;14.00;96;12.50;11;0.172;0.021;12.61;54.6;0.017;10.3701;6.118;10.316;7.409;26;26;26;26;26;26;26;26;26;26;376;376;376;376;376;376;376;376;376;376;389;389;389;389;389;389;389;389;389;389
2021-9-21 9:2:33;4.30;69;16.00;91;14.30;11;0.171;0.021;13.71;56.6;0.017;10.3171;6.251;10.293;7.401;26;26;26;26;27;26;26;26;26;26;378;377;377;378;377;377;378;377;377;377;388;388;388;388;388;388;388;388;388;388
2021-9-21 9:32:35;4.33;62;17.30;83;16.20;11;0.174;0.020;15.21;59.4;0.017;10.5131;6.230;10.527;7.179;27;26;26;27;27;27;27;26;26;26;377;377;377;377;377;377;377;377;377;377;388;388;388;388;388;388;388;388;388;388
2021-9-21 10:2:40;4.35;53;19.30;80;17.50;11;0.176;0.020;16.81;62.3;0.018;10.6211;6.325;10.675;7.096;26;27;26;27;27;26;27;27;26;27;377;376;376;377;376;376;376;376;377;376;389;389;389;389;389;389;389;389;389;389
2021-9-21 10:32:44;4.37;46;21.40;74;19.40;11;0.174;0.020;18.01;64.5;0.018;10.4961;6.591;10.581;7.239;27;27;27;27;27;27;27;27;27;27;377;378;378;378;378;377;377;377;377;378;391;390;391;390;390;390;391;390;391;391
2021-9-21 11:2:41;4.37;38;22.70;68;21.40;11;0.180;0.019;19.51;67.1;0.018;10.8561;6.526;10.978;7.013;27;27;27;27;27;27;27;27;27;27;378;378;378;379;378;378;379;378;379;378;392;392;392;392;392;392;392;392;392;392
2021-9-21 11:32:46;4.38;30;23.60;61;23.00;11;0.178;0.020;20.71;69.2;0.019;10.7311;6.798;10.883;7.167;27;27;27;27;27;27;27;27;27;27;379;379;379;379;379;379;379;379;379;379;393;393;393;394;394;393;393;394;394;393
2021-9-21 12:2:47;4.39;29;25.10;53;24.20;11;0.178;0.020;21.91;71.5;0.020;10.7431;7.021;10.926;7.267;27;27;27;27;27;27;27;27;27;27;379;379;379;379;379;379;379;379;379;379;395;395;395;395;395;395;395;395;395;395
2021-9-21 12:32:50;4.39;26;24.50;53;25.50;11;0.184;0.020;23.31;73.9;0.019;11.1141;6.954;11.334;7.071;27;27;27;27;27;27;27;27;27;27;378;379;378;378;379;378;378;378;379;378;397;397;397;397;397;397;397;397;397;397
2021-9-21 13:2:50;4.40;23;26.00;49;25.50;11;0.179;0.020;24.41;75.9;0.020;10.8151;7.283;11.059;7.280;27;27;27;27;27;27;27;27;27;27;378;378;378;378;377;378;378;378;378;378;399;399;399;399;399;399;399;399;399;399
2021-9-21 13:32:51;4.40;23;26.20;46;27.00;11;0.180;0.021;25.61;78.2;0.021;10.8251;7.517;11.101;7.384;27;27;27;27;27;27;27;27;27;27;377;377;377;377;377;377;377;377;377;377;401;401;401;401;401;401;401;401;401;401
2021-9-21 14:2:51;4.40;22;26.90;46;27.50;11;0.186;0.020;26.71;80.0;0.021;11.2141;7.450;11.534;7.187;27;27;27;27;27;27;27;27;27;27;377;377;377;377;377;377;377;377;377;377;402;402;402;402;402;402;402;402;402;402
2021-9-21 14:32:51;4.40;23;27.20;45;28.00;11;0.181;0.020;28.01;82.5;0.022;10.9081;7.799;11.264;7.345;27;27;27;27;27;27;27;27;27;27;377;378;378;378;378;378;377;377;377;377;402;403;403;402;403;402;402;402;402;403
2021-9-21 15:2:49;4.39;25;26.10;46;28.50;11;0.183;0.020;29.51;85.1;0.022;11.0211;7.910;11.408;7.347;27;27;27;27;27;27;27;27;27;27;379;379;379;379;379;379;379;379;379;379;401;401;401;401;401;401;401;401;401;401
2021-9-21 15:32:45;4.38;27;25.30;48;27.50;11;0.190;0.020;29.81;85.6;0.021;11.4781;7.682;11.879;7.145;25;25;25;25;25;25;25;25;25;25;378;378;378;378;378;378;378;378;378;378;399;399;400;399;399;399;399;399;400;399
2021-9-21 16:2:43;4.38;29;23.70;50;26.80;11;0.182;0.021;30.11;86.2;0.022;10.9391;8.060;11.330;7.465;25;25;25;25;25;25;25;25;25;25;378;379;378;378;379;379;379;378;378;379;399;399;399;399;399;399;399;399;399;399
2021-9-21 16:32:43;4.35;32;21.80;51;25.50;11;0.188;0.021;28.61;83.5;0.022;11.3501;7.799;11.699;7.425;25;25;25;25;25;24;25;25;25;25;374;374;373;374;374;374;374;374;374;374;398;398;398;398;398;398;399;398;398;399
2021-9-21 17:2:41;4.34;35;20.70;54;23.60;11;0.180;0.021;26.41;79.5;0.022;10.8571;7.769;11.129;7.651;24;24;24;24;24;24;24;24;24;24;371;370;370;371;371;370;370;371;370;370;398;398;398;397;397;398;398;397;397;397
2021-9-21 17:32:28;4.34;37;20.20;57;22.00;11;0.178;0.021;24.91;76.8;0.021;10.7171;7.644;10.946;7.697;24;24;24;24;24;23;24;24;24;23;370;370;370;371;371;370;370;370;370;370;398;398;398;397;398;398;397;397;397;398
2021-9-21 18:2:42;4.33;42;19.50;59;21.30;11;0.182;0.021;23.51;74.3;0.020;10.9571;7.223;11.158;7.414;23;24;24;23;23;24;24;23;23;24;371;372;371;371;371;371;371;371;371;371;398;398;398;398;398;398;398;397;398;398
2021-9-21 18:32:37;4.33;45;18.70;63;20.60;11;0.180;0.021;22.41;72.3;0.020;10.8271;7.110;11.000;7.410;23;23;23;23;23;23;23;23;23;23;372;372;372;372;372;372;372;372;372;372;398;398;398;398;398;398;398;398;398;398
2021-9-21 19:2:37;4.32;48;18.00;66;19.80;11;0.178;0.021;21.51;70.7;0.019;10.7231;7.010;10.871;7.407;23;23;23;23;23;23;23;23;23;23;373;373;373;373;373;373;373;373;373;373;398;398;398;398;398;398;398;398;398;398
2021-9-21 19:32:35;4.32;52;17.40;69;19.10;11;0.172;0.021;20.51;68.9;0.020;10.3531;7.077;10.471;7.597;23;23;23;23;23;23;23;23;23;23;374;374;374;374;374;374;374;373;374;374;398;398;398;399;398;399;398;399;398;398
2021-9-21 20:2:38;4.31;57;16.70;72;18.40;11;0.177;0.020;19.71;67.5;0.019;10.6611;6.762;10.764;7.346;23;23;23;23;22;23;23;23;23;23;374;374;375;375;375;374;374;375;375;374;399;399;399;399;399;399;399;399;399;399
2021-9-21 20:32:35;4.30;61;16.10;76;17.60;11;0.175;0.020;18.81;65.8;0.019;10.5601;6.667;10.641;7.345;23;23;22;23;23;23;23;23;22;23;375;375;375;375;375;375;375;375;375;375;399;399;399;399;399;399;399;399;399;399
2021-9-21 21:2:36;4.30;66;15.50;79;17.00;11;0.174;0.020;18.01;64.5;0.018;10.4631;6.574;10.525;7.329;23;22;23;22;23;23;22;23;23;23;375;375;375;375;375;375;375;375;375;375;400;400;400;400;400;400;400;400;400;400
2021-9-21 21:32:33;4.30;71;15.00;81;16.50;11;0.172;0.020;17.31;63.2;0.018;10.3681;6.482;10.412;7.310;23;22;23;23;23;23;22;22;23;22;376;376;376;376;375;376;376;376;376;376;400;400;400;400;400;400;400;401;400;400
2021-9-21 22:2:33;4.30;77;14.70;83;15.90;11;0.169;0.021;16.71;62.0;0.018;10.1801;6.509;10.210;7.417;23;23;23;22;23;22;23;22;22;22;376;376;376;376;376;377;376;377;377;377;401;401;401;401;401;401;401;401;401;401
2021-9-21 22:32:33;4.29;74;14.50;85;15.50;11;0.170;0.020;16.01;60.8;0.018;10.2471;6.378;10.262;7.343;23;22;22;23;23;22;23;23;22;22;377;377;377;377;377;377;377;377;377;377;402;401;401;401;401;401;402;401;401;401
2021-9-21 23:2:33;4.29;76;14.30;84;15.40;11;0.167;0.021;15.51;59.9;0.018;10.0641;6.406;10.069;7.428;22;22;22;22;23;22;22;23;22;23;377;378;377;377;378;377;377;377;378;377;402;402;402;402;402;402;402;402;402;402
2021-9-21 23:32:32;4.29;74;14.10;85;15.20;11;0.168;0.020;15.01;59.1;0.017;10.1331;6.278;10.127;7.338;22;23;22;22;23;22;22;23;22;22;378;378;378;378;378;378;378;378;378;378;402;403;402;403;403;402;402;403;402;402
