2021-8-22 0:2:37;4.32;99;16.80;98;17.50;11;0.172;0.021;17.01;62.6;0.019;10.3781;6.698;10.421;7.561;18;17;17;17;17;17;17;17;17;17;397;398;397;398;398;398;397;398;397;397;402;402;402;402;402;402;402;402;401;402
2021-8-22 0:32:35;4.31;99;16.70;99;17.40;11;0.174;0.021;16.71;62.0;0.018;10.4691;6.577;10.507;7.455;17;17;17;18;17;17;17;17;17;17;398;398;398;398;398;398;398;398;398;398;402;402;402;402;402;402;402;402;402;402
2021-8-22 1:2:37;4.31;99;16.30;99;17.20;11;0.173;0.021;16.51;61.7;0.018;10.4451;6.564;10.475;7.480;17;17;18;17;17;17;17;17;17;17;398;399;399;398;398;399;398;398;398;398;402;402;402;402;402;402;402;402;402;402
2021-8-22 1:32:34;4.31;99;15.90;99;16.70;11;0.169;0.021;16.21;61.1;0.019;10.1841;6.723;10.206;7.700;17;17;17;17;17;17;17;17;17;17;399;399;399;399;399;399;399;399;399;399;402;402;402;402;402;402;402;402;402;402
2021-8-22 2:2:35;4.30;99;15.20;99;16.30;11;0.172;0.021;15.81;60.5;0.018;10.3701;6.483;10.383;7.471;18;18;18;18;17;17;18;18;17;18;399;399;399;399;400;399;399;399;399;399;402;402;402;402;402;402;402;402;402;402
2021-8-22 2:32:36;4.30;99;14.80;99;15.70;11;0.172;0.021;15.41;59.6;0.018;10.3441;6.470;10.348;7.509;18;17;18;18;18;18;18;18;18;18;399;399;400;399;399;399;399;400;400;400;403;403;403;402;403;402;402;402;403;403
2021-8-22 3:2:37;4.30;99;14.70;99;15.20;11;0.171;0.021;15.01;59.1;0.018;10.3201;6.457;10.315;7.540;18;18;18;18;18;18;17;17;18;18;399;400;399;399;400;400;399;400;399;400;403;403;403;403;403;403;403;403;403;403
2021-8-22 3:32:33;4.30;99;14.30;99;15.10;11;0.173;0.021;14.71;58.5;0.018;10.4071;6.338;10.394;7.445;18;17;18;18;17;18;18;17;17;17;400;400;400;400;400;400;400;400;400;400;403;403;403;403;403;403;403;403;403;403
2021-8-22 4:2:33;4.30;99;14.10;99;14.80;11;0.170;0.021;14.41;58.0;0.018;10.2471;6.378;10.229;7.522;18;18;18;18;18;18;18;18;18;18;400;400;400;401;400;400;400;400;400;400;403;403;403;403;403;403;403;403;403;403
2021-8-22 4:32:33;4.30;99;13.80;99;14.50;11;0.170;0.021;14.11;57.4;0.018;10.2241;6.366;10.199;7.545;18;18;18;18;18;18;18;18;18;18;400;401;400;400;401;401;400;401;400;400;403;404;404;403;404;404;404;403;403;404
2021-8-22 5:2:32;4.29;99;13.90;99;14.20;11;0.171;0.021;13.81;56.9;0.017;10.3121;6.248;10.280;7.443;18;18;18;18;18;18;18;18;18;18;400;400;400;401;401;401;401;400;401;400;404;404;404;404;404;404;404;404;404;404
2021-8-22 5:32:32;4.29;99;13.80;99;14.20;11;0.168;0.021;13.51;56.4;0.017;10.1531;6.288;10.117;7.519;18;18;18;18;18;18;18;18;18;18;401;401;401;401;401;401;401;401;401;401;404;404;404;404;404;404;404;404;404;404
2021-8-22 6:2:31;4.29;99;13.60;99;14.20;11;0.168;0.021;13.31;55.9;0.017;10.1311;6.277;10.090;7.535;18;19;18;18;18;18;18;18;19;18;401;401;401;401;401;401;401;401;401;401;404;404;404;404;404;404;404;404;404;404
2021-8-22 6:32:31;4.29;99;13.60;99;14.00;11;0.168;0.021;13.11;55.6;0.017;10.1291;6.275;10.084;7.556;18;18;19;18;18;18;18;18;18;18;401;402;402;402;401;401;401;402;402;401;404;404;404;405;404;405;404;404;404;404
2021-8-22 7:2:35;4.28;99;13.10;99;13.90;11;0.169;0.021;12.81;55.1;0.017;10.2181;6.159;10.167;7.445;18;18;19;19;18;18;18;19;18;18;402;402;402;402;402;402;402;402;402;402;404;405;405;405;405;405;405;405;405;405
2021-8-22 7:32:34;4.28;99;12.70;99;13.50;11;0.169;0.021;12.71;54.8;0.017;10.1951;6.148;10.138;7.468;19;18;18;18;19;18;18;19;18;18;402;402;402;403;402;402;402;402;402;402;405;405;405;405;405;405;405;405;405;405
2021-8-22 8:2:32;4.28;99;12.80;99;13.20;11;0.166;0.021;12.41;54.3;0.017;10.0401;6.188;9.981;7.531;19;19;18;19;18;18;18;18;19;19;402;402;402;402;402;402;402;403;402;402;405;405;405;405;405;405;405;405;405;405
2021-8-22 8:32:31;4.30;99;14.00;99;13.40;11;0.166;0.021;12.71;54.8;0.017;10.0451;6.191;9.995;7.483;18;18;19;18;18;19;19;18;19;19;403;403;403;404;403;403;403;403;403;403;405;405;405;405;406;405;405;405;405;405
2021-8-22 9:2:35;4.32;99;15.80;99;14.80;11;0.167;0.020;13.51;56.4;0.017;10.0571;6.197;10.029;7.367;18;19;18;18;18;18;19;19;19;19;404;405;405;404;404;405;404;404;404;404;405;405;405;405;405;405;405;405;405;405
2021-8-22 9:32:35;4.33;99;15.90;98;17.30;11;0.169;0.020;14.11;57.4;0.017;10.2201;6.161;10.206;7.244;19;19;19;19;19;19;19;19;19;19;405;405;405;405;405;405;405;405;405;405;405;405;405;405;404;404;404;404;405;405
2021-8-22 10:2:32;4.33;99;17.80;99;16.90;11;0.170;0.020;14.91;58.8;0.017;10.2481;6.175;10.251;7.174;19;18;18;18;19;18;19;19;19;18;405;405;405;405;405;405;405;405;405;405;405;405;405;405;405;405;405;405;405;405
2021-8-22 10:32:40;4.35;88;19.60;93;19.40;11;0.169;0.020;17.01;62.6;0.018;10.2111;6.318;10.274;7.028;19;18;19;19;18;18;18;18;18;18;408;408;408;408;408;408;408;408;408;407;405;406;405;405;406;406;405;405;406;406
2021-8-22 11:2:41;4.35;74;21.10;86;21.60;11;0.171;0.020;17.91;64.1;0.018;10.3021;6.407;10.381;7.059;18;19;19;19;19;18;18;19;18;19;407;407;408;408;407;407;407;407;407;407;404;404;404;405;404;404;404;404;404;404
2021-8-22 11:32:41;4.38;61;23.40;81;23.20;11;0.169;0.019;21.51;70.7;0.019;10.1891;6.685;10.368;6.894;19;18;18;19;19;19;18;19;19;18;409;409;409;410;409;409;410;410;409;409;406;406;406;406;406;406;406;406;406;406
2021-8-22 12:2:45;4.38;48;23.80;75;25.40;11;0.174;0.019;24.21;75.5;0.019;10.4741;6.750;10.721;6.706;19;19;18;18;19;18;19;19;18;19;410;410;409;410;410;410;410;410;410;410;407;407;407;407;407;407;407;407;407;407
2021-8-22 12:32:46;4.39;45;23.70;66;25.40;11;0.171;0.019;25.91;78.6;0.020;10.3381;7.028;10.617;6.842;19;18;18;18;19;19;18;19;19;19;410;409;410;409;410;410;409;409;409;410;408;408;408;408;408;408;408;408;408;408
2021-8-22 13:2:47;4.39;44;24.70;64;25.40;11;0.173;0.019;27.21;81.0;0.020;10.4491;7.133;10.771;6.791;18;18;18;18;19;18;18;19;19;18;409;410;409;410;410;410;409;410;410;409;409;409;410;409;410;409;409;409;409;409
2021-8-22 13:32:48;4.39;36;24.80;62;26.50;11;0.175;0.019;28.91;84.0;0.020;10.5611;7.239;10.924;6.752;18;18;19;18;18;18;18;19;18;18;410;410;410;410;410;410;409;410;410;410;410;410;410;410;410;410;410;410;410;410
2021-8-22 14:2:50;4.40;34;26.10;56;26.70;11;0.175;0.019;31.11;87.9;0.021;10.5321;7.409;10.950;6.715;19;19;18;18;18;19;18;19;18;18;410;410;411;410;410;410;410;410;410;410;410;410;410;410;410;410;410;410;410;410
2021-8-22 14:32:49;4.41;32;25.90;54;28.20;11;0.177;0.019;32.41;90.3;0.021;10.6451;7.517;11.103;6.693;18;18;19;18;18;18;18;18;18;18;411;411;411;411;410;410;411;410;410;410;411;411;411;411;411;411;411;411;411;411
2021-8-22 15:2:49;4.41;32;26.30;52;28.10;11;0.175;0.019;33.11;91.6;0.021;10.5661;7.663;11.030;6.791;18;18;18;18;18;18;18;18;19;19;412;412;412;412;412;412;412;412;412;413;410;410;410;410;410;410;410;411;410;410
2021-8-22 15:32:49;4.41;30;25.60;52;28.80;11;0.178;0.019;33.11;91.6;0.021;10.7571;7.626;11.214;6.810;18;18;18;18;18;18;18;18;18;18;412;412;412;412;412;412;412;412;412;412;411;411;411;411;411;411;411;411;411;411
2021-8-22 16:2:47;4.39;34;23.50;51;28.10;11;0.179;0.019;32.11;89.7;0.021;10.8131;7.702;11.245;6.971;18;18;18;18;18;18;18;18;18;18;409;409;409;410;409;409;409;409;409;409;410;410;410;410;410;410;410;410;410;410
2021-8-22 16:32:46;4.37;36;22.80;55;24.50;11;0.175;0.020;29.21;84.6;0.021;10.5631;7.704;10.901;7.285;18;18;18;18;18;18;18;18;18;18;405;405;405;405;405;405;405;405;405;405;408;408;408;408;408;407;407;408;408;408
2021-8-22 17:2:42;4.36;33;22.10;58;23.60;11;0.179;0.020;27.21;81.0;0.020;10.7971;7.274;11.086;7.090;19;19;19;19;19;19;19;19;19;19;401;401;401;402;402;402;401;401;401;401;407;407;407;407;407;407;407;407;407;407
2021-8-22 17:32:41;4.35;34;21.50;55;22.90;11;0.172;0.020;25.61;78.2;0.020;10.3411;7.254;10.579;7.234;21;20;21;20;21;21;21;20;21;21;402;401;401;401;401;401;401;401;402;401;407;407;407;407;407;406;407;407;407;407
2021-8-22 18:2:39;4.35;33;20.90;55;22.30;11;0.169;0.020;24.21;75.5;0.020;10.2151;7.139;10.419;7.250;23;23;23;23;23;23;23;23;23;23;401;401;402;402;401;402;401;402;402;401;407;407;407;407;407;407;407;407;407;407
2021-8-22 18:32:41;4.34;30;19.80;55;21.70;11;0.168;0.020;23.01;73.4;0.020;10.1121;7.037;10.286;7.275;23;23;23;23;23;23;23;23;23;23;401;402;402;402;402;402;402;402;402;402;407;407;407;407;407;407;407;407;407;407
2021-8-22 19:2:37;4.34;34;18.70;52;20.50;11;0.170;0.020;21.91;71.5;0.019;10.2561;6.763;10.403;7.122;23;23;23;23;23;23;23;23;23;23;402;402;402;402;402;402;402;402;402;402;407;407;407;407;407;407;407;407;407;407
2021-8-22 19:32:37;4.33;35;17.90;55;19.20;11;0.168;0.020;20.71;69.2;0.019;10.1571;6.667;10.278;7.132;23;23;23;23;23;23;23;23;23;23;403;403;402;403;403;403;403;403;403;403;407;407;407;407;407;407;407;407;407;407
2021-8-22 20:2:36;4.33;39;17.10;56;18.30;11;0.162;0.020;19.71;67.5;0.019;9.7971;6.731;9.890;7.321;23;23;22;23;23;22;23;22;23;23;403;403;403;403;404;404;403;403;404;404;407;407;407;407;407;407;407;407;407;407
2021-8-22 20:32:39;4.32;42;16.40;60;17.50;11;0.167;0.020;18.81;65.8;0.018;10.1041;6.427;10.177;7.097;23;23;22;23;23;23;22;23;22;23;403;403;403;403;403;403;403;403;403;403;407;408;408;408;407;408;408;408;407;407
2021-8-22 21:2:37;4.32;41;15.90;62;16.70;11;0.166;0.020;17.91;64.1;0.018;10.0101;6.336;10.064;7.094;22;22;23;23;23;23;23;23;22;23;403;403;403;404;403;404;403;403;404;403;408;408;408;408;408;408;408;408;408;408
2021-8-22 21:32:34;4.31;41;15.40;62;16.30;11;0.164;0.020;17.01;62.6;0.017;9.9201;6.248;9.957;7.075;22;23;22;23;23;23;23;22;23;22;404;404;404;404;404;404;404;404;404;404;408;409;408;408;409;409;409;408;409;408
2021-8-22 22:2:35;4.31;44;14.60;62;15.70;11;0.161;0.020;16.31;61.4;0.017;9.7351;6.273;9.755;7.192;23;22;22;23;23;22;22;22;22;22;405;405;404;404;404;404;404;404;404;404;409;409;409;409;409;409;409;409;409;409
2021-8-22 22:32:36;4.30;46;14.10;65;15.00;11;0.164;0.019;15.51;59.9;0.017;9.8951;6.032;9.897;7.008;23;22;22;22;23;22;23;22;23;22;405;405;405;405;405;405;405;405;405;405;410;409;410;410;410;409;410;409;410;409
2021-8-22 23:2:36;4.30;51;13.70;67;14.40;11;0.161;0.020;14.91;58.8;0.017;9.7161;6.059;9.705;7.110;23;23;23;22;22;23;23;22;23;23;405;406;405;405;405;405;406;406;406;405;410;410;410;410;410;410;410;410;410;410
2021-8-22 23:32:36;4.30;49;13.50;71;14.00;11;0.163;0.019;14.31;57.7;0.016;9.8731;5.823;9.848;6.909;22;22;22;22;22;22;22;22;23;23;406;406;406;406;406;406;407;406;406;406;411;410;410;411;411;411;411;411;410;411
