2021-8-19 0:2:40;4.35;89;21.70;89;23.00;11;0.206;0.026;22.81;73.0;0.025;12.4731;8.882;12.688;9.182;78;78;77;78;79;78;78;78;78;78;371;371;371;372;371;371;371;371;371;371;377;378;377;378;378;378;377;377;378;378
2021-8-19 0:32:38;4.34;81;22.40;91;22.30;11;0.207;0.025;22.41;72.3;0.024;12.5441;8.717;12.750;9.053;78;78;78;79;79;78;78;78;78;78;372;372;372;372;372;372;372;372;372;372;378;378;378;378;378;378;378;378;378;378
2021-8-19 1:2:40;4.34;86;22.00;88;22.90;11;0.204;0.025;22.11;71.9;0.024;12.3501;8.766;12.549;9.126;76;76;76;76;76;76;76;76;76;77;372;372;372;372;372;372;372;372;372;373;378;378;379;378;378;378;378;378;378;378
2021-8-19 1:32:38;4.34;86;21.90;90;22.60;11;0.204;0.025;21.91;71.5;0.024;12.3161;8.746;12.503;9.158;78;78;78;78;79;78;78;78;78;78;373;373;373;373;373;373;373;373;373;373;379;378;379;379;379;379;379;379;379;378
2021-8-19 2:2:40;4.34;84;21.80;90;22.40;11;0.200;0.026;21.71;71.1;0.024;12.1201;8.794;12.298;9.240;81;81;81;81;81;81;81;81;81;81;373;374;374;374;374;374;374;374;374;374;379;379;379;379;379;379;379;379;379;379
2021-8-19 2:32:37;4.33;92;21.10;90;22.40;11;0.205;0.025;21.31;70.3;0.024;12.3821;8.581;12.556;9.057;79;79;79;79;79;79;79;79;79;79;374;375;374;374;375;374;374;374;375;374;379;379;379;379;379;379;379;379;379;379
2021-8-19 3:2:39;4.33;91;21.00;93;21.60;11;0.206;0.025;21.11;70.0;0.023;12.4771;8.434;12.641;8.952;81;81;81;81;81;81;81;81;81;81;374;375;375;374;374;375;374;375;374;375;379;379;379;379;379;379;379;379;379;379
2021-8-19 3:32:40;4.33;89;21.20;92;21.50;11;0.201;0.025;20.71;69.2;0.024;12.1561;8.610;12.310;9.169;80;81;81;81;81;80;80;81;81;81;375;375;375;375;375;375;375;375;375;375;379;379;379;379;379;379;380;380;379;379
2021-8-19 4:2:37;4.33;89;21.10;91;21.70;11;0.203;0.025;20.51;68.9;0.024;12.2571;8.465;12.408;9.036;85;85;85;85;85;85;85;85;85;85;376;376;376;376;376;376;376;376;375;376;380;380;380;380;380;380;380;380;380;380
2021-8-19 4:32:38;4.33;92;20.80;91;21.60;11;0.202;0.025;20.51;68.9;0.023;12.2281;8.449;12.374;9.039;89;89;89;89;89;89;89;89;89;89;376;376;376;376;376;376;376;376;376;376;380;380;380;380;380;380;380;380;380;380
2021-8-19 5:2:39;4.33;93;20.80;93;21.40;11;0.204;0.025;20.31;68.5;0.023;12.3291;8.308;12.476;8.888;93;92;93;93;93;92;93;93;93;92;376;376;376;376;376;376;376;376;376;376;380;380;380;380;380;380;380;380;380;380
2021-8-19 5:32:40;4.33;96;20.40;93;21.50;11;0.201;0.025;20.31;68.5;0.023;12.1411;8.355;12.280;8.968;88;88;88;88;88;88;88;88;88;88;376;377;376;377;376;377;376;377;376;376;380;380;380;380;380;380;380;380;380;380
2021-8-19 6:2:36;4.33;97;20.30;95;21.00;11;0.201;0.025;19.91;67.8;0.023;12.1361;8.353;12.267;9.005;90;90;90;90;90;90;90;90;90;90;377;377;377;377;377;377;377;377;377;377;380;380;380;380;380;380;380;381;380;380
2021-8-19 6:32:37;4.33;94;20.30;95;20.80;11;0.205;0.024;19.71;67.5;0.023;12.3891;8.147;12.518;8.803;98;98;97;96;96;96;97;97;97;96;377;377;377;377;377;377;377;377;377;377;381;381;381;381;381;381;381;381;381;380
2021-8-19 7:2:38;4.33;93;20.20;93;20.90;11;0.202;0.025;19.51;67.1;0.023;12.2061;8.196;12.332;8.866;101;101;101;101;101;101;101;101;102;102;377;378;377;377;377;378;377;378;377;377;381;381;381;381;381;381;381;381;381;381
2021-8-19 7:32:38;4.33;99;19.40;93;20.70;11;0.202;0.025;19.31;66.8;0.023;12.2011;8.193;12.319;8.901;61;61;61;61;61;61;61;61;61;61;378;378;378;378;378;377;378;377;378;378;381;381;381;381;381;381;381;381;381;381
2021-8-19 8:2:38;4.33;99;18.80;97;19.90;11;0.201;0.025;19.11;66.4;0.023;12.1691;8.176;12.276;8.931;62;61;61;62;62;62;62;62;62;61;378;378;378;378;378;378;378;378;378;378;381;381;381;381;381;381;381;381;381;381
2021-8-19 8:32:38;4.33;99;19.00;99;19.40;11;0.203;0.024;18.91;66.1;0.022;12.2651;8.037;12.372;8.789;62;62;62;62;62;62;62;62;62;62;378;379;378;378;378;379;379;378;379;378;381;381;381;381;381;382;381;382;381;381
2021-8-19 9:2:37;4.34;99;19.20;99;19.60;11;0.198;0.025;19.11;66.4;0.023;11.9901;8.227;12.102;8.957;62;63;63;63;63;63;63;62;62;62;378;378;379;378;379;379;378;379;378;378;382;381;381;381;382;382;381;381;381;381
2021-8-19 9:32:37;4.34;99;19.50;99;20.00;11;0.199;0.025;19.31;66.8;0.023;11.9961;8.230;12.118;8.912;63;63;63;63;63;62;63;62;62;63;379;379;379;379;379;379;379;379;379;379;381;381;381;381;381;381;381;381;381;381
2021-8-19 10:2:38;4.35;99;19.90;99;20.30;11;0.199;0.025;19.91;67.8;0.023;12.0041;8.235;12.137;8.858;64;64;64;64;64;64;64;64;64;64;378;379;378;379;379;379;379;379;378;379;381;381;382;381;382;382;382;382;382;381
2021-8-19 10:32:39;4.36;99;21.20;99;21.10;11;0.199;0.024;20.51;68.9;0.023;12.0151;8.241;12.167;8.777;65;65;65;65;65;65;65;65;65;65;379;379;379;379;379;380;379;379;379;379;382;382;382;382;382;382;382;382;382;382
2021-8-19 11:2:42;4.35;99;20.60;95;22.50;11;0.199;0.024;21.31;70.3;0.023;12.0571;8.265;12.234;8.683;66;66;66;66;66;66;66;66;66;66;379;379;379;379;379;379;379;379;379;379;382;381;382;382;382;382;382;382;382;382
2021-8-19 11:32:39;4.35;99;18.50;98;21.60;11;0.199;0.024;20.51;68.9;0.023;12.0401;8.255;12.190;8.801;70;70;70;70;70;70;69;69;69;70;379;379;379;379;379;379;379;379;379;379;381;381;381;381;381;382;381;381;381;381
2021-8-19 12:2:35;4.34;99;18.10;99;19.20;11;0.203;0.024;20.11;68.2;0.022;12.2861;8.048;12.424;8.648;82;82;82;82;82;82;82;82;83;82;379;379;379;379;379;379;379;379;379;379;382;382;382;382;382;382;382;382;382;382
2021-8-19 12:32:35;4.34;99;18.10;99;18.80;11;0.199;0.025;19.91;67.8;0.023;12.0001;8.233;12.128;8.885;75;74;74;74;74;74;74;74;74;74;379;379;379;379;379;379;379;379;379;379;382;382;382;382;382;382;382;382;382;382
2021-8-19 13:2:35;4.35;99;18.70;99;18.80;11;0.198;0.025;19.71;67.5;0.023;11.9731;8.218;12.098;8.879;76;76;76;76;76;76;76;76;76;77;380;379;380;379;379;379;379;379;380;379;383;383;382;382;383;382;383;383;382;382
2021-8-19 13:32:39;4.35;99;18.70;99;19.60;11;0.200;0.024;20.11;68.2;0.022;12.0801;8.083;12.216;8.686;77;76;77;76;76;77;77;77;76;76;379;379;379;379;379;379;379;379;379;379;383;383;383;383;383;383;383;383;383;383
2021-8-19 14:2:35;4.34;99;18.40;99;19.60;11;0.200;0.024;19.91;67.8;0.022;12.0781;8.082;12.213;8.694;81;80;81;81;81;80;80;80;80;80;380;379;380;380;380;380;380;380;379;380;383;383;382;383;383;383;383;382;383;383
2021-8-19 14:32:39;4.34;99;18.10;99;19.20;11;0.195;0.025;19.71;67.5;0.023;11.7901;8.266;11.914;8.932;86;86;86;86;86;86;86;86;86;86;380;380;380;380;380;380;380;380;380;380;383;383;383;383;383;383;383;383;383;383
2021-8-19 15:2:35;4.35;99;18.30;99;18.90;11;0.197;0.024;19.71;67.5;0.023;11.8921;8.128;12.017;8.782;59;60;59;60;59;59;59;59;60;59;380;380;380;380;380;380;380;380;380;380;383;383;383;383;383;383;383;383;383;383
2021-8-19 15:32:39;4.35;94;19.20;97;19.20;11;0.197;0.024;20.31;68.5;0.023;11.9071;8.137;12.056;8.675;59;59;59;59;59;59;59;59;59;59;380;380;380;380;380;380;380;380;380;381;383;383;383;383;383;383;383;383;383;383
2021-8-19 16:2:40;4.35;90;19.80;92;20.30;11;0.197;0.024;20.71;69.2;0.023;11.9111;8.139;12.066;8.649;59;59;59;59;59;59;59;59;59;59;380;380;381;380;380;381;380;380;381;381;383;383;383;383;383;383;383;383;383;383
2021-8-19 16:32:36;4.35;91;19.40;91;20.80;11;0.197;0.024;20.71;69.2;0.023;11.9091;8.137;12.059;8.666;58;58;58;58;58;58;58;58;58;59;380;380;380;380;380;380;380;380;380;380;383;383;383;383;383;383;383;383;383;383
2021-8-19 17:2:37;4.35;89;19.60;91;20.20;11;0.197;0.024;20.31;68.5;0.023;11.9051;8.135;12.049;8.693;59;58;58;58;59;58;58;58;58;59;380;380;380;380;380;381;381;380;380;380;383;383;383;383;383;383;383;383;383;383
2021-8-19 17:32:38;4.35;86;19.60;91;20.50;11;0.201;0.024;19.91;67.8;0.022;12.1501;7.932;12.285;8.532;59;59;59;59;58;59;59;58;58;58;381;380;380;380;381;380;381;380;380;380;383;383;383;383;383;383;383;383;383;383
2021-8-19 18:2:39;4.34;90;19.10;90;20.40;11;0.198;0.024;19.51;67.1;0.022;11.9641;7.976;12.086;8.637;59;58;59;59;59;58;59;59;59;59;381;380;380;381;381;380;380;380;381;380;383;383;383;383;383;383;383;383;383;383
2021-8-19 18:32:39;4.34;97;18.60;91;19.90;11;0.199;0.024;19.11;66.4;0.022;12.0521;7.835;12.159;8.559;59;59;59;59;59;59;59;59;59;59;380;380;381;380;381;380;381;380;380;380;383;383;383;384;383;383;383;383;383;383
2021-8-19 19:2:38;4.33;99;18.00;95;19.20;11;0.199;0.024;18.61;65.4;0.022;12.0161;7.816;12.106;8.621;59;59;59;59;59;59;59;59;59;59;380;380;381;380;380;380;380;381;380;380;383;384;383;383;384;383;384;384;383;383
2021-8-19 19:32:37;4.33;99;17.90;97;18.60;11;0.196;0.024;18.21;64.8;0.022;11.8341;7.861;11.913;8.717;59;59;59;59;59;59;59;59;59;59;380;380;380;380;380;380;380;380;380;380;383;384;384;384;384;384;384;384;384;384
2021-8-19 20:2:35;4.33;99;17.30;97;18.40;11;0.195;0.024;17.91;64.1;0.022;11.8031;7.844;11.873;8.745;60;60;61;60;60;60;60;60;60;60;380;380;380;380;380;380;380;380;380;380;384;384;384;384;384;384;384;384;384;384
2021-8-19 20:32:34;4.33;96;17.10;97;17.80;11;0.197;0.024;17.31;63.2;0.021;11.8941;7.707;11.954;8.646;61;61;61;61;62;61;61;61;62;62;380;380;380;380;380;380;380;380;380;380;384;384;384;384;384;384;384;384;384;384
2021-8-19 21:2:36;4.33;99;16.90;95;17.60;11;0.198;0.024;17.21;62.9;0.021;11.9581;7.559;12.010;8.524;61;61;61;61;61;61;61;61;61;61;380;380;380;380;380;380;380;380;380;380;384;384;384;384;384;384;384;384;384;384
2021-8-19 21:32:33;4.33;99;16.90;97;17.40;11;0.195;0.024;16.81;62.3;0.021;11.7831;7.605;11.831;8.594;61;61;61;61;61;61;61;61;61;61;380;381;380;380;380;381;380;380;380;380;384;384;384;384;384;384;385;385;384;384
2021-8-19 22:2:35;4.33;99;16.60;98;17.40;11;0.191;0.025;16.71;62.0;0.022;11.5081;7.782;11.549;8.822;61;61;61;61;61;61;61;61;61;61;380;380;380;380;380;380;381;380;380;381;384;385;384;385;384;385;385;385;384;384
2021-8-19 22:32:33;4.32;99;16.50;99;17.20;11;0.195;0.024;16.51;61.7;0.021;11.7521;7.588;11.787;8.638;62;62;62;62;62;61;62;61;61;61;380;381;381;381;380;381;381;381;380;380;385;385;385;385;385;385;385;385;385;385
2021-8-19 23:2:34;4.32;99;16.00;99;17.00;11;0.192;0.024;16.21;61.1;0.021;11.5731;7.632;11.600;8.732;62;62;62;62;62;62;62;62;62;62;381;381;381;380;381;381;381;381;381;381;385;385;385;385;385;385;385;385;385;385
2021-8-19 23:32:36;4.32;99;15.60;98;16.50;11;0.196;0.024;15.81;60.5;0.021;11.8091;7.438;11.825;8.572;71;71;70;70;71;70;70;70;71;71;381;381;381;381;380;380;381;381;381;380;385;385;385;385;385;385;385;385;385;385
