2021-6-17 0:2:29;4.12;99;8.30;92;8.10;11;0.351;0.041;8.11;46.5;0.031;23.6791;11.140;23.319;14.645;331;331;331;331;331;331;331;331;331;331;351;350;350;351;350;350;350;351;350;350;363;364;363;363;363;363;364;363;363;363
2021-6-17 0:32:29;4.12;99;8.10;94;7.90;11;0.348;0.042;8.01;46.3;0.032;23.3721;11.445;23.009;15.086;331;331;331;331;331;331;331;331;331;331;350;351;350;351;350;351;351;350;350;350;363;363;363;363;363;363;363;364;363;363
2021-6-17 1:2:28;4.11;99;7.80;95;7.70;11;0.348;0.042;7.81;46.1;0.032;23.3671;11.443;23.000;15.112;331;331;331;331;331;331;331;331;331;331;350;350;351;351;350;350;350;350;350;350;363;363;363;363;363;363;363;363;363;363
2021-6-17 1:32:28;4.11;99;7.90;96;7.70;11;0.348;0.042;7.71;45.9;0.032;23.3621;11.442;22.990;15.138;331;331;331;331;331;331;331;331;331;331;350;351;350;350;350;350;351;350;351;350;363;363;363;363;363;363;363;363;363;363
2021-6-17 2:2:27;4.11;99;7.90;96;7.70;11;0.350;0.042;7.71;45.9;0.031;23.5391;11.326;23.161;14.998;331;331;331;331;331;331;331;331;331;331;350;350;350;350;350;350;350;350;350;350;363;363;363;363;363;363;363;363;363;363
2021-6-17 2:32:30;4.11;99;7.90;97;7.70;11;0.350;0.041;7.61;45.7;0.031;23.5871;11.113;23.206;14.729;331;331;331;331;331;331;331;331;331;331;350;350;351;350;350;351;351;350;350;350;363;363;363;363;363;363;363;363;363;363
2021-6-17 3:2:29;4.11;99;7.90;97;7.80;11;0.348;0.042;7.61;45.7;0.032;23.3581;11.440;22.981;15.163;331;331;331;331;331;331;331;331;331;331;350;350;350;350;350;350;350;350;350;350;362;363;363;363;363;363;363;363;363;363
2021-6-17 3:32:29;4.11;99;7.80;99;7.60;11;0.350;0.042;7.61;45.7;0.031;23.5341;11.324;23.152;15.023;331;331;331;331;331;331;331;331;331;331;350;350;350;350;350;350;351;350;350;350;363;363;363;363;363;363;363;363;363;363
2021-6-17 4:2:28;4.11;99;7.60;99;7.50;11;0.350;0.041;7.51;45.5;0.031;23.5821;11.111;23.197;14.754;331;331;331;331;331;331;331;331;331;331;350;350;350;350;351;350;350;350;350;350;363;363;363;363;363;363;363;363;363;363
2021-6-17 4:32:27;4.11;99;7.70;99;7.50;11;0.350;0.041;7.51;45.5;0.031;23.5801;11.110;23.192;14.767;331;331;331;331;331;331;331;331;331;331;350;350;350;350;350;350;350;350;350;350;363;363;362;363;363;363;363;363;363;363
2021-6-17 5:2:30;4.11;99;7.80;99;7.60;11;0.350;0.041;7.51;45.5;0.031;23.5801;11.110;23.192;14.767;331;331;331;331;331;331;331;331;331;331;350;350;350;350;350;350;350;350;350;350;363;363;363;362;363;363;363;363;363;363
2021-6-17 5:32:29;4.11;99;7.80;99;7.60;11;0.350;0.041;7.51;45.5;0.031;23.5781;11.110;23.187;14.779;331;331;331;331;331;331;331;331;331;331;350;350;350;350;350;350;350;350;350;350;363;363;363;363;363;363;363;363;363;362
2021-6-17 6:2:28;4.11;99;7.80;99;7.60;11;0.350;0.041;7.51;45.5;0.031;23.5781;11.110;23.187;14.779;331;331;331;331;331;331;331;331;331;331;350;350;349;350;350;350;350;350;350;350;363;363;363;363;363;362;363;363;363;362
2021-6-17 6:32:27;4.11;99;7.70;99;7.50;11;0.348;0.042;7.41;45.3;0.031;23.3991;11.223;23.009;14.944;331;331;331;331;331;331;331;331;331;331;350;350;350;349;350;350;349;350;349;350;363;362;363;363;362;363;362;363;363;362
2021-6-17 7:2:26;4.11;99;7.70;99;7.50;11;0.350;0.041;7.41;45.3;0.031;23.5731;11.108;23.178;14.804;331;331;330;331;331;330;331;331;331;331;350;350;349;350;350;350;350;350;350;350;362;362;363;362;362;362;362;362;363;362
2021-6-17 7:32:30;4.11;99;7.70;98;7.50;11;0.350;0.041;7.31;45.1;0.031;23.5711;11.108;23.173;14.817;331;330;331;331;330;331;331;331;331;331;350;350;349;350;350;349;350;349;349;350;362;363;362;362;362;363;362;362;362;363
2021-6-17 8:2:29;4.11;99;7.60;99;7.40;11;0.353;0.040;7.31;45.1;0.030;23.8601;10.803;23.455;14.424;331;330;330;331;331;330;331;331;331;331;350;350;350;349;350;350;350;350;350;349;363;362;362;362;363;362;362;362;363;363
2021-6-17 8:32:27;4.11;99;7.50;99;7.30;11;0.350;0.041;7.21;44.9;0.031;23.5641;11.105;23.159;14.854;331;331;331;331;331;330;330;331;331;331;349;350;350;350;349;350;350;350;350;349;362;362;362;362;362;362;362;362;362;362
2021-6-17 9:2:26;4.11;99;7.90;99;7.70;11;0.350;0.041;7.31;45.1;0.031;23.5711;11.108;23.173;14.817;331;330;331;331;331;331;331;330;331;331;350;350;350;350;350;350;350;350;350;350;362;363;363;362;362;362;363;362;362;362
2021-6-17 9:32:30;4.11;99;8.50;97;8.30;11;0.350;0.041;7.61;45.7;0.031;23.5911;11.114;23.216;14.704;331;331;331;331;331;331;331;331;331;331;350;350;350;350;350;350;350;350;350;350;363;363;363;363;363;363;363;363;363;362
2021-6-17 10:2:29;4.11;99;9.20;94;9.10;11;0.348;0.042;8.01;46.3;0.032;23.3811;11.448;23.028;15.035;331;331;331;331;331;331;331;331;331;331;350;350;350;350;350;350;350;350;350;350;363;363;363;363;363;363;363;363;363;363
2021-6-17 10:32:29;4.11;95;9.70;90;9.50;11;0.348;0.042;8.21;46.7;0.032;23.3911;11.451;23.048;14.984;331;330;330;331;331;331;331;331;331;330;350;350;350;350;350;350;350;351;351;350;363;362;362;363;363;362;363;363;362;363
2021-6-17 11:2:30;4.11;87;10.50;87;10.40;11;0.352;0.040;8.51;47.3;0.031;23.7071;11.149;23.378;14.495;331;331;330;331;331;331;331;330;331;331;350;351;350;351;351;351;350;350;350;351;363;363;363;363;363;363;363;363;363;363
2021-6-17 11:32:31;4.12;69;11.50;78;11.40;11;0.352;0.040;8.81;47.8;0.031;23.7251;11.155;23.413;14.409;331;330;331;330;331;331;331;331;330;330;351;351;351;351;351;351;351;351;351;351;363;363;363;363;363;363;363;363;363;363
2021-6-17 12:2:32;4.12;64;12.60;76;12.60;11;0.352;0.040;9.81;49.7;0.032;23.7351;11.388;23.487;14.384;331;331;331;331;331;331;331;331;331;331;352;352;352;352;352;352;352;352;352;352;363;363;363;363;363;363;363;363;363;363
2021-6-17 12:32:31;4.13;62;12.80;75;12.80;11;0.350;0.041;10.81;51.5;0.033;23.5481;11.738;23.350;14.576;331;331;330;331;331;331;330;331;331;331;352;352;352;353;353;352;353;352;353;352;363;363;363;363;363;363;363;363;363;363
2021-6-17 13:2:35;4.13;54;13.50;69;13.60;11;0.350;0.041;11.51;52.7;0.033;23.5261;11.970;23.366;14.681;330;331;331;330;330;330;331;330;330;330;353;352;353;352;352;353;353;352;352;353;363;363;363;363;363;363;363;363;363;363
2021-6-17 13:32:36;4.13;52;13.10;67;13.00;11;0.353;0.041;11.51;52.7;0.033;23.7821;11.874;23.617;14.577;330;330;330;330;330;330;330;330;330;330;352;352;352;352;352;352;352;352;352;352;362;362;362;362;362;362;362;362;362;362
2021-6-17 14:2:34;4.13;54;13.40;69;13.30;11;0.352;0.041;11.51;52.7;0.034;23.7201;12.095;23.550;14.876;330;330;330;330;330;330;330;330;330;330;352;352;352;352;352;352;352;352;352;352;362;362;362;362;362;362;362;362;362;362
2021-6-17 14:32:34;4.12;53;12.40;69;12.40;11;0.352;0.042;11.21;52.2;0.034;23.6991;12.087;23.506;14.981;330;330;330;330;329;330;330;330;330;329;352;351;351;352;352;352;351;352;351;351;361;362;361;361;361;361;362;362;362;362
2021-6-17 15:2:33;4.12;55;12.50;70;12.40;11;0.352;0.042;11.11;51.9;0.034;23.6931;12.085;23.495;15.007;330;330;330;330;330;330;330;330;330;330;351;351;351;352;352;351;351;352;351;351;362;362;362;362;361;362;361;362;362;362
2021-6-17 15:32:31;4.12;55;12.70;70;12.60;11;0.352;0.042;11.31;52.4;0.034;23.7091;12.091;23.528;14.928;330;330;330;330;330;330;330;330;330;330;352;351;352;352;352;352;351;352;352;352;362;362;362;362;362;362;362;362;362;362
2021-6-17 16:2:34;4.12;56;12.00;71;12.00;11;0.352;0.042;11.31;52.4;0.034;23.7011;12.088;23.511;14.968;330;330;330;329;330;330;330;330;329;330;351;352;352;351;351;351;351;351;351;352;361;361;362;361;361;361;361;362;362;361
2021-6-17 16:32:33;4.12;58;12.00;73;11.90;11;0.355;0.041;11.11;51.9;0.033;24.0071;11.767;23.805;14.612;330;330;330;329;330;330;329;330;330;330;351;351;351;351;351;351;351;351;351;351;362;361;361;361;361;361;361;361;361;361
2021-6-17 17:2:31;4.11;60;11.90;75;11.80;11;0.352;0.042;11.11;51.9;0.034;23.6881;12.083;23.484;15.033;330;330;330;330;330;330;330;329;329;329;351;351;351;351;351;351;351;351;351;351;361;361;361;361;361;361;361;361;361;361
2021-6-17 17:32:33;4.11;63;11.60;77;11.50;11;0.351;0.042;11.01;51.7;0.034;23.6821;12.081;23.473;15.059;330;330;330;329;330;330;329;329;330;330;351;351;351;351;351;351;351;351;351;351;361;361;361;361;361;361;361;361;361;361
2021-6-17 18:2:31;4.11;66;11.40;78;11.30;11;0.351;0.042;10.81;51.5;0.034;23.6741;12.078;23.457;15.099;329;330;330;329;329;330;329;329;330;330;351;351;351;351;351;351;351;351;350;351;361;361;361;361;361;361;361;361;361;361
2021-6-17 18:32:33;4.11;68;10.80;80;10.60;11;0.352;0.041;10.41;50.8;0.033;23.7091;11.849;23.469;14.925;329;330;329;329;329;329;329;329;329;329;350;350;350;350;350;350;350;350;350;350;361;361;361;361;361;361;361;361;361;361
2021-6-17 19:2:30;4.11;72;10.30;82;10.20;11;0.352;0.042;10.21;50.3;0.033;23.6941;11.844;23.438;15.003;329;329;329;329;329;329;330;330;329;329;350;350;350;350;350;350;350;350;350;350;361;361;361;361;361;360;361;360;361;361
2021-6-17 19:32:31;4.11;80;9.70;85;9.60;11;0.351;0.042;9.81;49.7;0.033;23.6761;11.838;23.401;15.093;329;329;329;329;329;330;329;329;330;329;350;349;350;350;350;350;350;350;350;350;360;360;360;360;360;360;360;360;360;360
2021-6-17 20:2:31;4.11;86;9.20;87;9.00;11;0.352;0.041;9.61;49.2;0.032;23.7171;11.615;23.429;14.878;329;329;329;329;329;329;329;329;329;329;349;349;349;348;349;349;349;349;349;349;360;360;360;360;360;360;360;360;360;360
2021-6-17 20:32:31;4.11;90;8.90;88;8.70;11;0.352;0.042;9.31;48.8;0.032;23.7021;11.610;23.398;14.955;329;329;330;329;329;329;329;329;329;329;348;349;349;348;349;349;349;349;349;349;360;360;360;360;360;360;360;360;360;360
2021-6-17 21:2:31;4.10;94;8.50;90;8.30;11;0.354;0.041;9.11;48.4;0.031;23.9201;11.272;23.600;14.588;329;329;329;329;329;329;329;329;329;329;349;348;349;348;348;348;348;349;348;349;360;360;360;359;360;360;360;360;360;360
2021-6-17 21:32:30;4.10;97;8.30;91;8.10;11;0.351;0.042;8.91;48.0;0.032;23.6051;11.579;23.277;15.054;329;329;329;329;329;329;329;329;329;329;348;348;349;349;348;348;348;349;349;348;360;359;359;360;360;360;360;360;360;360
2021-6-17 22:2:30;4.10;99;8.10;92;7.90;11;0.350;0.042;8.61;47.5;0.032;23.5961;11.575;23.257;15.105;329;329;329;329;329;329;329;329;329;329;348;348;348;348;349;348;348;348;349;348;360;360;360;360;360;359;360;360;360;360
2021-6-17 22:32:29;4.10;95;7.90;91;7.80;11;0.351;0.041;8.41;47.1;0.032;23.6381;11.357;23.289;14.874;329;329;329;329;329;329;329;329;329;329;348;349;348;348;348;348;348;349;348;349;360;359;359;360;360;360;360;360;360;359
2021-6-17 23:2:28;4.10;99;7.60;94;7.40;11;0.351;0.041;8.21;46.7;0.031;23.6761;11.140;23.314;14.657;329;330;329;329;329;329;329;329;329;329;348;348;348;348;348;348;348;348;348;348;360;360;359;359;360;360;360;359;359;360
2021-6-17 23:32:27;4.09;99;7.40;97;7.20;11;0.351;0.041;8.01;46.3;0.031;23.6671;11.137;23.295;14.707;329;329;329;329;329;329;329;329;329;329;348;348;349;348;348;349;349;348;348;349;359;360;359;360;360;360;360;360;359;359
