2021-7-17 0:2:29;4.27;99;9.40;99;10.00;11;0.358;0.041;8.51;47.3;0.031;24.2931;11.212;23.945;14.631;126;126;126;125;125;126;125;125;125;125;322;322;323;322;322;322;322;322;322;323;341;341;341;341;341;341;341;341;342;341
2021-7-17 0:32:29;4.26;99;9.40;99;9.60;11;0.358;0.041;8.41;47.1;0.031;24.2881;11.210;23.935;14.656;115;116;116;116;112;111;110;110;110;110;322;323;323;323;323;323;323;322;323;323;341;341;341;342;342;341;341;341;341;342
2021-7-17 1:2:28;4.26;99;9.20;99;9.50;11;0.358;0.041;8.31;46.9;0.031;24.2781;11.207;23.915;14.706;107;106;106;107;106;107;106;106;106;106;322;322;322;323;323;323;323;323;323;323;341;342;342;341;342;341;341;342;341;341
2021-7-17 1:32:28;4.26;99;9.00;99;9.20;11;0.360;0.040;8.11;46.5;0.030;24.4901;10.874;24.115;14.307;116;116;116;116;113;111;110;109;109;108;323;323;323;322;323;322;323;323;323;323;341;342;342;342;341;342;342;342;342;341
2021-7-17 2:2:27;4.25;99;8.90;99;9.10;11;0.360;0.040;8.01;46.3;0.030;24.4801;10.871;24.095;14.356;119;118;118;118;119;118;118;118;118;118;323;323;323;323;323;323;323;323;323;323;342;342;342;342;342;342;342;341;342;342
2021-7-17 2:32:30;4.26;99;9.40;99;8.90;11;0.357;0.041;8.21;46.7;0.031;24.2021;11.186;23.837;14.691;118;118;118;118;119;119;118;118;118;118;323;323;323;323;323;323;323;323;323;323;342;342;342;342;342;342;342;342;342;342
2021-7-17 3:2:30;4.26;99;9.70;99;9.50;11;0.357;0.041;8.41;47.1;0.031;24.2171;11.190;23.867;14.616;131;136;126;123;120;120;120;120;126;129;323;323;323;323;323;323;323;323;323;323;342;342;342;342;342;342;342;342;342;342
2021-7-17 3:32:29;4.26;99;9.90;99;9.80;11;0.357;0.041;8.51;47.3;0.031;24.2251;11.192;23.883;14.578;139;147;135;126;127;130;127;128;130;128;323;323;323;323;323;323;323;323;323;323;342;342;342;342;342;341;342;342;342;342
2021-7-17 4:2:29;4.26;99;10.00;99;10.00;11;0.356;0.041;8.51;47.3;0.031;24.0471;11.310;23.707;14.731;107;107;107;108;108;107;108;109;109;109;323;323;323;323;323;323;323;323;323;322;342;342;342;342;342;342;341;342;341;342
2021-7-17 4:32:29;4.26;99;10.00;99;10.10;11;0.358;0.040;8.51;47.3;0.031;24.2271;11.193;23.888;14.566;114;115;111;109;108;111;110;111;111;111;323;323;323;323;323;323;322;323;323;323;342;342;342;342;342;342;342;342;342;342
2021-7-17 5:2:29;4.26;99;10.00;99;10.10;11;0.356;0.041;8.51;47.3;0.031;24.0471;11.310;23.707;14.731;118;117;119;122;124;126;121;120;120;121;322;323;323;322;323;323;323;323;323;322;342;341;341;342;342;341;342;342;341;341
2021-7-17 5:32:29;4.26;99;10.10;99;10.10;11;0.361;0.039;8.51;47.3;0.030;24.5171;10.881;24.171;14.173;156;153;152;151;151;151;151;152;152;153;323;323;323;323;323;323;323;322;322;323;342;341;342;341;342;341;342;342;341;342
2021-7-17 6:2:29;4.26;99;9.80;99;10.20;11;0.355;0.041;8.31;46.9;0.031;24.0351;11.306;23.682;14.794;122;121;121;120;120;120;120;119;119;119;322;323;322;322;323;322;323;322;323;323;342;341;341;342;342;342;342;342;342;342
2021-7-17 6:32:28;4.25;99;9.50;99;9.80;11;0.355;0.041;8.11;46.5;0.031;24.0201;11.301;23.653;14.870;121;121;121;121;121;121;122;121;121;121;323;322;323;323;323;323;323;323;322;323;342;341;341;342;342;341;341;342;342;342
2021-7-17 7:2:28;4.25;99;9.20;99;9.50;11;0.357;0.041;7.81;46.1;0.031;24.1851;11.180;23.803;14.778;110;110;110;110;110;110;110;110;110;109;323;323;323;323;323;323;323;323;323;323;342;342;342;342;342;342;342;342;342;342
2021-7-17 7:32:27;4.25;99;9.00;99;9.30;11;0.357;0.041;7.61;45.7;0.031;24.1731;11.177;23.778;14.841;110;109;110;109;109;109;109;110;109;109;323;323;323;323;323;323;323;323;323;323;342;342;342;342;342;342;342;342;342;342
2021-7-17 8:2:30;4.25;99;9.20;99;9.20;11;0.357;0.041;7.41;45.3;0.030;24.2081;10.960;23.803;14.607;109;109;109;109;109;109;109;109;109;109;323;323;323;323;323;323;323;323;323;323;342;342;342;342;342;342;342;342;342;342
2021-7-17 8:32:29;4.25;97;8.80;97;9.50;11;0.357;0.041;7.31;45.1;0.030;24.2061;10.960;23.798;14.619;109;109;109;109;110;109;109;109;109;109;323;323;324;323;323;323;324;323;323;323;342;342;342;342;342;342;342;342;342;342
2021-7-17 9:2:28;4.25;95;8.80;96;9.10;11;0.357;0.041;7.31;45.1;0.030;24.2061;10.960;23.798;14.619;118;115;125;128;121;118;117;117;128;126;323;323;323;323;323;323;323;323;323;323;342;342;342;342;342;342;342;342;342;342
2021-7-17 9:32:27;4.25;93;9.00;95;9.10;11;0.357;0.041;7.31;45.1;0.030;24.2061;10.960;23.798;14.619;102;102;102;103;103;103;103;103;103;103;323;323;323;323;323;323;323;323;323;323;342;342;342;342;342;342;342;342;342;342
2021-7-17 10:2:27;4.25;82;9.30;94;9.30;11;0.357;0.041;7.31;45.1;0.030;24.2061;10.960;23.798;14.619;104;103;103;103;103;103;103;103;103;103;323;324;323;324;323;323;323;323;323;323;342;342;342;342;342;342;342;342;342;342
2021-7-17 10:32:30;4.25;72;10.00;88;9.60;11;0.354;0.042;7.41;45.3;0.031;23.9211;11.272;23.527;14.981;116;115;116;116;116;114;115;115;114;113;324;323;323;324;323;323;324;324;323;323;342;342;342;342;342;342;342;342;342;342
2021-7-17 11:2:30;4.31;64;10.80;82;10.30;11;0.358;0.040;7.71;45.9;0.030;24.2401;10.970;23.867;14.447;112;112;113;113;113;112;112;112;113;112;323;323;323;323;323;323;324;323;323;323;342;342;342;342;342;342;342;342;342;342
2021-7-17 11:32:31;4.33;57;12.50;78;11.10;11;0.358;0.039;8.61;47.5;0.031;24.2971;10.986;23.983;14.165;115;115;117;115;115;117;116;117;116;115;323;323;323;323;323;324;323;323;323;323;342;342;343;342;342;342;342;343;342;343
2021-7-17 12:2:35;4.34;53;13.10;74;12.60;11;0.360;0.038;11.61;52.9;0.031;24.4261;11.252;24.292;13.654;120;118;118;117;117;118;119;119;121;120;328;327;327;327;327;327;328;327;328;327;343;343;343;343;343;343;343;343;343;343
2021-7-17 12:32:34;4.35;50;14.70;70;13.30;11;0.358;0.038;13.31;55.9;0.032;24.2941;11.620;24.260;13.664;113;113;113;113;113;115;115;115;115;116;326;326;326;327;327;326;326;326;326;327;342;342;342;342;342;342;342;342;342;342
2021-7-17 13:2:39;4.35;47;14.90;67;14.90;11;0.360;0.038;14.71;58.5;0.033;24.4121;11.897;24.475;13.584;114;113;112;112;112;112;112;113;116;118;325;325;325;326;325;325;326;325;326;325;341;341;341;341;341;341;341;341;341;341
2021-7-17 13:32:40;4.35;47;14.10;65;15.00;11;0.361;0.038;16.21;61.1;0.034;24.5201;12.175;24.669;13.558;111;111;111;111;111;111;111;111;112;112;326;326;326;325;325;325;325;325;326;325;341;341;341;341;341;341;341;341;341;341
2021-7-17 14:2:35;4.34;45;14.50;65;14.30;11;0.359;0.040;16.51;61.7;0.036;24.3261;12.865;24.449;14.433;112;112;112;112;112;112;113;113;112;112;324;325;324;324;324;324;324;325;325;325;341;342;341;341;341;342;342;341;341;342
2021-7-17 14:32:36;4.33;43;14.30;63;14.80;11;0.361;0.040;14.91;58.8;0.035;24.5371;12.488;24.539;14.524;119;119;119;118;117;117;117;118;116;116;322;322;322;323;323;322;323;322;322;322;340;340;340;340;340;340;340;340;340;340
2021-7-17 15:2:32;4.33;34;14.30;61;14.70;11;0.360;0.041;14.11;57.4;0.035;24.4861;12.471;24.436;14.737;114;113;112;111;112;113;113;113;113;112;322;322;322;322;322;322;322;322;323;322;340;340;340;340;340;340;340;340;340;340
2021-7-17 15:32:31;4.31;35;14.10;53;14.60;11;0.357;0.042;13.11;55.6;0.035;24.1701;12.554;24.074;15.057;114;113;113;114;114;113;113;113;113;113;322;322;322;322;322;322;322;322;322;322;340;340;340;340;340;340;340;340;340;340
2021-7-17 16:2:31;4.30;36;14.00;54;14.50;11;0.359;0.041;12.61;54.6;0.034;24.3861;12.190;24.259;14.763;114;115;114;114;114;114;114;114;114;113;322;321;322;322;322;322;322;322;322;322;340;340;340;340;340;340;340;340;340;340
2021-7-17 16:32:34;4.30;36;13.70;55;14.30;11;0.360;0.041;12.11;53.9;0.033;24.4151;11.956;24.263;14.592;115;115;115;115;115;115;115;115;115;115;322;321;321;321;322;321;322;321;322;322;341;340;341;340;341;341;341;341;340;341
2021-7-17 17:2:33;4.30;34;13.50;55;14.10;11;0.356;0.042;11.71;53.1;0.034;24.0781;12.274;23.908;15.082;114;114;114;114;114;114;114;114;114;114;321;321;321;322;321;321;322;321;321;322;341;341;341;341;341;341;341;341;341;341
2021-7-17 17:32:32;4.30;34;13.20;53;13.90;11;0.356;0.041;11.51;52.7;0.033;24.1131;12.041;23.923;14.895;116;116;118;117;117;116;116;116;116;116;321;322;321;322;322;321;321;322;321;321;341;341;341;341;341;341;341;341;341;341
2021-7-17 18:2:31;4.30;39;12.60;53;13.60;11;0.356;0.042;11.11;51.9;0.033;24.0941;12.034;23.883;14.987;107;107;106;106;106;106;106;106;106;106;321;321;322;322;321;322;321;321;321;322;341;341;341;341;341;341;341;341;341;341
2021-7-17 18:32:33;4.29;41;12.00;57;12.90;11;0.358;0.041;10.71;51.3;0.032;24.3111;11.684;24.079;14.647;107;106;106;106;107;107;107;106;106;106;322;321;322;321;322;322;322;321;321;321;341;341;341;341;341;341;341;342;341;341
2021-7-17 19:2:31;4.29;43;11.50;59;12.30;11;0.355;0.042;10.41;50.8;0.033;23.9791;11.996;23.728;15.153;104;104;104;104;104;104;104;104;104;104;322;322;322;322;322;322;322;321;322;322;342;341;342;342;342;341;341;341;342;341
2021-7-17 19:32:32;4.28;46;11.00;61;11.80;11;0.355;0.042;10.11;50.1;0.033;24.0161;11.769;23.748;14.949;104;104;104;104;104;104;104;104;104;104;322;322;322;322;322;322;322;322;322;322;342;342;342;342;342;341;341;342;341;342
2021-7-17 20:2:29;4.28;47;10.60;64;11.30;11;0.358;0.041;9.71;49.5;0.032;24.2261;11.423;23.935;14.619;104;104;104;104;104;104;104;104;104;104;322;322;322;322;323;322;322;322;322;323;342;342;342;342;342;342;342;342;342;342
2021-7-17 20:32:30;4.27;49;10.00;65;10.80;11;0.357;0.041;9.31;48.8;0.032;24.2081;11.418;23.898;14.708;104;104;105;105;106;105;105;104;104;104;322;322;323;322;322;322;322;322;323;322;342;342;342;342;342;342;342;342;342;342
2021-7-17 21:2:31;4.27;49;9.90;67;10.30;11;0.354;0.041;9.01;48.2;0.032;23.9401;11.509;23.618;14.908;106;106;106;106;106;106;106;106;106;106;323;323;323;322;323;323;322;323;322;323;342;342;342;342;342;342;342;342;342;342
2021-7-17 21:32:31;4.27;49;9.90;67;10.20;11;0.354;0.042;8.61;47.5;0.032;23.9251;11.505;23.587;14.985;106;106;106;106;106;106;106;106;106;106;323;323;323;323;323;323;323;324;323;323;343;342;343;342;342;342;342;342;343;342
2021-7-17 22:2:31;4.27;51;9.50;67;10.10;11;0.355;0.041;8.41;47.1;0.031;23.9601;11.284;23.606;14.779;104;104;104;104;104;104;104;104;104;104;323;324;323;323;323;323;323;323;323;323;343;343;342;343;343;342;343;343;343;343
2021-7-17 22:32:27;4.27;51;9.20;68;9.70;11;0.354;0.041;8.11;46.5;0.031;23.9451;11.279;23.576;14.854;106;106;105;106;106;106;106;106;106;106;323;324;324;323;324;324;323;323;323;323;343;343;343;343;343;343;343;343;343;343
2021-7-17 23:2:31;4.27;52;8.90;69;9.30;11;0.357;0.040;7.71;45.9;0.030;24.1531;10.945;23.766;14.494;106;106;105;106;106;106;106;106;107;106;323;323;323;324;323;324;324;323;324;323;343;343;343;343;343;343;343;343;343;343
2021-7-17 23:32:27;4.26;53;8.40;69;9.10;11;0.353;0.042;7.51;45.5;0.031;23.8441;11.249;23.447;14.978;107;106;106;106;106;106;106;106;106;106;323;324;324;324;324;324;324;323;324;324;343;343;343;343;343;343;343;343;343;343
