2022-01-22 00:00:35;4.24;15;28.90;0;0.00
2022-01-22 00:05:33;4.24;99;28.40;0;0.00
2022-01-22 00:10:36;4.24;99;28.50;0;0.00
2022-01-22 00:15:35;4.24;3;28.80;0;0.00
2022-01-22 00:20:33;4.23;6;28.90;0;0.00
2022-01-22 00:25:32;4.24;18;29.20;0;3.08
2022-01-22 00:30:35;4.23;99;28.90;0;1.10
2022-01-22 00:35:33;4.23;99;28.60;0;2.49
2022-01-22 00:40:32;4.23;99;28.40;0;1.30
2022-01-22 00:45:35;4.23;99;28.30;0;1.50
2022-01-22 00:50:33;4.23;99;28.20;0;0.00
2022-01-22 00:55:32;4.23;99;28.10;0;2.19
2022-01-22 01:00:35;4.23;99;27.90;0;2.29
2022-01-22 01:05:33;4.23;99;27.80;0;0.00
2022-01-22 01:10:36;4.23;99;27.80;0;1.10
2022-01-22 01:15:34;4.23;99;27.80;0;1.10
2022-01-22 01:20:33;4.23;99;27.70;0;1.20
2022-01-22 01:25:36;4.23;99;27.60;0;0.00
2022-01-22 01:30:34;4.23;99;27.60;0;1.20
2022-01-22 01:35:32;4.23;99;27.40;0;2.49
2022-01-22 01:40:35;4.23;99;27.40;0;0.00
2022-01-22 01:45:33;4.23;99;27.40;0;0.00
2022-01-22 01:50:32;4.23;99;27.30;0;0.00
2022-01-22 01:55:35;4.23;99;27.40;0;1.20
2022-01-22 02:00:33;4.23;99;27.30;0;1.10
2022-01-22 02:05:36;4.23;99;27.20;0;1.30
2022-01-22 02:10:34;4.23;99;27.20;0;1.20
2022-01-22 02:15:32;4.23;99;27.30;0;1.40
2022-01-22 02:20:35;4.23;99;27.20;0;1.60
2022-01-22 02:25:33;4.23;99;27.20;0;1.70
2022-01-22 02:30:32;4.22;99;27.10;0;1.20
2022-01-22 02:35:34;4.23;99;27.00;0;1.10
2022-01-22 02:40:33;4.22;99;27.00;0;0.00
2022-01-22 02:45:35;4.22;99;27.00;0;0.00
2022-01-22 02:50:33;4.22;99;26.90;0;0.00
2022-01-22 02:55:32;4.23;99;26.80;0;1.10
2022-01-22 03:00:34;4.23;99;26.90;0;2.09
2022-01-22 03:05:33;4.22;99;27.00;0;1.80
2022-01-22 03:10:31;4.23;99;26.90;0;2.09
2022-01-22 03:15:34;4.22;99;26.90;0;1.40
2022-01-22 03:20:33;4.23;99;26.80;0;0.00
2022-01-22 03:25:31;4.22;99;26.70;0;0.00
2022-01-22 03:30:34;4.22;99;26.70;0;0.00
2022-01-22 03:35:33;4.22;99;26.60;0;1.80
2022-01-22 03:40:31;4.22;99;26.70;0;1.50
2022-01-22 03:45:34;4.22;99;26.60;0;0.00
2022-01-22 03:50:33;4.22;99;26.70;0;1.80
2022-01-22 03:55:31;4.22;99;26.60;0;1.70
2022-01-22 04:00:34;4.22;99;26.50;0;1.20
2022-01-22 04:05:33;4.22;99;26.40;0;1.10
2022-01-22 04:10:31;4.22;99;26.40;0;1.20
2022-01-22 04:15:34;4.22;99;26.40;0;1.60
2022-01-22 04:20:33;4.22;99;26.40;0;0.00
2022-01-22 04:25:31;4.22;99;26.40;0;1.50
2022-01-22 04:30:34;4.22;99;26.40;0;1.10
2022-01-22 04:35:32;4.22;99;26.40;0;0.00
2022-01-22 04:40:31;4.22;99;26.20;0;0.00
2022-01-22 04:45:34;4.22;99;26.20;0;1.60
2022-01-22 04:50:32;4.22;99;26.20;0;1.30
2022-01-22 04:55:35;4.22;99;26.10;0;1.10
2022-01-22 05:00:33;4.22;99;26.10;0;1.20
2022-01-22 05:05:32;4.22;99;26.00;0;1.90
2022-01-22 05:10:35;4.22;99;26.00;0;1.10
2022-01-22 05:15:33;4.22;99;26.00;0;1.30
2022-01-22 05:20:31;4.22;99;25.90;0;0.00
2022-01-22 05:25:34;4.22;99;25.90;0;1.50
2022-01-22 05:30:32;4.22;99;25.90;0;1.30
2022-01-22 05:35:31;4.22;99;25.90;0;1.90
2022-01-22 05:40:34;4.22;99;25.90;0;1.70
2022-01-22 05:45:32;4.21;99;25.90;0;1.10
2022-01-22 05:50:35;4.21;99;25.80;0;0.00
2022-01-22 05:55:33;4.22;99;25.80;0;0.00
2022-01-22 06:00:32;4.22;99;25.70;0;0.00
2022-01-22 06:05:34;4.22;99;25.80;0;1.10
2022-01-22 06:10:33;4.22;99;25.90;0;1.20
2022-01-22 06:15:31;4.22;99;25.70;0;0.00
2022-01-22 06:20:34;4.21;99;25.50;0;0.00
2022-01-22 06:25:32;4.22;99;25.50;0;0.00
2022-01-22 06:30:30;4.21;99;25.50;0;1.10
2022-01-22 06:35:33;4.22;99;25.60;0;0.00
2022-01-22 06:40:32;4.21;99;25.70;0;0.00
2022-01-22 06:45:34;4.22;99;25.90;0;0.00
2022-01-22 06:50:33;4.21;99;25.90;0;0.00
2022-01-22 06:55:31;4.21;99;26.20;0;0.00
2022-01-22 07:00:34;4.22;99;26.30;0;1.20
2022-01-22 07:05:32;4.21;99;26.50;0;0.00
2022-01-22 07:10:31;4.22;99;26.70;0;0.00
2022-01-22 07:15:34;4.22;99;27.00;0;0.00
2022-01-22 07:20:32;4.21;99;27.30;0;0.00
2022-01-22 07:25:35;4.22;99;27.80;0;0.00
2022-01-22 07:30:33;4.22;99;28.00;0;0.00
2022-01-22 07:35:32;4.22;12;28.30;0;1.60
2022-01-22 07:40:35;4.22;21;28.50;0;0.00
2022-01-22 07:45:34;4.22;29;29.00;0;0.00
2022-01-22 07:50:32;4.22;34;29.10;0;0.00
2022-01-22 07:55:31;4.21;41;29.20;0;1.10
2022-01-22 08:00:34;4.22;45;29.40;0;0.00
2022-01-22 08:05:33;4.22;49;29.50;0;1.20
2022-01-22 08:10:32;4.22;49;30.00;0;0.00
2022-01-22 08:15:35;4.22;55;30.30;0;2.29
2022-01-22 08:20:34;4.22;58;30.70;0;2.00
2022-01-22 08:25:33;4.22;63;31.00;0;1.80
2022-01-22 08:30:32;4.23;64;31.40;0;1.80
2022-01-22 08:35:36;4.22;65;31.60;0;2.00
2022-01-22 08:40:34;4.23;66;31.90;0;1.40
2022-01-22 08:45:33;4.23;67;31.90;0;2.09
2022-01-22 08:50:32;4.23;67;32.40;0;1.90
2022-01-22 08:55:36;4.23;68;32.40;0;1.80
2022-01-22 09:00:35;4.23;68;32.70;0;3.48
2022-01-22 09:05:34;4.23;67;32.60;0;2.99
2022-01-22 09:10:33;4.23;68;33.00;0;2.29
2022-01-22 09:15:32;4.23;68;33.10;0;2.89
2022-01-22 09:20:36;4.23;68;33.30;0;2.89
2022-01-22 09:25:35;4.23;68;33.60;0;2.69
2022-01-22 09:30:35;4.23;67;33.60;0;2.79
2022-01-22 09:35:34;4.23;67;34.00;0;3.48
2022-01-22 09:40:33;4.23;67;34.20;0;1.40
2022-01-22 09:45:33;4.23;68;34.20;0;2.09
2022-01-22 09:50:37;4.23;68;34.30;0;2.99
2022-01-22 09:55:36;4.23;68;34.20;0;2.79
2022-01-22 10:00:36;4.23;66;34.80;0;2.99
2022-01-22 10:05:35;4.23;68;34.20;0;4.96
2022-01-22 10:10:35;4.23;67;34.80;0;3.08
2022-01-22 10:15:35;4.23;68;34.90;0;2.00
2022-01-22 10:20:34;4.23;67;35.10;0;3.28
2022-01-22 10:25:34;4.23;68;35.00;0;2.69
2022-01-22 10:30:34;4.23;66;35.40;0;1.60
2022-01-22 10:35:33;4.23;67;35.90;0;1.10
2022-01-22 10:40:33;4.23;66;35.90;0;2.29
2022-01-22 10:45:33;4.23;68;35.60;0;1.80
2022-01-22 10:50:37;4.23;67;35.70;0;2.00
2022-01-22 10:55:33;4.23;67;35.70;0;1.20
2022-01-22 11:00:37;4.23;67;35.70;0;1.50
2022-01-22 11:05:33;4.23;66;36.10;0;2.49
2022-01-22 11:10:37;4.24;68;35.30;0;1.40
2022-01-22 11:15:32;4.24;65;36.60;0;1.90
2022-01-22 11:20:37;4.24;66;36.30;0;0.00
2022-01-22 11:25:37;4.24;67;35.50;0;2.29
2022-01-22 11:30:37;4.23;67;35.80;0;1.90
2022-01-22 11:35:37;4.23;66;36.40;0;1.60
2022-01-22 11:40:37;4.24;66;36.30;0;1.50
2022-01-22 11:45:37;4.23;66;36.30;0;1.30
2022-01-22 11:50:37;4.24;64;37.10;0;1.70
2022-01-22 11:55:37;4.24;63;37.60;0;2.19
2022-01-22 12:00:37;4.24;65;37.80;0;1.10
2022-01-22 12:05:37;4.24;64;37.60;0;2.09
2022-01-22 12:10:33;4.24;65;37.40;0;1.70
2022-01-22 12:15:38;4.24;64;37.70;0;1.30
2022-01-22 12:20:33;4.24;64;37.40;0;2.39
2022-01-22 12:25:34;4.24;65;37.60;0;2.49
2022-01-22 12:30:34;4.24;63;37.60;0;1.40
2022-01-22 12:35:34;4.24;65;38.10;0;2.00
2022-01-22 12:40:34;4.24;62;38.30;0;1.40
2022-01-22 12:45:35;4.24;63;38.10;0;2.49
2022-01-22 12:50:35;4.24;62;38.40;0;2.00
2022-01-22 12:55:36;4.24;62;38.40;0;1.20
2022-01-22 13:00:36;4.24;59;39.10;0;1.20
2022-01-22 13:05:36;4.24;61;38.80;0;1.30
2022-01-22 13:10:37;4.24;59;39.60;0;2.29
2022-01-22 13:15:37;4.24;59;40.00;0;1.40
2022-01-22 13:20:33;4.24;61;39.40;0;2.69
2022-01-22 13:25:34;4.24;62;39.80;0;1.50
2022-01-22 13:30:35;4.24;62;38.50;0;2.69
2022-01-22 13:35:35;4.24;61;38.10;0;2.09
2022-01-22 13:40:36;4.24;64;38.10;0;1.70
2022-01-22 13:45:36;4.24;61;38.50;0;1.90
2022-01-22 13:50:37;4.24;63;38.30;0;1.30
2022-01-22 13:55:37;4.24;62;39.40;0;3.38
2022-01-22 14:00:33;4.24;62;38.80;0;1.90
2022-01-22 14:05:34;4.25;62;38.40;0;1.90
2022-01-22 14:10:34;4.24;62;39.00;0;0.00
2022-01-22 14:15:35;4.24;60;39.60;0;2.00
2022-01-22 14:20:35;4.24;60;39.50;0;2.00
2022-01-22 14:25:36;4.24;58;39.80;0;2.19
2022-01-22 14:30:36;4.24;59;40.10;0;1.80
2022-01-22 14:35:37;4.24;61;40.00;0;2.29
2022-01-22 14:40:37;4.25;58;40.00;0;3.28
2022-01-22 14:45:33;4.24;61;38.90;0;2.89
2022-01-22 14:50:34;4.24;61;39.80;0;2.00
2022-01-22 14:55:35;4.24;62;39.90;0;1.70
2022-01-22 15:00:35;4.25;60;39.40;0;2.99
2022-01-22 15:05:36;4.25;62;38.60;0;2.29
2022-01-22 15:10:37;4.24;61;39.30;0;1.40
2022-01-22 15:15:37;4.24;59;40.10;0;1.80
2022-01-22 15:20:33;4.25;60;39.30;0;2.89
2022-01-22 15:25:38;4.25;59;40.10;0;2.39
2022-01-22 15:30:34;4.24;61;39.90;0;2.99
2022-01-22 15:35:35;4.24;61;39.30;0;1.80
2022-01-22 15:40:36;4.25;60;39.30;0;2.09
2022-01-22 15:45:36;4.24;59;39.60;0;1.80
2022-01-22 15:50:37;4.25;61;39.80;0;2.39
2022-01-22 15:55:37;4.25;58;40.20;0;1.80
2022-01-22 16:00:33;4.25;60;40.20;0;1.80
2022-01-22 16:05:34;4.25;58;40.00;0;2.19
2022-01-22 16:10:35;4.25;58;40.10;0;0.00
2022-01-22 16:15:35;4.25;60;40.10;0;0.00
2022-01-22 16:20:36;4.25;58;40.00;0;3.38
2022-01-22 16:25:36;4.25;58;40.10;0;1.90
2022-01-22 16:30:37;4.25;57;40.00;0;1.30
2022-01-22 16:35:38;4.25;57;39.80;0;1.60
2022-01-22 16:40:34;4.25;59;39.80;0;3.28
2022-01-22 16:45:34;4.25;57;39.80;0;2.29
2022-01-22 16:50:35;4.25;59;40.00;0;1.20
2022-01-22 16:55:36;4.25;58;40.00;0;1.70
2022-01-22 17:00:36;4.25;59;38.90;0;2.09
2022-01-22 17:05:37;4.25;60;38.90;0;0.00
2022-01-22 17:10:37;4.25;60;38.70;0;1.80
2022-01-22 17:15:33;4.25;63;37.60;0;0.00
2022-01-22 17:20:38;4.25;65;37.20;0;1.10
2022-01-22 17:25:34;4.25;67;36.20;0;0.00
2022-01-22 17:30:34;4.25;66;36.50;0;0.00
2022-01-22 17:35:34;4.25;67;36.80;0;0.00
2022-01-22 17:40:34;4.25;68;36.60;0;0.00
2022-01-22 17:45:33;4.25;69;36.20;0;0.00
2022-01-22 17:50:33;4.25;70;36.00;0;0.00
2022-01-22 17:55:33;4.25;69;35.70;0;0.00
2022-01-22 18:00:33;4.25;54;31.10;0;3.58
2022-01-22 18:05:37;4.25;45;29.70;0;2.79
2022-01-22 18:10:32;4.25;42;29.20;0;2.69
2022-01-22 18:15:36;4.25;39;29.10;0;1.90
2022-01-22 18:20:35;4.25;41;29.10;0;2.89
2022-01-22 18:25:34;4.25;27;28.20;0;2.69
2022-01-22 18:30:33;4.25;99;26.90;0;4.37
2022-01-22 18:35:36;4.25;99;26.10;0;4.47
2022-01-22 18:40:35;4.25;99;26.30;0;3.48
2022-01-22 18:45:33;4.25;99;26.30;0;3.58
2022-01-22 18:50:36;4.25;99;26.00;0;2.99
2022-01-22 18:55:34;4.25;99;25.90;0;4.96
2022-01-22 19:00:33;4.25;99;25.80;0;2.69
2022-01-22 19:05:35;4.25;99;25.60;0;3.08
2022-01-22 19:10:34;4.25;99;25.20;0;5.26
2022-01-22 19:15:32;4.25;99;25.00;0;2.89
2022-01-22 19:20:34;4.24;99;24.90;0;3.08
2022-01-22 19:25:33;4.25;99;24.80;0;1.10
2022-01-22 19:30:31;4.25;99;24.60;0;1.60
2022-01-22 19:35:34;4.24;99;24.60;0;0.00
2022-01-22 19:40:32;4.24;99;24.40;0;1.70
2022-01-22 19:45:31;4.24;99;24.30;0;2.39
2022-01-22 19:50:34;4.24;99;24.20;0;1.70
2022-01-22 19:55:32;4.24;99;24.20;0;2.99
2022-01-22 20:00:35;4.24;99;24.30;0;0.00
2022-01-22 20:05:33;4.24;99;24.30;0;0.00
2022-01-22 20:10:31;4.24;99;24.40;0;0.00
2022-01-22 20:15:34;4.24;99;24.40;0;1.10
2022-01-22 20:20:32;4.24;99;24.40;0;0.00
2022-01-22 20:25:35;4.24;99;24.30;0;0.00
2022-01-22 20:30:33;4.24;99;24.30;0;1.50
2022-01-22 20:35:31;4.24;99;24.20;0;1.30
2022-01-22 20:40:34;4.24;99;24.10;0;1.80
2022-01-22 20:45:32;4.24;99;24.10;0;1.20
2022-01-22 20:50:34;4.24;99;24.10;0;0.00
2022-01-22 20:55:33;4.23;99;24.20;0;1.20
2022-01-22 21:00:31;4.24;99;24.10;0;3.48
2022-01-22 21:05:33;4.23;99;24.20;0;0.00
2022-01-22 21:10:31;4.23;99;24.20;0;2.00
2022-01-22 21:15:34;4.24;99;24.20;0;0.00
2022-01-22 21:20:32;4.24;99;24.20;0;1.90
2022-01-22 21:25:30;4.23;99;24.30;0;1.40
2022-01-22 21:30:33;4.23;99;24.30;0;0.00
2022-01-22 21:35:31;4.23;99;24.20;0;0.00
2022-01-22 21:40:34;4.24;99;24.10;0;0.00
2022-01-22 21:45:32;4.23;99;24.00;0;0.00
2022-01-22 21:50:35;4.23;99;24.00;0;0.00
2022-01-22 21:55:33;4.24;99;23.90;0;0.00
2022-01-22 22:00:31;4.23;99;23.80;0;0.00
2022-01-22 22:05:33;4.24;99;23.80;0;0.00
2022-01-22 22:10:31;4.24;99;23.70;0;0.00
2022-01-22 22:15:34;4.23;99;23.80;0;0.00
2022-01-22 22:20:32;4.23;99;23.70;0;0.00
2022-01-22 22:25:30;4.23;99;23.70;0;1.30
2022-01-22 22:30:33;4.23;99;23.70;0;0.00
2022-01-22 22:35:31;4.23;99;23.80;0;0.00
2022-01-22 22:40:33;4.23;99;23.90;0;0.00
2022-01-22 22:45:31;4.23;99;23.90;0;0.00
2022-01-22 22:50:34;4.23;10;24.20;0;1.50
2022-01-22 22:55:32;4.23;9;24.10;0;2.09
2022-01-22 23:00:35;4.23;17;24.20;0;1.50
2022-01-22 23:05:33;4.23;14;24.20;0;0.00
2022-01-22 23:10:31;4.23;16;24.20;0;1.20
2022-01-22 23:15:33;4.23;9;24.00;0;0.00
2022-01-22 23:20:31;4.23;1;23.90;0;0.00
2022-01-22 23:25:34;4.23;99;23.90;0;0.00
2022-01-22 23:30:32;4.23;1;24.00;0;0.00
2022-01-22 23:35:35;4.23;9;24.10;0;1.10
2022-01-22 23:40:33;4.23;6;24.00;0;0.00
2022-01-22 23:45:31;4.23;6;24.00;0;0.00
2022-01-22 23:50:33;4.23;0;23.90;0;0.00
2022-01-22 23:55:31;4.23;5;24.00;0;1.10
