2021-10-09 00:00:34;4.21;86;12.20;0;0.00
2021-10-09 00:05:30;4.21;86;12.20;0;0.00
2021-10-09 00:10:31;4.21;86;12.10;0;0.00
2021-10-09 00:15:32;4.21;86;12.00;0;0.00
2021-10-09 00:20:33;4.21;86;12.10;0;0.00
2021-10-09 00:25:30;4.21;87;11.90;0;0.00
2021-10-09 00:30:31;4.20;87;12.10;0;0.00
2021-10-09 00:35:32;4.21;87;12.00;0;0.00
2021-10-09 00:40:32;4.21;87;11.70;0;0.00
2021-10-09 00:45:33;4.20;88;11.40;0;0.00
2021-10-09 00:50:30;4.20;87;11.40;0;0.00
2021-10-09 00:55:31;4.20;89;10.90;0;0.00
2021-10-09 01:00:31;4.20;88;11.60;0;0.00
2021-10-09 01:05:32;4.21;88;11.30;0;0.00
2021-10-09 01:10:33;4.20;88;11.40;0;0.00
2021-10-09 01:15:29;4.20;87;11.70;0;0.00
2021-10-09 01:20:30;4.20;87;11.50;0;0.00
2021-10-09 01:25:31;4.20;87;11.70;0;0.00
2021-10-09 01:30:32;4.20;88;11.20;0;0.00
2021-10-09 01:35:33;4.20;89;10.80;0;0.00
2021-10-09 01:40:34;4.20;89;10.60;0;0.00
2021-10-09 01:45:30;4.20;89;10.50;0;0.00
2021-10-09 01:50:31;4.20;87;10.90;0;0.00
2021-10-09 01:55:31;4.20;87;10.80;0;0.00
2021-10-09 02:00:32;4.20;87;10.60;0;0.00
2021-10-09 02:05:33;4.20;85;11.00;0;0.00
2021-10-09 02:10:34;4.20;86;10.50;0;0.00
2021-10-09 02:15:30;4.20;87;10.60;0;0.00
2021-10-09 02:20:30;4.20;86;10.70;0;0.00
2021-10-09 02:25:31;4.20;86;10.50;0;0.00
2021-10-09 02:30:32;4.20;87;10.30;0;0.00
2021-10-09 02:35:33;4.20;87;10.20;0;0.00
2021-10-09 02:40:33;4.20;87;10.20;0;0.00
2021-10-09 02:45:30;4.20;88;10.10;0;0.00
2021-10-09 02:50:30;4.20;87;10.10;0;0.00
2021-10-09 02:55:31;4.20;87;10.20;0;0.00
2021-10-09 03:00:32;4.20;88;10.00;0;0.00
2021-10-09 03:05:32;4.20;89;9.80;0;0.00
2021-10-09 03:10:33;4.20;90;9.60;0;0.00
2021-10-09 03:15:29;4.20;90;9.40;0;0.00
2021-10-09 03:20:30;4.19;91;9.20;0;1.40
2021-10-09 03:25:31;4.20;91;9.80;0;0.00
2021-10-09 03:30:31;4.20;91;9.80;0;0.00
2021-10-09 03:35:32;4.20;91;9.50;0;0.00
2021-10-09 03:40:33;4.19;92;9.30;0;0.00
2021-10-09 03:45:33;4.19;93;9.30;0;0.00
2021-10-09 03:50:30;4.19;92;9.60;0;0.00
2021-10-09 03:55:30;4.19;91;10.20;0;0.00
2021-10-09 04:00:31;4.19;89;10.80;0;0.00
2021-10-09 04:05:32;4.19;88;10.90;0;0.00
2021-10-09 04:10:33;4.19;87;11.40;0;0.00
2021-10-09 04:15:33;4.19;86;11.60;0;0.00
2021-10-09 04:20:30;4.19;85;11.50;0;0.00
2021-10-09 04:25:30;4.20;85;11.60;0;0.00
2021-10-09 04:30:31;4.19;85;11.50;0;1.10
2021-10-09 04:35:32;4.19;84;11.80;0;0.00
2021-10-09 04:40:33;4.19;86;11.50;0;1.20
2021-10-09 04:45:34;4.19;86;11.50;0;0.00
2021-10-09 04:50:30;4.20;87;11.10;0;0.00
2021-10-09 04:55:31;4.20;87;11.10;0;0.00
2021-10-09 05:00:32;4.19;87;11.00;0;0.00
2021-10-09 05:05:32;4.19;88;10.80;0;0.00
2021-10-09 05:10:33;4.19;88;10.40;0;0.00
2021-10-09 05:15:29;4.20;90;10.10;0;0.00
2021-10-09 05:20:30;4.19;91;9.90;0;0.00
2021-10-09 05:25:31;4.20;91;9.60;0;0.00
2021-10-09 05:30:32;4.19;92;9.30;0;0.00
2021-10-09 05:35:32;4.19;92;9.40;0;0.00
2021-10-09 05:40:33;4.19;92;9.50;0;0.00
2021-10-09 05:45:34;4.19;92;9.50;0;0.00
2021-10-09 05:50:30;4.19;92;9.30;0;0.00
2021-10-09 05:55:30;4.19;92;9.30;0;0.00
2021-10-09 06:00:31;4.19;92;9.50;0;0.00
2021-10-09 06:05:32;4.19;92;9.50;0;0.00
2021-10-09 06:10:32;4.19;92;9.30;0;0.00
2021-10-09 06:15:33;4.19;93;9.00;0;0.00
2021-10-09 06:20:33;4.19;94;8.20;0;0.00
2021-10-09 06:25:29;4.19;94;9.00;0;0.00
2021-10-09 06:30:30;4.19;93;8.60;0;0.00
2021-10-09 06:35:31;4.19;95;8.20;0;0.00
2021-10-09 06:40:32;4.19;95;8.30;0;0.00
2021-10-09 06:45:33;4.19;95;8.10;0;0.00
2021-10-09 06:50:29;4.19;96;7.60;0;0.00
2021-10-09 06:55:30;4.19;97;7.80;0;0.00
2021-10-09 07:00:31;4.19;96;8.10;0;0.00
2021-10-09 07:05:32;4.19;95;8.40;0;0.00
2021-10-09 07:10:32;4.19;95;8.80;0;0.00
2021-10-09 07:15:29;4.19;94;9.20;0;0.00
2021-10-09 07:20:30;4.19;94;9.60;0;0.00
2021-10-09 07:25:31;4.19;93;9.90;0;0.00
2021-10-09 07:30:32;4.19;92;10.00;0;0.00
2021-10-09 07:35:32;4.19;92;10.20;0;0.00
2021-10-09 07:40:29;4.20;91;10.90;0;0.00
2021-10-09 07:45:30;4.19;90;11.40;0;0.00
2021-10-09 07:50:31;4.20;87;12.00;0;0.00
2021-10-09 07:55:32;4.20;86;12.20;0;0.00
2021-10-09 08:00:29;4.20;85;12.60;0;0.00
2021-10-09 08:05:30;4.20;86;12.80;0;0.00
2021-10-09 08:10:31;4.20;84;13.00;0;1.30
2021-10-09 08:15:32;4.20;83;13.00;0;1.60
2021-10-09 08:20:33;4.21;83;13.40;0;1.60
2021-10-09 08:25:30;4.21;83;13.50;0;2.09
2021-10-09 08:30:31;4.21;83;14.00;0;1.40
2021-10-09 08:35:32;4.21;82;14.60;0;1.40
2021-10-09 08:40:34;4.21;80;14.50;0;0.00
2021-10-09 08:45:30;4.21;80;14.90;0;1.50
2021-10-09 08:50:32;4.21;80;15.00;0;0.00
2021-10-09 08:55:33;4.21;80;14.70;0;1.10
2021-10-09 09:00:30;4.21;79;15.50;0;0.00
2021-10-09 09:05:32;4.21;77;16.00;0;0.00
2021-10-09 09:10:33;4.21;79;16.70;0;0.00
2021-10-09 09:15:30;4.21;77;16.00;0;1.10
2021-10-09 09:20:32;4.21;76;16.80;0;0.00
2021-10-09 09:25:34;4.21;76;16.90;0;1.40
2021-10-09 09:30:31;4.21;75;17.60;0;0.00
2021-10-09 09:35:33;4.21;74;18.10;0;0.00
2021-10-09 09:40:35;4.21;75;18.00;0;0.00
2021-10-09 09:45:32;4.21;75;18.00;0;0.00
2021-10-09 09:50:34;4.21;75;18.30;0;0.00
2021-10-09 09:55:32;4.22;71;19.00;0;1.20
2021-10-09 10:00:34;4.22;74;18.60;0;0.00
2021-10-09 10:05:31;4.22;74;18.80;0;1.20
2021-10-09 10:10:33;4.22;70;19.80;0;0.00
2021-10-09 10:15:31;4.22;71;20.00;0;0.00
2021-10-09 10:20:33;4.22;69;20.70;0;0.00
2021-10-09 10:25:31;4.22;68;20.30;0;1.10
2021-10-09 10:30:33;4.22;69;20.20;0;0.00
2021-10-09 10:35:31;4.22;67;21.20;0;0.00
2021-10-09 10:40:34;4.22;66;21.20;0;0.00
2021-10-09 10:45:32;4.22;64;21.40;0;0.00
2021-10-09 10:50:34;4.22;63;22.00;0;0.00
2021-10-09 10:55:32;4.22;65;22.10;0;0.00
2021-10-09 11:00:35;4.22;65;22.20;0;0.00
2021-10-09 11:05:33;4.22;63;22.90;0;0.00
2021-10-09 11:10:35;4.22;63;23.30;0;0.00
2021-10-09 11:15:34;4.22;63;22.80;0;1.80
2021-10-09 11:20:32;4.22;63;23.70;0;1.40
2021-10-09 11:25:35;4.22;62;22.70;0;0.00
2021-10-09 11:30:33;4.22;61;22.60;0;1.50
2021-10-09 11:35:36;4.22;59;23.10;0;1.80
2021-10-09 11:40:34;4.22;59;23.90;0;1.40
2021-10-09 11:45:32;4.22;59;23.70;0;0.00
2021-10-09 11:50:35;4.23;60;24.10;0;0.00
2021-10-09 11:55:34;4.22;59;23.50;0;1.50
2021-10-09 12:00:32;4.23;57;24.30;0;0.00
2021-10-09 12:05:35;4.22;56;24.30;0;0.00
2021-10-09 12:10:33;4.23;57;23.40;0;0.00
2021-10-09 12:15:32;4.23;56;24.90;0;1.30
2021-10-09 12:20:35;4.23;56;24.30;0;1.40
2021-10-09 12:25:33;4.23;57;25.20;0;0.00
2021-10-09 12:30:32;4.23;56;23.90;0;1.40
2021-10-09 12:35:35;4.23;55;24.10;0;1.90
2021-10-09 12:40:33;4.23;57;24.80;0;1.40
2021-10-09 12:45:32;4.23;56;24.60;0;0.00
2021-10-09 12:50:35;4.23;55;25.40;0;0.00
2021-10-09 12:55:34;4.23;57;25.30;0;0.00
2021-10-09 13:00:32;4.23;54;24.70;0;1.50
2021-10-09 13:05:36;4.23;56;24.90;0;1.20
2021-10-09 13:10:34;4.23;57;24.80;0;1.70
2021-10-09 13:15:33;4.23;59;25.00;0;0.00
2021-10-09 13:20:36;4.23;55;25.20;0;0.00
2021-10-09 13:25:34;4.23;56;25.00;0;2.59
2021-10-09 13:30:33;4.23;56;25.50;0;1.80
2021-10-09 13:35:36;4.23;55;25.20;0;0.00
2021-10-09 13:40:35;4.23;55;24.80;0;0.00
2021-10-09 13:45:34;4.23;56;25.50;0;0.00
2021-10-09 13:50:32;4.23;55;25.40;0;2.79
2021-10-09 13:55:35;4.23;54;26.60;0;0.00
2021-10-09 14:00:34;4.23;56;26.60;0;0.00
2021-10-09 14:05:33;4.23;56;25.60;0;0.00
2021-10-09 14:10:36;4.24;54;26.80;0;0.00
2021-10-09 14:15:35;4.23;52;26.80;0;0.00
2021-10-09 14:20:34;4.23;54;26.20;0;0.00
2021-10-09 14:25:32;4.23;53;26.50;0;1.10
2021-10-09 14:30:36;4.23;55;25.70;0;0.00
2021-10-09 14:35:35;4.24;53;25.90;0;2.09
2021-10-09 14:40:33;4.24;54;25.90;0;1.10
2021-10-09 14:45:32;4.24;54;26.30;0;1.20
2021-10-09 14:50:36;4.24;53;26.20;0;0.00
2021-10-09 14:55:34;4.24;55;25.60;0;1.30
2021-10-09 15:00:33;4.24;52;27.00;0;1.20
2021-10-09 15:05:32;4.24;52;27.00;0;1.80
2021-10-09 15:10:35;4.24;52;26.50;0;0.00
2021-10-09 15:15:34;4.24;52;26.90;0;0.00
2021-10-09 15:20:33;4.24;53;25.90;0;0.00
2021-10-09 15:25:36;4.24;53;26.70;0;0.00
2021-10-09 15:30:35;4.24;52;26.50;0;0.00
2021-10-09 15:35:34;4.24;52;26.70;0;1.40
2021-10-09 15:40:32;4.24;51;26.50;0;1.80
2021-10-09 15:45:36;4.24;51;26.70;0;0.00
2021-10-09 15:50:34;4.24;52;26.60;0;2.00
2021-10-09 15:55:33;4.24;53;26.60;0;0.00
2021-10-09 16:00:36;4.24;52;26.50;0;1.30
2021-10-09 16:05:35;4.24;52;26.50;0;1.20
2021-10-09 16:10:34;4.24;52;26.00;0;0.00
2021-10-09 16:15:32;4.24;52;27.30;0;1.70
2021-10-09 16:20:35;4.24;52;26.20;0;1.30
2021-10-09 16:25:34;4.24;52;26.50;0;0.00
2021-10-09 16:30:32;4.24;52;26.20;0;0.00
2021-10-09 16:35:36;4.24;53;26.50;0;0.00
2021-10-09 16:40:34;4.24;52;26.70;0;1.20
2021-10-09 16:45:33;4.24;53;26.50;0;1.10
2021-10-09 16:50:36;4.24;54;26.00;0;0.00
2021-10-09 16:55:34;4.24;53;26.40;0;0.00
2021-10-09 17:00:33;4.24;53;26.50;0;1.30
2021-10-09 17:05:36;4.24;53;26.30;0;1.50
2021-10-09 17:10:34;4.24;53;26.10;0;0.00
2021-10-09 17:15:33;4.24;54;25.90;0;1.20
2021-10-09 17:20:36;4.24;54;25.90;0;0.00
2021-10-09 17:25:34;4.24;53;25.90;0;0.00
2021-10-09 17:30:33;4.24;54;26.00;0;0.00
2021-10-09 17:35:36;4.24;53;25.50;0;1.40
2021-10-09 17:40:34;4.24;54;25.40;0;2.09
2021-10-09 17:45:32;4.24;54;25.60;0;0.00
2021-10-09 17:50:35;4.24;54;25.40;0;0.00
2021-10-09 17:55:33;4.24;55;25.50;0;0.00
2021-10-09 18:00:31;4.24;55;25.40;0;0.00
2021-10-09 18:05:34;4.24;56;24.70;0;1.10
2021-10-09 18:10:32;4.24;57;24.70;0;0.00
2021-10-09 18:15:35;4.24;57;24.70;0;0.00
2021-10-09 18:20:33;4.25;58;24.60;0;0.00
2021-10-09 18:25:31;4.24;58;24.30;0;0.00
2021-10-09 18:30:34;4.24;58;24.10;0;0.00
2021-10-09 18:35:32;4.24;58;23.70;0;1.30
2021-10-09 18:40:34;4.24;59;23.50;0;0.00
2021-10-09 18:45:32;4.24;60;23.10;0;0.00
2021-10-09 18:50:35;4.24;61;22.80;0;0.00
2021-10-09 18:55:33;4.24;62;22.50;0;0.00
2021-10-09 19:00:35;4.24;63;22.10;0;0.00
2021-10-09 19:05:33;4.24;63;21.80;0;1.50
2021-10-09 19:10:35;4.24;64;21.40;0;0.00
2021-10-09 19:15:33;4.24;65;21.10;0;0.00
2021-10-09 19:20:35;4.24;66;20.80;0;0.00
2021-10-09 19:25:32;4.24;67;20.20;0;0.00
2021-10-09 19:30:34;4.24;68;19.60;0;0.00
2021-10-09 19:35:32;4.24;69;19.40;0;0.00
2021-10-09 19:40:34;4.23;69;19.20;0;0.00
2021-10-09 19:45:31;4.23;71;18.60;0;0.00
2021-10-09 19:50:33;4.23;72;18.50;0;0.00
2021-10-09 19:55:34;4.24;71;18.80;0;0.00
2021-10-09 20:00:32;4.23;71;18.70;0;0.00
2021-10-09 20:05:33;4.23;71;18.80;0;0.00
2021-10-09 20:10:30;4.23;72;18.60;0;0.00
2021-10-09 20:15:32;4.23;73;18.40;0;0.00
2021-10-09 20:20:34;4.23;73;18.20;0;0.00
2021-10-09 20:25:31;4.23;74;17.90;0;0.00
2021-10-09 20:30:32;4.23;74;17.80;0;0.00
2021-10-09 20:35:34;4.23;75;17.70;0;0.00
2021-10-09 20:40:31;4.23;75;17.80;0;0.00
2021-10-09 20:45:33;4.23;76;17.40;0;0.00
2021-10-09 20:50:34;4.23;77;16.90;0;0.00
2021-10-09 20:55:31;4.23;79;16.40;0;0.00
2021-10-09 21:00:33;4.23;80;16.30;0;0.00
2021-10-09 21:05:34;4.23;80;16.20;0;0.00
2021-10-09 21:10:31;4.23;79;16.60;0;0.00
2021-10-09 21:15:32;4.23;79;16.50;0;0.00
2021-10-09 21:20:34;4.22;80;16.00;0;0.00
2021-10-09 21:25:31;4.22;81;16.00;0;0.00
2021-10-09 21:30:32;4.22;81;16.10;0;0.00
2021-10-09 21:35:33;4.23;82;16.00;0;0.00
2021-10-09 21:40:30;4.22;82;15.80;0;0.00
2021-10-09 21:45:31;4.23;82;15.90;0;0.00
2021-10-09 21:50:32;4.23;82;15.90;0;0.00
2021-10-09 21:55:34;4.22;82;15.80;0;0.00
2021-10-09 22:00:30;4.22;82;15.80;0;0.00
2021-10-09 22:05:32;4.22;82;16.10;0;0.00
2021-10-09 22:10:33;4.22;81;16.00;0;0.00
2021-10-09 22:15:34;4.22;83;15.50;0;0.00
2021-10-09 22:20:31;4.22;84;15.20;0;0.00
2021-10-09 22:25:32;4.22;86;14.90;0;0.00
2021-10-09 22:30:33;4.22;85;15.00;0;0.00
2021-10-09 22:35:30;4.22;85;15.10;0;0.00
2021-10-09 22:40:31;4.22;86;15.30;0;0.00
2021-10-09 22:45:32;4.22;85;15.50;0;0.00
2021-10-09 22:50:33;4.22;85;15.50;0;0.00
2021-10-09 22:55:30;4.22;85;15.60;0;0.00
2021-10-09 23:00:31;4.22;85;15.60;0;0.00
2021-10-09 23:05:33;4.22;86;15.30;0;0.00
2021-10-09 23:10:34;4.22;86;15.40;0;0.00
2021-10-09 23:15:30;4.22;85;15.50;0;0.00
2021-10-09 23:20:32;4.22;86;15.40;0;0.00
2021-10-09 23:25:33;4.22;86;15.30;0;0.00
2021-10-09 23:30:34;4.22;86;15.20;0;0.00
2021-10-09 23:35:31;4.22;87;15.10;0;0.00
2021-10-09 23:40:32;4.22;88;14.90;0;0.00
2021-10-09 23:45:33;4.22;88;14.90;0;0.00
2021-10-09 23:50:34;4.22;89;14.60;0;0.00
2021-10-09 23:55:31;4.21;89;14.50;0;0.00
