2021-10-05 00:00:32;4.21;72;10.80;0;0.00
2021-10-05 00:05:33;4.21;72;10.70;0;0.00
2021-10-05 00:10:34;4.21;72;10.60;0;0.00
2021-10-05 00:15:30;4.21;73;10.40;0;0.00
2021-10-05 00:20:31;4.20;74;10.30;0;0.00
2021-10-05 00:25:31;4.20;73;10.80;0;0.00
2021-10-05 00:30:32;4.21;73;10.60;0;0.00
2021-10-05 00:35:33;4.20;74;10.50;0;0.00
2021-10-05 00:40:34;4.21;74;10.40;0;0.00
2021-10-05 00:45:30;4.21;74;10.40;0;0.00
2021-10-05 00:50:31;4.20;76;10.00;0;0.00
2021-10-05 00:55:31;4.20;76;9.90;0;0.00
2021-10-05 01:00:32;4.20;77;9.60;0;0.00
2021-10-05 01:05:33;4.20;79;9.00;0;0.00
2021-10-05 01:10:34;4.20;81;8.50;0;0.00
2021-10-05 01:15:30;4.20;81;8.40;0;0.00
2021-10-05 01:20:30;4.20;83;8.00;0;0.00
2021-10-05 01:25:31;4.20;84;7.60;0;0.00
2021-10-05 01:30:32;4.20;84;7.60;0;0.00
2021-10-05 01:35:32;4.20;83;7.90;0;0.00
2021-10-05 01:40:33;4.20;84;7.60;0;0.00
2021-10-05 01:45:33;4.20;84;7.50;0;0.00
2021-10-05 01:50:29;4.20;84;7.70;0;0.00
2021-10-05 01:55:30;4.20;85;7.40;0;0.00
2021-10-05 02:00:30;4.20;84;7.60;0;0.00
2021-10-05 02:05:31;4.20;83;7.80;0;0.00
2021-10-05 02:10:31;4.20;82;8.00;0;0.00
2021-10-05 02:15:32;4.20;84;7.50;0;0.00
2021-10-05 02:20:32;4.20;84;7.80;0;0.00
2021-10-05 02:25:33;4.20;85;7.40;0;0.00
2021-10-05 02:30:33;4.20;85;6.80;0;0.00
2021-10-05 02:35:29;4.20;88;6.70;0;0.00
2021-10-05 02:40:30;4.20;85;7.40;0;0.00
2021-10-05 02:45:30;4.20;85;7.10;0;0.00
2021-10-05 02:50:30;4.20;87;6.60;0;0.00
2021-10-05 02:55:31;4.20;86;6.70;0;0.00
2021-10-05 03:00:31;4.20;87;6.30;0;0.00
2021-10-05 03:05:32;4.20;88;6.10;0;0.00
2021-10-05 03:10:32;4.20;90;5.70;0;0.00
2021-10-05 03:15:32;4.19;89;6.20;0;0.00
2021-10-05 03:20:33;4.19;89;6.00;0;0.00
2021-10-05 03:25:33;4.20;88;6.00;0;0.00
2021-10-05 03:30:29;4.19;88;5.90;0;0.00
2021-10-05 03:35:34;4.19;88;6.30;0;0.00
2021-10-05 03:40:30;4.19;88;6.10;0;0.00
2021-10-05 03:45:30;4.19;88;6.30;0;0.00
2021-10-05 03:50:30;4.19;87;6.20;0;0.00
2021-10-05 03:55:31;4.19;90;5.30;0;0.00
2021-10-05 04:00:31;4.19;90;5.30;0;0.00
2021-10-05 04:05:31;4.19;92;5.00;0;0.00
2021-10-05 04:10:32;4.19;91;4.90;0;0.00
2021-10-05 04:15:32;4.19;91;4.80;0;0.00
2021-10-05 04:20:32;4.19;92;5.20;0;0.00
2021-10-05 04:25:33;4.19;92;5.00;0;0.00
2021-10-05 04:30:33;4.19;91;5.20;0;0.00
2021-10-05 04:35:33;4.19;91;5.30;0;0.00
2021-10-05 04:40:29;4.19;92;4.90;0;0.00
2021-10-05 04:45:34;4.19;92;5.00;0;0.00
2021-10-05 04:50:29;4.19;93;4.40;0;0.00
2021-10-05 04:55:30;4.19;94;4.40;0;0.00
2021-10-05 05:00:30;4.19;94;4.70;0;0.00
2021-10-05 05:05:30;4.19;93;4.90;0;0.00
2021-10-05 05:10:30;4.18;93;5.30;0;0.00
2021-10-05 05:15:31;4.19;92;5.30;0;0.00
2021-10-05 05:20:31;4.19;93;5.00;0;0.00
2021-10-05 05:25:31;4.19;91;5.60;0;0.00
2021-10-05 05:30:31;4.19;91;5.40;0;0.00
2021-10-05 05:35:31;4.19;91;5.40;0;0.00
2021-10-05 05:40:32;4.19;92;5.10;0;0.00
2021-10-05 05:45:32;4.18;92;5.10;0;0.00
2021-10-05 05:50:32;4.19;92;4.90;0;0.00
2021-10-05 05:55:32;4.19;94;4.10;0;0.00
2021-10-05 06:00:32;4.19;95;4.20;0;0.00
2021-10-05 06:05:33;4.18;94;4.60;0;0.00
2021-10-05 06:10:33;4.18;94;4.40;0;0.00
2021-10-05 06:15:33;4.19;93;4.40;0;0.00
2021-10-05 06:20:33;4.19;95;4.20;0;0.00
2021-10-05 06:25:29;4.18;95;4.40;0;0.00
2021-10-05 06:30:34;4.19;94;4.50;0;0.00
2021-10-05 06:35:29;4.19;94;4.70;0;0.00
2021-10-05 06:40:29;4.18;94;5.00;0;0.00
2021-10-05 06:45:30;4.18;93;5.10;0;0.00
2021-10-05 06:50:30;4.18;93;5.20;0;0.00
2021-10-05 06:55:30;4.18;92;5.40;0;0.00
2021-10-05 07:00:30;4.18;91;5.70;0;0.00
2021-10-05 07:05:30;4.18;91;5.80;0;0.00
2021-10-05 07:10:30;4.19;91;5.80;0;0.00
2021-10-05 07:15:31;4.18;91;6.00;0;0.00
2021-10-05 07:20:31;4.18;92;6.40;0;0.00
2021-10-05 07:25:31;4.19;90;7.40;0;0.00
2021-10-05 07:30:32;4.19;88;8.20;0;0.00
2021-10-05 07:35:32;4.19;87;8.80;0;0.00
2021-10-05 07:40:32;4.19;86;9.60;0;0.00
2021-10-05 07:45:33;4.19;83;10.60;0;0.00
2021-10-05 07:50:33;4.19;82;10.60;0;1.10
2021-10-05 07:55:29;4.19;80;11.00;0;1.20
2021-10-05 08:00:30;4.19;81;11.70;0;0.00
2021-10-05 08:05:31;4.20;79;12.40;0;1.10
2021-10-05 08:10:31;4.20;76;12.70;0;1.80
2021-10-05 08:15:32;4.20;75;13.90;0;1.60
2021-10-05 08:20:33;4.20;71;14.30;0;1.80
2021-10-05 08:25:30;4.20;72;14.70;0;2.59
2021-10-05 08:30:31;4.21;71;15.30;0;1.90
2021-10-05 08:35:32;4.20;69;15.80;0;2.19
2021-10-05 08:40:33;4.21;67;16.40;0;1.70
2021-10-05 08:45:34;4.21;65;16.60;0;3.48
2021-10-05 08:50:31;4.21;64;16.90;0;2.79
2021-10-05 08:55:33;4.21;63;17.60;0;2.49
2021-10-05 09:00:34;4.21;62;17.80;0;2.59
2021-10-05 09:05:31;4.21;62;17.60;0;4.37
2021-10-05 09:10:33;4.21;61;18.10;0;2.99
2021-10-05 09:15:34;4.21;61;18.20;0;4.87
2021-10-05 09:20:32;4.21;60;18.60;0;2.29
2021-10-05 09:25:33;4.21;59;19.10;0;3.38
2021-10-05 09:30:31;4.21;58;19.30;0;2.59
2021-10-05 09:35:32;4.21;57;20.00;0;2.09
2021-10-05 09:40:34;4.21;58;20.30;0;2.59
2021-10-05 09:45:32;4.22;56;19.90;0;1.90
2021-10-05 09:50:34;4.21;55;20.30;0;2.39
2021-10-05 09:55:31;4.22;54;20.80;0;2.00
2021-10-05 10:00:33;4.22;54;20.80;0;3.18
2021-10-05 10:05:31;4.22;53;20.80;0;3.58
2021-10-05 10:10:33;4.22;53;21.40;0;2.49
2021-10-05 10:15:31;4.22;53;21.60;0;4.77
2021-10-05 10:20:33;4.22;52;21.00;0;2.99
2021-10-05 10:25:35;4.22;50;21.30;0;2.89
2021-10-05 10:30:33;4.22;50;21.90;0;4.47
2021-10-05 10:35:35;4.22;49;22.30;0;3.38
2021-10-05 10:40:33;4.22;50;22.10;0;3.78
2021-10-05 10:45:31;4.22;49;21.90;0;1.70
2021-10-05 10:50:33;4.22;50;22.00;0;2.99
2021-10-05 10:55:31;4.22;49;22.20;0;2.59
2021-10-05 11:00:34;4.22;49;22.10;0;2.39
2021-10-05 11:05:32;4.22;50;22.70;0;3.97
2021-10-05 11:10:34;4.22;49;22.40;0;2.99
2021-10-05 11:15:32;4.22;49;22.70;0;3.28
2021-10-05 11:20:35;4.22;49;22.70;0;3.68
2021-10-05 11:25:33;4.22;48;22.60;0;4.37
2021-10-05 11:30:35;4.22;48;22.70;0;4.96
2021-10-05 11:35:33;4.22;47;23.00;0;2.29
2021-10-05 11:40:31;4.22;46;23.10;0;2.79
2021-10-05 11:45:34;4.22;48;23.40;0;1.80
2021-10-05 11:50:32;4.22;48;23.60;0;3.58
2021-10-05 11:55:35;4.23;49;22.90;0;2.99
2021-10-05 12:00:33;4.22;47;23.30;0;4.96
2021-10-05 12:05:35;4.23;46;23.70;0;2.69
2021-10-05 12:10:34;4.23;46;24.30;0;3.97
2021-10-05 12:15:32;4.23;47;24.40;0;2.69
2021-10-05 12:20:35;4.23;46;22.90;0;2.99
2021-10-05 12:25:33;4.23;45;24.00;0;5.56
2021-10-05 12:30:36;4.23;45;23.90;0;3.08
2021-10-05 12:35:34;4.23;44;24.00;0;4.47
2021-10-05 12:40:32;4.23;44;23.60;0;2.79
2021-10-05 12:45:35;4.23;45;24.40;0;2.69
2021-10-05 12:50:33;4.23;44;24.00;0;3.78
2021-10-05 12:55:31;4.23;44;25.00;0;2.69
2021-10-05 13:00:35;4.23;43;24.50;0;4.87
2021-10-05 13:05:33;4.23;44;25.00;0;2.39
2021-10-05 13:10:36;4.23;45;24.80;0;2.39
2021-10-05 13:15:34;4.23;44;24.30;0;4.17
2021-10-05 13:20:32;4.23;42;24.20;0;3.38
2021-10-05 13:25:35;4.23;43;24.30;0;2.79
2021-10-05 13:30:34;4.23;44;25.30;0;4.77
2021-10-05 13:35:32;4.23;42;24.90;0;4.96
2021-10-05 13:40:35;4.23;42;25.70;0;2.39
2021-10-05 13:45:33;4.23;41;25.20;0;2.19
2021-10-05 13:50:32;4.23;42;25.20;0;2.49
2021-10-05 13:55:35;4.23;43;25.00;0;3.97
2021-10-05 14:00:33;4.23;42;25.20;0;4.07
2021-10-05 14:05:32;4.23;42;25.40;0;3.88
2021-10-05 14:10:35;4.23;42;25.10;0;3.08
2021-10-05 14:15:33;4.23;41;25.00;0;3.18
2021-10-05 14:20:32;4.23;41;25.50;0;2.00
2021-10-05 14:25:35;4.23;41;26.60;0;3.68
2021-10-05 14:30:33;4.23;40;25.90;0;2.79
2021-10-05 14:35:32;4.24;42;25.30;0;2.49
2021-10-05 14:40:35;4.24;40;25.50;0;2.99
2021-10-05 14:45:33;4.24;40;25.90;0;4.67
2021-10-05 14:50:32;4.24;41;26.10;0;2.99
2021-10-05 14:55:35;4.23;41;26.10;0;3.38
2021-10-05 15:00:34;4.24;42;26.10;0;3.78
2021-10-05 15:05:32;4.24;41;26.30;0;2.39
2021-10-05 15:10:35;4.24;40;26.30;0;2.89
2021-10-05 15:15:34;4.24;41;26.30;0;3.28
2021-10-05 15:20:32;4.24;41;25.80;0;4.27
2021-10-05 15:25:35;4.24;42;26.40;0;2.59
2021-10-05 15:30:34;4.24;40;26.20;0;2.39
2021-10-05 15:35:33;4.24;41;26.10;0;3.68
2021-10-05 15:40:36;4.24;39;25.80;0;1.60
2021-10-05 15:45:34;4.24;41;26.20;0;3.38
2021-10-05 15:50:33;4.24;40;25.80;0;2.09
2021-10-05 15:55:36;4.24;42;25.70;0;1.70
2021-10-05 16:00:34;4.24;43;25.70;0;2.29
2021-10-05 16:05:33;4.24;41;25.70;0;2.29
2021-10-05 16:10:36;4.24;42;25.50;0;2.79
2021-10-05 16:15:34;4.24;41;26.00;0;2.89
2021-10-05 16:20:33;4.24;41;26.00;0;3.58
2021-10-05 16:25:36;4.24;42;25.70;0;3.28
2021-10-05 16:30:34;4.24;41;26.00;0;2.89
2021-10-05 16:35:32;4.24;41;25.80;0;2.59
2021-10-05 16:40:35;4.24;41;25.30;0;2.29
2021-10-05 16:45:34;4.24;41;25.60;0;4.47
2021-10-05 16:50:32;4.24;42;25.00;0;2.59
2021-10-05 16:55:35;4.24;41;25.50;0;3.88
2021-10-05 17:00:33;4.24;41;25.80;0;3.58
2021-10-05 17:05:32;4.24;42;26.10;0;4.57
2021-10-05 17:10:34;4.24;41;25.90;0;3.88
2021-10-05 17:15:33;4.24;42;26.00;0;3.58
2021-10-05 17:20:36;4.24;42;25.60;0;2.59
2021-10-05 17:25:34;4.24;43;26.00;0;1.90
2021-10-05 17:30:33;4.24;44;25.40;0;2.19
2021-10-05 17:35:35;4.24;43;25.20;0;3.18
2021-10-05 17:40:34;4.24;44;25.00;0;2.29
2021-10-05 17:45:32;4.24;44;25.40;0;2.89
2021-10-05 17:50:35;4.24;45;25.40;0;2.29
2021-10-05 17:55:33;4.24;45;24.80;0;2.79
2021-10-05 18:00:31;4.24;45;24.80;0;3.08
2021-10-05 18:05:34;4.24;45;24.10;0;2.59
2021-10-05 18:10:32;4.24;45;24.10;0;3.08
2021-10-05 18:15:35;4.24;46;24.20;0;1.90
2021-10-05 18:20:33;4.24;46;23.90;0;2.29
2021-10-05 18:25:36;4.24;46;23.80;0;2.19
2021-10-05 18:30:34;4.24;47;23.50;0;2.49
2021-10-05 18:35:32;4.24;47;23.20;0;1.90
2021-10-05 18:40:34;4.24;47;23.00;0;2.09
2021-10-05 18:45:32;4.24;48;22.70;0;2.09
2021-10-05 18:50:34;4.24;49;22.30;0;1.60
2021-10-05 18:55:32;4.24;49;21.80;0;1.50
2021-10-05 19:00:34;4.24;50;21.50;0;1.20
2021-10-05 19:05:32;4.24;51;21.20;0;1.50
2021-10-05 19:10:34;4.24;51;20.90;0;1.50
2021-10-05 19:15:32;4.24;53;20.10;0;1.20
2021-10-05 19:20:34;4.24;53;20.00;0;0.00
2021-10-05 19:25:32;4.24;54;19.90;0;0.00
2021-10-05 19:30:34;4.24;55;19.40;0;0.00
2021-10-05 19:35:31;4.23;57;18.50;0;0.00
2021-10-05 19:40:33;4.23;58;18.20;0;0.00
2021-10-05 19:45:35;4.23;58;18.20;0;0.00
2021-10-05 19:50:32;4.23;58;18.00;0;0.00
2021-10-05 19:55:34;4.23;60;17.50;0;0.00
2021-10-05 20:00:31;4.23;60;17.70;0;0.00
2021-10-05 20:05:32;4.23;60;17.80;0;1.10
2021-10-05 20:10:34;4.23;61;17.50;0;0.00
2021-10-05 20:15:31;4.23;62;17.10;0;0.00
2021-10-05 20:20:33;4.23;62;17.10;0;0.00
2021-10-05 20:25:34;4.23;63;16.90;0;0.00
2021-10-05 20:30:31;4.23;63;16.80;0;0.00
2021-10-05 20:35:33;4.23;63;16.80;0;0.00
2021-10-05 20:40:34;4.23;64;16.50;0;0.00
2021-10-05 20:45:31;4.23;63;16.70;0;0.00
2021-10-05 20:50:33;4.23;63;17.10;0;0.00
2021-10-05 20:55:34;4.23;62;17.10;0;0.00
2021-10-05 21:00:31;4.23;63;16.90;0;0.00
2021-10-05 21:05:33;4.22;64;16.50;0;0.00
2021-10-05 21:10:34;4.23;66;15.50;0;0.00
2021-10-05 21:15:31;4.23;66;15.60;0;0.00
2021-10-05 21:20:32;4.23;66;15.70;0;0.00
2021-10-05 21:25:34;4.22;66;15.80;0;0.00
2021-10-05 21:30:31;4.22;67;15.20;0;0.00
2021-10-05 21:35:32;4.23;69;14.50;0;0.00
2021-10-05 21:40:33;4.22;70;14.60;0;0.00
2021-10-05 21:45:30;4.22;68;15.10;0;0.00
2021-10-05 21:50:31;4.22;68;15.10;0;0.00
2021-10-05 21:55:32;4.22;68;15.10;0;0.00
2021-10-05 22:00:34;4.22;67;15.50;0;0.00
2021-10-05 22:05:30;4.22;68;15.20;0;0.00
2021-10-05 22:10:31;4.22;68;15.40;0;0.00
2021-10-05 22:15:33;4.22;67;15.60;0;0.00
2021-10-05 22:20:34;4.22;67;15.50;0;0.00
2021-10-05 22:25:31;4.22;68;15.30;0;0.00
2021-10-05 22:30:32;4.22;70;14.50;0;0.00
2021-10-05 22:35:33;4.22;71;14.10;0;0.00
2021-10-05 22:40:34;4.22;73;13.50;0;0.00
2021-10-05 22:45:31;4.22;76;12.60;0;0.00
2021-10-05 22:50:32;4.22;79;11.90;0;0.00
2021-10-05 22:55:33;4.22;78;12.30;0;0.00
2021-10-05 23:00:30;4.22;77;12.80;0;0.00
2021-10-05 23:05:31;4.22;76;13.00;0;0.00
2021-10-05 23:10:32;4.22;73;13.70;0;0.00
2021-10-05 23:15:33;4.22;72;14.10;0;0.00
2021-10-05 23:20:34;4.21;74;13.50;0;0.00
2021-10-05 23:25:30;4.22;75;12.90;0;0.00
2021-10-05 23:30:31;4.22;77;12.40;0;0.00
2021-10-05 23:35:32;4.21;78;12.60;0;0.00
2021-10-05 23:40:33;4.21;77;12.70;0;0.00
2021-10-05 23:45:30;4.21;77;12.80;0;0.00
2021-10-05 23:50:31;4.21;78;12.20;0;0.00
2021-10-05 23:55:32;4.21;81;11.30;0;0.00
