2022-09-26 00:00:56;v;2.95
2022-09-26 00:00:56;h2;22;0.174;0.020;18.92;66.1;0.018;10.8582;6.570;10.961;7.145
2022-09-26 00:00:56;h4;44;0.173;0.019;18.94;66.1;0.018;10.7554;6.311;10.854;6.879
2022-09-26 00:01:53;v;2.94
2022-09-26 00:01:53;h2;22;0.174;0.020;19.12;66.4;0.018;10.8582;6.570;10.961;7.145
2022-09-26 00:01:53;h4;44;0.173;0.019;18.94;66.1;0.018;10.7554;6.311;10.854;6.879
2022-09-26 00:02:54;v;2.94
2022-09-26 00:02:54;h2;22;0.174;0.020;19.12;66.4;0.018;10.8572;6.569;10.959;7.152
2022-09-26 00:02:54;h4;44;0.175;0.019;18.94;66.1;0.017;10.8824;6.262;10.982;6.826
2022-09-26 00:03:56;v;2.94
2022-09-26 00:03:56;h2;22;0.174;0.020;19.12;66.4;0.018;10.8582;6.570;10.961;7.145
2022-09-26 00:03:56;h4;44;0.174;0.019;18.94;66.1;0.017;10.8384;6.201;10.937;6.759
2022-09-26 00:04:53;v;2.93
2022-09-26 00:04:53;h2;22;0.174;0.020;19.12;66.4;0.018;10.8582;6.570;10.961;7.145
2022-09-26 00:04:53;h4;44;0.173;0.019;18.94;66.1;0.018;10.7554;6.311;10.854;6.879
2022-09-26 00:05:54;v;2.93
2022-09-26 00:05:54;h2;22;0.174;0.020;18.92;66.1;0.018;10.8582;6.570;10.961;7.145
2022-09-26 00:05:54;h4;44;0.180;0.018;18.94;66.1;0.017;11.1864;6.004;11.291;6.537
2022-09-26 00:06:55;v;2.92
2022-09-26 00:06:55;h2;22;0.174;0.020;19.12;66.4;0.018;10.8572;6.569;10.959;7.152
2022-09-26 00:06:55;h4;44;0.175;0.019;18.94;66.1;0.017;10.8824;6.262;10.982;6.826
2022-09-26 00:07:53;v;2.92
2022-09-26 00:07:53;h2;22;0.174;0.020;19.12;66.4;0.018;10.8572;6.569;10.959;7.152
2022-09-26 00:07:53;h4;44;0.176;0.019;18.84;65.8;0.017;10.9644;6.153;11.067;6.699
2022-09-26 00:08:54;v;2.92
2022-09-26 00:08:54;h2;22;0.174;0.020;19.12;66.4;0.018;10.8582;6.570;10.961;7.145
2022-09-26 00:08:54;h4;44;0.180;0.018;18.94;66.1;0.017;11.1864;6.004;11.291;6.537
2022-09-26 00:09:55;v;2.91
2022-09-26 00:09:55;h2;22;0.174;0.020;19.12;66.4;0.018;10.8572;6.569;10.959;7.152
2022-09-26 00:09:55;h4;44;0.181;0.018;18.84;65.8;0.016;11.2634;5.895;11.368;6.418
2022-09-26 00:10:57;v;2.90
2022-09-26 00:10:57;h2;22;0.170;0.020;19.12;66.4;0.019;10.6242;6.659;10.725;7.242
2022-09-26 00:10:57;h4;44;0.180;0.018;18.94;66.1;0.017;11.1864;6.004;11.291;6.537
2022-09-26 00:11:54;v;2.90
2022-09-26 00:11:54;h2;22;0.170;0.020;18.92;66.1;0.019;10.6242;6.659;10.725;7.242
2022-09-26 00:11:54;h4;44;0.180;0.018;18.94;66.1;0.017;11.1864;6.004;11.291;6.537
2022-09-26 00:12:55;v;2.89
2022-09-26 00:12:55;h2;22;0.174;0.020;18.92;66.1;0.018;10.8582;6.570;10.961;7.145
2022-09-26 00:12:55;h4;44;0.174;0.019;18.94;66.1;0.017;10.8384;6.201;10.937;6.759
2022-09-26 00:13:56;v;2.89
2022-09-26 00:13:56;h2;22;0.174;0.020;19.12;66.4;0.018;10.8582;6.570;10.961;7.145
2022-09-26 00:13:56;h4;44;0.173;0.019;18.94;66.1;0.018;10.7554;6.311;10.854;6.879
