2021-08-22 00:03:34;4.20;99;10.70;0;0.00
2021-08-22 00:33:34;4.20;99;10.30;0;0.00
2021-08-22 01:03:33;4.20;99;9.80;0;0.00
2021-08-22 01:33:36;4.19;99;10.50;0;0.00
2021-08-22 02:03:35;4.19;99;9.60;0;0.00
2021-08-22 02:33:33;4.19;99;10.00;0;0.00
2021-08-22 03:03:32;4.19;99;10.00;0;0.00
2021-08-22 03:33:35;4.19;99;9.10;0;0.00
2021-08-22 04:03:33;4.19;99;8.00;0;0.00
2021-08-22 04:33:35;4.19;1;8.00;0;0.00
2021-08-22 05:03:33;4.18;1;8.10;0;0.00
2021-08-22 05:33:34;4.18;1;7.10;0;0.00
2021-08-22 06:03:32;4.18;1;6.80;0;0.00
2021-08-22 06:33:33;4.18;1;6.80;0;0.00
2021-08-22 07:03:34;4.18;1;6.30;0;0.00
2021-08-22 07:33:31;4.18;1;6.60;0;0.00
2021-08-22 08:03:32;4.18;1;6.80;0;0.00
2021-08-22 08:33:34;4.19;1;8.50;0;0.00
2021-08-22 09:03:32;4.19;1;10.30;0;0.00
2021-08-22 09:33:36;4.20;5;13.00;0;0.00
2021-08-22 10:03:38;4.20;1;15.70;0;0.00
2021-08-22 10:33:38;4.21;1;18.30;0;2.00
2021-08-22 11:03:39;4.21;1;20.20;0;2.59
2021-08-22 11:33:42;4.21;1;21.80;0;4.07
2021-08-22 12:03:41;4.22;1;22.10;0;3.58
2021-08-22 12:33:42;4.22;1;23.00;0;5.56
2021-08-22 13:03:43;4.22;1;23.40;0;4.77
2021-08-22 13:33:44;4.22;1;23.70;0;5.95
2021-08-22 14:03:46;4.22;1;23.70;0;4.96
2021-08-22 14:33:44;4.22;1;23.90;0;4.17
2021-08-22 15:03:46;4.23;1;23.70;0;4.87
2021-08-22 15:33:44;4.23;1;24.00;0;4.47
2021-08-22 16:03:46;4.23;1;23.70;0;4.27
2021-08-22 16:33:43;4.23;1;23.20;0;2.79
2021-08-22 17:03:44;4.23;1;22.80;0;3.48
2021-08-22 17:33:45;4.23;1;21.90;0;1.70
2021-08-22 18:03:44;4.23;1;20.40;0;1.80
2021-08-22 18:33:42;4.23;1;17.80;0;2.19
2021-08-22 19:03:38;4.22;1;15.10;0;1.90
2021-08-22 19:33:36;4.21;1;12.80;0;0.00
2021-08-22 20:03:37;4.21;1;11.60;0;0.00
2021-08-22 20:33:32;4.21;1;9.40;0;0.00
2021-08-22 21:03:36;4.20;1;9.50;0;0.00
2021-08-22 21:33:34;4.20;1;9.10;0;0.00
2021-08-22 22:03:32;4.20;1;9.00;0;0.00
2021-08-22 22:33:35;4.19;1;8.40;0;0.00
2021-08-22 23:03:32;4.19;1;7.50;0;0.00
2021-08-22 23:33:34;4.19;1;5.70;0;0.00
