2021-11-25 00:03:54;1;118;118;118;118;118;118;118;118;118;118;
2021-11-25 00:03:54;2;130;129;129;129;129;129;130;130;135;134;
2021-11-25 00:03:54;3;34;34;34;34;35;35;34;34;34;34;
2021-11-25 00:03:54;4;124;124;124;124;124;124;124;124;124;124;
2021-11-25 00:03:54;5;2;2;2;2;2;2;1;2;2;2;
2021-11-25 00:03:54;ht;85;28.10
2021-11-25 00:03:54;v;4.17
2021-11-25 00:33:55;1;118;118;118;118;118;118;118;118;118;118;
2021-11-25 00:33:55;2;127;127;127;127;127;127;127;127;127;127;
2021-11-25 00:33:55;3;34;34;34;34;34;34;34;34;34;34;
2021-11-25 00:33:55;4;123;123;123;123;123;123;123;123;123;123;
2021-11-25 00:33:55;5;1;2;2;1;2;2;2;2;1;2;
2021-11-25 00:33:55;ht;84;28.10
2021-11-25 00:33:55;v;4.17
2021-11-25 01:03:56;1;115;115;115;115;115;114;115;115;115;115;
2021-11-25 01:03:56;2;124;124;124;124;124;124;124;124;124;124;
2021-11-25 01:03:56;3;34;34;34;34;34;34;34;34;34;34;
2021-11-25 01:03:56;4;128;128;128;128;128;128;128;128;128;128;
2021-11-25 01:03:56;5;1;2;1;1;1;1;1;1;1;1;
2021-11-25 01:03:56;ht;84;28.10
2021-11-25 01:03:56;v;4.17
2021-11-25 01:33:53;1;120;120;120;120;120;120;120;120;120;120;
2021-11-25 01:33:53;2;127;127;126;126;127;127;127;127;126;127;
2021-11-25 01:33:53;3;34;34;34;34;34;34;34;34;34;34;
2021-11-25 01:33:53;4;120;120;120;120;120;120;120;120;120;120;
2021-11-25 01:33:53;5;1;1;1;2;1;1;1;1;1;1;
2021-11-25 01:33:53;ht;91;26.50
2021-11-25 01:33:53;v;4.16
2021-11-25 02:03:52;1;121;121;121;121;121;121;121;121;121;121;
2021-11-25 02:03:52;2;125;125;125;125;125;125;125;125;125;125;
2021-11-25 02:03:52;3;31;31;31;31;31;31;31;31;31;31;
2021-11-25 02:03:52;4;119;119;119;119;119;119;119;119;119;119;
2021-11-25 02:03:52;5;105;105;105;105;105;105;104;105;105;105;
2021-11-25 02:03:52;ht;99;22.40
2021-11-25 02:03:52;v;4.16
2021-11-25 02:33:48;1;133;132;133;133;133;133;133;133;132;133;
2021-11-25 02:33:48;2;124;124;124;124;124;124;124;124;124;124;
2021-11-25 02:33:48;3;119;119;119;119;119;119;119;119;119;119;
2021-11-25 02:33:48;4;124;124;124;124;124;124;124;124;124;124;
2021-11-25 02:33:48;5;108;108;108;108;108;108;108;108;108;108;
2021-11-25 02:33:48;ht;99;21.70
2021-11-25 02:33:48;v;4.16
2021-11-25 03:03:49;1;120;120;120;120;120;120;120;120;120;120;
2021-11-25 03:03:49;2;131;131;131;131;131;131;131;132;133;133;
2021-11-25 03:03:49;3;123;123;123;123;123;123;123;123;123;123;
2021-11-25 03:03:49;4;123;123;123;123;123;123;123;123;123;123;
2021-11-25 03:03:49;5;126;127;127;127;127;127;127;127;127;127;
2021-11-25 03:03:49;ht;99;21.70
2021-11-25 03:03:49;v;4.16
2021-11-25 03:33:50;1;122;122;122;122;122;122;122;122;122;122;
2021-11-25 03:33:50;2;143;142;140;140;139;138;138;137;137;136;
2021-11-25 03:33:50;3;35;35;35;35;35;35;35;35;35;35;
2021-11-25 03:33:50;4;122;122;122;122;122;122;122;122;122;122;
2021-11-25 03:33:50;5;108;109;109;109;109;109;109;109;109;109;
2021-11-25 03:33:50;ht;99;20.40
2021-11-25 03:33:50;v;4.16
2021-11-25 04:03:50;1;118;118;118;118;118;118;118;118;118;118;
2021-11-25 04:03:50;2;146;147;147;147;147;147;148;148;148;150;
2021-11-25 04:03:50;3;124;124;124;124;124;124;124;124;124;124;
2021-11-25 04:03:50;4;124;124;124;124;124;124;124;124;124;124;
2021-11-25 04:03:50;5;102;102;102;102;102;102;102;102;102;102;
2021-11-25 04:03:50;ht;99;20.10
2021-11-25 04:03:50;v;4.16
2021-11-25 04:33:51;1;117;117;117;117;117;117;117;117;117;117;
2021-11-25 04:33:51;2;146;146;146;147;148;149;148;147;150;149;
2021-11-25 04:33:51;3;140;140;140;140;140;140;140;140;140;140;
2021-11-25 04:33:51;4;120;120;120;120;120;120;120;120;120;120;
2021-11-25 04:33:51;5;111;112;112;112;112;113;112;112;113;112;
2021-11-25 04:33:51;ht;99;20.50
2021-11-25 04:33:51;v;4.16
2021-11-25 05:03:51;1;2;2;2;1;2;2;1;2;2;1;
2021-11-25 05:03:51;2;146;148;146;147;147;147;149;146;144;143;
2021-11-25 05:03:51;3;119;119;119;119;119;119;119;119;119;119;
2021-11-25 05:03:51;4;127;127;127;127;127;127;127;127;127;127;
2021-11-25 05:03:51;5;111;111;111;111;111;111;111;111;111;111;
2021-11-25 05:03:51;ht;99;20.80
2021-11-25 05:03:51;v;4.16
2021-11-25 05:33:51;1;128;128;128;128;128;128;128;128;128;128;
2021-11-25 05:33:51;2;130;130;130;130;130;130;130;130;130;130;
2021-11-25 05:33:51;3;35;35;35;35;35;35;35;35;35;35;
2021-11-25 05:33:51;4;132;132;132;132;132;132;132;132;132;132;
2021-11-25 05:33:51;5;122;122;122;122;122;122;123;123;122;129;
2021-11-25 05:33:51;ht;99;21.00
2021-11-25 05:33:51;v;4.16
2021-11-25 06:03:47;1;123;123;123;123;123;123;123;123;123;123;
2021-11-25 06:03:47;2;140;140;139;138;138;137;137;137;136;136;
2021-11-25 06:03:47;3;117;117;117;117;117;117;117;117;117;117;
2021-11-25 06:03:47;4;129;129;129;129;130;130;130;130;129;129;
2021-11-25 06:03:47;5;105;106;105;106;106;106;105;108;109;106;
2021-11-25 06:03:47;ht;99;20.90
2021-11-25 06:03:47;v;4.16
2021-11-25 06:33:52;1;113;113;113;113;113;113;113;112;113;113;
2021-11-25 06:33:52;2;143;143;143;142;142;142;141;141;141;141;
2021-11-25 06:33:52;3;95;95;95;95;95;95;95;95;95;95;
2021-11-25 06:33:52;4;120;120;120;120;120;120;120;120;120;120;
2021-11-25 06:33:52;5;121;121;121;121;121;121;121;121;121;121;
2021-11-25 06:33:52;ht;99;20.50
2021-11-25 06:33:52;v;4.16
2021-11-25 07:03:47;1;124;124;124;124;124;124;124;124;124;124;
2021-11-25 07:03:47;2;141;141;140;140;140;140;140;140;139;139;
2021-11-25 07:03:47;3;121;121;121;121;121;121;121;121;121;121;
2021-11-25 07:03:47;4;118;118;118;118;118;118;118;118;118;118;
2021-11-25 07:03:47;5;105;105;105;105;105;104;105;105;105;105;
2021-11-25 07:03:47;ht;99;20.80
2021-11-25 07:03:47;v;4.16
2021-11-25 07:33:48;1;116;116;116;116;116;116;116;116;116;116;
2021-11-25 07:33:48;2;149;148;148;147;147;147;147;147;147;147;
2021-11-25 07:33:48;3;94;94;94;94;93;94;94;102;95;94;
2021-11-25 07:33:48;4;131;128;127;127;127;127;126;126;127;127;
2021-11-25 07:33:48;5;115;115;115;114;114;114;114;114;114;114;
2021-11-25 07:33:48;ht;99;20.90
2021-11-25 07:33:48;v;4.15
2021-11-25 08:03:48;1;115;115;115;115;115;115;115;115;115;115;
2021-11-25 08:03:48;2;152;152;151;151;151;151;151;150;150;150;
2021-11-25 08:03:48;3;94;94;94;94;94;95;94;94;94;94;
2021-11-25 08:03:48;4;119;119;119;119;119;119;119;119;119;119;
2021-11-25 08:03:48;5;93;93;93;93;93;100;94;93;93;93;
2021-11-25 08:03:48;ht;99;21.50
2021-11-25 08:03:48;v;4.16
2021-11-25 08:33:50;1;108;108;108;108;108;108;108;107;108;108;
2021-11-25 08:33:50;2;150;149;149;149;149;149;149;149;149;149;
2021-11-25 08:33:50;3;1;2;1;1;1;1;1;1;1;1;
2021-11-25 08:33:50;4;119;119;119;119;119;119;119;119;119;119;
2021-11-25 08:33:50;5;99;100;99;100;100;99;99;99;99;99;
2021-11-25 08:33:50;ht;99;22.80
2021-11-25 08:33:50;v;4.15
2021-11-25 09:03:52;1;119;119;119;119;119;119;119;119;119;119;
2021-11-25 09:03:52;2;152;152;152;152;152;152;152;152;152;152;
2021-11-25 09:03:52;3;93;94;102;96;94;94;94;94;93;94;
2021-11-25 09:03:52;4;114;113;113;114;113;113;113;114;114;113;
2021-11-25 09:03:52;5;101;101;101;101;101;101;101;101;101;101;
2021-11-25 09:03:52;ht;99;23.40
2021-11-25 09:03:52;v;4.16
2021-11-25 09:33:51;1;118;118;118;118;118;118;118;118;118;118;
2021-11-25 09:33:51;2;157;157;157;157;157;157;157;157;157;157;
2021-11-25 09:33:51;3;94;94;94;94;94;94;94;94;96;95;
2021-11-25 09:33:51;4;123;124;123;123;124;124;123;123;123;123;
2021-11-25 09:33:51;5;103;103;103;103;103;103;103;103;103;103;
2021-11-25 09:33:51;ht;99;23.30
2021-11-25 09:33:51;v;4.16
2021-11-25 10:03:54;1;126;126;126;126;126;126;126;126;126;126;
2021-11-25 10:03:54;2;158;158;158;158;158;158;158;158;158;158;
2021-11-25 10:03:54;3;115;115;115;115;115;115;115;115;115;115;
2021-11-25 10:03:54;4;118;118;118;118;118;118;118;118;118;128;
2021-11-25 10:03:54;5;107;106;107;112;109;107;107;107;107;107;
2021-11-25 10:03:54;ht;99;24.00
2021-11-25 10:03:54;v;4.16
2021-11-25 10:33:54;1;116;116;116;116;116;116;116;116;116;116;
2021-11-25 10:33:54;2;149;149;149;149;149;149;149;149;149;149;
2021-11-25 10:33:54;3;32;32;32;32;32;32;32;32;32;32;
2021-11-25 10:33:54;4;122;119;119;118;118;118;118;118;118;118;
2021-11-25 10:33:54;5;104;105;111;106;105;105;105;105;104;105;
2021-11-25 10:33:54;ht;99;23.40
2021-11-25 10:33:54;v;4.16
2021-11-25 11:03:54;1;117;117;117;117;117;117;117;117;117;117;
2021-11-25 11:03:54;2;151;152;152;152;151;151;151;151;151;151;
2021-11-25 11:03:54;3;32;33;33;32;33;34;33;33;32;32;
2021-11-25 11:03:54;4;118;118;119;118;119;119;119;118;118;119;
2021-11-25 11:03:54;5;100;100;100;100;100;100;100;100;100;100;
2021-11-25 11:03:54;ht;99;24.20
2021-11-25 11:03:54;v;4.16
2021-11-25 11:33:54;1;128;128;128;128;128;128;128;128;128;128;
2021-11-25 11:33:54;2;155;155;155;155;155;155;155;155;155;155;
2021-11-25 11:33:54;3;35;35;35;35;35;35;35;35;35;35;
2021-11-25 11:33:54;4;121;121;121;121;121;121;121;121;121;121;
2021-11-25 11:33:54;5;107;107;107;107;107;107;107;107;107;107;
2021-11-25 11:33:54;ht;99;24.90
2021-11-25 11:33:54;v;4.16
2021-11-25 12:03:55;1;125;125;125;125;125;125;125;125;125;125;
2021-11-25 12:03:55;2;150;151;151;150;150;150;151;150;150;150;
2021-11-25 12:03:55;3;32;32;32;32;32;32;32;32;32;32;
2021-11-25 12:03:55;4;120;121;121;121;121;120;120;120;120;120;
2021-11-25 12:03:55;5;108;108;108;108;108;108;108;108;108;107;
2021-11-25 12:03:55;ht;99;24.90
2021-11-25 12:03:55;v;4.16
2021-11-25 12:33:56;1;116;116;116;116;116;116;116;116;116;116;
2021-11-25 12:33:56;2;143;143;143;143;143;143;143;143;143;143;
2021-11-25 12:33:56;3;34;34;34;34;34;34;34;34;34;34;
2021-11-25 12:33:56;4;119;120;119;119;119;119;119;119;119;119;
2021-11-25 12:33:56;5;113;113;113;112;112;112;112;112;112;112;
2021-11-25 12:33:56;ht;99;25.50
2021-11-25 12:33:56;v;4.16
2021-11-25 13:03:52;1;117;117;117;117;117;117;117;118;117;117;
2021-11-25 13:03:52;2;145;145;145;145;145;145;145;145;145;145;
2021-11-25 13:03:52;3;32;32;32;32;32;32;32;32;32;32;
2021-11-25 13:03:52;4;121;121;121;121;121;121;121;121;121;121;
2021-11-25 13:03:52;5;98;98;98;98;98;98;98;98;98;98;
2021-11-25 13:03:52;ht;99;26.10
2021-11-25 13:03:52;v;4.16
2021-11-25 13:33:54;1;116;116;116;116;116;116;116;116;116;116;
2021-11-25 13:33:54;2;144;144;144;144;144;144;144;144;144;144;
2021-11-25 13:33:54;3;42;36;35;34;34;34;35;34;34;34;
2021-11-25 13:33:54;4;123;124;124;124;123;123;123;124;123;123;
2021-11-25 13:33:54;5;104;104;104;104;104;104;104;104;104;104;
2021-11-25 13:33:54;ht;99;26.30
2021-11-25 13:33:54;v;4.16
2021-11-25 14:03:55;1;115;115;115;115;115;115;115;115;115;115;
2021-11-25 14:03:55;2;152;152;152;152;152;152;152;152;152;152;
2021-11-25 14:03:55;3;36;35;35;35;35;34;34;34;34;35;
2021-11-25 14:03:55;4;125;125;125;125;125;125;125;125;125;125;
2021-11-25 14:03:55;5;102;102;102;102;102;102;102;102;102;102;
2021-11-25 14:03:55;ht;99;26.20
2021-11-25 14:03:55;v;4.16
2021-11-25 14:33:57;1;112;112;112;112;112;112;112;112;112;113;
2021-11-25 14:33:57;2;147;147;147;148;147;147;147;147;147;147;
2021-11-25 14:33:57;3;34;35;35;35;34;34;34;34;34;34;
2021-11-25 14:33:57;4;121;121;121;121;121;121;121;121;121;121;
2021-11-25 14:33:57;5;98;98;98;98;98;98;98;98;98;98;
2021-11-25 14:33:57;ht;99;26.10
2021-11-25 14:33:57;v;4.16
2021-11-25 15:03:53;1;119;119;119;119;119;119;119;119;119;119;
2021-11-25 15:03:53;2;144;144;144;144;144;144;144;144;144;145;
2021-11-25 15:03:53;3;34;34;34;34;34;34;35;35;34;35;
2021-11-25 15:03:53;4;129;129;129;129;129;129;129;129;129;129;
2021-11-25 15:03:53;5;98;98;98;98;98;98;98;98;98;98;
2021-11-25 15:03:53;ht;99;26.70
2021-11-25 15:03:53;v;4.16
2021-11-25 15:33:55;1;125;125;125;125;125;125;125;125;125;125;
2021-11-25 15:33:55;2;152;152;152;152;152;152;152;152;152;152;
2021-11-25 15:33:55;3;34;34;34;40;37;35;34;34;34;34;
2021-11-25 15:33:55;4;119;120;119;119;119;119;119;119;119;119;
2021-11-25 15:33:55;5;108;105;104;104;104;104;104;104;104;104;
2021-11-25 15:33:55;ht;99;26.60
2021-11-25 15:33:55;v;4.16
2021-11-25 16:03:56;1;118;118;118;118;118;118;118;118;118;118;
2021-11-25 16:03:56;2;146;145;146;146;146;146;145;146;146;146;
2021-11-25 16:03:56;3;34;34;34;34;34;34;34;34;34;34;
2021-11-25 16:03:56;4;121;120;121;121;121;121;121;121;121;121;
2021-11-25 16:03:56;5;93;93;93;93;93;93;94;93;93;93;
2021-11-25 16:03:56;ht;99;26.60
2021-11-25 16:03:56;v;4.16
2021-11-25 16:33:53;1;123;122;122;122;122;122;122;122;122;122;
2021-11-25 16:33:53;2;146;146;146;146;146;146;146;146;146;146;
2021-11-25 16:33:53;3;34;34;34;34;34;34;34;34;34;34;
2021-11-25 16:33:53;4;120;120;120;120;120;120;120;120;120;120;
2021-11-25 16:33:53;5;2;2;2;1;1;2;2;2;1;2;
2021-11-25 16:33:53;ht;99;26.60
2021-11-25 16:33:53;v;4.17
2021-11-25 17:03:54;1;115;115;115;115;115;115;115;115;115;115;
2021-11-25 17:03:54;2;149;149;149;149;149;149;148;149;149;149;
2021-11-25 17:03:54;3;35;35;35;35;35;35;35;35;35;35;
2021-11-25 17:03:54;4;120;120;120;120;120;120;120;120;120;120;
2021-11-25 17:03:54;5;102;102;102;102;102;103;103;102;103;103;
2021-11-25 17:03:54;ht;99;27.00
2021-11-25 17:03:54;v;4.17
2021-11-25 17:33:55;1;118;118;118;118;118;118;118;118;118;118;
2021-11-25 17:33:55;2;143;143;143;143;143;143;143;143;143;143;
2021-11-25 17:33:55;3;35;35;35;35;35;35;35;35;35;35;
2021-11-25 17:33:55;4;123;123;123;123;123;123;123;123;123;123;
2021-11-25 17:33:55;5;109;109;109;109;109;109;108;109;109;109;
2021-11-25 17:33:55;ht;99;26.20
2021-11-25 17:33:55;v;4.16
2021-11-25 18:03:55;1;105;104;105;104;104;104;104;104;104;104;
2021-11-25 18:03:55;2;154;154;156;158;161;160;161;160;161;162;
2021-11-25 18:03:55;3;35;35;35;35;35;35;35;35;35;35;
2021-11-25 18:03:55;4;120;120;120;120;120;120;120;120;120;120;
2021-11-25 18:03:55;5;100;100;100;100;100;100;100;100;100;100;
2021-11-25 18:03:55;ht;99;26.00
2021-11-25 18:03:55;v;4.17
2021-11-25 18:33:51;1;119;119;119;119;119;119;119;119;119;119;
2021-11-25 18:33:51;2;149;151;153;152;150;149;148;150;154;154;
2021-11-25 18:33:51;3;35;35;35;35;35;35;35;35;35;35;
2021-11-25 18:33:51;4;116;116;116;116;116;116;116;116;116;116;
2021-11-25 18:33:51;5;101;101;101;101;101;102;101;101;101;101;
2021-11-25 18:33:51;ht;99;25.50
2021-11-25 18:33:51;v;4.17
2021-11-25 19:03:55;1;115;115;115;115;115;115;115;115;115;115;
2021-11-25 19:03:55;2;153;153;153;153;153;157;160;161;161;159;
2021-11-25 19:03:55;3;34;34;34;34;34;34;34;34;34;34;
2021-11-25 19:03:55;4;127;127;127;127;127;127;128;128;128;127;
2021-11-25 19:03:55;5;99;99;99;99;99;99;99;99;99;99;
2021-11-25 19:03:55;ht;99;24.90
2021-11-25 19:03:55;v;4.17
2021-11-25 19:33:49;1;125;125;125;125;125;125;125;125;125;125;
2021-11-25 19:33:49;2;147;147;147;147;148;152;154;156;154;152;
2021-11-25 19:33:49;3;32;32;32;32;32;32;32;32;32;32;
2021-11-25 19:33:49;4;119;119;119;119;119;119;119;119;119;119;
2021-11-25 19:33:49;5;104;103;104;104;103;104;104;103;104;103;
2021-11-25 19:33:49;ht;99;23.70
2021-11-25 19:33:49;v;4.17
2021-11-25 20:03:52;1;128;128;128;128;128;128;128;128;128;128;
2021-11-25 20:03:52;2;144;144;144;147;150;152;150;149;148;147;
2021-11-25 20:03:52;3;26;25;26;25;25;25;25;25;26;25;
2021-11-25 20:03:52;4;120;120;120;120;120;120;120;120;120;120;
2021-11-25 20:03:52;5;106;106;106;106;106;106;106;106;106;106;
2021-11-25 20:03:52;ht;99;22.20
2021-11-25 20:03:52;v;4.17
2021-11-25 20:33:49;1;115;115;115;115;115;115;115;115;115;115;
2021-11-25 20:33:49;2;151;151;149;149;148;149;152;151;153;151;
2021-11-25 20:33:49;3;27;27;27;27;27;27;27;27;27;27;
2021-11-25 20:33:49;4;121;122;122;121;121;122;121;121;122;121;
2021-11-25 20:33:49;5;104;104;104;104;104;104;104;104;104;104;
2021-11-25 20:33:49;ht;99;21.70
2021-11-25 20:33:49;v;4.16
2021-11-25 21:03:49;1;123;123;123;123;123;123;123;123;123;123;
2021-11-25 21:03:49;2;140;140;140;140;140;140;140;140;140;140;
2021-11-25 21:03:49;3;27;27;27;27;27;27;27;27;27;27;
2021-11-25 21:03:49;4;119;119;119;119;119;119;119;119;119;119;
2021-11-25 21:03:49;5;1;2;1;2;2;1;2;2;1;2;
2021-11-25 21:03:49;ht;99;20.60
2021-11-25 21:03:49;v;4.16
2021-11-25 21:33:49;1;124;124;124;124;124;124;124;124;124;124;
2021-11-25 21:33:49;2;144;144;144;144;144;144;144;144;144;144;
2021-11-25 21:33:49;3;27;27;27;27;27;27;27;27;27;27;
2021-11-25 21:33:49;4;120;120;120;120;120;120;120;120;120;120;
2021-11-25 21:33:49;5;113;113;113;113;113;113;113;113;113;113;
2021-11-25 21:33:49;ht;99;20.30
2021-11-25 21:33:49;v;4.16
2021-11-25 22:03:49;1;125;125;125;125;125;125;125;125;125;125;
2021-11-25 22:03:49;2;141;141;141;141;141;141;141;141;141;141;
2021-11-25 22:03:49;3;27;27;27;27;27;27;27;27;27;27;
2021-11-25 22:03:49;4;114;114;114;114;114;114;114;114;114;114;
2021-11-25 22:03:49;5;111;111;111;111;111;111;111;111;111;111;
2021-11-25 22:03:49;ht;99;19.70
2021-11-25 22:03:49;v;4.16
2021-11-25 22:33:48;1;115;115;115;115;115;115;115;115;115;115;
2021-11-25 22:33:48;2;138;138;138;138;138;138;138;138;138;138;
2021-11-25 22:33:48;3;27;27;27;27;27;27;27;27;27;27;
2021-11-25 22:33:48;4;119;119;119;119;119;119;119;119;119;119;
2021-11-25 22:33:48;5;108;109;109;109;109;108;108;108;109;109;
2021-11-25 22:33:48;ht;99;19.50
2021-11-25 22:33:48;v;4.16
2021-11-25 23:03:47;1;121;121;121;121;121;121;121;121;121;121;
2021-11-25 23:03:47;2;137;137;137;137;137;137;138;137;138;137;
2021-11-25 23:03:47;3;34;34;34;34;34;34;34;34;34;34;
2021-11-25 23:03:47;4;115;115;115;115;115;115;115;115;115;115;
2021-11-25 23:03:47;5;115;116;115;115;116;115;116;115;115;116;
2021-11-25 23:03:47;ht;99;19.00
2021-11-25 23:03:47;v;4.16
2021-11-25 23:33:50;1;126;126;126;126;126;126;126;126;126;126;
2021-11-25 23:33:50;2;142;142;142;142;142;148;147;146;146;145;
2021-11-25 23:33:50;3;33;33;33;33;33;33;33;33;33;33;
2021-11-25 23:33:50;4;116;116;116;116;116;116;116;116;116;116;
2021-11-25 23:33:50;5;108;108;107;108;108;108;108;108;108;108;
2021-11-25 23:33:50;ht;99;18.00
2021-11-25 23:33:50;v;4.16
