2021-12-25 0:0:23;4.31;77;23.00;22;0.195;0.020;26.72;80.0;0.021;11.8872;7.409;12.200;7.241;44;0.253;0.038;25.44;77.7;0.038;15.7394;13.731;16.120;13.590
2021-12-25 0:5:22;4.31;77;23.10;22;0.189;0.021;26.72;80.0;0.021;11.5362;7.609;11.839;7.437;44;0.253;0.038;25.64;78.2;0.038;15.7394;13.731;16.120;13.590
2021-12-25 0:10:20;4.30;77;23.00;22;0.197;0.020;26.42;79.5;0.020;12.0092;7.358;12.322;7.200;44;0.255;0.037;25.44;77.7;0.038;15.8674;13.536;16.251;13.397
2021-12-25 0:15:23;4.30;77;23.00;22;0.189;0.021;26.72;80.0;0.021;11.5362;7.609;11.839;7.437;44;0.253;0.038;25.44;77.7;0.038;15.7394;13.731;16.120;13.590
2021-12-25 0:20:22;4.30;76;23.20;22;0.195;0.020;26.72;80.0;0.021;11.8862;7.408;12.196;7.249;44;0.255;0.037;25.44;77.7;0.038;15.8674;13.536;16.251;13.397
2021-12-25 0:25:21;4.30;75;23.40;22;0.192;0.020;26.72;80.0;0.021;11.7412;7.448;12.048;7.288;44;0.253;0.038;25.44;77.7;0.038;15.7394;13.731;16.120;13.590
2021-12-25 0:30:19;4.30;75;23.30;22;0.191;0.021;26.42;79.5;0.021;11.6612;7.558;11.965;7.396;44;0.255;0.037;25.44;77.7;0.038;15.8674;13.536;16.251;13.397
2021-12-25 0:35:22;4.30;74;23.50;22;0.192;0.020;26.42;79.5;0.021;11.7412;7.448;12.048;7.288;44;0.255;0.037;25.64;78.2;0.038;15.8674;13.536;16.251;13.397
2021-12-25 0:40:21;4.30;76;23.30;22;0.192;0.020;26.42;79.5;0.021;11.7412;7.448;12.048;7.288;44;0.253;0.038;25.44;77.7;0.038;15.7394;13.731;16.120;13.590
2021-12-25 0:45:20;4.30;81;22.30;22;0.191;0.021;26.42;79.5;0.021;11.6602;7.558;11.961;7.405;44;0.255;0.037;25.64;78.2;0.038;15.8674;13.536;16.251;13.397
2021-12-25 0:50:23;4.30;80;22.20;22;0.192;0.020;26.42;79.5;0.021;11.7412;7.448;12.048;7.288;44;0.255;0.037;25.44;77.7;0.038;15.8674;13.536;16.251;13.397
2021-12-25 0:55:22;4.30;79;22.50;22;0.192;0.020;26.42;79.5;0.021;11.7402;7.447;12.044;7.297;44;0.253;0.038;25.44;77.7;0.038;15.7394;13.731;16.120;13.590
2021-12-25 1:0:20;4.30;77;22.80;22;0.192;0.020;26.42;79.5;0.021;11.7402;7.447;12.044;7.297;44;0.255;0.037;25.64;78.2;0.038;15.8674;13.536;16.251;13.397
2021-12-25 1:5:23;4.30;75;23.20;22;0.192;0.020;26.42;79.5;0.021;11.7402;7.447;12.044;7.297;44;0.257;0.037;25.64;78.2;0.037;16.0714;13.442;16.460;13.304
2021-12-25 1:10:22;4.30;79;22.80;22;0.192;0.020;26.42;79.5;0.021;11.7402;7.447;12.044;7.297;44;0.263;0.036;25.64;78.2;0.037;16.4344;13.183;16.832;13.048
2021-12-25 1:15:21;4.30;81;21.90;22;0.192;0.020;26.42;79.5;0.021;11.7392;7.447;12.040;7.305;44;0.255;0.037;25.44;77.7;0.038;15.8644;13.535;16.245;13.412
2021-12-25 1:20:19;4.30;78;22.60;22;0.192;0.020;26.42;79.5;0.021;11.7392;7.447;12.040;7.305;44;0.253;0.038;25.44;77.7;0.038;15.7364;13.730;16.114;13.606
2021-12-25 1:25:22;4.30;77;22.90;22;0.192;0.020;26.42;79.5;0.021;11.7402;7.447;12.044;7.297;44;0.253;0.038;25.44;77.7;0.038;15.7364;13.730;16.114;13.606
2021-12-25 1:30:21;4.30;78;22.90;22;0.192;0.020;26.22;79.1;0.021;11.7392;7.447;12.040;7.305;44;0.253;0.038;25.44;77.7;0.038;15.7364;13.730;16.114;13.606
2021-12-25 1:35:20;4.30;78;22.70;22;0.192;0.020;26.22;79.1;0.021;11.7392;7.447;12.040;7.305;44;0.253;0.038;25.44;77.7;0.038;15.7364;13.730;16.114;13.606
2021-12-25 1:40:23;4.30;79;22.60;22;0.192;0.020;26.22;79.1;0.021;11.7392;7.447;12.040;7.305;44;0.255;0.037;25.44;77.7;0.038;15.8644;13.535;16.245;13.412
2021-12-25 1:45:21;4.30;81;22.10;22;0.192;0.020;26.42;79.5;0.021;11.7372;7.446;12.036;7.314;44;0.257;0.037;25.64;78.2;0.037;16.0684;13.441;16.454;13.319
2021-12-25 1:50:20;4.30;78;22.60;22;0.185;0.021;26.22;79.1;0.022;11.2982;7.758;11.586;7.620;44;0.257;0.037;25.44;77.7;0.037;16.0684;13.441;16.454;13.319
2021-12-25 1:55:23;4.30;76;22.80;22;0.192;0.020;26.22;79.1;0.021;11.7372;7.446;12.036;7.314;44;0.253;0.038;25.44;77.7;0.038;15.7364;13.730;16.114;13.606
2021-12-25 2:0:22;4.30;80;22.50;22;0.192;0.020;26.22;79.1;0.021;11.7372;7.446;12.036;7.314;44;0.255;0.037;25.44;77.7;0.038;15.8644;13.535;16.245;13.412
2021-12-25 2:5:20;4.30;83;21.70;22;0.192;0.020;26.22;79.1;0.021;11.7372;7.446;12.036;7.314;44;0.265;0.036;25.64;78.2;0.036;16.6254;13.087;17.021;12.985
2021-12-25 2:10:23;4.30;84;21.40;22;0.192;0.020;26.22;79.1;0.021;11.7372;7.446;12.036;7.314;44;0.253;0.038;25.44;77.7;0.038;15.7364;13.730;16.114;13.606
2021-12-25 2:15:22;4.30;85;21.00;22;0.192;0.020;26.42;79.5;0.021;11.7362;7.445;12.033;7.323;44;0.255;0.037;25.44;77.7;0.038;15.8644;13.535;16.245;13.412
2021-12-25 2:20:20;4.30;86;20.80;22;0.196;0.020;26.22;79.1;0.020;11.9832;7.346;12.286;7.225;44;0.257;0.037;25.44;77.7;0.037;16.0684;13.441;16.454;13.319
2021-12-25 2:25:23;4.29;87;20.70;22;0.196;0.020;26.22;79.1;0.020;11.9832;7.346;12.286;7.225;44;0.253;0.038;25.44;77.7;0.038;15.7364;13.730;16.114;13.606
2021-12-25 2:30:22;4.29;87;20.50;22;0.190;0.020;26.22;79.1;0.021;11.5912;7.485;11.884;7.362;44;0.253;0.038;25.44;77.7;0.038;15.7364;13.730;16.114;13.606
2021-12-25 2:35:20;4.29;88;20.30;22;0.190;0.020;26.22;79.1;0.021;11.5912;7.485;11.884;7.362;44;0.257;0.037;25.44;77.7;0.037;16.0684;13.441;16.454;13.319
2021-12-25 2:40:23;4.29;88;20.40;22;0.196;0.020;26.22;79.1;0.020;11.9822;7.345;12.282;7.233;44;0.253;0.038;25.44;77.7;0.038;15.7344;13.728;16.108;13.621
2021-12-25 2:45:22;4.29;90;19.80;22;0.190;0.020;26.22;79.1;0.021;11.5902;7.484;11.880;7.370;44;0.255;0.037;25.44;77.7;0.038;15.8644;13.535;16.245;13.412
2021-12-25 2:50:20;4.29;90;19.50;22;0.194;0.020;26.22;79.1;0.021;11.8382;7.385;12.135;7.272;44;0.254;0.037;25.44;77.7;0.038;15.8624;13.533;16.239;13.427
2021-12-25 2:55:23;4.29;88;20.30;22;0.190;0.020;25.92;78.6;0.021;11.5902;7.484;11.880;7.370;44;0.253;0.038;25.44;77.7;0.038;15.7344;13.728;16.108;13.621
2021-12-25 3:0:21;4.29;86;20.80;22;0.190;0.021;25.92;78.6;0.021;11.5892;7.484;11.876;7.379;44;0.260;0.037;25.44;77.7;0.037;16.2674;13.345;16.654;13.241
2021-12-25 3:5:20;4.29;88;20.40;22;0.190;0.021;25.92;78.6;0.021;11.5892;7.484;11.876;7.379;44;0.253;0.038;25.44;77.7;0.038;15.7344;13.728;16.108;13.621
2021-12-25 3:10:22;4.29;85;21.10;22;0.190;0.021;25.92;78.6;0.021;11.5892;7.484;11.876;7.379;44;0.254;0.037;25.44;77.7;0.038;15.8624;13.533;16.239;13.427
2021-12-25 3:15:21;4.29;86;20.70;22;0.190;0.021;25.92;78.6;0.021;11.5892;7.484;11.876;7.379;44;0.260;0.037;25.44;77.7;0.037;16.2674;13.345;16.654;13.241
2021-12-25 3:20:19;4.29;85;21.10;22;0.194;0.020;25.92;78.6;0.021;11.8362;7.383;12.127;7.289;44;0.254;0.037;25.44;77.7;0.038;15.8624;13.533;16.239;13.427
2021-12-25 3:25:22;4.29;83;21.20;22;0.190;0.021;25.92;78.6;0.021;11.5892;7.484;11.876;7.379;44;0.254;0.037;25.44;77.7;0.038;15.8624;13.533;16.239;13.427
2021-12-25 3:30:20;4.29;86;21.00;22;0.190;0.021;25.92;78.6;0.021;11.5892;7.484;11.876;7.379;44;0.254;0.037;25.14;77.3;0.038;15.8594;13.531;16.233;13.442
2021-12-25 3:35:23;4.29;86;20.60;22;0.194;0.020;25.92;78.6;0.021;11.8362;7.383;12.127;7.289;44;0.253;0.038;25.44;77.7;0.038;15.7314;13.726;16.102;13.636
2021-12-25 3:40:22;4.29;84;21.10;22;0.190;0.021;25.92;78.6;0.021;11.5872;7.483;11.873;7.388;44;0.253;0.038;25.44;77.7;0.038;15.7314;13.726;16.102;13.636
2021-12-25 3:45:20;4.29;88;20.30;22;0.192;0.020;25.92;78.6;0.021;11.7122;7.433;12.001;7.338;44;0.265;0.036;25.44;77.7;0.036;16.6234;13.085;17.015;12.999
2021-12-25 3:50:23;4.28;89;19.80;22;0.186;0.021;25.92;78.6;0.021;11.3582;7.633;11.638;7.535;44;0.254;0.037;25.14;77.3;0.038;15.8594;13.531;16.233;13.442
2021-12-25 3:55:21;4.28;90;19.30;22;0.186;0.021;25.92;78.6;0.021;11.3582;7.633;11.638;7.535;44;0.257;0.037;25.14;77.3;0.037;16.0634;13.437;16.442;13.349
2021-12-25 4:0:20;4.28;88;20.10;22;0.192;0.020;25.92;78.6;0.021;11.7112;7.432;11.997;7.347;44;0.254;0.037;25.14;77.3;0.038;15.8594;13.531;16.233;13.442
2021-12-25 4:5:22;4.28;88;20.20;22;0.191;0.020;25.62;78.2;0.020;11.6662;7.372;11.951;7.288;44;0.254;0.037;25.14;77.3;0.038;15.8594;13.531;16.233;13.442
2021-12-25 4:10:21;4.29;88;20.10;22;0.195;0.020;25.92;78.6;0.020;11.9132;7.274;12.207;7.181;44;0.253;0.038;25.14;77.3;0.038;15.7314;13.726;16.102;13.636
2021-12-25 4:15:19;4.28;89;19.90;22;0.187;0.021;25.62;78.2;0.021;11.4402;7.522;11.719;7.435;44;0.252;0.038;25.44;77.7;0.038;15.7294;13.724;16.096;13.651
2021-12-25 4:20:22;4.28;89;20.00;22;0.195;0.020;25.92;78.6;0.020;11.9122;7.273;12.203;7.190;44;0.259;0.037;25.14;77.3;0.037;16.1854;13.245;16.566;13.158
2021-12-25 4:25:20;4.28;90;19.40;22;0.194;0.020;25.92;78.6;0.021;11.8342;7.382;12.120;7.306;44;0.252;0.038;25.14;77.3;0.038;15.7294;13.724;16.096;13.651
2021-12-25 4:30:23;4.28;91;18.80;22;0.187;0.021;25.62;78.2;0.021;11.4392;7.521;11.716;7.444;44;0.254;0.037;25.14;77.3;0.038;15.8574;13.529;16.228;13.457
2021-12-25 4:35:21;4.28;90;18.70;22;0.187;0.021;25.62;78.2;0.021;11.4392;7.521;11.716;7.444;44;0.256;0.037;25.14;77.3;0.037;15.9814;13.336;16.355;13.265
2021-12-25 4:40:19;4.28;89;18.20;22;0.191;0.020;25.62;78.2;0.020;11.6642;7.371;11.944;7.305;44;0.254;0.037;25.14;77.3;0.038;15.8574;13.529;16.228;13.457
2021-12-25 4:45:22;4.28;90;18.50;22;0.187;0.021;25.62;78.2;0.021;11.4392;7.521;11.716;7.444;44;0.254;0.037;25.14;77.3;0.038;15.8574;13.529;16.228;13.457
2021-12-25 4:50:20;4.27;91;18.90;22;0.189;0.021;25.42;77.7;0.021;11.5642;7.471;11.841;7.403;44;0.252;0.038;25.14;77.3;0.038;15.7264;13.722;16.091;13.667
2021-12-25 4:55:23;4.28;90;19.40;22;0.191;0.020;25.62;78.2;0.021;11.6882;7.421;11.969;7.354;44;0.254;0.037;25.14;77.3;0.038;15.8574;13.529;16.228;13.457
2021-12-25 5:0:21;4.28;89;19.70;22;0.191;0.020;25.62;78.2;0.021;11.6872;7.420;11.965;7.363;44;0.256;0.037;25.14;77.3;0.037;15.9814;13.336;16.355;13.265
2021-12-25 5:5:19;4.28;90;19.50;22;0.191;0.020;25.62;78.2;0.021;11.6872;7.420;11.965;7.363;44;0.254;0.037;25.14;77.3;0.038;15.8544;13.528;16.222;13.472
2021-12-25 5:10:22;4.28;90;19.50;22;0.192;0.020;25.62;78.2;0.020;11.7662;7.311;12.046;7.254;44;0.259;0.037;25.14;77.3;0.037;16.1804;13.241;16.554;13.187
2021-12-25 5:15:20;4.27;90;19.60;22;0.192;0.020;25.42;77.7;0.020;11.7672;7.312;12.049;7.246;44;0.252;0.038;25.14;77.3;0.038;15.7264;13.722;16.091;13.667
2021-12-25 5:20:23;4.27;90;19.70;22;0.190;0.020;25.62;78.2;0.020;11.6432;7.360;11.919;7.303;44;0.259;0.037;25.14;77.3;0.037;16.1804;13.241;16.554;13.187
2021-12-25 5:25:21;4.27;90;19.90;22;0.192;0.020;25.62;78.2;0.020;11.7662;7.311;12.046;7.254;44;0.254;0.037;25.14;77.3;0.038;15.8544;13.528;16.222;13.472
2021-12-25 5:30:19;4.27;89;20.30;22;0.192;0.020;25.62;78.2;0.020;11.7662;7.311;12.046;7.254;44;0.256;0.037;25.14;77.3;0.037;15.9794;13.334;16.349;13.280
2021-12-25 5:35:22;4.27;88;20.80;22;0.192;0.020;25.62;78.2;0.020;11.7662;7.311;12.046;7.254;44;0.257;0.037;25.14;77.3;0.037;16.0564;13.432;16.425;13.394
2021-12-25 5:40:20;4.27;90;20.50;22;0.192;0.020;25.62;78.2;0.020;11.7652;7.310;12.042;7.263;44;0.249;0.038;25.14;77.3;0.038;15.4724;13.786;15.828;13.747
2021-12-25 5:45:23;4.27;90;20.20;22;0.192;0.020;25.62;78.2;0.020;11.7662;7.311;12.046;7.254;44;0.259;0.037;25.14;77.3;0.037;16.1804;13.241;16.554;13.187
2021-12-25 5:50:21;4.27;89;20.50;22;0.192;0.020;25.42;77.7;0.020;11.7662;7.311;12.046;7.254;44;0.254;0.037;25.14;77.3;0.038;15.8544;13.528;16.222;13.472
2021-12-25 5:55:20;4.27;89;20.80;22;0.187;0.021;25.42;77.7;0.021;11.4162;7.509;11.685;7.459;44;0.259;0.037;25.14;77.3;0.037;16.1804;13.241;16.554;13.187
2021-12-25 6:0:22;4.27;90;20.50;22;0.187;0.021;25.42;77.7;0.021;11.4162;7.509;11.685;7.459;44;0.254;0.037;25.14;77.3;0.038;15.8524;13.526;16.216;13.487
2021-12-25 6:5:21;4.27;90;20.40;22;0.192;0.020;25.62;78.2;0.020;11.7652;7.310;12.042;7.263;44;0.256;0.037;25.14;77.3;0.037;15.9794;13.334;16.349;13.280
2021-12-25 6:10:19;4.27;90;20.80;22;0.192;0.020;25.62;78.2;0.020;11.7652;7.310;12.042;7.263;44;0.254;0.037;25.14;77.3;0.038;15.8544;13.528;16.222;13.472
2021-12-25 6:15:22;4.27;88;21.30;22;0.192;0.020;25.62;78.2;0.020;11.7652;7.310;12.042;7.263;44;0.262;0.036;25.14;77.3;0.037;16.3784;13.148;16.757;13.095
2021-12-25 6:20:20;4.27;90;21.00;22;0.192;0.020;25.42;77.7;0.020;11.7652;7.310;12.042;7.263;44;0.254;0.037;25.14;77.3;0.038;15.8544;13.528;16.222;13.472
2021-12-25 6:25:23;4.27;89;21.10;22;0.192;0.020;25.42;77.7;0.020;11.7652;7.310;12.042;7.263;44;0.254;0.037;25.14;77.3;0.038;15.8524;13.526;16.216;13.487
2021-12-25 6:30:21;4.27;90;21.20;22;0.192;0.020;25.62;78.2;0.020;11.7652;7.310;12.042;7.263;44;0.249;0.038;25.14;77.3;0.038;15.4724;13.786;15.828;13.747
2021-12-25 6:35:20;4.27;90;21.00;22;0.194;0.020;25.62;78.2;0.020;11.8862;7.260;12.164;7.222;44;0.259;0.037;25.14;77.3;0.037;16.1804;13.241;16.554;13.187
2021-12-25 6:40:23;4.27;90;20.80;22;0.187;0.021;25.42;77.7;0.021;11.4162;7.509;11.685;7.459;44;0.256;0.037;25.14;77.3;0.037;15.9794;13.334;16.349;13.280
2021-12-25 6:45:21;4.27;89;20.20;22;0.187;0.021;25.42;77.7;0.021;11.4162;7.509;11.685;7.459;44;0.254;0.037;25.14;77.3;0.038;15.8524;13.526;16.216;13.487
2021-12-25 6:50:20;4.27;90;20.80;22;0.189;0.021;25.62;78.2;0.021;11.5412;7.459;11.813;7.410;44;0.260;0.037;25.14;77.3;0.037;16.2574;13.338;16.631;13.300
2021-12-25 6:55:23;4.27;90;21.30;22;0.194;0.020;25.42;77.7;0.020;11.8862;7.260;12.164;7.222;44;0.256;0.037;24.94;76.8;0.037;15.9764;13.333;16.343;13.295
2021-12-25 7:0:21;4.27;90;21.70;22;0.190;0.020;25.42;77.7;0.020;11.6202;7.349;11.892;7.310;44;0.256;0.037;24.94;76.8;0.037;15.9764;13.333;16.343;13.295
2021-12-25 7:5:20;4.27;90;22.20;22;0.190;0.020;25.62;78.2;0.020;11.6202;7.349;11.892;7.310;44;0.256;0.037;25.14;77.3;0.037;15.9764;13.333;16.343;13.295
2021-12-25 7:10:23;4.27;89;22.60;22;0.190;0.020;25.42;77.7;0.020;11.6202;7.349;11.892;7.310;44;0.261;0.036;25.14;77.3;0.037;16.3754;13.146;16.751;13.109
2021-12-25 7:15:21;4.27;88;22.90;22;0.191;0.020;25.42;77.7;0.021;11.6652;7.409;11.937;7.370;44;0.249;0.038;24.94;76.8;0.038;15.4724;13.786;15.828;13.747
2021-12-25 7:20:20;4.27;87;23.30;22;0.190;0.020;25.42;77.7;0.020;11.6212;7.350;11.895;7.302;44;0.261;0.036;25.14;77.3;0.037;16.3754;13.146;16.751;13.109
2021-12-25 7:25:23;4.27;88;23.60;22;0.188;0.020;25.42;77.7;0.021;11.4962;7.398;11.765;7.359;44;0.262;0.036;25.14;77.3;0.037;16.3784;13.148;16.757;13.095
2021-12-25 7:30:22;4.27;88;23.90;22;0.190;0.020;25.42;77.7;0.020;11.6212;7.350;11.895;7.302;44;0.259;0.037;25.14;77.3;0.037;16.1804;13.241;16.554;13.187
2021-12-25 7:35:21;4.28;87;24.30;22;0.196;0.020;25.42;77.7;0.020;11.9612;7.152;12.241;7.114;44;0.249;0.038;25.14;77.3;0.038;15.4724;13.786;15.828;13.747
2021-12-25 7:40:20;4.27;87;24.70;22;0.190;0.020;25.42;77.7;0.020;11.6212;7.350;11.895;7.302;44;0.249;0.038;25.14;77.3;0.038;15.4754;13.788;15.833;13.732
2021-12-25 7:45:23;4.28;85;25.10;22;0.190;0.020;25.62;78.2;0.020;11.6212;7.350;11.895;7.302;44;0.259;0.037;25.14;77.3;0.037;16.1804;13.241;16.554;13.187
2021-12-25 7:50:22;4.28;86;25.40;22;0.190;0.020;25.42;77.7;0.020;11.6212;7.350;11.895;7.302;44;0.256;0.037;25.14;77.3;0.037;15.9794;13.334;16.349;13.280
2021-12-25 7:55:21;4.28;86;25.80;22;0.190;0.020;25.62;78.2;0.020;11.6212;7.350;11.895;7.302;44;0.256;0.037;25.14;77.3;0.037;15.9794;13.334;16.349;13.280
2021-12-25 8:0:20;4.28;84;25.90;22;0.188;0.020;25.42;77.7;0.021;11.4982;7.400;11.772;7.342;44;0.249;0.038;25.14;77.3;0.038;15.4754;13.788;15.833;13.732
2021-12-25 8:5:24;4.28;81;26.20;22;0.196;0.020;25.62;78.2;0.020;11.9642;7.153;12.248;7.097;44;0.259;0.037;25.14;77.3;0.037;16.1804;13.241;16.554;13.187
2021-12-25 8:10:23;4.28;83;26.60;22;0.190;0.020;25.62;78.2;0.020;11.6222;7.350;11.899;7.293;44;0.262;0.036;25.14;77.3;0.037;16.3784;13.148;16.757;13.095
2021-12-25 8:15:22;4.28;82;26.40;22;0.190;0.020;25.62;78.2;0.020;11.6222;7.350;11.899;7.293;44;0.249;0.038;25.14;77.3;0.038;15.4754;13.788;15.833;13.732
2021-12-25 8:20:22;4.28;82;26.50;22;0.190;0.020;25.62;78.2;0.020;11.6242;7.351;11.903;7.285;44;0.256;0.037;25.14;77.3;0.037;15.9794;13.334;16.349;13.280
2021-12-25 8:25:21;4.28;82;26.90;22;0.190;0.020;25.62;78.2;0.020;11.6242;7.351;11.903;7.285;44;0.249;0.038;25.14;77.3;0.038;15.4754;13.788;15.833;13.732
2021-12-25 8:30:20;4.28;79;27.20;22;0.190;0.020;25.62;78.2;0.020;11.6222;7.350;11.899;7.293;44;0.259;0.037;25.14;77.3;0.037;16.1824;13.243;16.560;13.173
2021-12-25 8:35:24;4.28;78;27.20;22;0.191;0.020;25.42;77.7;0.021;11.6672;7.410;11.945;7.352;44;0.262;0.036;25.14;77.3;0.037;16.3804;13.150;16.763;13.080
2021-12-25 8:40:23;4.28;77;27.60;22;0.190;0.020;25.62;78.2;0.020;11.6252;7.352;11.906;7.276;44;0.251;0.038;25.14;77.3;0.038;15.6094;13.595;15.974;13.523
2021-12-25 8:45:23;4.28;79;27.60;22;0.191;0.020;25.42;77.7;0.021;11.6682;7.411;11.948;7.344;44;0.259;0.037;25.14;77.3;0.037;16.1824;13.243;16.560;13.173
2021-12-25 8:50:22;4.28;80;27.50;22;0.191;0.020;25.62;78.2;0.021;11.6682;7.411;11.948;7.344;44;0.256;0.037;25.14;77.3;0.037;15.9814;13.336;16.355;13.265
2021-12-25 8:55:22;4.28;77;28.40;22;0.190;0.020;25.62;78.2;0.020;11.6252;7.352;11.906;7.276;44;0.262;0.036;25.14;77.3;0.037;16.3804;13.150;16.763;13.080
2021-12-25 9:0:22;4.28;77;28.40;22;0.194;0.020;25.62;78.2;0.020;11.8452;7.203;12.132;7.130;44;0.256;0.037;25.14;77.3;0.037;15.9814;13.336;16.355;13.265
2021-12-25 9:5:21;4.28;79;28.40;22;0.188;0.020;25.62;78.2;0.021;11.5012;7.401;11.779;7.325;44;0.256;0.037;25.14;77.3;0.037;15.9844;13.338;16.361;13.251
2021-12-25 9:10:21;4.28;79;28.40;22;0.190;0.020;25.62;78.2;0.020;11.6252;7.352;11.906;7.276;44;0.249;0.038;25.14;77.3;0.038;15.4804;13.792;15.845;13.702
2021-12-25 9:15:20;4.28;77;28.80;22;0.190;0.020;25.62;78.2;0.020;11.6262;7.352;11.910;7.268;44;0.256;0.037;25.14;77.3;0.037;15.9844;13.338;16.361;13.251
2021-12-25 9:20:25;4.28;75;29.50;22;0.190;0.020;25.62;78.2;0.020;11.6262;7.352;11.910;7.268;44;0.259;0.037;25.14;77.3;0.037;16.1824;13.243;16.560;13.173
2021-12-25 9:25:20;4.28;73;29.90;22;0.192;0.020;25.62;78.2;0.020;11.7492;7.303;12.036;7.219;44;0.259;0.037;25.14;77.3;0.037;16.1854;13.245;16.566;13.158
2021-12-25 9:30:24;4.28;72;29.50;22;0.192;0.020;25.62;78.2;0.020;11.7502;7.303;12.040;7.210;44;0.259;0.037;25.14;77.3;0.037;16.1854;13.245;16.566;13.158
2021-12-25 9:35:24;4.28;70;29.60;22;0.196;0.020;25.92;78.6;0.020;11.9692;7.156;12.263;7.064;44;0.249;0.038;25.14;77.3;0.038;15.4804;13.792;15.845;13.702
2021-12-25 9:40:24;4.28;67;31.00;22;0.190;0.020;25.62;78.2;0.020;11.6272;7.353;11.913;7.259;44;0.249;0.038;25.44;77.7;0.038;15.4804;13.792;15.845;13.702
2021-12-25 9:45:24;4.29;67;31.00;22;0.195;0.020;25.92;78.6;0.020;11.8932;7.264;12.186;7.172;44;0.259;0.037;25.14;77.3;0.037;16.1874;13.246;16.572;13.143
2021-12-25 9:50:24;4.28;68;30.60;22;0.190;0.020;25.92;78.6;0.020;11.6272;7.353;11.913;7.259;44;0.262;0.036;25.14;77.3;0.037;16.3864;13.153;16.775;13.051
2021-12-25 9:55:24;4.28;63;31.80;22;0.194;0.020;25.92;78.6;0.020;11.8492;7.205;12.143;7.105;44;0.259;0.037;25.14;77.3;0.037;16.1874;13.246;16.572;13.143
2021-12-25 10:0:24;4.29;66;30.80;22;0.196;0.020;25.92;78.6;0.020;11.9702;7.156;12.267;7.056;44;0.259;0.037;25.44;77.7;0.037;16.1874;13.246;16.572;13.143
2021-12-25 10:5:24;4.28;64;31.90;22;0.194;0.020;25.92;78.6;0.020;11.8492;7.205;12.143;7.105;44;0.256;0.037;25.44;77.7;0.037;15.9864;13.340;16.367;13.236
2021-12-25 10:10:24;4.29;66;31.70;22;0.190;0.020;25.92;78.6;0.020;11.6302;7.354;11.921;7.242;44;0.259;0.037;25.14;77.3;0.037;16.1874;13.246;16.572;13.143
2021-12-25 10:15:24;4.30;63;31.80;22;0.194;0.020;25.92;78.6;0.020;11.8492;7.205;12.143;7.105;44;0.249;0.038;25.44;77.7;0.038;15.4854;13.795;15.856;13.671
2021-12-25 10:20:25;4.30;63;32.70;22;0.189;0.020;25.92;78.6;0.021;11.5502;7.464;11.839;7.350;44;0.249;0.038;25.44;77.7;0.038;15.4824;13.794;15.850;13.686
2021-12-25 10:25:21;4.30;66;32.30;22;0.188;0.020;25.92;78.6;0.021;11.5052;7.403;11.793;7.291;44;0.259;0.037;25.44;77.7;0.037;16.1874;13.246;16.572;13.143
2021-12-25 10:30:21;4.30;67;31.70;22;0.188;0.020;26.22;79.1;0.021;11.5072;7.404;11.797;7.282;44;0.256;0.037;25.44;77.7;0.037;15.9894;13.341;16.373;13.221
2021-12-25 10:35:21;4.30;62;32.10;22;0.187;0.021;26.22;79.1;0.021;11.4252;7.514;11.714;7.390;44;0.249;0.038;25.44;77.7;0.038;15.4854;13.795;15.856;13.671
2021-12-25 10:40:22;4.31;63;32.00;22;0.193;0.020;26.22;79.1;0.020;11.7762;7.316;12.075;7.186;44;0.256;0.037;25.44;77.7;0.037;15.9894;13.341;16.373;13.221
2021-12-25 10:45:22;4.31;64;31.50;22;0.189;0.020;26.22;79.1;0.021;11.5522;7.465;11.846;7.333;44;0.256;0.037;25.44;77.7;0.037;15.9894;13.341;16.373;13.221
2021-12-25 10:50:23;4.32;62;32.00;22;0.187;0.021;26.22;79.1;0.021;11.4262;7.514;11.717;7.381;44;0.256;0.037;25.64;78.2;0.037;15.9894;13.341;16.373;13.221
2021-12-25 10:55:23;4.32;61;32.20;22;0.190;0.020;26.22;79.1;0.020;11.6322;7.355;11.928;7.225;44;0.256;0.037;25.44;77.7;0.037;15.9914;13.343;16.378;13.206
2021-12-25 11:0:23;4.32;60;32.70;22;0.188;0.020;26.22;79.1;0.021;11.5092;7.405;11.804;7.265;44;0.255;0.037;25.44;77.7;0.038;15.8644;13.535;16.245;13.412
2021-12-25 11:5:24;4.33;60;33.30;22;0.187;0.020;26.22;79.1;0.021;11.4282;7.515;11.721;7.373;44;0.259;0.036;25.44;77.7;0.037;16.1924;13.250;16.584;13.114
2021-12-25 11:10:25;4.33;56;33.50;22;0.194;0.020;26.22;79.1;0.020;11.8542;7.208;12.158;7.071;44;0.249;0.038;25.44;77.7;0.038;15.4874;13.797;15.862;13.656
2021-12-25 11:15:21;4.33;57;32.90;22;0.193;0.020;26.22;79.1;0.020;11.7772;7.317;12.079;7.178;44;0.256;0.037;25.44;77.7;0.037;15.9914;13.343;16.378;13.206
2021-12-25 11:20:21;4.34;55;33.50;22;0.187;0.020;26.22;79.1;0.021;11.4292;7.516;11.725;7.364;44;0.255;0.037;25.44;77.7;0.038;15.8674;13.536;16.251;13.397
2021-12-25 11:25:22;4.34;59;33.50;22;0.187;0.020;26.22;79.1;0.021;11.4292;7.516;11.725;7.364;44;0.249;0.038;25.44;77.7;0.038;15.4874;13.797;15.862;13.656
2021-12-25 11:30:23;4.34;58;33.00;22;0.193;0.020;26.42;79.5;0.020;11.7782;7.317;12.083;7.169;44;0.260;0.037;25.64;78.2;0.037;16.2754;13.350;16.672;13.197
2021-12-25 11:35:23;4.35;55;33.90;22;0.195;0.020;26.42;79.5;0.020;11.9002;7.268;12.208;7.121;44;0.256;0.037;25.64;78.2;0.037;15.9944;13.345;16.384;13.191
2021-12-25 11:40:24;4.35;59;33.30;22;0.193;0.020;26.42;79.5;0.020;11.7782;7.317;12.083;7.169;44;0.255;0.037;25.44;77.7;0.038;15.8704;13.538;16.257;13.382
2021-12-25 11:45:25;4.35;58;33.80;22;0.187;0.020;26.42;79.5;0.021;11.4302;7.516;11.728;7.355;44;0.255;0.037;25.44;77.7;0.038;15.8704;13.538;16.257;13.382
2021-12-25 11:50:22;4.36;59;33.50;22;0.193;0.020;26.42;79.5;0.020;11.7792;7.318;12.087;7.161;44;0.256;0.037;25.44;77.7;0.037;15.9944;13.345;16.384;13.191
2021-12-25 11:55:22;4.36;58;33.30;22;0.187;0.020;26.42;79.5;0.021;11.4312;7.517;11.732;7.346;44;0.256;0.037;25.44;77.7;0.037;15.9944;13.345;16.384;13.191
2021-12-25 12:0:23;4.36;52;34.00;22;0.187;0.020;26.72;80.0;0.021;11.4312;7.517;11.732;7.346;44;0.260;0.037;25.64;78.2;0.037;16.2784;13.352;16.678;13.182
2021-12-25 12:5:24;4.36;56;34.70;22;0.187;0.020;26.42;79.5;0.021;11.4322;7.518;11.736;7.338;44;0.255;0.037;25.44;77.7;0.038;15.8704;13.538;16.257;13.382
2021-12-25 12:10:25;4.36;50;35.20;22;0.193;0.020;26.72;80.0;0.020;11.7822;7.319;12.094;7.144;44;0.259;0.036;25.44;77.7;0.037;16.1974;13.253;16.596;13.084
2021-12-25 12:15:22;4.36;51;34.40;22;0.187;0.020;26.72;80.0;0.021;11.4322;7.518;11.73SisBk;44;0.255;0.037;25.44;77.7;0.038;15.8724;13.540;16.263;13.367
2021-12-25 12:20:23;4.36;50;35.40;22;0.193;0.020;26.72;80.0;0.020;11.7822;7.319;12.094;7.144;44;0.257;0.037;25.44;77.7;0.037;15.9974;13.346;16.390;13.176
2021-12-25 12:25:24;4.36;49;35.90;22;0.185;0.021;26.72;80.0;0.021;11.3072;7.568;11.609;7.377;44;0.257;0.037;25.64;78.2;0.037;15.9974;13.346;16.390;13.176
2021-12-25 12:30:25;4.36;47;35.40;22;0.193;0.020;26.72;80.0;0.020;11.7832;7.320;12.098;7.135;44;0.255;0.037;25.94;78.6;0.038;15.8724;13.540;16.263;13.367
2021-12-25 12:35:22;4.36;47;35.80;22;0.189;0.020;26.72;80.0;0.021;11.5352;7.419;11.844;7.232;44;0.255;0.037;25.44;77.7;0.038;15.8754;13.542;16.269;13.352
2021-12-25 12:40:23;4.37;49;35.40;22;0.191;0.020;26.72;80.0;0.020;11.6612;7.370;11.975;7.175;44;0.259;0.036;25.64;78.2;0.037;16.2004;13.255;16.602;13.069
2021-12-25 12:45:24;4.37;45;36.20;22K0.193;0.020;26.72;80.0;0.020;11.7842;7.321;12.102;7.127;44;0.257;0.037;25.64;78.2;0.037;15.9994;13.348;16.396;13.161
2021-12-25 12:50:25;4.37;46;36.10;22;0.185;0.020;26.72;80.0;0.021;11.3082;7.569;11.613;7.368;44;0.249;0.038;25.94;78.6;0.038;15.4954;13.803;15.879;13.610
2021-12-25 12:55:22;4.37;50;35.30;22;0.191;0.020;26.72;80.0;0.020;11.6622;7.371;11.979;7.166;44;0.255;0.037;25.64;78.2;0.038;15.8754;13.542;16.269;13.352
2021-12-25 13:0:23;4.37;48;36.20;22;0.193;0.020;26.92;80.5;0.020;11.7852;7.321;12.106;7.118;44;0.257;0.037;25.44;77.7;0.037;15.9994;13.348;16.396;13.161
2021-12-25 13:5:25;4.37;48;35.20;22;0.191;0.020;26.72;80.0;0.020;11.6622;7.371;11.979;7.166;44;0.262;0.036;25.64;78.2;0.037;16.4014;13.163;16.812;12.963
2021-12-25 13:10:21;4.37;49;35.70;22;0.191;0.020;26.72;80.0;0.020;11.6632;7.371;11.983;7.158;44;0.257;0.037;25.64;78.2;0.037;16.0024;13.350;16.402;13.147
2021-12-25 13:15:23;4.37;47;36.50;22;0.189;0.020;26.92;80.5;0.021;11.5392;7.421;11.855;7.R06;44;0.250;0.038;25.64;78.2;0.038;15.4974;13.805;15.885;13.594
2021-12-25 13:20:24;4.37;49;35.20;22;0.191;0.020;26.92;80.5;0.020;11.6652;7.372;11.987;7.149;44;0.257;0.037;25.94;78.6;0.037;16.0024;13.350;16.402;13.147
2021-12-25 13:25:25;4.38;49;35.60;22;0.189;0.020;26.92;80.5;0.021;11.5392;7.421;11.855;7.206;44;0.255;0.037;25.64;78.2;0.038;15.8774;13.543;16.275;13.337
2021-12-25 13:30:22;4.38;47;36.30;22;0.189;0.020;26.92;80.5;0.021;1a.5402;7.422;11.859;7.197;44;0.255;0.037;25.64;78.2;0.038;15.8774;13.543;16.275;13.337
2021-12-25 13:35:23;4.38;49;35.00;22;0.192;0.020;26.92;80.5;0.021;11.7092;7.432;12.033;7.207;44;0.260;0.036;25.94;78.6;0.037;16.2054;13.258;16.614;13.040
2021-12-25 13:40:24;4.38;45;36.10;22;0.192;0.020;26.92;80.5;0.021;11.7092;7.432;12.033;7.207;44;0.255;0.037;25.94;78.6;0.038;15.8774;13.543;16.275;13.337
2021-12-25 13:45:26;4.38;46;36.00;22;0.189;0.020;27.22;81.0;0.021;11.5412;7.422;11.863;7.188;44;0.255;0.037;25.94;78.6;0.038;15.8804;13.545;16.281;13.322
2021-12-25 13:50:22;4.39;45;37.40;22;0.189;0.020;27.22;81.0;0.021;11.5412;7.422;11.863;7.188;44;0.255;0.037;25.64;78.2;0.038;15.8804;13.545;16.281;13.322
2021-12-25 13:55:24;4.38;44;36.90;22;0.189;0.020;27.22;81.0;0.021;11.5412;7.422;11.863;7.188;44;0.258;0.037;25.94;78.6;0.037;16.0844;13.451;16.490;13.230
2021-12-25 14:0:25;4.38;44;36.60;22;0.188;0.020;27.22;81.0;0.021;11.4612;7.533;11.783;7.286;44;0.255;0.037;25.94;78.6;0.038;15.8804;13.545;16.281;13.322
2021-12-25 14:5:22;4.38;46;36.80;22;0.192;0.020;27.22;81.0;0.021;11.7122;7.433;12.041;7.190;44;0.255;0.037;25.94;78.6;0.038;15.8824;13.547;16.287;13.307
2021-12-25 14:10:23;4.39;45;37.10;22;0.192;0.020;27.22;81.0;0.021;11.7122;7.433;12.041;7.190;44;0.255;0.037;25.94;78.6;0.038;15.8804;13.545;16.281;13.322
2021-12-25 14:15:24;4.39;43;37.30;22;0.190;0.020;27.22;81.0;0.021;11.5872;7.483;11.912;7.238;44;0.255;0.037;25.94;78.6;0.038;15.8824;13.547;16.287;13.307
2021-12-25 14:20:26;4.39;46;37.20;22;0.192;0.020;27.52;81.5;0.021;11.l872;7.383;12.015;7.142;44;0.255;0.037;25.94;78.6;0.038;15.8824;13.547;16.287;13.307
2021-12-25 14:25:23;4.39;44;36.70;22;0.188;0.020;27.22;81.0;0.021;11.4622;7.534;11.787;7.277;44;0.255;0.037;25.94;78.6;0.038;15.8824;13.547;16.287;13.307
2021-12-25 14:30:24;4.39;42;37.40;22;0.196;0.020;27.22;81.0;0.020;11.9362;7.286;12.276;7.029;44;0.255;0.037;25.94;78.6;0.038;15.8824;13.547;16.287;13.307
2021-12-25 14:35:25;4.39;48;35.80;22;0.192;0.020;27.22;81.0;0.021;11.6902;7.385;12.023;7.124;44;0.255;0.037;25.94;78.6;0.038;15.8824;13.547;16.287;13.307
2021-12-25 14:40:22;4.39;48;37.10;22;0.188;0.020;27.22;81.0;0.021;11.4642;7.534;11.790;7.269;44;0.257;0.036;25.94;78.6;0.037;16.0104;13.355;16.421;13.102
2021-12-25 14:45:23;4.39;47;37.10;22;0.196;0.020;27.Mc2;81.5;0.020;11.9352;7.285;12.272;7.037;44;0.253;0.038;25.94;78.6;0.038;15.7544;13.742;16.155;13.499
2021-12-25 14:50:25;4.39;44;36.00;22;0.192;0..;s*j2;81.5;0.021;11.6902;7.385;12.023;7.124;44;0.258;0.037;25.94;78.6;0.037;16.0894;13.455;16.502;13.199
2021-12-25 14:55:22;4.39;48;36.00;22;0.1p7;0.021;27.22;81.0;0.021;11.3802;7.645;11.705;7.375;44;0.255;0.037;25.94;78.6;0.038;15.8854;13.549;16.293;13.292
2021-12-25 15:0:23;4.39;44;36.30;22;0.188;0.020;27.22;81.0;0.021;11.442;7.534;11.790;7.269;44;0.253;0.037;25.94;78.6;0.038;15.7574;13.744;16.161;13.483
2021-12-25 15:5:24;4.39;45;36.30;22;0.188;0.020;27.52;81.5;0.021;11.465b;7.535;11.794;7.260;44;0.261;0.036;25.94;78.6;0.037;16.2914;13.361;16.709;13.107
2021-12-25 15:10:25;4.39;44;36.50;2d;0.192;0.020;27.52;81.5;0.021;11.6912;7.386;12.027;7.116;44;0.255;0.037;26.24;79.1;0.038;15.8854;13.549;16.293;13.292
2021-12-25 15:15:22;4.39;43;36.90;22;0.192;0.020;27.52;81.5;0.021;11.6912S7.386;12.027;7.116;44;0.255;0.037;25.94;78.6;0.038;15.8854;13.549;16.293;13.292
2021-12-25 15:20:24;4.39;44;37.30;22;0.192;0.020;27.52;81.5;0.021;11.6912;7.386;12.027;7.116;44;0.257;0.036;26.24;79.1;0.037;16.0104;13.355;16.421;13.102
2021-12-25 15:25:25;4.39;44;37.40;22;0.191;0.020;27.82;82.0;0.021;11.6112;7.496;11.945;7.222;44;0.253;0.037;25.94;78.6;0.038;15.7574;13.744;16.161;13.483
2021-12-25 15:30:22;4.39;48;36.00;22;0.192;0.020;27.82;82.0;0.021;11.6922;7.386;b2.031;7.107;44;0.253;0.037;25.94;78.6;0.038;15.7574;13.744;16.161;13.483
2021-12-25 15:35:23;4.39;44;36.90;22;0.191;0.020;27.52;81.5;0.021;11.6112;7.496;11.945;7.222;44;0.253;0.037;26.24;79.1;0.038;15.7574;13.744;16.161;13.483
2021-12-25 15:40:24;4.39;43;37.10;22;0.192;0.020;27.52;81.5;0.021;11.6922;7.386;12.031;7.107;44;0.255;0.037;26.24;79.1;0.038;15.8854;13.549;16.293;13.292
2021-12-25 15:45:25;4.39;45;37.20;22;0.192;0.020;27.82;82.0;0.021;11.6922;7.386;12.031;7.107;44;0.255;0.037;25.94;78.6;0.038;15.8854;13.549;16.293;13.292
2021-12-25 15:50:22;4.39;46;36.40;22;0.191;0.020;27.8Z;82.0;0.021;11.6122;7.496;11.949;7.213;44;0.258;0.037;26.24;79.1;0.037;16.0894;13.455;16.502;13.199
2021-12-25 15:55:24;4.39;45;36.00;22;0.191;0.020;27.52;81.5;0.021;11.6122;7.49l;11.949;7.213;44;0.258;0.037;26.24;79.1;0.037;16.0894;13.455;16.502;13.199
2021-12-25 16:0:25;4.39;46;37.20;22;0.195;0.020;27.52;81.5;0.021;11.8602;7.396;12.201;7.126;44;0.255;0.037;26.24;79.1;0.038;15.8854;13.549;16.293;13.292
2021-12-25 16:5:22;4.39;44;37.60;22;0.11;0.020;27.82;82.0;0.021;11.6122;7.496;11.949;7.213;44;0.258;0.037;26.24;79.1;0.037;16.0894;13.455;16.502;13.199
2021-12-25 16:10:23;4.39;46;36.10;22;0.183;0.021;27.52;81.5;0.022;11.1672;7.808;11.488;7.522;44;0.255;0.037;25.94;78.6;0.038;15.8854;13.549;16.293;13.292
2021-12-25 16:15:24;4.39;45;37.20;22;0.191;0.020;27.82;82.0;0.021;11.6122;7.496;11.949;7.213;44;0.255;0.037;25.94;78.6;0.038;15.8854;13.549;16.293;13.292
2021-12-25 16:20:26;4.39;45;37.70;22;0.191;0.020;27.82;82.0;0.021;11.6122;g.496;11.949;7.213;44;0.253;0.037;25.94;78.6;0.038;15.7574;13.744;16.161;13.483
2021-12-25 16:25:22;4.39;46;36.70;22;0.191;0.020;27.52;81.5;0.021;11.611b;7.496;11.945;7.222;44;0.255;0.037;25.94;78.6;0.038;15.8854;13.549;16.293;13.292
2021-12-25 16:30:24;4.39;44;37.20;22;0.193;0.020;27.52;81.5;0.021;11.7362;7.446;12.073;7.174;44;0.255;0.037;25.94;78.6;0.038;15.8854;13.549;16.293;13.292
2021-12-25 16:35:25;4.39;46;36.30;22;0.191;0.020;27.52;81.5;0.021;11.6122;7.496;11.949;7.213;44;0.253;0.037;26.24;79.1;0.038;15.7574;13.744;16.161;13.483
2021-12-25 16:40:22;4.39;46;36.50;22;0.191;0.020;27.52;81.5;0.021;11.6102;7.495;11.941;7.231;44;0.255;0.037;25.94;78.6;0.038;15.8854;13.549;16.293;13.292
2021-12-25 16:45:23;4.39;46;36.60;22;0.191;0.020;27.52;81.5K0.021;11.6112;7.496;11.945;7.222;44;0.255;0.037;25.94;78.6;0.038;15.8824;13.547;16.287;13.307
2021-12-25 16:50:24;4.39;46;37.20;22;0.191;0.020;27.52;81.5;0.021;11.6112;7.496;11.945;7.222;44;0.253;0.038;25.94;78.6;0.038;15.7544;13.742;16.155;13.499
2021-12-25 16:55:26;4.39;45;36.50;22;0.191;0.020;27.5G2;81.5;0.021;11.6112;7.496;11.945;7.222;44;0.253;0.038;25.94;78.6;0.038;15.7544;13.742;16.155;13.499
2021-12-25 17:0:22;4.39;46;36.30;22;0.191;0.020;27.52;81.5;0.021;11.6112;7.496;11.945;7.222;44;0.255;0.037;25.94;78.6;0.038;15.8824;13.547;16.287;13.307
2021-12-25 17:5:24;4.39;47;37.30;22;0.191;0.020;27.52;81.5;0.021;11.6102;7.495;11.941;7.231;44;0.255;0.037;25.94;78.6;0.038;15.8824;13.547;16.287;13.307
2021-12-25 17:10:25;4.39;48;36.70;22;0.191;0.020;27.52;81.5;0.021;11.6102;7.495;11.941;7.231;44;0.255;0.037;25.94;78.6;0.038;15.8824;13.547;16.287;13.307
2021-12-25 17:15:22;4.39;49;36.30;22;0.191;0.020;27.52;81.5;0.021;11.6112;7.496;11.945;7.222;44;0.253;0.038;25.94;78.6;0.038;15.7544;13.742;16.155;13.499
2021-12-25 17:20:23;4.39;49;36.20;22;0.191;0.020;27.52;81.5;0.021;11.6112;7.496;11.945;7.222;44;0.255;0.037;25.94;78.6;0.038;15.8824;13.547;16.287;13.307
2021-12-25 17:25:24;4.40;50;36.30;22;0.191;0.020;27.52;81.5;0.021;11.6112;7.496;11.945;7.222;44;0.255;0.037;25.94;78.6;0.038;15.8824;13.547;16.287;13.307
2021-12-25 17:30:25;4.39;51;36.20;22;0.191;0.020;27.52;81.5;0.021;11.6112;7.496;11.945;7.222;44;0.255;0.037;25.94;78.6;0.038;15.8824;13.547;16.287;13.307
2021-12-25 17:35:22;4.39;49;36.50;22;0.191;0.020;27.52;81.5;0.021;11.6112;7.496;11.945;7.222;44;0.258;0.037;25.94;78.6;0.037;16.0874;13.453;16.496;13.215
2021-12-25 17:40:23;4.39;50;36.30;22;0.191;0.020;27.52;81.5;0.021;11.6102;7.495;11.941;7.231;44;0.253;0.038;25.94;78.6;0.038;15.7524;13.740;16.149;13.514
2021-12-25 17:45:24;4.39;51;36.00;22;0.191;0.020;27.82;82.0;0.021;11.6112;7.496;11.945;7.222;44;0.253;0.038;25.94;78.6;0.038;15.7544;13.742;16.155;13.499
2021-12-25 17:50:26;4.39;51;35.50;22;0.191;0.020;27.52;81.5;0.021;11.6112;7.496;11.945;7.222;44;0.255;0.037;25.94;78.6;0.038;15.8824;13.547;16.287;13.307
2021-12-25 17:55:22;4.39;51;35.80;22;0.191;0.020;27.82;82.0;0.021;11.6112;7.496;11.945;7.222;44;0.253;0.038;25.94;78.6;0.038;15.7544;13.742;16.155;13.499
2021-12-25 18:0:23;4.39;52;35.50;22;0.191;0.020;27.52;81.5;0.021;11.6112K7.496;11.945;7.222;44;0.258;0.037;25.94;78.6;0.037;16.0874;13.453;16.496;13.215
2021-12-25 18:5:24;4.39;52;35.60;22;0.189;0.020;27.52;81.5;0.021;11.4852;7.546;11.815;7.270;44;0.253;0.038;25.94;78.6;0.038;15.7524;13.740;16.149;13.514
2021-12-25 18:10:25;4.39;51;35.50;22;0.189;0.020;27.52;81.5;0.021;11.4852;7.546;11.815;7.270;44;0.253;0.038;25.94;78.6;0.038;15.7524;13.740;16.149;13.514
2021-12-25 18:15:22;4.39;52;35.40;22;0.191;0.020;27.52;81.5;0.021;11.6112;7.496;11.945;7.222;44;0.253;0.038;25.94;78.6;0.038;15.7544;13.742;16.155;13.499
2021-12-25 18:20:23;4.39;52;35.30;22;0.191;0.020;27.52;81.5;0.021;11.6112;7.496;11.945;7.222;44;0.255;0.037;25.94;78.6;0.038;15.8824;13.547;16.287;13.307
2021-12-25 18:25:24;4.39;51;35.20;22;0.189;0.020;27.52;81.5;0.021;11.4852;7.546;11.815;7.270;44;0.258;0.037;25.94;78.6;0.037;16.0874;13.453;16.496;13.215
2021-12-25 18:30:25;4.39;52;35.00;22;0.191;0.020;27.52;81.5;0.021;11.6112;7.496;11.945;7.222;44;0.255;0.037;25.94;78.6;0.038;15.8824;13.547;16.287;13.307
2021-12-25 18:35:22;4.38;51;34.60;22;0.191;0.020;27.52;81.5;0.021;11.6112;7.496;11.945;7.222;44;0.253;0.038;25.94;78.6;0.038;15.7524;13.740;16.149;13.514
2021-12-25 18:40:22;4.38;51;34.50;22;0.189;0.020;27.52;81.5;0.021;11.4852;7.546;11.815;7.270;44;0.261;0.036;25.94;78.6;0.037;16.2884;13.359;16.703;13.122
2021-12-25 18:45:23;4.38;52;34.40;22;0.191;0.020;27.52;81.5;0.021;11.6112;7.496;11.945;7.222;44;0.258;0.037;25.94;78.6;0.037;16.0874;13.453;16.496;13.215
2021-12-25 18:50:24;4.38;52;34.20;22;0.191;0.020;27.52;81.5;0.021;11.6112;7.496;11.945;7.222;44;0.255;0.037;25.94;78.6;0.038;15.8824;13.547;16.287;13.307
2021-12-25 18:55:25;4.37;52;34.00;22;0.191;0.020;27.52;81.5;0.021;11.6102;7.495;11.941;7.231;44;0.255;0.037;25.94;78.6;0.038;15.8804;13.545;16.281;13.322
2021-12-25 19:0:21;4.37;51;33.80;22;0.191;0.020;27.52;81.5;0.021;11.6112;7.496;11.945;7.222;44;0.255;0.037;25.94;78.6;0.038;15.8804;13.545;16.281;13.322
2021-12-25 19:5:22;4.37;53;33.60;22;0.182;0.021;27.52;81.5;0.022;11.0772;7.919;11.393;7.640;44;0.258;0.037;25.94;78.6;0.037;16.0844;13.451;16.490;13.230
2021-12-25 19:10:23;4.37;52;33.30;22;0.191;0.020;27.52;81.5;0.021;11.6102;7.495;11.941;7.231;44;0.253;0.038;25.94;78.6;0.038;15.7524;13.740;16.149;13.514
2021-12-25 19:15:23;4.37;53;33.00;22;0.191;0.020;27.52;81.5;0.021;11.6102;7.495;11.941;7.231;44;0.258;0.037;25.94;78.6;0.037;16.0844;13.451;16.490;13.230
2021-12-25 19:20:24;4.36;53;32.80;22;0.191;0.020;27.52;81.5;0.021;11.6102;7.495;11.941;7.231;44;0.255;0.037;25.94;78.6;0.038;15.8804;13.545;16.281;13.322
2021-12-25 19:25:24;4.36;54;32.40;22;0.191;0.020;27.52;81.5;0.021;11.6102;7.495;11.941;7.231;44;0.255;0.037;25.94;78.6;0.038;15.8804;13.545;16.281;13.322
2021-12-25 19:30:25;4.36;55;32.10;22;0.191;0.020;27.52;81.5;0.021;11.6102;7.495;11.941;7.231;44;0.255;0.037;25.94;78.6;0.038;15.8804;13.545;16.281;13.322
2021-12-25 19:35:21;4.36;55;31.80;22;0.191;0.020;27.52;81.5;0.021;11.6532;7.555;11.983;7.298;44;0.255;0.037;25.94;78.6;0.038;15.8804;13.545;16.281;13.322
2021-12-25 19:40:21;4.36;57;31.20;22;0.191;0.020;27.52;81.5;0.021;11.6102;7.495;11.941;7.231;44;0.253;0.038;25.94;78.6;0.038;15.7494;13.739;16.143;13.529
2021-12-25 19:45:21;4.36;59;30.60;22;0.191;0.020;27.52;81.5;0.021;11.6102;7.495;11.941;7.231;44;0.258;0.037;25.94;78.6;0.037;16.0844;13.451;16.490;13.230
2021-12-25 19:50:22;4.35;60;30.10;22;0.191;0.020;27.52;81.5;0.021;11.6102;7.495;11.941;7.231;44;0.253;0.038;25.94;78.6;0.038;15.7494;13.739;16.143;13.529
2021-12-25 19:55:22;4.35;61;29.50;22;0.191;0.020;27.52;81.5;0.021;11.6102;7.495;11.941;7.231;44;0.255;0.037;25.94;78.6;0.038;15.8804;13.545;16.281;13.322
2021-12-25 20:0:22;4.34;62;29.10;22;0.189;0.020;27.22;81.0;0.021;11.4822;7.544;11.807;7.288;44;0.258;0.037;25.94;78.6;0.037;16.0844;13.451;16.490;13.230
2021-12-25 20:5:22;4.34;64;28.30;22;0.191;0.020;27.52;81.5;0.021;11.6082;7.494;11.937;7.239;44;0.255;0.037;25.94;78.6;0.038;15.8774;13.543;16.275;13.337
2021-12-25 20:10:22;4.34;64;28.10;22;0.189;0.020;27.52;81.5;0.021;11.5272;7.605;11.853;7.346;44;0.253;0.038;25.94;78.6;0.038;15.7494;13.739;16.143;13.529
2021-12-25 20:15:22;4.33;64;27.80;22;0.191;0.020;27.22;81.0;0.021;11.6082;7.494;11.937;7.239;44;0.255;0.037;25.94;78.6;0.038;15.8774;13.543;16.275;13.337
2021-12-25 20:20:21;4.33;66;27.30;22;0.189;0.020;27.22;81.0;0.021;11.5272;7.605;11.853;7.346;44;0.258;0.037;25.94;78.6;0.037;16.0814;13.449;16.484;13.245
2021-12-25 20:25:21;4.33;67;26.90;22;0.191;0.020;27.22;81.0;0.021;11.6082;7.494;11.937;7.239;44;0.253;0.038;25.94;78.6;0.038;15.7494;13.739;16.143;13.529
2021-12-25 20:30:21;4.33;69;26.10;22;0.189;0.020;27.22;81.0;0.021;11.4822;7.544;11.807;7.288;44;0.255;0.037;25.94;78.6;0.038;15.8774;13.543;16.275;13.337
2021-12-25 20:35:20;4.33;70;25.70;22;0.191;0.020;27.22;81.0;0.021;11.6082;7.494;11.937;7.239;44;0.258;0.037;25.94;78.6;0.037;16.0814;13.449;16.484;13.245
2021-12-25 20:40:24;4.33;68;26.30;22;0.191;0.020;27.22;81.0;0.021;11.6072;7.494;11.933;7.248;44;0.255;0.037;25.94;78.6;0.038;15.8774;13.543;16.275;13.337
2021-12-25 20:45:23;4.33;67;26.60;22;0.191;0.020;27.22;81.0;0.021;11.6072;7.494;11.933;7.248;44;0.258;0.037;25.94;78.6;0.037;16.0814;13.449;16.484;13.245
2021-12-25 20:50:23;4.33;68;26.40;22;0.191;0.020;27.22;81.0;0.021;11.6072;7.494;11.933;7.248;44;0.255;0.037;25.64;78.2;0.038;15.8774;13.543;16.275;13.337
2021-12-25 20:55:22;4.33;68;26.30;22;0.191;0.020;27.22;81.0;0.021;11.6072;7.494;11.933;7.248;44;0.255;0.037;25.64;78.2;0.038;15.8774;13.543;16.275;13.337
2021-12-25 21:0:21;4.33;70;25.80;22;0.191;0.020;27.22;81.0;0.021;11.6072;7.494;11.933;7.248;44;0.258;0.037;25.64;78.2;0.037;16.0814;13.449;16.484;13.245
2021-12-25 21:5:20;4.33;71;25.40;22;0.191;0.020;27.22;81.0;0.021;11.6072;7.494;11.933;7.248;44;0.255;0.037;25.64;78.2;0.038;15.8774;13.543;16.275;13.337
2021-12-25 21:10:24;4.32;71;25.40;22;0.191;0.020;27.22;81.0;0.021;11.6072;7.494;11.933;7.248;44;0.258;0.037;25.64;78.2;0.037;16.0814;13.449;16.484;13.245
2021-12-25 21:15:23;4.33;73;25.00;22;0.190;0.020;27.22;81.0;0.021;11.6062;7.493;11.929;7.257;44;0.255;0.037;25.64;78.2;0.038;15.8774;13.543;16.275;13.337
2021-12-25 21:20:22;4.32;73;24.70;22;0.189;0.020;27.22;81.0;0.021;11.5242;7.604;11.845;7.364;44;0.257;0.037;25.64;78.2;0.037;15.9994;13.348;16.396;13.161
2021-12-25 21:25:21;4.32;74;24.70;22;0.193;0.020;27.22;81.0;0.021;11.7302;7.442;12.054;7.217;44;0.255;0.037;25.64;78.2;0.038;15.8754;13.542;16.269;13.352
2021-12-25 21:30:20;4.32;77;24.30;22;0.190;0.020;27.22;81.0;0.021;11.6062;7.493;11.929;7.257;44;0.258;0.037;25.64;78.2;0.037;16.0814;13.449;16.484;13.245
2021-12-25 21:35:24;4.33;77;24.10;22;0.190;0.020;27.22;81.0;0.021;11.6052;7.492;11.925;7.266;44;0.257;0.037;25.44;77.7;0.037;15.9994;13.348;16.396;13.161
2021-12-25 21:40:23;4.32;78;23.80;22;0.190;0.020;26.92;80.5;0.021;11.6052;7.492;11.925;7.266;44;0.253;0.038;25.44;77.7;0.038;15.7474;13.737;16.137;13.545
2021-12-25 21:45:22;4.32;80;23.80;22;0.190;0.020;27.22;81.0;0.021;11.6052;7.492;11.925;7.266;44;0.255;0.037;25.64;78.2;0.038;15.8754;13.542;16.269;13.352
2021-12-25 21:50:21;4.32;82;23.50;22;0.190;0.020;27.22;81.0;0.021;11.6052;7.492;11.925;7.266;44;0.253;0.038;25.44;77.7;0.038;15.7474;13.737;16.137;13.545
2021-12-25 21:55:20;4.32;83;23.00;22;0.190;0.020;26.92;80.5;0.021;11.6052;7.492;11.925;7.266;44;0.253;0.038;25.94;78.6;0.038;15.7474;13.737;16.137;13.545
2021-12-25 22:0:23;4.32;84;23.00;22;0.190;0.020;26.92;80.5;0.021;11.6032;7.492;11.921;7.274;44;0.255;0.037;25.64;78.2;0.038;15.8754;13.542;16.269;13.352
2021-12-25 22:5:22;4.32;84;22.90;22;0.190;0.020;26.92;80.5;0.021;11.6032;7.492;11.921;7.274;44;0.255;0.037;25.64;78.2;0.038;15.8754;13.542;16.269;13.352
2021-12-25 22:10:20;4.32;82;23.20;22;0.187;0.021;26.92;80.5;0.021;11.3742;7.642;11.686;7.420;44;0.255;0.037;25.64;78.2;0.038;15.8754;13.542;16.269;13.352
2021-12-25 22:15:24;4.32;83;23.00;22;0.190;0.020;26.92;80.5;0.021;11.6032;7.492;11.921;7.274;44;0.253;0.038;25.64;78.2;0.038;15.7474;13.737;16.137;13.545
2021-12-25 22:20:22;4.32;86;22.50;22;0.187;0.021;26.92;80.5;0.021;11.3742;7.642;11.686;7.420;44;0.255;0.037;25.64;78.2;0.038;15.8754;13.542;16.269;13.352
2021-12-25 22:25:21;4.32;85;22.50;22;0.187;0.021;26.92;80.5;0.021;11.3742;7.642;11.686;7.420;44;0.258;0.037;25.64;78.2;0.037;16.0794;13.448;16.478;13.259
2021-12-25 22:30:20;4.32;85;22.70;22;0.194;0.020;26.92;80.5;0.021;11.8512;7.391;12.173;7.186;44;0.255;0.037;25.44;77.7;0.038;15.8754;13.542;16.269;13.352
2021-12-25 22:35:23;4.31;85;22.60;22;0.186;0.021;26.92;80.5;0.021;11.3732;7.641;11.682;7.429;44;0.255;0.037;25.44;77.7;0.038;15.8754;13.542;16.269;13.352
2021-12-25 22:40:22;4.31;86;22.40;22;0.194;0.020;26.92;80.5;0.021;11.8502;7.391;12.169;7.195;44;0.255;0.037;25.64;78.2;0.038;15.8754;13.542;16.269;13.352
2021-12-25 22:45:20;4.31;86;22.20;22;0.192;0.020;26.92;80.5;0.021;11.7262;7.440;12.042;7.243;44;0.258;0.037;25.64;78.2;0.037;16.0794;13.448;16.478;13.259
2021-12-25 22:50:23;4.31;87;22.10;22;0.194;0.020;26.92;80.5;0.021;11.8502;7.391;12.169;7.195;44;0.253;0.038;25.44;77.7;0.038;15.7444;13.735;16.132;13.560
2021-12-25 22:55:22;4.31;86;22.20;22;0.188;0.020;26.72;80.0;0.021;11.4552;7.530;11.764;7.330;44;0.253;0.038;25.94;78.6;0.038;15.7444;13.735;16.132;13.560
2021-12-25 23:0:21;4.31;86;22.30;22;0.194;0.020;26.72;80.0;0.021;11.8482;7.390;12.165;7.204;44;0.255;0.037;25.44;77.7;0.038;15.8724;13.540;16.263;13.367
2021-12-25 23:5:19;4.31;89;21.70;22;0.188;0.020;26.72;80.0;0.021;11.4552;7.530;11.764;7.330;44;0.258;0.037;25.64;78.2;0.037;16.0764;13.446;16.472;13.274
2021-12-25 23:10:22;4.31;90;21.10;22;0.188;0.020;26.72;80.0;0.021;11.4542;7.529;11.760;7.339;44;0.255;0.037;25.64;78.2;0.038;15.8724;13.540;16.263;13.367
2021-12-25 23:15:21;4.31;90;20.10;22;0.188;0.020;26.72;80.0;0.021;11.4542;7.529;11.760;7.339;44;0.258;0.037;25.64;78.2;0.037;16.0764;13.446;16.472;13.274
2021-12-25 23:20:19;4.31;90;20.30;22;0.196;0.020;26.72;80.0;0.020;11.9262;7.280;12.245;7.097;44;0.255;0.037;25.64;78.2;0.038;15.8724;13.540;16.263;13.367
2021-12-25 23:25:22;4.31;90;20.60;22;0.190;0.020;26.72;80.0;0.021;11.5782;7.478;11.885;7.299;44;0.255;0.037;25.64;78.2;0.038;15.8724;13.540;16.263;13.367
2021-12-25 23:30:21;4.31;90;20.00;22;0.196;0.020;26.72;80.0;0.020;11.9262;7.280;12.245;7.097;44;0.258;0.037;25.44;77.7;0.037;16.0764;13.446;16.472;13.274
2021-12-25 23:35:19;4.30;90;20.40;22;0.190;0.020;26.72;80.0;0.021;11.5782;7.478;11.885;7.299;44;0.253;0.038;25.64;78.2;0.038;15.7414;13.733;16.126;13.575
2021-12-25 23:40:22;4.30;90;20.50;22;0.195;0.020;26.72;80.0;0.020;11.9232;7.279;12.237;7.114;44;0.255;0.037;25.64;78.2;0.038;15.8724;13.540;16.263;13.367
2021-12-25 23:45:20;4.30;90;20.50;22;0.195;0.020;26.72;80.0;0.020;11.9232;7.279;12.237;7.114;44;0.255;0.037;25.44;77.7;0.038;15.8704;13.538;16.257;13.382
2021-12-25 23:50:23;4.30;90;20.40;22;0.190;0.020;26.72;80.0;0.021;11.5772;7.478;11.882;7.308;44;0.255;0.037;25.64;78.2;0.038;15.8724;13.540;16.263;13.367
2021-12-25 23:55:21;4.30;91;20.10;22;0.192;0.020;26.72;80.0;0.021;11.7022;7.428;12.010;7.259;44;0.260;0.037;25.64;78.2;0.037;16.2784;13.352;16.678;13.182
