2021-12-6 0:0:23;4.30;49;20.50;22;0.198;0.021;22.42;72.3;0.020;12.2022;7.341;12.409;7.598;44;0.256;0.037;21.74;71.1;0.036;16.0844;12.868;16.337;13.427
2021-12-6 0:5:20;4.29;63;20.90;22;0.198;0.021;22.62;72.6;0.020;12.2012;7.340;12.406;7.606;44;0.258;0.037;21.74;71.1;0.036;16.2774;12.777;16.533;13.332
2021-12-6 0:10:18;4.29;71;21.20;22;0.198;0.021;22.42;72.3;0.020;12.2012;7.340;12.406;7.606;44;0.260;0.037;21.94;71.5;0.035;16.3884;12.591;16.646;13.138
2021-12-6 0:15:21;4.29;74;21.30;22;0.198;0.021;22.42;72.3;0.020;12.2012;7.340;12.406;7.606;44;0.260;0.037;21.94;71.5;0.035;16.3884;12.591;16.646;13.138
2021-12-6 0:20:18;4.29;79;21.50;22;0.198;0.021;22.42;72.3;0.020;12.2012;7.340;12.406;7.606;44;0.258;0.037;21.94;71.5;0.036;16.2774;12.777;16.533;13.332
2021-12-6 0:25:21;4.29;85;21.70;22;0.198;0.021;22.42;72.3;0.020;12.2012;7.340;12.406;7.606;44;0.256;0.037;21.74;71.1;0.036;16.0844;12.868;16.337;13.427
2021-12-6 0:30:19;4.29;86;21.70;22;0.198;0.021;22.42;72.3;0.020;12.2012;7.340;12.406;7.606;44;0.254;0.038;21.74;71.1;0.036;15.9644;13.054;16.213;13.637
2021-12-6 0:35:21;4.29;88;21.70;22;0.198;0.021;22.42;72.3;0.020;12.2012;7.340;12.406;7.606;44;0.258;0.037;21.74;71.1;0.036;16.2774;12.777;16.533;13.332
2021-12-6 0:40:19;4.29;89;21.90;22;0.194;0.021;22.42;72.3;0.021;11.9342;7.431;12.135;7.700;44;0.256;0.037;21.74;71.1;0.036;16.0844;12.868;16.337;13.427
2021-12-6 0:45:21;4.29;88;21.90;22;0.198;0.021;22.42;72.3;0.020;12.2012;7.340;12.406;7.606;44;0.249;0.039;21.94;71.5;0.037;15.6034;13.310;15.848;13.888
2021-12-6 0:50:19;4.30;90;21.90;22;0.198;0.021;22.62;72.6;0.020;12.2012;7.340;12.406;7.606;44;0.257;0.037;21.74;71.1;0.035;16.1984;12.682;16.453;13.232
2021-12-6 0:55:22;4.29;91;22.20;22;0.198;0.021;22.42;72.3;0.020;12.2012;7.340;12.406;7.606;44;0.256;0.037;21.94;71.5;0.036;16.0844;12.868;16.337;13.427
2021-12-6 1:0:20;4.29;91;22.30;22;0.190;0.022;22.42;72.3;0.021;11.7292;7.592;11.926;7.867;44;0.258;0.037;21.94;71.5;0.036;16.2774;12.777;16.533;13.332
2021-12-6 1:5:22;4.29;91;22.30;22;0.195;0.022;22.42;72.3;0.021;11.9802;7.491;12.181;7.762;44;0.257;0.037;21.74;71.1;0.035;16.1984;12.682;16.453;13.232
2021-12-6 1:10:20;4.29;91;22.30;22;0.190;0.022;22.42;72.3;0.021;11.7292;7.592;11.926;7.867;44;0.251;0.038;21.94;71.5;0.036;15.7264;13.121;15.974;13.690
2021-12-6 1:15:23;4.29;91;22.40;22;0.198;0.021;22.62;72.6;0.020;12.2012;7.340;12.406;7.606;44;0.254;0.038;21.94;71.5;0.036;15.9664;13.056;16.218;13.623
2021-12-6 1:20:21;4.29;91;22.30;22;0.198;0.021;22.42;72.3;0.020;12.2012;7.340;12.406;7.606;44;0.249;0.039;21.74;71.1;0.037;15.6014;13.309;15.843;13.903
2021-12-6 1:25:19;4.29;91;22.40;22;0.198;0.021;22.42;72.3;0.020;12.2012;7.340;12.406;7.606;44;0.256;0.037;21.94;71.5;0.036;16.0844;12.868;16.337;13.427
2021-12-6 1:30:21;4.29;92;22.40;22;0.198;0.021;22.42;72.3;0.020;12.2012;7.340;12.406;7.606;44;0.258;0.037;21.94;71.5;0.036;16.2774;12.777;16.533;13.332
2021-12-6 1:35:19;4.29;92;22.40;22;0.198;0.021;22.62;72.6;0.020;12.2012;7.340;12.406;7.606;44;0.256;0.037;21.74;71.1;0.036;16.0844;12.868;16.337;13.427
2021-12-6 1:40:22;4.28;92;22.30;22;0.198;0.021;22.62;72.6;0.020;12.2002;7.340;12.403;7.614;44;0.249;0.039;21.74;71.1;0.037;15.6034;13.310;15.848;13.888
2021-12-6 1:45:20;4.29;92;22.30;22;0.198;0.021;22.42;72.3;0.020;12.2012;7.340;12.406;7.606;44;0.258;0.037;21.74;71.1;0.036;16.2774;12.777;16.533;13.332
2021-12-6 1:50:22;4.29;92;22.10;22;0.198;0.021;22.42;72.3;0.020;12.2012;7.340;12.406;7.606;44;0.249;0.039;21.74;71.1;0.037;15.6034;13.310;15.848;13.888
2021-12-6 1:55:20;4.29;91;21.90;22;0.198;0.021;22.62;72.6;0.020;12.2002;7.340;12.403;7.614;44;0.251;0.038;21.74;71.1;0.036;15.7264;13.121;15.974;13.690
2021-12-6 2:0:23;4.28;90;21.70;22;0.198;0.021;22.42;72.3;0.020;12.2012;7.340;12.406;7.606;44;0.260;0.037;21.74;71.1;0.035;16.3884;12.591;16.646;13.138
2021-12-6 2:5:21;4.28;84;21.20;22;0.198;0.021;22.62;72.6;0.020;12.2002;7.340;12.403;7.614;44;0.258;0.037;21.94;71.5;0.036;16.2774;12.777;16.533;13.332
2021-12-6 2:10:19;4.28;79;20.90;22;0.195;0.022;22.42;72.3;0.021;11.9802;7.491;12.181;7.762;44;0.258;0.037;21.94;71.5;0.036;16.2774;12.777;16.533;13.332
2021-12-6 2:15:21;4.28;79;20.90;22;0.195;0.022;22.42;72.3;0.021;11.9792;7.491;12.178;7.771;44;0.258;0.037;21.94;71.5;0.036;16.2774;12.777;16.533;13.332
2021-12-6 2:20:19;4.28;87;21.20;22;0.192;0.022;22.42;72.3;0.021;11.8542;7.541;12.051;7.823;44;0.260;0.037;21.94;71.5;0.035;16.3884;12.591;16.646;13.138
2021-12-6 2:25:22;4.28;87;21.20;22;0.195;0.022;22.42;72.3;0.021;11.9792;7.491;12.178;7.771;44;0.258;0.037;21.94;71.5;0.036;16.2774;12.777;16.533;13.332
2021-12-6 2:30:20;4.28;80;20.70;22;0.194;0.021;22.42;72.3;0.021;11.9332;7.430;12.131;7.708;44;0.256;0.037;21.74;71.1;0.036;16.0844;12.868;16.337;13.427
2021-12-6 2:35:22;4.28;84;20.90;22;0.196;0.021;22.42;72.3;0.021;12.0562;7.380;12.257;7.656;44;0.258;0.037;21.74;71.1;0.036;16.2774;12.777;16.533;13.332
2021-12-6 2:40:20;4.28;90;21.50;22;0.196;0.021;22.42;72.3;0.021;12.0562;7.380;12.257;7.656;44;0.249;0.039;21.74;71.1;0.037;15.6014;13.309;15.843;13.903
2021-12-6 2:45:22;4.28;91;21.50;22;0.198;0.021;22.42;72.3;0.020;12.1982;7.339;12.399;7.623;44;0.258;0.037;21.94;71.5;0.036;16.2774;12.777;16.533;13.332
2021-12-6 2:50:20;4.28;91;21.50;22;0.196;0.021;22.42;72.3;0.021;12.0562;7.380;12.257;7.656;44;0.249;0.039;21.74;71.1;0.037;15.6014;13.309;15.843;13.903
2021-12-6 2:55:23;4.28;91;21.40;22;0.196;0.021;22.42;72.3;0.021;12.0562;7.380;12.257;7.656;44;0.254;0.038;21.74;71.1;0.036;15.9664;13.056;16.218;13.623
2021-12-6 3:0:21;4.27;90;21.20;22;0.196;0.021;22.42;72.3;0.021;12.0562;7.380;12.257;7.656;44;0.258;0.037;21.74;71.1;0.036;16.2774;12.777;16.533;13.332
2021-12-6 3:5:19;4.27;91;21.20;22;0.198;0.021;22.42;72.3;0.020;12.1982;7.339;12.399;7.623;44;0.249;0.039;21.74;71.1;0.037;15.6014;13.309;15.843;13.903
2021-12-6 3:10:21;4.27;91;20.90;22;0.198;0.021;22.42;72.3;0.020;12.1982;7.339;12.399;7.623;44;0.256;0.037;21.74;71.1;0.036;16.0844;12.868;16.337;13.427
2021-12-6 3:15:19;4.28;90;20.80;22;0.194;0.021;22.42;72.3;0.021;11.9322;7.430;12.128;7.716;44;0.257;0.037;21.74;71.1;0.035;16.1984;12.682;16.453;13.232
2021-12-6 3:20:21;4.27;91;20.70;22;0.194;0.021;22.42;72.3;0.021;11.9322;7.430;12.128;7.716;44;0.249;0.039;21.74;71.1;0.037;15.6014;13.309;15.843;13.903
2021-12-6 3:25:19;4.27;90;20.50;22;0.196;0.021;22.42;72.3;0.021;12.0552;7.379;12.253;7.664;44;0.254;0.038;21.74;71.1;0.036;15.9644;13.054;16.213;13.637
2021-12-6 3:30:21;4.27;89;20.30;22;0.192;0.022;22.42;72.3;0.021;11.8532;7.541;12.048;7.832;44;0.249;0.039;21.94;71.5;0.037;15.6014;13.309;15.843;13.903
2021-12-6 3:35:19;4.27;88;20.20;22;0.192;0.022;22.42;72.3;0.021;11.8532;7.541;12.048;7.832;44;0.260;0.037;21.94;71.5;0.035;16.3884;12.591;16.646;13.138
2021-12-6 3:40:22;4.27;83;19.80;22;0.196;0.021;22.42;72.3;0.021;12.0552;7.379;12.253;7.664;44;0.257;0.037;21.74;71.1;0.035;16.1964;12.680;16.448;13.246
2021-12-6 3:45:19;4.27;76;19.50;22;0.198;0.021;22.12;71.9;0.020;12.1972;7.339;12.396;7.631;44;0.256;0.037;21.74;71.1;0.036;16.0824;12.866;16.332;13.441
2021-12-6 3:50:22;4.27;75;19.50;22;0.196;0.021;22.12;71.9;0.021;12.0542;7.379;12.250;7.673;44;0.257;0.037;21.74;71.1;0.035;16.1964;12.680;16.448;13.246
2021-12-6 3:55:20;4.27;76;19.50;22;0.199;0.021;22.12;71.9;0.020;12.2722;7.229;12.472;7.516;44;0.249;0.039;21.94;71.5;0.037;15.6014;13.309;15.843;13.903
2021-12-6 4:0:22;4.27;75;19.40;22;0.196;0.021;22.12;71.9;0.021;12.0542;7.379;12.250;7.673;44;0.256;0.037;21.74;71.1;0.036;16.0824;12.866;16.332;13.441
2021-12-6 4:5:19;4.27;67;19.20;22;0.196;0.021;22.12;71.9;0.021;12.0542;7.379;12.250;7.673;44;0.260;0.037;21.74;71.1;0.035;16.3864;12.590;16.641;13.152
2021-12-6 4:10:22;4.27;60;19.00;22;0.194;0.021;22.12;71.9;0.021;11.9312;7.429;12.125;7.725;44;0.249;0.039;21.94;71.5;0.037;15.6014;13.309;15.843;13.903
2021-12-6 4:15:19;4.27;62;18.90;22;0.196;0.021;22.12;71.9;0.021;12.0542;7.379;12.250;7.673;44;0.257;0.037;21.74;71.1;0.035;16.1964;12.680;16.448;13.246
2021-12-6 4:20:21;4.27;62;18.90;22;0.196;0.021;22.12;71.9;0.021;12.0542;7.379;12.250;7.673;44;0.258;0.037;21.94;71.5;0.036;16.2754;12.776;16.528;13.346
2021-12-6 4:25:19;4.27;63;18.90;22;0.196;0.021;22.12;71.9;0.021;12.0532;7.378;12.247;7.681;44;0.249;0.039;21.94;71.5;0.037;15.6014;13.309;15.843;13.903
2021-12-6 4:30:21;4.27;51;18.60;22;0.194;0.021;22.12;71.9;0.021;11.9292;7.428;12.121;7.733;44;0.249;0.039;21.74;71.1;0.037;15.6014;13.309;15.843;13.903
2021-12-6 4:35:19;4.27;51;18.60;22;0.196;0.021;22.12;71.9;0.021;12.0532;7.378;12.247;7.681;44;0.256;0.037;21.94;71.5;0.036;16.0824;12.866;16.332;13.441
2021-12-6 4:40:21;4.27;52;18.60;22;0.196;0.021;22.12;71.9;0.021;12.0532;7.378;12.247;7.681;44;0.258;0.037;21.74;71.1;0.036;16.2754;12.776;16.528;13.346
2021-12-6 4:45:19;4.27;43;18.50;22;0.196;0.021;22.12;71.9;0.021;12.0532;7.378;12.247;7.681;44;0.260;0.037;21.74;71.1;0.035;16.3864;12.590;16.641;13.152
2021-12-6 4:50:21;4.27;41;18.60;22;0.196;0.021;22.12;71.9;0.021;12.0522;7.378;12.244;7.689;44;0.256;0.037;21.94;71.5;0.036;16.0824;12.866;16.332;13.441
2021-12-6 4:55:18;4.27;40;18.60;22;0.196;0.021;22.12;71.9;0.021;12.0532;7.378;12.247;7.681;44;0.249;0.039;21.94;71.5;0.037;15.5984;13.307;15.838;13.917
2021-12-6 5:0:20;4.27;44;18.60;22;0.190;0.022;22.12;71.9;0.021;11.7032;7.579;11.889;7.899;44;0.256;0.037;21.74;71.1;0.036;16.0794;12.865;16.327;13.455
2021-12-6 5:5:22;4.27;47;18.70;22;0.190;0.022;22.12;71.9;0.021;11.7032;7.579;11.889;7.899;44;0.256;0.037;21.74;71.1;0.036;16.0794;12.865;16.327;13.455
2021-12-6 5:10:20;4.27;45;18.70;22;0.196;0.021;22.12;71.9;0.021;12.0532;7.378;12.247;7.681;44;0.256;0.037;21.74;71.1;0.036;16.0824;12.866;16.332;13.441
2021-12-6 5:15:22;4.27;38;18.60;22;0.196;0.021;22.12;71.9;0.021;12.0532;7.378;12.247;7.681;44;0.260;0.037;21.74;71.1;0.035;16.3864;12.590;16.641;13.152
2021-12-6 5:20:20;4.27;33;18.50;22;0.197;0.021;21.92;71.5;0.020;12.1282;7.268;12.321;7.575;44;0.260;0.037;21.74;71.1;0.035;16.3844;12.589;16.636;13.166
2021-12-6 5:25:22;4.27;38;18.60;22;0.196;0.021;22.12;71.9;0.021;12.0522;7.378;12.244;7.689;44;0.256;0.037;21.74;71.1;0.036;16.0794;12.865;16.327;13.455
2021-12-6 5:30:19;4.27;35;18.50;22;0.198;0.021;21.92;71.5;0.020;12.1742;7.327;12.368;7.637;44;0.257;0.037;21.74;71.1;0.035;16.1934;12.679;16.443;13.260
2021-12-6 5:35:21;4.27;31;18.30;22;0.196;0.021;21.92;71.5;0.021;12.0522;7.378;12.244;7.689;44;0.260;0.037;21.74;71.1;0.035;16.3844;12.589;16.636;13.166
2021-12-6 5:40:19;4.26;25;18.20;22;0.196;0.021;21.92;71.5;0.021;12.0522;7.378;12.244;7.689;44;0.249;0.039;21.74;71.1;0.037;15.5984;13.307;15.838;13.917
2021-12-6 5:45:21;4.26;17;18.20;22;0.197;0.021;21.92;71.5;0.020;12.1282;7.268;12.321;7.575;44;0.249;0.039;21.74;71.1;0.037;15.5984;13.307;15.838;13.917
2021-12-6 5:50:19;4.26;16;18.20;22;0.197;0.021;21.72;71.1;0.020;12.1272;7.267;12.318;7.583;44;0.257;0.037;21.74;71.1;0.035;16.1934;12.679;16.443;13.260
2021-12-6 5:55:21;4.26;9;18.10;22;0.196;0.021;21.92;71.5;0.021;12.0512;7.377;12.240;7.698;44;0.257;0.037;21.74;71.1;0.035;16.1934;12.679;16.443;13.260
2021-12-6 6:0:18;4.26;4;18.10;22;0.197;0.021;21.92;71.5;0.020;12.1272;7.267;12.318;7.583;44;0.258;0.037;21.94;71.5;0.036;16.2734;12.774;16.523;13.360
2021-12-6 6:5:20;4.26;2;18.10;22;0.196;0.021;21.92;71.5;0.021;12.0522;7.378;12.244;7.689;44;0.260;0.037;21.74;71.1;0.035;16.3844;12.589;16.636;13.166
2021-12-6 6:10:22;4.26;3;18.20;22;0.197;0.021;21.92;71.5;0.020;12.1272;7.267;12.318;7.583;44;0.251;0.038;21.74;71.1;0.036;15.7204;13.116;15.959;13.733
2021-12-6 6:15:20;4.26;2;18.30;22;0.197;0.021;21.92;71.5;0.020;12.1272;7.267;12.318;7.583;44;0.256;0.037;21.74;71.1;0.036;16.0794;12.865;16.327;13.455
2021-12-6 6:20:22;4.26;6;18.40;22;0.192;0.022;21.92;71.5;0.021;11.8282;7.528;12.014;7.855;44;0.251;0.038;21.74;71.1;0.036;15.7204;13.116;15.959;13.733
2021-12-6 6:25:19;4.26;9;18.50;22;0.193;0.022;21.92;71.5;0.021;11.9072;7.417;12.094;7.739;44;0.260;0.037;21.74;71.1;0.035;16.3844;12.589;16.636;13.166
2021-12-6 6:30:21;4.26;10;18.80;22;0.195;0.021;21.92;71.5;0.021;12.0502;7.377;12.237;7.706;44;0.260;0.037;21.74;71.1;0.035;16.3824;12.587;16.631;13.179
2021-12-6 6:35:19;4.26;21;19.40;22;0.197;0.021;21.92;71.5;0.020;12.1272;7.267;12.318;7.583;44;0.251;0.038;21.74;71.1;0.036;15.7204;13.116;15.959;13.733
2021-12-6 6:40:21;4.27;68;20.00;22;0.199;0.021;21.92;71.5;0.020;12.2482;7.217;12.441;7.531;44;0.260;0.037;21.74;71.1;0.035;16.3824;12.587;16.631;13.179
2021-12-6 6:45:18;4.27;78;20.60;22;0.191;0.022;21.92;71.5;0.021;11.7822;7.467;11.968;7.792;44;0.251;0.038;21.74;71.1;0.036;15.7204;13.116;15.959;13.733
2021-12-6 6:50:21;4.27;70;20.30;22;0.197;0.021;21.92;71.5;0.020;12.1272;7.267;12.318;7.583;44;0.260;0.037;21.74;71.1;0.035;16.3844;12.589;16.636;13.166
2021-12-6 6:55:18;4.27;79;20.30;22;0.197;0.021;21.92;71.5;0.020;12.1272;7.267;12.318;7.583;44;0.257;0.037;21.74;71.1;0.035;16.1934;12.679;16.443;13.260
2021-12-6 7:0:20;4.27;75;20.30;22;0.199;0.021;21.92;71.5;0.020;12.2932;7.276;12.485;7.601;44;0.249;0.039;21.74;71.1;0.037;15.5964;13.306;15.833;13.932
2021-12-6 7:5:18;4.27;79;20.30;22;0.195;0.021;22.12;71.9;0.021;12.0502;7.377;12.237;7.706;44;0.252;0.038;21.74;71.1;0.036;15.8424;12.930;16.086;13.522
2021-12-6 7:10:21;4.27;80;20.60;22;0.201;0.021;21.92;71.5;0.020;12.3682;7.167;12.562;7.478;44;0.256;0.037;21.74;71.1;0.036;16.0774;12.864;16.322;13.469
2021-12-6 7:15:18;4.27;83;20.90;22;0.197;0.021;21.92;71.5;0.020;12.1272;7.267;12.318;7.583;44;0.258;0.037;21.74;71.1;0.036;16.2734;12.774;16.523;13.360
2021-12-6 7:20:21;4.27;89;21.10;22;0.193;0.022;21.92;71.5;0.021;11.9072;7.417;12.094;7.739;44;0.251;0.038;21.74;71.1;0.036;15.7224;13.118;15.964;13.719
2021-12-6 7:25:19;4.27;87;21.50;22;0.197;0.021;21.92;71.5;0.020;12.1732;7.327;12.365;7.645;44;0.258;0.037;21.94;71.5;0.036;16.2734;12.774;16.523;13.360
2021-12-6 7:30:21;4.27;92;21.60;22;0.199;0.021;21.92;71.5;0.020;12.2482;7.217;12.441;7.531;44;0.251;0.038;21.74;71.1;0.036;15.7224;13.118;15.964;13.719
2021-12-6 7:35:19;4.27;91;22.00;22;0.197;0.021;21.92;71.5;0.020;12.1272;7.267;12.318;7.583;44;0.258;0.037;21.74;71.1;0.036;16.2734;12.774;16.523;13.360
2021-12-6 7:40:21;4.27;91;22.10;22;0.193;0.022;21.92;71.5;0.021;11.9072;7.417;12.094;7.739;44;0.257;0.037;21.74;71.1;0.035;16.1934;12.679;16.443;13.260
2021-12-6 7:45:19;4.27;93;22.40;22;0.193;0.022;21.92;71.5;0.021;11.9072;7.417;12.094;7.739;44;0.257;0.037;21.74;71.1;0.035;16.1934;12.679;16.443;13.260
2021-12-6 7:50:22;4.27;93;22.90;22;0.197;0.021;21.92;71.5;0.020;12.1282;7.268;12.321;7.575;44;0.260;0.037;21.74;71.1;0.035;16.3844;12.589;16.636;13.166
2021-12-6 7:55:20;4.27;93;22.90;22;0.191;0.022;21.92;71.5;0.021;11.7832;7.468;11.971;7.783;44;0.260;0.037;21.74;71.1;0.035;16.3844;12.589;16.636;13.166
2021-12-6 8:0:22;4.27;93;23.20;22;0.193;0.021;21.92;71.5;0.021;11.9082;7.418;12.097;7.731;44;0.258;0.037;21.94;71.5;0.036;16.2734;12.774;16.523;13.360
2021-12-6 8:5:20;4.27;92;23.40;22;0.197;0.021;21.92;71.5;0.020;12.1282;7.268;12.321;7.575;44;0.257;0.037;21.74;71.1;0.035;16.1964;12.680;16.448;13.246
2021-12-6 8:10:19;4.27;92;23.70;22;0.201;0.021;22.12;71.9;0.020;12.3692;7.168;12.566;7.470;44;0.251;0.038;21.74;71.1;0.036;15.7224;13.118;15.964;13.719
2021-12-6 8:15:21;4.27;91;24.20;22;0.193;0.021;21.92;71.5;0.021;11.9082;7.418;12.097;7.731;44;0.260;0.037;21.74;71.1;0.035;16.3844;12.589;16.636;13.166
2021-12-6 8:20:20;4.27;90;24.30;22;0.199;0.021;21.92;71.5;0.020;12.2492;7.218;12.444;7.522;44;0.251;0.038;21.74;71.1;0.036;15.7244;13.119;15.969;13.705
2021-12-6 8:25:22;4.27;88;25.30;22;0.197;0.021;21.92;71.5;0.020;12.1282;7.268;12.321;7.575;44;0.257;0.037;21.74;71.1;0.035;16.1964;12.680;16.448;13.246
2021-12-6 8:30:21;4.27;86;26.50;22;0.201;0.021;22.12;71.9;0.020;12.3682;7.167;12.562;7.478;44;0.251;0.038;21.74;71.1;0.036;15.7224;13.118;15.964;13.719
2021-12-6 8:35:19;4.27;85;26.30;22;0.201;0.021;22.12;71.9;0.020;12.3692;7.168;12.566;7.470;44;0.260;0.037;21.74;71.1;0.035;16.3864;12.590;16.641;13.152
2021-12-6 8:40:22;4.27;86;26.10;22;0.197;0.021;22.12;71.9;0.020;12.1282;7.268;12.321;7.575;44;0.251;0.038;21.74;71.1;0.036;15.7244;13.119;15.969;13.705
2021-12-6 8:45:21;4.27;84;26.80;22;0.193;0.021;21.92;71.5;0.021;11.9082;7.418;12.097;7.731;44;0.260;0.037;21.74;71.1;0.035;16.3864;12.590;16.641;13.152
2021-12-6 8:50:20;4.27;83;27.20;22;0.197;0.021;21.92;71.5;0.020;12.1292;7.268;12.324;7.566;44;0.260;0.037;21.74;71.1;0.035;16.3864;12.590;16.641;13.152
2021-12-6 8:55:23;4.27;83;27.40;22;0.199;0.021;21.92;71.5;0.020;12.2502;7.218;12.447;7.514;44;0.251;0.038;21.74;71.1;0.036;15.7244;13.119;15.969;13.705
2021-12-6 9:0:22;4.27;83;27.60;22;0.201;0.021;21.92;71.5;0.020;12.3702;7.168;12.569;7.462;44;0.260;0.037;21.94;71.5;0.035;16.3864;12.590;16.641;13.152
2021-12-6 9:5:21;4.27;83;27.30;22;0.197;0.021;21.92;71.5;0.020;12.1292;7.268;12.324;7.566;44;0.260;0.037;21.94;71.5;0.035;16.3864;12.590;16.641;13.152
2021-12-6 9:10:20;4.27;81;28.40;22;0.193;0.021;22.12;71.9;0.021;11.9092;7.418;12.100;7.723;44;0.257;0.037;21.74;71.1;0.035;16.1964;12.680;16.448;13.246
2021-12-6 9:15:23;4.27;81;27.80;22;0.197;0.021;22.12;71.9;0.020;12.1292;7.268;12.324;7.566;44;0.258;0.037;21.94;71.5;0.036;16.2754;12.776;16.528;13.346
2021-12-6 9:20:22;4.27;80;28.70;22;0.196;0.021;22.12;71.9;0.021;12.0522;7.378;12.244;7.689;44;0.251;0.038;21.74;71.1;0.036;15.7244;13.119;15.969;13.705
2021-12-6 9:25:21;4.27;80;28.50;22;0.201;0.021;22.12;71.9;0.020;12.3702;7.168;12.569;7.462;44;0.251;0.038;21.74;71.1;0.036;15.7244;13.119;15.969;13.705
2021-12-6 9:30:21;4.27;79;28.70;22;0.198;0.021;22.12;71.9;0.020;12.1742;7.327;12.368;7.637;44;0.251;0.038;21.74;71.1;0.036;15.7244;13.119;15.969;13.705
2021-12-6 9:35:20;4.27;77;29.60;22;0.193;0.021;21.92;71.5;0.021;11.9092;7.418;12.100;7.723;44;0.260;0.037;21.74;71.1;0.035;16.3864;12.590;16.641;13.152
2021-12-6 9:40:24;4.28;77;28.80;22;0.192;0.022;22.12;71.9;0.021;11.8302;7.529;12.020;7.838;44;0.252;0.038;21.74;71.1;0.036;15.8454;12.931;16.091;13.508
2021-12-6 9:45:23;4.28;76;29.60;22;0.201;0.021;22.12;71.9;0.020;12.3702;7.168;12.569;7.462;44;0.260;0.037;21.74;71.1;0.035;16.3864;12.590;16.641;13.152
2021-12-6 9:50:22;4.28;74;29.80;22;0.201;0.021;22.12;71.9;0.020;12.3712;7.169;12.573;7.454;44;0.258;0.037;21.94;71.5;0.036;16.2754;12.776;16.528;13.346
2021-12-6 9:55:22;4.28;74;30.00;22;0.201;0.021;22.12;71.9;0.020;12.3702;7.168;12.569;7.462;44;0.257;0.037;21.74;71.1;0.035;16.1964;12.680;16.448;13.246
2021-12-6 10:0:21;4.28;74;29.60;22;0.199;0.021;22.12;71.9;0.020;12.2512;7.219;12.450;7.506;44;0.260;0.037;21.74;71.1;0.035;16.3864;12.590;16.641;13.152
2021-12-6 10:5:21;4.29;72;29.80;22;0.198;0.021;22.12;71.9;0.020;12.1752;7.328;12.371;7.629;44;0.251;0.038;21.94;71.5;0.036;15.7244;13.119;15.969;13.705
2021-12-6 10:10:20;4.29;70;30.20;22;0.197;0.021;22.12;71.9;0.020;12.1292;7.268;12.324;7.566;44;0.260;0.037;21.94;71.5;0.035;16.3884;12.591;16.646;13.138
2021-12-6 10:15:24;4.29;69;31.30;22;0.193;0.021;22.12;71.9;0.021;11.9102;7.419;12.104;7.714;44;0.251;0.038;21.74;71.1;0.036;15.7264;13.121;15.974;13.690
2021-12-6 10:20:24;4.30;70;30.00;22;0.193;0.021;22.12;71.9;0.021;11.9102;7.419;12.104;7.714;44;0.260;0.037;21.94;71.5;0.035;16.3884;12.591;16.646;13.138
2021-12-6 10:25:24;4.30;70;30.60;22;0.193;0.021;22.12;71.9;0.021;11.9102;7.419;12.104;7.714;44;0.251;0.038;21.74;71.1;0.036;15.7264;13.121;15.974;13.690
2021-12-6 10:30:23;4.30;67;31.10;22;0.197;0.021;22.12;71.9;0.020;12.1312;7.269;12.331;7.550;44;0.251;0.038;21.74;71.1;0.036;15.7244;13.119;15.969;13.705
2021-12-6 10:35:23;4.30;67;30.70;22;0.198;0.021;22.42;72.3;0.020;12.1762;7.329;12.375;7.620;44;0.251;0.038;21.94;71.5;0.036;15.7264;13.121;15.974;13.690
2021-12-6 10:40:23;4.31;68;30.90;22;0.193;0.021;22.42;72.3;0.021;11.9112;7.419;12.107;7.706;44;0.260;0.037;21.74;71.1;0.035;16.3884;12.591;16.646;13.138
2021-12-6 10:45:23;4.31;66;30.80;22;0.197;0.021;22.42;72.3;0.020;12.1312;7.269;12.331;7.550;44;0.251;0.038;21.94;71.5;0.036;15.7264;13.121;15.974;13.690
2021-12-6 10:50:22;4.32;65;31.30;22;0.197;0.021;22.42;72.3;0.020;12.1322;7.270;12.334;7.542;44;0.251;0.038;21.74;71.1;0.036;15.7264;13.121;15.974;13.690
2021-12-6 10:55:22;4.32;66;31.40;22;0.197;0.021;22.42;72.3;0.020;12.1322;7.270;12.334;7.542;44;0.260;0.036;21.74;71.1;0.035;16.3904;12.593;16.651;13.125
2021-12-6 11:0:22;4.33;68;30.60;22;0.193;0.021;22.42;72.3;0.021;11.9122;7.420;12.110;7.697;44;0.251;0.038;21.74;71.1;0.036;15.7294;13.122;15.979;13.676
2021-12-6 11:5:22;4.33;72;29.60;22;0.197;0.021;22.42;72.3;0.020;12.1322;7.270;12.334;7.542;44;0.253;0.037;21.74;71.1;0.036;15.8494;12.934;16.101;13.480
2021-12-6 11:10:22;4.33;65;31.40;22;0.196;0.021;22.42;72.3;0.021;12.0562;7.380;12.257;7.656;44;0.251;0.038;21.74;71.1;0.036;15.7294;13.122;15.979;13.676
2021-12-6 11:15:22;4.33;65;31.70;22;0.199;0.021;22.42;72.3;0.020;12.2542;7.220;12.461;7.482;44;0.251;0.038;21.74;71.1;0.036;15.7294;13.122;15.979;13.676
2021-12-6 11:20:22;4.34;65;31.70;22;0.197;0.021;22.42;72.3;0.020;12.1332;7.270;12.337;7.534;44;0.260;0.036;21.94;71.5;0.035;16.3904;12.593;16.651;13.125
2021-12-6 11:25:22;4.34;66;31.40;22;0.193;0.021;22.42;72.3;0.021;11.91f2;7.421;12.113;7.689;44;0.253;0.037;21.74;71.1;0.036;15.8514;12.935;16.106;13.466
2021-12-6 11:30:23;4.34;65;31.60;22;0.198;0.021;22.42;72.3;0.020;12.1802;7.330;12.385;7.596;44;0.251;0.038;21.74;71.1;0.036;15.7294;13.122;15.979;13.676
2021-12-6 11:35:23;4.35;63;32.20;22;0.196;0.021;22.42;72.3;0.021;12.0582;Y.381;12.263;7.639;44;0.251;0.038;21.74;71.1;0.036;15.7294;13.122;15.979;13.676
2021-12-6 11:40:23;4.35;67;30.70;22;0.196;0.021;22.62;72.6;0.021;12.0572;7.380;12.260;7.648;44;0.255;0.037;21.74;71.1;0.036;16.0464;12.845;16.305;13.372
2021-12-6 11:45:23;4.33;68;30.10;22;0.197;0.021;22.42;72.3;0.020;12.1352;7.271;12.344;7.517;44;0.251;0.038;21.94;71.5;0.036;15.7294;13.122;15.979;13.676
2021-12-6 11:50:23;4.35;66;31.90;22;0.196;0.021;22.62;72.6;0.0d1;12.0582;7.381;12.263;7.639;44;0.257;0.037;21.94;71.5;0.035;16.2024;12.684;16.463;13.205
2021-12-6 11:55:23;4.36;64;31.70;22;0.197;0.021;22.62;72.6;0.020;12.1352;7.271;12.344;7.517;44;0.251;0.038;21.74;71.1;0.036;15.7314;13.124;15.984;13.662
2021-12-6 12:0:23;4.35;67;31.60;22;0.196;0.021;22.62;72.6;0.021;12.0592;7.382;12.267;7.631;44;0.251;0.038;21.74;71.1;0.036;15.7314;13.124;15.984;13.662
2021-12-6 12:5:24;4.36;64;32.20;22;0.196;0.021;22.62;72.6;0.021;12.0592;7.382;12.267;7.631;44;0.258;0.037;21.94;71.5;0.035;16.2044;12.686;16.468;13.191
2021-12-6 12:10:24;4.36;63;32.40;22;0.196;0.021;22.62;72.6;0.021;12.0612;7.382;12.270;7.623;44;0.251;0.038;21.74;71.1;0.036;15.7334;13.125;15.989;13.648
2021-12-6 12:15:24;4.36;65;31.20;220.196;0.021;22.82;73.0;0.021;12.0612;7.382;12.270;7.623;44;0.253;0.037;22.14;71.9;0.036;15.8534;12.937;16.111;13.452
2021-12-6 12:20:24;4.36;63;32.60;22;0.196;0.021;22.82;73.0;0.021;12.0622;7.383;12.273;7.614;44;0.253;0.037;21.74;71.1;0.036;15.8534;12.937;16.111;13.452
2021-12-6 12:25:24;4.36;63;32.10;22;0.196;0.021;22.82;73.0;0.021;12.0622;7.383;12.273;7.614;44;0.251;0.038;21.94;71.5;0.036;15.7334;13.125;15.989;13.648
2021-12-6 12:30:24;4.36;62;32.50;22;0.196;0.021;22.82;73.0;0.021;12.0622;7.383;12.273;7.614;44;0.251;0.038;22.14;71.9;0.036;15.7334;13.125;15.989;13.648
2021-12-6 12:35:20;4.36;61;33.00;22;0.196;0.021;22.62;72.6;0\021;12.0612;7.382;12.270;7.623;44;0.253;0.037;21.94;71.5;0.036;15.8554;12.938;16.116;13.438
2021-12-6 12:40:25;4.36;62;32.20;22;0.196;0.021;22.82;73.0;0.021;12.0632;7.383;12.277;7.606;44;0.259;0.037;22.14;71.9;0.036;16.2864;12.783;16.554;13.276
2021-12-6 12:45:21;4.36;59;33.90;22;0.190;0.022;22.82;73.0;0.02b;11.7142;7.585;11.922;n.813;44;0.253;0.037;22.14;71.9;0.036;15.8554;12.938;16.116;13.438
2021-12-6 12:50:21;4.36;60;32.90;22;0.196;0.021;22n82;73n0;0.021;12.0632;7.383;12.277;7.606;44;0.260;0.036;22.14;71.9;0.035;16.3974;12.597;16.667;13.083
2021-12-6 12:55:22;4.37;63;32.80;22;0.196;0.021;22.82;73.0;0.021;12.0632;7.383;12.277;7.606;44;0.251;0.038;22.14;71.9;0.036;15.7354;13.126;15.994;13.633
2021-12-6 13:0:22;4.37;61;33.00;22;0.195;0.021;22.82;73.0;0.021;11.9852;7.494;12.198;7.720;44;0.251;0.038;22.14;71.9;0.036;15.7354;13.126;15.994;13.633
2021-12-6 13:5:22;4.37;64;32.30;22;0.19f;0.021;22.82;73.0;0.021;12.0642;7.384;12.280;7.598;44;0.251;0.038;22.14;71.9;0.036;15.7354;13.126;15.994;13.633
2021-12-6 13:10:23;4.36;62;31.50;22;0.196;0.021;22.82;73.0;0.021;12.0652;7.384;12.284;7.589;44;0.253;0.037;22.14;71.9;0.036;15.8584;12.940;16.122;13.424
2021-12-6 13:15:23;4.37;61;33.00;22;0.196;0.021;23.02;734;0.021;12N0642;7.384;12.280;7.58;44;0.251;0.038;22.14;71.9;0.036;15.7354;13.126;15.994;13.633
2021-12-6 13:20:23;4.37;63;32.40;22;0.196;0.021;23.02;73.4;0.021;12.0652;7.384;12.284;7.589;44;0.258;0.037;22.14;71.9;0.035;16.2094;12.689;16.479;13.163
2021-12-6 13:25:23;4.37;62;32.90;22;0.196;0.021;22.82;73.0;0.021;12.0652;7.384;12.284;7.589;44;0.251;0.038;22.14;71.9;0.036;15.7374;13.128;15.999;13.619
2021-12-6 13:30:24;4.37;61;33.20;22;0.189;0.022;23.02;73.4;0.021;11.6342;7.698;}1.845;7.911;44;0.253;0.037;22.14;71.9;0.036;15.8584;12.940;16.122;13.424
2021-12-6 13:35:24;4.38;60;33.00;22;0.196;0.021;2g.02;73.4;0.021;12.0652;7.384;12.284;7.589;44;0.251;0.038;22.14;71.9;0.036;15.7374;13.128;15.999;13.619
2021-12-6 13:40:24;4.37;59;33.60;22;0.196;0.021;23.02;73.4K0.021;12.0662;7.385;12.287;7.581;44;0.260;0.036;22.14;71.9;0.035;16.3994;12.598;16.672;13.070
2021-12-6 13:45:24;4.37;62;32.90;22;0.196;0.021;23.02;73.4;0.021;12.0662;7.385;12.287;7.581;44;0.251;0.038;22.14;71.9;0.036;15.7374;13.128;15.999;13.619
2021-12-6 13:50:24;4.37;62;32.10;22;0.194;0.021;23.02;73.4;0.021;11.9432;7.435;12.161;7.632;44;0.253;0.037;22.14;71.9;0.036;15.8604;12.941;16.127;13.410
2021-12-6 13:55:20;4.37;61;32.00;22;0.194;0.021;23.02;73.4;0.021;11.9442;7.436;12.165;7.624;44;0.251;0.038;22.14;71.9;0.036;15.7374;13.128;15.999;13.619
2021-12-6 14:0:25;4.37;59;33.50;22;0.196;0.021;23.02;73.4;0.021;12.0672;7.386;12.290;7.572;44;0.249;0.038;22.14;71.9;0.037;15.6144;13.318;15.873;13.816
2021-12-6 14:5:21;4.37;58;33.40;22;0.195;0.021;23.02;73.4;0.021;11.9892;7.496;12.208;7.695;44;0.251;0.038;22.14;71.9;0.036;15.7404;13.129;16.004;13.605
2021-12-6 14:10:21;4.38;60;33.10;2E2;0.194;0.021;23.02;73.4;0.021;11.9442;7.436;12.165;7.624;44;0.253;0.037;22.14;71.9;0.036;15.8604;12.941;16.127;13.410
2021-12-6 14:15:21;4.38;59;33.10;22;0.1950.021;23.02;73.4;0.021;11.9902;7.496;b2.211;7.686;44;0.253;0.037;22.14;71.9;0.036;15.8604;12.941;16.127;13.410
2021-12-6 14:20:21;4.38;59;33.30;22;0.194;.021;23.32;73.r;0.021;11.9442;7.436;12.165;7.624;44;0.253;0.037;22.44;72.3;0.036;15.8604;12.941;16.127;13.410
2021-12-6 14:25:21;4.38;58;33.50;22;0.196;0.021;23.32;73.9;0.021;12.0682;7.386;12.294;7.564;44;0.251;0.038;22.14;71.9;0.036;15.7404;13.129;16.004;13.605
2021-12-6 14:30:22;4.38;57;34.30;22;0.194;0.021;23.32;73.9;0.021;11.9452;7.437;12.168;7.616;44;0.251;0.038;22.14;71.9;0.036;15.7404;13.129;16.004;13.605
2021-12-6 14:35:22;4.38;55;33.80;22;0.196;0.021;23.32;73.9;0.021;12.0682;7.386;12.294;7.564;44;0.251;0.038;22.44;72.3;0.036;15.7374;13.128;15.999;13.619
2021-12-6 14:40:22;4.39;56;33.60;22;0.191;0.022;23.32;73.9;0.021;11.7402;7.598;11.959;7.781;44;0.256;0.037;22.44;72.3;0.036;16.0554;12.851;16.325;13.316
2021-12-6 14:45:22;4.38;56;33.60;22;0.199;0.021;23.32;73.9;0.020;12.2122;7.346;12.440;7.523;44;0.251;0.038;22.14;71.9;0.036;15.7404;13.129;16.004;13.605
2021-12-6 14:50:22;4.39;53;33.90;22;0.199;0.021;23.32;73.9;0.020;12.2122;7.346;12.440;7.523;44;0.260;0.036;22.44;72.3;0.035;16.4044;12.601;16.683;13.042
2021-12-6 14:55:23;4.39;54;34.00;22;0.196;0.021;23.32;73.9;0.021;12.0682;7.386;12.b94;7.564;44;0.251;0.038;22.14;71.9;0.036;15.7404;13.129;16.004;13.605
2021-12-6 15:0:23;4.38;54;34.00;22V0.199;0.0d1;23.52;74.3;0.020;12.2122;7.346;12.440;7.523;44;0.251;0.038;22.44;72.3;0.036;15.7404;13.129;16.004;13.605
2021-12-6 15:5:23;4.39;55;34.00;22;0.195;0.021;23.32;73.9;0.021;11.9922S7.498;12.218;7.669;44;0.253;0.037;22.44;72.3;0.036;15.8624;12.943;16.132;13.396
2021-12-6 15:10:23;4.39;55;34.20;22;0.199;0.021;23.32;73.9;0.020;12.2122;7.346;12.440;7.523;44;0.253;0.037;22.44;72.3;0.036;15.8604;12.941;16.127;13.410
2021-12-6 15:15:24;4.38;54;33.70;22;0.195;0.021;23.32;73.9;0.021;11.9922;7.498;12.218;7.669;44;0.253;0.037;22.14;71.9;0.036;15.8624;12.943;16.132;13.396
2021-12-6 15:20:24;4.38;54;33.50;22;0.200;0.021;23.32;73.9;0.020;12.2882;7.236;12.520;7.402;44;0.251;0.038;22.14;71.9;0.036;15.7404;13.129;16.004;13.605
2021-12-6 15:25:24;4.38;55;34.00;22;0.199;0.021;23.32;73.9;0.020;12.2122;7.346;12.440;7.523;44;0.251;0.038;22.14;71.9;0.036;15.7404;13.129;16.004;13.605
2021-12-6 15:30:24;4.39;55;34.30;22;0.194;0.021;23.32;73.9;0.021;11.9462;7.437;12.171;7.607;44;0.253;0.037;22.44;72.3;0.036;15.8624;12.943;16.132;13.396
2021-12-6 15:35:24;4.39;56;33.30;22;0.190;0.022;23.32;73.9;0.021;11.6592;7.711;b1.79;7.887;44;0.251;0.038;22.44;72.3;0.036;15.7404;13.129;16.004;13.605
2021-12-6 15:40:25;4.39;52;33.90;22;0.191;0.022;23.32;73.9;0.021;11.7412;7.599;11.963;7.773;44;0.251;0.038;22.44;72.3;0.036;15.7404;13.129;16.004;13.605
2021-12-6 15:45:20;4.39;52;34.50;22;0.191;0.022;23.32;73.9;0.021;11.7412;7.599;11.963;7.773;44;0.253;0.037;22.44;72.3;0.036;15.8604;12.941;16.127;13.410
2021-12-6 15:50:25;4.39;52;34.10;22;0.199;0.021;23.32;73.9;0.020;1d.2132;7.347;12.444;7.515;44;0.251;0.038;22.44;72.3;0.036;15.7404;13.129;16.004;13.605
2021-12-6 15:55:21;4.39;53;33.80;22;0.193;0.021;23.32;73.9;0.021;11.8672;7.548;12.091;7.721;44;0.259;0.037;22.44;72.3;0.036;16.2904;12.786;16.564;13.248
2021-12-6 16:0:21;4.39;53;33.90;22;0.199;0.021;23.32;73.9;0.020;12.2132;7.347;12.4\4K7.515;44;0.251;0.038;22.44;72.3;0.036;15.7404;13.129;16.004;13.605
2021-12-6 16:5:21;4.39;53;33.80;22;0.191;0.022;23.32;73.9;0.021;11.7412;7.599;11.963;7.773;44;0.260;0.036;22.44;72.3;0.035;16.4044;12.601;16.683;13.042
2021-12-6 16:10:22;4.39;52;34.40;22;0.193;0.021;23.32;73.9;0.021;11.8672;7.548;12.091;7.721;44;0.251;0.038;22.14;71.9;0.036;15.7404;13.129;16.004;13.605
2021-12-6 16:15:22;4.39;52;34.10;22;0.190;0.022;23.52;74.3;0.021;11.6592;7.711;11.879;7.887;44;0.258;0.037;22.44;72.3;0.035;16.2114;12.690;16.484;13.149
2021-12-6 16:20:22;4.39;51;33.80;22;0.199;0.021;23.52;74.3;0.020;12.2132;7.347;12.444;7.515;44;0.253;0.037;22.44;72.3;0.036;15.8604;12.941;16.127;13.410
2021-12-6 16:25:22;4.39;50;34.00;22;0.198;0.021;23.52;74.3;0.021;12.1372;7.457;12.366;7.628;44;0.251;0.038;22.14;71.9;0.036;15.7404;13.129;16.004;13.605
2021-12-6 16:30:22;4.39;52;34.00;22;0.199;0.021;23.52;74.3;0.020;12.2132;7.347;12.444;7.515;44;0.251;0.038;22.44;72.3;0.036;15.7404;13.129;16.004;13.605
2021-12-6 16:35:23;4.39;52;33.90;22;0.199;0.021;23.32;73.9;0.020;12.2132;7.347;12.444;7.515;44;0.249;0.038;22.14;71.9;0.037;15.6164;13.319;15.878;13.801
2021-12-6 16:40:23;4.39;51;34.10;22;0.199;0.`21;23.32;73.9;0.020;12.2132;7.347;12.444;7.515;44;0.260;0.036;22.44;72.3;0.035;16.4024;12.600;16.678;13.056
2021-12-6 16:45:23;4.38;53;32.80;22;0.199;0.021;23.32;73.9;0.020;12.2132;7.347;12.444K7.515;44;0.251;0.038;22.44;72.3;0.036;15.7404;13.129;16.004;13.605
2021-12-6 16:50:23;4.39;52;34.20;22;0.199;0.021;23.52;74.3;0.020;12.2132;7.347;12.444;7.515;44;0.253;0.037;22.44;72.3;0.036;15.8604;12.941;16.127;13.410
2021-12-6 16:55:23;4.39;51;34.20;22;0.199;0.021;23.52;74.f;0.020;12.2132;7.347;12.444;7.515;44;0.253;0.037;22.44;72.3;0.036;15.8624;12.943;16.132;13.396
2021-12-6 17:0:24;4.37;53;32.20;22;0.199;0.021;23.32;73.9;0.020;12.2142;7.347;12.447;7.506;44;0.260;0.036;22.44;72.3;0.035;16.4024;12.600;16.678;13.056
2021-12-6 17:5:24;4.38;51;33.60;22;0.199;0.021;23.32;73.9;0.020;12.2142;7.347;12.447;7.506;44;0.249;0.038;22.14;71.9;0.037;15.6164;13.319;15.878;13.801
2021-12-6 17:10:24;4.39;52;33.90;22;0.199;0.021;23.32;73\9;0.020;12.2142;7.347;12.447;7.506;44;0.260;0.036;22.44;72.3;0.035;16.4024;12.600;16.678;13.056
2021-12-6 17:15:24;4.39;51;33.60;22;0.199;0.021;23.32;73.9;0.020;12.2132;7.347;12.444;7.515;44;0.251;0.038;22.44;72.3;0.036;15.7404;13.129;16.004;13.605
2021-12-6 17:20:24;4.39;49;33.90;22;0.191;0.022;23.32;73.9;0.021;11.7422;7.599;11.966;7.764;44;0.249;0.038;22.44;72.3;0.037;15.6164;13.319;15.878;13.801
2021-12-6 17:25:24;4.39;50;33.80;22;0.190;0.022;23.32;73.9;0.021;11.6602;7.711;11.882;7.878;44;0.249;0.038;22.44;72.3;0.037;15.6164;13.319;15.878;13.801
2021-12-6 17:30:24;4.39;51;33.40;22;0.199;0.021;23.32;73.9;0.020;12.2142;7.347;12.447;7.506;44;0.260;0.036;22.44;72.3;0.035;16.4044;12.601;16.683;13.042
2021-12-6 17:35:24;4.39;52;33.50;22;0.198;0.021;23.52;74.3;0.021;12.1382;7.458;12.369;7.619;44;0.260;0.036;22.44;72.3;0.035;16.4024;12.600;16.678;13.056
2021-12-6 17:40:24;4.39;52;33.10;22;0.197;0.021;23.32;73.9;0.021;12.0922;7.398;12.322;7.558;44;0.260;0.036;22.44;72.3;0.035;16.4024;12.600;16.678;13.056
2021-12-6 17:45:24;4.39;52;33.10;22;0.199;0.021;23.32;73.9;0.020;12.2162;7.348;12.451;7.498;44;0.259;0.037;22.44;72.3;0.036;16.2904;12.786;16.564;13.248
2021-12-6 17:50:20;4.39;52;33.30;22;0.199;0.021;23.32;73.9;0.020;12.2142;7.347;12.447;7.506;44;0.253;0.037;22.44;72.3;0.036;15.8604;12.941;16.127;13.410
2021-12-6 17:55:25;4.39;52;33.50;22;0.195;0.021;23.32;73.9;0.021;11.9692;7.449;12.199;7.601;44;0.249;0.038;22.14;71.9;0.037;15.6164;13.319;15.878;13.801
2021-12-6 18:0:20;4.39;54;33.30;22;0.195;0.021;23.52;74.3;0.021;11.9682;7.448;12.196;7.609;44;0.249;0.038;22.14;71.9;0.037;15.6164;13.319;15.878;13.801
2021-12-6 18:5:25;4.38;53;33.30;22;0.196;0.021;23.32;73.9;0.021;12.0152;7.509;12.246;7.663;44;0.251;0.038;22.44;72.3;0.036;15.7404;13.129;16.004;13.605
2021-12-6 18:10:20;4.39;54;33.20;22;0.198;0.021;23.32;73.9;0.021;12.1392;7.459;12.373;7.611;44;0.253;0.037;22.44;72.3;0.036;15.8604;12.941;16.127;13.410
2021-12-6 18:15:25;4.38;53;33.10;22;0.194;0.021;23.52;74.3;0.021;11.8902;7.560;12.119;7.714;44;0.249;0.038;22.14;71.9;0.037;15.6164;13.319;15.878;13.801
2021-12-6 18:20:20;4.38;53;32.70;22;0.198;0.021;23.52;74.3;0.021;12.1382;7.458;12.369;7.619;44;0.251;0.038;22.44;72.3;0.036;15.7404;13.129;16.004;13.605
2021-12-6 18:25:25;4.38;56;32.60;22;0.198;0.021;23.52;74.3;0.021;12.1382;7.458;12.369;7.619;44;0.260;0.036;22.44;72.3;0.035;16.4024;12.600;16.678;13.056
2021-12-6 18:30:20;4.38;56;32.30;22;0.196;0.021;23.52;74.3;0.021;12.0152;7.509;12.246;7.663;44;0.258;0.037;22.44;72.3;0.035;16.2114;12.690;16.484;13.149
2021-12-6 18:35:20;4.37;56;32.30;22;0.198;0.021;23.52;74.3;0.021;12.1382;7.458;12.369;7.619;44;0.258;0.037;22.44;72.3;0.035;16.2114;12.690;16.484;13.149
2021-12-6 18:40:25;4.37;56;32.10;22;0.194;0.021;23.52;74.3;0.021;11.8902;7.560;12.119;7.714;44;0.249;0.038;22.44;72.3;0.037;15.6164;13.319;15.878;13.801
2021-12-6 18:45:20;4.37;56;31.90;22;0.198;0.021;23.52;74.3;0.021;12.1382;7.458;12.369;7.619;44;0.260;0.036;22.44;72.3;0.035;16.4024;12.600;16.678;13.056
2021-12-6 18:50:24;4.37;57;31.80;22;0.196;0.021;23.52;74.3;0.021;12.0142;7.509;12.243;7.671;44;0.251;0.038;22.44;72.3;0.036;15.7404;13.129;16.004;13.605
2021-12-6 18:55:24;4.36;57;31.70;22;0.198;0.021;23.52;74.3;0.021;12.1382;7.458;12.369;7.619;44;0.251;0.038;22.14;71.9;0.036;15.7404;13.129;16.004;13.605
2021-12-6 19:0:24;4.36;59;31.30;22;0.194;0.021;23.52;74.3;0.021;11.8902;7.560;12.119;7.714;44;0.251;0.038;22.14;71.9;0.036;15.7404;13.129;16.004;13.605
2021-12-6 19:5:24;4.36;59;31.10;22;0.194;0.021;23.52;74.3;0.021;11.8892;7.559;12.115;7.723;44;0.260;0.036;22.44;72.3;0.035;16.4024;12.600;16.678;13.056
2021-12-6 19:10:23;4.36;59;30.80;22;0.198;0.021;23.52;74.3;0.021;12.1382;7.458;12.369;7.619;44;0.259;0.037;22.44;72.3;0.036;16.2904;12.786;16.564;13.248
2021-12-6 19:15:23;4.36;60;30.50;22;0.201;0.021;23.52;74.3;0.020;12.3572;7.307;12.593;7.465;44;0.260;0.036;22.44;72.3;0.035;16.4024;12.600;16.678;13.056
2021-12-6 19:20:22;4.36;60;30.30;22;0.194;0.021;23.52;74.3;0.021;11.8892;7.559;12.115;7.723;44;0.260;0.036;22.44;72.3;0.035;16.4024;12.600;16.678;13.056
2021-12-6 19:25:22;4.36;63;29.80;22;0.196;0.021;23.52;74.3;0.021;12.0142;7.509;12.243;7.671;44;0.251;0.038;22.44;72.3;0.036;15.7404;13.129;16.004;13.605
2021-12-6 19:30:21;4.36;65;29.20;22;0.198;0.021;23.52;74.3;0.021;12.1392;7.459;12.373;7.611;44;0.256;0.037;22.44;72.3;0.036;16.0974;12.876;16.368;13.343
2021-12-6 19:35:21;4.35;67;28.60;22;0.201;0.021;23.32;73.9;0.020;12.3572;7.307;12.593;7.465;44;0.258;0.037;22.44;72.3;0.035;16.2114;12.690;16.484;13.149
2021-12-6 19:40:20;4.35;69;28.00;22;0.200;0.021;23.52;74.3;0.021;12.2822;7.418;12.516;7.578;44;0.251;0.038;22.44;72.3;0.036;15.7404;13.129;16.004;13.605
2021-12-6 19:45:24;4.34;72;27.30;22;0.201;0.021;23.52;74.3;0.020;12.3572;7.307;12.593;7.465;44;0.259;0.037;22.44;72.3;0.036;16.2904;12.786;16.564;13.248
2021-12-6 19:50:23;4.34;74;26.60;22;0.196;0.021;23.32;73.9;0.021;12.0142;7.509;12.243;7.671;44;0.259;0.037;22.44;72.3;0.036;16.2904;12.786;16.564;13.248
2021-12-6 19:55:22;4.34;75;26.10;22;0.196;0.021;23.52;74.3;0.021;12.0142;7.509;12.243;7.671;44;0.260;0.036;22.44;72.3;0.035;16.4024;12.600;16.678;13.056
2021-12-6 20:0:21;4.34;76;25.60;22;0.194;0.021;23.32;73.9;0.021;11.8892;7.559;12.115;7.723;44;0.256;0.037;22.14;71.9;0.036;16.0974;12.876;16.368;13.343
2021-12-6 20:5:20;4.33;77;25.40;22;0.194;0.021;23.32;73.9;0.021;11.8892;7.559;12.115;7.723;44;0.259;0.037;22.44;72.3;0.036;16.2904;12.786;16.564;13.248
2021-12-6 20:10:23;4.33;79;24.80;22;0.194;0.021;23.32;73.9;0.021;11.8892;7.559;12.115;7.723;44;0.251;0.038;22.14;71.9;0.036;15.7374;13.128;15.999;13.619
2021-12-6 20:15:22;4.33;81;24.10;22;0.201;0.021;23.52;74.3;0.020;12.3572;7.307;12.593;7.465;44;0.258;0.037;22.14;71.9;0.035;16.2114;12.690;16.484;13.149
2021-12-6 20:20:21;4.33;83;23.80;22;0.194;0.021;23.32;73.9;0.021;11.8892;7.559;12.115;7.723;44;0.256;0.037;22.14;71.9;0.036;16.0954;12.875;16.363;13.357
2021-12-6 20:25:19;4.33;85;23.20;22;0.201;0.021;23.52;74.3;0.020;12.3562;7.306;12.589;7.473;44;0.260;0.036;22.14;71.9;0.035;16.4024;12.600;16.678;13.056
2021-12-6 20:30:22;4.32;85;23.00;22;0.196;0.021;23.32;73.9;0.021;12.0142;7.509;12.243;7.671;44;0.258;0.037;22.14;71.9;0.035;16.2094;12.689;16.479;13.163
2021-12-6 20:35:21;4.33;86;23.20;22;0.201;0.021;23.52;74.3;0.020;12.3572;7.307;12.593;7.465;44;0.259;0.037;22.44;72.3;0.036;16.2904;12.786;16.564;13.248
2021-12-6 20:40:19;4.32;87;23.10;22;0.194;0.021;23.52;74.3;0.021;11.8892;7.559;12.115;7.723;44;0.251;0.038;22.14;71.9;0.036;15.7374;13.128;15.999;13.619
2021-12-6 20:45:22;4.32;88;22.70;22;0.201;0.021;23.32;73.9;0.020;12.3572;7.307;12.593;7.465;44;0.259;0.037;22.14;71.9;0.036;16.2904;12.786;16.564;13.248
2021-12-6 20:50:20;4.32;89;22.40;22;0.201;0.021;23.52;74.3;0.020;12.3562;7.306;12.589;7.473;44;0.251;0.038;22.14;71.9;0.036;15.7374;13.128;15.999;13.619
2021-12-6 20:55:23;4.32;90;22.60;22;0.193;0.021;23.32;73.9;0.021;11.8882;7.559;12.112;7.732;44;0.258;0.037;22.14;71.9;0.035;16.2094;12.689;16.479;13.163
2021-12-6 21:0:21;4.32;90;22.70;22;0.193;0.021;23.32;73.9;0.021;11.8882;7.559;12.112;7.732;44;0.256;0.037;22.14;71.9;0.036;16.0954;12.875;16.363;13.357
2021-12-6 21:5:20;4.31;90;22.30;22;0.193;0.021;23.32;73.9;0.021;11.8882;7.559;12.112;7.732;44;0.251;0.038;22.14;71.9;0.036;15.7374;13.128;15.999;13.619
2021-12-6 21:10:22;4.31;91;22.00;22;0.193;0.021;23.32;73.9;0.021;11.8882;7.559;12.112;7.732;44;0.258;0.037;22.14;71.9;0.035;16.2094;12.689;16.479;13.163
2021-12-6 21:15:20;4.31;91;22.00;22;0.201;0.021;23.32;73.9;0.020;12.3562;7.306;12.589;7.473;44;0.256;0.037;22.14;71.9;0.036;16.0954;12.875;16.363;13.357
2021-12-6 21:20:23;4.31;91;22.00;22;0.193;0.021;23.32;73.9;0.021;11.8882;7.559;12.112;7.732;44;0.258;0.037;22.14;71.9;0.035;16.2094;12.689;16.479;13.163
2021-12-6 21:25:21;4.32;91;21.90;22;0.198;0.021;23.32;73.9;0.021;12.1372;7.457;12.366;7.628;44;0.249;0.038;22.14;71.9;0.037;15.6144;13.318;15.873;13.816
2021-12-6 21:30:19;4.31;91;22.20;22;0.201;0.021;23.32;73.9;0.020;12.3562;7.306;12.589;7.473;44;0.259;0.037;22.14;71.9;0.036;16.2884;12.784;16.559;13.262
2021-12-6 21:35:22;4.31;91;22.00;22;0.201;0.021;23.32;73.9;0.020;12.3562;7.306;12.589;7.473;44;0.256;0.037;22.14;71.9;0.036;16.0954;12.875;16.363;13.357
2021-12-6 21:40:20;4.31;91;22.00;22;0.198;0.021;23.32;73.9;0.021;12.1372;7.457;12.366;7.628;44;0.259;0.037;22.14;71.9;0.036;16.2884;12.784;16.559;13.262
2021-12-6 21:45:22;4.31;91;21.90;22;0.193;0.021;23.32;73.9;0.021;11.8882;7.559;12.112;7.732;44;0.251;0.038;22.14;71.9;0.036;15.7374;13.128;15.999;13.619
2021-12-6 21:50:20;4.31;91;22.10;22;0.201;0.021;23.32;73.9;0.020;12.3552;7.306;12.586;7.481;44;0.256;0.037;22.14;71.9;0.036;16.0954;12.875;16.363;13.357
2021-12-6 21:55:23;4.31;91;22.00;22;0.198;0.021;23.32;73.9;0.021;12.1372;7.457;12.366;7.628;44;0.259;0.037;22.14;71.9;0.036;16.2884;12.784;16.559;13.262
2021-12-6 22:0:21;4.31;90;21.70;22;0.198;0.021;23.32;73.9;0.021;12.1372;7.457;12.366;7.628;44;0.258;0.037;22.14;71.9;0.035;16.2094;12.689;16.479;13.163
2021-12-6 22:5:19;4.31;90;21.50;22;0.193;0.022;23.32;73.9;0.021;11.8872;7.558;12.109;7.740;44;0.256;0.037;22.14;71.9;0.036;16.0954;12.875;16.363;13.357
2021-12-6 22:10:21;4.31;90;21.60;22;0.195;0.021;23.32;73.9;0.021;12.0132;7.508;12.240;7.680;44;0.249;0.038;22.14;71.9;0.037;15.6114;13.316;15.868;13.830
2021-12-6 22:15:19;4.32;89;21.40;22;0.201;0.021;23.32;73.9;0.020;12.3562;7.306;12.589;7.473;44;0.260;0.036;22.14;71.9;0.035;16.3994;12.598;16.672;13.070
2021-12-6 22:20:22;4.30;88;21.30;22;0.197;0.021;23.32;73.9;0.021;12.1362;7.457;12.362;7.636;44;0.249;0.038;22.14;71.9;0.037;15.6144;13.318;15.873;13.816
2021-12-6 22:25:20;4.30;87;20.90;22;0.195;0.021;23.32;73.9;0.021;12.0122;7.507;12.236;7.688;44;0.259;0.037;22.14;71.9;0.036;16.2884;12.784;16.559;13.262
2021-12-6 22:30:22;4.30;85;20.50;22;0.197;0.021;23.32;73.9;0.021;12.1362;7.457;12.362;7.636;44;0.259;0.037;22.14;71.9;0.036;16.2884;12.784;16.559;13.262
2021-12-6 22:35:20;4.30;82;20.30;22;0.201;0.021;23.32;73.9;0.020;12.3552;7.306;12.586;7.481;44;0.259;0.037;22.14;71.9;0.036;16.2884;12.784;16.559;13.262
2021-12-6 22:40:22;4.30;82;20.30;22;0.199;0.021;23.32;73.9;0.020;12.2332;7.356;12.462;7.533;44;0.249;0.038;22.14;71.9;0.037;15.6144;13.318;15.873;13.816
2021-12-6 22:45:20;4.30;79;20.30;22;0.197;0.021;23.32;73.9;0.021;12.1362;7.457;12.362;7.636;44;0.260;0.036;22.14;71.9;0.035;16.3994;12.598;16.672;13.070
2021-12-6 22:50:23;4.30;78;20.20;22;0.201;0.021;23.32;73.9;0.020;12.3542;7.305;12.582;7.490;44;0.249;0.038;22.14;71.9;0.037;15.6144;13.318;15.873;13.816
2021-12-6 22:55:21;4.30;76;20.20;22;0.193;0.022;23.32;73.9;0.021;11.8872;7.558;12.109;7.740;44;0.260;0.036;22.14;71.9;0.035;16.3994;12.598;16.672;13.070
2021-12-6 23:0:18;4.30;74;20.20;22;0.193;0.022;23.32;73.9;0.021;11.8872;7.558;12.109;7.740;44;0.256;0.037;22.14;71.9;0.036;16.0954;12.875;16.363;13.357
2021-12-6 23:5:21;4.31;77;20.30;22;0.197;0.021;23.32;73.9;0.021;12.1362;7.457;12.362;7.636;44;0.258;0.037;22.14;71.9;0.035;16.2094;12.689;16.479;13.163
2021-12-6 23:10:19;4.30;79;20.40;22;0.201;0.021;23.32;73.9;0.020;12.3542;7.305;12.582;7.490;44;0.258;0.037;22.14;71.9;0.035;16.2094;12.689;16.479;13.163
2021-12-6 23:15:21;4.30;76;20.30;22;0.193;0.022;23.32;73.9;0.021;11.8862;7.558;12.105;7.749;44;0.259;0.037;22.14;71.9;0.036;16.2884;12.784;16.559;13.262
2021-12-6 23:20:19;4.30;75;20.30;22;0.197;0.021;23.32;73.9;0.021;12.1352;7.456;12.359;7.645;44;0.259;0.037;22.14;71.9;0.036;16.2884;12.784;16.559;13.262
2021-12-6 23:25:21;4.30;73;20.10;22;0.201;0.021;23.32;73.9;0.020;12.3542;7.305;12.582;7.490;44;0.256;0.037;22.14;71.9;0.036;16.0954;12.875;16.363;13.357
2021-12-6 23:30:19;4.30;69;20.00;22;0.193;0.022;23.32;73.9;0.021;11.8862;7.558;12.105;7.749;44;0.249;0.038;22.14;71.9;0.037;15.6114;13.316;15.868;13.830
2021-12-6 23:35:21;4.30;69;20.00;22;0.197;0.021;23.32;73.9;0.021;12.1352;7.456;12.359;7.645;44;0.259;0.037;22.14;71.9;0.036;16.2884;12.784;16.559;13.262
2021-12-6 23:40:19;4.30;72;19.90;22;0.193;0.022;23.02;73.4;0.021;11.8862;7.558;12.105;7.749;44;0.249;0.038;22.14;71.9;0.037;15.6144;13.318;15.873;13.816
2021-12-6 23:45:21;4.30;59;19.50;22;0.197;0.021;23.02;73.4;0.021;12.1352;7.456;12.359;7.645;44;0.249;0.038;22.14;71.9;0.037;15.6114;13.316;15.868;13.830
2021-12-6 23:50:19;4.30;54;19.50;22;0.197;0.021;23.32;73.9;0.021;12.1352;7.456;12.359;7.645;44;0.249;0.038;22.14;71.9;0.037;15.6114;13.316;15.868;13.830
2021-12-6 23:55:21;4.30;60;19.70;22;0.190;0.022;23.02;73.4;0.021;11.6562;7.709;11.869;7.913;44;0.256;0.037;22.14;71.9;0.036;16.0954;12.875;16.363;13.357
