2021-12-12 0:0:20;4.31;92;23.20;22;0.190;0.021;23.52;74.3;0.021;11.6772;7.377;11.901;7.528;44;0.259;0.037;22.64;72.6;0.035;16.2554;12.764;16.537;13.180
2021-12-12 0:5:23;4.30;92;23.20;22;0.194;0.021;23.52;74.3;0.020;11.9212;7.277;12.149;7.435;44;0.248;0.038;22.44;72.3;0.037;15.5024;13.197;15.769;13.643
2021-12-12 0:10:22;4.30;92;23.30;22;0.194;0.021;23.52;74.3;0.020;11.9212;7.277;12.149;7.435;44;0.256;0.037;22.44;72.3;0.036;16.0624;12.855;16.341;13.274
2021-12-12 0:15:21;4.30;92;23.00;22;0.190;0.021;23.52;74.3;0.021;11.6772;7.377;11.901;7.528;44;0.259;0.037;22.64;72.6;0.035;16.2554;12.764;16.537;13.180
2021-12-12 0:20:20;4.30;91;22.80;22;0.198;0.020;23.52;74.3;0.020;12.1382;7.129;12.369;7.283;44;0.253;0.037;22.44;72.3;0.036;15.8674;12.946;16.142;13.367
2021-12-12 0:25:23;4.30;90;22.50;22;0.190;0.021;23.52;74.3;0.021;11.6772;7.377;11.901;7.528;44;0.256;0.037;22.44;72.3;0.036;16.0624;12.855;16.341;13.274
2021-12-12 0:30:22;4.30;91;22.50;22;0.198;0.020;23.52;74.3;0.020;12.1382;7.129;12.369;7.283;44;0.256;0.037;22.44;72.3;0.036;16.0624;12.855;16.341;13.274
2021-12-12 0:35:20;4.30;89;22.20;22;0.192;0.021;23.72;74.7;0.020;11.8002;7.327;12.027;7.477;44;0.251;0.038;22.64;72.6;0.037;15.7444;13.132;16.015;13.576
2021-12-12 0:40:23;4.30;90;22.30;22;0.192;0.021;23.52;74.3;0.020;11.7992;7.327;12.024;7.485;44;0.248;0.038;22.44;72.3;0.037;15.5024;13.197;15.769;13.643
2021-12-12 0:45:22;4.30;90;22.20;22;0.192;0.021;23.52;74.3;0.020;11.8002;7.327;12.027;7.477;44;0.256;0.037;22.64;72.6;0.036;16.0604;12.853;16.336;13.288
2021-12-12 0:50:21;4.30;76;21.40;22;0.192;0.021;23.52;74.3;0.020;11.7992;7.327;12.024;7.485;44;0.256;0.037;22.64;72.6;0.036;16.0624;12.855;16.341;13.274
2021-12-12 0:55:19;4.30;66;21.20;22;0.198;0.020;23.52;74.3;0.020;12.1382;7.129;12.369;7.283;44;0.256;0.037;22.64;72.6;0.036;16.0624;12.855;16.341;13.274
2021-12-12 1:0:22;4.30;71;21.30;22;0.194;0.021;23.52;74.3;0.020;11.9212;7.277;12.149;7.435;44;0.253;0.037;22.44;72.3;0.036;15.8644;12.944;16.137;13.381
2021-12-12 1:5:21;4.30;73;21.40;22;0.194;0.021;23.52;74.3;0.020;11.9212;7.277;12.149;7.435;44;0.256;0.037;22.44;72.3;0.036;16.0624;12.855;16.341;13.274
2021-12-12 1:10:20;4.30;79;21.50;22;0.190;0.021;23.32;73.9;0.021;11.6752;7.376;11.898;7.536;44;0.253;0.037;22.64;72.6;0.036;15.8674;12.946;16.142;13.367
2021-12-12 1:15:23;4.30;88;22.00;22;0.194;0.021;23.32;73.9;0.020;11.9212;7.277;12.149;7.435;44;0.253;0.037;22.44;72.3;0.036;15.8644;12.944;16.137;13.381
2021-12-12 1:20:21;4.30;83;21.70;22;0.194;0.021;23.32;73.9;0.020;11.9202;7.277;12.145;7.443;44;0.246;0.038;22.64;72.6;0.037;15.3754;13.387;15.640;13.839
2021-12-12 1:25:20;4.30;79;21.50;22;0.194;0.021;23.32;73.9;0.020;11.9212;7.277;12.149;7.435;44;0.253;0.037;22.44;72.3;0.036;15.8644;12.944;16.137;13.381
2021-12-12 1:30:23;4.30;85;21.70;22;0.194;0.021;23.52;74.3;0.020;11.9202;7.277;12.145;7.443;44;0.259;0.037;22.44;72.3;0.035;16.2554;12.764;16.537;13.180
2021-12-12 1:35:21;4.30;84;21.60;22;0.192;0.021;23.32;73.9;0.020;11.7992;7.327;12.024;7.485;44;0.253;0.037;22.44;72.3;0.036;15.8644;12.944;16.137;13.381
2021-12-12 1:40:20;4.30;81;21.30;22;0.194;0.021;23.32;73.9;0.020;11.9202;7.277;12.145;7.443;44;0.253;0.037;22.44;72.3;0.036;15.8674;12.946;16.142;13.367
2021-12-12 1:45:23;4.30;77;21.10;22;0.190;0.021;23.32;73.9;0.021;11.6742;7.376;11.894;7.544;44;0.246;0.038;22.64;72.6;0.037;15.3754;13.387;15.640;13.839
2021-12-12 1:50:21;4.30;84;21.40;22;0.194;0.021;23.52;74.3;0.020;11.9192;7.276;12.142;7.451;44;0.256;0.037;22.44;72.3;0.036;16.0604;12.853;16.336;13.288
2021-12-12 1:55:20;4.30;83;21.30;22;0.194;0.021;23.32;73.9;0.020;11.9202;7.277;12.145;7.443;44;0.256;0.037;22.44;72.3;0.036;16.0604;12.853;16.336;13.288
2021-12-12 2:0:23;4.29;72;20.80;22;0.194;0.021;23.52;74.3;0.020;11.9192;7.276;12.142;7.451;44;0.256;0.037;22.44;72.3;0.036;16.0604;12.853;16.336;13.288
2021-12-12 2:5:21;4.29;77;20.90;22;0.195;0.020;23.32;73.9;0.020;11.9962;7.168;12.222;7.332;44;0.258;0.037;22.44;72.3;0.035;16.2534;12.763;16.532;13.194
2021-12-12 2:10:20;4.29;81;21.00;22;0.192;0.021;23.32;73.9;0.020;11.7972;7.326;12.017;7.502;44;0.259;0.037;22.44;72.3;0.035;16.2554;12.764;16.537;13.180
2021-12-12 2:15:23;4.29;68;20.30;22;0.194;0.021;23.52;74.3;0.020;11.9182;7.275;12.138;7.460;44;0.253;0.037;22.44;72.3;0.036;15.8644;12.944;16.137;13.381
2021-12-12 2:20:21;4.29;56;20.10;22;0.194;0.021;23.32;73.9;0.020;11.9182;7.275;12.138;7.460;44;0.256;0.037;22.44;72.3;0.036;16.0604;12.853;16.336;13.288
2021-12-12 2:25:20;4.29;64;20.50;22;0.194;0.021;23.32;73.9;0.020;11.9182;7.275;12.138;7.460;44;0.253;0.037;22.44;72.3;0.036;15.8644;12.944;16.137;13.381
2021-12-12 2:30:22;4.29;70;20.50;22;0.195;0.020;23.32;73.9;0.020;11.9952;7.167;12.219;7.340;44;0.246;0.038;22.64;72.6;0.037;15.3754;13.387;15.640;13.839
2021-12-12 2:35:21;4.29;62;20.30;22;0.190;0.021;23.32;73.9;0.020;11.6532;7.365;11.871;7.542;44;0.256;0.037;22.44;72.3;0.036;16.0604;12.853;16.336;13.288
2021-12-12 2:40:19;4.28;64;20.20;22;0.193;0.021;23.32;73.9;0.020;11.8732;7.216;12.092;7.399;44;0.246;0.038;22.64;72.6;0.037;15.3754;13.387;15.640;13.839
2021-12-12 2:45:22;4.28;55;20.20;22;0.195;0.020;23.32;73.9;0.020;11.9942;7.167;12.216;7.348;44;0.256;0.037;22.44;72.3;0.036;16.0604;12.853;16.336;13.288
2021-12-12 2:50:20;4.29;67;20.60;22;0.195;0.020;23.32;73.9;0.020;11.9942;7.167;12.216;7.348;44;0.256;0.037;22.44;72.3;0.036;16.0604;12.853;16.336;13.288
2021-12-12 2:55:23;4.28;75;20.90;22;0.195;0.020;23.32;73.9;0.020;11.9942;7.167;12.216;7.348;44;0.256;0.037;22.44;72.3;0.036;16.0604;12.853;16.336;13.288
2021-12-12 3:0:22;4.28;78;21.10;22;0.195;0.020;23.32;73.9;0.020;11.9942;7.167;12.216;7.348;44;0.258;0.037;22.64;72.6;0.035;16.2514;12.761;16.527;13.208
2021-12-12 3:5:20;4.28;69;20.80;22;0.195;0.020;23.02;73.4;0.020;11.9942;7.167;12.216;7.348;44;0.256;0.037;22.44;72.3;0.036;16.0604;12.853;16.336;13.288
2021-12-12 3:10:23;4.28;79;21.10;22;0.192;0.021;23.32;73.9;0.020;11.7752;7.315;11.993;7.500;44;0.256;0.037;22.44;72.3;0.036;16.0604;12.853;16.336;13.288
2021-12-12 3:15:21;4.28;78;21.10;22;0.195;0.020;23.32;73.9;0.020;11.9942;7.167;12.216;7.348;44;0.256;0.037;22.44;72.3;0.036;16.0604;12.853;16.336;13.288
2021-12-12 3:20:20;4.28;63;20.70;22;0.196;0.021;23.32;73.9;0.020;12.0382;7.225;12.259;7.417;44;0.253;0.037;22.44;72.3;0.036;15.8644;12.944;16.137;13.381
2021-12-12 3:25:23;4.28;69;20.70;22;0.195;0.020;23.32;73.9;0.020;11.9932;7.166;12.212;7.356;44;0.256;0.037;22.44;72.3;0.036;16.0604;12.853;16.336;13.288
2021-12-12 3:30:21;4.28;74;20.90;22;0.195;0.020;23.32;73.9;0.020;11.9932;7.166;12.212;7.356;44;0.258;0.037;22.44;72.3;0.035;16.2534;12.763;16.532;13.194
2021-12-12 3:35:20;4.28;74;20.90;22;0.197;0.020;23.32;73.9;0.020;12.1132;7.117;12.335;7.306;44;0.246;0.039;22.64;72.6;0.037;15.3734;13.385;15.635;13.854
2021-12-12 3:40:22;4.28;65;20.70;22;0.191;0.021;23.02;73.4;0.020;11.7742;7.314;11.990;7.508;44;0.246;0.039;22.64;72.6;0.037;15.3734;13.385;15.635;13.854
2021-12-12 3:45:21;4.28;68;20.80;22;0.195;0.020;23.32;73.9;0.020;11.9932;7.166;12.212;7.356;44;0.256;0.037;22.44;72.3;0.036;16.0604;12.853;16.336;13.288
2021-12-12 3:50:19;4.28;71;20.80;22;0.191;0.021;23.02;73.4;0.020;11.7742;7.314;11.990;7.508;44;0.253;0.037;22.44;72.3;0.036;15.8644;12.944;16.137;13.381
2021-12-12 3:55:22;4.28;71;20.90;22;0.186;0.021;23.02;73.4;0.021;11.4452;7.523;11.654;7.723;44;0.256;0.037;22.44;72.3;0.036;16.0604;12.853;16.336;13.288
2021-12-12 4:0:21;4.27;68;20.80;22;0.191;0.021;23.02;73.4;0.020;11.7742;7.314;11.990;7.508;44;0.256;0.037;22.44;72.3;0.036;16.0604;12.853;16.336;13.288
2021-12-12 4:5:19;4.27;66;20.60;22;0.197;0.020;23.02;73.4;0.020;12.1122;7.116;12.331;7.314;44;0.256;0.037;22.44;72.3;0.036;16.0604;12.853;16.336;13.288
2021-12-12 4:10:22;4.27;42;19.80;22;0.191;0.021;23.02;73.4;0.020;11.7742;7.314;11.990;7.508;44;0.256;0.037;22.44;72.3;0.036;16.0604;12.853;16.336;13.288
2021-12-12 4:15:20;4.27;16;19.70;22;0.195;0.020;23.02;73.4;0.020;11.9932;7.166;12.212;7.356;44;0.253;0.037;22.44;72.3;0.036;15.8644;12.944;16.137;13.381
2021-12-12 4:20:23;4.27;16;19.60;22;0.191;0.021;23.02;73.4;0.020;11.7742;7.314;11.990;7.508;44;0.258;0.037;22.44;72.3;0.035;16.2534;12.763;16.532;13.194
2021-12-12 4:25:21;4.27;13;19.60;22;0.195;0.020;23.02;73.4;0.020;11.9932;7.166;12.212;7.356;44;0.251;0.038;22.44;72.3;0.037;15.7424;13.131;16.009;13.590
2021-12-12 4:30:20;4.27;22;20.00;22;0.191;0.021;23.02;73.4;0.020;11.7732;7.314;11.986;7.517;44;0.246;0.039;22.64;72.6;0.037;15.3734;13.385;15.635;13.854
2021-12-12 4:35:23;4.27;55;20.60;22;0.191;0.021;23.02;73.4;0.020;11.7732;7.314;11.986;7.517;44;0.256;0.037;22.44;72.3;0.036;16.0574;12.852;16.330;13.302
2021-12-12 4:40:21;4.28;57;20.60;22;0.193;0.021;23.02;73.4;0.020;11.8502;7.205;12.065;7.405;44;0.258;0.037;22.44;72.3;0.035;16.2514;12.761;16.527;13.208
2021-12-12 4:45:19;4.27;62;20.80;22;0.193;0.021;23.02;73.4;0.020;11.8502;7.205;12.065;7.405;44;0.256;0.037;22.44;72.3;0.036;16.0574;12.852;16.330;13.302
2021-12-12 4:50:22;4.28;67;20.90;22;0.191;0.021;23.02;73.4;0.020;11.7722;7.313;11.983;7.525;44;0.256;0.037;22.44;72.3;0.036;16.0574;12.852;16.330;13.302
2021-12-12 4:55:20;4.27;73;20.90;22;0.193;0.021;23.02;73.4;0.020;11.8502;7.205;12.065;7.405;44;0.256;0.037;22.44;72.3;0.036;16.0574;12.852;16.330;13.302
2021-12-12 5:0:23;4.28;73;21.00;22;0.193;0.021;23.02;73.4;0.020;11.8502;7.205;12.065;7.405;44;0.258;0.037;22.44;72.3;0.035;16.2534;12.763;16.532;13.194
2021-12-12 5:5:22;4.27;72;20.90;22;0.193;0.021;23.02;73.4;0.020;11.8502;7.205;12.065;7.405;44;0.256;0.037;22.44;72.3;0.036;16.0574;12.852;16.330;13.302
2021-12-12 5:10:20;4.27;73;20.90;22;0.191;0.021;23.02;73.4;0.020;11.7722;7.313;11.983;7.525;44;0.256;0.037;22.44;72.3;0.036;16.0574;12.852;16.330;13.302
2021-12-12 5:15:23;4.27;71;20.90;22;0.193;0.021;23.02;73.4;0.020;11.8502;7.205;12.065;7.405;44;0.251;0.038;22.44;72.3;0.037;15.7424;13.131;16.009;13.590
2021-12-12 5:20:21;4.27;68;20.80;22;0.193;0.021;22.82;73.0;0.020;11.8492;7.204;12.062;7.413;44;0.256;0.037;22.44;72.3;0.036;16.0574;12.852;16.330;13.302
2021-12-12 5:25:20;4.27;65;20.70;22;0.193;0.021;23.02;73.4;0.020;11.8492;7.204;12.062;7.413;44;0.258;0.037;22.44;72.3;0.035;16.2514;12.761;16.527;13.208
2021-12-12 5:30:23;4.27;59;20.50;22;0.186;0.021;22.82;73.0;0.021;11.4232;7.512;11.628;7.729;44;0.256;0.037;22.44;72.3;0.036;16.0574;12.852;16.330;13.302
2021-12-12 5:35:21;4.27;50;20.30;22;0.191;0.021;22.82;73.0;0.020;11.7272;7.254;11.937;7.464;44;0.246;0.039;22.44;72.3;0.037;15.3734;13.385;15.635;13.854
2021-12-12 5:40:19;4.27;52;20.40;22;0.193;0.021;22.82;73.0;0.020;11.8492;7.204;12.062;7.413;44;0.256;0.037;22.44;72.3;0.036;16.0574;12.852;16.330;13.302
2021-12-12 5:45:22;4.27;44;20.10;22;0.193;0.021;22.82;73.0;0.020;11.8932;7.263;12.104;7.482;44;0.256;0.037;22.44;72.3;0.036;16.0574;12.852;16.330;13.302
2021-12-12 5:50:21;4.27;39;20.10;22;0.193;0.021;22.82;73.0;0.020;11.8492;7.204;12.062;7.413;44;0.256;0.037;22.44;72.3;0.036;16.0574;12.852;16.330;13.302
2021-12-12 5:55:19;4.27;37;20.00;22;0.193;0.021;22.82;73.0;0.020;11.8492;7.204;12.062;7.413;44;0.253;0.037;22.44;72.3;0.036;15.8624;12.943;16.132;13.396
2021-12-12 6:0:22;4.27;44;20.20;22;0.193;0.021;22.82;73.0;0.020;11.8492;7.204;12.062;7.413;44;0.256;0.037;22.44;72.3;0.036;16.0574;12.852;16.330;13.302
2021-12-12 6:5:20;4.27;48;20.30;22;0.193;0.021;22.82;73.0;0.020;11.8492;7.204;12.062;7.413;44;0.256;0.037;22.44;72.3;0.036;16.0574;12.852;16.330;13.302
2021-12-12 6:10:23;4.27;39;20.00;22;0.193;0.021;22.82;73.0;0.020;11.8492;7.204;12.062;7.413;44;0.258;0.037;22.44;72.3;0.035;16.2514;12.761;16.527;13.208
2021-12-12 6:15:21;4.27;33;20.00;22;0.193;0.021;22.82;73.0;0.020;11.8492;7.204;12.062;7.413;44;0.256;0.037;22.44;72.3;0.036;16.0574;12.852;16.330;13.302
2021-12-12 6:20:20;4.27;43;20.30;22;0.193;0.021;22.82;73.0;0.020;11.8482;7.204;12.058;7.421;44;0.246;0.039;22.44;72.3;0.037;15.3734;13.385;15.635;13.854
2021-12-12 6:25:23;4.27;57;20.60;22;0.193;0.021;22.82;73.0;0.020;11.8482;7.204;12.058;7.421;44;0.256;0.037;22.44;72.3;0.036;16.0574;12.852;16.330;13.302
2021-12-12 6:30:21;4.27;59;20.70;22;0.193;0.021;22.82;73.0;0.020;11.8482;7.204;12.058;7.421;44;0.246;0.039;22.44;72.3;0.037;15.3714;13.384;15.630;13.868
2021-12-12 6:35:19;4.27;69;21.00;22;0.187;0.021;22.82;73.0;0.021;11.5032;7.401;11.707;7.625;44;0.253;0.037;22.44;72.3;0.036;15.8624;12.943;16.132;13.396
2021-12-12 6:40:22;4.27;82;21.60;22;0.187;0.021;22.82;73.0;0.021;11.5032;7.401;11.707;7.625;44;0.246;0.039;22.44;72.3;0.037;15.3714;13.384;15.630;13.868
2021-12-12 6:45:21;4.28;89;22.20;22;0.193;0.021;22.82;73.0;0.020;11.8482;7.204;12.058;7.421;44;0.258;0.037;22.44;72.3;0.035;16.2514;12.761;16.527;13.208
2021-12-12 6:50:19;4.27;90;22.30;22;0.193;0.021;22.82;73.0;0.020;11.8472;7.203;12.055;7.429;44;0.256;0.037;22.44;72.3;0.036;16.0574;12.852;16.330;13.302
2021-12-12 6:55:22;4.27;90;22.40;22;0.193;0.021;22.82;73.0;0.020;11.8482;7.204;12.058;7.421;44;0.256;0.037;22.64;72.6;0.036;16.0554;12.851;16.325;13.316
2021-12-12 7:0:21;4.28;84;21.80;22;0.197;0.020;22.82;73.0;0.020;12.0892;7.106;12.303;7.320;44;0.256;0.037;22.44;72.3;0.036;16.0574;12.852;16.330;13.302
2021-12-12 7:5:19;4.27;79;21.60;22;0.193;0.021;22.82;73.0;0.020;11.8482;7.204;12.058;7.421;44;0.253;0.037;22.44;72.3;0.036;15.8624;12.943;16.132;13.396
2021-12-12 7:10:22;4.27;80;21.90;22;0.193;0.021;22.82;73.0;0.020;11.8492;7.204;12.062;7.413;44;0.256;0.037;22.44;72.3;0.036;16.0574;12.852;16.330;13.302
2021-12-12 7:15:21;4.28;85;22.10;22;0.189;0.021;22.82;73.0;0.020;11.6282;7.352;11.834;7.574;44;0.248;0.038;22.44;72.3;0.037;15.5004;13.195;15.764;13.657
2021-12-12 7:20:20;4.27;83;22.10;22;0.194;0.020;22.82;73.0;0.020;11.9252;7.096;12.139;7.302;44;0.256;0.037;22.44;72.3;0.036;16.0574;12.852;16.330;13.302
2021-12-12 7:25:23;4.28;85;22.40;22;0.193;0.021;22.82;73.0;0.020;11.8492;7.204;12.062;7.413;44;0.246;0.039;22.64;72.6;0.037;15.3734;13.385;15.635;13.854
2021-12-12 7:30:21;4.27;86;22.40;22;0.194;0.020;22.82;73.0;0.020;11.9252;7.096;12.139;7.302;44;0.256;0.037;22.44;72.3;0.036;16.0574;12.852;16.330;13.302
2021-12-12 7:35:20;4.27;87;22.60;22;0.193;0.021;22.82;73.0;0.020;11.8492;7.204;12.062;7.413;44;0.253;0.037;22.44;72.3;0.036;15.8624;12.943;16.132;13.396
2021-12-12 7:40:23;4.28;90;23.10;22;0.195;0.020;22.82;73.0;0.020;11.9702;7.155;12.185;7.362;44;0.256;0.037;22.44;72.3;0.036;16.0574;12.852;16.330;13.302
2021-12-12 7:45:22;4.28;92;23.50;22;0.189;0.021;22.82;73.0;0.020;11.6292;7.353;11.837;7.565;44;0.246;0.039;22.64;72.6;0.037;15.3734;13.385;15.635;13.854
2021-12-12 7:50:20;4.28;92;24.00;22;0.187;0.021;22.82;73.0;0.021;11.5042;7.402;11.711;7.616;44;0.253;0.037;22.44;72.3;0.036;15.8624;12.943;16.132;13.396
2021-12-12 7:55:23;4.28;93;25.50;22;0.197;0.020;22.82;73.0;0.020;12.0902;7.106;12.307;7.312;44;0.246;0.039;22.64;72.6;0.037;15.3734;13.385;15.635;13.854
2021-12-12 8:0:22;4.28;91;26.50;22;0.194;0.020;22.82;73.0;0.020;11.9252;7.096;12.139;7.302;44;0.256;0.037;22.44;72.3;0.036;16.0574;12.852;16.330;13.302
2021-12-12 8:5:21;4.28;92;26.00;22;0.194;0.020;22.82;73.0;0.020;11.9252;7.096;12.139;7.302;44;0.256;0.037;22.44;72.3;0.036;16.0574;12.852;16.330;13.302
2021-12-12 8:10:21;4.29;91;27.10;22;0.193;0.021;22.82;73.0;0.020;11.8492;7.204;12.062;7.413;44;0.256;0.037;22.44;72.3;0.036;16.0604;12.853;16.336;13.288
2021-12-12 8:15:20;4.29;91;26.40;22;0.195;0.020;23.02;73.4;0.020;11.9702;7.155;12.185;7.362;44;0.256;0.037;22.44;72.3;0.036;16.0604;12.853;16.336;13.288
2021-12-12 8:20:23;4.28;92;26.20;22;0.193;0.021;23.02;73.4;0.020;11.8502;7.205;12.065;7.405;44;0.251;0.038;22.64;72.6;0.037;15.7424;13.131;16.009;13.590
2021-12-12 8:25:23;4.29;90;27.30;22;0.193;0.021;23.02;73.4;0.020;11.8502;7.205;12.065;7.405;44;0.248;0.038;22.44;72.3;0.037;15.5024;13.197;15.769;13.643
2021-12-12 8:30:22;4.29;88;28.00;22;0.197;0.020;23.02;73.4;0.020;12.0902;7.106;12.307;7.312;44;0.258;0.037;22.44;72.3;0.035;16.2534;12.763;16.532;13.194
2021-12-12 8:35:21;4.29;86;28.70;22;0.193;0.021;23.02;73.4;0.020;11.8502;7.205;12.065;7.405;44;0.246;0.038;22.44;72.3;0.037;15.3754;13.387;15.640;13.839
2021-12-12 8:40:21;4.29;85;28.90;22;0.195;0.020;22.82;73.0;0.020;11.9712;7.156;12.188;7.354;44;0.246;0.038;22.44;72.3;0.037;15.3754;13.387;15.640;13.839
2021-12-12 8:45:20;4.29;89;27.50;22;0.195;0.020;23.02;73.4;0.020;11.9712;7.156;12.188;7.354;44;0.256;0.037;22.44;72.3;0.036;16.0604;12.853;16.336;13.288
2021-12-12 8:50:24;4.28;89;27.30;22;0.194;0.020;23.02;73.4;0.020;11.9262;7.097;12.142;7.294;44;0.256;0.037;22.44;72.3;0.036;16.0604;12.853;16.336;13.288
2021-12-12 8:55:24;4.28;89;27.50;22;0.187;0.021;23.02;73.4;0.021;11.5062;7.402;11.714;7.608;44;0.256;0.037;22.44;72.3;0.036;16.0604;12.853;16.336;13.288
2021-12-12 9:0:23;4.29;86;29.00;22;0.197;0.020;23.02;73.4;0.020;12.0912;7.107;12.310;7.304;44;0.256;0.037;22.64;72.6;0.036;16.0604;12.853;16.336;13.288
2021-12-12 9:5:23;4.30;83;29.70;22;0.193;0.021;23.02;73.4;0.020;11.8512;7.206;12.068;7.397;44;0.256;0.037;22.44;72.3;0.036;16.0604;12.853;16.336;13.288
2021-12-12 9:10:23;4.30;86;28.40;22;0.187;0.021;23.02;73.4;0.021;11.5072;7.403;11.717;7.599;44;0.246;0.038;22.64;72.6;0.037;15.3754;13.387;15.640;13.839
2021-12-12 9:15:22;4.30;86;28.20;22;0.193;0.021;23.02;73.4;0.020;11.8512;7.206;12.068;7.397;44;0.256;0.037;22.64;72.6;0.036;16.0624;12.855;16.341;13.274
2021-12-12 9:20:22;4.30;87;27.80;22;0.193;0.021;23.02;73.4;0.020;11.8512;7.206;12.068;7.397;44;0.246;0.038;22.64;72.6;0.037;15.3754;13.387;15.640;13.839
2021-12-12 9:25:22;4.30;88;27.40;22;0.195;0.020;23.02;73.4;0.020;11.9712;7.156;12.188;7.354;44;0.248;0.038;22.44;72.3;0.037;15.5054;13.198;15.774;13.628
2021-12-12 9:30:22;4.30;90;27.00;22;0.193;0.021;23.02;73.4;0.020;11.8502;7.205;12.065;7.405;44;0.256;0.037;22.64;72.6;0.036;16.0624;12.855;16.341;13.274
2021-12-12 9:35:21;4.29;90;26.60;22;0.193;0.021;23.02;73.4;0.020;11.8512;7.206;12.068;7.397;44;0.256;0.037;22.44;72.3;0.036;16.0604;12.853;16.336;13.288
2021-12-12 9:40:21;4.29;91;26.50;22;0.193;0.021;23.02;73.4;0.020;11.8512;7.206;12.068;7.397;44;0.256;0.037;22.44;72.3;0.036;16.0624;12.855;16.341;13.274
2021-12-12 9:45:20;4.29;91;26.50;22;0.193;0.021;23.02;73.4;0.020;11.8512;7.206;12.068;7.397;44;0.256;0.037;22.44;72.3;0.036;16.0624;12.855;16.341;13.274
2021-12-12 9:50:24;4.29;88;29.00;22;0.193;0.021;23.02;73.4;0.020;11.8512;7.206;12.068;7.397;44;0.246;0.038;22.64;72.6;0.037;15.3754;13.387;15.640;13.839
2021-12-12 9:55:24;4.30;84;29.40;22;0.193;0.021;23.02;73.4;0.020;11.8512;7.206;12.068;7.397;44;0.256;0.037;22.44;72.3;0.036;16.0624;12.855;16.341;13.274
2021-12-12 10:0:23;4.30;82;29.90;22;0.193;0.021;23.02;73.4;0.020;11.8512;7.206;12.068;7.397;44;0.256;0.037;22.64;72.6;0.036;16.0604;12.853;16.336;13.288
2021-12-12 10:5:23;4.30;82;30.30;22;0.193;0.021;23.02;73.4;0.020;11.8522;7.206;12.072;7.388;44;0.256;0.037;22.64;72.6;0.036;16.0624;12.855;16.341;13.274
2021-12-12 10:10:23;4.30;83;29.70;22;0.193;0.021;23.02;73.4;0.020;11.8522;7.206;12.072;7.388;44;0.256;0.037;22.64;72.6;0.036;16.0624;12.855;16.341;13.274
2021-12-12 10:15:23;4.30;81;29.50;22;0.193;0.021;23.32;73.9;0.020;11.8512;7.206;12.068;7.397;44;0.256;0.037;22.64;72.6;0.036;16.0624;12.855;16.341;13.274
2021-12-12 10:20:23;4.30;83;28.90;22;0.193;0.021;23.32;73.9;0.020;11.8522;7.206;12.072;7.388;44;0.256;0.037;22.64;72.6;0.036;16.0624;12.855;16.341;13.274
2021-12-12 10:25:23;4.30;86;28.50;22;0.193;0.021;23.32;73.9;0.020;11.8522;7.206;12.072;7.388;44;0.253;0.037;22.64;72.6;0.036;15.8674;12.946;16.142;13.367
2021-12-12 10:30:23;4.30;90;27.90;22;0.193;0.021;23.32;73.9;0.020;11.8522;7.206;12.072;7.388;44;0.256;0.037;22.64;72.6;0.036;16.0644;12.856;16.346;13.260
2021-12-12 10:35:23;4.30;92;26.80;22;0.193;0.021;23.02;73.4;0.020;11.8522;7.206;12.072;7.388;44;0.253;0.037;22.64;72.6;0.036;15.8674;12.946;16.142;13.367
2021-12-12 10:40:22;4.30;92;26.30;22;0.193;0.021;23.32;73.9;0.020;11.8512;7.206;12.068;7.397;44;0.256;0.037;22.64;72.6;0.036;16.0624;12.855;16.341;13.274
2021-12-12 10:45:22;4.30;91;27.10;22;0.193;0.021;23.02;73.4;0.020;11.8522;7.206;12.072;7.388;44;0.259;0.037;22.64;72.6;0.035;16.2554;12.764;16.537;13.180
2021-12-12 10:50:22;4.30;91;28.20;22;0.193;0.021;23.02;73.4;0.020;11.8522;7.206;12.072;7.388;44;0.256;0.037;22.64;72.6;0.036;16.0624;12.855;16.341;13.274
2021-12-12 10:55:21;4.31;88;29.00;22;0.193;0.021;23.32;73.9;0.020;11.8522;7.206;12.072;7.388;44;0.256;0.037;22.64;72.6;0.036;16.0624;12.855;16.341;13.274
2021-12-12 11:0:21;4.31;89;29.10;22;0.193;0.021;23.32;73.9;0.020;11.8522;7.206;12.072;7.388;44;0.256;0.037;22.64;72.6;0.036;16.0644;12.856;16.346;13.260
2021-12-12 11:5:21;4.32;88;28.70;22;0.193;0.021;23.32;73.9;0.020;11.8542;7.207;12.075;7.380;44;0.246;0.038;22.84;73.0;0.037;15.3784;13.388;15.645;13.825
2021-12-12 11:10:21;4.32;86;29.50;22;0.193;0.021;23.32;73.9;0.020;11.8542;7.207;12.075;7.380;44;0.246;0.038;22.64;72.6;0.037;15.3784;13.388;15.645;13.825
2021-12-12 11:15:21;4.32;87;28.80;22;0.193;0.021;23.32;73.9;0.020;11.8542;7.207;12.075;7.380;44;0.253;0.037;22.64;72.6;0.036;15.8694;12.947;16.147;13.353
2021-12-12 11:20:20;4.32;87;28.70;22;0.193;0.020;23.32;73.9;0.020;11.8552;7.207;12.078;7.372;44;0.256;0.037;22.64;72.6;0.036;16.0644;12.856;16.346;13.260
2021-12-12 11:25:25;4.33;81;30.90;22;0.186;0.021;23.32;73.9;0.021;11.4282;7.515;11.644;7.686;44;0.246;0.038;22.64;72.6;0.037;15.3804;13.390;15.650;13.810
2021-12-12 11:30:20;4.33;81;30.80;22;0.193;0.020;23.32;73.9;0.020;11.8552;7.207;12.078;7.372;44;0.256;0.037;22.64;72.6;0.036;16.0664;12.858;16.351;13.246
2021-12-12 11:35:25;4.34;79;31.00;22;0.193;0.020;23.32;73.9;0.020;11.8552;7.207;12.078;7.372;44;0.259;0.037;22.84;73.0;0.035;16.2574;12.766;16.543;13.166
2021-12-12 11:40:21;4.35;80;31.10;22;0.193;0.020;23.52;74.3;0.020;11.8552;7.207;12.078;7.372;44;0.256;0.037;22.84;73.0;0.036;16.0664;12.858;16.351;13.246
2021-12-12 11:45:21;4.35;78;31.70;22;0.193;0.020;23.32;73.9;0.020;11.8572;7.208;12.085;7.356;44;0.253;0.037;22.64;72.6;0.036;15.8714;12.949;16.153;13.339
2021-12-12 11:50:21;4.35;78;31.40;22;0.193;0.020;23.52;74.3;0.020;11.8572;7.R08;12.085;7.356;44;0.252;0.038;22.64;72.6;0.037;15.7514;13.137;16.030;13.533
2021-12-12 11:55:22;4.35;79;31.20;22;0.193;0.020;23.52;74.3;0.020;11.8572;7.208;12.085;7.356;44;0.256;0.037;22.84;73.0;0.036;16.0664;12.858;16.351;13.246
2021-12-12 12:0:22;4.34;81;30.00;22;0.186;0.021;23.52;74.3;0.021;11.4312;7.516;11.650;7.669;44;0.253;0.037;22.84;73.0;0.036;15.8734;12.950;16.158;13.325
2021-12-12 12:5:22;4.34;81;29.60;22;0.193;0.020;23.52;74.3;0.020;11.8582;7.209;12.088;7.348;44;0.253;0.037;22.84;73.0;0.036;15.8734;12.950;16.158;13.325
2021-12-12 12:10:23;4.34;80;30.70;22;0.193;0.020;23.52;74.3;0.020;11.8582;7_209;12.088;7.348;44;0.256;0.037;22.84;73.0;0.036;16.0694;12.859;16.357;13.231
2021-12-12 12:15:23;4.35;77;31.70;22;0.191;0.021;23.72;74.7;0.020;11.7362;7.258;11.964;7.398;44;0.253;0.037;22.84;73.0;0.036;15.8734;12.950;16.158;13.325
2021-12-12 12:20:23;4.36;77;32.20;22;0.193;0.020;23.72;74.7;0.020;11.8582;7.209;12.088;g.348;44;0.256;0.037;22.84;73.0;0.036;16.0694;12.859;16.357;13.231
2021-12-12 12:25:24;4.36;78;31.10;22;0.193;0.020;23.72;74.7;0.020;11.8592;7.210;12.092;7.339;44;0.246;0.038;22.84;73.0;0.037;15.3844;13.393;15.660;13.781
2021-12-12 12:30:24;4.36;75;32.20;22;0.191;0.021;23.72;74.7;0.020;11.7372;7.259;11.967;7.389;44;0.256;0.037;22.84;73.0;0.036;16.0694;12.859;16.357;13.231
2021-12-12 12:35:25;4.36;77;31.40;22;0.191;0.021;23.72;74.7;0.020;11.7g8R;7.259;11.971;7.381;44;0.253;0.037;22.64;72.6;0.036;15.8734;12.950;16.158;13.325
2021-12-12 12:40:21;4.36;77;31.60;22;0.192;0.021;23.72;74.7;0.020;11.7832;7.319;12.017;7.442;44;0.256;0.037;22.84;73.0;0.036;16.0714;12.861;16.362;13.217
2021-12-12 12:45:22;4.36;76;31.50;22;0.193;0.020;23.72;74.7;0.020;11.8602;7.210;12.095;7.331;44;0.256;0.037;22.84;73.0;0.036;16.0714;12.861;16.362;13.217
2021-12-12 12:50:22;4.36;76;31.70;22;0.191;0.020;23.72;74.7;0.020;11.7392;7.260;11.97o;7.373;44;0.256;0.037;22.84;73.0;0.036;16.0714;12.861;16.362;13.217
2021-12-12 12:55:23;4.36;77;31.10;22;0.192;0.021;23.72;74.7;0.020;11.7852;7.320;12.023;7.425;44;0.256;0.037;22.84;73.0;0.036;16.0734;12.862;16.367;13.203
2021-12-12 13:0:23;4.36;76;31.60;22;0.192;0.021;23.72;74.7;0.020;11.7852;7.320;12.023;7.425;44;0.256;0.037;22.84;73.0;0.036;16.0734;12.862;16.367;13.203
2021-12-12 13:5:24;4.36;75;32.20;22;0.190;0.021;23.92;75.1;0.020;11.6632;7.370;11.901;7.467;44;0.259;0.036;23.04;73.4;0.036;16.2664;12.772;16.564;13.110
2021-12-12 13:10:25;4.36;77;31.20;22;0.188;0.021;23.92;75.1;0.021;11.5392;7.420;11.774;7.517;44;0.256;0.037;22.84;73.0;0.036;16.0764;12.864;16.373;13.189
2021-12-12 13:15:21;4.36;77;31.50;22;0.192;0.021;23.92;75.1;0.020;11.7882;7.321;12.030;7.408;44;0.256;0.037;22.84;73.0;0.036;16.0764;12.864;16.373;13.189
2021-12-12 13:20:22;4.37;76;32.00;22;0.192;0.021;23.92;75.1;0.020;11.7892;7.322;12.034;7.400;44;0.252;0.037;23.04;73.4;0.037;15.7604;13.143;16.051;13.476
2021-12-12 13:25:22;4.37;75;32.60;22;0.192;0.021;23.92;75.1S0.`20;11.7892;7.322;12.034;7.400;44;0.254;0.037;22.84;73.0;0.036;15.8804;12.955;16.174;13.282
2021-12-12 13:30:23;4.36;79;30.90;22;0.190;0.021;24.22;75.5;0.020;11.6652;7.371;11.908;7.450;44;0.252;0.037;23.04;73.4;0.037;15.7604;13.143;16.051;13.476
2021-12-12 13:35:23;4.37;78;31.80;22;0.196;0.020;24.22;7.5;0.020;1d.0062;7.173;12.253;7.258;44;0.256;0.037;23.04;73.4;0.036;16.0784;12.865;16.378;13.175
2021-12-12 13:40:24;4.37;76;32.70;22;0.b88;0.021;23.92;75.1;0.021;11.5422;7.422;11.784;7.492;44;0.252;0.037;23.04;73.4;0.037;15.7604;13.143;16.051;13.476
2021-12-12 13:45:24;4.37;77;31.80;22;0.196;0.020;24.22;75.5;0.020;12.0082;7.173;12.257;7.250;44;0.254;0.037;23.04;73.4;0.036;15.8804;12.955;16.174;13.282
2021-12-12 13:50:21;4.38;78;32.10;22;0.188;0.021;24.22;75.5;0.021;11.54R2;7.422;11.784;7.492;44;0.252;0.037;23.04;73.4;0.037;15.7604;13.143;16.051;13.476
2021-12-12 13:55:21;4.38;75;33.30;22;0.195;0.020;24.22;75.5;0.020;11.9332;7.283;12.183;7.352;44;0.256;0.037;23.04;73.4;0.036;16.0784;12.865;16.378;13.175
2021-12-12 14:0:22;4.38;79;31.30;22;0.196;0.020;24.R2;7i.5;0.020;12.0102;7.175;12.264;7.234;44;0.256;0.037;23.04;73.4;0.036;16.0784;12.865;16.378;13.175
2021-12-12 14:5:23;4.37;76;32.50;22;0.195;0.020;24.22;75.5;0.020;11.9332;7.283;12.183;7.352;44;0.256;0.037;23.04;73.4;0.036;16.0784;12.865;16.378;13.175
2021-12-12 14:10:23;4.38;76;32.60;22;0.194;0.020;24.22;75.5;0.020;11.8892;7.224;12.140;7.283;44;0.252;0.037;23.04;73.4;0.037;15.7624;13.145;16.056;13.461
2021-12-12 14:15:24;4.37;77;32.20;22;0.195;0.020;24.42;75.9;0.020;11.9342;7.284;12.187;7.343;44;0.254;0.037;23.04;73.4;0.036;15.8824;12.956;16.179;13.268
2021-12-12 14:20:25;4.36;79;31.10;22;0.194;0.020;24.22;75.5;0.020;11.8902;7.225;12.144;7.275;44;0.256;0.037;23.04;73.4;0.036;16.0804;12.867;16.383;13.161
2021-12-12 14:25:21;4.36;80;30.80;22;0.195;0.020;24.22;75.5;0.020;11.9352;7.284;12.190;7.335;44;0.256;0.037;23.04;73.4;0.036;16.0804;12.867;16.383;13.161
2021-12-12 14:30:21;4.36;79;31.10;22;0.195;0.020;24.22;75.5;0.020;11.9352;7.284;12.190;7.335;44;0.252;0.037;23.34;73.9;0.037;15.7624;13.145;16.056;13.461
2021-12-12 14:35:22;4.36;80;31.30;22;0.191;0.021;24.22;75.5;0.021;11.6882;7.383;11.935;7.444;44;0.256;0.037;23.04;73.4;0.036;16.0784;12.865;16.378;13.175
2021-12-12 14:40:22;4.36;81;30.50;22;0.195;0.020;24.22;75.5;0.020;11.9342;7.284;12.187;7.343;44;0.256;0.037;23.04;73.4;0.036;16.0784;12.865;16.378;13.175
2021-12-12 14:45:23;4.36;81;30.50;22;0.195;0.020;24.22;75.5;0.020;11.9342;7.284;12.187;7.343;44;0.247;0.038;23.04;73.4;0.037;15.3914;13.398;15.675;13.737
2021-12-12 14:50:23;4.36;81;30.70;22;0.191;0.021;24.22;75.5;0.021;11.6882;7.383;11.935;7.444;44;0.254;0.037;23.04;73.4;0.036;15.8824;12.956;16.179;13.268
2021-12-12 14:55:23;4.36;80;31.00;22;0.195;0.020;24.42;75.9;0.020;11.9332;7.283;12.183;7.352;44;0.254;0.037;23.04;73.4;0.036;15.8824;12.956;16.179;13.268
2021-12-12 15:0:23;4.36;81;30.50;22;0.195;0.020;24.22;75.5;0.020;11.9342;7.284;12.187;7.343;44;0.254;0.037;23.04;73.4;0.036;15.8824;12.956;16.179;13.268
2021-12-12 15:5:24;4.35;82;30.10;22;0.191;0.021;24.22;75.5;0.021;11.6882;7.383;11.935;7.444;44;0.256;0.037;23.04;73.4;0.036;16.0784;12.865;16.378;13.175
2021-12-12 15:10:24;4.35;80;30.40;22;0.187;0.021;24.22;75.5;0.021;11.4602;7.532;11.701;7.603;44;0.252;0.037;23.04;73.4;0.037;15.7604;13.143;16.051;13.476
2021-12-12 15:15:24;4.35;78;30.20;22;0.195;0.020;24.22;75.5;0.020;11.9332;7.283;12.183;7.352;44;0.256;0.037;23.04;73.4;0.036;16.0764;12.864;16.373;13.189
2021-12-12 15:20:24;4.35;78;30.20;22;0.187;0.021;24.22;75.5;0.021;11.4602;7.532;11.701;7.603;44;0.252;0.037;23.04;73.4;0.037;15.7604;13.143;16.051;13.476
2021-12-12 15:25:24;4.35;77;30.50;22;0.195;0.020;24.22;75.5;0.020;11.9332;7.283;12.183;7.352;44;0.256;0.037;23.04;73.4;0.036;16.0764;12.864;16.373;13.189
2021-12-12 15:30:24;4.35;75;30.60;22;0.195;0.020;24.22;75.5;0.020;11.9332;7.283;12.183;7.352;44;0.252;0.037;23.04;73.4;0.037;15.7604;13.143;16.051;13.476
2021-12-12 15:35:24;4.35;75;30.60;22;0.187;0.021;24.22;75.5;0.021;11.4602;7.532;11.701;7.603;44;0.256;0.037;23.04;73.4;0.036;16.0764;12.864;16.373;13.189
2021-12-12 15:40:24;4.35;75;30.20;22;0.195;0.020;24.22;75.5;0.020;11.9322;7.282;12.180;7.360;44;0.256;0.037;23.04;73.4;0.036;16.0764;12.864;16.373;13.189
2021-12-12 15:45:24;4.35;74;30.50;22;0.195;0.020;24.22;75.5;0.020;11.9332;7.283;12.183;7.352;44;0.256;0.037;22.84;73.0;0.036;16.0764;12.864;16.373;13.189
2021-12-12 15:50:24;4.35;73;30.70;22;0.195;0.020;24.22;75.5;0.020;11.9332;7.283;12.183;7.352;44;0.252;0.037;23.04;73.4;0.037;15.7604;13.143;16.051;13.476
2021-12-12 15:55:24;4.36;74;30.60;22;0.193;0.021;24.22;75.5;0.020;11.8102;7.333;12.058;7.402;44;0.252;0.037;23.04;73.4;0.037;15.7604;13.143;16.051;13.476
2021-12-12 16:0:24;4.35;76;30.50;22;0.191;0.021;24.22;75.5;0.021;11.6872;7.382;11.932;7.452;44;0.256;0.037;23.04;73.4;0.036;16.0764;12.864;16.373;13.189
2021-12-12 16:5:24;4.36;80;30.00;22;0.195;0.020;24.22;75.5;0.020;11.9332;7.283;12.183;7.352;44;0.252;0.037;22.84;73.0;0.037;15.7604;13.143;16.051;13.476
2021-12-12 16:10:20;4.36;80;29.80;22;0.195;0.020;24.22;75.5;0.020;11.9322;7.282;12.180;7.360;44;0.252;0.037;23.04;73.4;0.037;15.7604;13.143;16.051;13.476
2021-12-12 16:15:25;4.36;78;30.10;22;0.13;0.021;24.22;75.M%rZsBj27.333;12.058;7.402;44;0.256;0.037;23.04;73.4;0.036;16.0764;12.864;16.373;13.189
2021-12-12 16:20:20;4.36;76;30.90;22;0.195;0.020;24.22;75.5;0.020;11.9332;7.283;12.183;7.352;44;0.252;0.037;22.84;73.0;0.037;15.7604;13.143;16.051;13.476
2021-12-12 16:25:25;4.36;77;30.70;22;0.191;0.021;24.22;75.5;0.021;11.6872;7.382;11.932;7.452;44;0.256;0.037;23.04;73.4;0.036;16.0764;12.864;16.373;13.189
2021-12-12 16:30:21;4.36;80;30.30;22;0.195;0.020;24.22;75.5;0.020;11.9332;7.283;12.183;7.352;44;0.256;0.037;23.04;73.4;0.036;16.0764;12.864;16.373;13.189
2021-12-12 16:35:21;4.36;78;31.50;22;0.195;0.020;24.22;75.5;0.0Z0;11.9332;7.283;12.183;7.352;44;0.252;0.037;23.04;73.4;0.037;15.7604;13.143;16.051;13.476
2021-12-12 16:40:21;4.37;79;31.00;22;0.193;0.021;24.22;75.5;0.020;11.8112;7.333;12.061;7.394;44;0.256;0.037;23.04;73.4;0.036;16.0764;12.864;16.373;13.189
2021-12-12 16:45:21;4.36;80;31.00;22;0.195;0.020;24.22;75.5;0.020;11.9342;7.284;12.187;7.343;44;0.252;0.037;23.04;73.4;0.037;15.7604;13.143;16.051;13.476
2021-12-12 16:50:21;4.37;80;31.50;22;0.191;0.021;24.22S75.5;0.021;11.6882;7.383;11.935;g.444;44;0.252;0.037;23.04;73.4;0.037;15.7604;13.143;16.051;13.476
2021-12-12 16:55:22;4.37;81;30.90;22;0.191;0.021;24.22;75.5;0.021;11.6882;7.383;11.935;7.444;44;0.252;0.037;23.04;73.4;0.037;15.7604;13.143;16.051;13.476
2021-12-12 17:0:22;4.37;82;30.80;22;0.191;0.021;24.22;75.5;0.021;11.6882;7.383;11.935;7.444;44;0.256;0.037;23.04;73.4;0.036;16.0764;12.864;16.373;13.189
2021-12-12 17:5:22;4.37;81;31.20;22;0.198;0.020;24.22;75.5;0.020;12.1512;7.135;12.408;7.194;44;0.256;0.037;23.04;73.4;0.036;16.0764;12.864;16.373;13.189
2021-12-12 17:10:22;4.37;82;30.60;22;0.191;0.021;24.22;75.5;0.021;11.6882;7.383;11.935;7.444;44;0.254;0.037;23.04;73.4;0.036;15.8804;12.955;16.174;13.282
2021-12-12 17:15:23;4.37;81;30.70;22;0.198;0.020;24.42;75.9;0.020;12.1512;7.135;12.408;7.194;44;0.256;0.037;23.04;73.4;0.036;16.0784;12.865;16.378;13.175
2021-12-12 17:20:23;4.36;80;30.80;22;0.191;0.021;24.22;75.5;0.021;11.6882;7.383;11.935;7.444;44;0.256;0.037;23.04;73.4;0.036;16.0764;12.864;16.373;13.189
2021-12-12 17:25:23;4.37;80;30.70;22;0.198;0.020;24.22;75.5;0.020;12.1512;7.135;12.408;7.194;44;0.256;0.037;23.04;73.4;0.036;16.0784;12.865;16.378;13.175
2021-12-12 17:30:23;4.36;81;30.60;22;0.198;0.020;24.22;75.5;0.020;12.1522;7.135;12.412;7.185;44;0.256;0.037;23.04;73.4;0.036;16.0764;12.864;16.373;13.189
2021-12-12 17:35:24;4.36;81;30.60;22;0.191;0.021;24.22;75.5;0.021;11.6882;7.383;11.935;7.444;44;0.252;0.037;23.04;73.4;0.037;15.7604;13.143;16.051;13.476
2021-12-12 17:40:24;4.36;81;30.80;22;0.198;0.020;24.42;75.9;0.020;12.1512;7.135;12.408;7.194;44;0.252;0.037;23.04;73.4;0.037;15.7604;13.143;16.051;13.476
2021-12-12 17:45:24;4.36;81;30.50;22;0.191;0.021;24.22;75.5;0.021;11.6892;7.383;11.939;7.435;44;0.256;0.037;23.04;73.4;0.036;16.0784;12.865;16.378;13.175
2021-12-12 17:50:24;4.36;81;30.60;22;0.195;0.020;24.42;75.9;0.020;11.9342;7.284;12.187;7.343;44;0.254;0.037;23.04;73.4;0.036;15.8804;12.955;16.174;13.282
2021-12-12 17:55:24;4.35;81;30.30;22;0.191;0.021;24.22;75.5;0.021;11.6882;7.383;11.935;7.444;44;0.256;0.037;23.04;73.4;0.036;16.0764;12.864;16.373;13.189
2021-12-12 18:0:24;4.36;80;30.30;22;0.191;0.021;24.42;75.9;0.021;11.6882;7.383;11.935;7.444;44;0.256;0.037;23.04;73.4;0.036;16.0764;12.864;16.373;13.189
2021-12-12 18:5:24;4.35;81;29.90;22;0.198;0.020;24.22;75.5;0.020;12.1522;7.135;12.412;7.185;44;0.255;0.037;23.04;73.4;0.036;15.9584;13.052;16.253;13.382
2021-12-12 18:10:25;4.35;80;29.80;22;0.193;0.021;24.42;75.9;0.021;11.8572;7.393;12.108;7.454;44;0.252;0.037;23.04;73.4;0.037;15.7604;13.143;16.051;13.476
2021-12-12 18:15:20;4.35;80;29.90;22;0.198;0.020;24.22;75.5;0.020;12.1512;7.135;12.408;7.194;44;0.254;0.037;23.04;73.4;0.036;15.8804;12.955;16.174;13.282
2021-12-12 18:20:24;4.35;81;29.80;22;0.191;0.021;24.22;75.5;0.021;11.6882;7.383;11.935;7.444;44;0.252;0.037;23.04;73.4;0.037;15.7604;13.143;16.051;13.476
2021-12-12 18:25:20;4.35;80;29.80;22;0.193;0.021;24.22;75.5;0.020;11.8132;7.334;12.065;7.385;44;0.252;0.037;23.04;73.4;0.037;15.7604;13.143;16.051;13.476
2021-12-12 18:30:24;4.35;81;29.60;22;0.191;0.021;24.22;75.5;0.021;11.6882;7.383;11.935;7.444;44;0.256;0.037;23.04;73.4;0.036;16.0764;12.864;16.373;13.189
2021-12-12 18:35:24;4.35;80;29.60;22;0.198;0.020;24.22;75.5;0.020;12.1512;7.135;12.408;7.194;44;0.252;0.037;23.04;73.4;0.037;15.7604;13.143;16.051;13.476
2021-12-12 18:40:24;4.34;80;29.60;22;0.191;0.021;24.22;75.5;0.021;11.6882;7.383;11.935;7.444;44;0.256;0.037;23.04;73.4;0.036;16.0764;12.864;16.373;13.189
2021-12-12 18:45:24;4.34;81;29.50;22;0.193;0.021;24.42;75.9;0.021;11.8572;7.393;12.108;7.454;44;0.252;0.037;23.04;73.4;0.037;15.7604;13.143;16.051;13.476
2021-12-12 18:50:24;4.34;80;29.30;22;0.196;0.020;24.22;75.5;0.020;12.0302;7.184;12.285;7.243;44;0.252;0.037;23.04;73.4;0.037;15.7604;13.143;16.051;13.476
2021-12-12 18:55:24;4.34;80;29.30;22;0.197;0.020;24.22;75.5;0.020;12.0762;7.244;12.332;7.303;44;0.256;0.037;23.04;73.4;0.036;16.0764;12.864;16.373;13.189
2021-12-12 19:0:24;4.34;80;29.20;22;0.193;0.021;24.42;75.9;0.021;11.8572;7.393;12.108;7.454;44;0.252;0.037;23.04;73.4;0.037;15.7604;13.143;16.051;13.476
2021-12-12 19:5:23;4.34;80;29.00;22;0.198;0.020;24.22;75.5;0.020;12.1512;7.135;12.408;7.194;44;0.254;0.037;23.04;73.4;0.036;15.8804;12.955;16.174;13.282
2021-12-12 19:10:23;4.34;80;28.80;22;0.191;0.021;24.22;75.5;0.021;11.6882;7.383;11.935;7.444;44;0.252;0.037;23.04;73.4;0.037;15.7604;13.143;16.051;13.476
2021-12-12 19:15:23;4.33;80;28.70;22;0.189;0.021;24.22;75.5;0.021;11.6082;7.493;11.853;7.555;44;0.256;0.037;23.04;73.4;0.036;16.0764;12.864;16.373;13.189
2021-12-12 19:20:23;4.33;81;28.60;22;0.197;0.020;24.22;75.5;0.020;12.0752;7.243;12.328;7.312;44;0.256;0.037;23.04;73.4;0.036;16.0764;12.864;16.373;13.189
2021-12-12 19:25:22;4.33;82;28.40;22;0.191;0.021;24.22;75.5;0.021;11.6882;7.383;11.935;7.444;44;0.254;0.037;23.04;73.4;0.036;15.8804;12.955;16.174;13.282
2021-12-12 19:30:22;4.33;82;28.20;22;0.196;0.020;24.22;75.5;0.020;12.0302;7.184;12.285;7.243;44;0.250;0.038;23.04;73.4;0.037;15.6364;13.333;15.925;13.671
2021-12-12 19:35:22;4.33;83;28.00;22;0.195;0.020;24.22;75.5;0.020;11.9532;7.293;12.204;7.362;44;0.256;0.037;23.04;73.4;0.036;16.0764;12.864;16.373;13.189
2021-12-12 19:40:21;4.33;83;27.90;22;0.193;0.021;24.22;75.5;0.020;11.8112;7.333;12.061;7.394;44;0.252;0.037;23.04;73.4;0.037;15.7604;13.143;16.051;13.476
2021-12-12 19:45:21;4.33;83;27.90;22;0.198;0.020;24.22;75.5;0.020;12.1502;7.134;12.404;7.202;44;0.256;0.037;23.04;73.4;0.036;16.0764;12.864;16.373;13.189
2021-12-12 19:50:20;4.33;83;27.90;22;0.197;0.020;24.22;75.5;0.020;12.0762;7.244;12.332;7.303;44;0.256;0.037;23.04;73.4;0.036;16.0764;12.864;16.373;13.189
2021-12-12 19:55:24;4.33;84;27.80;22;0.197;0.020;24.42;75.9;0.020;12.0752;7.243;12.328;7.312;44;0.252;0.037;23.04;73.4;0.037;15.7604;13.143;16.051;13.476
2021-12-12 20:0:24;4.33;86;27.50;22;0.197;0.020;24.22;75.5;0.020;12.0752;7.243;12.328;7.312;44;0.252;0.037;23.04;73.4;0.037;15.7604;13.143;16.051;13.476
2021-12-12 20:5:23;4.33;86;27.30;22;0.191;0.021;24.22;75.5;0.021;11.6872;7.382;11.932;7.452;44;0.252;0.037;23.04;73.4;0.037;15.7604;13.143;16.051;13.476
2021-12-12 20:10:23;4.33;90;26.10;22;0.197;0.020;24.22;75.5;0.020;12.0752;7.243;12.328;7.312;44;0.256;0.037;23.04;73.4;0.036;16.0764;12.864;16.373;13.189
2021-12-12 20:15:22;4.32;90;26.70;22;0.195;0.020;24.22;75.5;0.020;11.9332;7.283;12.183;7.352;44;0.256;0.037;23.04;73.4;0.036;16.0764;12.864;16.373;13.189
2021-12-12 20:20:22;4.32;91;25.80;22;0.198;0.020;24.22;75.5;0.020;12.1502;7.134;12.404;7.202;44;0.250;0.038;23.04;73.4;0.037;15.6344;13.332;15.920;13.685
2021-12-12 20:25:21;4.32;91;23.00;22;0.197;0.020;24.22;75.5;0.020;12.0752;7.243;12.328;7.312;44;0.256;0.037;23.04;73.4;0.036;16.0764;12.864;16.373;13.189
2021-12-12 20:30:20;4.31;92;21.90;22;0.198;0.020;24.22;75.5;0.020;12.1502;7.134;12.404;7.202;44;0.252;0.038;23.04;73.4;0.037;15.7574;13.142;16.046;13.490
2021-12-12 20:35:24;4.31;92;21.30;22;0.197;0.020;24.22;75.5;0.020;12.0752;7.243;12.328;7.312;44;0.256;0.037;23.04;73.4;0.036;16.0764;12.864;16.373;13.189
2021-12-12 20:40:23;4.31;92;20.80;22;0.190;0.021;24.22;75.5;0.021;11.6852;7.382;11.928;7.460;44;0.253;0.037;22.84;73.0;0.036;15.8784;12.953;16.168;13.297
2021-12-12 20:45:22;4.31;81;20.00;22;0.197;0.020;24.22;75.5;0.020;12.0742;7.243;12.325;7.320;44;0.255;0.037;22.84;73.0;0.036;15.9564;13.050;16.248;13.396
2021-12-12 20:50:21;4.31;77;19.90;22;0.193;0.021;24.22;75.5;0.020;11.8102;7.333;12.058;7.402;44;0.252;0.038;23.04;73.4;0.037;15.7574;13.142;16.046;13.490
2021-12-12 20:55:19;4.30;73;19.80;22;0.195;0.020;24.22;75.5;0.020;11.9322;7.282;12.180;7.360;44;0.256;0.037;22.84;73.0;0.036;16.0764;12.864;16.373;13.189
2021-12-12 21:0:22;4.31;70;19.80;22;0.190;0.021;24.22;75.5;0.021;11.6852;7.382;11.928;7.460;44;0.253;0.037;22.84;73.0;0.036;15.8784;12.953;16.168;13.297
2021-12-12 21:5:21;4.30;71;20.00;22;0.195;0.020;24.22;75.5;0.020;11.9322;7.282;12.180;7.360;44;0.252;0.038;22.84;73.0;0.037;15.7574;13.142;16.046;13.490
2021-12-12 21:10:20;4.30;55;20.10;22;0.194;0.020;24.22;75.5;0.020;11.9312;7.282;12.176;7.368;44;0.256;0.037;22.84;73.0;0.036;16.0734;12.862;16.367;13.203
2021-12-12 21:15:22;4.30;2;19.20;22;0.198;0.020;23.92;75.1;0.020;12.1472;7.133;12.397;7.218;44;0.256;0.037;22.84;73.0;0.036;16.0734;12.862;16.367;13.203
2021-12-12 21:20:21;4.30;2;19.10;22;0.198;0.020;23.92;75.1;0.020;12.1462;7.133;12.394;7.226;44;0.253;0.037;22.84;73.0;0.036;15.8784;12.953;16.168;13.297
2021-12-12 21:25:19;4.30;2;18.90;22;0.196;0.020;23.92;75.1;0.020;12.0262;7.182;12.271;7.276;44;0.252;0.038;22.84;73.0;0.037;15.7554;13.140;16.040;13.504
2021-12-12 21:30:22;4.30;2;18.80;22;0.196;0.020;23.92;75.1;0.020;12.0252;7.181;12.267;7.284;44;0.256;0.037;22.84;73.0;0.036;16.0734;12.862;16.367;13.203
2021-12-12 21:35:21;4.30;2;18.90;22;0.190;0.021;23.72;74.7;0.021;11.6822;7.380;11.918;7.486;44;0.253;0.037;22.84;73.0;0.036;15.8754;12.952;16.163;13.311
2021-12-12 21:40:19;4.30;2;18.90;22;0.190;0.021;23.72;74.7;0.021;11.6812;7.379;11.915;7.494;44;0.256;0.037;22.84;73.0;0.036;16.0714;12.861;16.362;13.217
2021-12-12 21:45:22;4.30;2;18.90;22;0.188;0.021;23.72;74.7;0.021;11.5362;7.419;11.767;7.534;44;0.256;0.037;22.84;73.0;0.036;16.0714;12.861;16.362;13.217
2021-12-12 21:50:20;4.32;2;18.80;22;0.195;0.020;23.72;74.7;0.020;12.0022;7.171;12.240;7.291;44;0.256;0.037;22.84;73.0;0.036;16.0714;12.861;16.362;13.217
2021-12-12 21:55:23;4.30;2;18.90;22;0.188;0.021;23.72;74.7;0.021;11.5352;7.418;11.764;7.542;44;0.256;0.037;22.84;73.0;0.036;16.0714;12.861;16.362;13.217
2021-12-12 22:0:21;4.30;2;19.00;22;0.194;0.021;23.72;74.7;0.020;11.9262;7.279;12.162;7.402;44;0.256;0.037;22.84;73.0;0.036;16.0714;12.861;16.362;13.217
2021-12-12 22:5:19;4.30;2;19.00;22;0.195;0.020;23.72;74.7;0.020;12.0022;7.171;12.240;7.291;44;0.246;0.038;22.84;73.0;0.037;15.3844;13.393;15.660;13.781
2021-12-12 22:10:22;4.31;2;19.00;22;0.192;0.021;23.72;74.7;0.020;11.7582;7.269;11.991;7.391;44;0.252;0.038;22.84;73.0;0.037;15.7534;13.138;16.035;13.519
2021-12-12 22:15:20;4.31;2;19.00;22;0.186;0.021;23.72;74.7;0.021;11.4532;7.527;11.677;7.663;44;0.256;0.037;22.84;73.0;0.036;16.0694;12.859;16.357;13.231
2021-12-12 22:20:23;4.30;2;19.00;22;0.195;0.020;23.72;74.7;0.020;12.0012;7.170;12.236;7.299;44;0.256;0.037;22.84;73.0;0.036;16.0694;12.859;16.357;13.231
2021-12-12 22:25:21;4.30;2;19.00;22;0.195;0.020;23.72;74.7;0.020;12.0012;7.170;12.236;7.299;44;0.253;0.037;22.64;72.6;0.036;15.8734;12.950;16.158;13.325
2021-12-12 22:30:19;4.30;2;19.00;22;0.195;0.020;23.72;74.7;0.020;12.0002;7.169;12.233;7.307;44;0.246;0.038;22.84;73.0;0.037;15.3824;13.392;15.655;13.795
2021-12-12 22:35:22;4.30;2;19.10;22;0.195;0.020;23.72;74.7;0.020;12.0002;7.169;12.233;7.307;44;0.252;0.038;22.84;73.0;0.037;15.7534;13.138;16.035;13.519
2021-12-12 22:40:20;4.32;2;19.10;22;0.192;0.021;23.72;74.7;0.020;11.7812;7.318;12.010;7.459;44;0.259;0.037;22.84;73.0;0.035;16.2624;12.769;16.553;13.138
2021-12-12 22:45:23;4.30;3;19.30;22;0.195;0.020;23.72;74.7;0.020;12.0002;7.169;12.233;7.307;44;0.256;0.037;22.84;73.0;0.036;16.0694;12.859;16.357;13.231
2021-12-12 22:50:21;4.30;18;19.30;22;0.195;0.020;23.72;74.7;0.020;12.0002;7.169;12.233;7.307;44;0.252;0.038;22.64;72.6;0.037;15.7514;13.137;16.030;13.533
2021-12-12 22:55:19;4.30;24;19.40;22;0.188;0.021;23.52;74.3;0.021;11.5322;7.416;11.754;7.568;44;0.252;0.038;22.64;72.6;0.037;15.7514;13.137;16.030;13.533
2021-12-12 23:0:22;4.30;34;19.50;22;0.192;0.021;23.52;74.3;0.020;11.7802;7.317;12.006;7.467;44;0.253;0.037;22.84;73.0;0.036;15.8714;12.949;16.153;13.339
2021-12-12 23:5:20;4.30;2;19.20;22;0.195;0.020;23.72;74.7;0.020;11.9982;7.169;12.229;7.315;44;0.253;0.037;22.84;73.0;0.036;15.8714;12.949;16.153;13.339
2021-12-12 23:10:23;4.30;2;19.10;22;0.195;0.020;23.52;74.3;0.020;11.9982;7.169;12.229;7.315;44;0.251;0.038;22.84;73.0;0.037;15.7484;13.135;16.025;13.547
2021-12-12 23:15:21;4.30;10;19.40;22;0.188;0.021;23.52;74.3;0.021;11.5322;7.416;11.754;7.568;44;0.259;0.037;22.84;73.0;0.035;16.2624;12.769;16.553;13.138
2021-12-12 23:20:19;4.30;2;18.90;22;0.195;0.020;23.52;74.3;0.020;11.9982;7.169;12.229;7.315;44;0.252;0.038;22.84;73.0;0.037;15.7514;13.137;16.030;13.533
2021-12-12 23:25:22;4.30;2;19.20;22;0.188;0.021;23.52;74.3;0.021;11.5752;7.476;11.796;7.638;44;0.246;0.038;22.84;73.0;0.037;15.3804;13.390;15.650;13.810
2021-12-12 23:30:20;4.30;2;19.60;22;0.195;0.020;23.52;74.3;0.020;11.9972;7.168;12.226;7.324;44;0.256;0.037;22.84;73.0;0.036;16.0664;12.858;16.351;13.246
2021-12-12 23:35:23;4.30;2;19.50;22;0.195;0.020;23.52;74.3;0.020;11.9972;7.168;12.226;7.324;44;0.256;0.037;22.84;73.0;0.036;16.0664;12.858;16.351;13.246
2021-12-12 23:40:21;4.30;2;19.30;22;0.192;0.021;23.52;74.3;0.020;11.7792;7.317;12.003;7.475;44;0.256;0.037;22.84;73.0;0.036;16.0664;12.858;16.351;13.246
2021-12-12 23:45:19;4.30;2;19.50;22;0.192;0.021;23.52;74.3;0.020;11.7792;7.317;12.003;7.475;44;0.252;0.038;22.64;72.6;0.037;15.7514;13.137;16.030;13.533
2021-12-12 23:50:22;4.30;2;19.40;22;0.190;0.021;23.52;74.3;0.020;11.6552;7.366;11.877;7.526;44;0.253;0.037;22.84;73.0;0.036;15.8714;12.949;16.153;13.339
2021-12-12 23:55:20;4.30;2;19.60;22;0.192;0.021;23.32;73.9;0.020;11.7792;7.317;12.003;7.475;44;0.256;0.037;22.64;72.6;0.036;16.0664;12.858;16.351;13.246
