2021-10-1 0:0:21;4.26;99;15.30;22;0.253;0.030;17.52;63.5;0.027;16.0672;9.749;16.157;10.891;44;0.239;0.037;17.24;62.9;0.033;15.0364;11.935;15.114;13.375
2021-10-1 0:5:18;4.26;99;15.30;22;0.247;0.032;17.52;63.5;0.028;15.5872;10.160;15.675;11.350;44;0.240;0.037;17.24;62.9;0.033;15.1464;11.761;15.222;13.194
2021-10-1 0:10:20;4.26;99;15.10;22;0.250;0.031;17.52;63.5;0.028;15.8132;9.946;15.902;11.111;44;0.240;0.037;17.24;62.9;0.033;15.1484;11.762;15.226;13.181
2021-10-1 0:15:22;4.26;99;15.00;22;0.253;0.030;17.52;63.5;0.027;16.0672;9.749;16.157;10.891;44;0.239;0.037;17.24;62.9;0.033;15.0344;11.934;15.110;13.388
2021-10-1 0:20:20;4.26;99;14.80;22;0.250;0.031;17.52;63.5;0.028;15.8122;9.945;15.899;11.122;44;0.240;0.037;17.24;62.9;0.033;15.1464;11.761;15.222;13.194
2021-10-1 0:25:22;4.26;99;14.50;22;0.250;0.031;17.52;63.5;0.028;15.8122;9.945;15.899;11.122;44;0.239;0.037;17.34;63.2;0.033;15.0344;11.934;15.110;13.388
2021-10-1 0:30:19;4.26;99;14.40;22;0.250;0.031;17.52;63.5;0.028;15.8102;9.944;15.895;11.133;44;0.240;0.037;17.24;62.9;0.033;15.1464;11.761;15.222;13.194
2021-10-1 0:35:21;4.26;99;14.10;22;0.248;0.031;17.32;63.2;0.028;15.6652;10.014;15.749;11.210;44;0.247;0.036;17.04;62.6;0.032;15.6484;11.447;15.726;12.842
2021-10-1 0:40:19;4.26;99;14.10;22;0.250;0.031;17.32;63.2;0.028;15.8102;9.944;15.895;11.133;44;0.247;0.036;17.04;62.6;0.032;15.6464;11.446;15.722;12.854
2021-10-1 0:45:20;4.26;99;13.90;22;0.250;0.031;17.32;63.2;0.028;15.8102;9.944;15.895;11.133;44;0.239;0.037;17.24;62.9;0.033;15.0334;11.933;15.106;13.401
2021-10-1 0:50:22;4.26;99;13.50;22;0.257;0.030;17.32;63.2;0.027;16.3452;9.609;16.432;10.757;44;0.247;0.036;17.04;62.6;0.032;15.6464;11.446;15.722;12.854
2021-10-1 0:55:20;4.26;99;13.40;22;0.250;0.031;17.32;63.2;0.028;15.8102;9.944;15.895;11.133;44;0.240;0.037;17.04;62.6;0.033;15.1444;11.760;15.218;13.207
2021-10-1 1:0:21;4.26;99;13.60;22;0.250;0.031;17.32;63.2;0.028;15.8092;9.944;15.891;11.143;44;0.239;0.037;17.04;62.6;0.033;15.0314;11.932;15.103;13.414
2021-10-1 1:5:19;4.26;99;13.70;22;0.254;0.031;17.32;63.2;0.027;16.0962;9.805;16.179;10.988;44;0.240;0.037;17.04;62.6;0.033;15.1444;11.760;15.218;13.207
2021-10-1 1:10:21;4.25;99;13.80;22;0.253;0.030;17.52;63.5;0.027;16.0612;9.746;16.142;10.934;44;0.239;0.037;17.24;62.9;0.033;15.0314;11.932;15.103;13.414
2021-10-1 1:15:18;4.25;99;13.60;22;0.250;0.031;17.32;63.2;0.028;15.8072;9.943;15.887;11.154;44;0.240;0.037;17.04;62.6;0.033;15.1434;11.759;15.215;13.219
2021-10-1 1:20:20;4.25;99;13.70;22;0.250;0.031;17.32;63.2;0.028;15.8072;9.943;15.887;11.154;44;0.238;0.037;17.04;62.6;0.033;15.0304;11.931;15.099;13.427
2021-10-1 1:25:22;4.25;99;13.80;22;0.250;0.031;17.32;63.2;0.028;15.8072;9.943;15.887;11.154;44;0.238;0.037;17.04;62.6;0.033;15.0304;11.931;15.099;13.427
2021-10-1 1:30:19;4.25;99;13.70;22;0.250;0.031;17.32;63.2;0.028;15.8072;9.943;15.887;11.154;44;0.240;0.037;17.04;62.6;0.033;15.1434;11.759;15.215;13.219
2021-10-1 1:35:21;4.25;98;13.70;22;0.251;0.031;17.32;63.2;0.027;15.8852;9.800;15.965;10.994;44;0.243;0.037;17.04;62.6;0.032;15.3224;11.675;15.393;13.139
2021-10-1 1:40:18;4.25;99;13.50;22;0.251;0.031;17.22;62.9;0.027;15.8852;9.800;15.965;10.994;44;0.243;0.037;17.04;62.6;0.032;15.3224;11.675;15.393;13.139
2021-10-1 1:45:20;4.25;99;13.40;22;0.251;0.031;17.32;63.2;0.027;15.8852;9.800;15.965;10.994;44;0.247;0.036;17.04;62.6;0.032;15.6434;11.444;15.714;12.879
2021-10-1 1:50:22;4.25;99;13.10;22;0.251;0.031;17.32;63.2;0.027;15.8832;9.799;15.961;11.005;44;0.240;0.037;17.04;62.6;0.033;15.1414;11.758;15.211;13.232
2021-10-1 1:55:19;4.25;99;12.90;22;0.250;0.031;17.32;63.2;0.028;15.8062;9.942;15.883;11.165;44;0.249;0.035;17.04;62.6;0.031;15.7434;11.275;15.816;12.688
2021-10-1 2:0:21;4.25;99;12.50;22;0.251;0.031;17.32;63.2;0.027;15.8832;9.799;15.961;11.005;44;0.238;0.037;17.04;62.6;0.033;15.0284;11.930;15.095;13.439
2021-10-1 2:5:18;4.24;99;12.40;22;0.253;0.030;17.22;62.9;0.027;16.0262;9.730;16.104;10.927;44;0.243;0.037;17.04;62.6;0.032;15.3224;11.675;15.393;13.139
2021-10-1 2:10:20;4.25;99;12.40;22;0.253;0.030;17.22;62.9;0.027;16.0262;9.730;16.104;10.927;44;0.240;0.037;16.84;62.3;0.033;15.1394;11.757;15.207;13.245
2021-10-1 2:15:22;4.25;99;12.30;22;0.254;0.030;17.22;62.9;0.027;16.1652;9.660;16.242;10.860;44;0.240;0.037;16.84;62.3;0.033;15.1394;11.757;15.207;13.245
2021-10-1 2:20:19;4.24;99;12.10;22;0.251;0.031;17.22;62.9;0.027;15.8822;9.798;15.957;11.015;44;0.238;0.037;17.04;62.6;0.033;15.0264;11.929;15.091;13.452
2021-10-1 2:25:20;4.25;99;12.00;22;0.250;0.031;17.22;62.9;0.027;15.8802;9.798;15.953;11.026;44;0.243;0.037;16.84;62.3;0.032;15.3204;11.674;15.389;13.152
2021-10-1 2:30:22;4.25;99;12.00;22;0.250;0.031;17.02;62.6;0.027;15.8802;9.798;15.953;11.026;44;0.243;0.037;16.84;62.3;0.032;15.3194;11.673;15.385;13.164
2021-10-1 2:35:19;4.24;99;11.80;22;0.254;0.030;17.02;62.6;0.027;16.1642;9.660;16.238;10.871;44;0.248;0.035;16.84;62.3;0.031;15.7404;11.273;15.808;12.713
2021-10-1 2:40:21;4.24;99;11.70;22;0.250;0.031;17.02;62.6;0.027;15.8802;9.798;15.953;11.026;44;0.240;0.037;16.84;62.3;0.033;15.1384;11.756;15.203;13.257
2021-10-1 2:45:18;4.24;99;11.70;22;0.254;0.030;17.02;62.6;0.027;16.1642;9.660;16.238;10.871;44;0.240;0.037;16.84;62.3;0.033;15.1384;11.756;15.203;13.257
2021-10-1 2:50:20;4.24;99;11.40;22;0.250;0.031;17.02;62.6;0.027;15.8792;9.797;15.950;11.037;44;0.240;0.037;16.84;62.3;0.033;15.1364;11.755;15.199;13.270
2021-10-1 2:55:21;4.24;99;11.30;22;0.250;0.031;17.02;62.6;0.027;15.8792;9.797;15.950;11.037;44;0.242;0.036;16.84;62.3;0.032;15.2464;11.584;15.312;13.064
2021-10-1 3:0:19;4.24;99;11.30;22;0.254;0.030;17.02;62.6;0.027;16.1622;9.659;16.234;10.881;44;0.248;0.035;16.84;62.3;0.031;15.7384;11.272;15.804;12.725
2021-10-1 3:5:20;4.24;99;11.20;22;0.254;0.030;17.02;62.6;0.027;16.1612;9.658;16.230;10.892;44;0.238;0.037;16.84;62.3;0.033;15.0254;11.927;15.087;13.465
2021-10-1 3:10:22;4.24;99;11.10;22;0.254;0.030;17.02;62.6;0.027;16.1612;9.658;16.230;10.892;44;0.240;0.037;16.84;62.3;0.033;15.1354;11.754;15.195;13.283
2021-10-1 3:15:19;4.24;99;11.20;22;0.254;0.030;17.02;62.6;0.027;16.1612;9.658;16.230;10.892;44;0.240;0.037;16.74;62.0;0.033;15.1364;11.755;15.199;13.270
2021-10-1 3:20:20;4.24;99;11.30;22;0.247;0.031;17.02;62.6;0.028;15.6222;9.993;15.689;11.269;44;0.240;0.037;16.84;62.3;0.033;15.1354;11.754;15.195;13.283
2021-10-1 3:25:22;4.24;99;11.20;22;0.254;0.030;17.02;62.6;0.027;16.1582;9.657;16.223;10.913;44;0.244;0.036;16.74;62.0;0.032;15.4214;11.500;15.483;12.997
2021-10-1 3:30:19;4.24;99;11.00;22;0.250;0.031;16.82;62.3;0.027;15.8762;9.795;15.942;11.058;44;0.240;0.037;16.74;62.0;0.033;15.1354;11.754;15.195;13.283
2021-10-1 3:35:20;4.24;99;10.80;22;0.247;0.031;16.82;62.3;0.028;15.6212;9.992;15.686;11.280;44;0.240;0.037;16.84;62.3;0.033;15.1354;11.754;15.195;13.283
2021-10-1 3:40:18;4.24;99;11.00;22;0.254;0.030;16.82;62.3;0.027;16.1582;9.657;16.223;10.913;44;0.242;0.037;16.74;62.0;0.032;15.3154;11.671;15.377;13.190
2021-10-1 3:45:19;4.24;99;11.00;22;0.254;0.030;16.82;62.3;0.027;16.1582;9.657;16.223;10.913;44;0.241;0.036;16.74;62.0;0.032;15.2414;11.581;15.300;13.102
2021-10-1 3:50:21;4.24;99;11.00;22;0.243;0.032;16.82;62.3;0.028;15.3892;10.204;15.449;11.543;44;0.244;0.036;16.74;62.0;0.032;15.4204;11.499;15.480;13.009
2021-10-1 3:55:18;4.24;99;10.90;22;0.248;0.031;16.82;62.3;0.027;15.6972;9.847;15.757;11.140;44;0.240;0.037;16.74;62.0;0.033;15.1314;11.752;15.188;13.308
2021-10-1 4:0:19;4.24;99;10.90;22;0.248;0.031;16.82;62.3;0.027;15.6972;9.847;15.757;11.140;44;0.241;0.036;16.74;62.0;0.032;15.2414;11.581;15.300;13.102
2021-10-1 4:5:21;4.24;99;10.80;22;0.247;0.031;16.72;62.0;0.028;15.6182;9.990;15.678;11.302;44;0.244;0.036;16.74;62.0;0.032;15.4204;11.499;15.480;13.009
2021-10-1 4:10:18;4.24;99;10.70;22;0.249;0.031;16.82;62.3;0.028;15.7632;9.921;15.824;11.223;44;0.244;0.036;16.74;62.0;0.032;15.4204;11.499;15.480;13.009
2021-10-1 4:15:19;4.24;99;10.80;22;0.252;0.031;16.82;62.3;0.027;16.0142;9.724;16.074;11.012;44;0.244;0.036;16.74;62.0;0.032;15.4204;11.499;15.480;13.009
2021-10-1 4:20:21;4.24;99;10.90;22;0.254;0.030;16.82;62.3;0.027;16.1542;9.655;16.211;10.945;44;0.244;0.036;16.74;62.0;0.032;15.4204;11.499;15.480;13.009
2021-10-1 4:25:18;4.24;99;10.90;22;0.254;0.030;16.82;62.3;0.027;16.1542;9.655;16.211;10.945;44;0.244;0.036;16.54;61.7;0.032;15.4184;11.498;15.476;13.021
2021-10-1 4:30:19;4.24;99;11.00;22;0.250;0.031;16.72;62.0;0.027;15.8382;9.778;15.898;11.073;44;0.240;0.037;16.74;62.0;0.033;15.1314;11.752;15.188;13.308
2021-10-1 4:35:21;4.24;99;11.00;22;0.248;0.031;16.72;62.0;0.027;15.6952;9.847;15.754;11.151;44;0.240;0.037;16.54;61.7;0.033;15.1314;11.752;15.188;13.308
2021-10-1 4:40:18;4.24;99;11.00;22;0.248;0.031;16.72;62.0;0.027;15.6952;9.847;15.754;11.151;44;0.235;0.038;16.74;62.0;0.033;14.7964;11.983;14.849;13.584
2021-10-1 4:45:19;4.24;99;11.00;22;0.255;0.030;16.72;62.0;0.026;16.2272;9.514;16.288;10.774;44;0.240;0.037;16.74;62.0;0.033;15.1304;11.751;15.184;13.321
2021-10-1 4:50:21;4.23;99;11.10;22;0.255;0.030;16.72;62.0;0.026;16.2272;9.514;16.288;10.774;44;0.235;0.038;16.74;62.0;0.033;14.7974;11.984;14.853;13.571
2021-10-1 4:55:18;4.24;99;11.00;22;0.244;0.032;16.52;61.7;0.028;15.4692;10.058;15.524;11.402;44;0.240;0.037;16.74;62.0;0.033;15.1314;11.752;15.188;13.308
2021-10-1 5:0:20;4.24;99;10.80;22;0.250;0.031;16.72;62.0;0.027;15.8372;9.777;15.894;11.084;44;0.244;0.036;16.74;62.0;0.032;15.4184;11.498;15.476;13.021
2021-10-1 5:5:21;4.23;99;10.80;22;0.255;0.030;16.72;62.0;0.026;16.2262;9.514;16.284;10.785;44;0.244;0.036;16.74;62.0;0.032;15.4184;11.498;15.476;13.021
2021-10-1 5:10:18;4.23;99;10.90;22;0.248;0.031;16.72;62.0;0.027;15.6942;9.846;15.750;11.162;44;0.240;0.037;16.74;62.0;0.033;15.1304;11.751;15.184;13.321
2021-10-1 5:15:20;4.23;99;10.80;22;0.252;0.031;16.72;62.0;0.027;15.9792;9.708;16.036;11.006;44;0.235;0.038;16.74;62.0;0.033;14.7964;11.983;14.849;13.584
2021-10-1 5:20:21;4.23;99;10.70;22;0.248;0.031;16.72;62.0;0.027;15.6942;9.846;15.750;11.162;44;0.241;0.036;16.74;62.0;0.032;15.2404;11.580;15.297;13.114
2021-10-1 5:25:18;4.23;99;10.70;22;0.252;0.031;16.72;62.0;0.027;15.9782;9.708;16.033;11.016;44;0.235;0.038;16.74;62.0;0.033;14.7964;11.983;14.849;13.584
2021-10-1 5:30:20;4.23;99;10.70;22;0.248;0.031;16.72;62.0;0.027;15.6922;9.845;15.746;11.172;44;0.244;0.036;16.54;61.7;0.032;15.4174;11.498;15.472;13.034
2021-10-1 5:35:21;4.23;99;10.80;22;0.250;0.031;16.72;62.0;0.027;15.9012;9.849;15.953;11.188;44;0.240;0.037;16.54;61.7;0.033;15.1304;11.751;15.184;13.321
2021-10-1 5:40:18;4.23;99;10.70;22;0.250;0.031;16.72;62.0;0.027;15.8362;9.776;15.890;11.094;44;0.245;0.036;16.54;61.7;0.031;15.5204;11.328;15.575;12.842
2021-10-1 5:45:20;4.23;99;10.70;22;0.252;0.031;16.72;62.0;0.027;15.9782;9.708;16.033;11.016;44;0.240;0.037;16.54;61.7;0.033;15.1304;11.751;15.184;13.321
2021-10-1 5:50:21;4.23;99;10.80;22;0.252;0.031;16.72;62.0;0.027;15.9782;9.708;16.033;11.016;44;0.240;0.037;16.54;61.7;0.033;15.1304;11.751;15.184;13.321
2021-10-1 5:55:18;4.23;99;10.40;22;0.252;0.031;16.72;62.0;0.027;15.9782;9.708;16.033;11.016;44;0.244;0.036;16.54;61.7;0.032;15.4174;11.498;15.472;13.034
2021-10-1 6:0:20;4.23;99;10.60;22;0.250;0.031;16.52;61.7;0.027;15.8362;9.776;15.890;11.094;44;0.240;0.037;16.54;61.7;0.033;15.1304;11.751;15.184;13.321
2021-10-1 6:5:21;4.23;99;10.40;22;0.250;0.031;16.52;61.7;0.027;15.8362;9.776;15.890;11.094;44;0.241;0.036;16.54;61.7;0.032;15.2384;11.579;15.293;13.127
2021-10-1 6:10:18;4.23;99;10.30;22;0.248;0.031;16.72;62.0;0.027;15.6912;9.845;15.743;11.183;44;0.244;0.036;16.54;61.7;0.032;15.4174;11.498;15.472;13.034
2021-10-1 6:15:20;4.23;99;10.20;22;0.252;0.031;16.52;61.7;0.027;15.9762;9.707;16.029;11.027;44;0.240;0.037;16.54;61.7;0.033;15.1284;11.750;15.180;13.333
2021-10-1 6:20:21;4.22;99;9.80;22;0.252;0.031;16.52;61.7;0.027;15.9762;9.707;16.029;11.027;44;0.240;0.037;16.54;61.7;0.033;15.1284;11.750;15.180;13.333
2021-10-1 6:25:18;4.22;99;9.60;22;0.252;0.031;16.52;61.7;0.027;15.9762;9.707;16.029;11.027;44;0.240;0.037;16.54;61.7;0.033;15.1284;11.750;15.180;13.333
2021-10-1 6:30:19;4.22;99;9.40;22;0.251;0.031;16.52;61.7;0.027;15.9732;9.706;16.021;11.048;44;0.240;0.037;16.54;61.7;0.033;15.1284;11.750;15.180;13.333
2021-10-1 6:35:21;4.22;99;9.20;22;0.248;0.031;16.52;61.7;0.027;15.6902;9.844;15.739;11.194;44;0.240;0.037;16.54;61.7;0.033;15.1284;11.750;15.180;13.333
2021-10-1 6:40:18;4.22;99;9.10;22;0.251;0.031;16.52;61.7;0.027;15.9732;9.706;16.021;11.048;44;0.240;0.037;16.54;61.7;0.033;15.1264;11.749;15.176;13.346
2021-10-1 6:45:19;4.22;99;9.10;22;0.251;0.031;16.52;61.7;0.027;15.9732;9.706;16.021;11.048;44;0.244;0.036;16.34;61.4;0.032;15.4134;11.496;15.464;13.059
2021-10-1 6:50:21;4.22;99;8.90;22;0.252;0.030;16.32;61.4;0.027;16.0472;9.565;16.096;10.887;44;0.241;0.037;16.54;61.7;0.032;15.2354;11.577;15.285;13.151
2021-10-1 6:55:18;4.22;99;8.90;22;0.252;0.030;16.32;61.4;0.027;16.0462;9.564;16.092;10.898;44;0.241;0.037;16.34;61.4;0.032;15.2354;11.577;15.285;13.151
2021-10-1 7:0:19;4.22;99;9.20;22;0.250;0.031;16.32;61.4;0.027;15.9052;9.632;15.951;10.976;44;0.244;0.036;16.34;61.4;0.032;15.4124;11.495;15.460;13.071
2021-10-1 7:5:20;4.22;99;9.20;22;0.252;0.030;16.32;61.4;0.027;16.0462;9.564;16.092;10.898;44;0.245;0.036;16.34;61.4;0.031;15.5154;11.325;15.564;12.878
2021-10-1 7:10:21;4.22;99;9.20;22;0.254;0.030;16.32;61.4;0.026;16.1842;9.495;16.228;10.831;44;0.244;0.036;16.34;61.4;0.032;15.4124;11.495;15.460;13.071
2021-10-1 7:15:18;4.22;99;9.30;22;0.244;0.032;16.32;61.4;0.028;15.4282;10.038;15.470;11.450;44;0.240;0.037;16.34;61.4;0.033;15.1254;11.748;15.173;13.359
2021-10-1 7:20:20;4.22;99;9.70;22;0.250;0.031;16.32;61.4;0.027;15.9042;9.632;15.947;10.986;44;0.247;0.036;16.34;61.4;0.031;15.6894;11.244;15.738;12.786
2021-10-1 7:25:21;4.22;99;10.20;22;0.254;0.030;16.32;61.4;0.026;16.1822;9.494;16.224;10.841;44;0.244;0.036;16.34;61.4;0.032;15.4124;11.495;15.460;13.071
2021-10-1 7:30:18;4.22;99;10.50;22;0.250;0.031;16.32;61.4;0.027;15.9032;9.631;15.944;10.997;44;0.244;0.036;16.34;61.4;0.032;15.4124;11.495;15.460;13.071
2021-10-1 7:35:19;4.22;99;11.00;22;0.254;0.030;16.32;61.4;0.026;16.1822;9.494;16.224;10.841;44;0.241;0.037;16.34;61.4;0.032;15.2334;11.576;15.281;13.164
2021-10-1 7:40:21;4.22;99;11.20;22;0.252;0.030;16.22;61.1;0.027;16.0442;9.563;16.088;10.908;44;0.244;0.036;16.24;61.1;0.032;15.4124;11.495;15.460;13.071
2021-10-1 7:45:18;4.22;99;11.40;22;0.252;0.030;16.32;61.4;0.027;16.0442;9.563;16.088;10.908;44;0.236;0.037;16.34;61.4;0.033;14.9044;11.806;14.949;13.439
2021-10-1 7:50:19;4.22;99;11.70;22;0.252;0.030;16.32;61.4;0.027;16.0442;9.563;16.088;10.908;44;0.241;0.037;16.24;61.1;0.032;15.2324;11.575;15.278;13.176
2021-10-1 7:55:21;4.22;98;12.10;22;0.252;0.030;16.32;61.4;0.027;16.0442;9.563;16.088;10.908;44;0.243;0.036;16.34;61.4;0.032;15.3394;11.406;15.388;12.971
2021-10-1 8:0:18;4.22;98;12.20;22;0.252;0.030;16.32;61.4;0.027;16.0432;9.563;16.084;10.919;44;0.245;0.036;16.34;61.4;0.031;15.5154;11.325;15.564;12.878
2021-10-1 8:5:20;4.22;97;12.50;22;0.252;0.030;16.32;61.4;0.027;16.0442;9.563;16.088;10.908;44;0.245;0.036;16.34;61.4;0.031;15.5154;11.325;15.564;12.878
2021-10-1 8:10:21;4.22;97;12.60;22;0.252;0.030;16.32;61.4;0.027;16.0442;9.563;16.088;10.908;44;0.236;0.037;16.34;61.4;0.033;14.9054;11.807;14.952;13.427
2021-10-1 8:15:18;4.22;96;13.00;22;0.249;0.031;16.32;61.4;0.027;15.7962;9.758;15.839;11.130;44;0.245;0.036;16.34;61.4;0.031;15.5154;11.325;15.564;12.878
2021-10-1 8:20:20;4.23;94;13.50;22;0.247;0.031;16.32;61.4;0.027;15.6532;9.826;15.695;11.208;44;0.245;0.036;16.34;61.4;0.031;15.5154;11.325;15.564;12.878
2021-10-1 8:25:22;4.23;92;13.70;22;0.247;0.031;16.32;61.4;0.027;15.6542;9.827;15.699;11.198;44;0.241;0.037;16.34;61.4;0.032;15.2334;11.576;15.281;13.164
2021-10-1 8:30:19;4.23;91;14.00;22;0.249;0.031;16.32;61.4;0.027;15.7972;9.758;15.842;11.120;44;0.236;0.037;16.54;61.7;0.033;14.9074;11.808;14.956;13.414
2021-10-1 8:35:21;4.23;91;14.40;22;0.254;0.030;16.32;61.4;0.026;16.1842;9.495;16.228;10.831;44;0.236;0.037;16.54;61.7;0.033;14.9074;11.808;14.956;13.414
2021-10-1 8:40:18;4.23;90;14.90;22;0.250;0.030;16.32;61.4;0.027;15.8732;9.617;15.918;10.959;44;0.245;0.036;16.34;61.4;0.031;15.5174;11.326;15.568;12.866
2021-10-1 8:45:20;4.23;88;15.30;22;0.250;0.030;16.32;61.4;0.027;15.8742;9.618;15.922;10.948;44;0.236;0.037;16.54;61.7;0.033;14.9074;11.808;14.956;13.414
2021-10-1 8:50:22;4.23;85;15.40;22;0.247;0.031;16.32;61.4;0.027;15.6552;9.828;15.703;11.187;44;0.236;0.037;16.54;61.7;0.033;14.9074;11.808;14.956;13.414
2021-10-1 8:55:20;4.23;86;15.60;22;0.250;0.030;16.32;61.4;0.027;15.8742;9.618;15.922;10.948;44;0.244;0.036;16.54;61.7;0.032;15.4154;11.497;15.468;13.046
2021-10-1 9:0:22;4.23;85;15.70;22;0.250;0.030;16.32;61.4;0.027;15.8752;9.619;15.925;10.938;44;0.235;0.038;16.54;61.7;0.033;14.7944;11.982;14.845;13.597
2021-10-1 9:5:19;4.23;85;16.30;22;0.250;0.030;16.52;61.7;0.027;15.8752;9.619;15.925;10.938;44;0.241;0.037;16.54;61.7;0.032;15.2374;11.578;15.289;13.139
2021-10-1 9:10:21;4.23;82;16.60;22;0.250;0.030;16.52;61.7;0.027;15.8772;9.619;15.929;10.927;44;0.237;0.037;16.54;61.7;0.033;14.9104;11.810;14.963;13.388
2021-10-1 9:15:19;4.23;80;16.80;22;0.248;0.031;16.52;61.7;0.027;15.7352;9.687;15.787;11.005;44;0.245;0.036;16.54;61.7;0.031;15.5214;11.329;15.579;12.830
2021-10-1 9:20:21;4.24;79;16.70;22;0.250;0.030;16.52;61.7;0.027;15.8782;9.620;15.933;10.917;44;0.246;0.036;16.74;62.0;0.032;15.5954;11.417;15.653;12.929
2021-10-1 9:25:19;4.24;80;17.20;22;0.250;0.030;16.52;61.7;0.027;15.8782;9.620;15.933;10.917;44;0.237;0.037;16.54;61.7;0.033;14.9124;11.811;14.967;13.376
2021-10-1 9:30:21;4.24;78;17.40;22;0.250;0.030;16.52;61.7;0.027;15.8802;9.621;15.936;10.906;44;0.241;0.036;16.74;62.0;0.032;15.2404;11.580;15.297;13.114
2021-10-1 9:35:19;4.24;76;17.60;22;0.252;0.030;16.72;62.0;0.027;16.0202;9.552;16.077;10.829;44;0.244;0.036;16.74;62.0;0.032;15.4204;11.499;15.480;13.009
2021-10-1 9:40:22;4.24;75;17.90;22;0.251;0.031;16.52;61.7;0.027;15.9462;9.693;16.003;10.988;44;0.241;0.036;16.74;62.0;0.032;15.2414;11.581;15.300;13.102
#EQ5HS;2021-10-1 9:44:6;4.27;74;18.10;22;0.249;0.031;16.72;62.0;0.027;15.8042;9.762;15.861;11.066;44;0.241;0.036;16.74;62.0;0.032;15.2434;11.582;15.304;13.089
2021-10-1 9:45:2;4.27;75;18.10;22;0.244;0.032;16.52;61.7;0.028;15.4052;10.027;15.463;11.355;44;0.237;0.037;16.74;62.0;0.033;14.9154;11.813;14.975;13.350
2021-10-1 9:50:22;4.27;73;18.50;22;0.250;0.030;16.72;62.0;0.027;15.8812;9.621;15.940;10.895;44;0.237;0.037;16.74;62.0;0.033;14.9154;11.813;14.975;13.350
2021-10-1 9:55:20;4.27;74;18.90;22;0.252;0.030;16.72;62.0;0.027;16.0232;9.554;16.085;10.808;44;0.237;0.037;16.74;62.0;0.033;14.9164;11.815;14.979;13.338
2021-10-1 10:0:23;4.27;72;19.20;22;0.245;0.031;16.72;62.0;0.027;15.4892;9.885;15.551;11.171;44;0.238;0.037;16.74;62.0;0.032;15.0284;11.643;15.090;13.144
2021-10-1 10:5:21;4.28;69;19.50;22;0.252;0.030;16.82;62.3;0.027;16.0232;9.554;16.085;10.808;44;0.237;0.037;16.84;62.3;0.033;14.9184;11.816;14.982;13.325
2021-10-1 10:10:20;4.28;70;19.50;22;0.247;0.031;16.82;62.3;0.027;15.6342;9.818;15.699;11.083;44;0.237;0.037;16.84;62.3;0.033;14.9184;11.816;14.982;13.325
2021-10-1 10:15:22;4.29;68;20.00;22;0.251;0.030;16.82;62.3;0.027;15.8872;9.624;15.955;10.853;44;0.237;0.037;16.84;62.3;0.033;14.9204;11.817;14.986;13.312
2021-10-1 10:20:21;4.30;68;20.20;22;0.253;0.030;16.82;62.3;0.027;16.0282;9.556;16.100;10.766;44;0.246;0.035;16.84;62.3;0.032;15.5314;11.335;15.603;12.756
2021-10-1 10:25:19;4.30;67;20.20;22;0.251;0.030;17.02;62.6;0.027;15.8872;9.624;15.955;10.853;44;0.246;0.035;16.84;62.3;0.032;15.5314;11.335;15.603;12.756
2021-10-1 10:30:22;4.30;67;20.80;22;0.253;0.030;17.02;62.6;0.027;16.0302;9.557;16.104;10.755;44;0.237;0.037;17.04;62.6;0.033;14.9214;11.818;14.990;13.299
2021-10-1 10:35:21;4.31;61;20.80;22;0.245;0.031;17.02;62.6;0.027;15.4942;9.888;15.566;11.128;44;0.237;0.037;17.04;62.6;0.033;14.9234;11.819;14.994;13.287
2021-10-1 10:40:19;4.31;60;20.90;22;0.247;0.031;17.02;62.6;0.027;15.6402;9.821;15.714;11.040;44;0.246;0.035;17.04;62.6;0.032;15.5334;11.336;15.607;12.744
2021-10-1 10:45:23;4.32;61;21.30;22;0.254;0.029;17.02;62.6;0.026;16.1052;9.418;16.184;10.577;44;0.246;0.035;17.04;62.6;0.032;15.5354;11.337;15.611;12.732
2021-10-1 10:50:21;4.32;59;21.30;22;0.251;0.030;17.32;63.2;0.027;15.8942;9.628;15.974;10.801;44;0.237;0.037;17.04;62.6;0.033;14.9254;11.820;14.998;13.274
2021-10-1 10:55:20;4.32;59;21.50;22;0.245;0.031;17.22;62.9;0.027;15.5002;9.891;15.580;11.085;44;0.237;0.037;17.04;62.6;0.033;14.9264;11.821;15.001;13.261
2021-10-1 11:0:23;4.33;59;22.20;22;0.253;0.030;17.32;63.2;0.027;16.0362;9.560;16.119;10.714;44;0.246;0.035;17.04;62.6;0.032;15.5384;11.339;15.619;12.707
2021-10-1 11:5:22;4.33;59;22.20;22;0N251W0.030;17.32;63.2;0027;15.8982;9.630;15.986;10.769;44;0.237;0.037;17.34;63.2;0.033;14.9284;11.822;15.005;13.248
2021-10-1 11:10:21;4.33;56;22.20;220.248;0.030;17.32;63.6%r;[;r:#k2;9.683;15.810;10.828;44;0.237;0.037;17.34;63.2;0.033;14.9284;11.822;15.005;13.248
2021-10-1 11:15:20;4.34;57;22.60;22;0.251;0.030;17.32;63.2;0.027;15.9002;9.630;15.989;10.758;44;0.246;0.035;17.24;62.9;0.032;15.5404;11.340;15.623;12.695
2021-10-1 11:20:24;4.34;56;22.60;22;0.253;0.030;17.52;63.5;0.027;16.0422;9.563;1o.135;10.672;44;0.237;0.037;17.34;63.2;0.033;14.9294;11.823;15.009;13.236
2021-10-1 11:25:23;4.35;56;22.70;22;0.253;0.030;17.72;63.8;0.027;16.0432;9.563;16.138;10.661;44;0.248;0.035;17.24;62.9;0.031;15.7154;11.260;15.802;12.592
2021-10-1 11:30:22;4.35;55;23.10;22;0.253;0.030;17.52;63.5;0.027;16.0452;9.564;16.142;10.651;44;0.237;0.037;17.24;62.9;0.033;14.9334;11.825;15.017;13.210
2021-10-1 11:35:21;4.35;56;23.30;22;0.25c;0.030;17.72;63.8;0.027;16.0462;9.5f5;16.146;10640;44;0.246;0.035;17.34;63.2;0.032;15.5434;11.342;15.631;12.670
2021-10-1 11:40:20;4.36;55;23.20;22;0.248;0.030;17.72;63\80.;[;r2*2j2;9\829;15\756;10.922;44;0.245;0.036;17.34;63.2;0.032;15.4414;11.513;15.531;12.848
2021-10-1 11:45:24;4.36;58;23.90;22;0.248;0.030;17.92;64.1;0.027;b5.6572;9.829;15.760;10.911;44;0.244;0.035;17.34;63.2;0.032;15.3694;11.424;15.458;12.749
2021-10-1 11:50:23;4.36;55;23.20;22;0.2d8;0.030;17.92K64.1;0.027;15.6572k9.829;15.760;10.911;44;0.242;0.036;17.34;63.2;0.032;15.2654;11.596;15.355;12.927
2021-10-1 11:55:22;4.36;53;23.40;22;0.246;0.031;17.92k63)[rC[;r*;j2;9.899;15.618;10.977;44;0.237;0.037;17.54;63.5;0.033;14.9364;11.827;15.025;13.185
2021-10-1 12:0:22;4.36;52;23.80;22;0.249;0.030;17.92;64.1;0.027;15.7392;9.690;15.849;10.722;44;0.242;0.036;17.34;63.2;0.032;15.2664;11.597;15.359;12.914
2021-10-1 12:5:21;4.36;53;23.80;22;0N248;0.030;18.02;64.5;0.027;15.6622;9.832;15.771;10.879;44;0.237;0.037;17.54;63.5;0.033;14.9384;11.828;15.029;13.172
2021-10-1 12:10:20;4.36;51;24.00;22;0.248;0.030;18.02;64.5;0.027;15.6632;9.832;15.775;10.868;44;0.242;0.036;17.54;63.5;0.032;15.2684;11.598;15.363;12.902
2021-10-1 12:15:24;4.36;48;24.00;a22;0.248;0.030;18.02;64.j;0.027;15.6652;N	Z;r:vKZrB;:k;44;0.236;0.037;17.74;63.8;0.033;14.8234;12.001;14.914;13.365
2021-10-1 12:20:24;4.36;50;23.90;22;0.246;0.030;18.02;64.5;0.028;1i.5212;	.902;15.634;10.933;44;0.244;0.035;17.54;63.5;0.032;15.3754;11.428;15.474;12.700
2021-10-1 12:25:23;4.38;48;23.90;22;0.248;0.030;18.22;64.8;0.027;15.6662;9.834;15.783;10.847;44;0.236;0.037;17.74;63.8;0.033;14.8254;12.002;14.917;13.352
2021-10-1 12:30:22;4.36;49;24.10;22;0.249;0.030;18.22;64.8;0.027;15.7\52;9.693;15.865;10.l80;44;0.245;0.036;17.54;63.5;0.032;15.4484;11.517;15.547;12.798
2021-10-1 12:35:22;4.37;51;24.80;22;0.248;0.030;18.22;6h.8;0.027;15.6662;9.83h;15.783;10.847;44;0.246;0.035;17.74;63.8;0.032;15.5514;11.347;15.651;12.609
2021-10-1 12:40:21;4.37;51;24.60;22;0.d46;0.030;18.22;64.8;0.028k15.5252;9.904;15.646;10.901;44;0.242;0.036;17.74;63.8;0.032;15.2714;11.600;15.371;12.877
2021-10-1 12:45:21;4.37;50;24.40;22;0.248;0.030;18.42;65.1;0.027;15.6692;9.835;15.791;10.825;44;0.245;0.036;17.74;63.8;0.032;15.4504;11.518;15.551;12.785
2021-10-1 12:50:20;4.38;50;24.80;22;0.248;0.030;18.42;65.1;0.027;15.6712;9.836;15.795;10.814;44;0.236;0.037;17.74;63.8;0.033;14.8284;12.005;14.925;13.326
2021-10-1 12:55:24;4.37;50;24.40;22;0.246;0.030;18.42;65.1;0.028;15.5282;9.906;15.653;10.8w9;44;0.236;0.037;17.74;63.8;0.033;14.8284;12.005;14.925;13.326
2021-10-1 13:0:24;4.37;49;25.00;22;0.248;.030;18.42;65.1;0.027;15.6722;9.837;15.799;10.803;44;0.245;0.036;17.74;63.8;0.032;15.4524;11.519;15.555;12.773
2021-10-1 13:5:23;4.38;49;24.90;22;0.248;0.03`;18.42;65.1;0.027;15.674b;9.838;15.803;10.793;44;0.236;0.037;17.94;64.1;0.033;14.8304;12.006;14.929;13.313
2021-10-1 13:10:23;4.38;49;24.70;22V0.248;0.030;18.62;65.d;0.027;15.6752;9.838;15.807;10.782;44;0.245;0.035;17.74;63.8;0.032;15.4534;11.520;15.559;12.761
2021-10-1 13:15:23;4.38;51;25.00;22;0.248;0.030;18.62;65.4;0.027;15.6752;9.838;15.807;10.782;44;0.245;0.035;17.74;63.8;0.032;15.4534;11.520;15.559;12.761
2021-10-1 13:20:22;4.38;49;24.90;22;0.251;0.030;18.62S65.4;0.027;15.8202;9.[Z;rJ**Zg2J2j;44;0.242;0.036;17.94;64.1;0.032;15.2754;11.602;15.379;12.851
2021-10-1 13:25:22;4.38;49;25.30;22;0.249;0.30;18.62;65.4;0.027;15.6772;9.839;15.811;10.771;44;0.243;0.036;17.94;64.1;0.032;15.2764;11.603;15.383;12.839
2021-10-1 13:30:21;4.39;50;25.50;22;0.251;0.030;18.82;65.8;0.02W;15.8222;9.771;15.959;10.685;44;0.236;0.037;17.94;64.1;0.033;14.8324;12.007;14.933;13.300
2021-10-1 13:35:21;4.38;52;25.30;2z;0.247;0.030;18.62;65.4;0.028;15.5342;9.909;15.669;10.835;44;0.246;0.035;17.94;64.1;0.032;15.5584;11.351;15.667;12.560
2021-10-1 13:40:21;4.38;49;25.80;22;0.247;0.030;18.82;65.8;0.028;15.5362;9.90q;15.673;10.825;44;0.243;0.036;17.94;64.1;0.032;15.2764;11.603;15.383;12.839
2021-10-1 13:45:20;4.39;50;25.90;22;0.254S0.029;18.82;65.8;0.027;16.0712;9.576;16.211;10.472;44;0.241;0.036;17.94;64.1;0.033;15.1684;11.775;15.274;13.029
2021-10-1 13:50:24;4.39;48;25.70;2b;0.249;0.030;18.82;65.8;0.027;15.68Y2;9.841;15.823;1.739;44;0.245;0.035;17.94;64.1;0.032;15.4574;11.522;15.567;12.736
2021-10-1 13:55:24;4.39;49;25.90;22;0.249;0.030;18.92;66.1;0.027;15.6812;9.841;15.823;10.739;44;0.241;0.036;17.94;64.1;0.033;15.1694;11.776;15.278;13.016
2021-10-1 14:0:24;4.39;49;25.90;22;0.247;0.030;18.92;66.1[0.028;15.5372;9.910;15.677;10.814;44;0.245;0.035;18.04;64.5;0.032;15.4594;11.523;15.571;12.723
2021-10-1 14:5:23;4.39;50;25.90;22;0.246;0.030;18.92;66.1;0.028;15.4582;10.054;15.600;XrJ*Jj;44;0.236;0.037;18.04;64.5;0.033;14.8354;12.009;14.941;13.274
2021-10-1 14:10:23;4.39;46;26.40;22;0.249;0.030;18.92;66.1;0.027;15.6852;9.843;15.831;10.717;44;0.245;0.035;18.04;64.5;0.032;15.4594;11.523;15.571;12.723
2021-10-1 14:15:23;4.39;46;26.00;22;0.249;0.030;19.12;66.4;0.027;15.6852;9.843;15.831;10.717;44;0.241;0.036;17.94;64.1;0.033;15.1714;11.777;15.282;13.004
2021-10-1 14:20:22;4.39;47;26.00;22;0.246;0.030;18.92;66.1;0.028;15.4602;10.05MElMI"[rJ"Ck;44;0.243;0.036;18.04;64.5;0.032;15.2804;11.605;15.391;12.814
2021-10-1 14:25:22;4.39;49;26.10;d2;0.249;0.030;19.12;66.4;0.027;15.6862;9.844;15.835;10.706;44;0.243;0.036;18.04;64.5;0.032;15.2804;11.605;15.391;12.814
2021-10-1 14:30:22;4.39;47;26.30;22;0.251;0.030V19.12;66.4;0.027;15.8292;9.g75;15.980;10.Sk;44;0.241;0.036;17.94;64.1;0.033;15.1714;11.777;15.282;13.004
2021-10-1 14:35:21;4.39;47;26.50;22;0.249;0.030;19.12;66n4;0.027;b5.6862;9.844;15.835;10.706;44;0.241;0.036;17.94;64.1;0.033;15.1734;11.778;15.286;12.991
2021-10-1 14:40:21;4.39;48;26.50;22;0.247;0.030;19.12;66	[	rzC[;r*"j2;9.913;15.693;10.770;44;0.243;0.036;18.04;64.5;0.032;15.2824;11.606;15.395;12.801
2021-10-1 14:45:21;4.39;47;26.40;22;0.247k0.030;19.12;66.4;0.028;15.5432;9.913;15.693;10.770;44;0.236;0.037;18.04;64.5;0.033;14.8374;12.010;14.945;13.261
2021-10-1 14:50:20;4.39;46;26.50;a22;0.249;0.030;19.12;66.4;0.027;15.6882;9.845;15.839;10.695;44;0.241;0.036;18.04;64.5;0.033;15.1734;11.778;15.286;12.991
2021-10-1 14:55:24;4.39;47;26.40;22;0.249;0.030;19.12;66.4;0.02n;15.6892;9.845W15.843;10.684;44;0.245;0.035;18.04;64.5;0.032;15.4604;11.524;15.576;12.711
2021-10-1 15:0:24;4.39;46;26.10;22;0I;[rZKrj2;66.8;0.027;15.8322;9.777;15.988;10.610;44;0.243;0.036;18.04;64.5;0.032;15.2824;11.606;15.395;12.801
2021-10-1 15:5:24;4.39;48;26.40;22;0.249;0.030;19.12;66.4;0.027;15.6892;9.845;15.843;10.684;44;0.236;0.037;18.24;64.8;0.033;14.8384;12.011;14.949;13.248
2021-10-1 15:10:23;4.39;46;26.10;22;0.249;0.030;19.12;66.4;0.027;15.6892;9.845;15.843;10.684;44;0.245;0.035;18.04;64.5;0.032;15.4624;11.525;15.580;12.698
2021-10-1 15:15:23;4.39;47;26.20;22;0.249;0.030;19.32;66.8;0.027;15.6892;9.845;15.843;10.684;44;0.245;0.035;18.04;64.5;0.032;15.4624;11.525;15.580;12.698
2021-10-1 15:20:23;4.39;45;26.40;22;0.247;0.`30;19.32;66.8;0.028;15.5452;9.914K15.697;10.759;44;0.245;0.035;18.04;64.5;0.032;15.4624;11.525;15.580;12.698
2021-10-1 15:25:22;4.39;47;26.30;22;0.6[ZrZKrj2;66.8;0.027;15.6912;9.846;15.847;10.674;44;0.243;0.036;18.04;64.5;0.032;15.2834;11.607;15.400;12.789
2021-10-1 15:30:22;4.39;46;26.50;22;0.251;0.029;19.32;66.8;0.027;15.8342;9.777;15.992;10.k99;44;0.241;0.036;18.24;64.8;0.033;15.1734;11.778;15.286;12.991
2021-10-1 15:35:22;4.39;48;26.90;22;0.251;0.029;19.32;66.8;0.027;15.8322;9.777;15.988;10.610;44;0.245;0.035;18.04;64.5;0.032;15.4624;11.525;15.580;12.698
2021-10-1 15:40:21;4.39;47;26.30;22;0.249;0.030;19.32;66.8;0.027;15.6912;9.846;15\847;10.674;44;0.241;0.036;18.04;64.5;0.033;15.1754;11.779;15.290;12.978
2021-10-1 15:45:21;4.39;47;26.60;22;0.249;0.030;19.32;66.8;0.027;15.6912;9.846;15.847;10.674;44;0.241;0.036;18.24;64.8;0.033;15.1754;11.779;15.290;12.978
2021-10-1 15:50:20;4.39;44;26.40;22;0.249;0.030S19.32;66.8;0.027;15.6912;9.846;15N847;10.674;44;0.241;0.036;18.04;64.5;0.033;15.1754;11.779;15.290;12.978
2021-10-1 15:55:24;4.39;47;26.60;22;0.249;0.030;19.32;66.8;0.027;15.6912;9.846;15.8o7;10.674;44;0.241;0.036;18.04;64.5;0.033;15.1754;11.779;15.290;12.978
2021-10-1 16:0:24;4.40;47;26.40;22;.249;0.030;19.32;66.8;0.027;15.6912;9.846;15.847;10.674;44;0.241;0.036;17.94;64.1;0.033;15.1754;11.779;15.290;12.978
2021-10-1 16:5:23;4.39;44;26.30;22;0.251;0.029;19.32;66.8;0	;[;rB"k2;9.777;15.992;10.599;44;0.245;0.035;18.04;64.5;0.032;15.4624;11.525;15.580;12.698
2021-10-1 16:10:23;4.39;48;26.30;22;0.250;0.030;19.32;66.8;0.028;15.7552;9.919;15.910;10.764;44;0.245;0.035;18.04;64.5;0.032;15.4624;11.525;15.580;12.698
2021-10-1 16:15:23;4.39;46;25.90;22;0.251;0.029;19.32;66.8;0.027;15.8342;9.777;15.992;10.599;44;0.245;0.035;18.04;64.5;0.032;15.4624;11.525;15.580;12.698
2021-10-1 16:20:22;4.39;46;26.00;22;0.6[ZrZKrj2;66.8;0.027;15.691d;9.846;15.847;10.674;44;0.241;0.036;18.04;64.5;0.033;15.1734;11.778;15.286;12.991
2021-10-1 16:25:22;4.39;48;26.10;22;0.249;0.030;19.32;66.8;0.027;15.6912;9.846;15.8\7;10.674;44;0.236;0.037;18.04;64.5;0.033;14.8384;12.011;14.949;13.248
2021-10-1 16:30:21;4.39;48;25.80;22;0.249;0.030;19.32;66.8;0.027;15.6912;9.846;15.847;}0\674;44;0.251;0.035;18.24;64.8;0.032;15.8494;11.380;15.964;12.566
2021-10-1 16:35:21;4.39;46;25.90;22;0.249;0.030;19.32;66.8;0.027;15.6912;9.846;15.847;10.674;44;0.241;0.036;18.04;64.5;0.033;15.1734;11.778;15.286;12.991
2021-10-1 16:40:20;4.39;47;25.30;22;0.249;0.030;19.32;66.8;0.027;15.6912;9.846;15.847;10.674;44;0.241;0.036;18.04;64.5;0.033;15.1734;11.778;15.286;12.991
2021-10-1 16:45:24;4.39;50;25.10;22;0.247;0.030;19.32;66.8;0.028;15.5452;9.914;15.697;10.759;44;0.245;0.035;18.04;64.5;0.032;15.4604;11.524;15.576;12.711
2021-10-1 16:50:24;4.39;48;25.40;22;0.249;0.030;19.32;66.8;0.027;15.6892;9.845;1.84c;10.684;44;0.241;0.036;17.94;64.1;0.033;15.1714;11.777;15.282;13.004
2021-10-1 16:55:23;4.39;48;25.80;22;0.249;0.030;19.32;66.8;0.027;15.6892;9.845;15.843;10.684;44;0.244;0.036;18.04;64.5;0.033;15.3524;11.694;15.465;12.912
2021-10-1 17:0:22;4.39;47;25.80;2R;0.249;0.030;19.32;66.8;0.027;15.6892;9.845;15.843;10.684;44;0.241;0.036;18.04;64.5;0.033;15.1714;11.777;15.282;13.004
2021-10-1 17:5:22;4.39;51;25.60;22;0.251V0.030;19.32;66.8;0.027;15.8312;9.776;15.984;10.621;44;0.243;0.036;18.04;64.5;0.032;15.2804;11.605;15.391;12.814
2021-10-1 17:10:21;4.39;49;25.40;22;0.249;0.030;19.32;66.8;0.027;15.6892;9.845;15.843;10.684;44;0.241;0.036;18.04;64.5;0.033;15.1694;11.776;15.278;13.016
2021-10-1 17:15:21;4.39;49;25.50;22;0.249;0.030;19.32;66.8;0.027;15.6892;9.845;15.843;10.684;44;0.241;0.036;17.94;64.1;0.033;15.1714;11.777;15.282;13.004
2021-10-1 17:20:20;4.39;52;25.30;22;0.249;0.030;19.1c2;66.4;0.027;15.6892;9.845;15.843;10.684;44;0.239;0.037;18.04;64.5;0.033;15.0584;11.949;15.166;13.208
2021-10-1 17:25:24;4.39;48;25.10;22;0.251;0.030;19.12;66.4;0.027;15.8312;9.776;15.984;10.621;44;0.241;0.036;17.94;64.1;0.033;15.1694;11.776;15.278;13.016
2021-10-1 17:30:23;4.39;50;25.00;d2;0.249;0.030;19.12;66.4;0.027;15.6882;9.845;15.839;10.695;44;0.241;0.036;17.94;64.1;0.033;15.1694;11.776;15.278;13.016
2021-10-1 17:35:23;4.39;50;24.80;22;0.251;0.030;19.12;66.4;0.027;15.8312;9.776;15.984;10.621;44;0.241;0.036;17.94;64.1;0.033;15.1694;11.776;15.278;13.016
2021-10-1 17:40:22;4.39;50;24.80;22;0.251;0.030;19.12;66.4;0.027;15.8312;9.776;15N984;10.621;44;0.241;0.036;17.94;64.1;0.033;15.1694;11.776;15.278;13.016
2021-10-1 17:45:21;4.39;51;24.60;22;0.249;0.030;19.12;66.4;0.027;15.6882;9.845;15.839;10.695;44;0.241;0.036;17.94;64.1;0.033;15.1694;11.776;15.278;13.016
2021-10-1 17:50:20;4.39;50;24.40;22;0.249;0.030;19.12;66.4;0.027;15.6882;9.845;15.839;10.695;44;0.245;0.035;18.04;64.5;0.032;15.4574;11.522;15.567;12.736
2021-10-1 17:55:24;4.39;50;24.50;22;0.249;0.030;19.12;66.4;0.027;15.6882;9.845;15.839;10.695;44;0.245;0.035;18.04;64.5;0.032;15.4574;11.522;15.567;12.736
2021-10-1 18:0:23;4.38;50;24.20;22;0.247;0.030;19.12;66.4;0.028;15.5422;9.913;15.689;10.781;44;0.241;0.036;17.94;64.1;0.033;15.1684;11.775;15.274;13.029
2021-10-1 18:5:22;4.38;51;24.00;22;0.249;0.030;19.12;66.4;0.027;15.6862;9.844;15.835;10.706;44;0.241;0.036;17.94;64.1;0.033;15.1684;11.775;15.274;13.029
2021-10-1 18:10:22;4.38;51;23.90;22;0.247;0.030;19.12;66.4;0.028;15.5422;9.913;15.689;10.781;44;0.241;0.036;17.94;64.1;0.033;15.1684;11.775;15.274;13.029
2021-10-1 18:15:21;4.38;53;23.40;22;0.249;0.030;19.12;66.4;0.027;15.6862;9.844;15.835;10.706;44;0.241;0.036;18.04;64.5;0.033;15.1664;11.774;15.270;13.042
2021-10-1 18:20:20;4.37;55;23.10;22;0.249;0.030;19.12;66.4;0.027;15.6852;9.843;15.831;10.717;44;0.244;0.036;17.94;64.1;0.033;15.3494;11.692;15.456;12.938
2021-10-1 18:25:23;4.37;55;22.70;22;0.251;0.030;19.12;66.4;0.027;15.8282;9.774;15.976;10.642;44;0.245;0.035;17.94;64.1;0.032;15.4554;11.521;15.563;12.748
2021-10-1 18:30:22;4.36;56;22.30;22;0.250;0.030;19.12;66.4;0.028;15.7492;9.916;15.893;10.808;44;0.241;0.036;17.94;64.1;0.033;15.1684;11.775;15.274;13.029
2021-10-1 18:35:21;4.36;57;22.00;22;0.247;0.030;19.12;66.4;0.028;15.5402;9.912;15.685;10.792;44;0.243;0.036;17.94;64.1;0.033;15.3474;11.691;15.452;12.950
2021-10-1 18:40:20;4.36;58;21.60;22;0.253;0.029;19.12;66.4;0.027;15.9702;9.706;16.119;10.567;44;0.241;0.036;17.94;64.1;0.033;15.1664;11.774;15.270;13.042
2021-10-1 18:45:23;4.36;59;21.10;22;0.249;0.030;18.92;66.1;0.027;15.6832;9.842;15.827;10.728;44;0.241;0.036;17.94;64.1;0.033;15.1644;11.773;15.266;13.055
2021-10-1 18:50:22;4.36;62;20.30;22;0.249;0.030;18.92;66.1;0.027;15.6832;9.842;15.827;10.728;44;0.243;0.036;17.94;64.1;0.033;15.3474;11.691;15.452;12.950
2021-10-1 18:55:21;4.36;63;19.80;22;0.242;0.031;18.92;66.1;0.028;15.1932;10.251;15.330;11.185;44;0.241;0.036;17.74;63.8;0.033;15.1664;11.774;15.270;13.042
2021-10-1 19:0:20;4.35;66;19.10;22;0.249;0.030;18.92;66.1;0.027;15.6812;9.841;15.823;10.739;44;0.245;0.035;17.94;64.1;0.032;15.4534;11.520;15.559;12.761
2021-10-1 19:5:22;4.35;68;18.50;22;0.249;0.030;18.92;66.1;0.027;15.6812;9.841;15.823;10.739;44;0.245;0.036;17.94;64.1;0.032;15.4524;11.519;15.555;12.773
2021-10-1 19:10:21;4.34;71;17.90;22;0.253;0.029;18.92;66.1;0.027;15.9672;9.704;16.111;10.589;44;0.241;0.036;17.74;63.8;0.033;15.1644;11.773;15.266;13.055
2021-10-1 19:15:19;4.34;70;17.70;22;0.250;0.030;18.92;66.1;0.028;15.7462;9.914;15.885;10.830;44;0.239;0.037;17.94;64.1;0.033;15.0514;11.945;15.150;13.259
2021-10-1 19:20:22;4.34;70;17.70;22;0.248;0.030;18.92;66.1;0.028;15.6012;9.983;15.739;10.905;44;0.241;0.036;17.94;64.1;0.033;15.1634;11.772;15.262;13.067
2021-10-1 19:25:20;4.34;71;17.00;22;0.248;0.030;18.92;66.1;0.028;15.6012;9.983;15.739;10.905;44;0.250;0.035;17.94;64.1;0.032;15.8404;11.375;15.943;12.627
2021-10-1 19:30:23;4.33;73;16.60;22;0.248;0.030;18.92;66.1;0.028;15.6012;9.983;15.739;10.905;44;0.239;0.037;17.94;64.1;0.033;15.0514;11.945;15.150;13.259
2021-10-1 19:35:21;4.34;74;16.30;22;0.249;0.030;18.92;66.1;0.028;15.7432;9.913;15.877;10.852;44;0.243;0.036;17.74;63.8;0.032;15.3444;11.689;15.444;12.975
2021-10-1 19:40:19;4.33;74;16.00;22;0.249;0.030;18.82;65.8;0.028;15.7432;9.913;15.877;10.852;44;0.239;0.037;17.94;64.1;0.033;15.0514;11.945;15.150;13.259
2021-10-1 19:45:22;4.33;74;16.20;22;0.247;0.030;18.92;66.1;0.028;15.5962;9.981;15.727;10.938;44;0.239;0.037;17.74;63.8;0.033;15.0514;11.945;15.150;13.259
2021-10-1 19:50:20;4.33;74;16.10;22;0.247;0.030;18.82;65.8;0.028;15.5982;9.982;15.731;10.927;44;0.248;0.035;17.74;63.8;0.032;15.6654;11.457;15.767;12.718
2021-10-1 19:55:22;4.33;76;15.70;22;0.245;0.031;18.82;65.8;0.028;15.4502;10.050;15.580;11.014;44;0.241;0.036;17.74;63.8;0.033;15.1634;11.772;15.262;13.067
2021-10-1 20:0:20;4.33;78;15.10;22;0.249;0.030;18.62;65.4;0.028;15.7412;9.912;15.873;10.863;44;0.239;0.037;17.74;63.8;0.033;15.0494;11.944;15.146;13.272
2021-10-1 20:5:22;4.33;77;15.30;22;0.247;0.030;18.62;65.4;0.028;15.5962;9.981;15.727;10.938;44;0.243;0.036;17.74;63.8;0.032;15.3444;11.689;15.444;12.975
2021-10-1 20:10:20;4.32;79;14.80;22;0.247;0.030;18.62;65.4;0.028;15.5952;9.980;15.723;10.949;44;0.245;0.036;17.74;63.8;0.032;15.4484;11.517;15.547;12.798
2021-10-1 20:15:22;4.32;79;14.90;22;0.245;0.031;18.62;65.4;0.028;15.4472;10.049;15.572;11.036;44;0.241;0.036;17.74;63.8;0.033;15.1614;11.770;15.258;13.080
2021-10-1 20:20:20;4.32;78;14.80;22;0.249;0.030;18.82;65.8;0.028;15.7382;9.910;15.865;10.884;44;0.243;0.036;17.54;63.5;0.032;15.3424;11.688;15.440;12.988
2021-10-1 20:25:22;4.32;81;14.20;22;0.249;0.030;18.62;65.4;0.028;15.7382;9.910;15.865;10.884;44;0.241;0.036;17.74;63.8;0.033;15.1614;11.770;15.258;13.080
2021-10-1 20:30:20;4.32;80;14.50;22;0.248;0.030;18.62;65.4;0.027;15.6712;9.836;15.795;10.814;44;0.241;0.036;17.74;63.8;0.033;15.1594;11.769;15.254;13.093
2021-10-1 20:35:22;4.32;79;14.80;22;0.248;0.030;18.62;65.4;0.027;15.6712;9.836;15.795;10.814;44;0.241;0.036;17.74;63.8;0.033;15.1594;11.769;15.254;13.093
2021-10-1 20:40:20;4.32;80;14.60;22;0.249;0.030;18.82;65.8;0.028;15.7342;9.908;15.853;10.917;44;0.241;0.036;17.54;63.5;0.033;15.1594;11.769;15.254;13.093
2021-10-1 20:45:22;4.32;80;14.50;22;0.248;0.030;18.42;65.1;0.027;15.6692;9.835;15.791;10.825;44;0.241;0.036;17.74;63.8;0.033;15.1584;11.768;15.250;13.105
2021-10-1 20:50:20;4.32;82;14.20;22;0.249;0.030;18.42;65.1;0.028;15.7342;9.908;15.853;10.917;44;0.243;0.036;17.54;63.5;0.032;15.3404;11.687;15.436;13.001
2021-10-1 20:55:22;4.31;82;14.20;22;0.247;0.031;18.42;65.1;0.028;15.5892;9.977;15.707;10.993;44;0.248;0.035;17.74;63.8;0.032;15.6604;11.454;15.755;12.755
2021-10-1 21:0:19;4.31;82;14.30;22;0.248;0.030;18.42;65.1;0.027;15.6682;9.835;15.787;10.836;44;0.239;0.037;17.54;63.5;0.033;15.0464;11.941;15.138;13.298
2021-10-1 21:5:21;4.31;81;14.50;22;0.248;0.030;18.42;65.1;0.027;15.6662;9.834;15.783;10.847;44;0.241;0.036;17.54;63.5;0.033;15.1584;11.768;15.250;13.105
2021-10-1 21:10:19;4.31;81;14.70;22;0.248;0.030;18.42;65.1;0.027;15.6662;9.834;15.783;10.847;44;0.245;0.036;17.54;63.5;0.032;15.4454;11.515;15.539;12.823
2021-10-1 21:15:21;4.31;80;14.70;22;0.250;0.030;18.42;65.1;0.027;15.8092;9.765;15.927;10.771;44;0.241;0.036;17.54;63.5;0.033;15.1564;11.767;15.246;13.118
2021-10-1 21:20:19;4.31;82;14.30;22;0.248;0.030;18.42;65.1;0.027;15.6652;9.833;15.779;10.857;44;0.243;0.036;17.54;63.5;0.032;15.3374;11.685;15.428;13.026
2021-10-1 21:25:21;4.31;83;14.10;22;0.252;0.030;18.42;65.1;0.027;15.9502;9.696;16.066;10.706;44;0.241;0.036;17.54;63.5;0.033;15.1564;11.767;15.246;13.118
2021-10-1 21:30:18;4.31;83;13.90;22;0.241;0.031;18.22;64.8;0.028;15.1752;10.241;15.283;11.320;44;0.239;0.037;17.54;63.5;0.033;15.0434;11.939;15.130;13.324
2021-10-1 21:35:20;4.31;84;13.80;22;0.248;0.030;18.22;64.8;0.027;15.6632;9.832;15.775;10.868;44;0.241;0.037;17.54;63.5;0.033;15.1544;11.766;15.242;13.131
2021-10-1 21:40:22;4.31;84;13.70;22;0.250;0.030;18.22;64.8;0.027;15.8052;9.763;15.915;10.803;44;0.241;0.037;17.34;63.2;0.033;15.1544;11.766;15.242;13.131
2021-10-1 21:45:20;4.31;86;13.00;22;0.248;0.030;18.22;64.8;0.027;15.6632;9.832;15.775;10.868;44;0.245;0.036;17.34;63.2;0.032;15.4414;11.513;15.531;12.848
2021-10-1 21:50:22;4.30;85;13.40;22;0.250;0.030;18.22;64.8;0.027;15.8052;9.763;15.915;10.803;44;0.245;0.036;17.34;63.2;0.032;15.4414;11.513;15.531;12.848
2021-10-1 21:55:19;4.30;85;13.50;22;0.241;0.031;18.22;64.8;0.028;15.1732;10.240;15.279;11.331;44;0.243;0.036;17.34;63.2;0.032;15.3354;11.684;15.424;13.039
2021-10-1 22:0:21;4.30;86;13.20;22;0.248;0.030;18.02;64.5;0.027;15.6622;9.832;15.771;10.879;44;0.245;0.036;17.34;63.2;0.032;15.4414;11.513;15.531;12.848
2021-10-1 22:5:19;4.30;86;13.20;22;0.252;0.030;18.22;64.8;0.027;15.9452;9.694;16.054;10.738;44;0.245;0.036;17.34;63.2;0.032;15.4404;11.512;15.527;12.860
2021-10-1 22:10:21;4.30;86;13.10;22;0.248;0.030;18.02;64.5;0.027;15.6602;9.831;15.767;10.890;44;0.240;0.037;17.34;63.2;0.033;15.1534;11.765;15.238;13.143
2021-10-1 22:15:18;4.30;84;14.10;22;0.244;0.031;18.02;64.5;0.028;15.4022;10.026;15.505;11.117;44;0.240;0.037;17.24;62.9;0.033;15.1514;11.764;15.234;13.156
2021-10-1 22:20:20;4.30;82;14.40;22;0.244;0.031;18.02;64.5;0.028;15.4022;10.026;15.505;11.117;44;0.243;0.036;17.24;62.9;0.032;15.3324;11.682;15.416;13.064
2021-10-1 22:25:22;4.30;83;14.30;22;0.252;0.030;18.02;64.5;0.027;15.9442;9.693;16.050;10.748;44;0.240;0.037;17.24;62.9;0.033;15.1514;11.764;15.234;13.156
2021-10-1 22:30:20;4.30;86;13.20;22;0.244;0.031;18.02;64.5;0.028;15.4022;10.026;15.505;11.117;44;0.243;0.036;17.34;63.2;0.032;15.3324;11.682;15.416;13.064
2021-10-1 22:35:21;4.30;87;13.10;22;0.252;0.030;18.02;64.5;0.027;15.9442;9.693;16.050;10.748;44;0.247;0.036;17.34;63.2;0.032;15.6154;11.429;15.700;12.781
2021-10-1 22:40:19;4.30;84;13.90;22;0.252;0.030;18.02;64.5;0.027;15.9422;9.692;16.046;10.759;44;0.240;0.037;17.24;62.9;0.033;15.1494;11.763;15.230;13.169
2021-10-1 22:45:21;4.30;86;13.20;22;0.245;0.030;18.02;64.5;0.027;15.4812;9.882;15.582;10.970;44;0.244;0.036;17.34;63.2;0.032;15.4384;11.511;15.523;12.872
2021-10-1 22:50:18;4.30;87;12.90;22;0.244;0.031;18.02;64.5;0.028;15.4002;10.025;15.501;11.128;44;0.240;0.037;17.24;62.9;0.033;15.1494;11.763;15.230;13.169
2021-10-1 22:55:20;4.30;88;12.90;22;0.252;0.030;18.02;64.5;0.027;15.9412;9.691;16.042;10.770;44;0.244;0.036;17.34;63.2;0.032;15.4364;11.510;15.519;12.885
2021-10-1 23:0:22;4.30;88;12.90;22;0.248;0.031;18.02;64.5;0.027;15.6892;9.886;15.789;10.986;44;0.240;0.037;17.24;62.9;0.033;15.1494;11.763;15.230;13.169
2021-10-1 23:5:20;4.30;86;13.30;22;0.245;0.031;17.92;64.1;0.027;15.4792;9.881;15.578;10.981;44;0.240;0.037;17.34;63.2;0.033;15.1484;11.762;15.226;13.181
2021-10-1 23:10:21;4.30;88;12.80;22;0.245;0.031;17.92;64.1;0.027;15.4792;9.881;15.578;10.981;44;0.244;0.036;17.24;62.9;0.032;15.4364;11.510;15.519;12.885
2021-10-1 23:15:19;4.30;90;12.20;22;0.252;0.030;17.92;64.1;0.027;15.9382;9.690;16.035;10.791;44;0.244;0.036;17.24;62.9;0.032;15.4354;11.508;15.515;12.897
2021-10-1 23:20:21;4.30;91;12.00;22;0.253;0.030;17.92;64.1;0.027;16.0132;9.550;16.113;10.624;44;0.240;0.037;17.24;62.9;0.033;15.1484;11.762;15.226;13.181
2021-10-1 23:25:18;4.30;87;13.20;22;0.247;0.030;17.92;64.1;0.027;15.6222;9.812;15.719;10.915;44;0.244;0.036;17.34;63.2;0.032;15.4354;11.508;15.515;12.897
2021-10-1 23:30:20;4.30;86;13.50;22;0.249;0.030;17.92;64.1;0.027;15.7632;9.743;15.859;10.850;44;0.240;0.037;17.24;62.9;0.033;15.1464;11.761;15.222;13.194
2021-10-1 23:35:22;4.30;89;12.90;22;0.253;0.030;17.92;64.1;0.027;16.0122;9.549;16.109;10.634;44;0.244;0.036;17.24;62.9;0.032;15.4354;11.508;15.515;12.897
2021-10-1 23:40:19;4.30;88;12.90;22;0.249;0.030;17.92;64.1;0.027;15.7622;9.742;15.855;10.861;44;0.244;0.036;17.24;62.9;0.032;15.4354;11.508;15.515;12.897
2021-10-1 23:45:21;4.30;91;11.90;22;0.249;0.030;17.72;63.8;0.027;15.7622;9.742;15.855;10.861;44;0.242;0.036;17.24;62.9;0.032;15.2554;11.589;15.331;13.002
2021-10-1 23:50:19;4.30;94;11.00;22;0.245;0.031;17.72;63.8;0.027;15.4752;9.879;15.567;11.013;44;0.240;0.037;17.24;62.9;0.033;15.1464;11.761;15.222;13.194
2021-10-1 23:55:20;4.30;94;10.80;22;0.253;0.030;17.72;63.8;0.027;16.0092;9.548;16.101;10.655;44;0.240;0.037;17.24;62.9;0.033;15.1444;11.760;15.218;13.207