2021-8-29 0:0:22;4.28;73;10.90;22;0.207;0.024;13.12;55.6;0.020;13.0372;7.189;12.982;8.639;44;0.228;0.036;12.84;55.1;0.029;14.4154;10.598;14.345;12.798
2021-8-29 0:5:19;4.27;77;9.80;22;0.210;0.024;13.12;55.6;0.020;13.2062;7.197;13.150;8.649;44;0.228;0.036;12.84;55.1;0.029;14.4154;10.598;14.345;12.798
2021-8-29 0:10:20;4.27;75;10.40;22;0.211;0.024;13.12;55.6;0.020;13.2732;7.086;13.217;8.515;44;0.228;0.036;12.84;55.1;0.029;14.4154;10.598;14.345;12.798
2021-8-29 0:15:22;4.27;74;11.00;22;0.210;0.024;13.12;55.6;0.020;13.2042;7.196;13.145;8.665;44;0.230;0.035;12.84;55.1;0.029;14.5834;10.523;14.512;12.708
2021-8-29 0:20:19;4.27;73;11.30;22;0.211;0.024;13.02;55.4;0.020;13.2722;7.086;13.214;8.523;44;0.228;0.036;12.84;55.1;0.029;14.4154;10.598;14.345;12.798
2021-8-29 0:25:20;4.27;72;11.80;22;0.197;0.026;13.12;55.6;0.021;12.4052;7.661;12.350;9.224;44;0.230;0.035;12.74;54.8;0.029;14.5834;10.523;14.512;12.708
2021-8-29 0:30:22;4.27;72;11.60;22;0.211;0.024;13.02;55.4;0.020;13.2712;7.085;13.212;8.531;44;0.230;0.035;12.84;55.1;0.029;14.5834;10.523;14.512;12.708
2021-8-29 0:35:19;4.27;72;11.60;22;0.204;0.025;13.02;55.4;0.020;12.8232;7.342;12.765;8.840;44;0.230;0.035;12.74;54.8;0.029;14.5834;10.523;14.512;12.708
2021-8-29 0:40:20;4.27;73;11.40;22;0.211;0.024;13.02;55.4;0.020;13.2722;7.086;13.214;8.523;44;0.230;0.035;12.74;54.8;0.029;14.5834;10.523;14.512;12.708
2021-8-29 0:45:22;4.27;73;11.50;22;0.211;0.024;13.02;55.4;0.020;13.2712;7.085;13.212;8.531;44;0.230;0.035;12.74;54.8;0.029;14.5834;10.523;14.512;12.708
2021-8-29 0:50:19;4.27;74;11.30;22;0.211;0.024;13.02;55.4;0.020;13.2712;7.085;13.212;8.531;44;0.231;0.035;12.74;54.8;0.029;14.6824;10.366;14.610;12.518
2021-8-29 0:55:21;4.27;73;11.40;22;0.211;0.024;13.02;55.4;0.020;13.2712;7.085;13.212;8.531;44;0.228;0.036;12.74;54.8;0.029;14.4144;10.598;14.342;12.810
2021-8-29 1:0:18;4.27;72;11.90;22;0.211;0.024;13.02;55.4;0.020;13.2712;7.085;13.212;8.531;44;0.233;0.034;12.74;54.8;0.028;14.7794;10.211;14.709;12.319
2021-8-29 1:5:19;4.27;76;10.90;22;0.204;0.025;13.02;55.4;0.020;12.8232;7.342;12.765;8.840;44;0.230;0.035;12.74;54.8;0.029;14.5824;10.523;14.509;12.719
2021-8-29 1:10:21;4.27;80;10.00;22;0.204;0.025;12.82;55.1;0.020;12.8222;7.341;12.763;8.848;44;0.230;0.035;12.74;54.8;0.029;14.5824;10.523;14.509;12.719
2021-8-29 1:15:18;4.27;79;10.20;22;0.204;0.025;13.02;55.4;0.020;12.8222;7.341;12.763;8.848;44;0.230;0.035;12.74;54.8;0.029;14.5834;10.523;14.512;12.708
2021-8-29 1:20:19;4.27;77;11.10;22;0.211;0.024;13.02;55.4;0.020;13.2702;7.084;13.207;8.547;44;0.230;0.035;12.74;54.8;0.029;14.5804;10.522;14.506;12.731
2021-8-29 1:25:21;4.27;76;11.30;22;0.204;0.025;13.02;55.4;0.020;12.8222;7.341;12.763;8.848;44;0.231;0.035;12.74;54.8;0.029;14.6824;10.366;14.610;12.518
2021-8-29 1:30:18;4.27;76;11.20;22;0.204;0.025;12.82;55.1;0.020;12.8212;7.341;12.760;8.856;44;0.230;0.035;12.74;54.8;0.029;14.5824;10.523;14.509;12.719
2021-8-29 1:35:20;4.27;77;10.90;22;0.204;0.025;12.82;55.1;0.020;12.8212;7.341;12.760;8.856;44;0.228;0.036;12.74;54.8;0.029;14.4144;10.598;14.342;12.810
2021-8-29 1:40:21;4.27;79;10.60;22;0.204;0.025;12.82;55.1;0.020;12.8202;7.340;12.758;8.864;44;0.230;0.035;12.74;54.8;0.029;14.5824;10.523;14.509;12.719
2021-8-29 1:45:18;4.27;77;11.00;22;0.212;0.023;12.82;55.1;0.019;13.3362;6.974;13.273;8.413;44;0.231;0.035;12.74;54.8;0.029;14.6794;10.365;14.604;12.541
2021-8-29 1:50:20;4.27;79;10.60;22;0.207;0.024;12.82;55.1;0.020;13.0602;7.237;12.997;8.740;44;0.235;0.034;12.74;54.8;0.028;14.9384;10.136;14.864;12.252
2021-8-29 1:55:21;4.27;79;10.50;22;0.208;0.024;12.82;55.1;0.020;13.1292;7.126;13.065;8.605;44;0.230;0.035;12.74;54.8;0.029;14.5804;10.522;14.506;12.731
2021-8-29 2:0:18;4.27;78;11.00;22;0.208;0.024;12.82;55.1;0.020;13.1292;7.126;13.065;8.605;44;0.241;0.033;12.74;54.8;0.027;15.3794;9.852;15.303;11.909
2021-8-29 2:5:20;4.27;78;11.20;22;0.205;0.024;12.82;55.1;0.020;12.8912;7.229;12.829;8.729;44;0.231;0.035;12.64;54.6;0.029;14.6794;10.365;14.604;12.541
2021-8-29 2:10:21;4.27;80;10.90;22;0.204;0.025;12.82;55.1;0.020;12.8192;7.340;12.756;8.872;44;0.231;0.035;12.64;54.6;0.029;14.6794;10.365;14.604;12.541
2021-8-29 2:15:18;4.27;79;11.00;22;0.212;0.024;12.82;55.1;0.020;13.3842;7.032;13.318;8.500;44;0.231;0.035;12.64;54.6;0.029;14.6794;10.365;14.604;12.541
2021-8-29 2:20:20;4.27;79;11.20;22;0.207;0.024;12.72;54.8;0.020;13.0102;7.177;12.945;8.675;44;0.230;0.035;12.74;54.8;0.029;14.5794;10.521;14.503;12.742
2021-8-29 2:25:21;4.27;79;10.90;22;0.208;0.024;12.72;54.8;0.020;13.1282;7.126;13.062;8.613;44;0.230;0.035;12.74;54.8;0.029;14.5794;10.521;14.503;12.742
2021-8-29 2:30:18;4.26;80;10.60;22;0.205;0.024;12.72;54.8;0.020;12.8902;7.228;12.824;8.745;44;0.231;0.035;12.64;54.6;0.029;14.6794;10.365;14.604;12.541
2021-8-29 2:35:20;4.27;81;10.30;22;0.208;0.024;12.72;54.8;0.020;13.1272;7.125;13.060;8.621;44;0.237;0.034;12.64;54.6;0.028;15.0974;10.061;15.020;12.174
2021-8-29 2:40:21;4.27;81;10.40;22;0.210;0.024;12.72;54.8;0.020;13.2442;7.074;13.176;8.559;44;0.230;0.035;12.64;54.6;0.029;14.5794;10.521;14.503;12.742
2021-8-29 2:45:19;4.27;84;9.60;22;0.208;0.024;12.72;54.8;0.020;13.1272;7.125;13.060;8.621;44;0.233;0.034;12.64;54.6;0.028;14.7754;10.209;14.700;12.352
2021-8-29 2:50:20;4.26;84;9.80;22;0.208;0.024;12.72;54.8;0.020;13.1272;7.125;13.060;8.621;44;0.231;0.035;12.64;54.6;0.029;14.6784;10.364;14.601;12.552
2021-8-29 2:55:21;4.26;85;9.80;22;0.208;0.024;12.72;54.8;0.020;13.1262;7.125;13.057;8.629;44;0.235;0.034;12.64;54.6;0.028;14.9364;10.134;14.858;12.274
2021-8-29 3:0:19;4.26;84;9.80;22;0.210;0.024;12.72;54.8;0.020;13.2422;7.073;13.171;8.575;44;0.231;0.035;12.64;54.6;0.029;14.6774;10.363;14.598;12.564
2021-8-29 3:5:20;4.26;85;9.80;22;0.208;0.024;12.72;54.8;0.020;13.1262;7.125;13.057;8.629;44;0.231;0.035;12.64;54.6;0.029;14.6774;10.363;14.598;12.564
2021-8-29 3:10:21;4.26;87;10.00;22;0.206;0.024;12.72;54.8;0.020;13.0072;7.176;12.937;8.699;44;0.231;0.035;12.64;54.6;0.029;14.6774;10.363;14.598;12.564
2021-8-29 3:15:18;4.26;87;10.10;22;0.208;0.024;12.62;54.6;0.020;13.1252;7.124;13.055;8.637;44;0.231;0.035;12.64;54.6;0.029;14.6774;10.363;14.598;12.564
2021-8-29 3:20:20;4.26;86;10.10;22;0.208;0.024;12.72;54.8;0.020;13.1252;7.124;13.055;8.637;44;0.233;0.034;12.64;54.6;0.028;14.7734;10.208;14.694;12.375
2021-8-29 3:25:21;4.26;86;10.10;22;0.208;0.024;12.62;54.6;0.020;13.1252;7.124;13.055;8.637;44;0.231;0.035;12.64;54.6;0.029;14.6754;10.363;14.595;12.575
2021-8-29 3:30:18;4.26;87;9.90;22;0.208;0.024;12.62;54.6;0.020;13.1242;7.124;13.052;8.645;44;0.235;0.034;12.44;54.3;0.028;14.9354;10.134;14.855;12.285
2021-8-29 3:35:20;4.26;88;10.10;22;0.205;0.025;12.62;54.6;0.020;12.9142;7.277;12.843;8.830;44;0.231;0.035;12.64;54.6;0.029;14.6754;10.363;14.595;12.575
2021-8-29 3:40:21;4.26;88;10.30;22;0.204;0.024;12.62;54.6;0.020;12.8652;7.217;12.794;8.758;44;0.231;0.035;12.64;54.6;0.029;14.6754;10.363;14.595;12.575
2021-8-29 3:45:18;4.26;87;10.00;22;0.206;0.024;12.62;54.6;0.020;12.9842;7.166;12.913;8.695;44;0.233;0.034;12.44;54.3;0.028;14.7734;10.208;14.694;12.375
2021-8-29 3:50:19;4.25;88;10.10;22;0.211;0.023;12.62;54.6;0.019;13.3082;6.962;13.235;8.449;44;0.231;0.035;12.44;54.3;0.029;14.6754;10.363;14.595;12.575
2021-8-29 3:55:21;4.25;89;9.90;22;0.202;0.025;12.62;54.6;0.021;12.7202;7.440;12.649;9.037;44;0.231;0.035;12.64;54.6;0.029;14.6744;10.362;14.592;12.586
2021-8-29 4:0:18;4.25;89;9.60;22;0.203;0.025;12.42;54.3;0.020;12.7932;7.328;12.721;8.901;44;0.231;0.035;12.44;54.3;0.029;14.6754;10.363;14.595;12.575
2021-8-29 4:5:19;4.25;91;8.60;22;0.206;0.024;12.42;54.3;0.020;12.9832;7.165;12.910;8.703;44;0.231;0.035;12.64;54.6;0.029;14.6744;10.362;14.592;12.586
2021-8-29 4:10:21;4.25;94;7.80;22;0.203;0.025;12.32;54.1;0.020;12.7922;7.328;12.719;8.909;44;0.231;0.035;12.64;54.6;0.029;14.6744;10.362;14.592;12.586
2021-8-29 4:15:18;4.25;96;7.90;22;0.206;0.024;12.42;54.3;0.020;12.9822;7.165;12.908;8.711;44;0.233;0.034;12.44;54.3;0.028;14.7724;10.207;14.691;12.386
2021-8-29 4:20:19;4.25;97;8.20;22;0.205;0.025;12.62;54.6;0.020;12.9112;7.276;12.836;8.855;44;0.231;0.035;12.44;54.3;0.029;14.6744;10.362;14.592;12.586
2021-8-29 4:25:20;4.25;93;8.40;22;0.206;0.024;12.42;54.3;0.020;12.9822;7.165;12.908;8.711;44;0.231;0.035;12.44;54.3;0.029;14.6734;10.361;14.589;12.597
2021-8-29 4:30:22;4.25;97;8.00;22;0.206;0.024;12.42;54.3;0.020;12.9812;7.165;12.905;8.719;44;0.233;0.034;12.34;54.1;0.028;14.7704;10.206;14.688;12.397
2021-8-29 4:35:19;4.24;94;8.40;22;0.204;0.024;12.42;54.3;0.020;12.8622;7.216;12.787;8.782;44;0.231;0.035;12.44;54.3;0.029;14.6724;10.361;14.586;12.609
2021-8-29 4:40:20;4.25;95;8.10;22;0.206;0.024;12.42;54.3;0.020;12.9812;7.165;12.905;8.719;44;0.231;0.035;12.44;54.3;0.029;14.6734;10.361;14.589;12.597
2021-8-29 4:45:21;4.25;96;8.10;22;0.206;0.024;12.42;54.3;0.020;12.9802;7.164;12.903;8.727;44;0.235;0.034;12.44;54.3;0.028;14.9324;10.132;14.848;12.307
2021-8-29 4:50:18;4.24;96;7.90;22;0.206;0.024;12.42;54.3;0.020;12.9802;7.164;12.903;8.727;44;0.233;0.034;12.34;54.1;0.028;14.7694;10.205;14.684;12.408
2021-8-29 4:55:19;4.25;99;7.80;22;0.206;0.024;12.42;54.3;0.020;12.9802;7.164;12.903;8.727;44;0.231;0.035;12.34;54.1;0.029;14.6734;10.361;14.589;12.597
2021-8-29 5:0:20;4.24;96;8.50;22;0.209;0.024;12.32;54.1;0.019;13.1662;7.003;13.087;8.530;44;0.235;0.034;12.44;54.3;0.028;14.9314;10.132;14.845;12.318
2021-8-29 5:5:22;4.24;97;8.10;22;0.207;0.024;12.32;54.1;0.020;13.0482;7.053;12.968;8.600;44;0.235;0.034;12.44;54.3;0.028;14.9314;10.132;14.845;12.318
2021-8-29 5:10:19;4.24;97;8.40;22;0.206;0.024;12.32;54.1;0.020;12.9802;7.164;12.900;8.735;44;0.231;0.035;12.44;54.3;0.029;14.6724;10.361;14.586;12.609
2021-8-29 5:15:20;4.24;97;8.10;22;0.204;0.024;12.12;53.9;0.020;12.8602;7.215;12.780;8.806;44;0.231;0.035;12.34;54.1;0.029;14.6704;10.360;14.583;12.620
2021-8-29 5:20:21;4.24;97;6.50;22;0.206;0.024;12.12;53.9;0.020;12.9792;7.163;12.898;8.743;44;0.231;0.035;12.44;54.3;0.029;14.6704;10.360;14.583;12.620
2021-8-29 5:25:18;4.24;99;6.90;22;0.209;0.024;12.12;53.9;0.019;13.1642;7.002;13.082;8.546;44;0.231;0.035;12.34;54.1;0.029;14.6704;10.360;14.583;12.620
2021-8-29 5:30:19;4.24;99;7.50;22;0.210;0.024;12.12;53.9;0.019;13.2802;6.951;13.197;8.484;44;0.231;0.035;12.44;54.3;0.029;14.6704;10.360;14.583;12.620
2021-8-29 5:35:20;4.24;99;7.40;22;0.209;0.024;12.12;53.9;0.019;13.1632;7.001;13.080;8.554;44;0.231;0.035;12.34;54.1;0.029;14.6704;10.360;14.583;12.620
2021-8-29 5:40:22;4.24;99;6.10;22;0.209;0.024;12.12;53.9;0.019;13.1632;7.001;13.080;8.554;44;0.231;0.035;12.34;54.1;0.029;14.6694;10.359;14.580;12.631
2021-8-29 5:45:18;4.24;99;6.00;22;0.207;0.024;12.12;53.9;0.020;13.0462;7.052;12.964;8.616;44;0.231;0.035;12.34;54.1;0.029;14.6694;10.359;14.580;12.631
2021-8-29 5:50:20;4.24;99;6.50;22;0.204;0.024;12.12;53.9;0.020;12.8362;7.204;12.753;8.810;44;0.233;0.035;12.34;54.1;0.029;14.8334;10.285;14.742;12.541
2021-8-29 5:55:21;4.24;99;6.20;22;0.209;0.024;12.12;53.9;0.019;13.1622;7.001;13.077;8.562;44;0.235;0.034;12.34;54.1;0.028;14.9284;10.130;14.839;12.340
2021-8-29 6:0:17;4.24;99;5.80;22;0.204;0.024;12.12;53.9;0.020;12.8362;7.204;12.753;8.810;44;0.235;0.034;12.14;53.9;0.028;14.9274;10.130;14.836;12.352
2021-8-29 6:5:19;4.24;99;5.90;22;0.204;0.024;12.12;53.9;0.020;12.8362;7.204;12.753;8.810;44;0.232;0.035;12.14;53.9;0.028;14.7654;10.203;14.675;12.442
2021-8-29 6:10:20;4.24;99;6.10;22;0.210;0.024;12.12;53.9;0.019;13.2782;6.950;13.192;8.499;44;0.233;0.035;12.34;54.1;0.029;14.8334;10.285;14.742;12.541
2021-8-29 6:15:21;4.24;99;6.60;22;0.210;0.024;12.02;53.6;0.019;13.2782;6.950;13.192;8.499;44;0.232;0.035;12.14;53.9;0.028;14.7654;10.203;14.675;12.442
2021-8-29 6:20:17;4.24;99;6.40;22;0.204;0.025;12.02;53.6;0.020;12.8352;7.204;12.751;8.818;44;0.231;0.035;12.14;53.9;0.029;14.6694;10.359;14.580;12.631
2021-8-29 6:25:19;4.24;99;6.10;22;0.202;0.025;12.02;53.6;0.020;12.7152;7.255;12.632;8.880;44;0.231;0.035;12.34;54.1;0.029;14.6684;10.358;14.577;12.643
2021-8-29 6:30:20;4.23;99;6.30;22;0.204;0.025;12.02;53.6;0.020;12.8342;7.203;12.748;8.826;44;0.231;0.035;12.34;54.1;0.029;14.6684;10.358;14.577;12.643
2021-8-29 6:35:21;4.24;99;6.40;22;0.210;0.024;12.02;53.6;0.019;13.2762;6.949;13.187;8.515;44;0.231;0.035;12.34;54.1;0.029;14.6684;10.358;14.577;12.643
2021-8-29 6:40:17;4.24;99;6.30;22;0.207;0.024;12.02;53.6;0.020;13.0712;7.101;12.983;8.701;44;0.227;0.036;12.14;53.9;0.029;14.3674;10.570;14.276;12.914
2021-8-29 6:45:18;4.24;99;6.40;22;0.211;0.023;11.92;53.4;0.019;13.3402;6.840;13.249;8.388;44;0.227;0.036;12.14;53.9;0.029;14.3674;10.570;14.276;12.914
2021-8-29 6:50:20;4.23;99;6.30;22;0.210;0.024;11.92;53.4;0.019;13.2762;6.949;13.185;8.523;44;0.227;0.036;12.14;53.9;0.029;14.3674;10.570;14.276;12.914
2021-8-29 6:55:21;4.23;99;6.10;22;0.208;0.024;11.92;53.4;0.019;13.1372;6.991;13.048;8.574;44;0.231;0.035;12.14;53.9;0.029;14.6664;10.358;14.573;12.654
2021-8-29 7:0:17;4.24;99;5.90;22;0.197;0.026;12.02;53.6;0.021;12.4212;7.518;12.333;9.238;44;0.232;0.035;12.04;53.6;0.028;14.7634;10.202;14.669;12.464
2021-8-29 7:5:18;4.23;99;5.70;22;0.210;0.024;11.92;53.4;0.019;13.2742;6.948;13.180;8.538;44;0.227;0.036;12.14;53.9;0.029;14.3674;10.570;14.276;12.914
2021-8-29 7:10:19;4.23;99;5.60;22;0.208;0.024;11.92;53.4;0.019;13.1362;6.990;13.043;8.589;44;0.235;0.034;12.04;53.6;0.028;14.9244;10.128;14.830;12.374
2021-8-29 7:15:21;4.23;99;5.40;22;0.211;0.023;11.92;53.4;0.019;13.3402;6.839;13.247;8.396;44;0.227;0.036;12.14;53.9;0.029;14.3664;10.569;14.273;12.925
2021-8-29 7:20:17;4.23;99;5.50;22;0.203;0.025;11.72;53.1;0.020;12.8322;7.202;12.741;8.850;44;0.227;0.036;12.14;53.9;0.029;14.3664;10.569;14.273;12.925
2021-8-29 7:25:18;4.23;99;5.80;22;0.197;0.026;11.92;53.4;0.021;12.4202;7.518;12.331;9.246;44;0.227;0.036;12.14;53.9;0.029;14.3644;10.569;14.270;12.937
2021-8-29 7:30:19;4.23;99;5.90;22;0.208;0.024;11.92;53.4;0.019;13.1352;6.990;13.040;8.597;44;0.232;0.035;12.04;53.6;0.028;14.7614;10.201;14.666;12.475
2021-8-29 7:35:20;4.23;99;5.80;22;0.208;0.024;11.92;53.4;0.019;13.1352;6.990;13.040;8.597;44;0.231;0.035;12.04;53.6;0.029;14.6654;10.357;14.570;12.665
2021-8-29 7:40:21;4.23;99;5.80;22;0.208;0.024;11.72;53.1;0.019;13.1352;6.990;13.040;8.597;44;0.227;0.036;12.14;53.9;0.029;14.3644;10.569;14.270;12.937
2021-8-29 7:45:18;4.23;99;6.10;22;0.208;0.024;11.72;53.1;0.019;13.1352;6.990;13.040;8.597;44;0.227;0.036;12.14;53.9;0.029;14.3644;10.569;14.270;12.937
2021-8-29 7:50:19;4.23;99;6.10;22;0.198;0.025;11.72;53.1;0.021;12.4952;7.405;12.403;9.117;44;0.231;0.035;12.04;53.6;0.029;14.6644;10.356;14.567;12.677
2021-8-29 7:55:20;4.23;99;6.20;22;0.208;0.024;11.72;53.1;0.019;13.1352;6.990;13.040;8.597;44;0.227;0.036;12.14;53.9;0.029;14.3644;10.569;14.270;12.937
2021-8-29 8:0:21;4.23;99;6.40;22;0.208;0.024;11.72;53.1;0.019;13.1352;6.990;13.040;8.597;44;0.235;0.034;12.04;53.6;0.028;14.9224;10.127;14.824;12.396
2021-8-29 8:5:18;4.23;99;6.80;22;0.204;0.024;11.92;53.4;0.020;12.9012;7.091;12.808;8.722;44;0.235;0.034;12.04;53.6;0.028;14.9234;10.127;14.827;12.385
2021-8-29 8:10:19;4.23;99;7.50;22;0.200;0.025;11.72;53.1;0.020;12.6172;7.354;12.526;9.045;44;0.227;0.036;12.04;53.6;0.029;14.3644;10.569;14.270;12.937
2021-8-29 8:15:20;4.23;99;8.20;22;0.198;0.025;11.72;53.1;0.021;12.4952;7.405;12.406;9.108;44;0.235;0.034;12.04;53.6;0.028;14.9244;10.128;14.830;12.374
2021-8-29 8:20:22;4.23;99;9.10;22;0.208;0.024;11.92;53.4;0.019;13.1352;6.990;13.040;8.597;44;0.227;0.036;12.14;53.9;0.029;14.3664;10.569;14.273;12.925
2021-8-29 8:25:18;4.23;99;10.10;22;0.208;0.024;11.92;53.4;0.019;13.1362;6.990;13.043;8.589;44;0.236;0.034;12.14;53.9;0.028;15.0164;9.974;14.921;12.185
2021-8-29 8:30:20;4.24;97;10.90;22;0.201;0.025;11.72;53.1;0.020;12.6902;7.243;12.601;8.901;44;0.238;0.034;12.14;53.9;0.028;15.1744;9.901;15.078;12.096
2021-8-29 8:35:21;4.24;96;11.60;22;0.201;0.025;11.72;53.1;0.020;12.6902;7.243;12.601;8.901;44;0.227;0.036;12.14;53.9;0.029;14.3674;10.570;14.276;12.914
2021-8-29 8:40:18;4.24;94;12.00;22;0.208;0.024;11.92;53.4;0.019;13.1362;6.990;13.045;8.581;44;0.228;0.035;12.04;53.6;0.029;14.4694;10.414;14.379;12.711
2021-8-29 8:45:20;4.24;93;12.40;22;0.201;0.025;11.92;53.4;0.020;12.6922;7.244;12.605;8.884;44;0.227;0.036;12.14;53.9;0.029;14.3674;10.570;14.276;12.914
2021-8-29 8:50:21;4.24;93;12.80;22;0.201;0.025;11.92;53.4;0.020;12.6922;7.244;12.605;8.884;44;0.227;0.036;12.14;53.9;0.029;14.3684;10.571;14.279;12.902
2021-8-29 8:55:19;4.24;92;13.50;22;0.208;0.024;12.02;53.6;0.019;13.1372;6.991;13.048;8.574;44;0.227;0.036;12.34;54.1;0.029;14.3694;10.572;14.282;12.891
2021-8-29 9:0:20;4.24;89;13.70;22;0.206;0.024;12.02;53.6;0.019;12.9732;6.983;12.888;8.548;44;0.235;0.034;12.14;53.9;0.028;14.9284;10.130;14.839;12.340
2021-8-29 9:5:22;4.24;89;14.00;22;0.209;0.023;12.02;53.6;0.019;13.2062;6.882;13.120;8.416;44;0.233;0.035;12.34;54.1;0.028;14.7684;10.205;14.681;12.419
2021-8-29 9:10:20;4.25;90;14.00;22;0.200;0.025;12.02;53.6;0.020;12.6222;7.357;12.540;8.996;44;0.227;0.036;12.44;54.3;0.029;14.3724;10.573;14.288;12.868
2021-8-29 9:15:21;4.25;88;14.60;22;0.205;0.024;12.12;53.9;0.020;12.9332;7.144;12.851;8.728;44;0.227;0.036;12.44;54.3;0.029;14.3734;10.574;14.291;12.856
2021-8-29 9:20:19;4.25;88;15.20;22;0.208;0.024;12.12;53.9;0.019;13.1412;6.992;13.060;8.535;44;0.237;0.034;12.34;54.1;0.028;15.0924;10.059;15.007;12.218
2021-8-29 9:25:21;4.26;85;15.90;22;0.208;0.024;12.12;53.9;0.019;13.1422;6.993;13.062;8.527;44;0.227;0.036;12.44;54.3;0.029;14.3744;10.575;14.294;12.845
2021-8-29 9:30:19;4.27;84;16.30;22;0.208;0.024;12.32;54.1;0.019;13.1432;6.993;13.065;8.519;44;0.233;0.034;12.34;54.1;0.028;14.7724;10.207;14.691;12.386
2021-8-29 9:35:21;4.27;81;16.70;22;0.208;0.024;12.32;54.1;0.019;13.1442;6.994;13.067;8.511;44;0.227;0.036;12.64;54.6;0.029;14.3774;10.576;14.300;12.821
2021-8-29 9:40:19;4.27;84;17.00;22;0.209;0.024;12.42;54.3;0.019;13.1452;6.994;13.069;8.503;44;0.227;0.036;12.64;54.6;0.029;14.3774;10.576;14.300;12.821
2021-8-29 9:45:21;4.27;82;17.50;22;0.209;0.024;12.42;54.3;0.019;13.1462;6.994;13.072;8.496;44;0.235;0.034;12.64;54.6;0.028;14.9374;10.135;14.861;12.263
2021-8-29 9:50:19;4.29;79;18.10;22;0.202;0.024;12.42;54.3;0.020;12.7002;7.248;12.629;8.804;44;0.237;0.034;12.64;54.6;0.028;15.0994;10.062;15.023;12.163
2021-8-29 9:55:22;4.29;80;18.30;22;0.205;0.024;12.42;54.3;0.020;12.9122;7.096;12.841;8.611;44;0.227;0.036;12.74;54.8;0.029;14.3794;10.578;14.306;12.798
2021-8-29 10:0:20;4.30;78;18.60;22;0.209;0.024;12.42;54.3;0.019;13.1472;6.995;13.077;8.480;44;0.235;0.034;12.74;54.8;0.028;14.9404;10.137;14.867;12.241
2021-8-29 10:5:22;4.30;77;18.80;22;0.206;0.024;12.62;54.6;0.020;12.9612;7.156;12.890;8.684;44;0.227;0.036;12.74;54.8;0.029;14.3824;10.579;14.312;12.775
2021-8-29 10:10:21;4.30;76;19.30;22;0.203;0.024;12.62;54.6;0.020;12.7962;7.149;12.731;8.649;44;0.227;0.036;12.74;54.8;0.029;14.3824;10.579;14.312;12.775
2021-8-29 10:15:19;4.30;77;19.40;22;0.211;0.023;12.72;54.8;0.019;13.2872;6.954;13.220;8.414;44;0.232;0.035;12.84;55.1;0.029;14.6834;10.367;14.613;12.507
2021-8-29 10:20:22;4.31;74;19.90;22;0.205;0.024;12.72;54.8;0.020;12.9162;7.098;12.851;8.580;44;0.232;0.035;12.84;55.1;0.029;14.6844;10.368;14.617;12.496
2021-8-29 10:25:20;4.31;73;20.00;22;0.207;0.024;12.72;54.8;0.020;13.0342;7.047;12.971;8.510;44;0.233;0.034;12.84;55.1;0.028;14.7824;10.213;14.716;12.297
2021-8-29 10:30:23;4.31;73;20.50;22;0.205;0.024;12.72;54.8;0.020;12\9172;7.099;12.856;8.564;44;0.233;0.034;12.84;55.1;0.028;14.7834;10.213;14.719;12.286
2021-8-29 10:35:22;4.33;73;21.10;22;0.205;0.024;12.72;54.8;0.020;12.9182;7.099;12.859;8.556;44;0.232;0.035;13.04;55.4;0.029;14.6864;10.369;14.620;12.485
2021-8-29 10:40:21;4.33;72;21.20;a22;0.206;0.024;12.82;55.1;0.020;12.9682;7.159;12.r10;8.620;44;0.232;0.035;12.84;55.1;0.029;14.6884;10.370;14.626;12.462
2021-8-29 10:45:20;4.33;69;21.30;22;0.204;0.024;12.82;55.1;0.020;12.8h92;7.210;12.792;8.682;44;0.232;0.035;13.04;55.4;0.029;14.6874;10.369;14.623;12.473
2021-8-29 10:50:23;4.33;70;21.40;22;0.209;0.023;12.82;55.1;0.019;13.1772;7.007;13.119;8.429;44;0.232;0.035;12.84;55.1;0.029;14.6884;10.370;14.626;12.462
2021-8-29 10:55:22;4.33;68;21.80;22;0.209;0.023;13.02;55.4;0.019;13.1782;7.008;13.122;8.421;44;0.233;0.034;13.04;55.4;0.028;14.7864;10.215;14.725;12.263
2021-8-29 11:0:21;4.33;66;22.10;Z2;0.209;0.023;13.02;55.4;0.019;13.1782;7.008;13.122;8.421;44;0.234;0.034;13.04;55.4;0.029;14.8534;10.296;14.792;12.361
2021-8-29 11:5:20;4.34;67;22.40;22[0.202;0.024;13.02;55.4;0.020;12.7322;7.263;12.680;8.719;44;0.232;0.035;13.14;55.6;0.029;14.6914;10.372;14.632;12.439
2021-8-29 11:10:23;4.34;67;23.10;22;0.208;0.024;13.02;55.4;0.020;13.0622;7.059;13.008;8.475;44;0.232;0.035;13.14;55.6;0.029;14.6914;10.372;14.632;12.439
2021-8-29 11:15:22;4.34;66;23.20;22;0.201;0.025;13.12;55.6;0.021;12.6612;7.375;12.610;8.845;44;0.232;0.035;13.14;55.6;0.029;14.6914;10.372;14.632;12.439
2021-8-29 11:20:21;4.35;66;23.70;22;0.203;0.024;13.12;55.6;0.020;12.7342;7.263;1d.685;8.703;44;0.236;0.034;13.14;55.6;0.028;14.9524;10.143;14.896;12.141
2021-8-29 11:25:21;4.35;64;23.70;22;0.208;0.023;13.12;55.6;0.020;13.0642;7.060;13.016;8.451;44;0.232;0.035;13.14;55.6;0.029;14.6924;10.372;14.636;12.428
2021-8-29 11:30:20;4.35;64;23.60;22;0.206;0.024;13.12;55.6;0.0Z0;12.9462;7.111;12.898;8.512;44;0.232;0.035;13.14;55.6;0.029;14.6934;10.373;14.639;12.417
2021-8-29 11:35:23;4.36;62;24.00;22;0.206;0.024;13.32;u5.9;0.020;12.9472;7.112;12.901;8.505;44;0.232;0.035;13.14;55.6;0.029;14.6934;10.373;14.639;12.417
2021-8-29 11:40:23;4.35;61;24.10;22;0.207;0.024;13.32;55.9;0.020;12.9972;7.171;12.950;8.576;44;0.232;0.035;13.34;55.9;0.029;14.6934;10.373;14.639;12.417
2021-8-29 11:45:22;4.36;63;23.80;22;0.210;0.023;13.32;55.9;0.019;13.1842;7.010;13.140;8.367;44;0.232;0.034;13.34;55.9;0.029;14.6954;10.374;14.642;12.405
2021-8-29 11:50:21;4.36;62;24.30;22;0.212;0.023;13.42;56.1;0.019;13.3222;6.968;13.275;8.325;44;0.232;0.034;13.14;55.6;0.029;14.6954;10.374;14.642;12.405
2021-8-29 11:55:21;4.36;62;23.80;22;0.207;0.024;13.42;56.1;0.020;12.9992;7.173;12.957;8.552;44;0.233;0.034;13.34;55.9;0.028;14.7924;10.219;14.741;12.208
2021-8-29 12:0:20;4.36;62;24.10;22;0.207;0.024;13.42K56.1;0.020;12.9992;7.173;12.957;8.552;44;0.232;0.034;13.44;56.1;0.029;14.6954;10.374;14.642;12.405
2021-8-29 12:5:24;4.36;60;24.20;22;0.212;0.023;13.52;56.4;0.019;13.3232;6.969;13.281;8.309;44;0.233;0.034;13.34;55.9;0.028;14.7944;10.219;14.744;12.197
2021-8-29 12:10:23;4.36;59;24.80;22;0.205;0.`24;13.h2;56.1;0.020;12.8812;7.224;12.841;8.605;44;0.230;0.035;13.34;55.9;0.029;14.5324;10.450;14.483;12.472
2021-8-29 12:15:23;4.36;61;24.40;22;0.207;0024;13.52;56.4;0.020;13.0012;7.173%l6)2ZBs*2j;44;0.232;0.034;13.34;55.9;0.029;14.6964;10.375;14.645;12.394
2021-8-29 12:20:22;4.36;63;24.70;22;0.207;0.024;13.42;56.1;0.020;13.0022;7.174;12.965;8.528;44;0.233;0.034;13.34;55.9;0.028;14.7954;10.220;14.747;12.186
2021-8-29 12:25:22;4.36;58;25.20;22;0.205;0.024;13.52;56.4;0.020;12.8842;7.226;12.849;8.581;44;0.232;0.034;13.44;56.1;0.029;14.6994;10.376;14.651;12.372
2021-8-29 12:30:21;4.36;57;24.60;22;0.207;0.024;13.52;5l.4;0.020;13.0032;7.174;12.968;8.520;44;0.232;0.034;13.34;55.9;0.029;14.6994;10.376;14.651;12.372
2021-8-29 12:35:21;4.36;56;25.50;22;0.205;0.024;13.72;56.6;0.020;12.8852;7.226;12.851W8.573;44;0.231;0.035;13.54;56.4;0.029;14.6004;10.533;14.553;12.559
2021-8-29 12:40:20;4.36;56;25.20;22;0.203;0.024;13.72;56.6;0.020;12\765d;7.278;12.734;8.626;44;0.232;0.034;13.44;56.1;0.029;14.7004;10.377;14.655;12.360
2021-8-29 12:45:24;4.36;55;25.20;22;0.202;0.024;13.72;56.f;0.021;12.6932;7.390;12.6o2;8.759;44;0.231;0.035;13.44;56.1;0.029;14.6014;10.534;14.556;12.548
2021-8-29 12:50:24;4.36;58;25.80;22;0.209;0.024;13.82;56.9;0.020;13.1452;7.133;13.113;8.455;44;0.228;0.035;13.54;56.4;0.029;14.4324;10.608;14.386;12.649
2021-8-29 12:55:24;4.36;56;25.80;22;0.206;0.024;13.8R;56.9;0.020;12.9092;7.23712.879;8.569;44;0.234;0.034;13.44;56.1;0.028;14.7984;10.222;14.754;12.163
2021-8-29 13:0:23;4.36;59;26.00;22;0.209;0.023;13.82;56.9;0.020;13.a462;7.134;13.116;8.447;44;0.232;0.034;13.44;56.1;0.029;14.7014;10.378;14.658;12.349
2021-8-29 13:5:23;4.37;58;25.60;22;0.212;0.023;14.02;57.2;0.019;13.3532;6.981;13.322;8.266;44;0.228;0.035;13.44;56.1;0.029;14.4354;10.610;14.392;12.626
2021-8-29 13:10:22;4.36;53;25.20;22;0.206;0.024;13.82;56.9;0.020;l6)j2;7.237;12.884;8.553;44;0.232;0.034;13.44;56.1;0.029;14.7034;10.378;14.661;12.338
2021-8-29 13:15:22;4.37;51;26.00;22;0.209;0.023;14.02;57.2;0.020;13.a492;7.135;13.124;8.423;44;0.231;0.035;13.44;56.1;0.029;14.6044;10.536;14.563;12.525
2021-8-29 13:20:22;4.37;52;25.50;22;0.199;0.025;14.02;57.2;0.0b1;12.4992;7.556;12.4W5;8.920;44;0.231;0.035;13.54;56.4;0.029;14.6044;10.536;14.563;12.525
2021-8-29 13:25:21;4.37;51;25.30;22;0.208;0.024;14.12;57.4;0.020;13.`c12;7.187;13.008;8.476;44;0.232;0.034;13.44;56.1;0.029;14.7044;10.379;14.664;12.327
2021-8-29 13:30:21;4.37;51;25.00;22;0.206;0.024;14.12;57.4;0.020;12.9132;7.239;12.892;8.529;44;0.228;0.035;13.44;56.1;0.030;14.4374;10.612;14.398;12.603
2021-8-29 13:35:21;4.38;49;25.00;22;0.213;0.023;14.1g;57.4;0.019;13.3572;6.983;13.335[8.227;44;0.232;0.034;13.44;56.1;0.029;14.7044;10.379;14.664;12.327
2021-8-29 13:40:21;4.37;51;26.20;22;0.205;0.024;14N12;57.4;0.020;12.8432;7.351;12.823;8.653;44;0.228;0.035;13.74;56.6;0.030;14.4374;10.612;14.398;12.603
2021-8-29 13:45:20;4.37;49;26.40;22;0.210;0.023;14.12;57.4;0.020;13.1752;7.146;13157;s"j;44;0.231;0.035;13.74;56.6;0.029;14.6074;10.537;14.569;12.502
2021-8-29 13:50:24;4.37;54;26.30;d2;0.202S0.025;14.c2;57.7;0.021;12.6482;7.516;12.628;8.847;44;0.236;0.034;13.54;56.4;0.028;14.9984;10.168;14.959;12.063
2021-8-29 13:55:24;4.37;51;25.70;22;0.205;0.024;14.32;57.7;0.020;12.8452;7.352;12.829;8.636;44;0.228;0.035;13.74;56.6;0.030;14.4394;10.612;14.401;12.591
2021-8-29 14:0:24;4.37;53;26.10;22;.208;0.024;14.32;i7.7;0.020;13.0582;7.198;13.041;8.456;44;0.228;0.035;13.74;56.6;0.030;14.4394;10.612;14.401;12.591
2021-8-29 14:5:24;4.38;50;26.50;22;0.212;0.023;14.32;57.7;0.020;13.2952;7.095;13.280;8.327;44;0.228;0.035;13.74;56.6;0.030;14.4404;10.613;14.405;12.580
2021-8-29 14:10:23;4.37;53;26.10;22;0.208;0.023;14.42;58.0;0.020;13.0592;7.199;13.044;8.448;44;0.232;0.034;13.74;56.6;0.029;14.7084;10.382;14.674;12.293
2021-8-29 14:15:23;4.38;49;26.00;22;0.212;0.023;14.42;58.0;0.020;13.2962;7.096;13.282;8.319;44;0.229;0.035;13.74;56.6;0.030;14.4414;10.614;14.408;12.568
2021-8-29 14:20:23;4.38;50;26.10;22;0.208;0.023;14.42;58.0;0.020;13.0602;7.199;13.047W8.440;44;0.229;0.035;13.74;56.6;0.030;14.4414;10.614;14.408;12.568
2021-8-29 14:25:22;4.38;49;26.30;22;0.205;0.024;14.42;58.0;0.0d0;16	;j2;7.363;12.859;8.624;44;0.229;0.035;13.84;56.9;0.030;14.4414;10.614;14.408;12.568
2021-8-29 14:30:22;4.38;50;26.20;22;0.d07;0.024V14.42;58.0;0.020;12.9912;7.311[1b.979K8.563;44;0.229;0.035;13.84;56.9;0.030;14.4414;10.614;14.408;12.568
2021-8-29 14:35:22;4.38;50;26.00;22;0.205;0.0Rd;14.42;58.`;0.020;12.8712;7.364;12.862;8.616;44;0.229;0.035;13.84;56.9;0.030;14.4414;10.614;14.408;12.568
2021-8-29 14:40:21;4.38;49;26.30;22;0.205;0.024;14.62;58.3;0.020;12.8722;7.364;12.864;8.608;44;0.229;0.035;13.84;56.9;0.030;14.4414;10.614;14.408;12.568
2021-8-29 14:45:21;4.38;49;26.80;22;`.207;0.024;14.62;58.3;0.020;12.9922;7.312;12.985;8.547;44;0.229;0.035;13.74;56.6;0.030;14.4434;10.615;14.411;12.556
2021-8-29 14:50:21;4.38;48;26.30;22;0.204;0.024;14.62;5p.3;r[s:KJj2;7.477;12.792;8.740;44;0.229;0.035;13.84;56.9;0.030;14.4434;10.615;14.411;12.556
2021-8-29 14:55:20;4.39;48;26.50;22;0.210;0_023;Y4.72;58.j;0.020;13.2052;7.15913.199;8.359E;44;0.229;0.035;13.84;56.9;0.030;14.4434;10.615;14.411;12.556
2021-8-29 15:0:24;4.38;49;26.50;22;0.207;0.024;14.72;58.5;0.020;12.9942;7.313;12.990;8.531;44;0.229;0.035;13.84;56.9;0.030;14.4434;10.615;14.411;12.556
2021-8-29 15:5:24;4.38;49;26.80;22;0.209;0.024;14.72;58.5;0.020;13.1{72;7.271;13.133;8.482;44;0.227;0.035;13.84;56.9;0.030;14.3394;10.774;14.308;12.745
2021-8-29 15:10:24;4.38;49;26.80;22;0.207;0.024;14.72;58)S	rZsJJ*jz;7314;12.q93;8.523;44;0.229;0.035;13.84;56.9;0.030;14.4444;10.616;14.414;12.545
2021-8-29 15:15:23;4.39;47;26.40;22;0.211;0.023;14.72;58.5;0.020;13.2062;7.160;13.204;8.343;44;0.235;0.034;13.84;56.9;0.029;14.9104;10.328;14.882;12.193
2021-8-29 15:20:23;4.38;50;26.60;22;0.203;0.0R5;14n62;58.3V0.021;12.7282;7.592;12.726;8.847;44;0.233;0.034;13.84;56.9;0.029;14.7464;10.402;14.718;12.281
2021-8-29 15:25:22;4.38;47;26.80;2m2;0.210;0.024;14.92;58.8;0.020;13.1392;7.272;13.138;8.466;44;0.233;0.034;13.84;56.9;0.029;14.7464;10.402;14.718;12.281
2021-8-29 15:30:22;4.39;47;26.50;22;0.210;0.024;14.72;58.5;0.020;13.1402;7.272;13.141K8.4i8;44;0.227;0.035;14.04;57.2;0.030;14.3404;10.775;14.311;12.733
2021-8-29 15:35:22;4.38;47;26.60;22;0.208;0.024;14.92;58.8;0.020;13.0202;7.324;13.021;8.518;44;0.227;0.035;14.04;57.2;0.030;14.3424;10.776;14.314;12.721
2021-8-29 15:40:21;4.39;48;26.90;22;0.210;0.0b4;c4.92;58.8;0.020;13.1402;7.272;13.141;8.458;44;0.232;0.035;14.04;57.2;0.029;14.6474;10.560;14.619;12.467
2021-8-29 15:45:21;4.38;46;26.60;22;0.210;0.023;14.92;58.8;0.020;13.1412;7.273;13.144;8.450;44;0.233;0.034;14.04;57.2;0.029;14.7464;10.402;14.718;12.281
2021-8-29 15:50:20;4.38;45;26.40;22;0.d13;0.023;14.92;58.8;0.020;13.3502;7.119;13.353;8.270;44;0.227;0.035;14.04;57.2;0.030;14.3424;10.776;14.314;12.721
2021-8-29 15:55:24;4.39;45;27.10;22;0.208;0.024;14.92;58.8;0.020;13.0212;7.325;13.024;8.510;44;0.227;0.035;14.04;57.2;0.030;14.3434;10.776;14.317;12.710
2021-8-29 16:0:24;4.38;46;26.90;22;0.210[0.023;15.02;59.1;0.0d0;13.1422;7.273;13.146;8.442;44;0.232;0.035;14.04;57.2;0.029;14.6484;10.561;14.622;12.456
2021-8-29 16:5:23;4.39;46;26.90;22;0.R05;0.024;15.02;59.1;0.021;12.8282;7.491;12.833;8\694;44;0.235;0.034;14.04;57.2;0.029;14.9124;10.328;14.885;12.181
2021-8-29 16:10:23;4.39;45;26.80;22;0.212;0.023;15.02;9.1;0.020;13.2842;7.231;13.288;8.392;44;0.229;0.035;14.04;57.2;0.030;14.4454;10.616;14.417;12.533
2021-8-29 16:15:22;4.38;45;26.50;b2;.212;0.023;15.02;59.1;0.020;13.2842;7.231;13.288;8.392;44;0.227;0.035;14.04;57.2;0.030;14.3434;10.776;14.317;12.710
2021-8-29 16:20:22;4.39;44;26.50;22;0.208;0.024;15.02;59.};0.020;13.0452;7.336;13.052;8.505;44;0.235;0.034;14.04;57.2;0.029;14.9124;10.328;14.885;12.181
2021-8-29 16:25:21;4.38;43;26.40;22;0.212;0.023;15_02;59.1;0.020;13.2852;7.231;13.291;8.384;44;0.227;0.035;14.04;57.2;0.030;14.3434;10.776;14.317;12.710
2021-8-29 16:30:21;4.38;45;26.60;22;0.204;0.025;15.`2;59.1;0.021;12.75Mc2;7.605;12.761;8.818;44;0.235;0.034;14.04;57.2;0.029;14.9134;10.329;14.888;12.170
2021-8-29 16:35:20;4.39;45;26.70;22;0.212;0.023;15.02;59.1;0.020;13.2852;7.231;13.291;8.384;44;0.232;0.035;14.14;57.4;0.029;14.6484;10.561;14.622;12.456
2021-8-29 16:40:24;4.38;43;26.50;22;0.212;0.023;15.02;59.1;0.020;13.2852;7231;13.291;8.384;44;0.232;0.035;14.04;57.2;0.029;14.6484;10.561;14.622;12.456
2021-8-29 16:45:23;4.39;45;26.40;22;0.207;0.024;15.02S59.1;0.021;12.9752;7.449;12.983;8.629;44;0.235;0.034;14.04;57.2;0.029;14.9134;10.329;14.888;12.170
2021-8-29 16:50:23;4.39;48;26.50;22;0.211;0.024;15.22;59.4;0.`20;13.2172;7.345;13.225;8.507;44;0.233;0.034;14.04;57.2;0.029;14.7494;10.404;14.724;12.258
2021-8-29 16:55:22;4.39;46;26.30;22;0.211;0.024;15.22;59.4[0.020;13.2172;7.345;13.225;8.507;44;0.227;0.035;14.14;57.4;0.030;14.3434;10.776;14.317;12.710
2021-8-29 17:0:22;4.38;46;26.20;22;0.211;0.024;1i.22;59.4;0.020;13.2172;7.345;13.225;8.507c;44;0.232;0.035;14.14;57.4;0.029;14.6484;10.561;14.622;12.456
2021-8-29 17:5:21;4.39;48;26.30;22;0.211;0.024;15.22;59.4;0.020;13.2172;7.345;13.225;8.507;44;0.235;0.034;14.04;57.2;0.029;14.9124;10.328;14.885;12.181
2021-8-29 17:10:20;4.39;45;26.10;22;0.207;0.024;15.22;59.4;0.021k12.9752;7.449;12.983;8.629;44;0.235;0.034;14.04;57.2;0.029;14.9124;10.328;14.885;12.181
2021-8-29 17:15:24;4.38;46;26.00;22;0.211;0024;15.22;59.4;0.020;13.2172;7.345;13.225;8.507;44;0.235;0.034;14.04;57.2;0.029;14.9124;10.328;14.885;12.181
2021-8-29 17:20:24;4.38;45;25.90;22;0.214;0.023;15.22;59.4;0.020;13.4272;7.189;13.436;8.327;44;0.235;0.034;14.04;57.2;0.029;14.9124;10.328;14.885;12.181
2021-8-29 17:25:23;4.38;45;25.70;22;0.207;0.024;15.22;59.4;0.021;12.9752;7.449;12.983;8.629;44;0.227;0.035;14.14;57.4;0.030;14.3434;10.776;14.317;12.710
2021-8-29 17:30:22;4.38;44;25.70;22;0.211;0.024;15.22;59.4;0.020;13.21g2;7.345;13.225;8.507;44;0.235;0.034;14.04;57.2;0.029;14.9134;10.329;14.888;12.170
2021-8-29 17:35:22;4.38;45;25.70;22;0.214;0.023;15.22;59.4;0.020;13.4272;7.189;13.436;8.327;44;0.235;0.034;14.04;57.2;0.029;14.9124;10.328;14.885;12.181
2021-8-29 17:40:21;4.38;48;25.50;22S0.213;0.024;15.22;59.4;0.020;13.3592;7.302;13.365;8.466;44;0.227;0.035;14.04;57.2;0.030;14.3424;10.776;14.314;12.721
2021-8-29 17:45:20;4.38;45;25.40;22;0.204;0.025;15.02;59.1;0.021;12.7782;7.616;12.784;8.830;44;0.232;0.035;14.04;57.2;0.029;14.6474;10.560;14.619;12.467
2021-8-29 17:50:24;4.37;47;25.10;22;0.210;0.023;15.22;59.4;0.020;13.1892;7.294;13.198;8.44H;44;0.232;0.035;14.04;57.2;0.029;14.6484;10.561;14.622;12.456
2021-8-29 17:55:23;4.38;48;25.00;22;0.203;0.025;15.02;59.1;0.021;12.7022;7.730;12.709;8.963;44;0.232;0.035;14.04;57.2;0.029;14.6474;10.560;14.619;12.467
2021-8-29 18:0:22;4.37;50;24.70;22;0.211;0.024;15.02;59.1;0.020;13.2392;7.354;13.246;8.527;44;0.233;0.034;14.04;57.2;0.029;14.7464;10.402;14.718;12.281
2021-8-29 18:5:22;4.37;50;24.50;22;0.204;0.025;15.02;59.1;0.021;12.7782;7.616;12.784;8.830;44;0.232;0.035;14.04;57.2;0.029;14.6474;10.560;14.619;12.467
2021-8-29 18:10:21;4.36;53;23.80;22;0.213;0.024;15.02;59.1;0.020;13.3592;7.302;13.365;8.466;44;0.232;0.035;14.04;57.2;0.029;14.6474;10.560;14.619;12.467
2021-8-29 18:15:20;4.36;52;23.60;22;0.206;0.024;15.02;59.1;0.021;12.9012;7.562;12.905;8.777;44;0.232;0.035;14.04;57.2;0.029;14.6464;10.559;14.616;12.479
2021-8-29 18:20:23;4.36;54;23.20;22;0.203;0.025;15.02;59.1;0.021;12.7002;7.729;12.703;8.980;44;0.235;0.034;13.84;56.9;0.029;14.9104;10.328;14.882;12.193
2021-8-29 18:25:22;4.36;56;22.30;22;0.203;0.025;15.02;59.1;0.021;12.7002;7.729;12.703;8.980;44;0.234;0.034;13.84;56.9;0.029;14.8124;10.484;14.782;12.390
2021-8-29 18:30:21;4.36;59;21.10;22;0.211;0.024;15.02;59.1;0.020;13.2372;7.353;13.240;8.543;44;0.232;0.035;14.04;57.2;0.029;14.6464;10.559;14.616;12.479
2021-8-29 18:35:20;4.35;57;21.10;22;0.209;0.024;15.02;59.1;0.021;13.1172;7.406;13.120;8.604;44;0.232;0.035;13.84;56.9;0.029;14.6464;10.559;14.616;12.479
2021-8-29 18:40:23;4.34;58;20.70;22;0.213;0.024;15.02;59.1;0.020;13.3562;7.300;13.357;8.490;44;0.232;0.035;14.04;57.2;0.029;14.6444;10.559;14.612;12.490
2021-8-29 18:45:21;4.34;59;20.20;22;0.209;0.024;15.02;59.1;0.021;13.1162;7.405;13.117;8.612;44;0.232;0.035;13.74;56.6;0.029;14.6444;10.559;14.612;12.490
2021-8-29 18:50:20;4.33;61;19.50;22;0.203;0.025;14.92;58.8;0.021;12.6992;7.729;12.698;8.997;44;0.233;0.034;13.84;56.9;0.029;14.7434;10.401;14.711;12.303
2021-8-29 18:55:23;4.33;62;18.60;22;0.209;0.024;14.92;58.8;0.021;13.1162;7.405;13.117;8.612;44;0.227;0.035;13.84;56.9;0.030;14.3384;10.773;14.304;12.756
2021-8-29 19:0:21;4.33;64;17.90;22;0.213;0.024;14.92;58.8;0.020;13.3552;7.300;13.354;8.498;44;0.231;0.035;13.84;56.9;0.029;14.6434;10.558;14.609;12.502
2021-8-29 19:5:19;4.33;64;17.80;22;0.209;0.024;14.92;58.8;0.021;13.1142;7.405;13.111;8.629;44;0.235;0.034;13.84;56.9;0.029;14.9084;10.326;14.875;12.215
2021-8-29 19:10:22;4.33;63;17.80;22;0.209;0.024;14.92;58.8;0.021;13.1152;7.405;13.114;8.620;44;0.234;0.035;13.74;56.6;0.029;14.8104;10.483;14.775;12.412
2021-8-29 19:15:20;4.33;60;18.80;22;0.207;0.024;14.92;58.8;0.021;12.9922;7.457;12.990;8.690;44;0.231;0.035;13.84;56.9;0.029;14.6434;10.558;14.609;12.502
2021-8-29 19:20:23;4.33;58;19.30;22;0.209;0.024;14.72;58.5;0.021;13.1132;7.404;13.109;8.637;44;0.235;0.034;13.84;56.9;0.029;14.9064;10.325;14.872;12.226
2021-8-29 19:25:21;4.33;59;19.00;22;0.211;0.024;14.72;58.5;0.020;13.2342;7.352;13.232;8.567;44;0.231;0.035;13.84;56.9;0.029;14.6424;10.557;14.606;12.513
2021-8-29 19:30:19;4.33;60;18.70;22;0.211;0.024;14.72;58.5;0.020;13.2332;7.352;13.229;8.576;44;0.231;0.035;13.84;56.9;0.029;14.6424;10.557;14.606;12.513
2021-8-29 19:35:21;4.33;60;18.70;22;0.204;0.025;14.72;58.5;0.021;12.7722;7.613;12.768;8.880;44;0.235;0.034;13.74;56.6;0.029;14.9064;10.325;14.872;12.226
2021-8-29 19:40:19;4.33;62;17.80;22;0.209;0.024;14.72;58.5;0.021;13.1132;7.404;13.109;8.637;44;0.231;0.035;13.84;56.9;0.029;14.6424;10.557;14.606;12.513
2021-8-29 19:45:22;4.33;63;17.80;22;0.209;0.024;14.72;58.5;0.021;13.1132;7.404;13.109;8.637;44;0.227;0.036;13.84;56.9;0.030;14.3354;10.771;14.298;12.780
2021-8-29 19:50:20;4.33;62;18.00;22;0.209;0.024;14.72;58.5;0.021;13.1132;7.404;13.109;8.637;44;0.231;0.035;13.84;56.9;0.029;14.6404;10.556;14.603;12.524
2021-8-29 19:55:22;4.33;61;18.50;22;0.209;0.024;14.72;58.5;0.021;13.1122;7.404;13.106;8.645;44;0.231;0.035;13.84;56.9;0.029;14.6424;10.557;14.606;12.513
2021-8-29 20:0:20;4.33;60;18.50;22;0.207;0.024;14.72;58.5;0.021;12.9902;7.456;12.985;8.706;44;0.231;0.035;13.74;56.6;0.029;14.6424;10.557;14.606;12.513
2021-8-29 20:5:22;4.33;62;18.10;22;0.206;0.025;14.72;58.5;0.021;12.9182;7.570;12.912;8.840;44;0.235;0.034;13.74;56.6;0.029;14.9054;10.325;14.868;12.237
2021-8-29 20:10:20;4.32;63;17.70;22;0.211;0.024;14.72;58.5;0.020;13.2322;7.351;13.226;8.584;44;0.235;0.034;13.74;56.6;0.029;14.9054;10.325;14.868;12.237
2021-8-29 20:15:23;4.32;64;17.30;22;0.209;0.024;14.72;58.5;0.021;13.1122;7.404;13.106;8.645;44;0.231;0.035;13.74;56.6;0.029;14.6404;10.556;14.603;12.524
2021-8-29 20:20:20;4.31;65;17.00;22;0.209;0.024;14.72;58.5;0.021;13.1122;7.404;13.106;8.645;44;0.234;0.035;13.74;56.6;0.029;14.8074;10.481;14.769;12.435
2021-8-29 20:25:18;4.32;66;16.50;22;0.209;0.024;14.62;58.3;0.021;13.1112;7.403;13.103;8.653;44;0.231;0.035;13.74;56.6;0.029;14.6404;10.556;14.603;12.524
2021-8-29 20:30:21;4.32;67;16.50;22;0.208;0.024;14.62;58.3;0.021;13.0402;7.517;13.032;8.786;44;0.231;0.035;13.74;56.6;0.029;14.6404;10.556;14.603;12.524
2021-8-29 20:35:18;4.32;66;16.50;22;0.209;0.024;14.72;58.5;0.021;13.1112;7.403;13.103;8.653;44;0.235;0.034;13.74;56.6;0.029;14.9044;10.324;14.865;12.249
2021-8-29 20:40:21;4.31;67;16.30;22;0.209;0.024;14.72;58.5;0.021;13.1102;7.403;13.101;8.661;44;0.234;0.035;13.74;56.6;0.029;14.8074;10.481;14.769;12.435
2021-8-29 20:45:18;4.31;67;16.40;22;0.209;0.024;14.62;58.3;0.021;13.1102;7.403;13.101;8.661;44;0.235;0.034;13.74;56.6;0.029;14.9054;10.325;14.868;12.237
2021-8-29 20:50:20;4.31;68;16.00;22;0.209;0.024;14.62;58.3;0.021;13.1102;7.403;13.101;8.661;44;0.231;0.035;13.74;56.6;0.029;14.6404;10.556;14.603;12.524
2021-8-29 20:55:23;4.31;68;16.20;22;0.211;0.024;14.62;58.3;0.020;13.2302;7.350;13.218;8.608;44;0.231;0.035;13.74;56.6;0.029;14.6404;10.556;14.603;12.524
2021-8-29 21:0:20;4.31;66;16.60;22;0.206;0.025;14.62;58.3;0.021;12.9142;7.568;12.901;8.873;44;0.231;0.035;13.74;56.6;0.029;14.6394;10.556;14.600;12.536
2021-8-29 21:5:22;4.31;67;16.60;22;0.209;0.024;14.62;58.3;0.021;13.1082;7.402;13.095;8.678;44;0.231;0.035;13.74;56.6;0.029;14.6394;10.556;14.600;12.536
2021-8-29 21:10:20;4.30;66;16.80;22;0.209;0.024;14.62;58.3;0.021;13.1082;7.402;13.095;8.678;44;0.231;0.035;13.74;56.6;0.029;14.6394;10.556;14.600;12.536
2021-8-29 21:15:22;4.31;67;16.70;22;0.209;0.024;14.42;58.0;0.021;13.1082;7.402;13.095;8.678;44;0.231;0.035;13.74;56.6;0.029;14.6394;10.556;14.600;12.536
2021-8-29 21:20:20;4.30;67;16.60;22;0.211;0.024;14.42;58.0;0.020;13.2292;7.349;13.216;8.616;44;0.231;0.035;13.74;56.6;0.029;14.6394;10.556;14.600;12.536
2021-8-29 21:25:22;4.31;68;16.50;22;0.209;0.024;14.42;58.0;0.021;13.1072;7.402;13.093;8.686;44;0.231;0.035;13.74;56.6;0.029;14.6394;10.556;14.600;12.536
2021-8-29 21:30:20;4.31;68;16.40;22;0.202;0.025;14.42;58.0;0.021;12.6912;7.725;12.677;9.065;44;0.231;0.035;13.74;56.6;0.029;14.6394;10.556;14.600;12.536
2021-8-29 21:35:22;4.30;68;16.30;22;0.209;0.024;14.42;58.0;0.021;13.1072;7.402;13.093;8.686;44;0.227;0.036;13.74;56.6;0.030;14.3344;10.771;14.295;12.791
2021-8-29 21:40:19;4.31;69;16.00;22;0.211;0.024;14.42;58.0;0.020;13.2282;7.349;13.213;8.624;44;0.235;0.034;13.74;56.6;0.029;14.9024;10.323;14.862;12.260
2021-8-29 21:45:21;4.30;71;15.50;22;0.211;0.024;14.42;58.0;0.020;13.2282;7.349;13.213;8.624;44;0.235;0.034;13.54;56.4;0.029;14.9024;10.323;14.862;12.260
2021-8-29 21:50:19;4.30;71;15.40;22;0.209;0.024;14.42;58.0;0.021;13.1062;7.401;13.090;8.694;44;0.231;0.035;13.74;56.6;0.029;14.6394;10.556;14.600;12.536
2021-8-29 21:55:21;4.30;71;15.50;22;0.209;0.024;14.42;58.0;0.021;13.1062;7.401;13.090;8.694;44;0.231;0.035;13.74;56.6;0.029;14.6394;10.556;14.600;12.536
2021-8-29 22:0:19;4.30;71;15.50;22;0.210;0.024;14.42;58.0;0.021;13.1562;7.462;13.138;8.774;44;0.235;0.034;13.54;56.4;0.029;14.9024;10.323;14.862;12.260
2021-8-29 22:5:21;4.30;70;15.70;22;0.212;0.024;14.42;58.0;0.020;13.3452;7.296;13.327;8.579;44;0.234;0.035;13.44;56.1;0.029;14.8064;10.480;14.766;12.447
2021-8-29 22:10:18;4.30;70;15.70;22;0.209;0.024;14.32;57.7;0.021;13.1052;7.401;13.087;8.702;44;0.234;0.035;13.54;56.4;0.029;14.8064;10.480;14.766;12.447
2021-8-29 22:15:20;4.30;70;15.60;22;0.211;0.024;14.42;58.0;0.020;13.2262;7.348;13.208;8.641;44;0.235;0.034;13.54;56.4;0.029;14.9024;10.323;14.862;12.260
2021-8-29 22:20:18;4.30;71;15.40;22;0.202;0.025;14.32;57.7;0.021;12.6892;7.723;12.669;9.091;44;0.235;0.034;13.54;56.4;0.029;14.9024;10.323;14.862;12.260
2021-8-29 22:25:20;4.30;71;15.40;22;0.212;0.024;14.42;58.0;0.020;13.3442;7.295;13.324;8.587;44;0.231;0.035;13.54;56.4;0.029;14.6384;10.555;14.596;12.547
2021-8-29 22:30:22;4.30;72;15.20;22;0.209;0.024;14.32;57.7;0.021;13.1052;7.400;13.085;8.710;44;0.231;0.035;13.54;56.4;0.029;14.6364;10.554;14.593;12.559
2021-8-29 22:35:20;4.30;73;14.70;22;0.203;0.025;14.32;57.7;0.021;12.7642;7.609;12.745;8.956;44;0.231;0.035;13.54;56.4;0.029;14.6384;10.555;14.596;12.547
2021-8-29 22:40:22;4.30;72;15.10;22;0.209;0.024;14.32;57.7;0.021;13.1052;7.400;13.085;8.710;44;0.231;0.035;13.74;56.6;0.029;14.6384;10.555;14.596;12.547
2021-8-29 22:45:19;4.30;74;14.60;22;0.205;0.025;14.32;57.7;0.021;12.8882;7.556;12.868;8.894;44;0.231;0.035;13.44;56.1;0.029;14.6384;10.555;14.596;12.547
2021-8-29 22:50:21;4.30;74;14.60;22;0.202;0.025;14.32;57.7;0.021;12.6882;7.723;12.667;9.099;44;0.231;0.035;13.54;56.4;0.029;14.6384;10.555;14.596;12.547
2021-8-29 22:55:19;4.30;74;14.50;22;0.209;0.024;14.32;57.7;0.021;13.1042;7.400;13.082;8.719;44;0.234;0.035;13.54;56.4;0.029;14.8044;10.480;14.762;12.458
2021-8-29 23:0:21;4.30;75;14.30;22;0.209;0.024;14.32;57.7;0.021;13.1042;7.400;13.082;8.719;44;0.234;0.035;13.54;56.4;0.029;14.8034;10.479;14.759;12.469
2021-8-29 23:5:18;4.30;75;14.40;22;0.212;0.024;14.32;57.7;0.020;13.3432;7.294;13.319;8.603;44;0.231;0.035;13.44;56.1;0.029;14.6364;10.554;14.593;12.559
2021-8-29 23:10:20;4.30;76;14.20;22;0.209;0.024;14.32;57.7;0.021;13.1042;7.400;13.082;8.719;44;0.231;0.035;13.44;56.1;0.029;14.6384;10.555;14.596;12.547
2021-8-29 23:15:22;4.30;78;13.80;22;0.212;0.024;14.12;57.4;0.020;13.3432;7.294;13.319;8.603;44;0.231;0.035;13.54;56.4;0.029;14.6364;10.554;14.593;12.559
2021-8-29 23:20:20;4.29;78;14.00;22;0.211;0.024;14.12;57.4;0.020;13.2232;7.347;13.200;8.665;44;0.231;0.035;13.54;56.4;0.029;14.6364;10.554;14.593;12.559
2021-8-29 23:25:21;4.29;78;13.70;22;0.202;0.025;14.32;57.7;0.021;12.6862;7.722;12.662;9.117;44;0.231;0.035;13.54;56.4;0.029;14.6364;10.554;14.593;12.559
2021-8-29 23:30:19;4.29;79;13.70;22;0.206;0.024;14.12;57.4;0.021;12.9582;7.441;12.933;8.785;44;0.235;0.034;13.44;56.1;0.029;14.8994;10.321;14.855;12.282
2021-8-29 23:35:21;4.29;81;13.20;22;0.212;0.024;14.12;57.4;0.020;13.3422;7.294;13.316;8.611;44;0.234;0.035;13.44;56.1;0.029;14.8034;10.479;14.759;12.469
2021-8-29 23:40:18;4.29;81;13.20;22;0.205;0.025;14.12;57.4;0.021;12.8852;7.555;12.860;8.919;44;0.231;0.035;13.54;56.4;0.029;14.6354;10.553;14.590;12.570
2021-8-29 23:45:20;4.29;80;13.50;22;0.213;0.024;14.12;57.4;0.020;13.4092;7.182;13.384;8.478;44;0.234;0.035;13.54;56.4;0.029;14.8024;10.478;14.756;12.481
2021-8-29 23:50:22;4.29;81;13.40;22;0.205;0.025;14.02;57.2;0.021;12.8842;7.554;12.858;8.927;44;0.231;0.035;13.54;56.4;0.029;14.6354;10.553;14.590;12.570
2021-8-29 23:55:19;4.29;81;13.60;22;0.206;0.024;14.12;57.4;0.021;12.9572;7.441;12.930;8.793;44;0.231;0.035;13.54;56.4;0.029;14.6354;10.553;14.590;12.570
