2021-12-4 0:0:19;4.31;90;21.10;22;0.197;0.021;22.62;72.6;0.021;12.1012;7.402;12.309;7.652;44;0.254;0.038;21.74;71.1;0.036;15.9644;13.054;16.213;13.637
2021-12-4 0:5:21;4.30;90;20.70;22;0.199;0.021;22.62;72.6;0.020;12.2242;7.351;12.434;7.600;44;0.254;0.038;21.74;71.1;0.036;15.9644;13.054;16.213;13.637
2021-12-4 0:10:19;4.30;90;20.60;22;0.201;0.021;22.62;72.6;0.020;12.3462;7.301;12.558;7.548;44;0.254;0.038;21.74;71.1;0.036;15.9644;13.054;16.213;13.637
2021-12-4 0:15:22;4.30;90;20.80;22;0.199;0.021;22.62;72.6;0.021;12.2702;7.411;12.478;7.671;44;0.258;0.037;21.94;71.5;0.036;16.2754;12.776;16.528;13.346
2021-12-4 0:20:20;4.30;90;20.80;22;0.201;0.021;22.62;72.6;0.020;12.3462;7.301;12.558;7.548;44;0.258;0.037;21.94;71.5;0.036;16.2774;12.777;16.533;13.332
2021-12-4 0:25:22;4.30;89;20.80;22;0.197;0.021;22.62;72.6;0.021;12.1002;7.401;12.306;7.660;44;0.258;0.037;21.94;71.5;0.036;16.2754;12.776;16.528;13.346
2021-12-4 0:30:20;4.30;89;20.90;22;0.200;0.021;22.62;72.6;0.020;12.3452;7.300;12.555;7.556;44;0.254;0.038;21.74;71.1;0.036;15.9644;13.054;16.213;13.637
2021-12-4 0:35:22;4.30;90;20.40;22;0.197;0.021;22.62;72.6;0.021;12.1002;7.401;12.306;7.660;44;0.258;0.037;21.94;71.5;0.036;16.2754;12.776;16.528;13.346
2021-12-4 0:40:20;4.30;91;19.60;22;0.200;0.021;22.62;72.6;0.020;12.3452;7.300;12.555;7.556;44;0.254;0.038;21.74;71.1;0.036;15.9644;13.054;16.213;13.637
2021-12-4 0:45:22;4.30;91;19.20;22;0.200;0.021;22.62;72.6;0.020;12.3452;7.300;12.555;7.556;44;0.254;0.038;21.74;71.1;0.036;15.9644;13.054;16.213;13.637
2021-12-4 0:50:20;4.30;91;19.10;22;0.200;0.021;22.62;72.6;0.020;12.3442;7.300;12.551;7.564;44;0.258;0.037;21.94;71.5;0.036;16.2754;12.776;16.528;13.346
2021-12-4 0:55:22;4.30;90;18.80;22;0.200;0.021;22.42;72.3;0.020;12.3442;7.300;12.551;7.564;44;0.254;0.038;21.74;71.1;0.036;15.9644;13.054;16.213;13.637
2021-12-4 1:0:20;4.30;90;18.70;22;0.199;0.021;22.62;72.6;0.021;12.2682;7.410;12.472;7.687;44;0.254;0.038;21.74;71.1;0.036;15.9644;13.054;16.213;13.637
2021-12-4 1:5:22;4.30;89;18.70;22;0.198;0.021;22.42;72.3;0.020;12.2212;7.350;12.424;7.625;44;0.254;0.038;21.74;71.1;0.036;15.9644;13.054;16.213;13.637
2021-12-4 1:10:20;4.30;89;18.50;22;0.198;0.021;22.42;72.3;0.020;12.2222;7.350;12.427;7.616;44;0.254;0.038;21.74;71.1;0.036;15.9624;13.053;16.208;13.651
2021-12-4 1:15:22;4.30;90;18.50;22;0.199;0.021;22.62;72.6;0.021;12.2682;7.410;12.472;7.687;44;0.254;0.038;21.74;71.1;0.036;15.9644;13.054;16.213;13.637
2021-12-4 1:20:19;4.30;91;18.80;22;0.198;0.021;22.42;72.3;0.020;12.2222;7.350;12.427;7.616;44;0.256;0.037;21.94;71.5;0.036;16.0824;12.866;16.332;13.441
2021-12-4 1:25:22;4.30;91;18.90;22;0.200;0.021;22.62;72.6;0.020;12.3412;7.299;12.544;7.581;44;0.254;0.038;21.74;71.1;0.036;15.9624;13.053;16.208;13.651
2021-12-4 1:30:19;4.29;89;18.60;22;0.200;0.021;22.62;72.6;0.020;12.3412;7.299;12.544;7.581;44;0.254;0.038;21.74;71.1;0.036;15.9624;13.053;16.208;13.651
2021-12-4 1:35:21;4.29;89;18.70;22;0.197;0.021;22.42;72.3;0.021;12.1232;7.450;12.325;7.729;44;0.256;0.037;21.94;71.5;0.036;16.0794;12.865;16.327;13.455
2021-12-4 1:40:19;4.29;84;18.40;22;0.198;0.021;22.42;72.3;0.020;12.2202;7.349;12.421;7.633;44;0.254;0.038;21.74;71.1;0.036;15.9644;13.054;16.213;13.637
2021-12-4 1:45:21;4.30;83;18.50;22;0.197;0.021;22.42;72.3;0.021;12.1232;7.450;12.325;7.729;44;0.256;0.037;21.74;71.1;0.036;16.0824;12.866;16.332;13.441
2021-12-4 1:50:18;4.29;82;18.80;22;0.198;0.021;22.42;72.3;0.020;12.2212;7.350;12.424;7.625;44;0.256;0.037;21.74;71.1;0.036;16.0794;12.865;16.327;13.455
2021-12-4 1:55:20;4.29;77;18.80;22;0.200;0.021;22.42;72.3;0.020;12.3412;7.299;12.544;7.581;44;0.256;0.037;21.74;71.1;0.036;16.0794;12.865;16.327;13.455
2021-12-4 2:0:22;4.29;82;18.90;22;0.193;0.022;22.42;72.3;0.021;11.8752;7.552;12.072;7.834;44;0.254;0.038;21.74;71.1;0.036;15.9644;13.054;16.213;13.637
2021-12-4 2:5:20;4.29;70;18.90;22;0.197;0.022;22.42;72.3;0.021;12.1222;7.450;12.322;7.738;44;0.256;0.037;21.74;71.1;0.036;16.0824;12.866;16.332;13.441
2021-12-4 2:10:22;4.29;83;19.20;22;0.193;0.022;22.42;72.3;0.021;11.8732;7.551;12.069;7.843;44;0.254;0.038;21.74;71.1;0.036;15.9624;13.053;16.208;13.651
2021-12-4 2:15:20;4.29;86;19.40;22;0.200;0.021;22.42;72.3;0.020;12.3412;7.299;12.544;7.581;44;0.254;0.038;21.74;71.1;0.036;15.9624;13.053;16.208;13.651
2021-12-4 2:20:22;4.29;88;19.50;22;0.200;0.021;22.42;72.3;0.020;12.3412;7.299;12.544;7.581;44;0.254;0.038;21.74;71.1;0.036;15.9624;13.053;16.208;13.651
2021-12-4 2:25:20;4.29;88;19.70;22;0.193;0.022;22.42;72.3;0.021;11.8732;7.551;12.069;7.843;44;0.254;0.038;21.74;71.1;0.036;15.9624;13.053;16.208;13.651
2021-12-4 2:30:22;4.29;85;19.50;22;0.193;0.022;22.42;72.3;0.021;11.8732;7.551;12.069;7.843;44;0.256;0.037;21.74;71.1;0.036;16.0794;12.865;16.327;13.455
2021-12-4 2:35:19;4.29;67;19.60;22;0.193;0.022;22.42;72.3;0.021;11.8732;7.551;12.069;7.843;44;0.256;0.037;21.74;71.1;0.036;16.0794;12.865;16.327;13.455
2021-12-4 2:40:21;4.29;89;19.90;22;0.198;0.021;22.42;72.3;0.020;12.1982;7.339;12.399;7.623;44;0.256;0.037;21.74;71.1;0.036;16.0794;12.865;16.327;13.455
2021-12-4 2:45:19;4.29;69;19.50;22;0.193;0.022;22.12;71.9;0.021;11.8732;7.551;12.069;7.843;44;0.256;0.037;21.74;71.1;0.036;16.0794;12.865;16.327;13.455
2021-12-4 2:50:21;4.29;65;19.30;22;0.198;0.021;22.42;72.3;0.020;12.1982;7.339;12.399;7.623;44;0.258;0.037;21.74;71.1;0.036;16.2734;12.774;16.523;13.360
2021-12-4 2:55:19;4.29;45;19.10;22;0.200;0.021;22.42;72.3;0.020;12.3402;7.298;12.541;7.589;44;0.254;0.038;21.74;71.1;0.036;15.9624;13.053;16.208;13.651
2021-12-4 3:0:21;4.29;56;19.10;22;0.198;0.021;22.42;72.3;0.020;12.1982;7.339;12.399;7.623;44;0.254;0.038;21.74;71.1;0.036;15.9624;13.053;16.208;13.651
2021-12-4 3:5:19;4.29;79;19.40;22;0.198;0.021;22.42;72.3;0.020;12.1982;7.339;12.399;7.623;44;0.256;0.037;21.74;71.1;0.036;16.0794;12.865;16.327;13.455
2021-12-4 3:10:21;4.29;72;19.40;22;0.197;0.022;22.42;72.3;0.021;12.1212;7.449;12.319;7.746;44;0.256;0.037;21.74;71.1;0.036;16.0794;12.865;16.327;13.455
2021-12-4 3:15:19;4.29;65;19.30;22;0.197;0.022;22.42;72.3;0.021;12.1212;7.449;12.319;7.746;44;0.258;0.037;21.74;71.1;0.036;16.2734;12.774;16.523;13.360
2021-12-4 3:20:21;4.29;78;19.40;22;0.198;0.021;22.12;71.9;0.020;12.1972;7.339;12.396;7.631;44;0.258;0.037;21.74;71.1;0.036;16.2734;12.774;16.523;13.360
2021-12-4 3:25:18;4.29;80;19.50;22;0.198;0.021;22.12;71.9;0.020;12.1972;7.339;12.396;7.631;44;0.256;0.037;21.74;71.1;0.036;16.0794;12.865;16.327;13.455
2021-12-4 3:30:21;4.29;86;19.80;22;0.197;0.022;22.42;72.3;0.021;12.1202;7.449;12.315;7.754;44;0.258;0.037;21.74;71.1;0.036;16.2734;12.774;16.523;13.360
2021-12-4 3:35:18;4.29;90;20.10;22;0.196;0.021;22.12;71.9;0.021;12.0752;7.389;12.271;7.683;44;0.254;0.038;21.94;71.5;0.036;15.9604;13.051;16.203;13.665
2021-12-4 3:40:20;4.28;69;19.60;22;0.198;0.021;22.12;71.9;0.020;12.1972;7.339;12.396;7.631;44;0.258;0.037;21.74;71.1;0.036;16.2734;12.774;16.523;13.360
2021-12-4 3:45:22;4.28;61;19.20;22;0.198;0.021;22.12;71.9;0.020;12.1972;7.339;12.396;7.631;44;0.258;0.037;21.74;71.1;0.036;16.2734;12.774;16.523;13.360
2021-12-4 3:50:20;4.28;80;19.40;22;0.198;0.021;22.12;71.9;0.020;12.1962;7.338;12.393;7.639;44;0.254;0.038;21.74;71.1;0.036;15.9624;13.053;16.208;13.651
2021-12-4 3:55:22;4.28;82;19.50;22;0.198;0.021;22.12;71.9;0.020;12.1962;7.338;12.393;7.639;44;0.258;0.037;21.74;71.1;0.036;16.2734;12.774;16.523;13.360
2021-12-4 4:0:20;4.28;76;19.30;22;0.198;0.021;22.12;71.9;0.020;12.1972;7.339;12.396;7.631;44;0.254;0.038;21.74;71.1;0.036;15.9604;13.051;16.203;13.665
2021-12-4 4:5:22;4.28;75;19.30;22;0.198;0.021;22.12;71.9;0.020;12.1972;7.339;12.396;7.631;44;0.263;0.036;21.74;71.1;0.035;16.6134;12.522;16.865;13.111
2021-12-4 4:10:20;4.28;83;19.60;22;0.198;0.021;22.12;71.9;0.020;12.1972;7.339;12.396;7.631;44;0.256;0.037;21.74;71.1;0.036;16.0774;12.864;16.322;13.469
2021-12-4 4:15:22;4.28;90;20.00;22;0.198;0.021;22.12;71.9;0.020;12.1962;7.338;12.393;7.639;44;0.258;0.037;21.74;71.1;0.036;16.2734;12.774;16.523;13.360
2021-12-4 4:20:19;4.28;81;19.70;22;0.198;0.021;22.12;71.9;0.020;12.1962;7.338;12.393;7.639;44;0.258;0.037;21.74;71.1;0.036;16.2734;12.774;16.523;13.360
2021-12-4 4:25:22;4.28;71;19.40;22;0.196;0.021;22.12;71.9;0.021;12.0742;7.388;12.268;7.692;44;0.254;0.038;21.74;71.1;0.036;15.9604;13.051;16.203;13.665
2021-12-4 4:30:19;4.28;84;19.40;22;0.196;0.021;22.12;71.9;0.021;12.0742;7.388;12.268;7.692;44;0.256;0.037;21.74;71.1;0.036;16.0774;12.864;16.322;13.469
2021-12-4 4:35:21;4.28;83;19.70;22;0.189;0.022;22.12;71.9;0.021;11.6432;7.702;11.830;8.018;44;0.256;0.037;21.74;71.1;0.036;16.0774;12.864;16.322;13.469
2021-12-4 4:40:19;4.28;76;19.80;22;0.198;0.021;22.12;71.9;0.020;12.1962;7.338;12.393;7.639;44;0.256;0.037;21.74;71.1;0.036;16.0794;12.865;16.327;13.455
2021-12-4 4:45:21;4.28;85;19.90;22;0.199;0.021;22.12;71.9;0.020;12.2712;7.228;12.469;7.525;44;0.254;0.038;21.74;71.1;0.036;15.9604;13.051;16.203;13.665
2021-12-4 4:50:19;4.28;83;19.70;22;0.199;0.021;22.12;71.9;0.020;12.2712;7.228;12.469;7.525;44;0.254;0.038;21.74;71.1;0.036;15.9604;13.051;16.203;13.665
2021-12-4 4:55:21;4.28;72;19.60;22;0.199;0.021;22.12;71.9;0.020;12.2712;7.228;12.469;7.525;44;0.256;0.037;21.74;71.1;0.036;16.0774;12.864;16.322;13.469
2021-12-4 5:0:19;4.28;66;19.60;22;0.199;0.021;22.12;71.9;0.020;12.2712;7.228;12.469;7.525;44;0.256;0.037;21.54;70.7;0.036;16.0774;12.864;16.322;13.469
2021-12-4 5:5:21;4.28;87;19.70;22;0.192;0.022;21.92;71.5;0.021;11.8052;7.479;11.995;7.786;44;0.254;0.038;21.74;71.1;0.036;15.9604;13.051;16.203;13.665
2021-12-4 5:10:19;4.28;76;19.60;22;0.199;0.021;21.92;71.5;0.020;12.2712;7.228;12.469;7.525;44;0.256;0.037;21.74;71.1;0.036;16.0774;12.864;16.322;13.469
2021-12-4 5:15:21;4.27;65;19.40;22;0.199;0.021;22.12;71.9;0.020;12.2702;7.227;12.465;7.533;44;0.254;0.038;21.54;70.7;0.036;15.9604;13.051;16.203;13.665
2021-12-4 5:20:18;4.27;40;19.20;22;0.198;0.021;21.92;71.5;0.020;12.1952;7.338;12.389;7.647;44;0.256;0.037;21.54;70.7;0.036;16.0774;12.864;16.322;13.469
2021-12-4 5:25:20;4.27;19;19.20;22;0.199;0.021;21.92;71.5;0.020;12.2702;7.227;12.465;7.533;44;0.254;0.038;21.74;71.1;0.036;15.9604;13.051;16.203;13.665
2021-12-4 5:30:22;4.27;33;19.10;22;0.199;0.021;21.92;71.5;0.020;12.2702;7.227;12.465;7.533;44;0.256;0.037;21.54;70.7;0.036;16.0774;12.864;16.322;13.469
2021-12-4 5:35:20;4.28;2;18.70;22;0.198;0.021;22.12;71.9;0.020;12.1952;7.338;12.389;7.647;44;0.258;0.037;21.54;70.7;0.036;16.2704;12.773;16.518;13.374
2021-12-4 5:40:22;4.27;2;18.60;22;0.198;0.021;21.92;71.5;0.020;12.1952;7.338;12.389;7.647;44;0.254;0.038;21.74;71.1;0.036;15.9604;13.051;16.203;13.665
2021-12-4 5:45:20;4.27;2;18.60;22;0.198;0.021;22.12;71.9;0.020;12.1942;7.337;12.386;7.656;44;0.254;0.038;21.54;70.7;0.036;15.9604;13.051;16.203;13.665
2021-12-4 5:50:22;4.27;2;18.60;22;0.195;0.021;21.72;71.1;0.020;12.0252;7.327;12.215;7.645;44;0.254;0.038;21.54;70.7;0.036;15.9604;13.051;16.203;13.665
2021-12-4 5:55:20;4.27;2;18.50;22;0.189;0.022;22.12;71.9;0.021;11.6412;7.701;11.824;8.035;44;0.258;0.037;21.54;70.7;0.036;16.2704;12.773;16.518;13.374
2021-12-4 6:0:22;4.27;2;18.60;22;0.198;0.021;21.92;71.5;0.020;12.1942;7.337;12.386;7.656;44;0.255;0.037;21.54;70.7;0.036;16.0754;12.862;16.317;13.483
2021-12-4 6:5:19;4.27;2;18.40;22;0.198;0.021;21.92;71.5;0.020;12.1942;7.337;12.386;7.656;44;0.254;0.038;21.54;70.7;0.036;15.9584;13.050;16.198;13.680
2021-12-4 6:10:21;4.27;2;18.40;22;0.197;0.021;21.92;71.5;0.020;12.1482;7.277;12.339;7.593;44;0.258;0.037;21.54;70.7;0.036;16.2684;12.771;16.513;13.388
2021-12-4 6:15:19;4.27;2;18.30;22;0.199;0.021;21.92;71.5;0.020;12.2692;7.227;12.462;7.541;44;0.255;0.037;21.54;70.7;0.036;16.0754;12.862;16.317;13.483
2021-12-4 6:20:21;4.27;2;18.40;22;0.192;0.022;21.72;71.1;0.021;11.8482;7.538;12.035;7.866;44;0.257;0.037;21.54;70.7;0.035;16.1894;12.676;16.432;13.288
2021-12-4 6:25:19;4.27;2;18.50;22;0.196;0.021;21.92;71.5;0.021;12.0512;7.377;12.240;7.698;44;0.254;0.038;21.54;70.7;0.036;15.9584;13.050;16.198;13.680
2021-12-4 6:30:21;4.27;2;18.50;22;0.195;0.021;21.92;71.5;0.021;12.0502;7.377;12.237;7.706;44;0.257;0.037;21.54;70.7;0.035;16.1894;12.676;16.432;13.288
2021-12-4 6:35:18;4.27;2;18.40;22;0.193;0.022;21.92;71.5;0.021;11.9272;7.427;12.115;7.750;44;0.255;0.037;21.54;70.7;0.036;16.0754;12.862;16.317;13.483
2021-12-4 6:40:20;4.27;2;18.40;22;0.199;0.021;21.92;71.5;0.020;12.2682;7.226;12.459;7.549;44;0.255;0.037;21.54;70.7;0.036;16.0754;12.862;16.317;13.483
2021-12-4 6:45:22;4.27;2;18.30;22;0.195;0.021;21.92;71.5;0.021;12.0502;7.377;12.237;7.706;44;0.255;0.037;21.54;70.7;0.036;16.0754;12.862;16.317;13.483
2021-12-4 6:50:20;4.27;2;18.40;22;0.199;0.021;21.92;71.5;0.020;12.2682;7.226;12.459;7.549;44;0.254;0.038;21.54;70.7;0.036;15.9584;13.050;16.198;13.680
2021-12-4 6:55:22;4.27;2;18.40;22;0.195;0.021;21.92;71.5;0.021;12.0502;7.377;12.237;7.706;44;0.254;0.038;21.54;70.7;0.036;15.9584;13.050;16.198;13.680
2021-12-4 7:0:19;4.27;2;18.40;22;0.193;0.022;21.92;71.5;0.021;11.9262;7.427;12.112;7.758;44;0.258;0.037;21.54;70.7;0.036;16.2684;12.771;16.513;13.388
2021-12-4 7:5:21;4.27;2;18.60;22;0.195;0.021;21.92;71.5;0.021;12.0502;7.377;12.237;7.706;44;0.260;0.037;21.54;70.7;0.035;16.3794;12.586;16.626;13.193
2021-12-4 7:10:19;4.27;2;18.70;22;0.199;0.021;21.92;71.5;0.020;12.2672;7.226;12.455;7.557;44;0.260;0.037;21.54;70.7;0.035;16.3794;12.586;16.626;13.193
2021-12-4 7:15:21;4.27;2;18.70;22;0.195;0.021;21.92;71.5;0.021;12.0502;7.377;12.237;7.706;44;0.255;0.037;21.54;70.7;0.036;16.0754;12.862;16.317;13.483
2021-12-4 7:20:19;4.27;2;18.70;22;0.193;0.022;21.92;71.5;0.021;11.9262;7.427;12.112;7.758;44;0.255;0.038;21.54;70.7;0.036;16.0734;12.861;16.312;13.497
2021-12-4 7:25:21;4.27;2;18.90;22;0.199;0.021;21.72;71.1;0.020;12.2672;7.226;12.455;7.557;44;0.254;0.038;21.54;70.7;0.036;15.9564;13.049;16.193;13.694
2021-12-4 7:30:18;4.27;17;19.10;22;0.199;0.021;21.92;71.5;0.020;12.2672;7.226;12.455;7.557;44;0.260;0.037;21.54;70.7;0.035;16.3794;12.586;16.626;13.193
2021-12-4 7:35:20;4.27;2;19.00;22;0.195;0.021;21.92;71.5;0.021;12.0492;7.376;12.234;7.714;44;0.255;0.037;21.54;70.7;0.036;16.0754;12.862;16.317;13.483
2021-12-4 7:40:22;4.27;9;19.00;22;0.195;0.021;21.92;71.5;0.021;12.0492;7.376;12.234;7.714;44;0.260;0.037;21.54;70.7;0.035;16.3794;12.586;16.626;13.193
2021-12-4 7:45:20;4.27;60;19.40;22;0.195;0.021;21.92;71.5;0.021;12.0492;7.376;12.234;7.714;44;0.254;0.038;21.54;70.7;0.036;15.9564;13.049;16.193;13.694
2021-12-4 7:50:22;4.27;35;19.40;22;0.195;0.021;21.92;71.5;0.021;12.0492;7.376;12.234;7.714;44;0.255;0.037;21.54;70.7;0.036;16.0754;12.862;16.317;13.483
2021-12-4 7:55:20;4.27;24;19.30;22;0.197;0.021;21.92;71.5;0.020;12.1262;7.267;12.314;7.591;44;0.255;0.037;21.54;70.7;0.036;16.0754;12.862;16.317;13.483
2021-12-4 8:0:22;4.27;34;19.50;22;0.195;0.021;21.92;71.5;0.021;12.0492;7.376;12.234;7.714;44;0.257;0.037;21.54;70.7;0.035;16.1894;12.676;16.432;13.288
2021-12-4 8:5:19;4.27;63;19.50;22;0.192;0.022;21.72;71.1;0.021;11.8462;7.537;12.028;7.883;44;0.255;0.037;21.54;70.7;0.036;16.0754;12.862;16.317;13.483
2021-12-4 8:10:21;4.27;57;19.70;22;0.197;0.021;21.92;71.5;0.020;12.1262;7.267;12.314;7.591;44;0.258;0.037;21.54;70.7;0.036;16.2684;12.771;16.513;13.388
2021-12-4 8:15:19;4.27;72;19.90;22;0.195;0.021;21.92;71.5;0.021;12.0492;7.376;12.234;7.714;44;0.255;0.037;21.54;70.7;0.036;16.0754;12.862;16.317;13.483
2021-12-4 8:20:21;4.27;84;20.20;22;0.195;0.021;21.92;71.5;0.021;12.0492;7.376;12.234;7.714;44;0.260;0.037;21.54;70.7;0.035;16.3794;12.586;16.626;13.193
2021-12-4 8:25:19;4.27;71;20.50;22;0.197;0.021;21.92;71.5;0.020;12.1262;7.267;12.314;7.591;44;0.254;0.038;21.54;70.7;0.036;15.9564;13.049;16.193;13.694
2021-12-4 8:30:21;4.27;81;20.70;22;0.195;0.021;21.92;71.5;0.021;12.0492;7.376;12.234;7.714;44;0.249;0.039;21.54;70.7;0.037;15.5924;13.303;15.824;13.961
2021-12-4 8:35:19;4.28;82;20.90;22;0.197;0.021;21.92;71.5;0.020;12.1262;7.267;12.314;7.591;44;0.258;0.037;21.54;70.7;0.036;16.2684;12.771;16.513;13.388
2021-12-4 8:40:21;4.29;87;20.90;22;0.197;0.021;21.92;71.5;0.020;12.1252;7.266;12.311;7.599;44;0.254;0.038;21.54;70.7;0.036;15.9584;13.050;16.198;13.680
2021-12-4 8:45:19;4.28;82;20.90;22;0.195;0.021;21.92;71.5;0.021;12.0492;7.376;12.234;7.714;44;0.255;0.037;21.54;70.7;0.036;16.0754;12.862;16.317;13.483
2021-12-4 8:50:21;4.27;76;20.90;22;0.195;0.021;21.92;71.5;0.021;12.0502;7.377;12.237;7.706;44;0.258;0.037;21.54;70.7;0.036;16.2684;12.771;16.513;13.388
2021-12-4 8:55:19;4.27;81;20.70;22;0.197;0.021;21.92;71.5;0.020;12.1262;7.267;12.314;7.591;44;0.260;0.037;21.54;70.7;0.035;16.3794;12.586;16.626;13.193
2021-12-4 9:0:22;4.28;90;20.80;22;0.197;0.021;21.92;71.5;0.020;12.1252;7.266;12.311;7.599;44;0.256;0.037;21.54;70.7;0.036;16.0774;12.864;16.322;13.469
2021-12-4 9:5:20;4.28;90;21.60;22;0.195;0.021;21.92;71.5;0.021;12.0502;7.377;12.237;7.706;44;0.255;0.037;21.54;70.7;0.036;16.0754;12.862;16.317;13.483
2021-12-4 9:10:22;4.29;93;22.90;22;0.188;0.022;21.72;71.1;0.021;11.6192;7.689;11.800;8.032;44;0.257;0.037;21.54;70.7;0.035;16.1894;12.676;16.432;13.288
2021-12-4 9:15:20;4.29;93;22.40;22;0.197;0.021;21.92;71.5;0.020;12.1262;7.267;12.314;7.591;44;0.255;0.037;21.54;70.7;0.036;16.0754;12.862;16.317;13.483
2021-12-4 9:20:22;4.29;94;22.30;22;0.195;0.021;21.72;71.1;0.021;12.0502;7.377;12.237;7.706;44;0.250;0.038;21.74;71.1;0.036;15.7184;13.115;15.954;13.747
2021-12-4 9:25:21;4.30;92;22.50;22;0.197;0.021;21.92;71.5;0.020;12.1262;7.267;12.314;7.591;44;0.255;0.037;21.54;70.7;0.036;16.0754;12.862;16.317;13.483
2021-12-4 9:30:19;4.30;93;22.80;22;0.197;0.021;21.92;71.5;0.020;12.1262;7.267;12.314;7.591;44;0.256;0.037;21.54;70.7;0.036;16.0774;12.864;16.322;13.469
2021-12-4 9:35:21;4.30;92;22.70;22;0.190;0.022;21.72;71.1;0.021;11.7012;7.578;11.883;7.916;44;0.258;0.037;21.54;70.7;0.036;16.2704;12.773;16.518;13.374
2021-12-4 9:40:19;4.30;92;22.80;22;0.197;0.021;21.92;71.5;0.020;12.1272;7.267;12.318;7.583;44;0.256;0.037;21.54;70.7;0.036;16.0774;12.864;16.322;13.469
2021-12-4 9:45:22;4.30;90;23.20;22;0.197;0.021;21.92;71.5;0.020;12.1272;7.267;12.318;7.583;44;0.257;0.037;21.54;70.7;0.035;16.1914;12.677;16.437;13.274
2021-12-4 9:50:20;4.30;89;24.60;22;0.197;0.021;21.92;71.5;0.020;12.1262;7.267;12.314;7.591;44;0.251;0.038;21.74;71.1;0.036;15.7204;13.116;15.959;13.733
2021-12-4 9:55:23;4.30;87;24.50;22;0.199;0.021;21.92;71.5;0.020;12.2482;7.217;12.441;7.531;44;0.260;0.037;21.54;70.7;0.035;16.3824;12.587;16.631;13.179
2021-12-4 10:0:21;4.31;85;25.80;22;0.197;0.021;21.92;71.5;0.020;12.1272;7.267;12.318;7.583;44;0.256;0.037;21.54;70.7;0.036;16.0774;12.864;16.322;13.469
2021-12-4 10:5:20;4.31;82;25.60;22;0.195;0.021;22.12;71.9;0.021;12.0502;7.377;12.237;7.706;44;0.256;0.037;21.74;71.1;0.036;16.0774;12.864;16.322;13.469
2021-12-4 10:10:23;4.31;85;25.80;22;0.195;0.021;21.92;71.5;0.020;12.0052;7.317;12.194;7.635;44;0.257;0.037;21.54;70.7;0.035;16.1914;12.677;16.437;13.274
2021-12-4 10:15:22;4.32;83;25.30;22;0.197;0.021;21.92;71.5;0.020;12.1272;7.267;12.318;7.583;44;0.251;0.038;21.74;71.1;0.036;15.7204;13.116;15.959;13.733
2021-12-4 10:20:21;4.33;83;27.10;22;0.197;0.021;22.12;71.9;0.020;12.1272;7.267;12.318;7.583;44;0.256;0.037;21.54;70.7;0.036;16.0774;12.864;16.322;13.469
2021-12-4 10:25:20;4.32;85;25.90;22;0.197;0.021;21.92;71.5;0.020;12.1272;7.267;12.318;7.583;44;0.257;0.037;21.54;70.7;0.035;16.1914;12.677;16.437;13.274
2021-12-4 10:30:23;4.33;81;26.50;22;0.196;0.021;22.12;71.9;0.021;12.0512;7.377;12.240;7.698;44;0.257;0.037;21.74;71.1;0.035;16.1934;12.679;16.443;13.260
2021-12-4 10:35:22;4.33;85;26.40;22;0.196;0.021;21.92;71.5;0.021;12.0512;7.377;12.240;7.698;44;0.260;0.037;21.74;71.1;0.035;16.3844;12.589;16.636;13.166
2021-12-4 10:40:21;4.33;84;26.80;22;0.190;0.022;21.92;71.5;0.021;11.7032;7.579;11.889;7.899;44;0.257;0.037;21.54;70.7;0.035;16.1934;12.679;16.443;13.260
2021-12-4 10:45:20;4.33;80;27.20;22;0.197;0.021;21.92;71.5;0.020;12.1292;7.268;12.324;7.566;44;0.256;0.037;21.74;71.1;0.036;16.0794;12.865;16.327;13.455
2021-12-4 10:50:24;4.32;83;26.20;22;0.197;0.021;22.12;71.9;0.020;12.1292;7.268;12.324;7.566;44;0.260;0.037;21.54;70.7;0.035;16.3844;12.589;16.636;13.166
2021-12-4 10:55:23;4.32;83;25.90;22;0.199;0.021;21.92;71.5;0.020;12.2502;7.218;12.447;7.514;44;0.260;0.037;21.74;71.1;0.035;16.3844;12.589;16.636;13.166
2021-12-4 11:0:22;4.33;81;27.20;22;0.197;0.021;22.12;71.9;0.020;12.1292;7.268;12.324;7.566;44;0.260;0.037;21.74;71.1;0.035;16.3844;12.589;16.636;13.166
2021-12-4 11:5:21;4.34;80;27.10;22;0.197;0.021;22.12;71.9;0.020;12.1292;7.268;12.324;7.566;44;0.258;0.037;21.74;71.1;0.036;16.2754;12.776;16.528;13.346
2021-12-4 11:10:21;4.34;84;27.10;22;0.197;0.021;22.12;71.9;0.020;12.1292;7.268;12.324;7.566;44;0.257;0.037;21.74;71.1;0.035;16.1964;12.680;16.448;13.246
2021-12-4 11:15:20;4.33;85;26.80;22;0.197;0.021;22.12;71.9;0.020;12.1292;7.268;12.324;7.566;44;0.260;0.037;21.74;71.1;0.035;16.3864;12.590;16.641;13.152
2021-12-4 11:20:23;4.34;79;28.30;22;0.197;0.021;22.12;71.9;0.020;12.1302;7.269;12.327;7.558;44;0.254;0.038;21.74;71.1;0.036;15.9624;13.053;16.208;13.651
2021-12-4 11:25:23;4.35;79;28.50;22;.197;0.021;22.12;71.9;0.020;12.1302;7.269;12.327;7.558;44;0.249;0.039;21.74;71.1;0.037;15.5984;13.307;15.838;13.917
2021-12-4 11:30:22;4.35;82;29.20;22;0.197;`.021;22.12;71.9;0.020;12.1302;7.269;12.327;7.558;44;0.258;0.037;21.94;71.5;0.036;16.2734;12.774;16.523;13.360
2021-12-4 11:35:22;4.35;79;29.10;22;0.197;0.021;22.12;71.9;0.020;12.1302;7.269;12.327;7.558;44;0.249;0.039;21.74;71.1;0.037;15.6014;13.309;15.843;13.903
2021-12-4 11:40:21;4.34;77;27.80;22;0.197;0.021;22.12;71.9;0.020;12.1312;7.269;12.331;7.550;44;0.254;0.038;21.74;71.1;0.036;15.9644;13.054;16.213;13.637
2021-12-4 11:45:21;4.33;82;27.40;22;0.196;0.021;22.12;71.9;0.021;12.0542;7.379;12.250;7.673;44;0.249;0.039;21.74;71.1;0.037;15.6014;13.309;15.843;13.903
2021-12-4 11:50:20;4.35;78;28.20;22;0.197;0.021;22.12;71.9;0.020;12.1312;7.269;12.331;7.550;44;0.251;0.038;21.74;71.1;0.036;15.7244;13.119;15.969;13.705
2021-12-4 11:55:24;4.35;79;29.50;22;0.196;0N021;22.12;71.9;0.021;12.0552;7.379;1g.253;7.664;44;0.257;0.037;21.74;71.1;0.035;16.1964;12.680;16.448;13.246
2021-12-4 12:0:24;4.36;74;29.30;22;0.197;0.021;22.42;72.3;0.020S12.1312;7\269;12.331;7.550;44;0.249;0.039;21.94;71.5;0.037;15.6014;13.309;15.843;13.903
2021-12-4 12:5:23;4.36;73;29.70;22;0.196;0.021;22.42;72.3;0.021;12.0552;7.379;12.253;7.664;44;0.257;0.037;21.74;71.1;0.035;16.1984;12.682;16.453;13.232
2021-12-4 12:10:23;4.36;76;29.10;22;0.196;0.021;22.42;72.3;0.021;12.0552;7.379;12.253;7.664;44;0.256;0.037;21.94;71.5;0.036;16.0844;12.868;16.337;13.427
2021-12-4 12:15:23;4.35;76;28.70;22;0.196;0.021;22.42;72.3;0.021;12.0562;7.380;12.257;7.656;44;0.256;0.037;21.74;71.1;0.036;16.0844;12.868;16.337;13.427
2021-12-4 12:20:22;4.36;77;29.00;22;0.196;0.021;22.42;72.3;0.021;12.0562;7.380;12.257;7.656;44;0.260;0.037;21.74;71.1;0.035;16.3884;12.591;16.646;13.138
2021-12-4 12:25:22;4.36;74;29.00;22;0.196;0.021;22.42;72.3;0.021;12.056R;7.380;12.257;7.656;44;0.260;0.037;21.74;71.1;0.035;16.3884;12.591;16.646;13.138
2021-12-4 12:30:22;4.35;76;29.00;22;0.196;0.021;22.42;72.3;0.021;12.0562;7.380;12.257;7.656;44;0.249;0.039;21.94;71.5;0.037;15.6014;13.309;15.843;13.903
2021-12-4 12:35:21;4.36;73;30.00;22;0.196;0.021;22.42;72.3;0.021;12.0562;7.380;12.257;7.656;44;0.260;0.037;21.94;71.5;0.035;16.3884;12.591;16.646;13.138
2021-12-4 12:40:21;4.36;73;29.50;22;0.196;0.021;22.42;72.3;0.021;12.0572;7.380;12.260;7.f48;44;0.249;0.039;21.74;71.1;0.037;15.6034;13.310;15.848;13.888
2021-12-4 12:45:21;4.36;74;29.40;22;0.194;0.021;22.42;72.3;0.021;11.9342;7.431;12.135;7.700;44;0.257;0.037;21.94;71.5;0.035;16.1984;12.682;16.453;13.232
2021-12-4 12:50:21;4.36;74;29.20;22;0.194;0.021;22.42;72.3;0.021;11.9332;7.430;12.131;7.708;44;0.256;0.037;21.74;71.1;0.036;16.0844;12.868;16.337;13.427
2021-12-4 12:55:20;4.36;75;30.00;22;0.194;0.021;22.42;72.3;0.021;11.9342;7.431;12.135;7.700;44;0.256;0.037;21.74;71.1;0.036;16.0844;12.868;16.337;13.427
2021-12-4 13:0:24;4.36;71;30.20;22;0\196;0.021;22.42K72.3;0.021;12.0572;7.380;12.260;7.648;44;0.258;0.037;21.94;71.5;0.036;16.2774;12.777;16.533;13.332
2021-12-4 13:5:24;4.36;70;31.40;22;0.196;0.021;22.42;72.3;0.021;12.0572;7.38`;12.260;7.648;44;0.260;0.037;21.94;71.5;0.035;16.3884;12.591;16.646;13.138
2021-12-4 13:10:24;4.36;68;31.10;22;0.196;0.021;22.42;72.3;0.021;1z.0572;7.380;12.260;7.648;44;0.256;0.037;21.74;71.1;0.036;16.0844;12.868;16.337;13.427
2021-12-4 13:15:24;4.36;67;31.50;d2;0.196;0.021[22.42;72.3;0.021;12.0572;7.380;12.260;7.648;44;0.256;0.037;21.94;71.5;0.036;16.0864;12.869;16.342;13.413
2021-12-4 13:20:24;4.36;68;31.40;22;0.196;0.021;22.42;72.3;0.021;12.0582;7.381;12.263;7.639;44;0.254;0.038;21.74;71.1;0.036;15.9664;13.056;16.218;13.623
2021-12-4 13:25:24;4.36;70;30.50;22;0.196;0.021;22.42;72.3;0N021;12.0582;7.3811d.263;7.639;44;0.256;0.037;21.94;71.5;0.036;16.0864;12.869;16.342;13.413
2021-12-4 13:30:24;4.36;68;30.80;22;0.196;0.021;22.62;g2.6;`.021;12.0592;7.382;12.267;7.631;44;0.256;0.037;21.74;71.1;0.036;16.0864;12.869;16.342;13.413
2021-12-4 13:35:23;4.36;68;31.20;22;0.196;0.021;22.62;72.6;0.021;12N0592;7.382;12.267;7.631;44;0.256;0.037;21.74;71.1;0.036;16.0864;12.869;16.342;13.413
2021-12-4 13:40:23;4.38;67;30.60;22;0.196;0.0d1;22.62;72.6V0.021;12.0592;7.382;12.267;7.631;44;0.260;0.036;21.94;71.5;0.035;16.3904;12.593;16.651;13.125
2021-12-4 13:45:23;4.36;67;30.40;22;0.196;0.021;22.62;72.6;0.021;12.0612;7.382;12.270;7.623;44;0.259;0.037;21.74;71.1;0.036;16.2794;12.778;16.538;13.318
2021-12-4 13:50:23;4.36;69;29.90;22;0.196;0.021;22.62;72.6;0.021;12.0612;7.382;12.270;7.623;44;0.257;0.037;21.94;71.5;0.035;16.2024;12.684;16.463;13.205
2021-12-4 13:55:23;4.36;65;30.90;22;0.196;0.021;22.62;72.6;0.021;12.0612;7.382;12.270;7.623;44;0.257;0.037;21.74;71.1;0.035;16.2024;12.684;16.463;13.205
2021-12-4 14:0:23;4.37;63;31.40;22;0.196;0.021;22.62;72.6;0.021;12.0612;7.382;12.270;7.623;44;0.254;0.038;21.94;71.5;0.036;15.9714;13.059;16.228;13.594
2021-12-4 14:5:22;4.37;65;31.70;22;0.196;0.021;22.62;72.6;0.021;12.0612;7.382;12.270;7.623;44;0.254;0.038;21.74;71.1;0.036;15.9714;13.059;16.228;13.594
2021-12-4 14:10:22;4.37;62;31.60;22;0.193;0.022;22.62;72.6;0.021;11.8582;7.544;12.064;7.789;44;0.251;0.038;21.94;71.5;0.036;15.7294;13.122;15.979;13.676
2021-12-4 14:15:22;4.37;61;31.40;22;0)K2Zr[sBk2;73.0;0.021;12.0622;7.383;12.273;7.6b4;44;0.251;0.038;21.74;71.1;0.036;15.7314;13.124;15.984;13.662
2021-12-4 14:20:22;4.37;62;30.70;z2;0.196;0.021;22.82;73.0;0.021;12.0622;7.383;12.273;7.614;44;0.256;0.037;21.94;71.5;0.036;16.0884;12.871;16.347;13.399
2021-12-4 14:25:22;4.37;60;31.40;22;0.200;0.021;66	k2;73.0;0.020;12.2802;7.232;12.495;7.459;44;0.258;0.037;21.94;71.5;0.035;16.2044;12.686;16.468;13.191
2021-12-4 14:30:22;4.39;61;31.20;22;0.198;0.02122.82;73.0;0.020;12.2052;7.343;12.419;7\573;44;0.259;0.037;21.94;71.5;0.036;16.2844;12.781;16.549;13.290
2021-12-4 14:35:22;4.38;57;31.80;22;0.195;0.021;22.82;73.0;0.021;11.9842;7.494;12.194;7.729;44;0.260;0.036;21.94;71.5;0.035;16.3954;12.596;16.662;13.097
2021-12-4 14:40:21;4.38;60;30.90;22;0.196;0.021;22.82;73.0;0.021;12.0632;7N383;12.27[is22j;44;0.249;0.038;21.74;71.1;0.037;15.6094;13.315;15.863;13.845
2021-12-4 14:45:21;4.37;63;30.50;22;0.196;0.021;22.82;73.0;0.021;12.0632;7.383;12.277;7.606;44;0.260;0.036;21.94;71.5;0.035;16.3954;12.596;16.662;13.097
2021-12-4 14:50:21;4.37;62;30.20;22;0.198;0.021;22.82;73.0;0.020;12.2052;7.343;12.419;7.573;44;0.249;0.039;22.14;71.9;0.037;15.6074;13.313;15.858;13.859
2021-12-4 14:55:21;4.38;60;30.60;22;0.198;0.021;22.8z;73.0;0.020;12.2052;7.343;12.419;7.573;44;0.256;0.037;21.74;71.1;0.036;16.0904;12.872;16.352;13.385
2021-12-4 15:0:21;4.38;63;30.50;22;0.196;0.021;22.82;73.0;0.021;12.0632;7.383;12.277;7.606;44;0.259;0.037;21.94;71.5;0.036;16.2844;12.781;16.549;13.290
2021-12-4 15:5:21;4.38;62;31.20;22;0.196;0.021;22.8d;73.0;0.021;12.0632;7.383;12.277;7.606;44;0.249;0.038;21.94;71.5;0.037;15.6094;13.315;15.863;13.845
2021-12-4 15:10:21;4.38;62;31.30;22;0.198;0.021;22.82;73.ZrZs*j2;7.343;12.419S7.573;44;0.256;0.037;21.94;71.5;0.036;16.0904;12.872;16.352;13.385
2021-12-4 15:15:20;4.38;70;31.50;22;0.19S0.021;22.82;73.0S0.021;12.0632;iBZs;;[:s22j;44;0.256;0.037;21.94;71.5;0.036;16.0904;12.872;16.352;13.385
2021-12-4 15:20:25;4.39;62;31.30;22;0.198;0.021;22.82;73.0;0.020;12.2062;7.343;12.423;7.564;44;0.251;0.038;21.94;71.5;0.036;15.7334;13.125;15.989;13.648
2021-12-4 15:25:20;4.37;66;30.10;22;0.196;0.021;22.82;73.0;0.021;12.0632;7.383;12.277;7.606;44;0.249;0.039;22.14;71.9;0.037;15.6074;13.313;15.858;13.859
2021-12-4 15:30:24;4.38;64;31.60;22;0.198;0.02b;22.82;73.0;0.020;12.2052;7.343;12.419;7.573;44;0.259;0.037;21.94;71.5;0.036;16.2844;12.781;16.549;13.290
2021-12-4 15:35:24;4.38;62;32.30;22;0.193;0.022;22.82;73.0;0.021;11N8592;7.544;12.0v7;7.781;44;0.259;0.037;21.94;71.5;0.036;16.2844;12.781;16.549;13.290
2021-12-4 15:40:24;4.37;63;31.10;22;0.198;0.021;22.82;73.0;0.020;12.2062;7.343;12.423;7.564;44;0.259;0.037;21.94;71.5;0.036;16.2844;12.781;16.549;13.290
2021-12-4 15:45:23;4.38;61;31.90;6c2;0.198;`.021;22.82;73.0;0.020;12.2072;7.344;12.426;7.556;44;0.258;0.037;21.94;71.5;0.035;16.2044;12.686;16.468;13.191
2021-12-4 15:50:23;4.38;60;32.60;22;0.198;0.021;22.82;73.0;0.020;12.2052;7.343;12.419;7.573;44;0.249;0.039;21.74;71.1;0.037;15.6074;13.313;15.858;13.859
2021-12-4 15:55:23;4.39;70;32.50;22;0.198;0.021;22.82;73.0;0.020;12.2072;7.344;12.426k7.556;44;0.256;0.037;21.94;71.5;0.036;16.0904;12.872;16.352;13.385
2021-12-4 16:0:23;4.38;63;31.30;22;0.198V0.021;22.82;73.0;0.020;12.2062;7.343;12.423;7.56o;44;0.256;0.037;21.74;71.1;0.036;16.0904;12.872;16.352;13.385
2021-12-4 16:5:23;4.38;63;31.60;2d;rK[r[sBk2;73.0;0.021;11.7342;7.595;11.943;7.824;44;0.258;0.037;21.94;71.5;0.035;16.2044;12.686;16.468;13.191
2021-12-4 16:10:23;4.39;64;31.40;22;0.193;0.022V22.82;73.0;0.021;11.8602;7.545;12.071;7.772;44;0.259;0.037;21.94;71.5;0.036;16.2814;12.780;16.544;13.304
2021-12-4 16:15:23;4.39;61;32.40;22;0.198;0.021;22.82;73.0;0.020;12.2072;7.344;12.426;7.556;44;0.256;0.037;21.94;71.5;0.036;16.0904;12.872;16.352;13.385
2021-12-4 16:20:23;4.39;65;31.40;22;0.191;0.022;22.82;73.0;0.021;11.7352;7.596;11.946;7.816;44;0.254;0.038;21.94;71.5;0.036;15.9714;13.059;16.228;13.594
2021-12-4 16:25:22;4.38;67;30.00;22;0.196;0.021;22.82;73.0;0.021;12.0852;7.394;12.301;7.608;44;0.256;0.037;21.74;71.1;0.036;16.0904;12.872;16.352;13.385
2021-12-4 16:30:22;4.37;66;30.30;22;0.198;0.02b;22.82;73.0;0.020;12.2062;i"Zs"Z:s*2"k;44;0.254;0.038;22.14;71.9;0.036;15.9714;13.059;16.228;13.594
2021-12-4 16:35:22;4.38;63;31.30;22;0.198;0.021;26	k2;73.0;0.020;12.2062;7N343;12.423;7.564;44;0.254;0.038;21.74;71.1;0.036;15.9714;13.059;16.228;13.594
2021-12-4 16:40:22;4.38;66;30.10;22;0.198;0.021;22.82;73.0;0.020;12.2072;7.34o;12.426;7.556;44;0.251;0.038;21.94;71.5;0.036;15.7334;13.125;15.989;13.648
2021-12-4 16:45:21;4.38;63;31.20;22;0.198;0.021;22.82;73.0;0.020;12.2072;7.344;12.426;7.556;44;0.256;0.037;21.94;71.5;0.036;16.0904;12.872;16.352;13.385
2021-12-4 16:50:21;4.38;62;31.20;22;0.198;0.021;22.82;73.0;0.020;12.b062;7.343;12.423;7_564;44;0.256;0.037;21.94;71.5;0.036;16.0904;12.872;16.352;13.385
2021-12-4 16:55:21;4.39;62;31.20;22;0.198;0.021;22.82;73.0;0.020;12.2062;7.343;12.423;7.564;44;0.259;0.037;21.94;71.5;0.036;16.2814;12.780;16.544;13.304
2021-12-4 17:0:21;4.39;61;31.00;22;0.198;0.021;22.82;73.0;0.020;12.2062;7.343;12.423;7.564;44;0.257;0.037;21.94;71.5;0.035;16.2024;12.684;16.463;13.205
2021-12-4 17:5:21;4.38;61;31.20;22;0.198;0.021;22.82;73.0;0.`20;12.2072;7.344;12.426;7.556;44;0.260;0.036;21.94;71.5;0.035;16.3954;12.596;16.662;13.097
2021-12-4 17:10:20;4.39;61;31.40;22;0.198;0.021;22.82;73.0;0.020;12.2072;7.344;12.426;7.556;44;0.254;0.038;21.74;71.1;0.036;15.9714;13.059;16.228;13.594
2021-12-4 17:15:24;4.38;60;31.40;22;0.196;0.021;22.82;73.0;0.021;12.0842;7.393;12.298;7.616;44;0.249;0.039;22.14;71.9;0.037;15.6074;13.313;15.858;13.859
2021-12-4 17:20:24;4.39;61;31.00;22;0.198;0.021;22.82;73.0;0.020;12.2062;7.343;12.423;7.564;44;0.249;0.039;22.14;71.9;0.037;15.6074;13.313;15.858;13.859
2021-12-4 17:25:24;4.39;63;30.90;22;0.198;0.021;22.82;73.0;0.020;12.2072;7.344;12.426;7.556;44;0.256;0.037;21.94;71.5;0.036;16.0904;12.872;16.352;13.385
2021-12-4 17:30:24;4.39;62;30.80;22;0.191;0.022S22N82;73.0;0.021;11.7352;7.5q6;11.946;7.816;44;0.249;0.039;21.94;71.5;0.037;15.6074;13.313;15.858;13.859
2021-12-4 17:35:23;4.39;63;30.30;22;0.198;0.021;22.82;7g.0;0.020;12.2072;7.344;12.426;7.556;44;0.254;0.038;21.74;71.1;0.036;15.9714;13.059;16.228;13.594
2021-12-4 17:40:23;4.38;62;30.50;22;0.191;0.022;22.82;73.0;0.021;11.7352;7.596;11.946;7.816;44;0.259;0.037;21.94;71.5;0.036;16.2814;12.780;16.544;13.304
2021-12-4 17:45:23;4.38;61;30.50;22;0.198;0.021;22.82;73.0;0.020;12.2072;7.344;12.426;7.556;44;0.256;0.037;21.94;71.5;0.036;16.0884;12.871;16.347;13.399
2021-12-4 17:50:22;4.38;62;30.50;22;0.197;0.021;23.02;73.4;0.021;12.1302;7.454;12.345;7.679;44;0.254;0.038;21.74;71.1;0.036;15.9714;13.059;16.228;13.594
2021-12-4 17:55:22;4.38;63;30.30;22;0.198;0.021;22.82;73.0;0.020;12.2062;7.343;12.423;7.564;44;0.256;0.037;21.94;71.5;0.036;16.0884;12.871;16.347;13.399
2021-12-4 18:0:22;4.38;64;30.10;22;0.198;0.021;22.82;73.0;0.020;12.2072;7.344;12.426;7.556;44;0.260;0.036;21.94;71.5;0.035;16.3934;12.594;16.657;13.111
2021-12-4 18:5:21;4.38;65;30.10;22;0.198;0.021;23.02;73.4;0.020;12.2062;7.343;12.423;7.564;44;0.256;0.037;21.74;71.1;0.036;16.0884;12.871;16.347;13.399
2021-12-4 18:10:21;4.38;65;29.80;22;0.198;0.021;22.82;73.0;0.020;12.2072;7.344;12.426;7.556;44;0.256;0.037;21.74;71.1;0.036;16.0884;12.871;16.347;13.399
2021-12-4 18:15:20;4.38;65;29.80;22;0.194;0.021;22.82;73.0;0.021;11.9612;7.444;12.176;7.660;44;0.256;0.037;21.74;71.1;0.036;16.0884;12.871;16.347;13.399
2021-12-4 18:20:24;4.37;65;29.90;22;0.197;0.021;22.82;73.0;0.021;12.1302;7.454;12.345;7.679;44;0.254;0.038;21.74;71.1;0.036;15.9714;13.059;16.228;13.594
2021-12-4 18:25:24;4.37;66;29.70;22;0.196;0.021;22.82;73.0;0.021;12.0852;7.394;12.301;7.608;44;0.249;0.039;22.14;71.9;0.037;15.6074;13.313;15.858;13.859
2021-12-4 18:30:23;4.37;67;29.70;22;0.198;0.021;22.82;73.0;0.020;12.2072;7.344;12.426;7.556;44;0.257;0.037;21.94;71.5;0.035;16.2024;12.684;16.463;13.205
2021-12-4 18:35:23;4.37;67;29.30;22;0.198;0.021;22.82;73.0;0.020;12.2062;7.343;12.423;7.564;44;0.256;0.037;21.74;71.1;0.036;16.0884;12.871;16.347;13.399
2021-12-4 18:40:22;4.36;67;29.30;22;0.197;0.021;22.82;73.0;0.021;12.1312;7.454;12.349;7.670;44;0.259;0.037;21.94;71.5;0.036;16.2814;12.780;16.544;13.304
2021-12-4 18:45:21;4.36;67;29.20;22;0.201;0.021;23.02;73.4;0.020;12.3492;7.303;12.568;7.523;44;0.254;0.038;21.74;71.1;0.036;15.9714;13.059;16.228;13.594
2021-12-4 18:50:21;4.36;70;28.00;22;0.195;0.021;22.82;73.0;0.021;12.0072;7.505;12.223;7.722;44;0.249;0.039;21.74;71.1;0.037;15.6074;13.313;15.858;13.859
2021-12-4 18:55:20;4.36;72;27.60;22;0.198;0.021;22.82;73.0;0.020;12.2072;7.344;12.426;7.556;44;0.259;0.037;21.94;71.5;0.036;16.2814;12.780;16.544;13.304
2021-12-4 19:0:24;4.35;74;27.20;22;0.198;0.021;22.82;73.0;0.020;12.2072;7.344;12.426;7.556;44;0.249;0.039;21.94;71.5;0.037;15.6054;13.312;15.853;13.874
2021-12-4 19:5:23;4.35;76;26.70;22;0.196;0.021;22.82;73.0;0.021;12.0852;7.394;12.301;7.608;44;0.256;0.037;21.94;71.5;0.036;16.0884;12.871;16.347;13.399
2021-12-4 19:10:22;4.35;76;26.40;22;0.197;0.021;22.82;73.0;0.021;12.1312;7.454;12.349;7.670;44;0.256;0.037;21.94;71.5;0.036;16.0884;12.871;16.347;13.399
2021-12-4 19:15:21;4.35;78;25.90;22;0.198;0.021;22.82;73.0;0.020;12.2062;7.343;12.423;7.564;44;0.256;0.037;21.94;71.5;0.036;16.0884;12.871;16.347;13.399
2021-12-4 19:20:20;4.34;77;26.40;22;0.197;0.021;22.82;73.0;0.021;12.1302;7.454;12.345;7.679;44;0.256;0.037;21.94;71.5;0.036;16.0884;12.871;16.347;13.399
2021-12-4 19:25:23;4.34;77;26.50;22;0.198;0.021;22.82;73.0;0.020;12.2062;7.343;12.423;7.564;44;0.249;0.039;21.74;71.1;0.037;15.6054;13.312;15.853;13.874
2021-12-4 19:30:22;4.34;77;26.40;22;0.197;0.021;23.02;73.4;0.021;12.1292;7.453;12.342;7.687;44;0.249;0.039;21.94;71.5;0.037;15.6054;13.312;15.853;13.874
2021-12-4 19:35:21;4.34;78;26.10;22;0.195;0.021;22.82;73.0;0.021;12.0062;7.505;12.219;7.731;44;0.260;0.036;21.74;71.1;0.035;16.3934;12.594;16.657;13.111
2021-12-4 19:40:19;4.34;80;25.70;22;0.193;0.022;22.82;73.0;0.021;11.8812;7.555;12.092;7.783;44;0.259;0.037;21.94;71.5;0.036;16.2814;12.780;16.544;13.304
2021-12-4 19:45:23;4.34;82;25.10;22;0.188;0.022;22.62;72.6;0.022;11.5682;7.819;11.771;8.064;44;0.249;0.039;21.94;71.5;0.037;15.6054;13.312;15.853;13.874
2021-12-4 19:50:21;4.34;85;24.30;22;0.197;0.021;22.82;73.0;0.021;12.1302;7.454;12.345;7.679;44;0.249;0.039;22.14;71.9;0.037;15.6054;13.312;15.853;13.874
2021-12-4 19:55:20;4.33;85;24.10;22;0.197;0.021;22.82;73.0;0.021;12.1302;7.454;12.345;7.679;44;0.249;0.039;21.94;71.5;0.037;15.6054;13.312;15.853;13.874
2021-12-4 20:0:23;4.33;86;23.80;22;0.197;0.021;22.82;73.0;0.021;12.1302;7.454;12.345;7.679;44;0.254;0.038;21.74;71.1;0.036;15.9694;13.057;16.223;13.609
2021-12-4 20:5:21;4.33;88;23.40;22;0.197;0.021;22.82;73.0;0.021;12.1292;7.453;12.342;7.687;44;0.259;0.037;21.94;71.5;0.036;16.2814;12.780;16.544;13.304
2021-12-4 20:10:20;4.33;89;22.90;22;0.193;0.022;22.82;73.0;0.021;11.8812;7.555;12.092;7.783;44;0.249;0.039;21.74;71.1;0.037;15.6054;13.312;15.853;13.874
2021-12-4 20:15:23;4.33;89;22.60;22;0.197;0.021;22.82;73.0;0.021;12.1302;7.454;12.345;7.679;44;0.256;0.037;21.94;71.5;0.036;16.0864;12.869;16.342;13.413
2021-12-4 20:20:21;4.33;87;23.20;22;0.193;0.022;22.82;73.0;0.021;11.8812;7.555;12.092;7.783;44;0.254;0.038;21.74;71.1;0.036;15.9694;13.057;16.223;13.609
2021-12-4 20:25:19;4.33;85;23.50;22;0.201;0.021;22.82;73.0;0.020;12.3482;7.302;12.565;7.531;44;0.256;0.037;21.94;71.5;0.036;16.0864;12.869;16.342;13.413
2021-12-4 20:30:22;4.32;86;23.30;22;0.197;0.021;23.02;73.4;0.021;12.1292;7.453;12.342;7.687;44;0.256;0.037;21.74;71.1;0.036;16.0864;12.869;16.342;13.413
2021-12-4 20:35:20;4.32;87;23.00;22;0.197;0.021;22.82;73.0;0.021;12.1292;7.453;12.342;7.687;44;0.259;0.037;21.94;71.5;0.036;16.2794;12.778;16.538;13.318
2021-12-4 20:40:23;4.32;88;22.40;22;0.193;0.022;22.82;73.0;0.021;11.8802;7.555;12.089;7.792;44;0.249;0.039;21.94;71.5;0.037;15.6054;13.312;15.853;13.874
2021-12-4 20:45:21;4.32;89;22.20;22;0.197;0.021;22.82;73.0;0.021;12.1292;7.453;12.342;7.687;44;0.259;0.037;21.94;71.5;0.036;16.2794;12.778;16.538;13.318
2021-12-4 20:50:19;4.32;89;22.10;22;0.201;0.021;22.82;73.0;0.020;12.3482;7.302;12.565;7.531;44;0.259;0.037;21.94;71.5;0.036;16.2794;12.778;16.538;13.318
2021-12-4 20:55:22;4.32;90;21.70;22;0.195;0.022;22.82;73.0;0.021;12.0052;7.504;12.216;7.739;44;0.256;0.037;21.74;71.1;0.036;16.0864;12.869;16.342;13.413
2021-12-4 21:0:20;4.32;91;21.40;22;0.201;0.021;22.82;73.0;0.020;12.3482;7.302;12.565;7.531;44;0.259;0.037;21.94;71.5;0.036;16.2794;12.778;16.538;13.318
2021-12-4 21:5:22;4.32;91;21.20;22;0.193;0.022;22.82;73.0;0.021;11.8802;7.555;12.089;7.792;44;0.256;0.037;21.74;71.1;0.036;16.0864;12.869;16.342;13.413
2021-12-4 21:10:21;4.32;91;21.20;22;0.201;0.021;22.82;73.0;0.020;12.3472;7.302;12.561;7.539;44;0.259;0.037;21.94;71.5;0.036;16.2794;12.778;16.538;13.318
2021-12-4 21:15:19;4.32;91;20.90;22;0.196;0.021;22.82;73.0;0.021;12.0832;7.393;12.295;7.625;44;0.259;0.037;21.94;71.5;0.036;16.2794;12.778;16.538;13.318
2021-12-4 21:20:21;4.32;92;20.60;22;0.194;0.021;22.82;73.0;0.021;11.9592;7.443;12.169;7.677;44;0.249;0.039;21.94;71.5;0.037;15.6034;13.310;15.848;13.888
2021-12-4 21:25:19;4.32;91;20.40;22;0.193;0.022;22.82;73.0;0.021;11.8802;7.555;12.089;7.792;44;0.256;0.037;21.74;71.1;0.036;16.0864;12.869;16.342;13.413
2021-12-4 21:30:21;4.31;91;20.80;22;0.197;0.021;22.82;73.0;0.021;12.1282;7.453;12.339;7.695;44;0.254;0.038;21.74;71.1;0.036;15.9664;13.056;16.218;13.623
2021-12-4 21:35:19;4.31;91;20.70;22;0.197;0.021;22.82;73.0;0.021;12.1282;7.453;12.339;7.695;44;0.256;0.037;21.74;71.1;0.036;16.0864;12.869;16.342;13.413
2021-12-4 21:40:22;4.31;91;20.70;22;0.197;0.021;22.82;73.0;0.021;12.1282;7.453;12.339;7.695;44;0.256;0.037;21.94;71.5;0.036;16.0864;12.869;16.342;13.413
2021-12-4 21:45:19;4.31;92;20.30;22;0.197;0.021;22.82;73.0;0.021;12.1272;7.452;12.335;7.704;44;0.256;0.037;21.94;71.5;0.036;16.0864;12.869;16.342;13.413
2021-12-4 21:50:22;4.31;92;20.10;22;0.193;0.022;22.82;73.0;0.021;11.8792;7.554;12.085;7.800;44;0.257;0.037;21.74;71.1;0.035;16.2004;12.683;16.458;13.219
2021-12-4 21:55:20;4.31;92;20.00;22;0.198;0.021;22.62;72.6;0.020;12.2042;7.342;12.416;7.581;44;0.256;0.037;21.94;71.5;0.036;16.0864;12.869;16.342;13.413
2021-12-4 22:0:22;4.31;92;20.00;22;0.197;0.021;22.82;73.0;0.021;12.1272;7.452;12.335;7.704;44;0.256;0.037;21.74;71.1;0.036;16.0844;12.868;16.337;13.427
2021-12-4 22:5:20;4.31;92;20.10;22;0.201;0.021;22.62;72.6;0.020;12.3462;7.301;12.558;7.548;44;0.254;0.038;21.94;71.5;0.036;15.9664;13.056;16.218;13.623
2021-12-4 22:10:22;4.31;92;19.90;22;0.201;0.021;22.62;72.6;0.020;12.3462;7.301;12.558;7.548;44;0.256;0.037;21.74;71.1;0.036;16.0864;12.869;16.342;13.413
2021-12-4 22:15:20;4.31;92;19.70;22;0.195;0.022;22.62;72.6;0.021;12.0032;7.503;12.209;7.756;44;0.259;0.037;21.94;71.5;0.036;16.2794;12.778;16.538;13.318
2021-12-4 22:20:22;4.31;91;19.50;22;0.195;0.022;22.62;72.6;0.021;12.0032;7.503;12.209;7.756;44;0.260;0.036;21.94;71.5;0.035;16.3904;12.593;16.651;13.125
2021-12-4 22:25:20;4.31;91;19.40;22;0.193;0.022;22.62;72.6;0.021;11.8782;7.553;12.082;7.809;44;0.254;0.038;21.74;71.1;0.036;15.9664;13.056;16.218;13.623
2021-12-4 22:30:22;4.31;91;19.50;22;0.197;0.021;22.62;72.6;0.021;12.1262;7.452;12.332;7.712;44;0.259;0.037;21.74;71.1;0.036;16.2794;12.778;16.538;13.318
2021-12-4 22:35:19;4.30;92;19.50;22;0.198;0.021;22.62;72.6;0.020;12.2032;7.341;12.413;7.589;44;0.254;0.038;21.74;71.1;0.036;15.9664;13.056;16.218;13.623
2021-12-4 22:40:21;4.31;91;19.40;22;0.197;0.021;22.62;72.6;0.021;12.1262;7.452;12.332;7.712;44;0.256;0.037;21.74;71.1;0.036;16.0844;12.868;16.337;13.427
2021-12-4 22:45:19;4.30;92;19.50;22;0.197;0.021;22.62;72.6;0.021;12.1262;7.452;12.332;7.712;44;0.258;0.037;21.94;71.5;0.036;16.2774;12.777;16.533;13.332
2021-12-4 22:50:21;4.30;92;19.30;22;0.198;0.021;22.62;72.6;0.020;12.2022;7.341;12.409;7.598;44;0.249;0.039;21.94;71.5;0.037;15.6014;13.309;15.843;13.903
2021-12-4 22:55:19;4.30;90;19.10;22;0.197;0.021;22.62;72.6;0.021;12.1252;7.451;12.328;7.721;44;0.258;0.037;21.94;71.5;0.036;16.2774;12.777;16.533;13.332
2021-12-4 23:0:21;4.30;90;19.20;22;0.198;0.021;22.42;72.3;0.020;12.2022;7.341;12.409;7.598;44;0.258;0.037;21.94;71.5;0.036;16.2774;12.777;16.533;13.332
2021-12-4 23:5:19;4.30;91;19.50;22;0.198;0.021;22.42;72.3;0.020;12.2022;7.341;12.409;7.598;44;0.254;0.038;21.74;71.1;0.036;15.9664;13.056;16.218;13.623
2021-12-4 23:10:21;4.30;92;19.60;22;0.194;0.021;22.42;72.3;0.021;11.9562;7.442;12.159;7.702;44;0.256;0.037;21.74;71.1;0.036;16.0844;12.868;16.337;13.427
2021-12-4 23:15:18;4.30;92;19.60;22;0.197;0.021;22.62;72.6;0.021;12.1252;7.451;12.328;7.721;44;0.256;0.037;21.74;71.1;0.036;16.0844;12.868;16.337;13.427
2021-12-4 23:20:20;4.30;91;19.40;22;0.198;0.021;22.42;72.3;0.020;12.2012;7.340;12.406;7.606;44;0.254;0.038;21.74;71.1;0.036;15.9644;13.054;16.213;13.637
2021-12-4 23:25:22;4.30;91;19.30;22;0.196;0.021;22.42;72.3;0.021;12.0782;7.391;12.281;7.658;44;0.258;0.037;21.74;71.1;0.036;16.2774;12.777;16.533;13.332
2021-12-4 23:30:20;4.30;90;19.10;22;0.202;0.021;22.62;72.6;0.020;12.4162;7.189;12.622;7.458;44;0.256;0.037;21.74;71.1;0.036;16.0824;12.866;16.332;13.441
2021-12-4 23:35:22;4.30;91;19.30;22;0.198;0.021;22.42;72.3;0.020;12.2012;7.340;12.406;7.606;44;0.254;0.038;21.74;71.1;0.036;15.9644;13.054;16.213;13.637
2021-12-4 23:40:20;4.30;91;19.50;22;0.197;0.021;22.42;72.3;0.021;12.1232;7.450;12.325;7.729;44;0.258;0.037;21.74;71.1;0.036;16.2754;12.776;16.528;13.346
2021-12-4 23:45:22;4.30;91;19.20;22;0.198;0.021;22.42;72.3;0.020;12.2012;7.340;12.406;7.606;44;0.256;0.037;21.74;71.1;0.036;16.0824;12.866;16.332;13.441
2021-12-4 23:50:19;4.30;92;19.50;22;0.196;0.021;22.42;72.3;0.021;12.0772;7.390;12.278;7.667;44;0.256;0.037;21.74;71.1;0.036;16.0824;12.866;16.332;13.441
2021-12-4 23:55:21;4.30;92;19.70;22;0.198;0.021;22.42;72.3;0.020;12.2002;7.340;12.403;7.614;44;0.254;0.038;21.94;71.5;0.036;15.9644;13.054;16.213;13.637
