2021-09-14 00:03:44;1;122;122;122;122;122;122;122;122;122;122;
2021-09-14 00:03:44;2;115;115;115;115;115;115;115;115;115;115;
2021-09-14 00:03:44;3;32;32;32;32;32;32;32;32;32;32;
2021-09-14 00:03:44;4;120;120;120;120;120;120;120;120;120;120;
2021-09-14 00:03:44;5;2;2;2;2;2;2;2;2;2;2;
2021-09-14 00:03:44;ht;99;15.70
2021-09-14 00:03:44;v;4.00
2021-09-14 00:33:44;1;119;119;119;119;119;119;119;119;119;119;
2021-09-14 00:33:44;2;122;122;122;122;122;122;122;122;122;122;
2021-09-14 00:33:44;3;33;33;32;33;33;33;33;33;33;33;
2021-09-14 00:33:44;4;120;120;120;120;120;120;120;120;120;120;
2021-09-14 00:33:44;5;120;120;120;120;120;120;120;120;120;120;
2021-09-14 00:33:44;ht;99;15.20
2021-09-14 00:33:44;v;4.00
2021-09-14 01:03:44;1;1;1;1;2;1;2;1;1;1;1;
2021-09-14 01:03:44;2;1;1;1;1;1;1;1;1;1;1;
2021-09-14 01:03:44;3;31;31;31;31;31;31;31;31;31;31;
2021-09-14 01:03:44;4;120;119;119;119;120;119;119;120;119;120;
2021-09-14 01:03:44;5;109;108;108;108;108;108;108;108;109;108;
2021-09-14 01:03:44;ht;99;13.50
2021-09-14 01:03:44;v;4.00
2021-09-14 01:33:42;1;128;128;128;128;128;128;128;128;128;128;
2021-09-14 01:33:42;2;127;127;127;126;126;127;127;126;127;127;
2021-09-14 01:33:42;3;34;34;34;34;34;34;34;34;34;34;
2021-09-14 01:33:42;4;122;122;122;122;122;122;122;122;122;122;
2021-09-14 01:33:42;5;1;1;1;1;1;1;1;1;2;1;
2021-09-14 01:33:42;ht;99;12.80
2021-09-14 01:33:42;v;3.99
2021-09-14 02:03:45;1;117;116;117;117;117;117;116;117;117;117;
2021-09-14 02:03:45;2;1;2;2;2;1;1;1;1;2;2;
2021-09-14 02:03:45;3;29;29;30;29;29;29;29;29;29;29;
2021-09-14 02:03:45;4;116;116;116;116;116;116;116;116;116;116;
2021-09-14 02:03:45;5;124;124;124;124;124;124;124;124;124;124;
2021-09-14 02:03:45;ht;99;12.60
2021-09-14 02:03:45;v;4.00
2021-09-14 02:33:43;1;131;131;130;130;131;130;131;130;130;130;
2021-09-14 02:33:43;2;127;127;127;127;127;127;127;127;127;127;
2021-09-14 02:33:43;3;29;29;29;29;29;29;29;29;29;29;
2021-09-14 02:33:43;4;128;128;128;128;128;128;128;128;128;128;
2021-09-14 02:33:43;5;103;103;103;103;103;103;103;103;103;103;
2021-09-14 02:33:43;ht;99;12.40
2021-09-14 02:33:43;v;4.00
2021-09-14 03:03:45;1;123;123;123;123;123;123;123;123;123;123;
2021-09-14 03:03:45;2;121;120;120;121;120;120;121;121;120;120;
2021-09-14 03:03:45;3;29;29;29;29;29;29;29;29;29;29;
2021-09-14 03:03:45;4;119;119;119;119;119;119;119;119;119;119;
2021-09-14 03:03:45;5;124;123;124;124;124;124;124;124;123;123;
2021-09-14 03:03:45;ht;99;11.80
2021-09-14 03:03:45;v;3.99
2021-09-14 03:33:43;1;125;125;125;125;125;125;125;125;125;125;
2021-09-14 03:33:43;2;124;124;124;124;124;124;124;124;124;124;
2021-09-14 03:33:43;3;115;115;115;115;115;115;115;115;115;115;
2021-09-14 03:33:43;4;120;120;120;120;120;120;120;120;120;120;
2021-09-14 03:33:43;5;128;128;128;127;128;128;127;127;127;128;
2021-09-14 03:33:43;ht;99;11.60
2021-09-14 03:33:43;v;4.00
2021-09-14 04:03:44;1;125;125;125;125;125;125;125;125;125;125;
2021-09-14 04:03:44;2;123;123;123;123;123;123;123;123;123;123;
2021-09-14 04:03:44;3;29;29;29;29;29;29;29;29;29;29;
2021-09-14 04:03:44;4;122;122;122;122;122;122;122;122;122;122;
2021-09-14 04:03:44;5;111;111;111;111;111;111;111;111;111;111;
2021-09-14 04:03:44;ht;99;11.00
2021-09-14 04:03:44;v;4.00
2021-09-14 04:33:41;1;133;133;133;133;133;133;134;133;133;134;
2021-09-14 04:33:41;2;116;117;117;117;117;117;117;117;117;117;
2021-09-14 04:33:41;3;31;31;31;30;30;30;30;30;30;30;
2021-09-14 04:33:41;4;128;126;126;125;125;125;125;125;125;125;
2021-09-14 04:33:41;5;114;120;115;114;114;113;113;113;113;113;
2021-09-14 04:33:41;ht;99;10.70
2021-09-14 04:33:41;v;4.00
2021-09-14 05:03:43;1;118;118;118;118;118;118;118;118;118;118;
2021-09-14 05:03:43;2;126;126;126;126;126;126;126;126;126;126;
2021-09-14 05:03:43;3;33;32;32;33;33;33;33;33;32;33;
2021-09-14 05:03:43;4;124;124;124;124;124;124;124;124;124;124;
2021-09-14 05:03:43;5;122;122;122;122;122;122;122;122;122;122;
2021-09-14 05:03:43;ht;99;10.50
2021-09-14 05:03:43;v;4.00
2021-09-14 05:33:44;1;122;121;121;122;121;122;122;122;121;121;
2021-09-14 05:33:44;2;119;119;119;119;119;119;119;119;119;119;
2021-09-14 05:33:44;3;27;27;27;27;27;27;27;27;27;27;
2021-09-14 05:33:44;4;120;120;120;120;120;120;120;120;120;120;
2021-09-14 05:33:44;5;104;104;104;104;104;104;104;104;104;104;
2021-09-14 05:33:44;ht;99;10.00
2021-09-14 05:33:44;v;4.00
2021-09-14 06:03:40;1;120;120;120;120;120;120;120;120;120;120;
2021-09-14 06:03:40;2;113;112;113;112;112;113;112;113;113;113;
2021-09-14 06:03:40;3;27;27;27;27;27;27;27;27;27;27;
2021-09-14 06:03:40;4;122;122;122;122;122;122;122;122;122;122;
2021-09-14 06:03:40;5;103;103;103;103;103;103;103;103;103;103;
2021-09-14 06:03:40;ht;99;9.60
2021-09-14 06:03:40;v;4.00
2021-09-14 06:33:41;1;115;115;115;115;115;115;115;115;115;115;
2021-09-14 06:33:41;2;118;118;118;118;118;118;118;118;118;118;
2021-09-14 06:33:41;3;26;26;25;26;26;26;26;26;26;26;
2021-09-14 06:33:41;4;120;120;120;120;120;120;120;120;120;120;
2021-09-14 06:33:41;5;127;127;127;127;127;126;127;127;127;127;
2021-09-14 06:33:41;ht;99;8.90
2021-09-14 06:33:41;v;3.99
2021-09-14 07:03:41;1;118;118;118;118;118;118;118;118;118;118;
2021-09-14 07:03:41;2;126;127;126;126;126;126;126;126;126;126;
2021-09-14 07:03:41;3;26;26;26;26;26;26;26;26;26;26;
2021-09-14 07:03:41;4;127;128;128;128;128;127;128;128;128;128;
2021-09-14 07:03:41;5;110;110;110;110;110;110;110;110;110;110;
2021-09-14 07:03:41;ht;99;8.20
2021-09-14 07:03:41;v;4.00
2021-09-14 07:33:41;1;121;121;121;121;121;121;121;121;120;121;
2021-09-14 07:33:41;2;129;129;129;129;129;129;129;129;129;129;
2021-09-14 07:33:41;3;25;25;25;25;25;25;25;25;25;25;
2021-09-14 07:33:41;4;123;123;123;123;123;123;123;123;123;123;
2021-09-14 07:33:41;5;112;112;112;112;112;112;112;112;112;112;
2021-09-14 07:33:41;ht;99;8.60
2021-09-14 07:33:41;v;4.00
2021-09-14 08:03:42;1;119;119;119;119;119;119;119;119;119;119;
2021-09-14 08:03:42;2;132;131;131;131;132;132;132;131;131;131;
2021-09-14 08:03:42;3;29;29;29;29;29;29;29;29;29;29;
2021-09-14 08:03:42;4;113;112;113;113;113;113;113;113;113;113;
2021-09-14 08:03:42;5;109;109;109;109;109;109;109;109;109;110;
2021-09-14 08:03:42;ht;99;9.80
2021-09-14 08:03:42;v;4.00
2021-09-14 08:33:43;1;125;125;125;125;125;125;125;125;125;125;
2021-09-14 08:33:43;2;115;115;115;115;115;115;115;115;115;115;
2021-09-14 08:33:43;3;29;29;29;29;29;29;29;29;29;29;
2021-09-14 08:33:43;4;118;118;118;118;118;118;118;118;118;118;
2021-09-14 08:33:43;5;106;106;106;106;106;106;106;106;106;106;
2021-09-14 08:33:43;ht;99;10.60
2021-09-14 08:33:43;v;3.99
2021-09-14 09:03:45;1;114;114;114;114;114;114;113;114;114;113;
2021-09-14 09:03:45;2;107;108;108;108;108;108;108;108;108;108;
2021-09-14 09:03:45;3;29;29;29;29;29;29;29;29;29;29;
2021-09-14 09:03:45;4;119;119;119;119;119;119;119;119;119;119;
2021-09-14 09:03:45;5;106;107;107;107;107;107;107;107;107;107;
2021-09-14 09:03:45;ht;99;12.40
2021-09-14 09:03:45;v;4.00
2021-09-14 09:33:43;1;115;115;115;115;115;115;115;115;115;115;
2021-09-14 09:33:43;2;116;116;116;117;117;117;117;117;117;117;
2021-09-14 09:33:43;3;28;28;28;28;28;28;28;28;28;28;
2021-09-14 09:33:43;4;115;115;115;115;115;115;115;115;115;115;
2021-09-14 09:33:43;5;105;106;106;106;106;106;106;106;106;106;
2021-09-14 09:33:43;ht;99;14.40
2021-09-14 09:33:43;v;4.00
2021-09-14 10:03:47;1;119;119;119;119;119;119;119;119;119;119;
2021-09-14 10:03:47;2;114;114;114;114;115;114;115;114;114;114;
2021-09-14 10:03:47;3;40;40;40;40;40;40;40;40;40;40;
2021-09-14 10:03:47;4;110;110;110;110;110;110;110;110;110;110;
2021-09-14 10:03:47;5;111;111;111;111;111;111;111;111;111;111;
2021-09-14 10:03:47;ht;99;15.70
2021-09-14 10:03:47;v;4.00
2021-09-14 10:33:48;1;115;115;115;115;115;115;115;115;115;115;
2021-09-14 10:33:48;2;118;118;118;118;118;118;118;118;118;118;
2021-09-14 10:33:48;3;1;1;1;1;2;1;1;1;2;1;
2021-09-14 10:33:48;4;113;113;113;113;113;113;113;113;113;113;
2021-09-14 10:33:48;5;105;105;105;105;105;105;105;105;105;105;
2021-09-14 10:33:48;ht;96;16.40
2021-09-14 10:33:48;v;3.99
2021-09-14 11:03:45;1;124;124;124;124;124;124;124;124;124;124;
2021-09-14 11:03:45;2;110;110;110;110;110;110;110;110;110;110;
2021-09-14 11:03:45;3;2;2;2;2;2;2;2;2;2;2;
2021-09-14 11:03:45;4;116;116;116;116;116;116;116;116;116;116;
2021-09-14 11:03:45;5;104;104;104;104;104;104;104;104;104;104;
2021-09-14 11:03:45;ht;93;16.80
2021-09-14 11:03:45;v;4.00
2021-09-14 11:33:47;1;117;118;117;117;117;117;117;117;118;117;
2021-09-14 11:33:47;2;114;114;114;114;114;114;114;114;114;114;
2021-09-14 11:33:47;3;1;1;2;1;1;1;2;1;2;2;
2021-09-14 11:33:47;4;118;118;118;118;118;118;118;118;118;118;
2021-09-14 11:33:47;5;112;112;112;112;112;112;112;112;112;112;
2021-09-14 11:33:47;ht;90;17.90
2021-09-14 11:33:47;v;4.00
2021-09-14 12:03:50;1;115;115;115;115;115;115;115;115;115;115;
2021-09-14 12:03:50;2;117;117;117;117;117;117;117;117;117;117;
2021-09-14 12:03:50;3;1;1;1;1;1;1;2;1;1;1;
2021-09-14 12:03:50;4;118;118;118;118;118;118;118;118;118;118;
2021-09-14 12:03:50;5;102;102;101;102;102;102;102;102;102;102;
2021-09-14 12:03:50;ht;79;19.00
2021-09-14 12:03:50;v;3.99
2021-09-14 12:33:50;1;116;116;116;116;116;116;116;116;116;116;
2021-09-14 12:33:50;2;122;123;122;122;122;122;122;122;122;123;
2021-09-14 12:33:50;3;35;35;35;35;35;35;35;35;35;35;
2021-09-14 12:33:50;4;115;115;115;115;115;115;115;115;115;115;
2021-09-14 12:33:50;5;115;115;115;115;115;115;115;115;115;115;
2021-09-14 12:33:50;ht;72;18.80
2021-09-14 12:33:50;v;4.00
2021-09-14 13:03:50;1;116;116;116;116;116;116;116;116;116;116;
2021-09-14 13:03:50;2;127;127;127;127;127;127;127;127;127;127;
2021-09-14 13:03:50;3;38;38;38;38;38;38;38;38;38;38;
2021-09-14 13:03:50;4;113;113;113;113;113;113;113;113;113;113;
2021-09-14 13:03:50;5;99;99;99;99;99;99;99;99;99;99;
2021-09-14 13:03:50;ht;64;19.90
2021-09-14 13:03:50;v;4.00
2021-09-14 13:33:50;1;120;120;120;120;120;120;120;120;120;120;
2021-09-14 13:33:50;2;112;112;112;112;112;112;112;112;112;112;
2021-09-14 13:33:50;3;38;38;38;38;38;38;38;38;38;38;
2021-09-14 13:33:50;4;114;114;114;114;114;114;114;114;114;114;
2021-09-14 13:33:50;5;123;123;123;123;123;123;123;123;123;123;
2021-09-14 13:33:50;ht;65;19.90
2021-09-14 13:33:50;v;3.99
2021-09-14 14:03:50;1;115;115;115;115;115;115;115;115;115;116;
2021-09-14 14:03:50;2;119;119;119;119;119;119;119;119;119;119;
2021-09-14 14:03:50;3;37;37;37;37;37;37;37;37;37;37;
2021-09-14 14:03:50;4;128;127;128;128;127;128;128;128;128;128;
2021-09-14 14:03:50;5;108;108;108;108;108;108;108;108;108;108;
2021-09-14 14:03:50;ht;73;19.30
2021-09-14 14:03:50;v;3.99
2021-09-14 14:33:51;1;114;114;114;114;114;114;114;114;114;114;
2021-09-14 14:33:51;2;118;118;118;118;118;118;118;118;118;118;
2021-09-14 14:33:51;3;35;35;35;35;35;35;35;35;35;35;
2021-09-14 14:33:51;4;116;116;116;116;116;116;116;116;116;116;
2021-09-14 14:33:51;5;108;108;108;108;108;108;108;108;108;108;
2021-09-14 14:33:51;ht;70;19.50
2021-09-14 14:33:51;v;4.00
2021-09-14 15:03:52;1;117;117;117;117;117;117;117;117;117;117;
2021-09-14 15:03:52;2;118;117;118;118;118;117;118;117;117;118;
2021-09-14 15:03:52;3;117;117;117;117;117;117;117;117;117;117;
2021-09-14 15:03:52;4;121;121;121;121;121;121;121;121;121;121;
2021-09-14 15:03:52;5;102;102;102;102;102;102;102;102;102;102;
2021-09-14 15:03:52;ht;72;20.00
2021-09-14 15:03:52;v;4.00
2021-09-14 15:33:48;1;119;119;119;119;119;119;119;119;119;119;
2021-09-14 15:33:48;2;104;105;104;105;104;104;104;104;105;104;
2021-09-14 15:33:48;3;37;36;37;37;37;37;37;37;37;37;
2021-09-14 15:33:48;4;2;2;1;2;2;1;2;1;2;2;
2021-09-14 15:33:48;5;118;118;118;118;118;118;118;118;118;118;
2021-09-14 15:33:48;ht;69;20.40
2021-09-14 15:33:48;v;3.99
2021-09-14 16:03:49;1;117;117;117;117;117;117;117;117;117;117;
2021-09-14 16:03:49;2;2;2;2;2;2;2;2;2;2;2;
2021-09-14 16:03:49;3;113;113;112;113;113;113;112;113;113;113;
2021-09-14 16:03:49;4;129;130;130;130;130;130;130;130;130;130;
2021-09-14 16:03:49;5;97;97;97;97;97;97;97;97;97;97;
2021-09-14 16:03:49;ht;64;19.60
2021-09-14 16:03:49;v;3.99
2021-09-14 16:33:50;1;113;113;113;113;114;113;113;113;113;113;
2021-09-14 16:33:50;2;118;118;118;118;118;118;118;118;118;118;
2021-09-14 16:33:50;3;96;96;96;96;96;97;97;96;97;96;
2021-09-14 16:33:50;4;120;120;120;120;120;120;121;120;120;120;
2021-09-14 16:33:50;5;100;100;100;100;100;100;100;100;100;99;
2021-09-14 16:33:50;ht;66;20.00
2021-09-14 16:33:50;v;3.99
2021-09-14 17:03:50;1;118;118;118;118;118;118;118;118;118;118;
2021-09-14 17:03:50;2;129;128;128;128;128;128;128;129;128;128;
2021-09-14 17:03:50;3;40;40;40;40;40;40;40;40;40;40;
2021-09-14 17:03:50;4;112;112;112;112;112;112;112;112;112;112;
2021-09-14 17:03:50;5;101;102;101;101;101;101;101;101;101;101;
2021-09-14 17:03:50;ht;57;19.90
2021-09-14 17:03:50;v;3.99
2021-09-14 17:33:50;1;121;121;121;121;121;121;121;121;121;121;
2021-09-14 17:33:50;2;113;113;113;113;113;113;113;113;113;113;
2021-09-14 17:33:50;3;95;95;95;95;95;94;95;94;95;94;
2021-09-14 17:33:50;4;116;116;116;116;116;116;116;116;116;116;
2021-09-14 17:33:50;5;1;2;2;2;2;2;2;1;2;2;
2021-09-14 17:33:50;ht;58;18.80
2021-09-14 17:33:50;v;3.99
2021-09-14 18:03:49;1;123;123;123;123;123;123;123;123;123;123;
2021-09-14 18:03:49;2;112;112;112;112;112;112;112;112;112;112;
2021-09-14 18:03:49;3;114;114;114;115;114;114;115;114;115;114;
2021-09-14 18:03:49;4;121;121;121;121;121;121;120;121;121;121;
2021-09-14 18:03:49;5;113;113;113;113;113;113;113;113;113;113;
2021-09-14 18:03:49;ht;62;17.90
2021-09-14 18:03:49;v;3.99
2021-09-14 18:33:47;1;121;121;121;121;121;121;121;121;121;121;
2021-09-14 18:33:47;2;1;1;1;2;2;2;2;2;1;2;
2021-09-14 18:33:47;3;27;27;27;27;27;27;27;27;27;27;
2021-09-14 18:33:47;4;119;119;119;119;119;119;119;119;119;119;
2021-09-14 18:33:47;5;107;107;107;107;107;107;107;107;107;107;
2021-09-14 18:33:47;ht;76;15.50
2021-09-14 18:33:47;v;3.99
2021-09-14 19:03:47;1;120;119;119;119;119;119;119;119;120;119;
2021-09-14 19:03:47;2;121;121;121;121;121;121;121;121;121;121;
2021-09-14 19:03:47;3;34;34;34;34;34;34;34;34;34;34;
2021-09-14 19:03:47;4;117;117;117;117;117;117;117;117;117;117;
2021-09-14 19:03:47;5;98;98;98;98;98;98;98;98;98;98;
2021-09-14 19:03:47;ht;79;13.20
2021-09-14 19:03:47;v;3.99
2021-09-14 19:33:45;1;122;122;122;122;121;122;122;122;121;122;
2021-09-14 19:33:45;2;108;108;108;108;107;108;108;107;108;108;
2021-09-14 19:33:45;3;32;33;33;33;33;33;33;33;33;33;
2021-09-14 19:33:45;4;113;113;113;112;113;113;113;113;113;113;
2021-09-14 19:33:45;5;99;99;99;99;99;99;99;99;99;99;
2021-09-14 19:33:45;ht;75;13.00
2021-09-14 19:33:45;v;3.99
2021-09-14 20:03:43;1;113;112;112;113;113;112;113;112;112;112;
2021-09-14 20:03:43;2;128;128;128;128;128;128;128;128;128;128;
2021-09-14 20:03:43;3;33;32;33;33;32;33;33;33;33;33;
2021-09-14 20:03:43;4;120;119;119;120;119;120;119;119;120;120;
2021-09-14 20:03:43;5;101;101;101;101;102;102;101;101;101;101;
2021-09-14 20:03:43;ht;77;12.20
2021-09-14 20:03:43;v;3.99
2021-09-14 20:33:45;1;129;129;129;129;129;129;129;129;129;129;
2021-09-14 20:33:45;2;135;135;135;135;135;135;135;135;135;135;
2021-09-14 20:33:45;3;26;26;26;26;26;26;26;26;26;26;
2021-09-14 20:33:45;4;120;120;120;120;120;120;120;120;120;120;
2021-09-14 20:33:45;5;104;104;104;104;105;105;112;106;105;105;
2021-09-14 20:33:45;ht;86;10.50
2021-09-14 20:33:45;v;3.97
2021-09-14 21:03:41;1;108;108;108;108;108;108;108;108;108;108;
2021-09-14 21:03:41;2;2;1;2;2;2;2;2;2;2;2;
2021-09-14 21:03:41;3;26;26;26;26;26;26;26;26;26;26;
2021-09-14 21:03:41;4;119;119;119;119;119;119;119;119;119;119;
2021-09-14 21:03:41;5;100;100;100;100;100;100;100;100;100;100;
2021-09-14 21:03:41;ht;90;10.10
2021-09-14 21:03:41;v;3.99
2021-09-14 21:33:42;1;123;123;123;123;123;123;123;123;123;123;
2021-09-14 21:33:42;2;116;116;116;116;116;116;116;116;116;116;
2021-09-14 21:33:42;3;26;26;26;26;26;26;26;26;26;26;
2021-09-14 21:33:42;4;124;124;124;124;124;124;124;124;124;124;
2021-09-14 21:33:42;5;106;106;106;106;106;106;106;106;106;106;
2021-09-14 21:33:42;ht;84;11.00
2021-09-14 21:33:42;v;3.99
2021-09-14 22:03:42;1;122;122;122;122;122;122;122;122;122;122;
2021-09-14 22:03:42;2;127;127;127;127;127;127;127;127;127;127;
2021-09-14 22:03:42;3;25;25;25;25;25;25;25;24;25;25;
2021-09-14 22:03:42;4;110;110;110;110;110;110;110;110;110;110;
2021-09-14 22:03:42;5;103;102;103;103;102;102;103;103;103;103;
2021-09-14 22:03:42;ht;90;9.80
2021-09-14 22:03:42;v;3.99
2021-09-14 22:33:42;1;123;123;123;123;123;123;123;123;123;123;
2021-09-14 22:33:42;2;124;124;124;124;124;124;124;124;124;124;
2021-09-14 22:33:42;3;32;32;32;32;32;32;32;32;32;32;
2021-09-14 22:33:42;4;118;118;118;118;118;118;118;118;118;118;
2021-09-14 22:33:42;5;112;112;112;112;112;112;112;112;112;111;
2021-09-14 22:33:42;ht;99;7.30
2021-09-14 22:33:42;v;3.98
2021-09-14 23:03:42;1;123;123;124;123;123;123;123;124;123;124;
2021-09-14 23:03:42;2;126;126;126;126;126;126;126;126;126;126;
2021-09-14 23:03:42;3;31;31;31;31;31;31;31;31;31;31;
2021-09-14 23:03:42;4;125;125;125;125;125;126;125;125;125;125;
2021-09-14 23:03:42;5;107;107;107;107;107;107;108;115;108;108;
2021-09-14 23:03:42;ht;99;6.10
2021-09-14 23:03:42;v;3.98
2021-09-14 23:33:41;1;117;116;116;116;116;117;116;116;116;116;
2021-09-14 23:33:41;2;127;127;127;127;127;127;127;127;127;127;
2021-09-14 23:33:41;3;29;29;29;29;29;29;29;29;29;29;
2021-09-14 23:33:41;4;122;122;122;122;122;122;122;122;122;122;
2021-09-14 23:33:41;5;109;109;109;109;109;109;109;109;109;109;
2021-09-14 23:33:41;ht;99;6.40
2021-09-14 23:33:41;v;3.98
