2021-09-15 00:03:39;1;113;113;113;113;113;113;113;121;114;113;
2021-09-15 00:03:39;2;127;127;136;128;128;128;128;128;128;128;
2021-09-15 00:03:39;3;31;31;31;31;31;31;31;31;31;31;
2021-09-15 00:03:39;4;118;118;118;118;118;118;118;118;118;119;
2021-09-15 00:03:39;5;122;122;122;122;122;121;122;122;122;122;
2021-09-15 00:03:39;ht;99;6.60
2021-09-15 00:03:39;v;3.98
2021-09-15 00:33:38;1;117;117;117;117;117;116;117;117;117;117;
2021-09-15 00:33:38;2;115;115;116;115;116;116;115;116;115;115;
2021-09-15 00:33:38;3;28;28;28;28;28;28;28;28;28;28;
2021-09-15 00:33:38;4;118;119;118;118;118;118;118;118;118;118;
2021-09-15 00:33:38;5;123;116;117;116;116;115;115;115;115;115;
2021-09-15 00:33:38;ht;99;5.10
2021-09-15 00:33:38;v;3.98
2021-09-15 01:03:40;1;114;114;114;114;114;114;114;114;114;114;
2021-09-15 01:03:40;2;127;127;126;127;127;126;127;127;126;127;
2021-09-15 01:03:40;3;31;31;31;31;31;31;31;31;31;31;
2021-09-15 01:03:40;4;117;117;117;117;118;118;118;117;117;117;
2021-09-15 01:03:40;5;107;107;107;108;109;108;108;108;108;108;
2021-09-15 01:03:40;ht;99;4.90
2021-09-15 01:03:40;v;3.98
2021-09-15 01:33:38;1;119;119;119;119;119;119;119;119;118;118;
2021-09-15 01:33:38;2;129;129;129;129;129;129;129;129;129;129;
2021-09-15 01:33:38;3;29;29;29;29;29;29;36;30;29;29;
2021-09-15 01:33:38;4;116;116;116;116;116;116;116;117;116;117;
2021-09-15 01:33:38;5;103;104;103;103;103;103;103;103;104;103;
2021-09-15 01:33:38;ht;99;5.60
2021-09-15 01:33:38;v;3.98
2021-09-15 02:03:40;1;122;122;122;122;121;122;122;122;122;122;
2021-09-15 02:03:40;2;112;112;112;112;121;113;112;112;112;112;
2021-09-15 02:03:40;3;31;31;31;31;31;31;31;31;31;30;
2021-09-15 02:03:40;4;120;120;120;120;120;120;120;120;120;120;
2021-09-15 02:03:40;5;104;104;104;104;104;104;104;104;104;104;
2021-09-15 02:03:40;ht;99;4.20
2021-09-15 02:03:40;v;3.98
2021-09-15 02:33:38;1;121;121;121;121;121;121;121;121;121;121;
2021-09-15 02:33:38;2;113;113;113;113;113;113;113;113;113;113;
2021-09-15 02:33:38;3;29;29;29;29;29;29;29;29;29;29;
2021-09-15 02:33:38;4;117;117;117;117;117;117;117;117;117;117;
2021-09-15 02:33:38;5;105;105;105;105;105;105;105;105;105;105;
2021-09-15 02:33:38;ht;99;4.90
2021-09-15 02:33:38;v;3.98
2021-09-15 03:03:40;1;120;120;120;120;120;120;120;120;120;120;
2021-09-15 03:03:40;2;114;114;114;113;114;114;114;114;114;114;
2021-09-15 03:03:40;3;26;26;26;26;26;26;26;26;25;25;
2021-09-15 03:03:40;4;117;117;117;117;117;117;117;117;117;117;
2021-09-15 03:03:40;5;106;105;105;105;106;106;105;105;106;106;
2021-09-15 03:03:40;ht;99;4.90
2021-09-15 03:03:40;v;3.98
2021-09-15 03:33:37;1;121;121;121;121;121;121;121;121;121;121;
2021-09-15 03:33:37;2;114;114;114;114;114;114;114;114;114;114;
2021-09-15 03:33:37;3;30;30;30;30;30;30;30;30;30;30;
2021-09-15 03:33:37;4;116;116;116;116;116;116;116;116;116;116;
2021-09-15 03:33:37;5;104;104;104;104;104;104;104;104;104;104;
2021-09-15 03:33:37;ht;99;3.80
2021-09-15 03:33:37;v;3.97
2021-09-15 04:03:39;1;122;122;122;122;122;122;122;122;122;122;
2021-09-15 04:03:39;2;113;113;113;113;113;113;113;113;113;113;
2021-09-15 04:03:39;3;29;29;29;29;29;29;29;29;29;29;
2021-09-15 04:03:39;4;118;118;118;118;118;118;118;118;118;118;
2021-09-15 04:03:39;5;104;103;103;103;104;103;103;103;104;103;
2021-09-15 04:03:39;ht;99;3.70
2021-09-15 04:03:39;v;3.98
2021-09-15 04:33:36;1;121;121;121;121;121;121;120;120;120;121;
2021-09-15 04:33:36;2;112;112;112;112;112;112;113;112;112;112;
2021-09-15 04:33:36;3;29;29;29;29;29;29;29;29;29;29;
2021-09-15 04:33:36;4;119;119;120;119;119;119;119;119;119;120;
2021-09-15 04:33:36;5;112;112;111;111;112;112;112;112;112;111;
2021-09-15 04:33:36;ht;99;2.80
2021-09-15 04:33:36;v;3.98
2021-09-15 05:03:38;1;127;127;127;127;127;127;127;127;127;127;
2021-09-15 05:03:38;2;1;1;1;1;1;1;1;2;1;1;
2021-09-15 05:03:38;3;30;30;30;30;30;30;30;30;30;30;
2021-09-15 05:03:38;4;131;131;131;131;131;131;131;131;131;131;
2021-09-15 05:03:38;5;120;120;119;119;120;120;119;120;120;120;
2021-09-15 05:03:38;ht;99;1.50
2021-09-15 05:03:38;v;3.97
2021-09-15 05:33:39;1;114;114;114;114;114;114;114;114;114;114;
2021-09-15 05:33:39;2;117;117;117;117;117;117;117;117;117;117;
2021-09-15 05:33:39;3;29;29;29;29;29;29;29;29;29;29;
2021-09-15 05:33:39;4;118;118;118;118;119;118;118;118;118;118;
2021-09-15 05:33:39;5;107;107;107;107;107;107;107;107;107;107;
2021-09-15 05:33:39;ht;99;1.60
2021-09-15 05:33:39;v;3.98
2021-09-15 06:03:40;1;118;118;118;118;118;118;118;118;118;118;
2021-09-15 06:03:40;2;2;1;2;1;2;2;1;2;2;2;
2021-09-15 06:03:40;3;29;29;29;29;29;29;29;29;29;29;
2021-09-15 06:03:40;4;120;120;120;120;120;120;120;120;120;120;
2021-09-15 06:03:40;5;129;129;129;129;129;129;129;129;129;129;
2021-09-15 06:03:40;ht;99;2.20
2021-09-15 06:03:40;v;3.98
2021-09-15 06:33:36;1;120;120;120;120;120;120;120;120;120;120;
2021-09-15 06:33:36;2;120;120;120;120;120;120;120;120;120;120;
2021-09-15 06:33:36;3;30;30;30;30;30;30;30;30;30;30;
2021-09-15 06:33:36;4;117;117;117;117;117;117;117;117;117;117;
2021-09-15 06:33:36;5;146;147;146;147;147;146;147;147;147;147;
2021-09-15 06:33:36;ht;99;2.70
2021-09-15 06:33:36;v;3.97
2021-09-15 07:03:37;1;123;123;123;123;123;123;123;123;123;123;
2021-09-15 07:03:37;2;2;2;2;2;2;2;2;2;2;2;
2021-09-15 07:03:37;3;29;28;29;29;29;29;29;29;29;29;
2021-09-15 07:03:37;4;123;123;123;122;122;122;123;122;123;123;
2021-09-15 07:03:37;5;111;111;111;111;111;110;110;110;110;110;
2021-09-15 07:03:37;ht;99;1.20
2021-09-15 07:03:37;v;3.97
2021-09-15 07:33:38;1;122;122;122;122;122;122;122;122;122;122;
2021-09-15 07:33:38;2;117;117;117;117;116;117;117;117;117;117;
2021-09-15 07:33:38;3;28;28;28;28;28;28;28;28;28;28;
2021-09-15 07:33:38;4;128;128;128;128;128;128;128;128;128;128;
2021-09-15 07:33:38;5;105;105;105;105;105;105;105;105;105;105;
2021-09-15 07:33:38;ht;99;3.00
2021-09-15 07:33:38;v;3.97
2021-09-15 08:03:40;1;125;125;125;125;125;125;125;125;125;125;
2021-09-15 08:03:40;2;116;116;116;116;116;116;116;116;116;115;
2021-09-15 08:03:40;3;23;23;23;23;23;23;23;23;23;23;
2021-09-15 08:03:40;4;137;137;137;137;137;137;137;137;137;137;
2021-09-15 08:03:40;5;103;104;104;103;104;104;104;104;104;104;
2021-09-15 08:03:40;ht;99;6.70
2021-09-15 08:03:40;v;3.98
2021-09-15 08:33:39;1;114;114;114;114;114;114;114;114;114;114;
2021-09-15 08:33:39;2;118;118;118;118;118;118;118;118;118;118;
2021-09-15 08:33:39;3;24;24;24;24;24;24;24;24;24;24;
2021-09-15 08:33:39;4;115;115;115;115;115;115;115;115;115;115;
2021-09-15 08:33:39;5;106;106;106;106;106;106;106;106;106;106;
2021-09-15 08:33:39;ht;99;9.70
2021-09-15 08:33:39;v;3.98
2021-09-15 09:03:40;1;108;108;108;107;107;107;107;108;108;108;
2021-09-15 09:03:40;2;123;123;123;123;123;123;123;123;123;123;
2021-09-15 09:03:40;3;27;27;27;27;27;27;27;27;27;27;
2021-09-15 09:03:40;4;124;124;124;124;124;124;124;124;124;124;
2021-09-15 09:03:40;5;114;114;114;114;114;114;121;115;114;114;
2021-09-15 09:03:40;ht;99;12.40
2021-09-15 09:03:40;v;3.97
2021-09-15 09:33:44;1;118;118;118;118;118;118;118;118;118;118;
2021-09-15 09:33:44;2;111;111;111;111;111;111;111;112;111;111;
2021-09-15 09:33:44;3;32;32;32;32;32;32;32;32;32;32;
2021-09-15 09:33:44;4;116;116;116;116;116;116;116;116;116;116;
2021-09-15 09:33:44;5;97;97;97;97;97;97;97;97;97;97;
2021-09-15 09:33:44;ht;99;14.10
2021-09-15 09:33:44;v;3.98
2021-09-15 10:03:44;1;119;119;120;119;119;120;119;119;119;119;
2021-09-15 10:03:44;2;124;124;124;124;124;123;124;124;124;124;
2021-09-15 10:03:44;3;40;40;40;40;40;40;40;40;40;40;
2021-09-15 10:03:44;4;115;115;115;115;115;115;115;115;115;115;
2021-09-15 10:03:44;5;1;1;2;2;2;2;2;2;1;2;
2021-09-15 10:03:44;ht;99;16.90
2021-09-15 10:03:44;v;3.98
2021-09-15 10:33:46;1;112;112;112;112;112;112;111;112;112;112;
2021-09-15 10:33:46;2;125;125;125;125;125;125;125;125;125;125;
2021-09-15 10:33:46;3;115;115;115;115;115;115;115;115;115;115;
2021-09-15 10:33:46;4;126;126;126;126;126;126;126;126;126;126;
2021-09-15 10:33:46;5;108;108;108;108;108;108;108;108;108;108;
2021-09-15 10:33:46;ht;93;18.30
2021-09-15 10:33:46;v;3.98
2021-09-15 11:03:49;1;114;114;114;114;114;114;114;114;114;114;
2021-09-15 11:03:49;2;115;115;115;115;115;115;115;115;115;115;
2021-09-15 11:03:49;3;25;25;25;25;25;25;25;25;25;26;
2021-09-15 11:03:49;4;117;117;117;117;117;117;117;117;117;117;
2021-09-15 11:03:49;5;109;109;109;109;109;109;109;109;109;109;
2021-09-15 11:03:49;ht;81;19.10
2021-09-15 11:03:49;v;3.98
2021-09-15 11:33:50;1;116;116;116;116;116;116;116;116;116;116;
2021-09-15 11:33:50;2;115;115;115;115;115;115;115;115;115;115;
2021-09-15 11:33:50;3;25;25;25;25;25;25;25;25;25;25;
2021-09-15 11:33:50;4;110;110;110;110;110;110;110;110;110;110;
2021-09-15 11:33:50;5;104;105;105;105;105;105;105;105;105;105;
2021-09-15 11:33:50;ht;64;20.70
2021-09-15 11:33:50;v;3.99
2021-09-15 12:03:51;1;117;117;117;117;117;117;117;117;117;117;
2021-09-15 12:03:51;2;111;111;111;111;111;111;111;111;111;111;
2021-09-15 12:03:51;3;24;24;24;24;24;24;24;24;24;24;
2021-09-15 12:03:51;4;111;111;111;111;111;111;111;111;111;111;
2021-09-15 12:03:51;5;110;110;110;110;110;110;110;109;110;110;
2021-09-15 12:03:51;ht;58;20.60
2021-09-15 12:03:51;v;3.98
2021-09-15 12:33:53;1;113;113;113;113;113;113;113;113;113;113;
2021-09-15 12:33:53;2;111;111;111;111;111;111;111;111;111;111;
2021-09-15 12:33:53;3;107;107;107;107;107;107;107;107;107;107;
2021-09-15 12:33:53;4;125;125;125;125;125;125;125;125;125;125;
2021-09-15 12:33:53;5;97;97;97;97;97;97;97;97;97;96;
2021-09-15 12:33:53;ht;56;21.10
2021-09-15 12:33:53;v;3.98
2021-09-15 13:03:51;1;126;127;126;127;126;126;126;126;126;127;
2021-09-15 13:03:51;2;120;120;120;120;120;120;120;119;120;120;
2021-09-15 13:03:51;3;32;32;32;32;32;32;32;32;32;32;
2021-09-15 13:03:51;4;117;117;117;117;117;117;117;117;117;117;
2021-09-15 13:03:51;5;101;101;101;101;101;101;101;101;101;101;
2021-09-15 13:03:51;ht;55;21.90
2021-09-15 13:03:51;v;3.98
2021-09-15 13:33:50;1;121;121;121;121;121;121;121;121;121;121;
2021-09-15 13:33:50;2;110;110;110;110;110;110;110;110;110;110;
2021-09-15 13:33:50;3;25;25;25;25;25;25;25;25;25;25;
2021-09-15 13:33:50;4;106;106;106;106;106;106;106;106;106;106;
2021-09-15 13:33:50;5;106;106;105;106;105;106;106;106;106;106;
2021-09-15 13:33:50;ht;55;22.40
2021-09-15 13:33:50;v;3.98
2021-09-15 14:03:53;1;107;107;107;107;106;107;107;107;107;107;
2021-09-15 14:03:53;2;115;115;115;115;115;115;115;115;115;115;
2021-09-15 14:03:53;3;95;95;94;95;94;95;95;95;94;95;
2021-09-15 14:03:53;4;119;119;119;119;119;119;119;119;119;119;
2021-09-15 14:03:53;5;99;99;100;99;100;100;99;100;99;100;
2021-09-15 14:03:53;ht;58;23.10
2021-09-15 14:03:53;v;3.98
2021-09-15 14:33:52;1;109;109;109;109;109;109;109;109;109;109;
2021-09-15 14:33:52;2;113;113;113;113;113;113;113;113;113;113;
2021-09-15 14:33:52;3;32;32;32;32;32;32;32;32;32;32;
2021-09-15 14:33:52;4;114;114;114;114;114;114;114;114;114;114;
2021-09-15 14:33:52;5;97;97;97;97;97;97;97;97;97;97;
2021-09-15 14:33:52;ht;58;24.20
2021-09-15 14:33:52;v;3.98
2021-09-15 15:03:52;1;115;115;115;115;115;115;115;115;115;115;
2021-09-15 15:03:52;2;117;117;116;117;117;117;117;117;117;117;
2021-09-15 15:03:52;3;99;98;99;98;99;99;99;99;99;98;
2021-09-15 15:03:52;4;116;115;115;115;115;115;115;115;115;115;
2021-09-15 15:03:52;5;104;104;104;104;104;104;104;104;104;104;
2021-09-15 15:03:52;ht;54;24.90
2021-09-15 15:03:52;v;3.98
2021-09-15 15:33:53;1;122;122;122;122;122;122;122;122;122;122;
2021-09-15 15:33:53;2;122;122;122;122;122;122;122;122;122;122;
2021-09-15 15:33:53;3;25;25;25;25;25;25;25;25;25;24;
2021-09-15 15:33:53;4;108;108;108;108;108;108;108;108;108;108;
2021-09-15 15:33:53;5;2;2;1;2;2;2;2;2;2;2;
2021-09-15 15:33:53;ht;45;23.70
2021-09-15 15:33:53;v;3.98
2021-09-15 16:03:53;1;105;105;105;105;105;105;105;105;105;105;
2021-09-15 16:03:53;2;113;113;113;113;113;113;113;113;113;113;
2021-09-15 16:03:53;3;100;100;100;100;100;100;100;100;100;100;
2021-09-15 16:03:53;4;129;129;129;129;129;129;129;129;129;129;
2021-09-15 16:03:53;5;106;106;106;106;106;106;106;107;106;106;
2021-09-15 16:03:53;ht;46;24.00
2021-09-15 16:03:53;v;3.98
2021-09-15 16:33:53;1;102;102;102;102;102;102;102;102;102;102;
2021-09-15 16:33:53;2;120;120;120;120;120;120;120;120;120;120;
2021-09-15 16:33:53;3;25;25;25;25;25;25;25;25;25;25;
2021-09-15 16:33:53;4;109;109;109;109;109;109;109;109;109;109;
2021-09-15 16:33:53;5;109;110;110;110;110;109;109;109;109;109;
2021-09-15 16:33:53;ht;45;25.10
2021-09-15 16:33:53;v;3.98
2021-09-15 17:03:52;1;104;104;104;104;104;104;104;104;104;104;
2021-09-15 17:03:52;2;117;117;117;117;117;117;117;117;117;117;
2021-09-15 17:03:52;3;96;96;96;96;96;96;96;96;96;96;
2021-09-15 17:03:52;4;122;122;122;122;122;122;122;122;122;122;
2021-09-15 17:03:52;5;104;104;104;104;104;104;104;104;104;104;
2021-09-15 17:03:52;ht;51;22.70
2021-09-15 17:03:52;v;3.98
2021-09-15 17:33:51;1;115;114;114;114;114;115;115;114;114;115;
2021-09-15 17:33:51;2;116;116;116;116;116;115;115;116;115;115;
2021-09-15 17:33:51;3;25;25;25;25;25;25;25;25;25;25;
2021-09-15 17:33:51;4;122;122;122;122;122;122;122;122;122;122;
2021-09-15 17:33:51;5;110;110;110;110;110;110;110;110;110;110;
2021-09-15 17:33:51;ht;59;20.90
2021-09-15 17:33:51;v;3.98
2021-09-15 18:03:48;1;104;104;104;104;104;104;104;104;104;104;
2021-09-15 18:03:48;2;121;121;121;121;121;121;121;121;121;121;
2021-09-15 18:03:48;3;25;25;25;25;26;25;25;25;25;25;
2021-09-15 18:03:48;4;120;119;120;120;120;120;120;120;120;120;
2021-09-15 18:03:48;5;117;117;117;117;117;117;117;117;117;117;
2021-09-15 18:03:48;ht;75;19.30
2021-09-15 18:03:48;v;3.98
2021-09-15 18:33:48;1;120;120;120;120;120;120;120;120;120;120;
2021-09-15 18:33:48;2;124;124;124;124;124;124;124;124;124;124;
2021-09-15 18:33:48;3;2;2;1;2;2;2;2;1;1;1;
2021-09-15 18:33:48;4;134;134;133;133;134;134;133;134;134;134;
2021-09-15 18:33:48;5;100;100;100;100;100;100;100;100;100;100;
2021-09-15 18:33:48;ht;89;16.80
2021-09-15 18:33:48;v;3.98
2021-09-15 19:03:45;1;121;121;121;121;121;121;121;121;121;121;
2021-09-15 19:03:45;2;119;119;119;119;119;119;119;119;119;119;
2021-09-15 19:03:45;3;29;29;29;29;29;29;29;29;29;29;
2021-09-15 19:03:45;4;123;123;123;123;123;123;123;123;123;123;
2021-09-15 19:03:45;5;104;104;103;104;104;104;104;104;104;104;
2021-09-15 19:03:45;ht;77;15.70
2021-09-15 19:03:45;v;3.98
2021-09-15 19:33:45;1;118;118;118;118;118;118;118;118;118;118;
2021-09-15 19:33:45;2;115;115;115;115;115;115;115;115;115;115;
2021-09-15 19:33:45;3;29;29;29;29;29;29;29;29;29;29;
2021-09-15 19:33:45;4;116;116;116;116;116;116;116;116;116;116;
2021-09-15 19:33:45;5;92;92;92;92;92;92;92;93;92;92;
2021-09-15 19:33:45;ht;77;14.90
2021-09-15 19:33:45;v;3.98
2021-09-15 20:03:45;1;126;126;126;126;126;126;126;126;126;126;
2021-09-15 20:03:45;2;114;114;114;114;114;114;114;114;114;114;
2021-09-15 20:03:45;3;34;34;34;40;36;35;34;34;35;35;
2021-09-15 20:03:45;4;112;112;112;123;114;113;112;112;112;112;
2021-09-15 20:03:45;5;110;110;110;110;110;110;110;110;110;110;
2021-09-15 20:03:45;ht;81;13.70
2021-09-15 20:03:45;v;3.98
2021-09-15 20:33:43;1;115;115;115;115;115;115;115;115;115;115;
2021-09-15 20:33:43;2;118;118;118;118;118;118;118;118;118;118;
2021-09-15 20:33:43;3;34;34;34;34;33;34;34;34;34;34;
2021-09-15 20:33:43;4;114;114;114;114;115;114;114;114;114;114;
2021-09-15 20:33:43;5;60;60;60;60;60;60;60;60;60;60;
2021-09-15 20:33:43;ht;80;13.90
2021-09-15 20:33:43;v;3.98
2021-09-15 21:03:41;1;127;128;128;128;127;127;128;127;128;128;
2021-09-15 21:03:41;2;119;119;119;119;119;119;119;119;119;119;
2021-09-15 21:03:41;3;31;30;30;31;30;30;30;31;31;30;
2021-09-15 21:03:41;4;124;124;124;124;124;124;125;124;125;125;
2021-09-15 21:03:41;5;97;97;97;97;97;97;97;97;97;97;
2021-09-15 21:03:41;ht;84;13.00
2021-09-15 21:03:41;v;3.97
2021-09-15 21:33:44;1;126;127;126;127;127;126;127;127;127;127;
2021-09-15 21:33:44;2;118;118;118;118;118;118;118;118;118;118;
2021-09-15 21:33:44;3;33;33;33;33;33;33;33;33;33;33;
2021-09-15 21:33:44;4;121;121;121;121;121;121;121;121;121;121;
2021-09-15 21:33:44;5;106;106;106;106;106;106;106;106;106;106;
2021-09-15 21:33:44;ht;82;12.80
2021-09-15 21:33:44;v;3.98
2021-09-15 22:03:42;1;122;122;122;122;122;122;122;122;122;122;
2021-09-15 22:03:42;2;113;113;113;113;113;113;113;113;113;113;
2021-09-15 22:03:42;3;28;27;28;28;28;28;28;28;28;28;
2021-09-15 22:03:42;4;123;123;123;123;123;124;124;124;124;124;
2021-09-15 22:03:42;5;107;107;107;107;106;107;107;107;107;107;
2021-09-15 22:03:42;ht;87;11.80
2021-09-15 22:03:42;v;3.97
2021-09-15 22:33:43;1;124;124;124;124;124;124;124;124;124;124;
2021-09-15 22:33:43;2;122;122;122;122;122;122;122;122;122;122;
2021-09-15 22:33:43;3;26;26;27;33;28;27;27;27;27;27;
2021-09-15 22:33:43;4;120;120;120;119;119;119;120;119;119;119;
2021-09-15 22:33:43;5;100;100;100;100;100;100;100;100;100;100;
2021-09-15 22:33:43;ht;91;10.90
2021-09-15 22:33:43;v;3.98
2021-09-15 23:03:40;1;120;120;120;120;120;120;120;120;120;120;
2021-09-15 23:03:40;2;113;114;113;113;113;113;113;114;113;113;
2021-09-15 23:03:40;3;26;26;25;26;26;26;26;26;26;25;
2021-09-15 23:03:40;4;115;114;114;115;115;114;115;115;115;114;
2021-09-15 23:03:40;5;100;100;100;100;100;100;100;100;100;100;
2021-09-15 23:03:40;ht;92;10.20
2021-09-15 23:03:40;v;3.97
2021-09-15 23:33:42;1;123;122;123;123;123;123;123;123;123;123;
2021-09-15 23:33:42;2;117;117;117;116;116;117;117;117;117;117;
2021-09-15 23:33:42;3;25;25;25;25;25;25;25;25;25;25;
2021-09-15 23:33:42;4;120;120;120;120;120;120;120;120;120;120;
2021-09-15 23:33:42;5;110;110;110;110;110;110;110;110;110;110;
2021-09-15 23:33:42;ht;93;10.40
2021-09-15 23:33:42;v;3.97
