2024-04-05 00:00:06;100;1320;-1320;0
2024-04-05 00:01:08;100;1320;-1320;0
2024-04-05 00:02:05;100;1320;-1320;0
2024-04-05 00:03:07;100;1320;-1320;0
2024-04-05 00:04:05;100;1320;-1320;0
2024-04-05 00:05:07;100;1320;-1320;0
2024-04-05 00:06:04;100;1320;-1320;0
2024-04-05 00:07:06;100;1320;-1320;0
2024-04-05 00:08:08;100;1320;-1320;0
2024-04-05 00:09:05;100;1320;-1320;0
2024-04-05 00:10:07;100;1320;-1320;0
2024-04-05 00:11:05;100;1320;-1320;0
2024-04-05 00:12:07;100;1320;-1320;0
2024-04-05 00:13:04;100;1320;-1320;0
2024-04-05 00:14:06;100;1320;-1320;0
2024-04-05 00:15:08;100;1320;-1320;0
2024-04-05 00:16:05;100;1320;-1320;0
2024-04-05 00:17:07;100;1320;-1320;0
2024-04-05 00:18:05;100;1320;-1320;0
2024-04-05 00:19:07;100;1320;-1320;0
2024-04-05 00:20:04;100;1320;-1320;0
2024-04-05 00:21:06;100;1320;-1320;0
2024-04-05 00:22:08;100;1320;-1320;0
2024-04-05 00:23:05;100;1320;-1320;0
2024-04-05 00:24:07;100;1320;-1320;0
2024-04-05 00:25:05;100;1320;-1320;0
2024-04-05 00:26:07;100;1320;-1320;0
2024-04-05 00:27:04;100;1320;-1320;0
2024-04-05 00:28:06;100;1320;-1320;0
2024-04-05 00:29:08;100;1320;-1320;0
2024-04-05 00:30:06;100;1320;-1320;0
2024-04-05 00:31:07;100;1320;-1320;0
2024-04-05 00:32:05;100;1320;-1320;0
2024-04-05 00:33:07;100;1320;-1320;0
2024-04-05 00:34:04;100;1320;-1320;0
2024-04-05 00:35:06;100;1320;-1320;0
2024-04-05 00:36:08;100;1320;-1320;0
2024-04-05 00:37:06;100;1320;-1320;0
2024-04-05 00:38:08;100;1320;-1320;0
2024-04-05 00:39:05;100;1320;-1320;0
2024-04-05 00:40:07;100;1320;-1320;0
2024-04-05 00:41:04;100;1320;-1320;0
2024-04-05 00:42:06;100;1320;-1320;0
2024-04-05 00:43:08;100;1320;-1320;0
2024-04-05 00:44:06;100;1320;-1320;0
2024-04-05 00:45:08;100;1320;-1320;0
2024-04-05 00:46:05;100;1320;-1320;0
2024-04-05 00:47:07;100;1320;-1320;0
2024-04-05 00:48:04;100;1320;-1320;0
2024-04-05 00:49:06;100;1320;-1320;0
2024-04-05 00:50:08;100;1320;-1320;0
2024-04-05 00:51:06;100;1320;-1320;0
2024-04-05 00:52:08;100;1320;-1320;0
2024-04-05 00:53:05;100;1320;-1320;0
2024-04-05 00:54:07;100;1320;-1320;0
2024-04-05 00:55:04;100;1320;-1320;0
2024-04-05 00:56:06;100;1320;-1320;0
2024-04-05 00:57:08;100;1320;-1320;0
2024-04-05 00:58:06;100;1320;-1320;0
2024-04-05 00:59:08;100;1320;-1320;0
2024-04-05 01:00:05;100;1320;-1320;0
2024-04-05 01:01:07;100;1320;-1320;0
2024-04-05 01:02:04;100;1320;-1320;0
2024-04-05 01:03:06;100;1320;-1320;0
2024-04-05 01:04:08;100;1320;-1320;0
2024-04-05 01:05:06;100;1320;-1320;0
2024-04-05 01:06:08;100;1320;-1320;0
2024-04-05 01:07:05;100;1320;-1320;0
2024-04-05 01:08:07;100;1320;-1320;0
2024-04-05 01:09:04;100;1320;-1320;0
2024-04-05 01:10:06;100;1320;-1320;0
2024-04-05 01:11:08;100;1320;-1320;0
2024-04-05 01:12:06;100;1320;-1320;0
2024-04-05 01:13:08;100;1320;-1320;0
2024-04-05 01:14:05;100;1320;-1320;0
2024-04-05 01:15:07;100;1320;-1320;0
2024-04-05 01:16:04;100;1320;-1320;0
2024-04-05 01:17:06;100;1320;-1320;0
2024-04-05 01:18:08;100;1320;-1320;0
2024-04-05 01:19:06;100;1320;-1320;0
2024-04-05 01:20:08;100;1320;-1320;0
2024-04-05 01:21:05;100;1320;-1320;0
2024-04-05 01:22:07;100;1320;-1320;0
2024-04-05 01:23:04;100;1320;-1320;0
2024-04-05 01:24:06;100;1320;-1320;0
2024-04-05 01:25:08;100;1320;-1320;0
2024-04-05 01:26:05;100;1320;-1320;0
2024-04-05 01:27:07;100;1320;-1320;0
2024-04-05 01:28:05;100;1320;-1320;0
2024-04-05 01:29:07;100;1320;-1320;0
2024-04-05 01:30:04;100;1320;-1320;0
2024-04-05 01:31:06;100;1320;-1320;0
2024-04-05 01:32:08;100;1320;-1320;0
2024-04-05 01:33:05;100;1320;-1320;0
2024-04-05 01:34:07;100;1320;-1320;0
2024-04-05 01:35:05;100;1320;-1320;0
2024-04-05 01:36:07;100;1320;-1320;0
2024-04-05 01:37:04;100;1320;-1320;0
2024-04-05 01:38:06;100;1320;-1320;0
2024-04-05 01:39:08;100;1320;-1320;0
2024-04-05 01:40:05;100;1320;-1320;0
2024-04-05 01:41:07;100;1320;-1320;0
2024-04-05 01:42:04;100;1320;-1320;0
2024-04-05 01:43:06;100;1320;-1320;0
2024-04-05 01:44:08;100;1320;-1320;0
2024-04-05 01:45:06;100;1320;-1320;0
2024-04-05 01:46:08;100;1320;-1320;0
2024-04-05 01:47:05;100;1320;-1320;0
2024-04-05 01:48:07;100;1320;-1320;0
2024-04-05 01:49:04;100;1320;-1320;0
2024-04-05 01:50:06;100;1320;-1320;0
2024-04-05 01:51:08;100;1320;-1320;0
2024-04-05 01:52:05;100;1320;-1320;0
2024-04-05 01:53:07;100;1320;-1320;0
2024-04-05 01:54:05;100;1320;-1320;0
2024-04-05 01:55:07;100;1320;-1320;0
2024-04-05 01:56:04;100;1320;-1320;0
2024-04-05 01:57:06;100;1320;-1320;0
2024-04-05 01:58:08;100;1320;-1320;0
2024-04-05 01:59:05;100;1320;-1320;0
2024-04-05 02:00:07;100;1320;-1320;0
2024-04-05 02:01:04;100;1320;-1320;0
2024-04-05 02:02:06;100;1320;-1320;0
2024-04-05 02:03:08;100;1320;-1320;0
2024-04-05 02:04:06;100;1320;-1320;0
2024-04-05 02:05:07;100;1320;-1320;0
2024-04-05 02:06:05;100;1320;-1320;0
2024-04-05 02:07:07;100;1320;-1320;0
2024-04-05 02:08:04;100;1320;-1320;0
2024-04-05 02:09:06;100;1320;-1320;0
2024-04-05 02:10:08;100;1320;-1320;0
2024-04-05 02:11:05;100;1320;-1320;0
2024-04-05 02:12:07;100;1320;-1320;0
2024-04-05 02:13:05;100;1320;-1320;0
2024-04-05 02:14:06;100;1320;-1320;0
2024-04-05 02:15:08;100;1320;-1320;0
2024-04-05 02:16:06;100;1320;-1320;0
2024-04-05 02:17:08;100;1320;-1320;0
2024-04-05 02:18:05;100;1320;-1320;0
2024-04-05 02:19:07;100;1320;-1320;0
2024-04-05 02:20:04;100;1320;-1320;0
2024-04-05 02:21:06;99;1320;-1320;0
2024-04-05 02:22:08;100;1320;-1320;0
2024-04-05 02:23:05;99;1320;-1320;0
2024-04-05 02:24:07;99;1320;-1320;0
2024-04-05 02:25:05;99;1320;-1320;0
2024-04-05 02:26:07;99;1320;-1320;0
2024-04-05 02:27:04;99;1320;-1320;0
2024-04-05 02:28:06;99;1320;-1320;0
2024-04-05 02:29:08;98;1320;-1320;0
2024-04-05 02:30:05;99;1320;-1320;0
2024-04-05 02:31:07;98;1320;-1320;0
2024-04-05 02:32:04;99;1320;-1320;0
2024-04-05 02:33:06;99;1320;-1320;0
2024-04-05 02:34:08;99;1320;-1320;0
2024-04-05 02:35:05;99;1320;-1320;0
2024-04-05 02:36:07;99;1320;-1320;0
2024-04-05 02:37:05;99;1320;-1320;0
2024-04-05 02:38:07;99;1320;-1320;0
2024-04-05 02:39:04;99;1320;-1320;0
2024-04-05 02:40:06;99;1320;-1320;0
2024-04-05 02:41:08;99;1320;-1320;0
2024-04-05 02:42:05;100;1320;-1320;0
2024-04-05 02:43:07;99;1320;-1320;0
2024-04-05 02:44:04;99;1320;-1320;0
2024-04-05 02:45:06;99;1320;-1320;0
2024-04-05 02:46:08;99;1320;-1320;0
2024-04-05 02:47:05;99;1320;-1320;0
2024-04-05 02:48:07;99;1320;-1320;0
2024-04-05 02:49:05;99;1320;-1320;0
2024-04-05 02:50:07;99;1320;-1320;0
2024-04-05 02:51:04;99;1320;-1320;0
2024-04-05 02:52:06;99;1320;-1320;0
2024-04-05 02:53:08;99;1320;-1320;0
2024-04-05 02:54:05;99;1320;-1320;0
2024-04-05 02:55:07;99;1320;-1320;0
2024-04-05 02:56:04;100;1320;-1320;0
2024-04-05 02:57:06;99;1320;-1320;0
2024-04-05 02:58:08;99;1320;-1320;0
2024-04-05 02:59:05;99;1320;-1320;0
2024-04-05 03:00:07;99;1320;-1320;0
2024-04-05 03:01:05;99;1320;-1320;0
2024-04-05 03:02:07;99;1320;-1320;0
2024-04-05 03:03:04;99;1320;-1320;0
2024-04-05 03:04:06;99;1320;-1320;0
2024-04-05 03:05:08;99;1320;-1320;0
2024-04-05 03:06:05;99;1320;-1320;0
2024-04-05 03:07:07;99;1320;-1320;0
2024-04-05 03:08:04;99;1320;-1320;0
2024-04-05 03:09:06;99;1320;-1320;0
2024-04-05 03:10:08;99;1320;-1320;0
2024-04-05 03:11:06;99;1320;-1320;0
2024-04-05 03:12:07;99;1320;-1320;0
2024-04-05 03:13:05;99;1320;-1320;0
2024-04-05 03:14:07;99;1320;-1320;0
2024-04-05 03:15:04;99;1320;-1320;0
2024-04-05 03:16:06;99;1320;-1320;0
2024-04-05 03:17:08;99;1320;-1320;0
2024-04-05 03:18:05;99;1320;-1320;0
2024-04-05 03:19:07;99;1320;-1320;0
2024-04-05 03:20:04;99;1320;-1320;0
2024-04-05 03:21:06;99;1320;-1320;0
2024-04-05 03:22:08;99;1320;-1320;0
2024-04-05 03:23:06;99;1320;-1320;0
2024-04-05 03:24:08;99;1320;-1320;0
2024-04-05 03:25:05;99;1320;-1320;0
2024-04-05 03:26:07;99;1320;-1320;0
2024-04-05 03:27:04;99;1320;-1320;0
2024-04-05 03:28:06;99;1320;-1320;0
2024-04-05 03:29:08;99;1320;-1320;0
2024-04-05 03:30:05;99;1320;-1320;0
2024-04-05 03:31:07;99;1320;-1320;0
2024-04-05 03:32:04;99;1320;-1320;0
2024-04-05 03:33:06;99;1320;-1320;0
2024-04-05 03:34:08;99;1320;-1320;0
2024-04-05 03:35:06;99;1320;-1320;0
2024-04-05 03:36:07;99;1320;-1320;0
2024-04-05 03:37:05;100;1320;-1320;0
2024-04-05 03:38:07;99;1320;-1320;0
2024-04-05 03:39:04;99;1320;-1320;0
2024-04-05 03:40:06;99;1320;-1320;0
2024-04-05 03:41:08;99;1320;-1320;0
2024-04-05 03:42:05;99;1320;-1320;0
2024-04-05 03:43:07;99;1320;-1320;0
2024-04-05 03:44:04;99;1320;-1320;0
2024-04-05 03:45:06;99;1320;-1320;0
2024-04-05 03:46:08;99;1320;-1320;0
2024-04-05 03:47:05;99;1320;-1320;0
2024-04-05 03:48:07;99;1320;-1320;0
2024-04-05 03:49:05;99;1320;-1320;0
2024-04-05 03:50:07;99;1320;-1320;0
2024-04-05 03:51:04;99;1320;-1320;0
2024-04-05 03:52:06;99;1320;-1320;0
2024-04-05 03:53:08;99;1320;-1320;0
2024-04-05 03:54:05;99;1320;-1320;0
2024-04-05 03:55:07;99;1320;-1320;0
2024-04-05 03:56:04;99;1320;-1320;0
2024-04-05 03:57:06;99;1320;-1320;0
2024-04-05 03:58:08;99;1320;-1320;0
2024-04-05 03:59:05;99;1320;-1320;0
2024-04-05 04:00:07;99;1320;-1320;0
2024-04-05 04:01:05;99;1320;-1320;0
2024-04-05 04:02:06;99;1320;-1320;0
2024-04-05 04:03:08;99;1320;-1320;0
2024-04-05 04:04:06;99;1320;-1320;0
2024-04-05 04:05:08;99;1320;-1320;0
2024-04-05 04:06:05;99;1320;-1320;0
2024-04-05 04:07:07;99;1320;-1320;0
2024-04-05 04:08:04;99;1320;-1320;0
2024-04-05 04:09:06;99;1320;-1320;0
2024-04-05 04:10:08;99;1320;-1320;0
2024-04-05 04:11:05;99;1320;-1320;0
2024-04-05 04:12:07;99;1320;-1320;0
2024-04-05 04:13:04;99;1320;-1320;0
2024-04-05 04:14:06;99;1320;-1320;0
2024-04-05 04:15:08;99;1320;-1320;0
2024-04-05 04:16:05;99;1320;-1320;0
2024-04-05 04:17:07;99;1320;-1320;0
2024-04-05 04:18:05;99;1320;-1320;0
2024-04-05 04:19:07;99;1320;-1320;0
2024-04-05 04:20:04;99;1320;-1320;0
2024-04-05 04:21:06;99;1320;-1320;0
2024-04-05 04:22:08;99;1320;-1320;0
2024-04-05 04:23:05;99;1320;-1320;0
2024-04-05 04:24:07;99;1320;-1320;0
2024-04-05 04:25:04;99;1320;-1320;0
2024-04-05 04:26:06;99;1320;-1320;0
2024-04-05 04:27:08;99;1320;-1320;0
2024-04-05 04:28:05;99;1320;-1320;0
2024-04-05 04:29:07;99;1320;-1320;0
2024-04-05 04:30:04;99;1320;-1320;0
2024-04-05 04:31:06;99;1320;-1320;0
2024-04-05 04:32:08;99;1320;-1320;0
2024-04-05 04:33:06;99;1320;-1320;0
2024-04-05 04:34:07;99;1320;-1320;0
2024-04-05 04:35:05;99;1320;-1320;0
2024-04-05 04:36:07;99;1320;-1320;0
2024-04-05 04:37:04;99;1320;-1320;0
2024-04-05 04:38:06;99;1320;-1320;0
2024-04-05 04:39:08;99;1320;-1320;0
2024-04-05 04:40:05;99;1320;-1320;0
2024-04-05 04:41:07;99;1320;-1320;0
2024-04-05 04:42:04;99;1320;-1320;0
2024-04-05 04:43:06;99;1320;-1320;0
2024-04-05 04:44:08;99;1320;-1320;0
2024-04-05 04:45:05;99;1320;-1320;0
2024-04-05 04:46:07;99;1320;-1320;0
2024-04-05 04:47:05;99;1320;-1320;0
2024-04-05 04:48:06;99;1320;-1320;0
2024-04-05 04:49:08;99;1320;-1320;0
2024-04-05 04:50:06;99;1320;-1320;0
2024-04-05 04:51:07;99;1320;-1320;0
2024-04-05 04:52:05;99;1320;-1320;0
2024-04-05 04:53:07;99;1320;-1320;0
2024-04-05 04:54:04;99;1320;-1320;0
2024-04-05 04:55:06;99;1320;-1320;0
2024-04-05 04:56:08;99;1320;-1320;0
2024-04-05 04:57:05;99;1320;-1320;0
2024-04-05 04:58:07;99;1320;-1320;0
2024-04-05 04:59:04;99;1320;-1320;0
2024-04-05 05:00:06;99;1320;-1320;0
2024-04-05 05:01:08;99;1320;-1320;0
2024-04-05 05:02:05;99;1320;-1320;0
2024-04-05 05:03:07;99;1320;-1320;0
2024-04-05 05:04:05;99;1320;-1320;0
2024-04-05 05:05:06;99;1320;-1320;0
2024-04-05 05:06:08;99;1320;-1320;0
2024-04-05 05:07:06;99;1320;-1320;0
2024-04-05 05:08:08;99;1320;-1320;0
2024-04-05 05:09:05;99;1320;-1320;0
2024-04-05 05:10:07;99;1320;-1320;0
2024-04-05 05:11:04;99;1320;-1320;0
2024-04-05 05:12:06;99;1320;-1320;0
2024-04-05 05:13:08;99;1320;-1320;0
2024-04-05 05:14:05;99;1320;-1320;0
2024-04-05 05:15:07;99;1320;-1320;0
2024-04-05 05:16:04;99;1320;-1320;0
2024-04-05 05:17:06;99;1320;-1320;0
2024-04-05 05:18:08;99;1320;-1320;0
2024-04-05 05:19:05;99;1320;-1320;0
2024-04-05 05:20:07;99;1320;-1320;0
2024-04-05 05:21:05;99;1320;-1320;0
2024-04-05 05:22:06;99;1320;-1320;0
2024-04-05 05:23:04;99;1320;-1320;0
2024-04-05 05:24:06;99;1320;-1320;0
2024-04-05 05:25:08;99;1320;-1320;0
2024-04-05 05:26:05;99;1320;-1320;0
2024-04-05 05:27:07;99;1320;-1320;0
2024-04-05 05:28:04;99;1320;-1320;0
2024-04-05 05:29:06;99;1320;-1320;0
2024-04-05 05:30:08;99;1320;-1320;0
2024-04-05 05:31:05;99;1320;-1320;0
2024-04-05 05:32:07;99;1320;-1320;0
2024-04-05 05:33:04;99;1320;-1320;0
2024-04-05 05:34:06;99;1320;-1320;0
2024-04-05 05:35:08;99;1320;-1320;0
2024-04-05 05:36:05;99;1320;-1320;0
2024-04-05 05:37:07;99;1320;-1320;0
2024-04-05 05:38:05;99;1320;-1320;0
2024-04-05 05:39:06;99;1320;-1320;0
2024-04-05 05:40:08;99;1320;-1320;0
2024-04-05 05:41:06;99;1320;-1320;0
2024-04-05 05:42:08;99;1320;-1320;0
2024-04-05 05:43:05;99;1320;-1320;0
2024-04-05 05:44:07;99;1320;-1320;0
2024-04-05 05:45:04;99;1320;-1320;0
2024-04-05 05:46:06;99;1320;-1320;0
2024-04-05 05:47:08;99;1320;-1320;0
2024-04-05 05:48:05;99;1320;-1320;0
2024-04-05 05:49:07;99;1320;-1320;0
2024-04-05 05:50:04;99;1320;-1320;0
2024-04-05 05:51:06;99;1320;-1320;0
2024-04-05 05:52:08;99;1320;-1320;0
2024-04-05 05:53:05;99;1320;-1320;0
2024-04-05 05:54:07;99;1320;-1320;0
2024-04-05 05:55:04;99;1320;-1320;0
2024-04-05 05:56:06;99;1320;-1320;0
2024-04-05 05:57:08;99;1320;-1320;0
2024-04-05 05:58:06;99;1320;-1320;0
2024-04-05 05:59:07;99;1320;-1320;0
2024-04-05 06:00:05;99;1320;-1320;0
2024-04-05 06:01:07;99;1320;-1320;0
2024-04-05 06:02:04;99;1320;-1320;0
2024-04-05 06:03:06;99;1320;-1320;0
2024-04-05 06:04:08;99;1320;-1320;0
2024-04-05 06:05:05;99;1320;-1320;0
2024-04-05 06:06:07;99;1320;-1320;0
2024-04-05 06:07:04;99;1320;-1320;0
2024-04-05 06:08:06;99;1320;-1320;0
2024-04-05 06:09:08;99;1320;-1320;0
2024-04-05 06:10:05;98;1320;-1320;0
2024-04-05 06:11:07;99;1320;-1320;0
2024-04-05 06:12:04;99;1320;-1320;0
2024-04-05 06:13:06;99;1320;-1320;0
2024-04-05 06:14:08;99;1320;-1320;0
2024-04-05 06:15:05;99;1320;-1320;0
2024-04-05 06:16:07;98;1320;-1320;0
2024-04-05 06:17:05;98;1320;-1320;0
2024-04-05 06:18:06;99;1320;-1320;0
2024-04-05 06:19:04;98;1320;-1320;0
2024-04-05 06:20:06;98;1320;-1320;0
2024-04-05 06:21:08;98;1320;-1320;0
2024-04-05 06:22:05;98;1320;-1320;0
2024-04-05 06:23:07;98;1320;-1320;0
2024-04-05 06:24:04;98;1320;-1320;0
2024-04-05 06:25:06;98;1320;-1320;0
2024-04-05 06:26:08;98;1320;-1320;0
2024-04-05 06:27:05;98;1320;-1320;0
2024-04-05 06:28:07;98;1320;-1320;0
2024-04-05 06:29:04;98;1320;-1320;0
2024-04-05 06:30:06;98;1320;-1320;0
2024-04-05 06:31:08;97;1320;-1320;0
2024-04-05 06:32:05;98;1320;-1320;0
2024-04-05 06:33:07;98;1320;-1320;0
2024-04-05 06:34:04;97;1320;-1320;0
2024-04-05 06:35:06;97;1320;-1320;0
2024-04-05 06:36:08;97;1320;-1320;0
2024-04-05 06:37:06;98;1320;-1320;0
2024-04-05 06:38:07;98;1320;-1320;0
2024-04-05 06:39:05;98;1320;-1320;0
2024-04-05 06:40:07;98;1320;-1320;0
2024-04-05 06:41:04;98;1320;-1320;0
2024-04-05 06:42:06;98;1320;-1320;0
2024-04-05 06:43:08;98;1320;-1320;0
2024-04-05 06:44:05;97;1320;-1320;0
2024-04-05 06:45:07;98;1320;-1320;0
2024-04-05 06:46:04;98;1320;-1320;0
2024-04-05 06:47:06;98;1320;-1320;0
2024-04-05 06:48:08;98;1320;-1320;0
2024-04-05 06:49:05;98;1320;-1320;0
2024-04-05 06:50:07;98;1320;-1320;0
2024-04-05 06:51:04;98;1320;-1320;0
2024-04-05 06:52:06;98;1320;-1320;0
2024-04-05 06:53:08;98;1320;-1320;0
2024-04-05 06:54:05;98;1320;-1320;0
2024-04-05 06:55:07;98;1320;-1320;0
2024-04-05 06:56:04;98;1320;-1320;0
2024-04-05 06:57:06;98;1320;-1320;0
2024-04-05 06:58:08;98;1320;-1320;0
2024-04-05 06:59:06;98;1320;-1320;0
2024-04-05 07:00:07;98;1320;-1320;0
2024-04-05 07:01:05;98;1320;-1320;0
2024-04-05 07:02:07;98;1320;-1320;0
2024-04-05 07:03:04;98;1320;-1320;0
2024-04-05 07:04:06;98;1320;-1320;0
2024-04-05 07:05:08;98;1320;-1320;0
2024-04-05 07:06:05;98;1320;-1320;0
2024-04-05 07:07:07;98;1320;-1320;0
2024-04-05 07:08:04;98;1320;-1320;0
2024-04-05 07:09:06;98;1320;-1320;0
2024-04-05 07:10:08;98;1320;-1320;0
2024-04-05 07:11:05;98;1320;-1320;0
2024-04-05 07:12:07;98;1320;-1320;0
2024-04-05 07:13:04;98;1320;-1320;0
2024-04-05 07:14:06;98;1320;-1320;0
2024-04-05 07:15:08;98;1320;-1320;0
2024-04-05 07:16:05;98;1320;-1320;0
2024-04-05 07:17:07;98;1320;-1320;0
2024-04-05 07:18:04;98;1320;-1320;0
2024-04-05 07:19:06;98;1320;-1320;0
2024-04-05 07:20:08;98;1320;-1320;0
2024-04-05 07:21:05;98;1320;-1320;0
2024-04-05 07:22:07;98;1320;-1320;0
2024-04-05 07:23:05;98;1320;-1320;0
2024-04-05 07:24:07;98;1320;-1320;0
2024-04-05 07:25:04;98;1320;-1320;0
2024-04-05 07:26:06;98;1320;-1320;0
2024-04-05 07:27:08;98;1320;-1320;0
2024-04-05 07:28:05;98;1320;-1320;0
2024-04-05 07:29:07;98;1320;-1320;0
2024-04-05 07:30:04;98;1320;-1320;0
2024-04-05 07:31:06;98;1320;-1320;0
2024-04-05 07:32:08;98;1320;-1320;0
2024-04-05 07:33:05;98;1320;-1320;0
2024-04-05 07:34:07;98;1320;-1320;0
2024-04-05 07:35:04;98;1320;-1320;0
2024-04-05 07:36:06;98;1320;-1320;0
2024-04-05 07:37:08;98;1320;-1320;0
2024-04-05 07:38:05;98;1320;-1320;0
2024-04-05 07:39:07;98;1320;-1320;0
2024-04-05 07:40:04;98;1320;-1320;0
2024-04-05 07:41:06;98;1320;-1320;0
2024-04-05 07:42:08;98;1320;-1320;0
2024-04-05 07:43:05;98;1320;-1320;0
2024-04-05 07:44:07;98;1320;-1320;0
2024-04-05 07:45:05;98;1320;-1320;0
2024-04-05 07:46:07;98;1320;-1320;0
2024-04-05 07:47:04;98;1320;-1320;0
2024-04-05 07:48:06;98;1320;-1320;0
2024-04-05 07:49:08;98;1320;-1320;0
2024-04-05 07:50:05;98;1320;-1320;0
2024-04-05 07:51:07;98;1320;-1320;0
2024-04-05 07:52:04;98;1320;-1320;0
2024-04-05 07:53:06;98;1320;-1320;0
2024-04-05 07:54:08;98;1320;-1320;0
2024-04-05 07:55:05;98;1320;-1320;0
2024-04-05 07:56:07;98;1320;-1320;0
2024-04-05 07:57:04;98;1320;-1320;0
2024-04-05 07:58:06;98;1320;-1320;0
2024-04-05 07:59:08;98;1320;-1320;0
2024-04-05 08:00:05;98;1320;-1320;0
2024-04-05 08:01:07;98;1320;-1320;0
2024-04-05 08:02:05;97;1320;-1320;0
2024-04-05 08:03:06;98;1320;-1320;0
2024-04-05 08:04:08;98;1320;-1320;0
2024-04-05 08:05:06;98;1320;-1320;0
2024-04-05 08:06:07;98;1320;-1320;0
2024-04-05 08:07:05;98;1320;-1320;0
2024-04-05 08:08:07;98;1320;-1320;0
2024-04-05 08:09:04;98;1320;-1320;0
2024-04-05 08:10:06;98;1320;-1320;0
2024-04-05 08:11:08;98;1320;-1320;0
2024-04-05 08:12:05;98;1320;-1320;0
2024-04-05 08:13:07;98;1320;-1320;0
2024-04-05 08:14:04;98;1320;-1320;0
2024-04-05 08:15:06;98;1320;-1320;0
2024-04-05 08:16:08;98;1320;-1320;0
2024-04-05 08:17:05;98;1320;-1320;0
2024-04-05 08:18:07;98;1320;-1320;0
2024-04-05 08:19:04;98;1320;-1320;0
2024-04-05 08:20:06;98;1320;-1320;0
2024-04-05 08:21:08;98;1320;-1320;0
2024-04-05 08:22:06;98;1320;-1320;0
2024-04-05 08:23:07;97;1320;-1320;0
2024-04-05 08:24:05;98;1320;-1320;0
2024-04-05 08:25:07;98;1320;-1320;0
2024-04-05 08:26:04;98;1320;-1320;0
2024-04-05 08:27:06;98;1320;-1320;0
2024-04-05 08:28:08;98;1320;-1320;0
2024-04-05 08:29:05;98;1320;-1320;0
2024-04-05 08:30:07;98;1320;-1320;0
2024-04-05 08:31:04;98;1320;-1320;0
2024-04-05 08:32:06;98;1320;-1320;0
2024-04-05 08:33:08;98;1320;-1320;0
2024-04-05 08:34:05;98;1320;-1320;0
2024-04-05 08:35:07;98;1320;-1320;0
2024-04-05 08:36:05;98;1320;-1320;0
2024-04-05 08:37:07;97;1320;-1320;0
2024-04-05 08:38:04;97;1320;-1320;0
2024-04-05 08:39:06;97;1320;-1320;0
2024-04-05 08:40:08;97;1320;-1320;0
2024-04-05 08:41:05;98;1320;-1320;0
2024-04-05 08:42:07;98;1320;-1320;0
2024-04-05 08:43:04;97;1320;-1320;0
2024-04-05 08:44:06;97;1320;-1320;0
2024-04-05 08:45:08;97;1320;-1320;0
2024-04-05 08:46:06;97;1320;-1320;0
2024-04-05 08:47:07;97;1320;-1320;0
2024-04-05 08:48:05;97;1320;-1320;0
2024-04-05 08:49:07;97;1320;-1320;0
2024-04-05 08:50:04;97;1320;-1320;0
2024-04-05 08:51:06;97;1320;-1320;0
2024-04-05 08:52:08;97;1320;-1320;0
2024-04-05 08:53:05;98;1320;-1320;0
2024-04-05 08:54:07;98;1320;-1320;0
2024-04-05 08:55:05;98;1320;-1320;0
2024-04-05 08:56:07;98;1320;-1320;0
2024-04-05 08:57:04;98;1320;-1320;0
2024-04-05 08:58:06;98;1320;-1320;0
2024-04-05 08:59:08;98;1320;-1320;0
2024-04-05 09:00:05;98;1320;-1320;0
2024-04-05 09:01:07;98;1320;-1320;0
2024-04-05 09:02:05;98;1320;-1320;0
2024-04-05 09:03:07;98;1320;-1320;0
2024-04-05 09:04:04;98;1320;-1320;0
2024-04-05 09:05:06;98;1320;-1320;0
2024-04-05 09:06:08;98;1320;-1320;0
2024-04-05 09:07:05;98;1320;-1320;0
2024-04-05 09:08:07;98;1320;-1320;0
2024-04-05 09:09:05;98;1320;-1320;0
2024-04-05 09:10:07;98;1320;-1320;0
2024-04-05 09:11:04;98;1320;-1320;0
2024-04-05 09:12:06;98;1320;-1320;0
2024-04-05 09:13:08;98;1320;-1320;0
2024-04-05 09:14:05;98;1320;-1320;0
2024-04-05 09:15:07;98;1320;-1320;0
2024-04-05 09:16:05;98;1320;-1320;0
2024-04-05 09:17:07;99;1320;-1320;0
2024-04-05 09:18:04;99;1320;-1320;0
2024-04-05 09:19:06;99;1320;-1320;0
2024-04-05 09:20:08;99;1320;-1320;0
2024-04-05 09:21:06;99;1320;-1320;0
2024-04-05 09:22:08;99;1320;-1320;0
2024-04-05 09:23:05;99;1320;-1320;0
2024-04-05 09:24:07;99;1320;-1320;0
2024-04-05 09:25:05;99;1320;-1320;0
2024-04-05 09:26:07;100;1320;-1320;0
2024-04-05 09:27:04;100;1320;-1320;0
2024-04-05 09:28:06;100;1320;-1320;0
2024-04-05 09:29:08;99;1320;-1320;0
2024-04-05 09:30:05;100;1320;-1320;0
2024-04-05 09:31:08;100;1320;-1320;0
2024-04-05 09:32:05;100;1320;-1320;0
2024-04-05 09:33:07;100;1320;-1320;0
2024-04-05 09:34:04;100;1320;-1320;0
2024-04-05 09:35:07;100;1320;-1320;0
2024-04-05 09:36:04;100;1320;-1320;0
2024-04-05 09:37:06;100;1320;-1320;0
2024-04-05 09:38:08;100;1320;-1320;0
2024-04-05 09:39:06;100;1320;-1320;0
2024-04-05 09:40:08;100;1320;-1320;0
2024-04-05 09:41:05;100;1320;-1320;0
2024-04-05 09:42:07;100;1320;-1320;0
2024-04-05 09:43:05;100;1320;-1320;0
2024-04-05 09:44:07;100;1320;-1320;0
2024-04-05 09:45:04;100;1320;-1320;0
2024-04-05 09:46:06;100;1320;-1320;0
2024-04-05 09:47:08;100;1320;-1320;0
2024-04-05 09:48:06;100;1320;-1320;0
2024-04-05 09:49:08;100;1320;-1320;0
2024-04-05 09:50:05;100;1320;-1320;0
2024-04-05 09:51:08;100;1320;-1320;0
2024-04-05 09:52:05;100;1320;-1320;0
2024-04-05 09:53:07;100;1320;-1320;0
2024-04-05 09:54:05;100;1320;-1320;0
2024-04-05 09:55:07;100;1320;-1320;0
2024-04-05 09:56:04;100;1320;-1320;0
2024-04-05 09:57:07;100;1320;-1320;0
2024-04-05 09:58:04;100;1320;-1320;0
2024-04-05 09:59:06;100;1320;-1320;0
2024-04-05 10:00:09;100;1320;-1320;0
2024-04-05 10:01:06;100;1320;-1320;0
2024-04-05 10:02:08;100;1320;-1320;0
2024-04-05 10:03:06;100;1320;-1320;0
2024-04-05 10:04:08;100;1320;-1320;0
2024-04-05 10:05:06;100;1320;-1320;0
2024-04-05 10:06:08;100;1320;-1320;0
2024-04-05 10:07:06;100;1320;-1320;0
2024-04-05 10:08:08;100;1320;-1320;0
2024-04-05 10:09:05;100;1320;-1320;0
2024-04-05 10:10:08;100;1320;-1320;0
2024-04-05 10:11:05;100;1320;-1320;0
2024-04-05 10:12:07;100;1320;-1320;0
2024-04-05 10:13:05;100;1320;-1320;0
2024-04-05 10:14:07;100;1320;-1320;0
2024-04-05 10:15:05;100;1320;-1320;0
2024-04-05 10:16:07;100;1320;-1320;0
2024-04-05 10:17:05;100;1320;-1320;0
2024-04-05 10:18:07;100;1320;-1320;0
2024-04-05 10:19:05;100;1320;-1320;0
2024-04-05 10:20:07;100;1320;-1320;0
2024-04-05 10:21:05;100;1320;-1320;0
2024-04-05 10:22:07;100;1320;-1320;0
2024-04-05 10:23:05;100;1320;-1320;0
2024-04-05 10:24:07;100;1320;-1320;0
2024-04-05 10:25:04;100;1320;-1320;0
2024-04-05 10:26:07;100;1320;-1320;0
2024-04-05 10:27:04;100;1320;-1320;0
2024-04-05 10:28:07;100;1320;-1320;0
2024-04-05 10:29:04;100;1320;-1320;0
2024-04-05 10:30:06;100;1320;-1320;0
2024-04-05 10:31:04;100;1320;-1320;0
2024-04-05 10:32:06;100;1320;-1320;0
2024-04-05 10:33:09;100;1320;-1320;0
2024-04-05 10:34:06;100;1320;-1320;0
2024-04-05 10:35:09;100;1320;-1320;0
2024-04-05 10:36:06;100;1320;-1320;0
2024-04-05 10:37:09;100;1320;-1320;0
2024-04-05 10:38:06;100;1320;-1320;0
2024-04-05 10:39:09;100;1320;-1320;0
2024-04-05 10:40:06;100;1320;-1320;0
2024-04-05 10:41:09;100;1320;-1320;0
2024-04-05 10:42:06;100;1320;-1320;0
2024-04-05 10:43:09;100;1320;-1320;0
2024-04-05 10:44:06;100;1320;-1320;0
2024-04-05 10:45:09;100;1320;-1320;0
2024-04-05 10:46:06;100;1320;-1320;0
2024-04-05 10:47:08;100;1320;-1320;0
2024-04-05 10:48:06;100;1320;-1320;0
2024-04-05 10:49:08;100;1320;-1320;0
2024-04-05 10:50:06;100;1320;-1320;0
2024-04-05 10:51:08;100;1320;-1320;0
2024-04-05 10:52:06;100;1320;-1320;0
2024-04-05 10:53:08;100;1320;-1320;0
2024-04-05 10:54:06;100;1320;-1320;0
2024-04-05 10:55:08;100;1320;-1320;0
2024-04-05 10:56:06;100;1320;-1320;0
2024-04-05 10:57:08;100;1320;-1320;0
2024-04-05 10:58:06;100;1320;-1320;0
2024-04-05 10:59:09;100;1320;-1320;0
2024-04-05 11:00:06;100;1320;-1320;0
2024-04-05 11:01:09;100;1320;-1320;0
2024-04-05 11:02:06;100;1320;-1320;0
2024-04-05 11:03:09;100;1320;-1320;0
2024-04-05 11:04:06;100;1320;-1320;0
2024-04-05 11:05:09;100;1320;-1320;0
2024-04-05 11:06:07;100;1320;-1320;0
2024-04-05 11:07:04;100;1320;-1320;0
2024-04-05 11:08:07;100;1320;-1320;0
2024-04-05 11:09:05;100;1320;-1320;0
2024-04-05 11:10:07;100;1320;-1320;0
2024-04-05 11:11:05;100;1320;-1320;0
2024-04-05 11:12:07;100;1320;-1320;0
2024-04-05 11:13:05;100;1320;-1320;0
2024-04-05 11:14:07;100;1320;-1320;0
2024-04-05 11:15:05;100;1320;-1320;0
2024-04-05 11:16:07;100;1320;-1320;0
2024-04-05 11:17:05;100;1320;-1320;0
2024-04-05 11:18:08;100;1320;-1320;0
2024-04-05 11:19:05;100;1320;-1320;0
2024-04-05 11:20:08;100;1320;-1320;0
2024-04-05 11:21:06;100;1320;-1320;0
2024-04-05 11:22:08;100;1320;-1320;0
2024-04-05 11:23:06;100;1320;-1320;0
2024-04-05 11:24:08;100;1320;-1320;0
2024-04-05 11:25:06;100;1320;-1320;0
2024-04-05 11:26:08;100;1320;-1320;0
2024-04-05 11:27:06;100;1320;-1320;0
2024-04-05 11:28:09;100;1320;-1320;0
2024-04-05 11:29:06;100;1320;-1320;0
2024-04-05 11:30:09;100;1320;-1320;0
2024-04-05 11:31:07;100;1320;-1320;0
2024-04-05 11:32:04;100;1320;-1320;0
2024-04-05 11:33:07;100;1320;-1320;0
2024-04-05 11:34:04;100;1320;-1320;0
2024-04-05 11:35:07;100;1320;-1320;0
2024-04-05 11:36:05;100;1320;-1320;0
2024-04-05 11:37:07;100;1320;-1320;0
2024-04-05 11:38:05;100;1320;-1320;0
2024-04-05 11:39:07;100;1320;-1320;0
2024-04-05 11:40:05;100;1320;-1320;0
2024-04-05 11:41:07;100;1320;-1320;0
2024-04-05 11:42:05;100;1320;-1320;0
2024-04-05 11:43:07;100;1320;-1320;0
2024-04-05 11:44:05;100;1320;-1320;0
2024-04-05 11:45:07;100;1320;-1320;0
2024-04-05 11:46:05;100;1320;-1320;0
2024-04-05 11:47:08;100;1320;-1320;0
2024-04-05 11:48:05;100;1320;-1320;0
2024-04-05 11:49:08;100;1320;-1320;0
2024-04-05 11:50:05;100;1320;-1320;0
2024-04-05 11:51:08;100;1320;-1320;0
2024-04-05 11:52:06;100;1320;-1320;0
2024-04-05 11:53:08;100;1320;-1320;0
2024-04-05 11:54:06;100;1320;-1320;0
2024-04-05 11:55:08;100;1320;-1320;0
2024-04-05 11:56:06;100;1320;-1320;0
2024-04-05 11:57:08;100;1320;-1320;0
2024-04-05 11:58:06;100;1320;-1320;0
2024-04-05 11:59:08;100;1320;-1320;0
2024-04-05 12:00:06;100;1320;-1320;0
2024-04-05 12:01:08;100;1320;-1320;0
2024-04-05 12:02:06;100;1320;-1320;0
2024-04-05 12:03:09;100;1320;-1320;0
2024-04-05 12:04:06;100;1320;-1320;0
2024-04-05 12:05:09;100;1320;-1320;0
2024-04-05 12:06:06;100;1320;-1320;0
2024-04-05 12:07:09;100;1320;-1320;0
2024-04-05 12:08:07;100;1320;-1320;0
2024-04-05 12:09:04;100;1320;-1320;0
2024-04-05 12:10:07;100;1320;-1320;0
2024-04-05 12:11:04;100;1320;-1320;0
2024-04-05 12:12:07;100;1320;-1320;0
2024-04-05 12:13:05;100;1320;-1320;0
2024-04-05 12:14:07;100;1320;-1320;0
2024-04-05 12:15:05;100;1320;-1320;0
2024-04-05 12:16:07;100;1320;-1320;0
2024-04-05 12:17:05;100;1320;-1320;0
2024-04-05 12:18:07;100;1320;-1320;0
2024-04-05 12:19:05;100;1320;-1320;0
2024-04-05 12:20:07;100;1320;-1320;0
2024-04-05 12:21:05;100;1320;-1320;0
2024-04-05 12:22:07;100;1320;-1320;0
2024-04-05 12:23:05;100;1320;-1320;0
2024-04-05 12:24:08;100;1320;-1320;0
2024-04-05 12:25:05;100;1320;-1320;0
2024-04-05 12:26:08;100;1320;-1320;0
2024-04-05 12:27:05;100;1320;-1320;0
2024-04-05 12:28:08;100;1320;-1320;0
2024-04-05 12:29:06;100;1320;-1320;0
2024-04-05 12:30:08;100;1320;-1320;0
2024-04-05 12:31:06;100;1320;-1320;0
2024-04-05 12:32:08;100;1320;-1320;0
2024-04-05 12:33:06;100;1320;-1320;0
2024-04-05 12:34:08;100;1320;-1320;0
2024-04-05 12:35:06;100;1320;-1320;0
2024-04-05 12:36:08;100;1320;-1320;0
2024-04-05 12:37:06;100;1320;-1320;0
2024-04-05 12:38:09;100;1320;-1320;0
2024-04-05 12:39:06;100;1320;-1320;0
2024-04-05 12:40:09;100;1320;-1320;0
2024-04-05 12:41:07;100;1320;-1320;0
2024-04-05 12:42:04;100;1320;-1320;0
2024-04-05 12:43:07;100;1320;-1320;0
2024-04-05 12:44:05;100;1320;-1320;0
2024-04-05 12:45:07;100;1320;-1320;0
2024-04-05 12:46:05;100;1320;-1320;0
2024-04-05 12:47:07;100;1320;-1320;0
2024-04-05 12:48:05;100;1320;-1320;0
2024-04-05 12:49:07;100;1320;-1320;0
2024-04-05 12:50:05;100;1320;-1320;0
2024-04-05 12:51:07;100;1320;-1320;0
2024-04-05 12:52:05;100;1320;-1320;0
2024-04-05 12:53:08;100;1320;-1320;0
2024-04-05 12:54:05;100;1320;-1320;0
2024-04-05 12:55:08;100;1320;-1320;0
2024-04-05 12:56:06;100;1320;-1320;0
2024-04-05 12:57:08;100;1320;-1320;0
2024-04-05 12:58:06;100;1320;-1320;0
2024-04-05 12:59:08;100;1320;-1320;0
2024-04-05 13:00:06;100;1320;-1320;0
2024-04-05 13:01:08;100;1320;-1320;0
2024-04-05 13:02:06;100;1320;-1320;0
2024-04-05 13:03:09;100;1320;-1320;0
2024-04-05 13:04:06;100;1320;-1320;0
2024-04-05 13:05:09;100;1320;-1320;0
2024-04-05 13:06:07;100;1320;-1320;0
2024-04-05 13:07:04;100;1320;-1320;0
2024-04-05 13:08:07;100;1320;-1320;0
2024-04-05 13:09:05;100;1320;-1320;0
2024-04-05 13:10:07;100;1320;-1320;0
2024-04-05 13:11:05;100;1320;-1320;0
2024-04-05 13:12:07;100;1320;-1320;0
2024-04-05 13:13:05;100;1320;-1320;0
2024-04-05 13:14:07;100;1320;-1320;0
2024-04-05 13:15:05;100;1320;-1320;0
2024-04-05 13:16:08;100;1320;-1320;0
2024-04-05 13:17:05;100;1320;-1320;0
2024-04-05 13:18:08;100;1320;-1320;0
2024-04-05 13:19:06;100;1320;-1320;0
2024-04-05 13:20:08;100;1320;-1320;0
2024-04-05 13:21:06;100;1320;-1320;0
2024-04-05 13:22:08;100;1320;-1320;0
2024-04-05 13:23:06;100;1320;-1320;0
2024-04-05 13:24:08;100;1320;-1320;0
2024-04-05 13:25:06;100;1320;-1320;0
2024-04-05 13:26:09;100;1320;-1320;0
2024-04-05 13:27:07;100;1320;-1320;0
2024-04-05 13:28:04;100;1320;-1320;0
2024-04-05 13:29:07;100;1320;-1320;0
2024-04-05 13:30:05;100;1320;-1320;0
2024-04-05 13:31:07;100;1320;-1320;0
2024-04-05 13:32:05;100;1320;-1320;0
2024-04-05 13:33:07;100;1320;-1320;0
2024-04-05 13:34:05;100;1320;-1320;0
2024-04-05 13:35:07;100;1320;-1320;0
2024-04-05 13:36:05;100;1320;-1320;0
2024-04-05 13:37:08;100;1320;-1320;0
2024-04-05 13:38:05;100;1320;-1320;0
2024-04-05 13:39:08;100;1320;-1320;0
2024-04-05 13:40:06;100;1320;-1320;0
2024-04-05 13:41:08;100;1320;-1320;0
2024-04-05 13:42:06;100;1320;-1320;0
2024-04-05 13:43:08;100;1320;-1320;0
2024-04-05 13:44:06;100;1320;-1320;0
2024-04-05 13:45:09;100;1320;-1320;0
2024-04-05 13:46:06;100;1320;-1320;0
2024-04-05 13:47:09;100;1320;-1320;0
2024-04-05 13:48:07;100;1320;-1320;0
2024-04-05 13:49:04;100;1320;-1320;0
2024-04-05 13:50:07;100;1320;-1320;0
2024-04-05 13:51:05;100;1320;-1320;0
2024-04-05 13:52:07;100;1320;-1320;0
2024-04-05 13:53:05;100;1320;-1320;0
2024-04-05 13:54:07;100;1320;-1320;0
2024-04-05 13:55:05;100;1320;-1320;0
2024-04-05 13:56:08;100;1320;-1320;0
2024-04-05 13:57:05;100;1320;-1320;0
2024-04-05 13:58:08;100;1320;-1320;0
2024-04-05 13:59:06;100;1320;-1320;0
2024-04-05 14:00:08;100;1320;-1320;0
2024-04-05 14:01:06;100;1320;-1320;0
2024-04-05 14:02:08;100;1320;-1320;0
2024-04-05 14:03:06;100;1320;-1320;0
2024-04-05 14:04:09;100;1320;-1320;0
2024-04-05 14:05:07;100;1320;-1320;0
2024-04-05 14:06:04;100;1320;-1320;0
2024-04-05 14:07:07;100;1320;-1320;0
2024-04-05 14:08:05;100;1320;-1320;0
2024-04-05 14:09:07;100;1320;-1320;0
2024-04-05 14:10:05;100;1320;-1320;0
2024-04-05 14:11:07;100;1320;-1320;0
2024-04-05 14:12:05;100;1320;-1320;0
2024-04-05 14:13:08;100;1320;-1320;0
2024-04-05 14:14:06;100;1320;-1320;0
2024-04-05 14:15:08;100;1320;-1320;0
2024-04-05 14:16:06;100;1320;-1320;0
2024-04-05 14:17:08;100;1320;-1320;0
2024-04-05 14:18:06;100;1320;-1320;0
2024-04-05 14:19:09;100;1320;-1320;0
2024-04-05 14:20:07;100;1320;-1320;0
2024-04-05 14:21:04;100;1320;-1320;0
2024-04-05 14:22:07;100;1320;-1320;0
2024-04-05 14:23:05;100;1320;-1320;0
2024-04-05 14:24:07;100;1320;-1320;0
2024-04-05 14:25:05;100;1320;-1320;0
2024-04-05 14:26:08;100;1320;-1320;0
2024-04-05 14:27:05;100;1320;-1320;0
2024-04-05 14:28:08;100;1320;-1320;0
2024-04-05 14:29:06;100;1320;-1320;0
2024-04-05 14:30:08;100;1320;-1320;0
2024-04-05 14:31:06;100;1320;-1320;0
2024-04-05 14:32:09;100;1320;-1320;0
2024-04-05 14:33:06;100;1320;-1320;0
2024-04-05 14:34:09;100;1320;-1320;0
2024-04-05 14:35:07;100;1320;-1320;0
2024-04-05 14:36:05;100;1320;-1320;0
2024-04-05 14:37:07;100;1320;-1320;0
2024-04-05 14:38:05;100;1320;-1320;0
2024-04-05 14:39:07;100;1320;-1320;0
2024-04-05 14:40:05;100;1320;-1320;0
2024-04-05 14:41:08;100;1320;-1320;0
2024-04-05 14:42:06;100;1320;-1320;0
2024-04-05 14:43:08;100;1320;-1320;0
2024-04-05 14:44:06;100;1320;-1320;0
2024-04-05 14:45:08;100;1320;-1320;0
2024-04-05 14:46:06;100;1320;-1320;0
2024-04-05 14:47:09;100;1320;-1320;0
2024-04-05 14:48:07;100;1320;-1320;0
2024-04-05 14:49:05;100;1320;-1320;0
2024-04-05 14:50:07;100;1320;-1320;0
2024-04-05 14:51:05;100;1320;-1320;0
2024-04-05 14:52:07;100;1320;-1320;0
2024-04-05 14:53:05;100;1320;-1320;0
2024-04-05 14:54:08;100;1320;-1320;0
2024-04-05 14:55:06;100;1320;-1320;0
2024-04-05 14:56:08;100;1320;-1320;0
2024-04-05 14:57:06;100;1320;-1320;0
2024-04-05 14:58:08;100;1320;-1320;0
2024-04-05 14:59:06;100;1320;-1320;0
2024-04-05 15:00:09;100;1320;-1320;0
2024-04-05 15:01:07;100;1320;-1320;0
2024-04-05 15:02:05;100;1320;-1320;0
2024-04-05 15:03:07;100;1320;-1320;0
2024-04-05 15:04:05;100;1320;-1320;0
2024-04-05 15:05:07;100;1320;-1320;0
2024-04-05 15:06:05;100;1320;-1320;0
2024-04-05 15:07:08;100;1320;-1320;0
2024-04-05 15:08:06;100;1320;-1320;0
2024-04-05 15:09:08;100;1320;-1320;0
2024-04-05 15:10:06;100;1320;-1320;0
2024-04-05 15:11:09;100;1320;-1320;0
2024-04-05 15:12:06;100;1320;-1320;0
2024-04-05 15:13:09;100;1320;-1320;0
2024-04-05 15:14:07;100;1320;-1320;0
2024-04-05 15:15:05;100;1320;-1320;0
2024-04-05 15:16:07;100;1320;-1320;0
2024-04-05 15:17:05;100;1320;-1320;0
2024-04-05 15:18:08;100;1320;-1320;0
2024-04-05 15:19:06;100;1320;-1320;0
2024-04-05 15:20:08;100;1320;-1320;0
2024-04-05 15:21:06;100;1320;-1320;0
2024-04-05 15:22:08;100;1320;-1320;0
2024-04-05 15:23:06;100;1320;-1320;0
2024-04-05 15:24:09;100;1320;-1320;0
2024-04-05 15:25:07;100;1320;-1320;0
2024-04-05 15:26:05;100;1320;-1320;0
2024-04-05 15:27:07;100;1320;-1320;0
2024-04-05 15:28:05;100;1320;-1320;0
2024-04-05 15:29:08;100;1320;-1320;0
2024-04-05 15:30:05;100;1320;-1320;0
2024-04-05 15:31:08;100;1320;-1320;0
2024-04-05 15:32:06;100;1320;-1320;0
2024-04-05 15:33:08;100;1320;-1320;0
2024-04-05 15:34:06;100;1320;-1320;0
2024-04-05 15:35:09;100;1320;-1320;0
2024-04-05 15:36:07;100;1320;-1320;0
2024-04-05 15:37:05;100;1320;-1320;0
2024-04-05 15:38:07;100;1320;-1320;0
2024-04-05 15:39:05;100;1320;-1320;0
2024-04-05 15:40:08;100;1320;-1320;0
2024-04-05 15:41:06;100;1320;-1320;0
2024-04-05 15:42:08;100;1320;-1320;0
2024-04-05 15:43:06;100;1320;-1320;0
2024-04-05 15:44:09;100;1320;-1320;0
2024-04-05 15:45:07;100;1320;-1320;0
2024-04-05 15:46:04;100;1320;-1320;0
2024-04-05 15:47:07;100;1320;-1320;0
2024-04-05 15:48:05;100;1320;-1320;0
2024-04-05 15:49:08;100;1320;-1320;0
2024-04-05 15:50:05;100;1320;-1320;0
2024-04-05 15:51:08;100;1320;-1320;0
2024-04-05 15:52:06;100;1320;-1320;0
2024-04-05 15:53:08;100;1320;-1320;0
2024-04-05 15:54:06;100;1320;-1320;0
2024-04-05 15:55:09;100;1320;-1320;0
2024-04-05 15:56:07;100;1320;-1320;0
2024-04-05 15:57:05;100;1320;-1320;0
2024-04-05 15:58:07;100;1320;-1320;0
2024-04-05 15:59:05;100;1320;-1320;0
2024-04-05 16:00:08;100;1320;-1320;0
2024-04-05 16:01:06;100;1320;-1320;0
2024-04-05 16:02:08;100;1320;-1320;0
2024-04-05 16:03:06;100;1320;-1320;0
2024-04-05 16:04:09;100;1320;-1320;0
2024-04-05 16:05:07;100;1320;-1320;0
2024-04-05 16:06:04;100;1320;-1320;0
2024-04-05 16:07:07;100;1320;-1320;0
2024-04-05 16:08:05;100;1320;-1320;0
2024-04-05 16:09:07;100;1320;-1320;0
2024-04-05 16:10:05;100;1320;-1320;0
2024-04-05 16:11:08;100;1320;-1320;0
2024-04-05 16:12:06;100;1320;-1320;0
2024-04-05 16:13:08;100;1320;-1320;0
2024-04-05 16:14:06;100;1320;-1320;0
2024-04-05 16:15:09;100;1320;-1320;0
2024-04-05 16:16:06;100;1320;-1320;0
2024-04-05 16:17:04;100;1320;-1320;0
2024-04-05 16:18:07;100;1320;-1320;0
2024-04-05 16:19:05;100;1320;-1320;0
2024-04-05 16:20:07;100;1320;-1320;0
2024-04-05 16:21:05;100;1320;-1320;0
2024-04-05 16:22:08;100;1320;-1320;0
2024-04-05 16:23:06;100;1320;-1320;0
2024-04-05 16:24:08;100;1320;-1320;0
2024-04-05 16:25:06;100;1320;-1320;0
2024-04-05 16:26:09;100;1320;-1320;0
2024-04-05 16:27:06;100;1320;-1320;0
2024-04-05 16:28:04;100;1320;-1320;0
2024-04-05 16:29:07;100;1320;-1320;0
2024-04-05 16:30:05;100;1320;-1320;0
2024-04-05 16:31:07;100;1320;-1320;0
2024-04-05 16:32:05;100;1320;-1320;0
2024-04-05 16:33:08;100;1320;-1320;0
2024-04-05 16:34:06;100;1320;-1320;0
2024-04-05 16:35:08;100;1320;-1320;0
2024-04-05 16:36:06;100;1320;-1320;0
2024-04-05 16:37:08;100;1320;-1320;0
2024-04-05 16:38:06;100;1320;-1320;0
2024-04-05 16:39:09;100;1320;-1320;0
2024-04-05 16:40:06;100;1320;-1320;0
2024-04-05 16:41:09;100;1320;-1320;0
2024-04-05 16:42:07;100;1320;-1320;0
2024-04-05 16:43:04;100;1320;-1320;0
2024-04-05 16:44:07;100;1320;-1320;0
2024-04-05 16:45:04;100;1320;-1320;0
2024-04-05 16:46:07;100;1320;-1320;0
2024-04-05 16:47:05;100;1320;-1320;0
2024-04-05 16:48:07;100;1320;-1320;0
2024-04-05 16:49:05;100;1320;-1320;0
2024-04-05 16:50:07;100;1320;-1320;0
2024-04-05 16:51:05;100;1320;-1320;0
2024-04-05 16:52:07;100;1320;-1320;0
2024-04-05 16:53:05;100;1320;-1320;0
2024-04-05 16:54:07;100;1320;-1320;0
2024-04-05 16:55:05;100;1320;-1320;0
2024-04-05 16:56:07;100;1320;-1320;0
2024-04-05 16:57:05;100;1320;-1320;0
2024-04-05 16:58:07;100;1320;-1320;0
2024-04-05 16:59:05;100;1320;-1320;0
2024-04-05 17:00:07;100;1320;-1320;0
2024-04-05 17:01:04;100;1320;-1320;0
2024-04-05 17:02:07;100;1320;-1320;0
2024-04-05 17:03:04;100;1320;-1320;0
2024-04-05 17:04:07;100;1320;-1320;0
2024-04-05 17:05:04;100;1320;-1320;0
2024-04-05 17:06:07;100;1320;-1320;0
2024-04-05 17:07:04;100;1320;-1320;0
2024-04-05 17:08:06;100;1320;-1320;0
2024-04-05 17:09:09;100;1320;-1320;0
2024-04-05 17:10:06;100;1320;-1320;0
2024-04-05 17:11:09;100;1320;-1320;0
2024-04-05 17:12:06;100;1320;-1320;0
2024-04-05 17:13:08;100;1320;-1320;0
2024-04-05 17:14:06;100;1320;-1320;0
2024-04-05 17:15:08;100;1320;-1320;0
2024-04-05 17:16:06;100;1320;-1320;0
2024-04-05 17:17:08;100;1320;-1320;0
2024-04-05 17:18:06;100;1320;-1320;0
2024-04-05 17:19:08;100;1320;-1320;0
2024-04-05 17:20:06;100;1320;-1320;0
2024-04-05 17:21:08;100;1320;-1320;0
2024-04-05 17:22:05;100;1320;-1320;0
2024-04-05 17:23:08;100;1320;-1320;0
2024-04-05 17:24:05;100;1320;-1320;0
2024-04-05 17:25:07;100;1320;-1320;0
2024-04-05 17:26:05;100;1320;-1320;0
2024-04-05 17:27:07;100;1320;-1320;0
2024-04-05 17:28:05;100;1320;-1320;0
2024-04-05 17:29:07;100;1320;-1320;0
2024-04-05 17:30:05;100;1320;-1320;0
2024-04-05 17:31:07;100;1320;-1320;0
2024-04-05 17:32:04;100;1320;-1320;0
2024-04-05 17:33:07;100;1320;-1320;0
2024-04-05 17:34:04;100;1320;-1320;0
2024-04-05 17:35:06;100;1320;-1320;0
2024-04-05 17:36:09;100;1320;-1320;0
2024-04-05 17:37:06;100;1320;-1320;0
2024-04-05 17:38:08;100;1320;-1320;0
2024-04-05 17:39:06;100;1320;-1320;0
2024-04-05 17:40:08;100;1320;-1320;0
2024-04-05 17:41:06;100;1320;-1320;0
2024-04-05 17:42:08;100;1320;-1320;0
2024-04-05 17:43:06;100;1320;-1320;0
2024-04-05 17:44:08;100;1320;-1320;0
2024-04-05 17:45:05;100;1320;-1320;0
2024-04-05 17:46:08;100;1320;-1320;0
2024-04-05 17:47:05;100;1320;-1320;0
2024-04-05 17:48:07;100;1320;-1320;0
2024-04-05 17:49:05;100;1320;-1320;0
2024-04-05 17:50:07;100;1320;-1320;0
2024-04-05 17:51:05;100;1320;-1320;0
2024-04-05 17:52:07;100;1320;-1320;0
2024-04-05 17:53:04;100;1320;-1320;0
2024-04-05 17:54:07;100;1320;-1320;0
2024-04-05 17:55:04;100;1320;-1320;0
2024-04-05 17:56:06;100;1320;-1320;0
2024-04-05 17:57:09;100;1320;-1320;0
2024-04-05 17:58:06;100;1320;-1320;0
2024-04-05 17:59:08;100;1320;-1320;0
2024-04-05 18:00:06;100;1320;-1320;0
2024-04-05 18:01:08;100;1320;-1320;0
2024-04-05 18:02:06;100;1320;-1320;0
2024-04-05 18:03:08;100;1320;-1320;0
2024-04-05 18:04:05;100;1320;-1320;0
2024-04-05 18:05:07;100;1320;-1320;0
2024-04-05 18:06:05;100;1320;-1320;0
2024-04-05 18:07:07;100;1320;-1320;0
2024-04-05 18:08:05;100;1320;-1320;0
2024-04-05 18:09:07;100;1320;-1320;0
2024-04-05 18:10:04;100;1320;-1320;0
2024-04-05 18:11:07;100;1320;-1320;0
2024-04-05 18:12:04;100;1320;-1320;0
2024-04-05 18:13:06;100;1320;-1320;0
2024-04-05 18:14:08;100;1320;-1320;0
2024-04-05 18:15:06;100;1320;-1320;0
2024-04-05 18:16:08;100;1320;-1320;0
2024-04-05 18:17:06;100;1320;-1320;0
2024-04-05 18:18:08;100;1320;-1320;0
2024-04-05 18:19:05;100;1320;-1320;0
2024-04-05 18:20:08;100;1320;-1320;0
2024-04-05 18:21:05;100;1320;-1320;0
2024-04-05 18:22:07;100;1320;-1320;0
2024-04-05 18:23:05;100;1320;-1320;0
2024-04-05 18:24:07;100;1320;-1320;0
2024-04-05 18:25:05;100;1320;-1320;0
2024-04-05 18:26:07;100;1320;-1320;0
2024-04-05 18:27:04;100;1320;-1320;0
2024-04-05 18:28:06;100;1320;-1320;0
2024-04-05 18:29:08;100;1320;-1320;0
2024-04-05 18:30:06;100;1320;-1320;0
2024-04-05 18:31:08;100;1320;-1320;0
2024-04-05 18:32:06;100;1320;-1320;0
2024-04-05 18:33:08;100;1320;-1320;0
2024-04-05 18:34:05;100;1320;-1320;0
2024-04-05 18:35:07;100;1320;-1320;0
2024-04-05 18:36:05;100;1320;-1320;0
2024-04-05 18:37:07;100;1320;-1320;0
2024-04-05 18:38:05;100;1320;-1320;0
2024-04-05 18:39:07;100;1320;-1320;0
2024-04-05 18:40:04;100;1320;-1320;0
2024-04-05 18:41:06;100;1320;-1320;0
2024-04-05 18:42:09;100;1320;-1320;0
2024-04-05 18:43:06;100;1320;-1320;0
2024-04-05 18:44:08;100;1320;-1320;0
2024-04-05 18:45:06;100;1320;-1320;0
2024-04-05 18:46:08;100;1320;-1320;0
2024-04-05 18:47:05;100;1320;-1320;0
2024-04-05 18:48:07;100;1320;-1320;0
2024-04-05 18:49:05;100;1320;-1320;0
2024-04-05 18:50:07;100;1320;-1320;0
2024-04-05 18:51:05;100;1320;-1320;0
2024-04-05 18:52:07;100;1320;-1320;0
2024-04-05 18:53:04;100;1320;-1320;0
2024-04-05 18:54:06;100;1320;-1320;0
2024-04-05 18:55:08;100;1320;-1320;0
2024-04-05 18:56:06;100;1320;-1320;0
2024-04-05 18:57:08;100;1320;-1320;0
2024-04-05 18:58:05;100;1320;-1320;0
2024-04-05 18:59:08;100;1320;-1320;0
2024-04-05 19:00:05;100;1320;-1320;0
2024-04-05 19:01:07;100;1320;-1320;0
2024-04-05 19:02:05;100;1320;-1320;0
2024-04-05 19:03:07;100;1320;-1320;0
2024-04-05 19:04:04;100;1320;-1320;0
2024-04-05 19:05:06;100;1320;-1320;0
2024-04-05 19:06:08;100;1320;-1320;0
2024-04-05 19:07:06;100;1320;-1320;0
2024-04-05 19:08:08;100;1320;-1320;0
2024-04-05 19:09:06;100;1320;-1320;0
2024-04-05 19:10:08;100;1320;-1320;0
2024-04-05 19:11:05;100;1320;-1320;0
2024-04-05 19:12:07;100;1320;-1320;0
2024-04-05 19:13:05;100;1320;-1320;0
2024-04-05 19:14:07;100;1320;-1320;0
2024-04-05 19:15:04;100;1320;-1320;0
2024-04-05 19:16:06;100;1320;-1320;0
2024-04-05 19:17:08;100;1320;-1320;0
2024-04-05 19:18:06;100;1320;-1320;0
2024-04-05 19:19:08;100;1320;-1320;0
2024-04-05 19:20:05;100;1320;-1320;0
2024-04-05 19:21:08;100;1320;-1320;0
2024-04-05 19:22:05;100;1320;-1320;0
2024-04-05 19:23:07;100;1320;-1320;0
2024-04-05 19:24:05;100;1320;-1320;0
2024-04-05 19:25:07;100;1320;-1320;0
2024-04-05 19:26:04;100;1320;-1320;0
2024-04-05 19:27:06;100;1320;-1320;0
2024-04-05 19:28:08;100;1320;-1320;0
2024-04-05 19:29:06;100;1320;-1320;0
2024-04-05 19:30:08;100;1320;-1320;0
2024-04-05 19:31:05;100;1320;-1320;0
2024-04-05 19:32:07;100;1320;-1320;0
2024-04-05 19:33:05;100;1320;-1320;0
2024-04-05 19:34:07;100;1320;-1320;0
2024-04-05 19:35:04;100;1320;-1320;0
2024-04-05 19:36:06;100;1320;-1320;0
2024-04-05 19:37:08;100;1320;-1320;0
2024-04-05 19:38:06;100;1320;-1320;0
2024-04-05 19:39:08;100;1320;-1320;0
2024-04-05 19:40:05;100;1320;-1320;0
2024-04-05 19:41:07;100;1320;-1320;0
2024-04-05 19:42:05;100;1320;-1320;0
2024-04-05 19:43:07;100;1320;-1320;0
2024-04-05 19:44:04;100;1320;-1320;0
2024-04-05 19:45:07;100;1320;-1320;0
2024-04-05 19:46:04;100;1320;-1320;0
2024-04-05 19:47:06;100;1320;-1320;0
2024-04-05 19:48:08;100;1320;-1320;0
2024-04-05 19:49:06;100;1320;-1320;0
2024-04-05 19:50:08;100;1320;-1320;0
2024-04-05 19:51:05;100;1320;-1320;0
2024-04-05 19:52:07;100;1320;-1320;0
2024-04-05 19:53:05;100;1320;-1320;0
2024-04-05 19:54:07;100;1320;-1320;0
2024-04-05 19:55:04;100;1320;-1320;0
2024-04-05 19:56:06;100;1320;-1320;0
2024-04-05 19:57:08;100;1320;-1320;0
2024-04-05 19:58:06;100;1320;-1320;0
2024-04-05 19:59:08;100;1320;-1320;0
2024-04-05 20:00:05;100;1320;-1320;0
2024-04-05 20:01:07;100;1320;-1320;0
2024-04-05 20:02:04;100;1320;-1320;0
2024-04-05 20:03:07;100;1320;-1320;0
2024-04-05 20:04:04;100;1320;-1320;0
2024-04-05 20:05:06;100;1320;-1320;0
2024-04-05 20:06:08;100;1320;-1320;0
2024-04-05 20:07:05;100;1320;-1320;0
2024-04-05 20:08:07;100;1320;-1320;0
2024-04-05 20:09:05;100;1320;-1320;0
2024-04-05 20:10:07;100;1320;-1320;0
2024-04-05 20:11:04;100;1320;-1320;0
2024-04-05 20:12:06;100;1320;-1320;0
2024-04-05 20:13:08;100;1320;-1320;0
2024-04-05 20:14:06;100;1320;-1320;0
2024-04-05 20:15:08;100;1320;-1320;0
2024-04-05 20:16:05;100;1320;-1320;0
2024-04-05 20:17:07;100;1320;-1320;0
2024-04-05 20:18:05;100;1320;-1320;0
2024-04-05 20:19:07;100;1320;-1320;0
2024-04-05 20:20:04;100;1320;-1320;0
2024-04-05 20:21:06;100;1320;-1320;0
2024-04-05 20:22:08;100;1320;-1320;0
2024-04-05 20:23:06;100;1320;-1320;0
2024-04-05 20:24:08;100;1320;-1320;0
2024-04-05 20:25:05;100;1320;-1320;0
2024-04-05 20:26:07;100;1320;-1320;0
2024-04-05 20:27:05;100;1320;-1320;0
2024-04-05 20:28:07;100;1320;-1320;0
2024-04-05 20:29:04;100;1320;-1320;0
2024-04-05 20:30:06;100;1320;-1320;0
2024-04-05 20:31:08;100;1320;-1320;0
2024-04-05 20:32:05;100;1320;-1320;0
2024-04-05 20:33:07;100;1320;-1320;0
2024-04-05 20:34:05;100;1320;-1320;0
2024-04-05 20:35:07;100;1320;-1320;0
2024-04-05 20:36:04;100;1320;-1320;0
2024-04-05 20:37:06;100;1320;-1320;0
2024-04-05 20:38:08;100;1320;-1320;0
2024-04-05 20:39:06;100;1320;-1320;0
2024-04-05 20:40:08;100;1320;-1320;0
2024-04-05 20:41:05;100;1320;-1320;0
2024-04-05 20:42:07;100;1320;-1320;0
2024-04-05 20:43:04;100;1320;-1320;0
2024-04-05 20:44:06;100;1320;-1320;0
2024-04-05 20:45:08;100;1320;-1320;0
2024-04-05 20:46:06;100;1320;-1320;0
2024-04-05 20:47:08;100;1320;-1320;0
2024-04-05 20:48:05;100;1320;-1320;0
2024-04-05 20:49:07;100;1320;-1320;0
2024-04-05 20:50:04;100;1320;-1320;0
2024-04-05 20:51:06;100;1320;-1320;0
2024-04-05 20:52:08;100;1320;-1320;0
2024-04-05 20:53:06;100;1320;-1320;0
2024-04-05 20:54:08;100;1320;-1320;0
2024-04-05 20:55:05;100;1320;-1320;0
2024-04-05 20:56:07;100;1320;-1320;0
2024-04-05 20:57:05;100;1320;-1320;0
2024-04-05 20:58:07;100;1320;-1320;0
2024-04-05 20:59:04;100;1320;-1320;0
2024-04-05 21:00:06;100;1320;-1320;0
2024-04-05 21:01:08;100;1320;-1320;0
2024-04-05 21:02:05;100;1320;-1320;0
2024-04-05 21:03:07;100;1320;-1320;0
2024-04-05 21:04:05;100;1320;-1320;0
2024-04-05 21:05:07;100;1320;-1320;0
2024-04-05 21:06:04;100;1320;-1320;0
2024-04-05 21:07:06;100;1320;-1320;0
2024-04-05 21:08:08;100;1320;-1320;0
2024-04-05 21:09:05;100;1320;-1320;0
2024-04-05 21:10:07;100;1320;-1320;0
2024-04-05 21:11:05;100;1320;-1320;0
2024-04-05 21:12:07;100;1320;-1320;0
2024-04-05 21:13:04;100;1320;-1320;0
2024-04-05 21:14:06;100;1320;-1320;0
2024-04-05 21:15:08;100;1320;-1320;0
2024-04-05 21:16:05;100;1320;-1320;0
2024-04-05 21:17:07;100;1320;-1320;0
2024-04-05 21:18:05;100;1320;-1320;0
2024-04-05 21:19:07;100;1320;-1320;0
2024-04-05 21:20:04;100;1320;-1320;0
2024-04-05 21:21:06;100;1320;-1320;0
2024-04-05 21:22:08;100;1320;-1320;0
2024-04-05 21:23:05;100;1320;-1320;0
2024-04-05 21:24:07;100;1320;-1320;0
2024-04-05 21:25:05;100;1320;-1320;0
2024-04-05 21:26:07;100;1320;-1320;0
2024-04-05 21:27:04;100;1320;-1320;0
2024-04-05 21:28:06;100;1320;-1320;0
2024-04-05 21:29:08;100;1320;-1320;0
2024-04-05 21:30:05;100;1320;-1320;0
2024-04-05 21:31:07;100;1320;-1320;0
2024-04-05 21:32:05;100;1320;-1320;0
2024-04-05 21:33:07;100;1320;-1320;0
2024-04-05 21:34:04;100;1320;-1320;0
2024-04-05 21:35:06;100;1320;-1320;0
2024-04-05 21:36:08;100;1320;-1320;0
2024-04-05 21:37:05;100;1320;-1320;0
2024-04-05 21:38:07;100;1320;-1320;0
2024-04-05 21:39:05;100;1320;-1320;0
2024-04-05 21:40:07;100;1320;-1320;0
2024-04-05 21:41:04;100;1320;-1320;0
2024-04-05 21:42:06;100;1320;-1320;0
2024-04-05 21:43:08;100;1320;-1320;0
2024-04-05 21:44:05;100;1320;-1320;0
2024-04-05 21:45:07;100;1320;-1320;0
2024-04-05 21:46:05;100;1320;-1320;0
2024-04-05 21:47:07;100;1320;-1320;0
2024-04-05 21:48:04;100;1320;-1320;0
2024-04-05 21:49:06;100;1320;-1320;0
2024-04-05 21:50:08;100;1320;-1320;0
2024-04-05 21:51:06;100;1320;-1320;0
2024-04-05 21:52:08;100;1320;-1320;0
2024-04-05 21:53:05;100;1320;-1320;0
2024-04-05 21:54:07;100;1320;-1320;0
2024-04-05 21:55:04;100;1320;-1320;0
2024-04-05 21:56:06;100;1320;-1320;0
2024-04-05 21:57:08;100;1320;-1320;0
2024-04-05 21:58:06;100;1320;-1320;0
2024-04-05 21:59:08;100;1320;-1320;0
2024-04-05 22:00:05;100;1320;-1320;0
2024-04-05 22:01:07;100;1320;-1320;0
2024-04-05 22:02:04;100;1320;-1320;0
2024-04-05 22:03:06;100;1320;-1320;0
2024-04-05 22:04:08;100;1320;-1320;0
2024-04-05 22:05:06;100;1320;-1320;0
2024-04-05 22:06:08;100;1320;-1320;0
2024-04-05 22:07:05;100;1320;-1320;0
2024-04-05 22:08:07;100;1320;-1320;0
2024-04-05 22:09:04;100;1320;-1320;0
2024-04-05 22:10:06;100;1320;-1320;0
2024-04-05 22:11:08;100;1320;-1320;0
2024-04-05 22:12:06;100;1320;-1320;0
2024-04-05 22:13:08;100;1320;-1320;0
2024-04-05 22:14:05;100;1320;-1320;0
2024-04-05 22:15:07;100;1320;-1320;0
2024-04-05 22:16:04;100;1320;-1320;0
2024-04-05 22:17:06;100;1320;-1320;0
2024-04-05 22:18:08;100;1320;-1320;0
2024-04-05 22:19:06;100;1320;-1320;0
2024-04-05 22:20:08;100;1320;-1320;0
2024-04-05 22:21:05;100;1320;-1320;0
2024-04-05 22:22:07;100;1320;-1320;0
2024-04-05 22:23:04;100;1320;-1320;0
2024-04-05 22:24:06;100;1320;-1320;0
2024-04-05 22:25:08;100;1320;-1320;0
2024-04-05 22:26:06;100;1320;-1320;0
2024-04-05 22:27:08;100;1320;-1320;0
2024-04-05 22:28:05;100;1320;-1320;0
2024-04-05 22:29:07;100;1320;-1320;0
2024-04-05 22:30:04;100;1320;-1320;0
2024-04-05 22:31:06;100;1320;-1320;0
2024-04-05 22:32:08;100;1320;-1320;0
2024-04-05 22:33:06;100;1320;-1320;0
2024-04-05 22:34:08;100;1320;-1320;0
2024-04-05 22:35:05;100;1320;-1320;0
2024-04-05 22:36:07;100;1320;-1320;0
2024-04-05 22:37:04;100;1320;-1320;0
2024-04-05 22:38:06;100;1320;-1320;0
2024-04-05 22:39:08;100;1320;-1320;0
2024-04-05 22:40:06;100;1320;-1320;0
2024-04-05 22:41:08;100;1320;-1320;0
2024-04-05 22:42:05;100;1320;-1320;0
2024-04-05 22:43:07;100;1320;-1320;0
2024-04-05 22:44:04;100;1320;-1320;0
2024-04-05 22:45:06;100;1320;-1320;0
2024-04-05 22:46:08;100;1320;-1320;0
2024-04-05 22:47:06;100;1320;-1320;0
2024-04-05 22:48:08;100;1320;-1320;0
2024-04-05 22:49:05;100;1320;-1320;0
2024-04-05 22:50:07;100;1320;-1320;0
2024-04-05 22:51:04;100;1320;-1320;0
2024-04-05 22:52:06;100;1320;-1320;0
2024-04-05 22:53:08;100;1320;-1320;0
2024-04-05 22:54:06;100;1320;-1320;0
2024-04-05 22:55:07;100;1320;-1320;0
2024-04-05 22:56:05;100;1320;-1320;0
2024-04-05 22:57:07;100;1320;-1320;0
2024-04-05 22:58:04;100;1320;-1320;0
2024-04-05 22:59:06;100;1320;-1320;0
2024-04-05 23:00:08;100;1320;-1320;0
2024-04-05 23:01:05;100;1320;-1320;0
2024-04-05 23:02:07;100;1320;-1320;0
2024-04-05 23:03:05;100;1320;-1320;0
2024-04-05 23:04:07;100;1320;-1320;0
2024-04-05 23:05:04;100;1320;-1320;0
2024-04-05 23:06:06;100;1320;-1320;0
2024-04-05 23:07:08;100;1320;-1320;0
2024-04-05 23:08:05;100;1320;-1320;0
2024-04-05 23:09:07;100;1320;-1320;0
2024-04-05 23:10:05;100;1320;-1320;0
2024-04-05 23:11:07;100;1320;-1320;0
2024-04-05 23:12:04;100;1320;-1320;0
2024-04-05 23:13:06;100;1320;-1320;0
2024-04-05 23:14:08;100;1320;-1320;0
2024-04-05 23:15:05;100;1320;-1320;0
2024-04-05 23:16:07;100;1320;-1320;0
2024-04-05 23:17:05;100;1320;-1320;0
2024-04-05 23:18:07;100;1320;-1320;0
2024-04-05 23:19:04;100;1320;-1320;0
2024-04-05 23:20:06;100;1320;-1320;0
2024-04-05 23:21:08;100;1320;-1320;0
2024-04-05 23:22:05;100;1320;-1320;0
2024-04-05 23:23:07;100;1320;-1320;0
2024-04-05 23:24:05;100;1320;-1320;0
2024-04-05 23:25:07;100;1320;-1320;0
2024-04-05 23:26:04;100;1320;-1320;0
2024-04-05 23:27:06;100;1320;-1320;0
2024-04-05 23:28:08;100;1320;-1320;0
2024-04-05 23:29:05;100;1320;-1320;0
2024-04-05 23:30:07;100;1320;-1320;0
2024-04-05 23:31:04;100;1320;-1320;0
2024-04-05 23:32:06;100;1320;-1320;0
2024-04-05 23:33:08;100;1320;-1320;0
2024-04-05 23:34:06;100;1320;-1320;0
2024-04-05 23:35:08;100;1320;-1320;0
2024-04-05 23:36:05;100;1320;-1320;0
2024-04-05 23:37:07;100;1320;-1320;0
2024-04-05 23:38:04;100;1320;-1320;0
2024-04-05 23:39:06;100;1320;-1320;0
2024-04-05 23:40:08;100;1320;-1320;0
2024-04-05 23:41:05;100;1320;-1320;0
2024-04-05 23:42:07;100;1320;-1320;0
2024-04-05 23:43:05;100;1320;-1320;0
2024-04-05 23:44:07;100;1320;-1320;0
2024-04-05 23:45:04;100;1320;-1320;0
2024-04-05 23:46:06;100;1320;-1320;0
2024-04-05 23:47:08;100;1320;-1320;0
2024-04-05 23:48:05;100;1320;-1320;0
2024-04-05 23:49:07;100;1320;-1320;0
2024-04-05 23:50:05;100;1320;-1320;0
2024-04-05 23:51:06;100;1320;-1320;0
2024-04-05 23:52:08;100;1320;-1320;0
2024-04-05 23:53:06;100;1320;-1320;0
2024-04-05 23:54:08;100;1320;-1320;0
2024-04-05 23:55:05;100;1320;-1320;0
2024-04-05 23:56:07;100;1320;-1320;0
2024-04-05 23:57:04;100;1320;-1320;0
2024-04-05 23:58:06;100;1320;-1320;0
2024-04-05 23:59:08;100;1320;-1320;0
