2024-03-19 00:00:08;100;1320;-1320;1
2024-03-19 00:01:05;100;1320;-1320;0
2024-03-19 00:02:07;100;1320;-1320;0
2024-03-19 00:03:05;100;1320;-1320;0
2024-03-19 00:04:07;100;1320;-1320;0
2024-03-19 00:05:05;100;1320;-1320;0
2024-03-19 00:06:07;99;1320;-1320;0
2024-03-19 00:07:04;100;1320;-1320;0
2024-03-19 00:08:06;100;1320;-1320;0
2024-03-19 00:09:09;100;1320;-1320;0
2024-03-19 00:10:06;100;1320;-1320;0
2024-03-19 00:11:08;99;1320;-1320;0
2024-03-19 00:12:06;100;1320;-1320;0
2024-03-19 00:13:08;100;1320;-1320;0
2024-03-19 00:14:06;100;1320;-1320;0
2024-03-19 00:15:08;99;1320;-1320;0
2024-03-19 00:16:05;99;1320;-1320;0
2024-03-19 00:17:07;99;1320;-1320;0
2024-03-19 00:18:05;100;1320;-1320;0
2024-03-19 00:19:07;99;1320;-1320;0
2024-03-19 00:20:05;100;1320;-1320;0
2024-03-19 00:21:07;100;1320;-1320;0
2024-03-19 00:22:04;100;1320;-1320;0
2024-03-19 00:23:06;99;1320;-1320;0
2024-03-19 00:24:09;99;1320;-1320;0
2024-03-19 00:25:06;100;1320;-1320;0
2024-03-19 00:26:08;99;1320;-1320;0
2024-03-19 00:27:06;100;1320;-1320;0
2024-03-19 00:28:08;100;1320;-1320;0
2024-03-19 00:29:06;100;1320;-1320;0
2024-03-19 00:30:08;100;1320;-1320;0
2024-03-19 00:31:05;99;1320;-1320;0
2024-03-19 00:32:07;99;1320;-1320;0
2024-03-19 00:33:05;99;1320;-1320;0
2024-03-19 00:34:07;99;1320;-1320;0
2024-03-19 00:35:05;99;1320;-1320;0
2024-03-19 00:36:07;99;1320;-1320;0
2024-03-19 00:37:04;99;1320;-1320;0
2024-03-19 00:38:06;99;1320;-1320;0
2024-03-19 00:39:09;99;1320;-1320;0
2024-03-19 00:40:06;99;1320;-1320;0
2024-03-19 00:41:08;99;1320;-1320;0
2024-03-19 00:42:06;99;1320;-1320;0
2024-03-19 00:43:08;99;1320;-1320;0
2024-03-19 00:44:06;99;1320;-1320;0
2024-03-19 00:45:08;99;1320;-1320;0
2024-03-19 00:46:05;99;1320;-1320;0
2024-03-19 00:47:07;99;1320;-1320;0
2024-03-19 00:48:05;100;1320;-1320;0
2024-03-19 00:49:07;100;1320;-1320;0
2024-03-19 00:50:05;100;1320;-1320;0
2024-03-19 00:51:07;100;1320;-1320;0
2024-03-19 00:52:04;100;1320;-1320;0
2024-03-19 00:53:06;100;1320;-1320;0
2024-03-19 00:54:04;100;1320;-1320;0
2024-03-19 00:55:06;99;1320;-1320;0
2024-03-19 00:56:08;99;1320;-1320;0
2024-03-19 00:57:06;99;1320;-1320;0
2024-03-19 00:58:08;99;1320;-1320;0
2024-03-19 00:59:06;99;1320;-1320;0
2024-03-19 01:00:08;99;1320;-1320;0
2024-03-19 01:01:05;99;1320;-1320;0
2024-03-19 01:02:07;99;1320;-1320;0
2024-03-19 01:03:05;99;1320;-1320;0
2024-03-19 01:04:07;99;1320;-1320;0
2024-03-19 01:05:05;99;1320;-1320;0
2024-03-19 01:06:07;99;1320;-1320;0
2024-03-19 01:07:04;99;1320;-1320;0
2024-03-19 01:08:07;100;1320;-1320;0
2024-03-19 01:09:04;99;1320;-1320;0
2024-03-19 01:10:06;99;1320;-1320;0
2024-03-19 01:11:08;99;1320;-1320;0
2024-03-19 01:12:06;99;1320;-1320;0
2024-03-19 01:13:08;99;1320;-1320;0
2024-03-19 01:14:06;99;1320;-1320;0
2024-03-19 01:15:08;99;1320;-1320;0
2024-03-19 01:16:05;99;1320;-1320;0
2024-03-19 01:17:07;99;1320;-1320;0
2024-03-19 01:18:05;99;1320;-1320;0
2024-03-19 01:19:07;99;1320;-1320;0
2024-03-19 01:20:05;99;1320;-1320;0
2024-03-19 01:21:07;99;1320;-1320;0
2024-03-19 01:22:04;100;1320;-1320;0
2024-03-19 01:23:07;99;1320;-1320;0
2024-03-19 01:24:04;99;1320;-1320;0
2024-03-19 01:25:06;99;1320;-1320;0
2024-03-19 01:26:08;99;1320;-1320;0
2024-03-19 01:27:06;99;1320;-1320;0
2024-03-19 01:28:08;99;1320;-1320;0
2024-03-19 01:29:06;99;1320;-1320;0
2024-03-19 01:30:08;99;1320;-1320;0
2024-03-19 01:31:05;99;1320;-1320;0
2024-03-19 01:32:08;99;1320;-1320;0
2024-03-19 01:33:05;99;1320;-1320;0
2024-03-19 01:34:07;99;1320;-1320;0
2024-03-19 01:35:05;99;1320;-1320;0
2024-03-19 01:36:07;100;1320;-1320;0
2024-03-19 01:37:04;99;1320;-1320;0
2024-03-19 01:38:07;99;1320;-1320;0
2024-03-19 01:39:04;99;1320;-1320;0
2024-03-19 01:40:06;99;1320;-1320;0
2024-03-19 01:41:08;99;1320;-1320;0
2024-03-19 01:42:06;99;1320;-1320;0
2024-03-19 01:43:08;99;1320;-1320;0
2024-03-19 01:44:06;99;1320;-1320;0
2024-03-19 01:45:08;99;1320;-1320;0
2024-03-19 01:46:05;99;1320;-1320;0
2024-03-19 01:47:08;99;1320;-1320;0
2024-03-19 01:48:05;99;1320;-1320;0
2024-03-19 01:49:07;99;1320;-1320;0
2024-03-19 01:50:05;99;1320;-1320;0
2024-03-19 01:51:07;99;1320;-1320;0
2024-03-19 01:52:05;99;1320;-1320;0
2024-03-19 01:53:07;99;1320;-1320;0
2024-03-19 01:54:04;99;1320;-1320;0
2024-03-19 01:55:06;99;1320;-1320;0
2024-03-19 01:56:09;99;1320;-1320;0
2024-03-19 01:57:06;99;1320;-1320;0
2024-03-19 01:58:08;99;1320;-1320;0
2024-03-19 01:59:06;99;1320;-1320;0
2024-03-19 02:00:08;99;1320;-1320;0
2024-03-19 02:01:05;99;1320;-1320;0
2024-03-19 02:02:08;99;1320;-1320;0
2024-03-19 02:03:05;99;1320;-1320;0
2024-03-19 02:04:07;99;1320;-1320;0
2024-03-19 02:05:05;98;1320;-1320;0
2024-03-19 02:06:07;99;1320;-1320;0
2024-03-19 02:07:05;99;1320;-1320;0
2024-03-19 02:08:07;99;1320;-1320;0
2024-03-19 02:09:04;99;1320;-1320;0
2024-03-19 02:10:06;99;1320;-1320;0
2024-03-19 02:11:09;99;1320;-1320;0
2024-03-19 02:12:06;99;1320;-1320;0
2024-03-19 02:13:08;98;1320;-1320;0
2024-03-19 02:14:06;98;1320;-1320;0
2024-03-19 02:15:08;98;1320;-1320;0
2024-03-19 02:16:06;99;1320;-1320;0
2024-03-19 02:17:08;99;1320;-1320;0
2024-03-19 02:18:05;99;1320;-1320;0
2024-03-19 02:19:07;98;1320;-1320;0
2024-03-19 02:20:05;99;1320;-1320;0
2024-03-19 02:21:07;98;1320;-1320;0
2024-03-19 02:22:05;99;1320;-1320;0
2024-03-19 02:23:07;99;1320;-1320;0
2024-03-19 02:24:04;99;1320;-1320;0
2024-03-19 02:25:07;99;1320;-1320;0
2024-03-19 02:26:04;99;1320;-1320;0
2024-03-19 02:27:06;99;1320;-1320;0
2024-03-19 02:28:08;99;1320;-1320;0
2024-03-19 02:29:06;99;1320;-1320;0
2024-03-19 02:30:08;99;1320;-1320;0
2024-03-19 02:31:06;100;1320;-1320;0
2024-03-19 02:32:08;99;1320;-1320;0
2024-03-19 02:33:05;99;1320;-1320;0
2024-03-19 02:34:07;99;1320;-1320;0
2024-03-19 02:35:05;99;1320;-1320;0
2024-03-19 02:36:07;99;1320;-1320;0
2024-03-19 02:37:05;99;1320;-1320;0
2024-03-19 02:38:07;99;1320;-1320;0
2024-03-19 02:39:04;99;1320;-1320;0
2024-03-19 02:40:07;99;1320;-1320;0
2024-03-19 02:41:04;99;1320;-1320;0
2024-03-19 02:42:06;99;1320;-1320;0
2024-03-19 02:43:08;99;1320;-1320;0
2024-03-19 02:44:06;99;1320;-1320;0
2024-03-19 02:45:08;100;1320;-1320;0
2024-03-19 02:46:06;99;1320;-1320;0
2024-03-19 02:47:08;99;1320;-1320;0
2024-03-19 02:48:05;99;1320;-1320;0
2024-03-19 02:49:08;99;1320;-1320;0
2024-03-19 02:50:05;99;1320;-1320;0
2024-03-19 02:51:07;99;1320;-1320;0
2024-03-19 02:52:05;99;1320;-1320;0
2024-03-19 02:53:07;99;1320;-1320;0
2024-03-19 02:54:04;99;1320;-1320;0
2024-03-19 02:55:07;99;1320;-1320;0
2024-03-19 02:56:04;99;1320;-1320;0
2024-03-19 02:57:06;99;1320;-1320;0
2024-03-19 02:58:08;99;1320;-1320;0
2024-03-19 02:59:06;99;1320;-1320;0
2024-03-19 03:00:08;99;1320;-1320;0
2024-03-19 03:01:06;99;1320;-1320;0
2024-03-19 03:02:08;99;1320;-1320;0
2024-03-19 03:03:05;99;1320;-1320;0
2024-03-19 03:04:07;99;1320;-1320;0
2024-03-19 03:05:05;99;1320;-1320;0
2024-03-19 03:06:07;99;1320;-1320;0
2024-03-19 03:07:05;99;1320;-1320;0
2024-03-19 03:08:07;99;1320;-1320;0
2024-03-19 03:09:04;99;1320;-1320;0
2024-03-19 03:10:07;99;1320;-1320;0
2024-03-19 03:11:04;99;1320;-1320;0
2024-03-19 03:12:06;99;1320;-1320;0
2024-03-19 03:13:08;99;1320;-1320;0
2024-03-19 03:14:06;99;1320;-1320;0
2024-03-19 03:15:08;99;1320;-1320;0
2024-03-19 03:16:06;99;1320;-1320;0
2024-03-19 03:17:08;99;1320;-1320;0
2024-03-19 03:18:05;99;1320;-1320;0
2024-03-19 03:19:07;99;1320;-1320;0
2024-03-19 03:20:05;99;1320;-1320;0
2024-03-19 03:21:07;99;1320;-1320;0
2024-03-19 03:22:05;99;1320;-1320;0
2024-03-19 03:23:07;99;1320;-1320;0
2024-03-19 03:24:04;99;1320;-1320;0
2024-03-19 03:25:06;99;1320;-1320;0
2024-03-19 03:26:04;99;1320;-1320;0
2024-03-19 03:27:06;99;1320;-1320;0
2024-03-19 03:28:08;99;1320;-1320;0
2024-03-19 03:29:06;99;1320;-1320;0
2024-03-19 03:30:08;98;1320;-1320;0
2024-03-19 03:31:06;99;1320;-1320;0
2024-03-19 03:32:08;98;1320;-1320;0
2024-03-19 03:33:05;98;1320;-1320;0
2024-03-19 03:34:07;98;1320;-1320;0
2024-03-19 03:35:05;98;1320;-1320;0
2024-03-19 03:36:07;98;1320;-1320;0
2024-03-19 03:37:05;98;1320;-1320;0
2024-03-19 03:38:07;98;1320;-1320;0
2024-03-19 03:39:04;98;1320;-1320;0
2024-03-19 03:40:06;99;1320;-1320;0
2024-03-19 03:41:08;98;1320;-1320;0
2024-03-19 03:42:06;98;1320;-1320;0
2024-03-19 03:43:08;98;1320;-1320;0
2024-03-19 03:44:06;98;1320;-1320;0
2024-03-19 03:45:08;98;1320;-1320;0
2024-03-19 03:46:05;98;1320;-1320;0
2024-03-19 03:47:08;98;1320;-1320;0
2024-03-19 03:48:05;98;1320;-1320;0
2024-03-19 03:49:07;98;1320;-1320;0
2024-03-19 03:50:05;98;1320;-1320;0
2024-03-19 03:51:07;98;1320;-1320;0
2024-03-19 03:52:04;98;1320;-1320;0
2024-03-19 03:53:07;99;1320;-1320;0
2024-03-19 03:54:04;99;1320;-1320;0
2024-03-19 03:55:06;99;1320;-1320;0
2024-03-19 03:56:08;99;1320;-1320;0
2024-03-19 03:57:06;98;1320;-1320;0
2024-03-19 03:58:08;98;1320;-1320;0
2024-03-19 03:59:05;98;1320;-1320;0
2024-03-19 04:00:08;98;1320;-1320;0
2024-03-19 04:01:05;98;1320;-1320;0
2024-03-19 04:02:07;98;1320;-1320;0
2024-03-19 04:03:05;98;1320;-1320;0
2024-03-19 04:04:07;98;1320;-1320;0
2024-03-19 04:05:04;98;1320;-1320;0
2024-03-19 04:06:07;98;1320;-1320;0
2024-03-19 04:07:04;98;1320;-1320;0
2024-03-19 04:08:06;99;1320;-1320;0
2024-03-19 04:09:08;98;1320;-1320;0
2024-03-19 04:10:06;98;1320;-1320;0
2024-03-19 04:11:08;98;1320;-1320;0
2024-03-19 04:12:06;98;1320;-1320;0
2024-03-19 04:13:08;98;1320;-1320;0
2024-03-19 04:14:05;98;1320;-1320;0
2024-03-19 04:15:07;98;1320;-1320;0
2024-03-19 04:16:05;98;1320;-1320;0
2024-03-19 04:17:07;98;1320;-1320;0
2024-03-19 04:18:04;98;1320;-1320;0
2024-03-19 04:19:07;98;1320;-1320;0
2024-03-19 04:20:04;98;1320;-1320;0
2024-03-19 04:21:06;98;1320;-1320;0
2024-03-19 04:22:08;98;1320;-1320;0
2024-03-19 04:23:06;98;1320;-1320;0
2024-03-19 04:24:08;98;1320;-1320;0
2024-03-19 04:25:06;98;1320;-1320;0
2024-03-19 04:26:08;98;1320;-1320;0
2024-03-19 04:27:05;98;1320;-1320;0
2024-03-19 04:28:07;98;1320;-1320;0
2024-03-19 04:29:05;98;1320;-1320;0
2024-03-19 04:30:07;98;1320;-1320;0
2024-03-19 04:31:04;98;1320;-1320;0
2024-03-19 04:32:07;98;1320;-1320;0
2024-03-19 04:33:04;98;1320;-1320;0
2024-03-19 04:34:06;98;1320;-1320;0
2024-03-19 04:35:08;98;1320;-1320;0
2024-03-19 04:36:06;98;1320;-1320;0
2024-03-19 04:37:08;98;1320;-1320;0
2024-03-19 04:38:05;98;1320;-1320;0
2024-03-19 04:39:08;98;1320;-1320;0
2024-03-19 04:40:05;98;1320;-1320;0
2024-03-19 04:41:07;98;1320;-1320;0
2024-03-19 04:42:05;98;1320;-1320;0
2024-03-19 04:43:07;98;1320;-1320;0
2024-03-19 04:44:04;98;1320;-1320;0
2024-03-19 04:45:06;98;1320;-1320;0
2024-03-19 04:46:09;98;1320;-1320;0
2024-03-19 04:47:06;98;1320;-1320;0
2024-03-19 04:48:08;98;1320;-1320;0
2024-03-19 04:49:06;98;1320;-1320;0
2024-03-19 04:50:08;98;1320;-1320;0
2024-03-19 04:51:05;98;1320;-1320;0
2024-03-19 04:52:08;98;1320;-1320;0
2024-03-19 04:53:05;98;1320;-1320;0
2024-03-19 04:54:07;98;1320;-1320;0
2024-03-19 04:55:05;98;1320;-1320;0
2024-03-19 04:56:07;98;1320;-1320;0
2024-03-19 04:57:04;98;1320;-1320;0
2024-03-19 04:58:06;98;1320;-1320;0
2024-03-19 04:59:09;98;1320;-1320;0
2024-03-19 05:00:06;98;1320;-1320;0
2024-03-19 05:01:08;98;1320;-1320;0
2024-03-19 05:02:06;98;1320;-1320;0
2024-03-19 05:03:08;99;1320;-1320;0
2024-03-19 05:04:05;98;1320;-1320;0
2024-03-19 05:05:07;98;1320;-1320;0
2024-03-19 05:06:05;98;1320;-1320;0
2024-03-19 05:07:07;98;1320;-1320;0
2024-03-19 05:08:05;98;1320;-1320;0
2024-03-19 05:09:07;98;1320;-1320;0
2024-03-19 05:10:04;98;1320;-1320;0
2024-03-19 05:11:06;98;1320;-1320;0
2024-03-19 05:12:08;98;1320;-1320;0
2024-03-19 05:13:06;98;1320;-1320;0
2024-03-19 05:14:08;98;1320;-1320;0
2024-03-19 05:15:06;98;1320;-1320;0
2024-03-19 05:16:08;98;1320;-1320;0
2024-03-19 05:17:05;99;1320;-1320;0
2024-03-19 05:18:07;98;1320;-1320;0
2024-03-19 05:19:05;98;1320;-1320;0
2024-03-19 05:20:07;98;1320;-1320;0
2024-03-19 05:21:05;98;1320;-1320;0
2024-03-19 05:22:07;98;1320;-1320;0
2024-03-19 05:23:04;98;1320;-1320;0
2024-03-19 05:24:06;98;1320;-1320;0
2024-03-19 05:25:08;98;1320;-1320;0
2024-03-19 05:26:06;98;1320;-1320;0
2024-03-19 05:27:08;98;1320;-1320;0
2024-03-19 05:28:06;98;1320;-1320;0
2024-03-19 05:29:08;98;1320;-1320;0
2024-03-19 05:30:05;98;1320;-1320;0
2024-03-19 05:31:07;99;1320;-1320;0
2024-03-19 05:32:05;98;1320;-1320;0
2024-03-19 05:33:07;98;1320;-1320;0
2024-03-19 05:34:04;98;1320;-1320;0
2024-03-19 05:35:06;98;1320;-1320;0
2024-03-19 05:36:04;98;1320;-1320;0
2024-03-19 05:37:06;98;1320;-1320;0
2024-03-19 05:38:08;98;1320;-1320;0
2024-03-19 05:39:06;98;1320;-1320;0
2024-03-19 05:40:08;98;1320;-1320;0
2024-03-19 05:41:05;98;1320;-1320;0
2024-03-19 05:42:08;98;1320;-1320;0
2024-03-19 05:43:05;98;1320;-1320;0
2024-03-19 05:44:07;98;1320;-1320;0
2024-03-19 05:45:05;98;1320;-1320;0
2024-03-19 05:46:07;98;1320;-1320;0
2024-03-19 05:47:04;98;1320;-1320;0
2024-03-19 05:48:06;98;1320;-1320;0
2024-03-19 05:49:09;98;1320;-1320;0
2024-03-19 05:50:06;98;1320;-1320;0
2024-03-19 05:51:08;98;1320;-1320;0
2024-03-19 05:52:06;98;1320;-1320;0
2024-03-19 05:53:08;98;1320;-1320;0
2024-03-19 05:54:05;98;1320;-1320;0
2024-03-19 05:55:07;98;1320;-1320;0
2024-03-19 05:56:05;98;1320;-1320;0
2024-03-19 05:57:07;98;1320;-1320;0
2024-03-19 05:58:05;98;1320;-1320;0
2024-03-19 05:59:07;98;1320;-1320;0
2024-03-19 06:00:04;98;1320;-1320;0
2024-03-19 06:01:06;98;1320;-1320;0
2024-03-19 06:02:08;98;1320;-1320;0
2024-03-19 06:03:06;98;1320;-1320;0
2024-03-19 06:04:08;98;1320;-1320;0
2024-03-19 06:05:06;98;1320;-1320;0
2024-03-19 06:06:08;98;1320;-1320;0
2024-03-19 06:07:05;98;1320;-1320;0
2024-03-19 06:08:07;98;1320;-1320;0
2024-03-19 06:09:05;98;1320;-1320;0
2024-03-19 06:10:07;98;1320;-1320;0
2024-03-19 06:11:05;98;1320;-1320;0
2024-03-19 06:12:07;98;1320;-1320;0
2024-03-19 06:13:04;98;1320;-1320;0
2024-03-19 06:14:06;98;1320;-1320;0
2024-03-19 06:15:08;97;1320;-1320;0
2024-03-19 06:16:06;98;1320;-1320;0
2024-03-19 06:17:08;97;1320;-1320;0
2024-03-19 06:18:06;98;1320;-1320;0
2024-03-19 06:19:08;97;1320;-1320;0
2024-03-19 06:20:05;97;1320;-1320;0
2024-03-19 06:21:07;97;1320;-1320;0
2024-03-19 06:22:05;98;1320;-1320;0
2024-03-19 06:23:07;98;1320;-1320;0
2024-03-19 06:24:04;98;1320;-1320;0
2024-03-19 06:25:07;98;1320;-1320;0
2024-03-19 06:26:04;98;1320;-1320;0
2024-03-19 06:27:06;98;1320;-1320;0
2024-03-19 06:28:08;97;1320;-1320;0
2024-03-19 06:29:06;98;1320;-1320;0
2024-03-19 06:30:08;98;1320;-1320;0
2024-03-19 06:31:05;98;1320;-1320;0
2024-03-19 06:32:07;98;1320;-1320;0
2024-03-19 06:33:05;97;1320;-1320;0
2024-03-19 06:34:07;97;1320;-1320;0
2024-03-19 06:35:05;98;1320;-1320;0
2024-03-19 06:36:07;97;1320;-1320;0
2024-03-19 06:37:04;97;1320;-1320;0
2024-03-19 06:38:06;97;1320;-1320;0
2024-03-19 06:39:08;97;1320;-1320;0
2024-03-19 06:40:06;98;1320;-1320;0
2024-03-19 06:41:08;97;1320;-1320;0
2024-03-19 06:42:06;97;1320;-1320;0
2024-03-19 06:43:08;97;1320;-1320;0
2024-03-19 06:44:05;97;1320;-1320;0
2024-03-19 06:45:07;97;1320;-1320;0
2024-03-19 06:46:05;97;1320;-1320;0
2024-03-19 06:47:07;97;1320;-1320;0
2024-03-19 06:48:04;97;1320;-1320;0
2024-03-19 06:49:07;97;1320;-1320;0
2024-03-19 06:50:04;97;1320;-1320;0
2024-03-19 06:51:06;97;1320;-1320;0
2024-03-19 06:52:08;97;1320;-1320;0
2024-03-19 06:53:06;97;1320;-1320;0
2024-03-19 06:54:08;98;1320;-1320;0
2024-03-19 06:55:05;97;1320;-1320;0
2024-03-19 06:56:08;97;1320;-1320;0
2024-03-19 06:57:05;97;1320;-1320;0
2024-03-19 06:58:07;97;1320;-1320;0
2024-03-19 06:59:05;97;1320;-1320;0
2024-03-19 07:00:07;97;1320;-1320;0
2024-03-19 07:01:04;97;1320;-1320;0
2024-03-19 07:02:06;97;1320;-1320;0
2024-03-19 07:03:09;97;1320;-1320;0
2024-03-19 07:04:06;97;1320;-1320;0
2024-03-19 07:05:08;97;1320;-1320;0
2024-03-19 07:06:06;97;1320;-1320;0
2024-03-19 07:07:08;97;1320;-1320;0
2024-03-19 07:08:05;98;1320;-1320;0
2024-03-19 07:09:07;98;1320;-1320;0
2024-03-19 07:10:05;97;1320;-1320;0
2024-03-19 07:11:07;97;1320;-1320;0
2024-03-19 07:12:05;97;1320;-1320;0
2024-03-19 07:13:07;97;1320;-1320;0
2024-03-19 07:14:04;97;1320;-1320;0
2024-03-19 07:15:06;97;1320;-1320;0
2024-03-19 07:16:08;97;1320;-1320;0
2024-03-19 07:17:06;97;1320;-1320;0
2024-03-19 07:18:08;97;1320;-1320;0
2024-03-19 07:19:06;97;1320;-1320;0
2024-03-19 07:20:08;97;1320;-1320;0
2024-03-19 07:21:05;97;1320;-1320;0
2024-03-19 07:22:07;97;1320;-1320;0
2024-03-19 07:23:05;97;1320;-1320;0
2024-03-19 07:24:07;97;1320;-1320;0
2024-03-19 07:25:04;97;1320;-1320;0
2024-03-19 07:26:07;97;1320;-1320;0
2024-03-19 07:27:04;97;1320;-1320;0
2024-03-19 07:28:06;97;1320;-1320;0
2024-03-19 07:29:08;97;1320;-1320;0
2024-03-19 07:30:06;97;1320;-1320;0
2024-03-19 07:31:08;97;1320;-1320;0
2024-03-19 07:32:05;97;1320;-1320;0
2024-03-19 07:33:08;97;1320;-1320;0
2024-03-19 07:34:05;97;1320;-1320;0
2024-03-19 07:35:07;97;1320;-1320;0
2024-03-19 07:36:05;97;1320;-1320;0
2024-03-19 07:37:07;97;1320;-1320;0
2024-03-19 07:38:04;97;1320;-1320;0
2024-03-19 07:39:07;97;1320;-1320;0
2024-03-19 07:40:04;97;1320;-1320;0
2024-03-19 07:41:06;97;1320;-1320;0
2024-03-19 07:42:08;97;1320;-1320;0
2024-03-19 07:43:06;97;1320;-1320;0
2024-03-19 07:44:08;97;1320;-1320;0
2024-03-19 07:45:05;97;1320;-1320;0
2024-03-19 07:46:08;97;1320;-1320;0
2024-03-19 07:47:05;97;1320;-1320;0
2024-03-19 07:48:07;97;1320;-1320;0
2024-03-19 07:49:05;98;1320;-1320;0
2024-03-19 07:50:07;97;1320;-1320;0
2024-03-19 07:51:04;97;1320;-1320;0
2024-03-19 07:52:07;97;1320;-1320;0
2024-03-19 07:53:04;97;1320;-1320;0
2024-03-19 07:54:06;97;1320;-1320;0
2024-03-19 07:55:08;97;1320;-1320;0
2024-03-19 07:56:06;97;1320;-1320;0
2024-03-19 07:57:08;97;1320;-1320;0
2024-03-19 07:58:06;97;1320;-1320;0
2024-03-19 07:59:08;97;1320;-1320;0
2024-03-19 08:00:05;97;1320;-1320;0
2024-03-19 08:01:07;97;1320;-1320;0
2024-03-19 08:02:05;97;1320;-1320;0
2024-03-19 08:03:07;98;1320;-1320;0
2024-03-19 08:04:05;97;1320;-1320;0
2024-03-19 08:05:07;97;1320;-1320;0
2024-03-19 08:06:04;97;1320;-1320;0
2024-03-19 08:07:06;97;1320;-1320;0
2024-03-19 08:08:04;97;1320;-1320;0
2024-03-19 08:09:06;97;1320;-1320;0
2024-03-19 08:10:08;97;1320;-1320;0
2024-03-19 08:11:06;97;1320;-1320;0
2024-03-19 08:12:08;97;1320;-1320;0
2024-03-19 08:13:06;97;1320;-1320;0
2024-03-19 08:14:08;97;1320;-1320;0
2024-03-19 08:15:05;97;1320;-1320;0
2024-03-19 08:16:07;97;1320;-1320;0
2024-03-19 08:17:05;98;1320;-1320;0
2024-03-19 08:18:07;97;1320;-1320;0
2024-03-19 08:19:05;97;1320;-1320;0
2024-03-19 08:20:07;97;1320;-1320;0
2024-03-19 08:21:04;97;1320;-1320;0
2024-03-19 08:22:07;97;1320;-1320;0
2024-03-19 08:23:04;97;1320;-1320;0
2024-03-19 08:24:06;97;1320;-1320;0
2024-03-19 08:25:08;97;1320;-1320;0
2024-03-19 08:26:06;97;1320;-1320;0
2024-03-19 08:27:08;97;1320;-1320;0
2024-03-19 08:28:06;97;1320;-1320;0
2024-03-19 08:29:08;97;1320;-1320;0
2024-03-19 08:30:05;97;1320;-1320;0
2024-03-19 08:31:08;98;1320;-1320;0
2024-03-19 08:32:05;97;1320;-1320;0
2024-03-19 08:33:07;97;1320;-1320;0
2024-03-19 08:34:05;97;1320;-1320;0
2024-03-19 08:35:07;97;1320;-1320;0
2024-03-19 08:36:05;97;1320;-1320;0
2024-03-19 08:37:07;97;1320;-1320;0
2024-03-19 08:38:04;97;1320;-1320;0
2024-03-19 08:39:06;97;1320;-1320;0
2024-03-19 08:40:09;97;1320;-1320;0
2024-03-19 08:41:06;97;1320;-1320;0
2024-03-19 08:42:08;97;1320;-1320;0
2024-03-19 08:43:06;97;1320;-1320;0
2024-03-19 08:44:08;97;1320;-1320;0
2024-03-19 08:45:06;97;1320;-1320;0
2024-03-19 08:46:08;97;1320;-1320;0
2024-03-19 08:47:05;97;1320;-1320;0
2024-03-19 08:48:08;97;1320;-1320;0
2024-03-19 08:49:05;97;1320;-1320;0
2024-03-19 08:50:07;97;1320;-1320;0
2024-03-19 08:51:05;97;1320;-1320;0
2024-03-19 08:52:07;97;1320;-1320;0
2024-03-19 08:53:05;97;1320;-1320;0
2024-03-19 08:54:07;97;1320;-1320;0
2024-03-19 08:55:04;97;1320;-1320;0
2024-03-19 08:56:07;97;1320;-1320;0
2024-03-19 08:57:04;97;1320;-1320;0
2024-03-19 08:58:06;97;1320;-1320;0
2024-03-19 08:59:09;97;1320;-1320;0
2024-03-19 09:00:06;97;1320;-1320;0
2024-03-19 09:01:08;97;1320;-1320;0
2024-03-19 09:02:06;97;1320;-1320;0
2024-03-19 09:03:08;97;1320;-1320;0
2024-03-19 09:04:06;97;1320;-1320;0
2024-03-19 09:05:08;97;1320;-1320;0
2024-03-19 09:06:05;97;1320;-1320;0
2024-03-19 09:07:08;97;1320;-1320;0
2024-03-19 09:08:05;97;1320;-1320;0
2024-03-19 09:09:07;97;1320;-1320;0
2024-03-19 09:10:05;97;1320;-1320;0
2024-03-19 09:11:07;97;1320;-1320;0
2024-03-19 09:12:05;97;1320;-1320;0
2024-03-19 09:13:07;97;1320;-1320;0
2024-03-19 09:14:04;97;1320;-1320;0
2024-03-19 09:15:07;97;1320;-1320;0
2024-03-19 09:16:04;97;1320;-1320;0
2024-03-19 09:17:06;97;1320;-1320;0
2024-03-19 09:18:08;97;1320;-1320;0
2024-03-19 09:19:06;97;1320;-1320;0
2024-03-19 09:20:08;97;1320;-1320;0
2024-03-19 09:21:06;97;1320;-1320;0
2024-03-19 09:22:08;97;1320;-1320;0
2024-03-19 09:23:06;97;1320;-1320;0
2024-03-19 09:24:08;97;1320;-1320;0
2024-03-19 09:25:05;97;1320;-1320;0
2024-03-19 09:26:07;97;1320;-1320;0
2024-03-19 09:27:05;97;1320;-1320;0
2024-03-19 09:28:07;97;1320;-1320;0
2024-03-19 09:29:05;97;1320;-1320;0
2024-03-19 09:30:07;97;1320;-1320;0
2024-03-19 09:31:05;97;1320;-1320;0
2024-03-19 09:32:07;97;1320;-1320;0
2024-03-19 09:33:04;97;1320;-1320;0
2024-03-19 09:34:06;97;1320;-1320;0
2024-03-19 09:35:09;97;1320;-1320;0
2024-03-19 09:36:06;97;1320;-1320;0
2024-03-19 09:37:08;97;1320;-1320;0
2024-03-19 09:38:06;97;1320;-1320;0
2024-03-19 09:39:08;97;1320;-1320;0
2024-03-19 09:40:06;98;1320;-1320;0
2024-03-19 09:41:08;97;1320;-1320;0
2024-03-19 09:42:05;97;1320;-1320;0
2024-03-19 09:43:08;97;1320;-1320;0
2024-03-19 09:44:05;97;1320;-1320;0
2024-03-19 09:45:07;97;1320;-1320;0
2024-03-19 09:46:05;97;1320;-1320;0
2024-03-19 09:47:07;97;1320;-1320;0
2024-03-19 09:48:05;97;1320;-1320;0
2024-03-19 09:49:07;97;1320;-1320;0
2024-03-19 09:50:04;97;1320;-1320;0
2024-03-19 09:51:07;97;1320;-1320;0
2024-03-19 09:52:04;97;1320;-1320;0
2024-03-19 09:53:06;97;1320;-1320;0
2024-03-19 09:54:09;97;1320;-1320;0
2024-03-19 09:55:06;97;1320;-1320;0
2024-03-19 09:56:08;97;1320;-1320;0
2024-03-19 09:57:06;97;1320;-1320;0
2024-03-19 09:58:08;97;1320;-1320;0
2024-03-19 09:59:06;97;1320;-1320;0
2024-03-19 10:00:08;97;1320;-1320;0
2024-03-19 10:01:05;97;1320;-1320;0
2024-03-19 10:02:08;97;1320;-1320;0
2024-03-19 10:03:05;97;1320;-1320;0
2024-03-19 10:04:07;97;1320;-1320;0
2024-03-19 10:05:05;97;1320;-1320;0
2024-03-19 10:06:07;97;1320;-1320;0
2024-03-19 10:07:05;97;1320;-1320;0
2024-03-19 10:08:07;97;1320;-1320;0
2024-03-19 10:09:05;97;1320;-1320;0
2024-03-19 10:10:07;97;1320;-1320;0
2024-03-19 10:11:04;97;1320;-1320;0
2024-03-19 10:12:06;97;1320;-1320;0
2024-03-19 10:13:09;97;1320;-1320;0
2024-03-19 10:14:06;97;1320;-1320;0
2024-03-19 10:15:08;97;1320;-1320;0
2024-03-19 10:16:06;97;1320;-1320;0
2024-03-19 10:17:08;97;1320;-1320;0
2024-03-19 10:18:06;97;1320;-1320;0
2024-03-19 10:19:08;97;1320;-1320;0
2024-03-19 10:20:06;97;1320;-1320;0
2024-03-19 10:21:08;97;1320;-1320;0
2024-03-19 10:22:05;97;1320;-1320;0
2024-03-19 10:23:07;97;1320;-1320;0
2024-03-19 10:24:05;97;1320;-1320;0
2024-03-19 10:25:07;97;1320;-1320;0
2024-03-19 10:26:05;97;1320;-1320;0
2024-03-19 10:27:07;97;1320;-1320;0
2024-03-19 10:28:05;97;1320;-1320;0
2024-03-19 10:29:07;97;1320;-1320;0
2024-03-19 10:30:04;97;1320;-1320;0
2024-03-19 10:31:06;97;1320;-1320;0
2024-03-19 10:32:09;97;1320;-1320;0
2024-03-19 10:33:06;97;1320;-1320;0
2024-03-19 10:34:08;97;1320;-1320;0
2024-03-19 10:35:06;97;1320;-1320;0
2024-03-19 10:36:08;97;1320;-1320;0
2024-03-19 10:37:06;97;1320;-1320;0
2024-03-19 10:38:08;97;1320;-1320;0
2024-03-19 10:39:05;97;1320;-1320;0
2024-03-19 10:40:08;97;1320;-1320;0
2024-03-19 10:41:05;97;1320;-1320;0
2024-03-19 10:42:07;97;1320;-1320;0
2024-03-19 10:43:05;97;1320;-1320;0
2024-03-19 10:44:07;97;1320;-1320;0
2024-03-19 10:45:05;97;1320;-1320;0
2024-03-19 10:46:07;97;1320;-1320;0
2024-03-19 10:47:04;97;1320;-1320;0
2024-03-19 10:48:06;97;1320;-1320;0
2024-03-19 10:49:09;97;1320;-1320;0
2024-03-19 10:50:06;97;1320;-1320;0
2024-03-19 10:51:08;97;1320;-1320;0
2024-03-19 10:52:06;97;1320;-1320;0
2024-03-19 10:53:08;97;1320;-1320;0
2024-03-19 10:54:06;97;1320;-1320;0
2024-03-19 10:55:08;97;1320;-1320;0
2024-03-19 10:56:05;97;1320;-1320;0
2024-03-19 10:57:08;97;1320;-1320;0
2024-03-19 10:58:05;97;1320;-1320;0
2024-03-19 10:59:07;97;1320;-1320;0
2024-03-19 11:00:05;97;1320;-1320;0
2024-03-19 11:01:07;97;1320;-1320;0
2024-03-19 11:02:05;97;1320;-1320;0
2024-03-19 11:03:07;97;1320;-1320;0
2024-03-19 11:04:04;97;1320;-1320;0
2024-03-19 11:05:06;97;1320;-1320;0
2024-03-19 11:06:09;97;1320;-1320;0
2024-03-19 11:07:06;97;1320;-1320;0
2024-03-19 11:08:08;97;1320;-1320;0
2024-03-19 11:09:06;97;1320;-1320;0
2024-03-19 11:10:08;97;1320;-1320;0
2024-03-19 11:11:06;97;1320;-1320;0
2024-03-19 11:12:08;97;1320;-1320;0
2024-03-19 11:13:05;97;1320;-1320;0
2024-03-19 11:14:07;97;1320;-1320;0
2024-03-19 11:15:05;97;1320;-1320;0
2024-03-19 11:16:07;97;1320;-1320;0
2024-03-19 11:17:05;97;1320;-1320;0
2024-03-19 11:18:07;97;1320;-1320;0
2024-03-19 11:19:04;97;1320;-1320;0
2024-03-19 11:20:07;97;1320;-1320;0
2024-03-19 11:21:04;97;1320;-1320;0
2024-03-19 11:22:06;97;1320;-1320;0
2024-03-19 11:23:08;97;1320;-1320;0
2024-03-19 11:24:06;97;1320;-1320;0
2024-03-19 11:25:08;97;1320;-1320;0
2024-03-19 11:26:06;97;1320;-1320;0
2024-03-19 11:27:08;97;1320;-1320;0
2024-03-19 11:28:06;97;1320;-1320;0
2024-03-19 11:29:08;97;1320;-1320;0
2024-03-19 11:30:05;97;1320;-1320;0
2024-03-19 11:31:07;97;1320;-1320;0
2024-03-19 11:32:05;97;1320;-1320;0
2024-03-19 11:33:07;97;1320;-1320;0
2024-03-19 11:34:05;97;1320;-1320;0
2024-03-19 11:35:07;97;1320;-1320;0
2024-03-19 11:36:04;97;1320;-1320;0
2024-03-19 11:37:07;97;1320;-1320;0
2024-03-19 11:38:04;97;1320;-1320;0
2024-03-19 11:39:06;97;1320;-1320;0
2024-03-19 11:40:08;97;1320;-1320;0
2024-03-19 11:41:06;97;1320;-1320;0
2024-03-19 11:42:08;97;1320;-1320;0
2024-03-19 11:43:06;97;1320;-1320;0
2024-03-19 11:44:08;96;1320;-1320;0
2024-03-19 11:45:05;97;1320;-1320;0
2024-03-19 11:46:08;97;1320;-1320;0
2024-03-19 11:47:05;97;1320;-1320;0
2024-03-19 11:48:07;97;1320;-1320;0
2024-03-19 11:49:05;97;1320;-1320;0
2024-03-19 11:50:07;97;1320;-1320;0
2024-03-19 11:51:05;97;1320;-1320;0
2024-03-19 11:52:07;97;1320;-1320;0
2024-03-19 11:53:04;97;1320;-1320;0
2024-03-19 11:54:07;97;1320;-1320;0
2024-03-19 11:55:04;97;1320;-1320;0
2024-03-19 11:56:06;97;1320;-1320;0
2024-03-19 11:57:09;97;1320;-1320;0
2024-03-19 11:58:06;97;1320;-1320;0
2024-03-19 11:59:08;96;1320;-1320;0
2024-03-19 12:00:06;96;1320;-1320;0
2024-03-19 12:01:08;97;1320;-1320;0
2024-03-19 12:02:06;97;1320;-1320;0
2024-03-19 12:03:08;97;1320;-1320;0
2024-03-19 12:04:06;97;1320;-1320;0
2024-03-19 12:05:08;97;1320;-1320;0
2024-03-19 12:06:05;97;1320;-1320;0
2024-03-19 12:07:08;97;1320;-1320;0
2024-03-19 12:08:05;97;1320;-1320;0
2024-03-19 12:09:07;97;1320;-1320;0
2024-03-19 12:10:05;97;1320;-1320;0
2024-03-19 12:11:07;97;1320;-1320;0
2024-03-19 12:12:05;97;1320;-1320;0
2024-03-19 12:13:07;97;1320;-1320;0
2024-03-19 12:14:05;97;1320;-1320;0
2024-03-19 12:15:07;97;1320;-1320;0
2024-03-19 12:16:04;97;1320;-1320;0
2024-03-19 12:17:07;97;1320;-1320;0
2024-03-19 12:18:04;97;1320;-1320;0
2024-03-19 12:19:07;97;1320;-1320;0
2024-03-19 12:20:04;97;1320;-1320;0
2024-03-19 12:21:06;97;1320;-1320;0
2024-03-19 12:22:09;97;1320;-1320;0
2024-03-19 12:23:06;97;1320;-1320;0
2024-03-19 12:24:08;97;1320;-1320;0
2024-03-19 12:25:06;97;1320;-1320;0
2024-03-19 12:26:08;98;1320;-1320;0
2024-03-19 12:27:06;97;1320;-1320;0
2024-03-19 12:28:08;97;1320;-1320;0
2024-03-19 12:29:06;97;1320;-1320;0
2024-03-19 12:30:08;97;1320;-1320;0
2024-03-19 12:31:06;97;1320;-1320;0
2024-03-19 12:32:08;98;1320;-1320;0
2024-03-19 12:33:06;98;1320;-1320;0
2024-03-19 12:34:08;98;1320;-1320;0
2024-03-19 12:35:06;98;1320;-1320;0
2024-03-19 12:36:08;98;1320;-1320;0
2024-03-19 12:37:06;98;1320;-1320;0
2024-03-19 12:38:08;98;1320;-1320;0
2024-03-19 12:39:06;98;1320;-1320;0
2024-03-19 12:40:08;99;1320;-1320;0
2024-03-19 12:41:05;98;1320;-1320;0
2024-03-19 12:42:08;98;1320;-1320;0
2024-03-19 12:43:05;98;1320;-1320;0
2024-03-19 12:44:08;98;1320;-1320;0
2024-03-19 12:45:05;97;1320;-1320;0
2024-03-19 12:46:08;97;1320;-1320;0
2024-03-19 12:47:05;98;1320;-1320;0
2024-03-19 12:48:08;98;1320;-1320;0
2024-03-19 12:49:05;98;1320;-1320;0
2024-03-19 12:50:08;97;1320;-1320;0
2024-03-19 12:51:05;97;1320;-1320;0
2024-03-19 12:52:07;98;1320;-1320;0
2024-03-19 12:53:05;97;1320;-1320;0
2024-03-19 12:54:07;97;1320;-1320;0
2024-03-19 12:55:05;97;1320;-1320;0
2024-03-19 12:56:07;97;1320;-1320;0
2024-03-19 12:57:05;98;1320;-1320;0
2024-03-19 12:58:07;98;1320;-1320;0
2024-03-19 12:59:05;98;1320;-1320;0
2024-03-19 13:00:07;97;1320;-1320;0
2024-03-19 13:01:05;97;1320;-1320;0
2024-03-19 13:02:07;97;1320;-1320;0
2024-03-19 13:03:05;97;1320;-1320;0
2024-03-19 13:04:07;97;1320;-1320;0
2024-03-19 13:05:05;97;1320;-1320;0
2024-03-19 13:06:07;97;1320;-1320;0
2024-03-19 13:07:05;98;1320;-1320;0
2024-03-19 13:08:07;98;1320;-1320;0
2024-03-19 13:09:05;98;1320;-1320;0
2024-03-19 13:10:07;98;1320;-1320;0
2024-03-19 13:11:05;98;1320;-1320;0
2024-03-19 13:12:07;98;1320;-1320;0
2024-03-19 13:13:05;98;1320;-1320;0
2024-03-19 13:14:07;98;1320;-1320;0
2024-03-19 13:15:05;98;1320;-1320;0
2024-03-19 13:16:07;99;1320;-1320;0
2024-03-19 13:17:05;99;1320;-1320;0
2024-03-19 13:18:08;99;1320;-1320;0
2024-03-19 13:19:05;99;1320;-1320;0
2024-03-19 13:20:08;99;1320;-1320;0
2024-03-19 13:21:05;99;1320;-1320;0
2024-03-19 13:22:08;100;1320;-1320;0
2024-03-19 13:23:05;99;1320;-1320;0
2024-03-19 13:24:08;99;1320;-1320;0
2024-03-19 13:25:05;99;1320;-1320;0
2024-03-19 13:26:08;100;1320;-1320;0
2024-03-19 13:27:05;100;1320;-1320;0
2024-03-19 13:28:08;100;1320;-1320;0
2024-03-19 13:29:05;100;1320;-1320;0
2024-03-19 13:30:08;99;1320;-1320;0
2024-03-19 13:31:06;100;1320;-1320;0
2024-03-19 13:32:08;100;1320;-1320;0
2024-03-19 13:33:06;100;1320;-1320;0
2024-03-19 13:34:08;100;1320;-1320;0
2024-03-19 13:35:06;99;1320;-1320;0
2024-03-19 13:36:08;99;1320;-1320;0
2024-03-19 13:37:06;99;1320;-1320;0
2024-03-19 13:38:08;98;1320;-1320;0
2024-03-19 13:39:06;98;1320;-1320;0
2024-03-19 13:40:09;99;1320;-1320;0
2024-03-19 13:41:06;100;1320;-1320;0
2024-03-19 13:42:04;99;1320;-1320;0
2024-03-19 13:43:07;100;1320;-1320;0
2024-03-19 13:44:05;99;1320;-1320;0
2024-03-19 13:45:07;100;1320;-1320;0
2024-03-19 13:46:05;100;1320;-1320;0
2024-03-19 13:47:07;100;1320;-1320;0
2024-03-19 13:48:05;99;1320;-1320;0
2024-03-19 13:49:08;99;1320;-1320;0
2024-03-19 13:50:05;100;1320;-1320;0
2024-03-19 13:51:08;100;1320;-1320;0
2024-03-19 13:52:06;100;1320;-1320;0
2024-03-19 13:53:08;99;1320;-1320;0
2024-03-19 13:54:06;100;1320;-1320;0
2024-03-19 13:55:08;99;1320;-1320;0
2024-03-19 13:56:06;99;1320;-1320;0
2024-03-19 13:57:09;99;1320;-1320;0
2024-03-19 13:58:07;99;1320;-1320;0
2024-03-19 13:59:05;99;1320;-1320;0
2024-03-19 14:00:07;99;1320;-1320;0
2024-03-19 14:01:05;100;1320;-1320;0
2024-03-19 14:02:07;100;1320;-1320;0
2024-03-19 14:03:05;99;1320;-1320;0
2024-03-19 14:04:08;99;1320;-1320;0
2024-03-19 14:05:06;99;1320;-1320;0
2024-03-19 14:06:08;100;1320;-1320;0
2024-03-19 14:07:06;100;1320;-1320;0
2024-03-19 14:08:08;100;1320;-1320;0
2024-03-19 14:09:06;99;1320;-1320;0
2024-03-19 14:10:09;99;1320;-1320;0
2024-03-19 14:11:07;99;1320;-1320;0
2024-03-19 14:12:04;99;1320;-1320;0
2024-03-19 14:13:07;100;1320;-1320;0
2024-03-19 14:14:05;99;1320;-1320;0
2024-03-19 14:15:07;99;1320;-1320;0
2024-03-19 14:16:05;100;1320;-1320;0
2024-03-19 14:17:08;99;1320;-1320;0
2024-03-19 14:18:06;99;1320;-1320;0
2024-03-19 14:19:08;99;1320;-1320;0
2024-03-19 14:20:06;99;1320;-1320;0
2024-03-19 14:21:08;100;1320;-1320;0
2024-03-19 14:22:06;100;1320;-1320;0
2024-03-19 14:23:09;95;1320;-1320;0
2024-03-19 14:24:07;100;1320;-1320;0
2024-03-19 14:25:05;100;1320;-1320;0
2024-03-19 14:26:07;99;1320;-1320;0
2024-03-19 14:27:05;99;1320;-1320;0
2024-03-19 14:28:07;99;1320;-1320;0
2024-03-19 14:29:05;99;1320;-1320;0
2024-03-19 14:30:08;100;1320;-1320;0
2024-03-19 14:31:06;100;1320;-1320;0
2024-03-19 14:32:08;100;1320;-1320;0
2024-03-19 14:33:06;99;1320;-1320;0
2024-03-19 14:34:08;100;1320;-1320;0
2024-03-19 14:35:06;99;1320;-1320;0
2024-03-19 14:36:09;100;1320;-1320;0
2024-03-19 14:37:07;100;1320;-1320;0
2024-03-19 14:38:05;99;1320;-1320;0
2024-03-19 14:39:07;99;1320;-1320;0
2024-03-19 14:40:05;99;1320;-1320;0
2024-03-19 14:41:07;99;1320;-1320;0
2024-03-19 14:42:05;99;1320;-1320;0
2024-03-19 14:43:08;99;1320;-1320;0
2024-03-19 14:44:06;99;1320;-1320;0
2024-03-19 14:45:08;99;1320;-1320;0
2024-03-19 14:46:06;99;1320;-1320;0
2024-03-19 14:47:08;99;1320;-1320;0
2024-03-19 14:48:06;99;1320;-1320;0
2024-03-19 14:49:09;99;1320;-1320;0
2024-03-19 14:50:06;100;1320;-1320;0
2024-03-19 14:51:09;100;1320;-1320;0
2024-03-19 14:52:07;100;1320;-1320;0
2024-03-19 14:53:04;100;1320;-1320;0
2024-03-19 14:54:07;100;1320;-1320;0
2024-03-19 14:55:05;100;1320;-1320;0
2024-03-19 14:56:07;100;1320;-1320;0
2024-03-19 14:57:05;100;1320;-1320;0
2024-03-19 14:58:08;99;1320;-1320;0
2024-03-19 14:59:05;100;1320;-1320;0
2024-03-19 15:00:08;100;1320;-1320;0
2024-03-19 15:01:06;100;1320;-1320;0
2024-03-19 15:02:08;100;1320;-1320;0
2024-03-19 15:03:06;100;1320;-1320;0
2024-03-19 15:04:09;99;1320;-1320;0
2024-03-19 15:05:06;99;1320;-1320;0
2024-03-19 15:06:04;99;1320;-1320;0
2024-03-19 15:07:07;99;1320;-1320;0
2024-03-19 15:08:05;100;1320;-1320;0
2024-03-19 15:09:07;100;1320;-1320;0
2024-03-19 15:10:05;100;1320;-1320;0
2024-03-19 15:11:08;100;1320;-1320;0
2024-03-19 15:12:06;100;1320;-1320;0
2024-03-19 15:13:08;100;1320;-1320;0
2024-03-19 15:14:06;99;1320;-1320;0
2024-03-19 15:15:09;99;1320;-1320;0
2024-03-19 15:16:07;99;1320;-1320;0
2024-03-19 15:17:05;99;1320;-1320;0
2024-03-19 15:18:07;99;1320;-1320;0
2024-03-19 15:19:05;99;1320;-1320;0
2024-03-19 15:20:08;94;1320;-1320;0
2024-03-19 15:21:06;99;1320;-1320;0
2024-03-19 15:22:08;97;1320;-1320;0
2024-03-19 15:23:06;98;1320;-1320;0
2024-03-19 15:24:09;98;1320;-1320;0
2024-03-19 15:25:07;99;1320;-1320;0
2024-03-19 15:26:05;99;1320;-1320;0
2024-03-19 15:27:08;99;1320;-1320;0
2024-03-19 15:28:06;99;1320;-1320;0
2024-03-19 15:29:08;100;1320;-1320;0
2024-03-19 15:30:06;99;1320;-1320;0
2024-03-19 15:31:09;99;1320;-1320;0
2024-03-19 15:32:07;99;1320;-1320;0
2024-03-19 15:33:05;99;1320;-1320;0
2024-03-19 15:34:07;98;1320;-1320;0
2024-03-19 15:35:05;99;1320;-1320;0
2024-03-19 15:36:08;97;1320;-1320;0
2024-03-19 15:37:06;98;1320;-1320;0
2024-03-19 15:38:08;98;1320;-1320;0
2024-03-19 15:39:06;98;1320;-1320;0
2024-03-19 15:40:09;98;1320;-1320;0
2024-03-19 15:41:07;98;1320;-1320;0
2024-03-19 15:42:05;97;1320;-1320;0
2024-03-19 15:43:07;98;1320;-1320;0
2024-03-19 15:44:05;99;1320;-1320;0
2024-03-19 15:45:08;98;1320;-1320;0
2024-03-19 15:46:06;99;1320;-1320;0
2024-03-19 15:47:09;99;1320;-1320;0
2024-03-19 15:48:06;99;1320;-1320;0
2024-03-19 15:49:04;99;1320;-1320;0
2024-03-19 15:50:07;99;1320;-1320;0
2024-03-19 15:51:05;99;1320;-1320;0
2024-03-19 15:52:08;99;1320;-1320;0
2024-03-19 15:53:06;99;1320;-1320;0
2024-03-19 15:54:08;99;1320;-1320;0
2024-03-19 15:55:06;99;1320;-1320;0
2024-03-19 15:56:09;99;1320;-1320;0
2024-03-19 15:57:07;99;1320;-1320;0
2024-03-19 15:58:05;98;1320;-1320;0
2024-03-19 15:59:07;98;1320;-1320;0
2024-03-19 16:00:06;98;1320;-1320;0
2024-03-19 16:01:08;99;1320;-1320;0
2024-03-19 16:02:06;99;1320;-1320;0
2024-03-19 16:03:09;99;1320;-1320;0
2024-03-19 16:04:07;98;1320;-1320;0
2024-03-19 16:05:05;98;1320;-1320;0
2024-03-19 16:06:07;99;1320;-1320;0
2024-03-19 16:07:06;98;1320;-1320;0
2024-03-19 16:08:08;98;1320;-1320;0
2024-03-19 16:09:06;98;1320;-1320;0
2024-03-19 16:10:09;98;1320;-1320;0
2024-03-19 16:11:07;98;1320;-1320;0
2024-03-19 16:12:05;98;1320;-1320;0
2024-03-19 16:13:07;98;1320;-1320;0
2024-03-19 16:14:05;99;1320;-1320;0
2024-03-19 16:15:08;99;1320;-1320;0
2024-03-19 16:16:06;99;1320;-1320;0
2024-03-19 16:17:09;99;1320;-1320;0
2024-03-19 16:18:07;98;1320;-1320;0
2024-03-19 16:19:05;98;1320;-1320;0
2024-03-19 16:20:07;99;1320;-1320;0
2024-03-19 16:21:05;98;1320;-1320;0
2024-03-19 16:22:08;98;1320;-1320;0
2024-03-19 16:23:06;98;1320;-1320;0
2024-03-19 16:24:08;98;1320;-1320;0
2024-03-19 16:25:06;98;1320;-1320;0
2024-03-19 16:26:09;98;1320;-1320;0
2024-03-19 16:27:07;98;1320;-1320;0
2024-03-19 16:28:05;98;1320;-1320;0
2024-03-19 16:29:08;98;1320;-1320;0
2024-03-19 16:30:06;98;1320;-1320;0
2024-03-19 16:31:08;98;1320;-1320;0
2024-03-19 16:32:06;98;1320;-1320;0
2024-03-19 16:33:09;98;1320;-1320;0
2024-03-19 16:34:07;98;1320;-1320;0
2024-03-19 16:35:05;98;1320;-1320;0
2024-03-19 16:36:07;98;1320;-1320;0
2024-03-19 16:37:05;98;1320;-1320;0
2024-03-19 16:38:08;98;1320;-1320;0
2024-03-19 16:39:06;98;1320;-1320;0
2024-03-19 16:40:09;98;1320;-1320;0
2024-03-19 16:41:07;98;1320;-1320;0
2024-03-19 16:42:05;98;1320;-1320;0
2024-03-19 16:43:07;98;1320;-1320;0
2024-03-19 16:44:05;98;1320;-1320;0
2024-03-19 16:45:08;98;1320;-1320;0
2024-03-19 16:46:06;98;1320;-1320;0
2024-03-19 16:47:08;98;1320;-1320;0
2024-03-19 16:48:06;98;1320;-1320;0
2024-03-19 16:49:09;98;1320;-1320;0
2024-03-19 16:50:07;98;1320;-1320;0
2024-03-19 16:51:05;98;1320;-1320;0
2024-03-19 16:52:07;98;1320;-1320;0
2024-03-19 16:53:05;99;1320;-1320;0
2024-03-19 16:54:08;99;1320;-1320;0
2024-03-19 16:55:06;99;1320;-1320;0
2024-03-19 16:56:08;99;1320;-1320;0
2024-03-19 16:57:06;99;1320;-1320;0
2024-03-19 16:58:09;99;1320;-1320;0
2024-03-19 16:59:07;99;1320;-1320;0
2024-03-19 17:00:05;99;1320;-1320;0
2024-03-19 17:01:07;99;1320;-1320;0
2024-03-19 17:02:05;99;1320;-1320;0
2024-03-19 17:03:08;99;1320;-1320;0
2024-03-19 17:04:05;99;1320;-1320;0
2024-03-19 17:05:08;100;1320;-1320;0
2024-03-19 17:06:06;99;1320;-1320;0
2024-03-19 17:07:08;100;1320;-1320;0
2024-03-19 17:08:06;99;1320;-1320;0
2024-03-19 17:09:08;99;1320;-1320;0
2024-03-19 17:10:06;99;1320;-1320;0
2024-03-19 17:11:09;99;1320;-1320;0
2024-03-19 17:12:06;99;1320;-1320;0
2024-03-19 17:13:09;100;1320;-1320;0
2024-03-19 17:14:07;100;1320;-1320;0
2024-03-19 17:15:04;100;1320;-1320;0
2024-03-19 17:16:07;100;1320;-1320;0
2024-03-19 17:17:04;100;1320;-1320;0
2024-03-19 17:18:07;100;1320;-1320;0
2024-03-19 17:19:05;100;1320;-1320;0
2024-03-19 17:20:07;100;1320;-1320;0
2024-03-19 17:21:05;100;1320;-1320;0
2024-03-19 17:22:07;100;1320;-1320;0
2024-03-19 17:23:05;100;1320;-1320;0
2024-03-19 17:24:07;99;1320;-1320;0
2024-03-19 17:25:05;99;1320;-1320;0
2024-03-19 17:26:07;99;1320;-1320;0
2024-03-19 17:27:05;99;1320;-1320;0
2024-03-19 17:28:07;99;1320;-1320;0
2024-03-19 17:29:05;99;1320;-1320;0
2024-03-19 17:30:07;99;1320;-1320;0
2024-03-19 17:31:05;99;1320;-1320;0
2024-03-19 17:32:07;99;1320;-1320;0
2024-03-19 17:33:05;99;1320;-1320;0
2024-03-19 17:34:07;99;1320;-1320;0
2024-03-19 17:35:05;99;1320;-1320;0
2024-03-19 17:36:07;99;1320;-1320;0
2024-03-19 17:37:05;99;1320;-1320;0
2024-03-19 17:38:07;99;1320;-1320;0
2024-03-19 17:39:05;99;1320;-1320;0
2024-03-19 17:40:07;99;1320;-1320;0
2024-03-19 17:41:05;98;1320;-1320;0
2024-03-19 17:42:07;98;1320;-1320;0
2024-03-19 17:43:05;99;1320;-1320;0
2024-03-19 17:44:07;98;1320;-1320;0
2024-03-19 17:45:05;98;1320;-1320;0
2024-03-19 17:46:07;98;1320;-1320;0
2024-03-19 17:47:05;99;1320;-1320;0
2024-03-19 17:48:07;98;1320;-1320;0
2024-03-19 17:49:05;98;1320;-1320;0
2024-03-19 17:50:07;98;1320;-1320;0
2024-03-19 17:51:05;98;1320;-1320;0
2024-03-19 17:52:07;99;1320;-1320;0
2024-03-19 17:53:05;99;1320;-1320;0
2024-03-19 17:54:07;99;1320;-1320;0
2024-03-19 17:55:05;99;1320;-1320;0
2024-03-19 17:56:07;99;1320;-1320;0
2024-03-19 17:57:05;99;1320;-1320;0
2024-03-19 17:58:07;99;1320;-1320;0
2024-03-19 17:59:05;99;1320;-1320;0
2024-03-19 18:00:07;99;1320;-1320;0
2024-03-19 18:01:05;99;1320;-1320;0
2024-03-19 18:02:07;99;1320;-1320;0
2024-03-19 18:03:05;99;1320;-1320;0
2024-03-19 18:04:07;98;1320;-1320;0
2024-03-19 18:05:05;98;1320;-1320;0
2024-03-19 18:06:07;99;1320;-1320;0
2024-03-19 18:07:05;98;1320;-1320;0
2024-03-19 18:08:07;98;1320;-1320;0
2024-03-19 18:09:05;98;1320;-1320;0
2024-03-19 18:10:07;99;1320;-1320;0
2024-03-19 18:11:05;99;1320;-1320;0
2024-03-19 18:12:07;99;1320;-1320;0
2024-03-19 18:13:04;99;1320;-1320;0
2024-03-19 18:14:07;99;1320;-1320;0
2024-03-19 18:15:04;98;1320;-1320;0
2024-03-19 18:16:07;98;1320;-1320;0
2024-03-19 18:17:04;98;1320;-1320;0
2024-03-19 18:18:07;98;1320;-1320;0
2024-03-19 18:19:04;98;1320;-1320;0
2024-03-19 18:20:07;98;1320;-1320;0
2024-03-19 18:21:04;98;1320;-1320;0
2024-03-19 18:22:07;98;1320;-1320;0
2024-03-19 18:23:04;98;1320;-1320;0
2024-03-19 18:24:07;99;1320;-1320;0
2024-03-19 18:25:04;98;1320;-1320;0
2024-03-19 18:26:07;98;1320;-1320;0
2024-03-19 18:27:04;98;1320;-1320;0
2024-03-19 18:28:07;98;1320;-1320;0
2024-03-19 18:29:04;98;1320;-1320;0
2024-03-19 18:30:07;98;1320;-1320;0
2024-03-19 18:31:04;98;1320;-1320;0
2024-03-19 18:32:07;98;1320;-1320;0
2024-03-19 18:33:04;98;1320;-1320;0
2024-03-19 18:34:07;99;1320;-1320;0
2024-03-19 18:35:04;99;1320;-1320;0
2024-03-19 18:36:07;99;1320;-1320;0
2024-03-19 18:37:04;99;1320;-1320;0
2024-03-19 18:38:07;99;1320;-1320;0
2024-03-19 18:39:04;99;1320;-1320;0
2024-03-19 18:40:06;99;1320;-1320;0
2024-03-19 18:41:04;99;1320;-1320;0
2024-03-19 18:42:06;99;1320;-1320;0
2024-03-19 18:43:09;98;1320;-1320;0
2024-03-19 18:44:06;99;1320;-1320;0
2024-03-19 18:45:09;99;1320;-1320;0
2024-03-19 18:46:06;99;1320;-1320;0
2024-03-19 18:47:09;98;1320;-1320;0
2024-03-19 18:48:06;99;1320;-1320;0
2024-03-19 18:49:08;99;1320;-1320;0
2024-03-19 18:50:06;99;1320;-1320;0
2024-03-19 18:51:08;98;1320;-1320;0
2024-03-19 18:52:06;99;1320;-1320;0
2024-03-19 18:53:08;99;1320;-1320;0
2024-03-19 18:54:06;99;1320;-1320;0
2024-03-19 18:55:08;98;1320;-1320;0
2024-03-19 18:56:06;98;1320;-1320;0
2024-03-19 18:57:08;98;1320;-1320;0
2024-03-19 18:58:06;98;1320;-1320;0
2024-03-19 18:59:08;98;1320;-1320;0
2024-03-19 19:00:06;98;1320;-1320;0
2024-03-19 19:01:08;98;1320;-1320;0
2024-03-19 19:02:05;98;1320;-1320;0
2024-03-19 19:03:08;98;1320;-1320;0
2024-03-19 19:04:05;98;1320;-1320;0
2024-03-19 19:05:08;98;1320;-1320;0
2024-03-19 19:06:05;99;1320;-1320;0
2024-03-19 19:07:08;99;1320;-1320;0
2024-03-19 19:08:05;99;1320;-1320;0
2024-03-19 19:09:07;99;1320;-1320;0
2024-03-19 19:10:05;99;1320;-1320;0
2024-03-19 19:11:07;98;1320;-1320;0
2024-03-19 19:12:05;98;1320;-1320;0
2024-03-19 19:13:07;98;1320;-1320;0
2024-03-19 19:14:05;98;1320;-1320;0
2024-03-19 19:15:07;98;1320;-1320;0
2024-03-19 19:16:05;98;1320;-1320;0
2024-03-19 19:17:07;98;1320;-1320;0
2024-03-19 19:18:04;98;1320;-1320;0
2024-03-19 19:19:07;98;1320;-1320;0
2024-03-19 19:20:04;98;1320;-1320;0
2024-03-19 19:21:07;98;1320;-1320;0
2024-03-19 19:22:04;98;1320;-1320;0
2024-03-19 19:23:06;99;1320;-1320;0
2024-03-19 19:24:09;99;1320;-1320;0
2024-03-19 19:25:06;98;1320;-1320;0
2024-03-19 19:26:09;99;1320;-1320;0
2024-03-19 19:27:06;98;1320;-1320;0
2024-03-19 19:28:08;98;1320;-1320;0
2024-03-19 19:29:06;98;1320;-1320;0
2024-03-19 19:30:08;99;1320;-1320;0
2024-03-19 19:31:06;98;1320;-1320;0
2024-03-19 19:32:08;98;1320;-1320;0
2024-03-19 19:33:06;99;1320;-1320;0
2024-03-19 19:34:08;99;1320;-1320;0
2024-03-19 19:35:06;99;1320;-1320;0
2024-03-19 19:36:08;98;1320;-1320;0
2024-03-19 19:37:05;98;1320;-1320;0
2024-03-19 19:38:08;98;1320;-1320;0
2024-03-19 19:39:05;98;1320;-1320;0
2024-03-19 19:40:07;98;1320;-1320;0
2024-03-19 19:41:05;98;1320;-1320;0
2024-03-19 19:42:07;98;1320;-1320;0
2024-03-19 19:43:05;98;1320;-1320;0
2024-03-19 19:44:07;98;1320;-1320;0
2024-03-19 19:45:05;98;1320;-1320;0
2024-03-19 19:46:07;97;1320;-1320;0
2024-03-19 19:47:05;98;1320;-1320;0
2024-03-19 19:48:07;98;1320;-1320;0
2024-03-19 19:49:04;97;1320;-1320;0
2024-03-19 19:50:07;98;1320;-1320;0
2024-03-19 19:51:04;98;1320;-1320;0
2024-03-19 19:52:06;97;1320;-1320;0
2024-03-19 19:53:09;97;1320;-1320;0
2024-03-19 19:54:06;97;1320;-1320;0
2024-03-19 19:55:08;97;1320;-1320;0
2024-03-19 19:56:06;98;1320;-1320;0
2024-03-19 19:57:08;98;1320;-1320;0
2024-03-19 19:58:06;98;1320;-1320;0
2024-03-19 19:59:08;98;1320;-1320;0
2024-03-19 20:00:06;98;1320;-1320;0
2024-03-19 20:01:08;99;1320;-1320;0
2024-03-19 20:02:05;98;1320;-1320;0
2024-03-19 20:03:08;98;1320;-1320;0
2024-03-19 20:04:05;98;1320;-1320;0
2024-03-19 20:05:08;99;1320;-1320;0
2024-03-19 20:06:05;98;1320;-1320;0
2024-03-19 20:07:07;99;1320;-1320;0
2024-03-19 20:08:05;98;1320;-1320;0
2024-03-19 20:09:07;98;1320;-1320;0
2024-03-19 20:10:05;98;1320;-1320;0
2024-03-19 20:11:07;98;1320;-1320;0
2024-03-19 20:12:05;98;1320;-1320;0
2024-03-19 20:13:07;99;1320;-1320;0
2024-03-19 20:14:04;98;1320;-1320;0
2024-03-19 20:15:07;99;1320;-1320;0
2024-03-19 20:16:04;99;1320;-1320;0
2024-03-19 20:17:06;99;1320;-1320;0
2024-03-19 20:18:09;98;1320;-1320;0
2024-03-19 20:19:06;98;1320;-1320;0
2024-03-19 20:20:08;98;1320;-1320;0
2024-03-19 20:21:06;98;1320;-1320;0
2024-03-19 20:22:08;98;1320;-1320;0
2024-03-19 20:23:06;98;1320;-1320;0
2024-03-19 20:24:08;98;1320;-1320;0
2024-03-19 20:25:06;98;1320;-1320;0
2024-03-19 20:26:08;98;1320;-1320;0
2024-03-19 20:27:05;98;1320;-1320;0
2024-03-19 20:28:08;98;1320;-1320;0
2024-03-19 20:29:05;98;1320;-1320;0
2024-03-19 20:30:07;98;1320;-1320;0
2024-03-19 20:31:05;98;1320;-1320;0
2024-03-19 20:32:07;98;1320;-1320;0
2024-03-19 20:33:05;98;1320;-1320;0
2024-03-19 20:34:07;98;1320;-1320;0
2024-03-19 20:35:05;98;1320;-1320;0
2024-03-19 20:36:07;98;1320;-1320;0
2024-03-19 20:37:04;98;1320;-1320;0
2024-03-19 20:38:07;98;1320;-1320;0
2024-03-19 20:39:04;98;1320;-1320;0
2024-03-19 20:40:06;98;1320;-1320;0
2024-03-19 20:41:09;98;1320;-1320;0
2024-03-19 20:42:06;98;1320;-1320;0
2024-03-19 20:43:08;98;1320;-1320;0
2024-03-19 20:44:06;98;1320;-1320;0
2024-03-19 20:45:08;98;1320;-1320;0
2024-03-19 20:46:06;98;1320;-1320;0
2024-03-19 20:47:08;98;1320;-1320;0
2024-03-19 20:48:06;98;1320;-1320;0
2024-03-19 20:49:08;98;1320;-1320;0
2024-03-19 20:50:05;98;1320;-1320;0
2024-03-19 20:51:08;98;1320;-1320;0
2024-03-19 20:52:05;98;1320;-1320;0
2024-03-19 20:53:07;98;1320;-1320;0
2024-03-19 20:54:05;98;1320;-1320;0
2024-03-19 20:55:07;98;1320;-1320;0
2024-03-19 20:56:05;98;1320;-1320;0
2024-03-19 20:57:07;98;1320;-1320;0
2024-03-19 20:58:05;98;1320;-1320;0
2024-03-19 20:59:07;98;1320;-1320;0
2024-03-19 21:00:04;98;1320;-1320;0
2024-03-19 21:01:06;98;1320;-1320;0
2024-03-19 21:02:09;98;1320;-1320;0
2024-03-19 21:03:06;98;1320;-1320;0
2024-03-19 21:04:08;98;1320;-1320;0
2024-03-19 21:05:06;98;1320;-1320;0
2024-03-19 21:06:08;98;1320;-1320;0
2024-03-19 21:07:06;98;1320;-1320;0
2024-03-19 21:08:08;98;1320;-1320;0
2024-03-19 21:09:06;98;1320;-1320;0
2024-03-19 21:10:08;98;1320;-1320;0
2024-03-19 21:11:05;98;1320;-1320;0
2024-03-19 21:12:08;98;1320;-1320;0
2024-03-19 21:13:05;98;1320;-1320;0
2024-03-19 21:14:07;98;1320;-1320;0
2024-03-19 21:15:05;98;1320;-1320;0
2024-03-19 21:16:07;98;1320;-1320;0
2024-03-19 21:17:05;98;1320;-1320;0
2024-03-19 21:18:07;98;1320;-1320;0
2024-03-19 21:19:05;98;1320;-1320;0
2024-03-19 21:20:07;98;1320;-1320;0
2024-03-19 21:21:04;98;1320;-1320;0
2024-03-19 21:22:07;98;1320;-1320;0
2024-03-19 21:23:04;98;1320;-1320;0
2024-03-19 21:24:06;98;1320;-1320;0
2024-03-19 21:25:09;98;1320;-1320;0
2024-03-19 21:26:06;98;1320;-1320;0
2024-03-19 21:27:08;98;1320;-1320;0
2024-03-19 21:28:06;97;1320;-1320;0
2024-03-19 21:29:08;98;1320;-1320;0
2024-03-19 21:30:06;97;1320;-1320;0
2024-03-19 21:31:08;98;1320;-1320;0
2024-03-19 21:32:06;97;1320;-1320;0
2024-03-19 21:33:08;98;1320;-1320;0
2024-03-19 21:34:05;97;1320;-1320;0
2024-03-19 21:35:08;98;1320;-1320;0
2024-03-19 21:36:05;97;1320;-1320;0
2024-03-19 21:37:07;98;1320;-1320;0
2024-03-19 21:38:05;97;1320;-1320;0
2024-03-19 21:39:07;97;1320;-1320;0
2024-03-19 21:40:05;97;1320;-1320;0
2024-03-19 21:41:07;97;1320;-1320;0
2024-03-19 21:42:05;97;1320;-1320;0
2024-03-19 21:43:07;98;1320;-1320;0
2024-03-19 21:44:04;97;1320;-1320;0
2024-03-19 21:45:07;98;1320;-1320;0
2024-03-19 21:46:04;97;1320;-1320;0
2024-03-19 21:47:06;98;1320;-1320;0
2024-03-19 21:48:09;97;1320;-1320;0
2024-03-19 21:49:06;98;1320;-1320;0
2024-03-19 21:50:08;98;1320;-1320;0
2024-03-19 21:51:06;98;1320;-1320;0
2024-03-19 21:52:08;97;1320;-1320;0
2024-03-19 21:53:06;97;1320;-1320;0
2024-03-19 21:54:08;97;1320;-1320;0
2024-03-19 21:55:06;97;1320;-1320;0
2024-03-19 21:56:08;97;1320;-1320;0
2024-03-19 21:57:05;97;1320;-1320;0
2024-03-19 21:58:08;97;1320;-1320;0
2024-03-19 21:59:05;98;1320;-1320;0
2024-03-19 22:00:07;97;1320;-1320;0
2024-03-19 22:01:05;97;1320;-1320;0
2024-03-19 22:02:07;97;1320;-1320;0
2024-03-19 22:03:05;97;1320;-1320;0
2024-03-19 22:04:07;97;1320;-1320;0
2024-03-19 22:05:05;97;1320;-1320;0
2024-03-19 22:06:07;97;1320;-1320;0
2024-03-19 22:07:04;97;1320;-1320;0
2024-03-19 22:08:07;97;1320;-1320;0
2024-03-19 22:09:04;97;1320;-1320;0
2024-03-19 22:10:06;97;1320;-1320;0
2024-03-19 22:11:09;97;1320;-1320;0
2024-03-19 22:12:06;97;1320;-1320;0
2024-03-19 22:13:08;97;1320;-1320;0
2024-03-19 22:14:06;97;1320;-1320;0
2024-03-19 22:15:08;97;1320;-1320;0
2024-03-19 22:16:06;97;1320;-1320;0
2024-03-19 22:17:08;97;1320;-1320;0
2024-03-19 22:18:06;97;1320;-1320;0
2024-03-19 22:19:08;98;1320;-1320;0
2024-03-19 22:20:05;97;1320;-1320;0
2024-03-19 22:21:08;97;1320;-1320;0
2024-03-19 22:22:05;97;1320;-1320;0
2024-03-19 22:23:07;97;1320;-1320;0
2024-03-19 22:24:05;97;1320;-1320;0
2024-03-19 22:25:07;97;1320;-1320;0
2024-03-19 22:26:05;97;1320;-1320;0
2024-03-19 22:27:07;97;1320;-1320;0
2024-03-19 22:28:04;97;1320;-1320;0
2024-03-19 22:29:07;97;1320;-1320;0
2024-03-19 22:30:04;97;1320;-1320;0
2024-03-19 22:31:06;97;1320;-1320;0
2024-03-19 22:32:09;97;1320;-1320;0
2024-03-19 22:33:06;98;1320;-1320;0
2024-03-19 22:34:08;97;1320;-1320;0
2024-03-19 22:35:06;97;1320;-1320;0
2024-03-19 22:36:08;97;1320;-1320;0
2024-03-19 22:37:06;97;1320;-1320;0
2024-03-19 22:38:08;97;1320;-1320;0
2024-03-19 22:39:06;97;1320;-1320;0
2024-03-19 22:40:08;97;1320;-1320;0
2024-03-19 22:41:05;97;1320;-1320;0
2024-03-19 22:42:08;97;1320;-1320;0
2024-03-19 22:43:05;97;1320;-1320;0
2024-03-19 22:44:07;97;1320;-1320;0
2024-03-19 22:45:05;97;1320;-1320;0
2024-03-19 22:46:07;97;1320;-1320;0
2024-03-19 22:47:05;98;1320;-1320;0
2024-03-19 22:48:07;97;1320;-1320;0
2024-03-19 22:49:05;97;1320;-1320;0
2024-03-19 22:50:07;97;1320;-1320;0
2024-03-19 22:51:04;97;1320;-1320;0
2024-03-19 22:52:07;97;1320;-1320;0
2024-03-19 22:53:04;97;1320;-1320;0
2024-03-19 22:54:06;97;1320;-1320;0
2024-03-19 22:55:08;97;1320;-1320;0
2024-03-19 22:56:06;97;1320;-1320;0
2024-03-19 22:57:08;97;1320;-1320;0
2024-03-19 22:58:06;97;1320;-1320;0
2024-03-19 22:59:08;97;1320;-1320;0
2024-03-19 23:00:06;97;1320;-1320;0
2024-03-19 23:01:08;98;1320;-1320;0
2024-03-19 23:02:05;97;1320;-1320;0
2024-03-19 23:03:08;97;1320;-1320;0
2024-03-19 23:04:05;97;1320;-1320;0
2024-03-19 23:05:07;97;1320;-1320;0
2024-03-19 23:06:05;97;1320;-1320;0
2024-03-19 23:07:07;97;1320;-1320;0
2024-03-19 23:08:05;97;1320;-1320;0
2024-03-19 23:09:07;97;1320;-1320;0
2024-03-19 23:10:04;97;1320;-1320;0
2024-03-19 23:11:07;97;1320;-1320;0
2024-03-19 23:12:04;97;1320;-1320;0
2024-03-19 23:13:06;97;1320;-1320;0
2024-03-19 23:14:09;97;1320;-1320;0
2024-03-19 23:15:06;97;1320;-1320;0
2024-03-19 23:16:08;97;1320;-1320;0
2024-03-19 23:17:06;97;1320;-1320;0
2024-03-19 23:18:08;97;1320;-1320;0
2024-03-19 23:19:06;97;1320;-1320;0
2024-03-19 23:20:08;97;1320;-1320;0
2024-03-19 23:21:05;97;1320;-1320;0
2024-03-19 23:22:08;97;1320;-1320;0
2024-03-19 23:23:05;97;1320;-1320;0
2024-03-19 23:24:07;97;1320;-1320;0
2024-03-19 23:25:05;97;1320;-1320;0
2024-03-19 23:26:07;97;1320;-1320;0
2024-03-19 23:27:05;97;1320;-1320;0
2024-03-19 23:28:07;97;1320;-1320;0
2024-03-19 23:29:05;97;1320;-1320;0
2024-03-19 23:30:07;97;1320;-1320;0
2024-03-19 23:31:04;97;1320;-1320;0
2024-03-19 23:32:06;97;1320;-1320;0
2024-03-19 23:33:09;97;1320;-1320;0
2024-03-19 23:34:06;97;1320;-1320;0
2024-03-19 23:35:08;97;1320;-1320;0
2024-03-19 23:36:06;97;1320;-1320;0
2024-03-19 23:37:08;97;1320;-1320;0
2024-03-19 23:38:06;97;1320;-1320;0
2024-03-19 23:39:08;97;1320;-1320;0
2024-03-19 23:40:05;97;1320;-1320;0
2024-03-19 23:41:08;97;1320;-1320;0
2024-03-19 23:42:05;97;1320;-1320;0
2024-03-19 23:43:07;97;1320;-1320;0
2024-03-19 23:44:05;97;1320;-1320;0
2024-03-19 23:45:07;97;1320;-1320;0
2024-03-19 23:46:05;97;1320;-1320;0
2024-03-19 23:47:07;97;1320;-1320;0
2024-03-19 23:48:04;97;1320;-1320;0
2024-03-19 23:49:07;97;1320;-1320;0
2024-03-19 23:50:04;97;1320;-1320;0
2024-03-19 23:51:06;97;1320;-1320;0
2024-03-19 23:52:09;98;1320;-1320;0
2024-03-19 23:53:06;97;1320;-1320;0
2024-03-19 23:54:08;97;1320;-1320;0
2024-03-19 23:55:06;97;1320;-1320;0
2024-03-19 23:56:08;98;1320;-1320;0
2024-03-19 23:57:06;97;1320;-1320;0
2024-03-19 23:58:08;97;1320;-1320;0
2024-03-19 23:59:05;98;1320;-1320;0
