2024-01-22 00:00:08;86;1320;-1320;0
2024-01-22 00:01:05;86;1320;-1320;0
2024-01-22 00:02:07;86;1320;-1320;0
2024-01-22 00:03:04;86;1320;-1320;0
2024-01-22 00:04:06;86;1320;-1320;0
2024-01-22 00:05:08;86;1320;-1320;0
2024-01-22 00:06:06;86;1320;-1320;0
2024-01-22 00:07:08;86;1320;-1320;0
2024-01-22 00:08:05;86;1320;-1320;0
2024-01-22 00:09:07;86;1320;-1320;0
2024-01-22 00:10:05;86;1320;-1320;0
2024-01-22 00:11:07;86;1320;-1320;0
2024-01-22 00:12:04;86;1320;-1320;0
2024-01-22 00:13:06;86;1320;-1320;0
2024-01-22 00:14:08;86;1320;-1320;0
2024-01-22 00:15:05;86;1320;-1320;0
2024-01-22 00:16:07;86;1320;-1320;0
2024-01-22 00:17:05;86;1320;-1320;0
2024-01-22 00:18:07;86;1320;-1320;0
2024-01-22 00:19:04;86;1320;-1320;0
2024-01-22 00:20:06;86;1320;-1320;0
2024-01-22 00:21:08;86;1320;-1320;0
2024-01-22 00:22:06;86;1320;-1320;0
2024-01-22 00:23:08;86;1320;-1320;0
2024-01-22 00:24:05;86;1320;-1320;0
2024-01-22 00:25:07;86;1320;-1320;0
2024-01-22 00:26:04;86;1320;-1320;0
2024-01-22 00:27:06;86;1320;-1320;0
2024-01-22 00:28:08;86;1320;-1320;0
2024-01-22 00:29:06;86;1320;-1320;0
2024-01-22 00:30:08;86;1320;-1320;0
2024-01-22 00:31:05;86;1320;-1320;0
2024-01-22 00:32:07;86;1320;-1320;0
2024-01-22 00:33:05;86;1320;-1320;0
2024-01-22 00:34:06;86;1320;-1320;0
2024-01-22 00:35:04;86;1320;-1320;0
2024-01-22 00:36:06;86;1320;-1320;0
2024-01-22 00:37:08;86;1320;-1320;0
2024-01-22 00:38:05;86;1320;-1320;0
2024-01-22 00:39:07;86;1320;-1320;0
2024-01-22 00:40:05;86;1320;-1320;0
2024-01-22 00:41:07;86;1320;-1320;0
2024-01-22 00:42:04;86;1320;-1320;0
2024-01-22 00:43:06;86;1320;-1320;0
2024-01-22 00:44:08;86;1320;-1320;0
2024-01-22 00:45:06;86;1320;-1320;0
2024-01-22 00:46:08;86;1320;-1320;0
2024-01-22 00:47:05;86;1320;-1320;0
2024-01-22 00:48:07;86;1320;-1320;0
2024-01-22 00:49:04;86;1320;-1320;0
2024-01-22 00:50:06;86;1320;-1320;0
2024-01-22 00:51:08;86;1320;-1320;0
2024-01-22 00:52:06;86;1320;-1320;0
2024-01-22 00:53:08;86;1320;-1320;0
2024-01-22 00:54:05;86;1320;-1320;0
2024-01-22 00:55:07;86;1320;-1320;0
2024-01-22 00:56:05;86;1320;-1320;0
2024-01-22 00:57:07;86;1320;-1320;0
2024-01-22 00:58:04;86;1320;-1320;0
2024-01-22 00:59:06;86;1320;-1320;0
2024-01-22 01:00:08;86;1320;-1320;0
2024-01-22 01:01:05;86;1320;-1320;0
2024-01-22 01:02:07;86;1320;-1320;0
2024-01-22 01:03:05;86;1320;-1320;0
2024-01-22 01:04:07;86;1320;-1320;0
2024-01-22 01:05:04;86;1320;-1320;0
2024-01-22 01:06:06;86;1320;-1320;0
2024-01-22 01:07:08;86;1320;-1320;0
2024-01-22 01:08:06;86;1320;-1320;0
2024-01-22 01:09:08;86;1320;-1320;0
2024-01-22 01:10:05;86;1320;-1320;0
2024-01-22 01:11:07;86;1320;-1320;0
2024-01-22 01:12:05;86;1320;-1320;0
2024-01-22 01:13:07;86;1320;-1320;0
2024-01-22 01:14:04;86;1320;-1320;0
2024-01-22 01:15:06;86;1320;-1320;0
2024-01-22 01:16:08;86;1320;-1320;0
2024-01-22 01:17:05;86;1320;-1320;0
2024-01-22 01:18:07;86;1320;-1320;0
2024-01-22 01:19:05;86;1320;-1320;0
2024-01-22 01:20:07;86;1320;-1320;0
2024-01-22 01:21:04;86;1320;-1320;0
2024-01-22 01:22:06;86;1320;-1320;0
2024-01-22 01:23:08;86;1320;-1320;0
2024-01-22 01:24:06;86;1320;-1320;0
2024-01-22 01:25:08;86;1320;-1320;0
2024-01-22 01:26:05;86;1320;-1320;0
2024-01-22 01:27:07;86;1320;-1320;0
2024-01-22 01:28:05;86;1320;-1320;0
2024-01-22 01:29:07;86;1320;-1320;0
2024-01-22 01:30:04;86;1320;-1320;0
2024-01-22 01:31:06;86;1320;-1320;0
2024-01-22 01:32:08;86;1320;-1320;0
2024-01-22 01:33:05;86;1320;-1320;0
2024-01-22 01:34:07;86;1320;-1320;0
2024-01-22 01:35:05;86;1320;-1320;0
2024-01-22 01:36:07;86;1320;-1320;0
2024-01-22 01:37:04;86;1320;-1320;0
2024-01-22 01:38:06;86;1320;-1320;0
2024-01-22 01:39:08;86;1320;-1320;0
2024-01-22 01:40:06;86;1320;-1320;0
2024-01-22 01:41:08;86;1320;-1320;0
2024-01-22 01:42:05;86;1320;-1320;0
2024-01-22 01:43:07;86;1320;-1320;0
2024-01-22 01:44:05;86;1320;-1320;0
2024-01-22 01:45:06;86;1320;-1320;0
2024-01-22 01:46:04;86;1320;-1320;0
2024-01-22 01:47:06;86;1320;-1320;0
2024-01-22 01:48:08;86;1320;-1320;0
2024-01-22 01:49:05;86;1320;-1320;0
2024-01-22 01:50:07;86;1320;-1320;0
2024-01-22 01:51:05;86;1320;-1320;0
2024-01-22 01:52:07;86;1320;-1320;0
2024-01-22 01:53:04;86;1320;-1320;0
2024-01-22 01:54:06;86;1320;-1320;0
2024-01-22 01:55:08;86;1320;-1320;0
2024-01-22 01:56:06;86;1320;-1320;0
2024-01-22 01:57:07;86;1320;-1320;0
2024-01-22 01:58:05;86;1320;-1320;0
2024-01-22 01:59:07;86;1320;-1320;0
2024-01-22 02:00:04;86;1320;-1320;0
2024-01-22 02:01:06;86;1320;-1320;0
2024-01-22 02:02:08;86;1320;-1320;0
2024-01-22 02:03:06;86;1320;-1320;0
2024-01-22 02:04:08;86;1320;-1320;0
2024-01-22 02:05:05;86;1320;-1320;0
2024-01-22 02:06:07;86;1320;-1320;0
2024-01-22 02:07:05;86;1320;-1320;0
2024-01-22 02:08:07;86;1320;-1320;0
2024-01-22 02:09:04;86;1320;-1320;0
2024-01-22 02:10:06;86;1320;-1320;0
2024-01-22 02:11:08;86;1320;-1320;0
2024-01-22 02:12:05;86;1320;-1320;0
2024-01-22 02:13:07;86;1320;-1320;0
2024-01-22 02:14:05;86;1320;-1320;0
2024-01-22 02:15:07;86;1320;-1320;0
2024-01-22 02:16:04;86;1320;-1320;0
2024-01-22 02:17:06;86;1320;-1320;0
2024-01-22 02:18:08;86;1320;-1320;0
2024-01-22 02:19:05;86;1320;-1320;0
2024-01-22 02:20:07;86;1320;-1320;0
2024-01-22 02:21:05;86;1320;-1320;0
2024-01-22 02:22:07;86;1320;-1320;0
2024-01-22 02:23:04;86;1320;-1320;0
2024-01-22 02:24:06;86;1320;-1320;0
2024-01-22 02:25:08;86;1320;-1320;0
2024-01-22 02:26:06;86;1320;-1320;0
2024-01-22 02:27:08;86;1320;-1320;0
2024-01-22 02:28:05;86;1320;-1320;0
2024-01-22 02:29:07;86;1320;-1320;0
2024-01-22 02:30:04;86;1320;-1320;0
2024-01-22 02:31:06;86;1320;-1320;0
2024-01-22 02:32:08;86;1320;-1320;0
2024-01-22 02:33:06;86;1320;-1320;0
2024-01-22 02:34:08;86;1320;-1320;0
2024-01-22 02:35:05;86;1320;-1320;0
2024-01-22 02:36:07;86;1320;-1320;0
2024-01-22 02:37:05;86;1320;-1320;0
2024-01-22 02:38:07;86;1320;-1320;0
2024-01-22 02:39:04;86;1320;-1320;0
2024-01-22 02:40:06;86;1320;-1320;0
2024-01-22 02:41:08;86;1320;-1320;0
2024-01-22 02:42:05;86;1320;-1320;0
2024-01-22 02:43:07;86;1320;-1320;0
2024-01-22 02:44:05;86;1320;-1320;0
2024-01-22 02:45:07;86;1320;-1320;0
2024-01-22 02:46:04;86;1320;-1320;0
2024-01-22 02:47:06;86;1320;-1320;0
2024-01-22 02:48:08;86;1320;-1320;0
2024-01-22 02:49:06;86;1320;-1320;0
2024-01-22 02:50:08;86;1320;-1320;0
2024-01-22 02:51:05;86;1320;-1320;0
2024-01-22 02:52:07;86;1320;-1320;0
2024-01-22 02:53:04;86;1320;-1320;0
2024-01-22 02:54:06;86;1320;-1320;0
2024-01-22 02:55:08;86;1320;-1320;0
2024-01-22 02:56:06;86;1320;-1320;0
2024-01-22 02:57:08;86;1320;-1320;0
2024-01-22 02:58:05;86;1320;-1320;0
2024-01-22 02:59:07;86;1320;-1320;0
2024-01-22 03:00:05;85;1320;-1320;0
2024-01-22 03:01:07;86;1320;-1320;0
2024-01-22 03:02:04;86;1320;-1320;0
2024-01-22 03:03:06;86;1320;-1320;0
2024-01-22 03:04:08;86;1320;-1320;0
2024-01-22 03:05:05;85;1320;-1320;0
2024-01-22 03:06:07;86;1320;-1320;0
2024-01-22 03:07:05;86;1320;-1320;0
2024-01-22 03:08:07;85;1320;-1320;0
2024-01-22 03:09:04;86;1320;-1320;0
2024-01-22 03:10:06;86;1320;-1320;0
2024-01-22 03:11:08;86;1320;-1320;0
2024-01-22 03:12:06;85;1320;-1320;0
2024-01-22 03:13:08;86;1320;-1320;0
2024-01-22 03:14:05;86;1320;-1320;0
2024-01-22 03:15:07;86;1320;-1320;0
2024-01-22 03:16:04;86;1320;-1320;0
2024-01-22 03:17:06;86;1320;-1320;0
2024-01-22 03:18:08;86;1320;-1320;0
2024-01-22 03:19:06;86;1320;-1320;0
2024-01-22 03:20:08;86;1320;-1320;0
2024-01-22 03:21:05;86;1320;-1320;0
2024-01-22 03:22:07;86;1320;-1320;0
2024-01-22 03:23:05;86;1320;-1320;0
2024-01-22 03:24:07;86;1320;-1320;0
2024-01-22 03:25:04;86;1320;-1320;0
2024-01-22 03:26:06;86;1320;-1320;0
2024-01-22 03:27:08;86;1320;-1320;0
2024-01-22 03:28:05;86;1320;-1320;0
2024-01-22 03:29:07;85;1320;-1320;0
2024-01-22 03:30:05;85;1320;-1320;0
2024-01-22 03:31:07;86;1320;-1320;0
2024-01-22 03:32:04;85;1320;-1320;0
2024-01-22 03:33:06;85;1320;-1320;0
2024-01-22 03:34:08;86;1320;-1320;0
2024-01-22 03:35:06;85;1320;-1320;0
2024-01-22 03:36:08;86;1320;-1320;0
2024-01-22 03:37:05;86;1320;-1320;0
2024-01-22 03:38:07;85;1320;-1320;0
2024-01-22 03:39:04;85;1320;-1320;0
2024-01-22 03:40:06;85;1320;-1320;0
2024-01-22 03:41:08;86;1320;-1320;0
2024-01-22 03:42:06;85;1320;-1320;0
2024-01-22 03:43:08;86;1320;-1320;0
2024-01-22 03:44:05;85;1320;-1320;0
2024-01-22 03:45:07;86;1320;-1320;0
2024-01-22 03:46:05;85;1320;-1320;0
2024-01-22 03:47:07;86;1320;-1320;0
2024-01-22 03:48:04;86;1320;-1320;0
2024-01-22 03:49:06;85;1320;-1320;0
2024-01-22 03:50:08;85;1320;-1320;0
2024-01-22 03:51:05;86;1320;-1320;0
2024-01-22 03:52:07;85;1320;-1320;0
2024-01-22 03:53:05;85;1320;-1320;0
2024-01-22 03:54:07;85;1320;-1320;0
2024-01-22 03:55:04;86;1320;-1320;0
2024-01-22 03:56:06;85;1320;-1320;0
2024-01-22 03:57:08;85;1320;-1320;0
2024-01-22 03:58:05;86;1320;-1320;0
2024-01-22 03:59:07;85;1320;-1320;0
2024-01-22 04:00:05;85;1320;-1320;0
2024-01-22 04:01:07;85;1320;-1320;0
2024-01-22 04:02:04;86;1320;-1320;0
2024-01-22 04:03:06;85;1320;-1320;0
2024-01-22 04:04:08;86;1320;-1320;0
2024-01-22 04:05:06;85;1320;-1320;0
2024-01-22 04:06:08;85;1320;-1320;0
2024-01-22 04:07:05;85;1320;-1320;0
2024-01-22 04:08:07;86;1320;-1320;0
2024-01-22 04:09:04;86;1320;-1320;0
2024-01-22 04:10:06;85;1320;-1320;0
2024-01-22 04:11:08;85;1320;-1320;0
2024-01-22 04:12:06;85;1320;-1320;0
2024-01-22 04:13:08;85;1320;-1320;0
2024-01-22 04:14:05;85;1320;-1320;0
2024-01-22 04:15:07;86;1320;-1320;0
2024-01-22 04:16:05;85;1320;-1320;0
2024-01-22 04:17:06;85;1320;-1320;0
2024-01-22 04:18:04;85;1320;-1320;0
2024-01-22 04:19:06;85;1320;-1320;0
2024-01-22 04:20:08;85;1320;-1320;0
2024-01-22 04:21:05;85;1320;-1320;0
2024-01-22 04:22:07;85;1320;-1320;0
2024-01-22 04:23:05;85;1320;-1320;0
2024-01-22 04:24:07;85;1320;-1320;0
2024-01-22 04:25:04;85;1320;-1320;0
2024-01-22 04:26:06;85;1320;-1320;0
2024-01-22 04:27:08;85;1320;-1320;0
2024-01-22 04:28:05;85;1320;-1320;0
2024-01-22 04:29:07;85;1320;-1320;0
2024-01-22 04:30:05;85;1320;-1320;0
2024-01-22 04:31:07;86;1320;-1320;0
2024-01-22 04:32:04;85;1320;-1320;0
2024-01-22 04:33:06;85;1320;-1320;0
2024-01-22 04:34:08;85;1320;-1320;0
2024-01-22 04:35:05;85;1320;-1320;0
2024-01-22 04:36:07;85;1320;-1320;0
2024-01-22 04:37:05;86;1320;-1320;0
2024-01-22 04:38:07;85;1320;-1320;0
2024-01-22 04:39:04;85;1320;-1320;0
2024-01-22 04:40:06;85;1320;-1320;0
2024-01-22 04:41:08;85;1320;-1320;0
2024-01-22 04:42:06;85;1320;-1320;0
2024-01-22 04:43:07;85;1320;-1320;0
2024-01-22 04:44:05;85;1320;-1320;0
2024-01-22 04:45:07;85;1320;-1320;0
2024-01-22 04:46:04;85;1320;-1320;0
2024-01-22 04:47:06;85;1320;-1320;0
2024-01-22 04:48:08;85;1320;-1320;0
2024-01-22 04:49:06;85;1320;-1320;0
2024-01-22 04:50:08;85;1320;-1320;0
2024-01-22 04:51:05;85;1320;-1320;0
2024-01-22 04:52:07;85;1320;-1320;0
2024-01-22 04:53:04;85;1320;-1320;0
2024-01-22 04:54:06;85;1320;-1320;0
2024-01-22 04:55:08;85;1320;-1320;0
2024-01-22 04:56:06;85;1320;-1320;0
2024-01-22 04:57:08;85;1320;-1320;0
2024-01-22 04:58:05;86;1320;-1320;0
2024-01-22 04:59:07;85;1320;-1320;0
2024-01-22 05:00:04;85;1320;-1320;0
2024-01-22 05:01:06;85;1320;-1320;0
2024-01-22 05:02:08;85;1320;-1320;0
2024-01-22 05:03:06;85;1320;-1320;0
2024-01-22 05:04:08;86;1320;-1320;0
2024-01-22 05:05:05;85;1320;-1320;0
2024-01-22 05:06:07;85;1320;-1320;0
2024-01-22 05:07:04;85;1320;-1320;0
2024-01-22 05:08:06;85;1320;-1320;0
2024-01-22 05:09:08;85;1320;-1320;0
2024-01-22 05:10:06;85;1320;-1320;0
2024-01-22 05:11:08;85;1320;-1320;0
2024-01-22 05:12:05;85;1320;-1320;0
2024-01-22 05:13:07;85;1320;-1320;0
2024-01-22 05:14:04;85;1320;-1320;0
2024-01-22 05:15:06;85;1320;-1320;0
2024-01-22 05:16:08;85;1320;-1320;0
2024-01-22 05:17:06;85;1320;-1320;0
2024-01-22 05:18:08;86;1320;-1320;0
2024-01-22 05:19:05;85;1320;-1320;0
2024-01-22 05:20:07;85;1320;-1320;0
2024-01-22 05:21:04;85;1320;-1320;0
2024-01-22 05:22:06;85;1320;-1320;0
2024-01-22 05:23:08;85;1320;-1320;0
2024-01-22 05:24:06;85;1320;-1320;0
2024-01-22 05:25:08;85;1320;-1320;0
2024-01-22 05:26:05;85;1320;-1320;0
2024-01-22 05:27:07;85;1320;-1320;0
2024-01-22 05:28:04;85;1320;-1320;0
2024-01-22 05:29:06;85;1320;-1320;0
2024-01-22 05:30:08;85;1320;-1320;0
2024-01-22 05:31:06;85;1320;-1320;0
2024-01-22 05:32:08;86;1320;-1320;0
2024-01-22 05:33:05;85;1320;-1320;0
2024-01-22 05:34:07;85;1320;-1320;0
2024-01-22 05:35:04;85;1320;-1320;0
2024-01-22 05:36:06;85;1320;-1320;0
2024-01-22 05:37:08;85;1320;-1320;0
2024-01-22 05:38:06;85;1320;-1320;0
2024-01-22 05:39:08;85;1320;-1320;0
2024-01-22 05:40:05;85;1320;-1320;0
2024-01-22 05:41:07;85;1320;-1320;0
2024-01-22 05:42:04;85;1320;-1320;0
2024-01-22 05:43:06;85;1320;-1320;0
2024-01-22 05:44:08;85;1320;-1320;0
2024-01-22 05:45:06;85;1320;-1320;0
2024-01-22 05:46:08;85;1320;-1320;0
2024-01-22 05:47:05;85;1320;-1320;0
2024-01-22 05:48:07;85;1320;-1320;0
2024-01-22 05:49:04;85;1320;-1320;0
2024-01-22 05:50:06;85;1320;-1320;0
2024-01-22 05:51:08;85;1320;-1320;0
2024-01-22 05:52:06;85;1320;-1320;0
2024-01-22 05:53:08;85;1320;-1320;0
2024-01-22 05:54:05;85;1320;-1320;0
2024-01-22 05:55:07;85;1320;-1320;0
2024-01-22 05:56:04;85;1320;-1320;0
2024-01-22 05:57:06;85;1320;-1320;0
2024-01-22 05:58:08;85;1320;-1320;0
2024-01-22 05:59:06;85;1320;-1320;0
2024-01-22 06:00:08;85;1320;-1320;0
2024-01-22 06:01:05;85;1320;-1320;0
2024-01-22 06:02:07;85;1320;-1320;0
2024-01-22 06:03:04;85;1320;-1320;0
2024-01-22 06:04:06;85;1320;-1320;0
2024-01-22 06:05:08;85;1320;-1320;0
2024-01-22 06:06:06;85;1320;-1320;0
2024-01-22 06:07:08;85;1320;-1320;0
2024-01-22 06:08:05;85;1320;-1320;0
2024-01-22 06:09:07;85;1320;-1320;0
2024-01-22 06:10:04;85;1320;-1320;0
2024-01-22 06:11:06;85;1320;-1320;0
2024-01-22 06:12:08;85;1320;-1320;0
2024-01-22 06:13:06;85;1320;-1320;0
2024-01-22 06:14:08;85;1320;-1320;0
2024-01-22 06:15:05;85;1320;-1320;0
2024-01-22 06:16:07;85;1320;-1320;0
2024-01-22 06:17:04;85;1320;-1320;0
2024-01-22 06:18:06;85;1320;-1320;0
2024-01-22 06:19:08;85;1320;-1320;0
2024-01-22 06:20:06;85;1320;-1320;0
2024-01-22 06:21:08;85;1320;-1320;0
2024-01-22 06:22:05;85;1320;-1320;0
2024-01-22 06:23:07;85;1320;-1320;0
2024-01-22 06:24:04;85;1320;-1320;0
2024-01-22 06:25:06;85;1320;-1320;0
2024-01-22 06:26:08;85;1320;-1320;0
2024-01-22 06:27:06;86;1320;-1320;0
2024-01-22 06:28:08;85;1320;-1320;0
2024-01-22 06:29:05;85;1320;-1320;0
2024-01-22 06:30:07;85;1320;-1320;0
2024-01-22 06:31:04;85;1320;-1320;0
2024-01-22 06:32:06;85;1320;-1320;0
2024-01-22 06:33:08;85;1320;-1320;0
2024-01-22 06:34:06;85;1320;-1320;0
2024-01-22 06:35:08;85;1320;-1320;0
2024-01-22 06:36:05;85;1320;-1320;0
2024-01-22 06:37:07;85;1320;-1320;0
2024-01-22 06:38:04;85;1320;-1320;0
2024-01-22 06:39:06;85;1320;-1320;0
2024-01-22 06:40:08;85;1320;-1320;0
2024-01-22 06:41:06;86;1320;-1320;0
2024-01-22 06:42:08;85;1320;-1320;0
2024-01-22 06:43:05;85;1320;-1320;0
2024-01-22 06:44:07;85;1320;-1320;0
2024-01-22 06:45:04;85;1320;-1320;0
2024-01-22 06:46:06;85;1320;-1320;0
2024-01-22 06:47:08;85;1320;-1320;0
2024-01-22 06:48:06;85;1320;-1320;0
2024-01-22 06:49:07;85;1320;-1320;0
2024-01-22 06:50:05;85;1320;-1320;0
2024-01-22 06:51:07;85;1320;-1320;0
2024-01-22 06:52:04;85;1320;-1320;0
2024-01-22 06:53:06;85;1320;-1320;0
2024-01-22 06:54:08;85;1320;-1320;0
2024-01-22 06:55:06;86;1320;-1320;0
2024-01-22 06:56:07;85;1320;-1320;0
2024-01-22 06:57:05;85;1320;-1320;0
2024-01-22 06:58:07;85;1320;-1320;0
2024-01-22 06:59:04;85;1320;-1320;0
2024-01-22 07:00:06;85;1320;-1320;0
2024-01-22 07:01:08;85;1320;-1320;0
2024-01-22 07:02:06;85;1320;-1320;0
2024-01-22 07:03:07;85;1320;-1320;0
2024-01-22 07:04:05;85;1320;-1320;0
2024-01-22 07:05:07;85;1320;-1320;0
2024-01-22 07:06:04;85;1320;-1320;0
2024-01-22 07:07:06;85;1320;-1320;0
2024-01-22 07:08:08;85;1320;-1320;0
2024-01-22 07:09:06;85;1320;-1320;0
2024-01-22 07:10:08;85;1320;-1320;0
2024-01-22 07:11:05;85;1320;-1320;0
2024-01-22 07:12:07;85;1320;-1320;0
2024-01-22 07:13:04;85;1320;-1320;0
2024-01-22 07:14:06;85;1320;-1320;0
2024-01-22 07:15:08;85;1320;-1320;0
2024-01-22 07:16:06;85;1320;-1320;0
2024-01-22 07:17:08;85;1320;-1320;0
2024-01-22 07:18:05;85;1320;-1320;0
2024-01-22 07:19:07;85;1320;-1320;0
2024-01-22 07:20:05;85;1320;-1320;0
2024-01-22 07:21:07;85;1320;-1320;0
2024-01-22 07:22:04;85;1320;-1320;0
2024-01-22 07:23:06;85;1320;-1320;0
2024-01-22 07:24:08;85;1320;-1320;0
2024-01-22 07:25:05;85;1320;-1320;0
2024-01-22 07:26:07;85;1320;-1320;0
2024-01-22 07:27:05;85;1320;-1320;0
2024-01-22 07:28:07;85;1320;-1320;0
2024-01-22 07:29:04;85;1320;-1320;0
2024-01-22 07:30:06;85;1320;-1320;0
2024-01-22 07:31:08;85;1320;-1320;0
2024-01-22 07:32:06;85;1320;-1320;0
2024-01-22 07:33:08;85;1320;-1320;0
2024-01-22 07:34:05;85;1320;-1320;0
2024-01-22 07:35:07;85;1320;-1320;0
2024-01-22 07:36:05;85;1320;-1320;0
2024-01-22 07:37:07;85;1320;-1320;0
2024-01-22 07:38:04;85;1320;-1320;0
2024-01-22 07:39:06;85;1320;-1320;0
2024-01-22 07:40:08;85;1320;-1320;0
2024-01-22 07:41:06;85;1320;-1320;0
2024-01-22 07:42:08;85;1320;-1320;0
2024-01-22 07:43:05;85;1320;-1320;0
2024-01-22 07:44:07;85;1320;-1320;0
2024-01-22 07:45:04;85;1320;-1320;0
2024-01-22 07:46:06;85;1320;-1320;0
2024-01-22 07:47:08;85;1320;-1320;0
2024-01-22 07:48:06;85;1320;-1320;0
2024-01-22 07:49:08;85;1320;-1320;0
2024-01-22 07:50:05;85;1320;-1320;0
2024-01-22 07:51:07;85;1320;-1320;0
2024-01-22 07:52:05;85;1320;-1320;0
2024-01-22 07:53:07;85;1320;-1320;0
2024-01-22 07:54:04;85;1320;-1320;0
2024-01-22 07:55:06;85;1320;-1320;0
2024-01-22 07:56:08;85;1320;-1320;0
2024-01-22 07:57:06;85;1320;-1320;0
2024-01-22 07:58:08;85;1320;-1320;0
2024-01-22 07:59:05;85;1320;-1320;0
2024-01-22 08:00:07;85;1320;-1320;0
2024-01-22 08:01:04;85;1320;-1320;0
2024-01-22 08:02:07;85;1320;-1320;0
2024-01-22 08:03:04;85;1320;-1320;0
2024-01-22 08:04:06;85;1320;-1320;0
2024-01-22 08:05:08;85;1320;-1320;0
2024-01-22 08:06:05;85;1320;-1320;0
2024-01-22 08:07:07;85;1320;-1320;0
2024-01-22 08:08:05;85;1320;-1320;0
2024-01-22 08:09:07;85;1320;-1320;0
2024-01-22 08:10:04;85;1320;-1320;0
2024-01-22 08:11:06;85;1320;-1320;0
2024-01-22 08:12:08;85;1320;-1320;0
2024-01-22 08:13:06;85;1320;-1320;0
2024-01-22 08:14:08;85;1320;-1320;0
2024-01-22 08:15:05;85;1320;-1320;0
2024-01-22 08:16:07;85;1320;-1320;0
2024-01-22 08:17:05;85;1320;-1320;0
2024-01-22 08:18:07;85;1320;-1320;0
2024-01-22 08:19:04;85;1320;-1320;0
2024-01-22 08:20:06;85;1320;-1320;0
2024-01-22 08:21:08;85;1320;-1320;0
2024-01-22 08:22:06;85;1320;-1320;0
2024-01-22 08:23:08;85;1320;-1320;0
2024-01-22 08:24:05;85;1320;-1320;0
2024-01-22 08:25:07;85;1320;-1320;0
2024-01-22 08:26:05;85;1320;-1320;0
2024-01-22 08:27:07;85;1320;-1320;0
2024-01-22 08:28:04;85;1320;-1320;0
2024-01-22 08:29:06;85;1320;-1320;0
2024-01-22 08:30:08;85;1320;-1320;0
2024-01-22 08:31:06;85;1320;-1320;0
2024-01-22 08:32:08;85;1320;-1320;0
2024-01-22 08:33:05;85;1320;-1320;0
2024-01-22 08:34:07;85;1320;-1320;0
2024-01-22 08:35:05;85;1320;-1320;0
2024-01-22 08:36:07;85;1320;-1320;0
2024-01-22 08:37:04;85;1320;-1320;0
2024-01-22 08:38:06;85;1320;-1320;0
2024-01-22 08:39:08;85;1320;-1320;0
2024-01-22 08:40:06;85;1320;-1320;0
2024-01-22 08:41:08;85;1320;-1320;0
2024-01-22 08:42:05;85;1320;-1320;0
2024-01-22 08:43:07;85;1320;-1320;0
2024-01-22 08:44:05;85;1320;-1320;0
2024-01-22 08:45:07;85;1320;-1320;0
2024-01-22 08:46:04;85;1320;-1320;0
2024-01-22 08:47:06;86;1320;-1320;0
2024-01-22 08:48:08;86;1320;-1320;0
2024-01-22 08:49:06;86;1320;-1320;0
2024-01-22 08:50:08;86;1320;-1320;0
2024-01-22 08:51:06;86;1320;-1320;0
2024-01-22 08:52:08;86;1320;-1320;0
2024-01-22 08:53:05;86;1320;-1320;0
2024-01-22 08:54:07;86;1320;-1320;0
2024-01-22 08:55:05;86;1320;-1320;0
2024-01-22 08:56:07;86;1320;-1320;0
2024-01-22 08:57:05;86;1320;-1320;0
2024-01-22 08:58:07;86;1320;-1320;0
2024-01-22 08:59:04;86;1320;-1320;0
2024-01-22 09:00:07;86;1320;-1320;0
2024-01-22 09:01:04;86;1320;-1320;0
2024-01-22 09:02:06;86;1320;-1320;0
2024-01-22 09:03:09;86;1320;-1320;0
2024-01-22 09:04:06;86;1320;-1320;0
2024-01-22 09:05:08;86;1320;-1320;0
2024-01-22 09:06:06;86;1320;-1320;0
2024-01-22 09:07:08;86;1320;-1320;0
2024-01-22 09:08:06;86;1320;-1320;0
2024-01-22 09:09:08;86;1320;-1320;0
2024-01-22 09:10:06;86;1320;-1320;0
2024-01-22 09:11:08;86;1320;-1320;0
2024-01-22 09:12:06;86;1320;-1320;0
2024-01-22 09:13:08;86;1320;-1320;0
2024-01-22 09:14:06;86;1320;-1320;0
2024-01-22 09:15:08;86;1320;-1320;0
2024-01-22 09:16:05;86;1320;-1320;0
2024-01-22 09:17:08;86;1320;-1320;0
2024-01-22 09:18:05;86;1320;-1320;0
2024-01-22 09:19:08;86;1320;-1320;0
2024-01-22 09:20:05;86;1320;-1320;0
2024-01-22 09:21:08;86;1320;-1320;0
2024-01-22 09:22:05;86;1320;-1320;0
2024-01-22 09:23:08;86;1320;-1320;0
2024-01-22 09:24:05;86;1320;-1320;0
2024-01-22 09:25:08;86;1320;-1320;0
2024-01-22 09:26:05;86;1320;-1320;0
2024-01-22 09:27:08;86;1320;-1320;0
2024-01-22 09:28:05;86;1320;-1320;0
2024-01-22 09:29:08;86;1320;-1320;0
2024-01-22 09:30:05;86;1320;-1320;0
2024-01-22 09:31:08;86;1320;-1320;0
2024-01-22 09:32:05;86;1320;-1320;0
2024-01-22 09:33:08;86;1320;-1320;0
2024-01-22 09:34:06;86;1320;-1320;0
2024-01-22 09:35:08;86;1320;-1320;0
2024-01-22 09:36:06;86;1320;-1320;0
2024-01-22 09:37:08;86;1320;-1320;0
2024-01-22 09:38:06;86;1320;-1320;0
2024-01-22 09:39:08;86;1320;-1320;0
2024-01-22 09:40:06;86;1320;-1320;0
2024-01-22 09:41:08;86;1320;-1320;0
2024-01-22 09:42:06;86;1320;-1320;0
2024-01-22 09:43:08;86;1320;-1320;0
2024-01-22 09:44:06;86;1320;-1320;0
2024-01-22 09:45:08;86;1320;-1320;0
2024-01-22 09:46:06;86;1320;-1320;0
2024-01-22 09:47:08;86;1320;-1320;0
2024-01-22 09:48:06;86;1320;-1320;0
2024-01-22 09:49:08;86;1320;-1320;0
2024-01-22 09:50:06;86;1320;-1320;0
2024-01-22 09:51:08;86;1320;-1320;0
2024-01-22 09:52:06;86;1320;-1320;0
2024-01-22 09:53:09;86;1320;-1320;0
2024-01-22 09:54:06;86;1320;-1320;0
2024-01-22 09:55:09;86;1320;-1320;0
2024-01-22 09:56:06;86;1320;-1320;0
2024-01-22 09:57:09;86;1320;-1320;0
2024-01-22 09:58:07;86;1320;-1320;0
2024-01-22 09:59:04;86;1320;-1320;0
2024-01-22 10:00:07;86;1320;-1320;0
2024-01-22 10:01:04;86;1320;-1320;0
2024-01-22 10:02:07;86;1320;-1320;0
2024-01-22 10:03:04;86;1320;-1320;0
2024-01-22 10:04:07;86;1320;-1320;0
2024-01-22 10:05:05;86;1320;-1320;0
2024-01-22 10:06:07;85;1320;-1320;0
2024-01-22 10:07:05;86;1320;-1320;0
2024-01-22 10:08:07;86;1320;-1320;0
2024-01-22 10:09:05;85;1320;-1320;0
2024-01-22 10:10:07;86;1320;-1320;0
2024-01-22 10:11:05;86;1320;-1320;0
2024-01-22 10:12:07;86;1320;-1320;0
2024-01-22 10:13:05;85;1320;-1320;0
2024-01-22 10:14:07;86;1320;-1320;0
2024-01-22 10:15:05;85;1320;-1320;0
2024-01-22 10:16:08;86;1320;-1320;0
2024-01-22 10:17:05;85;1320;-1320;0
2024-01-22 10:18:08;86;1320;-1320;0
2024-01-22 10:19:06;86;1320;-1320;0
2024-01-22 10:20:08;85;1320;-1320;0
2024-01-22 10:21:06;85;1320;-1320;0
2024-01-22 10:22:08;85;1320;-1320;0
2024-01-22 10:23:06;85;1320;-1320;0
2024-01-22 10:24:08;85;1320;-1320;0
2024-01-22 10:25:06;85;1320;-1320;0
2024-01-22 10:26:08;85;1320;-1320;0
2024-01-22 10:27:06;85;1320;-1320;0
2024-01-22 10:28:09;85;1320;-1320;0
2024-01-22 10:29:06;85;1320;-1320;0
2024-01-22 10:30:09;85;1320;-1320;0
2024-01-22 10:31:07;85;1320;-1320;0
2024-01-22 10:32:04;85;1320;-1320;0
2024-01-22 10:33:07;85;1320;-1320;0
2024-01-22 10:34:05;85;1320;-1320;0
2024-01-22 10:35:07;85;1320;-1320;0
2024-01-22 10:36:05;85;1320;-1320;0
2024-01-22 10:37:07;85;1320;-1320;0
2024-01-22 10:38:05;85;1320;-1320;0
2024-01-22 10:39:07;85;1320;-1320;0
2024-01-22 10:40:05;85;1320;-1320;0
2024-01-22 10:41:08;85;1320;-1320;0
2024-01-22 10:42:05;85;1320;-1320;0
2024-01-22 10:43:08;85;1320;-1320;0
2024-01-22 10:44:06;85;1320;-1320;0
2024-01-22 10:45:08;85;1320;-1320;0
2024-01-22 10:46:06;85;1320;-1320;0
2024-01-22 10:47:08;85;1320;-1320;0
2024-01-22 10:48:06;85;1320;-1320;0
2024-01-22 10:49:09;85;1320;-1320;0
2024-01-22 10:50:06;85;1320;-1320;0
2024-01-22 10:51:09;85;1320;-1320;0
2024-01-22 10:52:07;85;1320;-1320;0
2024-01-22 10:53:04;85;1320;-1320;0
2024-01-22 10:54:07;85;1320;-1320;0
2024-01-22 10:55:05;85;1320;-1320;0
2024-01-22 10:56:07;85;1320;-1320;0
2024-01-22 10:57:05;85;1320;-1320;0
2024-01-22 10:58:07;85;1320;-1320;0
2024-01-22 10:59:05;85;1320;-1320;0
2024-01-22 11:00:08;85;1320;-1320;0
2024-01-22 11:01:05;85;1320;-1320;0
2024-01-22 11:02:08;85;1320;-1320;0
2024-01-22 11:03:06;85;1320;-1320;0
2024-01-22 11:04:08;86;1320;-1320;0
2024-01-22 11:05:06;85;1320;-1320;0
2024-01-22 11:06:08;85;1320;-1320;0
2024-01-22 11:07:06;85;1320;-1320;0
2024-01-22 11:08:08;85;1320;-1320;0
2024-01-22 11:09:06;85;1320;-1320;0
2024-01-22 11:10:09;85;1320;-1320;0
2024-01-22 11:11:07;85;1320;-1320;0
2024-01-22 11:12:04;85;1320;-1320;0
2024-01-22 11:13:07;85;1320;-1320;0
2024-01-22 11:14:05;85;1320;-1320;0
2024-01-22 11:15:07;85;1320;-1320;0
2024-01-22 11:16:05;85;1320;-1320;0
2024-01-22 11:17:07;85;1320;-1320;0
2024-01-22 11:18:05;86;1320;-1320;0
2024-01-22 11:19:08;85;1320;-1320;0
2024-01-22 11:20:05;85;1320;-1320;0
2024-01-22 11:21:08;85;1320;-1320;0
2024-01-22 11:22:06;85;1320;-1320;0
2024-01-22 11:23:08;85;1320;-1320;0
2024-01-22 11:24:06;85;1320;-1320;0
2024-01-22 11:25:08;85;1320;-1320;0
2024-01-22 11:26:06;85;1320;-1320;0
2024-01-22 11:27:09;85;1320;-1320;0
2024-01-22 11:28:06;85;1320;-1320;0
2024-01-22 11:29:09;85;1320;-1320;0
2024-01-22 11:30:07;85;1320;-1320;0
2024-01-22 11:31:04;85;1320;-1320;0
2024-01-22 11:32:07;85;1320;-1320;0
2024-01-22 11:33:05;85;1320;-1320;0
2024-01-22 11:34:07;85;1320;-1320;0
2024-01-22 11:35:05;85;1320;-1320;0
2024-01-22 11:36:07;85;1320;-1320;0
2024-01-22 11:37:05;85;1320;-1320;0
2024-01-22 11:38:08;85;1320;-1320;0
2024-01-22 11:39:06;85;1320;-1320;0
2024-01-22 11:40:08;85;1320;-1320;0
2024-01-22 11:41:06;85;1320;-1320;0
2024-01-22 11:42:08;85;1320;-1320;0
2024-01-22 11:43:06;85;1320;-1320;0
2024-01-22 11:44:08;85;1320;-1320;0
2024-01-22 11:45:06;85;1320;-1320;0
2024-01-22 11:46:09;85;1320;-1320;0
2024-01-22 11:47:07;85;1320;-1320;0
2024-01-22 11:48:04;85;1320;-1320;0
2024-01-22 11:49:07;85;1320;-1320;0
2024-01-22 11:50:05;85;1320;-1320;0
2024-01-22 11:51:07;85;1320;-1320;0
2024-01-22 11:52:05;85;1320;-1320;0
2024-01-22 11:53:07;85;1320;-1320;0
2024-01-22 11:54:05;85;1320;-1320;0
2024-01-22 11:55:08;85;1320;-1320;0
2024-01-22 11:56:05;85;1320;-1320;0
2024-01-22 11:57:08;85;1320;-1320;0
2024-01-22 11:58:06;85;1320;-1320;0
2024-01-22 11:59:08;85;1320;-1320;0
2024-01-22 12:00:06;85;1320;-1320;0
2024-01-22 12:01:08;85;1320;-1320;0
2024-01-22 12:02:06;85;1320;-1320;0
2024-01-22 12:03:09;85;1320;-1320;0
2024-01-22 12:04:07;85;1320;-1320;0
2024-01-22 12:05:04;85;1320;-1320;0
2024-01-22 12:06:07;85;1320;-1320;0
2024-01-22 12:07:05;85;1320;-1320;0
2024-01-22 12:08:07;85;1320;-1320;0
2024-01-22 12:09:05;85;1320;-1320;0
2024-01-22 12:10:07;85;1320;-1320;0
2024-01-22 12:11:05;85;1320;-1320;0
2024-01-22 12:12:07;85;1320;-1320;0
2024-01-22 12:13:05;85;1320;-1320;0
2024-01-22 12:14:08;85;1320;-1320;0
2024-01-22 12:15:05;85;1320;-1320;0
2024-01-22 12:16:08;85;1320;-1320;0
2024-01-22 12:17:06;85;1320;-1320;0
2024-01-22 12:18:08;85;1320;-1320;0
2024-01-22 12:19:06;85;1320;-1320;0
2024-01-22 12:20:08;85;1320;-1320;0
2024-01-22 12:21:06;85;1320;-1320;0
2024-01-22 12:22:08;86;1320;-1320;0
2024-01-22 12:23:06;85;1320;-1320;0
2024-01-22 12:24:08;85;1320;-1320;0
2024-01-22 12:25:06;85;1320;-1320;0
2024-01-22 12:26:09;85;1320;-1320;0
2024-01-22 12:27:06;86;1320;-1320;0
2024-01-22 12:28:09;85;1320;-1320;0
2024-01-22 12:29:07;85;1320;-1320;0
2024-01-22 12:30:04;86;1320;-1320;0
2024-01-22 12:31:07;86;1320;-1320;0
2024-01-22 12:32:05;86;1320;-1320;0
2024-01-22 12:33:07;86;1320;-1320;0
2024-01-22 12:34:05;85;1320;-1320;0
2024-01-22 12:35:07;85;1320;-1320;0
2024-01-22 12:36:05;86;1320;-1320;0
2024-01-22 12:37:07;86;1320;-1320;0
2024-01-22 12:38:05;85;1320;-1320;0
2024-01-22 12:39:08;86;1320;-1320;0
2024-01-22 12:40:05;86;1320;-1320;0
2024-01-22 12:41:08;86;1320;-1320;0
2024-01-22 12:42:06;86;1320;-1320;0
2024-01-22 12:43:08;86;1320;-1320;0
2024-01-22 12:44:06;86;1320;-1320;0
2024-01-22 12:45:08;86;1320;-1320;0
2024-01-22 12:46:06;86;1320;-1320;0
2024-01-22 12:47:08;86;1320;-1320;0
2024-01-22 12:48:06;86;1320;-1320;0
2024-01-22 12:49:09;86;1320;-1320;0
2024-01-22 12:50:06;86;1320;-1320;0
2024-01-22 12:51:09;86;1320;-1320;0
2024-01-22 12:52:06;86;1320;-1320;0
2024-01-22 12:53:09;86;1320;-1320;0
2024-01-22 12:54:07;86;1320;-1320;0
2024-01-22 12:55:04;86;1320;-1320;0
2024-01-22 12:56:07;86;1320;-1320;0
2024-01-22 12:57:05;85;1320;-1320;0
2024-01-22 12:58:07;86;1320;-1320;0
2024-01-22 12:59:05;86;1320;-1320;0
2024-01-22 13:00:07;86;1320;-1320;0
2024-01-22 13:01:05;86;1320;-1320;0
2024-01-22 13:02:07;86;1320;-1320;0
2024-01-22 13:03:05;86;1320;-1320;0
2024-01-22 13:04:08;86;1320;-1320;0
2024-01-22 13:05:05;86;1320;-1320;0
2024-01-22 13:06:08;86;1320;-1320;0
2024-01-22 13:07:06;86;1320;-1320;0
2024-01-22 13:08:08;85;1320;-1320;0
2024-01-22 13:09:06;86;1320;-1320;0
2024-01-22 13:10:08;86;1320;-1320;0
2024-01-22 13:11:06;86;1320;-1320;0
2024-01-22 13:12:08;86;1320;-1320;0
2024-01-22 13:13:06;86;1320;-1320;0
2024-01-22 13:14:08;86;1320;-1320;0
2024-01-22 13:15:06;86;1320;-1320;0
2024-01-22 13:16:09;86;1320;-1320;0
2024-01-22 13:17:06;86;1320;-1320;0
2024-01-22 13:18:09;86;1320;-1320;0
2024-01-22 13:19:07;86;1320;-1320;0
2024-01-22 13:20:04;86;1320;-1320;0
2024-01-22 13:21:07;86;1320;-1320;0
2024-01-22 13:22:05;86;1320;-1320;0
2024-01-22 13:23:07;86;1320;-1320;0
2024-01-22 13:24:05;86;1320;-1320;0
2024-01-22 13:25:07;86;1320;-1320;0
2024-01-22 13:26:05;86;1320;-1320;0
2024-01-22 13:27:07;86;1320;-1320;0
2024-01-22 13:28:05;86;1320;-1320;0
2024-01-22 13:29:08;86;1320;-1320;0
2024-01-22 13:30:05;86;1320;-1320;0
2024-01-22 13:31:08;86;1320;-1320;0
2024-01-22 13:32:06;86;1320;-1320;0
2024-01-22 13:33:08;86;1320;-1320;0
2024-01-22 13:34:06;86;1320;-1320;0
2024-01-22 13:35:08;86;1320;-1320;0
2024-01-22 13:36:06;86;1320;-1320;0
2024-01-22 13:37:08;86;1320;-1320;0
2024-01-22 13:38:06;86;1320;-1320;0
2024-01-22 13:39:09;86;1320;-1320;0
2024-01-22 13:40:06;86;1320;-1320;0
2024-01-22 13:41:09;86;1320;-1320;0
2024-01-22 13:42:07;86;1320;-1320;0
2024-01-22 13:43:04;86;1320;-1320;0
2024-01-22 13:44:07;86;1320;-1320;0
2024-01-22 13:45:04;86;1320;-1320;0
2024-01-22 13:46:07;86;1320;-1320;0
2024-01-22 13:47:05;86;1320;-1320;0
2024-01-22 13:48:07;86;1320;-1320;0
2024-01-22 13:49:05;86;1320;-1320;0
2024-01-22 13:50:07;86;1320;-1320;0
2024-01-22 13:51:05;86;1320;-1320;0
2024-01-22 13:52:07;86;1320;-1320;0
2024-01-22 13:53:05;86;1320;-1320;0
2024-01-22 13:54:08;86;1320;-1320;0
2024-01-22 13:55:05;86;1320;-1320;0
2024-01-22 13:56:08;86;1320;-1320;0
2024-01-22 13:57:06;86;1320;-1320;0
2024-01-22 13:58:08;86;1320;-1320;0
2024-01-22 13:59:06;86;1320;-1320;0
2024-01-22 14:00:08;86;1320;-1320;0
2024-01-22 14:01:06;86;1320;-1320;0
2024-01-22 14:02:09;86;1320;-1320;0
2024-01-22 14:03:06;86;1320;-1320;0
2024-01-22 14:04:09;86;1320;-1320;0
2024-01-22 14:05:07;86;1320;-1320;0
2024-01-22 14:06:04;86;1320;-1320;0
2024-01-22 14:07:07;86;1320;-1320;0
2024-01-22 14:08:05;86;1320;-1320;0
2024-01-22 14:09:07;86;1320;-1320;0
2024-01-22 14:10:05;86;1320;-1320;0
2024-01-22 14:11:07;86;1320;-1320;0
2024-01-22 14:12:05;86;1320;-1320;0
2024-01-22 14:13:08;85;1320;-1320;0
2024-01-22 14:14:05;85;1320;-1320;0
2024-01-22 14:15:08;85;1320;-1320;0
2024-01-22 14:16:06;85;1320;-1320;0
2024-01-22 14:17:08;85;1320;-1320;0
2024-01-22 14:18:06;85;1320;-1320;0
2024-01-22 14:19:08;85;1320;-1320;0
2024-01-22 14:20:06;85;1320;-1320;0
2024-01-22 14:21:09;85;1320;-1320;0
2024-01-22 14:22:06;85;1320;-1320;0
2024-01-22 14:23:09;85;1320;-1320;0
2024-01-22 14:24:07;85;1320;-1320;0
2024-01-22 14:25:04;85;1320;-1320;0
2024-01-22 14:26:07;85;1320;-1320;0
2024-01-22 14:27:05;85;1320;-1320;0
2024-01-22 14:28:07;85;1320;-1320;0
2024-01-22 14:29:05;85;1320;-1320;0
2024-01-22 14:30:07;85;1320;-1320;0
2024-01-22 14:31:05;85;1320;-1320;0
2024-01-22 14:32:08;85;1320;-1320;0
2024-01-22 14:33:06;85;1320;-1320;0
2024-01-22 14:34:08;85;1320;-1320;0
2024-01-22 14:35:06;85;1320;-1320;0
2024-01-22 14:36:08;85;1320;-1320;0
2024-01-22 14:37:06;85;1320;-1320;0
2024-01-22 14:38:09;85;1320;-1320;0
2024-01-22 14:39:06;85;1320;-1320;0
2024-01-22 14:40:09;85;1320;-1320;0
2024-01-22 14:41:07;85;1320;-1320;0
2024-01-22 14:42:05;85;1320;-1320;0
2024-01-22 14:43:07;85;1320;-1320;0
2024-01-22 14:44:05;85;1320;-1320;0
2024-01-22 14:45:07;85;1320;-1320;0
2024-01-22 14:46:05;85;1320;-1320;0
2024-01-22 14:47:08;85;1320;-1320;0
2024-01-22 14:48:06;85;1320;-1320;0
2024-01-22 14:49:08;85;1320;-1320;0
2024-01-22 14:50:06;85;1320;-1320;0
2024-01-22 14:51:08;85;1320;-1320;0
2024-01-22 14:52:06;85;1320;-1320;0
2024-01-22 14:53:09;85;1320;-1320;0
2024-01-22 14:54:07;85;1320;-1320;0
2024-01-22 14:55:04;85;1320;-1320;0
2024-01-22 14:56:07;85;1320;-1320;0
2024-01-22 14:57:05;85;1320;-1320;0
2024-01-22 14:58:07;85;1320;-1320;0
2024-01-22 14:59:05;85;1320;-1320;0
2024-01-22 15:00:08;85;1320;-1320;0
2024-01-22 15:01:05;85;1320;-1320;0
2024-01-22 15:02:08;85;1320;-1320;0
2024-01-22 15:03:06;85;1320;-1320;0
2024-01-22 15:04:08;85;1320;-1320;0
2024-01-22 15:05:06;85;1320;-1320;0
2024-01-22 15:06:09;85;1320;-1320;0
2024-01-22 15:07:06;85;1320;-1320;0
2024-01-22 15:08:09;85;1320;-1320;0
2024-01-22 15:09:07;85;1320;-1320;0
2024-01-22 15:10:05;85;1320;-1320;0
2024-01-22 15:11:07;85;1320;-1320;0
2024-01-22 15:12:05;85;1320;-1320;0
2024-01-22 15:13:08;85;1320;-1320;0
2024-01-22 15:14:05;85;1320;-1320;0
2024-01-22 15:15:08;85;1320;-1320;0
2024-01-22 15:16:06;85;1320;-1320;0
2024-01-22 15:17:08;85;1320;-1320;0
2024-01-22 15:18:06;85;1320;-1320;0
2024-01-22 15:19:09;85;1320;-1320;0
2024-01-22 15:20:07;85;1320;-1320;0
2024-01-22 15:21:04;85;1320;-1320;0
2024-01-22 15:22:07;85;1320;-1320;0
2024-01-22 15:23:05;85;1320;-1320;0
2024-01-22 15:24:07;85;1320;-1320;0
2024-01-22 15:25:05;85;1320;-1320;0
2024-01-22 15:26:08;85;1320;-1320;0
2024-01-22 15:27:06;85;1320;-1320;0
2024-01-22 15:28:08;85;1320;-1320;0
2024-01-22 15:29:06;85;1320;-1320;0
2024-01-22 15:30:08;85;1320;-1320;0
2024-01-22 15:31:06;85;1320;-1320;0
2024-01-22 15:32:09;85;1320;-1320;0
2024-01-22 15:33:07;85;1320;-1320;0
2024-01-22 15:34:05;85;1320;-1320;0
2024-01-22 15:35:07;85;1320;-1320;0
2024-01-22 15:36:05;85;1320;-1320;0
2024-01-22 15:37:08;85;1320;-1320;0
2024-01-22 15:38:05;85;1320;-1320;0
2024-01-22 15:39:08;85;1320;-1320;0
2024-01-22 15:40:06;85;1320;-1320;0
2024-01-22 15:41:08;85;1320;-1320;0
2024-01-22 15:42:06;85;1320;-1320;0
2024-01-22 15:43:09;85;1320;-1320;0
2024-01-22 15:44:07;85;1320;-1320;0
2024-01-22 15:45:05;85;1320;-1320;0
2024-01-22 15:46:07;85;1320;-1320;0
2024-01-22 15:47:05;85;1320;-1320;0
2024-01-22 15:48:08;85;1320;-1320;0
2024-01-22 15:49:05;85;1320;-1320;0
2024-01-22 15:50:08;85;1320;-1320;0
2024-01-22 15:51:06;85;1320;-1320;0
2024-01-22 15:52:08;85;1320;-1320;0
2024-01-22 15:53:06;85;1320;-1320;0
2024-01-22 15:54:09;85;1320;-1320;0
2024-01-22 15:55:07;85;1320;-1320;0
2024-01-22 15:56:05;85;1320;-1320;0
2024-01-22 15:57:07;85;1320;-1320;0
2024-01-22 15:58:05;85;1320;-1320;0
2024-01-22 15:59:08;85;1320;-1320;0
2024-01-22 16:00:06;85;1320;-1320;0
2024-01-22 16:01:08;85;1320;-1320;0
2024-01-22 16:02:06;85;1320;-1320;0
2024-01-22 16:03:08;85;1320;-1320;0
2024-01-22 16:04:06;85;1320;-1320;0
2024-01-22 16:05:09;85;1320;-1320;0
2024-01-22 16:06:07;85;1320;-1320;0
2024-01-22 16:07:05;85;1320;-1320;0
2024-01-22 16:08:07;85;1320;-1320;0
2024-01-22 16:09:05;85;1320;-1320;0
2024-01-22 16:10:08;85;1320;-1320;0
2024-01-22 16:11:06;85;1320;-1320;0
2024-01-22 16:12:08;85;1320;-1320;0
2024-01-22 16:13:06;85;1320;-1320;0
2024-01-22 16:14:09;85;1320;-1320;0
2024-01-22 16:15:06;85;1320;-1320;0
2024-01-22 16:16:09;85;1320;-1320;0
2024-01-22 16:17:07;85;1320;-1320;0
2024-01-22 16:18:05;85;1320;-1320;0
2024-01-22 16:19:07;85;1320;-1320;0
2024-01-22 16:20:05;85;1320;-1320;0
2024-01-22 16:21:08;85;1320;-1320;0
2024-01-22 16:22:06;85;1320;-1320;0
2024-01-22 16:23:08;85;1320;-1320;0
2024-01-22 16:24:06;85;1320;-1320;0
2024-01-22 16:25:09;85;1320;-1320;0
2024-01-22 16:26:07;85;1320;-1320;0
2024-01-22 16:27:05;85;1320;-1320;0
2024-01-22 16:28:07;85;1320;-1320;0
2024-01-22 16:29:05;85;1320;-1320;0
2024-01-22 16:30:08;85;1320;-1320;0
2024-01-22 16:31:05;85;1320;-1320;0
2024-01-22 16:32:08;85;1320;-1320;0
2024-01-22 16:33:06;85;1320;-1320;0
2024-01-22 16:34:09;85;1320;-1320;0
2024-01-22 16:35:06;85;1320;-1320;0
2024-01-22 16:36:09;85;1320;-1320;0
2024-01-22 16:37:07;85;1320;-1320;0
2024-01-22 16:38:05;85;1320;-1320;0
2024-01-22 16:39:07;85;1320;-1320;0
2024-01-22 16:40:05;85;1320;-1320;0
2024-01-22 16:41:08;85;1320;-1320;0
2024-01-22 16:42:06;85;1320;-1320;0
2024-01-22 16:43:08;85;1320;-1320;0
2024-01-22 16:44:06;85;1320;-1320;0
2024-01-22 16:45:09;85;1320;-1320;0
2024-01-22 16:46:07;85;1320;-1320;0
2024-01-22 16:47:05;85;1320;-1320;0
2024-01-22 16:48:07;85;1320;-1320;0
2024-01-22 16:49:05;85;1320;-1320;0
2024-01-22 16:50:08;85;1320;-1320;0
2024-01-22 16:51:06;85;1320;-1320;0
2024-01-22 16:52:08;85;1320;-1320;0
2024-01-22 16:53:06;85;1320;-1320;0
2024-01-22 16:54:09;85;1320;-1320;0
2024-01-22 16:55:06;85;1320;-1320;0
2024-01-22 16:56:09;85;1320;-1320;0
2024-01-22 16:57:07;85;1320;-1320;0
2024-01-22 16:58:05;85;1320;-1320;0
2024-01-22 16:59:07;85;1320;-1320;0
2024-01-22 17:00:05;85;1320;-1320;0
2024-01-22 17:01:08;85;1320;-1320;0
2024-01-22 17:02:06;85;1320;-1320;0
2024-01-22 17:03:08;85;1320;-1320;0
2024-01-22 17:04:06;85;1320;-1320;0
2024-01-22 17:05:09;85;1320;-1320;0
2024-01-22 17:06:07;85;1320;-1320;0
2024-01-22 17:07:04;85;1320;-1320;0
2024-01-22 17:08:07;85;1320;-1320;0
2024-01-22 17:09:05;85;1320;-1320;0
2024-01-22 17:10:07;85;1320;-1320;0
2024-01-22 17:11:05;85;1320;-1320;0
2024-01-22 17:12:08;85;1320;-1320;0
2024-01-22 17:13:06;85;1320;-1320;0
2024-01-22 17:14:08;85;1320;-1320;0
2024-01-22 17:15:06;85;1320;-1320;0
2024-01-22 17:16:09;85;1320;-1320;0
2024-01-22 17:17:07;85;1320;-1320;0
2024-01-22 17:18:05;85;1320;-1320;0
2024-01-22 17:19:07;85;1320;-1320;0
2024-01-22 17:20:05;85;1320;-1320;0
2024-01-22 17:21:08;85;1320;-1320;0
2024-01-22 17:22:05;85;1320;-1320;0
2024-01-22 17:23:08;85;1320;-1320;0
2024-01-22 17:24:06;85;1320;-1320;0
2024-01-22 17:25:08;85;1320;-1320;0
2024-01-22 17:26:06;85;1320;-1320;0
2024-01-22 17:27:09;85;1320;-1320;0
2024-01-22 17:28:07;85;1320;-1320;0
2024-01-22 17:29:05;85;1320;-1320;0
2024-01-22 17:30:07;85;1320;-1320;0
2024-01-22 17:31:05;85;1320;-1320;0
2024-01-22 17:32:08;85;1320;-1320;0
2024-01-22 17:33:05;85;1320;-1320;0
2024-01-22 17:34:08;85;1320;-1320;0
2024-01-22 17:35:06;85;1320;-1320;0
2024-01-22 17:36:08;85;1320;-1320;0
2024-01-22 17:37:06;85;1320;-1320;0
2024-01-22 17:38:09;85;1320;-1320;0
2024-01-22 17:39:07;85;1320;-1320;0
2024-01-22 17:40:05;85;1320;-1320;0
2024-01-22 17:41:07;85;1320;-1320;0
2024-01-22 17:42:05;85;1320;-1320;0
2024-01-22 17:43:07;85;1320;-1320;0
2024-01-22 17:44:05;85;1320;-1320;0
2024-01-22 17:45:08;85;1320;-1320;0
2024-01-22 17:46:06;85;1320;-1320;0
2024-01-22 17:47:08;85;1320;-1320;0
2024-01-22 17:48:06;85;1320;-1320;0
2024-01-22 17:49:09;85;1320;-1320;0
2024-01-22 17:50:07;85;1320;-1320;0
2024-01-22 17:51:04;85;1320;-1320;0
2024-01-22 17:52:07;85;1320;-1320;0
2024-01-22 17:53:05;85;1320;-1320;0
2024-01-22 17:54:07;85;1320;-1320;0
2024-01-22 17:55:05;85;1320;-1320;0
2024-01-22 17:56:08;85;1320;-1320;0
2024-01-22 17:57:06;85;1320;-1320;0
2024-01-22 17:58:08;85;1320;-1320;0
2024-01-22 17:59:06;85;1320;-1320;0
2024-01-22 18:00:09;85;1320;-1320;0
2024-01-22 18:01:06;85;1320;-1320;0
2024-01-22 18:02:09;85;1320;-1320;0
2024-01-22 18:03:07;85;1320;-1320;0
2024-01-22 18:04:05;85;1320;-1320;0
2024-01-22 18:05:07;85;1320;-1320;0
2024-01-22 18:06:05;85;1320;-1320;0
2024-01-22 18:07:08;85;1320;-1320;0
2024-01-22 18:08:05;85;1320;-1320;0
2024-01-22 18:09:08;85;1320;-1320;0
2024-01-22 18:10:06;85;1320;-1320;0
2024-01-22 18:11:08;85;1320;-1320;0
2024-01-22 18:12:06;85;1320;-1320;0
2024-01-22 18:13:09;85;1320;-1320;0
2024-01-22 18:14:07;85;1320;-1320;0
2024-01-22 18:15:04;85;1320;-1320;0
2024-01-22 18:16:07;85;1320;-1320;0
2024-01-22 18:17:05;85;1320;-1320;0
2024-01-22 18:18:07;85;1320;-1320;0
2024-01-22 18:19:05;85;1320;-1320;0
2024-01-22 18:20:08;85;1320;-1320;0
2024-01-22 18:21:05;85;1320;-1320;0
2024-01-22 18:22:08;85;1320;-1320;0
2024-01-22 18:23:06;85;1320;-1320;0
2024-01-22 18:24:08;85;1320;-1320;0
2024-01-22 18:25:06;85;1320;-1320;0
2024-01-22 18:26:08;85;1320;-1320;0
2024-01-22 18:27:06;85;1320;-1320;0
2024-01-22 18:28:09;85;1320;-1320;0
2024-01-22 18:29:07;85;1320;-1320;0
2024-01-22 18:30:04;85;1320;-1320;0
2024-01-22 18:31:07;85;1320;-1320;0
2024-01-22 18:32:05;84;1320;-1320;0
2024-01-22 18:33:07;84;1320;-1320;0
2024-01-22 18:34:05;84;1320;-1320;0
2024-01-22 18:35:07;84;1320;-1320;0
2024-01-22 18:36:05;84;1320;-1320;0
2024-01-22 18:37:07;84;1320;-1320;0
2024-01-22 18:38:05;84;1320;-1320;0
2024-01-22 18:39:07;84;1320;-1320;0
2024-01-22 18:40:05;84;1320;-1320;0
2024-01-22 18:41:08;84;1320;-1320;0
2024-01-22 18:42:05;84;1320;-1320;0
2024-01-22 18:43:08;84;1320;-1320;0
2024-01-22 18:44:05;84;1320;-1320;0
2024-01-22 18:45:08;84;1320;-1320;0
2024-01-22 18:46:05;84;1320;-1320;0
2024-01-22 18:47:08;85;1320;-1320;0
2024-01-22 18:48:05;85;1320;-1320;0
2024-01-22 18:49:08;85;1320;-1320;0
2024-01-22 18:50:05;85;1320;-1320;0
2024-01-22 18:51:07;85;1320;-1320;0
2024-01-22 18:52:05;85;1320;-1320;0
2024-01-22 18:53:07;85;1320;-1320;0
2024-01-22 18:54:05;85;1320;-1320;0
2024-01-22 18:55:07;85;1320;-1320;0
2024-01-22 18:56:05;85;1320;-1320;0
2024-01-22 18:57:07;85;1320;-1320;0
2024-01-22 18:58:05;85;1320;-1320;0
2024-01-22 18:59:07;84;1320;-1320;0
2024-01-22 19:00:05;84;1320;-1320;0
2024-01-22 19:01:07;84;1320;-1320;0
2024-01-22 19:02:05;85;1320;-1320;0
2024-01-22 19:03:07;84;1320;-1320;0
2024-01-22 19:04:05;84;1320;-1320;0
2024-01-22 19:05:07;84;1320;-1320;0
2024-01-22 19:06:05;85;1320;-1320;0
2024-01-22 19:07:07;85;1320;-1320;0
2024-01-22 19:08:04;85;1320;-1320;0
2024-01-22 19:09:07;85;1320;-1320;0
2024-01-22 19:10:04;85;1320;-1320;0
2024-01-22 19:11:06;85;1320;-1320;0
2024-01-22 19:12:09;85;1320;-1320;0
2024-01-22 19:13:06;85;1320;-1320;0
2024-01-22 19:14:09;85;1320;-1320;0
2024-01-22 19:15:06;85;1320;-1320;0
2024-01-22 19:16:08;85;1320;-1320;0
2024-01-22 19:17:06;85;1320;-1320;0
2024-01-22 19:18:08;85;1320;-1320;0
2024-01-22 19:19:06;85;1320;-1320;0
2024-01-22 19:20:08;85;1320;-1320;0
2024-01-22 19:21:06;85;1320;-1320;0
2024-01-22 19:22:08;85;1320;-1320;0
2024-01-22 19:23:06;85;1320;-1320;0
2024-01-22 19:24:08;85;1320;-1320;0
2024-01-22 19:25:05;85;1320;-1320;0
2024-01-22 19:26:08;85;1320;-1320;0
2024-01-22 19:27:05;85;1320;-1320;0
2024-01-22 19:28:07;85;1320;-1320;0
2024-01-22 19:29:05;85;1320;-1320;0
2024-01-22 19:30:07;85;1320;-1320;0
2024-01-22 19:31:05;84;1320;-1320;0
2024-01-22 19:32:07;85;1320;-1320;0
2024-01-22 19:33:05;84;1320;-1320;0
2024-01-22 19:34:07;84;1320;-1320;0
2024-01-22 19:35:04;84;1320;-1320;0
2024-01-22 19:36:07;85;1320;-1320;0
2024-01-22 19:37:04;84;1320;-1320;0
2024-01-22 19:38:06;84;1320;-1320;0
2024-01-22 19:39:09;84;1320;-1320;0
2024-01-22 19:40:06;85;1320;-1320;0
2024-01-22 19:41:08;84;1320;-1320;0
2024-01-22 19:42:06;84;1320;-1320;0
2024-01-22 19:43:08;84;1320;-1320;0
2024-01-22 19:44:06;84;1320;-1320;0
2024-01-22 19:45:08;85;1320;-1320;0
2024-01-22 19:46:06;85;1320;-1320;0
2024-01-22 19:47:08;85;1320;-1320;0
2024-01-22 19:48:05;85;1320;-1320;0
2024-01-22 19:49:08;85;1320;-1320;0
2024-01-22 19:50:05;85;1320;-1320;0
2024-01-22 19:51:07;85;1320;-1320;0
2024-01-22 19:52:05;85;1320;-1320;0
2024-01-22 19:53:07;85;1320;-1320;0
2024-01-22 19:54:05;85;1320;-1320;0
2024-01-22 19:55:07;85;1320;-1320;0
2024-01-22 19:56:04;85;1320;-1320;0
2024-01-22 19:57:07;85;1320;-1320;0
2024-01-22 19:58:04;85;1320;-1320;0
2024-01-22 19:59:06;85;1320;-1320;0
2024-01-22 20:00:09;85;1320;-1320;0
2024-01-22 20:01:06;85;1320;-1320;0
2024-01-22 20:02:08;85;1320;-1320;0
2024-01-22 20:03:06;85;1320;-1320;0
2024-01-22 20:04:08;85;1320;-1320;0
2024-01-22 20:05:06;85;1320;-1320;0
2024-01-22 20:06:08;85;1320;-1320;0
2024-01-22 20:07:05;85;1320;-1320;0
2024-01-22 20:08:07;85;1320;-1320;0
2024-01-22 20:09:05;84;1320;-1320;0
2024-01-22 20:10:07;84;1320;-1320;0
2024-01-22 20:11:05;85;1320;-1320;0
2024-01-22 20:12:07;84;1320;-1320;0
2024-01-22 20:13:04;84;1320;-1320;0
2024-01-22 20:14:07;84;1320;-1320;0
2024-01-22 20:15:04;84;1320;-1320;0
2024-01-22 20:16:06;84;1320;-1320;0
2024-01-22 20:17:08;84;1320;-1320;0
2024-01-22 20:18:06;84;1320;-1320;0
2024-01-22 20:19:08;85;1320;-1320;0
2024-01-22 20:20:06;84;1320;-1320;0
2024-01-22 20:21:08;85;1320;-1320;0
2024-01-22 20:22:05;85;1320;-1320;0
2024-01-22 20:23:08;85;1320;-1320;0
2024-01-22 20:24:05;85;1320;-1320;0
2024-01-22 20:25:07;85;1320;-1320;0
2024-01-22 20:26:05;85;1320;-1320;0
2024-01-22 20:27:07;85;1320;-1320;0
2024-01-22 20:28:04;85;1320;-1320;0
2024-01-22 20:29:07;85;1320;-1320;0
2024-01-22 20:30:04;85;1320;-1320;0
2024-01-22 20:31:06;85;1320;-1320;0
2024-01-22 20:32:08;85;1320;-1320;0
2024-01-22 20:33:06;85;1320;-1320;0
2024-01-22 20:34:08;85;1320;-1320;0
2024-01-22 20:35:06;85;1320;-1320;0
2024-01-22 20:36:08;85;1320;-1320;0
2024-01-22 20:37:05;85;1320;-1320;0
2024-01-22 20:38:07;85;1320;-1320;0
2024-01-22 20:39:05;85;1320;-1320;0
2024-01-22 20:40:07;85;1320;-1320;0
2024-01-22 20:41:05;85;1320;-1320;0
2024-01-22 20:42:07;85;1320;-1320;0
2024-01-22 20:43:04;85;1320;-1320;0
2024-01-22 20:44:06;85;1320;-1320;0
2024-01-22 20:45:08;85;1320;-1320;0
2024-01-22 20:46:06;85;1320;-1320;0
2024-01-22 20:47:08;85;1320;-1320;0
2024-01-22 20:48:06;85;1320;-1320;0
2024-01-22 20:49:08;85;1320;-1320;0
2024-01-22 20:50:05;85;1320;-1320;0
2024-01-22 20:51:07;85;1320;-1320;0
2024-01-22 20:52:05;85;1320;-1320;0
2024-01-22 20:53:07;85;1320;-1320;0
2024-01-22 20:54:05;85;1320;-1320;0
2024-01-22 20:55:07;85;1320;-1320;0
2024-01-22 20:56:04;85;1320;-1320;0
2024-01-22 20:57:06;85;1320;-1320;0
2024-01-22 20:58:08;85;1320;-1320;0
2024-01-22 20:59:06;85;1320;-1320;0
2024-01-22 21:00:08;85;1320;-1320;0
2024-01-22 21:01:06;85;1320;-1320;0
2024-01-22 21:02:08;85;1320;-1320;0
2024-01-22 21:03:05;85;1320;-1320;0
2024-01-22 21:04:07;85;1320;-1320;0
2024-01-22 21:05:05;85;1320;-1320;0
2024-01-22 21:06:07;85;1320;-1320;0
2024-01-22 21:07:04;85;1320;-1320;0
2024-01-22 21:08:07;85;1320;-1320;0
2024-01-22 21:09:04;85;1320;-1320;0
2024-01-22 21:10:06;85;1320;-1320;0
2024-01-22 21:11:08;85;1320;-1320;0
2024-01-22 21:12:06;85;1320;-1320;0
2024-01-22 21:13:08;85;1320;-1320;0
2024-01-22 21:14:05;85;1320;-1320;0
2024-01-22 21:15:07;85;1320;-1320;0
2024-01-22 21:16:05;85;1320;-1320;0
2024-01-22 21:17:07;85;1320;-1320;0
2024-01-22 21:18:05;85;1320;-1320;0
2024-01-22 21:19:07;85;1320;-1320;0
2024-01-22 21:20:04;85;1320;-1320;0
2024-01-22 21:21:06;85;1320;-1320;0
2024-01-22 21:22:08;85;1320;-1320;0
2024-01-22 21:23:06;85;1320;-1320;0
2024-01-22 21:24:08;85;1320;-1320;0
2024-01-22 21:25:05;85;1320;-1320;0
2024-01-22 21:26:08;85;1320;-1320;0
2024-01-22 21:27:05;85;1320;-1320;0
2024-01-22 21:28:07;85;1320;-1320;0
2024-01-22 21:29:05;85;1320;-1320;0
2024-01-22 21:30:07;85;1320;-1320;0
2024-01-22 21:31:04;85;1320;-1320;0
2024-01-22 21:32:06;85;1320;-1320;0
2024-01-22 21:33:08;85;1320;-1320;0
2024-01-22 21:34:06;85;1320;-1320;0
2024-01-22 21:35:08;85;1320;-1320;0
2024-01-22 21:36:06;85;1320;-1320;0
2024-01-22 21:37:08;85;1320;-1320;0
2024-01-22 21:38:05;85;1320;-1320;0
2024-01-22 21:39:07;85;1320;-1320;0
2024-01-22 21:40:05;85;1320;-1320;0
2024-01-22 21:41:07;85;1320;-1320;0
2024-01-22 21:42:04;85;1320;-1320;0
2024-01-22 21:43:06;85;1320;-1320;0
2024-01-22 21:44:09;84;1320;-1320;0
2024-01-22 21:45:06;85;1320;-1320;0
2024-01-22 21:46:08;85;1320;-1320;0
2024-01-22 21:47:06;85;1320;-1320;0
2024-01-22 21:48:08;84;1320;-1320;0
2024-01-22 21:49:05;85;1320;-1320;0
2024-01-22 21:50:07;84;1320;-1320;0
2024-01-22 21:51:05;85;1320;-1320;0
2024-01-22 21:52:07;84;1320;-1320;0
2024-01-22 21:53:04;85;1320;-1320;0
2024-01-22 21:54:06;85;1320;-1320;0
2024-01-22 21:55:04;84;1320;-1320;0
2024-01-22 21:56:06;84;1320;-1320;0
2024-01-22 21:57:08;85;1320;-1320;0
2024-01-22 21:58:06;85;1320;-1320;0
2024-01-22 21:59:08;84;1320;-1320;0
2024-01-22 22:00:05;84;1320;-1320;0
2024-01-22 22:01:07;84;1320;-1320;0
2024-01-22 22:02:05;84;1320;-1320;0
2024-01-22 22:03:07;85;1320;-1320;0
2024-01-22 22:04:04;84;1320;-1320;0
2024-01-22 22:05:06;85;1320;-1320;0
2024-01-22 22:06:09;84;1320;-1320;0
2024-01-22 22:07:06;84;1320;-1320;0
2024-01-22 22:08:08;85;1320;-1320;0
2024-01-22 22:09:06;84;1320;-1320;0
2024-01-22 22:10:08;84;1320;-1320;0
2024-01-22 22:11:05;84;1320;-1320;0
2024-01-22 22:12:07;84;1320;-1320;0
2024-01-22 22:13:05;84;1320;-1320;0
2024-01-22 22:14:07;84;1320;-1320;0
2024-01-22 22:15:04;84;1320;-1320;0
2024-01-22 22:16:06;84;1320;-1320;0
2024-01-22 22:17:08;84;1320;-1320;0
2024-01-22 22:18:06;84;1320;-1320;0
2024-01-22 22:19:08;84;1320;-1320;0
2024-01-22 22:20:06;84;1320;-1320;0
2024-01-22 22:21:08;84;1320;-1320;0
2024-01-22 22:22:05;85;1320;-1320;0
2024-01-22 22:23:07;84;1320;-1320;0
2024-01-22 22:24:05;84;1320;-1320;0
2024-01-22 22:25:07;84;1320;-1320;0
2024-01-22 22:26:04;84;1320;-1320;0
2024-01-22 22:27:06;84;1320;-1320;0
2024-01-22 22:28:08;84;1320;-1320;0
2024-01-22 22:29:06;84;1320;-1320;0
2024-01-22 22:30:08;84;1320;-1320;0
2024-01-22 22:31:05;84;1320;-1320;0
2024-01-22 22:32:07;84;1320;-1320;0
2024-01-22 22:33:05;84;1320;-1320;0
2024-01-22 22:34:07;84;1320;-1320;0
2024-01-22 22:35:04;84;1320;-1320;0
2024-01-22 22:36:07;85;1320;-1320;0
2024-01-22 22:37:04;84;1320;-1320;0
2024-01-22 22:38:06;84;1320;-1320;0
2024-01-22 22:39:08;84;1320;-1320;0
2024-01-22 22:40:06;84;1320;-1320;0
2024-01-22 22:41:08;84;1320;-1320;0
2024-01-22 22:42:05;84;1320;-1320;0
2024-01-22 22:43:07;84;1320;-1320;0
2024-01-22 22:44:05;84;1320;-1320;0
2024-01-22 22:45:07;84;1320;-1320;0
2024-01-22 22:46:04;84;1320;-1320;0
2024-01-22 22:47:06;84;1320;-1320;0
2024-01-22 22:48:08;84;1320;-1320;0
2024-01-22 22:49:06;84;1320;-1320;0
2024-01-22 22:50:08;84;1320;-1320;0
2024-01-22 22:51:05;84;1320;-1320;0
2024-01-22 22:52:08;84;1320;-1320;0
2024-01-22 22:53:05;84;1320;-1320;0
2024-01-22 22:54:07;84;1320;-1320;0
2024-01-22 22:55:05;84;1320;-1320;0
2024-01-22 22:56:07;84;1320;-1320;0
2024-01-22 22:57:04;84;1320;-1320;0
2024-01-22 22:58:06;84;1320;-1320;0
2024-01-22 22:59:08;84;1320;-1320;0
2024-01-22 23:00:06;84;1320;-1320;0
2024-01-22 23:01:08;84;1320;-1320;0
2024-01-22 23:02:05;84;1320;-1320;0
2024-01-22 23:03:07;84;1320;-1320;0
2024-01-22 23:04:05;84;1320;-1320;0
2024-01-22 23:05:07;84;1320;-1320;0
2024-01-22 23:06:04;84;1320;-1320;0
2024-01-22 23:07:06;84;1320;-1320;0
2024-01-22 23:08:08;84;1320;-1320;0
2024-01-22 23:09:06;84;1320;-1320;0
2024-01-22 23:10:08;84;1320;-1320;0
2024-01-22 23:11:05;84;1320;-1320;0
2024-01-22 23:12:07;84;1320;-1320;0
2024-01-22 23:13:05;84;1320;-1320;0
2024-01-22 23:14:07;84;1320;-1320;0
2024-01-22 23:15:04;84;1320;-1320;0
2024-01-22 23:16:06;84;1320;-1320;0
2024-01-22 23:17:08;84;1320;-1320;0
2024-01-22 23:18:06;84;1320;-1320;0
2024-01-22 23:19:08;84;1320;-1320;0
2024-01-22 23:20:05;84;1320;-1320;0
2024-01-22 23:21:07;84;1320;-1320;0
2024-01-22 23:22:05;84;1320;-1320;0
2024-01-22 23:23:07;84;1320;-1320;0
2024-01-22 23:24:04;84;1320;-1320;0
2024-01-22 23:25:07;84;1320;-1320;0
2024-01-22 23:26:04;84;1320;-1320;0
2024-01-22 23:27:06;84;1320;-1320;0
2024-01-22 23:28:08;84;1320;-1320;0
2024-01-22 23:29:06;84;1320;-1320;0
2024-01-22 23:30:08;84;1320;-1320;0
2024-01-22 23:31:05;85;1320;-1320;0
2024-01-22 23:32:07;84;1320;-1320;0
2024-01-22 23:33:05;84;1320;-1320;0
2024-01-22 23:34:07;84;1320;-1320;0
2024-01-22 23:35:04;84;1320;-1320;0
2024-01-22 23:36:06;84;1320;-1320;0
2024-01-22 23:37:08;84;1320;-1320;0
2024-01-22 23:38:06;84;1320;-1320;0
2024-01-22 23:39:08;84;1320;-1320;0
2024-01-22 23:40:05;84;1320;-1320;0
2024-01-22 23:41:07;84;1320;-1320;0
2024-01-22 23:42:05;84;1320;-1320;0
2024-01-22 23:43:07;84;1320;-1320;0
2024-01-22 23:44:04;84;1320;-1320;0
2024-01-22 23:45:06;85;1320;-1320;0
2024-01-22 23:46:08;84;1320;-1320;0
2024-01-22 23:47:06;84;1320;-1320;0
2024-01-22 23:48:08;84;1320;-1320;0
2024-01-22 23:49:05;84;1320;-1320;0
2024-01-22 23:50:07;84;1320;-1320;0
2024-01-22 23:51:05;84;1320;-1320;0
2024-01-22 23:52:07;84;1320;-1320;0
2024-01-22 23:53:04;84;1320;-1320;0
2024-01-22 23:54:06;84;1320;-1320;0
2024-01-22 23:55:08;84;1320;-1320;0
2024-01-22 23:56:06;84;1320;-1320;0
2024-01-22 23:57:08;84;1320;-1320;0
2024-01-22 23:58:05;84;1320;-1320;0
2024-01-22 23:59:07;85;1320;-1320;0
