2024-03-30 00:00:07;100;1320;-1320;0
2024-03-30 00:01:05;100;1320;-1320;0
2024-03-30 00:02:07;100;1320;-1320;0
2024-03-30 00:03:04;100;1320;-1320;0
2024-03-30 00:04:06;100;1320;-1320;0
2024-03-30 00:05:08;100;1320;-1320;0
2024-03-30 00:06:06;100;1320;-1320;0
2024-03-30 00:07:08;100;1320;-1320;0
2024-03-30 00:08:05;100;1320;-1320;0
2024-03-30 00:09:07;100;1320;-1320;0
2024-03-30 00:10:05;100;1320;-1320;0
2024-03-30 00:11:07;100;1320;-1320;0
2024-03-30 00:12:04;100;1320;-1320;0
2024-03-30 00:13:06;100;1320;-1320;0
2024-03-30 00:14:08;100;1320;-1320;0
2024-03-30 00:15:06;100;1320;-1320;0
2024-03-30 00:16:08;100;1320;-1320;0
2024-03-30 00:17:05;100;1320;-1320;0
2024-03-30 00:18:07;100;1320;-1320;0
2024-03-30 00:19:05;100;1320;-1320;0
2024-03-30 00:20:07;100;1320;-1320;0
2024-03-30 00:21:04;100;1320;-1320;0
2024-03-30 00:22:06;100;1320;-1320;0
2024-03-30 00:23:08;100;1320;-1320;0
2024-03-30 00:24:06;100;1320;-1320;0
2024-03-30 00:25:08;100;1320;-1320;0
2024-03-30 00:26:05;100;1320;-1320;0
2024-03-30 00:27:07;100;1320;-1320;0
2024-03-30 00:28:05;100;1320;-1320;0
2024-03-30 00:29:07;100;1320;-1320;0
2024-03-30 00:30:04;100;1320;-1320;0
2024-03-30 00:31:06;100;1320;-1320;0
2024-03-30 00:32:08;100;1320;-1320;0
2024-03-30 00:33:06;100;1320;-1320;0
2024-03-30 00:34:08;100;1320;-1320;0
2024-03-30 00:35:05;100;1320;-1320;0
2024-03-30 00:36:07;100;1320;-1320;0
2024-03-30 00:37:05;100;1320;-1320;0
2024-03-30 00:38:07;100;1320;-1320;0
2024-03-30 00:39:04;100;1320;-1320;0
2024-03-30 00:40:06;100;1320;-1320;0
2024-03-30 00:41:08;100;1320;-1320;0
2024-03-30 00:42:06;100;1320;-1320;0
2024-03-30 00:43:08;100;1320;-1320;0
2024-03-30 00:44:05;100;1320;-1320;0
2024-03-30 00:45:07;100;1320;-1320;0
2024-03-30 00:46:05;100;1320;-1320;0
2024-03-30 00:47:07;100;1320;-1320;0
2024-03-30 00:48:04;100;1320;-1320;0
2024-03-30 00:49:06;100;1320;-1320;0
2024-03-30 00:50:08;100;1320;-1320;0
2024-03-30 00:51:06;100;1320;-1320;0
2024-03-30 00:52:08;100;1320;-1320;0
2024-03-30 00:53:05;100;1320;-1320;0
2024-03-30 00:54:07;100;1320;-1320;0
2024-03-30 00:55:05;100;1320;-1320;0
2024-03-30 00:56:07;100;1320;-1320;0
2024-03-30 00:57:04;100;1320;-1320;0
2024-03-30 00:58:06;100;1320;-1320;0
2024-03-30 00:59:08;100;1320;-1320;0
2024-03-30 01:00:05;100;1320;-1320;0
2024-03-30 01:01:08;100;1320;-1320;0
2024-03-30 01:02:05;100;1320;-1320;0
2024-03-30 01:03:07;100;1320;-1320;0
2024-03-30 01:04:04;100;1320;-1320;0
2024-03-30 01:05:06;100;1320;-1320;0
2024-03-30 01:06:08;100;1320;-1320;0
2024-03-30 01:07:06;100;1320;-1320;0
2024-03-30 01:08:08;100;1320;-1320;0
2024-03-30 01:09:05;100;1320;-1320;0
2024-03-30 01:10:07;100;1320;-1320;0
2024-03-30 01:11:05;100;1320;-1320;0
2024-03-30 01:12:07;100;1320;-1320;0
2024-03-30 01:13:04;100;1320;-1320;0
2024-03-30 01:14:06;100;1320;-1320;0
2024-03-30 01:15:08;100;1320;-1320;0
2024-03-30 01:16:06;100;1320;-1320;0
2024-03-30 01:17:08;100;1320;-1320;0
2024-03-30 01:18:05;100;1320;-1320;0
2024-03-30 01:19:07;100;1320;-1320;0
2024-03-30 01:20:05;100;1320;-1320;0
2024-03-30 01:21:07;100;1320;-1320;0
2024-03-30 01:22:04;100;1320;-1320;0
2024-03-30 01:23:06;100;1320;-1320;0
2024-03-30 01:24:08;100;1320;-1320;0
2024-03-30 01:25:06;100;1320;-1320;0
2024-03-30 01:26:08;100;1320;-1320;0
2024-03-30 01:27:05;100;1320;-1320;0
2024-03-30 01:28:07;100;1320;-1320;0
2024-03-30 01:29:05;100;1320;-1320;0
2024-03-30 01:30:07;100;1320;-1320;0
2024-03-30 01:31:04;100;1320;-1320;0
2024-03-30 01:32:06;100;1320;-1320;0
2024-03-30 01:33:08;100;1320;-1320;0
2024-03-30 01:34:06;100;1320;-1320;0
2024-03-30 01:35:08;100;1320;-1320;0
2024-03-30 01:36:05;100;1320;-1320;0
2024-03-30 01:37:07;100;1320;-1320;0
2024-03-30 01:38:05;100;1320;-1320;0
2024-03-30 01:39:07;100;1320;-1320;0
2024-03-30 01:40:04;100;1320;-1320;0
2024-03-30 01:41:06;100;1320;-1320;0
2024-03-30 01:42:08;100;1320;-1320;0
2024-03-30 01:43:06;100;1320;-1320;0
2024-03-30 01:44:08;100;1320;-1320;0
2024-03-30 01:45:05;100;1320;-1320;0
2024-03-30 01:46:07;100;1320;-1320;0
2024-03-30 01:47:05;100;1320;-1320;0
2024-03-30 01:48:07;100;1320;-1320;0
2024-03-30 01:49:04;100;1320;-1320;0
2024-03-30 01:50:06;100;1320;-1320;0
2024-03-30 01:51:08;100;1320;-1320;0
2024-03-30 01:52:06;100;1320;-1320;0
2024-03-30 01:53:08;100;1320;-1320;0
2024-03-30 01:54:05;100;1320;-1320;0
2024-03-30 01:55:07;100;1320;-1320;0
2024-03-30 01:56:05;100;1320;-1320;0
2024-03-30 01:57:07;100;1320;-1320;0
2024-03-30 01:58:04;100;1320;-1320;0
2024-03-30 01:59:06;100;1320;-1320;0
2024-03-30 02:00:08;100;1320;-1320;0
2024-03-30 02:01:06;100;1320;-1320;0
2024-03-30 02:02:08;100;1320;-1320;0
2024-03-30 02:03:05;100;1320;-1320;0
2024-03-30 02:04:07;100;1320;-1320;0
2024-03-30 02:05:05;100;1320;-1320;0
2024-03-30 02:06:07;100;1320;-1320;0
2024-03-30 02:07:04;100;1320;-1320;0
2024-03-30 02:08:06;100;1320;-1320;0
2024-03-30 02:09:08;100;1320;-1320;0
2024-03-30 02:10:06;100;1320;-1320;0
2024-03-30 02:11:08;100;1320;-1320;0
2024-03-30 02:12:05;100;1320;-1320;0
2024-03-30 02:13:07;100;1320;-1320;0
2024-03-30 02:14:04;100;1320;-1320;0
2024-03-30 02:15:06;100;1320;-1320;0
2024-03-30 02:16:04;100;1320;-1320;0
2024-03-30 02:17:06;100;1320;-1320;0
2024-03-30 02:18:08;100;1320;-1320;0
2024-03-30 02:19:05;100;1320;-1320;0
2024-03-30 02:20:07;100;1320;-1320;0
2024-03-30 02:21:05;100;1320;-1320;0
2024-03-30 02:22:07;100;1320;-1320;0
2024-03-30 02:23:04;100;1320;-1320;0
2024-03-30 02:24:06;100;1320;-1320;0
2024-03-30 02:25:08;100;1320;-1320;0
2024-03-30 02:26:06;100;1320;-1320;0
2024-03-30 02:27:08;100;1320;-1320;0
2024-03-30 02:28:05;100;1320;-1320;0
2024-03-30 02:29:07;100;1320;-1320;0
2024-03-30 02:30:05;100;1320;-1320;0
2024-03-30 02:31:07;100;1320;-1320;0
2024-03-30 02:32:04;100;1320;-1320;0
2024-03-30 02:33:06;100;1320;-1320;0
2024-03-30 02:34:08;100;1320;-1320;0
2024-03-30 02:35:06;100;1320;-1320;0
2024-03-30 02:36:08;100;1320;-1320;0
2024-03-30 02:37:05;100;1320;-1320;0
2024-03-30 02:38:07;100;1320;-1320;0
2024-03-30 02:39:04;100;1320;-1320;0
2024-03-30 02:40:06;100;1320;-1320;0
2024-03-30 02:41:08;100;1320;-1320;0
2024-03-30 02:42:06;100;1320;-1320;0
2024-03-30 02:43:08;100;1320;-1320;0
2024-03-30 02:44:05;100;1320;-1320;0
2024-03-30 02:45:07;100;1320;-1320;0
2024-03-30 02:46:05;100;1320;-1320;0
2024-03-30 02:47:07;100;1320;-1320;0
2024-03-30 02:48:04;100;1320;-1320;0
2024-03-30 02:49:06;100;1320;-1320;0
2024-03-30 02:50:08;100;1320;-1320;0
2024-03-30 02:51:06;100;1320;-1320;0
2024-03-30 02:52:08;100;1320;-1320;0
2024-03-30 02:53:05;100;1320;-1320;0
2024-03-30 02:54:07;100;1320;-1320;0
2024-03-30 02:55:04;100;1320;-1320;0
2024-03-30 02:56:06;100;1320;-1320;0
2024-03-30 02:57:08;100;1320;-1320;0
2024-03-30 02:58:06;100;1320;-1320;0
2024-03-30 02:59:08;100;1320;-1320;0
2024-03-30 03:00:05;100;1320;-1320;0
2024-03-30 03:01:07;100;1320;-1320;0
2024-03-30 03:02:05;100;1320;-1320;0
2024-03-30 03:03:07;100;1320;-1320;0
2024-03-30 03:04:04;100;1320;-1320;0
2024-03-30 03:05:06;100;1320;-1320;0
2024-03-30 03:06:08;100;1320;-1320;0
2024-03-30 03:07:06;100;1320;-1320;0
2024-03-30 03:08:08;100;1320;-1320;0
2024-03-30 03:09:05;100;1320;-1320;0
2024-03-30 03:10:07;100;1320;-1320;0
2024-03-30 03:11:04;100;1320;-1320;0
2024-03-30 03:12:06;100;1320;-1320;0
2024-03-30 03:13:04;100;1320;-1320;0
2024-03-30 03:14:06;100;1320;-1320;0
2024-03-30 03:15:08;100;1320;-1320;0
2024-03-30 03:16:05;100;1320;-1320;0
2024-03-30 03:17:07;100;1320;-1320;0
2024-03-30 03:18:05;100;1320;-1320;0
2024-03-30 03:19:07;100;1320;-1320;0
2024-03-30 03:20:04;100;1320;-1320;0
2024-03-30 03:21:06;100;1320;-1320;0
2024-03-30 03:22:08;100;1320;-1320;0
2024-03-30 03:23:06;100;1320;-1320;0
2024-03-30 03:24:08;100;1320;-1320;0
2024-03-30 03:25:05;100;1320;-1320;0
2024-03-30 03:26:07;100;1320;-1320;0
2024-03-30 03:27:04;100;1320;-1320;0
2024-03-30 03:28:06;100;1320;-1320;0
2024-03-30 03:29:08;100;1320;-1320;0
2024-03-30 03:30:06;100;1320;-1320;0
2024-03-30 03:31:08;100;1320;-1320;0
2024-03-30 03:32:05;100;1320;-1320;0
2024-03-30 03:33:07;100;1320;-1320;0
2024-03-30 03:34:05;100;1320;-1320;0
2024-03-30 03:35:07;100;1320;-1320;0
2024-03-30 03:36:04;100;1320;-1320;0
2024-03-30 03:37:06;100;1320;-1320;0
2024-03-30 03:38:08;100;1320;-1320;0
2024-03-30 03:39:05;100;1320;-1320;0
2024-03-30 03:40:07;100;1320;-1320;0
2024-03-30 03:41:05;100;1320;-1320;0
2024-03-30 03:42:07;100;1320;-1320;0
2024-03-30 03:43:04;100;1320;-1320;0
2024-03-30 03:44:06;100;1320;-1320;0
2024-03-30 03:45:08;100;1320;-1320;0
2024-03-30 03:46:06;100;1320;-1320;0
2024-03-30 03:47:08;100;1320;-1320;0
2024-03-30 03:48:05;100;1320;-1320;0
2024-03-30 03:49:07;100;1320;-1320;0
2024-03-30 03:50:04;100;1320;-1320;0
2024-03-30 03:51:06;100;1320;-1320;0
2024-03-30 03:52:08;100;1320;-1320;0
2024-03-30 03:53:06;100;1320;-1320;0
2024-03-30 03:54:08;100;1320;-1320;0
2024-03-30 03:55:05;100;1320;-1320;0
2024-03-30 03:56:07;100;1320;-1320;0
2024-03-30 03:57:05;100;1320;-1320;0
2024-03-30 03:58:07;100;1320;-1320;0
2024-03-30 03:59:04;100;1320;-1320;0
2024-03-30 04:00:06;100;1320;-1320;0
2024-03-30 04:01:08;100;1320;-1320;0
2024-03-30 04:02:05;100;1320;-1320;0
2024-03-30 04:03:07;100;1320;-1320;0
2024-03-30 04:04:05;100;1320;-1320;0
2024-03-30 04:05:07;100;1320;-1320;0
2024-03-30 04:06:04;100;1320;-1320;0
2024-03-30 04:07:06;100;1320;-1320;0
2024-03-30 04:08:08;100;1320;-1320;0
2024-03-30 04:09:06;100;1320;-1320;0
2024-03-30 04:10:08;100;1320;-1320;0
2024-03-30 04:11:05;100;1320;-1320;0
2024-03-30 04:12:07;100;1320;-1320;0
2024-03-30 04:13:04;100;1320;-1320;0
2024-03-30 04:14:06;100;1320;-1320;0
2024-03-30 04:15:08;100;1320;-1320;0
2024-03-30 04:16:06;100;1320;-1320;0
2024-03-30 04:17:08;100;1320;-1320;0
2024-03-30 04:18:05;100;1320;-1320;0
2024-03-30 04:19:07;100;1320;-1320;0
2024-03-30 04:20:04;100;1320;-1320;0
2024-03-30 04:21:06;100;1320;-1320;0
2024-03-30 04:22:04;100;1320;-1320;0
2024-03-30 04:23:06;100;1320;-1320;0
2024-03-30 04:24:08;100;1320;-1320;0
2024-03-30 04:25:05;100;1320;-1320;0
2024-03-30 04:26:07;100;1320;-1320;0
2024-03-30 04:27:05;100;1320;-1320;0
2024-03-30 04:28:07;100;1320;-1320;0
2024-03-30 04:29:04;100;1320;-1320;0
2024-03-30 04:30:06;100;1320;-1320;0
2024-03-30 04:31:08;100;1320;-1320;0
2024-03-30 04:32:05;100;1320;-1320;0
2024-03-30 04:33:07;100;1320;-1320;0
2024-03-30 04:34:05;100;1320;-1320;0
2024-03-30 04:35:07;100;1320;-1320;0
2024-03-30 04:36:04;100;1320;-1320;0
2024-03-30 04:37:06;100;1320;-1320;0
2024-03-30 04:38:08;100;1320;-1320;0
2024-03-30 04:39:06;100;1320;-1320;0
2024-03-30 04:40:08;100;1320;-1320;0
2024-03-30 04:41:05;100;1320;-1320;0
2024-03-30 04:42:07;100;1320;-1320;0
2024-03-30 04:43:04;100;1320;-1320;0
2024-03-30 04:44:06;100;1320;-1320;0
2024-03-30 04:45:08;100;1320;-1320;0
2024-03-30 04:46:06;100;1320;-1320;0
2024-03-30 04:47:08;100;1320;-1320;0
2024-03-30 04:48:05;100;1320;-1320;0
2024-03-30 04:49:07;100;1320;-1320;0
2024-03-30 04:50:04;100;1320;-1320;0
2024-03-30 04:51:06;100;1320;-1320;0
2024-03-30 04:52:08;100;1320;-1320;0
2024-03-30 04:53:06;100;1320;-1320;0
2024-03-30 04:54:08;100;1320;-1320;0
2024-03-30 04:55:05;100;1320;-1320;0
2024-03-30 04:56:07;100;1320;-1320;0
2024-03-30 04:57:05;100;1320;-1320;0
2024-03-30 04:58:07;100;1320;-1320;0
2024-03-30 04:59:04;100;1320;-1320;0
2024-03-30 05:00:06;100;1320;-1320;0
2024-03-30 05:01:08;100;1320;-1320;0
2024-03-30 05:02:05;100;1320;-1320;0
2024-03-30 05:03:07;100;1320;-1320;0
2024-03-30 05:04:05;100;1320;-1320;0
2024-03-30 05:05:07;100;1320;-1320;0
2024-03-30 05:06:04;100;1320;-1320;0
2024-03-30 05:07:06;100;1320;-1320;0
2024-03-30 05:08:08;100;1320;-1320;0
2024-03-30 05:09:05;100;1320;-1320;0
2024-03-30 05:10:07;100;1320;-1320;0
2024-03-30 05:11:05;100;1320;-1320;0
2024-03-30 05:12:07;100;1320;-1320;0
2024-03-30 05:13:04;100;1320;-1320;0
2024-03-30 05:14:06;100;1320;-1320;0
2024-03-30 05:15:08;100;1320;-1320;0
2024-03-30 05:16:06;100;1320;-1320;0
2024-03-30 05:17:08;100;1320;-1320;0
2024-03-30 05:18:05;100;1320;-1320;0
2024-03-30 05:19:07;100;1320;-1320;0
2024-03-30 05:20:04;100;1320;-1320;0
2024-03-30 05:21:06;99;1320;-1320;0
2024-03-30 05:22:08;100;1320;-1320;0
2024-03-30 05:23:06;100;1320;-1320;0
2024-03-30 05:24:08;100;1320;-1320;0
2024-03-30 05:25:05;100;1320;-1320;0
2024-03-30 05:26:07;100;1320;-1320;0
2024-03-30 05:27:05;100;1320;-1320;0
2024-03-30 05:28:07;100;1320;-1320;0
2024-03-30 05:29:04;99;1320;-1320;0
2024-03-30 05:30:06;100;1320;-1320;0
2024-03-30 05:31:08;99;1320;-1320;0
2024-03-30 05:32:05;100;1320;-1320;0
2024-03-30 05:33:07;99;1320;-1320;0
2024-03-30 05:34:05;100;1320;-1320;0
2024-03-30 05:35:07;99;1320;-1320;0
2024-03-30 05:36:04;100;1320;-1320;0
2024-03-30 05:37:06;99;1320;-1320;0
2024-03-30 05:38:08;99;1320;-1320;0
2024-03-30 05:39:05;99;1320;-1320;0
2024-03-30 05:40:07;99;1320;-1320;0
2024-03-30 05:41:05;99;1320;-1320;0
2024-03-30 05:42:07;99;1320;-1320;0
2024-03-30 05:43:04;99;1320;-1320;0
2024-03-30 05:44:06;99;1320;-1320;0
2024-03-30 05:45:08;99;1320;-1320;0
2024-03-30 05:46:06;99;1320;-1320;0
2024-03-30 05:47:08;99;1320;-1320;0
2024-03-30 05:48:05;99;1320;-1320;0
2024-03-30 05:49:07;100;1320;-1320;0
2024-03-30 05:50:04;99;1320;-1320;0
2024-03-30 05:51:06;99;1320;-1320;0
2024-03-30 05:52:08;99;1320;-1320;0
2024-03-30 05:53:06;99;1320;-1320;0
2024-03-30 05:54:08;100;1320;-1320;0
2024-03-30 05:55:05;100;1320;-1320;0
2024-03-30 05:56:07;100;1320;-1320;0
2024-03-30 05:57:04;100;1320;-1320;0
2024-03-30 05:58:06;100;1320;-1320;0
2024-03-30 05:59:08;100;1320;-1320;0
2024-03-30 06:00:06;100;1320;-1320;0
2024-03-30 06:01:08;100;1320;-1320;0
2024-03-30 06:02:05;100;1320;-1320;0
2024-03-30 06:03:07;100;1320;-1320;0
2024-03-30 06:04:05;100;1320;-1320;0
2024-03-30 06:05:07;100;1320;-1320;0
2024-03-30 06:06:04;100;1320;-1320;0
2024-03-30 06:07:06;100;1320;-1320;0
2024-03-30 06:08:08;100;1320;-1320;0
2024-03-30 06:09:05;100;1320;-1320;0
2024-03-30 06:10:07;100;1320;-1320;0
2024-03-30 06:11:05;100;1320;-1320;0
2024-03-30 06:12:07;100;1320;-1320;0
2024-03-30 06:13:04;100;1320;-1320;0
2024-03-30 06:14:06;100;1320;-1320;0
2024-03-30 06:15:08;100;1320;-1320;0
2024-03-30 06:16:05;99;1320;-1320;0
2024-03-30 06:17:07;99;1320;-1320;0
2024-03-30 06:18:05;99;1320;-1320;0
2024-03-30 06:19:07;99;1320;-1320;0
2024-03-30 06:20:04;99;1320;-1320;0
2024-03-30 06:21:06;99;1320;-1320;0
2024-03-30 06:22:08;99;1320;-1320;0
2024-03-30 06:23:06;99;1320;-1320;0
2024-03-30 06:24:07;99;1320;-1320;0
2024-03-30 06:25:05;99;1320;-1320;0
2024-03-30 06:26:07;99;1320;-1320;0
2024-03-30 06:27:04;99;1320;-1320;0
2024-03-30 06:28:06;99;1320;-1320;0
2024-03-30 06:29:08;99;1320;-1320;0
2024-03-30 06:30:06;99;1320;-1320;0
2024-03-30 06:31:08;99;1320;-1320;0
2024-03-30 06:32:05;99;1320;-1320;0
2024-03-30 06:33:07;99;1320;-1320;0
2024-03-30 06:34:04;99;1320;-1320;0
2024-03-30 06:35:06;99;1320;-1320;0
2024-03-30 06:36:08;99;1320;-1320;0
2024-03-30 06:37:06;99;1320;-1320;0
2024-03-30 06:38:08;99;1320;-1320;0
2024-03-30 06:39:05;99;1320;-1320;0
2024-03-30 06:40:07;99;1320;-1320;0
2024-03-30 06:41:04;99;1320;-1320;0
2024-03-30 06:42:06;99;1320;-1320;0
2024-03-30 06:43:08;99;1320;-1320;0
2024-03-30 06:44:06;99;1320;-1320;0
2024-03-30 06:45:08;99;1320;-1320;0
2024-03-30 06:46:05;99;1320;-1320;0
2024-03-30 06:47:07;99;1320;-1320;0
2024-03-30 06:48:05;99;1320;-1320;0
2024-03-30 06:49:07;99;1320;-1320;0
2024-03-30 06:50:04;99;1320;-1320;0
2024-03-30 06:51:06;99;1320;-1320;0
2024-03-30 06:52:08;99;1320;-1320;0
2024-03-30 06:53:05;99;1320;-1320;0
2024-03-30 06:54:07;99;1320;-1320;0
2024-03-30 06:55:05;99;1320;-1320;0
2024-03-30 06:56:07;99;1320;-1320;0
2024-03-30 06:57:04;99;1320;-1320;0
2024-03-30 06:58:06;99;1320;-1320;0
2024-03-30 06:59:08;99;1320;-1320;0
2024-03-30 07:00:06;99;1320;-1320;0
2024-03-30 07:01:08;99;1320;-1320;0
2024-03-30 07:02:05;99;1320;-1320;0
2024-03-30 07:03:07;99;1320;-1320;0
2024-03-30 07:04:04;99;1320;-1320;0
2024-03-30 07:05:06;99;1320;-1320;0
2024-03-30 07:06:08;99;1320;-1320;0
2024-03-30 07:07:06;99;1320;-1320;0
2024-03-30 07:08:08;99;1320;-1320;0
2024-03-30 07:09:05;99;1320;-1320;0
2024-03-30 07:10:07;99;1320;-1320;0
2024-03-30 07:11:05;99;1320;-1320;0
2024-03-30 07:12:07;99;1320;-1320;0
2024-03-30 07:13:04;99;1320;-1320;0
2024-03-30 07:14:06;99;1320;-1320;0
2024-03-30 07:15:08;99;1320;-1320;0
2024-03-30 07:16:05;99;1320;-1320;0
2024-03-30 07:17:07;99;1320;-1320;0
2024-03-30 07:18:05;99;1320;-1320;0
2024-03-30 07:19:07;99;1320;-1320;0
2024-03-30 07:20:04;99;1320;-1320;0
2024-03-30 07:21:06;99;1320;-1320;0
2024-03-30 07:22:08;99;1320;-1320;0
2024-03-30 07:23:06;99;1320;-1320;0
2024-03-30 07:24:08;99;1320;-1320;0
2024-03-30 07:25:05;99;1320;-1320;0
2024-03-30 07:26:07;99;1320;-1320;0
2024-03-30 07:27:04;100;1320;-1320;0
2024-03-30 07:28:06;99;1320;-1320;0
2024-03-30 07:29:08;99;1320;-1320;0
2024-03-30 07:30:06;99;1320;-1320;0
2024-03-30 07:31:08;99;1320;-1320;0
2024-03-30 07:32:05;99;1320;-1320;0
2024-03-30 07:33:07;99;1320;-1320;0
2024-03-30 07:34:05;99;1320;-1320;0
2024-03-30 07:35:07;99;1320;-1320;0
2024-03-30 07:36:04;99;1320;-1320;0
2024-03-30 07:37:06;99;1320;-1320;0
2024-03-30 07:38:08;99;1320;-1320;0
2024-03-30 07:39:06;99;1320;-1320;0
2024-03-30 07:40:08;99;1320;-1320;0
2024-03-30 07:41:05;99;1320;-1320;0
2024-03-30 07:42:07;99;1320;-1320;0
2024-03-30 07:43:05;99;1320;-1320;0
2024-03-30 07:44:07;99;1320;-1320;0
2024-03-30 07:45:04;99;1320;-1320;0
2024-03-30 07:46:06;99;1320;-1320;0
2024-03-30 07:47:08;99;1320;-1320;0
2024-03-30 07:48:06;99;1320;-1320;0
2024-03-30 07:49:08;99;1320;-1320;0
2024-03-30 07:50:05;99;1320;-1320;0
2024-03-30 07:51:07;99;1320;-1320;0
2024-03-30 07:52:05;99;1320;-1320;0
2024-03-30 07:53:07;99;1320;-1320;0
2024-03-30 07:54:04;99;1320;-1320;0
2024-03-30 07:55:06;99;1320;-1320;0
2024-03-30 07:56:08;99;1320;-1320;0
2024-03-30 07:57:06;99;1320;-1320;0
2024-03-30 07:58:08;99;1320;-1320;0
2024-03-30 07:59:05;99;1320;-1320;0
2024-03-30 08:00:07;99;1320;-1320;0
2024-03-30 08:01:05;99;1320;-1320;0
2024-03-30 08:02:07;99;1320;-1320;0
2024-03-30 08:03:04;99;1320;-1320;0
2024-03-30 08:04:06;99;1320;-1320;0
2024-03-30 08:05:08;99;1320;-1320;0
2024-03-30 08:06:06;99;1320;-1320;0
2024-03-30 08:07:08;99;1320;-1320;0
2024-03-30 08:08:05;99;1320;-1320;0
2024-03-30 08:09:07;99;1320;-1320;0
2024-03-30 08:10:05;99;1320;-1320;0
2024-03-30 08:11:07;99;1320;-1320;0
2024-03-30 08:12:04;99;1320;-1320;0
2024-03-30 08:13:06;99;1320;-1320;0
2024-03-30 08:14:08;99;1320;-1320;0
2024-03-30 08:15:06;99;1320;-1320;0
2024-03-30 08:16:08;99;1320;-1320;0
2024-03-30 08:17:05;99;1320;-1320;0
2024-03-30 08:18:07;99;1320;-1320;0
2024-03-30 08:19:05;99;1320;-1320;0
2024-03-30 08:20:07;99;1320;-1320;0
2024-03-30 08:21:04;99;1320;-1320;0
2024-03-30 08:22:06;99;1320;-1320;0
2024-03-30 08:23:08;99;1320;-1320;0
2024-03-30 08:24:06;99;1320;-1320;0
2024-03-30 08:25:08;99;1320;-1320;0
2024-03-30 08:26:05;99;1320;-1320;0
2024-03-30 08:27:07;99;1320;-1320;0
2024-03-30 08:28:05;99;1320;-1320;0
2024-03-30 08:29:07;99;1320;-1320;0
2024-03-30 08:30:04;99;1320;-1320;0
2024-03-30 08:31:06;99;1320;-1320;0
2024-03-30 08:32:08;99;1320;-1320;0
2024-03-30 08:33:06;99;1320;-1320;0
2024-03-30 08:34:08;99;1320;-1320;0
2024-03-30 08:35:05;99;1320;-1320;0
2024-03-30 08:36:07;99;1320;-1320;0
2024-03-30 08:37:05;99;1320;-1320;0
2024-03-30 08:38:07;99;1320;-1320;0
2024-03-30 08:39:04;99;1320;-1320;0
2024-03-30 08:40:06;99;1320;-1320;0
2024-03-30 08:41:08;99;1320;-1320;0
2024-03-30 08:42:06;99;1320;-1320;0
2024-03-30 08:43:08;99;1320;-1320;0
2024-03-30 08:44:05;99;1320;-1320;0
2024-03-30 08:45:07;99;1320;-1320;0
2024-03-30 08:46:05;99;1320;-1320;0
2024-03-30 08:47:07;99;1320;-1320;0
2024-03-30 08:48:04;99;1320;-1320;0
2024-03-30 08:49:07;99;1320;-1320;0
2024-03-30 08:50:04;100;1320;-1320;0
2024-03-30 08:51:06;99;1320;-1320;0
2024-03-30 08:52:08;99;1320;-1320;0
2024-03-30 08:53:06;99;1320;-1320;0
2024-03-30 08:54:08;99;1320;-1320;0
2024-03-30 08:55:05;99;1320;-1320;0
2024-03-30 08:56:07;99;1320;-1320;0
2024-03-30 08:57:05;99;1320;-1320;0
2024-03-30 08:58:07;99;1320;-1320;0
2024-03-30 08:59:04;99;1320;-1320;0
2024-03-30 09:00:06;99;1320;-1320;0
2024-03-30 09:01:08;99;1320;-1320;0
2024-03-30 09:02:06;99;1320;-1320;0
2024-03-30 09:03:08;99;1320;-1320;0
2024-03-30 09:04:05;99;1320;-1320;0
2024-03-30 09:05:07;99;1320;-1320;0
2024-03-30 09:06:05;99;1320;-1320;0
2024-03-30 09:07:07;99;1320;-1320;0
2024-03-30 09:08:05;99;1320;-1320;0
2024-03-30 09:09:07;99;1320;-1320;0
2024-03-30 09:10:04;99;1320;-1320;0
2024-03-30 09:11:06;99;1320;-1320;0
2024-03-30 09:12:08;99;1320;-1320;0
2024-03-30 09:13:06;99;1320;-1320;0
2024-03-30 09:14:08;99;1320;-1320;0
2024-03-30 09:15:05;99;1320;-1320;0
2024-03-30 09:16:07;99;1320;-1320;0
2024-03-30 09:17:05;99;1320;-1320;0
2024-03-30 09:18:07;99;1320;-1320;0
2024-03-30 09:19:05;99;1320;-1320;0
2024-03-30 09:20:07;99;1320;-1320;0
2024-03-30 09:21:04;100;1320;-1320;0
2024-03-30 09:22:06;100;1320;-1320;0
2024-03-30 09:23:08;100;1320;-1320;0
2024-03-30 09:24:06;100;1320;-1320;0
2024-03-30 09:25:08;100;1320;-1320;0
2024-03-30 09:26:05;100;1320;-1320;0
2024-03-30 09:27:08;100;1320;-1320;0
2024-03-30 09:28:05;100;1320;-1320;0
2024-03-30 09:29:07;100;1320;-1320;0
2024-03-30 09:30:05;100;1320;-1320;0
2024-03-30 09:31:07;100;1320;-1320;0
2024-03-30 09:32:05;100;1320;-1320;0
2024-03-30 09:33:07;100;1320;-1320;0
2024-03-30 09:34:04;100;1320;-1320;0
2024-03-30 09:35:07;100;1320;-1320;0
2024-03-30 09:36:04;100;1320;-1320;0
2024-03-30 09:37:06;100;1320;-1320;0
2024-03-30 09:38:09;100;1320;-1320;0
2024-03-30 09:39:06;100;1320;-1320;0
2024-03-30 09:40:08;100;1320;-1320;0
2024-03-30 09:41:06;100;1320;-1320;0
2024-03-30 09:42:08;100;1320;-1320;0
2024-03-30 09:43:06;100;1320;-1320;0
2024-03-30 09:44:08;100;1320;-1320;0
2024-03-30 09:45:06;100;1320;-1320;0
2024-03-30 09:46:08;100;1320;-1320;0
2024-03-30 09:47:06;100;1320;-1320;0
2024-03-30 09:48:08;100;1320;-1320;0
2024-03-30 09:49:06;100;1320;-1320;0
2024-03-30 09:50:08;100;1320;-1320;0
2024-03-30 09:51:06;100;1320;-1320;0
2024-03-30 09:52:08;100;1320;-1320;0
2024-03-30 09:53:06;100;1320;-1320;0
2024-03-30 09:54:08;100;1320;-1320;0
2024-03-30 09:55:06;100;1320;-1320;0
2024-03-30 09:56:08;100;1320;-1320;0
2024-03-30 09:57:06;100;1320;-1320;0
2024-03-30 09:58:08;100;1320;-1320;0
2024-03-30 09:59:06;100;1320;-1320;0
2024-03-30 10:00:09;100;1320;-1320;0
2024-03-30 10:01:06;100;1320;-1320;0
2024-03-30 10:02:09;100;1320;-1320;0
2024-03-30 10:03:07;100;1320;-1320;0
2024-03-30 10:04:04;100;1320;-1320;0
2024-03-30 10:05:07;100;1320;-1320;0
2024-03-30 10:06:04;100;1320;-1320;0
2024-03-30 10:07:07;100;1320;-1320;0
2024-03-30 10:08:05;100;1320;-1320;0
2024-03-30 10:09:07;100;1320;-1320;0
2024-03-30 10:10:05;100;1320;-1320;0
2024-03-30 10:11:07;100;1320;-1320;0
2024-03-30 10:12:05;100;1320;-1320;0
2024-03-30 10:13:08;100;1320;-1320;0
2024-03-30 10:14:05;100;1320;-1320;0
2024-03-30 10:15:08;100;1320;-1320;0
2024-03-30 10:16:06;100;1320;-1320;0
2024-03-30 10:17:08;100;1320;-1320;0
2024-03-30 10:18:06;100;1320;-1320;0
2024-03-30 10:19:08;100;1320;-1320;0
2024-03-30 10:20:06;100;1320;-1320;0
2024-03-30 10:21:09;100;1320;-1320;0
2024-03-30 10:22:06;100;1320;-1320;0
2024-03-30 10:23:09;100;1320;-1320;0
2024-03-30 10:24:07;100;1320;-1320;0
2024-03-30 10:25:05;100;1320;-1320;0
2024-03-30 10:26:07;100;1320;-1320;0
2024-03-30 10:27:05;100;1320;-1320;0
2024-03-30 10:28:07;100;1320;-1320;0
2024-03-30 10:29:05;100;1320;-1320;0
2024-03-30 10:30:08;100;1320;-1320;0
2024-03-30 10:31:05;100;1320;-1320;0
2024-03-30 10:32:08;100;1320;-1320;0
2024-03-30 10:33:06;100;1320;-1320;0
2024-03-30 10:34:08;100;1320;-1320;0
2024-03-30 10:35:06;100;1320;-1320;0
2024-03-30 10:36:08;100;1320;-1320;0
2024-03-30 10:37:06;100;1320;-1320;0
2024-03-30 10:38:08;100;1320;-1320;0
2024-03-30 10:39:06;100;1320;-1320;0
2024-03-30 10:40:09;100;1320;-1320;0
2024-03-30 10:41:07;100;1320;-1320;0
2024-03-30 10:42:04;100;1320;-1320;0
2024-03-30 10:43:07;100;1320;-1320;0
2024-03-30 10:44:05;100;1320;-1320;0
2024-03-30 10:45:07;100;1320;-1320;0
2024-03-30 10:46:05;100;1320;-1320;0
2024-03-30 10:47:08;100;1320;-1320;0
2024-03-30 10:48:05;100;1320;-1320;0
2024-03-30 10:49:08;100;1320;-1320;0
2024-03-30 10:50:06;100;1320;-1320;0
2024-03-30 10:51:08;100;1320;-1320;0
2024-03-30 10:52:06;100;1320;-1320;0
2024-03-30 10:53:09;100;1320;-1320;0
2024-03-30 10:54:06;100;1320;-1320;0
2024-03-30 10:55:09;100;1320;-1320;0
2024-03-30 10:56:07;100;1320;-1320;0
2024-03-30 10:57:05;100;1320;-1320;0
2024-03-30 10:58:07;100;1320;-1320;0
2024-03-30 10:59:05;100;1320;-1320;0
2024-03-30 11:00:08;100;1320;-1320;0
2024-03-30 11:01:05;100;1320;-1320;0
2024-03-30 11:02:08;100;1320;-1320;0
2024-03-30 11:03:06;100;1320;-1320;0
2024-03-30 11:04:08;100;1320;-1320;0
2024-03-30 11:05:06;100;1320;-1320;0
2024-03-30 11:06:09;100;1320;-1320;0
2024-03-30 11:07:07;100;1320;-1320;0
2024-03-30 11:08:05;100;1320;-1320;0
2024-03-30 11:09:07;100;1320;-1320;0
2024-03-30 11:10:05;100;1320;-1320;0
2024-03-30 11:11:07;100;1320;-1320;0
2024-03-30 11:12:05;100;1320;-1320;0
2024-03-30 11:13:08;100;1320;-1320;0
2024-03-30 11:14:06;100;1320;-1320;0
2024-03-30 11:15:08;100;1320;-1320;0
2024-03-30 11:16:06;100;1320;-1320;0
2024-03-30 11:17:09;100;1320;-1320;0
2024-03-30 11:18:07;100;1320;-1320;0
2024-03-30 11:19:05;100;1320;-1320;0
2024-03-30 11:20:07;100;1320;-1320;0
2024-03-30 11:21:05;100;1320;-1320;0
2024-03-30 11:22:08;100;1320;-1320;0
2024-03-30 11:23:06;100;1320;-1320;0
2024-03-30 11:24:08;100;1320;-1320;0
2024-03-30 11:25:06;100;1320;-1320;0
2024-03-30 11:26:09;100;1320;-1320;0
2024-03-30 11:27:06;100;1320;-1320;0
2024-03-30 11:28:09;100;1320;-1320;0
2024-03-30 11:29:07;100;1320;-1320;0
2024-03-30 11:30:05;100;1320;-1320;0
2024-03-30 11:31:07;100;1320;-1320;0
2024-03-30 11:32:05;100;1320;-1320;0
2024-03-30 11:33:08;100;1320;-1320;0
2024-03-30 11:34:06;100;1320;-1320;0
2024-03-30 11:35:08;100;1320;-1320;0
2024-03-30 11:36:06;100;1320;-1320;0
2024-03-30 11:37:09;100;1320;-1320;0
2024-03-30 11:38:07;100;1320;-1320;0
2024-03-30 11:39:05;100;1320;-1320;0
2024-03-30 11:40:07;100;1320;-1320;0
2024-03-30 11:41:05;100;1320;-1320;0
2024-03-30 11:42:08;100;1320;-1320;0
2024-03-30 11:43:06;100;1320;-1320;0
2024-03-30 11:44:08;100;1320;-1320;0
2024-03-30 11:45:06;100;1320;-1320;0
2024-03-30 11:46:09;100;1320;-1320;0
2024-03-30 11:47:07;100;1320;-1320;0
2024-03-30 11:48:04;100;1320;-1320;0
2024-03-30 11:49:07;100;1320;-1320;0
2024-03-30 11:50:05;100;1320;-1320;0
2024-03-30 11:51:07;100;1320;-1320;0
2024-03-30 11:52:05;100;1320;-1320;0
2024-03-30 11:53:08;100;1320;-1320;0
2024-03-30 11:54:06;100;1320;-1320;0
2024-03-30 11:55:08;100;1320;-1320;0
2024-03-30 11:56:06;100;1320;-1320;0
2024-03-30 11:57:09;100;1320;-1320;0
2024-03-30 11:58:07;100;1320;-1320;0
2024-03-30 11:59:05;100;1320;-1320;0
2024-03-30 12:00:07;100;1320;-1320;0
2024-03-30 12:01:05;100;1320;-1320;0
2024-03-30 12:02:08;100;1320;-1320;0
2024-03-30 12:03:06;100;1320;-1320;0
2024-03-30 12:04:08;100;1320;-1320;0
2024-03-30 12:05:06;100;1320;-1320;0
2024-03-30 12:06:09;100;1320;-1320;0
2024-03-30 12:07:07;100;1320;-1320;0
2024-03-30 12:08:05;100;1320;-1320;0
2024-03-30 12:09:07;100;1320;-1320;0
2024-03-30 12:10:05;100;1320;-1320;0
2024-03-30 12:11:08;100;1320;-1320;0
2024-03-30 12:12:06;100;1320;-1320;0
2024-03-30 12:13:08;100;1320;-1320;0
2024-03-30 12:14:06;100;1320;-1320;0
2024-03-30 12:15:09;100;1320;-1320;0
2024-03-30 12:16:07;100;1320;-1320;0
2024-03-30 12:17:05;100;1320;-1320;0
2024-03-30 12:18:07;100;1320;-1320;0
2024-03-30 12:19:05;100;1320;-1320;0
2024-03-30 12:20:08;100;1320;-1320;0
2024-03-30 12:21:06;100;1320;-1320;0
2024-03-30 12:22:09;100;1320;-1320;0
2024-03-30 12:23:07;100;1320;-1320;0
2024-03-30 12:24:05;100;1320;-1320;0
2024-03-30 12:25:07;100;1320;-1320;0
2024-03-30 12:26:05;100;1320;-1320;0
2024-03-30 12:27:08;100;1320;-1320;0
2024-03-30 12:28:06;100;1320;-1320;0
2024-03-30 12:29:08;100;1320;-1320;0
2024-03-30 12:30:06;100;1320;-1320;0
2024-03-30 12:31:09;100;1320;-1320;0
2024-03-30 12:32:07;100;1320;-1320;0
2024-03-30 12:33:05;100;1320;-1320;0
2024-03-30 12:34:07;100;1320;-1320;0
2024-03-30 12:35:05;100;1320;-1320;0
2024-03-30 12:36:08;100;1320;-1320;0
2024-03-30 12:37:06;100;1320;-1320;0
2024-03-30 12:38:09;100;1320;-1320;0
2024-03-30 12:39:07;100;1320;-1320;0
2024-03-30 12:40:05;100;1320;-1320;0
2024-03-30 12:41:07;100;1320;-1320;0
2024-03-30 12:42:05;100;1320;-1320;0
2024-03-30 12:43:08;100;1320;-1320;0
2024-03-30 12:44:06;100;1320;-1320;0
2024-03-30 12:45:08;100;1320;-1320;0
2024-03-30 12:46:06;100;1320;-1320;0
2024-03-30 12:47:09;100;1320;-1320;0
2024-03-30 12:48:07;100;1320;-1320;0
2024-03-30 12:49:05;100;1320;-1320;0
2024-03-30 12:50:08;100;1320;-1320;0
2024-03-30 12:51:06;100;1320;-1320;0
2024-03-30 12:52:08;100;1320;-1320;0
2024-03-30 12:53:06;100;1320;-1320;0
2024-03-30 12:54:09;100;1320;-1320;0
2024-03-30 12:55:07;100;1320;-1320;0
2024-03-30 12:56:05;100;1320;-1320;0
2024-03-30 12:57:07;100;1320;-1320;0
2024-03-30 12:58:05;100;1320;-1320;0
2024-03-30 12:59:08;100;1320;-1320;0
2024-03-30 13:00:06;100;1320;-1320;0
2024-03-30 13:01:09;100;1320;-1320;0
2024-03-30 13:02:07;100;1320;-1320;0
2024-03-30 13:03:05;100;1320;-1320;0
2024-03-30 13:04:07;100;1320;-1320;0
2024-03-30 13:05:05;100;1320;-1320;0
2024-03-30 13:06:08;100;1320;-1320;0
2024-03-30 13:07:06;100;1320;-1320;0
2024-03-30 13:08:09;100;1320;-1320;0
2024-03-30 13:09:07;100;1320;-1320;0
2024-03-30 13:10:05;100;1320;-1320;0
2024-03-30 13:11:07;100;1320;-1320;0
2024-03-30 13:12:05;100;1320;-1320;0
2024-03-30 13:13:08;100;1320;-1320;0
2024-03-30 13:14:06;100;1320;-1320;0
2024-03-30 13:15:09;100;1320;-1320;0
2024-03-30 13:16:07;100;1320;-1320;0
2024-03-30 13:17:05;100;1320;-1320;0
2024-03-30 13:18:08;100;1320;-1320;0
2024-03-30 13:19:06;100;1320;-1320;0
2024-03-30 13:20:08;100;1320;-1320;0
2024-03-30 13:21:06;100;1320;-1320;0
2024-03-30 13:22:09;100;1320;-1320;0
2024-03-30 13:23:07;100;1320;-1320;0
2024-03-30 13:24:05;100;1320;-1320;0
2024-03-30 13:25:08;100;1320;-1320;0
2024-03-30 13:26:06;100;1320;-1320;0
2024-03-30 13:27:09;100;1320;-1320;0
2024-03-30 13:28:07;100;1320;-1320;0
2024-03-30 13:29:05;100;1320;-1320;0
2024-03-30 13:30:07;100;1320;-1320;0
2024-03-30 13:31:05;100;1320;-1320;0
2024-03-30 13:32:08;100;1320;-1320;0
2024-03-30 13:33:06;100;1320;-1320;0
2024-03-30 13:34:09;100;1320;-1320;0
2024-03-30 13:35:07;100;1320;-1320;0
2024-03-30 13:36:05;100;1320;-1320;0
2024-03-30 13:37:08;100;1320;-1320;0
2024-03-30 13:38:06;100;1320;-1320;0
2024-03-30 13:39:08;100;1320;-1320;0
2024-03-30 13:40:07;100;1320;-1320;0
2024-03-30 13:41:05;100;1320;-1320;0
2024-03-30 13:42:07;100;1320;-1320;0
2024-03-30 13:43:05;100;1320;-1320;0
2024-03-30 13:44:08;100;1320;-1320;0
2024-03-30 13:45:06;100;1320;-1320;0
2024-03-30 13:46:09;100;1320;-1320;0
2024-03-30 13:47:07;100;1320;-1320;0
2024-03-30 13:48:05;100;1320;-1320;0
2024-03-30 13:49:08;100;1320;-1320;0
2024-03-30 13:50:06;100;1320;-1320;0
2024-03-30 13:51:09;100;1320;-1320;0
2024-03-30 13:52:07;100;1320;-1320;0
2024-03-30 13:53:05;100;1320;-1320;0
2024-03-30 13:54:08;100;1320;-1320;0
2024-03-30 13:55:06;100;1320;-1320;0
2024-03-30 13:56:08;100;1320;-1320;0
2024-03-30 13:57:06;100;1320;-1320;0
2024-03-30 13:58:09;100;1320;-1320;0
2024-03-30 13:59:07;100;1320;-1320;0
2024-03-30 14:00:05;100;1320;-1320;0
2024-03-30 14:01:08;100;1320;-1320;0
2024-03-30 14:02:06;100;1320;-1320;0
2024-03-30 14:03:09;100;1320;-1320;0
2024-03-30 14:04:07;100;1320;-1320;0
2024-03-30 14:05:05;100;1320;-1320;0
2024-03-30 14:06:08;100;1320;-1320;0
2024-03-30 14:07:06;100;1320;-1320;0
2024-03-30 14:08:09;100;1320;-1320;0
2024-03-30 14:09:07;100;1320;-1320;0
2024-03-30 14:10:05;100;1320;-1320;0
2024-03-30 14:11:08;100;1320;-1320;0
2024-03-30 14:12:06;100;1320;-1320;0
2024-03-30 14:13:09;100;1320;-1320;0
2024-03-30 14:14:07;100;1320;-1320;0
2024-03-30 14:15:05;100;1320;-1320;0
2024-03-30 14:16:08;100;1320;-1320;0
2024-03-30 14:17:06;100;1320;-1320;0
2024-03-30 14:18:08;100;1320;-1320;0
2024-03-30 14:19:06;100;1320;-1320;0
2024-03-30 14:20:09;100;1320;-1320;0
2024-03-30 14:21:07;100;1320;-1320;0
2024-03-30 14:22:05;100;1320;-1320;0
2024-03-30 14:23:08;100;1320;-1320;0
2024-03-30 14:24:06;100;1320;-1320;0
2024-03-30 14:25:09;100;1320;-1320;0
2024-03-30 14:26:07;100;1320;-1320;0
2024-03-30 14:27:05;100;1320;-1320;0
2024-03-30 14:28:08;100;1320;-1320;0
2024-03-30 14:29:06;100;1320;-1320;0
2024-03-30 14:30:09;100;1320;-1320;0
2024-03-30 14:31:07;100;1320;-1320;0
2024-03-30 14:32:05;100;1320;-1320;0
2024-03-30 14:33:08;100;1320;-1320;0
2024-03-30 14:34:06;100;1320;-1320;0
2024-03-30 14:35:09;100;1320;-1320;0
2024-03-30 14:36:07;100;1320;-1320;0
2024-03-30 14:37:05;100;1320;-1320;0
2024-03-30 14:38:08;100;1320;-1320;0
2024-03-30 14:39:06;100;1320;-1320;0
2024-03-30 14:40:09;100;1320;-1320;0
2024-03-30 14:41:07;100;1320;-1320;0
2024-03-30 14:42:05;100;1320;-1320;0
2024-03-30 14:43:08;100;1320;-1320;0
2024-03-30 14:44:06;100;1320;-1320;0
2024-03-30 14:45:09;100;1320;-1320;0
2024-03-30 14:46:07;100;1320;-1320;0
2024-03-30 14:47:05;100;1320;-1320;0
2024-03-30 14:48:08;100;1320;-1320;0
2024-03-30 14:49:06;100;1320;-1320;0
2024-03-30 14:50:08;100;1320;-1320;0
2024-03-30 14:51:06;100;1320;-1320;0
2024-03-30 14:52:09;100;1320;-1320;0
2024-03-30 14:53:07;100;1320;-1320;0
2024-03-30 14:54:05;100;1320;-1320;0
2024-03-30 14:55:08;100;1320;-1320;0
2024-03-30 14:56:06;100;1320;-1320;0
2024-03-30 14:57:09;100;1320;-1320;0
2024-03-30 14:58:07;100;1320;-1320;0
2024-03-30 14:59:05;100;1320;-1320;0
2024-03-30 15:00:08;100;1320;-1320;0
2024-03-30 15:01:06;100;1320;-1320;0
2024-03-30 15:02:08;100;1320;-1320;0
2024-03-30 15:03:06;100;1320;-1320;0
2024-03-30 15:04:09;100;1320;-1320;0
2024-03-30 15:05:07;100;1320;-1320;0
2024-03-30 15:06:05;100;1320;-1320;0
2024-03-30 15:07:08;100;1320;-1320;0
2024-03-30 15:08:06;100;1320;-1320;0
2024-03-30 15:09:08;100;1320;-1320;0
2024-03-30 15:10:07;100;1320;-1320;0
2024-03-30 15:11:05;100;1320;-1320;0
2024-03-30 15:12:07;100;1320;-1320;0
2024-03-30 15:13:05;100;1320;-1320;0
2024-03-30 15:14:08;100;1320;-1320;0
2024-03-30 15:15:06;100;1320;-1320;0
2024-03-30 15:16:09;100;1320;-1320;0
2024-03-30 15:17:07;100;1320;-1320;0
2024-03-30 15:18:05;100;1320;-1320;0
2024-03-30 15:19:07;100;1320;-1320;0
2024-03-30 15:20:05;100;1320;-1320;0
2024-03-30 15:21:08;100;1320;-1320;0
2024-03-30 15:22:06;100;1320;-1320;0
2024-03-30 15:23:09;100;1320;-1320;0
2024-03-30 15:24:07;100;1320;-1320;0
2024-03-30 15:25:05;100;1320;-1320;0
2024-03-30 15:26:07;100;1320;-1320;0
2024-03-30 15:27:05;100;1320;-1320;0
2024-03-30 15:28:08;100;1320;-1320;0
2024-03-30 15:29:06;100;1320;-1320;0
2024-03-30 15:30:09;100;1320;-1320;0
2024-03-30 15:31:07;100;1320;-1320;0
2024-03-30 15:32:05;100;1320;-1320;0
2024-03-30 15:33:08;100;1320;-1320;0
2024-03-30 15:34:06;100;1320;-1320;0
2024-03-30 15:35:08;100;1320;-1320;0
2024-03-30 15:36:07;100;1320;-1320;0
2024-03-30 15:37:05;100;1320;-1320;0
2024-03-30 15:38:07;100;1320;-1320;0
2024-03-30 15:39:05;100;1320;-1320;0
2024-03-30 15:40:08;100;1320;-1320;0
2024-03-30 15:41:06;100;1320;-1320;0
2024-03-30 15:42:09;100;1320;-1320;0
2024-03-30 15:43:07;100;1320;-1320;0
2024-03-30 15:44:05;100;1320;-1320;0
2024-03-30 15:45:07;100;1320;-1320;0
2024-03-30 15:46:05;100;1320;-1320;0
2024-03-30 15:47:08;100;1320;-1320;0
2024-03-30 15:48:06;100;1320;-1320;0
2024-03-30 15:49:08;100;1320;-1320;0
2024-03-30 15:50:06;100;1320;-1320;0
2024-03-30 15:51:09;100;1320;-1320;0
2024-03-30 15:52:07;100;1320;-1320;0
2024-03-30 15:53:05;100;1320;-1320;0
2024-03-30 15:54:08;100;1320;-1320;0
2024-03-30 15:55:06;100;1320;-1320;0
2024-03-30 15:56:08;100;1320;-1320;0
2024-03-30 15:57:06;100;1320;-1320;0
2024-03-30 15:58:09;100;1320;-1320;0
2024-03-30 15:59:07;100;1320;-1320;0
2024-03-30 16:00:05;100;1320;-1320;0
2024-03-30 16:01:08;100;1320;-1320;0
2024-03-30 16:02:06;100;1320;-1320;0
2024-03-30 16:03:09;100;1320;-1320;0
2024-03-30 16:04:07;100;1320;-1320;0
2024-03-30 16:05:05;100;1320;-1320;0
2024-03-30 16:06:08;100;1320;-1320;0
2024-03-30 16:07:06;100;1320;-1320;0
2024-03-30 16:08:09;100;1320;-1320;0
2024-03-30 16:09:07;100;1320;-1320;0
2024-03-30 16:10:05;100;1320;-1320;0
2024-03-30 16:11:08;100;1320;-1320;0
2024-03-30 16:12:06;100;1320;-1320;0
2024-03-30 16:13:08;100;1320;-1320;0
2024-03-30 16:14:07;100;1320;-1320;0
2024-03-30 16:15:05;100;1320;-1320;0
2024-03-30 16:16:07;100;1320;-1320;0
2024-03-30 16:17:06;100;1320;-1320;0
2024-03-30 16:18:08;100;1320;-1320;0
2024-03-30 16:19:06;100;1320;-1320;0
2024-03-30 16:20:09;100;1320;-1320;0
2024-03-30 16:21:07;100;1320;-1320;0
2024-03-30 16:22:05;100;1320;-1320;0
2024-03-30 16:23:08;100;1320;-1320;0
2024-03-30 16:24:06;100;1320;-1320;0
2024-03-30 16:25:09;100;1320;-1320;0
2024-03-30 16:26:07;100;1320;-1320;0
2024-03-30 16:27:05;100;1320;-1320;0
2024-03-30 16:28:08;100;1320;-1320;0
2024-03-30 16:29:06;100;1320;-1320;0
2024-03-30 16:30:09;100;1320;-1320;0
2024-03-30 16:31:07;100;1320;-1320;0
2024-03-30 16:32:05;100;1320;-1320;0
2024-03-30 16:33:08;100;1320;-1320;0
2024-03-30 16:34:06;100;1320;-1320;0
2024-03-30 16:35:09;100;1320;-1320;0
2024-03-30 16:36:07;100;1320;-1320;0
2024-03-30 16:37:05;100;1320;-1320;0
2024-03-30 16:38:08;100;1320;-1320;0
2024-03-30 16:39:06;100;1320;-1320;0
2024-03-30 16:40:09;100;1320;-1320;0
2024-03-30 16:41:07;100;1320;-1320;0
2024-03-30 16:42:05;100;1320;-1320;0
2024-03-30 16:43:08;100;1320;-1320;0
2024-03-30 16:44:06;100;1320;-1320;0
2024-03-30 16:45:09;100;1320;-1320;0
2024-03-30 16:46:07;100;1320;-1320;0
2024-03-30 16:47:05;100;1320;-1320;0
2024-03-30 16:48:07;100;1320;-1320;0
2024-03-30 16:49:05;100;1320;-1320;0
2024-03-30 16:50:08;100;1320;-1320;0
2024-03-30 16:51:06;100;1320;-1320;0
2024-03-30 16:52:09;100;1320;-1320;0
2024-03-30 16:53:07;100;1320;-1320;0
2024-03-30 16:54:05;100;1320;-1320;0
2024-03-30 16:55:07;100;1320;-1320;0
2024-03-30 16:56:05;100;1320;-1320;0
2024-03-30 16:57:08;100;1320;-1320;0
2024-03-30 16:58:06;100;1320;-1320;0
2024-03-30 16:59:08;100;1320;-1320;0
2024-03-30 17:00:06;100;1320;-1320;0
2024-03-30 17:01:09;100;1320;-1320;0
2024-03-30 17:02:07;100;1320;-1320;0
2024-03-30 17:03:04;100;1320;-1320;0
2024-03-30 17:04:07;100;1320;-1320;0
2024-03-30 17:05:05;100;1320;-1320;0
2024-03-30 17:06:07;100;1320;-1320;0
2024-03-30 17:07:05;100;1320;-1320;0
2024-03-30 17:08:08;100;1320;-1320;0
2024-03-30 17:09:06;100;1320;-1320;0
2024-03-30 17:10:08;100;1320;-1320;0
2024-03-30 17:11:06;100;1320;-1320;0
2024-03-30 17:12:08;100;1320;-1320;0
2024-03-30 17:13:06;100;1320;-1320;0
2024-03-30 17:14:09;100;1320;-1320;0
2024-03-30 17:15:07;100;1320;-1320;0
2024-03-30 17:16:04;100;1320;-1320;0
2024-03-30 17:17:07;100;1320;-1320;0
2024-03-30 17:18:05;100;1320;-1320;0
2024-03-30 17:19:07;100;1320;-1320;0
2024-03-30 17:20:05;100;1320;-1320;0
2024-03-30 17:21:07;100;1320;-1320;0
2024-03-30 17:22:05;100;1320;-1320;0
2024-03-30 17:23:08;100;1320;-1320;0
2024-03-30 17:24:05;100;1320;-1320;0
2024-03-30 17:25:08;100;1320;-1320;0
2024-03-30 17:26:06;100;1320;-1320;0
2024-03-30 17:27:08;100;1320;-1320;0
2024-03-30 17:28:06;100;1320;-1320;0
2024-03-30 17:29:08;100;1320;-1320;0
2024-03-30 17:30:06;100;1320;-1320;0
2024-03-30 17:31:09;100;1320;-1320;0
2024-03-30 17:32:06;100;1320;-1320;0
2024-03-30 17:33:09;100;1320;-1320;0
2024-03-30 17:34:07;100;1320;-1320;0
2024-03-30 17:35:04;100;1320;-1320;0
2024-03-30 17:36:07;100;1320;-1320;0
2024-03-30 17:37:05;100;1320;-1320;0
2024-03-30 17:38:07;100;1320;-1320;0
2024-03-30 17:39:05;100;1320;-1320;0
2024-03-30 17:40:07;100;1320;-1320;0
2024-03-30 17:41:05;100;1320;-1320;0
2024-03-30 17:42:07;100;1320;-1320;0
2024-03-30 17:43:05;100;1320;-1320;0
2024-03-30 17:44:07;100;1320;-1320;0
2024-03-30 17:45:05;100;1320;-1320;0
2024-03-30 17:46:08;100;1320;-1320;0
2024-03-30 17:47:05;100;1320;-1320;0
2024-03-30 17:48:08;100;1320;-1320;0
2024-03-30 17:49:06;100;1320;-1320;0
2024-03-30 17:50:08;100;1320;-1320;0
2024-03-30 17:51:06;100;1320;-1320;0
2024-03-30 17:52:08;100;1320;-1320;0
2024-03-30 17:53:06;100;1320;-1320;0
2024-03-30 17:54:08;100;1320;-1320;0
2024-03-30 17:55:06;100;1320;-1320;0
2024-03-30 17:56:08;100;1320;-1320;0
2024-03-30 17:57:06;100;1320;-1320;0
2024-03-30 17:58:09;100;1320;-1320;0
2024-03-30 17:59:06;100;1320;-1320;0
2024-03-30 18:00:09;100;1320;-1320;0
2024-03-30 18:01:06;100;1320;-1320;0
2024-03-30 18:02:09;100;1320;-1320;0
2024-03-30 18:03:07;100;1320;-1320;0
2024-03-30 18:04:04;100;1320;-1320;0
2024-03-30 18:05:07;100;1320;-1320;0
2024-03-30 18:06:04;100;1320;-1320;0
2024-03-30 18:07:07;100;1320;-1320;0
2024-03-30 18:08:05;100;1320;-1320;0
2024-03-30 18:09:07;100;1320;-1320;0
2024-03-30 18:10:05;100;1320;-1320;0
2024-03-30 18:11:07;100;1320;-1320;0
2024-03-30 18:12:05;100;1320;-1320;0
2024-03-30 18:13:07;100;1320;-1320;0
2024-03-30 18:14:05;100;1320;-1320;0
2024-03-30 18:15:07;100;1320;-1320;0
2024-03-30 18:16:05;100;1320;-1320;0
2024-03-30 18:17:07;100;1320;-1320;0
2024-03-30 18:18:05;100;1320;-1320;0
2024-03-30 18:19:07;100;1320;-1320;0
2024-03-30 18:20:05;100;1320;-1320;0
2024-03-30 18:21:07;100;1320;-1320;0
2024-03-30 18:22:05;100;1320;-1320;0
2024-03-30 18:23:07;100;1320;-1320;0
2024-03-30 18:24:05;100;1320;-1320;0
2024-03-30 18:25:08;100;1320;-1320;0
2024-03-30 18:26:05;100;1320;-1320;0
2024-03-30 18:27:08;100;1320;-1320;0
2024-03-30 18:28:05;100;1320;-1320;0
2024-03-30 18:29:08;100;1320;-1320;0
2024-03-30 18:30:05;100;1320;-1320;0
2024-03-30 18:31:08;100;1320;-1320;0
2024-03-30 18:32:05;100;1320;-1320;0
2024-03-30 18:33:08;100;1320;-1320;0
2024-03-30 18:34:05;100;1320;-1320;0
2024-03-30 18:35:08;100;1320;-1320;0
2024-03-30 18:36:05;100;1320;-1320;0
2024-03-30 18:37:08;100;1320;-1320;0
2024-03-30 18:38:06;100;1320;-1320;0
2024-03-30 18:39:08;100;1320;-1320;0
2024-03-30 18:40:06;100;1320;-1320;0
2024-03-30 18:41:08;100;1320;-1320;0
2024-03-30 18:42:06;100;1320;-1320;0
2024-03-30 18:43:08;100;1320;-1320;0
2024-03-30 18:44:06;100;1320;-1320;0
2024-03-30 18:45:08;100;1320;-1320;0
2024-03-30 18:46:06;100;1320;-1320;0
2024-03-30 18:47:08;100;1320;-1320;0
2024-03-30 18:48:06;100;1320;-1320;0
2024-03-30 18:49:08;100;1320;-1320;0
2024-03-30 18:50:06;100;1320;-1320;0
2024-03-30 18:51:08;100;1320;-1320;0
2024-03-30 18:52:06;100;1320;-1320;0
2024-03-30 18:53:08;100;1320;-1320;0
2024-03-30 18:54:06;100;1320;-1320;0
2024-03-30 18:55:08;100;1320;-1320;0
2024-03-30 18:56:06;100;1320;-1320;0
2024-03-30 18:57:08;100;1320;-1320;0
2024-03-30 18:58:06;100;1320;-1320;0
2024-03-30 18:59:08;100;1320;-1320;0
2024-03-30 19:00:06;100;1320;-1320;0
2024-03-30 19:01:08;100;1320;-1320;0
2024-03-30 19:02:05;100;1320;-1320;0
2024-03-30 19:03:08;100;1320;-1320;0
2024-03-30 19:04:05;100;1320;-1320;0
2024-03-30 19:05:08;100;1320;-1320;0
2024-03-30 19:06:05;100;1320;-1320;0
2024-03-30 19:07:08;100;1320;-1320;0
2024-03-30 19:08:05;100;1320;-1320;0
2024-03-30 19:09:08;100;1320;-1320;0
2024-03-30 19:10:05;100;1320;-1320;0
2024-03-30 19:11:08;100;1320;-1320;0
2024-03-30 19:12:05;100;1320;-1320;0
2024-03-30 19:13:07;100;1320;-1320;0
2024-03-30 19:14:05;100;1320;-1320;0
2024-03-30 19:15:07;100;1320;-1320;0
2024-03-30 19:16:05;100;1320;-1320;0
2024-03-30 19:17:07;100;1320;-1320;0
2024-03-30 19:18:05;100;1320;-1320;0
2024-03-30 19:19:07;100;1320;-1320;0
2024-03-30 19:20:05;100;1320;-1320;0
2024-03-30 19:21:07;100;1320;-1320;0
2024-03-30 19:22:05;100;1320;-1320;0
2024-03-30 19:23:07;100;1320;-1320;0
2024-03-30 19:24:05;100;1320;-1320;0
2024-03-30 19:25:07;100;1320;-1320;0
2024-03-30 19:26:05;100;1320;-1320;0
2024-03-30 19:27:07;100;1320;-1320;0
2024-03-30 19:28:05;100;1320;-1320;0
2024-03-30 19:29:07;100;1320;-1320;0
2024-03-30 19:30:05;100;1320;-1320;0
2024-03-30 19:31:07;100;1320;-1320;0
2024-03-30 19:32:04;100;1320;-1320;0
2024-03-30 19:33:07;100;1320;-1320;0
2024-03-30 19:34:04;100;1320;-1320;0
2024-03-30 19:35:07;100;1320;-1320;0
2024-03-30 19:36:04;100;1320;-1320;0
2024-03-30 19:37:06;100;1320;-1320;0
2024-03-30 19:38:09;100;1320;-1320;0
2024-03-30 19:39:06;100;1320;-1320;0
2024-03-30 19:40:09;100;1320;-1320;0
2024-03-30 19:41:06;100;1320;-1320;0
2024-03-30 19:42:08;100;1320;-1320;0
2024-03-30 19:43:06;100;1320;-1320;0
2024-03-30 19:44:08;100;1320;-1320;0
2024-03-30 19:45:06;100;1320;-1320;0
2024-03-30 19:46:08;100;1320;-1320;0
2024-03-30 19:47:06;100;1320;-1320;0
2024-03-30 19:48:08;100;1320;-1320;0
2024-03-30 19:49:06;100;1320;-1320;0
2024-03-30 19:50:08;100;1320;-1320;0
2024-03-30 19:51:06;100;1320;-1320;0
2024-03-30 19:52:08;100;1320;-1320;0
2024-03-30 19:53:05;100;1320;-1320;0
2024-03-30 19:54:08;100;1320;-1320;0
2024-03-30 19:55:05;100;1320;-1320;0
2024-03-30 19:56:08;100;1320;-1320;0
2024-03-30 19:57:05;100;1320;-1320;0
2024-03-30 19:58:07;100;1320;-1320;0
2024-03-30 19:59:05;100;1320;-1320;0
2024-03-30 20:00:07;100;1320;-1320;0
2024-03-30 20:01:05;100;1320;-1320;0
2024-03-30 20:02:07;100;1320;-1320;0
2024-03-30 20:03:05;100;1320;-1320;0
2024-03-30 20:04:07;100;1320;-1320;0
2024-03-30 20:05:05;100;1320;-1320;0
2024-03-30 20:06:07;100;1320;-1320;0
2024-03-30 20:07:04;100;1320;-1320;0
2024-03-30 20:08:07;100;1320;-1320;0
2024-03-30 20:09:04;100;1320;-1320;0
2024-03-30 20:10:06;100;1320;-1320;0
2024-03-30 20:11:04;100;1320;-1320;0
2024-03-30 20:12:06;100;1320;-1320;0
2024-03-30 20:13:09;100;1320;-1320;0
2024-03-30 20:14:06;100;1320;-1320;0
2024-03-30 20:15:08;100;1320;-1320;0
2024-03-30 20:16:06;100;1320;-1320;0
2024-03-30 20:17:08;100;1320;-1320;0
2024-03-30 20:18:06;100;1320;-1320;0
2024-03-30 20:19:08;100;1320;-1320;0
2024-03-30 20:20:06;100;1320;-1320;0
2024-03-30 20:21:08;100;1320;-1320;0
2024-03-30 20:22:06;100;1320;-1320;0
2024-03-30 20:23:08;100;1320;-1320;0
2024-03-30 20:24:05;100;1320;-1320;0
2024-03-30 20:25:08;100;1320;-1320;0
2024-03-30 20:26:05;100;1320;-1320;0
2024-03-30 20:27:07;100;1320;-1320;0
2024-03-30 20:28:05;100;1320;-1320;0
2024-03-30 20:29:07;100;1320;-1320;0
2024-03-30 20:30:05;100;1320;-1320;0
2024-03-30 20:31:07;100;1320;-1320;0
2024-03-30 20:32:05;100;1320;-1320;0
2024-03-30 20:33:07;100;1320;-1320;0
2024-03-30 20:34:04;100;1320;-1320;0
2024-03-30 20:35:07;100;1320;-1320;0
2024-03-30 20:36:04;100;1320;-1320;0
2024-03-30 20:37:06;100;1320;-1320;0
2024-03-30 20:38:04;100;1320;-1320;0
2024-03-30 20:39:06;100;1320;-1320;0
2024-03-30 20:40:09;100;1320;-1320;0
2024-03-30 20:41:06;100;1320;-1320;0
2024-03-30 20:42:08;100;1320;-1320;0
2024-03-30 20:43:06;100;1320;-1320;0
2024-03-30 20:44:08;100;1320;-1320;0
2024-03-30 20:45:06;100;1320;-1320;0
2024-03-30 20:46:08;100;1320;-1320;0
2024-03-30 20:47:06;100;1320;-1320;0
2024-03-30 20:48:08;100;1320;-1320;0
2024-03-30 20:49:05;100;1320;-1320;0
2024-03-30 20:50:08;100;1320;-1320;0
2024-03-30 20:51:05;100;1320;-1320;0
2024-03-30 20:52:07;100;1320;-1320;0
2024-03-30 20:53:05;100;1320;-1320;0
2024-03-30 20:54:07;100;1320;-1320;0
2024-03-30 20:55:05;100;1320;-1320;0
2024-03-30 20:56:07;100;1320;-1320;0
2024-03-30 20:57:05;100;1320;-1320;0
2024-03-30 20:58:07;100;1320;-1320;0
2024-03-30 20:59:04;100;1320;-1320;0
2024-03-30 21:00:07;100;1320;-1320;0
2024-03-30 21:01:04;100;1320;-1320;0
2024-03-30 21:02:06;100;1320;-1320;0
2024-03-30 21:03:09;100;1320;-1320;0
2024-03-30 21:04:06;100;1320;-1320;0
2024-03-30 21:05:08;100;1320;-1320;0
2024-03-30 21:06:06;100;1320;-1320;0
2024-03-30 21:07:08;100;1320;-1320;0
2024-03-30 21:08:06;100;1320;-1320;0
2024-03-30 21:09:08;100;1320;-1320;0
2024-03-30 21:10:06;100;1320;-1320;0
2024-03-30 21:11:08;100;1320;-1320;0
2024-03-30 21:12:06;100;1320;-1320;0
2024-03-30 21:13:08;100;1320;-1320;0
2024-03-30 21:14:05;100;1320;-1320;0
2024-03-30 21:15:08;100;1320;-1320;0
2024-03-30 21:16:05;100;1320;-1320;0
2024-03-30 21:17:07;100;1320;-1320;0
2024-03-30 21:18:05;100;1320;-1320;0
2024-03-30 21:19:07;100;1320;-1320;0
2024-03-30 21:20:05;100;1320;-1320;0
2024-03-30 21:21:07;100;1320;-1320;0
2024-03-30 21:22:05;100;1320;-1320;0
2024-03-30 21:23:07;100;1320;-1320;0
2024-03-30 21:24:04;100;1320;-1320;0
2024-03-30 21:25:07;100;1320;-1320;0
2024-03-30 21:26:04;100;1320;-1320;0
2024-03-30 21:27:06;100;1320;-1320;0
2024-03-30 21:28:04;100;1320;-1320;0
2024-03-30 21:29:06;100;1320;-1320;0
2024-03-30 21:30:09;100;1320;-1320;0
2024-03-30 21:31:06;100;1320;-1320;0
2024-03-30 21:32:08;100;1320;-1320;0
2024-03-30 21:33:06;100;1320;-1320;0
2024-03-30 21:34:08;100;1320;-1320;0
2024-03-30 21:35:06;100;1320;-1320;0
2024-03-30 21:36:08;100;1320;-1320;0
2024-03-30 21:37:06;100;1320;-1320;0
2024-03-30 21:38:08;100;1320;-1320;0
2024-03-30 21:39:05;100;1320;-1320;0
2024-03-30 21:40:08;100;1320;-1320;0
2024-03-30 21:41:05;100;1320;-1320;0
2024-03-30 21:42:07;100;1320;-1320;0
2024-03-30 21:43:05;100;1320;-1320;0
2024-03-30 21:44:07;100;1320;-1320;0
2024-03-30 21:45:05;100;1320;-1320;0
2024-03-30 21:46:07;100;1320;-1320;0
2024-03-30 21:47:05;100;1320;-1320;0
2024-03-30 21:48:07;100;1320;-1320;0
2024-03-30 21:49:04;100;1320;-1320;0
2024-03-30 21:50:07;100;1320;-1320;0
2024-03-30 21:51:04;100;1320;-1320;0
2024-03-30 21:52:06;100;1320;-1320;0
2024-03-30 21:53:09;100;1320;-1320;0
2024-03-30 21:54:06;100;1320;-1320;0
2024-03-30 21:55:08;100;1320;-1320;0
2024-03-30 21:56:06;100;1320;-1320;0
2024-03-30 21:57:08;100;1320;-1320;0
2024-03-30 21:58:06;100;1320;-1320;0
2024-03-30 21:59:08;100;1320;-1320;0
2024-03-30 22:00:05;100;1320;-1320;0
2024-03-30 22:01:08;100;1320;-1320;0
2024-03-30 22:02:05;100;1320;-1320;0
2024-03-30 22:03:07;100;1320;-1320;0
2024-03-30 22:04:05;100;1320;-1320;0
2024-03-30 22:05:07;100;1320;-1320;0
2024-03-30 22:06:05;100;1320;-1320;0
2024-03-30 22:07:07;100;1320;-1320;0
2024-03-30 22:08:05;100;1320;-1320;0
2024-03-30 22:09:07;100;1320;-1320;0
2024-03-30 22:10:04;100;1320;-1320;0
2024-03-30 22:11:07;100;1320;-1320;0
2024-03-30 22:12:04;100;1320;-1320;0
2024-03-30 22:13:06;100;1320;-1320;0
2024-03-30 22:14:09;100;1320;-1320;0
2024-03-30 22:15:06;100;1320;-1320;0
2024-03-30 22:16:08;100;1320;-1320;0
2024-03-30 22:17:06;100;1320;-1320;0
2024-03-30 22:18:08;100;1320;-1320;0
2024-03-30 22:19:06;100;1320;-1320;0
2024-03-30 22:20:08;100;1320;-1320;0
2024-03-30 22:21:06;100;1320;-1320;0
2024-03-30 22:22:08;100;1320;-1320;0
2024-03-30 22:23:05;100;1320;-1320;0
2024-03-30 22:24:08;100;1320;-1320;0
2024-03-30 22:25:05;100;1320;-1320;0
2024-03-30 22:26:07;100;1320;-1320;0
2024-03-30 22:27:05;100;1320;-1320;0
2024-03-30 22:28:07;100;1320;-1320;0
2024-03-30 22:29:05;100;1320;-1320;0
2024-03-30 22:30:07;100;1320;-1320;0
2024-03-30 22:31:04;100;1320;-1320;0
2024-03-30 22:32:07;100;1320;-1320;0
2024-03-30 22:33:04;100;1320;-1320;0
2024-03-30 22:34:06;100;1320;-1320;0
2024-03-30 22:35:09;100;1320;-1320;0
2024-03-30 22:36:06;100;1320;-1320;0
2024-03-30 22:37:08;100;1320;-1320;0
2024-03-30 22:38:06;100;1320;-1320;0
2024-03-30 22:39:08;100;1320;-1320;0
2024-03-30 22:40:06;100;1320;-1320;0
2024-03-30 22:41:08;100;1320;-1320;0
2024-03-30 22:42:05;100;1320;-1320;0
2024-03-30 22:43:08;100;1320;-1320;0
2024-03-30 22:44:05;100;1320;-1320;0
2024-03-30 22:45:07;100;1320;-1320;0
2024-03-30 22:46:05;100;1320;-1320;0
2024-03-30 22:47:07;100;1320;-1320;0
2024-03-30 22:48:05;100;1320;-1320;0
2024-03-30 22:49:07;100;1320;-1320;0
2024-03-30 22:50:05;100;1320;-1320;0
2024-03-30 22:51:07;100;1320;-1320;0
2024-03-30 22:52:04;100;1320;-1320;0
2024-03-30 22:53:06;100;1320;-1320;0
2024-03-30 22:54:04;100;1320;-1320;0
2024-03-30 22:55:06;100;1320;-1320;0
2024-03-30 22:56:08;100;1320;-1320;0
2024-03-30 22:57:06;100;1320;-1320;0
2024-03-30 22:58:08;100;1320;-1320;0
2024-03-30 22:59:06;100;1320;-1320;0
2024-03-30 23:00:08;100;1320;-1320;0
2024-03-30 23:01:06;100;1320;-1320;0
2024-03-30 23:02:08;100;1320;-1320;0
2024-03-30 23:03:05;100;1320;-1320;0
2024-03-30 23:04:08;100;1320;-1320;0
2024-03-30 23:05:05;100;1320;-1320;0
2024-03-30 23:06:07;100;1320;-1320;0
2024-03-30 23:07:05;100;1320;-1320;0
2024-03-30 23:08:07;100;1320;-1320;0
2024-03-30 23:09:05;100;1320;-1320;0
2024-03-30 23:10:07;100;1320;-1320;0
2024-03-30 23:11:04;100;1320;-1320;0
2024-03-30 23:12:07;100;1320;-1320;0
2024-03-30 23:13:04;100;1320;-1320;0
2024-03-30 23:14:06;100;1320;-1320;0
2024-03-30 23:15:09;100;1320;-1320;0
2024-03-30 23:16:06;100;1320;-1320;0
2024-03-30 23:17:08;100;1320;-1320;0
2024-03-30 23:18:06;100;1320;-1320;0
2024-03-30 23:19:08;100;1320;-1320;0
2024-03-30 23:20:06;100;1320;-1320;0
2024-03-30 23:21:08;100;1320;-1320;0
2024-03-30 23:22:05;100;1320;-1320;0
2024-03-30 23:23:08;100;1320;-1320;0
2024-03-30 23:24:05;100;1320;-1320;0
2024-03-30 23:25:07;100;1320;-1320;0
2024-03-30 23:26:05;100;1320;-1320;0
2024-03-30 23:27:07;100;1320;-1320;0
2024-03-30 23:28:05;100;1320;-1320;0
2024-03-30 23:29:07;100;1320;-1320;0
2024-03-30 23:30:05;100;1320;-1320;0
2024-03-30 23:31:07;100;1320;-1320;0
2024-03-30 23:32:04;100;1320;-1320;0
2024-03-30 23:33:06;100;1320;-1320;0
2024-03-30 23:34:04;100;1320;-1320;0
2024-03-30 23:35:06;100;1320;-1320;0
2024-03-30 23:36:08;100;1320;-1320;0
2024-03-30 23:37:06;100;1320;-1320;0
2024-03-30 23:38:08;100;1320;-1320;0
2024-03-30 23:39:06;100;1320;-1320;0
2024-03-30 23:40:08;100;1320;-1320;0
2024-03-30 23:41:06;100;1320;-1320;0
2024-03-30 23:42:08;100;1320;-1320;0
2024-03-30 23:43:05;100;1320;-1320;0
2024-03-30 23:44:08;100;1320;-1320;0
2024-03-30 23:45:05;100;1320;-1320;0
2024-03-30 23:46:07;100;1320;-1320;0
2024-03-30 23:47:05;100;1320;-1320;0
2024-03-30 23:48:07;100;1320;-1320;0
2024-03-30 23:49:05;100;1320;-1320;0
2024-03-30 23:50:07;100;1320;-1320;0
2024-03-30 23:51:04;100;1320;-1320;0
2024-03-30 23:52:07;100;1320;-1320;0
2024-03-30 23:53:04;100;1320;-1320;0
2024-03-30 23:54:06;100;1320;-1320;0
2024-03-30 23:55:09;100;1320;-1320;0
2024-03-30 23:56:06;100;1320;-1320;0
2024-03-30 23:57:08;100;1320;-1320;0
2024-03-30 23:58:06;100;1320;-1320;0
2024-03-30 23:59:08;100;1320;-1320;0
