2024-02-12 00:00:08;88;1320;-1320;0
2024-02-12 00:01:05;88;1320;-1320;0
2024-02-12 00:02:08;88;1320;-1320;0
2024-02-12 00:03:05;88;1320;-1320;0
2024-02-12 00:04:07;88;1320;-1320;0
2024-02-12 00:05:05;88;1320;-1320;0
2024-02-12 00:06:07;88;1320;-1320;0
2024-02-12 00:07:05;88;1320;-1320;0
2024-02-12 00:08:07;88;1320;-1320;0
2024-02-12 00:09:05;88;1320;-1320;0
2024-02-12 00:10:07;88;1320;-1320;0
2024-02-12 00:11:04;88;1320;-1320;0
2024-02-12 00:12:07;88;1320;-1320;0
2024-02-12 00:13:04;88;1320;-1320;0
2024-02-12 00:14:06;88;1320;-1320;0
2024-02-12 00:15:09;88;1320;-1320;0
2024-02-12 00:16:06;88;1320;-1320;0
2024-02-12 00:17:08;88;1320;-1320;0
2024-02-12 00:18:06;88;1320;-1320;0
2024-02-12 00:19:08;88;1320;-1320;0
2024-02-12 00:20:06;88;1320;-1320;0
2024-02-12 00:21:08;88;1320;-1320;0
2024-02-12 00:22:06;88;1320;-1320;0
2024-02-12 00:23:08;88;1320;-1320;0
2024-02-12 00:24:05;88;1320;-1320;0
2024-02-12 00:25:08;88;1320;-1320;0
2024-02-12 00:26:05;88;1320;-1320;0
2024-02-12 00:27:07;88;1320;-1320;0
2024-02-12 00:28:05;88;1320;-1320;0
2024-02-12 00:29:07;88;1320;-1320;0
2024-02-12 00:30:05;88;1320;-1320;0
2024-02-12 00:31:07;88;1320;-1320;0
2024-02-12 00:32:05;88;1320;-1320;0
2024-02-12 00:33:07;88;1320;-1320;0
2024-02-12 00:34:04;88;1320;-1320;0
2024-02-12 00:35:07;88;1320;-1320;0
2024-02-12 00:36:04;88;1320;-1320;0
2024-02-12 00:37:06;88;1320;-1320;0
2024-02-12 00:38:09;88;1320;-1320;0
2024-02-12 00:39:06;88;1320;-1320;0
2024-02-12 00:40:08;88;1320;-1320;0
2024-02-12 00:41:06;88;1320;-1320;0
2024-02-12 00:42:08;88;1320;-1320;0
2024-02-12 00:43:06;88;1320;-1320;0
2024-02-12 00:44:08;88;1320;-1320;0
2024-02-12 00:45:06;88;1320;-1320;0
2024-02-12 00:46:08;88;1320;-1320;0
2024-02-12 00:47:05;88;1320;-1320;0
2024-02-12 00:48:08;88;1320;-1320;0
2024-02-12 00:49:05;88;1320;-1320;0
2024-02-12 00:50:07;88;1320;-1320;0
2024-02-12 00:51:05;88;1320;-1320;0
2024-02-12 00:52:07;88;1320;-1320;0
2024-02-12 00:53:05;88;1320;-1320;0
2024-02-12 00:54:07;88;1320;-1320;0
2024-02-12 00:55:05;88;1320;-1320;0
2024-02-12 00:56:07;88;1320;-1320;0
2024-02-12 00:57:04;88;1320;-1320;0
2024-02-12 00:58:07;88;1320;-1320;0
2024-02-12 00:59:04;88;1320;-1320;0
2024-02-12 01:00:06;88;1320;-1320;0
2024-02-12 01:01:08;88;1320;-1320;0
2024-02-12 01:02:06;88;1320;-1320;0
2024-02-12 01:03:08;88;1320;-1320;0
2024-02-12 01:04:06;88;1320;-1320;0
2024-02-12 01:05:08;88;1320;-1320;0
2024-02-12 01:06:06;88;1320;-1320;0
2024-02-12 01:07:08;88;1320;-1320;0
2024-02-12 01:08:05;88;1320;-1320;0
2024-02-12 01:09:08;88;1320;-1320;0
2024-02-12 01:10:05;88;1320;-1320;0
2024-02-12 01:11:07;88;1320;-1320;0
2024-02-12 01:12:05;88;1320;-1320;0
2024-02-12 01:13:07;88;1320;-1320;0
2024-02-12 01:14:05;88;1320;-1320;0
2024-02-12 01:15:07;88;1320;-1320;0
2024-02-12 01:16:05;88;1320;-1320;0
2024-02-12 01:17:07;88;1320;-1320;0
2024-02-12 01:18:04;88;1320;-1320;0
2024-02-12 01:19:07;88;1320;-1320;0
2024-02-12 01:20:04;88;1320;-1320;0
2024-02-12 01:21:06;88;1320;-1320;0
2024-02-12 01:22:09;88;1320;-1320;0
2024-02-12 01:23:06;88;1320;-1320;0
2024-02-12 01:24:08;88;1320;-1320;0
2024-02-12 01:25:06;88;1320;-1320;0
2024-02-12 01:26:08;88;1320;-1320;0
2024-02-12 01:27:06;88;1320;-1320;0
2024-02-12 01:28:08;88;1320;-1320;0
2024-02-12 01:29:06;88;1320;-1320;0
2024-02-12 01:30:08;88;1320;-1320;0
2024-02-12 01:31:05;88;1320;-1320;0
2024-02-12 01:32:08;88;1320;-1320;0
2024-02-12 01:33:05;88;1320;-1320;0
2024-02-12 01:34:07;88;1320;-1320;0
2024-02-12 01:35:05;88;1320;-1320;0
2024-02-12 01:36:07;88;1320;-1320;0
2024-02-12 01:37:05;88;1320;-1320;0
2024-02-12 01:38:07;88;1320;-1320;0
2024-02-12 01:39:05;88;1320;-1320;0
2024-02-12 01:40:07;88;1320;-1320;0
2024-02-12 01:41:04;88;1320;-1320;0
2024-02-12 01:42:07;88;1320;-1320;0
2024-02-12 01:43:04;88;1320;-1320;0
2024-02-12 01:44:06;88;1320;-1320;0
2024-02-12 01:45:09;88;1320;-1320;0
2024-02-12 01:46:06;88;1320;-1320;0
2024-02-12 01:47:08;88;1320;-1320;0
2024-02-12 01:48:06;88;1320;-1320;0
2024-02-12 01:49:08;88;1320;-1320;0
2024-02-12 01:50:06;88;1320;-1320;0
2024-02-12 01:51:08;88;1320;-1320;0
2024-02-12 01:52:06;88;1320;-1320;0
2024-02-12 01:53:08;88;1320;-1320;0
2024-02-12 01:54:05;88;1320;-1320;0
2024-02-12 01:55:08;88;1320;-1320;0
2024-02-12 01:56:05;88;1320;-1320;0
2024-02-12 01:57:07;88;1320;-1320;0
2024-02-12 01:58:05;88;1320;-1320;0
2024-02-12 01:59:07;88;1320;-1320;0
2024-02-12 02:00:05;88;1320;-1320;0
2024-02-12 02:01:07;88;1320;-1320;0
2024-02-12 02:02:05;88;1320;-1320;0
2024-02-12 02:03:07;88;1320;-1320;0
2024-02-12 02:04:04;88;1320;-1320;0
2024-02-12 02:05:07;88;1320;-1320;0
2024-02-12 02:06:04;88;1320;-1320;0
2024-02-12 02:07:06;88;1320;-1320;0
2024-02-12 02:08:09;88;1320;-1320;0
2024-02-12 02:09:06;88;1320;-1320;0
2024-02-12 02:10:08;88;1320;-1320;0
2024-02-12 02:11:06;88;1320;-1320;0
2024-02-12 02:12:08;88;1320;-1320;0
2024-02-12 02:13:06;88;1320;-1320;0
2024-02-12 02:14:08;88;1320;-1320;0
2024-02-12 02:15:06;88;1320;-1320;0
2024-02-12 02:16:08;88;1320;-1320;0
2024-02-12 02:17:06;88;1320;-1320;0
2024-02-12 02:18:08;88;1320;-1320;0
2024-02-12 02:19:05;88;1320;-1320;0
2024-02-12 02:20:08;88;1320;-1320;0
2024-02-12 02:21:05;88;1320;-1320;0
2024-02-12 02:22:07;88;1320;-1320;0
2024-02-12 02:23:05;88;1320;-1320;0
2024-02-12 02:24:07;88;1320;-1320;0
2024-02-12 02:25:05;88;1320;-1320;0
2024-02-12 02:26:07;88;1320;-1320;0
2024-02-12 02:27:05;88;1320;-1320;0
2024-02-12 02:28:07;88;1320;-1320;0
2024-02-12 02:29:04;88;1320;-1320;0
2024-02-12 02:30:07;88;1320;-1320;0
2024-02-12 02:31:04;88;1320;-1320;0
2024-02-12 02:32:06;88;1320;-1320;0
2024-02-12 02:33:09;88;1320;-1320;0
2024-02-12 02:34:06;88;1320;-1320;0
2024-02-12 02:35:08;88;1320;-1320;0
2024-02-12 02:36:06;88;1320;-1320;0
2024-02-12 02:37:08;88;1320;-1320;0
2024-02-12 02:38:06;88;1320;-1320;0
2024-02-12 02:39:08;88;1320;-1320;0
2024-02-12 02:40:06;88;1320;-1320;0
2024-02-12 02:41:08;88;1320;-1320;0
2024-02-12 02:42:05;88;1320;-1320;0
2024-02-12 02:43:08;88;1320;-1320;0
2024-02-12 02:44:05;88;1320;-1320;0
2024-02-12 02:45:07;88;1320;-1320;0
2024-02-12 02:46:05;88;1320;-1320;0
2024-02-12 02:47:07;88;1320;-1320;0
2024-02-12 02:48:05;88;1320;-1320;0
2024-02-12 02:49:07;88;1320;-1320;0
2024-02-12 02:50:05;88;1320;-1320;0
2024-02-12 02:51:07;88;1320;-1320;0
2024-02-12 02:52:04;88;1320;-1320;0
2024-02-12 02:53:07;88;1320;-1320;0
2024-02-12 02:54:04;88;1320;-1320;0
2024-02-12 02:55:06;88;1320;-1320;0
2024-02-12 02:56:09;88;1320;-1320;0
2024-02-12 02:57:06;88;1320;-1320;0
2024-02-12 02:58:08;88;1320;-1320;0
2024-02-12 02:59:06;88;1320;-1320;0
2024-02-12 03:00:08;88;1320;-1320;0
2024-02-12 03:01:06;88;1320;-1320;0
2024-02-12 03:02:08;88;1320;-1320;0
2024-02-12 03:03:06;88;1320;-1320;0
2024-02-12 03:04:08;88;1320;-1320;0
2024-02-12 03:05:05;88;1320;-1320;0
2024-02-12 03:06:08;88;1320;-1320;0
2024-02-12 03:07:05;88;1320;-1320;0
2024-02-12 03:08:07;88;1320;-1320;0
2024-02-12 03:09:05;88;1320;-1320;0
2024-02-12 03:10:07;88;1320;-1320;0
2024-02-12 03:11:05;88;1320;-1320;0
2024-02-12 03:12:07;88;1320;-1320;0
2024-02-12 03:13:05;88;1320;-1320;0
2024-02-12 03:14:07;88;1320;-1320;0
2024-02-12 03:15:04;88;1320;-1320;0
2024-02-12 03:16:07;88;1320;-1320;0
2024-02-12 03:17:04;88;1320;-1320;0
2024-02-12 03:18:06;88;1320;-1320;0
2024-02-12 03:19:09;88;1320;-1320;0
2024-02-12 03:20:06;88;1320;-1320;0
2024-02-12 03:21:08;88;1320;-1320;0
2024-02-12 03:22:06;88;1320;-1320;0
2024-02-12 03:23:08;88;1320;-1320;0
2024-02-12 03:24:06;88;1320;-1320;0
2024-02-12 03:25:08;88;1320;-1320;0
2024-02-12 03:26:06;88;1320;-1320;0
2024-02-12 03:27:08;88;1320;-1320;0
2024-02-12 03:28:05;88;1320;-1320;0
2024-02-12 03:29:08;88;1320;-1320;0
2024-02-12 03:30:05;88;1320;-1320;0
2024-02-12 03:31:07;88;1320;-1320;0
2024-02-12 03:32:05;88;1320;-1320;0
2024-02-12 03:33:07;88;1320;-1320;0
2024-02-12 03:34:05;88;1320;-1320;0
2024-02-12 03:35:07;88;1320;-1320;0
2024-02-12 03:36:05;88;1320;-1320;0
2024-02-12 03:37:07;88;1320;-1320;0
2024-02-12 03:38:04;88;1320;-1320;0
2024-02-12 03:39:07;88;1320;-1320;0
2024-02-12 03:40:04;88;1320;-1320;0
2024-02-12 03:41:06;88;1320;-1320;0
2024-02-12 03:42:09;88;1320;-1320;0
2024-02-12 03:43:06;88;1320;-1320;0
2024-02-12 03:44:08;88;1320;-1320;0
2024-02-12 03:45:06;88;1320;-1320;0
2024-02-12 03:46:08;88;1320;-1320;0
2024-02-12 03:47:06;88;1320;-1320;0
2024-02-12 03:48:08;88;1320;-1320;0
2024-02-12 03:49:06;88;1320;-1320;0
2024-02-12 03:50:08;88;1320;-1320;0
2024-02-12 03:51:05;88;1320;-1320;0
2024-02-12 03:52:08;88;1320;-1320;0
2024-02-12 03:53:05;88;1320;-1320;0
2024-02-12 03:54:07;88;1320;-1320;0
2024-02-12 03:55:05;88;1320;-1320;0
2024-02-12 03:56:07;88;1320;-1320;0
2024-02-12 03:57:05;88;1320;-1320;0
2024-02-12 03:58:07;88;1320;-1320;0
2024-02-12 03:59:05;88;1320;-1320;0
2024-02-12 04:00:07;88;1320;-1320;0
2024-02-12 04:01:04;88;1320;-1320;0
2024-02-12 04:02:07;88;1320;-1320;0
2024-02-12 04:03:04;88;1320;-1320;0
2024-02-12 04:04:06;88;1320;-1320;0
2024-02-12 04:05:08;88;1320;-1320;0
2024-02-12 04:06:06;88;1320;-1320;0
2024-02-12 04:07:08;88;1320;-1320;0
2024-02-12 04:08:06;88;1320;-1320;0
2024-02-12 04:09:08;88;1320;-1320;0
2024-02-12 04:10:06;88;1320;-1320;0
2024-02-12 04:11:08;88;1320;-1320;0
2024-02-12 04:12:05;88;1320;-1320;0
2024-02-12 04:13:08;88;1320;-1320;0
2024-02-12 04:14:05;88;1320;-1320;0
2024-02-12 04:15:07;88;1320;-1320;0
2024-02-12 04:16:05;88;1320;-1320;0
2024-02-12 04:17:07;88;1320;-1320;0
2024-02-12 04:18:05;88;1320;-1320;0
2024-02-12 04:19:07;88;1320;-1320;0
2024-02-12 04:20:04;88;1320;-1320;0
2024-02-12 04:21:07;88;1320;-1320;0
2024-02-12 04:22:04;88;1320;-1320;0
2024-02-12 04:23:06;87;1320;-1320;0
2024-02-12 04:24:09;88;1320;-1320;0
2024-02-12 04:25:06;88;1320;-1320;0
2024-02-12 04:26:08;87;1320;-1320;0
2024-02-12 04:27:06;88;1320;-1320;0
2024-02-12 04:28:08;87;1320;-1320;0
2024-02-12 04:29:06;87;1320;-1320;0
2024-02-12 04:30:08;87;1320;-1320;0
2024-02-12 04:31:05;87;1320;-1320;0
2024-02-12 04:32:08;87;1320;-1320;0
2024-02-12 04:33:05;88;1320;-1320;0
2024-02-12 04:34:07;87;1320;-1320;0
2024-02-12 04:35:05;88;1320;-1320;0
2024-02-12 04:36:07;87;1320;-1320;0
2024-02-12 04:37:05;88;1320;-1320;0
2024-02-12 04:38:07;87;1320;-1320;0
2024-02-12 04:39:04;88;1320;-1320;0
2024-02-12 04:40:07;88;1320;-1320;0
2024-02-12 04:41:04;87;1320;-1320;0
2024-02-12 04:42:06;88;1320;-1320;0
2024-02-12 04:43:08;88;1320;-1320;0
2024-02-12 04:44:06;88;1320;-1320;0
2024-02-12 04:45:08;88;1320;-1320;0
2024-02-12 04:46:06;88;1320;-1320;0
2024-02-12 04:47:08;88;1320;-1320;0
2024-02-12 04:48:06;88;1320;-1320;0
2024-02-12 04:49:08;87;1320;-1320;0
2024-02-12 04:50:05;88;1320;-1320;0
2024-02-12 04:51:07;88;1320;-1320;0
2024-02-12 04:52:05;87;1320;-1320;0
2024-02-12 04:53:07;88;1320;-1320;0
2024-02-12 04:54:05;87;1320;-1320;0
2024-02-12 04:55:07;87;1320;-1320;0
2024-02-12 04:56:05;87;1320;-1320;0
2024-02-12 04:57:07;88;1320;-1320;0
2024-02-12 04:58:04;88;1320;-1320;0
2024-02-12 04:59:06;88;1320;-1320;0
2024-02-12 05:00:09;88;1320;-1320;0
2024-02-12 05:01:06;88;1320;-1320;0
2024-02-12 05:02:08;87;1320;-1320;0
2024-02-12 05:03:06;87;1320;-1320;0
2024-02-12 05:04:08;88;1320;-1320;0
2024-02-12 05:05:06;87;1320;-1320;0
2024-02-12 05:06:08;87;1320;-1320;0
2024-02-12 05:07:05;87;1320;-1320;0
2024-02-12 05:08:08;87;1320;-1320;0
2024-02-12 05:09:05;87;1320;-1320;0
2024-02-12 05:10:07;88;1320;-1320;0
2024-02-12 05:11:05;87;1320;-1320;0
2024-02-12 05:12:07;87;1320;-1320;0
2024-02-12 05:13:05;87;1320;-1320;0
2024-02-12 05:14:07;87;1320;-1320;0
2024-02-12 05:15:04;87;1320;-1320;0
2024-02-12 05:16:07;87;1320;-1320;0
2024-02-12 05:17:04;88;1320;-1320;0
2024-02-12 05:18:06;88;1320;-1320;0
2024-02-12 05:19:08;88;1320;-1320;0
2024-02-12 05:20:06;87;1320;-1320;0
2024-02-12 05:21:08;87;1320;-1320;0
2024-02-12 05:22:06;88;1320;-1320;0
2024-02-12 05:23:08;87;1320;-1320;0
2024-02-12 05:24:06;88;1320;-1320;0
2024-02-12 05:25:08;87;1320;-1320;0
2024-02-12 05:26:05;87;1320;-1320;0
2024-02-12 05:27:07;87;1320;-1320;0
2024-02-12 05:28:05;87;1320;-1320;0
2024-02-12 05:29:07;87;1320;-1320;0
2024-02-12 05:30:05;87;1320;-1320;0
2024-02-12 05:31:07;87;1320;-1320;0
2024-02-12 05:32:05;88;1320;-1320;0
2024-02-12 05:33:07;87;1320;-1320;0
2024-02-12 05:34:04;87;1320;-1320;0
2024-02-12 05:35:07;87;1320;-1320;0
2024-02-12 05:36:04;87;1320;-1320;0
2024-02-12 05:37:06;87;1320;-1320;0
2024-02-12 05:38:08;87;1320;-1320;0
2024-02-12 05:39:06;87;1320;-1320;0
2024-02-12 05:40:08;87;1320;-1320;0
2024-02-12 05:41:06;87;1320;-1320;0
2024-02-12 05:42:08;87;1320;-1320;0
2024-02-12 05:43:05;87;1320;-1320;0
2024-02-12 05:44:08;87;1320;-1320;0
2024-02-12 05:45:05;87;1320;-1320;0
2024-02-12 05:46:07;87;1320;-1320;0
2024-02-12 05:47:05;87;1320;-1320;0
2024-02-12 05:48:07;87;1320;-1320;0
2024-02-12 05:49:05;87;1320;-1320;0
2024-02-12 05:50:07;87;1320;-1320;0
2024-02-12 05:51:04;87;1320;-1320;0
2024-02-12 05:52:07;87;1320;-1320;0
2024-02-12 05:53:04;87;1320;-1320;0
2024-02-12 05:54:06;87;1320;-1320;0
2024-02-12 05:55:08;87;1320;-1320;0
2024-02-12 05:56:06;87;1320;-1320;0
2024-02-12 05:57:08;87;1320;-1320;0
2024-02-12 05:58:06;87;1320;-1320;0
2024-02-12 05:59:08;87;1320;-1320;0
2024-02-12 06:00:06;87;1320;-1320;0
2024-02-12 06:01:08;87;1320;-1320;0
2024-02-12 06:02:05;87;1320;-1320;0
2024-02-12 06:03:07;87;1320;-1320;0
2024-02-12 06:04:05;87;1320;-1320;0
2024-02-12 06:05:07;87;1320;-1320;0
2024-02-12 06:06:05;87;1320;-1320;0
2024-02-12 06:07:07;87;1320;-1320;0
2024-02-12 06:08:04;87;1320;-1320;0
2024-02-12 06:09:07;87;1320;-1320;0
2024-02-12 06:10:04;87;1320;-1320;0
2024-02-12 06:11:06;87;1320;-1320;0
2024-02-12 06:12:09;87;1320;-1320;0
2024-02-12 06:13:06;87;1320;-1320;0
2024-02-12 06:14:08;87;1320;-1320;0
2024-02-12 06:15:06;87;1320;-1320;0
2024-02-12 06:16:08;87;1320;-1320;0
2024-02-12 06:17:06;87;1320;-1320;0
2024-02-12 06:18:08;87;1320;-1320;0
2024-02-12 06:19:05;87;1320;-1320;0
2024-02-12 06:20:08;87;1320;-1320;0
2024-02-12 06:21:05;87;1320;-1320;0
2024-02-12 06:22:07;87;1320;-1320;0
2024-02-12 06:23:05;87;1320;-1320;0
2024-02-12 06:24:07;87;1320;-1320;0
2024-02-12 06:25:05;87;1320;-1320;0
2024-02-12 06:26:07;87;1320;-1320;0
2024-02-12 06:27:04;88;1320;-1320;0
2024-02-12 06:28:06;87;1320;-1320;0
2024-02-12 06:29:09;87;1320;-1320;0
2024-02-12 06:30:06;87;1320;-1320;0
2024-02-12 06:31:08;87;1320;-1320;0
2024-02-12 06:32:06;87;1320;-1320;0
2024-02-12 06:33:08;87;1320;-1320;0
2024-02-12 06:34:06;87;1320;-1320;0
2024-02-12 06:35:08;87;1320;-1320;0
2024-02-12 06:36:05;87;1320;-1320;0
2024-02-12 06:37:08;87;1320;-1320;0
2024-02-12 06:38:05;87;1320;-1320;0
2024-02-12 06:39:07;87;1320;-1320;0
2024-02-12 06:40:05;87;1320;-1320;0
2024-02-12 06:41:07;87;1320;-1320;0
2024-02-12 06:42:05;87;1320;-1320;0
2024-02-12 06:43:07;87;1320;-1320;0
2024-02-12 06:44:04;87;1320;-1320;0
2024-02-12 06:45:07;87;1320;-1320;0
2024-02-12 06:46:04;87;1320;-1320;0
2024-02-12 06:47:06;87;1320;-1320;0
2024-02-12 06:48:08;87;1320;-1320;0
2024-02-12 06:49:06;87;1320;-1320;0
2024-02-12 06:50:08;87;1320;-1320;0
2024-02-12 06:51:06;87;1320;-1320;0
2024-02-12 06:52:08;87;1320;-1320;0
2024-02-12 06:53:06;87;1320;-1320;0
2024-02-12 06:54:08;87;1320;-1320;0
2024-02-12 06:55:05;88;1320;-1320;0
2024-02-12 06:56:07;87;1320;-1320;0
2024-02-12 06:57:05;87;1320;-1320;0
2024-02-12 06:58:07;87;1320;-1320;0
2024-02-12 06:59:05;87;1320;-1320;0
2024-02-12 07:00:07;87;1320;-1320;0
2024-02-12 07:01:04;87;1320;-1320;0
2024-02-12 07:02:07;87;1320;-1320;0
2024-02-12 07:03:04;87;1320;-1320;0
2024-02-12 07:04:06;87;1320;-1320;0
2024-02-12 07:05:09;87;1320;-1320;0
2024-02-12 07:06:06;87;1320;-1320;0
2024-02-12 07:07:08;87;1320;-1320;0
2024-02-12 07:08:06;87;1320;-1320;0
2024-02-12 07:09:08;87;1320;-1320;0
2024-02-12 07:10:06;87;1320;-1320;0
2024-02-12 07:11:08;87;1320;-1320;0
2024-02-12 07:12:05;87;1320;-1320;0
2024-02-12 07:13:08;87;1320;-1320;0
2024-02-12 07:14:05;87;1320;-1320;0
2024-02-12 07:15:07;87;1320;-1320;0
2024-02-12 07:16:05;87;1320;-1320;0
2024-02-12 07:17:07;87;1320;-1320;0
2024-02-12 07:18:05;87;1320;-1320;0
2024-02-12 07:19:07;87;1320;-1320;0
2024-02-12 07:20:04;87;1320;-1320;0
2024-02-12 07:21:07;87;1320;-1320;0
2024-02-12 07:22:04;87;1320;-1320;0
2024-02-12 07:23:06;87;1320;-1320;0
2024-02-12 07:24:09;87;1320;-1320;0
2024-02-12 07:25:06;87;1320;-1320;0
2024-02-12 07:26:08;87;1320;-1320;0
2024-02-12 07:27:06;87;1320;-1320;0
2024-02-12 07:28:08;87;1320;-1320;0
2024-02-12 07:29:06;87;1320;-1320;0
2024-02-12 07:30:08;87;1320;-1320;0
2024-02-12 07:31:06;87;1320;-1320;0
2024-02-12 07:32:08;87;1320;-1320;0
2024-02-12 07:33:05;87;1320;-1320;0
2024-02-12 07:34:08;87;1320;-1320;0
2024-02-12 07:35:05;87;1320;-1320;0
2024-02-12 07:36:07;87;1320;-1320;0
2024-02-12 07:37:05;87;1320;-1320;0
2024-02-12 07:38:07;87;1320;-1320;0
2024-02-12 07:39:05;87;1320;-1320;0
2024-02-12 07:40:07;87;1320;-1320;0
2024-02-12 07:41:05;87;1320;-1320;0
2024-02-12 07:42:07;87;1320;-1320;0
2024-02-12 07:43:04;87;1320;-1320;0
2024-02-12 07:44:07;87;1320;-1320;0
2024-02-12 07:45:04;87;1320;-1320;0
2024-02-12 07:46:06;87;1320;-1320;0
2024-02-12 07:47:09;87;1320;-1320;0
2024-02-12 07:48:06;87;1320;-1320;0
2024-02-12 07:49:08;87;1320;-1320;0
2024-02-12 07:50:06;87;1320;-1320;0
2024-02-12 07:51:08;87;1320;-1320;0
2024-02-12 07:52:06;87;1320;-1320;0
2024-02-12 07:53:08;87;1320;-1320;0
2024-02-12 07:54:06;87;1320;-1320;0
2024-02-12 07:55:08;87;1320;-1320;0
2024-02-12 07:56:05;87;1320;-1320;0
2024-02-12 07:57:08;87;1320;-1320;0
2024-02-12 07:58:05;87;1320;-1320;0
2024-02-12 07:59:08;87;1320;-1320;0
2024-02-12 08:00:05;87;1320;-1320;0
2024-02-12 08:01:07;87;1320;-1320;0
2024-02-12 08:02:05;87;1320;-1320;0
2024-02-12 08:03:07;87;1320;-1320;0
2024-02-12 08:04:05;87;1320;-1320;0
2024-02-12 08:05:07;87;1320;-1320;0
2024-02-12 08:06:05;87;1320;-1320;0
2024-02-12 08:07:07;87;1320;-1320;0
2024-02-12 08:08:05;87;1320;-1320;0
2024-02-12 08:09:07;87;1320;-1320;0
2024-02-12 08:10:04;87;1320;-1320;0
2024-02-12 08:11:07;87;1320;-1320;0
2024-02-12 08:12:04;87;1320;-1320;0
2024-02-12 08:13:06;87;1320;-1320;0
2024-02-12 08:14:09;87;1320;-1320;0
2024-02-12 08:15:06;87;1320;-1320;0
2024-02-12 08:16:08;87;1320;-1320;0
2024-02-12 08:17:06;87;1320;-1320;0
2024-02-12 08:18:08;87;1320;-1320;0
2024-02-12 08:19:06;87;1320;-1320;0
2024-02-12 08:20:08;87;1320;-1320;0
2024-02-12 08:21:06;87;1320;-1320;0
2024-02-12 08:22:08;87;1320;-1320;0
2024-02-12 08:23:06;87;1320;-1320;0
2024-02-12 08:24:08;87;1320;-1320;0
2024-02-12 08:25:06;87;1320;-1320;0
2024-02-12 08:26:08;87;1320;-1320;0
2024-02-12 08:27:05;87;1320;-1320;0
2024-02-12 08:28:08;87;1320;-1320;0
2024-02-12 08:29:05;87;1320;-1320;0
2024-02-12 08:30:07;87;1320;-1320;0
2024-02-12 08:31:05;87;1320;-1320;0
2024-02-12 08:32:07;87;1320;-1320;0
2024-02-12 08:33:05;87;1320;-1320;0
2024-02-12 08:34:07;87;1320;-1320;0
2024-02-12 08:35:05;87;1320;-1320;0
2024-02-12 08:36:07;87;1320;-1320;0
2024-02-12 08:37:05;87;1320;-1320;0
2024-02-12 08:38:07;87;1320;-1320;0
2024-02-12 08:39:05;87;1320;-1320;0
2024-02-12 08:40:07;87;1320;-1320;0
2024-02-12 08:41:05;87;1320;-1320;0
2024-02-12 08:42:07;87;1320;-1320;0
2024-02-12 08:43:04;87;1320;-1320;0
2024-02-12 08:44:07;88;1320;-1320;0
2024-02-12 08:45:04;88;1320;-1320;0
2024-02-12 08:46:07;87;1320;-1320;0
2024-02-12 08:47:04;88;1320;-1320;0
2024-02-12 08:48:07;88;1320;-1320;0
2024-02-12 08:49:04;87;1320;-1320;0
2024-02-12 08:50:07;88;1320;-1320;0
2024-02-12 08:51:04;88;1320;-1320;0
2024-02-12 08:52:07;87;1320;-1320;0
2024-02-12 08:53:04;88;1320;-1320;0
2024-02-12 08:54:07;88;1320;-1320;0
2024-02-12 08:55:04;87;1320;-1320;0
2024-02-12 08:56:07;87;1320;-1320;0
2024-02-12 08:57:05;88;1320;-1320;0
2024-02-12 08:58:07;88;1320;-1320;0
2024-02-12 08:59:05;88;1320;-1320;0
2024-02-12 09:00:07;87;1320;-1320;0
2024-02-12 09:01:05;87;1320;-1320;0
2024-02-12 09:02:07;87;1320;-1320;0
2024-02-12 09:03:05;87;1320;-1320;0
2024-02-12 09:04:07;87;1320;-1320;0
2024-02-12 09:05:05;87;1320;-1320;0
2024-02-12 09:06:08;86;1320;-1320;0
2024-02-12 09:07:06;86;1320;-1320;0
2024-02-12 09:08:08;86;1320;-1320;0
2024-02-12 09:09:06;87;1320;-1320;0
2024-02-12 09:10:08;87;1320;-1320;0
2024-02-12 09:11:06;87;1320;-1320;0
2024-02-12 09:12:08;87;1320;-1320;0
2024-02-12 09:13:06;87;1320;-1320;0
2024-02-12 09:14:08;87;1320;-1320;0
2024-02-12 09:15:06;87;1320;-1320;0
2024-02-12 09:16:09;87;1320;-1320;0
2024-02-12 09:17:06;87;1320;-1320;0
2024-02-12 09:18:09;87;1320;-1320;0
2024-02-12 09:19:06;87;1320;-1320;0
2024-02-12 09:20:09;87;1320;-1320;0
2024-02-12 09:21:06;87;1320;-1320;0
2024-02-12 09:22:05;86;1320;-1320;1
2024-02-12 09:23:07;87;1320;-1320;1
2024-02-12 09:24:03;87;1320;-1320;3
2024-02-12 09:25:05;87;1320;-1320;4
2024-02-12 09:26:05;86;1320;-1320;5
2024-02-12 09:27:04;86;1320;-1320;6
2024-02-12 09:28:03;86;1320;-1320;7
2024-02-12 09:29:04;87;1320;-1320;8
2024-02-12 09:30:03;88;1320;-1320;9
2024-02-12 09:31:01;88;1320;-1320;10
2024-02-12 09:32:03;88;1320;-1320;12
2024-02-12 09:33:01;88;1320;-1320;14
2024-02-12 09:34:05;87;1320;-1320;16
2024-02-12 09:35:05;87;1320;-1320;17
2024-02-12 09:36:02;87;1320;-1320;19
2024-02-12 09:37:03;86;1320;-1320;21
2024-02-12 09:38:01;87;1320;-1320;22
2024-02-12 09:39:00;87;1320;-1320;24
2024-02-12 09:40:03;87;1320;-1320;25
2024-02-12 09:41:01;86;1320;-1320;26
2024-02-12 09:42:01;87;1320;-1320;29
2024-02-12 09:43:01;87;1320;-1320;33
2024-02-12 09:44:00;86;1320;-1320;36
2024-02-12 09:44:56;86;1320;-1320;40
2024-02-12 09:45:03;86;1320;-1320;40
2024-02-12 09:45:59;87;1320;-1320;43
2024-02-12 09:46:06;86;1320;-1320;44
2024-02-12 09:47:06;86;1320;-1320;46
2024-02-12 09:48:03;86;1320;-1320;48
2024-02-12 09:49:01;86;1320;-1320;49
2024-02-12 09:50:02;86;1320;-1320;51
2024-02-12 09:51:05;86;1320;-1320;52
2024-02-12 09:52:04;86;1320;-1320;55
2024-02-12 09:53:06;86;1320;-1320;56
2024-02-12 09:54:04;86;1320;-1320;57
2024-02-12 09:55:03;87;1320;-1320;58
2024-02-12 09:56:05;87;1320;-1320;58
2024-02-12 09:57:04;86;1320;-1320;59
2024-02-12 09:58:02;86;1320;-1320;60
2024-02-12 09:59:06;86;1320;-1320;61
2024-02-12 10:00:08;86;1320;-1320;61
2024-02-12 10:01:01;86;1320;-1320;62
2024-02-12 10:02:04;86;1320;-1320;63
2024-02-12 10:03:06;86;1320;-1320;63
2024-02-12 10:04:07;86;1320;-1320;64
2024-02-12 10:05:04;86;1320;-1320;64
2024-02-12 10:06:02;86;1320;-1320;65
2024-02-12 10:07:07;86;1320;-1320;66
2024-02-12 10:08:05;86;1320;-1320;66
2024-02-12 10:09:05;86;1320;-1320;67
2024-02-12 10:10:03;86;1320;-1320;68
2024-02-12 10:11:02;86;1320;-1320;69
2024-02-12 10:12:08;86;1320;-1320;69
2024-02-12 10:13:06;87;1320;-1320;69
2024-02-12 10:14:08;86;1320;-1320;69
2024-02-12 10:15:02;87;1320;-1320;70
2024-02-12 10:16:08;86;1320;-1320;70
2024-02-12 10:17:06;86;1320;-1320;70
2024-02-12 10:18:08;86;1320;-1320;70
2024-02-12 10:19:05;87;1320;-1320;70
2024-02-12 10:20:07;86;1320;-1320;70
2024-02-12 10:21:05;86;1320;-1320;70
2024-02-12 10:22:07;86;1320;-1320;70
2024-02-12 10:23:04;86;1320;-1320;70
2024-02-12 10:24:06;86;1320;-1320;70
2024-02-12 10:25:04;86;1320;-1320;71
2024-02-12 10:26:06;86;1320;-1320;71
2024-02-12 10:27:08;86;1320;-1320;71
2024-02-12 10:28:05;86;1320;-1320;71
2024-02-12 10:29:07;86;1320;-1320;71
2024-02-12 10:30:05;86;1320;-1320;71
2024-02-12 10:31:07;86;1320;-1320;71
2024-02-12 10:32:04;86;1320;-1320;71
2024-02-12 10:33:06;86;1320;-1320;71
2024-02-12 10:34:08;86;1320;-1320;71
2024-02-12 10:35:06;86;1320;-1320;72
2024-02-12 10:36:08;86;1320;-1320;72
2024-02-12 10:37:05;86;1320;-1320;72
2024-02-12 10:38:07;86;1320;-1320;72
2024-02-12 10:39:05;86;1320;-1320;72
2024-02-12 10:40:07;86;1320;-1320;72
2024-02-12 10:41:04;86;1320;-1320;72
2024-02-12 10:42:06;86;1320;-1320;72
2024-02-12 10:43:08;86;1320;-1320;72
2024-02-12 10:44:06;86;1320;-1320;72
2024-02-12 10:45:08;86;1320;-1320;72
2024-02-12 10:46:04;86;1320;-1320;73
2024-02-12 10:47:06;86;1320;-1320;73
2024-02-12 10:48:08;86;1320;-1320;73
2024-02-12 10:49:06;86;1320;-1320;73
2024-02-12 10:50:08;85;1320;-1320;73
2024-02-12 10:51:05;85;1320;-1320;73
2024-02-12 10:52:07;85;1320;-1320;73
2024-02-12 10:53:05;85;1320;-1320;73
2024-02-12 10:54:07;85;1320;-1320;73
2024-02-12 10:55:04;86;1320;-1320;73
2024-02-12 10:56:04;86;1320;-1320;74
2024-02-12 10:57:06;86;1320;-1320;74
2024-02-12 10:58:08;85;1320;-1320;74
2024-02-12 10:59:02;85;1320;-1320;75
2024-02-12 11:00:09;85;1320;-1320;75
2024-02-12 11:01:05;85;1320;-1320;76
2024-02-12 11:02:07;85;1320;-1320;76
2024-02-12 11:03:05;84;1320;-1320;76
2024-02-12 11:04:06;84;1320;-1320;77
2024-02-12 11:05:08;84;1320;-1320;77
2024-02-12 11:06:05;84;1320;-1320;77
2024-02-12 11:07:07;84;1320;-1320;78
2024-02-12 11:08:05;84;1320;-1320;78
2024-02-12 11:09:07;84;1320;-1320;78
2024-02-12 11:10:04;84;1320;-1320;78
2024-02-12 11:11:06;84;1320;-1320;78
2024-02-12 11:12:08;84;1320;-1320;78
2024-02-12 11:13:06;85;1320;-1320;78
2024-02-12 11:14:08;84;1320;-1320;78
2024-02-12 11:15:05;84;1320;-1320;78
2024-02-12 11:16:06;84;1320;-1320;79
2024-02-12 11:17:08;85;1320;-1320;79
2024-02-12 11:18:05;85;1320;-1320;79
2024-02-12 11:19:07;85;1320;-1320;79
2024-02-12 11:20:05;85;1320;-1320;79
2024-02-12 11:21:07;85;1320;-1320;79
2024-02-12 11:22:04;85;1320;-1320;79
2024-02-12 11:23:06;85;1320;-1320;79
2024-02-12 11:24:08;85;1320;-1320;79
2024-02-12 11:25:06;85;1320;-1320;79
2024-02-12 11:26:08;85;1320;-1320;79
2024-02-12 11:27:05;85;1320;-1320;79
2024-02-12 11:28:07;85;1320;-1320;79
2024-02-12 11:29:05;85;1320;-1320;79
2024-02-12 11:30:07;85;1320;-1320;79
2024-02-12 11:31:04;85;1320;-1320;79
2024-02-12 11:32:06;85;1320;-1320;79
2024-02-12 11:33:08;85;1320;-1320;79
2024-02-12 11:34:06;85;1320;-1320;79
2024-02-12 11:35:08;85;1320;-1320;79
2024-02-12 11:36:05;85;1320;-1320;79
2024-02-12 11:37:08;85;1320;-1320;79
2024-02-12 11:38:05;85;1320;-1320;79
2024-02-12 11:39:07;85;1320;-1320;79
2024-02-12 11:40:05;86;1320;-1320;79
2024-02-12 11:41:07;85;1320;-1320;79
2024-02-12 11:42:04;85;1320;-1320;79
2024-02-12 11:43:06;85;1320;-1320;79
2024-02-12 11:44:08;85;1320;-1320;79
2024-02-12 11:45:06;85;1320;-1320;79
2024-02-12 11:46:08;85;1320;-1320;79
2024-02-12 11:47:05;85;1320;-1320;79
2024-02-12 11:48:08;85;1320;-1320;79
2024-02-12 11:49:05;85;1320;-1320;79
2024-02-12 11:50:07;85;1320;-1320;79
2024-02-12 11:51:05;85;1320;-1320;79
2024-02-12 11:52:07;85;1320;-1320;79
2024-02-12 11:53:04;85;1320;-1320;79
2024-02-12 11:54:06;86;1320;-1320;79
2024-02-12 11:55:08;86;1320;-1320;79
2024-02-12 11:56:06;86;1320;-1320;79
2024-02-12 11:57:08;86;1320;-1320;79
2024-02-12 11:58:06;86;1320;-1320;79
2024-02-12 11:59:08;86;1320;-1320;79
2024-02-12 12:00:05;86;1320;-1320;79
2024-02-12 12:01:07;86;1320;-1320;79
2024-02-12 12:02:05;86;1320;-1320;79
2024-02-12 12:03:07;86;1320;-1320;79
2024-02-12 12:04:04;86;1320;-1320;79
2024-02-12 12:05:07;86;1320;-1320;79
2024-02-12 12:06:04;86;1320;-1320;79
2024-02-12 12:07:06;86;1320;-1320;79
2024-02-12 12:08:08;86;1320;-1320;79
2024-02-12 12:09:06;85;1320;-1320;79
2024-02-12 12:10:08;86;1320;-1320;79
2024-02-12 12:11:05;86;1320;-1320;79
2024-02-12 12:12:07;85;1320;-1320;79
2024-02-12 12:13:05;85;1320;-1320;79
2024-02-12 12:14:07;86;1320;-1320;79
2024-02-12 12:15:05;85;1320;-1320;79
2024-02-12 12:16:07;86;1320;-1320;79
2024-02-12 12:17:04;86;1320;-1320;79
2024-02-12 12:18:06;86;1320;-1320;79
2024-02-12 12:19:08;86;1320;-1320;79
2024-02-12 12:20:06;86;1320;-1320;79
2024-02-12 12:21:08;86;1320;-1320;79
2024-02-12 12:22:02;86;1320;-1320;80
2024-02-12 12:23:08;86;1320;-1320;80
2024-02-12 12:24:06;86;1320;-1320;80
2024-02-12 12:25:08;86;1320;-1320;80
2024-02-12 12:26:05;86;1320;-1320;80
2024-02-12 12:27:07;86;1320;-1320;80
2024-02-12 12:28:05;86;1320;-1320;80
2024-02-12 12:29:07;86;1320;-1320;80
2024-02-12 12:30:04;86;1320;-1320;80
2024-02-12 12:31:07;86;1320;-1320;80
2024-02-12 12:32:04;86;1320;-1320;80
2024-02-12 12:33:04;86;1320;-1320;81
2024-02-12 12:34:06;86;1320;-1320;81
2024-02-12 12:35:08;86;1320;-1320;81
2024-02-12 12:36:06;86;1320;-1320;81
2024-02-12 12:37:08;86;1320;-1320;81
2024-02-12 12:38:05;86;1320;-1320;81
2024-02-12 12:39:08;86;1320;-1320;81
2024-02-12 12:40:05;86;1320;-1320;81
2024-02-12 12:41:07;86;1320;-1320;81
2024-02-12 12:42:05;85;1320;-1320;81
2024-02-12 12:43:07;86;1320;-1320;81
2024-02-12 12:44:04;86;1320;-1320;81
2024-02-12 12:45:06;86;1320;-1320;81
2024-02-12 12:46:08;86;1320;-1320;81
2024-02-12 12:47:04;86;1320;-1320;82
2024-02-12 12:48:06;86;1320;-1320;82
2024-02-12 12:49:08;85;1320;-1320;82
2024-02-12 12:50:05;86;1320;-1320;82
2024-02-12 12:51:07;86;1320;-1320;82
2024-02-12 12:52:05;86;1320;-1320;82
2024-02-12 12:53:07;86;1320;-1320;82
2024-02-12 12:54:04;86;1320;-1320;82
2024-02-12 12:55:06;86;1320;-1320;82
2024-02-12 12:56:09;86;1320;-1320;82
2024-02-12 12:57:06;86;1320;-1320;82
2024-02-12 12:58:08;86;1320;-1320;82
2024-02-12 12:59:02;86;1320;-1320;83
2024-02-12 13:00:09;86;1320;-1320;83
2024-02-12 13:01:06;86;1320;-1320;83
2024-02-12 13:02:09;86;1320;-1320;83
2024-02-12 13:03:06;86;1320;-1320;83
2024-02-12 13:04:06;86;1320;-1320;84
2024-02-12 13:05:08;86;1320;-1320;84
2024-02-12 13:06:06;86;1320;-1320;84
2024-02-12 13:07:08;86;1320;-1320;84
2024-02-12 13:08:05;86;1320;-1320;84
2024-02-12 13:09:07;86;1320;-1320;84
2024-02-12 13:10:05;86;1320;-1320;84
2024-02-12 13:11:06;86;1320;-1320;85
2024-02-12 13:12:08;85;1320;-1320;85
2024-02-12 13:13:06;86;1320;-1320;85
2024-02-12 13:14:08;86;1320;-1320;85
2024-02-12 13:15:05;86;1320;-1320;85
2024-02-12 13:16:07;86;1320;-1320;85
2024-02-12 13:17:05;86;1320;-1320;85
2024-02-12 13:18:07;86;1320;-1320;85
2024-02-12 13:19:04;86;1320;-1320;85
2024-02-12 13:20:06;86;1320;-1320;85
2024-02-12 13:21:09;86;1320;-1320;85
2024-02-12 13:22:06;86;1320;-1320;85
2024-02-12 13:23:08;86;1320;-1320;85
2024-02-12 13:24:06;86;1320;-1320;85
2024-02-12 13:25:08;86;1320;-1320;85
2024-02-12 13:26:05;86;1320;-1320;85
2024-02-12 13:27:04;86;1320;-1320;86
2024-02-12 13:28:06;86;1320;-1320;86
2024-02-12 13:29:08;85;1320;-1320;86
2024-02-12 13:30:06;86;1320;-1320;86
2024-02-12 13:31:08;86;1320;-1320;86
2024-02-12 13:32:05;86;1320;-1320;86
2024-02-12 13:33:07;86;1320;-1320;86
2024-02-12 13:34:05;86;1320;-1320;86
2024-02-12 13:35:07;86;1320;-1320;86
2024-02-12 13:36:04;86;1320;-1320;86
2024-02-12 13:37:06;85;1320;-1320;86
2024-02-12 13:38:04;86;1320;-1320;86
2024-02-12 13:39:06;86;1320;-1320;86
2024-02-12 13:40:08;86;1320;-1320;86
2024-02-12 13:41:06;86;1320;-1320;86
2024-02-12 13:42:07;86;1320;-1320;87
2024-02-12 13:43:04;86;1320;-1320;87
2024-02-12 13:44:06;86;1320;-1320;87
2024-02-12 13:45:08;86;1320;-1320;87
2024-02-12 13:46:06;86;1320;-1320;87
2024-02-12 13:47:08;86;1320;-1320;87
2024-02-12 13:48:05;86;1320;-1320;87
2024-02-12 13:49:07;85;1320;-1320;87
2024-02-12 13:50:05;86;1320;-1320;87
2024-02-12 13:51:07;86;1320;-1320;87
2024-02-12 13:52:04;86;1320;-1320;87
2024-02-12 13:53:06;85;1320;-1320;87
2024-02-12 13:54:09;86;1320;-1320;87
2024-02-12 13:55:06;86;1320;-1320;87
2024-02-12 13:56:08;85;1320;-1320;87
2024-02-12 13:57:06;86;1320;-1320;87
2024-02-12 13:58:08;86;1320;-1320;87
2024-02-12 13:59:05;86;1320;-1320;87
2024-02-12 14:00:07;85;1320;-1320;87
2024-02-12 14:01:05;85;1320;-1320;87
2024-02-12 14:02:05;86;1320;-1320;88
2024-02-12 14:03:07;86;1320;-1320;88
2024-02-12 14:04:05;86;1320;-1320;88
2024-02-12 14:05:07;86;1320;-1320;88
2024-02-12 14:06:04;86;1320;-1320;88
2024-02-12 14:07:06;85;1320;-1320;88
2024-02-12 14:08:08;86;1320;-1320;88
2024-02-12 14:09:06;86;1320;-1320;88
2024-02-12 14:10:08;85;1320;-1320;88
2024-02-12 14:11:05;86;1320;-1320;88
2024-02-12 14:12:07;86;1320;-1320;88
2024-02-12 14:13:05;86;1320;-1320;88
2024-02-12 14:14:07;86;1320;-1320;88
2024-02-12 14:15:05;86;1320;-1320;88
2024-02-12 14:16:07;85;1320;-1320;88
2024-02-12 14:17:04;86;1320;-1320;88
2024-02-12 14:18:06;85;1320;-1320;88
2024-02-12 14:19:08;85;1320;-1320;88
2024-02-12 14:20:06;85;1320;-1320;89
2024-02-12 14:21:08;86;1320;-1320;89
2024-02-12 14:22:05;86;1320;-1320;89
2024-02-12 14:23:07;86;1320;-1320;89
2024-02-12 14:24:05;85;1320;-1320;89
2024-02-12 14:25:07;86;1320;-1320;89
2024-02-12 14:26:04;85;1320;-1320;89
2024-02-12 14:27:05;85;1320;-1320;90
2024-02-12 14:28:07;85;1320;-1320;90
2024-02-12 14:29:05;86;1320;-1320;90
2024-02-12 14:30:07;86;1320;-1320;90
2024-02-12 14:31:04;86;1320;-1320;90
2024-02-12 14:32:06;86;1320;-1320;90
2024-02-12 14:33:07;86;1320;-1320;91
2024-02-12 14:34:05;85;1320;-1320;91
2024-02-12 14:35:07;86;1320;-1320;91
2024-02-12 14:36:00;85;1320;-1320;92
2024-02-12 14:37:07;85;1320;-1320;92
2024-02-12 14:38:03;85;1320;-1320;93
2024-02-12 14:39:05;86;1320;-1320;93
2024-02-12 14:40:07;85;1320;-1320;93
2024-02-12 14:41:01;85;1320;-1320;94
2024-02-12 14:42:07;86;1320;-1320;94
2024-02-12 14:43:00;86;1320;-1320;95
2024-02-12 14:44:07;86;1320;-1320;95
2024-02-12 14:45:05;86;1320;-1320;95
2024-02-12 14:46:02;86;1320;-1320;96
2024-02-12 14:47:09;85;1320;-1320;96
2024-02-12 14:48:06;85;1320;-1320;97
2024-02-12 14:49:09;85;1320;-1320;97
2024-02-12 14:50:06;86;1320;-1320;97
2024-02-12 14:51:08;85;1320;-1320;97
2024-02-12 14:52:04;85;1320;-1320;98
2024-02-12 14:53:06;86;1320;-1320;98
2024-02-12 14:54:08;86;1320;-1320;98
2024-02-12 14:55:05;85;1320;-1320;98
2024-02-12 14:56:07;85;1320;-1320;98
2024-02-12 14:57:05;86;1320;-1320;98
2024-02-12 14:58:07;85;1320;-1320;99
2024-02-12 14:59:04;85;1320;-1320;99
2024-02-12 15:00:06;85;1320;-1320;99
2024-02-12 15:01:08;86;1320;-1320;99
2024-02-12 15:02:06;86;1320;-1320;99
2024-02-12 15:03:03;85;1320;-1320;100
2024-02-12 15:04:05;85;1320;-1320;100
2024-02-12 15:05:07;86;1320;-1320;100
2024-02-12 15:06:05;86;1320;-1320;100
2024-02-12 15:07:07;85;1320;-1320;100
2024-02-12 15:08:05;86;1320;-1320;100
2024-02-12 15:09:07;85;1320;-1320;100
2024-02-12 15:10:04;85;1320;-1320;100
2024-02-12 15:11:06;86;1320;-1320;100
2024-02-12 15:12:06;85;1320;-1320;101
2024-02-12 15:13:08;86;1320;-1320;101
2024-02-12 15:14:05;85;1320;-1320;101
2024-02-12 15:15:07;86;1320;-1320;101
2024-02-12 15:16:05;86;1320;-1320;101
2024-02-12 15:17:07;86;1320;-1320;101
2024-02-12 15:18:04;86;1320;-1320;101
2024-02-12 15:19:06;85;1320;-1320;101
2024-02-12 15:20:09;86;1320;-1320;101
2024-02-12 15:21:06;85;1320;-1320;101
2024-02-12 15:22:05;86;1320;-1320;102
2024-02-12 15:23:07;85;1320;-1320;102
2024-02-12 15:24:05;85;1320;-1320;102
2024-02-12 15:25:07;86;1320;-1320;102
2024-02-12 15:26:04;85;1320;-1320;102
2024-02-12 15:27:06;86;1320;-1320;102
2024-02-12 15:28:08;85;1320;-1320;102
2024-02-12 15:29:06;85;1320;-1320;102
2024-02-12 15:30:08;85;1320;-1320;102
2024-02-12 15:31:05;85;1320;-1320;102
2024-02-12 15:32:07;85;1320;-1320;103
2024-02-12 15:33:05;85;1320;-1320;103
2024-02-12 15:34:07;85;1320;-1320;103
2024-02-12 15:35:04;85;1320;-1320;103
2024-02-12 15:36:06;85;1320;-1320;103
2024-02-12 15:37:06;85;1320;-1320;104
2024-02-12 15:38:08;85;1320;-1320;104
2024-02-12 15:39:06;86;1320;-1320;104
2024-02-12 15:40:08;85;1320;-1320;104
2024-02-12 15:41:04;85;1320;-1320;105
2024-02-12 15:42:06;85;1320;-1320;105
2024-02-12 15:43:08;85;1320;-1320;105
2024-02-12 15:44:05;86;1320;-1320;105
2024-02-12 15:45:05;85;1320;-1320;106
2024-02-12 15:46:07;85;1320;-1320;106
2024-02-12 15:47:05;85;1320;-1320;106
2024-02-12 15:48:05;85;1320;-1320;107
2024-02-12 15:49:07;85;1320;-1320;107
2024-02-12 15:50:04;85;1320;-1320;107
2024-02-12 15:51:06;85;1320;-1320;107
2024-02-12 15:52:08;85;1320;-1320;107
2024-02-12 15:53:06;85;1320;-1320;107
2024-02-12 15:54:08;86;1320;-1320;107
2024-02-12 15:55:05;85;1320;-1320;107
2024-02-12 15:56:07;85;1320;-1320;107
2024-02-12 15:57:05;85;1320;-1320;107
2024-02-12 15:58:07;85;1320;-1320;107
2024-02-12 15:59:04;85;1320;-1320;107
2024-02-12 16:00:06;85;1320;-1320;107
2024-02-12 16:01:08;85;1320;-1320;107
2024-02-12 16:02:06;85;1320;-1320;107
2024-02-12 16:03:08;85;1320;-1320;107
2024-02-12 16:04:05;85;1320;-1320;107
2024-02-12 16:05:07;85;1320;-1320;107
2024-02-12 16:06:05;85;1320;-1320;107
2024-02-12 16:07:07;85;1320;-1320;107
2024-02-12 16:08:04;85;1320;-1320;107
2024-02-12 16:09:06;85;1320;-1320;107
2024-02-12 16:10:04;85;1320;-1320;107
2024-02-12 16:11:06;85;1320;-1320;107
2024-02-12 16:12:08;85;1320;-1320;107
2024-02-12 16:13:06;85;1320;-1320;107
2024-02-12 16:14:08;85;1320;-1320;107
2024-02-12 16:15:05;85;1320;-1320;107
2024-02-12 16:16:07;85;1320;-1320;107
2024-02-12 16:17:05;85;1320;-1320;107
2024-02-12 16:18:07;85;1320;-1320;107
2024-02-12 16:19:04;85;1320;-1320;107
2024-02-12 16:20:06;85;1320;-1320;107
2024-02-12 16:21:08;86;1320;-1320;107
2024-02-12 16:22:06;85;1320;-1320;107
2024-02-12 16:23:08;85;1320;-1320;107
2024-02-12 16:24:05;85;1320;-1320;107
2024-02-12 16:25:07;85;1320;-1320;107
2024-02-12 16:26:05;85;1320;-1320;107
2024-02-12 16:27:07;85;1320;-1320;107
2024-02-12 16:28:04;85;1320;-1320;107
2024-02-12 16:29:07;85;1320;-1320;107
2024-02-12 16:30:04;85;1320;-1320;107
2024-02-12 16:31:06;85;1320;-1320;107
2024-02-12 16:32:08;85;1320;-1320;107
2024-02-12 16:33:06;85;1320;-1320;107
2024-02-12 16:34:08;86;1320;-1320;107
2024-02-12 16:35:05;85;1320;-1320;107
2024-02-12 16:36:07;85;1320;-1320;107
2024-02-12 16:37:05;85;1320;-1320;107
2024-02-12 16:38:07;85;1320;-1320;107
2024-02-12 16:39:04;85;1320;-1320;107
2024-02-12 16:40:06;85;1320;-1320;107
2024-02-12 16:41:08;85;1320;-1320;107
2024-02-12 16:42:06;85;1320;-1320;107
2024-02-12 16:43:08;85;1320;-1320;107
2024-02-12 16:44:05;85;1320;-1320;107
2024-02-12 16:45:08;85;1320;-1320;107
2024-02-12 16:46:05;85;1320;-1320;107
2024-02-12 16:47:07;86;1320;-1320;107
2024-02-12 16:48:05;85;1320;-1320;107
2024-02-12 16:49:07;85;1320;-1320;107
2024-02-12 16:50:04;85;1320;-1320;107
2024-02-12 16:51:06;85;1320;-1320;107
2024-02-12 16:52:08;85;1320;-1320;107
2024-02-12 16:53:06;85;1320;-1320;107
2024-02-12 16:54:08;85;1320;-1320;107
2024-02-12 16:55:05;85;1320;-1320;107
2024-02-12 16:56:07;85;1320;-1320;107
2024-02-12 16:57:05;85;1320;-1320;107
2024-02-12 16:58:07;85;1320;-1320;107
2024-02-12 16:59:04;85;1320;-1320;107
2024-02-12 17:00:06;86;1320;-1320;107
2024-02-12 17:01:09;85;1320;-1320;107
2024-02-12 17:02:06;85;1320;-1320;107
2024-02-12 17:03:08;85;1320;-1320;107
2024-02-12 17:04:06;85;1320;-1320;107
2024-02-12 17:05:08;85;1320;-1320;107
2024-02-12 17:06:05;85;1320;-1320;107
2024-02-12 17:07:07;85;1320;-1320;107
2024-02-12 17:08:05;85;1320;-1320;107
2024-02-12 17:09:07;85;1320;-1320;107
2024-02-12 17:10:04;85;1320;-1320;107
2024-02-12 17:11:06;85;1320;-1320;107
2024-02-12 17:12:08;85;1320;-1320;107
2024-02-12 17:13:06;85;1320;-1320;107
2024-02-12 17:14:08;85;1320;-1320;107
2024-02-12 17:15:03;85;1320;-1320;108
2024-02-12 17:16:05;85;1320;-1320;108
2024-02-12 17:17:07;85;1320;-1320;108
2024-02-12 17:18:04;85;1320;-1320;109
2024-02-12 17:19:06;85;1320;-1320;109
2024-02-12 17:20:08;85;1320;-1320;110
2024-02-12 17:21:05;85;1320;-1320;110
2024-02-12 17:22:03;85;1320;-1320;111
2024-02-12 17:23:05;85;1320;-1320;111
2024-02-12 17:24:07;85;1320;-1320;111
2024-02-12 17:25:05;85;1320;-1320;111
2024-02-12 17:26:07;85;1320;-1320;111
2024-02-12 17:27:04;85;1320;-1320;111
2024-02-12 17:28:04;85;1320;-1320;112
2024-02-12 17:29:06;85;1320;-1320;112
2024-02-12 17:30:08;85;1320;-1320;112
2024-02-12 17:31:06;85;1320;-1320;112
2024-02-12 17:32:08;85;1320;-1320;112
2024-02-12 17:33:05;85;1320;-1320;112
2024-02-12 17:34:07;85;1320;-1320;112
2024-02-12 17:35:05;85;1320;-1320;112
2024-02-12 17:36:07;85;1320;-1320;112
2024-02-12 17:37:04;85;1320;-1320;112
2024-02-12 17:38:05;85;1320;-1320;113
2024-02-12 17:39:07;85;1320;-1320;113
2024-02-12 17:40:05;85;1320;-1320;113
2024-02-12 17:41:07;85;1320;-1320;113
2024-02-12 17:42:04;85;1320;-1320;113
2024-02-12 17:43:06;85;1320;-1320;113
2024-02-12 17:44:08;85;1320;-1320;113
2024-02-12 17:45:06;85;1320;-1320;113
2024-02-12 17:46:08;85;1320;-1320;113
2024-02-12 17:47:05;85;1320;-1320;113
2024-02-12 17:48:07;85;1320;-1320;113
2024-02-12 17:49:05;85;1320;-1320;113
2024-02-12 17:50:07;85;1320;-1320;113
2024-02-12 17:51:04;85;1320;-1320;113
2024-02-12 17:52:06;85;1320;-1320;113
2024-02-12 17:53:09;85;1320;-1320;113
2024-02-12 17:54:03;85;1320;-1320;114
2024-02-12 17:55:05;85;1320;-1320;114
2024-02-12 17:56:07;85;1320;-1320;114
2024-02-12 17:57:05;85;1320;-1320;114
2024-02-12 17:58:07;85;1320;-1320;114
2024-02-12 17:59:04;85;1320;-1320;114
2024-02-12 18:00:06;85;1320;-1320;114
2024-02-12 18:01:08;85;1320;-1320;114
2024-02-12 18:02:04;85;1320;-1320;115
2024-02-12 18:03:06;85;1320;-1320;115
2024-02-12 18:04:08;85;1320;-1320;115
2024-02-12 18:05:06;85;1320;-1320;115
2024-02-12 18:06:08;86;1320;-1320;115
2024-02-12 18:07:05;85;1320;-1320;115
2024-02-12 18:08:07;85;1320;-1320;115
2024-02-12 18:09:03;85;1320;-1320;116
2024-02-12 18:10:05;85;1320;-1320;116
2024-02-12 18:11:07;85;1320;-1320;116
2024-02-12 18:12:04;85;1320;-1320;116
2024-02-12 18:13:06;85;1320;-1320;116
2024-02-12 18:14:08;85;1320;-1320;116
2024-02-12 18:15:06;85;1320;-1320;116
2024-02-12 18:16:08;85;1320;-1320;116
2024-02-12 18:17:05;85;1320;-1320;116
2024-02-12 18:18:07;85;1320;-1320;116
2024-02-12 18:19:05;86;1320;-1320;116
2024-02-12 18:20:07;85;1320;-1320;116
2024-02-12 18:21:04;85;1320;-1320;116
2024-02-12 18:22:02;85;1320;-1320;117
2024-02-12 18:23:09;85;1320;-1320;117
2024-02-12 18:24:06;85;1320;-1320;117
2024-02-12 18:25:08;85;1320;-1320;117
2024-02-12 18:26:06;85;1320;-1320;117
2024-02-12 18:27:08;85;1320;-1320;117
2024-02-12 18:28:05;85;1320;-1320;117
2024-02-12 18:29:07;85;1320;-1320;117
2024-02-12 18:30:05;85;1320;-1320;117
2024-02-12 18:31:07;85;1320;-1320;117
2024-02-12 18:32:04;86;1320;-1320;117
2024-02-12 18:33:06;85;1320;-1320;117
2024-02-12 18:34:08;85;1320;-1320;117
2024-02-12 18:35:06;85;1320;-1320;117
2024-02-12 18:36:08;85;1320;-1320;117
2024-02-12 18:37:05;85;1320;-1320;117
2024-02-12 18:38:07;85;1320;-1320;117
2024-02-12 18:39:05;85;1320;-1320;117
2024-02-12 18:40:07;85;1320;-1320;117
2024-02-12 18:41:04;85;1320;-1320;117
2024-02-12 18:42:06;85;1320;-1320;117
2024-02-12 18:43:08;85;1320;-1320;117
2024-02-12 18:44:06;85;1320;-1320;117
2024-02-12 18:45:08;86;1320;-1320;117
2024-02-12 18:46:05;85;1320;-1320;117
2024-02-12 18:47:07;85;1320;-1320;117
2024-02-12 18:48:05;85;1320;-1320;117
2024-02-12 18:49:07;85;1320;-1320;117
2024-02-12 18:50:04;85;1320;-1320;117
2024-02-12 18:51:06;85;1320;-1320;117
2024-02-12 18:52:08;85;1320;-1320;117
2024-02-12 18:53:06;85;1320;-1320;117
2024-02-12 18:54:08;85;1320;-1320;117
2024-02-12 18:55:05;85;1320;-1320;117
2024-02-12 18:56:07;85;1320;-1320;117
2024-02-12 18:57:05;85;1320;-1320;117
2024-02-12 18:58:07;85;1320;-1320;117
2024-02-12 18:59:04;85;1320;-1320;117
2024-02-12 19:00:06;85;1320;-1320;117
2024-02-12 19:01:08;85;1320;-1320;117
2024-02-12 19:02:06;85;1320;-1320;117
2024-02-12 19:03:08;85;1320;-1320;117
2024-02-12 19:04:05;85;1320;-1320;117
2024-02-12 19:05:07;85;1320;-1320;117
2024-02-12 19:06:05;85;1320;-1320;117
2024-02-12 19:07:07;85;1320;-1320;117
2024-02-12 19:08:04;85;1320;-1320;117
2024-02-12 19:09:06;85;1320;-1320;117
2024-02-12 19:10:08;85;1320;-1320;117
2024-02-12 19:11:06;85;1320;-1320;117
2024-02-12 19:12:08;85;1320;-1320;117
2024-02-12 19:13:05;85;1320;-1320;117
2024-02-12 19:14:07;85;1320;-1320;117
2024-02-12 19:15:05;85;1320;-1320;117
2024-02-12 19:16:07;85;1320;-1320;117
2024-02-12 19:17:04;85;1320;-1320;117
2024-02-12 19:18:06;85;1320;-1320;117
2024-02-12 19:19:08;85;1320;-1320;117
2024-02-12 19:20:06;85;1320;-1320;117
2024-02-12 19:21:08;85;1320;-1320;117
2024-02-12 19:22:05;85;1320;-1320;117
2024-02-12 19:23:07;85;1320;-1320;117
2024-02-12 19:24:05;85;1320;-1320;117
2024-02-12 19:25:07;85;1320;-1320;117
2024-02-12 19:26:04;85;1320;-1320;117
2024-02-12 19:27:06;85;1320;-1320;117
2024-02-12 19:28:04;85;1320;-1320;117
2024-02-12 19:29:06;85;1320;-1320;117
2024-02-12 19:30:08;85;1320;-1320;117
2024-02-12 19:31:06;85;1320;-1320;117
2024-02-12 19:32:08;85;1320;-1320;117
2024-02-12 19:33:05;85;1320;-1320;117
2024-02-12 19:34:07;85;1320;-1320;117
2024-02-12 19:35:05;85;1320;-1320;117
2024-02-12 19:36:07;85;1320;-1320;117
2024-02-12 19:37:04;85;1320;-1320;117
2024-02-12 19:38:06;85;1320;-1320;117
2024-02-12 19:39:08;85;1320;-1320;117
2024-02-12 19:40:06;85;1320;-1320;117
2024-02-12 19:41:08;85;1320;-1320;117
2024-02-12 19:42:05;85;1320;-1320;117
2024-02-12 19:43:07;85;1320;-1320;117
2024-02-12 19:44:05;85;1320;-1320;117
2024-02-12 19:45:07;85;1320;-1320;117
2024-02-12 19:46:04;85;1320;-1320;117
2024-02-12 19:47:06;85;1320;-1320;117
2024-02-12 19:48:08;85;1320;-1320;117
2024-02-12 19:49:06;85;1320;-1320;117
2024-02-12 19:50:08;85;1320;-1320;117
2024-02-12 19:51:05;86;1320;-1320;117
2024-02-12 19:52:07;85;1320;-1320;117
2024-02-12 19:53:05;85;1320;-1320;117
2024-02-12 19:54:07;85;1320;-1320;117
2024-02-12 19:55:04;85;1320;-1320;117
2024-02-12 19:56:06;85;1320;-1320;117
2024-02-12 19:57:08;85;1320;-1320;117
2024-02-12 19:58:06;85;1320;-1320;117
2024-02-12 19:59:08;85;1320;-1320;117
2024-02-12 20:00:05;85;1320;-1320;117
2024-02-12 20:01:07;85;1320;-1320;117
2024-02-12 20:02:05;85;1320;-1320;117
2024-02-12 20:03:07;85;1320;-1320;117
2024-02-12 20:04:04;86;1320;-1320;117
2024-02-12 20:05:06;85;1320;-1320;117
2024-02-12 20:06:08;85;1320;-1320;117
2024-02-12 20:07:06;85;1320;-1320;117
2024-02-12 20:08:08;85;1320;-1320;117
2024-02-12 20:09:05;85;1320;-1320;117
2024-02-12 20:10:08;85;1320;-1320;117
2024-02-12 20:11:05;85;1320;-1320;117
2024-02-12 20:12:07;85;1320;-1320;117
2024-02-12 20:13:05;85;1320;-1320;117
2024-02-12 20:14:07;85;1320;-1320;117
2024-02-12 20:15:04;85;1320;-1320;117
2024-02-12 20:16:06;85;1320;-1320;117
2024-02-12 20:17:08;86;1320;-1320;117
2024-02-12 20:18:06;85;1320;-1320;117
2024-02-12 20:19:08;85;1320;-1320;117
2024-02-12 20:20:05;85;1320;-1320;117
2024-02-12 20:21:07;85;1320;-1320;117
2024-02-12 20:22:05;85;1320;-1320;117
2024-02-12 20:23:07;85;1320;-1320;117
2024-02-12 20:24:04;85;1320;-1320;117
2024-02-12 20:25:06;85;1320;-1320;117
2024-02-12 20:26:08;85;1320;-1320;117
2024-02-12 20:27:06;85;1320;-1320;117
2024-02-12 20:28:08;85;1320;-1320;117
2024-02-12 20:29:05;85;1320;-1320;117
2024-02-12 20:30:07;85;1320;-1320;117
2024-02-12 20:31:05;85;1320;-1320;117
2024-02-12 20:32:07;85;1320;-1320;117
2024-02-12 20:33:04;85;1320;-1320;117
2024-02-12 20:34:06;85;1320;-1320;117
2024-02-12 20:35:08;85;1320;-1320;117
2024-02-12 20:36:06;85;1320;-1320;117
2024-02-12 20:37:08;85;1320;-1320;117
2024-02-12 20:38:05;85;1320;-1320;117
2024-02-12 20:39:07;85;1320;-1320;117
2024-02-12 20:40:05;85;1320;-1320;117
2024-02-12 20:41:07;85;1320;-1320;117
2024-02-12 20:42:04;85;1320;-1320;117
2024-02-12 20:43:06;85;1320;-1320;117
2024-02-12 20:44:08;85;1320;-1320;117
2024-02-12 20:45:06;85;1320;-1320;117
2024-02-12 20:46:08;85;1320;-1320;117
2024-02-12 20:47:05;85;1320;-1320;117
2024-02-12 20:48:07;85;1320;-1320;117
2024-02-12 20:49:05;85;1320;-1320;117
2024-02-12 20:50:07;85;1320;-1320;117
2024-02-12 20:51:04;85;1320;-1320;117
2024-02-12 20:52:07;85;1320;-1320;117
2024-02-12 20:53:04;85;1320;-1320;117
2024-02-12 20:54:06;85;1320;-1320;117
2024-02-12 20:55:08;85;1320;-1320;117
2024-02-12 20:56:06;85;1320;-1320;117
2024-02-12 20:57:08;85;1320;-1320;117
2024-02-12 20:58:05;85;1320;-1320;117
2024-02-12 20:59:07;85;1320;-1320;117
2024-02-12 21:00:05;85;1320;-1320;117
2024-02-12 21:01:07;85;1320;-1320;117
2024-02-12 21:02:04;85;1320;-1320;117
2024-02-12 21:03:06;85;1320;-1320;117
2024-02-12 21:04:08;85;1320;-1320;117
2024-02-12 21:05:06;85;1320;-1320;117
2024-02-12 21:06:08;85;1320;-1320;117
2024-02-12 21:07:05;85;1320;-1320;117
2024-02-12 21:08:07;85;1320;-1320;117
2024-02-12 21:09:05;85;1320;-1320;117
2024-02-12 21:10:07;85;1320;-1320;117
2024-02-12 21:11:04;85;1320;-1320;117
2024-02-12 21:12:06;85;1320;-1320;117
2024-02-12 21:13:08;85;1320;-1320;117
2024-02-12 21:14:06;85;1320;-1320;117
2024-02-12 21:15:08;85;1320;-1320;117
2024-02-12 21:16:05;85;1320;-1320;117
2024-02-12 21:17:07;85;1320;-1320;117
2024-02-12 21:18:05;85;1320;-1320;117
2024-02-12 21:19:07;85;1320;-1320;117
2024-02-12 21:20:04;85;1320;-1320;117
2024-02-12 21:21:06;85;1320;-1320;117
2024-02-12 21:22:08;85;1320;-1320;117
2024-02-12 21:23:06;85;1320;-1320;117
2024-02-12 21:24:08;85;1320;-1320;117
2024-02-12 21:25:05;85;1320;-1320;117
2024-02-12 21:26:07;85;1320;-1320;117
2024-02-12 21:27:05;85;1320;-1320;117
2024-02-12 21:28:07;85;1320;-1320;117
2024-02-12 21:29:04;85;1320;-1320;117
2024-02-12 21:30:06;85;1320;-1320;117
2024-02-12 21:31:08;85;1320;-1320;117
2024-02-12 21:32:06;85;1320;-1320;117
2024-02-12 21:33:08;85;1320;-1320;117
2024-02-12 21:34:05;85;1320;-1320;117
2024-02-12 21:35:07;85;1320;-1320;117
2024-02-12 21:36:05;86;1320;-1320;117
2024-02-12 21:37:07;85;1320;-1320;117
2024-02-12 21:38:04;85;1320;-1320;117
2024-02-12 21:39:06;85;1320;-1320;117
2024-02-12 21:40:08;85;1320;-1320;117
2024-02-12 21:41:06;85;1320;-1320;117
2024-02-12 21:42:08;85;1320;-1320;117
2024-02-12 21:43:05;85;1320;-1320;117
2024-02-12 21:44:07;85;1320;-1320;117
2024-02-12 21:45:05;85;1320;-1320;117
2024-02-12 21:46:07;85;1320;-1320;117
2024-02-12 21:47:04;85;1320;-1320;117
2024-02-12 21:48:07;85;1320;-1320;117
2024-02-12 21:49:04;86;1320;-1320;117
2024-02-12 21:50:06;85;1320;-1320;117
2024-02-12 21:51:08;85;1320;-1320;117
2024-02-12 21:52:06;85;1320;-1320;117
2024-02-12 21:53:08;85;1320;-1320;117
2024-02-12 21:54:05;85;1320;-1320;117
2024-02-12 21:55:07;85;1320;-1320;117
2024-02-12 21:56:05;85;1320;-1320;117
2024-02-12 21:57:07;85;1320;-1320;117
2024-02-12 21:58:04;85;1320;-1320;117
2024-02-12 21:59:06;85;1320;-1320;117
2024-02-12 22:00:08;85;1320;-1320;117
2024-02-12 22:01:06;85;1320;-1320;117
2024-02-12 22:02:08;85;1320;-1320;117
2024-02-12 22:03:05;85;1320;-1320;117
2024-02-12 22:04:07;85;1320;-1320;117
2024-02-12 22:05:05;85;1320;-1320;117
2024-02-12 22:06:07;85;1320;-1320;117
2024-02-12 22:07:04;85;1320;-1320;117
2024-02-12 22:08:06;85;1320;-1320;117
2024-02-12 22:09:08;85;1320;-1320;117
2024-02-12 22:10:06;85;1320;-1320;117
2024-02-12 22:11:08;85;1320;-1320;117
2024-02-12 22:12:05;85;1320;-1320;117
2024-02-12 22:13:07;85;1320;-1320;117
2024-02-12 22:14:05;85;1320;-1320;117
2024-02-12 22:15:07;85;1320;-1320;117
2024-02-12 22:16:04;85;1320;-1320;117
2024-02-12 22:17:06;85;1320;-1320;117
2024-02-12 22:18:08;85;1320;-1320;117
2024-02-12 22:19:06;85;1320;-1320;117
2024-02-12 22:20:08;85;1320;-1320;117
2024-02-12 22:21:05;85;1320;-1320;117
2024-02-12 22:22:07;85;1320;-1320;117
2024-02-12 22:23:05;85;1320;-1320;117
2024-02-12 22:24:07;85;1320;-1320;117
2024-02-12 22:25:04;85;1320;-1320;117
2024-02-12 22:26:06;85;1320;-1320;117
2024-02-12 22:27:08;84;1320;-1320;117
2024-02-12 22:28:06;85;1320;-1320;117
2024-02-12 22:29:08;85;1320;-1320;117
2024-02-12 22:30:05;85;1320;-1320;117
2024-02-12 22:31:07;85;1320;-1320;117
2024-02-12 22:32:05;85;1320;-1320;117
2024-02-12 22:33:07;85;1320;-1320;117
2024-02-12 22:34:04;85;1320;-1320;117
2024-02-12 22:35:06;85;1320;-1320;117
2024-02-12 22:36:08;85;1320;-1320;117
2024-02-12 22:37:06;85;1320;-1320;117
2024-02-12 22:38:08;85;1320;-1320;117
2024-02-12 22:39:05;85;1320;-1320;117
2024-02-12 22:40:07;85;1320;-1320;117
2024-02-12 22:41:05;85;1320;-1320;117
2024-02-12 22:42:07;85;1320;-1320;117
2024-02-12 22:43:04;84;1320;-1320;117
2024-02-12 22:44:06;85;1320;-1320;117
2024-02-12 22:45:08;85;1320;-1320;117
2024-02-12 22:46:06;85;1320;-1320;117
2024-02-12 22:47:08;85;1320;-1320;117
2024-02-12 22:48:05;85;1320;-1320;117
2024-02-12 22:49:07;85;1320;-1320;117
2024-02-12 22:50:05;85;1320;-1320;117
2024-02-12 22:51:07;84;1320;-1320;117
2024-02-12 22:52:04;85;1320;-1320;117
2024-02-12 22:53:06;84;1320;-1320;117
2024-02-12 22:54:08;85;1320;-1320;117
2024-02-12 22:55:06;85;1320;-1320;117
2024-02-12 22:56:08;84;1320;-1320;117
2024-02-12 22:57:05;85;1320;-1320;117
2024-02-12 22:58:07;85;1320;-1320;117
2024-02-12 22:59:05;85;1320;-1320;117
2024-02-12 23:00:07;85;1320;-1320;117
2024-02-12 23:01:04;85;1320;-1320;117
2024-02-12 23:02:06;85;1320;-1320;117
2024-02-12 23:03:08;85;1320;-1320;117
2024-02-12 23:04:06;85;1320;-1320;117
2024-02-12 23:05:08;85;1320;-1320;117
2024-02-12 23:06:05;84;1320;-1320;117
2024-02-12 23:07:07;85;1320;-1320;117
2024-02-12 23:08:05;85;1320;-1320;117
2024-02-12 23:09:07;85;1320;-1320;117
2024-02-12 23:10:04;85;1320;-1320;117
2024-02-12 23:11:06;84;1320;-1320;117
2024-02-12 23:12:08;85;1320;-1320;117
2024-02-12 23:13:06;85;1320;-1320;117
2024-02-12 23:14:08;84;1320;-1320;117
2024-02-12 23:15:05;85;1320;-1320;117
2024-02-12 23:16:08;85;1320;-1320;117
2024-02-12 23:17:05;85;1320;-1320;117
2024-02-12 23:18:07;85;1320;-1320;117
2024-02-12 23:19:04;84;1320;-1320;117
2024-02-12 23:20:07;84;1320;-1320;117
2024-02-12 23:21:04;85;1320;-1320;117
2024-02-12 23:22:06;84;1320;-1320;117
2024-02-12 23:23:08;84;1320;-1320;117
2024-02-12 23:24:06;85;1320;-1320;117
2024-02-12 23:25:08;85;1320;-1320;117
2024-02-12 23:26:05;85;1320;-1320;117
2024-02-12 23:27:07;84;1320;-1320;117
2024-02-12 23:28:05;85;1320;-1320;117
2024-02-12 23:29:07;85;1320;-1320;117
2024-02-12 23:30:04;85;1320;-1320;117
2024-02-12 23:31:06;85;1320;-1320;117
2024-02-12 23:32:08;85;1320;-1320;117
2024-02-12 23:33:06;85;1320;-1320;117
2024-02-12 23:34:08;85;1320;-1320;117
2024-02-12 23:35:05;84;1320;-1320;117
2024-02-12 23:36:07;84;1320;-1320;117
2024-02-12 23:37:05;84;1320;-1320;117
2024-02-12 23:38:07;85;1320;-1320;117
2024-02-12 23:39:04;85;1320;-1320;117
2024-02-12 23:40:06;84;1320;-1320;117
2024-02-12 23:41:08;85;1320;-1320;117
2024-02-12 23:42:06;85;1320;-1320;117
2024-02-12 23:43:08;84;1320;-1320;117
2024-02-12 23:44:05;84;1320;-1320;117
2024-02-12 23:45:07;84;1320;-1320;117
2024-02-12 23:46:05;84;1320;-1320;117
2024-02-12 23:47:07;85;1320;-1320;117
2024-02-12 23:48:04;85;1320;-1320;117
2024-02-12 23:49:06;85;1320;-1320;117
2024-02-12 23:50:08;84;1320;-1320;117
2024-02-12 23:51:06;85;1320;-1320;117
2024-02-12 23:52:08;84;1320;-1320;117
2024-02-12 23:53:05;85;1320;-1320;117
2024-02-12 23:54:07;84;1320;-1320;117
2024-02-12 23:55:05;84;1320;-1320;117
2024-02-12 23:56:07;84;1320;-1320;117
2024-02-12 23:57:04;84;1320;-1320;117
2024-02-12 23:58:06;84;1320;-1320;117
2024-02-12 23:59:08;84;1320;-1320;117
