2024-01-09 00:00:05;52;1320;-1320;0
2024-01-09 00:01:08;52;1320;-1320;0
2024-01-09 00:02:05;52;1320;-1320;0
2024-01-09 00:03:07;52;1320;-1320;0
2024-01-09 00:04:05;52;1320;-1320;0
2024-01-09 00:05:07;52;1320;-1320;0
2024-01-09 00:06:04;52;1320;-1320;0
2024-01-09 00:07:06;52;1320;-1320;0
2024-01-09 00:08:08;52;1320;-1320;0
2024-01-09 00:09:06;52;1320;-1320;0
2024-01-09 00:10:08;52;1320;-1320;0
2024-01-09 00:11:05;52;1320;-1320;0
2024-01-09 00:12:07;52;1320;-1320;0
2024-01-09 00:13:05;52;1320;-1320;0
2024-01-09 00:14:07;52;1320;-1320;0
2024-01-09 00:15:05;52;1320;-1320;0
2024-01-09 00:16:07;52;1320;-1320;0
2024-01-09 00:17:04;52;1320;-1320;0
2024-01-09 00:18:06;51;1320;-1320;0
2024-01-09 00:19:08;52;1320;-1320;0
2024-01-09 00:20:06;52;1320;-1320;0
2024-01-09 00:21:08;51;1320;-1320;0
2024-01-09 00:22:05;51;1320;-1320;0
2024-01-09 00:23:07;51;1320;-1320;0
2024-01-09 00:24:05;52;1320;-1320;0
2024-01-09 00:25:07;52;1320;-1320;0
2024-01-09 00:26:04;51;1320;-1320;0
2024-01-09 00:27:07;52;1320;-1320;0
2024-01-09 00:28:04;52;1320;-1320;0
2024-01-09 00:29:06;51;1320;-1320;0
2024-01-09 00:30:08;52;1320;-1320;0
2024-01-09 00:31:06;51;1320;-1320;0
2024-01-09 00:32:08;51;1320;-1320;0
2024-01-09 00:33:05;51;1320;-1320;0
2024-01-09 00:34:07;51;1320;-1320;0
2024-01-09 00:35:05;51;1320;-1320;0
2024-01-09 00:36:07;51;1320;-1320;0
2024-01-09 00:37:04;51;1320;-1320;0
2024-01-09 00:38:06;51;1320;-1320;0
2024-01-09 00:39:08;51;1320;-1320;0
2024-01-09 00:40:06;51;1320;-1320;0
2024-01-09 00:41:08;52;1320;-1320;0
2024-01-09 00:42:06;51;1320;-1320;0
2024-01-09 00:43:08;51;1320;-1320;0
2024-01-09 00:44:05;51;1320;-1320;0
2024-01-09 00:45:07;51;1320;-1320;0
2024-01-09 00:46:05;51;1320;-1320;0
2024-01-09 00:47:07;51;1320;-1320;0
2024-01-09 00:48:04;51;1320;-1320;0
2024-01-09 00:49:06;51;1320;-1320;0
2024-01-09 00:50:08;51;1320;-1320;0
2024-01-09 00:51:06;51;1320;-1320;0
2024-01-09 00:52:08;51;1320;-1320;0
2024-01-09 00:53:05;51;1320;-1320;0
2024-01-09 00:54:07;51;1320;-1320;0
2024-01-09 00:55:05;51;1320;-1320;0
2024-01-09 00:56:07;51;1320;-1320;0
2024-01-09 00:57:04;51;1320;-1320;0
2024-01-09 00:58:06;51;1320;-1320;0
2024-01-09 00:59:04;51;1320;-1320;0
2024-01-09 01:00:06;51;1320;-1320;0
2024-01-09 01:01:08;51;1320;-1320;0
2024-01-09 01:02:06;51;1320;-1320;0
2024-01-09 01:03:08;51;1320;-1320;0
2024-01-09 01:04:05;51;1320;-1320;0
2024-01-09 01:05:07;51;1320;-1320;0
2024-01-09 01:06:05;51;1320;-1320;0
2024-01-09 01:07:07;51;1320;-1320;0
2024-01-09 01:08:04;51;1320;-1320;0
2024-01-09 01:09:06;51;1320;-1320;0
2024-01-09 01:10:08;51;1320;-1320;0
2024-01-09 01:11:06;51;1320;-1320;0
2024-01-09 01:12:08;51;1320;-1320;0
2024-01-09 01:13:05;51;1320;-1320;0
2024-01-09 01:14:07;51;1320;-1320;0
2024-01-09 01:15:05;51;1320;-1320;0
2024-01-09 01:16:07;51;1320;-1320;0
2024-01-09 01:17:04;51;1320;-1320;0
2024-01-09 01:18:06;50;1320;-1320;0
2024-01-09 01:19:08;51;1320;-1320;0
2024-01-09 01:20:06;51;1320;-1320;0
2024-01-09 01:21:08;51;1320;-1320;0
2024-01-09 01:22:05;51;1320;-1320;0
2024-01-09 01:23:08;51;1320;-1320;0
2024-01-09 01:24:05;51;1320;-1320;0
2024-01-09 01:25:07;51;1320;-1320;0
2024-01-09 01:26:05;51;1320;-1320;0
2024-01-09 01:27:07;50;1320;-1320;0
2024-01-09 01:28:04;50;1320;-1320;0
2024-01-09 01:29:06;51;1320;-1320;0
2024-01-09 01:30:08;50;1320;-1320;0
2024-01-09 01:31:06;51;1320;-1320;0
2024-01-09 01:32:08;51;1320;-1320;0
2024-01-09 01:33:05;51;1320;-1320;0
2024-01-09 01:34:07;51;1320;-1320;0
2024-01-09 01:35:05;51;1320;-1320;0
2024-01-09 01:36:07;51;1320;-1320;0
2024-01-09 01:37:04;51;1320;-1320;0
2024-01-09 01:38:06;51;1320;-1320;0
2024-01-09 01:39:08;51;1320;-1320;0
2024-01-09 01:40:06;51;1320;-1320;0
2024-01-09 01:41:08;51;1320;-1320;0
2024-01-09 01:42:05;51;1320;-1320;0
2024-01-09 01:43:07;51;1320;-1320;0
2024-01-09 01:44:05;51;1320;-1320;0
2024-01-09 01:45:07;51;1320;-1320;0
2024-01-09 01:46:04;51;1320;-1320;0
2024-01-09 01:47:07;51;1320;-1320;0
2024-01-09 01:48:04;51;1320;-1320;0
2024-01-09 01:49:06;51;1320;-1320;0
2024-01-09 01:50:08;51;1320;-1320;0
2024-01-09 01:51:06;51;1320;-1320;0
2024-01-09 01:52:08;51;1320;-1320;0
2024-01-09 01:53:05;51;1320;-1320;0
2024-01-09 01:54:07;51;1320;-1320;0
2024-01-09 01:55:05;51;1320;-1320;0
2024-01-09 01:56:07;51;1320;-1320;0
2024-01-09 01:57:04;51;1320;-1320;0
2024-01-09 01:58:06;51;1320;-1320;0
2024-01-09 01:59:08;51;1320;-1320;0
2024-01-09 02:00:06;51;1320;-1320;0
2024-01-09 02:01:08;51;1320;-1320;0
2024-01-09 02:02:05;51;1320;-1320;0
2024-01-09 02:03:07;51;1320;-1320;0
2024-01-09 02:04:05;51;1320;-1320;0
2024-01-09 02:05:07;51;1320;-1320;0
2024-01-09 02:06:04;51;1320;-1320;0
2024-01-09 02:07:06;51;1320;-1320;0
2024-01-09 02:08:09;51;1320;-1320;0
2024-01-09 02:09:06;51;1320;-1320;0
2024-01-09 02:10:08;51;1320;-1320;0
2024-01-09 02:11:06;51;1320;-1320;0
2024-01-09 02:12:08;51;1320;-1320;0
2024-01-09 02:13:05;51;1320;-1320;0
2024-01-09 02:14:07;51;1320;-1320;0
2024-01-09 02:15:05;51;1320;-1320;0
2024-01-09 02:16:07;51;1320;-1320;0
2024-01-09 02:17:04;51;1320;-1320;0
2024-01-09 02:18:06;52;1320;-1320;0
2024-01-09 02:19:08;51;1320;-1320;0
2024-01-09 02:20:06;51;1320;-1320;0
2024-01-09 02:21:08;51;1320;-1320;0
2024-01-09 02:22:05;51;1320;-1320;0
2024-01-09 02:23:07;51;1320;-1320;0
2024-01-09 02:24:05;51;1320;-1320;0
2024-01-09 02:25:07;51;1320;-1320;0
2024-01-09 02:26:04;51;1320;-1320;0
2024-01-09 02:27:06;51;1320;-1320;0
2024-01-09 02:28:09;51;1320;-1320;0
2024-01-09 02:29:06;51;1320;-1320;0
2024-01-09 02:30:08;51;1320;-1320;0
2024-01-09 02:31:06;51;1320;-1320;0
2024-01-09 02:32:08;52;1320;-1320;0
2024-01-09 02:33:05;51;1320;-1320;0
2024-01-09 02:34:07;51;1320;-1320;0
2024-01-09 02:35:05;51;1320;-1320;0
2024-01-09 02:36:07;51;1320;-1320;0
2024-01-09 02:37:04;51;1320;-1320;0
2024-01-09 02:38:06;51;1320;-1320;0
2024-01-09 02:39:08;51;1320;-1320;0
2024-01-09 02:40:06;51;1320;-1320;0
2024-01-09 02:41:08;51;1320;-1320;0
2024-01-09 02:42:05;51;1320;-1320;0
2024-01-09 02:43:07;51;1320;-1320;0
2024-01-09 02:44:05;51;1320;-1320;0
2024-01-09 02:45:07;51;1320;-1320;0
2024-01-09 02:46:04;51;1320;-1320;0
2024-01-09 02:47:07;51;1320;-1320;0
2024-01-09 02:48:04;51;1320;-1320;0
2024-01-09 02:49:06;51;1320;-1320;0
2024-01-09 02:50:08;51;1320;-1320;0
2024-01-09 02:51:06;51;1320;-1320;0
2024-01-09 02:52:08;51;1320;-1320;0
2024-01-09 02:53:05;51;1320;-1320;0
2024-01-09 02:54:07;51;1320;-1320;0
2024-01-09 02:55:05;51;1320;-1320;0
2024-01-09 02:56:07;51;1320;-1320;0
2024-01-09 02:57:04;51;1320;-1320;0
2024-01-09 02:58:06;51;1320;-1320;0
2024-01-09 02:59:08;51;1320;-1320;0
2024-01-09 03:00:06;51;1320;-1320;0
2024-01-09 03:01:08;51;1320;-1320;0
2024-01-09 03:02:05;51;1320;-1320;0
2024-01-09 03:03:07;51;1320;-1320;0
2024-01-09 03:04:05;51;1320;-1320;0
2024-01-09 03:05:07;51;1320;-1320;0
2024-01-09 03:06:04;51;1320;-1320;0
2024-01-09 03:07:06;51;1320;-1320;0
2024-01-09 03:08:09;51;1320;-1320;0
2024-01-09 03:09:06;51;1320;-1320;0
2024-01-09 03:10:08;51;1320;-1320;0
2024-01-09 03:11:06;51;1320;-1320;0
2024-01-09 03:12:08;51;1320;-1320;0
2024-01-09 03:13:05;51;1320;-1320;0
2024-01-09 03:14:07;51;1320;-1320;0
2024-01-09 03:15:05;51;1320;-1320;0
2024-01-09 03:16:07;51;1320;-1320;0
2024-01-09 03:17:04;51;1320;-1320;0
2024-01-09 03:18:06;51;1320;-1320;0
2024-01-09 03:19:08;51;1320;-1320;0
2024-01-09 03:20:06;51;1320;-1320;0
2024-01-09 03:21:08;51;1320;-1320;0
2024-01-09 03:22:05;51;1320;-1320;0
2024-01-09 03:23:07;51;1320;-1320;0
2024-01-09 03:24:05;51;1320;-1320;0
2024-01-09 03:25:07;51;1320;-1320;0
2024-01-09 03:26:04;51;1320;-1320;0
2024-01-09 03:27:06;51;1320;-1320;0
2024-01-09 03:28:08;51;1320;-1320;0
2024-01-09 03:29:06;51;1320;-1320;0
2024-01-09 03:30:08;51;1320;-1320;0
2024-01-09 03:31:05;51;1320;-1320;0
2024-01-09 03:32:07;51;1320;-1320;0
2024-01-09 03:33:05;51;1320;-1320;0
2024-01-09 03:34:07;51;1320;-1320;0
2024-01-09 03:35:04;51;1320;-1320;0
2024-01-09 03:36:06;51;1320;-1320;0
2024-01-09 03:37:08;51;1320;-1320;0
2024-01-09 03:38:06;51;1320;-1320;0
2024-01-09 03:39:08;51;1320;-1320;0
2024-01-09 03:40:05;51;1320;-1320;0
2024-01-09 03:41:07;52;1320;-1320;0
2024-01-09 03:42:05;51;1320;-1320;0
2024-01-09 03:43:07;51;1320;-1320;0
2024-01-09 03:44:04;51;1320;-1320;0
2024-01-09 03:45:07;51;1320;-1320;0
2024-01-09 03:46:04;51;1320;-1320;0
2024-01-09 03:47:06;51;1320;-1320;0
2024-01-09 03:48:08;51;1320;-1320;0
2024-01-09 03:49:06;51;1320;-1320;0
2024-01-09 03:50:08;51;1320;-1320;0
2024-01-09 03:51:05;51;1320;-1320;0
2024-01-09 03:52:07;51;1320;-1320;0
2024-01-09 03:53:05;51;1320;-1320;0
2024-01-09 03:54:07;51;1320;-1320;0
2024-01-09 03:55:04;52;1320;-1320;0
2024-01-09 03:56:06;51;1320;-1320;0
2024-01-09 03:57:08;51;1320;-1320;0
2024-01-09 03:58:06;51;1320;-1320;0
2024-01-09 03:59:08;51;1320;-1320;0
2024-01-09 04:00:05;51;1320;-1320;0
2024-01-09 04:01:07;51;1320;-1320;0
2024-01-09 04:02:05;51;1320;-1320;0
2024-01-09 04:03:07;51;1320;-1320;0
2024-01-09 04:04:04;51;1320;-1320;0
2024-01-09 04:05:06;51;1320;-1320;0
2024-01-09 04:06:08;51;1320;-1320;0
2024-01-09 04:07:06;51;1320;-1320;0
2024-01-09 04:08:08;51;1320;-1320;0
2024-01-09 04:09:05;51;1320;-1320;0
2024-01-09 04:10:07;51;1320;-1320;0
2024-01-09 04:11:05;51;1320;-1320;0
2024-01-09 04:12:07;51;1320;-1320;0
2024-01-09 04:13:04;51;1320;-1320;0
2024-01-09 04:14:06;50;1320;-1320;0
2024-01-09 04:15:08;51;1320;-1320;0
2024-01-09 04:16:06;51;1320;-1320;0
2024-01-09 04:17:08;50;1320;-1320;0
2024-01-09 04:18:05;51;1320;-1320;0
2024-01-09 04:19:07;50;1320;-1320;0
2024-01-09 04:20:05;50;1320;-1320;0
2024-01-09 04:21:07;51;1320;-1320;0
2024-01-09 04:22:04;51;1320;-1320;0
2024-01-09 04:23:06;51;1320;-1320;0
2024-01-09 04:24:08;51;1320;-1320;0
2024-01-09 04:25:06;51;1320;-1320;0
2024-01-09 04:26:08;51;1320;-1320;0
2024-01-09 04:27:05;51;1320;-1320;0
2024-01-09 04:28:07;51;1320;-1320;0
2024-01-09 04:29:05;51;1320;-1320;0
2024-01-09 04:30:07;51;1320;-1320;0
2024-01-09 04:31:04;51;1320;-1320;0
2024-01-09 04:32:06;51;1320;-1320;0
2024-01-09 04:33:08;51;1320;-1320;0
2024-01-09 04:34:06;51;1320;-1320;0
2024-01-09 04:35:08;51;1320;-1320;0
2024-01-09 04:36:05;51;1320;-1320;0
2024-01-09 04:37:07;51;1320;-1320;0
2024-01-09 04:38:05;51;1320;-1320;0
2024-01-09 04:39:07;51;1320;-1320;0
2024-01-09 04:40:04;51;1320;-1320;0
2024-01-09 04:41:06;50;1320;-1320;0
2024-01-09 04:42:08;50;1320;-1320;0
2024-01-09 04:43:06;50;1320;-1320;0
2024-01-09 04:44:08;50;1320;-1320;0
2024-01-09 04:45:05;50;1320;-1320;0
2024-01-09 04:46:07;50;1320;-1320;0
2024-01-09 04:47:05;50;1320;-1320;0
2024-01-09 04:48:07;50;1320;-1320;0
2024-01-09 04:49:04;50;1320;-1320;0
2024-01-09 04:50:06;50;1320;-1320;0
2024-01-09 04:51:08;51;1320;-1320;0
2024-01-09 04:52:06;51;1320;-1320;0
2024-01-09 04:53:08;51;1320;-1320;0
2024-01-09 04:54:05;51;1320;-1320;0
2024-01-09 04:55:07;51;1320;-1320;0
2024-01-09 04:56:05;51;1320;-1320;0
2024-01-09 04:57:07;51;1320;-1320;0
2024-01-09 04:58:04;51;1320;-1320;0
2024-01-09 04:59:06;51;1320;-1320;0
2024-01-09 05:00:08;51;1320;-1320;0
2024-01-09 05:01:06;51;1320;-1320;0
2024-01-09 05:02:08;51;1320;-1320;0
2024-01-09 05:03:05;51;1320;-1320;0
2024-01-09 05:04:07;51;1320;-1320;0
2024-01-09 05:05:05;51;1320;-1320;0
2024-01-09 05:06:07;51;1320;-1320;0
2024-01-09 05:07:04;51;1320;-1320;0
2024-01-09 05:08:06;51;1320;-1320;0
2024-01-09 05:09:08;51;1320;-1320;0
2024-01-09 05:10:06;51;1320;-1320;0
2024-01-09 05:11:08;51;1320;-1320;0
2024-01-09 05:12:05;51;1320;-1320;0
2024-01-09 05:13:07;51;1320;-1320;0
2024-01-09 05:14:05;51;1320;-1320;0
2024-01-09 05:15:07;51;1320;-1320;0
2024-01-09 05:16:04;51;1320;-1320;0
2024-01-09 05:17:06;51;1320;-1320;0
2024-01-09 05:18:08;51;1320;-1320;0
2024-01-09 05:19:06;51;1320;-1320;0
2024-01-09 05:20:08;51;1320;-1320;0
2024-01-09 05:21:05;51;1320;-1320;0
2024-01-09 05:22:07;51;1320;-1320;0
2024-01-09 05:23:05;51;1320;-1320;0
2024-01-09 05:24:07;51;1320;-1320;0
2024-01-09 05:25:04;51;1320;-1320;0
2024-01-09 05:26:06;51;1320;-1320;0
2024-01-09 05:27:08;51;1320;-1320;0
2024-01-09 05:28:06;51;1320;-1320;0
2024-01-09 05:29:08;51;1320;-1320;0
2024-01-09 05:30:05;51;1320;-1320;0
2024-01-09 05:31:07;51;1320;-1320;0
2024-01-09 05:32:05;51;1320;-1320;0
2024-01-09 05:33:07;51;1320;-1320;0
2024-01-09 05:34:04;51;1320;-1320;0
2024-01-09 05:35:06;51;1320;-1320;0
2024-01-09 05:36:08;51;1320;-1320;0
2024-01-09 05:37:06;51;1320;-1320;0
2024-01-09 05:38:08;51;1320;-1320;0
2024-01-09 05:39:05;51;1320;-1320;0
2024-01-09 05:40:07;51;1320;-1320;0
2024-01-09 05:41:05;51;1320;-1320;0
2024-01-09 05:42:07;51;1320;-1320;0
2024-01-09 05:43:04;51;1320;-1320;0
2024-01-09 05:44:06;51;1320;-1320;0
2024-01-09 05:45:09;51;1320;-1320;0
2024-01-09 05:46:06;51;1320;-1320;0
2024-01-09 05:47:08;51;1320;-1320;0
2024-01-09 05:48:05;51;1320;-1320;0
2024-01-09 05:49:08;51;1320;-1320;0
2024-01-09 05:50:05;51;1320;-1320;0
2024-01-09 05:51:07;51;1320;-1320;0
2024-01-09 05:52:05;51;1320;-1320;0
2024-01-09 05:53:07;51;1320;-1320;0
2024-01-09 05:54:04;51;1320;-1320;0
2024-01-09 05:55:06;51;1320;-1320;0
2024-01-09 05:56:08;51;1320;-1320;0
2024-01-09 05:57:06;51;1320;-1320;0
2024-01-09 05:58:08;51;1320;-1320;0
2024-01-09 05:59:05;51;1320;-1320;0
2024-01-09 06:00:07;51;1320;-1320;0
2024-01-09 06:01:05;51;1320;-1320;0
2024-01-09 06:02:07;51;1320;-1320;0
2024-01-09 06:03:04;51;1320;-1320;0
2024-01-09 06:04:06;51;1320;-1320;0
2024-01-09 06:05:08;51;1320;-1320;0
2024-01-09 06:06:06;51;1320;-1320;0
2024-01-09 06:07:08;51;1320;-1320;0
2024-01-09 06:08:05;51;1320;-1320;0
2024-01-09 06:09:07;51;1320;-1320;0
2024-01-09 06:10:05;51;1320;-1320;0
2024-01-09 06:11:07;51;1320;-1320;0
2024-01-09 06:12:04;51;1320;-1320;0
2024-01-09 06:13:06;51;1320;-1320;0
2024-01-09 06:14:09;51;1320;-1320;0
2024-01-09 06:15:06;51;1320;-1320;0
2024-01-09 06:16:08;51;1320;-1320;0
2024-01-09 06:17:06;51;1320;-1320;0
2024-01-09 06:18:08;51;1320;-1320;0
2024-01-09 06:19:05;51;1320;-1320;0
2024-01-09 06:20:07;51;1320;-1320;0
2024-01-09 06:21:05;51;1320;-1320;0
2024-01-09 06:22:07;51;1320;-1320;0
2024-01-09 06:23:04;51;1320;-1320;0
2024-01-09 06:24:06;51;1320;-1320;0
2024-01-09 06:25:08;51;1320;-1320;0
2024-01-09 06:26:06;51;1320;-1320;0
2024-01-09 06:27:08;52;1320;-1320;0
2024-01-09 06:28:05;51;1320;-1320;0
2024-01-09 06:29:08;51;1320;-1320;0
2024-01-09 06:30:05;51;1320;-1320;0
2024-01-09 06:31:07;51;1320;-1320;0
2024-01-09 06:32:05;51;1320;-1320;0
2024-01-09 06:33:07;51;1320;-1320;0
2024-01-09 06:34:04;51;1320;-1320;0
2024-01-09 06:35:06;51;1320;-1320;0
2024-01-09 06:36:08;51;1320;-1320;0
2024-01-09 06:37:06;51;1320;-1320;0
2024-01-09 06:38:08;51;1320;-1320;0
2024-01-09 06:39:05;51;1320;-1320;0
2024-01-09 06:40:07;51;1320;-1320;0
2024-01-09 06:41:05;52;1320;-1320;0
2024-01-09 06:42:07;51;1320;-1320;0
2024-01-09 06:43:05;51;1320;-1320;0
2024-01-09 06:44:07;51;1320;-1320;0
2024-01-09 06:45:04;51;1320;-1320;0
2024-01-09 06:46:06;51;1320;-1320;0
2024-01-09 06:47:08;51;1320;-1320;0
2024-01-09 06:48:06;51;1320;-1320;0
2024-01-09 06:49:08;51;1320;-1320;0
2024-01-09 06:50:05;51;1320;-1320;0
2024-01-09 06:51:08;51;1320;-1320;0
2024-01-09 06:52:05;51;1320;-1320;0
2024-01-09 06:53:07;51;1320;-1320;0
2024-01-09 06:54:05;51;1320;-1320;0
2024-01-09 06:55:07;52;1320;-1320;0
2024-01-09 06:56:04;51;1320;-1320;0
2024-01-09 06:57:06;51;1320;-1320;0
2024-01-09 06:58:08;51;1320;-1320;0
2024-01-09 06:59:06;51;1320;-1320;0
2024-01-09 07:00:08;51;1320;-1320;0
2024-01-09 07:01:06;51;1320;-1320;0
2024-01-09 07:02:08;51;1320;-1320;0
2024-01-09 07:03:03;51;1320;-1320;1
2024-01-09 07:04:05;51;1320;-1320;1
2024-01-09 07:05:07;51;1320;-1320;1
2024-01-09 07:06:05;51;1320;-1320;1
2024-01-09 07:07:06;51;1320;-1320;2
2024-01-09 07:08:08;51;1320;-1320;2
2024-01-09 07:09:06;51;1320;-1320;2
2024-01-09 07:10:04;51;1320;-1320;4
2024-01-09 07:11:04;51;1320;-1320;7
2024-01-09 07:12:01;51;1320;-1320;10
2024-01-09 07:13:01;51;1320;-1320;14
2024-01-09 07:14:01;51;1320;-1320;17
2024-01-09 07:15:05;51;1320;-1320;19
2024-01-09 07:16:05;51;1320;-1320;20
2024-01-09 07:17:07;51;1320;-1320;20
2024-01-09 07:18:04;51;1320;-1320;20
2024-01-09 07:19:06;51;1320;-1320;21
2024-01-09 07:20:08;51;1320;-1320;21
2024-01-09 07:21:06;51;1320;-1320;21
2024-01-09 07:22:08;51;1320;-1320;21
2024-01-09 07:23:05;51;1320;-1320;21
2024-01-09 07:24:08;51;1320;-1320;21
2024-01-09 07:25:05;51;1320;-1320;21
2024-01-09 07:26:07;51;1320;-1320;21
2024-01-09 07:27:05;51;1320;-1320;21
2024-01-09 07:28:07;51;1320;-1320;21
2024-01-09 07:29:04;51;1320;-1320;21
2024-01-09 07:30:06;51;1320;-1320;21
2024-01-09 07:31:08;51;1320;-1320;21
2024-01-09 07:32:06;51;1320;-1320;21
2024-01-09 07:33:08;51;1320;-1320;21
2024-01-09 07:34:05;51;1320;-1320;21
2024-01-09 07:35:07;51;1320;-1320;21
2024-01-09 07:36:05;51;1320;-1320;21
2024-01-09 07:37:07;51;1320;-1320;21
2024-01-09 07:38:04;51;1320;-1320;21
2024-01-09 07:39:07;51;1320;-1320;21
2024-01-09 07:40:04;51;1320;-1320;21
2024-01-09 07:41:06;51;1320;-1320;21
2024-01-09 07:42:08;51;1320;-1320;21
2024-01-09 07:43:06;51;1320;-1320;21
2024-01-09 07:44:08;51;1320;-1320;21
2024-01-09 07:45:05;51;1320;-1320;21
2024-01-09 07:46:07;51;1320;-1320;21
2024-01-09 07:47:05;51;1320;-1320;21
2024-01-09 07:48:07;51;1320;-1320;21
2024-01-09 07:49:04;52;1320;-1320;21
2024-01-09 07:50:06;51;1320;-1320;21
2024-01-09 07:51:08;51;1320;-1320;21
2024-01-09 07:52:06;51;1320;-1320;21
2024-01-09 07:53:08;51;1320;-1320;21
2024-01-09 07:54:05;51;1320;-1320;21
2024-01-09 07:55:08;51;1320;-1320;21
2024-01-09 07:56:05;51;1320;-1320;21
2024-01-09 07:57:07;51;1320;-1320;21
2024-01-09 07:58:05;51;1320;-1320;21
2024-01-09 07:59:07;51;1320;-1320;21
2024-01-09 08:00:04;51;1320;-1320;21
2024-01-09 08:01:06;51;1320;-1320;21
2024-01-09 08:02:08;51;1320;-1320;21
2024-01-09 08:03:06;51;1320;-1320;21
2024-01-09 08:04:08;51;1320;-1320;21
2024-01-09 08:05:05;51;1320;-1320;21
2024-01-09 08:06:07;51;1320;-1320;21
2024-01-09 08:07:05;51;1320;-1320;21
2024-01-09 08:08:07;51;1320;-1320;21
2024-01-09 08:09:04;51;1320;-1320;21
2024-01-09 08:10:06;51;1320;-1320;21
2024-01-09 08:11:08;51;1320;-1320;21
2024-01-09 08:12:06;51;1320;-1320;21
2024-01-09 08:13:08;51;1320;-1320;21
2024-01-09 08:14:06;51;1320;-1320;21
2024-01-09 08:15:08;51;1320;-1320;21
2024-01-09 08:16:05;52;1320;-1320;21
2024-01-09 08:17:07;51;1320;-1320;21
2024-01-09 08:18:05;51;1320;-1320;21
2024-01-09 08:19:07;51;1320;-1320;21
2024-01-09 08:20:04;51;1320;-1320;21
2024-01-09 08:21:06;51;1320;-1320;21
2024-01-09 08:22:08;51;1320;-1320;21
2024-01-09 08:23:06;51;1320;-1320;21
2024-01-09 08:24:08;51;1320;-1320;21
2024-01-09 08:25:04;51;1320;-1320;22
2024-01-09 08:26:06;51;1320;-1320;22
2024-01-09 08:27:08;51;1320;-1320;22
2024-01-09 08:28:06;51;1320;-1320;22
2024-01-09 08:29:08;51;1320;-1320;22
2024-01-09 08:30:05;51;1320;-1320;22
2024-01-09 08:31:07;51;1320;-1320;22
2024-01-09 08:32:05;51;1320;-1320;22
2024-01-09 08:33:07;51;1320;-1320;22
2024-01-09 08:34:04;51;1320;-1320;22
2024-01-09 08:35:07;51;1320;-1320;22
2024-01-09 08:36:04;51;1320;-1320;22
2024-01-09 08:37:06;51;1320;-1320;22
2024-01-09 08:38:08;51;1320;-1320;22
2024-01-09 08:39:06;51;1320;-1320;22
2024-01-09 08:40:08;51;1320;-1320;22
2024-01-09 08:41:05;51;1320;-1320;22
2024-01-09 08:42:07;51;1320;-1320;22
2024-01-09 08:43:05;52;1320;-1320;22
2024-01-09 08:44:07;51;1320;-1320;22
2024-01-09 08:45:04;51;1320;-1320;22
2024-01-09 08:46:06;51;1320;-1320;22
2024-01-09 08:47:04;51;1320;-1320;22
2024-01-09 08:48:06;51;1320;-1320;22
2024-01-09 08:49:08;51;1320;-1320;22
2024-01-09 08:50:06;51;1320;-1320;22
2024-01-09 08:51:08;51;1320;-1320;22
2024-01-09 08:52:05;51;1320;-1320;22
2024-01-09 08:53:07;51;1320;-1320;22
2024-01-09 08:54:05;51;1320;-1320;22
2024-01-09 08:55:07;51;1320;-1320;22
2024-01-09 08:56:04;51;1320;-1320;22
2024-01-09 08:57:06;51;1320;-1320;22
2024-01-09 08:58:09;51;1320;-1320;22
2024-01-09 08:59:06;51;1320;-1320;22
2024-01-09 09:00:08;51;1320;-1320;22
2024-01-09 09:01:06;51;1320;-1320;22
2024-01-09 09:02:08;51;1320;-1320;22
2024-01-09 09:03:05;51;1320;-1320;22
2024-01-09 09:04:07;51;1320;-1320;22
2024-01-09 09:05:05;51;1320;-1320;22
2024-01-09 09:06:07;51;1320;-1320;22
2024-01-09 09:07:04;51;1320;-1320;22
2024-01-09 09:08:07;51;1320;-1320;22
2024-01-09 09:09:04;51;1320;-1320;22
2024-01-09 09:10:06;52;1320;-1320;22
2024-01-09 09:11:08;51;1320;-1320;22
2024-01-09 09:12:06;51;1320;-1320;22
2024-01-09 09:13:08;51;1320;-1320;22
2024-01-09 09:14:05;51;1320;-1320;22
2024-01-09 09:15:07;51;1320;-1320;22
2024-01-09 09:16:05;51;1320;-1320;22
2024-01-09 09:17:07;51;1320;-1320;22
2024-01-09 09:18:05;51;1320;-1320;22
2024-01-09 09:19:07;51;1320;-1320;22
2024-01-09 09:20:04;51;1320;-1320;22
2024-01-09 09:21:06;51;1320;-1320;22
2024-01-09 09:22:08;51;1320;-1320;22
2024-01-09 09:23:06;51;1320;-1320;22
2024-01-09 09:24:08;51;1320;-1320;22
2024-01-09 09:25:06;51;1320;-1320;22
2024-01-09 09:26:08;51;1320;-1320;22
2024-01-09 09:27:05;51;1320;-1320;22
2024-01-09 09:28:07;51;1320;-1320;22
2024-01-09 09:29:05;51;1320;-1320;22
2024-01-09 09:30:07;51;1320;-1320;22
2024-01-09 09:31:04;51;1320;-1320;22
2024-01-09 09:32:06;51;1320;-1320;22
2024-01-09 09:33:04;51;1320;-1320;22
2024-01-09 09:34:06;51;1320;-1320;22
2024-01-09 09:35:08;51;1320;-1320;22
2024-01-09 09:36:06;51;1320;-1320;22
2024-01-09 09:37:08;52;1320;-1320;22
2024-01-09 09:38:05;51;1320;-1320;22
2024-01-09 09:39:04;51;1320;-1320;23
2024-01-09 09:40:06;51;1320;-1320;23
2024-01-09 09:41:07;51;1320;-1320;24
2024-01-09 09:42:04;51;1320;-1320;24
2024-01-09 09:43:06;51;1320;-1320;25
2024-01-09 09:44:04;51;1320;-1320;26
2024-01-09 09:45:06;51;1320;-1320;26
2024-01-09 09:46:05;51;1320;-1320;27
2024-01-09 09:47:07;51;1320;-1320;27
2024-01-09 09:48:05;51;1320;-1320;27
2024-01-09 09:49:07;51;1320;-1320;27
2024-01-09 09:50:04;51;1320;-1320;27
2024-01-09 09:51:06;51;1320;-1320;27
2024-01-09 09:52:08;51;1320;-1320;27
2024-01-09 09:53:05;51;1320;-1320;28
2024-01-09 09:54:07;51;1320;-1320;28
2024-01-09 09:55:05;51;1320;-1320;28
2024-01-09 09:56:07;51;1320;-1320;28
2024-01-09 09:57:04;51;1320;-1320;28
2024-01-09 09:58:06;51;1320;-1320;28
2024-01-09 09:59:09;51;1320;-1320;28
2024-01-09 10:00:06;51;1320;-1320;28
2024-01-09 10:01:08;51;1320;-1320;28
2024-01-09 10:02:06;51;1320;-1320;28
2024-01-09 10:03:08;51;1320;-1320;28
2024-01-09 10:04:05;52;1320;-1320;28
2024-01-09 10:05:07;51;1320;-1320;28
2024-01-09 10:06:05;51;1320;-1320;28
2024-01-09 10:07:07;51;1320;-1320;28
2024-01-09 10:08:04;51;1320;-1320;28
2024-01-09 10:09:06;51;1320;-1320;28
2024-01-09 10:10:09;51;1320;-1320;28
2024-01-09 10:11:06;51;1320;-1320;28
2024-01-09 10:12:08;51;1320;-1320;28
2024-01-09 10:13:06;51;1320;-1320;28
2024-01-09 10:14:08;51;1320;-1320;28
2024-01-09 10:15:05;51;1320;-1320;28
2024-01-09 10:16:07;51;1320;-1320;28
2024-01-09 10:17:05;51;1320;-1320;28
2024-01-09 10:18:07;51;1320;-1320;28
2024-01-09 10:19:04;51;1320;-1320;28
2024-01-09 10:20:07;51;1320;-1320;28
2024-01-09 10:21:04;51;1320;-1320;28
2024-01-09 10:22:06;51;1320;-1320;28
2024-01-09 10:23:08;51;1320;-1320;28
2024-01-09 10:24:06;51;1320;-1320;28
2024-01-09 10:25:08;51;1320;-1320;28
2024-01-09 10:26:05;51;1320;-1320;28
2024-01-09 10:27:07;51;1320;-1320;28
2024-01-09 10:28:05;51;1320;-1320;28
2024-01-09 10:29:07;51;1320;-1320;28
2024-01-09 10:30:05;51;1320;-1320;28
2024-01-09 10:31:07;51;1320;-1320;28
2024-01-09 10:32:04;51;1320;-1320;28
2024-01-09 10:33:06;51;1320;-1320;28
2024-01-09 10:34:08;51;1320;-1320;28
2024-01-09 10:35:06;51;1320;-1320;28
2024-01-09 10:36:08;51;1320;-1320;28
2024-01-09 10:37:06;51;1320;-1320;28
2024-01-09 10:38:08;51;1320;-1320;28
2024-01-09 10:39:05;51;1320;-1320;28
2024-01-09 10:40:07;51;1320;-1320;28
2024-01-09 10:41:05;51;1320;-1320;28
2024-01-09 10:42:07;51;1320;-1320;28
2024-01-09 10:43:04;51;1320;-1320;28
2024-01-09 10:44:07;51;1320;-1320;28
2024-01-09 10:45:04;51;1320;-1320;28
2024-01-09 10:46:06;51;1320;-1320;28
2024-01-09 10:47:08;51;1320;-1320;28
2024-01-09 10:48:06;51;1320;-1320;28
2024-01-09 10:49:08;51;1320;-1320;28
2024-01-09 10:50:05;51;1320;-1320;28
2024-01-09 10:51:08;51;1320;-1320;28
2024-01-09 10:52:05;51;1320;-1320;28
2024-01-09 10:53:07;51;1320;-1320;28
2024-01-09 10:54:05;51;1320;-1320;28
2024-01-09 10:55:07;51;1320;-1320;28
2024-01-09 10:56:04;51;1320;-1320;28
2024-01-09 10:57:06;51;1320;-1320;28
2024-01-09 10:58:08;52;1320;-1320;28
2024-01-09 10:59:06;51;1320;-1320;28
2024-01-09 11:00:07;51;1320;-1320;29
2024-01-09 11:01:05;51;1320;-1320;29
2024-01-09 11:02:07;51;1320;-1320;29
2024-01-09 11:03:02;51;1320;-1320;30
2024-01-09 11:04:09;51;1320;-1320;30
2024-01-09 11:05:07;51;1320;-1320;30
2024-01-09 11:06:01;51;1320;-1320;31
2024-01-09 11:07:08;51;1320;-1320;31
2024-01-09 11:08:05;51;1320;-1320;32
2024-01-09 11:09:06;51;1320;-1320;33
2024-01-09 11:10:06;51;1320;-1320;34
2024-01-09 11:11:08;51;1320;-1320;34
2024-01-09 11:12:02;51;1320;-1320;35
2024-01-09 11:13:09;51;1320;-1320;35
2024-01-09 11:14:06;51;1320;-1320;35
2024-01-09 11:15:05;51;1320;-1320;36
2024-01-09 11:16:07;51;1320;-1320;36
2024-01-09 11:17:05;51;1320;-1320;36
2024-01-09 11:18:07;51;1320;-1320;36
2024-01-09 11:19:04;51;1320;-1320;36
2024-01-09 11:20:06;51;1320;-1320;37
2024-01-09 11:21:08;51;1320;-1320;37
2024-01-09 11:22:05;51;1320;-1320;37
2024-01-09 11:23:07;51;1320;-1320;37
2024-01-09 11:24:02;51;1320;-1320;38
2024-01-09 11:25:09;52;1320;-1320;38
2024-01-09 11:26:06;51;1320;-1320;38
2024-01-09 11:27:08;51;1320;-1320;38
2024-01-09 11:28:06;51;1320;-1320;38
2024-01-09 11:29:08;51;1320;-1320;38
2024-01-09 11:30:05;51;1320;-1320;38
2024-01-09 11:31:07;51;1320;-1320;38
2024-01-09 11:32:05;51;1320;-1320;38
2024-01-09 11:33:07;51;1320;-1320;38
2024-01-09 11:34:05;51;1320;-1320;38
2024-01-09 11:35:07;51;1320;-1320;38
2024-01-09 11:36:04;51;1320;-1320;38
2024-01-09 11:37:03;51;1320;-1320;39
2024-01-09 11:38:05;52;1320;-1320;39
2024-01-09 11:39:07;52;1320;-1320;39
2024-01-09 11:40:05;52;1320;-1320;39
2024-01-09 11:41:07;52;1320;-1320;39
2024-01-09 11:42:05;51;1320;-1320;39
2024-01-09 11:43:07;52;1320;-1320;39
2024-01-09 11:44:04;52;1320;-1320;39
2024-01-09 11:45:06;51;1320;-1320;39
2024-01-09 11:46:08;52;1320;-1320;39
2024-01-09 11:47:06;51;1320;-1320;39
2024-01-09 11:48:08;51;1320;-1320;39
2024-01-09 11:49:06;52;1320;-1320;39
2024-01-09 11:50:08;51;1320;-1320;39
2024-01-09 11:51:05;51;1320;-1320;39
2024-01-09 11:52:07;51;1320;-1320;39
2024-01-09 11:53:05;51;1320;-1320;39
2024-01-09 11:54:07;51;1320;-1320;39
2024-01-09 11:55:05;52;1320;-1320;39
2024-01-09 11:56:07;52;1320;-1320;39
2024-01-09 11:57:04;51;1320;-1320;39
2024-01-09 11:58:07;51;1320;-1320;39
2024-01-09 11:59:04;51;1320;-1320;39
2024-01-09 12:00:06;51;1320;-1320;39
2024-01-09 12:01:08;51;1320;-1320;39
2024-01-09 12:02:06;51;1320;-1320;39
2024-01-09 12:03:08;51;1320;-1320;39
2024-01-09 12:04:06;52;1320;-1320;39
2024-01-09 12:05:08;52;1320;-1320;39
2024-01-09 12:06:05;52;1320;-1320;39
2024-01-09 12:07:07;52;1320;-1320;39
2024-01-09 12:08:05;52;1320;-1320;39
2024-01-09 12:09:07;51;1320;-1320;39
2024-01-09 12:10:05;52;1320;-1320;39
2024-01-09 12:11:07;52;1320;-1320;39
2024-01-09 12:12:04;51;1320;-1320;39
2024-01-09 12:13:07;50;1320;-1320;39
2024-01-09 12:14:04;50;1320;-1320;39
2024-01-09 12:15:06;51;1320;-1320;39
2024-01-09 12:16:08;51;1320;-1320;39
2024-01-09 12:17:06;50;1320;-1320;39
2024-01-09 12:18:08;51;1320;-1320;39
2024-01-09 12:19:06;50;1320;-1320;39
2024-01-09 12:20:08;50;1320;-1320;39
2024-01-09 12:21:06;50;1320;-1320;39
2024-01-09 12:22:08;50;1320;-1320;39
2024-01-09 12:23:06;50;1320;-1320;39
2024-01-09 12:24:08;50;1320;-1320;39
2024-01-09 12:25:05;51;1320;-1320;39
2024-01-09 12:26:08;50;1320;-1320;39
2024-01-09 12:27:05;50;1320;-1320;39
2024-01-09 12:28:07;51;1320;-1320;39
2024-01-09 12:29:05;50;1320;-1320;39
2024-01-09 12:30:07;50;1320;-1320;39
2024-01-09 12:31:05;50;1320;-1320;39
2024-01-09 12:32:07;51;1320;-1320;39
2024-01-09 12:33:05;50;1320;-1320;39
2024-01-09 12:34:07;50;1320;-1320;39
2024-01-09 12:35:05;50;1320;-1320;39
2024-01-09 12:36:07;51;1320;-1320;39
2024-01-09 12:37:05;51;1320;-1320;39
2024-01-09 12:38:07;51;1320;-1320;39
2024-01-09 12:39:04;51;1320;-1320;39
2024-01-09 12:40:07;51;1320;-1320;39
2024-01-09 12:41:04;51;1320;-1320;39
2024-01-09 12:42:06;51;1320;-1320;39
2024-01-09 12:43:09;50;1320;-1320;39
2024-01-09 12:44:06;50;1320;-1320;39
2024-01-09 12:45:09;50;1320;-1320;39
2024-01-09 12:46:06;50;1320;-1320;39
2024-01-09 12:47:08;50;1320;-1320;39
2024-01-09 12:48:06;50;1320;-1320;39
2024-01-09 12:49:08;50;1320;-1320;39
2024-01-09 12:50:06;49;1320;-1320;39
2024-01-09 12:51:08;51;1320;-1320;39
2024-01-09 12:52:06;50;1320;-1320;39
2024-01-09 12:53:08;50;1320;-1320;39
2024-01-09 12:54:06;51;1320;-1320;39
2024-01-09 12:55:08;51;1320;-1320;39
2024-01-09 12:56:06;51;1320;-1320;39
2024-01-09 12:57:08;50;1320;-1320;39
2024-01-09 12:58:06;51;1320;-1320;39
2024-01-09 12:59:08;51;1320;-1320;39
2024-01-09 13:00:06;51;1320;-1320;39
2024-01-09 13:01:08;51;1320;-1320;39
2024-01-09 13:02:06;51;1320;-1320;39
2024-01-09 13:03:08;51;1320;-1320;39
2024-01-09 13:04:06;51;1320;-1320;39
2024-01-09 13:05:08;51;1320;-1320;39
2024-01-09 13:06:06;51;1320;-1320;39
2024-01-09 13:07:08;51;1320;-1320;39
2024-01-09 13:08:06;51;1320;-1320;39
2024-01-09 13:09:08;51;1320;-1320;39
2024-01-09 13:10:06;51;1320;-1320;39
2024-01-09 13:11:08;50;1320;-1320;39
2024-01-09 13:12:06;51;1320;-1320;39
2024-01-09 13:13:08;51;1320;-1320;39
2024-01-09 13:14:06;51;1320;-1320;39
2024-01-09 13:15:08;51;1320;-1320;39
2024-01-09 13:16:06;51;1320;-1320;39
2024-01-09 13:17:08;51;1320;-1320;39
2024-01-09 13:18:06;51;1320;-1320;39
2024-01-09 13:19:08;50;1320;-1320;39
2024-01-09 13:20:06;50;1320;-1320;39
2024-01-09 13:21:08;50;1320;-1320;39
2024-01-09 13:22:06;50;1320;-1320;39
2024-01-09 13:23:08;50;1320;-1320;39
2024-01-09 13:24:06;50;1320;-1320;39
2024-01-09 13:25:08;50;1320;-1320;39
2024-01-09 13:26:06;50;1320;-1320;39
2024-01-09 13:27:08;50;1320;-1320;39
2024-01-09 13:28:06;50;1320;-1320;39
2024-01-09 13:29:08;50;1320;-1320;39
2024-01-09 13:30:06;50;1320;-1320;39
2024-01-09 13:31:08;50;1320;-1320;39
2024-01-09 13:32:06;50;1320;-1320;39
2024-01-09 13:33:09;50;1320;-1320;39
2024-01-09 13:34:06;50;1320;-1320;39
2024-01-09 13:35:09;50;1320;-1320;39
2024-01-09 13:36:06;50;1320;-1320;39
2024-01-09 13:37:09;50;1320;-1320;39
2024-01-09 13:38:06;50;1320;-1320;39
2024-01-09 13:39:09;50;1320;-1320;39
2024-01-09 13:40:07;50;1320;-1320;39
2024-01-09 13:41:04;50;1320;-1320;39
2024-01-09 13:42:07;50;1320;-1320;39
2024-01-09 13:43:04;50;1320;-1320;39
2024-01-09 13:44:07;50;1320;-1320;39
2024-01-09 13:45:05;50;1320;-1320;39
2024-01-09 13:46:07;50;1320;-1320;39
2024-01-09 13:47:05;50;1320;-1320;39
2024-01-09 13:48:07;50;1320;-1320;39
2024-01-09 13:49:05;50;1320;-1320;39
2024-01-09 13:50:07;50;1320;-1320;39
2024-01-09 13:51:05;50;1320;-1320;39
2024-01-09 13:52:07;50;1320;-1320;39
2024-01-09 13:53:05;50;1320;-1320;39
2024-01-09 13:54:07;50;1320;-1320;39
2024-01-09 13:55:05;50;1320;-1320;39
2024-01-09 13:56:07;50;1320;-1320;39
2024-01-09 13:57:05;50;1320;-1320;39
2024-01-09 13:58:07;50;1320;-1320;39
2024-01-09 13:59:05;50;1320;-1320;39
2024-01-09 14:00:08;50;1320;-1320;39
2024-01-09 14:01:05;50;1320;-1320;39
2024-01-09 14:02:08;50;1320;-1320;39
2024-01-09 14:03:05;50;1320;-1320;39
2024-01-09 14:04:08;50;1320;-1320;39
2024-01-09 14:05:05;50;1320;-1320;39
2024-01-09 14:06:08;50;1320;-1320;39
2024-01-09 14:07:06;50;1320;-1320;39
2024-01-09 14:08:08;50;1320;-1320;39
2024-01-09 14:09:06;50;1320;-1320;39
2024-01-09 14:10:08;50;1320;-1320;39
2024-01-09 14:11:06;50;1320;-1320;39
2024-01-09 14:12:08;50;1320;-1320;39
2024-01-09 14:13:06;50;1320;-1320;39
2024-01-09 14:14:08;50;1320;-1320;39
2024-01-09 14:15:06;50;1320;-1320;39
2024-01-09 14:16:08;50;1320;-1320;39
2024-01-09 14:17:06;50;1320;-1320;39
2024-01-09 14:18:08;50;1320;-1320;39
2024-01-09 14:19:06;50;1320;-1320;39
2024-01-09 14:20:09;50;1320;-1320;39
2024-01-09 14:21:06;50;1320;-1320;39
2024-01-09 14:22:09;50;1320;-1320;39
2024-01-09 14:23:06;50;1320;-1320;39
2024-01-09 14:24:09;50;1320;-1320;39
2024-01-09 14:25:07;50;1320;-1320;39
2024-01-09 14:26:04;50;1320;-1320;39
2024-01-09 14:27:07;50;1320;-1320;39
2024-01-09 14:28:05;50;1320;-1320;39
2024-01-09 14:29:07;50;1320;-1320;39
2024-01-09 14:30:05;50;1320;-1320;39
2024-01-09 14:31:07;50;1320;-1320;39
2024-01-09 14:32:05;50;1320;-1320;39
2024-01-09 14:33:07;50;1320;-1320;39
2024-01-09 14:34:05;50;1320;-1320;39
2024-01-09 14:35:07;50;1320;-1320;39
2024-01-09 14:36:05;50;1320;-1320;39
2024-01-09 14:37:08;50;1320;-1320;39
2024-01-09 14:38:05;50;1320;-1320;39
2024-01-09 14:39:08;50;1320;-1320;39
2024-01-09 14:40:06;50;1320;-1320;39
2024-01-09 14:41:08;50;1320;-1320;39
2024-01-09 14:42:06;50;1320;-1320;39
2024-01-09 14:43:08;50;1320;-1320;39
2024-01-09 14:44:06;50;1320;-1320;39
2024-01-09 14:45:08;50;1320;-1320;39
2024-01-09 14:46:06;50;1320;-1320;39
2024-01-09 14:47:08;51;1320;-1320;39
2024-01-09 14:48:06;51;1320;-1320;39
2024-01-09 14:49:08;51;1320;-1320;39
2024-01-09 14:50:06;50;1320;-1320;39
2024-01-09 14:51:09;51;1320;-1320;39
2024-01-09 14:52:06;51;1320;-1320;39
2024-01-09 14:53:09;50;1320;-1320;39
2024-01-09 14:54:06;51;1320;-1320;39
2024-01-09 14:55:09;50;1320;-1320;39
2024-01-09 14:56:07;50;1320;-1320;39
2024-01-09 14:57:04;50;1320;-1320;39
2024-01-09 14:58:07;50;1320;-1320;39
2024-01-09 14:59:05;50;1320;-1320;39
2024-01-09 15:00:07;50;1320;-1320;39
2024-01-09 15:01:05;50;1320;-1320;39
2024-01-09 15:02:07;50;1320;-1320;39
2024-01-09 15:03:05;50;1320;-1320;39
2024-01-09 15:04:07;50;1320;-1320;39
2024-01-09 15:05:05;50;1320;-1320;39
2024-01-09 15:06:07;50;1320;-1320;39
2024-01-09 15:07:05;50;1320;-1320;39
2024-01-09 15:08:08;50;1320;-1320;39
2024-01-09 15:09:05;50;1320;-1320;39
2024-01-09 15:10:08;50;1320;-1320;39
2024-01-09 15:11:06;50;1320;-1320;39
2024-01-09 15:12:08;50;1320;-1320;39
2024-01-09 15:13:06;50;1320;-1320;39
2024-01-09 15:14:08;51;1320;-1320;39
2024-01-09 15:15:06;50;1320;-1320;39
2024-01-09 15:16:08;50;1320;-1320;39
2024-01-09 15:17:06;51;1320;-1320;39
2024-01-09 15:18:09;51;1320;-1320;39
2024-01-09 15:19:07;51;1320;-1320;39
2024-01-09 15:20:04;51;1320;-1320;39
2024-01-09 15:21:07;51;1320;-1320;39
2024-01-09 15:22:05;51;1320;-1320;39
2024-01-09 15:23:07;51;1320;-1320;39
2024-01-09 15:24:05;50;1320;-1320;39
2024-01-09 15:25:07;51;1320;-1320;39
2024-01-09 15:26:05;50;1320;-1320;39
2024-01-09 15:27:08;50;1320;-1320;39
2024-01-09 15:28:06;51;1320;-1320;39
2024-01-09 15:29:08;50;1320;-1320;39
2024-01-09 15:30:06;50;1320;-1320;39
2024-01-09 15:31:08;51;1320;-1320;39
2024-01-09 15:32:06;51;1320;-1320;39
2024-01-09 15:33:09;51;1320;-1320;39
2024-01-09 15:34:07;51;1320;-1320;39
2024-01-09 15:35:05;50;1320;-1320;39
2024-01-09 15:36:07;50;1320;-1320;39
2024-01-09 15:37:05;51;1320;-1320;39
2024-01-09 15:38:07;51;1320;-1320;39
2024-01-09 15:39:05;51;1320;-1320;39
2024-01-09 15:40:08;51;1320;-1320;39
2024-01-09 15:41:06;51;1320;-1320;39
2024-01-09 15:42:08;50;1320;-1320;39
2024-01-09 15:43:06;51;1320;-1320;39
2024-01-09 15:44:09;50;1320;-1320;39
2024-01-09 15:45:07;51;1320;-1320;39
2024-01-09 15:46:04;51;1320;-1320;39
2024-01-09 15:47:07;51;1320;-1320;39
2024-01-09 15:48:05;51;1320;-1320;39
2024-01-09 15:49:07;51;1320;-1320;39
2024-01-09 15:50:05;51;1320;-1320;39
2024-01-09 15:51:08;51;1320;-1320;39
2024-01-09 15:52:05;51;1320;-1320;39
2024-01-09 15:53:08;51;1320;-1320;39
2024-01-09 15:54:06;51;1320;-1320;39
2024-01-09 15:55:08;51;1320;-1320;39
2024-01-09 15:56:06;50;1320;-1320;39
2024-01-09 15:57:09;51;1320;-1320;39
2024-01-09 15:58:07;50;1320;-1320;39
2024-01-09 15:59:04;51;1320;-1320;39
2024-01-09 16:00:07;51;1320;-1320;39
2024-01-09 16:01:05;51;1320;-1320;39
2024-01-09 16:02:07;51;1320;-1320;39
2024-01-09 16:03:05;51;1320;-1320;39
2024-01-09 16:04:08;51;1320;-1320;39
2024-01-09 16:05:06;51;1320;-1320;39
2024-01-09 16:06:08;51;1320;-1320;39
2024-01-09 16:07:06;50;1320;-1320;39
2024-01-09 16:08:09;50;1320;-1320;39
2024-01-09 16:09:06;51;1320;-1320;39
2024-01-09 16:10:09;51;1320;-1320;39
2024-01-09 16:11:07;50;1320;-1320;39
2024-01-09 16:12:05;50;1320;-1320;39
2024-01-09 16:13:07;51;1320;-1320;39
2024-01-09 16:14:05;51;1320;-1320;39
2024-01-09 16:15:08;51;1320;-1320;39
2024-01-09 16:16:06;50;1320;-1320;39
2024-01-09 16:17:08;51;1320;-1320;39
2024-01-09 16:18:06;50;1320;-1320;39
2024-01-09 16:19:09;50;1320;-1320;39
2024-01-09 16:20:06;51;1320;-1320;39
2024-01-09 16:21:04;51;1320;-1320;39
2024-01-09 16:22:07;51;1320;-1320;39
2024-01-09 16:23:05;51;1320;-1320;39
2024-01-09 16:24:07;51;1320;-1320;39
2024-01-09 16:25:05;50;1320;-1320;39
2024-01-09 16:26:08;51;1320;-1320;39
2024-01-09 16:27:06;51;1320;-1320;39
2024-01-09 16:28:08;51;1320;-1320;39
2024-01-09 16:29:06;50;1320;-1320;39
2024-01-09 16:30:09;50;1320;-1320;39
2024-01-09 16:31:06;51;1320;-1320;39
2024-01-09 16:32:09;51;1320;-1320;39
2024-01-09 16:33:07;51;1320;-1320;39
2024-01-09 16:34:05;51;1320;-1320;39
2024-01-09 16:35:07;51;1320;-1320;39
2024-01-09 16:36:05;51;1320;-1320;39
2024-01-09 16:37:08;51;1320;-1320;39
2024-01-09 16:38:06;51;1320;-1320;39
2024-01-09 16:39:08;51;1320;-1320;39
2024-01-09 16:40:06;51;1320;-1320;39
2024-01-09 16:41:08;51;1320;-1320;39
2024-01-09 16:42:06;51;1320;-1320;39
2024-01-09 16:43:09;50;1320;-1320;39
2024-01-09 16:44:07;50;1320;-1320;39
2024-01-09 16:45:05;51;1320;-1320;39
2024-01-09 16:46:07;51;1320;-1320;39
2024-01-09 16:47:05;51;1320;-1320;39
2024-01-09 16:48:08;51;1320;-1320;39
2024-01-09 16:49:05;51;1320;-1320;39
2024-01-09 16:50:08;51;1320;-1320;39
2024-01-09 16:51:06;51;1320;-1320;39
2024-01-09 16:52:08;50;1320;-1320;39
2024-01-09 16:53:06;51;1320;-1320;39
2024-01-09 16:54:09;51;1320;-1320;39
2024-01-09 16:55:07;50;1320;-1320;39
2024-01-09 16:56:04;51;1320;-1320;39
2024-01-09 16:57:07;51;1320;-1320;39
2024-01-09 16:58:05;51;1320;-1320;39
2024-01-09 16:59:07;50;1320;-1320;39
2024-01-09 17:00:05;51;1320;-1320;39
2024-01-09 17:01:08;51;1320;-1320;39
2024-01-09 17:02:06;51;1320;-1320;39
2024-01-09 17:03:08;51;1320;-1320;39
2024-01-09 17:04:06;51;1320;-1320;39
2024-01-09 17:05:09;51;1320;-1320;39
2024-01-09 17:06:06;50;1320;-1320;39
2024-01-09 17:07:09;51;1320;-1320;39
2024-01-09 17:08:07;51;1320;-1320;39
2024-01-09 17:09:05;51;1320;-1320;39
2024-01-09 17:10:07;51;1320;-1320;39
2024-01-09 17:11:05;51;1320;-1320;39
2024-01-09 17:12:08;50;1320;-1320;39
2024-01-09 17:13:05;51;1320;-1320;39
2024-01-09 17:14:08;51;1320;-1320;39
2024-01-09 17:15:06;51;1320;-1320;39
2024-01-09 17:16:08;50;1320;-1320;39
2024-01-09 17:17:06;51;1320;-1320;39
2024-01-09 17:18:09;51;1320;-1320;39
2024-01-09 17:19:07;51;1320;-1320;39
2024-01-09 17:20:04;51;1320;-1320;39
2024-01-09 17:21:07;51;1320;-1320;39
2024-01-09 17:22:05;51;1320;-1320;39
2024-01-09 17:23:07;50;1320;-1320;39
2024-01-09 17:24:05;51;1320;-1320;39
2024-01-09 17:25:08;51;1320;-1320;39
2024-01-09 17:26:06;51;1320;-1320;39
2024-01-09 17:27:08;51;1320;-1320;39
2024-01-09 17:28:06;50;1320;-1320;39
2024-01-09 17:29:08;51;1320;-1320;39
2024-01-09 17:30:06;51;1320;-1320;39
2024-01-09 17:31:09;51;1320;-1320;39
2024-01-09 17:32:07;51;1320;-1320;39
2024-01-09 17:33:05;51;1320;-1320;39
2024-01-09 17:34:07;51;1320;-1320;39
2024-01-09 17:35:05;51;1320;-1320;39
2024-01-09 17:36:07;51;1320;-1320;39
2024-01-09 17:37:05;51;1320;-1320;39
2024-01-09 17:38:08;51;1320;-1320;39
2024-01-09 17:39:06;51;1320;-1320;39
2024-01-09 17:40:08;51;1320;-1320;39
2024-01-09 17:41:06;51;1320;-1320;39
2024-01-09 17:42:09;51;1320;-1320;39
2024-01-09 17:43:06;51;1320;-1320;39
2024-01-09 17:44:09;51;1320;-1320;39
2024-01-09 17:45:07;51;1320;-1320;39
2024-01-09 17:46:05;51;1320;-1320;39
2024-01-09 17:47:07;51;1320;-1320;39
2024-01-09 17:48:05;51;1320;-1320;39
2024-01-09 17:49:07;51;1320;-1320;39
2024-01-09 17:50:05;51;1320;-1320;39
2024-01-09 17:51:08;51;1320;-1320;39
2024-01-09 17:52:06;51;1320;-1320;39
2024-01-09 17:53:08;51;1320;-1320;39
2024-01-09 17:54:06;51;1320;-1320;39
2024-01-09 17:55:09;51;1320;-1320;39
2024-01-09 17:56:06;51;1320;-1320;39
2024-01-09 17:57:09;51;1320;-1320;39
2024-01-09 17:58:07;51;1320;-1320;39
2024-01-09 17:59:05;51;1320;-1320;39
2024-01-09 18:00:07;51;1320;-1320;39
2024-01-09 18:01:05;51;1320;-1320;39
2024-01-09 18:02:07;51;1320;-1320;39
2024-01-09 18:03:05;51;1320;-1320;39
2024-01-09 18:04:08;51;1320;-1320;39
2024-01-09 18:05:06;51;1320;-1320;39
2024-01-09 18:06:08;51;1320;-1320;39
2024-01-09 18:07:06;51;1320;-1320;39
2024-01-09 18:08:09;51;1320;-1320;39
2024-01-09 18:09:06;51;1320;-1320;39
2024-01-09 18:10:09;51;1320;-1320;39
2024-01-09 18:11:07;51;1320;-1320;39
2024-01-09 18:12:05;51;1320;-1320;39
2024-01-09 18:13:07;51;1320;-1320;39
2024-01-09 18:14:05;51;1320;-1320;39
2024-01-09 18:15:07;51;1320;-1320;39
2024-01-09 18:16:05;51;1320;-1320;39
2024-01-09 18:17:08;51;1320;-1320;39
2024-01-09 18:18:06;51;1320;-1320;39
2024-01-09 18:19:08;51;1320;-1320;39
2024-01-09 18:20:06;51;1320;-1320;39
2024-01-09 18:21:08;51;1320;-1320;39
2024-01-09 18:22:06;51;1320;-1320;39
2024-01-09 18:23:09;51;1320;-1320;39
2024-01-09 18:24:07;51;1320;-1320;39
2024-01-09 18:25:04;51;1320;-1320;39
2024-01-09 18:26:07;51;1320;-1320;39
2024-01-09 18:27:05;51;1320;-1320;39
2024-01-09 18:28:07;51;1320;-1320;39
2024-01-09 18:29:05;51;1320;-1320;39
2024-01-09 18:30:08;51;1320;-1320;39
2024-01-09 18:31:05;51;1320;-1320;39
2024-01-09 18:32:08;51;1320;-1320;39
2024-01-09 18:33:06;51;1320;-1320;39
2024-01-09 18:34:08;51;1320;-1320;39
2024-01-09 18:35:06;51;1320;-1320;39
2024-01-09 18:36:08;51;1320;-1320;39
2024-01-09 18:37:06;51;1320;-1320;39
2024-01-09 18:38:09;51;1320;-1320;39
2024-01-09 18:39:06;51;1320;-1320;39
2024-01-09 18:40:09;51;1320;-1320;39
2024-01-09 18:41:07;51;1320;-1320;39
2024-01-09 18:42:04;51;1320;-1320;39
2024-01-09 18:43:07;51;1320;-1320;39
2024-01-09 18:44:05;51;1320;-1320;39
2024-01-09 18:45:07;51;1320;-1320;39
2024-01-09 18:46:05;51;1320;-1320;39
2024-01-09 18:47:07;51;1320;-1320;39
2024-01-09 18:48:05;51;1320;-1320;39
2024-01-09 18:49:07;51;1320;-1320;39
2024-01-09 18:50:05;51;1320;-1320;39
2024-01-09 18:51:07;51;1320;-1320;39
2024-01-09 18:52:05;51;1320;-1320;39
2024-01-09 18:53:07;50;1320;-1320;39
2024-01-09 18:54:05;51;1320;-1320;39
2024-01-09 18:55:07;51;1320;-1320;39
2024-01-09 18:56:05;51;1320;-1320;39
2024-01-09 18:57:07;51;1320;-1320;39
2024-01-09 18:58:05;51;1320;-1320;39
2024-01-09 18:59:07;51;1320;-1320;39
2024-01-09 19:00:05;51;1320;-1320;39
2024-01-09 19:01:07;51;1320;-1320;39
2024-01-09 19:02:05;51;1320;-1320;39
2024-01-09 19:03:07;51;1320;-1320;39
2024-01-09 19:04:05;51;1320;-1320;39
2024-01-09 19:05:07;51;1320;-1320;39
2024-01-09 19:06:05;51;1320;-1320;39
2024-01-09 19:07:07;51;1320;-1320;39
2024-01-09 19:08:05;51;1320;-1320;39
2024-01-09 19:09:07;51;1320;-1320;39
2024-01-09 19:10:05;51;1320;-1320;39
2024-01-09 19:11:07;51;1320;-1320;39
2024-01-09 19:12:05;50;1320;-1320;39
2024-01-09 19:13:07;50;1320;-1320;39
2024-01-09 19:14:05;50;1320;-1320;39
2024-01-09 19:15:07;50;1320;-1320;39
2024-01-09 19:16:05;50;1320;-1320;39
2024-01-09 19:17:07;51;1320;-1320;39
2024-01-09 19:18:04;50;1320;-1320;39
2024-01-09 19:19:07;50;1320;-1320;39
2024-01-09 19:20:04;50;1320;-1320;39
2024-01-09 19:21:07;50;1320;-1320;39
2024-01-09 19:22:04;50;1320;-1320;39
2024-01-09 19:23:06;50;1320;-1320;39
2024-01-09 19:24:09;50;1320;-1320;39
2024-01-09 19:25:06;50;1320;-1320;39
2024-01-09 19:26:09;50;1320;-1320;39
2024-01-09 19:27:06;50;1320;-1320;39
2024-01-09 19:28:08;50;1320;-1320;39
2024-01-09 19:29:06;50;1320;-1320;39
2024-01-09 19:30:08;51;1320;-1320;39
2024-01-09 19:31:06;50;1320;-1320;39
2024-01-09 19:32:08;50;1320;-1320;39
2024-01-09 19:33:06;50;1320;-1320;39
2024-01-09 19:34:08;50;1320;-1320;39
2024-01-09 19:35:06;50;1320;-1320;39
2024-01-09 19:36:08;51;1320;-1320;39
2024-01-09 19:37:06;51;1320;-1320;39
2024-01-09 19:38:08;51;1320;-1320;39
2024-01-09 19:39:05;51;1320;-1320;39
2024-01-09 19:40:08;51;1320;-1320;39
2024-01-09 19:41:05;51;1320;-1320;39
2024-01-09 19:42:07;51;1320;-1320;39
2024-01-09 19:43:05;51;1320;-1320;39
2024-01-09 19:44:07;51;1320;-1320;39
2024-01-09 19:45:05;51;1320;-1320;39
2024-01-09 19:46:07;51;1320;-1320;39
2024-01-09 19:47:05;51;1320;-1320;39
2024-01-09 19:48:07;51;1320;-1320;39
2024-01-09 19:49:05;51;1320;-1320;39
2024-01-09 19:50:07;51;1320;-1320;39
2024-01-09 19:51:04;51;1320;-1320;39
2024-01-09 19:52:07;51;1320;-1320;39
2024-01-09 19:53:04;51;1320;-1320;39
2024-01-09 19:54:06;51;1320;-1320;39
2024-01-09 19:55:09;51;1320;-1320;39
2024-01-09 19:56:06;51;1320;-1320;39
2024-01-09 19:57:08;51;1320;-1320;39
2024-01-09 19:58:06;51;1320;-1320;39
2024-01-09 19:59:08;51;1320;-1320;39
2024-01-09 20:00:06;51;1320;-1320;39
2024-01-09 20:01:08;51;1320;-1320;39
2024-01-09 20:02:05;51;1320;-1320;39
2024-01-09 20:03:08;51;1320;-1320;39
2024-01-09 20:04:05;51;1320;-1320;39
2024-01-09 20:05:07;51;1320;-1320;39
2024-01-09 20:06:05;51;1320;-1320;39
2024-01-09 20:07:07;51;1320;-1320;39
2024-01-09 20:08:05;51;1320;-1320;39
2024-01-09 20:09:07;51;1320;-1320;39
2024-01-09 20:10:05;51;1320;-1320;39
2024-01-09 20:11:07;51;1320;-1320;39
2024-01-09 20:12:04;51;1320;-1320;39
2024-01-09 20:13:06;51;1320;-1320;39
2024-01-09 20:14:09;51;1320;-1320;39
2024-01-09 20:15:06;51;1320;-1320;39
2024-01-09 20:16:08;51;1320;-1320;39
2024-01-09 20:17:06;51;1320;-1320;39
2024-01-09 20:18:08;51;1320;-1320;39
2024-01-09 20:19:06;51;1320;-1320;39
2024-01-09 20:20:08;51;1320;-1320;39
2024-01-09 20:21:05;51;1320;-1320;39
2024-01-09 20:22:08;51;1320;-1320;39
2024-01-09 20:23:05;51;1320;-1320;39
2024-01-09 20:24:07;51;1320;-1320;39
2024-01-09 20:25:05;51;1320;-1320;39
2024-01-09 20:26:07;51;1320;-1320;39
2024-01-09 20:27:05;51;1320;-1320;39
2024-01-09 20:28:07;51;1320;-1320;39
2024-01-09 20:29:04;51;1320;-1320;39
2024-01-09 20:30:06;51;1320;-1320;39
2024-01-09 20:31:09;51;1320;-1320;39
2024-01-09 20:32:06;51;1320;-1320;39
2024-01-09 20:33:08;51;1320;-1320;39
2024-01-09 20:34:06;51;1320;-1320;39
2024-01-09 20:35:08;51;1320;-1320;39
2024-01-09 20:36:05;51;1320;-1320;39
2024-01-09 20:37:08;52;1320;-1320;39
2024-01-09 20:38:05;51;1320;-1320;39
2024-01-09 20:39:07;51;1320;-1320;39
2024-01-09 20:40:05;51;1320;-1320;39
2024-01-09 20:41:07;51;1320;-1320;39
2024-01-09 20:42:05;51;1320;-1320;39
2024-01-09 20:43:07;51;1320;-1320;39
2024-01-09 20:44:04;51;1320;-1320;39
2024-01-09 20:45:06;51;1320;-1320;39
2024-01-09 20:46:09;51;1320;-1320;39
2024-01-09 20:47:06;51;1320;-1320;39
2024-01-09 20:48:08;51;1320;-1320;39
2024-01-09 20:49:06;52;1320;-1320;39
2024-01-09 20:50:08;51;1320;-1320;39
2024-01-09 20:51:05;51;1320;-1320;39
2024-01-09 20:52:08;51;1320;-1320;39
2024-01-09 20:53:05;51;1320;-1320;39
2024-01-09 20:54:07;51;1320;-1320;39
2024-01-09 20:55:05;51;1320;-1320;39
2024-01-09 20:56:07;51;1320;-1320;39
2024-01-09 20:57:04;51;1320;-1320;39
2024-01-09 20:58:07;51;1320;-1320;39
2024-01-09 20:59:04;51;1320;-1320;39
2024-01-09 21:00:06;51;1320;-1320;39
2024-01-09 21:01:08;51;1320;-1320;39
2024-01-09 21:02:06;51;1320;-1320;39
2024-01-09 21:03:08;51;1320;-1320;39
2024-01-09 21:04:06;52;1320;-1320;39
2024-01-09 21:05:08;51;1320;-1320;39
2024-01-09 21:06:05;51;1320;-1320;39
2024-01-09 21:07:07;51;1320;-1320;39
2024-01-09 21:08:05;51;1320;-1320;39
2024-01-09 21:09:07;51;1320;-1320;39
2024-01-09 21:10:05;51;1320;-1320;39
2024-01-09 21:11:07;51;1320;-1320;39
2024-01-09 21:12:04;52;1320;-1320;39
2024-01-09 21:13:07;51;1320;-1320;39
2024-01-09 21:14:04;51;1320;-1320;39
2024-01-09 21:15:06;51;1320;-1320;39
2024-01-09 21:16:08;51;1320;-1320;39
2024-01-09 21:17:06;51;1320;-1320;39
2024-01-09 21:18:08;51;1320;-1320;39
2024-01-09 21:19:06;51;1320;-1320;39
2024-01-09 21:20:08;51;1320;-1320;39
2024-01-09 21:21:05;51;1320;-1320;39
2024-01-09 21:22:07;51;1320;-1320;39
2024-01-09 21:23:05;51;1320;-1320;39
2024-01-09 21:24:07;51;1320;-1320;39
2024-01-09 21:25:05;51;1320;-1320;39
2024-01-09 21:26:07;51;1320;-1320;39
2024-01-09 21:27:04;51;1320;-1320;39
2024-01-09 21:28:06;51;1320;-1320;39
2024-01-09 21:29:09;51;1320;-1320;39
2024-01-09 21:30:06;51;1320;-1320;39
2024-01-09 21:31:08;52;1320;-1320;39
2024-01-09 21:32:06;52;1320;-1320;39
2024-01-09 21:33:08;51;1320;-1320;39
2024-01-09 21:34:05;51;1320;-1320;39
2024-01-09 21:35:08;51;1320;-1320;39
2024-01-09 21:36:05;51;1320;-1320;39
2024-01-09 21:37:07;51;1320;-1320;39
2024-01-09 21:38:05;51;1320;-1320;39
2024-01-09 21:39:07;51;1320;-1320;39
2024-01-09 21:40:04;51;1320;-1320;39
2024-01-09 21:41:07;51;1320;-1320;39
2024-01-09 21:42:04;51;1320;-1320;39
2024-01-09 21:43:06;51;1320;-1320;39
2024-01-09 21:44:08;51;1320;-1320;39
2024-01-09 21:45:06;51;1320;-1320;39
2024-01-09 21:46:08;51;1320;-1320;39
2024-01-09 21:47:06;51;1320;-1320;39
2024-01-09 21:48:08;51;1320;-1320;39
2024-01-09 21:49:05;51;1320;-1320;39
2024-01-09 21:50:07;51;1320;-1320;39
2024-01-09 21:51:05;51;1320;-1320;39
2024-01-09 21:52:07;51;1320;-1320;39
2024-01-09 21:53:05;51;1320;-1320;39
2024-01-09 21:54:07;51;1320;-1320;39
2024-01-09 21:55:04;51;1320;-1320;39
2024-01-09 21:56:06;51;1320;-1320;39
2024-01-09 21:57:08;51;1320;-1320;39
2024-01-09 21:58:06;52;1320;-1320;39
2024-01-09 21:59:08;51;1320;-1320;39
2024-01-09 22:00:06;51;1320;-1320;39
2024-01-09 22:01:08;51;1320;-1320;39
2024-01-09 22:02:05;51;1320;-1320;39
2024-01-09 22:03:07;51;1320;-1320;39
2024-01-09 22:04:05;51;1320;-1320;39
2024-01-09 22:05:07;51;1320;-1320;39
2024-01-09 22:06:05;51;1320;-1320;39
2024-01-09 22:07:07;51;1320;-1320;39
2024-01-09 22:08:04;51;1320;-1320;39
2024-01-09 22:09:06;51;1320;-1320;39
2024-01-09 22:10:09;51;1320;-1320;39
2024-01-09 22:11:06;51;1320;-1320;39
2024-01-09 22:12:08;51;1320;-1320;39
2024-01-09 22:13:06;51;1320;-1320;39
2024-01-09 22:14:08;51;1320;-1320;39
2024-01-09 22:15:05;51;1320;-1320;39
2024-01-09 22:16:08;51;1320;-1320;39
2024-01-09 22:17:05;51;1320;-1320;39
2024-01-09 22:18:07;51;1320;-1320;39
2024-01-09 22:19:05;51;1320;-1320;39
2024-01-09 22:20:07;51;1320;-1320;39
2024-01-09 22:21:04;51;1320;-1320;39
2024-01-09 22:22:07;51;1320;-1320;39
2024-01-09 22:23:04;51;1320;-1320;39
2024-01-09 22:24:06;51;1320;-1320;39
2024-01-09 22:25:08;52;1320;-1320;39
2024-01-09 22:26:06;51;1320;-1320;39
2024-01-09 22:27:08;51;1320;-1320;39
2024-01-09 22:28:05;51;1320;-1320;39
2024-01-09 22:29:08;51;1320;-1320;39
2024-01-09 22:30:05;51;1320;-1320;39
2024-01-09 22:31:07;51;1320;-1320;39
2024-01-09 22:32:05;51;1320;-1320;39
2024-01-09 22:33:07;51;1320;-1320;39
2024-01-09 22:34:04;51;1320;-1320;39
2024-01-09 22:35:07;51;1320;-1320;39
2024-01-09 22:36:04;51;1320;-1320;39
2024-01-09 22:37:06;51;1320;-1320;39
2024-01-09 22:38:08;51;1320;-1320;39
2024-01-09 22:39:06;51;1320;-1320;39
2024-01-09 22:40:08;51;1320;-1320;39
2024-01-09 22:41:06;51;1320;-1320;39
2024-01-09 22:42:08;51;1320;-1320;39
2024-01-09 22:43:05;51;1320;-1320;39
2024-01-09 22:44:07;51;1320;-1320;39
2024-01-09 22:45:05;51;1320;-1320;39
2024-01-09 22:46:07;51;1320;-1320;39
2024-01-09 22:47:05;51;1320;-1320;39
2024-01-09 22:48:07;51;1320;-1320;39
2024-01-09 22:49:04;51;1320;-1320;39
2024-01-09 22:50:06;51;1320;-1320;39
2024-01-09 22:51:08;51;1320;-1320;39
2024-01-09 22:52:06;52;1320;-1320;39
2024-01-09 22:53:08;51;1320;-1320;39
2024-01-09 22:54:06;51;1320;-1320;39
2024-01-09 22:55:08;51;1320;-1320;39
2024-01-09 22:56:05;51;1320;-1320;39
2024-01-09 22:57:07;51;1320;-1320;39
2024-01-09 22:58:05;51;1320;-1320;39
2024-01-09 22:59:07;51;1320;-1320;39
2024-01-09 23:00:04;51;1320;-1320;39
2024-01-09 23:01:07;51;1320;-1320;39
2024-01-09 23:02:04;51;1320;-1320;39
2024-01-09 23:03:06;51;1320;-1320;39
2024-01-09 23:04:08;51;1320;-1320;39
2024-01-09 23:05:06;51;1320;-1320;39
2024-01-09 23:06:08;51;1320;-1320;39
2024-01-09 23:07:06;51;1320;-1320;39
2024-01-09 23:08:08;51;1320;-1320;39
2024-01-09 23:09:05;51;1320;-1320;39
2024-01-09 23:10:07;52;1320;-1320;39
2024-01-09 23:11:05;51;1320;-1320;39
2024-01-09 23:12:07;51;1320;-1320;39
2024-01-09 23:13:04;51;1320;-1320;39
2024-01-09 23:14:07;51;1320;-1320;39
2024-01-09 23:15:04;51;1320;-1320;39
2024-01-09 23:16:06;51;1320;-1320;39
2024-01-09 23:17:08;51;1320;-1320;39
2024-01-09 23:18:06;51;1320;-1320;39
2024-01-09 23:19:08;52;1320;-1320;39
2024-01-09 23:20:05;51;1320;-1320;39
2024-01-09 23:21:07;51;1320;-1320;39
2024-01-09 23:22:05;51;1320;-1320;39
2024-01-09 23:23:07;51;1320;-1320;39
2024-01-09 23:24:05;51;1320;-1320;39
2024-01-09 23:25:07;51;1320;-1320;39
2024-01-09 23:26:04;52;1320;-1320;39
2024-01-09 23:27:06;51;1320;-1320;39
2024-01-09 23:28:08;51;1320;-1320;39
2024-01-09 23:29:06;52;1320;-1320;39
2024-01-09 23:30:08;51;1320;-1320;39
2024-01-09 23:31:06;52;1320;-1320;39
2024-01-09 23:32:08;51;1320;-1320;39
2024-01-09 23:33:05;52;1320;-1320;39
2024-01-09 23:34:07;52;1320;-1320;39
2024-01-09 23:35:05;51;1320;-1320;39
2024-01-09 23:36:07;51;1320;-1320;39
2024-01-09 23:37:04;51;1320;-1320;39
2024-01-09 23:38:06;51;1320;-1320;39
2024-01-09 23:39:09;51;1320;-1320;39
2024-01-09 23:40:06;51;1320;-1320;39
2024-01-09 23:41:08;51;1320;-1320;39
2024-01-09 23:42:06;52;1320;-1320;39
2024-01-09 23:43:08;52;1320;-1320;39
2024-01-09 23:44:05;51;1320;-1320;39
2024-01-09 23:45:07;52;1320;-1320;39
2024-01-09 23:46:05;52;1320;-1320;39
2024-01-09 23:47:07;51;1320;-1320;39
2024-01-09 23:48:04;51;1320;-1320;39
2024-01-09 23:49:07;52;1320;-1320;39
2024-01-09 23:50:04;51;1320;-1320;39
2024-01-09 23:51:06;52;1320;-1320;39
2024-01-09 23:52:08;52;1320;-1320;39
2024-01-09 23:53:06;51;1320;-1320;39
2024-01-09 23:54:08;52;1320;-1320;39
2024-01-09 23:55:05;52;1320;-1320;39
2024-01-09 23:56:07;52;1320;-1320;39
2024-01-09 23:57:05;51;1320;-1320;39
2024-01-09 23:58:07;52;1320;-1320;39
2024-01-09 23:59:04;52;1320;-1320;39
