2024-03-29 00:00:06;100;1320;-1320;0
2024-03-29 00:01:08;100;1320;-1320;0
2024-03-29 00:02:05;100;1320;-1320;0
2024-03-29 00:03:07;100;1320;-1320;0
2024-03-29 00:04:05;100;1320;-1320;0
2024-03-29 00:05:07;100;1320;-1320;0
2024-03-29 00:06:04;100;1320;-1320;0
2024-03-29 00:07:06;100;1320;-1320;0
2024-03-29 00:08:08;100;1320;-1320;0
2024-03-29 00:09:06;100;1320;-1320;0
2024-03-29 00:10:08;100;1320;-1320;0
2024-03-29 00:11:05;100;1320;-1320;0
2024-03-29 00:12:07;100;1320;-1320;0
2024-03-29 00:13:04;100;1320;-1320;0
2024-03-29 00:14:06;100;1320;-1320;0
2024-03-29 00:15:08;100;1320;-1320;0
2024-03-29 00:16:06;100;1320;-1320;0
2024-03-29 00:17:08;100;1320;-1320;0
2024-03-29 00:18:05;100;1320;-1320;0
2024-03-29 00:19:07;100;1320;-1320;0
2024-03-29 00:20:04;100;1320;-1320;0
2024-03-29 00:21:06;100;1320;-1320;0
2024-03-29 00:22:04;100;1320;-1320;0
2024-03-29 00:23:06;100;1320;-1320;0
2024-03-29 00:24:08;100;1320;-1320;0
2024-03-29 00:25:05;100;1320;-1320;0
2024-03-29 00:26:07;100;1320;-1320;0
2024-03-29 00:27:05;100;1320;-1320;0
2024-03-29 00:28:07;100;1320;-1320;0
2024-03-29 00:29:04;100;1320;-1320;0
2024-03-29 00:30:06;100;1320;-1320;0
2024-03-29 00:31:08;100;1320;-1320;0
2024-03-29 00:32:06;100;1320;-1320;0
2024-03-29 00:33:07;100;1320;-1320;0
2024-03-29 00:34:05;100;1320;-1320;0
2024-03-29 00:35:07;100;1320;-1320;0
2024-03-29 00:36:04;100;1320;-1320;0
2024-03-29 00:37:06;100;1320;-1320;0
2024-03-29 00:38:08;100;1320;-1320;0
2024-03-29 00:39:06;100;1320;-1320;0
2024-03-29 00:40:08;100;1320;-1320;0
2024-03-29 00:41:05;100;1320;-1320;0
2024-03-29 00:42:07;100;1320;-1320;0
2024-03-29 00:43:04;100;1320;-1320;0
2024-03-29 00:44:06;100;1320;-1320;0
2024-03-29 00:45:08;100;1320;-1320;0
2024-03-29 00:46:06;100;1320;-1320;0
2024-03-29 00:47:08;100;1320;-1320;0
2024-03-29 00:48:05;100;1320;-1320;0
2024-03-29 00:49:07;100;1320;-1320;0
2024-03-29 00:50:05;100;1320;-1320;0
2024-03-29 00:51:07;100;1320;-1320;0
2024-03-29 00:52:04;100;1320;-1320;0
2024-03-29 00:53:06;100;1320;-1320;0
2024-03-29 00:54:08;100;1320;-1320;0
2024-03-29 00:55:05;100;1320;-1320;0
2024-03-29 00:56:07;100;1320;-1320;0
2024-03-29 00:57:05;100;1320;-1320;0
2024-03-29 00:58:07;100;1320;-1320;0
2024-03-29 00:59:04;100;1320;-1320;0
2024-03-29 01:00:06;100;1320;-1320;0
2024-03-29 01:01:08;100;1320;-1320;0
2024-03-29 01:02:06;100;1320;-1320;0
2024-03-29 01:03:08;100;1320;-1320;0
2024-03-29 01:04:05;100;1320;-1320;0
2024-03-29 01:05:07;100;1320;-1320;0
2024-03-29 01:06:04;100;1320;-1320;0
2024-03-29 01:07:06;100;1320;-1320;0
2024-03-29 01:08:08;100;1320;-1320;0
2024-03-29 01:09:06;100;1320;-1320;0
2024-03-29 01:10:08;100;1320;-1320;0
2024-03-29 01:11:05;100;1320;-1320;0
2024-03-29 01:12:07;100;1320;-1320;0
2024-03-29 01:13:04;100;1320;-1320;0
2024-03-29 01:14:06;100;1320;-1320;0
2024-03-29 01:15:08;100;1320;-1320;0
2024-03-29 01:16:06;100;1320;-1320;0
2024-03-29 01:17:08;100;1320;-1320;0
2024-03-29 01:18:05;100;1320;-1320;0
2024-03-29 01:19:07;100;1320;-1320;0
2024-03-29 01:20:05;100;1320;-1320;0
2024-03-29 01:21:07;100;1320;-1320;0
2024-03-29 01:22:04;100;1320;-1320;0
2024-03-29 01:23:06;100;1320;-1320;0
2024-03-29 01:24:08;100;1320;-1320;0
2024-03-29 01:25:05;100;1320;-1320;0
2024-03-29 01:26:07;100;1320;-1320;0
2024-03-29 01:27:05;100;1320;-1320;0
2024-03-29 01:28:07;100;1320;-1320;0
2024-03-29 01:29:04;100;1320;-1320;0
2024-03-29 01:30:06;100;1320;-1320;0
2024-03-29 01:31:08;100;1320;-1320;0
2024-03-29 01:32:05;100;1320;-1320;0
2024-03-29 01:33:07;100;1320;-1320;0
2024-03-29 01:34:05;100;1320;-1320;0
2024-03-29 01:35:07;100;1320;-1320;0
2024-03-29 01:36:04;100;1320;-1320;0
2024-03-29 01:37:06;100;1320;-1320;0
2024-03-29 01:38:08;100;1320;-1320;0
2024-03-29 01:39:05;100;1320;-1320;0
2024-03-29 01:40:07;100;1320;-1320;0
2024-03-29 01:41:05;100;1320;-1320;0
2024-03-29 01:42:07;100;1320;-1320;0
2024-03-29 01:43:04;100;1320;-1320;0
2024-03-29 01:44:06;100;1320;-1320;0
2024-03-29 01:45:08;100;1320;-1320;0
2024-03-29 01:46:05;100;1320;-1320;0
2024-03-29 01:47:07;100;1320;-1320;0
2024-03-29 01:48:05;100;1320;-1320;0
2024-03-29 01:49:07;100;1320;-1320;0
2024-03-29 01:50:04;100;1320;-1320;0
2024-03-29 01:51:06;100;1320;-1320;0
2024-03-29 01:52:08;100;1320;-1320;0
2024-03-29 01:53:05;100;1320;-1320;0
2024-03-29 01:54:07;100;1320;-1320;0
2024-03-29 01:55:05;100;1320;-1320;0
2024-03-29 01:56:07;100;1320;-1320;0
2024-03-29 01:57:04;100;1320;-1320;0
2024-03-29 01:58:06;100;1320;-1320;0
2024-03-29 01:59:08;100;1320;-1320;0
2024-03-29 02:00:05;100;1320;-1320;0
2024-03-29 02:01:07;100;1320;-1320;0
2024-03-29 02:02:05;100;1320;-1320;0
2024-03-29 02:03:07;100;1320;-1320;0
2024-03-29 02:04:04;100;1320;-1320;0
2024-03-29 02:05:06;100;1320;-1320;0
2024-03-29 02:06:08;100;1320;-1320;0
2024-03-29 02:07:05;100;1320;-1320;0
2024-03-29 02:08:07;100;1320;-1320;0
2024-03-29 02:09:05;100;1320;-1320;0
2024-03-29 02:10:07;100;1320;-1320;0
2024-03-29 02:11:04;100;1320;-1320;0
2024-03-29 02:12:06;100;1320;-1320;0
2024-03-29 02:13:08;100;1320;-1320;0
2024-03-29 02:14:05;100;1320;-1320;0
2024-03-29 02:15:07;100;1320;-1320;0
2024-03-29 02:16:05;100;1320;-1320;0
2024-03-29 02:17:07;100;1320;-1320;0
2024-03-29 02:18:04;100;1320;-1320;0
2024-03-29 02:19:06;100;1320;-1320;0
2024-03-29 02:20:08;100;1320;-1320;0
2024-03-29 02:21:05;100;1320;-1320;0
2024-03-29 02:22:07;100;1320;-1320;0
2024-03-29 02:23:04;100;1320;-1320;0
2024-03-29 02:24:06;100;1320;-1320;0
2024-03-29 02:25:08;100;1320;-1320;0
2024-03-29 02:26:06;100;1320;-1320;0
2024-03-29 02:27:08;100;1320;-1320;0
2024-03-29 02:28:05;100;1320;-1320;0
2024-03-29 02:29:07;100;1320;-1320;0
2024-03-29 02:30:04;100;1320;-1320;0
2024-03-29 02:31:06;100;1320;-1320;0
2024-03-29 02:32:08;100;1320;-1320;0
2024-03-29 02:33:06;100;1320;-1320;0
2024-03-29 02:34:07;100;1320;-1320;0
2024-03-29 02:35:05;100;1320;-1320;0
2024-03-29 02:36:07;100;1320;-1320;0
2024-03-29 02:37:04;100;1320;-1320;0
2024-03-29 02:38:06;100;1320;-1320;0
2024-03-29 02:39:08;100;1320;-1320;0
2024-03-29 02:40:05;100;1320;-1320;0
2024-03-29 02:41:07;100;1320;-1320;0
2024-03-29 02:42:05;100;1320;-1320;0
2024-03-29 02:43:07;100;1320;-1320;0
2024-03-29 02:44:04;100;1320;-1320;0
2024-03-29 02:45:06;100;1320;-1320;0
2024-03-29 02:46:08;100;1320;-1320;0
2024-03-29 02:47:05;100;1320;-1320;0
2024-03-29 02:48:07;100;1320;-1320;0
2024-03-29 02:49:05;100;1320;-1320;0
2024-03-29 02:50:07;100;1320;-1320;0
2024-03-29 02:51:04;100;1320;-1320;0
2024-03-29 02:52:06;100;1320;-1320;0
2024-03-29 02:53:08;100;1320;-1320;0
2024-03-29 02:54:05;100;1320;-1320;0
2024-03-29 02:55:07;100;1320;-1320;0
2024-03-29 02:56:04;100;1320;-1320;0
2024-03-29 02:57:06;100;1320;-1320;0
2024-03-29 02:58:08;100;1320;-1320;0
2024-03-29 02:59:06;100;1320;-1320;0
2024-03-29 03:00:08;100;1320;-1320;0
2024-03-29 03:01:05;100;1320;-1320;0
2024-03-29 03:02:07;100;1320;-1320;0
2024-03-29 03:03:04;100;1320;-1320;0
2024-03-29 03:04:06;100;1320;-1320;0
2024-03-29 03:05:08;100;1320;-1320;0
2024-03-29 03:06:06;100;1320;-1320;0
2024-03-29 03:07:08;100;1320;-1320;0
2024-03-29 03:08:05;100;1320;-1320;0
2024-03-29 03:09:07;100;1320;-1320;0
2024-03-29 03:10:04;100;1320;-1320;0
2024-03-29 03:11:06;100;1320;-1320;0
2024-03-29 03:12:08;100;1320;-1320;0
2024-03-29 03:13:06;100;1320;-1320;0
2024-03-29 03:14:07;100;1320;-1320;0
2024-03-29 03:15:05;100;1320;-1320;0
2024-03-29 03:16:07;100;1320;-1320;0
2024-03-29 03:17:04;100;1320;-1320;0
2024-03-29 03:18:06;100;1320;-1320;0
2024-03-29 03:19:08;100;1320;-1320;0
2024-03-29 03:20:05;100;1320;-1320;0
2024-03-29 03:21:07;100;1320;-1320;0
2024-03-29 03:22:05;100;1320;-1320;0
2024-03-29 03:23:07;100;1320;-1320;0
2024-03-29 03:24:04;100;1320;-1320;0
2024-03-29 03:25:06;100;1320;-1320;0
2024-03-29 03:26:08;100;1320;-1320;0
2024-03-29 03:27:05;100;1320;-1320;0
2024-03-29 03:28:07;100;1320;-1320;0
2024-03-29 03:29:05;100;1320;-1320;0
2024-03-29 03:30:07;100;1320;-1320;0
2024-03-29 03:31:04;100;1320;-1320;0
2024-03-29 03:32:06;100;1320;-1320;0
2024-03-29 03:33:08;100;1320;-1320;0
2024-03-29 03:34:05;100;1320;-1320;0
2024-03-29 03:35:07;100;1320;-1320;0
2024-03-29 03:36:05;100;1320;-1320;0
2024-03-29 03:37:07;100;1320;-1320;0
2024-03-29 03:38:04;100;1320;-1320;0
2024-03-29 03:39:06;100;1320;-1320;0
2024-03-29 03:40:08;100;1320;-1320;0
2024-03-29 03:41:05;100;1320;-1320;0
2024-03-29 03:42:07;100;1320;-1320;0
2024-03-29 03:43:05;100;1320;-1320;0
2024-03-29 03:44:07;100;1320;-1320;0
2024-03-29 03:45:04;100;1320;-1320;0
2024-03-29 03:46:06;100;1320;-1320;0
2024-03-29 03:47:08;100;1320;-1320;0
2024-03-29 03:48:05;100;1320;-1320;0
2024-03-29 03:49:07;100;1320;-1320;0
2024-03-29 03:50:05;100;1320;-1320;0
2024-03-29 03:51:07;100;1320;-1320;0
2024-03-29 03:52:04;100;1320;-1320;0
2024-03-29 03:53:06;100;1320;-1320;0
2024-03-29 03:54:08;100;1320;-1320;0
2024-03-29 03:55:05;100;1320;-1320;0
2024-03-29 03:56:07;100;1320;-1320;0
2024-03-29 03:57:04;100;1320;-1320;0
2024-03-29 03:58:06;100;1320;-1320;0
2024-03-29 03:59:08;100;1320;-1320;0
2024-03-29 04:00:06;100;1320;-1320;0
2024-03-29 04:01:08;100;1320;-1320;0
2024-03-29 04:02:05;100;1320;-1320;0
2024-03-29 04:03:07;100;1320;-1320;0
2024-03-29 04:04:04;100;1320;-1320;0
2024-03-29 04:05:06;100;1320;-1320;0
2024-03-29 04:06:08;100;1320;-1320;0
2024-03-29 04:07:06;100;1320;-1320;0
2024-03-29 04:08:08;100;1320;-1320;0
2024-03-29 04:09:05;100;1320;-1320;0
2024-03-29 04:10:07;100;1320;-1320;0
2024-03-29 04:11:04;100;1320;-1320;0
2024-03-29 04:12:06;100;1320;-1320;0
2024-03-29 04:13:08;100;1320;-1320;0
2024-03-29 04:14:05;100;1320;-1320;0
2024-03-29 04:15:07;100;1320;-1320;0
2024-03-29 04:16:05;100;1320;-1320;0
2024-03-29 04:17:07;100;1320;-1320;0
2024-03-29 04:18:04;100;1320;-1320;0
2024-03-29 04:19:06;100;1320;-1320;0
2024-03-29 04:20:08;100;1320;-1320;0
2024-03-29 04:21:05;100;1320;-1320;0
2024-03-29 04:22:07;100;1320;-1320;0
2024-03-29 04:23:05;100;1320;-1320;0
2024-03-29 04:24:07;100;1320;-1320;0
2024-03-29 04:25:04;100;1320;-1320;0
2024-03-29 04:26:06;100;1320;-1320;0
2024-03-29 04:27:08;100;1320;-1320;0
2024-03-29 04:28:05;100;1320;-1320;0
2024-03-29 04:29:07;100;1320;-1320;0
2024-03-29 04:30:05;100;1320;-1320;0
2024-03-29 04:31:06;100;1320;-1320;0
2024-03-29 04:32:08;100;1320;-1320;0
2024-03-29 04:33:06;100;1320;-1320;0
2024-03-29 04:34:08;100;1320;-1320;0
2024-03-29 04:35:05;100;1320;-1320;0
2024-03-29 04:36:07;100;1320;-1320;0
2024-03-29 04:37:04;100;1320;-1320;0
2024-03-29 04:38:06;100;1320;-1320;0
2024-03-29 04:39:08;100;1320;-1320;0
2024-03-29 04:40:06;100;1320;-1320;0
2024-03-29 04:41:08;100;1320;-1320;0
2024-03-29 04:42:05;100;1320;-1320;0
2024-03-29 04:43:07;100;1320;-1320;0
2024-03-29 04:44:04;100;1320;-1320;0
2024-03-29 04:45:06;100;1320;-1320;0
2024-03-29 04:46:08;100;1320;-1320;0
2024-03-29 04:47:05;100;1320;-1320;0
2024-03-29 04:48:07;100;1320;-1320;0
2024-03-29 04:49:05;100;1320;-1320;0
2024-03-29 04:50:07;100;1320;-1320;0
2024-03-29 04:51:04;100;1320;-1320;0
2024-03-29 04:52:06;100;1320;-1320;0
2024-03-29 04:53:08;100;1320;-1320;0
2024-03-29 04:54:05;100;1320;-1320;0
2024-03-29 04:55:07;100;1320;-1320;0
2024-03-29 04:56:05;100;1320;-1320;0
2024-03-29 04:57:06;100;1320;-1320;0
2024-03-29 04:58:04;100;1320;-1320;0
2024-03-29 04:59:06;100;1320;-1320;0
2024-03-29 05:00:08;100;1320;-1320;0
2024-03-29 05:01:05;100;1320;-1320;0
2024-03-29 05:02:07;100;1320;-1320;0
2024-03-29 05:03:04;100;1320;-1320;0
2024-03-29 05:04:06;100;1320;-1320;0
2024-03-29 05:05:08;100;1320;-1320;0
2024-03-29 05:06:06;100;1320;-1320;0
2024-03-29 05:07:08;100;1320;-1320;0
2024-03-29 05:08:05;100;1320;-1320;0
2024-03-29 05:09:07;100;1320;-1320;0
2024-03-29 05:10:04;100;1320;-1320;0
2024-03-29 05:11:06;100;1320;-1320;0
2024-03-29 05:12:08;100;1320;-1320;0
2024-03-29 05:13:05;100;1320;-1320;0
2024-03-29 05:14:07;100;1320;-1320;0
2024-03-29 05:15:05;100;1320;-1320;0
2024-03-29 05:16:07;100;1320;-1320;0
2024-03-29 05:17:04;100;1320;-1320;0
2024-03-29 05:18:06;100;1320;-1320;0
2024-03-29 05:19:08;100;1320;-1320;0
2024-03-29 05:20:05;100;1320;-1320;0
2024-03-29 05:21:07;100;1320;-1320;0
2024-03-29 05:22:05;100;1320;-1320;0
2024-03-29 05:23:06;100;1320;-1320;0
2024-03-29 05:24:08;100;1320;-1320;0
2024-03-29 05:25:06;100;1320;-1320;0
2024-03-29 05:26:08;100;1320;-1320;0
2024-03-29 05:27:05;100;1320;-1320;0
2024-03-29 05:28:07;100;1320;-1320;0
2024-03-29 05:29:04;100;1320;-1320;0
2024-03-29 05:30:06;100;1320;-1320;0
2024-03-29 05:31:08;100;1320;-1320;0
2024-03-29 05:32:06;100;1320;-1320;0
2024-03-29 05:33:07;100;1320;-1320;0
2024-03-29 05:34:05;100;1320;-1320;0
2024-03-29 05:35:07;100;1320;-1320;0
2024-03-29 05:36:04;100;1320;-1320;0
2024-03-29 05:37:06;100;1320;-1320;0
2024-03-29 05:38:08;100;1320;-1320;0
2024-03-29 05:39:05;100;1320;-1320;0
2024-03-29 05:40:07;100;1320;-1320;0
2024-03-29 05:41:05;100;1320;-1320;0
2024-03-29 05:42:07;100;1320;-1320;0
2024-03-29 05:43:04;100;1320;-1320;0
2024-03-29 05:44:06;100;1320;-1320;0
2024-03-29 05:45:08;100;1320;-1320;0
2024-03-29 05:46:05;100;1320;-1320;0
2024-03-29 05:47:07;100;1320;-1320;0
2024-03-29 05:48:04;100;1320;-1320;0
2024-03-29 05:49:06;100;1320;-1320;0
2024-03-29 05:50:08;100;1320;-1320;0
2024-03-29 05:51:06;100;1320;-1320;0
2024-03-29 05:52:08;100;1320;-1320;0
2024-03-29 05:53:05;100;1320;-1320;0
2024-03-29 05:54:07;100;1320;-1320;0
2024-03-29 05:55:04;100;1320;-1320;0
2024-03-29 05:56:06;100;1320;-1320;0
2024-03-29 05:57:08;100;1320;-1320;0
2024-03-29 05:58:05;100;1320;-1320;0
2024-03-29 05:59:07;100;1320;-1320;0
2024-03-29 06:00:05;100;1320;-1320;0
2024-03-29 06:01:07;100;1320;-1320;0
2024-03-29 06:02:04;100;1320;-1320;0
2024-03-29 06:03:06;100;1320;-1320;0
2024-03-29 06:04:08;100;1320;-1320;0
2024-03-29 06:05:05;100;1320;-1320;0
2024-03-29 06:06:07;100;1320;-1320;0
2024-03-29 06:07:05;100;1320;-1320;0
2024-03-29 06:08:07;100;1320;-1320;0
2024-03-29 06:09:04;100;1320;-1320;0
2024-03-29 06:10:06;100;1320;-1320;0
2024-03-29 06:11:08;100;1320;-1320;0
2024-03-29 06:12:05;100;1320;-1320;0
2024-03-29 06:13:07;100;1320;-1320;0
2024-03-29 06:14:04;100;1320;-1320;0
2024-03-29 06:15:06;100;1320;-1320;0
2024-03-29 06:16:08;100;1320;-1320;0
2024-03-29 06:17:06;100;1320;-1320;0
2024-03-29 06:18:08;100;1320;-1320;0
2024-03-29 06:19:05;100;1320;-1320;0
2024-03-29 06:20:07;100;1320;-1320;0
2024-03-29 06:21:04;100;1320;-1320;0
2024-03-29 06:22:06;100;1320;-1320;0
2024-03-29 06:23:08;100;1320;-1320;0
2024-03-29 06:24:06;100;1320;-1320;0
2024-03-29 06:25:07;100;1320;-1320;0
2024-03-29 06:26:05;100;1320;-1320;0
2024-03-29 06:27:07;100;1320;-1320;0
2024-03-29 06:28:04;100;1320;-1320;0
2024-03-29 06:29:06;100;1320;-1320;0
2024-03-29 06:30:08;100;1320;-1320;0
2024-03-29 06:31:05;100;1320;-1320;0
2024-03-29 06:32:07;100;1320;-1320;0
2024-03-29 06:33:05;100;1320;-1320;0
2024-03-29 06:34:07;100;1320;-1320;0
2024-03-29 06:35:04;100;1320;-1320;0
2024-03-29 06:36:06;100;1320;-1320;0
2024-03-29 06:37:08;100;1320;-1320;0
2024-03-29 06:38:05;100;1320;-1320;0
2024-03-29 06:39:07;100;1320;-1320;0
2024-03-29 06:40:04;100;1320;-1320;0
2024-03-29 06:41:06;100;1320;-1320;0
2024-03-29 06:42:08;100;1320;-1320;0
2024-03-29 06:43:06;100;1320;-1320;0
2024-03-29 06:44:08;100;1320;-1320;0
2024-03-29 06:45:05;100;1320;-1320;0
2024-03-29 06:46:07;100;1320;-1320;0
2024-03-29 06:47:04;100;1320;-1320;0
2024-03-29 06:48:06;100;1320;-1320;0
2024-03-29 06:49:08;100;1320;-1320;0
2024-03-29 06:50:05;100;1320;-1320;0
2024-03-29 06:51:07;100;1236;-1236;0
2024-03-29 06:52:05;100;1279;-1279;0
2024-03-29 06:53:07;100;1320;-1320;0
2024-03-29 06:54:04;100;1320;-1320;0
2024-03-29 06:55:06;100;1320;-1320;0
2024-03-29 06:56:08;100;1155;-1155;0
2024-03-29 06:57:05;100;1320;-1320;0
2024-03-29 06:58:07;100;1237;-1237;0
2024-03-29 06:59:05;100;1320;-1320;0
2024-03-29 07:00:06;100;1067;-1067;0
2024-03-29 07:01:08;100;732;-732;0
2024-03-29 07:02:06;100;737;-737;0
2024-03-29 07:03:08;100;732;-732;0
2024-03-29 07:04:05;100;62;-62;0
2024-03-29 07:05:07;100;-3960;3960;0
2024-03-29 07:06:04;100;-3960;3960;0
2024-03-29 07:07:06;100;-3960;3960;0
2024-03-29 07:08:08;100;-3960;3960;0
2024-03-29 07:09:05;100;-3960;3960;0
2024-03-29 07:10:07;100;-3960;3960;0
2024-03-29 07:11:05;100;-3960;3960;0
2024-03-29 07:12:07;100;-3960;3960;0
2024-03-29 07:13:04;100;-3960;3960;0
2024-03-29 07:14:06;100;-3960;3960;0
2024-03-29 07:15:08;100;-3960;3960;0
2024-03-29 07:16:05;100;-3960;3960;0
2024-03-29 07:17:07;100;-3960;3960;0
2024-03-29 07:18:04;100;-3960;3960;0
2024-03-29 07:19:06;100;-3960;3960;0
2024-03-29 07:20:08;100;-3960;3960;0
2024-03-29 07:21:06;100;-3960;3960;0
2024-03-29 07:22:08;100;-3960;3960;0
2024-03-29 07:23:05;100;-3960;3960;0
2024-03-29 07:24:07;100;-3960;3960;0
2024-03-29 07:25:04;100;-3960;3960;0
2024-03-29 07:26:06;100;-3960;3960;0
2024-03-29 07:27:08;100;-1320;1320;0
2024-03-29 07:28:05;100;732;-732;0
2024-03-29 07:29:07;100;737;-737;0
2024-03-29 07:30:05;100;1320;-1320;0
2024-03-29 07:31:07;100;1320;-1320;0
2024-03-29 07:32:04;100;1320;-1320;0
2024-03-29 07:33:06;100;1320;-1320;0
2024-03-29 07:34:08;100;1320;-1320;0
2024-03-29 07:35:05;100;1320;-1320;0
2024-03-29 07:36:07;100;1320;-1320;0
2024-03-29 07:37:05;100;1320;-1320;0
2024-03-29 07:38:07;100;1320;-1320;0
2024-03-29 07:39:04;100;1320;-1320;0
2024-03-29 07:40:06;100;1320;-1320;0
2024-03-29 07:41:08;100;1320;-1320;0
2024-03-29 07:42:05;100;1320;-1320;0
2024-03-29 07:43:07;100;1320;-1320;0
2024-03-29 07:44:05;100;1320;-1320;0
2024-03-29 07:45:06;100;1320;-1320;0
2024-03-29 07:46:04;100;1320;-1320;0
2024-03-29 07:47:06;100;1320;-1320;0
2024-03-29 07:48:08;100;1320;-1320;0
2024-03-29 07:49:05;100;1320;-1320;0
2024-03-29 07:50:07;100;1320;-1320;0
2024-03-29 07:51:05;100;1320;-1320;0
2024-03-29 07:52:07;100;1320;-1320;0
2024-03-29 07:53:04;100;1320;-1320;0
2024-03-29 07:54:06;100;1320;-1320;0
2024-03-29 07:55:08;100;1320;-1320;0
2024-03-29 07:56:05;100;1320;-1320;0
2024-03-29 07:57:07;100;1320;-1320;0
2024-03-29 07:58:05;100;1320;-1320;0
2024-03-29 07:59:07;100;1320;-1320;0
2024-03-29 08:00:04;100;1320;-1320;0
2024-03-29 08:01:06;100;1320;-1320;0
2024-03-29 08:02:08;100;1320;-1320;0
2024-03-29 08:03:05;100;1320;-1320;0
2024-03-29 08:04:07;100;1320;-1320;0
2024-03-29 08:05:05;100;1320;-1320;0
2024-03-29 08:06:07;100;1320;-1320;0
2024-03-29 08:07:04;100;1320;-1320;0
2024-03-29 08:08:06;100;1320;-1320;0
2024-03-29 08:09:08;100;1320;-1320;0
2024-03-29 08:10:05;100;1320;-1320;0
2024-03-29 08:11:07;100;1320;-1320;0
2024-03-29 08:12:05;100;1320;-1320;0
2024-03-29 08:13:07;100;1320;-1320;0
2024-03-29 08:14:04;100;1320;-1320;0
2024-03-29 08:15:06;100;1320;-1320;0
2024-03-29 08:16:08;100;1320;-1320;0
2024-03-29 08:17:05;100;1320;-1320;0
2024-03-29 08:18:07;100;1320;-1320;0
2024-03-29 08:19:05;100;1320;-1320;0
2024-03-29 08:20:07;100;1320;-1320;0
2024-03-29 08:21:04;100;1320;-1320;0
2024-03-29 08:22:06;100;1320;-1320;0
2024-03-29 08:23:08;100;1320;-1320;0
2024-03-29 08:24:05;100;1320;-1320;0
2024-03-29 08:25:07;100;1320;-1320;0
2024-03-29 08:26:05;99;1320;-1320;0
2024-03-29 08:27:07;100;1320;-1320;0
2024-03-29 08:28:04;99;1320;-1320;0
2024-03-29 08:29:06;100;1320;-1320;0
2024-03-29 08:30:08;100;1320;-1320;0
2024-03-29 08:31:05;100;1320;-1320;0
2024-03-29 08:32:07;100;1320;-1320;0
2024-03-29 08:33:05;100;1320;-1320;0
2024-03-29 08:34:07;100;1320;-1320;0
2024-03-29 08:35:04;99;1320;-1320;0
2024-03-29 08:36:06;99;1320;-1320;0
2024-03-29 08:37:08;99;1320;-1320;0
2024-03-29 08:38:06;99;1320;-1320;0
2024-03-29 08:39:08;99;1320;-1320;0
2024-03-29 08:40:05;99;1320;-1320;0
2024-03-29 08:41:07;99;1320;-1320;0
2024-03-29 08:42:04;99;1320;-1320;0
2024-03-29 08:43:06;99;1320;-1320;0
2024-03-29 08:44:08;99;1320;-1320;0
2024-03-29 08:45:06;99;1320;-1320;0
2024-03-29 08:46:08;99;1320;-1320;0
2024-03-29 08:47:05;99;1320;-1320;0
2024-03-29 08:48:07;99;1320;-1320;0
2024-03-29 08:49:05;99;1320;-1320;0
2024-03-29 08:50:07;99;1320;-1320;0
2024-03-29 08:51:04;99;1320;-1320;0
2024-03-29 08:52:06;99;1320;-1320;0
2024-03-29 08:53:08;99;1320;-1320;0
2024-03-29 08:54:05;99;1320;-1320;0
2024-03-29 08:55:07;99;1320;-1320;0
2024-03-29 08:56:05;99;1320;-1320;0
2024-03-29 08:57:07;99;1320;-1320;0
2024-03-29 08:58:04;99;1320;-1320;0
2024-03-29 08:59:06;99;1320;-1320;0
2024-03-29 09:00:08;99;1320;-1320;0
2024-03-29 09:01:06;99;1320;-1320;0
2024-03-29 09:02:08;99;1320;-1320;0
2024-03-29 09:03:05;99;1320;-1320;0
2024-03-29 09:04:07;99;1320;-1320;0
2024-03-29 09:05:05;99;1320;-1320;0
2024-03-29 09:06:07;99;1320;-1320;0
2024-03-29 09:07:04;99;1320;-1320;0
2024-03-29 09:08:06;99;1320;-1320;0
2024-03-29 09:09:08;99;1320;-1320;0
2024-03-29 09:10:06;99;1320;-1320;0
2024-03-29 09:11:08;99;1320;-1320;0
2024-03-29 09:12:05;99;1320;-1320;0
2024-03-29 09:13:07;99;1320;-1320;0
2024-03-29 09:14:04;99;1320;-1320;0
2024-03-29 09:15:07;99;1320;-1320;0
2024-03-29 09:16:04;99;1320;-1320;0
2024-03-29 09:17:06;99;1320;-1320;0
2024-03-29 09:18:08;99;1320;-1320;0
2024-03-29 09:19:05;99;1320;-1320;0
2024-03-29 09:20:07;100;1320;-1320;0
2024-03-29 09:21:05;100;1320;-1320;0
2024-03-29 09:22:07;100;1320;-1320;0
2024-03-29 09:23:04;100;1320;-1320;0
2024-03-29 09:24:06;100;1320;-1320;0
2024-03-29 09:25:09;100;1320;-1320;0
2024-03-29 09:26:06;100;1320;-1320;0
2024-03-29 09:27:08;100;1320;-1320;0
2024-03-29 09:28:06;100;1320;-1320;0
2024-03-29 09:29:08;100;1320;-1320;0
2024-03-29 09:30:05;100;1320;-1320;0
2024-03-29 09:31:07;100;1320;-1320;0
2024-03-29 09:32:05;100;1320;-1320;0
2024-03-29 09:33:07;100;1320;-1320;0
2024-03-29 09:34:05;100;1320;-1320;0
2024-03-29 09:35:07;100;1320;-1320;0
2024-03-29 09:36:04;100;1320;-1320;0
2024-03-29 09:37:06;100;1320;-1320;0
2024-03-29 09:38:09;100;1320;-1320;0
2024-03-29 09:39:06;100;1320;-1320;0
2024-03-29 09:40:08;100;1320;-1320;0
2024-03-29 09:41:06;100;1320;-1320;0
2024-03-29 09:42:08;100;1320;-1320;0
2024-03-29 09:43:06;100;1320;-1320;0
2024-03-29 09:44:08;100;1320;-1320;0
2024-03-29 09:45:06;100;1320;-1320;0
2024-03-29 09:46:08;100;1320;-1320;0
2024-03-29 09:47:06;100;1320;-1320;0
2024-03-29 09:48:08;100;1320;-1320;0
2024-03-29 09:49:06;100;1320;-1320;0
2024-03-29 09:50:08;100;1320;-1320;0
2024-03-29 09:51:06;100;1320;-1320;0
2024-03-29 09:52:08;100;1320;-1320;0
2024-03-29 09:53:06;100;1320;-1320;0
2024-03-29 09:54:08;100;1320;-1320;0
2024-03-29 09:55:06;100;1320;-1320;0
2024-03-29 09:56:08;100;1320;-1320;0
2024-03-29 09:57:06;100;1320;-1320;0
2024-03-29 09:58:08;100;1320;-1320;0
2024-03-29 09:59:06;100;1320;-1320;0
2024-03-29 10:00:08;100;1320;-1320;0
2024-03-29 10:01:06;100;1320;-1320;0
2024-03-29 10:02:08;100;1320;-1320;0
2024-03-29 10:03:06;100;1320;-1320;0
2024-03-29 10:04:08;100;1320;-1320;0
2024-03-29 10:05:06;100;1320;-1320;0
2024-03-29 10:06:08;100;1320;-1320;0
2024-03-29 10:07:06;100;1320;-1320;0
2024-03-29 10:08:08;100;1320;-1320;0
2024-03-29 10:09:06;100;1320;-1320;0
2024-03-29 10:10:08;100;1320;-1320;0
2024-03-29 10:11:06;100;1320;-1320;0
2024-03-29 10:12:08;100;1320;-1320;0
2024-03-29 10:13:06;100;1320;-1320;0
2024-03-29 10:14:08;100;1320;-1320;0
2024-03-29 10:15:06;100;1320;-1320;0
2024-03-29 10:16:09;100;1320;-1320;0
2024-03-29 10:17:06;100;1320;-1320;0
2024-03-29 10:18:09;100;1320;-1320;0
2024-03-29 10:19:06;100;1320;-1320;0
2024-03-29 10:20:04;100;1320;-1320;0
2024-03-29 10:21:07;100;1320;-1320;0
2024-03-29 10:22:04;100;1320;-1320;0
2024-03-29 10:23:07;100;1320;-1320;0
2024-03-29 10:24:05;100;1320;-1320;0
2024-03-29 10:25:07;100;1320;-1320;0
2024-03-29 10:26:05;100;1320;-1320;0
2024-03-29 10:27:07;100;1320;-1320;0
2024-03-29 10:28:05;100;1320;-1320;0
2024-03-29 10:29:07;100;1320;-1320;0
2024-03-29 10:30:05;100;1320;-1320;0
2024-03-29 10:31:08;100;1320;-1320;0
2024-03-29 10:32:05;100;1320;-1320;0
2024-03-29 10:33:08;100;1320;-1320;0
2024-03-29 10:34:06;100;1320;-1320;0
2024-03-29 10:35:08;100;1320;-1320;0
2024-03-29 10:36:06;100;1320;-1320;0
2024-03-29 10:37:08;100;1320;-1320;0
2024-03-29 10:38:06;100;1320;-1320;0
2024-03-29 10:39:09;100;1320;-1320;0
2024-03-29 10:40:06;100;1320;-1320;0
2024-03-29 10:41:09;100;1320;-1320;0
2024-03-29 10:42:07;100;1320;-1320;0
2024-03-29 10:43:04;100;1320;-1320;0
2024-03-29 10:44:07;100;1320;-1320;0
2024-03-29 10:45:05;100;1320;-1320;0
2024-03-29 10:46:07;100;1320;-1320;0
2024-03-29 10:47:05;100;1320;-1320;0
2024-03-29 10:48:07;100;1320;-1320;0
2024-03-29 10:49:05;100;1320;-1320;0
2024-03-29 10:50:08;100;1320;-1320;0
2024-03-29 10:51:06;100;1320;-1320;0
2024-03-29 10:52:08;100;1320;-1320;0
2024-03-29 10:53:06;100;1320;-1320;0
2024-03-29 10:54:08;100;1320;-1320;0
2024-03-29 10:55:06;100;1320;-1320;0
2024-03-29 10:56:09;100;1320;-1320;0
2024-03-29 10:57:06;100;1320;-1320;0
2024-03-29 10:58:09;100;1320;-1320;0
2024-03-29 10:59:07;100;1320;-1320;0
2024-03-29 11:00:05;100;1320;-1320;0
2024-03-29 11:01:07;100;1320;-1320;0
2024-03-29 11:02:05;100;1320;-1320;0
2024-03-29 11:03:07;100;1320;-1320;0
2024-03-29 11:04:05;100;1320;-1320;0
2024-03-29 11:05:08;100;1320;-1320;0
2024-03-29 11:06:06;100;1320;-1320;0
2024-03-29 11:07:08;100;1320;-1320;0
2024-03-29 11:08:06;100;1320;-1320;0
2024-03-29 11:09:08;100;1320;-1320;0
2024-03-29 11:10:06;100;1320;-1320;0
2024-03-29 11:11:09;100;1320;-1320;0
2024-03-29 11:12:07;100;1320;-1320;0
2024-03-29 11:13:05;100;1320;-1320;0
2024-03-29 11:14:07;100;1320;-1320;0
2024-03-29 11:15:05;100;1320;-1320;0
2024-03-29 11:16:07;100;1320;-1320;0
2024-03-29 11:17:05;100;1320;-1320;0
2024-03-29 11:18:08;100;1320;-1320;0
2024-03-29 11:19:06;100;1320;-1320;0
2024-03-29 11:20:08;100;1320;-1320;0
2024-03-29 11:21:06;100;1320;-1320;0
2024-03-29 11:22:09;100;1320;-1320;0
2024-03-29 11:23:07;100;1320;-1320;0
2024-03-29 11:24:04;100;1320;-1320;0
2024-03-29 11:25:07;100;1320;-1320;0
2024-03-29 11:26:05;100;1320;-1320;0
2024-03-29 11:27:07;100;1320;-1320;0
2024-03-29 11:28:05;100;1320;-1320;0
2024-03-29 11:29:08;100;1320;-1320;0
2024-03-29 11:30:06;100;1320;-1320;0
2024-03-29 11:31:08;100;1320;-1320;0
2024-03-29 11:32:06;100;1320;-1320;0
2024-03-29 11:33:09;100;1320;-1320;0
2024-03-29 11:34:07;100;1320;-1320;0
2024-03-29 11:35:05;100;1320;-1320;0
2024-03-29 11:36:07;100;1320;-1320;0
2024-03-29 11:37:05;100;1320;-1320;0
2024-03-29 11:38:08;100;1320;-1320;0
2024-03-29 11:39:05;100;1320;-1320;0
2024-03-29 11:40:08;100;1320;-1320;0
2024-03-29 11:41:06;100;1320;-1320;0
2024-03-29 11:42:08;100;1320;-1320;0
2024-03-29 11:43:06;100;1320;-1320;0
2024-03-29 11:44:09;100;1320;-1320;0
2024-03-29 11:45:07;100;1320;-1320;0
2024-03-29 11:46:05;100;1320;-1320;0
2024-03-29 11:47:07;100;1320;-1320;0
2024-03-29 11:48:05;100;1320;-1320;0
2024-03-29 11:49:08;100;1320;-1320;0
2024-03-29 11:50:06;100;1320;-1320;0
2024-03-29 11:51:08;100;1320;-1320;0
2024-03-29 11:52:06;100;1320;-1320;0
2024-03-29 11:53:09;100;1320;-1320;0
2024-03-29 11:54:06;100;1320;-1320;0
2024-03-29 11:55:09;100;1320;-1320;0
2024-03-29 11:56:07;100;1320;-1320;0
2024-03-29 11:57:05;100;1320;-1320;0
2024-03-29 11:58:07;100;1320;-1320;0
2024-03-29 11:59:05;100;1320;-1320;0
2024-03-29 12:00:08;100;1320;-1320;0
2024-03-29 12:01:06;100;1320;-1320;0
2024-03-29 12:02:08;100;1320;-1320;0
2024-03-29 12:03:06;100;1320;-1320;0
2024-03-29 12:04:09;100;1320;-1320;0
2024-03-29 12:05:07;100;1320;-1320;0
2024-03-29 12:06:05;100;1320;-1320;0
2024-03-29 12:07:07;100;1320;-1320;0
2024-03-29 12:08:05;100;1320;-1320;0
2024-03-29 12:09:08;100;1320;-1320;0
2024-03-29 12:10:06;100;1320;-1320;0
2024-03-29 12:11:08;100;1320;-1320;0
2024-03-29 12:12:06;100;1320;-1320;0
2024-03-29 12:13:09;100;1320;-1320;0
2024-03-29 12:14:06;100;1320;-1320;0
2024-03-29 12:15:09;100;1320;-1320;0
2024-03-29 12:16:07;100;1320;-1320;0
2024-03-29 12:17:05;100;1320;-1320;0
2024-03-29 12:18:07;100;1320;-1320;0
2024-03-29 12:19:05;100;1320;-1320;0
2024-03-29 12:20:08;100;1320;-1320;0
2024-03-29 12:21:06;100;1320;-1320;0
2024-03-29 12:22:08;100;1320;-1320;0
2024-03-29 12:23:06;100;1320;-1320;0
2024-03-29 12:24:09;100;1320;-1320;0
2024-03-29 12:25:07;100;1320;-1320;0
2024-03-29 12:26:04;100;1320;-1320;0
2024-03-29 12:27:07;100;1320;-1320;0
2024-03-29 12:28:05;100;1320;-1320;0
2024-03-29 12:29:07;100;1320;-1320;0
2024-03-29 12:30:05;100;1320;-1320;0
2024-03-29 12:31:08;100;1320;-1320;0
2024-03-29 12:32:06;100;1320;-1320;0
2024-03-29 12:33:08;100;1320;-1320;0
2024-03-29 12:34:06;100;1320;-1320;0
2024-03-29 12:35:09;100;1320;-1320;0
2024-03-29 12:36:07;100;1320;-1320;0
2024-03-29 12:37:05;100;1320;-1320;0
2024-03-29 12:38:07;100;1320;-1320;0
2024-03-29 12:39:05;100;1320;-1320;0
2024-03-29 12:40:08;100;1320;-1320;0
2024-03-29 12:41:05;100;1320;-1320;0
2024-03-29 12:42:08;100;1320;-1320;0
2024-03-29 12:43:06;100;1320;-1320;0
2024-03-29 12:44:08;100;1320;-1320;0
2024-03-29 12:45:06;100;1320;-1320;0
2024-03-29 12:46:09;100;1320;-1320;0
2024-03-29 12:47:07;100;1320;-1320;0
2024-03-29 12:48:05;100;1320;-1320;0
2024-03-29 12:49:07;100;1320;-1320;0
2024-03-29 12:50:05;100;1320;-1320;0
2024-03-29 12:51:08;100;1320;-1320;0
2024-03-29 12:52:06;100;1320;-1320;0
2024-03-29 12:53:08;100;1320;-1320;0
2024-03-29 12:54:06;100;1320;-1320;0
2024-03-29 12:55:09;100;1320;-1320;0
2024-03-29 12:56:07;100;1320;-1320;0
2024-03-29 12:57:05;100;1320;-1320;0
2024-03-29 12:58:07;100;1320;-1320;0
2024-03-29 12:59:05;100;1320;-1320;0
2024-03-29 13:00:08;100;1320;-1320;0
2024-03-29 13:01:05;100;1320;-1320;0
2024-03-29 13:02:08;100;1320;-1320;0
2024-03-29 13:03:06;100;1320;-1320;0
2024-03-29 13:04:08;100;1320;-1320;0
2024-03-29 13:05:06;100;1320;-1320;0
2024-03-29 13:06:09;100;1320;-1320;0
2024-03-29 13:07:07;100;1320;-1320;0
2024-03-29 13:08:05;100;1320;-1320;0
2024-03-29 13:09:07;100;1320;-1320;0
2024-03-29 13:10:05;100;1320;-1320;0
2024-03-29 13:11:08;100;1320;-1320;0
2024-03-29 13:12:06;100;1320;-1320;0
2024-03-29 13:13:08;100;1320;-1320;0
2024-03-29 13:14:06;100;1320;-1320;0
2024-03-29 13:15:09;100;1320;-1320;0
2024-03-29 13:16:07;100;1320;-1320;0
2024-03-29 13:17:05;100;1320;-1320;0
2024-03-29 13:18:07;100;1320;-1320;0
2024-03-29 13:19:05;100;1320;-1320;0
2024-03-29 13:20:08;100;1320;-1320;0
2024-03-29 13:21:06;100;1320;-1320;0
2024-03-29 13:22:08;100;1320;-1320;0
2024-03-29 13:23:06;100;1320;-1320;0
2024-03-29 13:24:09;100;1320;-1320;0
2024-03-29 13:25:06;100;1320;-1320;0
2024-03-29 13:26:04;100;1320;-1320;0
2024-03-29 13:27:07;100;1320;-1320;0
2024-03-29 13:28:05;100;1320;-1320;0
2024-03-29 13:29:07;100;1320;-1320;0
2024-03-29 13:30:05;100;1320;-1320;0
2024-03-29 13:31:08;100;1320;-1320;0
2024-03-29 13:32:06;100;1320;-1320;0
2024-03-29 13:33:08;100;1320;-1320;0
2024-03-29 13:34:06;100;1320;-1320;0
2024-03-29 13:35:09;100;1320;-1320;0
2024-03-29 13:36:07;100;1320;-1320;0
2024-03-29 13:37:05;100;1320;-1320;0
2024-03-29 13:38:07;100;1320;-1320;0
2024-03-29 13:39:05;100;1320;-1320;0
2024-03-29 13:40:08;100;1320;-1320;0
2024-03-29 13:41:06;100;1320;-1320;0
2024-03-29 13:42:08;100;1320;-1320;0
2024-03-29 13:43:06;100;1320;-1320;0
2024-03-29 13:44:09;100;1320;-1320;0
2024-03-29 13:45:07;100;1320;-1320;0
2024-03-29 13:46:05;100;1320;-1320;0
2024-03-29 13:47:08;100;1320;-1320;0
2024-03-29 13:48:05;100;1320;-1320;0
2024-03-29 13:49:08;100;1320;-1320;0
2024-03-29 13:50:06;100;1320;-1320;0
2024-03-29 13:51:09;100;1320;-1320;0
2024-03-29 13:52:07;100;1320;-1320;0
2024-03-29 13:53:05;100;1320;-1320;0
2024-03-29 13:54:07;100;1320;-1320;0
2024-03-29 13:55:05;100;1320;-1320;0
2024-03-29 13:56:08;100;1320;-1320;0
2024-03-29 13:57:06;100;1320;-1320;0
2024-03-29 13:58:08;100;1320;-1320;0
2024-03-29 13:59:06;100;1320;-1320;0
2024-03-29 14:00:09;100;1320;-1320;0
2024-03-29 14:01:07;100;1320;-1320;0
2024-03-29 14:02:05;100;1320;-1320;0
2024-03-29 14:03:07;100;1320;-1320;0
2024-03-29 14:04:05;100;1320;-1320;0
2024-03-29 14:05:08;100;1320;-1320;0
2024-03-29 14:06:06;100;1320;-1320;0
2024-03-29 14:07:08;100;1320;-1320;0
2024-03-29 14:08:06;100;1320;-1320;0
2024-03-29 14:09:04;100;1320;-1320;0
2024-03-29 14:10:07;100;1320;-1320;0
2024-03-29 14:11:05;100;1320;-1320;0
2024-03-29 14:12:08;100;1320;-1320;0
2024-03-29 14:13:06;100;1320;-1320;0
2024-03-29 14:14:08;100;1320;-1320;0
2024-03-29 14:15:06;100;1320;-1320;0
2024-03-29 14:16:09;100;1320;-1320;0
2024-03-29 14:17:07;100;1320;-1320;0
2024-03-29 14:18:05;100;1320;-1320;0
2024-03-29 14:19:07;100;1320;-1320;0
2024-03-29 14:20:05;100;1320;-1320;0
2024-03-29 14:21:08;100;1320;-1320;0
2024-03-29 14:22:06;100;1320;-1320;0
2024-03-29 14:23:09;100;1320;-1320;0
2024-03-29 14:24:07;100;1320;-1320;0
2024-03-29 14:25:05;100;1320;-1320;0
2024-03-29 14:26:07;100;1320;-1320;0
2024-03-29 14:27:05;100;1320;-1320;0
2024-03-29 14:28:08;100;1320;-1320;0
2024-03-29 14:29:06;100;1320;-1320;0
2024-03-29 14:30:09;100;1320;-1320;0
2024-03-29 14:31:07;100;1320;-1320;0
2024-03-29 14:32:05;100;1320;-1320;0
2024-03-29 14:33:07;100;1320;-1320;0
2024-03-29 14:34:05;100;1320;-1320;0
2024-03-29 14:35:08;100;1320;-1320;0
2024-03-29 14:36:06;100;1320;-1320;0
2024-03-29 14:37:09;100;1320;-1320;0
2024-03-29 14:38:07;100;1320;-1320;0
2024-03-29 14:39:05;100;1320;-1320;0
2024-03-29 14:40:07;100;1320;-1320;0
2024-03-29 14:41:05;100;1320;-1320;0
2024-03-29 14:42:08;100;1320;-1320;0
2024-03-29 14:43:06;100;1320;-1320;0
2024-03-29 14:44:09;100;1320;-1320;0
2024-03-29 14:45:07;100;1320;-1320;0
2024-03-29 14:46:05;100;1320;-1320;0
2024-03-29 14:47:07;100;1320;-1320;0
2024-03-29 14:48:05;100;1320;-1320;0
2024-03-29 14:49:08;100;1320;-1320;0
2024-03-29 14:50:06;100;1320;-1320;0
2024-03-29 14:51:09;100;1320;-1320;0
2024-03-29 14:52:07;100;1320;-1320;0
2024-03-29 14:53:05;100;1320;-1320;0
2024-03-29 14:54:07;100;1320;-1320;0
2024-03-29 14:55:05;100;1320;-1320;0
2024-03-29 14:56:08;100;1320;-1320;0
2024-03-29 14:57:06;100;1320;-1320;0
2024-03-29 14:58:09;100;1320;-1320;0
2024-03-29 14:59:07;100;1320;-1320;0
2024-03-29 15:00:05;100;1320;-1320;0
2024-03-29 15:01:07;100;1320;-1320;0
2024-03-29 15:02:05;100;1320;-1320;0
2024-03-29 15:03:08;100;1320;-1320;0
2024-03-29 15:04:06;100;1320;-1320;0
2024-03-29 15:05:09;100;1320;-1320;0
2024-03-29 15:06:07;100;1320;-1320;0
2024-03-29 15:07:05;100;1320;-1320;0
2024-03-29 15:08:08;100;1320;-1320;0
2024-03-29 15:09:06;100;1320;-1320;0
2024-03-29 15:10:08;100;1320;-1320;0
2024-03-29 15:11:06;100;1320;-1320;0
2024-03-29 15:12:09;100;1320;-1320;0
2024-03-29 15:13:07;100;1320;-1320;0
2024-03-29 15:14:05;100;1320;-1320;0
2024-03-29 15:15:08;100;1320;-1320;0
2024-03-29 15:16:06;100;1320;-1320;0
2024-03-29 15:17:08;100;1320;-1320;0
2024-03-29 15:18:06;100;1320;-1320;0
2024-03-29 15:19:09;100;1320;-1320;0
2024-03-29 15:20:07;100;1320;-1320;0
2024-03-29 15:21:05;100;1320;-1320;0
2024-03-29 15:22:08;100;1320;-1320;0
2024-03-29 15:23:06;100;1320;-1320;0
2024-03-29 15:24:08;100;1320;-1320;0
2024-03-29 15:25:06;100;1320;-1320;0
2024-03-29 15:26:09;100;1320;-1320;0
2024-03-29 15:27:07;100;1320;-1320;0
2024-03-29 15:28:05;100;1320;-1320;0
2024-03-29 15:29:08;100;1320;-1320;0
2024-03-29 15:30:06;100;1320;-1320;0
2024-03-29 15:31:08;100;1320;-1320;0
2024-03-29 15:32:06;100;1320;-1320;0
2024-03-29 15:33:09;100;1320;-1320;0
2024-03-29 15:34:07;100;1320;-1320;0
2024-03-29 15:35:05;100;1320;-1320;0
2024-03-29 15:36:08;100;1320;-1320;0
2024-03-29 15:37:06;100;1320;-1320;0
2024-03-29 15:38:08;100;1320;-1320;0
2024-03-29 15:39:06;100;1320;-1320;0
2024-03-29 15:40:05;100;1320;-1320;0
2024-03-29 15:41:07;100;1320;-1320;0
2024-03-29 15:42:05;100;1320;-1320;0
2024-03-29 15:43:08;100;1320;-1320;0
2024-03-29 15:44:06;100;1320;-1320;0
2024-03-29 15:45:09;100;1320;-1320;0
2024-03-29 15:46:07;100;1320;-1320;0
2024-03-29 15:47:05;100;1320;-1320;0
2024-03-29 15:48:07;100;1320;-1320;0
2024-03-29 15:49:05;100;1320;-1320;0
2024-03-29 15:50:08;100;1320;-1320;0
2024-03-29 15:51:06;100;1320;-1320;0
2024-03-29 15:52:09;100;1320;-1320;0
2024-03-29 15:53:07;100;1320;-1320;0
2024-03-29 15:54:05;100;1320;-1320;0
2024-03-29 15:55:07;100;1320;-1320;0
2024-03-29 15:56:05;100;1320;-1320;0
2024-03-29 15:57:08;100;1320;-1320;0
2024-03-29 15:58:06;100;1320;-1320;0
2024-03-29 15:59:09;100;1320;-1320;0
2024-03-29 16:00:07;100;1320;-1320;0
2024-03-29 16:01:05;100;1320;-1320;0
2024-03-29 16:02:07;100;1320;-1320;0
2024-03-29 16:03:05;100;1320;-1320;0
2024-03-29 16:04:08;100;1320;-1320;0
2024-03-29 16:05:06;100;1320;-1320;0
2024-03-29 16:06:09;100;1320;-1320;0
2024-03-29 16:07:07;100;1320;-1320;0
2024-03-29 16:08:05;100;1320;-1320;0
2024-03-29 16:09:08;100;1320;-1320;0
2024-03-29 16:10:06;100;1320;-1320;0
2024-03-29 16:11:08;100;1320;-1320;0
2024-03-29 16:12:06;100;1320;-1320;0
2024-03-29 16:13:09;100;1320;-1320;0
2024-03-29 16:14:07;100;1320;-1320;0
2024-03-29 16:15:05;100;1320;-1320;0
2024-03-29 16:16:08;100;1320;-1320;0
2024-03-29 16:17:06;100;1320;-1320;0
2024-03-29 16:18:08;100;1320;-1320;0
2024-03-29 16:19:06;100;1320;-1320;0
2024-03-29 16:20:09;100;1320;-1320;0
2024-03-29 16:21:07;100;1320;-1320;0
2024-03-29 16:22:05;100;1320;-1320;0
2024-03-29 16:23:08;100;1320;-1320;0
2024-03-29 16:24:06;100;1320;-1320;0
2024-03-29 16:25:08;100;1320;-1320;0
2024-03-29 16:26:06;100;1320;-1320;0
2024-03-29 16:27:05;100;1320;-1320;0
2024-03-29 16:28:07;100;1320;-1320;0
2024-03-29 16:29:05;100;1320;-1320;0
2024-03-29 16:30:08;100;1320;-1320;0
2024-03-29 16:31:06;100;1320;-1320;0
2024-03-29 16:32:09;100;1320;-1320;0
2024-03-29 16:33:07;100;1320;-1320;0
2024-03-29 16:34:05;100;1320;-1320;0
2024-03-29 16:35:07;100;1320;-1320;0
2024-03-29 16:36:05;100;1320;-1320;0
2024-03-29 16:37:08;100;1320;-1320;0
2024-03-29 16:38:06;100;1320;-1320;0
2024-03-29 16:39:08;100;1320;-1320;0
2024-03-29 16:40:06;100;1320;-1320;0
2024-03-29 16:41:09;100;1320;-1320;0
2024-03-29 16:42:07;100;1320;-1320;0
2024-03-29 16:43:05;100;1320;-1320;0
2024-03-29 16:44:08;100;1320;-1320;0
2024-03-29 16:45:05;100;1320;-1320;0
2024-03-29 16:46:08;100;1320;-1320;0
2024-03-29 16:47:06;100;1320;-1320;0
2024-03-29 16:48:08;100;1320;-1320;0
2024-03-29 16:49:06;100;1320;-1320;0
2024-03-29 16:50:09;100;1320;-1320;0
2024-03-29 16:51:07;100;1320;-1320;0
2024-03-29 16:52:04;100;1320;-1320;0
2024-03-29 16:53:07;100;1320;-1320;0
2024-03-29 16:54:05;100;1320;-1320;0
2024-03-29 16:55:07;100;1320;-1320;0
2024-03-29 16:56:05;100;1320;-1320;0
2024-03-29 16:57:07;100;1320;-1320;0
2024-03-29 16:58:05;100;1320;-1320;0
2024-03-29 16:59:08;100;1320;-1320;0
2024-03-29 17:00:05;100;1320;-1320;0
2024-03-29 17:01:08;100;1320;-1320;0
2024-03-29 17:02:05;100;1320;-1320;0
2024-03-29 17:03:08;100;1320;-1320;0
2024-03-29 17:04:06;100;1320;-1320;0
2024-03-29 17:05:08;100;1320;-1320;0
2024-03-29 17:06:06;100;1320;-1320;0
2024-03-29 17:07:08;100;1320;-1320;0
2024-03-29 17:08:06;100;1320;-1320;0
2024-03-29 17:09:08;100;1320;-1320;0
2024-03-29 17:10:06;100;1320;-1320;0
2024-03-29 17:11:08;100;1320;-1320;0
2024-03-29 17:12:06;100;1320;-1320;0
2024-03-29 17:13:08;100;1320;-1320;0
2024-03-29 17:14:06;100;1320;-1320;0
2024-03-29 17:15:08;100;1320;-1320;0
2024-03-29 17:16:06;100;1320;-1320;0
2024-03-29 17:17:08;100;1320;-1320;0
2024-03-29 17:18:06;100;1320;-1320;0
2024-03-29 17:19:08;100;1320;-1320;0
2024-03-29 17:20:06;100;1320;-1320;0
2024-03-29 17:21:08;100;1320;-1320;0
2024-03-29 17:22:06;100;1320;-1320;0
2024-03-29 17:23:08;100;1320;-1320;0
2024-03-29 17:24:06;100;1320;-1320;0
2024-03-29 17:25:08;100;1320;-1320;0
2024-03-29 17:26:06;100;1320;-1320;0
2024-03-29 17:27:08;100;1320;-1320;0
2024-03-29 17:28:05;100;1320;-1320;0
2024-03-29 17:29:08;100;1320;-1320;0
2024-03-29 17:30:05;100;1320;-1320;0
2024-03-29 17:31:08;100;1320;-1320;0
2024-03-29 17:32:05;100;1320;-1320;0
2024-03-29 17:33:08;100;1320;-1320;0
2024-03-29 17:34:05;100;1320;-1320;0
2024-03-29 17:35:07;100;1320;-1320;0
2024-03-29 17:36:05;100;1320;-1320;0
2024-03-29 17:37:07;100;1320;-1320;0
2024-03-29 17:38:05;100;1320;-1320;0
2024-03-29 17:39:07;100;1320;-1320;0
2024-03-29 17:40:05;100;1320;-1320;0
2024-03-29 17:41:07;100;1320;-1320;0
2024-03-29 17:42:05;100;1320;-1320;0
2024-03-29 17:43:07;100;1320;-1320;0
2024-03-29 17:44:05;100;1320;-1320;0
2024-03-29 17:45:07;100;1320;-1320;0
2024-03-29 17:46:05;100;1320;-1320;0
2024-03-29 17:47:07;100;1320;-1320;0
2024-03-29 17:48:05;100;1320;-1320;0
2024-03-29 17:49:07;100;1320;-1320;0
2024-03-29 17:50:04;100;1320;-1320;0
2024-03-29 17:51:07;100;1320;-1320;0
2024-03-29 17:52:04;100;1320;-1320;0
2024-03-29 17:53:07;100;1320;-1320;0
2024-03-29 17:54:04;100;1320;-1320;0
2024-03-29 17:55:06;100;1320;-1320;0
2024-03-29 17:56:09;100;1320;-1320;0
2024-03-29 17:57:06;100;1320;-1320;0
2024-03-29 17:58:09;100;1320;-1320;0
2024-03-29 17:59:06;100;1320;-1320;0
2024-03-29 18:00:08;100;1320;-1320;0
2024-03-29 18:01:06;100;1320;-1320;0
2024-03-29 18:02:08;100;1320;-1320;0
2024-03-29 18:03:06;100;1320;-1320;0
2024-03-29 18:04:08;100;1320;-1320;0
2024-03-29 18:05:06;100;1320;-1320;0
2024-03-29 18:06:08;100;1320;-1320;0
2024-03-29 18:07:06;100;1320;-1320;0
2024-03-29 18:08:08;100;1320;-1320;0
2024-03-29 18:09:06;100;1320;-1320;0
2024-03-29 18:10:08;100;1320;-1320;0
2024-03-29 18:11:05;100;1320;-1320;0
2024-03-29 18:12:08;100;1320;-1320;0
2024-03-29 18:13:05;100;1320;-1320;0
2024-03-29 18:14:07;100;1320;-1320;0
2024-03-29 18:15:05;100;1320;-1320;0
2024-03-29 18:16:07;100;1320;-1320;0
2024-03-29 18:17:05;100;1320;-1320;0
2024-03-29 18:18:07;100;1320;-1320;0
2024-03-29 18:19:05;100;1320;-1320;0
2024-03-29 18:20:07;100;1320;-1320;0
2024-03-29 18:21:05;100;1320;-1320;0
2024-03-29 18:22:07;100;1320;-1320;0
2024-03-29 18:23:04;100;1320;-1320;0
2024-03-29 18:24:07;100;1320;-1320;0
2024-03-29 18:25:04;100;1320;-1320;0
2024-03-29 18:26:06;100;1320;-1320;0
2024-03-29 18:27:09;100;1320;-1320;0
2024-03-29 18:28:06;100;1320;-1320;0
2024-03-29 18:29:08;100;1320;-1320;0
2024-03-29 18:30:06;100;1320;-1320;0
2024-03-29 18:31:08;100;1320;-1320;0
2024-03-29 18:32:06;100;1320;-1320;0
2024-03-29 18:33:08;100;1320;-1320;0
2024-03-29 18:34:06;100;1320;-1320;0
2024-03-29 18:35:08;100;1320;-1320;0
2024-03-29 18:36:06;100;1320;-1320;0
2024-03-29 18:37:08;100;1320;-1320;0
2024-03-29 18:38:05;100;1320;-1320;0
2024-03-29 18:39:07;100;1320;-1320;0
2024-03-29 18:40:05;100;1320;-1320;0
2024-03-29 18:41:07;100;1320;-1320;0
2024-03-29 18:42:05;100;1320;-1320;0
2024-03-29 18:43:07;100;1320;-1320;0
2024-03-29 18:44:05;100;1320;-1320;0
2024-03-29 18:45:07;100;1320;-1320;0
2024-03-29 18:46:04;100;1320;-1320;0
2024-03-29 18:47:07;100;1320;-1320;0
2024-03-29 18:48:04;100;1320;-1320;0
2024-03-29 18:49:06;100;1320;-1320;0
2024-03-29 18:50:09;100;1320;-1320;0
2024-03-29 18:51:06;100;1320;-1320;0
2024-03-29 18:52:08;100;1320;-1320;0
2024-03-29 18:53:06;100;1320;-1320;0
2024-03-29 18:54:08;100;1320;-1320;0
2024-03-29 18:55:06;100;1320;-1320;0
2024-03-29 18:56:08;100;1320;-1320;0
2024-03-29 18:57:05;100;1320;-1320;0
2024-03-29 18:58:07;100;1320;-1320;0
2024-03-29 18:59:05;100;1320;-1320;0
2024-03-29 19:00:07;100;1320;-1320;0
2024-03-29 19:01:05;100;1320;-1320;0
2024-03-29 19:02:07;100;1320;-1320;0
2024-03-29 19:03:05;100;1320;-1320;0
2024-03-29 19:04:07;100;1320;-1320;0
2024-03-29 19:05:04;100;1320;-1320;0
2024-03-29 19:06:06;100;1320;-1320;0
2024-03-29 19:07:09;100;1320;-1320;0
2024-03-29 19:08:06;100;1320;-1320;0
2024-03-29 19:09:08;100;1320;-1320;0
2024-03-29 19:10:06;100;1320;-1320;0
2024-03-29 19:11:08;100;1320;-1320;0
2024-03-29 19:12:05;100;1320;-1320;0
2024-03-29 19:13:08;100;1320;-1320;0
2024-03-29 19:14:05;100;1320;-1320;0
2024-03-29 19:15:07;100;1320;-1320;0
2024-03-29 19:16:05;100;1320;-1320;0
2024-03-29 19:17:07;100;1320;-1320;0
2024-03-29 19:18:04;100;1320;-1320;0
2024-03-29 19:19:07;100;1320;-1320;0
2024-03-29 19:20:04;100;1320;-1320;0
2024-03-29 19:21:06;100;1320;-1320;0
2024-03-29 19:22:08;100;1320;-1320;0
2024-03-29 19:23:06;100;1320;-1320;0
2024-03-29 19:24:08;100;1320;-1320;0
2024-03-29 19:25:06;100;1320;-1320;0
2024-03-29 19:26:08;100;1320;-1320;0
2024-03-29 19:27:05;100;1320;-1320;0
2024-03-29 19:28:07;100;1320;-1320;0
2024-03-29 19:29:05;100;1320;-1320;0
2024-03-29 19:30:07;100;1320;-1320;0
2024-03-29 19:31:04;100;1320;-1320;0
2024-03-29 19:32:07;100;1320;-1320;0
2024-03-29 19:33:04;100;1320;-1320;0
2024-03-29 19:34:06;100;1320;-1320;0
2024-03-29 19:35:08;100;1320;-1320;0
2024-03-29 19:36:06;100;1320;-1320;0
2024-03-29 19:37:08;100;1320;-1320;0
2024-03-29 19:38:05;100;1320;-1320;0
2024-03-29 19:39:08;100;1320;-1320;0
2024-03-29 19:40:05;100;1320;-1320;0
2024-03-29 19:41:07;100;1320;-1320;0
2024-03-29 19:42:05;100;1320;-1320;0
2024-03-29 19:43:07;100;1320;-1320;0
2024-03-29 19:44:04;100;1320;-1320;0
2024-03-29 19:45:06;100;1320;-1320;0
2024-03-29 19:46:08;100;1320;-1320;0
2024-03-29 19:47:06;100;1320;-1320;0
2024-03-29 19:48:08;100;1320;-1320;0
2024-03-29 19:49:06;100;1320;-1320;0
2024-03-29 19:50:08;100;1320;-1320;0
2024-03-29 19:51:05;100;1320;-1320;0
2024-03-29 19:52:07;100;1320;-1320;0
2024-03-29 19:53:05;100;1320;-1320;0
2024-03-29 19:54:07;100;1320;-1320;0
2024-03-29 19:55:04;100;1320;-1320;0
2024-03-29 19:56:06;100;1320;-1320;0
2024-03-29 19:57:04;100;1320;-1320;0
2024-03-29 19:58:06;100;1320;-1320;0
2024-03-29 19:59:08;100;1320;-1320;0
2024-03-29 20:00:06;100;1320;-1320;0
2024-03-29 20:01:08;100;1320;-1320;0
2024-03-29 20:02:05;100;1320;-1320;0
2024-03-29 20:03:07;100;1320;-1320;0
2024-03-29 20:04:05;100;1320;-1320;0
2024-03-29 20:05:07;100;1320;-1320;0
2024-03-29 20:06:04;100;1320;-1320;0
2024-03-29 20:07:07;100;1320;-1320;0
2024-03-29 20:08:04;100;1320;-1320;0
2024-03-29 20:09:06;100;1320;-1320;0
2024-03-29 20:10:08;100;1320;-1320;0
2024-03-29 20:11:06;100;1320;-1320;0
2024-03-29 20:12:08;100;1320;-1320;0
2024-03-29 20:13:05;100;1320;-1320;0
2024-03-29 20:14:07;100;1320;-1320;0
2024-03-29 20:15:05;100;1320;-1320;0
2024-03-29 20:16:07;100;1320;-1320;0
2024-03-29 20:17:04;100;1320;-1320;0
2024-03-29 20:18:06;100;1320;-1320;0
2024-03-29 20:19:09;100;1320;-1320;0
2024-03-29 20:20:06;100;1320;-1320;0
2024-03-29 20:21:08;100;1320;-1320;0
2024-03-29 20:22:06;100;1320;-1320;0
2024-03-29 20:23:08;100;1320;-1320;0
2024-03-29 20:24:05;100;1320;-1320;0
2024-03-29 20:25:07;100;1320;-1320;0
2024-03-29 20:26:05;100;1320;-1320;0
2024-03-29 20:27:07;100;1320;-1320;0
2024-03-29 20:28:04;100;1320;-1320;0
2024-03-29 20:29:06;100;1320;-1320;0
2024-03-29 20:30:08;100;1320;-1320;0
2024-03-29 20:31:06;100;1320;-1320;0
2024-03-29 20:32:08;100;1320;-1320;0
2024-03-29 20:33:06;100;1320;-1320;0
2024-03-29 20:34:08;100;1320;-1320;0
2024-03-29 20:35:05;100;1320;-1320;0
2024-03-29 20:36:07;100;1320;-1320;0
2024-03-29 20:37:05;100;1320;-1320;0
2024-03-29 20:38:07;100;1320;-1320;0
2024-03-29 20:39:04;100;1320;-1320;0
2024-03-29 20:40:06;100;1320;-1320;0
2024-03-29 20:41:08;100;1320;-1320;0
2024-03-29 20:42:06;100;1320;-1320;0
2024-03-29 20:43:08;100;1320;-1320;0
2024-03-29 20:44:05;100;1320;-1320;0
2024-03-29 20:45:07;100;1320;-1320;0
2024-03-29 20:46:05;100;1320;-1320;0
2024-03-29 20:47:07;100;1320;-1320;0
2024-03-29 20:48:04;100;1320;-1320;0
2024-03-29 20:49:07;100;1320;-1320;0
2024-03-29 20:50:04;100;1320;-1320;0
2024-03-29 20:51:06;100;1320;-1320;0
2024-03-29 20:52:08;100;1320;-1320;0
2024-03-29 20:53:06;100;1320;-1320;0
2024-03-29 20:54:08;100;1320;-1320;0
2024-03-29 20:55:05;100;1320;-1320;0
2024-03-29 20:56:07;100;1320;-1320;0
2024-03-29 20:57:05;100;1320;-1320;0
2024-03-29 20:58:07;100;1320;-1320;0
2024-03-29 20:59:04;100;1320;-1320;0
2024-03-29 21:00:06;100;1320;-1320;0
2024-03-29 21:01:08;100;1320;-1320;0
2024-03-29 21:02:06;100;1320;-1320;0
2024-03-29 21:03:08;100;1320;-1320;0
2024-03-29 21:04:05;100;1320;-1320;0
2024-03-29 21:05:07;100;1320;-1320;0
2024-03-29 21:06:05;100;1320;-1320;0
2024-03-29 21:07:07;100;1320;-1320;0
2024-03-29 21:08:04;100;1320;-1320;0
2024-03-29 21:09:07;100;1320;-1320;0
2024-03-29 21:10:04;100;1320;-1320;0
2024-03-29 21:11:06;100;1320;-1320;0
2024-03-29 21:12:08;100;1320;-1320;0
2024-03-29 21:13:06;100;1320;-1320;0
2024-03-29 21:14:08;100;1320;-1320;0
2024-03-29 21:15:05;100;1320;-1320;0
2024-03-29 21:16:07;100;1320;-1320;0
2024-03-29 21:17:05;100;1320;-1320;0
2024-03-29 21:18:07;100;1320;-1320;0
2024-03-29 21:19:04;100;1320;-1320;0
2024-03-29 21:20:06;100;1320;-1320;0
2024-03-29 21:21:08;100;1320;-1320;0
2024-03-29 21:22:06;100;1320;-1320;0
2024-03-29 21:23:08;100;1320;-1320;0
2024-03-29 21:24:05;100;1320;-1320;0
2024-03-29 21:25:07;100;1320;-1320;0
2024-03-29 21:26:05;100;1320;-1320;0
2024-03-29 21:27:07;100;1320;-1320;0
2024-03-29 21:28:04;100;1320;-1320;0
2024-03-29 21:29:06;100;1320;-1320;0
2024-03-29 21:30:08;100;1320;-1320;0
2024-03-29 21:31:06;100;1320;-1320;0
2024-03-29 21:32:08;100;1320;-1320;0
2024-03-29 21:33:05;100;1320;-1320;0
2024-03-29 21:34:08;100;1320;-1320;0
2024-03-29 21:35:05;100;1320;-1320;0
2024-03-29 21:36:07;100;1320;-1320;0
2024-03-29 21:37:05;100;1320;-1320;0
2024-03-29 21:38:07;100;1320;-1320;0
2024-03-29 21:39:04;100;1320;-1320;0
2024-03-29 21:40:06;100;1320;-1320;0
2024-03-29 21:41:08;100;1320;-1320;0
2024-03-29 21:42:06;100;1320;-1320;0
2024-03-29 21:43:08;100;1320;-1320;0
2024-03-29 21:44:05;100;1320;-1320;0
2024-03-29 21:45:07;100;1320;-1320;0
2024-03-29 21:46:05;100;1320;-1320;0
2024-03-29 21:47:07;100;1320;-1320;0
2024-03-29 21:48:04;100;1320;-1320;0
2024-03-29 21:49:06;100;1320;-1320;0
2024-03-29 21:50:08;100;1320;-1320;0
2024-03-29 21:51:06;100;1320;-1320;0
2024-03-29 21:52:08;100;1320;-1320;0
2024-03-29 21:53:05;100;1320;-1320;0
2024-03-29 21:54:07;100;1320;-1320;0
2024-03-29 21:55:05;100;1320;-1320;0
2024-03-29 21:56:07;100;1320;-1320;0
2024-03-29 21:57:04;100;1320;-1320;0
2024-03-29 21:58:06;100;1320;-1320;0
2024-03-29 21:59:08;100;1320;-1320;0
2024-03-29 22:00:06;100;1320;-1320;0
2024-03-29 22:01:08;100;1320;-1320;0
2024-03-29 22:02:05;100;1320;-1320;0
2024-03-29 22:03:08;100;1320;-1320;0
2024-03-29 22:04:05;100;1320;-1320;0
2024-03-29 22:05:07;100;1320;-1320;0
2024-03-29 22:06:05;100;1320;-1320;0
2024-03-29 22:07:07;100;1320;-1320;0
2024-03-29 22:08:04;100;1320;-1320;0
2024-03-29 22:09:06;100;1320;-1320;0
2024-03-29 22:10:08;100;1320;-1320;0
2024-03-29 22:11:06;100;1320;-1320;0
2024-03-29 22:12:08;100;1320;-1320;0
2024-03-29 22:13:05;100;1320;-1320;0
2024-03-29 22:14:07;100;1320;-1320;0
2024-03-29 22:15:05;100;1320;-1320;0
2024-03-29 22:16:07;100;1320;-1320;0
2024-03-29 22:17:04;100;1320;-1320;0
2024-03-29 22:18:06;100;1320;-1320;0
2024-03-29 22:19:08;100;1320;-1320;0
2024-03-29 22:20:06;100;1320;-1320;0
2024-03-29 22:21:08;100;1320;-1320;0
2024-03-29 22:22:05;100;1320;-1320;0
2024-03-29 22:23:07;100;1320;-1320;0
2024-03-29 22:24:05;100;1320;-1320;0
2024-03-29 22:25:07;100;1320;-1320;0
2024-03-29 22:26:04;100;1320;-1320;0
2024-03-29 22:27:06;100;1320;-1320;0
2024-03-29 22:28:08;100;1320;-1320;0
2024-03-29 22:29:06;100;1320;-1320;0
2024-03-29 22:30:08;100;1320;-1320;0
2024-03-29 22:31:05;100;1320;-1320;0
2024-03-29 22:32:07;100;1320;-1320;0
2024-03-29 22:33:05;100;1320;-1320;0
2024-03-29 22:34:07;100;1320;-1320;0
2024-03-29 22:35:04;100;1320;-1320;0
2024-03-29 22:36:06;100;1320;-1320;0
2024-03-29 22:37:08;100;1320;-1320;0
2024-03-29 22:38:06;100;1320;-1320;0
2024-03-29 22:39:08;100;1320;-1320;0
2024-03-29 22:40:05;100;1320;-1320;0
2024-03-29 22:41:07;100;1320;-1320;0
2024-03-29 22:42:05;100;1320;-1320;0
2024-03-29 22:43:07;100;1320;-1320;0
2024-03-29 22:44:04;100;1320;-1320;0
2024-03-29 22:45:06;100;1320;-1320;0
2024-03-29 22:46:08;100;1320;-1320;0
2024-03-29 22:47:06;100;1320;-1320;0
2024-03-29 22:48:08;100;1320;-1320;0
2024-03-29 22:49:05;100;1320;-1320;0
2024-03-29 22:50:07;100;1320;-1320;0
2024-03-29 22:51:05;100;1320;-1320;0
2024-03-29 22:52:07;100;1320;-1320;0
2024-03-29 22:53:04;100;1320;-1320;0
2024-03-29 22:54:06;100;1320;-1320;0
2024-03-29 22:55:08;100;1320;-1320;0
2024-03-29 22:56:06;100;1320;-1320;0
2024-03-29 22:57:08;100;1320;-1320;0
2024-03-29 22:58:05;100;1320;-1320;0
2024-03-29 22:59:07;100;1320;-1320;0
2024-03-29 23:00:05;100;1320;-1320;0
2024-03-29 23:01:07;100;1320;-1320;0
2024-03-29 23:02:04;100;1320;-1320;0
2024-03-29 23:03:06;100;1320;-1320;0
2024-03-29 23:04:08;100;1320;-1320;0
2024-03-29 23:05:06;100;1320;-1320;0
2024-03-29 23:06:08;100;1320;-1320;0
2024-03-29 23:07:05;100;1320;-1320;0
2024-03-29 23:08:07;100;1320;-1320;0
2024-03-29 23:09:05;100;1320;-1320;0
2024-03-29 23:10:07;100;1320;-1320;0
2024-03-29 23:11:04;100;1320;-1320;0
2024-03-29 23:12:06;100;1320;-1320;0
2024-03-29 23:13:08;100;1320;-1320;0
2024-03-29 23:14:06;100;1320;-1320;0
2024-03-29 23:15:08;100;1320;-1320;0
2024-03-29 23:16:05;100;1320;-1320;0
2024-03-29 23:17:07;100;1320;-1320;0
2024-03-29 23:18:05;100;1320;-1320;0
2024-03-29 23:19:07;100;1320;-1320;0
2024-03-29 23:20:04;100;1320;-1320;0
2024-03-29 23:21:06;100;1320;-1320;0
2024-03-29 23:22:08;100;1320;-1320;0
2024-03-29 23:23:06;100;1320;-1320;0
2024-03-29 23:24:08;100;1320;-1320;0
2024-03-29 23:25:05;100;1320;-1320;0
2024-03-29 23:26:07;100;1320;-1320;0
2024-03-29 23:27:05;100;1320;-1320;0
2024-03-29 23:28:07;100;1320;-1320;0
2024-03-29 23:29:04;100;1320;-1320;0
2024-03-29 23:30:06;100;1320;-1320;0
2024-03-29 23:31:08;100;1320;-1320;0
2024-03-29 23:32:05;100;1320;-1320;0
2024-03-29 23:33:07;100;1320;-1320;0
2024-03-29 23:34:05;100;1320;-1320;0
2024-03-29 23:35:07;100;1320;-1320;0
2024-03-29 23:36:04;100;1320;-1320;0
2024-03-29 23:37:06;100;1320;-1320;0
2024-03-29 23:38:08;100;1320;-1320;0
2024-03-29 23:39:06;100;1320;-1320;0
2024-03-29 23:40:08;100;1320;-1320;0
2024-03-29 23:41:05;100;1320;-1320;0
2024-03-29 23:42:07;100;1320;-1320;0
2024-03-29 23:43:05;100;1320;-1320;0
2024-03-29 23:44:07;100;1320;-1320;0
2024-03-29 23:45:04;100;1320;-1320;0
2024-03-29 23:46:06;100;1320;-1320;0
2024-03-29 23:47:08;100;1320;-1320;0
2024-03-29 23:48:06;100;1320;-1320;0
2024-03-29 23:49:08;100;1320;-1320;0
2024-03-29 23:50:05;100;1320;-1320;0
2024-03-29 23:51:07;100;1320;-1320;0
2024-03-29 23:52:05;100;1320;-1320;0
2024-03-29 23:53:07;100;1320;-1320;0
2024-03-29 23:54:04;100;1320;-1320;0
2024-03-29 23:55:06;100;1320;-1320;0
2024-03-29 23:56:08;100;1320;-1320;0
2024-03-29 23:57:06;100;1320;-1320;0
2024-03-29 23:58:08;100;1320;-1320;0
2024-03-29 23:59:05;100;1320;-1320;0
