2024-03-15 00:00:06;100;1320;-1320;80
2024-03-15 00:01:08;100;1320;-1320;0
2024-03-15 00:02:05;100;1320;-1320;0
2024-03-15 00:03:07;100;1320;-1320;0
2024-03-15 00:04:05;100;1320;-1320;0
2024-03-15 00:05:07;100;1320;-1320;0
2024-03-15 00:06:04;100;1320;-1320;0
2024-03-15 00:07:06;100;1320;-1320;0
2024-03-15 00:08:08;100;1320;-1320;0
2024-03-15 00:09:06;100;1320;-1320;0
2024-03-15 00:10:08;100;1320;-1320;0
2024-03-15 00:11:05;100;1320;-1320;0
2024-03-15 00:12:07;100;1320;-1320;0
2024-03-15 00:13:05;100;1320;-1320;0
2024-03-15 00:14:07;100;1320;-1320;0
2024-03-15 00:15:04;100;1320;-1320;0
2024-03-15 00:16:06;100;1320;-1320;0
2024-03-15 00:17:08;100;1320;-1320;0
2024-03-15 00:18:06;100;1320;-1320;0
2024-03-15 00:19:08;100;1320;-1320;0
2024-03-15 00:20:05;100;1320;-1320;0
2024-03-15 00:21:07;100;1320;-1320;0
2024-03-15 00:22:05;100;1320;-1320;0
2024-03-15 00:23:07;100;1320;-1320;0
2024-03-15 00:24:04;100;1320;-1320;0
2024-03-15 00:25:06;100;1320;-1320;0
2024-03-15 00:26:08;100;1320;-1320;0
2024-03-15 00:27:06;100;1320;-1320;0
2024-03-15 00:28:08;100;1320;-1320;0
2024-03-15 00:29:05;100;1320;-1320;0
2024-03-15 00:30:07;100;1320;-1320;0
2024-03-15 00:31:05;100;1320;-1320;0
2024-03-15 00:32:07;100;1320;-1320;0
2024-03-15 00:33:04;100;1320;-1320;0
2024-03-15 00:34:06;100;1320;-1320;0
2024-03-15 00:35:08;100;1320;-1320;0
2024-03-15 00:36:06;100;1320;-1320;0
2024-03-15 00:37:08;100;1320;-1320;0
2024-03-15 00:38:05;100;1320;-1320;0
2024-03-15 00:39:07;100;1320;-1320;0
2024-03-15 00:40:05;100;1320;-1320;0
2024-03-15 00:41:07;100;1320;-1320;0
2024-03-15 00:42:04;100;1320;-1320;0
2024-03-15 00:43:06;100;1320;-1320;0
2024-03-15 00:44:08;100;1320;-1320;0
2024-03-15 00:45:06;100;1320;-1320;0
2024-03-15 00:46:08;100;1320;-1320;0
2024-03-15 00:47:05;100;1320;-1320;0
2024-03-15 00:48:07;100;1320;-1320;0
2024-03-15 00:49:05;100;1320;-1320;0
2024-03-15 00:50:07;100;1320;-1320;0
2024-03-15 00:51:04;100;1320;-1320;0
2024-03-15 00:52:06;100;1320;-1320;0
2024-03-15 00:53:08;100;1320;-1320;0
2024-03-15 00:54:06;100;1320;-1320;0
2024-03-15 00:55:08;100;1320;-1320;0
2024-03-15 00:56:05;100;1320;-1320;0
2024-03-15 00:57:07;100;1320;-1320;0
2024-03-15 00:58:05;100;1320;-1320;0
2024-03-15 00:59:07;100;1320;-1320;0
2024-03-15 01:00:04;100;1320;-1320;0
2024-03-15 01:01:06;100;1320;-1320;0
2024-03-15 01:02:08;100;1320;-1320;0
2024-03-15 01:03:06;100;1320;-1320;0
2024-03-15 01:04:08;100;1320;-1320;0
2024-03-15 01:05:05;100;1320;-1320;0
2024-03-15 01:06:07;100;1320;-1320;0
2024-03-15 01:07:04;100;1320;-1320;0
2024-03-15 01:08:06;100;1320;-1320;0
2024-03-15 01:09:04;100;1320;-1320;0
2024-03-15 01:10:06;100;1320;-1320;0
2024-03-15 01:11:08;100;1320;-1320;0
2024-03-15 01:12:05;100;1320;-1320;0
2024-03-15 01:13:07;100;1320;-1320;0
2024-03-15 01:14:05;100;1320;-1320;0
2024-03-15 01:15:07;100;1320;-1320;0
2024-03-15 01:16:04;100;1320;-1320;0
2024-03-15 01:17:06;100;1320;-1320;0
2024-03-15 01:18:08;100;1320;-1320;0
2024-03-15 01:19:06;100;1320;-1320;0
2024-03-15 01:20:08;100;1320;-1320;0
2024-03-15 01:21:05;100;1320;-1320;0
2024-03-15 01:22:07;100;1320;-1320;0
2024-03-15 01:23:05;100;1320;-1320;0
2024-03-15 01:24:07;100;1320;-1320;0
2024-03-15 01:25:04;100;1320;-1320;0
2024-03-15 01:26:06;100;1320;-1320;0
2024-03-15 01:27:08;99;1320;-1320;0
2024-03-15 01:28:06;100;1320;-1320;0
2024-03-15 01:29:08;100;1320;-1320;0
2024-03-15 01:30:05;100;1320;-1320;0
2024-03-15 01:31:07;100;1320;-1320;0
2024-03-15 01:32:05;100;1320;-1320;0
2024-03-15 01:33:07;100;1320;-1320;0
2024-03-15 01:34:04;100;1320;-1320;0
2024-03-15 01:35:06;100;1320;-1320;0
2024-03-15 01:36:08;99;1320;-1320;0
2024-03-15 01:37:06;99;1320;-1320;0
2024-03-15 01:38:08;100;1320;-1320;0
2024-03-15 01:39:05;100;1320;-1320;0
2024-03-15 01:40:07;100;1320;-1320;0
2024-03-15 01:41:05;99;1320;-1320;0
2024-03-15 01:42:07;100;1320;-1320;0
2024-03-15 01:43:04;99;1320;-1320;0
2024-03-15 01:44:06;99;1320;-1320;0
2024-03-15 01:45:08;100;1320;-1320;0
2024-03-15 01:46:06;100;1320;-1320;0
2024-03-15 01:47:08;99;1320;-1320;0
2024-03-15 01:48:05;100;1320;-1320;0
2024-03-15 01:49:07;99;1320;-1320;0
2024-03-15 01:50:05;99;1320;-1320;0
2024-03-15 01:51:07;99;1320;-1320;0
2024-03-15 01:52:04;99;1320;-1320;0
2024-03-15 01:53:06;100;1320;-1320;0
2024-03-15 01:54:08;99;1320;-1320;0
2024-03-15 01:55:06;99;1320;-1320;0
2024-03-15 01:56:08;100;1320;-1320;0
2024-03-15 01:57:05;99;1320;-1320;0
2024-03-15 01:58:07;100;1320;-1320;0
2024-03-15 01:59:05;99;1320;-1320;0
2024-03-15 02:00:07;99;1320;-1320;0
2024-03-15 02:01:04;99;1320;-1320;0
2024-03-15 02:02:06;99;1320;-1320;0
2024-03-15 02:03:08;99;1320;-1320;0
2024-03-15 02:04:06;99;1320;-1320;0
2024-03-15 02:05:08;99;1320;-1320;0
2024-03-15 02:06:05;99;1320;-1320;0
2024-03-15 02:07:07;99;1320;-1320;0
2024-03-15 02:08:05;99;1320;-1320;0
2024-03-15 02:09:07;99;1320;-1320;0
2024-03-15 02:10:04;99;1320;-1320;0
2024-03-15 02:11:06;99;1320;-1320;0
2024-03-15 02:12:08;99;1320;-1320;0
2024-03-15 02:13:06;99;1320;-1320;0
2024-03-15 02:14:08;99;1320;-1320;0
2024-03-15 02:15:05;100;1320;-1320;0
2024-03-15 02:16:07;99;1320;-1320;0
2024-03-15 02:17:00;99;1320;-1320;1
2024-03-15 02:18:07;99;1320;-1320;2
2024-03-15 02:19:03;99;1320;-1320;3
2024-03-15 02:20:05;99;1320;-1320;4
2024-03-15 02:21:06;99;1320;-1320;5
2024-03-15 02:22:08;99;1320;-1320;5
2024-03-15 02:23:06;99;1320;-1320;6
2024-03-15 02:24:08;99;1320;-1320;6
2024-03-15 02:25:05;99;1320;-1320;6
2024-03-15 02:26:07;99;1320;-1320;6
2024-03-15 02:27:05;99;1320;-1320;6
2024-03-15 02:28:04;99;1320;-1320;7
2024-03-15 02:29:06;100;1320;-1320;7
2024-03-15 02:30:08;99;1320;-1320;7
2024-03-15 02:31:06;99;1320;-1320;7
2024-03-15 02:32:08;99;1320;-1320;7
2024-03-15 02:33:05;99;1320;-1320;7
2024-03-15 02:34:07;99;1320;-1320;7
2024-03-15 02:35:05;99;1320;-1320;7
2024-03-15 02:36:07;99;1320;-1320;7
2024-03-15 02:37:04;99;1320;-1320;7
2024-03-15 02:38:06;99;1320;-1320;7
2024-03-15 02:39:08;99;1320;-1320;7
2024-03-15 02:40:06;99;1320;-1320;7
2024-03-15 02:41:08;99;1320;-1320;7
2024-03-15 02:42:05;99;1320;-1320;7
2024-03-15 02:43:07;100;1320;-1320;7
2024-03-15 02:44:04;99;1320;-1320;7
2024-03-15 02:45:06;99;1320;-1320;7
2024-03-15 02:46:08;99;1320;-1320;7
2024-03-15 02:47:06;99;1320;-1320;7
2024-03-15 02:48:08;99;1320;-1320;7
2024-03-15 02:49:05;99;1320;-1320;7
2024-03-15 02:50:07;99;1320;-1320;7
2024-03-15 02:51:05;99;1320;-1320;7
2024-03-15 02:52:07;99;1320;-1320;7
2024-03-15 02:53:04;99;1320;-1320;7
2024-03-15 02:54:06;99;1320;-1320;7
2024-03-15 02:55:08;99;1320;-1320;7
2024-03-15 02:56:06;99;1320;-1320;7
2024-03-15 02:57:08;99;1320;-1320;7
2024-03-15 02:58:05;99;1320;-1320;7
2024-03-15 02:59:07;99;1320;-1320;7
2024-03-15 03:00:05;99;1320;-1320;7
2024-03-15 03:01:07;99;1320;-1320;7
2024-03-15 03:02:04;99;1320;-1320;7
2024-03-15 03:03:06;99;1320;-1320;7
2024-03-15 03:04:08;99;1320;-1320;7
2024-03-15 03:05:06;99;1320;-1320;7
2024-03-15 03:06:08;99;1320;-1320;7
2024-03-15 03:07:05;99;1320;-1320;7
2024-03-15 03:08:07;99;1320;-1320;7
2024-03-15 03:09:05;99;1320;-1320;7
2024-03-15 03:10:07;99;1320;-1320;7
2024-03-15 03:11:04;99;1320;-1320;7
2024-03-15 03:12:06;99;1320;-1320;7
2024-03-15 03:13:08;99;1320;-1320;7
2024-03-15 03:14:05;99;1320;-1320;7
2024-03-15 03:15:08;99;1320;-1320;7
2024-03-15 03:16:05;99;1320;-1320;7
2024-03-15 03:17:07;99;1320;-1320;7
2024-03-15 03:18:04;99;1320;-1320;7
2024-03-15 03:19:06;99;1320;-1320;7
2024-03-15 03:20:08;99;1320;-1320;7
2024-03-15 03:21:06;99;1320;-1320;7
2024-03-15 03:22:08;99;1320;-1320;7
2024-03-15 03:23:05;99;1320;-1320;7
2024-03-15 03:24:07;99;1320;-1320;7
2024-03-15 03:25:05;99;1320;-1320;7
2024-03-15 03:26:07;99;1320;-1320;7
2024-03-15 03:27:04;99;1320;-1320;7
2024-03-15 03:28:06;99;1320;-1320;7
2024-03-15 03:29:08;99;1320;-1320;7
2024-03-15 03:30:06;99;1320;-1320;7
2024-03-15 03:31:08;99;1320;-1320;7
2024-03-15 03:32:05;99;1320;-1320;7
2024-03-15 03:33:07;99;1320;-1320;7
2024-03-15 03:34:05;99;1320;-1320;7
2024-03-15 03:35:07;99;1320;-1320;7
2024-03-15 03:36:04;99;1320;-1320;7
2024-03-15 03:37:06;99;1320;-1320;7
2024-03-15 03:38:08;99;1320;-1320;7
2024-03-15 03:39:06;99;1320;-1320;7
2024-03-15 03:40:08;98;1320;-1320;7
2024-03-15 03:41:05;98;1320;-1320;7
2024-03-15 03:42:07;98;1320;-1320;7
2024-03-15 03:43:05;98;1320;-1320;7
2024-03-15 03:44:07;98;1320;-1320;7
2024-03-15 03:45:04;98;1320;-1320;7
2024-03-15 03:46:06;99;1320;-1320;7
2024-03-15 03:47:08;98;1320;-1320;7
2024-03-15 03:48:05;98;1320;-1320;7
2024-03-15 03:49:08;98;1320;-1320;7
2024-03-15 03:50:05;98;1320;-1320;7
2024-03-15 03:51:07;98;1320;-1320;7
2024-03-15 03:52:04;99;1320;-1320;7
2024-03-15 03:53:06;99;1320;-1320;7
2024-03-15 03:54:08;99;1320;-1320;7
2024-03-15 03:55:06;99;1320;-1320;7
2024-03-15 03:56:08;98;1320;-1320;7
2024-03-15 03:57:05;98;1320;-1320;7
2024-03-15 03:58:07;98;1320;-1320;7
2024-03-15 03:59:05;99;1320;-1320;7
2024-03-15 04:00:07;98;1320;-1320;7
2024-03-15 04:01:04;97;1320;-1320;7
2024-03-15 04:02:06;98;1320;-1320;7
2024-03-15 04:03:08;99;1320;-1320;7
2024-03-15 04:04:06;99;1320;-1320;7
2024-03-15 04:05:08;99;1320;-1320;7
2024-03-15 04:06:05;99;1320;-1320;7
2024-03-15 04:07:07;99;1320;-1320;7
2024-03-15 04:08:05;99;1320;-1320;7
2024-03-15 04:09:07;99;1320;-1320;7
2024-03-15 04:10:04;99;1320;-1320;7
2024-03-15 04:11:06;99;1320;-1320;7
2024-03-15 04:12:08;99;1320;-1320;7
2024-03-15 04:13:06;99;1320;-1320;7
2024-03-15 04:14:08;99;1320;-1320;7
2024-03-15 04:15:05;99;1320;-1320;7
2024-03-15 04:16:07;99;1320;-1320;7
2024-03-15 04:17:05;99;1320;-1320;7
2024-03-15 04:18:07;99;1320;-1320;7
2024-03-15 04:19:04;99;1320;-1320;7
2024-03-15 04:20:06;99;1320;-1320;7
2024-03-15 04:21:08;99;1320;-1320;7
2024-03-15 04:22:06;99;1320;-1320;7
2024-03-15 04:23:08;99;1320;-1320;7
2024-03-15 04:24:05;99;1320;-1320;7
2024-03-15 04:25:07;99;1320;-1320;7
2024-03-15 04:26:04;99;1320;-1320;7
2024-03-15 04:27:06;99;1320;-1320;7
2024-03-15 04:28:04;99;1320;-1320;7
2024-03-15 04:29:06;99;1320;-1320;7
2024-03-15 04:30:08;99;1320;-1320;7
2024-03-15 04:31:05;99;1320;-1320;7
2024-03-15 04:32:07;99;1320;-1320;7
2024-03-15 04:33:05;99;1320;-1320;7
2024-03-15 04:34:07;99;1320;-1320;7
2024-03-15 04:35:04;99;1320;-1320;7
2024-03-15 04:36:06;99;1320;-1320;7
2024-03-15 04:37:08;99;1320;-1320;7
2024-03-15 04:38:06;99;1320;-1320;7
2024-03-15 04:39:08;99;1320;-1320;7
2024-03-15 04:40:05;99;1320;-1320;7
2024-03-15 04:41:07;99;1320;-1320;7
2024-03-15 04:42:05;99;1320;-1320;7
2024-03-15 04:43:07;99;1320;-1320;7
2024-03-15 04:44:04;99;1320;-1320;7
2024-03-15 04:45:06;99;1320;-1320;7
2024-03-15 04:46:08;99;1320;-1320;7
2024-03-15 04:47:06;99;1320;-1320;7
2024-03-15 04:48:08;99;1320;-1320;7
2024-03-15 04:49:05;99;1320;-1320;7
2024-03-15 04:50:07;99;1320;-1320;7
2024-03-15 04:51:05;99;1320;-1320;7
2024-03-15 04:52:07;99;1320;-1320;7
2024-03-15 04:53:04;99;1320;-1320;7
2024-03-15 04:54:06;99;1320;-1320;7
2024-03-15 04:55:08;99;1320;-1320;7
2024-03-15 04:56:06;99;1320;-1320;7
2024-03-15 04:57:08;99;1320;-1320;7
2024-03-15 04:58:05;99;1320;-1320;7
2024-03-15 04:59:07;99;1320;-1320;7
2024-03-15 05:00:05;99;1320;-1320;7
2024-03-15 05:01:07;99;1320;-1320;7
2024-03-15 05:02:04;99;1320;-1320;7
2024-03-15 05:03:06;99;1320;-1320;7
2024-03-15 05:04:08;99;1320;-1320;7
2024-03-15 05:05:06;99;1320;-1320;7
2024-03-15 05:06:08;99;1320;-1320;7
2024-03-15 05:07:05;99;1320;-1320;7
2024-03-15 05:08:07;99;1320;-1320;7
2024-03-15 05:09:05;99;1320;-1320;7
2024-03-15 05:10:07;99;1320;-1320;7
2024-03-15 05:11:04;99;1320;-1320;7
2024-03-15 05:12:06;99;1320;-1320;7
2024-03-15 05:13:08;99;1320;-1320;7
2024-03-15 05:14:06;99;1320;-1320;7
2024-03-15 05:15:08;99;1320;-1320;7
2024-03-15 05:16:05;99;1320;-1320;7
2024-03-15 05:17:07;99;1320;-1320;7
2024-03-15 05:18:04;99;1320;-1320;7
2024-03-15 05:19:06;99;1320;-1320;7
2024-03-15 05:20:04;99;1320;-1320;7
2024-03-15 05:21:06;99;1320;-1320;7
2024-03-15 05:22:08;99;1320;-1320;7
2024-03-15 05:23:05;99;1320;-1320;7
2024-03-15 05:24:07;99;1320;-1320;7
2024-03-15 05:25:05;99;1320;-1320;7
2024-03-15 05:26:07;99;1320;-1320;7
2024-03-15 05:27:04;99;1320;-1320;7
2024-03-15 05:28:06;99;1320;-1320;7
2024-03-15 05:29:08;99;1320;-1320;7
2024-03-15 05:30:06;99;1320;-1320;7
2024-03-15 05:31:08;99;1320;-1320;7
2024-03-15 05:32:05;99;1320;-1320;7
2024-03-15 05:33:07;99;1320;-1320;7
2024-03-15 05:34:05;99;1320;-1320;7
2024-03-15 05:35:07;99;1320;-1320;7
2024-03-15 05:36:04;99;1320;-1320;7
2024-03-15 05:37:06;99;1320;-1320;7
2024-03-15 05:38:08;99;1320;-1320;7
2024-03-15 05:39:06;99;1320;-1320;7
2024-03-15 05:40:08;99;1320;-1320;7
2024-03-15 05:41:05;99;1320;-1320;7
2024-03-15 05:42:07;99;1320;-1320;7
2024-03-15 05:43:05;99;1320;-1320;7
2024-03-15 05:44:07;99;1320;-1320;7
2024-03-15 05:45:04;99;1320;-1320;7
2024-03-15 05:46:06;99;1320;-1320;7
2024-03-15 05:47:08;99;1320;-1320;7
2024-03-15 05:48:06;99;1320;-1320;7
2024-03-15 05:49:08;99;1320;-1320;7
2024-03-15 05:50:05;99;1320;-1320;7
2024-03-15 05:51:07;99;1320;-1320;7
2024-03-15 05:52:05;99;1320;-1320;7
2024-03-15 05:53:07;99;1320;-1320;7
2024-03-15 05:54:04;99;1320;-1320;7
2024-03-15 05:55:06;99;1320;-1320;7
2024-03-15 05:56:08;99;1320;-1320;7
2024-03-15 05:57:06;99;1320;-1320;7
2024-03-15 05:58:08;99;1320;-1320;7
2024-03-15 05:59:05;99;1320;-1320;7
2024-03-15 06:00:07;99;1320;-1320;7
2024-03-15 06:01:05;99;1320;-1320;7
2024-03-15 06:02:07;99;1320;-1320;7
2024-03-15 06:03:04;99;1320;-1320;7
2024-03-15 06:04:06;99;1320;-1320;7
2024-03-15 06:05:08;99;1320;-1320;7
2024-03-15 06:06:06;99;1320;-1320;7
2024-03-15 06:07:08;99;1320;-1320;7
2024-03-15 06:08:05;99;1320;-1320;7
2024-03-15 06:09:07;99;1320;-1320;7
2024-03-15 06:10:05;99;1320;-1320;7
2024-03-15 06:11:07;99;1320;-1320;7
2024-03-15 06:12:04;99;1320;-1320;7
2024-03-15 06:13:06;99;1320;-1320;7
2024-03-15 06:14:08;99;1320;-1320;7
2024-03-15 06:15:05;99;1320;-1320;7
2024-03-15 06:16:08;99;1320;-1320;7
2024-03-15 06:17:05;99;1320;-1320;7
2024-03-15 06:18:07;99;1320;-1320;7
2024-03-15 06:19:04;99;1320;-1320;7
2024-03-15 06:20:06;99;1320;-1320;7
2024-03-15 06:21:08;99;1320;-1320;7
2024-03-15 06:22:06;99;1320;-1320;7
2024-03-15 06:23:08;99;1320;-1320;7
2024-03-15 06:24:05;99;1320;-1320;7
2024-03-15 06:25:07;99;1320;-1320;7
2024-03-15 06:26:05;99;1320;-1320;7
2024-03-15 06:27:07;99;1320;-1320;7
2024-03-15 06:28:04;99;1320;-1320;7
2024-03-15 06:29:06;99;1320;-1320;7
2024-03-15 06:30:08;99;1320;-1320;7
2024-03-15 06:31:06;99;1320;-1320;7
2024-03-15 06:32:08;99;1320;-1320;7
2024-03-15 06:33:05;99;1320;-1320;7
2024-03-15 06:34:07;99;1320;-1320;7
2024-03-15 06:35:05;99;1320;-1320;7
2024-03-15 06:36:07;99;1320;-1320;7
2024-03-15 06:37:04;99;1320;-1320;7
2024-03-15 06:38:06;99;1320;-1320;7
2024-03-15 06:39:08;99;1320;-1320;7
2024-03-15 06:40:06;99;1320;-1320;7
2024-03-15 06:41:08;99;1320;-1320;7
2024-03-15 06:42:05;99;1320;-1320;7
2024-03-15 06:43:07;99;1320;-1320;7
2024-03-15 06:44:05;99;1320;-1320;7
2024-03-15 06:45:07;99;1320;-1320;7
2024-03-15 06:46:04;99;1320;-1320;7
2024-03-15 06:47:06;99;1320;-1320;7
2024-03-15 06:48:08;99;1320;-1320;7
2024-03-15 06:49:06;99;1320;-1320;7
2024-03-15 06:50:08;99;1320;-1320;7
2024-03-15 06:51:05;99;1320;-1320;7
2024-03-15 06:52:07;99;1320;-1320;7
2024-03-15 06:53:05;98;1320;-1320;7
2024-03-15 06:54:07;98;1320;-1320;7
2024-03-15 06:55:04;98;1320;-1320;7
2024-03-15 06:56:06;99;1320;-1320;7
2024-03-15 06:57:08;98;1320;-1320;7
2024-03-15 06:58:06;98;1320;-1320;7
2024-03-15 06:59:08;99;1320;-1320;7
2024-03-15 07:00:05;98;1320;-1320;7
2024-03-15 07:01:07;99;1320;-1320;7
2024-03-15 07:02:05;99;1320;-1320;7
2024-03-15 07:03:07;99;1320;-1320;7
2024-03-15 07:04:04;99;1320;-1320;7
2024-03-15 07:05:06;99;1320;-1320;7
2024-03-15 07:06:08;99;1320;-1320;7
2024-03-15 07:07:06;98;1320;-1320;7
2024-03-15 07:08:08;98;1320;-1320;7
2024-03-15 07:09:05;98;1320;-1320;7
2024-03-15 07:10:07;99;1320;-1320;7
2024-03-15 07:11:04;98;1320;-1320;7
2024-03-15 07:12:06;98;1320;-1320;7
2024-03-15 07:13:04;98;1320;-1320;7
2024-03-15 07:14:06;98;1320;-1320;7
2024-03-15 07:15:08;98;1320;-1320;7
2024-03-15 07:16:05;98;1320;-1320;7
2024-03-15 07:17:07;98;1320;-1320;7
2024-03-15 07:18:05;98;1320;-1320;7
2024-03-15 07:19:07;98;1320;-1320;7
2024-03-15 07:20:04;98;1320;-1320;7
2024-03-15 07:21:06;98;1320;-1320;7
2024-03-15 07:22:08;98;1320;-1320;7
2024-03-15 07:23:06;98;1320;-1320;7
2024-03-15 07:24:08;98;1320;-1320;7
2024-03-15 07:25:05;98;1320;-1320;7
2024-03-15 07:26:07;98;1320;-1320;7
2024-03-15 07:27:05;98;1320;-1320;7
2024-03-15 07:28:07;98;1320;-1320;7
2024-03-15 07:29:04;98;1320;-1320;7
2024-03-15 07:30:06;98;1320;-1320;7
2024-03-15 07:31:08;98;1320;-1320;7
2024-03-15 07:32:06;98;1320;-1320;7
2024-03-15 07:33:08;98;1320;-1320;7
2024-03-15 07:34:05;98;1320;-1320;7
2024-03-15 07:35:07;98;1320;-1320;7
2024-03-15 07:36:05;98;1320;-1320;7
2024-03-15 07:37:07;98;1320;-1320;7
2024-03-15 07:38:04;98;1320;-1320;7
2024-03-15 07:39:06;98;1320;-1320;7
2024-03-15 07:40:08;98;1320;-1320;7
2024-03-15 07:41:06;98;1320;-1320;7
2024-03-15 07:42:08;98;1320;-1320;7
2024-03-15 07:43:05;98;1320;-1320;7
2024-03-15 07:44:07;98;1320;-1320;7
2024-03-15 07:45:05;98;1320;-1320;7
2024-03-15 07:46:07;98;1320;-1320;7
2024-03-15 07:47:04;98;1320;-1320;7
2024-03-15 07:48:06;98;1320;-1320;7
2024-03-15 07:49:08;98;1320;-1320;7
2024-03-15 07:50:06;98;1320;-1320;7
2024-03-15 07:51:08;97;1320;-1320;7
2024-03-15 07:52:05;97;1320;-1320;7
2024-03-15 07:53:07;97;1320;-1320;7
2024-03-15 07:54:05;97;1320;-1320;7
2024-03-15 07:55:07;97;1320;-1320;7
2024-03-15 07:56:04;97;1320;-1320;7
2024-03-15 07:57:06;96;1320;-1320;7
2024-03-15 07:58:08;97;1320;-1320;7
2024-03-15 07:59:06;97;1320;-1320;7
2024-03-15 08:00:08;98;1320;-1320;7
2024-03-15 08:01:05;98;1320;-1320;7
2024-03-15 08:02:07;97;1320;-1320;7
2024-03-15 08:03:05;97;1320;-1320;7
2024-03-15 08:04:07;97;1320;-1320;7
2024-03-15 08:05:04;97;1320;-1320;7
2024-03-15 08:06:06;97;1320;-1320;7
2024-03-15 08:07:08;97;1320;-1320;7
2024-03-15 08:08:06;97;1320;-1320;7
2024-03-15 08:09:08;97;1320;-1320;7
2024-03-15 08:10:05;97;1320;-1320;7
2024-03-15 08:11:07;97;1320;-1320;7
2024-03-15 08:12:05;97;1320;-1320;7
2024-03-15 08:13:07;97;1320;-1320;7
2024-03-15 08:14:04;97;1320;-1320;7
2024-03-15 08:15:06;98;1320;-1320;7
2024-03-15 08:16:08;97;1320;-1320;7
2024-03-15 08:17:06;97;1320;-1320;7
2024-03-15 08:18:08;97;1320;-1320;7
2024-03-15 08:19:05;97;1320;-1320;7
2024-03-15 08:20:07;97;1320;-1320;7
2024-03-15 08:21:05;97;1320;-1320;7
2024-03-15 08:22:07;97;1320;-1320;7
2024-03-15 08:23:04;97;1320;-1320;7
2024-03-15 08:24:06;97;1320;-1320;7
2024-03-15 08:25:08;97;1320;-1320;7
2024-03-15 08:26:06;97;1320;-1320;7
2024-03-15 08:27:08;97;1320;-1320;7
2024-03-15 08:28:05;97;1320;-1320;7
2024-03-15 08:29:07;98;1320;-1320;7
2024-03-15 08:30:05;97;1320;-1320;7
2024-03-15 08:31:07;97;1320;-1320;7
2024-03-15 08:32:04;97;1320;-1320;7
2024-03-15 08:33:06;97;1320;-1320;8
2024-03-15 08:34:08;97;1320;-1320;8
2024-03-15 08:35:06;97;1320;-1320;9
2024-03-15 08:36:08;97;1320;-1320;9
2024-03-15 08:37:05;97;1320;-1320;9
2024-03-15 08:38:07;97;1320;-1320;9
2024-03-15 08:39:02;97;1320;-1320;10
2024-03-15 08:40:09;97;1320;-1320;10
2024-03-15 08:41:06;97;1320;-1320;10
2024-03-15 08:42:08;97;1320;-1320;10
2024-03-15 08:43:06;97;1320;-1320;10
2024-03-15 08:44:08;97;1320;-1320;10
2024-03-15 08:45:05;97;1320;-1320;10
2024-03-15 08:46:07;97;1320;-1320;10
2024-03-15 08:47:05;97;1320;-1320;10
2024-03-15 08:48:07;97;1320;-1320;10
2024-03-15 08:49:04;97;1320;-1320;10
2024-03-15 08:50:06;97;1320;-1320;10
2024-03-15 08:51:08;97;1320;-1320;10
2024-03-15 08:52:06;97;1320;-1320;10
2024-03-15 08:53:08;97;1320;-1320;10
2024-03-15 08:54:05;97;1320;-1320;10
2024-03-15 08:55:05;97;1320;-1320;11
2024-03-15 08:56:07;97;1320;-1320;11
2024-03-15 08:57:05;97;1320;-1320;11
2024-03-15 08:58:07;97;1320;-1320;11
2024-03-15 08:59:04;97;1320;-1320;11
2024-03-15 09:00:06;97;1320;-1320;11
2024-03-15 09:01:08;97;1320;-1320;11
2024-03-15 09:02:06;97;1320;-1320;11
2024-03-15 09:03:08;97;1320;-1320;11
2024-03-15 09:04:05;97;1320;-1320;11
2024-03-15 09:05:07;97;1320;-1320;11
2024-03-15 09:06:05;97;1320;-1320;11
2024-03-15 09:07:07;97;1320;-1320;11
2024-03-15 09:08:04;96;1320;-1320;11
2024-03-15 09:09:06;96;1320;-1320;11
2024-03-15 09:10:08;97;1320;-1320;11
2024-03-15 09:11:06;96;1320;-1320;11
2024-03-15 09:12:08;97;1320;-1320;11
2024-03-15 09:13:05;95;1320;-1320;11
2024-03-15 09:14:07;97;1320;-1320;11
2024-03-15 09:15:05;97;1320;-1320;11
2024-03-15 09:16:07;97;1320;-1320;11
2024-03-15 09:17:04;97;1320;-1320;11
2024-03-15 09:18:06;96;1320;-1320;11
2024-03-15 09:19:08;96;1320;-1320;11
2024-03-15 09:20:06;96;1320;-1320;11
2024-03-15 09:21:08;96;1320;-1320;11
2024-03-15 09:22:05;96;1320;-1320;11
2024-03-15 09:23:07;97;1320;-1320;11
2024-03-15 09:24:05;97;1320;-1320;11
2024-03-15 09:25:07;97;1320;-1320;11
2024-03-15 09:26:04;97;1320;-1320;11
2024-03-15 09:27:06;96;1320;-1320;11
2024-03-15 09:28:08;97;1320;-1320;11
2024-03-15 09:29:06;97;1320;-1320;11
2024-03-15 09:30:08;96;1320;-1320;11
2024-03-15 09:31:05;96;1320;-1320;11
2024-03-15 09:32:07;96;1320;-1320;11
2024-03-15 09:33:05;97;1320;-1320;11
2024-03-15 09:34:07;97;1320;-1320;11
2024-03-15 09:35:04;97;1320;-1320;11
2024-03-15 09:36:06;97;1320;-1320;11
2024-03-15 09:37:08;97;1320;-1320;11
2024-03-15 09:38:05;97;1320;-1320;12
2024-03-15 09:39:07;97;1320;-1320;12
2024-03-15 09:40:04;97;1320;-1320;12
2024-03-15 09:41:06;97;1320;-1320;12
2024-03-15 09:42:05;97;1320;-1320;13
2024-03-15 09:43:07;97;1320;-1320;13
2024-03-15 09:44:04;97;1320;-1320;13
2024-03-15 09:45:06;97;1320;-1320;13
2024-03-15 09:46:05;97;1320;-1320;14
2024-03-15 09:47:07;97;1320;-1320;15
2024-03-15 09:48:01;97;1320;-1320;17
2024-03-15 09:48:59;97;1320;-1320;21
2024-03-15 09:49:06;97;1320;-1320;21
2024-03-15 09:50:03;97;1320;-1320;26
2024-03-15 09:50:58;97;1320;-1320;29
2024-03-15 09:51:05;97;1320;-1320;29
2024-03-15 09:52:04;97;1320;-1320;30
2024-03-15 09:53:06;97;1320;-1320;30
2024-03-15 09:54:08;97;1320;-1320;31
2024-03-15 09:55:06;97;1320;-1320;31
2024-03-15 09:56:08;97;1320;-1320;31
2024-03-15 09:57:05;97;1320;-1320;31
2024-03-15 09:58:07;97;1320;-1320;31
2024-03-15 09:59:05;97;1320;-1320;31
2024-03-15 10:00:07;97;1320;-1320;31
2024-03-15 10:01:04;97;1320;-1320;31
2024-03-15 10:02:06;97;1320;-1320;31
2024-03-15 10:03:08;97;1320;-1320;31
2024-03-15 10:04:06;97;1320;-1320;31
2024-03-15 10:05:08;97;1320;-1320;31
2024-03-15 10:06:05;97;1320;-1320;31
2024-03-15 10:07:07;97;1320;-1320;31
2024-03-15 10:08:05;97;1320;-1320;31
2024-03-15 10:09:07;97;1320;-1320;31
2024-03-15 10:10:04;97;1320;-1320;31
2024-03-15 10:11:06;97;1320;-1320;31
2024-03-15 10:12:08;97;1320;-1320;31
2024-03-15 10:13:02;97;1320;-1320;32
2024-03-15 10:14:05;97;1320;-1320;32
2024-03-15 10:15:07;98;1320;-1320;32
2024-03-15 10:16:04;97;1320;-1320;32
2024-03-15 10:17:06;97;1320;-1320;32
2024-03-15 10:18:08;97;1320;-1320;32
2024-03-15 10:19:06;97;1320;-1320;32
2024-03-15 10:20:08;97;1320;-1320;32
2024-03-15 10:21:05;97;1320;-1320;32
2024-03-15 10:22:07;97;1320;-1320;32
2024-03-15 10:23:04;97;1320;-1320;32
2024-03-15 10:24:06;97;1320;-1320;32
2024-03-15 10:25:09;97;1320;-1320;32
2024-03-15 10:26:06;97;1320;-1320;32
2024-03-15 10:27:08;97;1320;-1320;32
2024-03-15 10:28:05;97;1320;-1320;32
2024-03-15 10:29:07;97;1320;-1320;32
2024-03-15 10:30:05;97;1320;-1320;32
2024-03-15 10:31:07;97;1320;-1320;32
2024-03-15 10:32:04;97;1320;-1320;32
2024-03-15 10:33:06;97;1320;-1320;32
2024-03-15 10:34:09;97;1320;-1320;32
2024-03-15 10:35:06;97;1320;-1320;32
2024-03-15 10:36:08;97;1320;-1320;32
2024-03-15 10:37:05;97;1320;-1320;32
2024-03-15 10:38:08;97;1320;-1320;32
2024-03-15 10:39:05;97;1320;-1320;32
2024-03-15 10:40:07;97;1320;-1320;32
2024-03-15 10:41:04;97;1320;-1320;32
2024-03-15 10:42:07;97;1320;-1320;32
2024-03-15 10:43:04;97;1320;-1320;32
2024-03-15 10:44:06;97;1320;-1320;32
2024-03-15 10:45:08;94;1320;-1320;32
2024-03-15 10:46:06;95;1320;-1320;32
2024-03-15 10:47:08;97;1320;-1320;32
2024-03-15 10:48:05;96;1320;-1320;32
2024-03-15 10:49:07;96;1320;-1320;32
2024-03-15 10:50:05;96;1320;-1320;32
2024-03-15 10:51:07;96;1320;-1320;32
2024-03-15 10:52:04;96;1320;-1320;32
2024-03-15 10:53:06;96;1320;-1320;32
2024-03-15 10:54:08;96;1320;-1320;32
2024-03-15 10:55:06;95;1320;-1320;32
2024-03-15 10:56:08;96;1320;-1320;32
2024-03-15 10:57:05;96;1320;-1320;32
2024-03-15 10:58:07;96;1320;-1320;32
2024-03-15 10:59:05;96;1320;-1320;32
2024-03-15 11:00:07;96;1320;-1320;32
2024-03-15 11:01:04;96;1320;-1320;32
2024-03-15 11:02:06;96;1320;-1320;32
2024-03-15 11:03:08;96;1320;-1320;32
2024-03-15 11:04:06;96;1320;-1320;32
2024-03-15 11:05:08;96;1320;-1320;32
2024-03-15 11:06:05;96;1320;-1320;32
2024-03-15 11:07:07;95;1320;-1320;32
2024-03-15 11:08:05;96;1320;-1320;32
2024-03-15 11:09:07;96;1320;-1320;32
2024-03-15 11:10:04;96;1320;-1320;32
2024-03-15 11:11:06;95;1320;-1320;32
2024-03-15 11:12:08;96;1320;-1320;33
2024-03-15 11:13:02;94;1320;-1320;35
2024-03-15 11:14:05;95;1320;-1320;36
2024-03-15 11:15:02;96;1320;-1320;37
2024-03-15 11:16:07;95;1320;-1320;38
2024-03-15 11:17:04;96;1320;-1320;39
2024-03-15 11:18:06;94;1320;-1320;39
2024-03-15 11:19:09;94;1320;-1320;39
2024-03-15 11:20:06;95;1320;-1320;39
2024-03-15 11:21:08;95;1320;-1320;39
2024-03-15 11:22:03;95;1320;-1320;40
2024-03-15 11:23:05;94;1320;-1320;40
2024-03-15 11:24:05;94;1320;-1320;41
2024-03-15 11:25:07;95;1320;-1320;41
2024-03-15 11:26:04;94;1320;-1320;41
2024-03-15 11:27:06;96;1320;-1320;41
2024-03-15 11:28:08;94;1320;-1320;41
2024-03-15 11:29:06;95;1320;-1320;41
2024-03-15 11:30:08;97;1320;-1320;41
2024-03-15 11:31:05;95;1320;-1320;41
2024-03-15 11:32:07;98;1320;-1320;41
2024-03-15 11:33:05;95;1320;-1320;41
2024-03-15 11:34:07;95;1320;-1320;41
2024-03-15 11:35:04;97;1320;-1320;41
2024-03-15 11:36:06;97;1320;-1320;41
2024-03-15 11:37:09;97;1320;-1320;41
2024-03-15 11:38:06;97;1320;-1320;41
2024-03-15 11:39:08;97;1320;-1320;41
2024-03-15 11:40:06;97;1320;-1320;41
2024-03-15 11:41:08;97;1320;-1320;41
2024-03-15 11:42:05;97;1320;-1320;41
2024-03-15 11:43:07;97;1320;-1320;41
2024-03-15 11:44:05;97;1320;-1320;41
2024-03-15 11:45:07;97;1320;-1320;41
2024-03-15 11:46:04;97;1320;-1320;41
2024-03-15 11:47:06;97;1320;-1320;41
2024-03-15 11:48:08;97;1320;-1320;41
2024-03-15 11:49:06;97;1320;-1320;41
2024-03-15 11:50:08;97;1320;-1320;41
2024-03-15 11:51:05;97;1320;-1320;41
2024-03-15 11:52:08;98;1320;-1320;41
2024-03-15 11:53:05;100;1320;-1320;41
2024-03-15 11:54:07;99;1320;-1320;41
2024-03-15 11:55:05;98;1320;-1320;41
2024-03-15 11:56:07;99;1320;-1320;41
2024-03-15 11:57:04;99;1320;-1320;41
2024-03-15 11:58:02;99;1320;-1320;42
2024-03-15 11:59:09;100;1320;-1320;42
2024-03-15 12:00:06;100;1320;-1320;42
2024-03-15 12:01:09;100;1320;-1320;42
2024-03-15 12:02:06;100;1320;-1320;42
2024-03-15 12:03:08;100;1320;-1320;42
2024-03-15 12:04:06;100;1320;-1320;42
2024-03-15 12:05:08;100;1320;-1320;42
2024-03-15 12:06:05;100;1320;-1320;42
2024-03-15 12:07:08;100;1320;-1320;42
2024-03-15 12:08:05;100;1320;-1320;42
2024-03-15 12:09:07;100;1320;-1320;42
2024-03-15 12:10:05;99;1320;-1320;42
2024-03-15 12:11:07;99;1320;-1320;42
2024-03-15 12:12:05;99;1320;-1320;42
2024-03-15 12:13:07;99;1320;-1320;42
2024-03-15 12:14:04;100;1320;-1320;42
2024-03-15 12:15:07;100;1320;-1320;42
2024-03-15 12:16:04;100;1320;-1320;42
2024-03-15 12:17:06;100;1320;-1320;42
2024-03-15 12:18:08;100;1320;-1320;42
2024-03-15 12:19:06;100;1320;-1320;42
2024-03-15 12:20:08;100;1320;-1320;42
2024-03-15 12:21:06;100;1320;-1320;42
2024-03-15 12:22:08;100;1320;-1320;42
2024-03-15 12:23:06;100;1320;-1320;42
2024-03-15 12:24:08;100;1320;-1320;42
2024-03-15 12:25:05;100;1320;-1320;42
2024-03-15 12:26:08;100;1320;-1320;42
2024-03-15 12:27:05;100;1320;-1320;42
2024-03-15 12:28:07;99;1320;-1320;42
2024-03-15 12:29:05;100;1320;-1320;42
2024-03-15 12:30:07;99;1320;-1320;42
2024-03-15 12:31:05;99;1320;-1320;42
2024-03-15 12:32:07;100;1320;-1320;42
2024-03-15 12:33:04;99;1320;-1320;42
2024-03-15 12:34:07;100;1320;-1320;42
2024-03-15 12:35:04;100;1320;-1320;42
2024-03-15 12:36:06;100;1320;-1320;42
2024-03-15 12:37:08;100;1320;-1320;42
2024-03-15 12:38:06;100;1320;-1320;42
2024-03-15 12:39:08;100;1320;-1320;42
2024-03-15 12:40:06;100;1320;-1320;42
2024-03-15 12:41:08;100;1320;-1320;42
2024-03-15 12:42:05;100;1320;-1320;42
2024-03-15 12:43:08;100;1320;-1320;42
2024-03-15 12:44:05;99;1320;-1320;42
2024-03-15 12:45:07;100;1320;-1320;42
2024-03-15 12:46:05;100;1320;-1320;42
2024-03-15 12:47:07;100;1320;-1320;42
2024-03-15 12:48:05;100;1320;-1320;42
2024-03-15 12:49:07;100;1320;-1320;42
2024-03-15 12:50:04;100;1320;-1320;42
2024-03-15 12:51:07;99;1320;-1320;42
2024-03-15 12:52:04;100;1320;-1320;42
2024-03-15 12:53:06;100;1320;-1320;42
2024-03-15 12:54:08;100;1320;-1320;42
2024-03-15 12:55:06;100;1320;-1320;42
2024-03-15 12:56:08;99;1320;-1320;42
2024-03-15 12:57:06;99;1320;-1320;42
2024-03-15 12:58:08;99;1320;-1320;42
2024-03-15 12:59:05;99;1320;-1320;42
2024-03-15 13:00:08;99;1320;-1320;42
2024-03-15 13:01:05;99;1320;-1320;42
2024-03-15 13:02:07;99;1320;-1320;42
2024-03-15 13:03:05;99;1320;-1320;42
2024-03-15 13:04:07;99;1320;-1320;42
2024-03-15 13:05:05;99;1320;-1320;42
2024-03-15 13:06:07;99;1320;-1320;42
2024-03-15 13:07:04;99;1320;-1320;42
2024-03-15 13:08:06;99;1320;-1320;42
2024-03-15 13:09:08;99;1320;-1320;42
2024-03-15 13:10:06;99;1320;-1320;42
2024-03-15 13:11:08;99;1320;-1320;42
2024-03-15 13:12:06;99;1320;-1320;42
2024-03-15 13:13:08;99;1320;-1320;42
2024-03-15 13:14:05;99;1320;-1320;42
2024-03-15 13:15:08;99;1320;-1320;42
2024-03-15 13:16:05;99;1320;-1320;42
2024-03-15 13:17:07;99;1320;-1320;42
2024-03-15 13:18:05;99;1320;-1320;42
2024-03-15 13:19:07;99;1320;-1320;42
2024-03-15 13:20:04;99;1320;-1320;42
2024-03-15 13:21:07;99;1320;-1320;42
2024-03-15 13:22:04;99;1320;-1320;42
2024-03-15 13:23:06;99;1320;-1320;42
2024-03-15 13:24:08;99;1320;-1320;42
2024-03-15 13:25:06;99;1320;-1320;42
2024-03-15 13:26:08;99;1320;-1320;42
2024-03-15 13:27:06;99;1320;-1320;42
2024-03-15 13:28:08;99;1320;-1320;42
2024-03-15 13:29:05;99;1320;-1320;42
2024-03-15 13:30:07;99;1320;-1320;42
2024-03-15 13:31:05;99;1320;-1320;42
2024-03-15 13:32:07;99;1320;-1320;42
2024-03-15 13:33:05;99;1320;-1320;42
2024-03-15 13:34:07;99;1320;-1320;42
2024-03-15 13:35:04;99;1320;-1320;42
2024-03-15 13:36:07;99;1320;-1320;42
2024-03-15 13:37:04;99;1320;-1320;42
2024-03-15 13:38:06;99;1320;-1320;42
2024-03-15 13:39:08;99;1320;-1320;42
2024-03-15 13:40:06;99;1320;-1320;42
2024-03-15 13:41:08;99;1320;-1320;42
2024-03-15 13:42:06;99;1320;-1320;42
2024-03-15 13:43:08;99;1320;-1320;42
2024-03-15 13:44:05;99;1320;-1320;42
2024-03-15 13:45:07;99;1320;-1320;42
2024-03-15 13:46:05;99;1320;-1320;42
2024-03-15 13:47:07;99;1320;-1320;42
2024-03-15 13:48:05;99;1320;-1320;42
2024-03-15 13:49:07;99;1320;-1320;42
2024-03-15 13:50:04;99;1320;-1320;42
2024-03-15 13:51:07;99;1320;-1320;42
2024-03-15 13:52:04;99;1320;-1320;42
2024-03-15 13:53:06;99;1320;-1320;42
2024-03-15 13:54:08;99;1320;-1320;42
2024-03-15 13:55:06;99;1320;-1320;42
2024-03-15 13:56:08;99;1320;-1320;42
2024-03-15 13:57:06;99;1320;-1320;42
2024-03-15 13:58:08;99;1320;-1320;42
2024-03-15 13:59:05;99;1320;-1320;42
2024-03-15 14:00:07;99;1320;-1320;42
2024-03-15 14:01:05;99;1320;-1320;42
2024-03-15 14:02:07;99;1320;-1320;42
2024-03-15 14:03:05;99;1320;-1320;42
2024-03-15 14:04:07;99;1320;-1320;42
2024-03-15 14:05:04;99;1320;-1320;42
2024-03-15 14:06:06;99;1320;-1320;42
2024-03-15 14:07:09;99;1320;-1320;42
2024-03-15 14:08:06;99;1320;-1320;42
2024-03-15 14:09:08;99;1320;-1320;42
2024-03-15 14:10:06;99;1320;-1320;42
2024-03-15 14:11:08;99;1320;-1320;42
2024-03-15 14:12:06;99;1320;-1320;42
2024-03-15 14:13:08;99;1320;-1320;42
2024-03-15 14:14:05;99;1320;-1320;42
2024-03-15 14:15:07;99;1320;-1320;42
2024-03-15 14:16:05;99;1320;-1320;42
2024-03-15 14:17:07;99;1320;-1320;42
2024-03-15 14:18:05;99;1320;-1320;42
2024-03-15 14:19:07;99;1320;-1320;42
2024-03-15 14:20:04;99;1320;-1320;42
2024-03-15 14:21:07;99;1320;-1320;42
2024-03-15 14:22:04;99;1320;-1320;42
2024-03-15 14:23:06;99;1320;-1320;42
2024-03-15 14:24:08;99;1320;-1320;42
2024-03-15 14:25:06;99;1320;-1320;42
2024-03-15 14:26:08;99;1320;-1320;42
2024-03-15 14:27:06;99;1320;-1320;42
2024-03-15 14:28:08;99;1320;-1320;42
2024-03-15 14:29:05;99;1320;-1320;42
2024-03-15 14:30:08;99;1320;-1320;42
2024-03-15 14:31:05;99;1320;-1320;42
2024-03-15 14:32:07;99;1320;-1320;42
2024-03-15 14:33:05;99;1320;-1320;42
2024-03-15 14:34:07;99;1320;-1320;42
2024-03-15 14:35:05;99;1320;-1320;42
2024-03-15 14:36:07;99;1320;-1320;42
2024-03-15 14:37:04;99;1320;-1320;42
2024-03-15 14:38:06;99;1320;-1320;42
2024-03-15 14:39:09;99;1320;-1320;42
2024-03-15 14:40:06;99;1320;-1320;42
2024-03-15 14:41:08;99;1320;-1320;42
2024-03-15 14:42:06;99;1320;-1320;42
2024-03-15 14:43:08;99;1320;-1320;42
2024-03-15 14:44:06;99;1320;-1320;42
2024-03-15 14:45:08;99;1320;-1320;42
2024-03-15 14:46:05;99;1320;-1320;42
2024-03-15 14:47:07;99;1320;-1320;42
2024-03-15 14:48:05;99;1320;-1320;42
2024-03-15 14:49:07;99;1320;-1320;42
2024-03-15 14:50:05;99;1320;-1320;42
2024-03-15 14:51:07;99;1320;-1320;42
2024-03-15 14:52:04;99;1320;-1320;42
2024-03-15 14:53:07;99;1320;-1320;42
2024-03-15 14:54:04;99;1320;-1320;42
2024-03-15 14:55:06;99;1320;-1320;42
2024-03-15 14:56:08;99;1320;-1320;42
2024-03-15 14:57:06;99;1320;-1320;42
2024-03-15 14:58:08;99;1320;-1320;42
2024-03-15 14:59:06;99;1320;-1320;42
2024-03-15 15:00:08;99;1320;-1320;42
2024-03-15 15:01:05;99;1320;-1320;42
2024-03-15 15:02:07;99;1320;-1320;42
2024-03-15 15:03:05;99;1320;-1320;42
2024-03-15 15:04:07;99;1320;-1320;42
2024-03-15 15:05:05;99;1320;-1320;42
2024-03-15 15:06:07;99;1320;-1320;42
2024-03-15 15:07:04;99;1320;-1320;42
2024-03-15 15:08:06;99;1320;-1320;42
2024-03-15 15:09:04;99;1320;-1320;42
2024-03-15 15:10:06;99;1320;-1320;42
2024-03-15 15:11:08;99;1320;-1320;42
2024-03-15 15:12:06;99;1320;-1320;42
2024-03-15 15:13:08;99;1320;-1320;42
2024-03-15 15:14:06;99;1320;-1320;42
2024-03-15 15:15:08;99;1320;-1320;42
2024-03-15 15:16:05;99;1320;-1320;42
2024-03-15 15:17:07;99;1320;-1320;42
2024-03-15 15:18:05;99;1320;-1320;42
2024-03-15 15:19:07;99;1320;-1320;42
2024-03-15 15:20:05;99;1320;-1320;42
2024-03-15 15:21:07;99;1320;-1320;42
2024-03-15 15:22:04;99;1320;-1320;42
2024-03-15 15:23:07;99;1320;-1320;42
2024-03-15 15:24:04;99;1320;-1320;42
2024-03-15 15:25:06;99;1320;-1320;42
2024-03-15 15:26:08;99;1320;-1320;42
2024-03-15 15:27:06;99;1320;-1320;42
2024-03-15 15:28:08;99;1320;-1320;42
2024-03-15 15:29:06;99;1320;-1320;42
2024-03-15 15:30:08;99;1320;-1320;42
2024-03-15 15:31:05;99;1320;-1320;42
2024-03-15 15:32:07;99;1320;-1320;42
2024-03-15 15:33:05;99;1320;-1320;42
2024-03-15 15:34:07;99;1320;-1320;42
2024-03-15 15:35:05;99;1320;-1320;42
2024-03-15 15:36:07;99;1320;-1320;42
2024-03-15 15:37:04;99;1320;-1320;42
2024-03-15 15:38:07;99;1320;-1320;42
2024-03-15 15:39:04;99;1320;-1320;42
2024-03-15 15:40:06;99;1320;-1320;42
2024-03-15 15:41:08;99;1320;-1320;42
2024-03-15 15:42:06;99;1320;-1320;42
2024-03-15 15:43:08;99;1320;-1320;42
2024-03-15 15:44:06;99;1320;-1320;42
2024-03-15 15:45:08;99;1320;-1320;42
2024-03-15 15:46:05;99;1320;-1320;42
2024-03-15 15:47:08;98;1320;-1320;42
2024-03-15 15:48:05;98;1320;-1320;42
2024-03-15 15:49:07;98;1320;-1320;42
2024-03-15 15:50:05;99;1320;-1320;42
2024-03-15 15:51:07;99;1320;-1320;42
2024-03-15 15:52:04;99;1320;-1320;42
2024-03-15 15:53:07;98;1320;-1320;42
2024-03-15 15:54:04;98;1320;-1320;42
2024-03-15 15:55:06;98;1320;-1320;42
2024-03-15 15:56:08;98;1320;-1320;42
2024-03-15 15:57:06;99;1320;-1320;42
2024-03-15 15:58:08;99;1320;-1320;42
2024-03-15 15:59:06;98;1320;-1320;42
2024-03-15 16:00:08;99;1320;-1320;42
2024-03-15 16:01:05;98;1320;-1320;42
2024-03-15 16:02:08;98;1320;-1320;42
2024-03-15 16:03:05;99;1320;-1320;42
2024-03-15 16:04:07;99;1320;-1320;42
2024-03-15 16:05:05;98;1320;-1320;42
2024-03-15 16:06:07;98;1320;-1320;42
2024-03-15 16:07:04;98;1320;-1320;42
2024-03-15 16:08:07;98;1320;-1320;42
2024-03-15 16:09:04;98;1320;-1320;42
2024-03-15 16:10:06;98;1320;-1320;42
2024-03-15 16:11:08;99;1320;-1320;42
2024-03-15 16:12:06;98;1320;-1320;42
2024-03-15 16:13:08;98;1320;-1320;42
2024-03-15 16:14:06;98;1320;-1320;42
2024-03-15 16:15:08;98;1320;-1320;42
2024-03-15 16:16:05;98;1320;-1320;42
2024-03-15 16:17:07;98;1320;-1320;42
2024-03-15 16:18:05;98;1320;-1320;42
2024-03-15 16:19:07;98;1320;-1320;42
2024-03-15 16:20:05;98;1320;-1320;42
2024-03-15 16:21:07;98;1320;-1320;42
2024-03-15 16:22:04;98;1320;-1320;42
2024-03-15 16:23:07;98;1320;-1320;42
2024-03-15 16:24:04;98;1320;-1320;42
2024-03-15 16:25:06;98;1320;-1320;42
2024-03-15 16:26:08;98;1320;-1320;42
2024-03-15 16:27:06;98;1320;-1320;42
2024-03-15 16:28:08;98;1320;-1320;42
2024-03-15 16:29:06;98;1320;-1320;42
2024-03-15 16:30:08;98;1320;-1320;42
2024-03-15 16:31:05;99;1320;-1320;42
2024-03-15 16:32:07;98;1320;-1320;42
2024-03-15 16:33:05;98;1320;-1320;42
2024-03-15 16:34:07;98;1320;-1320;42
2024-03-15 16:35:05;98;1320;-1320;42
2024-03-15 16:36:07;98;1320;-1320;42
2024-03-15 16:37:04;98;1320;-1320;42
2024-03-15 16:38:06;98;1320;-1320;42
2024-03-15 16:39:09;98;1320;-1320;42
2024-03-15 16:40:06;98;1320;-1320;42
2024-03-15 16:41:08;98;1320;-1320;42
2024-03-15 16:42:06;98;1320;-1320;42
2024-03-15 16:43:08;98;1320;-1320;42
2024-03-15 16:44:05;98;1320;-1320;42
2024-03-15 16:45:08;98;1320;-1320;42
2024-03-15 16:46:05;98;1320;-1320;42
2024-03-15 16:47:07;98;1320;-1320;42
2024-03-15 16:48:05;98;1320;-1320;42
2024-03-15 16:49:07;98;1320;-1320;42
2024-03-15 16:50:05;98;1320;-1320;42
2024-03-15 16:51:07;98;1320;-1320;42
2024-03-15 16:52:04;98;1320;-1320;42
2024-03-15 16:53:06;98;1320;-1320;42
2024-03-15 16:54:09;98;1320;-1320;42
2024-03-15 16:55:06;98;1320;-1320;42
2024-03-15 16:56:08;98;1320;-1320;42
2024-03-15 16:57:06;98;1320;-1320;42
2024-03-15 16:58:08;99;1320;-1320;42
2024-03-15 16:59:05;98;1320;-1320;42
2024-03-15 17:00:08;98;1320;-1320;42
2024-03-15 17:01:05;98;1320;-1320;42
2024-03-15 17:02:07;98;1320;-1320;42
2024-03-15 17:03:05;98;1320;-1320;42
2024-03-15 17:04:07;98;1320;-1320;42
2024-03-15 17:05:05;98;1320;-1320;42
2024-03-15 17:06:07;98;1320;-1320;42
2024-03-15 17:07:04;98;1320;-1320;42
2024-03-15 17:08:06;98;1320;-1320;42
2024-03-15 17:09:09;98;1320;-1320;42
2024-03-15 17:10:06;98;1320;-1320;42
2024-03-15 17:11:08;98;1320;-1320;42
2024-03-15 17:12:06;98;1320;-1320;42
2024-03-15 17:13:08;98;1320;-1320;42
2024-03-15 17:14:06;98;1320;-1320;42
2024-03-15 17:15:08;98;1320;-1320;42
2024-03-15 17:16:05;98;1320;-1320;42
2024-03-15 17:17:07;98;1320;-1320;42
2024-03-15 17:18:05;98;1320;-1320;42
2024-03-15 17:19:07;98;1320;-1320;42
2024-03-15 17:20:05;98;1320;-1320;42
2024-03-15 17:21:07;98;1320;-1320;42
2024-03-15 17:22:04;98;1320;-1320;42
2024-03-15 17:23:06;98;1320;-1320;42
2024-03-15 17:24:08;98;1320;-1320;42
2024-03-15 17:25:06;98;1320;-1320;42
2024-03-15 17:26:08;98;1320;-1320;42
2024-03-15 17:27:06;98;1320;-1320;42
2024-03-15 17:28:08;98;1320;-1320;42
2024-03-15 17:29:05;98;1320;-1320;42
2024-03-15 17:30:07;98;1320;-1320;42
2024-03-15 17:31:05;98;1320;-1320;42
2024-03-15 17:32:07;98;1320;-1320;42
2024-03-15 17:33:05;98;1320;-1320;42
2024-03-15 17:34:07;98;1320;-1320;42
2024-03-15 17:35:04;98;1320;-1320;42
2024-03-15 17:36:06;98;1320;-1320;42
2024-03-15 17:37:09;98;1320;-1320;42
2024-03-15 17:38:06;98;1320;-1320;42
2024-03-15 17:39:08;98;1320;-1320;42
2024-03-15 17:40:06;98;1320;-1320;42
2024-03-15 17:41:08;98;1320;-1320;42
2024-03-15 17:42:05;98;1320;-1320;42
2024-03-15 17:43:07;98;1320;-1320;42
2024-03-15 17:44:05;98;1320;-1320;42
2024-03-15 17:45:07;98;1320;-1320;42
2024-03-15 17:46:05;98;1320;-1320;42
2024-03-15 17:47:07;98;1320;-1320;42
2024-03-15 17:48:04;98;1320;-1320;42
2024-03-15 17:49:06;98;1320;-1320;42
2024-03-15 17:50:09;98;1320;-1320;42
2024-03-15 17:51:06;98;1320;-1320;42
2024-03-15 17:52:08;98;1320;-1320;42
2024-03-15 17:53:06;98;1320;-1320;42
2024-03-15 17:54:08;98;1320;-1320;42
2024-03-15 17:55:05;98;1320;-1320;42
2024-03-15 17:56:07;98;1320;-1320;42
2024-03-15 17:57:05;98;1320;-1320;42
2024-03-15 17:58:07;98;1320;-1320;42
2024-03-15 17:59:05;98;1320;-1320;42
2024-03-15 18:00:07;98;1320;-1320;42
2024-03-15 18:01:04;98;1320;-1320;42
2024-03-15 18:02:06;98;1320;-1320;42
2024-03-15 18:03:08;98;1320;-1320;42
2024-03-15 18:04:06;98;1320;-1320;42
2024-03-15 18:05:08;98;1320;-1320;42
2024-03-15 18:06:05;98;1320;-1320;42
2024-03-15 18:07:08;98;1320;-1320;42
2024-03-15 18:08:05;98;1320;-1320;42
2024-03-15 18:09:07;98;1320;-1320;42
2024-03-15 18:10:05;98;1320;-1320;42
2024-03-15 18:11:07;98;1320;-1320;42
2024-03-15 18:12:04;98;1320;-1320;42
2024-03-15 18:13:06;98;1320;-1320;42
2024-03-15 18:14:09;98;1320;-1320;42
2024-03-15 18:15:06;98;1320;-1320;42
2024-03-15 18:16:08;98;1320;-1320;42
2024-03-15 18:17:06;98;1320;-1320;42
2024-03-15 18:18:08;98;1320;-1320;42
2024-03-15 18:19:05;98;1320;-1320;42
2024-03-15 18:20:07;98;1320;-1320;42
2024-03-15 18:21:05;98;1320;-1320;42
2024-03-15 18:22:07;98;1320;-1320;42
2024-03-15 18:23:04;98;1320;-1320;42
2024-03-15 18:24:07;98;1320;-1320;42
2024-03-15 18:25:04;98;1320;-1320;42
2024-03-15 18:26:06;98;1320;-1320;42
2024-03-15 18:27:08;98;1320;-1320;42
2024-03-15 18:28:06;98;1320;-1320;42
2024-03-15 18:29:08;98;1320;-1320;42
2024-03-15 18:30:05;98;1320;-1320;42
2024-03-15 18:31:07;98;1320;-1320;42
2024-03-15 18:32:05;98;1320;-1320;42
2024-03-15 18:33:07;98;1320;-1320;42
2024-03-15 18:34:05;98;1320;-1320;42
2024-03-15 18:35:07;98;1320;-1320;42
2024-03-15 18:36:04;98;1320;-1320;42
2024-03-15 18:37:06;98;1320;-1320;42
2024-03-15 18:38:08;98;1320;-1320;42
2024-03-15 18:39:06;98;1320;-1320;42
2024-03-15 18:40:08;98;1320;-1320;42
2024-03-15 18:41:05;98;1320;-1320;42
2024-03-15 18:42:08;98;1320;-1320;42
2024-03-15 18:43:05;98;1320;-1320;42
2024-03-15 18:44:07;98;1320;-1320;42
2024-03-15 18:45:05;98;1320;-1320;42
2024-03-15 18:46:07;98;1320;-1320;42
2024-03-15 18:47:04;98;1320;-1320;42
2024-03-15 18:48:06;98;1320;-1320;42
2024-03-15 18:49:08;98;1320;-1320;42
2024-03-15 18:50:06;98;1320;-1320;42
2024-03-15 18:51:08;98;1320;-1320;42
2024-03-15 18:52:06;98;1320;-1320;42
2024-03-15 18:53:08;98;1320;-1320;42
2024-03-15 18:54:05;98;1320;-1320;42
2024-03-15 18:55:07;98;1320;-1320;42
2024-03-15 18:56:05;98;1320;-1320;42
2024-03-15 18:57:07;98;1320;-1320;42
2024-03-15 18:58:04;98;1320;-1320;42
2024-03-15 18:59:06;98;1320;-1320;42
2024-03-15 19:00:09;98;1320;-1320;42
2024-03-15 19:01:06;98;1320;-1320;42
2024-03-15 19:02:08;98;1320;-1320;42
2024-03-15 19:03:06;98;1320;-1320;42
2024-03-15 19:04:08;98;1320;-1320;42
2024-03-15 19:05:05;98;1320;-1320;42
2024-03-15 19:06:07;98;1320;-1320;42
2024-03-15 19:07:05;98;1320;-1320;42
2024-03-15 19:08:07;98;1320;-1320;42
2024-03-15 19:09:04;98;1320;-1320;42
2024-03-15 19:10:07;98;1320;-1320;42
2024-03-15 19:11:04;98;1320;-1320;42
2024-03-15 19:12:06;98;1320;-1320;42
2024-03-15 19:13:08;98;1320;-1320;42
2024-03-15 19:14:06;98;1320;-1320;42
2024-03-15 19:15:08;98;1320;-1320;42
2024-03-15 19:16:05;98;1320;-1320;42
2024-03-15 19:17:07;98;1320;-1320;42
2024-03-15 19:18:05;98;1320;-1320;42
2024-03-15 19:19:07;98;1320;-1320;42
2024-03-15 19:20:05;98;1320;-1320;42
2024-03-15 19:21:07;98;1320;-1320;42
2024-03-15 19:22:04;98;1320;-1320;42
2024-03-15 19:23:06;98;1320;-1320;42
2024-03-15 19:24:08;98;1320;-1320;42
2024-03-15 19:25:06;98;1320;-1320;42
2024-03-15 19:26:08;98;1320;-1320;42
2024-03-15 19:27:05;98;1320;-1320;42
2024-03-15 19:28:08;98;1320;-1320;42
2024-03-15 19:29:05;97;1320;-1320;42
2024-03-15 19:30:07;98;1320;-1320;42
2024-03-15 19:31:05;98;1320;-1320;42
2024-03-15 19:32:07;98;1320;-1320;42
2024-03-15 19:33:04;98;1320;-1320;42
2024-03-15 19:34:06;98;1320;-1320;42
2024-03-15 19:35:08;98;1320;-1320;42
2024-03-15 19:36:06;97;1320;-1320;42
2024-03-15 19:37:08;97;1320;-1320;42
2024-03-15 19:38:06;97;1320;-1320;42
2024-03-15 19:39:08;98;1320;-1320;42
2024-03-15 19:40:05;97;1320;-1320;42
2024-03-15 19:41:07;98;1320;-1320;42
2024-03-15 19:42:05;98;1320;-1320;42
2024-03-15 19:43:07;97;1320;-1320;42
2024-03-15 19:44:04;97;1320;-1320;42
2024-03-15 19:45:06;97;1320;-1320;42
2024-03-15 19:46:09;97;1320;-1320;42
2024-03-15 19:47:06;97;1320;-1320;42
2024-03-15 19:48:08;97;1320;-1320;42
2024-03-15 19:49:06;97;1320;-1320;42
2024-03-15 19:50:08;97;1320;-1320;42
2024-03-15 19:51:05;97;1320;-1320;42
2024-03-15 19:52:07;97;1320;-1320;42
2024-03-15 19:53:05;98;1320;-1320;42
2024-03-15 19:54:07;97;1320;-1320;42
2024-03-15 19:55:04;97;1320;-1320;42
2024-03-15 19:56:07;97;1320;-1320;42
2024-03-15 19:57:04;97;1320;-1320;42
2024-03-15 19:58:06;97;1320;-1320;42
2024-03-15 19:59:08;97;1320;-1320;42
2024-03-15 20:00:06;97;1320;-1320;42
2024-03-15 20:01:08;97;1320;-1320;42
2024-03-15 20:02:05;97;1320;-1320;42
2024-03-15 20:03:07;97;1320;-1320;42
2024-03-15 20:04:05;97;1320;-1320;42
2024-03-15 20:05:07;97;1320;-1320;42
2024-03-15 20:06:05;97;1320;-1320;42
2024-03-15 20:07:07;97;1320;-1320;42
2024-03-15 20:08:04;97;1320;-1320;42
2024-03-15 20:09:06;97;1320;-1320;42
2024-03-15 20:10:08;97;1320;-1320;42
2024-03-15 20:11:06;97;1320;-1320;42
2024-03-15 20:12:08;97;1320;-1320;42
2024-03-15 20:13:05;97;1320;-1320;42
2024-03-15 20:14:07;97;1320;-1320;42
2024-03-15 20:15:05;97;1320;-1320;42
2024-03-15 20:16:07;97;1320;-1320;42
2024-03-15 20:17:05;97;1320;-1320;42
2024-03-15 20:18:07;97;1320;-1320;42
2024-03-15 20:19:04;97;1320;-1320;42
2024-03-15 20:20:06;98;1320;-1320;42
2024-03-15 20:21:08;97;1320;-1320;42
2024-03-15 20:22:06;97;1320;-1320;42
2024-03-15 20:23:08;97;1320;-1320;42
2024-03-15 20:24:05;97;1320;-1320;42
2024-03-15 20:25:08;97;1320;-1320;42
2024-03-15 20:26:05;97;1320;-1320;42
2024-03-15 20:27:07;97;1320;-1320;42
2024-03-15 20:28:05;97;1320;-1320;42
2024-03-15 20:29:07;97;1320;-1320;42
2024-03-15 20:30:04;97;1320;-1320;42
2024-03-15 20:31:06;97;1320;-1320;42
2024-03-15 20:32:08;97;1320;-1320;42
2024-03-15 20:33:06;97;1320;-1320;42
2024-03-15 20:34:08;97;1320;-1320;42
2024-03-15 20:35:06;97;1320;-1320;42
2024-03-15 20:36:08;97;1320;-1320;42
2024-03-15 20:37:05;97;1320;-1320;42
2024-03-15 20:38:07;97;1320;-1320;42
2024-03-15 20:39:05;97;1320;-1320;42
2024-03-15 20:40:07;97;1320;-1320;42
2024-03-15 20:41:04;97;1320;-1320;42
2024-03-15 20:42:06;97;1320;-1320;42
2024-03-15 20:43:08;97;1320;-1320;42
2024-03-15 20:44:06;97;1320;-1320;42
2024-03-15 20:45:08;97;1320;-1320;42
2024-03-15 20:46:06;97;1320;-1320;42
2024-03-15 20:47:08;98;1320;-1320;42
2024-03-15 20:48:05;97;1320;-1320;42
2024-03-15 20:49:07;97;1320;-1320;42
2024-03-15 20:50:05;97;1320;-1320;42
2024-03-15 20:51:07;97;1320;-1320;42
2024-03-15 20:52:04;97;1320;-1320;42
2024-03-15 20:53:06;97;1320;-1320;42
2024-03-15 20:54:09;97;1320;-1320;42
2024-03-15 20:55:06;97;1320;-1320;42
2024-03-15 20:56:08;97;1320;-1320;42
2024-03-15 20:57:06;97;1320;-1320;42
2024-03-15 20:58:08;97;1320;-1320;42
2024-03-15 20:59:05;97;1320;-1320;42
2024-03-15 21:00:07;97;1320;-1320;42
2024-03-15 21:01:05;97;1320;-1320;42
2024-03-15 21:02:07;97;1320;-1320;42
2024-03-15 21:03:04;97;1320;-1320;42
2024-03-15 21:04:07;97;1320;-1320;42
2024-03-15 21:05:04;97;1320;-1320;42
2024-03-15 21:06:06;97;1320;-1320;42
2024-03-15 21:07:08;97;1320;-1320;42
2024-03-15 21:08:06;97;1320;-1320;42
2024-03-15 21:09:08;97;1320;-1320;42
2024-03-15 21:10:05;97;1320;-1320;42
2024-03-15 21:11:07;97;1320;-1320;42
2024-03-15 21:12:05;97;1320;-1320;42
2024-03-15 21:13:07;97;1320;-1320;42
2024-03-15 21:14:05;98;1320;-1320;42
2024-03-15 21:15:07;97;1320;-1320;42
2024-03-15 21:16:04;97;1320;-1320;42
2024-03-15 21:17:06;97;1320;-1320;42
2024-03-15 21:18:08;97;1320;-1320;42
2024-03-15 21:19:06;97;1320;-1320;42
2024-03-15 21:20:08;97;1320;-1320;42
2024-03-15 21:21:05;97;1320;-1320;42
2024-03-15 21:22:07;97;1320;-1320;42
2024-03-15 21:23:05;97;1320;-1320;42
2024-03-15 21:24:07;97;1320;-1320;42
2024-03-15 21:25:05;97;1320;-1320;42
2024-03-15 21:26:07;97;1320;-1320;42
2024-03-15 21:27:04;97;1320;-1320;42
2024-03-15 21:28:06;97;1320;-1320;42
2024-03-15 21:29:08;97;1320;-1320;42
2024-03-15 21:30:06;97;1320;-1320;42
2024-03-15 21:31:08;97;1320;-1320;42
2024-03-15 21:32:05;97;1320;-1320;42
2024-03-15 21:33:08;97;1320;-1320;42
2024-03-15 21:34:05;97;1320;-1320;42
2024-03-15 21:35:07;97;1320;-1320;42
2024-03-15 21:36:05;97;1320;-1320;42
2024-03-15 21:37:07;97;1320;-1320;42
2024-03-15 21:38:04;97;1320;-1320;42
2024-03-15 21:39:06;97;1320;-1320;42
2024-03-15 21:40:08;97;1320;-1320;42
2024-03-15 21:41:06;97;1320;-1320;42
2024-03-15 21:42:08;97;1320;-1320;42
2024-03-15 21:43:06;97;1320;-1320;42
2024-03-15 21:44:08;97;1320;-1320;42
2024-03-15 21:45:05;97;1320;-1320;42
2024-03-15 21:46:07;97;1320;-1320;42
2024-03-15 21:47:05;97;1320;-1320;42
2024-03-15 21:48:07;97;1320;-1320;42
2024-03-15 21:49:04;97;1320;-1320;42
2024-03-15 21:50:06;97;1320;-1320;42
2024-03-15 21:51:09;97;1320;-1320;42
2024-03-15 21:52:06;97;1320;-1320;42
2024-03-15 21:53:08;97;1320;-1320;42
2024-03-15 21:54:06;97;1320;-1320;42
2024-03-15 21:55:08;97;1320;-1320;42
2024-03-15 21:56:05;97;1320;-1320;42
2024-03-15 21:57:07;97;1320;-1320;42
2024-03-15 21:58:05;97;1320;-1320;42
2024-03-15 21:59:07;97;1320;-1320;42
2024-03-15 22:00:04;97;1320;-1320;42
2024-03-15 22:01:07;97;1320;-1320;42
2024-03-15 22:02:04;97;1320;-1320;42
2024-03-15 22:03:06;97;1320;-1320;42
2024-03-15 22:04:08;97;1320;-1320;42
2024-03-15 22:05:06;97;1320;-1320;42
2024-03-15 22:06:08;97;1320;-1320;42
2024-03-15 22:07:05;97;1320;-1320;42
2024-03-15 22:08:07;97;1320;-1320;42
2024-03-15 22:09:05;97;1320;-1320;42
2024-03-15 22:10:07;97;1320;-1320;42
2024-03-15 22:11:05;97;1320;-1320;42
2024-03-15 22:12:07;97;1320;-1320;42
2024-03-15 22:13:04;97;1320;-1320;42
2024-03-15 22:14:06;97;1320;-1320;42
2024-03-15 22:15:08;97;1320;-1320;42
2024-03-15 22:16:06;97;1320;-1320;42
2024-03-15 22:17:08;97;1320;-1320;42
2024-03-15 22:18:05;97;1320;-1320;42
2024-03-15 22:19:08;97;1320;-1320;42
2024-03-15 22:20:05;97;1320;-1320;42
2024-03-15 22:21:07;97;1320;-1320;42
2024-03-15 22:22:05;97;1320;-1320;42
2024-03-15 22:23:07;97;1320;-1320;42
2024-03-15 22:24:04;97;1320;-1320;42
2024-03-15 22:25:06;97;1320;-1320;42
2024-03-15 22:26:08;97;1320;-1320;42
2024-03-15 22:27:06;97;1320;-1320;42
2024-03-15 22:28:08;97;1320;-1320;42
2024-03-15 22:29:06;97;1320;-1320;42
2024-03-15 22:30:08;97;1320;-1320;42
2024-03-15 22:31:05;97;1320;-1320;42
2024-03-15 22:32:07;97;1320;-1320;42
2024-03-15 22:33:05;97;1320;-1320;42
2024-03-15 22:34:07;97;1320;-1320;42
2024-03-15 22:35:04;97;1320;-1320;42
2024-03-15 22:36:07;97;1320;-1320;42
2024-03-15 22:37:04;97;1320;-1320;42
2024-03-15 22:38:06;97;1320;-1320;42
2024-03-15 22:39:08;97;1320;-1320;42
2024-03-15 22:40:06;97;1320;-1320;42
2024-03-15 22:41:08;97;1320;-1320;42
2024-03-15 22:42:05;97;1320;-1320;42
2024-03-15 22:43:07;97;1320;-1320;42
2024-03-15 22:44:05;97;1320;-1320;42
2024-03-15 22:45:07;97;1320;-1320;42
2024-03-15 22:46:05;97;1320;-1320;42
2024-03-15 22:47:07;97;1320;-1320;42
2024-03-15 22:48:04;97;1320;-1320;42
2024-03-15 22:49:06;97;1320;-1320;42
2024-03-15 22:50:08;97;1320;-1320;42
2024-03-15 22:51:06;97;1320;-1320;42
2024-03-15 22:52:08;97;1320;-1320;42
2024-03-15 22:53:05;97;1320;-1320;42
2024-03-15 22:54:08;97;1320;-1320;42
2024-03-15 22:55:05;97;1320;-1320;42
2024-03-15 22:56:07;97;1320;-1320;42
2024-03-15 22:57:05;97;1320;-1320;42
2024-03-15 22:58:07;97;1320;-1320;42
2024-03-15 22:59:04;97;1320;-1320;42
2024-03-15 23:00:06;97;1320;-1320;42
2024-03-15 23:01:08;97;1320;-1320;42
2024-03-15 23:02:06;97;1320;-1320;42
2024-03-15 23:03:08;97;1320;-1320;42
2024-03-15 23:04:06;97;1320;-1320;42
2024-03-15 23:05:08;97;1320;-1320;42
2024-03-15 23:06:05;97;1320;-1320;42
2024-03-15 23:07:07;97;1320;-1320;42
2024-03-15 23:08:05;97;1320;-1320;42
2024-03-15 23:09:07;97;1320;-1320;42
2024-03-15 23:10:04;97;1320;-1320;42
2024-03-15 23:11:06;97;1320;-1320;42
2024-03-15 23:12:04;97;1320;-1320;42
2024-03-15 23:13:06;97;1320;-1320;42
2024-03-15 23:14:08;97;1320;-1320;42
2024-03-15 23:15:06;97;1320;-1320;42
2024-03-15 23:16:08;97;1320;-1320;42
2024-03-15 23:17:05;97;1320;-1320;42
2024-03-15 23:18:07;97;1320;-1320;42
2024-03-15 23:19:05;97;1320;-1320;42
2024-03-15 23:20:07;97;1320;-1320;42
2024-03-15 23:21:04;97;1320;-1320;42
2024-03-15 23:22:07;97;1320;-1320;42
2024-03-15 23:23:04;97;1320;-1320;42
2024-03-15 23:24:06;97;1320;-1320;42
2024-03-15 23:25:08;97;1320;-1320;42
2024-03-15 23:26:06;97;1320;-1320;42
2024-03-15 23:27:08;97;1320;-1320;42
2024-03-15 23:28:05;97;1320;-1320;42
2024-03-15 23:29:07;97;1320;-1320;42
2024-03-15 23:30:05;97;1320;-1320;42
2024-03-15 23:31:07;97;1320;-1320;42
2024-03-15 23:32:05;97;1320;-1320;42
2024-03-15 23:33:07;97;1320;-1320;42
2024-03-15 23:34:04;97;1320;-1320;42
2024-03-15 23:35:06;97;1320;-1320;42
2024-03-15 23:36:08;97;1320;-1320;42
2024-03-15 23:37:06;97;1320;-1320;42
2024-03-15 23:38:08;97;1320;-1320;42
2024-03-15 23:39:05;97;1320;-1320;42
2024-03-15 23:40:08;97;1320;-1320;42
2024-03-15 23:41:05;97;1320;-1320;42
2024-03-15 23:42:07;97;1320;-1320;42
2024-03-15 23:43:05;97;1320;-1320;42
2024-03-15 23:44:07;97;1320;-1320;42
2024-03-15 23:45:04;97;1320;-1320;42
2024-03-15 23:46:06;97;1320;-1320;42
2024-03-15 23:47:08;97;1320;-1320;42
2024-03-15 23:48:06;97;1320;-1320;42
2024-03-15 23:49:08;97;1320;-1320;42
2024-03-15 23:50:05;97;1320;-1320;42
2024-03-15 23:51:08;97;1320;-1320;42
2024-03-15 23:52:05;97;1320;-1320;42
2024-03-15 23:53:07;97;1320;-1320;42
2024-03-15 23:54:05;97;1320;-1320;42
2024-03-15 23:55:07;97;1320;-1320;42
2024-03-15 23:56:04;97;1320;-1320;42
2024-03-15 23:57:06;97;1320;-1320;42
2024-03-15 23:58:08;97;1320;-1320;42
2024-03-15 23:59:06;97;1320;-1320;42
