2022-12-29 00:01:14;4.20;144.53
2022-12-29 00:16:10;4.20;144.53
2022-12-29 00:31:10;4.20;144.05
2022-12-29 00:46:11;4.20;144.37
2022-12-29 01:01:12;4.20;144.05
2022-12-29 01:16:14;4.20;144.53
2022-12-29 01:31:11;4.20;144.37
2022-12-29 01:46:12;4.20;144.53
2022-12-29 02:01:14;4.20;144.37
2022-12-29 02:16:11;4.20;144.37
2022-12-29 02:31:13;4.20;144.05
2022-12-29 02:46:14;4.20;144.37
2022-12-29 03:01:12;4.20;144.53
2022-12-29 03:16:13;4.20;144.53
2022-12-29 03:31:15;4.20;144.37
2022-12-29 03:46:12;4.20;144.37
2022-12-29 04:01:13;4.19;144.37
2022-12-29 04:16:14;4.19;144.37
2022-12-29 04:31:10;4.19;144.37
2022-12-29 04:46:11;4.19;144.37
2022-12-29 05:01:11;4.19;144.05
2022-12-29 05:16:12;4.19;144.37
2022-12-29 05:31:12;4.19;144.37
2022-12-29 05:46:12;4.19;144.37
2022-12-29 06:01:12;4.19;144.37
2022-12-29 06:16:13;4.19;144.37
2022-12-29 06:31:13;4.19;144.37
2022-12-29 06:46:13;4.19;144.37
2022-12-29 07:01:14;4.19;144.05
2022-12-29 07:16:10;4.19;144.37
2022-12-29 07:31:12;4.19;144.37
2022-12-29 07:46:14;4.19;144.37
2022-12-29 08:01:12;4.19;144.37
2022-12-29 08:16:16;4.19;144.37
2022-12-29 08:31:15;4.19;144.37
2022-12-29 08:46:15;4.19;144.05
2022-12-29 09:01:16;4.20;144.37
2022-12-29 09:16:17;4.20;144.05
2022-12-29 09:31:19;4.20;144.37
2022-12-29 09:46:18;4.20;144.37
2022-12-29 10:01:17;4.20;144.05
2022-12-29 10:16:22;4.20;144.05
2022-12-29 10:31:18;4.20;143.72
2022-12-29 10:46:20;4.20;144.37
2022-12-29 11:01:22;4.20;144.05
2022-12-29 11:16:20;4.20;144.05
2022-12-29 11:31:23;4.20;144.05
2022-12-29 11:46:22;4.20;144.05
2022-12-29 12:01:20;4.20;144.37
2022-12-29 12:16:24;4.20;144.05
2022-12-29 12:31:23;4.20;144.05
2022-12-29 12:46:22;4.20;144.37
2022-12-29 13:01:22;4.20;144.37
2022-12-29 13:16:21;4.20;144.05
2022-12-29 13:31:25;4.20;144.37
2022-12-29 13:46:25;4.20;144.37
2022-12-29 14:01:25;4.21;144.05
2022-12-29 14:16:24;4.21;144.85
2022-12-29 14:31:24;4.21;144.37
2022-12-29 14:46:24;4.21;144.37
2022-12-29 15:01:25;4.21;144.37
2022-12-29 15:16:25;4.21;144.37
2022-12-29 15:31:25;4.21;144.37
2022-12-29 15:46:25;4.21;144.37
2022-12-29 16:01:25;4.21;144.05
2022-12-29 16:16:25;4.21;144.53
2022-12-29 16:31:25;4.21;144.37
2022-12-29 16:46:25;4.21;144.37
2022-12-29 17:01:21;4.21;144.37
2022-12-29 17:16:25;4.21;144.37
2022-12-29 17:31:24;4.21;144.37
2022-12-29 17:46:23;4.21;144.37
2022-12-29 18:01:22;4.21;144.37
2022-12-29 18:16:21;4.21;144.37
2022-12-29 18:31:24;4.21;144.37
2022-12-29 18:46:22;4.21;144.37
2022-12-29 19:01:19;4.21;144.37
2022-12-29 19:16:20;4.21;144.05
2022-12-29 19:31:21;4.21;144.37
2022-12-29 19:46:21;4.21;144.05
2022-12-29 20:01:20;4.21;144.37
2022-12-29 20:16:18;4.21;144.37
2022-12-29 20:31:15;4.21;144.05
2022-12-29 20:46:16;4.21;144.37
2022-12-29 21:01:17;4.21;143.72
2022-12-29 21:16:17;4.21;144.05
2022-12-29 21:31:17;4.21;144.37
2022-12-29 21:46:16;4.21;144.37
2022-12-29 22:01:15;4.21;144.05
2022-12-29 22:16:13;4.20;144.05
2022-12-29 22:31:12;4.21;143.72
2022-12-29 22:46:15;4.21;144.05
2022-12-29 23:01:13;4.21;144.05
2022-12-29 23:16:15;4.21;144.05
2022-12-29 23:31:13;4.21;144.05
2022-12-29 23:46:15;4.20;144.05
