2022-12-15 00:01:14;4.19;152.42
2022-12-15 00:16:11;4.19;153.07
2022-12-15 00:31:13;4.19;152.42
2022-12-15 00:46:14;4.19;153.07
2022-12-15 01:01:11;4.19;153.07
2022-12-15 01:16:12;4.19;152.42
2022-12-15 01:31:14;4.19;153.07
2022-12-15 01:46:11;4.19;152.42
2022-12-15 02:01:12;4.19;152.42
2022-12-15 02:16:13;4.19;152.42
2022-12-15 02:31:14;4.19;152.75
2022-12-15 02:46:11;4.19;152.75
2022-12-15 03:01:12;4.19;152.42
2022-12-15 03:16:13;4.19;152.75
2022-12-15 03:31:15;4.19;152.10
2022-12-15 03:46:14;4.19;152.42
2022-12-15 04:01:14;4.19;152.42
2022-12-15 04:16:14;4.19;152.10
2022-12-15 04:31:15;4.18;152.10
2022-12-15 04:46:15;4.19;152.10
2022-12-15 05:01:15;4.19;152.42
2022-12-15 05:16:15;4.19;152.42
2022-12-15 05:31:14;4.19;152.10
2022-12-15 05:46:14;4.19;152.10
2022-12-15 06:01:13;4.19;152.10
2022-12-15 06:16:16;4.19;152.42
2022-12-15 06:31:15;4.18;151.94
2022-12-15 06:46:14;4.18;152.10
2022-12-15 07:01:12;4.18;152.10
2022-12-15 07:16:14;4.18;152.10
2022-12-15 07:31:12;4.18;152.10
2022-12-15 07:46:15;4.18;152.10
2022-12-15 08:01:14;4.18;152.10
2022-12-15 08:16:13;4.19;152.10
2022-12-15 08:31:16;4.19;152.10
2022-12-15 08:46:15;4.19;152.10
2022-12-15 09:01:15;4.19;152.10
2022-12-15 09:16:15;4.19;151.94
2022-12-15 09:31:15;4.19;151.94
2022-12-15 09:46:15;4.19;152.10
2022-12-15 10:01:17;4.19;152.10
2022-12-15 10:16:18;4.19;151.94
2022-12-15 10:31:16;4.19;152.10
2022-12-15 10:46:17;4.19;151.94
2022-12-15 11:01:15;4.19;152.10
2022-12-15 11:16:18;4.19;151.94
2022-12-15 11:31:17;4.19;152.10
2022-12-15 11:46:21;4.19;151.94
2022-12-15 12:01:21;4.19;151.94
2022-12-15 12:16:22;4.20;152.10
2022-12-15 12:31:19;4.20;151.62
2022-12-15 12:46:21;4.20;151.94
2022-12-15 13:01:23;4.20;152.10
2022-12-15 13:16:22;4.20;151.94
2022-12-15 13:31:20;4.20;151.94
2022-12-15 13:46:23;4.20;151.94
2022-12-15 14:01:21;4.20;152.10
2022-12-15 14:16:23;4.20;152.10
2022-12-15 14:31:20;4.20;152.10
2022-12-15 14:46:22;4.20;151.94
2022-12-15 15:01:20;4.21;152.10
2022-12-15 15:16:21;4.20;152.10
2022-12-15 15:31:23;4.20;152.10
2022-12-15 15:46:20;4.20;152.10
2022-12-15 16:01:21;4.20;152.10
2022-12-15 16:16:19;4.20;152.42
2022-12-15 16:31:22;4.20;151.94
2022-12-15 16:46:20;4.21;152.10
2022-12-15 17:01:22;4.21;152.10
2022-12-15 17:16:18;4.20;152.42
2022-12-15 17:31:18;4.21;152.10
2022-12-15 17:46:18;4.21;152.10
2022-12-15 18:01:18;4.21;151.94
2022-12-15 18:16:19;4.21;152.10
2022-12-15 18:31:19;4.21;152.10
2022-12-15 18:46:19;4.21;152.10
2022-12-15 19:01:19;4.21;152.10
2022-12-15 19:16:18;4.21;152.10
2022-12-15 19:31:17;4.21;151.94
2022-12-15 19:46:20;4.21;152.10
2022-12-15 20:01:18;4.21;152.10
2022-12-15 20:16:14;4.21;151.94
2022-12-15 20:31:15;4.21;152.10
2022-12-15 20:46:15;4.21;152.10
2022-12-15 21:01:15;4.21;152.10
2022-12-15 21:16:15;4.21;151.94
2022-12-15 21:31:15;4.21;151.94
2022-12-15 21:46:15;4.20;151.94
2022-12-15 22:01:15;4.20;151.62
2022-12-15 22:16:15;4.20;151.94
2022-12-15 22:31:15;4.20;151.94
2022-12-15 22:46:15;4.20;151.94
2022-12-15 23:01:15;4.20;151.62
2022-12-15 23:16:15;4.20;151.94
2022-12-15 23:31:15;4.20;151.94
2022-12-15 23:46:14;4.20;151.62
