2023-08-02 00:01:12;4.09;16.27
2023-08-02 00:16:13;4.08;16.27
2023-08-02 00:31:14;4.09;16.27
2023-08-02 00:46:11;4.07;15.95
2023-08-02 01:01:13;4.08;16.27
2023-08-02 01:16:14;4.08;16.27
2023-08-02 01:31:10;4.08;16.27
2023-08-02 01:46:11;4.08;16.27
2023-08-02 02:01:12;4.08;15.95
2023-08-02 02:16:13;4.09;16.27
2023-08-02 02:31:10;4.10;16.27
2023-08-02 02:46:11;4.08;16.27
2023-08-02 03:01:12;4.10;16.27
2023-08-02 03:16:13;4.10;16.60
2023-08-02 03:31:14;4.10;16.92
2023-08-02 03:46:10;4.08;16.60
2023-08-02 04:01:11;4.10;16.27
2023-08-02 04:16:12;4.09;16.92
2023-08-02 04:31:13;4.10;16.92
2023-08-02 04:46:13;4.10;16.60
2023-08-02 05:01:14;4.09;16.27
2023-08-02 05:16:10;4.09;16.60
2023-08-02 05:31:10;4.08;16.60
2023-08-02 05:46:11;4.08;16.60
2023-08-02 06:01:11;4.09;16.27
2023-08-02 06:16:11;4.09;16.60
2023-08-02 06:31:12;4.09;16.27
2023-08-02 06:46:12;4.09;16.60
2023-08-02 07:01:12;4.07;16.27
2023-08-02 07:16:11;4.09;16.60
2023-08-02 07:31:11;4.08;16.27
2023-08-02 07:46:11;4.09;16.27
2023-08-02 08:01:10;4.09;16.27
2023-08-02 08:16:10;4.09;15.95
2023-08-02 08:31:10;4.08;16.27
2023-08-02 08:46:12;4.09;16.60
2023-08-02 09:01:14;4.10;16.27
2023-08-02 09:16:12;4.11;15.95
2023-08-02 09:31:15;4.13;15.95
2023-08-02 09:46:15;4.14;15.95
2023-08-02 10:01:16;4.14;15.95
2023-08-02 10:16:17;4.17;16.27
2023-08-02 10:31:14;4.16;15.95
2023-08-02 10:46:17;4.14;15.95
2023-08-02 11:01:19;4.15;15.95
2023-08-02 11:16:18;4.16;15.95
2023-08-02 11:31:18;4.17;15.95
2023-08-02 11:46:18;4.15;15.95
2023-08-02 12:01:18;4.15;15.95
2023-08-02 12:16:19;4.16;15.95
2023-08-02 12:31:20;4.16;15.95
2023-08-02 12:46:22;4.16;16.27
2023-08-02 13:01:19;4.16;15.95
2023-08-02 13:16:21;4.17;16.27
2023-08-02 13:31:22;4.17;15.95
2023-08-02 13:46:20;4.16;16.27
2023-08-02 14:01:23;4.16;15.95
2023-08-02 14:16:21;4.16;15.95
2023-08-02 14:31:20;4.15;15.95
2023-08-02 14:46:23;4.17;15.95
2023-08-02 15:01:22;4.16;15.95
2023-08-02 15:16:21;4.16;15.95
2023-08-02 15:31:24;4.16;15.95
2023-08-02 15:46:22;4.18;15.95
2023-08-02 16:01:20;4.16;15.95
2023-08-02 16:16:22;4.16;16.27
2023-08-02 16:31:19;4.16;15.95
2023-08-02 16:46:21;4.18;15.95
2023-08-02 17:01:18;4.18;15.63
2023-08-02 17:16:20;4.16;16.27
2023-08-02 17:31:20;4.16;15.95
2023-08-02 17:46:21;4.16;15.95
2023-08-02 18:01:20;4.13;15.63
2023-08-02 18:16:19;4.13;15.95
2023-08-02 18:31:16;4.13;15.63
2023-08-02 18:46:18;4.13;15.95
2023-08-02 19:01:14;4.12;15.95
2023-08-02 19:16:14;4.12;15.95
2023-08-02 19:31:13;4.12;15.63
2023-08-02 19:46:12;4.10;15.95
2023-08-02 20:01:15;4.12;15.95
2023-08-02 20:16:14;4.10;15.95
2023-08-02 20:31:12;4.12;15.95
2023-08-02 20:46:15;4.11;15.95
2023-08-02 21:01:13;4.11;15.63
2023-08-02 21:16:16;4.11;15.95
2023-08-02 21:31:14;4.11;15.63
2023-08-02 21:46:13;4.11;15.63
2023-08-02 22:01:16;4.10;15.63
2023-08-02 22:16:15;4.11;15.63
2023-08-02 22:31:14;4.11;14.99
2023-08-02 22:46:12;4.10;15.31
2023-08-02 23:01:14;4.10;14.99
2023-08-02 23:16:12;4.10;15.63
2023-08-02 23:31:14;4.10;15.63
2023-08-02 23:46:11;4.09;15.31
