2023-07-11 00:01:14;4.17;58.33
2023-07-11 00:16:10;4.16;58.33
2023-07-11 00:31:11;4.16;58.33
2023-07-11 00:46:12;4.16;58.33
2023-07-11 01:01:12;4.16;58.33
2023-07-11 01:16:13;4.16;58.33
2023-07-11 01:31:14;4.16;58.33
2023-07-11 01:46:10;4.16;58.33
2023-07-11 02:01:10;4.16;58.33
2023-07-11 02:16:10;4.16;58.33
2023-07-11 02:31:11;4.16;58.33
2023-07-11 02:46:11;4.16;58.33
2023-07-11 03:01:11;4.16;58.33
2023-07-11 03:16:12;4.16;58.33
2023-07-11 03:31:12;4.16;58.33
2023-07-11 03:46:12;4.16;58.33
2023-07-11 04:01:12;4.16;58.33
2023-07-11 04:16:13;4.16;58.01
2023-07-11 04:31:13;4.16;58.33
2023-07-11 04:46:13;4.16;58.01
2023-07-11 05:01:13;4.16;58.01
2023-07-11 05:16:13;4.16;57.68
2023-07-11 05:31:13;4.16;58.01
2023-07-11 05:46:13;4.16;58.01
2023-07-11 06:01:13;4.16;58.33
2023-07-11 06:16:13;4.16;58.33
2023-07-11 06:31:13;4.16;57.68
2023-07-11 06:46:12;4.15;58.01
2023-07-11 07:01:12;4.16;58.01
2023-07-11 07:16:12;4.15;58.01
2023-07-11 07:31:11;4.15;57.68
2023-07-11 07:46:11;4.15;57.68
2023-07-11 08:01:11;4.15;57.68
2023-07-11 08:16:10;4.15;57.68
2023-07-11 08:31:10;4.15;57.68
2023-07-11 08:46:10;4.15;57.36
2023-07-11 09:01:09;4.15;58.01
2023-07-11 09:16:09;4.15;57.36
2023-07-11 09:31:13;4.16;57.68
2023-07-11 09:46:09;4.16;57.36
2023-07-11 10:01:14;4.16;57.36
2023-07-11 10:16:10;4.16;57.68
2023-07-11 10:31:10;4.16;57.36
2023-07-11 10:46:11;4.17;57.36
2023-07-11 11:01:11;4.17;57.36
2023-07-11 11:16:12;4.17;57.36
2023-07-11 11:31:13;4.18;57.04
2023-07-11 11:46:14;4.18;57.36
2023-07-11 12:01:11;4.17;57.36
2023-07-11 12:16:12;4.18;57.36
2023-07-11 12:31:13;4.18;57.36
2023-07-11 12:46:14;4.18;57.04
2023-07-11 13:01:11;4.18;57.36
2023-07-11 13:16:12;4.18;57.36
2023-07-11 13:31:13;4.18;57.36
2023-07-11 13:46:11;4.18;57.04
2023-07-11 14:01:12;4.18;57.36
2023-07-11 14:16:13;4.18;57.04
2023-07-11 14:31:10;4.18;57.36
2023-07-11 14:46:12;4.18;57.04
2023-07-11 15:01:13;4.17;57.04
2023-07-11 15:16:14;4.18;57.04
2023-07-11 15:31:11;4.18;57.36
2023-07-11 15:46:13;4.18;57.04
2023-07-11 16:01:14;4.18;57.04
2023-07-11 16:16:11;4.18;57.04
2023-07-11 16:31:12;4.17;57.04
2023-07-11 16:46:14;4.18;57.04
2023-07-11 17:01:11;4.18;57.04
2023-07-11 17:16:12;4.18;57.36
2023-07-11 17:31:14;4.18;57.04
2023-07-11 17:46:11;4.18;57.04
2023-07-11 18:01:12;4.18;56.72
2023-07-11 18:16:13;4.18;56.72
2023-07-11 18:31:14;4.17;56.72
2023-07-11 18:46:11;4.17;56.72
2023-07-11 19:01:12;4.17;56.72
2023-07-11 19:16:13;4.17;57.04
2023-07-11 19:31:14;4.17;56.72
2023-07-11 19:46:10;4.17;57.04
2023-07-11 20:01:10;4.17;56.72
2023-07-11 20:16:11;4.17;56.72
2023-07-11 20:31:11;4.17;56.72
2023-07-11 20:46:11;4.17;56.56
2023-07-11 21:01:11;4.17;56.56
2023-07-11 21:16:11;4.17;56.56
2023-07-11 21:31:10;4.17;56.56
2023-07-11 21:46:10;4.17;56.56
2023-07-11 22:01:10;4.17;56.72
2023-07-11 22:16:09;4.17;56.56
2023-07-11 22:31:13;4.16;56.56
2023-07-11 22:46:12;4.17;56.23
2023-07-11 23:01:12;4.17;56.23
2023-07-11 23:16:11;4.16;56.23
2023-07-11 23:31:10;4.16;56.23
2023-07-11 23:46:09;4.16;56.23
