2023-01-31 00:01:13;4.20;122.29
2023-01-31 00:16:16;4.20;121.97
2023-01-31 00:31:14;4.20;121.97
2023-01-31 00:46:12;4.20;122.29
2023-01-31 01:01:15;4.20;121.97
2023-01-31 01:16:13;4.20;121.97
2023-01-31 01:31:15;4.20;121.97
2023-01-31 01:46:13;4.19;121.97
2023-01-31 02:01:15;4.19;121.97
2023-01-31 02:16:13;4.19;121.97
2023-01-31 02:31:15;4.19;121.65
2023-01-31 02:46:12;4.19;121.97
2023-01-31 03:01:14;4.19;121.97
2023-01-31 03:16:11;4.19;121.97
2023-01-31 03:31:13;4.19;121.97
2023-01-31 03:46:15;4.19;121.97
2023-01-31 04:01:12;4.19;121.97
2023-01-31 04:16:14;4.19;121.65
2023-01-31 04:31:11;4.19;121.65
2023-01-31 04:46:12;4.19;121.97
2023-01-31 05:01:14;4.19;121.97
2023-01-31 05:16:11;4.19;121.97
2023-01-31 05:31:12;4.19;121.97
2023-01-31 05:46:14;4.19;121.97
2023-01-31 06:01:11;4.19;121.97
2023-01-31 06:16:12;4.19;121.65
2023-01-31 06:31:13;4.19;121.65
2023-01-31 06:46:14;4.19;121.97
2023-01-31 07:01:11;4.19;121.65
2023-01-31 07:16:12;4.18;121.65
2023-01-31 07:31:15;4.18;121.97
2023-01-31 07:46:13;4.18;121.97
2023-01-31 08:01:17;4.18;121.65
2023-01-31 08:16:17;4.19;121.49
2023-01-31 08:31:18;4.19;121.65
2023-01-31 08:46:14;4.19;121.49
2023-01-31 09:01:16;4.19;121.65
2023-01-31 09:16:19;4.19;121.49
2023-01-31 09:31:18;4.19;121.97
2023-01-31 09:46:17;4.19;121.65
2023-01-31 10:01:17;4.19;121.65
2023-01-31 10:16:18;4.19;121.65
2023-01-31 10:31:19;4.19;121.65
2023-01-31 10:46:21;4.19;121.65
2023-01-31 11:01:23;4.19;121.97
2023-01-31 11:16:21;4.19;121.97
2023-01-31 11:31:21;4.20;121.49
2023-01-31 11:46:24;4.20;121.65
2023-01-31 12:01:24;4.20;121.65
2023-01-31 12:16:24;4.20;121.49
2023-01-31 12:31:24;4.20;121.49
2023-01-31 12:46:24;4.20;121.65
2023-01-31 13:01:24;4.20;121.65
2023-01-31 13:16:25;4.20;121.65
2023-01-31 13:31:26;4.20;121.65
2023-01-31 13:46:22;4.20;121.65
2023-01-31 14:01:23;4.20;121.65
2023-01-31 14:16:23;4.20;121.65
2023-01-31 14:31:24;4.20;121.65
2023-01-31 14:46:25;4.20;121.65
2023-01-31 15:01:25;4.20;121.49
2023-01-31 15:16:22;4.20;121.65
2023-01-31 15:31:23;4.20;121.65
2023-01-31 15:46:23;4.20;121.49
2023-01-31 16:01:24;4.20;121.65
2023-01-31 16:16:25;4.20;121.65
2023-01-31 16:31:25;4.21;121.65
2023-01-31 16:46:21;4.21;121.49
2023-01-31 17:01:26;4.21;121.65
2023-01-31 17:16:21;4.21;121.65
2023-01-31 17:31:25;4.21;121.49
2023-01-31 17:46:24;4.21;121.65
2023-01-31 18:01:23;4.21;121.65
2023-01-31 18:16:22;4.21;121.65
2023-01-31 18:31:21;4.21;121.49
2023-01-31 18:46:23;4.21;121.65
2023-01-31 19:01:21;4.21;121.65
2023-01-31 19:16:22;4.21;121.65
2023-01-31 19:31:19;4.21;121.49
2023-01-31 19:46:19;4.21;121.49
2023-01-31 20:01:19;4.21;121.49
2023-01-31 20:16:18;4.21;121.49
2023-01-31 20:31:16;4.21;121.17
2023-01-31 20:46:18;4.21;121.49
2023-01-31 21:01:15;4.21;121.49
2023-01-31 21:16:16;4.21;121.49
2023-01-31 21:31:17;4.21;121.65
2023-01-31 21:46:17;4.20;121.49
2023-01-31 22:01:17;4.20;121.49
2023-01-31 22:16:13;4.20;121.49
2023-01-31 22:31:17;4.20;121.49
2023-01-31 22:46:13;4.20;121.49
2023-01-31 23:01:17;4.20;121.49
2023-01-31 23:16:17;4.20;121.17
2023-01-31 23:31:16;4.20;121.49
2023-01-31 23:46:15;4.20;121.49
