2023-02-11 00:01:13;4.21;115.20
2023-02-11 00:16:16;4.20;115.20
2023-02-11 00:31:15;4.20;114.88
2023-02-11 00:46:14;4.20;115.20
2023-02-11 01:01:13;4.20;114.56
2023-02-11 01:16:12;4.20;115.20
2023-02-11 01:31:15;4.20;114.56
2023-02-11 01:46:14;4.20;114.88
2023-02-11 02:01:12;4.20;115.20
2023-02-11 02:16:15;4.20;114.88
2023-02-11 02:31:14;4.20;114.88
2023-02-11 02:46:13;4.20;114.88
2023-02-11 03:01:15;4.20;115.20
2023-02-11 03:16:14;4.20;114.88
2023-02-11 03:31:12;4.20;114.88
2023-02-11 03:46:14;4.20;114.88
2023-02-11 04:01:12;4.20;114.88
2023-02-11 04:16:15;4.20;114.88
2023-02-11 04:31:12;4.20;114.88
2023-02-11 04:46:15;4.20;114.88
2023-02-11 05:01:12;4.20;114.88
2023-02-11 05:16:14;4.20;114.56
2023-02-11 05:31:12;4.19;114.88
2023-02-11 05:46:13;4.19;114.88
2023-02-11 06:01:11;4.19;115.20
2023-02-11 06:16:13;4.19;114.88
2023-02-11 06:31:14;4.19;114.56
2023-02-11 06:46:12;4.19;114.88
2023-02-11 07:01:14;4.19;114.88
2023-02-11 07:16:11;4.19;114.88
2023-02-11 07:31:14;4.19;114.88
2023-02-11 07:46:13;4.19;114.56
2023-02-11 08:01:17;4.19;114.56
2023-02-11 08:16:17;4.19;114.88
2023-02-11 08:31:15;4.20;114.88
2023-02-11 08:46:17;4.20;114.88
2023-02-11 09:01:21;4.20;114.88
2023-02-11 09:16:21;4.20;114.24
2023-02-11 09:31:22;4.19;114.56
2023-02-11 09:46:19;4.20;114.56
2023-02-11 10:01:21;4.20;114.88
2023-02-11 10:16:24;4.20;114.56
2023-02-11 10:31:23;4.20;114.88
2023-02-11 10:46:22;4.20;114.88
2023-02-11 11:01:22;4.19;114.56
2023-02-11 11:16:21;4.20;114.56
2023-02-11 11:31:22;4.20;114.88
2023-02-11 11:46:22;4.21;114.88
2023-02-11 12:01:22;4.21;114.88
2023-02-11 12:16:22;4.21;114.88
2023-02-11 12:31:22;4.20;114.88
2023-02-11 12:46:23;4.21;114.56
2023-02-11 13:01:23;4.21;114.88
2023-02-11 13:16:23;4.21;114.56
2023-02-11 13:31:24;4.21;114.88
2023-02-11 13:46:25;4.21;114.88
2023-02-11 14:01:22;4.21;114.88
2023-02-11 14:16:23;4.21;114.88
2023-02-11 14:31:24;4.21;114.24
2023-02-11 14:46:27;4.21;114.88
2023-02-11 15:01:24;4.21;114.56
2023-02-11 15:16:26;4.21;114.24
2023-02-11 15:31:24;4.21;114.56
2023-02-11 15:46:26;4.21;114.56
2023-02-11 16:01:22;4.21;114.56
2023-02-11 16:16:23;4.21;114.56
2023-02-11 16:31:25;4.21;114.56
2023-02-11 16:46:26;4.21;114.56
2023-02-11 17:01:23;4.21;114.56
2023-02-11 17:16:24;4.21;114.56
2023-02-11 17:31:24;4.22;114.88
2023-02-11 17:46:25;4.22;114.24
2023-02-11 18:01:24;4.22;114.56
2023-02-11 18:16:24;4.22;114.88
2023-02-11 18:31:23;4.22;114.56
2023-02-11 18:46:23;4.22;114.88
2023-02-11 19:01:22;4.22;114.56
2023-02-11 19:16:20;4.22;114.56
2023-02-11 19:31:23;4.22;114.56
2023-02-11 19:46:20;4.22;114.56
2023-02-11 20:01:21;4.22;114.56
2023-02-11 20:16:21;4.22;114.56
2023-02-11 20:31:21;4.21;114.56
2023-02-11 20:46:20;4.21;114.56
2023-02-11 21:01:18;4.21;114.56
2023-02-11 21:16:17;4.21;114.56
2023-02-11 21:31:19;4.21;114.56
2023-02-11 21:46:17;4.21;114.56
2023-02-11 22:01:19;4.21;114.24
2023-02-11 22:16:16;4.21;114.56
2023-02-11 22:31:18;4.21;114.24
2023-02-11 22:46:15;4.21;114.56
2023-02-11 23:01:16;4.21;114.56
2023-02-11 23:16:17;4.21;114.56
2023-02-11 23:31:17;4.21;114.56
2023-02-11 23:46:14;4.21;114.56
