2023-07-15 00:01:10;4.15;38.83
2023-07-15 00:16:06;4.15;38.51
2023-07-15 00:31:07;4.15;38.51
2023-07-15 00:46:08;4.15;38.51
2023-07-15 01:01:09;4.15;38.51
2023-07-15 01:16:09;4.15;38.19
2023-07-15 01:31:09;4.15;38.51
2023-07-15 01:46:05;4.15;38.19
2023-07-15 02:01:09;4.15;38.19
2023-07-15 02:16:09;4.15;38.19
2023-07-15 02:31:09;4.15;38.19
2023-07-15 02:46:09;4.15;38.19
2023-07-15 03:01:08;4.15;38.19
2023-07-15 03:16:08;4.15;38.19
2023-07-15 03:31:08;4.15;38.19
2023-07-15 03:46:07;4.15;38.19
2023-07-15 04:01:07;4.15;38.19
2023-07-15 04:16:06;4.15;38.19
2023-07-15 04:31:06;4.14;38.19
2023-07-15 04:46:06;4.15;38.19
2023-07-15 05:01:05;4.15;38.19
2023-07-15 05:16:05;4.15;37.87
2023-07-15 05:31:09;4.15;37.87
2023-07-15 05:46:08;4.14;38.19
2023-07-15 06:01:08;4.14;37.87
2023-07-15 06:16:07;4.14;37.87
2023-07-15 06:31:06;4.13;37.54
2023-07-15 06:46:05;4.14;37.87
2023-07-15 07:01:08;4.14;37.87
2023-07-15 07:16:07;4.13;37.54
2023-07-15 07:31:06;4.14;37.87
2023-07-15 07:46:06;4.14;37.54
2023-07-15 08:01:06;4.14;37.38
2023-07-15 08:16:06;4.14;37.54
2023-07-15 08:31:06;4.14;37.38
2023-07-15 08:46:07;4.14;37.38
2023-07-15 09:01:07;4.14;37.38
2023-07-15 09:16:08;4.14;37.38
2023-07-15 09:31:10;4.15;37.06
2023-07-15 09:46:07;4.14;37.06
2023-07-15 10:01:08;4.15;37.38
2023-07-15 10:16:10;4.16;37.38
2023-07-15 10:31:08;4.16;37.06
2023-07-15 10:46:10;4.16;37.38
2023-07-15 11:01:08;4.16;37.38
2023-07-15 11:16:10;4.16;37.06
2023-07-15 11:31:08;4.17;37.06
2023-07-15 11:46:10;4.17;37.06
2023-07-15 12:01:09;4.17;37.38
2023-07-15 12:16:11;4.17;37.06
2023-07-15 12:31:10;4.17;37.06
2023-07-15 12:46:09;4.18;37.06
2023-07-15 13:01:13;4.17;37.38
2023-07-15 13:16:12;4.17;37.06
2023-07-15 13:31:12;4.17;37.06
2023-07-15 13:46:12;4.17;36.74
2023-07-15 14:01:12;4.18;37.06
2023-07-15 14:16:13;4.18;37.06
2023-07-15 14:31:13;4.17;36.74
2023-07-15 14:46:13;4.16;36.74
2023-07-15 15:01:09;4.16;37.06
2023-07-15 15:16:10;4.16;37.38
2023-07-15 15:31:10;4.16;37.06
2023-07-15 15:46:11;4.15;37.06
2023-07-15 16:01:11;4.14;36.74
2023-07-15 16:16:12;4.15;37.06
2023-07-15 16:31:12;4.16;37.06
2023-07-15 16:46:12;4.16;36.74
2023-07-15 17:01:12;4.15;36.74
2023-07-15 17:16:12;4.15;36.74
2023-07-15 17:31:12;4.16;36.74
2023-07-15 17:46:12;4.15;36.74
2023-07-15 18:01:11;4.14;36.74
2023-07-15 18:16:10;4.14;36.74
2023-07-15 18:31:08;4.12;36.42
2023-07-15 18:46:10;4.14;36.42
2023-07-15 19:01:08;4.14;36.42
2023-07-15 19:16:10;4.14;36.42
2023-07-15 19:31:07;4.13;36.42
2023-07-15 19:46:09;4.14;36.42
2023-07-15 20:01:10;4.14;36.42
2023-07-15 20:16:07;4.13;36.42
2023-07-15 20:31:08;4.14;36.09
2023-07-15 20:46:09;4.13;36.09
2023-07-15 21:01:10;4.13;35.77
2023-07-15 21:16:06;4.13;36.09
2023-07-15 21:31:07;4.13;35.77
2023-07-15 21:46:08;4.13;35.77
2023-07-15 22:01:09;4.13;35.77
2023-07-15 22:16:09;4.13;35.45
2023-07-15 22:31:06;4.13;35.45
2023-07-15 22:46:06;4.10;35.77
2023-07-15 23:01:07;4.13;35.77
2023-07-15 23:16:07;4.13;35.77
2023-07-15 23:31:07;4.13;35.45
2023-07-15 23:46:07;4.13;35.45
