2023-02-20 00:01:10;4.19;109.08
2023-02-20 00:16:09;4.19;109.40
2023-02-20 00:31:12;4.19;109.08
2023-02-20 00:46:10;4.19;108.76
2023-02-20 01:01:08;4.19;109.40
2023-02-20 01:16:10;4.19;109.40
2023-02-20 01:31:08;4.19;109.40
2023-02-20 01:46:10;4.19;109.40
2023-02-20 02:01:08;4.18;109.08
2023-02-20 02:16:11;4.19;109.08
2023-02-20 02:31:09;4.19;109.40
2023-02-20 02:46:11;4.19;109.08
2023-02-20 03:01:09;4.19;109.08
2023-02-20 03:16:10;4.19;109.40
2023-02-20 03:31:08;4.19;109.08
2023-02-20 03:46:09;4.19;109.40
2023-02-20 04:01:07;4.19;109.08
2023-02-20 04:16:08;4.19;109.08
2023-02-20 04:31:09;4.18;109.40
2023-02-20 04:46:10;4.18;109.08
2023-02-20 05:01:07;4.18;109.40
2023-02-20 05:16:09;4.18;109.08
2023-02-20 05:31:10;4.18;109.40
2023-02-20 05:46:06;4.18;109.40
2023-02-20 06:01:07;4.18;109.08
2023-02-20 06:16:08;4.18;109.40
2023-02-20 06:31:09;4.18;108.76
2023-02-20 06:46:10;4.18;109.08
2023-02-20 07:01:07;4.18;108.76
2023-02-20 07:16:08;4.18;108.76
2023-02-20 07:31:10;4.18;109.08
2023-02-20 07:46:08;4.18;109.08
2023-02-20 08:01:11;4.18;109.08
2023-02-20 08:16:10;4.18;109.08
2023-02-20 08:31:11;4.18;108.76
2023-02-20 08:46:12;4.19;109.08
2023-02-20 09:01:14;4.19;108.76
2023-02-20 09:16:12;4.19;108.76
2023-02-20 09:31:16;4.19;109.08
2023-02-20 09:46:16;4.19;108.76
2023-02-20 10:01:17;4.19;109.08
2023-02-20 10:16:18;4.19;108.76
2023-02-20 10:31:16;4.19;109.08
2023-02-20 10:46:18;4.19;109.08
2023-02-20 11:01:17;4.20;109.08
2023-02-20 11:16:21;4.20;108.76
2023-02-20 11:31:20;4.20;109.08
2023-02-20 11:46:20;4.20;108.76
2023-02-20 12:01:21;4.20;109.08
2023-02-20 12:16:21;4.20;109.08
2023-02-20 12:31:18;4.20;109.08
2023-02-20 12:46:19;4.20;109.08
2023-02-20 13:01:20;4.20;109.08
2023-02-20 13:16:21;4.20;109.08
2023-02-20 13:31:18;4.19;109.08
2023-02-20 13:46:20;4.20;109.08
2023-02-20 14:01:22;4.20;109.08
2023-02-20 14:16:20;4.20;109.08
2023-02-20 14:31:22;4.20;109.08
2023-02-20 14:46:20;4.20;109.08
2023-02-20 15:01:22;4.20;109.08
2023-02-20 15:16:20;4.21;109.08
2023-02-20 15:31:22;4.20;109.08
2023-02-20 15:46:20;4.21;109.08
2023-02-20 16:01:22;4.21;109.40
2023-02-20 16:16:20;4.21;109.08
2023-02-20 16:31:21;4.21;109.08
2023-02-20 16:46:19;4.21;108.76
2023-02-20 17:01:20;4.21;109.08
2023-02-20 17:16:21;4.21;109.08
2023-02-20 17:31:22;4.21;109.08
2023-02-20 17:46:18;4.21;109.08
2023-02-20 18:01:19;4.21;109.08
2023-02-20 18:16:19;4.21;109.08
2023-02-20 18:31:19;4.21;109.08
2023-02-20 18:46:18;4.21;109.08
2023-02-20 19:01:17;4.21;109.08
2023-02-20 19:16:19;4.21;108.76
2023-02-20 19:31:17;4.21;109.08
2023-02-20 19:46:18;4.21;108.76
2023-02-20 20:01:14;4.21;109.08
2023-02-20 20:16:13;4.21;109.08
2023-02-20 20:31:12;4.21;108.76
2023-02-20 20:46:15;4.21;108.76
2023-02-20 21:01:13;4.21;108.76
2023-02-20 21:16:15;4.21;108.76
2023-02-20 21:31:12;4.20;108.76
2023-02-20 21:46:13;4.20;108.76
2023-02-20 22:01:11;4.20;109.08
2023-02-20 22:16:12;4.20;108.44
2023-02-20 22:31:13;4.20;108.76
2023-02-20 22:46:14;4.20;108.76
2023-02-20 23:01:11;4.20;108.76
2023-02-20 23:16:12;4.20;108.76
2023-02-20 23:31:13;4.20;108.76
2023-02-20 23:46:14;4.19;109.08
