2023-02-28 00:01:16;4.20;105.54
2023-02-28 00:16:15;4.20;105.54
2023-02-28 00:31:14;4.20;105.54
2023-02-28 00:46:13;4.20;105.21
2023-02-28 01:01:15;4.20;105.21
2023-02-28 01:16:14;4.20;105.54
2023-02-28 01:31:12;4.20;105.54
2023-02-28 01:46:15;4.20;105.54
2023-02-28 02:01:13;4.20;105.54
2023-02-28 02:16:16;4.20;105.54
2023-02-28 02:31:14;4.20;105.21
2023-02-28 02:46:12;4.20;105.54
2023-02-28 03:01:14;4.20;105.21
2023-02-28 03:16:12;4.20;105.21
2023-02-28 03:31:14;4.20;105.54
2023-02-28 03:46:12;4.20;105.54
2023-02-28 04:01:14;4.20;105.54
2023-02-28 04:16:11;4.19;105.54
2023-02-28 04:31:13;4.19;105.54
2023-02-28 04:46:15;4.19;105.21
2023-02-28 05:01:12;4.19;105.54
2023-02-28 05:16:14;4.19;105.54
2023-02-28 05:31:11;4.19;105.21
2023-02-28 05:46:13;4.19;105.54
2023-02-28 06:01:15;4.19;105.54
2023-02-28 06:16:12;4.19;105.54
2023-02-28 06:31:14;4.19;105.21
2023-02-28 06:46:12;4.19;105.21
2023-02-28 07:01:14;4.19;105.54
2023-02-28 07:16:12;4.19;105.54
2023-02-28 07:31:15;4.19;105.21
2023-02-28 07:46:13;4.19;105.54
2023-02-28 08:01:16;4.19;105.21
2023-02-28 08:16:16;4.19;104.89
2023-02-28 08:31:16;4.19;105.21
2023-02-28 08:46:16;4.19;105.21
2023-02-28 09:01:17;4.20;105.21
2023-02-28 09:16:19;4.20;105.21
2023-02-28 09:31:17;4.20;105.21
2023-02-28 09:46:20;4.20;105.54
2023-02-28 10:01:19;4.20;104.89
2023-02-28 10:16:18;4.20;105.21
2023-02-28 10:31:19;4.20;105.54
2023-02-28 10:46:19;4.20;105.21
2023-02-28 11:01:20;4.20;105.54
2023-02-28 11:16:22;4.20;105.21
2023-02-28 11:31:19;4.20;105.21
2023-02-28 11:46:22;4.20;105.21
2023-02-28 12:01:20;4.20;105.21
2023-02-28 12:16:23;4.20;105.21
2023-02-28 12:31:22;4.20;105.21
2023-02-28 12:46:21;4.20;105.21
2023-02-28 13:01:24;4.20;105.21
2023-02-28 13:16:24;4.20;105.54
2023-02-28 13:31:24;4.21;105.21
2023-02-28 13:46:24;4.21;105.21
2023-02-28 14:01:23;4.21;105.21
2023-02-28 14:16:23;4.21;105.54
2023-02-28 14:31:23;4.21;105.21
2023-02-28 14:46:23;4.21;105.21
2023-02-28 15:01:22;4.21;105.21
2023-02-28 15:16:22;4.21;105.54
2023-02-28 15:31:22;4.21;105.54
2023-02-28 15:46:22;4.21;105.21
2023-02-28 16:01:22;4.21;105.54
2023-02-28 16:16:22;4.21;105.21
2023-02-28 16:31:22;4.21;105.54
2023-02-28 16:46:21;4.21;105.21
2023-02-28 17:01:25;4.21;105.21
2023-02-28 17:16:24;4.21;105.86
2023-02-28 17:31:23;4.21;105.21
2023-02-28 17:46:21;4.20;105.21
2023-02-28 18:01:20;4.21;105.21
2023-02-28 18:16:22;4.21;105.54
2023-02-28 18:31:20;4.21;105.21
2023-02-28 18:46:22;4.21;105.21
2023-02-28 19:01:19;4.22;105.21
2023-02-28 19:16:19;4.21;105.21
2023-02-28 19:31:19;4.21;105.21
2023-02-28 19:46:18;4.21;105.21
2023-02-28 20:01:16;4.21;105.21
2023-02-28 20:16:18;4.21;105.21
2023-02-28 20:31:16;4.21;105.21
2023-02-28 20:46:17;4.21;104.89
2023-02-28 21:01:18;4.21;105.21
2023-02-28 21:16:14;4.21;105.21
2023-02-28 21:31:14;4.21;105.21
2023-02-28 21:46:15;4.21;105.21
2023-02-28 22:01:15;4.20;104.89
2023-02-28 22:16:14;4.21;105.21
2023-02-28 22:31:14;4.21;105.21
2023-02-28 22:46:13;4.21;105.21
2023-02-28 23:01:16;4.20;105.21
2023-02-28 23:16:15;4.21;105.21
2023-02-28 23:31:14;4.20;105.21
2023-02-28 23:46:12;4.20;105.21
