2023-04-08 00:01:10;4.19;93.94
2023-04-08 00:16:10;4.19;93.94
2023-04-08 00:31:10;4.19;93.61
2023-04-08 00:46:11;4.19;93.94
2023-04-08 01:01:11;4.19;93.94
2023-04-08 01:16:11;4.19;93.61
2023-04-08 01:31:11;4.19;93.29
2023-04-08 01:46:11;4.19;93.94
2023-04-08 02:01:11;4.19;93.61
2023-04-08 02:16:12;4.19;93.61
2023-04-08 02:31:11;4.19;93.94
2023-04-08 02:46:11;4.19;93.94
2023-04-08 03:01:11;4.18;93.61
2023-04-08 03:16:11;4.18;93.94
2023-04-08 03:31:11;4.18;93.94
2023-04-08 03:46:11;4.18;93.94
2023-04-08 04:01:11;4.18;93.94
2023-04-08 04:16:11;4.18;94.26
2023-04-08 04:31:10;4.18;93.94
2023-04-08 04:46:10;4.18;93.94
2023-04-08 05:01:09;4.18;93.94
2023-04-08 05:16:09;4.18;94.26
2023-04-08 05:31:13;4.18;93.94
2023-04-08 05:46:12;4.18;93.94
2023-04-08 06:01:12;4.18;93.61
2023-04-08 06:16:11;4.18;93.94
2023-04-08 06:31:11;4.18;93.94
2023-04-08 06:46:10;4.18;94.26
2023-04-08 07:01:10;4.18;93.94
2023-04-08 07:16:10;4.18;93.94
2023-04-08 07:31:10;4.18;93.94
2023-04-08 07:46:09;4.18;93.94
2023-04-08 08:01:13;4.18;93.94
2023-04-08 08:16:13;4.17;93.94
2023-04-08 08:31:10;4.18;93.61
2023-04-08 08:46:11;4.18;93.94
2023-04-08 09:01:13;4.18;93.94
2023-04-08 09:16:11;4.19;93.61
2023-04-08 09:31:14;4.19;93.61
2023-04-08 09:46:13;4.18;93.94
2023-04-08 10:01:13;4.19;93.61
2023-04-08 10:16:18;4.19;93.61
2023-04-08 10:31:14;4.19;93.94
2023-04-08 10:46:15;4.19;93.61
2023-04-08 11:01:16;4.19;93.29
2023-04-08 11:16:18;4.19;93.29
2023-04-08 11:31:16;4.19;93.29
2023-04-08 11:46:18;4.19;93.94
2023-04-08 12:01:17;4.19;93.94
2023-04-08 12:16:20;4.19;93.94
2023-04-08 12:31:19;4.19;93.94
2023-04-08 12:46:18;4.19;93.61
2023-04-08 13:01:17;4.20;93.94
2023-04-08 13:16:21;4.20;93.61
2023-04-08 13:31:20;4.20;93.94
2023-04-08 13:46:20;4.20;93.94
2023-04-08 14:01:19;4.20;93.61
2023-04-08 14:16:19;4.20;93.94
2023-04-08 14:31:20;4.19;94.26
2023-04-08 14:46:20;4.20;93.61
2023-04-08 15:01:20;4.20;93.94
2023-04-08 15:16:19;4.20;93.94
2023-04-08 15:31:19;4.20;94.26
2023-04-08 15:46:19;4.20;93.94
2023-04-08 16:01:19;4.20;94.26
2023-04-08 16:16:19;4.20;93.94
2023-04-08 16:31:18;4.20;93.94
2023-04-08 16:46:18;4.20;94.26
2023-04-08 17:01:17;4.20;94.26
2023-04-08 17:16:20;4.20;94.26
2023-04-08 17:31:19;4.20;94.26
2023-04-08 17:46:17;4.20;94.26
2023-04-08 18:01:19;4.20;94.26
2023-04-08 18:16:17;4.20;93.94
2023-04-08 18:31:18;4.21;94.26
2023-04-08 18:46:14;4.20;94.26
2023-04-08 19:01:13;4.20;94.26
2023-04-08 19:16:16;4.20;93.94
2023-04-08 19:31:14;4.20;93.94
2023-04-08 19:46:11;4.20;93.94
2023-04-08 20:01:12;4.20;93.94
2023-04-08 20:16:13;4.19;94.26
2023-04-08 20:31:14;4.20;93.94
2023-04-08 20:46:10;4.19;94.26
2023-04-08 21:01:11;4.19;93.94
2023-04-08 21:16:11;4.20;93.94
2023-04-08 21:31:12;4.19;93.94
2023-04-08 21:46:12;4.19;93.94
2023-04-08 22:01:12;4.19;93.94
2023-04-08 22:16:12;4.19;93.94
2023-04-08 22:31:12;4.19;93.94
2023-04-08 22:46:11;4.19;93.29
2023-04-08 23:01:11;4.19;93.61
2023-04-08 23:16:10;4.19;93.94
2023-04-08 23:31:10;4.19;93.94
2023-04-08 23:46:09;4.19;93.94
