2023-05-12 00:01:08;4.18;88.94
2023-05-12 00:16:10;4.18;88.94
2023-05-12 00:31:09;4.18;88.94
2023-05-12 00:46:11;4.18;89.26
2023-05-12 01:01:09;4.18;88.94
2023-05-12 01:16:07;4.18;89.26
2023-05-12 01:31:10;4.18;88.94
2023-05-12 01:46:08;4.18;88.94
2023-05-12 02:01:10;4.18;89.26
2023-05-12 02:16:08;4.17;88.94
2023-05-12 02:31:10;4.17;89.26
2023-05-12 02:46:08;4.17;88.94
2023-05-12 03:01:11;4.17;88.94
2023-05-12 03:16:09;4.17;89.26
2023-05-12 03:31:11;4.17;88.94
2023-05-12 03:46:09;4.17;89.26
2023-05-12 04:01:11;4.17;88.94
2023-05-12 04:16:09;4.17;89.26
2023-05-12 04:31:11;4.17;89.26
2023-05-12 04:46:08;4.17;88.94
2023-05-12 05:01:09;4.17;88.94
2023-05-12 05:16:10;4.17;88.94
2023-05-12 05:31:07;4.17;88.94
2023-05-12 05:46:08;4.17;89.26
2023-05-12 06:01:09;4.17;88.62
2023-05-12 06:16:06;4.17;89.26
2023-05-12 06:31:07;4.16;89.26
2023-05-12 06:46:09;4.17;89.26
2023-05-12 07:01:10;4.16;88.94
2023-05-12 07:16:07;4.17;89.26
2023-05-12 07:31:09;4.17;88.94
2023-05-12 07:46:11;4.17;88.94
2023-05-12 08:01:08;4.16;89.26
2023-05-12 08:16:10;4.17;88.94
2023-05-12 08:31:08;4.17;88.94
2023-05-12 08:46:11;4.17;89.26
2023-05-12 09:01:09;4.18;88.94
2023-05-12 09:16:08;4.18;88.94
2023-05-12 09:31:12;4.18;89.26
2023-05-12 09:46:12;4.18;88.94
2023-05-12 10:01:12;4.18;88.94
2023-05-12 10:16:13;4.18;88.94
2023-05-12 10:31:14;4.18;89.26
2023-05-12 10:46:11;4.18;88.94
2023-05-12 11:01:13;4.18;88.94
2023-05-12 11:16:15;4.18;88.62
2023-05-12 11:31:13;4.18;89.26
2023-05-12 11:46:16;4.18;88.94
2023-05-12 12:01:16;4.18;88.94
2023-05-12 12:16:16;4.18;88.94
2023-05-12 12:31:16;4.18;88.94
2023-05-12 12:46:17;4.19;88.94
2023-05-12 13:01:17;4.19;88.94
2023-05-12 13:16:14;4.19;88.94
2023-05-12 13:31:14;4.19;89.26
2023-05-12 13:46:15;4.19;88.94
2023-05-12 14:01:16;4.19;88.94
2023-05-12 14:16:16;4.19;89.26
2023-05-12 14:31:17;4.19;89.26
2023-05-12 14:46:14;4.19;89.26
2023-05-12 15:01:15;4.19;89.26
2023-05-12 15:16:15;4.19;89.26
2023-05-12 15:31:15;4.19;89.26
2023-05-12 15:46:15;4.19;89.91
2023-05-12 16:01:15;4.19;89.59
2023-05-12 16:16:15;4.19;89.26
2023-05-12 16:31:16;4.19;89.26
2023-05-12 16:46:16;4.19;89.26
2023-05-12 17:01:15;4.19;89.26
2023-05-12 17:16:15;4.20;89.26
2023-05-12 17:31:14;4.19;89.26
2023-05-12 17:46:13;4.20;89.26
2023-05-12 18:01:16;4.20;89.59
2023-05-12 18:16:14;4.19;89.26
2023-05-12 18:31:11;4.18;89.26
2023-05-12 18:46:13;4.19;89.26
2023-05-12 19:01:13;4.19;89.59
2023-05-12 19:16:09;4.19;89.26
2023-05-12 19:31:09;4.18;89.26
2023-05-12 19:46:09;4.19;89.59
2023-05-12 20:01:09;4.19;89.26
2023-05-12 20:16:13;4.19;89.26
2023-05-12 20:31:12;4.19;89.26
2023-05-12 20:46:12;4.19;89.26
2023-05-12 21:01:11;4.19;89.26
2023-05-12 21:16:10;4.18;89.26
2023-05-12 21:31:10;4.18;89.26
2023-05-12 21:46:09;4.18;88.94
2023-05-12 22:01:12;4.18;89.26
2023-05-12 22:16:11;4.18;89.26
2023-05-12 22:31:11;4.18;88.94
2023-05-12 22:46:10;4.18;89.26
2023-05-12 23:01:09;4.18;89.26
2023-05-12 23:16:13;4.18;89.26
2023-05-12 23:31:12;4.18;88.94
2023-05-12 23:46:11;4.18;88.94
