2023-02-22 00:01:16;4.20;108.44
2023-02-22 00:16:14;4.20;108.11
2023-02-22 00:31:13;4.20;108.11
2023-02-22 00:46:12;4.20;107.79
2023-02-22 01:01:16;4.20;108.11
2023-02-22 01:16:15;4.20;107.79
2023-02-22 01:31:15;4.20;108.11
2023-02-22 01:46:14;4.20;108.11
2023-02-22 02:01:13;4.20;107.79
2023-02-22 02:16:13;4.20;108.11
2023-02-22 02:31:17;4.20;108.11
2023-02-22 02:46:17;4.20;108.11
2023-02-22 03:01:17;4.20;108.11
2023-02-22 03:16:17;4.20;108.44
2023-02-22 03:31:17;4.20;108.11
2023-02-22 03:46:13;4.20;108.11
2023-02-22 04:01:13;4.20;107.79
2023-02-22 04:16:17;4.20;108.11
2023-02-22 04:31:13;4.20;108.11
2023-02-22 04:46:16;4.19;108.11
2023-02-22 05:01:16;4.19;107.79
2023-02-22 05:16:15;4.19;108.11
2023-02-22 05:31:14;4.19;108.11
2023-02-22 05:46:13;4.19;107.79
2023-02-22 06:01:16;4.19;108.11
2023-02-22 06:16:15;4.19;108.11
2023-02-22 06:31:14;4.19;107.79
2023-02-22 06:46:12;4.19;108.11
2023-02-22 07:01:14;4.19;108.11
2023-02-22 07:16:12;4.19;107.79
2023-02-22 07:31:14;4.19;107.79
2023-02-22 07:46:12;4.19;107.79
2023-02-22 08:01:14;4.19;107.79
2023-02-22 08:16:12;4.19;108.11
2023-02-22 08:31:14;4.19;107.79
2023-02-22 08:46:11;4.19;107.79
2023-02-22 09:01:13;4.19;107.47
2023-02-22 09:16:15;4.19;107.79
2023-02-22 09:31:12;4.19;107.79
2023-02-22 09:46:14;4.19;107.79
2023-02-22 10:01:12;4.18;107.47
2023-02-22 10:16:14;4.18;108.11
2023-02-22 10:31:12;4.18;107.47
2023-02-22 10:46:14;4.18;107.79
2023-02-22 11:01:12;4.18;107.47
2023-02-22 11:16:14;4.18;107.79
2023-02-22 11:31:11;4.18;107.47
2023-02-22 11:46:12;4.18;107.79
2023-02-22 12:01:14;4.18;107.79
2023-02-22 12:16:11;4.18;107.47
2023-02-22 12:31:13;4.19;107.79
2023-02-22 12:46:15;4.19;107.79
2023-02-22 13:01:13;4.19;107.79
2023-02-22 13:16:15;4.19;107.79
2023-02-22 13:31:12;4.19;107.79
2023-02-22 13:46:15;4.19;107.47
2023-02-22 14:01:13;4.19;107.79
2023-02-22 14:16:15;4.19;107.47
2023-02-22 14:31:12;4.19;107.79
2023-02-22 14:46:15;4.19;107.79
2023-02-22 15:01:12;4.19;107.79
2023-02-22 15:16:14;4.19;108.11
2023-02-22 15:31:12;4.19;108.11
2023-02-22 15:46:14;4.19;107.79
2023-02-22 16:01:12;4.19;108.11
2023-02-22 16:16:15;4.19;108.11
2023-02-22 16:31:13;4.19;108.44
2023-02-22 16:46:16;4.19;107.79
2023-02-22 17:01:16;4.19;108.11
2023-02-22 17:16:15;4.19;107.79
2023-02-22 17:31:15;4.20;107.47
2023-02-22 17:46:14;4.20;108.11
2023-02-22 18:01:14;4.20;108.11
2023-02-22 18:16:14;4.20;107.47
2023-02-22 18:31:14;4.19;107.79
2023-02-22 18:46:14;4.20;107.47
2023-02-22 19:01:14;4.20;107.47
2023-02-22 19:16:13;4.20;107.79
2023-02-22 19:31:13;4.20;107.79
2023-02-22 19:46:16;4.19;107.79
2023-02-22 20:01:15;4.19;107.79
2023-02-22 20:16:14;4.19;107.79
2023-02-22 20:31:12;4.19;107.79
2023-02-22 20:46:15;4.19;107.79
2023-02-22 21:01:14;4.19;107.79
2023-02-22 21:16:12;4.19;107.79
2023-02-22 21:31:15;4.19;107.79
2023-02-22 21:46:13;4.19;107.79
2023-02-22 22:01:16;4.19;107.79
2023-02-22 22:16:13;4.19;107.47
2023-02-22 22:31:11;4.19;107.79
2023-02-22 22:46:13;4.19;107.79
2023-02-22 23:01:11;4.18;107.79
2023-02-22 23:16:13;4.19;107.47
2023-02-22 23:31:11;4.19;107.15
2023-02-22 23:46:13;4.19;107.79
