2023-05-26 00:01:13;4.18;89.59
2023-05-26 00:16:16;4.17;89.59
2023-05-26 00:31:15;4.17;89.59
2023-05-26 00:46:14;4.17;90.23
2023-05-26 01:01:13;4.17;89.91
2023-05-26 01:16:12;4.17;89.91
2023-05-26 01:31:15;4.17;89.91
2023-05-26 01:46:15;4.17;89.91
2023-05-26 02:01:14;4.17;89.91
2023-05-26 02:16:13;4.17;89.91
2023-05-26 02:31:16;4.17;89.91
2023-05-26 02:46:15;4.17;89.91
2023-05-26 03:01:14;4.17;89.91
2023-05-26 03:16:13;4.17;89.91
2023-05-26 03:31:12;4.17;89.91
2023-05-26 03:46:15;4.16;89.91
2023-05-26 04:01:14;4.17;89.91
2023-05-26 04:16:13;4.17;89.91
2023-05-26 04:31:16;4.17;89.91
2023-05-26 04:46:15;4.17;89.91
2023-05-26 05:01:14;4.17;89.91
2023-05-26 05:16:13;4.16;89.91
2023-05-26 05:31:16;4.17;89.91
2023-05-26 05:46:15;4.17;89.91
2023-05-26 06:01:14;4.17;89.91
2023-05-26 06:16:13;4.16;90.23
2023-05-26 06:31:15;4.17;90.23
2023-05-26 06:46:14;4.17;90.23
2023-05-26 07:01:12;4.17;89.91
2023-05-26 07:16:14;4.16;89.91
2023-05-26 07:31:13;4.16;89.91
2023-05-26 07:46:15;4.16;89.91
2023-05-26 08:01:13;4.16;89.91
2023-05-26 08:16:12;4.16;89.91
2023-05-26 08:31:14;4.16;89.91
2023-05-26 08:46:12;4.17;89.91
2023-05-26 09:01:15;4.17;89.91
2023-05-26 09:16:15;4.17;89.91
2023-05-26 09:31:14;4.17;89.91
2023-05-26 09:46:14;4.17;89.91
2023-05-26 10:01:14;4.17;89.59
2023-05-26 10:16:14;4.17;89.91
2023-05-26 10:31:14;4.17;89.59
2023-05-26 10:46:15;4.18;89.91
2023-05-26 11:01:16;4.18;89.91
2023-05-26 11:16:17;4.18;89.91
2023-05-26 11:31:15;4.18;89.91
2023-05-26 11:46:16;4.18;89.59
2023-05-26 12:01:17;4.17;89.59
2023-05-26 12:16:17;4.18;89.91
2023-05-26 12:31:13;4.18;89.59
2023-05-26 12:46:18;4.18;89.59
2023-05-26 13:01:13;4.19;89.91
2023-05-26 13:16:14;4.19;89.91
2023-05-26 13:31:16;4.19;89.91
2023-05-26 13:46:17;4.19;89.91
2023-05-26 14:01:19;4.19;89.91
2023-05-26 14:16:17;4.19;89.91
2023-05-26 14:31:19;4.19;89.91
2023-05-26 14:46:17;4.19;89.91
2023-05-26 15:01:19;4.19;89.91
2023-05-26 15:16:17;4.19;89.91
2023-05-26 15:31:15;4.19;89.91
2023-05-26 15:46:17;4.20;89.91
2023-05-26 16:01:14;4.19;89.91
2023-05-26 16:16:15;4.19;89.91
2023-05-26 16:31:16;4.19;89.91
2023-05-26 16:46:17;4.20;89.91
2023-05-26 17:01:17;4.20;89.91
2023-05-26 17:16:17;4.20;89.91
2023-05-26 17:31:16;4.20;89.91
2023-05-26 17:46:16;4.20;89.91
2023-05-26 18:01:14;4.19;89.59
2023-05-26 18:16:13;4.19;89.59
2023-05-26 18:31:15;4.19;89.91
2023-05-26 18:46:13;4.19;89.59
2023-05-26 19:01:15;4.19;89.91
2023-05-26 19:16:12;4.19;89.59
2023-05-26 19:31:14;4.19;89.59
2023-05-26 19:46:11;4.19;89.59
2023-05-26 20:01:13;4.19;89.59
2023-05-26 20:16:14;4.19;89.59
2023-05-26 20:31:11;4.19;89.59
2023-05-26 20:46:12;4.19;89.59
2023-05-26 21:01:13;4.19;89.59
2023-05-26 21:16:14;4.18;89.59
2023-05-26 21:31:10;4.18;89.59
2023-05-26 21:46:11;4.18;89.26
2023-05-26 22:01:12;4.18;89.26
2023-05-26 22:16:13;4.18;89.91
2023-05-26 22:31:14;4.18;89.59
2023-05-26 22:46:10;4.17;89.59
2023-05-26 23:01:10;4.18;89.59
2023-05-26 23:16:11;4.18;89.59
2023-05-26 23:31:11;4.18;89.26
2023-05-26 23:46:12;4.18;89.26
