2023-06-23 00:01:08;4.16;95.06
2023-06-23 00:16:10;4.16;95.39
2023-06-23 00:31:08;4.16;95.06
2023-06-23 00:46:10;4.16;95.06
2023-06-23 01:01:08;4.16;95.06
2023-06-23 01:16:09;4.16;95.06
2023-06-23 01:31:07;4.16;95.06
2023-06-23 01:46:09;4.16;95.06
2023-06-23 02:01:07;4.16;95.06
2023-06-23 02:16:10;4.16;95.06
2023-06-23 02:31:08;4.16;95.06
2023-06-23 02:46:10;4.16;95.06
2023-06-23 03:01:09;4.16;95.06
2023-06-23 03:16:11;4.16;95.06
2023-06-23 03:31:10;4.16;95.06
2023-06-23 03:46:08;4.15;95.06
2023-06-23 04:01:11;4.16;95.06
2023-06-23 04:16:10;4.15;95.06
2023-06-23 04:31:08;4.15;95.06
2023-06-23 04:46:11;4.15;95.06
2023-06-23 05:01:10;4.15;95.06
2023-06-23 05:16:09;4.15;95.06
2023-06-23 05:31:12;4.15;95.06
2023-06-23 05:46:10;4.15;95.39
2023-06-23 06:01:09;4.15;95.39
2023-06-23 06:16:12;4.15;95.71
2023-06-23 06:31:11;4.15;95.39
2023-06-23 06:46:10;4.15;95.39
2023-06-23 07:01:09;4.15;95.39
2023-06-23 07:16:12;4.15;95.06
2023-06-23 07:31:11;4.15;95.06
2023-06-23 07:46:10;4.15;95.39
2023-06-23 08:01:08;4.15;94.90
2023-06-23 08:16:12;4.15;95.06
2023-06-23 08:31:11;4.15;95.06
2023-06-23 08:46:10;4.15;95.06
2023-06-23 09:01:09;4.15;95.06
2023-06-23 09:16:12;4.15;95.06
2023-06-23 09:31:12;4.15;94.90
2023-06-23 09:46:11;4.15;95.39
2023-06-23 10:01:11;4.16;95.39
2023-06-23 10:16:10;4.16;95.06
2023-06-23 10:31:10;4.16;95.39
2023-06-23 10:46:10;4.17;95.39
2023-06-23 11:01:10;4.17;95.39
2023-06-23 11:16:11;4.17;95.39
2023-06-23 11:31:11;4.16;95.06
2023-06-23 11:46:11;4.17;95.06
2023-06-23 12:01:12;4.17;95.06
2023-06-23 12:16:12;4.17;95.39
2023-06-23 12:31:13;4.17;95.06
2023-06-23 12:46:10;4.17;95.39
2023-06-23 13:01:11;4.17;95.39
2023-06-23 13:16:11;4.17;95.39
2023-06-23 13:31:12;4.17;95.39
2023-06-23 13:46:13;4.17;95.39
2023-06-23 14:01:10;4.18;95.39
2023-06-23 14:16:11;4.18;95.71
2023-06-23 14:31:12;4.17;95.39
2023-06-23 14:46:14;4.17;95.39
2023-06-23 15:01:11;4.18;95.39
2023-06-23 15:16:12;4.18;95.71
2023-06-23 15:31:13;4.17;95.39
2023-06-23 15:46:10;4.18;95.39
2023-06-23 16:01:12;4.17;95.06
2023-06-23 16:16:13;4.17;95.39
2023-06-23 16:31:14;4.17;95.39
2023-06-23 16:46:11;4.17;95.71
2023-06-23 17:01:13;4.17;95.06
2023-06-23 17:16:14;4.17;95.06
2023-06-23 17:31:11;4.17;95.39
2023-06-23 17:46:11;4.17;95.39
2023-06-23 18:01:12;4.17;95.39
2023-06-23 18:16:13;4.17;95.39
2023-06-23 18:31:10;4.17;95.39
2023-06-23 18:46:10;4.17;95.71
2023-06-23 19:01:11;4.17;95.39
2023-06-23 19:16:12;4.17;95.39
2023-06-23 19:31:12;4.16;95.71
2023-06-23 19:46:13;4.16;95.39
2023-06-23 20:01:14;4.16;95.39
2023-06-23 20:16:10;4.16;95.39
2023-06-23 20:31:10;4.16;95.39
2023-06-23 20:46:11;4.16;95.39
2023-06-23 21:01:11;4.16;95.06
2023-06-23 21:16:11;4.16;95.39
2023-06-23 21:31:12;4.16;95.39
2023-06-23 21:46:12;4.16;95.39
2023-06-23 22:01:13;4.16;95.39
2023-06-23 22:16:13;4.16;95.06
2023-06-23 22:31:09;4.16;95.39
2023-06-23 22:46:10;4.16;95.39
2023-06-23 23:01:10;4.16;95.39
2023-06-23 23:16:11;4.15;95.39
2023-06-23 23:31:11;4.16;95.39
2023-06-23 23:46:12;4.16;95.39
