2023-03-08 00:01:14;4.20;101.19
2023-03-08 00:16:11;4.20;101.51
2023-03-08 00:31:13;4.20;101.19
2023-03-08 00:46:15;4.20;101.19
2023-03-08 01:01:12;4.20;101.19
2023-03-08 01:16:13;4.20;101.19
2023-03-08 01:31:10;4.20;101.19
2023-03-08 01:46:11;4.20;101.03
2023-03-08 02:01:13;4.20;101.51
2023-03-08 02:16:14;4.19;101.19
2023-03-08 02:31:10;4.20;101.19
2023-03-08 02:46:11;4.20;101.19
2023-03-08 03:01:12;4.19;101.51
2023-03-08 03:16:13;4.19;101.19
2023-03-08 03:31:14;4.19;101.19
2023-03-08 03:46:10;4.19;101.19
2023-03-08 04:01:11;4.19;101.19
2023-03-08 04:16:11;4.19;101.51
2023-03-08 04:31:12;4.19;101.19
2023-03-08 04:46:12;4.19;101.19
2023-03-08 05:01:12;4.19;101.51
2023-03-08 05:16:12;4.19;101.19
2023-03-08 05:31:12;4.19;101.19
2023-03-08 05:46:12;4.19;101.19
2023-03-08 06:01:12;4.19;101.19
2023-03-08 06:16:12;4.19;101.19
2023-03-08 06:31:12;4.19;101.19
2023-03-08 06:46:12;4.19;101.19
2023-03-08 07:01:11;4.19;101.19
2023-03-08 07:16:11;4.19;101.19
2023-03-08 07:31:11;4.19;101.19
2023-03-08 07:46:11;4.19;101.19
2023-03-08 08:01:12;4.19;101.19
2023-03-08 08:16:13;4.19;101.19
2023-03-08 08:31:11;4.19;101.19
2023-03-08 08:46:14;4.19;101.19
2023-03-08 09:01:13;4.19;101.19
2023-03-08 09:16:18;4.19;101.19
2023-03-08 09:31:14;4.19;101.19
2023-03-08 09:46:16;4.19;101.19
2023-03-08 10:01:19;4.19;101.03
2023-03-08 10:16:18;4.19;101.19
2023-03-08 10:31:18;4.20;101.03
2023-03-08 10:46:19;4.20;101.19
2023-03-08 11:01:20;4.20;100.70
2023-03-08 11:16:22;4.20;101.19
2023-03-08 11:31:20;4.20;101.03
2023-03-08 11:46:22;4.19;101.03
2023-03-08 12:01:21;4.20;101.19
2023-03-08 12:16:23;4.20;101.03
2023-03-08 12:31:22;4.20;101.19
2023-03-08 12:46:21;4.20;101.19
2023-03-08 13:01:25;4.20;101.19
2023-03-08 13:16:24;4.20;101.19
2023-03-08 13:31:24;4.20;101.03
2023-03-08 13:46:24;4.20;101.19
2023-03-08 14:01:24;4.21;101.03
2023-03-08 14:16:24;4.21;101.03
2023-03-08 14:31:25;4.21;101.19
2023-03-08 14:46:25;4.20;101.19
2023-03-08 15:01:26;4.21;101.19
2023-03-08 15:16:22;4.21;101.03
2023-03-08 15:31:23;4.21;101.19
2023-03-08 15:46:24;4.21;100.70
2023-03-08 16:01:24;4.21;101.19
2023-03-08 16:16:24;4.21;101.19
2023-03-08 16:31:24;4.21;100.70
2023-03-08 16:46:24;4.21;101.03
2023-03-08 17:01:23;4.21;101.03
2023-03-08 17:16:23;4.21;101.19
2023-03-08 17:31:22;4.21;101.03
2023-03-08 17:46:21;4.21;100.70
2023-03-08 18:01:24;4.21;101.03
2023-03-08 18:16:22;4.21;101.03
2023-03-08 18:31:20;4.21;101.03
2023-03-08 18:46:21;4.21;101.03
2023-03-08 19:01:18;4.22;101.03
2023-03-08 19:16:18;4.21;101.03
2023-03-08 19:31:18;4.21;101.03
2023-03-08 19:46:16;4.21;101.03
2023-03-08 20:01:18;4.21;101.03
2023-03-08 20:16:15;4.21;101.03
2023-03-08 20:31:16;4.21;101.03
2023-03-08 20:46:16;4.20;101.03
2023-03-08 21:01:16;4.21;100.70
2023-03-08 21:16:16;4.21;101.03
2023-03-08 21:31:16;4.21;101.03
2023-03-08 21:46:15;4.21;101.03
2023-03-08 22:01:14;4.20;101.03
2023-03-08 22:16:14;4.21;101.03
2023-03-08 22:31:13;4.21;101.03
2023-03-08 22:46:13;4.21;101.03
2023-03-08 23:01:16;4.21;100.70
2023-03-08 23:16:15;4.20;100.70
2023-03-08 23:31:14;4.20;101.03
2023-03-08 23:46:12;4.20;100.70
