2023-01-28 00:01:16;4.19;124.23
2023-01-28 00:16:14;4.19;124.23
2023-01-28 00:31:12;4.19;123.91
2023-01-28 00:46:15;4.19;124.23
2023-01-28 01:01:13;4.19;124.23
2023-01-28 01:16:16;4.18;123.91
2023-01-28 01:31:14;4.18;123.91
2023-01-28 01:46:13;4.18;123.91
2023-01-28 02:01:16;4.18;123.91
2023-01-28 02:16:14;4.18;123.91
2023-01-28 02:31:13;4.18;123.91
2023-01-28 02:46:15;4.18;123.91
2023-01-28 03:01:14;4.18;123.91
2023-01-28 03:16:12;4.18;123.91
2023-01-28 03:31:15;4.18;123.91
2023-01-28 03:46:14;4.18;123.91
2023-01-28 04:01:12;4.18;123.91
2023-01-28 04:16:14;4.18;123.91
2023-01-28 04:31:12;4.18;123.91
2023-01-28 04:46:14;4.18;123.91
2023-01-28 05:01:12;4.18;123.91
2023-01-28 05:16:14;4.18;123.91
2023-01-28 05:31:12;4.18;123.58
2023-01-28 05:46:14;4.18;123.91
2023-01-28 06:01:12;4.18;123.91
2023-01-28 06:16:14;4.18;123.91
2023-01-28 06:31:12;4.18;123.91
2023-01-28 06:46:14;4.18;123.91
2023-01-28 07:01:12;4.18;123.91
2023-01-28 07:16:15;4.18;123.91
2023-01-28 07:31:13;4.18;123.91
2023-01-28 07:46:16;4.18;123.58
2023-01-28 08:01:15;4.18;123.58
2023-01-28 08:16:14;4.18;123.26
2023-01-28 08:31:14;4.18;123.58
2023-01-28 08:46:14;4.18;123.58
2023-01-28 09:01:14;4.18;123.58
2023-01-28 09:16:15;4.18;123.91
2023-01-28 09:31:16;4.18;123.58
2023-01-28 09:46:18;4.18;123.58
2023-01-28 10:01:16;4.18;123.91
2023-01-28 10:16:19;4.18;123.91
2023-01-28 10:31:18;4.19;123.26
2023-01-28 10:46:18;4.19;123.91
2023-01-28 11:01:18;4.19;123.58
2023-01-28 11:16:19;4.19;123.91
2023-01-28 11:31:20;4.19;123.58
2023-01-28 11:46:22;4.19;123.58
2023-01-28 12:01:20;4.19;123.58
2023-01-28 12:16:22;4.19;123.58
2023-01-28 12:31:20;4.19;123.26
2023-01-28 12:46:23;4.20;123.91
2023-01-28 13:01:22;4.19;123.58
2023-01-28 13:16:21;4.19;123.58
2023-01-28 13:31:25;4.19;123.26
2023-01-28 13:46:23;4.19;123.26
2023-01-28 14:01:22;4.20;123.58
2023-01-28 14:16:21;4.20;123.58
2023-01-28 14:31:25;4.20;123.58
2023-01-28 14:46:25;4.20;123.58
2023-01-28 15:01:25;4.20;123.58
2023-01-28 15:16:24;4.20;123.58
2023-01-28 15:31:23;4.20;123.58
2023-01-28 15:46:22;4.20;123.58
2023-01-28 16:01:20;4.20;123.58
2023-01-28 16:16:23;4.20;123.58
2023-01-28 16:31:23;4.20;123.58
2023-01-28 16:46:21;4.20;123.58
2023-01-28 17:01:20;4.20;123.58
2023-01-28 17:16:23;4.20;123.58
2023-01-28 17:31:22;4.20;123.58
2023-01-28 17:46:20;4.20;123.58
2023-01-28 18:01:22;4.20;123.58
2023-01-28 18:16:19;4.20;123.58
2023-01-28 18:31:21;4.20;123.91
2023-01-28 18:46:22;4.20;123.26
2023-01-28 19:01:19;4.20;123.26
2023-01-28 19:16:19;4.21;123.26
2023-01-28 19:31:19;4.20;123.26
2023-01-28 19:46:19;4.20;122.94
2023-01-28 20:01:18;4.20;123.58
2023-01-28 20:16:16;4.20;123.58
2023-01-28 20:31:19;4.20;123.58
2023-01-28 20:46:16;4.20;123.26
2023-01-28 21:01:18;4.20;123.26
2023-01-28 21:16:14;4.20;123.26
2023-01-28 21:31:15;4.20;123.26
2023-01-28 21:46:16;4.20;123.26
2023-01-28 22:01:17;4.20;123.26
2023-01-28 22:16:18;4.20;122.94
2023-01-28 22:31:14;4.20;122.94
2023-01-28 22:46:15;4.20;123.26
2023-01-28 23:01:15;4.20;123.26
2023-01-28 23:16:16;4.20;123.26
2023-01-28 23:31:16;4.20;122.94
2023-01-28 23:46:16;4.20;123.26
