2023-02-18 00:01:07;4.18;109.73
2023-02-18 00:16:08;4.18;109.89
2023-02-18 00:31:10;4.18;109.89
2023-02-18 00:46:06;4.18;110.21
2023-02-18 01:01:07;4.18;109.73
2023-02-18 01:16:08;4.18;110.21
2023-02-18 01:31:09;4.18;109.89
2023-02-18 01:46:09;4.18;110.21
2023-02-18 02:01:05;4.18;110.21
2023-02-18 02:16:06;4.18;110.21
2023-02-18 02:31:06;4.18;110.21
2023-02-18 02:46:07;4.18;110.21
2023-02-18 03:01:07;4.18;109.89
2023-02-18 03:16:07;4.17;110.21
2023-02-18 03:31:07;4.17;109.89
2023-02-18 03:46:07;4.17;109.89
2023-02-18 04:01:08;4.17;109.89
2023-02-18 04:16:07;4.17;109.89
2023-02-18 04:31:07;4.17;110.21
2023-02-18 04:46:07;4.17;109.89
2023-02-18 05:01:07;4.17;109.89
2023-02-18 05:16:08;4.17;109.89
2023-02-18 05:31:08;4.17;109.89
2023-02-18 05:46:09;4.17;109.73
2023-02-18 06:01:09;4.17;109.89
2023-02-18 06:16:09;4.17;109.73
2023-02-18 06:31:08;4.17;109.89
2023-02-18 06:46:08;4.17;109.89
2023-02-18 07:01:08;4.17;109.73
2023-02-18 07:16:07;4.17;109.73
2023-02-18 07:31:07;4.17;109.89
2023-02-18 07:46:07;4.17;109.89
2023-02-18 08:01:08;4.17;109.73
2023-02-18 08:16:10;4.17;109.89
2023-02-18 08:31:07;4.17;109.89
2023-02-18 08:46:10;4.18;109.89
2023-02-18 09:01:09;4.18;109.89
2023-02-18 09:16:14;4.18;109.73
2023-02-18 09:31:10;4.18;109.89
2023-02-18 09:46:12;4.18;109.89
2023-02-18 10:01:14;4.18;109.89
2023-02-18 10:16:13;4.18;109.89
2023-02-18 10:31:16;4.18;109.73
2023-02-18 10:46:15;4.18;109.89
2023-02-18 11:01:15;4.19;109.89
2023-02-18 11:16:15;4.19;109.89
2023-02-18 11:31:16;4.19;109.73
2023-02-18 11:46:16;4.19;109.73
2023-02-18 12:01:17;4.19;109.73
2023-02-18 12:16:18;4.19;109.73
2023-02-18 12:31:14;4.19;109.73
2023-02-18 12:46:16;4.19;109.89
2023-02-18 13:01:18;4.19;109.89
2023-02-18 13:16:15;4.19;109.89
2023-02-18 13:31:17;4.19;109.89
2023-02-18 13:46:15;4.19;109.89
2023-02-18 14:01:18;4.19;109.73
2023-02-18 14:16:16;4.20;109.73
2023-02-18 14:31:18;4.19;109.73
2023-02-18 14:46:16;4.20;109.73
2023-02-18 15:01:19;4.19;109.73
2023-02-18 15:16:17;4.20;109.73
2023-02-18 15:31:16;4.20;109.73
2023-02-18 15:46:18;4.20;109.89
2023-02-18 16:01:17;4.20;109.89
2023-02-18 16:16:20;4.20;109.73
2023-02-18 16:31:18;4.20;109.89
2023-02-18 16:46:17;4.20;109.89
2023-02-18 17:01:19;4.20;109.89
2023-02-18 17:16:17;4.20;109.89
2023-02-18 17:31:15;4.20;109.73
2023-02-18 17:46:17;4.20;109.89
2023-02-18 18:01:19;4.20;109.89
2023-02-18 18:16:16;4.19;109.73
2023-02-18 18:31:17;4.20;109.89
2023-02-18 18:46:14;4.20;109.89
2023-02-18 19:01:14;4.20;109.73
2023-02-18 19:16:14;4.20;109.73
2023-02-18 19:31:14;4.20;109.89
2023-02-18 19:46:13;4.20;109.40
2023-02-18 20:01:15;4.20;109.73
2023-02-18 20:16:11;4.20;109.73
2023-02-18 20:31:12;4.20;109.73
2023-02-18 20:46:12;4.20;109.73
2023-02-18 21:01:11;4.20;109.73
2023-02-18 21:16:10;4.19;109.89
2023-02-18 21:31:09;4.20;109.89
2023-02-18 21:46:12;4.20;109.73
2023-02-18 22:01:10;4.19;109.89
2023-02-18 22:16:09;4.19;109.73
2023-02-18 22:31:11;4.19;109.73
2023-02-18 22:46:10;4.19;109.73
2023-02-18 23:01:08;4.19;109.73
2023-02-18 23:16:11;4.19;109.89
2023-02-18 23:31:09;4.19;109.73
2023-02-18 23:46:08;4.19;109.73
