2023-01-14 00:01:10;4.20;133.73
2023-01-14 00:16:10;4.19;133.73
2023-01-14 00:31:10;4.19;133.73
2023-01-14 00:46:10;4.19;133.73
2023-01-14 01:01:09;4.19;133.73
2023-01-14 01:16:13;4.19;133.73
2023-01-14 01:31:12;4.19;133.73
2023-01-14 01:46:11;4.19;133.73
2023-01-14 02:01:10;4.19;133.73
2023-01-14 02:16:09;4.19;133.41
2023-01-14 02:31:08;4.19;133.73
2023-01-14 02:46:11;4.19;133.73
2023-01-14 03:01:10;4.19;133.73
2023-01-14 03:16:08;4.19;133.41
2023-01-14 03:31:11;4.19;133.73
2023-01-14 03:46:10;4.19;133.41
2023-01-14 04:01:08;4.19;133.73
2023-01-14 04:16:11;4.19;133.41
2023-01-14 04:31:09;4.18;133.73
2023-01-14 04:46:11;4.19;133.73
2023-01-14 05:01:10;4.19;133.41
2023-01-14 05:16:08;4.18;133.73
2023-01-14 05:31:10;4.18;134.06
2023-01-14 05:46:08;4.18;133.73
2023-01-14 06:01:10;4.18;133.73
2023-01-14 06:16:07;4.18;133.73
2023-01-14 06:31:09;4.18;133.41
2023-01-14 06:46:11;4.18;133.73
2023-01-14 07:01:09;4.18;133.41
2023-01-14 07:16:08;4.18;133.73
2023-01-14 07:31:12;4.18;133.73
2023-01-14 07:46:13;4.18;133.73
2023-01-14 08:01:10;4.18;133.41
2023-01-14 08:16:13;4.19;133.73
2023-01-14 08:31:16;4.19;133.41
2023-01-14 08:46:16;4.19;133.09
2023-01-14 09:01:16;4.19;133.41
2023-01-14 09:16:18;4.19;133.41
2023-01-14 09:31:15;4.19;133.41
2023-01-14 09:46:18;4.19;133.41
2023-01-14 10:01:17;4.19;133.09
2023-01-14 10:16:21;4.19;133.09
2023-01-14 10:31:21;4.19;133.09
2023-01-14 10:46:22;4.19;133.41
2023-01-14 11:01:20;4.19;133.41
2023-01-14 11:16:22;4.19;133.09
2023-01-14 11:31:20;4.19;133.41
2023-01-14 11:46:23;4.20;133.09
2023-01-14 12:01:22;4.20;133.09
2023-01-14 12:16:21;4.20;133.73
2023-01-14 12:31:24;4.20;133.41
2023-01-14 12:46:23;4.20;133.09
2023-01-14 13:01:22;4.20;133.41
2023-01-14 13:16:22;4.20;133.09
2023-01-14 13:31:21;4.20;133.41
2023-01-14 13:46:21;4.20;133.41
2023-01-14 14:01:25;4.20;133.09
2023-01-14 14:16:25;4.20;133.09
2023-01-14 14:31:25;4.20;133.09
2023-01-14 14:46:24;4.20;133.41
2023-01-14 15:01:24;4.20;133.09
2023-01-14 15:16:24;4.20;133.73
2023-01-14 15:31:24;4.20;133.41
2023-01-14 15:46:24;4.21;133.41
2023-01-14 16:01:24;4.20;133.41
2023-01-14 16:16:24;4.21;133.41
2023-01-14 16:31:24;4.21;133.09
2023-01-14 16:46:24;4.21;133.41
2023-01-14 17:01:23;4.21;133.41
2023-01-14 17:16:23;4.21;133.41
2023-01-14 17:31:21;4.20;133.41
2023-01-14 17:46:20;4.21;133.41
2023-01-14 18:01:23;4.21;133.41
2023-01-14 18:16:21;4.21;133.09
2023-01-14 18:31:23;4.21;133.41
2023-01-14 18:46:20;4.21;133.41
2023-01-14 19:01:22;4.21;133.41
2023-01-14 19:16:18;4.21;133.09
2023-01-14 19:31:19;4.21;133.09
2023-01-14 19:46:18;4.21;133.09
2023-01-14 20:01:17;4.21;133.41
2023-01-14 20:16:20;4.21;133.09
2023-01-14 20:31:17;4.20;133.41
2023-01-14 20:46:17;4.21;133.09
2023-01-14 21:01:17;4.21;133.09
2023-01-14 21:16:17;4.21;133.09
2023-01-14 21:31:17;4.21;133.09
2023-01-14 21:46:16;4.21;133.09
2023-01-14 22:01:15;4.20;133.09
2023-01-14 22:16:15;4.20;133.09
2023-01-14 22:31:13;4.20;133.09
2023-01-14 22:46:12;4.20;133.41
2023-01-14 23:01:15;4.20;133.09
2023-01-14 23:16:13;4.20;133.09
2023-01-14 23:31:16;4.20;132.93
2023-01-14 23:46:14;4.20;132.93
