2023-02-25 00:01:12;4.20;106.83
2023-02-25 00:16:14;4.20;106.83
2023-02-25 00:31:12;4.20;106.83
2023-02-25 00:46:14;4.20;107.15
2023-02-25 01:01:12;4.20;106.83
2023-02-25 01:16:14;4.20;106.83
2023-02-25 01:31:11;4.20;106.83
2023-02-25 01:46:13;4.19;106.83
2023-02-25 02:01:11;4.19;106.83
2023-02-25 02:16:12;4.19;106.83
2023-02-25 02:31:14;4.19;106.83
2023-02-25 02:46:11;4.19;106.50
2023-02-25 03:01:12;4.19;106.83
2023-02-25 03:16:14;4.19;106.83
2023-02-25 03:31:10;4.19;106.50
2023-02-25 03:46:12;4.19;106.83
2023-02-25 04:01:13;4.19;106.83
2023-02-25 04:16:14;4.19;106.50
2023-02-25 04:31:10;4.19;106.83
2023-02-25 04:46:11;4.19;106.50
2023-02-25 05:01:12;4.19;106.83
2023-02-25 05:16:12;4.19;106.50
2023-02-25 05:31:13;4.19;106.83
2023-02-25 05:46:13;4.19;106.83
2023-02-25 06:01:09;4.19;106.83
2023-02-25 06:16:10;4.19;106.83
2023-02-25 06:31:10;4.19;106.83
2023-02-25 06:46:10;4.19;106.83
2023-02-25 07:01:10;4.19;106.83
2023-02-25 07:16:11;4.18;106.50
2023-02-25 07:31:11;4.18;106.83
2023-02-25 07:46:12;4.18;106.50
2023-02-25 08:01:13;4.18;106.83
2023-02-25 08:16:15;4.18;106.50
2023-02-25 08:31:13;4.18;106.50
2023-02-25 08:46:16;4.19;106.83
2023-02-25 09:01:15;4.19;106.83
2023-02-25 09:16:15;4.19;106.50
2023-02-25 09:31:16;4.19;106.83
2023-02-25 09:46:17;4.19;106.50
2023-02-25 10:01:19;4.19;106.83
2023-02-25 10:16:17;4.19;106.50
2023-02-25 10:31:16;4.20;106.83
2023-02-25 10:46:20;4.19;106.50
2023-02-25 11:01:20;4.20;106.50
2023-02-25 11:16:20;4.19;106.50
2023-02-25 11:31:21;4.20;106.50
2023-02-25 11:46:22;4.20;106.50
2023-02-25 12:01:19;4.20;106.50
2023-02-25 12:16:21;4.20;106.50
2023-02-25 12:31:23;4.20;106.50
2023-02-25 12:46:21;4.20;106.83
2023-02-25 13:01:23;4.20;106.50
2023-02-25 13:16:21;4.20;106.83
2023-02-25 13:31:24;4.20;106.83
2023-02-25 13:46:22;4.20;106.83
2023-02-25 14:01:20;4.20;106.18
2023-02-25 14:16:23;4.20;106.50
2023-02-25 14:31:21;4.20;106.50
2023-02-25 14:46:24;4.20;106.83
2023-02-25 15:01:23;4.20;106.50
2023-02-25 15:16:21;4.21;106.50
2023-02-25 15:31:20;4.21;106.50
2023-02-25 15:46:23;4.21;106.50
2023-02-25 16:01:22;4.21;106.18
2023-02-25 16:16:21;4.21;106.83
2023-02-25 16:31:24;4.21;106.50
2023-02-25 16:46:22;4.20;106.83
2023-02-25 17:01:21;4.21;106.18
2023-02-25 17:16:23;4.21;106.50
2023-02-25 17:31:21;4.21;106.18
2023-02-25 17:46:19;4.21;106.18
2023-02-25 18:01:21;4.21;106.50
2023-02-25 18:16:22;4.21;106.50
2023-02-25 18:31:19;4.21;106.50
2023-02-25 18:46:20;4.21;106.50
2023-02-25 19:01:20;4.21;106.50
2023-02-25 19:16:20;4.21;106.50
2023-02-25 19:31:19;4.21;106.18
2023-02-25 19:46:18;4.21;106.50
2023-02-25 20:01:15;4.21;106.18
2023-02-25 20:16:16;4.21;106.50
2023-02-25 20:31:17;4.21;106.50
2023-02-25 20:46:18;4.21;106.50
2023-02-25 21:01:13;4.21;106.50
2023-02-25 21:16:17;4.21;106.18
2023-02-25 21:31:13;4.21;106.50
2023-02-25 21:46:16;4.21;106.50
2023-02-25 22:01:16;4.21;106.18
2023-02-25 22:16:15;4.20;106.50
2023-02-25 22:31:14;4.20;106.83
2023-02-25 22:46:13;4.20;106.50
2023-02-25 23:01:16;4.20;106.18
2023-02-25 23:16:14;4.20;106.18
2023-02-25 23:31:13;4.20;106.18
2023-02-25 23:46:15;4.20;106.02
