2023-07-06 00:01:13;4.18;96.35
2023-07-06 00:16:14;4.18;96.68
2023-07-06 00:31:10;4.17;96.35
2023-07-06 00:46:11;4.18;96.68
2023-07-06 01:01:12;4.18;96.68
2023-07-06 01:16:13;4.17;96.68
2023-07-06 01:31:14;4.18;96.68
2023-07-06 01:46:11;4.18;96.35
2023-07-06 02:01:11;4.18;96.68
2023-07-06 02:16:12;4.18;96.68
2023-07-06 02:31:13;4.18;96.35
2023-07-06 02:46:14;4.18;96.68
2023-07-06 03:01:10;4.18;96.35
2023-07-06 03:16:11;4.18;96.35
2023-07-06 03:31:12;4.18;96.68
2023-07-06 03:46:13;4.18;96.68
2023-07-06 04:01:13;4.17;96.68
2023-07-06 04:16:14;4.17;96.68
2023-07-06 04:31:10;4.17;96.68
2023-07-06 04:46:10;4.17;96.68
2023-07-06 05:01:10;4.17;96.68
2023-07-06 05:16:11;4.17;96.68
2023-07-06 05:31:11;4.17;96.68
2023-07-06 05:46:11;4.17;96.68
2023-07-06 06:01:11;4.17;97.00
2023-07-06 06:16:12;4.17;96.68
2023-07-06 06:31:12;4.17;96.68
2023-07-06 06:46:12;4.17;97.00
2023-07-06 07:01:12;4.17;96.68
2023-07-06 07:16:11;4.17;96.68
2023-07-06 07:31:12;4.17;96.68
2023-07-06 07:46:12;4.17;96.35
2023-07-06 08:01:12;4.17;96.35
2023-07-06 08:16:12;4.17;96.35
2023-07-06 08:31:13;4.17;96.68
2023-07-06 08:46:14;4.17;96.35
2023-07-06 09:01:11;4.17;96.35
2023-07-06 09:16:12;4.17;96.35
2023-07-06 09:31:14;4.17;96.35
2023-07-06 09:46:11;4.17;96.35
2023-07-06 10:01:13;4.17;96.35
2023-07-06 10:16:15;4.17;96.35
2023-07-06 10:31:12;4.17;96.35
2023-07-06 10:46:14;4.18;96.35
2023-07-06 11:01:12;4.18;96.35
2023-07-06 11:16:14;4.18;96.35
2023-07-06 11:31:12;4.18;96.35
2023-07-06 11:46:14;4.18;96.35
2023-07-06 12:01:12;4.18;96.68
2023-07-06 12:16:14;4.18;96.35
2023-07-06 12:31:12;4.18;96.35
2023-07-06 12:46:14;4.18;96.68
2023-07-06 13:01:13;4.18;96.35
2023-07-06 13:16:15;4.18;96.35
2023-07-06 13:31:13;4.18;96.68
2023-07-06 13:46:16;4.18;96.68
2023-07-06 14:01:14;4.18;96.35
2023-07-06 14:16:13;4.19;96.68
2023-07-06 14:31:16;4.19;96.68
2023-07-06 14:46:14;4.19;96.68
2023-07-06 15:01:13;4.19;96.68
2023-07-06 15:16:16;4.18;96.68
2023-07-06 15:31:14;4.19;96.68
2023-07-06 15:46:13;4.18;96.68
2023-07-06 16:01:16;4.19;96.35
2023-07-06 16:16:14;4.19;96.68
2023-07-06 16:31:12;4.18;96.68
2023-07-06 16:46:14;4.18;96.68
2023-07-06 17:01:12;4.18;96.68
2023-07-06 17:16:14;4.18;96.68
2023-07-06 17:31:12;4.18;96.68
2023-07-06 17:46:13;4.18;96.35
2023-07-06 18:01:11;4.18;96.68
2023-07-06 18:16:12;4.18;96.68
2023-07-06 18:31:13;4.18;96.35
2023-07-06 18:46:14;4.18;96.35
2023-07-06 19:01:11;4.18;96.35
2023-07-06 19:16:12;4.18;96.35
2023-07-06 19:31:13;4.17;96.35
2023-07-06 19:46:14;4.17;96.03
2023-07-06 20:01:11;4.17;96.35
2023-07-06 20:16:12;4.17;96.68
2023-07-06 20:31:13;4.17;96.35
2023-07-06 20:46:14;4.17;96.35
2023-07-06 21:01:11;4.16;96.35
2023-07-06 21:16:11;4.17;96.35
2023-07-06 21:31:12;4.17;96.35
2023-07-06 21:46:13;4.17;96.35
2023-07-06 22:01:10;4.17;96.35
2023-07-06 22:16:11;4.16;96.35
2023-07-06 22:31:12;4.17;96.35
2023-07-06 22:46:13;4.17;96.03
2023-07-06 23:01:14;4.16;96.35
2023-07-06 23:16:10;4.17;96.35
2023-07-06 23:31:11;4.17;96.35
2023-07-06 23:46:12;4.17;96.35
