2023-07-05 00:01:15;4.18;96.35
2023-07-05 00:16:13;4.18;96.68
2023-07-05 00:31:15;4.18;96.35
2023-07-05 00:46:13;4.18;96.35
2023-07-05 01:01:16;4.18;96.68
2023-07-05 01:16:14;4.18;96.35
2023-07-05 01:31:12;4.18;96.68
2023-07-05 01:46:14;4.18;96.35
2023-07-05 02:01:12;4.17;96.68
2023-07-05 02:16:14;4.18;96.35
2023-07-05 02:31:12;4.18;97.00
2023-07-05 02:46:14;4.18;96.35
2023-07-05 03:01:12;4.18;96.35
2023-07-05 03:16:13;4.17;96.35
2023-07-05 03:31:10;4.17;96.35
2023-07-05 03:46:12;4.16;96.68
2023-07-05 04:01:13;4.17;96.35
2023-07-05 04:16:14;4.17;96.35
2023-07-05 04:31:11;4.17;96.35
2023-07-05 04:46:12;4.17;96.68
2023-07-05 05:01:13;4.17;96.03
2023-07-05 05:16:14;4.17;96.35
2023-07-05 05:31:11;4.17;96.35
2023-07-05 05:46:12;4.17;96.35
2023-07-05 06:01:13;4.17;96.35
2023-07-05 06:16:10;4.17;96.35
2023-07-05 06:31:11;4.17;96.35
2023-07-05 06:46:11;4.16;96.35
2023-07-05 07:01:12;4.17;96.68
2023-07-05 07:16:13;4.17;96.35
2023-07-05 07:31:13;4.17;96.35
2023-07-05 07:46:10;4.17;96.35
2023-07-05 08:01:10;4.17;96.35
2023-07-05 08:16:11;4.17;96.03
2023-07-05 08:31:11;4.17;96.35
2023-07-05 08:46:12;4.17;96.35
2023-07-05 09:01:13;4.17;96.35
2023-07-05 09:16:15;4.18;96.35
2023-07-05 09:31:13;4.18;96.35
2023-07-05 09:46:12;4.18;96.35
2023-07-05 10:01:15;4.18;96.35
2023-07-05 10:16:15;4.18;96.35
2023-07-05 10:31:15;4.18;96.35
2023-07-05 10:46:16;4.18;96.03
2023-07-05 11:01:17;4.18;96.35
2023-07-05 11:16:14;4.19;96.03
2023-07-05 11:31:16;4.18;96.35
2023-07-05 11:46:18;4.18;96.35
2023-07-05 12:01:16;4.19;96.35
2023-07-05 12:16:19;4.19;96.35
2023-07-05 12:31:17;4.19;96.35
2023-07-05 12:46:16;4.19;96.68
2023-07-05 13:01:19;4.19;96.35
2023-07-05 13:16:18;4.19;96.68
2023-07-05 13:31:17;4.19;96.35
2023-07-05 13:46:20;4.19;96.68
2023-07-05 14:01:19;4.19;96.68
2023-07-05 14:16:18;4.19;96.68
2023-07-05 14:31:17;4.19;96.35
2023-07-05 14:46:21;4.19;96.68
2023-07-05 15:01:20;4.19;96.68
2023-07-05 15:16:19;4.20;96.68
2023-07-05 15:31:18;4.19;97.00
2023-07-05 15:46:17;4.20;96.68
2023-07-05 16:01:16;4.19;96.68
2023-07-05 16:16:19;4.20;96.68
2023-07-05 16:31:17;4.19;96.68
2023-07-05 16:46:16;4.20;96.68
2023-07-05 17:01:18;4.20;96.35
2023-07-05 17:16:17;4.20;96.68
2023-07-05 17:31:19;4.20;96.68
2023-07-05 17:46:16;4.20;97.00
2023-07-05 18:01:18;4.20;96.68
2023-07-05 18:16:14;4.20;96.68
2023-07-05 18:31:14;4.19;97.00
2023-07-05 18:46:13;4.19;96.68
2023-07-05 19:01:16;4.19;96.68
2023-07-05 19:16:15;4.19;96.68
2023-07-05 19:31:13;4.19;96.68
2023-07-05 19:46:15;4.19;96.68
2023-07-05 20:01:13;4.19;96.68
2023-07-05 20:16:14;4.19;96.35
2023-07-05 20:31:12;4.19;96.35
2023-07-05 20:46:14;4.19;96.68
2023-07-05 21:01:12;4.19;96.35
2023-07-05 21:16:14;4.19;96.35
2023-07-05 21:31:12;4.19;96.35
2023-07-05 21:46:13;4.19;96.68
2023-07-05 22:01:11;4.19;96.35
2023-07-05 22:16:13;4.18;96.35
2023-07-05 22:31:14;4.18;96.35
2023-07-05 22:46:11;4.18;96.35
2023-07-05 23:01:13;4.18;96.35
2023-07-05 23:16:14;4.18;96.35
2023-07-05 23:31:11;4.18;96.68
2023-07-05 23:46:12;4.17;96.35
