2023-02-01 00:01:14;4.20;121.49
2023-02-01 00:16:13;4.20;121.17
2023-02-01 00:31:16;4.20;121.49
2023-02-01 00:46:14;4.20;121.49
2023-02-01 01:01:12;4.20;121.17
2023-02-01 01:16:15;4.20;121.49
2023-02-01 01:31:12;4.20;121.49
2023-02-01 01:46:15;4.20;120.84
2023-02-01 02:01:12;4.20;121.17
2023-02-01 02:16:14;4.20;121.17
2023-02-01 02:31:12;4.19;121.17
2023-02-01 02:46:14;4.19;120.84
2023-02-01 03:01:11;4.19;121.49
2023-02-01 03:16:13;4.19;121.49
2023-02-01 03:31:14;4.19;121.17
2023-02-01 03:46:11;4.19;121.17
2023-02-01 04:01:13;4.19;121.17
2023-02-01 04:16:14;4.19;121.17
2023-02-01 04:31:11;4.19;121.17
2023-02-01 04:46:12;4.19;121.17
2023-02-01 05:01:14;4.18;121.17
2023-02-01 05:16:10;4.19;121.17
2023-02-01 05:31:11;4.19;121.17
2023-02-01 05:46:13;4.19;121.17
2023-02-01 06:01:14;4.19;121.17
2023-02-01 06:16:10;4.19;121.49
2023-02-01 06:31:11;4.19;121.49
2023-02-01 06:46:12;4.19;121.17
2023-02-01 07:01:13;4.19;121.17
2023-02-01 07:16:11;4.18;121.17
2023-02-01 07:31:13;4.19;121.49
2023-02-01 07:46:16;4.19;121.17
2023-02-01 08:01:16;4.19;121.17
2023-02-01 08:16:16;4.19;121.17
2023-02-01 08:31:17;4.19;120.84
2023-02-01 08:46:18;4.19;120.52
2023-02-01 09:01:15;4.19;120.84
#EQ7-NFv2;2023-02-01 09:19:10;4.19;120.52
2023-02-01 09:31:05;4.19;121.17
2023-02-01 09:46:18;4.19;120.84
2023-02-01 10:01:18;4.18;121.17
2023-02-01 10:16:18;4.19;121.17
2023-02-01 10:31:20;4.19;121.17
2023-02-01 10:46:21;4.20;121.17
2023-02-01 11:01:19;4.20;121.17
2023-02-01 11:16:22;4.20;121.17
2023-02-01 11:31:21;4.20;121.17
2023-02-01 11:46:24;4.20;121.17
2023-02-01 12:01:24;4.20;121.17
2023-02-01 12:16:24;4.20;120.84
2023-02-01 12:31:25;4.20;121.17
2023-02-01 12:46:22;4.20;120.84
2023-02-01 13:01:23;4.20;121.17
2023-02-01 13:16:25;4.20;121.17
2023-02-01 13:31:26;4.20;121.17
2023-02-01 13:46:23;4.20;120.84
2023-02-01 14:01:25;4.20;120.84
2023-02-01 14:16:26;4.20;120.84
2023-02-01 14:31:23;4.20;121.17
2023-02-01 14:46:25;4.20;121.17
2023-02-01 15:01:26;4.20;121.17
2023-02-01 15:16:23;4.20;120.84
2023-02-01 15:31:24;4.21;120.84
2023-02-01 15:46:25;4.21;120.84
2023-02-01 16:01:26;4.21;121.17
2023-02-01 16:16:21;4.21;121.17
2023-02-01 16:31:26;4.21;121.17
2023-02-01 16:46:22;4.21;121.17
2023-02-01 17:01:21;4.21;121.17
2023-02-01 17:16:24;4.21;121.17
2023-02-01 17:31:22;4.21;121.17
2023-02-01 17:46:21;4.21;121.17
2023-02-01 18:01:23;4.21;120.84
2023-02-01 18:16:21;4.21;120.52
2023-02-01 18:31:23;4.21;120.84
2023-02-01 18:46:21;4.21;121.17
2023-02-01 19:01:22;4.21;120.84
2023-02-01 19:16:18;4.21;120.84
2023-02-01 19:31:18;4.21;120.84
2023-02-01 19:46:17;4.21;120.84
2023-02-01 20:01:16;4.21;120.52
2023-02-01 20:16:17;4.21;120.84
2023-02-01 20:31:14;4.21;120.84
2023-02-01 20:46:15;4.21;120.52
2023-02-01 21:01:15;4.21;120.84
2023-02-01 21:16:15;4.21;120.52
2023-02-01 21:31:15;4.21;120.84
2023-02-01 21:46:15;4.20;120.84
2023-02-01 22:01:15;4.20;120.84
2023-02-01 22:16:15;4.20;120.84
2023-02-01 22:31:14;4.20;120.84
2023-02-01 22:46:14;4.20;120.52
2023-02-01 23:01:13;4.20;120.84
2023-02-01 23:16:13;4.20;120.84
2023-02-01 23:31:17;4.20;120.52
2023-02-01 23:46:16;4.20;120.84