2023-03-15 00:01:15;4.20;97.32
2023-03-15 00:16:13;4.20;97.32
2023-03-15 00:31:16;4.20;97.32
2023-03-15 00:46:14;4.20;97.32
2023-03-15 01:01:13;4.19;97.32
2023-03-15 01:16:12;4.20;97.00
2023-03-15 01:31:15;4.20;97.32
2023-03-15 01:46:15;4.20;97.32
2023-03-15 02:01:14;4.20;97.32
2023-03-15 02:16:13;4.20;97.64
2023-03-15 02:31:16;4.20;97.00
2023-03-15 02:46:15;4.20;97.32
2023-03-15 03:01:14;4.19;97.32
2023-03-15 03:16:13;4.19;97.64
2023-03-15 03:31:16;4.19;97.32
2023-03-15 03:46:15;4.19;97.00
2023-03-15 04:01:13;4.19;97.32
2023-03-15 04:16:16;4.19;97.00
2023-03-15 04:31:15;4.19;97.32
2023-03-15 04:46:13;4.19;97.00
2023-03-15 05:01:16;4.19;97.00
2023-03-15 05:16:14;4.19;97.00
2023-03-15 05:31:12;4.19;97.00
2023-03-15 05:46:15;4.19;97.32
2023-03-15 06:01:13;4.19;97.32
2023-03-15 06:16:15;4.19;96.68
2023-03-15 06:31:13;4.19;97.00
2023-03-15 06:46:15;4.19;97.00
2023-03-15 07:01:13;4.18;97.00
2023-03-15 07:16:12;4.19;97.00
2023-03-15 07:31:14;4.19;96.68
2023-03-15 07:46:13;4.18;97.00
2023-03-15 08:01:17;4.19;97.00
2023-03-15 08:16:16;4.19;97.00
2023-03-15 08:31:16;4.19;96.68
2023-03-15 08:46:17;4.19;97.00
2023-03-15 09:01:18;4.19;97.00
2023-03-15 09:16:15;4.19;97.00
2023-03-15 09:31:17;4.19;97.00
2023-03-15 09:46:20;4.20;97.00
2023-03-15 10:01:18;4.20;97.00
2023-03-15 10:16:17;4.20;97.00
2023-03-15 10:31:21;4.20;97.00
2023-03-15 10:46:21;4.20;96.68
2023-03-15 11:01:22;4.20;96.68
2023-03-15 11:16:19;4.20;97.00
2023-03-15 11:31:21;4.20;96.68
2023-03-15 11:46:24;4.20;96.68
2023-03-15 12:01:22;4.20;96.68
2023-03-15 12:16:21;4.20;96.68
2023-03-15 12:31:24;4.20;97.00
2023-03-15 12:46:24;4.20;97.00
2023-03-15 13:01:24;4.20;97.00
2023-03-15 13:16:25;4.21;97.00
2023-03-15 13:31:24;4.21;97.00
2023-03-15 13:46:22;4.21;97.00
2023-03-15 14:01:20;4.20;96.68
2023-03-15 14:16:24;4.21;97.00
2023-03-15 14:31:23;4.21;97.00
2023-03-15 14:46:22;4.21;97.00
2023-03-15 15:01:20;4.20;97.00
2023-03-15 15:16:24;4.21;97.00
2023-03-15 15:31:24;4.21;97.00
2023-03-15 15:46:23;4.20;97.00
2023-03-15 16:01:22;4.21;97.32
2023-03-15 16:16:19;4.21;97.00
2023-03-15 16:31:20;4.21;97.00
2023-03-15 16:46:19;4.21;97.00
2023-03-15 17:01:17;4.21;97.00
2023-03-15 17:16:16;4.20;97.00
2023-03-15 17:31:20;4.21;97.00
2023-03-15 17:46:20;4.21;96.68
2023-03-15 18:01:20;4.20;97.00
2023-03-15 18:16:20;4.21;96.68
2023-03-15 18:31:21;4.21;97.00
2023-03-15 18:46:21;4.21;96.68
2023-03-15 19:01:20;4.21;97.00
2023-03-15 19:16:19;4.21;96.68
2023-03-15 19:31:18;4.21;96.68
2023-03-15 19:46:16;4.21;96.68
2023-03-15 20:01:18;4.21;96.68
2023-03-15 20:16:15;4.20;96.35
2023-03-15 20:31:17;4.21;96.68
2023-03-15 20:46:19;4.21;97.00
2023-03-15 21:01:16;4.21;96.35
2023-03-15 21:16:17;4.21;96.68
2023-03-15 21:31:18;4.21;96.68
2023-03-15 21:46:15;4.20;96.68
2023-03-15 22:01:16;4.20;96.68
2023-03-15 22:16:17;4.20;96.68
2023-03-15 22:31:18;4.20;96.68
2023-03-15 22:46:14;4.20;96.35
2023-03-15 23:01:14;4.20;96.68
2023-03-15 23:16:14;4.20;96.68
2023-03-15 23:31:13;4.20;96.68
2023-03-15 23:46:13;4.20;96.35
