2021-12-27 00:00:29;3.80;281.00
2021-12-27 00:05:28;3.80;280.84
2021-12-27 00:10:31;3.80;280.84
2021-12-27 00:15:30;3.80;280.84
2021-12-27 00:20:29;3.80;280.84
2021-12-27 00:25:32;3.80;281.32
2021-12-27 00:30:30;3.80;281.64
2021-12-27 00:35:29;3.80;281.32
2021-12-27 00:40:32;3.80;281.00
2021-12-27 00:45:31;3.80;281.00
2021-12-27 00:50:29;3.80;281.64
2021-12-27 00:55:32;3.80;281.80
2021-12-27 01:00:31;3.80;281.80
2021-12-27 01:05:29;3.80;281.64
2021-12-27 01:10:28;3.80;281.64
2021-12-27 01:15:31;3.80;281.80
2021-12-27 01:20:30;3.80;282.13
2021-12-27 01:25:29;3.80;282.45
2021-12-27 01:30:32;3.80;282.13
2021-12-27 01:35:30;3.80;281.80
2021-12-27 01:40:29;3.80;282.13
2021-12-27 01:45:32;3.80;282.45
2021-12-27 01:50:31;3.80;282.45
2021-12-27 01:55:29;3.80;282.45
2021-12-27 02:00:28;3.80;282.13
2021-12-27 02:05:31;3.80;282.45
2021-12-27 02:10:30;3.80;283.09
2021-12-27 02:15:29;3.80;283.25
2021-12-27 02:20:32;3.80;282.77
2021-12-27 02:25:30;3.80;282.77
2021-12-27 02:30:29;3.80;283.09
2021-12-27 02:35:32;3.80;283.25
2021-12-27 02:40:31;3.80;283.25
2021-12-27 02:45:29;3.80;283.25
2021-12-27 02:50:28;3.80;283.25
2021-12-27 02:55:31;3.80;283.25
2021-12-27 03:00:30;3.80;283.74
2021-12-27 03:05:28;3.80;283.74
2021-12-27 03:10:31;3.80;283.25
2021-12-27 03:15:30;3.80;283.58
2021-12-27 03:20:28;3.80;283.58
2021-12-27 03:25:31;3.80;283.74
2021-12-27 03:30:29;3.80;284.06
2021-12-27 03:35:32;3.80;284.38
2021-12-27 03:40:31;3.80;283.74
2021-12-27 03:45:29;3.80;283.58
2021-12-27 03:50:32;3.80;284.06
2021-12-27 03:55:30;3.80;284.38
2021-12-27 04:00:29;3.80;284.54
2021-12-27 04:05:32;3.80;284.06
2021-12-27 04:10:30;3.80;284.38
2021-12-27 04:15:28;3.80;284.38
2021-12-27 04:20:31;3.80;283.74
2021-12-27 04:25:30;3.80;283.25
2021-12-27 04:30:28;3.80;283.09
2021-12-27 04:35:31;3.80;282.45
2021-12-27 04:40:29;3.80;281.80
2021-12-27 04:45:32;3.80;281.64
2021-12-27 04:50:30;3.80;281.32
2021-12-27 04:55:29;3.80;280.84
2021-12-27 05:00:32;3.80;280.52
2021-12-27 05:05:30;3.80;280.03
2021-12-27 05:10:28;3.80;279.71
2021-12-27 05:15:31;3.80;279.71
2021-12-27 05:20:30;3.80;279.39
2021-12-27 05:25:28;3.80;278.58
2021-12-27 05:30:31;3.80;278.90
2021-12-27 05:35:29;3.80;278.58
2021-12-27 05:40:32;3.80;278.42
2021-12-27 05:45:30;3.80;278.10
2021-12-27 05:50:29;3.80;277.78
2021-12-27 05:55:31;3.80;277.78
2021-12-27 06:00:30;3.80;277.61
2021-12-27 06:05:28;3.80;277.29
2021-12-27 06:10:31;3.80;276.97
2021-12-27 06:15:29;3.80;276.97
2021-12-27 06:20:32;3.80;276.81
2021-12-27 06:25:30;3.80;276.49
2021-12-27 06:30:28;3.80;276.16
2021-12-27 06:35:31;3.80;276.16
2021-12-27 06:40:29;3.80;275.68
2021-12-27 06:45:28;3.80;276.00
2021-12-27 06:50:31;3.80;275.68
2021-12-27 06:55:29;3.80;275.68
2021-12-27 07:00:32;3.80;275.36
2021-12-27 07:05:30;3.80;275.36
2021-12-27 07:10:29;3.80;275.36
2021-12-27 07:15:32;3.80;275.36
2021-12-27 07:20:30;3.80;275.36
2021-12-27 07:25:29;3.80;274.88
2021-12-27 07:30:32;3.80;275.20
2021-12-27 07:35:30;3.80;274.88
2021-12-27 07:40:29;3.79;274.88
2021-12-27 07:45:32;3.80;274.55
2021-12-27 07:50:30;3.80;274.39
2021-12-27 07:55:29;3.79;274.39
2021-12-27 08:00:32;3.79;273.75
2021-12-27 08:05:31;3.79;274.07
2021-12-27 08:10:30;3.79;273.75
2021-12-27 08:15:29;3.79;273.75
2021-12-27 08:20:32;3.79;273.59
2021-12-27 08:25:31;3.79;273.59
2021-12-27 08:30:31;3.79;273.59
2021-12-27 08:35:30;3.79;273.26
2021-12-27 08:40:29;3.79;273.26
2021-12-27 08:45:33;3.79;272.94
2021-12-27 08:50:33;3.79;272.94
2021-12-27 08:55:33;3.79;272.78
2021-12-27 09:00:33;3.79;272.78
2021-12-27 09:05:33;3.79;272.46
2021-12-27 09:10:33;3.79;272.46
2021-12-27 09:15:33;3.79;272.46
2021-12-27 09:20:33;3.79;272.14
2021-12-27 09:25:34;3.79;272.46
2021-12-27 09:30:30;3.79;272.94
2021-12-27 09:35:30;3.79;273.59
2021-12-27 09:40:31;3.79;274.39
2021-12-27 09:45:32;3.79;274.88
2021-12-27 09:50:33;3.79;275.36
2021-12-27 09:55:33;3.79;276.00
2021-12-27 10:00:34;3.79;276.16
2021-12-27 10:05:29;3.79;276.81
2021-12-27 10:10:30;3.79;276.97
2021-12-27 10:15:30;3.79;277.61
2021-12-27 10:20:31;3.79;277.78
2021-12-27 10:25:32;3.79;278.10
2021-12-27 10:30:33;3.79;278.42
2021-12-27 10:35:34;3.79;278.90
2021-12-27 10:40:30;3.79;278.90
2021-12-27 10:45:31;3.79;279.23
2021-12-27 10:50:33;3.79;279.39
2021-12-27 10:55:34;3.79;280.03
2021-12-27 11:00:31;3.79;280.03
2021-12-27 11:05:32;3.79;280.19
2021-12-27 11:10:34;3.79;280.52
2021-12-27 11:15:31;3.79;280.84
2021-12-27 11:20:33;3.79;280.52
2021-12-27 11:25:34;3.79;280.03
2021-12-27 11:30:31;3.79;280.03
2021-12-27 11:35:32;3.79;280.03
2021-12-27 11:40:33;3.79;280.52
2021-12-27 11:45:34;3.79;280.52
2021-12-27 11:50:31;3.79;281.00
2021-12-27 11:55:32;3.79;281.32
2021-12-27 12:00:33;3.79;281.64
2021-12-27 12:05:34;3.79;281.80
2021-12-27 12:10:30;3.79;282.45
2021-12-27 12:15:31;3.79;283.09
2021-12-27 12:20:32;3.79;283.25
2021-12-27 12:25:33;3.79;283.25
2021-12-27 12:30:34;3.79;283.25
2021-12-27 12:35:30;3.79;283.09
2021-12-27 12:40:32;3.79;283.09
2021-12-27 12:45:33;3.79;283.09
2021-12-27 12:50:34;3.79;283.09
2021-12-27 12:55:31;3.79;282.77
2021-12-27 13:00:33;3.79;283.25
2021-12-27 13:05:34;3.79;283.25
2021-12-27 13:10:31;3.79;283.25
2021-12-27 13:15:33;3.79;283.58
2021-12-27 13:20:34;3.79;283.25
2021-12-27 13:25:31;3.79;283.58
2021-12-27 13:30:33;3.79;283.58
2021-12-27 13:35:35;3.79;283.58
2021-12-27 13:40:32;3.79;283.58
2021-12-27 13:45:34;3.79;283.58
2021-12-27 13:50:31;3.79;283.58
2021-12-27 13:55:33;3.79;283.74
2021-12-27 14:00:35;3.79;283.74
2021-12-27 14:05:33;3.79;283.74
2021-12-27 14:10:34;3.79;284.06
2021-12-27 14:15:32;3.79;283.74
2021-12-27 14:20:34;3.79;284.06
2021-12-27 14:25:31;3.79;284.38
2021-12-27 14:30:33;3.79;284.54
2021-12-27 14:35:31;3.79;284.87
2021-12-27 14:40:33;3.79;284.87
2021-12-27 14:45:35;3.79;284.87
2021-12-27 14:50:33;3.79;284.87
2021-12-27 14:55:36;3.79;285.19
2021-12-27 15:00:33;3.79;285.19
2021-12-27 15:05:31;3.79;285.19
2021-12-27 15:10:34;3.79;285.35
2021-12-27 15:15:31;3.79;285.19
2021-12-27 15:20:34;3.79;285.35
2021-12-27 15:25:32;3.79;285.67
2021-12-27 15:30:34;3.79;285.67
2021-12-27 15:35:32;3.79;285.67
2021-12-27 15:40:35;3.79;285.35
2021-12-27 15:45:33;3.79;285.35
2021-12-27 15:50:35;3.79;284.54
2021-12-27 15:55:33;3.79;283.74
2021-12-27 16:00:35;3.79;283.25
2021-12-27 16:05:33;3.79;283.09
2021-12-27 16:10:36;3.79;282.45
2021-12-27 16:15:34;3.79;282.13
2021-12-27 16:20:31;3.79;281.80
2021-12-27 16:25:34;3.79;281.64
2021-12-27 16:30:31;3.79;281.32
2021-12-27 16:35:34;3.79;281.00
2021-12-27 16:40:31;3.79;280.84
2021-12-27 16:45:34;3.79;280.52
2021-12-27 16:50:31;3.79;280.19
2021-12-27 16:55:33;3.79;279.71
2021-12-27 17:00:31;3.79;279.71
2021-12-27 17:05:33;3.79;279.39
2021-12-27 17:10:31;3.79;279.23
2021-12-27 17:15:33;3.79;278.90
2021-12-27 17:20:35;3.79;278.42
2021-12-27 17:25:33;3.79;278.42
2021-12-27 17:30:35;3.79;278.42
2021-12-27 17:35:32;3.79;278.10
2021-12-27 17:40:34;3.79;277.61
2021-12-27 17:45:32;3.79;277.78
2021-12-27 17:50:34;3.79;277.29
2021-12-27 17:55:31;3.79;277.29
2021-12-27 18:00:33;3.79;276.97
2021-12-27 18:05:35;3.79;276.97
2021-12-27 18:10:33;3.79;276.81
2021-12-27 18:15:35;3.79;276.49
2021-12-27 18:20:32;3.79;276.81
2021-12-27 18:25:34;3.79;276.81
2021-12-27 18:30:31;3.79;276.81
2021-12-27 18:35:33;3.79;276.49
2021-12-27 18:40:34;3.79;276.49
2021-12-27 18:45:32;3.79;276.49
2021-12-27 18:50:33;3.79;276.49
2021-12-27 18:55:31;3.79;276.81
2021-12-27 19:00:32;3.79;276.97
2021-12-27 19:05:34;3.79;276.97
2021-12-27 19:10:31;3.79;276.49
2021-12-27 19:15:32;3.79;276.97
2021-12-27 19:20:34;3.79;276.97
2021-12-27 19:25:31;3.79;277.29
2021-12-27 19:30:32;3.79;278.10
2021-12-27 19:35:34;3.79;278.58
2021-12-27 19:40:30;3.79;279.23
2021-12-27 19:45:31;3.79;279.39
2021-12-27 19:50:32;3.79;279.39
2021-12-27 19:55:33;3.79;280.03
2021-12-27 20:00:30;3.79;280.19
2021-12-27 20:05:30;3.79;280.52
2021-12-27 20:10:31;3.79;280.84
2021-12-27 20:15:31;3.79;280.84
2021-12-27 20:20:32;3.79;281.00
2021-12-27 20:25:32;3.79;281.32
2021-12-27 20:30:32;3.79;281.64
2021-12-27 20:35:32;3.79;281.80
2021-12-27 20:40:33;3.79;282.13
2021-12-27 20:45:32;3.79;282.13
2021-12-27 20:50:32;3.79;282.45
2021-12-27 20:55:32;3.79;282.45
2021-12-27 21:00:32;3.79;282.45
2021-12-27 21:05:32;3.79;282.13
2021-12-27 21:10:32;3.79;281.80
2021-12-27 21:15:31;3.79;281.80
2021-12-27 21:20:31;3.79;282.13
2021-12-27 21:25:31;3.79;281.80
2021-12-27 21:30:31;3.79;281.64
2021-12-27 21:35:30;3.79;281.80
2021-12-27 21:40:30;3.79;281.80
2021-12-27 21:45:29;3.79;282.13
2021-12-27 21:50:33;3.79;281.80
2021-12-27 21:55:33;3.79;281.80
2021-12-27 22:00:32;3.79;281.80
2021-12-27 22:05:32;3.79;281.80
2021-12-27 22:10:31;3.79;282.45
2021-12-27 22:15:30;3.79;282.77
2021-12-27 22:20:30;3.79;282.77
2021-12-27 22:25:29;3.79;283.09
2021-12-27 22:30:33;3.79;283.25
2021-12-27 22:35:32;3.79;283.58
2021-12-27 22:40:31;3.79;283.58
2021-12-27 22:45:30;3.79;283.58
2021-12-27 22:50:30;3.79;284.06
2021-12-27 22:55:29;3.79;284.06
2021-12-27 23:00:33;3.79;284.06
2021-12-27 23:05:32;3.79;284.06
2021-12-27 23:10:31;3.79;283.74
2021-12-27 23:15:30;3.79;284.06
2021-12-27 23:20:29;3.79;284.06
2021-12-27 23:25:33;3.79;284.38
2021-12-27 23:30:32;3.79;284.54
2021-12-27 23:35:31;3.79;284.54
2021-12-27 23:40:30;3.79;284.54
2021-12-27 23:45:29;3.79;284.87
2021-12-27 23:55:32;3.79;284.87
