2021-12-25 00:00:29;3.82;280.84
2021-12-25 00:05:29;3.82;280.84
2021-12-25 00:10:33;3.82;280.84
2021-12-25 00:15:32;3.82;281.32
2021-12-25 00:20:31;3.82;281.80
2021-12-25 00:25:30;3.82;281.64
2021-12-25 00:30:30;3.82;281.32
2021-12-25 00:35:29;3.82;281.32
2021-12-25 00:40:33;3.82;281.80
2021-12-25 00:45:32;3.82;282.13
2021-12-25 00:50:31;3.82;281.32
2021-12-25 00:55:30;3.82;281.32
2021-12-25 01:00:30;3.82;281.80
2021-12-25 01:05:29;3.82;282.13
2021-12-25 01:10:33;3.82;282.45
2021-12-25 01:15:32;3.82;282.45
2021-12-25 01:20:31;3.82;281.80
2021-12-25 01:25:30;3.82;282.13
2021-12-25 01:30:30;3.82;282.45
2021-12-25 01:35:29;3.82;283.09
2021-12-25 01:40:32;3.82;282.45
2021-12-25 01:45:32;3.82;282.45
2021-12-25 01:50:31;3.82;282.45
2021-12-25 01:55:30;3.82;283.09
2021-12-25 02:00:29;3.82;283.25
2021-12-25 02:05:33;3.82;282.77
2021-12-25 02:10:32;3.82;282.45
2021-12-25 02:15:31;3.82;283.09
2021-12-25 02:20:30;3.82;283.25
2021-12-25 02:25:29;3.82;283.58
2021-12-25 02:30:33;3.82;283.09
2021-12-25 02:35:32;3.82;283.09
2021-12-25 02:40:31;3.82;283.09
2021-12-25 02:45:30;3.82;283.58
2021-12-25 02:50:29;3.82;283.74
2021-12-25 02:55:32;3.82;283.25
2021-12-25 03:00:31;3.82;283.25
2021-12-25 03:05:30;3.82;283.58
2021-12-25 03:10:29;3.82;284.06
2021-12-25 03:15:33;3.82;283.74
2021-12-25 03:20:32;3.82;283.25
2021-12-25 03:25:30;3.82;282.45
2021-12-25 03:30:29;3.82;282.13
2021-12-25 03:35:28;3.82;281.80
2021-12-25 03:40:32;3.82;281.32
2021-12-25 03:45:31;3.82;280.84
2021-12-25 03:50:30;3.82;280.52
2021-12-25 03:55:29;3.82;280.19
2021-12-25 04:00:32;3.82;280.03
2021-12-25 04:05:31;3.82;279.71
2021-12-25 04:10:30;3.82;279.23
2021-12-25 04:15:29;3.82;278.90
2021-12-25 04:20:32;3.82;278.90
2021-12-25 04:25:31;3.82;278.42
2021-12-25 04:30:30;3.82;277.78
2021-12-25 04:35:29;3.82;277.78
2021-12-25 04:40:32;3.82;277.78
2021-12-25 04:45:31;3.82;277.61
2021-12-25 04:50:30;3.82;277.61
2021-12-25 04:55:29;3.82;277.29
2021-12-25 05:00:32;3.82;276.97
2021-12-25 05:05:31;3.82;276.97
2021-12-25 05:10:30;3.82;276.49
2021-12-25 05:15:29;3.82;276.49
2021-12-25 05:20:32;3.82;276.16
2021-12-25 05:25:31;3.82;276.16
2021-12-25 05:30:30;3.82;276.00
2021-12-25 05:35:29;3.82;276.00
2021-12-25 05:40:32;3.82;275.68
2021-12-25 05:45:31;3.82;275.68
2021-12-25 05:50:30;3.82;275.36
2021-12-25 05:55:29;3.82;275.36
2021-12-25 06:00:32;3.82;275.20
2021-12-25 06:05:31;3.82;275.20
2021-12-25 06:10:30;3.82;275.20
2021-12-25 06:15:29;3.82;275.20
2021-12-25 06:20:32;3.82;274.88
2021-12-25 06:25:31;3.82;275.20
2021-12-25 06:30:30;3.82;274.88
2021-12-25 06:35:29;3.82;274.88
2021-12-25 06:40:33;3.82;274.88
2021-12-25 06:45:32;3.82;275.68
2021-12-25 06:50:31;3.82;276.16
2021-12-25 06:55:30;3.82;276.81
2021-12-25 07:00:29;3.82;277.29
2021-12-25 07:05:32;3.82;277.78
2021-12-25 07:10:31;3.82;278.10
2021-12-25 07:15:30;3.82;278.58
2021-12-25 07:20:30;3.82;278.90
2021-12-25 07:25:29;3.82;279.23
2021-12-25 07:30:32;3.82;279.39
2021-12-25 07:35:32;3.82;279.71
2021-12-25 07:40:31;3.82;280.03
2021-12-25 07:45:30;3.82;280.19
2021-12-25 07:50:29;3.82;280.52
2021-12-25 07:55:29;3.82;280.52
2021-12-25 08:00:33;3.82;280.84
2021-12-25 08:05:32;3.82;281.00
2021-12-25 08:10:32;3.82;281.32
2021-12-25 08:15:31;3.82;281.32
2021-12-25 08:20:31;3.82;281.64
2021-12-25 08:25:30;3.82;281.64
2021-12-25 08:30:30;3.82;281.80
2021-12-25 08:35:30;3.82;282.13
2021-12-25 08:40:30;3.82;282.45
2021-12-25 08:45:29;3.82;282.45
2021-12-25 08:50:29;3.81;282.45
2021-12-25 08:55:34;3.82;282.77
2021-12-25 09:00:29;3.81;282.45
2021-12-25 09:05:34;3.81;282.77
2021-12-25 09:10:29;3.81;283.09
2021-12-25 09:15:34;3.82;283.25
2021-12-25 09:20:29;3.81;283.09
2021-12-25 09:25:30;3.81;283.25
2021-12-25 09:30:30;3.81;283.58
2021-12-25 09:35:30;3.81;283.58
2021-12-25 09:40:31;3.81;283.58
2021-12-25 09:45:31;3.81;283.58
2021-12-25 09:50:32;3.81;283.74
2021-12-25 09:55:32;3.81;283.74
2021-12-25 10:00:33;3.81;284.06
2021-12-25 10:05:34;3.82;284.06
2021-12-25 10:10:30;3.81;284.38
2021-12-25 10:15:31;3.81;284.38
2021-12-25 10:20:31;3.81;284.06
2021-12-25 10:25:32;3.81;284.06
2021-12-25 10:30:33;3.81;284.38
2021-12-25 10:35:33;3.81;284.38
2021-12-25 10:40:34;3.81;284.38
2021-12-25 10:45:30;3.81;284.38
2021-12-25 10:50:31;3.81;284.54
2021-12-25 10:55:32;3.81;284.38
2021-12-25 11:00:33;3.81;284.54
2021-12-25 11:05:34;3.81;284.54
2021-12-25 11:10:30;3.81;284.54
2021-12-25 11:15:31;3.81;284.87
2021-12-25 11:20:33;3.81;285.19
2021-12-25 11:25:34;3.81;285.19
2021-12-25 11:30:31;3.81;285.19
2021-12-25 11:35:32;3.81;285.19
2021-12-25 11:40:33;3.81;285.19
2021-12-25 11:45:35;3.81;285.35
2021-12-25 11:50:31;3.81;285.35
2021-12-25 11:55:33;3.81;285.35
2021-12-25 12:00:34;3.81;285.35
2021-12-25 12:05:31;3.81;285.67
2021-12-25 12:10:32;3.81;285.67
2021-12-25 12:15:34;3.81;285.67
2021-12-25 12:20:31;3.81;285.99
2021-12-25 12:25:32;3.81;285.99
2021-12-25 12:30:33;3.81;286.15
2021-12-25 12:35:30;3.81;285.99
2021-12-25 12:40:32;3.81;286.15
2021-12-25 12:45:33;3.81;285.99
2021-12-25 12:50:35;3.81;286.48
2021-12-25 12:55:32;3.81;286.48
2021-12-25 13:00:33;3.81;286.48
2021-12-25 13:05:35;3.81;286.80
2021-12-25 13:10:32;3.81;286.48
2021-12-25 13:15:33;3.81;286.80
2021-12-25 13:20:30;3.81;286.80
2021-12-25 13:25:32;3.81;286.80
2021-12-25 13:30:34;3.81;286.80
2021-12-25 13:35:31;3.81;286.80
2021-12-25 13:40:32;3.81;286.80
2021-12-25 13:45:34;3.81;286.80
2021-12-25 13:50:32;3.81;287.12
2021-12-25 13:55:33;3.81;287.12
2021-12-25 14:00:31;3.81;287.12
2021-12-25 14:05:33;3.81;287.12
2021-12-25 14:10:35;3.81;287.44
2021-12-25 14:15:32;3.81;287.44
2021-12-25 14:20:34;3.81;287.12
2021-12-25 14:25:32;3.81;287.60
2021-12-25 14:30:34;3.81;287.60
2021-12-25 14:35:32;3.81;287.60
2021-12-25 14:40:34;3.81;287.44
2021-12-25 14:45:31;3.81;287.60
2021-12-25 14:50:34;3.81;287.93
2021-12-25 14:55:31;3.81;287.60
2021-12-25 15:00:33;3.81;287.60
2021-12-25 15:05:35;3.81;287.93
2021-12-25 15:10:33;3.81;287.93
2021-12-25 15:15:35;3.81;288.25
2021-12-25 15:20:33;3.81;287.93
2021-12-25 15:25:35;3.81;287.44
2021-12-25 15:30:33;3.81;286.48
2021-12-25 15:35:35;3.81;285.67
2021-12-25 15:40:33;3.81;285.19
2021-12-25 15:45:35;3.81;284.54
2021-12-25 15:50:33;3.81;284.38
2021-12-25 15:55:35;3.81;283.74
2021-12-25 16:00:32;3.81;283.58
2021-12-25 16:05:35;3.81;283.09
2021-12-25 16:10:32;3.81;282.45
2021-12-25 16:15:34;3.81;282.45
2021-12-25 16:20:32;3.81;282.77
2021-12-25 16:25:34;3.81;282.45
2021-12-25 16:30:32;3.81;281.80
2021-12-25 16:35:34;3.81;281.80
2021-12-25 16:40:31;3.81;281.64
2021-12-25 16:45:33;3.81;281.32
2021-12-25 16:50:31;3.81;280.84
2021-12-25 16:55:33;3.81;280.84
2021-12-25 17:00:35;3.81;280.19
2021-12-25 17:05:33;3.81;280.19
2021-12-25 17:10:35;3.81;280.03
2021-12-25 17:15:33;3.81;280.03
2021-12-25 17:20:35;3.81;279.71
2021-12-25 17:25:32;3.81;279.39
2021-12-25 17:30:35;3.81;279.23
2021-12-25 17:35:32;3.81;278.90
2021-12-25 17:40:34;3.81;278.58
2021-12-25 17:45:32;3.81;278.58
2021-12-25 17:50:34;3.81;278.42
2021-12-25 17:55:32;3.81;278.42
2021-12-25 18:00:34;3.81;278.10
2021-12-25 18:05:31;3.81;277.78
2021-12-25 18:10:33;3.81;277.78
2021-12-25 18:15:31;3.81;277.29
2021-12-25 18:20:33;3.81;277.61
2021-12-25 18:25:35;3.81;277.29
2021-12-25 18:30:32;3.81;277.29
2021-12-25 18:35:34;3.81;276.97
2021-12-25 18:40:31;3.81;277.29
2021-12-25 18:45:33;3.81;277.29
2021-12-25 18:50:35;3.81;276.97
2021-12-25 18:55:32;3.81;276.81
2021-12-25 19:00:34;3.81;276.81
2021-12-25 19:05:31;3.81;276.81
2021-12-25 19:10:32;3.81;276.81
2021-12-25 19:15:34;3.81;276.16
2021-12-25 19:20:30;3.81;276.49
2021-12-25 19:25:32;3.81;276.16
2021-12-25 19:30:33;3.81;275.68
2021-12-25 19:35:33;3.81;275.68
2021-12-25 19:40:29;3.81;275.20
2021-12-25 19:45:34;3.81;275.36
2021-12-25 19:50:29;3.81;275.20
2021-12-25 19:55:29;3.81;274.88
2021-12-25 20:00:33;3.81;274.88
2021-12-25 20:05:28;3.81;274.55
2021-12-25 20:10:32;3.81;274.39
2021-12-25 20:15:32;3.81;274.39
2021-12-25 20:20:31;3.81;274.07
2021-12-25 20:25:30;3.81;273.75
2021-12-25 20:30:30;3.81;273.75
2021-12-25 20:35:29;3.81;273.75
2021-12-25 20:40:33;3.81;273.59
2021-12-25 20:45:32;3.81;273.59
2021-12-25 20:50:31;3.81;273.26
2021-12-25 20:55:31;3.81;273.26
2021-12-25 21:00:30;3.81;273.26
2021-12-25 21:05:29;3.81;272.94
2021-12-25 21:10:33;3.81;272.94
2021-12-25 21:15:32;3.81;272.94
2021-12-25 21:20:31;3.81;272.46
2021-12-25 21:25:30;3.81;272.46
2021-12-25 21:30:29;3.81;272.46
2021-12-25 21:35:29;3.81;272.46
2021-12-25 21:40:32;3.81;272.46
2021-12-25 21:45:32;3.81;272.78
2021-12-25 21:50:31;3.81;273.75
2021-12-25 21:55:30;3.81;274.88
2021-12-25 22:00:30;3.81;275.36
2021-12-25 22:05:29;3.81;275.68
2021-12-25 22:10:33;3.81;276.49
2021-12-25 22:15:32;3.81;276.81
2021-12-25 22:20:31;3.81;276.97
2021-12-25 22:25:31;3.81;276.49
2021-12-25 22:30:30;3.81;276.81
2021-12-25 22:35:29;3.81;277.29
2021-12-25 22:40:33;3.81;277.61
2021-12-25 22:45:32;3.81;278.10
2021-12-25 22:50:31;3.81;278.10
2021-12-25 22:55:30;3.81;277.78
2021-12-25 23:00:30;3.81;277.78
2021-12-25 23:05:29;3.81;278.42
2021-12-25 23:10:33;3.81;278.58
2021-12-25 23:15:32;3.81;278.90
2021-12-25 23:20:31;3.81;278.58
2021-12-25 23:25:30;3.81;278.58
2021-12-25 23:30:29;3.81;278.58
2021-12-25 23:35:33;3.81;279.23
2021-12-25 23:40:32;3.81;279.71
2021-12-25 23:45:31;3.81;278.90
2021-12-25 23:50:30;3.81;279.23
2021-12-25 23:55:29;3.81;278.90
