2021-12-24 00:00:31;3.83;279.71
2021-12-24 00:05:30;3.83;280.03
2021-12-24 00:10:30;3.83;280.19
2021-12-24 00:15:29;3.83;280.19
2021-12-24 00:20:33;3.83;280.52
2021-12-24 00:25:32;3.83;280.84
2021-12-24 00:30:31;3.83;280.84
2021-12-24 00:35:30;3.83;281.00
2021-12-24 00:40:29;3.83;281.32
2021-12-24 00:45:29;3.83;281.64
2021-12-24 00:50:32;3.83;281.64
2021-12-24 00:55:31;3.83;281.80
2021-12-24 01:00:31;3.83;281.80
2021-12-24 01:05:30;3.83;281.80
2021-12-24 01:10:29;3.83;282.13
2021-12-24 01:15:32;3.83;282.45
2021-12-24 01:20:32;3.83;282.45
2021-12-24 01:25:31;3.83;282.45
2021-12-24 01:30:30;3.83;282.77
2021-12-24 01:35:29;3.83;282.45
2021-12-24 01:40:32;3.83;282.77
2021-12-24 01:45:31;3.83;283.25
2021-12-24 01:50:31;3.83;283.25
2021-12-24 01:55:30;3.83;283.25
2021-12-24 02:00:29;3.83;283.25
2021-12-24 02:05:32;3.83;283.58
2021-12-24 02:10:31;3.83;283.58
2021-12-24 02:15:30;3.83;284.06
2021-12-24 02:20:29;3.83;283.74
2021-12-24 02:25:28;3.83;284.38
2021-12-24 02:30:32;3.83;284.38
2021-12-24 02:35:31;3.83;284.38
2021-12-24 02:40:30;3.83;284.54
2021-12-24 02:45:29;3.83;284.38
2021-12-24 02:50:33;3.83;284.38
2021-12-24 02:55:32;3.83;284.54
2021-12-24 03:00:31;3.83;284.87
2021-12-24 03:05:30;3.83;284.87
2021-12-24 03:10:29;3.83;285.19
2021-12-24 03:15:32;3.83;285.19
2021-12-24 03:20:31;3.83;285.35
2021-12-24 03:25:30;3.83;285.35
2021-12-24 03:30:28;3.83;285.67
2021-12-24 03:35:32;3.83;285.67
2021-12-24 03:40:31;3.83;285.67
2021-12-24 03:45:29;3.83;285.67
2021-12-24 03:50:33;3.83;285.99
2021-12-24 03:55:31;3.83;285.99
2021-12-24 04:00:30;3.83;286.15
2021-12-24 04:05:29;3.83;285.99
2021-12-24 04:10:32;3.83;286.48
2021-12-24 04:15:31;3.83;286.15
2021-12-24 04:20:30;3.83;286.15
2021-12-24 04:25:28;3.83;285.19
2021-12-24 04:30:32;3.83;284.38
2021-12-24 04:35:30;3.83;283.74
2021-12-24 04:40:29;3.83;283.25
2021-12-24 04:45:32;3.83;282.45
2021-12-24 04:50:31;3.83;282.13
2021-12-24 04:55:30;3.83;281.80
2021-12-24 05:00:28;3.83;281.32
2021-12-24 05:05:31;3.83;281.00
2021-12-24 05:10:30;3.83;280.84
2021-12-24 05:15:29;3.83;280.52
2021-12-24 05:20:32;3.83;280.19
2021-12-24 05:25:31;3.83;280.03
2021-12-24 05:30:29;3.83;279.71
2021-12-24 05:35:28;3.83;279.39
2021-12-24 05:40:31;3.83;279.23
2021-12-24 05:45:30;3.83;278.90
2021-12-24 05:50:28;3.83;278.42
2021-12-24 05:55:32;3.83;278.58
2021-12-24 06:00:30;3.83;278.42
2021-12-24 06:05:29;3.83;278.10
2021-12-24 06:10:32;3.83;277.61
2021-12-24 06:15:30;3.83;277.61
2021-12-24 06:20:29;3.83;277.29
2021-12-24 06:25:32;3.83;277.29
2021-12-24 06:30:31;3.83;276.97
2021-12-24 06:35:29;3.83;276.97
2021-12-24 06:40:28;3.83;276.81
2021-12-24 06:45:31;3.83;276.49
2021-12-24 06:50:30;3.83;276.00
2021-12-24 06:55:28;3.83;276.00
2021-12-24 07:00:32;3.83;276.00
2021-12-24 07:05:30;3.83;275.68
2021-12-24 07:10:29;3.83;275.68
2021-12-24 07:15:32;3.83;275.36
2021-12-24 07:20:31;3.83;275.68
2021-12-24 07:25:30;3.83;276.00
2021-12-24 07:30:29;3.83;275.68
2021-12-24 07:35:32;3.83;275.36
2021-12-24 07:40:31;3.83;275.36
2021-12-24 07:45:30;3.83;275.20
2021-12-24 07:50:29;3.83;274.88
2021-12-24 07:55:33;3.83;274.55
2021-12-24 08:00:32;3.83;274.55
2021-12-24 08:05:31;3.83;274.39
2021-12-24 08:10:30;3.83;274.07
2021-12-24 08:15:29;3.83;273.59
2021-12-24 08:20:29;3.83;273.59
2021-12-24 08:25:33;3.83;273.26
2021-12-24 08:30:32;3.83;273.26
2021-12-24 08:35:31;3.83;272.94
2021-12-24 08:40:31;3.83;272.94
2021-12-24 08:45:30;3.83;272.78
2021-12-24 08:50:30;3.83;272.78
2021-12-24 08:55:30;3.83;272.46
2021-12-24 09:00:30;3.83;272.78
2021-12-24 09:05:30;3.83;272.14
2021-12-24 09:10:30;3.83;272.46
2021-12-24 09:15:30;3.83;272.14
2021-12-24 09:20:30;3.83;272.14
2021-12-24 09:25:30;3.83;271.98
2021-12-24 09:30:31;3.82;272.14
2021-12-24 09:35:31;3.82;271.98
2021-12-24 09:40:31;3.83;271.98
2021-12-24 09:45:32;3.83;271.98
2021-12-24 09:50:33;3.83;271.65
2021-12-24 09:55:33;3.82;271.65
2021-12-24 10:00:34;3.82;271.33
2021-12-24 10:05:30;3.82;271.65
2021-12-24 10:10:31;3.82;271.65
2021-12-24 10:15:32;3.83;271.17
2021-12-24 10:20:33;3.83;271.65
2021-12-24 10:25:33;3.83;271.17
2021-12-24 10:30:30;3.82;271.33
2021-12-24 10:35:31;3.82;271.33
2021-12-24 10:40:32;3.83;271.17
2021-12-24 10:45:33;3.82;271.17
2021-12-24 10:50:34;3.83;271.17
2021-12-24 10:55:31;3.82;271.33
2021-12-24 11:00:32;3.82;270.85
2021-12-24 11:05:33;3.82;271.33
2021-12-24 11:10:34;3.82;271.17
2021-12-24 11:15:31;3.82;271.17
2021-12-24 11:20:32;3.82;270.85
2021-12-24 11:25:34;3.82;271.17
2021-12-24 11:30:30;3.82;271.17
2021-12-24 11:35:32;3.82;270.53
2021-12-24 11:40:33;3.82;271.17
2021-12-24 11:45:30;3.82;271.17
2021-12-24 11:50:32;3.82;271.17
2021-12-24 11:55:33;3.82;270.85
2021-12-24 12:00:30;3.82;270.85
2021-12-24 12:05:32;3.82;270.85
2021-12-24 12:10:33;3.82;270.53
2021-12-24 12:15:30;3.82;270.85
2021-12-24 12:20:32;3.82;270.85
2021-12-24 12:25:33;3.82;270.53
2021-12-24 12:30:30;3.82;270.85
2021-12-24 12:35:32;3.82;270.85
2021-12-24 12:40:33;3.82;270.85
2021-12-24 12:45:35;3.82;270.85
2021-12-24 12:50:32;3.82;270.53
2021-12-24 12:55:33;3.82;270.85
2021-12-24 13:00:35;3.82;270.85
2021-12-24 13:05:32;3.82;270.85
2021-12-24 13:10:33;3.82;270.53
2021-12-24 13:15:30;3.82;270.53
2021-12-24 13:20:32;3.82;270.53
2021-12-24 13:25:34;3.82;270.85
2021-12-24 13:30:31;3.82;270.53
2021-12-24 13:35:32;3.82;270.53
2021-12-24 13:40:34;3.82;270.53
2021-12-24 13:45:31;3.82;270.53
2021-12-24 13:50:33;3.82;270.53
2021-12-24 13:55:35;3.82;270.53
2021-12-24 14:00:33;3.82;270.36
2021-12-24 14:05:35;3.82;270.53
2021-12-24 14:10:32;3.82;270.53
2021-12-24 14:15:34;3.82;270.53
2021-12-24 14:20:32;3.82;270.53
2021-12-24 14:25:34;3.82;270.53
2021-12-24 14:30:32;3.82;270.36
2021-12-24 14:35:34;3.82;270.36
2021-12-24 14:40:32;3.82;270.85
2021-12-24 14:45:34;3.82;271.98
2021-12-24 14:50:32;3.82;272.94
2021-12-24 14:55:34;3.82;273.59
2021-12-24 15:00:32;3.82;274.39
2021-12-24 15:05:34;3.82;274.88
2021-12-24 15:10:32;3.82;275.36
2021-12-24 15:15:34;3.82;275.36
2021-12-24 15:20:32;3.82;276.00
2021-12-24 15:25:35;3.82;276.16
2021-12-24 15:30:33;3.82;276.97
2021-12-24 15:35:35;3.82;277.29
2021-12-24 15:40:33;3.82;277.61
2021-12-24 15:45:35;3.82;277.61
2021-12-24 15:50:33;3.82;277.78
2021-12-24 15:55:36;3.82;278.42
2021-12-24 16:00:33;3.82;278.58
2021-12-24 16:05:31;3.82;278.90
2021-12-24 16:10:34;3.82;279.23
2021-12-24 16:15:32;3.82;279.23
2021-12-24 16:20:34;3.82;278.42
2021-12-24 16:25:32;3.82;277.78
2021-12-24 16:30:34;3.82;277.29
2021-12-24 16:35:32;3.82;276.97
2021-12-24 16:40:35;3.82;276.49
2021-12-24 16:45:32;3.82;276.16
2021-12-24 16:50:35;3.82;276.00
2021-12-24 16:55:33;3.82;275.68
2021-12-24 17:00:35;3.82;275.68
2021-12-24 17:05:33;3.82;275.36
2021-12-24 17:10:35;3.82;275.20
2021-12-24 17:15:33;3.82;274.55
2021-12-24 17:20:35;3.82;274.88
2021-12-24 17:25:33;3.82;274.55
2021-12-24 17:30:35;3.82;274.88
2021-12-24 17:35:32;3.82;274.55
2021-12-24 17:40:35;3.82;274.55
2021-12-24 17:45:32;3.82;274.55
2021-12-24 17:50:34;3.82;274.55
2021-12-24 17:55:32;3.82;274.07
2021-12-24 18:00:34;3.82;274.39
2021-12-24 18:05:32;3.82;274.39
2021-12-24 18:10:34;3.82;274.39
2021-12-24 18:15:31;3.82;274.07
2021-12-24 18:20:33;3.82;273.75
2021-12-24 18:25:35;3.82;273.75
2021-12-24 18:30:32;3.82;273.75
2021-12-24 18:35:34;3.82;273.59
2021-12-24 18:40:32;3.82;273.59
2021-12-24 18:45:34;3.82;273.59
2021-12-24 18:50:31;3.82;273.59
2021-12-24 18:55:33;3.82;273.26
2021-12-24 19:00:34;3.82;273.59
2021-12-24 19:05:32;3.82;273.59
2021-12-24 19:10:33;3.82;273.59
2021-12-24 19:15:30;3.82;273.59
2021-12-24 19:20:32;3.82;273.59
2021-12-24 19:25:33;3.82;273.59
2021-12-24 19:30:30;3.82;273.75
2021-12-24 19:35:31;3.82;273.75
2021-12-24 19:40:33;3.82;273.59
2021-12-24 19:45:34;3.82;274.55
2021-12-24 19:50:30;3.82;275.36
2021-12-24 19:55:31;3.82;275.36
2021-12-24 20:00:32;3.82;275.36
2021-12-24 20:05:32;3.82;275.68
2021-12-24 20:10:33;3.82;276.00
2021-12-24 20:15:33;3.82;276.49
2021-12-24 20:20:33;3.82;276.49
2021-12-24 20:25:29;3.82;276.16
2021-12-24 20:30:34;3.82;276.49
2021-12-24 20:35:29;3.82;276.16
2021-12-24 20:40:29;3.82;276.00
2021-12-24 20:45:29;3.82;276.16
2021-12-24 20:50:29;3.82;276.81
2021-12-24 20:55:29;3.82;276.97
2021-12-24 21:00:34;3.82;276.81
2021-12-24 21:05:29;3.82;276.81
2021-12-24 21:10:33;3.82;277.61
2021-12-24 21:15:33;3.82;277.78
2021-12-24 21:20:33;3.82;277.29
2021-12-24 21:25:32;3.82;277.61
2021-12-24 21:30:32;3.82;277.78
2021-12-24 21:35:32;3.82;278.42
2021-12-24 21:40:31;3.82;278.42
2021-12-24 21:45:31;3.82;278.10
2021-12-24 21:50:31;3.82;278.42
2021-12-24 21:55:30;3.82;278.90
2021-12-24 22:00:30;3.82;279.23
2021-12-24 22:05:29;3.82;278.90
2021-12-24 22:10:33;3.82;278.90
2021-12-24 22:15:28;3.82;279.23
2021-12-24 22:20:32;3.82;279.39
2021-12-24 22:25:32;3.82;279.71
2021-12-24 22:30:31;3.82;279.23
2021-12-24 22:35:31;3.82;279.71
2021-12-24 22:40:30;3.82;279.39
2021-12-24 22:45:30;3.82;280.03
2021-12-24 22:50:29;3.82;279.71
2021-12-24 22:55:29;3.82;279.71
2021-12-24 23:00:33;3.82;280.03
2021-12-24 23:05:32;3.82;280.52
2021-12-24 23:10:32;3.82;280.52
2021-12-24 23:15:31;3.82;280.03
2021-12-24 23:20:31;3.82;280.19
2021-12-24 23:25:30;3.82;280.84
2021-12-24 23:30:29;3.82;281.00
2021-12-24 23:35:33;3.82;280.52
2021-12-24 23:40:32;3.82;280.52
2021-12-24 23:45:32;3.82;280.52
2021-12-24 23:50:31;3.82;281.00
2021-12-24 23:55:30;3.82;281.32
