#HS;2020-12-1 18:17:30;4.37;97;29.50;11;0.000;0.001;29.81;85.6;0.001;2.0271;0.264;2.096;0.247;835;835;835;835;835;835;835;835;835;835;665;660;659;658;658;657;657;656;656;656;592;592;592;592;592;592;592;592;592;592
#HS;2020-12-1 18:33:30;4.35;85;29.30;11;0.293;0.037;28.91;84.0;0.040;18.7371;14.229;19.341;13.437;756;756;756;756;756;756;756;756;756;756;495;487;484;483;482;482;481;480;480;479;499;499;499;499;499;499;499;499;499;499
#HS;2020-12-1 18:56:26;4.34;79;29.50;11;0.000;0.000;29.21;84.6;0.000;1.5031;0.161;1.552;0.152;942;942;942;942;942;942;942;942;942;942;560;560;560;560;560;560;560;560;560;560;592;592;592;592;592;592;592;592;592;592
#HS;2020-12-1 19:8:32;4.33;83;29.20;11;0.000;0.000;29.21;84.6;0.000;1.5031;0.161;1.553;0.151;994;1005;1005;1005;1005;1005;1005;1005;1005;1005;246;246;246;246;246;246;246;246;246;245;250;250;250;250;250;250;250;250;250;250
#HS;2020-12-1 19:14:0;4.33;90;29.00;11;0.000;0.000;29.21;84.6;0.000;1.5031;0.090;1.552;0.085;527;527;527;527;527;527;527;527;527;527;246;246;246;246;245;246;246;245;245;245;250;250;250;250;250;250;250;250;250;250
#HS;2020-12-1 19:22:14;4.33;93;29.00;11;0.000;0.001;29.21;84.6;0.001;1.5561;0.214;1.607;0.201;582;582;582;582;582;582;582;582;582;582;246;246;246;246;245;246;246;246;245;246;250;250;250;250;250;250;250;250;250;250
#HS;2020-12-1 19:34:30;4.32;96;28.90;11;0.000;0.001;28.91;84.0;0.001;1.5561;0.214;1.607;0.202;579;579;579;579;579;579;579;579;579;579;245;245;245;245;245;245;245;245;245;245;250;250;250;250;250;250;250;250;250;250
2020-12-1 20:5:51;4.30;99;28.40;11;0.000;0.000;28.61;83.5;0.000;1.5021;0.090;1.549;0.086;581;581;581;581;581;581;581;581;581;581;454;454;454;454;454;454;454;454;454;454;487;487;487;487;487;487;487;487;487;487
