2020-12-16 0:2:38;4.35;99;18.80;11;0.433;0.073;21.91;71.5;0.070;31.5101;25.112;32.006;26.203;256;256;256;256;256;256;256;256;256;256;258;258;258;258;258;258;258;258;258;258;253;253;253;253;253;253;253;253;253;253
2020-12-16 0:32:37;4.34;99;18.00;11;0.433;0.073;21.91;71.5;0.070;31.5101;25.112;32.006;26.203;257;257;257;257;257;257;257;257;257;257;258;258;258;258;258;258;258;258;258;258;253;253;253;253;253;253;253;253;253;253
2020-12-16 1:2:35;4.33;99;17.60;11;0.426;0.075;21.91;71.5;0.072;30.8321;25.741;31.317;26.859;258;258;258;258;258;258;258;258;258;258;258;258;258;258;258;258;258;258;258;258;253;253;253;253;253;253;253;253;253;253
2020-12-16 1:32:37;4.33;99;17.60;11;0.433;0.073;21.91;71.5;0.070;31.5101;25.112;32.006;26.203;259;259;259;259;259;259;259;259;259;259;258;258;258;258;258;258;258;258;258;258;253;253;253;253;253;253;253;253;253;253
2020-12-16 2:2:35;4.33;99;17.40;11;0.433;0.073;21.91;71.5;0.070;31.5101;25.112;32.006;26.203;258;258;258;259;259;259;259;259;259;259;258;258;258;258;258;258;258;258;258;258;253;252;253;253;253;252;253;253;252;253
2020-12-16 2:32:37;4.33;99;17.10;11;0.433;0.073;21.91;71.5;0.070;31.5101;25.112;32.006;26.203;260;260;260;260;260;260;260;260;260;260;258;258;258;258;258;258;258;258;258;258;253;253;252;253;253;253;253;253;253;253
2020-12-16 3:2:34;4.33;99;17.00;11;0.433;0.073;21.91;71.5;0.070;31.5101;25.112;32.006;26.203;261;261;261;261;261;261;261;261;261;261;258;258;258;258;258;258;258;258;258;258;252;252;252;253;252;252;252;252;252;252
2020-12-16 3:32:35;4.33;99;16.90;11;0.433;0.073;21.91;71.5;0.070;31.5101;25.112;32.006;26.203;262;262;262;262;262;262;262;262;262;262;258;258;258;258;258;258;258;258;258;258;252;252;252;252;252;252;252;252;252;252
2020-12-16 4:2:37;4.33;99;16.90;11;0.433;0.073;21.91;71.5;0.070;31.5101;25.112;32.006;26.203;262;262;262;262;262;262;262;262;262;262;258;258;258;258;258;258;258;258;258;258;252;252;252;252;252;252;252;252;252;252
2020-12-16 4:32:34;4.33;99;16.70;11;0.426;0.075;21.91;71.5;0.072;30.8321;25.741;31.317;26.859;263;263;263;263;263;263;263;263;263;263;258;258;258;258;258;258;258;258;258;258;252;252;252;252;252;252;252;252;252;252
2020-12-16 5:2:35;4.33;99;16.20;11;0.426;0.075;21.91;71.5;0.072;30.8321;25.741;31.317;26.859;263;263;263;263;263;263;263;263;263;263;258;258;258;258;258;258;258;258;258;258;252;252;252;252;252;252;252;252;252;252
2020-12-16 5:32:36;4.33;99;15.50;11;0.426;0.075;21.91;71.5;0.072;30.8321;25.741;31.317;26.859;262;262;262;262;262;262;262;262;263;262;258;258;258;258;258;258;258;258;258;258;252;252;253;252;252;252;253;252;252;252
2020-12-16 6:2:36;4.32;99;15.30;11;0.433;0.073;21.91;71.5;0.070;31.5101;25.112;32.006;26.203;262;262;262;262;262;262;263;263;263;262;258;258;258;258;258;258;258;258;258;258;252;252;252;252;252;252;252;252;252;252
2020-12-16 6:32:36;4.32;99;15.80;11;0.433;0.073;21.91;71.5;0.070;31.5101;25.112;32.006;26.203;263;263;263;263;263;263;263;263;263;263;258;258;258;258;258;258;258;258;258;258;252;252;252;252;252;252;252;252;252;252
2020-12-16 7:2:32;4.33;99;16.20;11;0.434;0.072;21.91;71.5;0.069;31.6461;24.654;32.144;25.725;264;264;264;264;264;264;264;264;264;264;258;258;258;258;258;258;258;258;258;258;252;252;252;252;252;252;252;252;252;252
2020-12-16 7:32:34;4.33;99;16.80;11;0.426;0.075;21.91;71.5;0.072;30.8321;25.741;31.317;26.859;266;266;266;266;266;266;266;266;266;266;258;258;258;258;258;258;258;258;258;258;252;252;252;252;252;252;252;252;252;252
2020-12-16 8:2:35;4.34;99;17.70;11;0.433;0.073;21.91;71.5;0.070;31.5101;25.112;32.006;26.203;268;268;268;268;268;268;268;268;268;268;258;258;258;258;258;258;258;258;258;258;252;252;252;252;252;252;252;252;252;252
2020-12-16 8:32:38;4.35;99;19.50;11;0.433;0.073;21.91;71.5;0.070;31.5101;25.112;32.006;26.203;268;268;268;268;268;268;268;268;268;268;258;258;258;258;258;258;258;258;258;258;252;252;252;252;252;252;252;252;252;252
2020-12-16 9:2:37;4.35;99;20.80;11;0.433;0.073;21.91;71.5;0.070;31.5011;25.107;31.992;26.228;268;268;268;267;267;268;268;268;268;268;258;258;258;258;258;258;258;258;258;258;252;252;252;252;252;252;252;252;252;252
2020-12-16 9:32:38;4.36;99;21.60;11;0.433;0.073;21.91;71.5;0.070;31.5011;25.107;31.992;26.228;266;266;266;266;266;266;266;266;266;266;258;258;258;258;258;258;258;258;258;258;252;252;252;252;252;252;252;252;252;252
2020-12-16 10:2:40;4.37;99;22.40;11;0.428;0.073;21.91;71.5;0.070;30.9851;25.275;31.473;26.373;266;266;266;266;266;266;266;266;266;266;258;258;258;258;257;258;257;258;258;257;252;252;252;252;252;252;252;252;252;252
2020-12-16 10:32:40;4.38;99;26.30;11;0.426;0.075;21.91;71.5;0.072;30.8241;25.736;31.303;26.885;266;266;266;266;266;266;266;266;267;266;258;258;258;258;258;258;258;258;258;258;251;251;251;251;251;251;251;251;251;251
2020-12-16 11:2:47;4.38;99;27.30;11;0.433;0.073;21.91;71.5;0.070;31.5011;25.107;31.992;26.228;267;267;267;267;267;267;267;267;267;267;258;258;258;258;258;258;258;258;258;258;251;251;251;251;251;251;251;251;251;251
2020-12-16 11:32:46;4.39;99;28.40;11;0.426;0.075;21.91;71.5;0.072;30.8241;25.736;31.303;26.885;268;268;268;268;268;268;268;268;268;268;257;258;257;258;258;258;257;258;257;257;251;251;251;251;251;251;251;251;251;251
2020-12-16 12:2:48;4.39;91;28.70;11;0.428;0.073;21.91;71.5;0.070;30.9851;25.275;31.473;26.373;268;268;268;268;268;268;268;268;268;268;258;258;257;258;257;258;258;257;257;258;251;251;251;251;251;251;251;251;251;251
2020-12-16 12:32:50;4.40;97;29.10;11;0.426;0.075;21.91;71.5;0.072;30.8321;25.741;31.317;26.859;267;267;267;267;267;267;267;267;267;267;258;258;257;257;258;258;257;258;258;258;251;251;251;251;251;251;251;251;251;251
2020-12-16 13:2:50;4.40;96;30.00;11;0.426;0.075;21.91;71.5;0.072;30.8321;25.741;31.317;26.859;265;265;265;265;265;266;265;265;265;265;258;257;258;257;258;257;258;258;258;257;251;251;251;251;251;251;251;251;251;251
2020-12-16 13:32:51;4.41;76;30.50;11;0.434;0.072;21.91;71.5;0.069;31.6461;24.654;32.144;25.725;263;263;263;263;263;263;263;263;263;263;257;257;257;257;257;257;257;257;257;257;251;251;251;251;251;251;251;251;251;251
2020-12-16 14:2:53;4.41;78;32.60;11;0.426;0.075;21.91;71.5;0.072;30.8321;25.741;31.317;26.859;261;261;261;261;261;261;261;261;261;261;257;257;257;257;258;257;257;257;257;257;251;251;251;251;251;251;251;251;251;251
2020-12-16 14:32:51;4.41;89;32.00;11;0.428;0.073;21.91;71.5;0.070;30.9851;25.275;31.473;26.373;259;259;259;259;259;259;259;259;259;259;258;257;257;257;257;258;257;257;257;257;251;251;251;251;251;251;251;251;251;251
2020-12-16 15:2:55;4.41;89;32.00;11;0.428;0.073;21.91;71.5;0.070;30.9851;25.275;31.473;26.373;257;257;257;257;257;257;257;257;257;257;257;257;257;257;257;257;257;257;257;257;251;251;251;251;251;251;251;251;251;251
2020-12-16 15:32:55;4.41;60;32.30;11;0.428;0.073;21.91;71.5;0.070;30.9851;25.275;31.473;26.373;254;254;254;254;254;254;254;254;254;254;257;257;257;257;257;257;257;257;257;257;251;251;251;251;251;251;251;251;251;251
2020-12-16 16:2:55;4.40;63;34.10;11;0.428;0.073;21.91;71.5;0.070;30.9851;25.275;31.473;26.373;252;252;252;252;252;252;252;252;252;252;257;257;257;257;257;257;257;257;257;257;250;250;250;250;250;251;250;250;250;250
2020-12-16 16:32:55;4.40;55;32.70;11;0.428;0.073;21.91;71.5;0.070;30.9851;25.275;31.473;26.373;251;251;251;251;251;251;251;251;251;251;257;257;257;257;257;257;257;257;257;257;250;251;251;250;250;251;251;250;251;251
2020-12-16 17:2:55;4.40;60;32.30;11;0.428;0.073;21.91;71.5;0.070;30.9851;25.275;31.473;26.373;245;245;245;245;245;245;245;245;245;245;257;257;257;257;257;257;257;257;257;257;251;251;251;251;251;251;251;251;251;251
2020-12-16 17:32:54;4.40;57;32.20;11;0.428;0.073;21.91;71.5;0.070;30.9851;25.275;31.473;26.373;242;242;242;242;242;242;242;242;242;242;257;257;257;257;257;257;257;257;257;258;251;251;251;251;251;251;251;251;251;251
2020-12-16 18:2:52;4.40;55;32.70;11;0.434;0.072;21.91;71.5;0.069;31.6461;24.654;32.144;25.725;243;242;242;242;242;242;242;242;243;243;257;257;257;257;257;257;258;257;257;258;251;251;251;251;251;251;251;251;251;251
2020-12-16 18:32:53;4.39;78;31.60;11;0.428;0.073;21.91;71.5;0.070;30.9931;25.280;31.487;26.348;242;242;242;242;242;242;242;242;242;242;257;257;257;257;257;257;257;257;257;257;251;251;251;251;251;251;251;251;251;251
2020-12-16 19:2:49;4.38;87;31.10;11;0.426;0.075;21.91;71.5;0.072;30.8401;25.746;31.331;26.833;243;242;243;242;243;243;243;243;243;243;257;257;258;258;257;257;257;258;257;257;251;251;251;251;251;251;251;251;251;251
2020-12-16 19:32:48;4.38;99;27.40;11;0.428;0.073;21.91;71.5;0.070;30.9931;25.280;31.487;26.348;243;243;243;243;243;243;243;243;243;243;258;258;258;258;258;258;257;258;257;258;251;251;251;251;251;251;251;251;251;251
2020-12-16 20:2:47;4.36;99;21.50;11;0.428;0.073;21.91;71.5;0.070;30.9931;25.280;31.487;26.348;244;244;244;244;244;244;244;244;244;244;258;258;258;258;258;258;258;258;258;258;252;252;252;252;252;252;252;252;252;252
2020-12-16 20:32:41;4.34;99;17.90;11;0.428;0.073;21.91;71.5;0.070;31.0011;25.285;31.501;26.322;244;244;244;244;244;244;244;244;244;244;258;258;258;258;258;258;258;258;258;258;252;252;252;252;252;252;252;252;252;252
2020-12-16 21:2:36;4.33;99;16.50;11;0.434;0.071;21.91;71.5;0.069;31.6541;24.659;32.158;25.700;243;243;243;243;243;243;243;243;243;243;258;258;258;258;258;258;258;258;258;258;252;252;252;252;252;252;252;252;252;252
2020-12-16 21:32:38;4.33;99;15.90;11;0.428;0.073;21.91;71.5;0.070;31.0011;25.285;31.501;26.322;243;243;243;243;243;243;243;243;243;243;258;258;258;258;258;258;258;258;258;258;252;252;252;252;252;252;252;252;252;252
2020-12-16 22:2:34;4.33;99;15.00;11;0.428;0.073;21.91;71.5;0.070;31.0011;25.285;31.501;26.322;243;243;243;243;243;243;243;243;243;243;258;258;258;258;258;258;258;258;258;258;252;252;252;252;252;252;252;252;252;252
2020-12-16 22:32:34;4.32;99;13.70;11;0.426;0.075;22.11;71.9;0.072;30.8481;25.751;31.345;26.808;244;243;243;243;243;243;243;243;243;243;258;258;258;258;258;258;258;258;258;258;252;252;252;252;252;252;252;252;251;252
2020-12-16 23:2:34;4.32;99;14.10;11;0.434;0.071;22.11;71.9;0.069;31.6621;24.663;32.172;25.675;244;244;243;244;244;244;244;244;244;243;258;258;258;258;258;258;258;258;258;258;252;252;252;252;252;252;252;252;252;252
2020-12-16 23:32:33;4.32;99;13.80;11;0.428;0.073;21.91;71.5;0.070;31.0011;25.285;31.501;26.322;244;244;244;244;244;244;244;244;244;244;258;258;258;258;258;258;258;258;258;258;252;252;252;252;252;252;252;252;252;252
