2020-12-30 0:2:41;4.34;99;22.30;11;0.439;0.079;24.21;75.5;0.078;32.1491;27.941;32.810;28.274;230;229;229;229;229;229;229;229;229;229;257;257;257;257;257;257;257;257;257;257;239;238;238;238;238;239;239;238;238;238
2020-12-30 0:32:38;4.33;99;21.10;11;0.432;0.080;24.21;75.5;0.080;31.3741;28.649;32.026;28.955;229;229;229;229;229;229;229;229;229;229;257;257;257;257;257;257;257;257;257;257;238;238;238;238;239;239;239;239;238;239
2020-12-30 1:2:40;4.33;99;21.30;11;0.439;0.079;24.21;75.5;0.078;32.1491;27.941;32.810;28.274;229;229;229;229;229;229;229;229;229;229;257;257;257;257;257;257;257;257;257;257;238;238;239;239;238;238;239;239;239;239
2020-12-30 1:32:41;4.33;99;21.20;11;0.441;0.077;24.21;75.5;0.076;32.3311;27.430;33.003;27.723;229;229;229;229;229;229;229;229;229;229;257;257;257;257;257;257;257;257;257;257;238;238;238;238;238;239;239;238;239;238
2020-12-30 2:2:37;4.33;99;21.00;11;0.432;0.080;24.21;75.5;0.080;31.3741;28.649;32.026;28.955;229;229;229;229;229;229;229;229;229;229;257;257;257;257;257;257;257;257;257;257;238;238;238;238;238;238;238;238;238;238
2020-12-30 2:32:38;4.33;99;21.00;11;0.433;0.079;24.21;75.5;0.078;31.5691;28.122;32.224;28.422;229;229;229;229;229;229;229;229;229;229;257;257;257;257;257;257;257;257;257;257;238;239;238;239;239;238;239;238;238;238
2020-12-30 3:2:39;4.33;99;20.80;11;0.439;0.079;24.21;75.5;0.078;32.1581;27.947;32.827;28.246;229;229;229;229;229;229;229;229;229;229;257;257;257;257;257;257;257;257;257;257;238;238;238;238;238;238;238;238;238;239
2020-12-30 3:32:40;4.32;99;20.50;11;0.439;0.079;24.21;75.5;0.078;32.1581;27.947;32.827;28.246;229;229;229;229;229;229;229;229;229;229;257;257;257;257;257;257;257;257;257;257;238;238;238;238;238;239;238;239;238;238
2020-12-30 4:2:40;4.32;99;20.40;11;0.432;0.080;24.21;75.5;0.080;31.3741;28.649;32.026;28.955;229;229;229;229;229;229;229;229;229;229;257;257;257;257;257;257;257;257;257;257;238;238;238;238;238;238;238;238;238;238
2020-12-30 4:32:40;4.32;99;20.80;11;0.439;0.079;24.21;75.5;0.078;32.1581;27.947;32.827;28.246;229;229;229;229;229;229;229;229;229;229;257;257;257;257;257;257;257;257;257;257;238;238;238;238;238;238;238;238;238;238
2020-12-30 5:2:37;4.32;99;20.80;11;0.439;0.079;24.21;75.5;0.078;32.1581;27.947;32.827;28.246;229;229;229;229;229;229;229;229;229;229;257;257;257;257;257;257;257;257;257;257;238;238;238;238;238;238;238;238;238;238
2020-12-30 5:32:37;4.32;99;20.40;11;0.439;0.079;24.21;75.5;0.078;32.1581;27.947;32.827;28.246;229;229;229;229;229;229;229;229;229;229;257;257;257;257;257;257;257;257;257;257;238;238;238;238;238;238;238;238;238;238
2020-12-30 6:2:37;4.32;99;20.00;11;0.441;0.077;24.21;75.5;0.076;32.3311;27.430;33.003;27.723;229;229;229;229;229;229;229;229;229;229;257;257;257;257;257;257;257;257;257;257;238;238;238;238;238;238;238;238;238;238
2020-12-30 6:32:38;4.32;99;21.10;11;0.432;0.080;24.21;75.5;0.080;31.3741;28.649;32.026;28.955;229;229;229;229;229;229;229;229;229;229;257;257;257;257;257;257;257;257;257;257;238;238;238;238;238;238;238;238;238;238
2020-12-30 7:2:39;4.33;99;25.90;11;0.439;0.079;24.21;75.5;0.078;32.1581;27.947;32.827;28.246;229;229;228;229;229;229;229;229;229;229;257;257;257;257;257;257;257;257;257;257;238;238;238;238;238;238;238;238;238;238
2020-12-30 7:32:42;4.33;99;29.30;11;0.441;0.077;24.21;75.5;0.076;32.3311;27.430;33.003;27.723;228;228;228;228;228;228;228;228;228;228;257;257;257;257;257;257;257;257;257;257;238;238;238;238;238;238;238;238;238;238
2020-12-30 8:2:42;4.35;99;29.70;11;0.439;0.079;24.21;75.5;0.078;32.1581;27.947;32.827;28.246;228;228;228;228;228;228;228;228;228;228;257;257;257;257;257;257;257;257;257;257;238;238;238;238;238;238;238;238;238;238
2020-12-30 8:32:45;4.35;99;23.90;11;0.439;0.079;24.21;75.5;0.078;32.1581;27.947;32.827;28.246;228;228;228;228;228;228;228;228;228;228;257;257;257;257;257;257;257;257;257;257;236;235;235;236;235;236;235;236;236;235
2020-12-30 9:2:42;4.34;99;21.30;11;0.432;0.080;24.21;75.5;0.080;31.3741;28.649;32.026;28.955;228;228;228;228;228;228;228;228;228;228;257;257;257;257;257;257;257;257;257;257;238;238;238;238;238;238;238;238;238;238
2020-12-30 9:32:40;4.32;99;18.60;11;0.439;0.079;24.21;75.5;0.078;32.1581;27.947;32.827;28.246;228;228;229;229;229;229;229;229;228;228;257;257;257;257;257;257;257;257;257;257;238;238;238;238;238;238;238;238;238;238
2020-12-30 10:2:40;4.33;99;18.50;11;0.441;0.077;24.21;75.5;0.076;32.3311;27.430;33.003;27.723;229;229;229;228;229;229;229;228;229;229;257;257;257;257;257;257;257;257;257;257;238;238;238;238;238;238;238;238;238;238
2020-12-30 10:32:40;4.34;99;22.50;11;0.441;0.077;24.21;75.5;0.076;32.3311;27.430;33.003;27.723;228;228;228;228;228;228;228;228;228;228;257;257;257;257;257;257;257;257;257;257;238;238;238;238;238;238;238;238;238;238
2020-12-30 11:2:41;4.33;99;18.80;11;0.432;0.080;24.21;75.5;0.080;31.3741;28.649;32.026;28.955;228;228;228;228;228;228;228;228;228;228;257;257;257;257;257;257;257;257;257;257;238;238;238;238;238;238;238;238;238;238
2020-12-30 11:32:37;4.33;99;19.20;11;0.439;0.079;24.21;75.5;0.078;32.1581;27.947;32.827;28.246;228;228;228;228;228;228;228;229;228;228;257;257;257;257;257;257;257;257;257;257;238;238;238;238;238;238;238;238;238;238
2020-12-30 12:2:36;4.34;99;20.10;11;0.432;0.080;24.21;75.5;0.080;31.3741;28.649;32.026;28.955;228;228;228;228;228;228;228;228;228;228;257;257;257;257;257;257;257;257;257;257;238;238;238;238;238;238;238;238;238;238
2020-12-30 12:32:41;4.34;99;20.60;11;0.439;0.079;24.21;75.5;0.078;32.1581;27.947;32.827;28.246;228;228;228;228;228;228;228;228;228;228;257;257;257;257;257;257;257;257;257;257;238;238;238;238;238;238;238;238;238;238
2020-12-30 13:2:39;4.35;99;24.50;11;0.441;0.077;24.21;75.5;0.076;32.3311;27.430;33.003;27.723;228;228;228;228;228;228;228;228;228;228;257;257;257;257;257;257;257;257;257;257;238;238;238;238;238;238;238;238;238;238
2020-12-30 13:32:44;4.34;99;18.60;11;0.432;0.080;24.21;75.5;0.080;31.3741;28.649;32.026;28.955;228;228;228;228;228;228;228;228;228;228;257;257;257;257;257;257;257;257;257;257;238;238;238;238;238;238;238;238;238;238
2020-12-30 14:2:41;4.33;99;17.40;11;0.439;0.079;24.21;75.5;0.078;32.1581;27.947;32.827;28.246;229;229;229;228;229;229;229;229;229;229;257;257;257;257;257;257;257;257;257;257;238;238;238;238;238;238;238;238;238;238
2020-12-30 14:32:35;4.31;99;15.90;11;0.439;0.079;24.21;75.5;0.078;32.1581;27.947;32.827;28.246;229;229;229;229;229;229;229;229;229;229;257;257;257;257;257;257;257;257;257;257;238;238;238;238;238;238;238;238;238;238
2020-12-30 15:2:37;4.33;99;17.20;11;0.439;0.079;24.21;75.5;0.078;32.1581;27.947;32.827;28.246;228;229;228;229;229;228;229;229;228;228;257;257;257;257;257;257;257;257;257;257;238;238;238;238;238;238;238;238;238;238
2020-12-30 15:32:36;4.34;99;18.30;11;0.432;0.080;24.21;75.5;0.080;31.3741;28.649;32.026;28.955;228;228;228;228;228;228;228;228;228;228;257;257;257;257;257;257;257;257;257;257;238;238;238;238;238;238;238;238;238;238
2020-12-30 16:2:40;4.34;99;22.40;11;0.439;0.079;24.21;75.5;0.078;32.1581;27.947;32.827;28.246;228;228;228;228;228;228;228;228;228;228;257;257;257;257;257;257;257;257;257;257;238;238;238;238;238;238;238;238;238;238
2020-12-30 16:32:42;4.35;99;23.30;11;0.432;0.080;24.21;75.5;0.080;31.3741;28.649;32.026;28.955;228;228;228;228;228;228;228;228;228;228;257;257;257;257;257;257;257;257;257;257;238;238;238;238;238;238;238;238;238;238
2020-12-30 17:2:42;4.36;99;22.80;11;0.432;0.080;24.21;75.5;0.080;31.3741;28.649;32.026;28.955;228;228;228;228;228;228;228;228;228;228;257;257;257;257;257;257;257;257;257;257;238;238;238;238;238;238;238;238;238;238
2020-12-30 17:32:44;4.37;99;25.80;11;0.432;0.080;24.21;75.5;0.080;31.3741;28.649;32.026;28.955;228;228;228;228;228;228;228;228;228;228;257;257;257;257;257;257;257;257;257;257;238;238;238;238;238;238;238;238;238;238
2020-12-30 18:2:47;4.38;99;26.00;11;0.439;0.079;24.21;75.5;0.078;32.1581;27.947;32.827;28.246;228;228;228;228;228;228;228;228;228;228;257;257;257;257;257;257;257;257;257;257;238;238;238;238;238;238;238;238;238;238
2020-12-30 18:32:47;4.38;94;26.50;11;0.439;0.079;24.21;75.5;0.078;32.1581;27.947;32.827;28.246;228;228;228;228;228;228;228;228;228;228;257;257;257;257;257;257;257;257;257;257;238;238;238;238;238;238;238;238;238;238
2020-12-30 19:2:46;4.37;68;25.60;11;0.432;0.080;24.21;75.5;0.080;31.3741;28.649;32.026;28.955;229;228;228;228;228;228;228;228;228;228;257;257;257;257;257;257;257;257;257;257;238;238;238;238;238;238;238;238;238;238
2020-12-30 19:32:44;4.35;97;24.00;11;0.432;0.080;24.21;75.5;0.080;31.3741;28.649;32.026;28.955;228;228;228;228;228;228;228;228;228;228;257;257;257;257;257;257;257;257;257;257;238;238;238;238;238;238;238;238;238;238
2020-12-30 20:2:44;4.34;99;19.20;11;0.432;0.080;24.21;75.5;0.080;31.3741;28.649;32.026;28.955;229;229;229;229;229;229;229;229;229;229;257;257;257;257;257;257;257;257;257;257;238;238;238;238;238;238;238;238;238;238
2020-12-30 20:32:40;4.32;99;16.40;11;0.439;0.079;24.21;75.5;0.078;32.1581;27.947;32.827;28.246;229;229;229;229;229;229;229;229;229;229;257;257;257;257;257;257;257;257;257;257;238;238;238;238;238;238;238;238;238;238
2020-12-30 21:2:38;4.31;99;15.20;11;0.439;0.079;24.21;75.5;0.078;32.1581;27.947;32.827;28.246;229;229;229;229;229;229;229;229;229;229;257;258;257;257;257;257;257;257;257;257;236;236;236;236;236;236;236;236;235;236
2020-12-30 21:32:34;4.30;99;15.70;11;0.439;0.079;24.21;75.5;0.078;32.1581;27.947;32.827;28.246;230;229;229;229;229;229;229;229;229;229;257;257;257;258;257;257;257;257;257;257;236;236;236;236;236;236;236;236;236;236
2020-12-30 22:2:34;4.30;99;14.70;11;0.432;0.080;24.21;75.5;0.080;31.3741;28.649;32.026;28.955;230;229;229;229;229;229;229;230;229;229;258;258;257;257;257;257;257;258;258;257;238;238;238;238;238;238;238;238;238;238
2020-12-30 22:32:33;4.29;99;13.90;11;0.439;0.079;24.21;75.5;0.078;32.1581;27.947;32.827;28.246;230;229;230;230;229;229;230;230;229;229;258;257;257;257;258;257;257;257;257;257;238;238;238;238;238;238;238;238;238;238
2020-12-30 23:2:32;4.29;99;13.80;11;0.432;0.080;24.21;75.5;0.080;31.3741;28.649;32.026;28.955;230;229;230;230;229;229;230;230;229;229;258;258;258;257;258;257;257;258;257;258;238;238;238;238;238;238;238;238;238;238
2020-12-30 23:32:34;4.29;99;13.90;11;0.441;0.077;24.21;75.5;0.076;32.3311;27.430;33.003;27.723;229;229;229;229;229;229;229;229;229;229;258;257;258;258;258;257;257;258;257;257;238;238;238;238;238;238;238;238;238;238
