2021-08-13 00:03:41;1;122;122;122;122;122;122;122;122;122;122;
2021-08-13 00:03:41;2;118;118;118;118;118;118;118;118;118;118;
2021-08-13 00:03:41;3;52;52;52;52;52;52;52;52;53;52;
2021-08-13 00:03:41;4;121;121;121;121;121;121;121;131;122;121;
2021-08-13 00:03:41;5;121;121;121;121;121;121;121;121;121;121;
2021-08-13 00:03:41;ht;99;5.00
2021-08-13 00:03:41;v;4.00
2021-08-13 00:33:39;1;120;120;120;120;119;120;120;119;120;119;
2021-08-13 00:33:39;2;123;123;123;123;123;123;123;123;123;123;
2021-08-13 00:33:39;3;53;53;53;53;53;53;53;53;53;53;
2021-08-13 00:33:39;4;122;122;122;122;122;122;122;122;122;122;
2021-08-13 00:33:39;5;122;122;122;122;122;122;122;121;122;122;
2021-08-13 00:33:39;ht;99;5.10
2021-08-13 00:33:39;v;4.00
2021-08-13 01:03:37;1;124;124;124;124;124;124;124;124;124;124;
2021-08-13 01:03:37;2;125;124;125;124;124;125;124;125;125;124;
2021-08-13 01:03:37;3;53;53;53;53;53;53;53;53;53;53;
2021-08-13 01:03:37;4;123;123;123;123;123;122;123;123;122;123;
2021-08-13 01:03:37;5;121;121;121;122;121;122;122;121;121;122;
2021-08-13 01:03:37;ht;99;4.00
2021-08-13 01:03:37;v;4.00
2021-08-13 01:33:40;1;126;125;126;125;125;126;125;125;125;126;
2021-08-13 01:33:40;2;2;1;1;2;1;1;1;1;1;1;
2021-08-13 01:33:40;3;53;53;53;53;53;53;53;53;53;53;
2021-08-13 01:33:40;4;121;121;121;121;121;121;121;121;121;121;
2021-08-13 01:33:40;5;123;122;122;122;122;123;122;122;123;123;
2021-08-13 01:33:40;ht;99;4.50
2021-08-13 01:33:40;v;4.00
2021-08-13 02:03:37;1;137;137;137;137;138;137;138;137;138;137;
2021-08-13 02:03:37;2;119;119;119;119;119;119;119;119;119;119;
2021-08-13 02:03:37;3;54;54;54;54;54;54;54;54;54;54;
2021-08-13 02:03:37;4;119;120;120;120;120;120;120;120;120;120;
2021-08-13 02:03:37;5;125;125;125;125;125;125;125;125;125;125;
2021-08-13 02:03:37;ht;99;2.90
2021-08-13 02:03:37;v;4.00
2021-08-13 02:33:39;1;127;127;127;127;127;127;127;127;127;127;
2021-08-13 02:33:39;2;116;116;116;116;116;117;116;116;117;116;
2021-08-13 02:33:39;3;55;54;54;54;54;54;54;55;54;54;
2021-08-13 02:33:39;4;121;121;122;122;122;122;122;122;122;122;
2021-08-13 02:33:39;5;122;122;122;122;122;122;122;121;122;122;
2021-08-13 02:33:39;ht;99;3.50
2021-08-13 02:33:39;v;4.00
2021-08-13 03:03:41;1;129;130;129;129;129;129;129;129;129;129;
2021-08-13 03:03:41;2;1;1;1;1;1;1;1;1;2;1;
2021-08-13 03:03:41;3;54;54;54;54;54;54;54;54;54;54;
2021-08-13 03:03:41;4;121;121;121;121;121;121;121;121;121;121;
2021-08-13 03:03:41;5;123;123;123;123;123;124;124;123;123;123;
2021-08-13 03:03:41;ht;99;2.40
2021-08-13 03:03:41;v;3.99
2021-08-13 03:33:38;1;126;126;126;126;126;126;126;126;126;126;
2021-08-13 03:33:38;2;122;122;122;122;122;121;122;122;122;122;
2021-08-13 03:33:38;3;55;55;55;55;55;55;55;55;55;55;
2021-08-13 03:33:38;4;125;125;125;125;125;125;125;125;125;125;
2021-08-13 03:33:38;5;124;124;124;124;124;124;124;124;124;124;
2021-08-13 03:33:38;ht;99;2.90
2021-08-13 03:33:38;v;4.00
2021-08-13 04:03:39;1;126;126;126;126;126;125;125;126;125;125;
2021-08-13 04:03:39;2;119;119;119;119;119;119;119;119;119;119;
2021-08-13 04:03:39;3;54;54;54;54;54;54;54;54;54;54;
2021-08-13 04:03:39;4;121;121;121;121;121;121;121;121;121;121;
2021-08-13 04:03:39;5;124;124;124;124;124;124;124;124;124;124;
2021-08-13 04:03:39;ht;99;2.90
2021-08-13 04:03:39;v;4.00
2021-08-13 04:33:36;1;142;142;142;142;142;142;142;142;142;142;
2021-08-13 04:33:36;2;123;123;123;123;123;123;123;123;123;124;
2021-08-13 04:33:36;3;54;54;54;54;54;54;54;54;54;54;
2021-08-13 04:33:36;4;119;120;119;119;120;120;119;119;119;119;
2021-08-13 04:33:36;5;123;123;123;123;123;123;123;123;124;124;
2021-08-13 04:33:36;ht;99;2.20
2021-08-13 04:33:36;v;3.99
2021-08-13 05:03:37;1;136;136;136;136;136;136;136;136;136;136;
2021-08-13 05:03:37;2;122;123;122;122;123;123;122;122;122;122;
2021-08-13 05:03:37;3;55;55;55;55;55;55;55;55;55;55;
2021-08-13 05:03:37;4;127;127;126;127;126;127;127;127;127;126;
2021-08-13 05:03:37;5;119;119;119;119;119;119;119;119;119;119;
2021-08-13 05:03:37;ht;99;2.00
2021-08-13 05:03:37;v;3.99
2021-08-13 05:33:38;1;133;134;134;133;134;133;134;134;134;133;
2021-08-13 05:33:38;2;128;128;128;128;128;128;128;128;128;128;
2021-08-13 05:33:38;3;56;56;56;56;56;56;56;56;56;56;
2021-08-13 05:33:38;4;127;127;127;127;127;127;127;127;127;127;
2021-08-13 05:33:38;5;125;125;125;124;125;125;125;125;125;125;
2021-08-13 05:33:38;ht;99;1.80
2021-08-13 05:33:38;v;3.99
2021-08-13 06:03:39;1;136;136;136;136;136;136;136;136;136;136;
2021-08-13 06:03:39;2;129;129;129;129;129;129;129;129;129;129;
2021-08-13 06:03:39;3;56;56;56;56;56;56;56;56;56;56;
2021-08-13 06:03:39;4;128;128;128;128;128;128;128;128;128;128;
2021-08-13 06:03:39;5;124;124;124;124;124;124;124;124;124;124;
2021-08-13 06:03:39;ht;99;0.90
2021-08-13 06:03:39;v;3.99
2021-08-13 06:33:40;1;136;136;136;136;136;136;136;136;136;137;
2021-08-13 06:33:40;2;129;129;129;129;129;129;129;129;129;129;
2021-08-13 06:33:40;3;56;56;56;56;56;56;56;56;56;56;
2021-08-13 06:33:40;4;126;127;127;126;127;126;126;126;126;126;
2021-08-13 06:33:40;5;118;118;118;119;118;118;118;119;118;118;
2021-08-13 06:33:40;ht;99;0.50
2021-08-13 06:33:40;v;3.99
2021-08-13 07:03:35;1;132;132;132;132;132;132;132;132;132;132;
2021-08-13 07:03:35;2;1;1;1;1;1;1;1;1;1;1;
2021-08-13 07:03:35;3;56;56;56;56;56;56;56;56;56;56;
2021-08-13 07:03:35;4;123;123;123;123;123;123;123;123;123;123;
2021-08-13 07:03:35;5;119;119;119;119;119;120;119;119;119;119;
2021-08-13 07:03:35;ht;99;0.30
2021-08-13 07:03:35;v;3.99
2021-08-13 07:33:36;1;125;125;125;125;125;125;125;125;125;125;
2021-08-13 07:33:36;2;1;1;1;1;1;1;1;1;1;1;
2021-08-13 07:33:36;3;56;56;56;56;56;56;57;56;56;57;
2021-08-13 07:33:36;4;125;125;124;124;125;125;125;125;125;125;
2021-08-13 07:33:36;5;121;121;120;121;121;121;120;121;121;121;
2021-08-13 07:33:36;ht;99;-0.60
2021-08-13 07:33:36;v;3.99
2021-08-13 08:03:36;1;127;127;127;127;127;127;127;127;127;127;
2021-08-13 08:03:36;2;1;1;1;1;1;1;1;1;1;1;
2021-08-13 08:03:36;3;57;57;57;57;57;57;57;57;57;57;
2021-08-13 08:03:36;4;125;125;125;126;126;126;125;126;125;126;
2021-08-13 08:03:36;5;122;123;123;122;122;122;123;122;122;122;
2021-08-13 08:03:36;ht;99;-0.80
2021-08-13 08:03:36;v;3.99
2021-08-13 08:33:36;1;123;124;124;124;124;124;124;123;124;124;
2021-08-13 08:33:36;2;122;122;122;122;122;122;122;122;122;122;
2021-08-13 08:33:36;3;57;57;57;57;57;57;57;57;57;57;
2021-08-13 08:33:36;4;124;125;125;124;124;125;124;125;124;124;
2021-08-13 08:33:36;5;124;124;124;124;124;124;124;124;124;124;
2021-08-13 08:33:36;ht;99;0.80
2021-08-13 08:33:36;v;3.99
2021-08-13 09:03:37;1;124;124;124;124;123;123;124;124;124;123;
2021-08-13 09:03:37;2;121;120;120;121;121;121;121;120;121;121;
2021-08-13 09:03:37;3;55;55;55;55;55;55;55;55;55;55;
2021-08-13 09:03:37;4;122;122;122;122;122;122;122;122;122;122;
2021-08-13 09:03:37;5;122;122;122;122;122;122;122;122;122;122;
2021-08-13 09:03:37;ht;99;3.70
2021-08-13 09:03:37;v;3.99
2021-08-13 09:33:39;1;122;122;122;122;121;122;122;122;122;122;
2021-08-13 09:33:39;2;116;116;117;116;117;117;117;116;117;116;
2021-08-13 09:33:39;3;50;50;50;50;50;50;50;51;50;50;
2021-08-13 09:33:39;4;118;118;118;118;118;118;118;118;118;118;
2021-08-13 09:33:39;5;117;117;117;117;117;116;117;117;117;117;
2021-08-13 09:33:39;ht;99;8.10
2021-08-13 09:33:39;v;4.00
2021-08-13 10:03:40;1;125;125;125;125;125;125;125;125;125;125;
2021-08-13 10:03:40;2;118;118;118;118;118;118;118;118;118;118;
2021-08-13 10:03:40;3;48;48;48;48;48;48;48;48;48;48;
2021-08-13 10:03:40;4;128;128;128;128;128;128;127;127;128;128;
2021-08-13 10:03:40;5;116;117;117;116;116;116;117;116;116;116;
2021-08-13 10:03:40;ht;99;10.50
2021-08-13 10:03:40;v;3.99
2021-08-13 10:33:42;1;121;121;121;121;121;121;121;121;121;121;
2021-08-13 10:33:42;2;133;133;134;134;134;133;133;134;133;134;
2021-08-13 10:33:42;3;47;47;47;47;47;47;47;47;47;47;
2021-08-13 10:33:42;4;125;125;125;125;125;125;125;125;125;125;
2021-08-13 10:33:42;5;129;129;129;129;129;129;129;129;129;129;
2021-08-13 10:33:42;ht;99;12.10
2021-08-13 10:33:42;v;4.00
2021-08-13 11:03:46;1;120;120;120;120;120;120;120;120;120;120;
2021-08-13 11:03:46;2;114;114;114;114;114;114;114;114;114;114;
2021-08-13 11:03:46;3;45;45;45;45;45;45;45;45;45;45;
2021-08-13 11:03:46;4;120;120;121;120;120;120;120;120;120;120;
2021-08-13 11:03:46;5;119;119;119;119;119;119;119;119;119;119;
2021-08-13 11:03:46;ht;99;13.60
2021-08-13 11:03:46;v;4.00
2021-08-13 11:33:47;1;121;121;121;121;121;121;121;121;121;121;
2021-08-13 11:33:47;2;127;127;127;127;127;127;127;127;127;127;
2021-08-13 11:33:47;3;44;44;44;44;44;44;44;44;44;44;
2021-08-13 11:33:47;4;120;120;120;120;120;120;120;120;120;120;
2021-08-13 11:33:47;5;124;124;124;124;125;124;125;124;125;124;
2021-08-13 11:33:47;ht;99;15.00
2021-08-13 11:33:47;v;4.00
2021-08-13 12:03:49;1;119;119;119;119;119;119;119;119;119;119;
2021-08-13 12:03:49;2;127;127;127;127;127;127;127;127;127;127;
2021-08-13 12:03:49;3;41;42;42;42;42;42;42;41;42;42;
2021-08-13 12:03:49;4;120;120;120;120;120;120;120;120;120;120;
2021-08-13 12:03:49;5;121;121;121;121;121;121;121;121;121;121;
2021-08-13 12:03:49;ht;99;14.20
2021-08-13 12:03:49;v;4.00
2021-08-13 12:33:46;1;120;120;120;120;120;120;120;120;120;120;
2021-08-13 12:33:46;2;117;117;117;117;117;117;117;117;117;117;
2021-08-13 12:33:46;3;43;43;43;43;43;43;43;43;43;43;
2021-08-13 12:33:46;4;120;120;120;120;120;120;120;120;120;120;
2021-08-13 12:33:46;5;121;121;121;121;121;121;121;121;121;121;
2021-08-13 12:33:46;ht;99;15.40
2021-08-13 12:33:46;v;4.00
2021-08-13 13:03:49;1;120;120;120;120;120;120;120;120;120;120;
2021-08-13 13:03:49;2;117;117;117;117;118;118;118;117;125;118;
2021-08-13 13:03:49;3;42;42;42;42;42;42;42;42;42;42;
2021-08-13 13:03:49;4;119;119;119;120;120;119;120;120;119;119;
2021-08-13 13:03:49;5;118;118;118;118;118;118;118;118;118;118;
2021-08-13 13:03:49;ht;99;16.50
2021-08-13 13:03:49;v;4.00
2021-08-13 13:33:49;1;122;122;122;122;122;122;122;122;122;122;
2021-08-13 13:33:49;2;129;129;129;129;129;129;129;129;129;129;
2021-08-13 13:33:49;3;40;40;40;40;40;40;40;40;40;41;
2021-08-13 13:33:49;4;123;123;122;122;122;122;122;122;122;122;
2021-08-13 13:33:49;5;122;122;122;122;122;122;122;122;122;122;
2021-08-13 13:33:49;ht;99;16.10
2021-08-13 13:33:49;v;4.00
2021-08-13 14:03:48;1;121;121;121;121;121;121;121;121;121;121;
2021-08-13 14:03:48;2;119;119;119;119;119;119;119;119;119;119;
2021-08-13 14:03:48;3;41;41;41;41;41;41;42;41;41;41;
2021-08-13 14:03:48;4;124;123;122;122;122;122;122;122;122;122;
2021-08-13 14:03:48;5;125;125;125;125;125;125;125;125;125;125;
2021-08-13 14:03:48;ht;99;15.40
2021-08-13 14:03:48;v;4.00
2021-08-13 14:33:47;1;124;124;124;124;124;124;124;124;124;124;
2021-08-13 14:33:47;2;127;127;127;127;127;127;127;127;127;127;
2021-08-13 14:33:47;3;41;41;41;41;41;41;41;41;41;41;
2021-08-13 14:33:47;4;122;122;122;122;122;122;122;122;122;122;
2021-08-13 14:33:47;5;116;116;116;116;116;116;116;116;116;116;
2021-08-13 14:33:47;ht;97;17.40
2021-08-13 14:33:47;v;4.00
2021-08-13 15:03:51;1;121;121;121;121;121;121;121;121;121;121;
2021-08-13 15:03:51;2;125;125;125;125;125;125;125;125;125;125;
2021-08-13 15:03:51;3;41;41;41;41;41;41;41;41;41;41;
2021-08-13 15:03:51;4;119;119;119;119;119;119;119;119;119;119;
2021-08-13 15:03:51;5;115;115;115;115;115;115;115;115;115;115;
2021-08-13 15:03:51;ht;95;17.00
2021-08-13 15:03:51;v;4.00
2021-08-13 15:33:50;1;121;121;121;121;121;121;121;121;121;121;
2021-08-13 15:33:50;2;126;126;126;126;126;126;126;126;126;126;
2021-08-13 15:33:50;3;41;41;41;42;41;41;42;41;41;42;
2021-08-13 15:33:50;4;122;122;122;122;122;122;122;122;122;122;
2021-08-13 15:33:50;5;118;118;118;118;118;118;118;118;118;118;
2021-08-13 15:33:50;ht;96;15.80
2021-08-13 15:33:50;v;4.00
2021-08-13 16:03:49;1;116;116;116;116;116;116;116;116;116;116;
2021-08-13 16:03:49;2;130;130;130;130;130;130;130;130;130;130;
2021-08-13 16:03:49;3;42;42;42;42;42;42;42;42;42;42;
2021-08-13 16:03:49;4;118;118;118;118;118;118;118;118;118;118;
2021-08-13 16:03:49;5;117;116;116;117;116;117;117;117;117;116;
2021-08-13 16:03:49;ht;89;17.20
2021-08-13 16:03:49;v;4.00
2021-08-13 16:33:48;1;124;124;124;124;124;124;124;124;124;124;
2021-08-13 16:33:48;2;121;120;121;121;121;121;121;121;121;120;
2021-08-13 16:33:48;3;41;41;41;41;41;41;41;41;41;41;
2021-08-13 16:33:48;4;118;118;118;118;118;118;118;118;118;118;
2021-08-13 16:33:48;5;119;119;119;119;119;119;119;119;119;119;
2021-08-13 16:33:48;ht;90;16.20
2021-08-13 16:33:48;v;4.00
2021-08-13 17:03:46;1;125;125;125;125;125;124;125;125;124;125;
2021-08-13 17:03:46;2;121;120;121;121;121;121;121;120;121;121;
2021-08-13 17:03:46;3;41;41;41;41;41;41;41;41;41;41;
2021-08-13 17:03:46;4;120;120;120;120;120;119;119;119;120;119;
2021-08-13 17:03:46;5;122;122;122;122;121;122;122;122;122;121;
2021-08-13 17:03:46;ht;96;14.40
2021-08-13 17:03:46;v;4.00
2021-08-13 17:33:47;1;125;125;124;125;125;125;125;125;125;125;
2021-08-13 17:33:47;2;119;119;119;118;118;118;118;118;118;118;
2021-08-13 17:33:47;3;44;43;43;43;43;43;43;43;43;44;
2021-08-13 17:33:47;4;122;122;121;122;121;122;122;122;122;122;
2021-08-13 17:33:47;5;123;122;122;122;123;122;122;123;122;122;
2021-08-13 17:33:47;ht;99;13.80
2021-08-13 17:33:47;v;4.00
2021-08-13 18:03:46;1;123;123;123;123;123;123;123;123;123;123;
2021-08-13 18:03:46;2;123;123;123;123;123;123;123;123;123;123;
2021-08-13 18:03:46;3;44;44;44;44;44;44;44;44;44;44;
2021-08-13 18:03:46;4;122;122;122;122;122;122;122;122;122;122;
2021-08-13 18:03:46;5;121;121;121;121;121;121;121;121;121;121;
2021-08-13 18:03:46;ht;99;13.30
2021-08-13 18:03:46;v;4.00
2021-08-13 18:33:46;1;122;122;122;122;122;122;122;122;122;122;
2021-08-13 18:33:46;2;114;113;114;114;114;114;113;113;114;113;
2021-08-13 18:33:46;3;44;45;45;45;44;45;44;45;44;45;
2021-08-13 18:33:46;4;121;121;121;121;121;121;121;121;121;121;
2021-08-13 18:33:46;5;118;118;118;117;117;118;118;117;118;117;
2021-08-13 18:33:46;ht;99;11.70
2021-08-13 18:33:46;v;4.00
2021-08-13 19:03:44;1;120;120;120;119;119;120;120;120;119;120;
2021-08-13 19:03:44;2;139;140;140;140;140;140;140;140;140;140;
2021-08-13 19:03:44;3;46;46;46;46;46;46;46;46;46;46;
2021-08-13 19:03:44;4;121;121;121;121;121;121;121;121;122;122;
2021-08-13 19:03:44;5;123;124;123;123;123;124;123;123;123;123;
2021-08-13 19:03:44;ht;99;11.60
2021-08-13 19:03:44;v;4.00
2021-08-13 19:33:41;1;120;120;120;120;120;120;120;120;120;120;
2021-08-13 19:33:41;2;124;125;125;125;125;125;125;125;125;125;
2021-08-13 19:33:41;3;47;47;47;47;47;47;47;47;47;47;
2021-08-13 19:33:41;4;118;119;119;119;118;119;119;119;119;119;
2021-08-13 19:33:41;5;119;120;120;119;120;120;120;120;119;120;
2021-08-13 19:33:41;ht;99;12.00
2021-08-13 19:33:41;v;4.00
2021-08-13 20:03:43;1;120;119;120;120;120;119;120;120;119;120;
2021-08-13 20:03:43;2;125;124;124;124;124;125;125;125;124;124;
2021-08-13 20:03:43;3;47;47;47;48;47;47;47;47;47;47;
2021-08-13 20:03:43;4;119;119;119;119;119;119;119;119;119;119;
2021-08-13 20:03:43;5;123;123;123;123;123;123;123;123;123;123;
2021-08-13 20:03:43;ht;99;9.60
2021-08-13 20:03:43;v;4.00
2021-08-13 20:33:39;1;121;120;121;120;121;121;120;120;121;121;
2021-08-13 20:33:39;2;126;125;126;125;126;125;125;125;125;125;
2021-08-13 20:33:39;3;49;49;49;49;49;49;49;49;49;49;
2021-08-13 20:33:39;4;119;119;119;119;120;119;119;119;120;119;
2021-08-13 20:33:39;5;122;122;122;122;123;122;123;123;123;123;
2021-08-13 20:33:39;ht;99;9.70
2021-08-13 20:33:39;v;4.00
2021-08-13 21:03:40;1;123;123;123;122;123;123;122;122;123;122;
2021-08-13 21:03:40;2;126;126;126;126;126;126;126;126;126;126;
2021-08-13 21:03:40;3;50;49;49;49;50;49;49;50;49;49;
2021-08-13 21:03:40;4;121;121;120;120;120;121;120;120;121;121;
2021-08-13 21:03:40;5;120;120;120;120;120;120;120;120;120;120;
2021-08-13 21:03:40;ht;99;8.50
2021-08-13 21:03:40;v;3.99
2021-08-13 21:33:40;1;122;122;122;122;122;122;122;122;122;122;
2021-08-13 21:33:40;2;125;124;124;125;124;125;124;125;125;124;
2021-08-13 21:33:40;3;50;50;50;50;50;50;50;50;50;50;
2021-08-13 21:33:40;4;120;120;120;120;120;120;120;120;120;120;
2021-08-13 21:33:40;5;121;121;120;121;121;121;121;121;121;121;
2021-08-13 21:33:40;ht;99;9.30
2021-08-13 21:33:40;v;4.00
2021-08-13 22:03:40;1;123;123;123;123;123;123;123;123;123;123;
2021-08-13 22:03:40;2;124;124;124;124;124;124;124;124;124;124;
2021-08-13 22:03:40;3;50;49;49;50;49;50;50;49;49;49;
2021-08-13 22:03:40;4;121;121;121;121;121;121;121;121;121;121;
2021-08-13 22:03:40;5;123;123;122;123;122;123;123;123;123;123;
2021-08-13 22:03:40;ht;99;5.70
2021-08-13 22:03:40;v;3.99
2021-08-13 22:33:39;1;123;123;123;123;123;123;123;123;123;123;
2021-08-13 22:33:39;2;125;126;126;126;125;126;126;126;126;126;
2021-08-13 22:33:39;3;51;51;51;50;51;51;51;51;51;51;
2021-08-13 22:33:39;4;121;121;121;120;120;121;120;121;120;121;
2021-08-13 22:33:39;5;121;121;121;121;121;121;121;121;121;121;
2021-08-13 22:33:39;ht;99;6.70
2021-08-13 22:33:39;v;3.99
2021-08-13 23:03:43;1;123;123;123;123;123;123;123;123;123;123;
2021-08-13 23:03:43;2;120;119;120;120;120;120;120;120;120;120;
2021-08-13 23:03:43;3;52;52;52;51;52;52;52;52;51;51;
2021-08-13 23:03:43;4;121;120;121;120;121;120;120;121;120;121;
2021-08-13 23:03:43;5;120;121;120;120;120;120;120;120;120;120;
2021-08-13 23:03:43;ht;99;6.90
2021-08-13 23:03:43;v;3.99
2021-08-13 23:33:42;1;122;122;122;122;122;122;122;122;122;122;
2021-08-13 23:33:42;2;123;123;123;123;123;123;123;123;123;123;
2021-08-13 23:33:42;3;51;51;51;51;51;51;51;51;51;51;
2021-08-13 23:33:42;4;120;120;120;120;120;120;120;120;120;120;
2021-08-13 23:33:42;5;120;119;120;120;119;119;120;119;120;120;
2021-08-13 23:33:42;ht;99;6.50
2021-08-13 23:33:42;v;3.99
