2021-08-04 00:03:39;1;120;120;120;120;120;120;120;120;120;120;
2021-08-04 00:03:39;2;123;123;123;123;123;123;123;123;123;123;
2021-08-04 00:03:39;3;52;52;52;52;52;52;52;52;52;52;
2021-08-04 00:03:39;4;125;125;125;125;126;125;126;125;125;125;
2021-08-04 00:03:39;5;130;129;129;129;129;129;130;129;130;129;
2021-08-04 00:03:39;ht;99;5.50
2021-08-04 00:03:39;v;3.86
2021-08-04 00:33:42;1;121;121;121;121;121;121;120;121;120;121;
2021-08-04 00:33:42;2;124;124;124;124;124;124;124;124;124;124;
2021-08-04 00:33:42;3;53;53;53;53;53;53;53;53;53;53;
2021-08-04 00:33:42;4;130;130;130;129;130;129;130;130;130;130;
2021-08-04 00:33:42;5;122;122;122;122;122;122;122;122;122;122;
2021-08-04 00:33:42;ht;99;4.70
2021-08-04 00:33:42;v;3.85
2021-08-04 01:03:36;1;119;119;119;119;120;120;119;119;119;119;
2021-08-04 01:03:36;2;125;125;125;126;125;125;125;125;125;125;
2021-08-04 01:03:36;3;54;54;53;54;53;53;53;53;54;53;
2021-08-04 01:03:36;4;123;123;122;123;123;122;123;123;123;123;
2021-08-04 01:03:36;5;125;124;124;125;124;125;125;125;125;125;
2021-08-04 01:03:36;ht;99;3.60
2021-08-04 01:03:36;v;3.85
2021-08-04 01:33:39;1;127;127;127;127;127;127;127;127;127;127;
2021-08-04 01:33:39;2;130;130;130;130;130;130;130;130;130;130;
2021-08-04 01:33:39;3;54;54;54;55;55;55;55;55;55;55;
2021-08-04 01:33:39;4;126;126;126;126;126;126;126;126;126;126;
2021-08-04 01:33:39;5;129;129;129;129;129;129;129;129;129;129;
2021-08-04 01:33:39;ht;99;4.00
2021-08-04 01:33:39;v;3.85
2021-08-04 02:03:41;1;123;123;123;123;123;123;123;123;123;123;
2021-08-04 02:03:41;2;126;126;126;126;126;126;126;126;126;126;
2021-08-04 02:03:41;3;55;55;55;55;55;55;55;55;55;55;
2021-08-04 02:03:41;4;128;128;128;128;128;128;128;128;128;128;
2021-08-04 02:03:41;5;121;121;121;121;121;121;121;121;121;121;
2021-08-04 02:03:41;ht;99;4.20
2021-08-04 02:03:41;v;3.85
2021-08-04 02:33:39;1;122;122;122;122;121;122;122;122;122;122;
2021-08-04 02:33:39;2;131;131;131;131;131;131;131;131;131;131;
2021-08-04 02:33:39;3;55;55;55;55;55;55;55;55;55;55;
2021-08-04 02:33:39;4;127;127;127;127;127;127;127;127;127;127;
2021-08-04 02:33:39;5;123;122;122;122;122;122;122;122;122;121;
2021-08-04 02:33:39;ht;99;4.40
2021-08-04 02:33:39;v;3.85
2021-08-04 03:03:41;1;121;121;121;121;121;121;121;121;121;121;
2021-08-04 03:03:41;2;121;120;120;120;120;120;120;120;120;120;
2021-08-04 03:03:41;3;55;55;55;55;55;55;55;55;55;55;
2021-08-04 03:03:41;4;127;127;127;127;127;127;127;127;127;127;
2021-08-04 03:03:41;5;124;124;125;124;124;124;124;124;124;124;
2021-08-04 03:03:41;ht;99;4.80
2021-08-04 03:03:41;v;3.85
2021-08-04 03:33:40;1;123;123;123;123;123;123;123;123;123;123;
2021-08-04 03:33:40;2;118;118;118;118;118;118;118;118;118;118;
2021-08-04 03:33:40;3;54;54;54;54;54;54;54;54;54;54;
2021-08-04 03:33:40;4;127;127;127;127;127;127;127;126;127;127;
2021-08-04 03:33:40;5;135;135;135;136;136;136;136;136;135;135;
2021-08-04 03:33:40;ht;99;3.70
2021-08-04 03:33:40;v;3.85
2021-08-04 04:03:37;1;124;124;124;124;124;124;124;124;124;124;
2021-08-04 04:03:37;2;119;119;119;119;119;119;119;119;119;119;
2021-08-04 04:03:37;3;56;56;56;56;56;56;56;56;56;56;
2021-08-04 04:03:37;4;131;131;131;131;131;131;131;131;131;131;
2021-08-04 04:03:37;5;122;121;121;122;122;122;121;121;121;122;
2021-08-04 04:03:37;ht;99;2.90
2021-08-04 04:03:37;v;3.85
2021-08-04 04:33:39;1;125;125;125;125;125;125;125;125;125;125;
2021-08-04 04:33:39;2;116;116;116;116;116;116;116;116;116;116;
2021-08-04 04:33:39;3;55;55;55;55;55;55;55;55;55;55;
2021-08-04 04:33:39;4;127;127;126;126;127;126;127;127;127;127;
2021-08-04 04:33:39;5;119;118;118;118;119;119;119;119;119;119;
2021-08-04 04:33:39;ht;99;2.50
2021-08-04 04:33:39;v;3.85
2021-08-04 05:03:37;1;121;121;121;121;121;122;122;121;121;121;
2021-08-04 05:03:37;2;118;118;118;118;118;118;118;118;118;118;
2021-08-04 05:03:37;3;56;56;56;56;56;56;56;56;56;56;
2021-08-04 05:03:37;4;124;124;123;124;124;123;124;123;124;124;
2021-08-04 05:03:37;5;132;132;132;132;132;132;132;132;132;132;
2021-08-04 05:03:37;ht;99;2.70
2021-08-04 05:03:37;v;3.85
2021-08-04 05:33:38;1;123;123;123;123;123;123;123;123;123;123;
2021-08-04 05:33:38;2;2;2;2;2;2;2;2;2;2;2;
2021-08-04 05:33:38;3;57;57;57;57;57;57;57;57;57;57;
2021-08-04 05:33:38;4;136;136;136;136;136;136;136;136;136;136;
2021-08-04 05:33:38;5;128;128;128;128;128;128;128;128;128;128;
2021-08-04 05:33:38;ht;99;2.90
2021-08-04 05:33:38;v;3.85
2021-08-04 06:03:40;1;123;123;123;123;123;123;123;123;123;123;
2021-08-04 06:03:40;2;125;125;125;125;125;125;125;125;125;125;
2021-08-04 06:03:40;3;56;56;56;56;56;56;56;56;56;56;
2021-08-04 06:03:40;4;135;135;135;135;135;135;135;135;135;135;
2021-08-04 06:03:40;5;129;129;129;129;129;129;129;129;129;129;
2021-08-04 06:03:40;ht;99;2.60
2021-08-04 06:03:40;v;3.85
2021-08-04 06:33:37;1;122;122;121;121;121;121;122;121;121;121;
2021-08-04 06:33:37;2;2;2;2;2;2;2;2;1;2;2;
2021-08-04 06:33:37;3;56;56;56;56;56;56;56;56;56;56;
2021-08-04 06:33:37;4;126;127;126;126;126;126;127;126;127;126;
2021-08-04 06:33:37;5;130;130;130;130;130;130;130;130;130;130;
2021-08-04 06:33:37;ht;99;2.40
2021-08-04 06:33:37;v;3.85
2021-08-04 07:03:39;1;124;124;124;124;124;124;124;124;124;124;
2021-08-04 07:03:39;2;117;116;117;117;117;117;116;116;117;117;
2021-08-04 07:03:39;3;57;57;56;57;56;56;56;56;56;56;
2021-08-04 07:03:39;4;127;127;127;127;127;127;127;127;127;127;
2021-08-04 07:03:39;5;128;128;128;128;128;128;128;128;128;128;
2021-08-04 07:03:39;ht;99;2.50
2021-08-04 07:03:39;v;3.85
2021-08-04 07:33:40;1;124;124;124;124;124;123;123;124;124;123;
2021-08-04 07:33:40;2;126;126;126;126;126;126;126;126;125;126;
2021-08-04 07:33:40;3;57;57;57;57;57;57;57;57;57;57;
2021-08-04 07:33:40;4;129;129;129;129;129;129;129;129;129;129;
2021-08-04 07:33:40;5;117;117;118;118;117;118;117;118;118;117;
2021-08-04 07:33:40;ht;99;1.30
2021-08-04 07:33:40;v;3.85
2021-08-04 08:03:37;1;123;123;123;123;123;123;123;123;123;123;
2021-08-04 08:03:37;2;127;127;127;127;127;126;127;127;127;126;
2021-08-04 08:03:37;3;58;58;58;58;58;58;58;58;58;58;
2021-08-04 08:03:37;4;127;127;127;127;127;127;127;127;127;127;
2021-08-04 08:03:37;5;121;120;121;120;121;121;121;121;120;121;
2021-08-04 08:03:37;ht;99;3.20
2021-08-04 08:03:37;v;3.85
2021-08-04 08:33:39;1;123;123;123;123;123;123;123;123;123;123;
2021-08-04 08:33:39;2;120;120;120;120;120;120;120;120;120;120;
2021-08-04 08:33:39;3;53;54;54;54;54;54;54;54;53;54;
2021-08-04 08:33:39;4;123;123;123;123;123;123;123;123;123;123;
2021-08-04 08:33:39;5;128;128;128;128;128;128;128;128;128;128;
2021-08-04 08:33:39;ht;99;4.40
2021-08-04 08:33:39;v;3.85
2021-08-04 09:03:42;1;128;128;128;128;128;128;128;128;128;128;
2021-08-04 09:03:42;2;118;118;118;118;118;118;118;118;118;117;
2021-08-04 09:03:42;3;53;53;53;53;53;53;53;53;53;53;
2021-08-04 09:03:42;4;120;120;120;120;120;119;120;120;119;119;
2021-08-04 09:03:42;5;129;129;129;129;129;129;129;129;129;129;
2021-08-04 09:03:42;ht;99;7.50
2021-08-04 09:03:42;v;3.85
2021-08-04 09:33:42;1;120;120;120;120;120;120;120;120;120;120;
2021-08-04 09:33:42;2;118;118;118;118;118;118;118;118;118;118;
2021-08-04 09:33:42;3;49;50;49;49;49;49;49;49;49;49;
2021-08-04 09:33:42;4;127;127;127;127;127;127;127;127;127;127;
2021-08-04 09:33:42;5;120;120;119;120;120;120;120;120;120;120;
2021-08-04 09:33:42;ht;99;10.20
2021-08-04 09:33:42;v;3.85
2021-08-04 10:03:44;1;121;121;120;121;121;121;121;121;121;121;
2021-08-04 10:03:44;2;118;119;119;119;118;118;118;119;119;118;
2021-08-04 10:03:44;3;48;48;48;48;48;48;48;48;48;48;
2021-08-04 10:03:44;4;122;122;122;122;122;122;122;122;122;122;
2021-08-04 10:03:44;5;117;117;117;117;117;118;117;117;117;117;
2021-08-04 10:03:44;ht;99;12.20
2021-08-04 10:03:44;v;3.85
2021-08-04 10:33:43;1;124;123;124;123;124;124;124;124;124;124;
2021-08-04 10:33:43;2;117;117;117;117;116;117;117;117;116;117;
2021-08-04 10:33:43;3;46;46;46;46;46;46;46;46;46;46;
2021-08-04 10:33:43;4;125;125;125;125;125;125;126;126;126;125;
2021-08-04 10:33:43;5;117;118;118;117;117;117;117;118;118;117;
2021-08-04 10:33:43;ht;99;14.50
2021-08-04 10:33:43;v;3.85
2021-08-04 11:03:48;1;118;118;118;118;118;118;118;118;118;118;
2021-08-04 11:03:48;2;117;117;117;117;117;117;117;117;117;117;
2021-08-04 11:03:48;3;45;45;45;45;45;45;45;45;45;45;
2021-08-04 11:03:48;4;124;124;124;124;124;124;124;124;124;124;
2021-08-04 11:03:48;5;117;117;117;117;117;117;117;117;117;117;
2021-08-04 11:03:48;ht;99;16.80
2021-08-04 11:03:48;v;3.85
2021-08-04 11:33:46;1;121;121;121;121;121;121;121;121;121;121;
2021-08-04 11:33:46;2;120;120;120;120;119;120;120;120;120;120;
2021-08-04 11:33:46;3;44;44;44;44;44;44;44;44;44;44;
2021-08-04 11:33:46;4;119;119;119;119;119;119;119;119;119;119;
2021-08-04 11:33:46;5;118;118;118;118;118;118;118;118;118;118;
2021-08-04 11:33:46;ht;99;17.70
2021-08-04 11:33:46;v;3.85
2021-08-04 12:03:50;1;119;119;119;119;119;119;119;119;119;119;
2021-08-04 12:03:50;2;119;119;119;119;119;119;119;119;119;119;
2021-08-04 12:03:50;3;43;43;42;43;43;43;43;43;43;42;
2021-08-04 12:03:50;4;122;122;122;122;122;122;122;122;122;122;
2021-08-04 12:03:50;5;117;117;117;117;117;117;117;117;117;117;
2021-08-04 12:03:50;ht;96;19.00
2021-08-04 12:03:50;v;3.85
2021-08-04 12:33:51;1;121;121;121;121;121;120;121;121;120;121;
2021-08-04 12:33:51;2;118;118;118;118;118;118;118;118;118;118;
2021-08-04 12:33:51;3;41;41;41;41;41;41;41;41;41;41;
2021-08-04 12:33:51;4;124;124;124;124;125;125;125;124;125;124;
2021-08-04 12:33:51;5;116;116;116;116;116;116;116;116;116;116;
2021-08-04 12:33:51;ht;89;19.70
2021-08-04 12:33:51;v;3.85
2021-08-04 13:03:52;1;119;119;119;119;119;119;119;119;119;119;
2021-08-04 13:03:52;2;115;115;115;115;115;115;115;115;115;115;
2021-08-04 13:03:52;3;41;41;41;41;41;41;41;41;41;41;
2021-08-04 13:03:52;4;123;123;123;123;123;123;123;123;123;123;
2021-08-04 13:03:52;5;118;118;118;118;118;118;118;118;118;118;
2021-08-04 13:03:52;ht;76;20.40
2021-08-04 13:03:52;v;3.85
2021-08-04 13:33:49;1;120;120;120;120;120;120;120;120;120;120;
2021-08-04 13:33:49;2;113;112;113;113;113;113;112;112;113;113;
2021-08-04 13:33:49;3;41;41;41;41;41;41;41;41;41;41;
2021-08-04 13:33:49;4;117;117;117;117;116;117;117;117;117;117;
2021-08-04 13:33:49;5;115;115;115;115;116;115;115;116;116;116;
2021-08-04 13:33:49;ht;73;21.10
2021-08-04 13:33:49;v;3.85
2021-08-04 14:03:52;1;126;126;126;126;126;126;126;126;126;126;
2021-08-04 14:03:52;2;120;120;120;120;120;120;120;120;120;120;
2021-08-04 14:03:52;3;40;40;40;40;40;40;40;40;40;40;
2021-08-04 14:03:52;4;122;122;122;122;122;122;122;122;122;122;
2021-08-04 14:03:52;5;116;116;116;116;116;116;116;116;116;116;
2021-08-04 14:03:52;ht;69;21.70
2021-08-04 14:03:52;v;3.85
2021-08-04 14:33:50;1;121;121;121;121;121;121;121;121;121;121;
2021-08-04 14:33:50;2;133;133;134;133;133;133;133;133;133;133;
2021-08-04 14:33:50;3;40;40;40;40;40;40;40;40;40;40;
2021-08-04 14:33:50;4;120;120;120;120;120;120;120;120;120;120;
2021-08-04 14:33:50;5;119;119;119;119;119;119;119;119;119;119;
2021-08-04 14:33:50;ht;64;21.60
2021-08-04 14:33:50;v;3.85
2021-08-04 15:03:53;1;122;122;122;122;122;122;122;122;122;122;
2021-08-04 15:03:53;2;113;114;114;114;113;113;114;113;114;113;
2021-08-04 15:03:53;3;40;40;40;40;40;40;40;40;40;39;
2021-08-04 15:03:53;4;121;121;121;121;121;121;121;121;121;121;
2021-08-04 15:03:53;5;119;119;119;119;119;119;119;119;119;119;
2021-08-04 15:03:53;ht;59;21.70
2021-08-04 15:03:53;v;3.85
2021-08-04 15:33:52;1;127;127;127;127;127;127;127;127;127;127;
2021-08-04 15:33:52;2;119;119;118;119;119;119;119;119;118;119;
2021-08-04 15:33:52;3;41;41;41;41;41;41;41;41;41;41;
2021-08-04 15:33:52;4;122;122;122;122;122;122;122;122;121;122;
2021-08-04 15:33:52;5;120;120;120;119;119;120;120;120;120;120;
2021-08-04 15:33:52;ht;57;22.10
2021-08-04 15:33:52;v;3.85
2021-08-04 16:03:50;1;122;122;122;122;122;122;122;122;121;122;
2021-08-04 16:03:50;2;121;121;121;121;121;121;121;121;121;121;
2021-08-04 16:03:50;3;41;41;41;41;41;41;41;41;41;41;
2021-08-04 16:03:50;4;122;122;122;122;122;122;122;122;122;122;
2021-08-04 16:03:50;5;118;118;118;118;118;118;118;118;118;118;
2021-08-04 16:03:50;ht;58;22.00
2021-08-04 16:03:50;v;3.85
2021-08-04 16:33:53;1;122;122;122;122;122;122;122;122;122;122;
2021-08-04 16:33:53;2;110;111;111;110;110;111;111;111;111;111;
2021-08-04 16:33:53;3;40;40;40;40;40;40;41;40;40;40;
2021-08-04 16:33:53;4;121;121;121;121;121;121;121;121;121;121;
2021-08-04 16:33:53;5;117;117;117;117;117;117;117;117;117;117;
2021-08-04 16:33:53;ht;57;21.60
2021-08-04 16:33:53;v;3.85
2021-08-04 17:03:51;1;126;125;126;126;126;125;126;125;126;126;
2021-08-04 17:03:51;2;124;124;124;124;124;124;124;124;124;124;
2021-08-04 17:03:51;3;40;40;40;39;40;39;40;40;40;39;
2021-08-04 17:03:51;4;117;117;117;117;117;117;117;117;117;117;
2021-08-04 17:03:51;5;120;119;119;119;119;119;119;119;119;119;
2021-08-04 17:03:51;ht;63;21.40
2021-08-04 17:03:51;v;3.85
2021-08-04 17:33:52;1;126;126;126;126;126;126;126;126;126;126;
2021-08-04 17:33:52;2;117;117;117;117;117;117;117;117;117;117;
2021-08-04 17:33:52;3;40;40;40;40;40;40;40;40;40;40;
2021-08-04 17:33:52;4;122;122;122;122;122;122;122;122;122;122;
2021-08-04 17:33:52;5;123;123;123;123;123;123;123;123;123;123;
2021-08-04 17:33:52;ht;65;20.30
2021-08-04 17:33:52;v;3.85
2021-08-04 18:03:48;1;121;121;121;121;121;121;121;121;121;121;
2021-08-04 18:03:48;2;125;125;125;125;125;125;125;125;125;125;
2021-08-04 18:03:48;3;40;40;40;40;40;40;40;40;40;40;
2021-08-04 18:03:48;4;122;122;122;122;122;122;122;122;122;122;
2021-08-04 18:03:48;5;113;113;113;113;113;113;113;113;113;113;
2021-08-04 18:03:48;ht;80;18.10
2021-08-04 18:03:48;v;3.85
2021-08-04 18:33:47;1;121;121;121;121;121;121;121;121;121;121;
2021-08-04 18:33:47;2;120;120;120;120;120;120;120;120;120;119;
2021-08-04 18:33:47;3;40;40;40;40;40;40;41;40;40;41;
2021-08-04 18:33:47;4;122;122;122;122;122;122;122;122;122;122;
2021-08-04 18:33:47;5;115;115;115;115;114;115;115;115;115;115;
2021-08-04 18:33:47;ht;96;14.00
2021-08-04 18:33:47;v;3.85
2021-08-04 19:03:47;1;123;123;123;123;123;123;123;123;123;123;
2021-08-04 19:03:47;2;119;119;119;119;119;119;119;119;119;119;
2021-08-04 19:03:47;3;44;44;44;44;44;44;44;44;44;45;
2021-08-04 19:03:47;4;121;122;121;122;122;122;121;122;121;121;
2021-08-04 19:03:47;5;118;119;119;119;119;118;118;118;119;119;
2021-08-04 19:03:47;ht;91;14.70
2021-08-04 19:03:47;v;3.85
2021-08-04 19:33:42;1;124;124;124;124;124;124;124;123;124;124;
2021-08-04 19:33:42;2;120;120;120;120;120;119;120;120;120;120;
2021-08-04 19:33:42;3;45;45;45;45;45;45;45;45;45;45;
2021-08-04 19:33:42;4;120;120;119;120;119;120;119;120;120;120;
2021-08-04 19:33:42;5;118;117;117;117;118;118;117;118;118;118;
2021-08-04 19:33:42;ht;94;12.90
2021-08-04 19:33:42;v;3.85
2021-08-04 20:03:46;1;121;121;121;121;121;121;121;121;121;121;
2021-08-04 20:03:46;2;127;127;127;127;127;127;127;127;127;127;
2021-08-04 20:03:46;3;47;47;47;47;47;47;46;47;47;47;
2021-08-04 20:03:46;4;116;117;117;117;117;117;117;117;117;117;
2021-08-04 20:03:46;5;117;117;117;117;117;117;117;117;117;117;
2021-08-04 20:03:46;ht;90;14.20
2021-08-04 20:03:46;v;3.85
2021-08-04 20:33:45;1;125;124;125;125;124;125;124;125;124;124;
2021-08-04 20:33:45;2;119;119;118;119;119;118;118;118;119;118;
2021-08-04 20:33:45;3;46;46;46;46;46;47;47;47;47;47;
2021-08-04 20:33:45;4;117;117;117;117;117;117;117;117;117;117;
2021-08-04 20:33:45;5;117;117;117;117;117;117;117;117;117;117;
2021-08-04 20:33:45;ht;93;12.80
2021-08-04 20:33:45;v;3.85
2021-08-04 21:03:43;1;124;123;124;123;123;124;124;123;123;124;
2021-08-04 21:03:43;2;118;119;118;118;118;119;118;119;119;119;
2021-08-04 21:03:43;3;46;47;47;47;47;46;47;47;46;46;
2021-08-04 21:03:43;4;115;116;115;115;116;116;116;115;116;115;
2021-08-04 21:03:43;5;131;131;131;131;131;132;132;132;131;131;
2021-08-04 21:03:43;ht;99;10.10
2021-08-04 21:03:43;v;3.85
2021-08-04 21:33:44;1;124;124;124;123;124;124;123;124;123;124;
2021-08-04 21:33:44;2;120;120;120;120;120;120;120;120;120;120;
2021-08-04 21:33:44;3;48;48;48;48;48;48;48;48;48;48;
2021-08-04 21:33:44;4;122;122;122;122;122;123;122;122;122;122;
2021-08-04 21:33:44;5;122;122;122;122;123;122;122;122;122;122;
2021-08-04 21:33:44;ht;99;11.10
2021-08-04 21:33:44;v;3.85
2021-08-04 22:03:41;1;124;124;124;124;124;124;124;124;124;123;
2021-08-04 22:03:41;2;121;121;121;121;121;121;121;122;121;122;
2021-08-04 22:03:41;3;49;48;49;49;49;49;49;49;49;49;
2021-08-04 22:03:41;4;121;121;121;121;121;121;121;121;121;121;
2021-08-04 22:03:41;5;122;122;122;122;122;122;122;122;123;122;
2021-08-04 22:03:41;ht;99;10.70
2021-08-04 22:03:41;v;3.85
2021-08-04 22:33:42;1;122;122;122;122;122;122;122;122;122;122;
2021-08-04 22:33:42;2;126;126;125;126;125;126;125;125;125;125;
2021-08-04 22:33:42;3;50;49;49;49;49;49;49;49;49;49;
2021-08-04 22:33:42;4;122;122;122;122;122;122;122;122;122;122;
2021-08-04 22:33:42;5;114;114;114;113;114;113;114;114;114;114;
2021-08-04 22:33:42;ht;99;11.40
2021-08-04 22:33:42;v;3.85
2021-08-04 23:03:44;1;120;120;119;120;120;120;120;119;120;120;
2021-08-04 23:03:44;2;118;118;117;117;118;117;118;117;117;117;
2021-08-04 23:03:44;3;48;49;48;48;48;49;48;48;48;48;
2021-08-04 23:03:44;4;125;125;125;126;125;125;125;126;126;125;
2021-08-04 23:03:44;5;119;120;119;119;119;119;120;119;120;119;
2021-08-04 23:03:44;ht;99;10.20
2021-08-04 23:03:44;v;3.85
2021-08-04 23:33:41;1;123;123;123;123;123;123;123;123;123;123;
2021-08-04 23:33:41;2;117;117;117;117;118;118;118;117;117;117;
2021-08-04 23:33:41;3;49;49;49;49;49;49;49;49;49;49;
2021-08-04 23:33:41;4;126;125;126;125;125;126;126;125;126;126;
2021-08-04 23:33:41;5;121;121;121;121;121;121;121;121;121;121;
2021-08-04 23:33:41;ht;99;9.00
2021-08-04 23:33:41;v;3.85
