2021-05-22 00:03:42;1;131;130;130;130;130;130;129;129;129;129;
2021-05-22 00:03:42;2;129;129;129;129;129;129;130;130;129;129;
2021-05-22 00:03:42;3;172;172;172;172;172;172;172;172;172;172;
2021-05-22 00:03:42;4;118;117;117;118;117;117;118;118;117;118;
2021-05-22 00:03:42;5;124;124;124;124;124;124;124;124;124;124;
2021-05-22 00:03:42;ht;99;12.50
2021-05-22 00:03:42;v;4.10
2021-05-22 00:33:45;1;126;126;126;126;126;126;126;126;126;126;
2021-05-22 00:33:45;2;121;121;121;121;120;120;120;120;120;121;
2021-05-22 00:33:45;3;167;167;167;167;167;167;167;167;167;167;
2021-05-22 00:33:45;4;120;120;120;120;120;120;120;120;120;120;
2021-05-22 00:33:45;5;118;118;118;117;118;118;118;118;118;118;
2021-05-22 00:33:45;ht;99;12.30
2021-05-22 00:33:45;v;4.10
2021-05-22 01:03:43;1;139;139;139;139;139;139;139;139;139;139;
2021-05-22 01:03:43;2;121;121;121;121;120;120;121;121;121;121;
2021-05-22 01:03:43;3;166;166;166;166;166;166;166;166;166;166;
2021-05-22 01:03:43;4;120;121;120;121;120;121;121;121;121;121;
2021-05-22 01:03:43;5;124;124;124;124;124;124;124;124;124;124;
2021-05-22 01:03:43;ht;99;12.00
2021-05-22 01:03:43;v;4.10
2021-05-22 01:33:46;1;123;123;123;123;123;123;123;123;123;123;
2021-05-22 01:33:46;2;119;118;118;119;119;118;119;118;118;119;
2021-05-22 01:33:46;3;171;171;171;171;171;171;171;171;171;171;
2021-05-22 01:33:46;4;119;120;120;120;120;119;120;119;120;120;
2021-05-22 01:33:46;5;122;122;122;122;122;122;122;122;122;122;
2021-05-22 01:33:46;ht;99;12.00
2021-05-22 01:33:46;v;4.10
2021-05-22 02:03:44;1;128;128;128;128;128;128;128;128;128;128;
2021-05-22 02:03:44;2;123;123;123;123;123;123;123;123;123;123;
2021-05-22 02:03:44;3;166;166;166;166;166;166;166;166;166;166;
2021-05-22 02:03:44;4;118;118;118;118;118;118;118;118;118;118;
2021-05-22 02:03:44;5;118;118;118;118;118;118;118;118;118;118;
2021-05-22 02:03:44;ht;99;12.00
2021-05-22 02:03:44;v;4.09
2021-05-22 02:33:42;1;133;133;134;134;134;134;134;134;134;134;
2021-05-22 02:33:42;2;127;127;127;127;127;127;127;126;127;127;
2021-05-22 02:33:42;3;165;165;165;165;165;165;165;165;165;165;
2021-05-22 02:33:42;4;118;118;118;118;118;118;118;118;118;118;
2021-05-22 02:33:42;5;130;131;130;131;131;131;131;131;131;131;
2021-05-22 02:33:42;ht;99;12.10
2021-05-22 02:33:42;v;4.10
2021-05-22 03:03:45;1;124;124;124;124;124;124;123;123;123;123;
2021-05-22 03:03:45;2;118;118;118;118;118;118;118;118;118;118;
2021-05-22 03:03:45;3;169;169;169;169;169;169;169;169;169;169;
2021-05-22 03:03:45;4;119;119;118;119;119;118;119;119;118;119;
2021-05-22 03:03:45;5;128;128;128;128;128;129;134;130;129;129;
2021-05-22 03:03:45;ht;99;12.00
2021-05-22 03:03:45;v;4.10
2021-05-22 03:33:43;1;132;133;132;132;132;132;132;132;131;131;
2021-05-22 03:33:43;2;122;123;122;122;122;122;122;122;122;123;
2021-05-22 03:33:43;3;168;168;168;168;168;168;168;168;168;168;
2021-05-22 03:33:43;4;120;120;119;120;120;119;119;120;120;120;
2021-05-22 03:33:43;5;105;105;105;106;106;105;106;105;105;106;
2021-05-22 03:33:43;ht;99;11.80
2021-05-22 03:33:43;v;4.10
2021-05-22 04:03:45;1;143;143;143;143;143;142;142;142;142;142;
2021-05-22 04:03:45;2;119;119;119;119;119;119;119;119;119;119;
2021-05-22 04:03:45;3;167;167;167;167;167;167;167;167;167;167;
2021-05-22 04:03:45;4;119;119;119;119;119;119;119;119;119;119;
2021-05-22 04:03:45;5;122;122;123;129;123;123;122;123;123;123;
2021-05-22 04:03:45;ht;99;11.70
2021-05-22 04:03:45;v;4.10
2021-05-22 04:33:43;1;133;133;134;134;133;134;134;133;133;132;
2021-05-22 04:33:43;2;118;118;118;118;117;118;118;118;117;117;
2021-05-22 04:33:43;3;167;167;167;167;167;167;167;167;167;167;
2021-05-22 04:33:43;4;123;123;123;123;123;123;123;123;123;123;
2021-05-22 04:33:43;5;128;128;128;128;128;128;133;130;128;128;
2021-05-22 04:33:43;ht;99;10.80
2021-05-22 04:33:43;v;4.10
2021-05-22 05:03:45;1;138;138;138;138;138;138;138;138;138;138;
2021-05-22 05:03:45;2;117;117;117;116;117;117;117;117;117;117;
2021-05-22 05:03:45;3;160;160;160;161;161;160;160;161;160;160;
2021-05-22 05:03:45;4;119;119;119;119;118;119;119;119;119;119;
2021-05-22 05:03:45;5;128;128;128;129;128;128;129;129;129;128;
2021-05-22 05:03:45;ht;99;10.70
2021-05-22 05:03:45;v;4.10
2021-05-22 05:33:42;1;133;133;133;133;132;133;132;132;132;132;
2021-05-22 05:33:42;2;119;118;119;118;118;118;118;119;118;118;
2021-05-22 05:33:42;3;161;161;161;161;161;161;161;161;161;161;
2021-05-22 05:33:42;4;118;118;118;118;118;118;118;118;118;118;
2021-05-22 05:33:42;5;107;107;107;107;107;107;107;107;107;107;
2021-05-22 05:33:42;ht;99;10.20
2021-05-22 05:33:42;v;4.10
2021-05-22 06:03:43;1;118;118;118;118;118;118;118;118;118;118;
2021-05-22 06:03:43;2;119;119;119;119;119;118;119;119;119;119;
2021-05-22 06:03:43;3;164;164;164;164;164;164;164;164;164;164;
2021-05-22 06:03:43;4;117;117;117;116;117;117;117;117;117;117;
2021-05-22 06:03:43;5;115;115;115;114;115;115;115;114;114;115;
2021-05-22 06:03:43;ht;99;10.20
2021-05-22 06:03:43;v;4.10
2021-05-22 06:33:40;1;134;133;134;134;133;133;133;133;133;133;
2021-05-22 06:33:40;2;126;126;126;126;126;126;126;126;126;126;
2021-05-22 06:33:40;3;161;161;161;161;161;161;161;162;161;161;
2021-05-22 06:33:40;4;121;121;121;120;121;121;120;121;121;121;
2021-05-22 06:33:40;5;111;111;111;111;110;111;111;110;110;111;
2021-05-22 06:33:40;ht;99;10.10
2021-05-22 06:33:40;v;4.10
2021-05-22 07:03:42;1;131;131;131;130;130;130;130;130;130;130;
2021-05-22 07:03:42;2;122;122;122;122;122;122;122;122;122;122;
2021-05-22 07:03:42;3;165;165;165;165;165;165;165;165;165;165;
2021-05-22 07:03:42;4;117;117;117;117;117;117;118;117;118;118;
2021-05-22 07:03:42;5;130;130;130;130;130;130;130;130;131;130;
2021-05-22 07:03:42;ht;99;9.30
2021-05-22 07:03:42;v;4.10
2021-05-22 07:33:43;1;134;134;134;133;134;134;134;134;133;134;
2021-05-22 07:33:43;2;123;123;123;123;123;123;123;123;123;123;
2021-05-22 07:33:43;3;163;164;164;163;164;164;164;164;164;164;
2021-05-22 07:33:43;4;121;120;121;121;120;121;121;120;121;120;
2021-05-22 07:33:43;5;110;110;111;110;110;110;110;110;110;110;
2021-05-22 07:33:43;ht;99;8.60
2021-05-22 07:33:43;v;4.09
2021-05-22 08:03:43;1;131;131;131;131;131;131;131;131;132;132;
2021-05-22 08:03:43;2;120;120;120;120;120;120;120;120;120;120;
2021-05-22 08:03:43;3;164;164;164;164;164;164;164;164;165;164;
2021-05-22 08:03:43;4;119;119;119;119;119;119;119;119;119;119;
2021-05-22 08:03:43;5;106;106;106;107;106;106;107;106;107;107;
2021-05-22 08:03:43;ht;99;8.60
2021-05-22 08:03:43;v;4.09
2021-05-22 08:33:43;1;133;133;133;133;133;133;133;133;133;133;
2021-05-22 08:33:43;2;108;108;108;108;108;108;108;108;108;109;
2021-05-22 08:33:43;3;166;166;166;166;166;166;166;166;166;166;
2021-05-22 08:33:43;4;124;124;124;124;124;124;124;124;124;124;
2021-05-22 08:33:43;5;122;122;121;122;121;121;121;121;121;122;
2021-05-22 08:33:43;ht;99;9.20
2021-05-22 08:33:43;v;4.09
2021-05-22 09:03:40;1;130;129;129;129;129;129;129;129;129;129;
2021-05-22 09:03:40;2;115;115;115;115;115;115;115;115;116;115;
2021-05-22 09:03:40;3;166;166;166;166;166;166;166;166;166;166;
2021-05-22 09:03:40;4;120;120;120;119;120;120;120;120;120;120;
2021-05-22 09:03:40;5;108;108;108;108;108;108;108;108;108;108;
2021-05-22 09:03:40;ht;99;10.20
2021-05-22 09:03:40;v;4.10
2021-05-22 09:33:42;1;126;126;126;126;126;126;126;126;126;126;
2021-05-22 09:33:42;2;121;121;121;121;121;121;121;120;120;120;
2021-05-22 09:33:42;3;168;168;168;168;168;168;168;168;168;168;
2021-05-22 09:33:42;4;122;122;122;122;122;122;122;122;122;122;
2021-05-22 09:33:42;5;108;108;108;108;108;108;107;108;108;108;
2021-05-22 09:33:42;ht;99;11.30
2021-05-22 09:33:42;v;4.11
2021-05-22 10:03:44;1;128;128;128;128;128;129;128;128;128;128;
2021-05-22 10:03:44;2;120;120;120;120;120;120;120;120;120;120;
2021-05-22 10:03:44;3;168;168;168;168;168;168;168;168;168;168;
2021-05-22 10:03:44;4;121;121;121;121;121;121;121;121;121;121;
2021-05-22 10:03:44;5;122;122;122;122;122;122;122;122;122;122;
2021-05-22 10:03:44;ht;99;12.30
2021-05-22 10:03:44;v;4.11
2021-05-22 10:33:43;1;129;129;130;130;131;131;131;132;132;133;
2021-05-22 10:33:43;2;122;121;121;121;121;121;121;121;121;121;
2021-05-22 10:33:43;3;163;163;163;163;163;163;163;163;163;163;
2021-05-22 10:33:43;4;119;119;119;119;119;119;119;119;119;119;
2021-05-22 10:33:43;5;112;112;112;112;112;112;112;111;112;111;
2021-05-22 10:33:43;ht;99;13.10
2021-05-22 10:33:43;v;4.11
2021-05-22 11:03:43;1;127;127;127;126;126;126;126;126;126;126;
2021-05-22 11:03:43;2;120;120;119;120;120;120;120;120;120;120;
2021-05-22 11:03:43;3;162;162;162;162;162;162;162;162;162;162;
2021-05-22 11:03:43;4;119;119;119;119;119;119;119;119;119;119;
2021-05-22 11:03:43;5;121;121;121;121;121;121;121;121;121;121;
2021-05-22 11:03:43;ht;99;13.80
2021-05-22 11:03:43;v;4.12
2021-05-22 11:33:48;1;126;126;126;126;126;126;126;126;126;126;
2021-05-22 11:33:48;2;126;126;126;126;125;126;126;126;126;126;
2021-05-22 11:33:48;3;168;168;168;168;168;168;168;168;168;168;
2021-05-22 11:33:48;4;119;119;119;119;119;119;119;119;119;119;
2021-05-22 11:33:48;5;119;119;119;119;119;119;119;119;119;120;
2021-05-22 11:33:48;ht;99;14.40
2021-05-22 11:33:48;v;4.11
2021-05-22 12:03:44;1;134;134;134;135;135;135;135;135;135;135;
2021-05-22 12:03:44;2;126;126;126;126;126;126;126;126;126;126;
2021-05-22 12:03:44;3;169;169;169;169;169;169;169;169;169;169;
2021-05-22 12:03:44;4;119;119;119;119;119;119;119;119;119;119;
2021-05-22 12:03:44;5;109;109;109;109;109;109;109;109;109;109;
2021-05-22 12:03:44;ht;99;14.80
2021-05-22 12:03:44;v;4.12
2021-05-22 12:33:45;1;128;128;128;127;127;128;128;128;127;128;
2021-05-22 12:33:45;2;122;122;122;122;122;122;122;122;122;122;
2021-05-22 12:33:45;3;159;160;160;159;160;160;159;159;160;160;
2021-05-22 12:33:45;4;130;130;130;130;130;130;130;130;130;130;
2021-05-22 12:33:45;5;119;119;119;119;119;119;119;119;119;119;
2021-05-22 12:33:45;ht;99;14.40
2021-05-22 12:33:45;v;4.12
2021-05-22 13:03:45;1;141;141;141;141;142;141;141;141;141;141;
2021-05-22 13:03:45;2;117;117;116;117;117;117;117;116;117;117;
2021-05-22 13:03:45;3;159;159;160;160;160;159;160;160;160;160;
2021-05-22 13:03:45;4;120;120;120;120;120;120;119;120;119;119;
2021-05-22 13:03:45;5;108;108;108;108;108;109;108;109;108;109;
2021-05-22 13:03:45;ht;99;14.10
2021-05-22 13:03:45;v;4.12
2021-05-22 13:33:46;1;126;126;126;126;126;125;125;125;125;125;
2021-05-22 13:33:46;2;118;118;118;118;118;118;118;118;118;118;
2021-05-22 13:33:46;3;166;167;167;166;166;167;166;166;167;166;
2021-05-22 13:33:46;4;118;118;118;118;117;118;118;118;117;117;
2021-05-22 13:33:46;5;129;129;129;129;129;129;129;129;129;129;
2021-05-22 13:33:46;ht;99;12.70
2021-05-22 13:33:46;v;4.11
2021-05-22 14:03:45;1;134;133;133;133;133;133;133;133;133;133;
2021-05-22 14:03:45;2;117;117;117;117;117;117;117;117;117;117;
2021-05-22 14:03:45;3;162;162;162;162;162;162;162;162;162;162;
2021-05-22 14:03:45;4;116;116;116;116;116;116;116;116;116;116;
2021-05-22 14:03:45;5;115;115;115;115;115;115;115;115;115;115;
2021-05-22 14:03:45;ht;99;13.10
2021-05-22 14:03:45;v;4.12
2021-05-22 14:33:44;1;128;128;128;128;128;128;128;128;128;128;
2021-05-22 14:33:44;2;122;122;122;122;122;122;122;122;122;122;
2021-05-22 14:33:44;3;166;166;166;166;166;166;166;166;166;166;
2021-05-22 14:33:44;4;120;120;120;120;121;121;121;121;121;120;
2021-05-22 14:33:44;5;111;111;110;111;110;110;110;111;110;111;
2021-05-22 14:33:44;ht;99;12.50
2021-05-22 14:33:44;v;4.12
2021-05-22 15:03:43;1;131;130;130;131;131;131;131;131;131;131;
2021-05-22 15:03:43;2;122;122;122;122;122;122;122;122;122;122;
2021-05-22 15:03:43;3;165;165;165;165;165;165;165;165;165;165;
2021-05-22 15:03:43;4;119;119;119;119;119;119;119;119;118;119;
2021-05-22 15:03:43;5;123;123;124;123;123;124;123;124;124;123;
2021-05-22 15:03:43;ht;99;12.90
2021-05-22 15:03:43;v;4.12
2021-05-22 15:33:42;1;136;136;136;136;136;136;136;136;136;136;
2021-05-22 15:33:42;2;121;121;121;121;121;121;121;121;121;120;
2021-05-22 15:33:42;3;167;167;167;167;167;167;167;167;167;167;
2021-05-22 15:33:42;4;120;119;119;120;120;119;120;120;120;119;
2021-05-22 15:33:42;5;116;116;116;116;117;117;116;116;117;117;
2021-05-22 15:33:42;ht;99;12.90
2021-05-22 15:33:42;v;4.12
2021-05-22 16:03:46;1;126;126;126;126;126;125;125;126;126;126;
2021-05-22 16:03:46;2;121;121;121;121;121;120;121;121;121;121;
2021-05-22 16:03:46;3;166;167;166;167;167;167;167;166;167;167;
2021-05-22 16:03:46;4;115;115;115;115;115;115;115;115;115;115;
2021-05-22 16:03:46;5;118;118;118;118;118;118;118;118;118;118;
2021-05-22 16:03:46;ht;99;12.80
2021-05-22 16:03:46;v;4.12
2021-05-22 16:33:45;1;123;123;123;123;123;123;123;123;123;123;
2021-05-22 16:33:45;2;118;118;118;118;118;118;118;118;118;118;
2021-05-22 16:33:45;3;166;166;166;166;166;166;166;166;166;166;
2021-05-22 16:33:45;4;114;114;114;114;114;114;114;114;114;114;
2021-05-22 16:33:45;5;117;117;117;117;117;117;117;117;117;117;
2021-05-22 16:33:45;ht;99;13.30
2021-05-22 16:33:45;v;4.12
2021-05-22 17:03:44;1;130;129;129;129;129;129;129;129;129;129;
2021-05-22 17:03:44;2;118;118;118;118;118;118;118;118;118;118;
2021-05-22 17:03:44;3;166;166;166;166;166;166;166;166;166;166;
2021-05-22 17:03:44;4;115;115;115;115;114;114;114;115;115;115;
2021-05-22 17:03:44;5;114;114;114;114;115;115;115;114;114;114;
2021-05-22 17:03:44;ht;99;13.80
2021-05-22 17:03:44;v;4.12
2021-05-22 17:33:44;1;128;128;128;128;128;128;128;128;128;128;
2021-05-22 17:33:44;2;121;121;120;121;120;121;121;120;121;120;
2021-05-22 17:33:44;3;164;164;164;164;164;164;164;164;164;164;
2021-05-22 17:33:44;4;120;120;120;120;120;120;120;120;119;120;
2021-05-22 17:33:44;5;122;122;123;122;122;122;122;122;123;122;
2021-05-22 17:33:44;ht;99;13.50
2021-05-22 17:33:44;v;4.12
2021-05-22 18:03:43;1;129;128;128;128;128;128;128;128;128;128;
2021-05-22 18:03:43;2;122;122;122;122;122;122;122;122;122;122;
2021-05-22 18:03:43;3;166;166;166;166;166;166;166;166;166;166;
2021-05-22 18:03:43;4;115;114;115;115;115;115;115;115;115;115;
2021-05-22 18:03:43;5;116;116;116;116;116;116;116;116;116;116;
2021-05-22 18:03:43;ht;99;13.30
2021-05-22 18:03:43;v;4.12
2021-05-22 18:33:42;1;125;124;124;124;124;124;124;124;124;124;
2021-05-22 18:33:42;2;116;117;116;117;116;116;116;116;117;116;
2021-05-22 18:33:42;3;164;164;164;164;164;164;164;164;164;164;
2021-05-22 18:33:42;4;126;126;126;126;126;126;126;126;126;126;
2021-05-22 18:33:42;5;121;121;121;121;121;121;121;121;121;121;
2021-05-22 18:33:42;ht;99;12.40
2021-05-22 18:33:42;v;4.11
2021-05-22 19:03:45;1;125;125;125;125;125;125;125;125;125;125;
2021-05-22 19:03:45;2;122;121;121;121;122;122;121;121;121;121;
2021-05-22 19:03:45;3;164;164;164;164;164;164;164;164;164;164;
2021-05-22 19:03:45;4;114;114;115;115;115;115;115;115;115;115;
2021-05-22 19:03:45;5;128;128;128;128;127;128;128;128;128;128;
2021-05-22 19:03:45;ht;99;12.00
2021-05-22 19:03:45;v;4.11
2021-05-22 19:33:43;1;124;124;124;124;124;125;125;124;124;124;
2021-05-22 19:33:43;2;120;120;120;120;120;120;120;120;120;120;
2021-05-22 19:33:43;3;163;163;163;163;163;163;163;163;163;163;
2021-05-22 19:33:43;4;120;120;120;120;119;120;120;120;120;120;
2021-05-22 19:33:43;5;120;120;119;119;119;120;119;119;119;119;
2021-05-22 19:33:43;ht;99;11.80
2021-05-22 19:33:43;v;4.11
2021-05-22 20:03:41;1;128;128;128;128;128;128;128;128;128;128;
2021-05-22 20:03:41;2;116;115;116;115;115;116;116;115;116;115;
2021-05-22 20:03:41;3;165;165;165;165;165;165;165;165;165;165;
2021-05-22 20:03:41;4;118;118;118;118;118;118;118;118;118;118;
2021-05-22 20:03:41;5;118;117;118;118;118;118;118;118;117;118;
2021-05-22 20:03:41;ht;99;11.60
2021-05-22 20:03:41;v;4.11
2021-05-22 20:33:44;1;132;132;132;132;132;132;132;132;132;132;
2021-05-22 20:33:44;2;117;117;116;116;116;116;116;116;116;117;
2021-05-22 20:33:44;3;166;166;166;166;166;166;166;166;166;166;
2021-05-22 20:33:44;4;118;118;118;118;118;118;118;118;118;118;
2021-05-22 20:33:44;5;109;109;109;109;109;109;109;109;109;109;
2021-05-22 20:33:44;ht;99;11.40
2021-05-22 20:33:44;v;4.11
2021-05-22 21:03:41;1;134;134;134;134;134;134;133;134;134;134;
2021-05-22 21:03:41;2;121;120;120;120;120;120;121;120;120;120;
2021-05-22 21:03:41;3;159;159;159;159;160;159;159;160;159;159;
2021-05-22 21:03:41;4;119;118;118;119;118;118;118;119;118;119;
2021-05-22 21:03:41;5;118;118;118;118;118;118;118;118;118;118;
2021-05-22 21:03:41;ht;99;11.10
2021-05-22 21:03:41;v;4.11
2021-05-22 21:33:43;1;134;135;135;135;135;135;135;135;136;135;
2021-05-22 21:33:43;2;116;116;116;116;116;116;116;116;116;116;
2021-05-22 21:33:43;3;160;160;160;160;160;160;160;160;160;160;
2021-05-22 21:33:43;4;119;119;119;119;119;119;119;119;119;119;
2021-05-22 21:33:43;5;119;119;119;119;119;119;119;119;119;119;
2021-05-22 21:33:43;ht;99;11.30
2021-05-22 21:33:43;v;4.11
2021-05-22 22:03:41;1;120;120;120;120;120;120;120;120;121;120;
2021-05-22 22:03:41;2;118;119;119;119;119;118;119;118;119;118;
2021-05-22 22:03:41;3;158;158;158;158;158;158;158;158;158;158;
2021-05-22 22:03:41;4;116;116;116;116;116;116;116;116;116;116;
2021-05-22 22:03:41;5;116;116;116;116;115;115;116;116;116;116;
2021-05-22 22:03:41;ht;99;11.10
2021-05-22 22:03:41;v;4.11
2021-05-22 22:33:43;1;133;133;133;133;133;133;133;133;133;133;
2021-05-22 22:33:43;2;122;122;122;122;122;121;121;122;121;122;
2021-05-22 22:33:43;3;158;158;158;158;158;158;158;158;158;158;
2021-05-22 22:33:43;4;115;115;115;115;115;115;115;115;115;115;
2021-05-22 22:33:43;5;108;109;109;109;108;109;109;109;109;109;
2021-05-22 22:33:43;ht;99;11.20
2021-05-22 22:33:43;v;4.11
2021-05-22 23:03:45;1;131;131;131;131;131;131;131;131;132;132;
2021-05-22 23:03:45;2;117;116;117;117;117;117;117;117;117;117;
2021-05-22 23:03:45;3;161;161;161;161;161;161;161;161;161;161;
2021-05-22 23:03:45;4;116;117;117;117;116;116;117;117;117;117;
2021-05-22 23:03:45;5;128;128;128;128;128;128;128;128;128;128;
2021-05-22 23:03:45;ht;99;11.70
2021-05-22 23:03:45;v;4.11
2021-05-22 23:33:43;1;130;131;131;131;131;131;131;130;130;130;
2021-05-22 23:33:43;2;119;119;119;119;119;119;119;119;119;118;
2021-05-22 23:33:43;3;159;159;159;159;159;159;159;159;159;159;
2021-05-22 23:33:43;4;120;120;120;120;120;120;120;120;120;120;
2021-05-22 23:33:43;5;120;120;120;120;120;120;120;120;120;120;
2021-05-22 23:33:43;ht;99;11.70
2021-05-22 23:33:43;v;4.11
