#EQ3t;v;h;t;p;a2021-02-26 11:39:54;4.23;3;30.90;0;1.30
2021-02-26 12:02:55;4.23;2;30.80;0;1.90
2021-02-26 12:33:59;4.23;1;31.20;0;3.18
2021-02-26 13:03:51;4.24;1;31.20;0;2.00
2021-02-26 13:33:51;4.24;1;31.50;0;1.20
2021-02-26 14:03:53;4.24;1;31.80;0;2.49
2021-02-26 14:33:54;4.24;1;33.20;0;1.90
2021-02-26 15:03:52;4.24;1;32.90;0;2.29
2021-02-26 15:33:54;4.24;1;32.90;0;1.20
2021-02-26 16:03:51;4.24;1;32.50;0;2.39
2021-02-26 16:33:53;4.24;1;32.30;0;1.50
2021-02-26 17:03:54;4.25;1;32.30;0;1.60
2021-02-26 17:33:50;4.24;1;31.90;0;1.40
2021-02-26 18:03:50;4.25;1;31.10;0;2.39
2021-02-26 18:33:49;4.25;1;30.50;0;1.50
2021-02-26 19:03:51;4.25;5;28.50;0;0.00
2021-02-26 19:33:46;4.24;13;25.80;0;0.00
2021-02-26 20:03:44;4.24;22;23.10;0;0.00
2021-02-26 20:33:44;4.24;24;22.50;0;0.00
2021-02-26 21:03:42;4.23;27;21.70;0;0.00
2021-02-26 21:33:40;4.23;29;20.90;0;0.00
2021-02-26 22:03:42;4.23;43;19.40;0;0.00
2021-02-26 22:33:38;4.22;44;18.80;0;0.00
2021-02-26 23:03:39;4.22;45;18.40;0;0.00
2021-02-26 23:33:39;4.22;43;18.50;0;0.00
