2021-11-22 00:00:42;4.13;9239.28;99;16.90
2021-11-22 00:05:40;4.13;9239.28;99;17.10
2021-11-22 00:10:38;4.13;9239.28;99;17.20
2021-11-22 00:15:41;4.13;9239.28;99;17.70
2021-11-22 00:20:39;4.13;9239.28;99;17.10
2021-11-22 00:25:42;4.13;9239.28;99;16.60
2021-11-22 00:30:40;4.13;9239.28;99;16.20
2021-11-22 00:35:38;4.13;9239.28;99;16.70
2021-11-22 00:40:41;4.13;9239.28;99;17.60
2021-11-22 00:45:39;4.13;9239.28;99;18.00
2021-11-22 00:50:42;4.13;9239.28;99;18.00
2021-11-22 00:55:40;4.13;9239.28;99;17.90
2021-11-22 01:00:42;4.13;9239.28;99;18.00
2021-11-22 01:05:41;4.13;9239.28;99;18.70
2021-11-22 01:10:39;4.13;9239.28;99;18.10
2021-11-22 01:15:42;4.13;9239.28;99;18.20
2021-11-22 01:20:40;4.13;9239.28;99;18.20
2021-11-22 01:25:43;4.13;9239.28;99;18.90
2021-11-22 01:30:41;4.13;9239.28;99;18.00
2021-11-22 01:35:39;4.13;9239.28;99;18.10
2021-11-22 01:40:42;4.13;9239.28;99;17.60
2021-11-22 01:45:40;4.13;9239.28;99;17.50
2021-11-22 01:50:38;4.13;9239.28;99;17.20
2021-11-22 01:55:41;4.13;9239.28;99;17.40
2021-11-22 02:00:39;4.13;9239.28;99;17.50
2021-11-22 02:05:42;4.13;9239.28;99;17.90
2021-11-22 02:10:40;4.13;9239.28;99;18.20
2021-11-22 02:15:39;4.13;9239.28;99;17.80
2021-11-22 02:20:41;4.13;9239.28;99;17.80
2021-11-22 02:25:40;4.13;9239.28;99;17.20
2021-11-22 02:30:42;4.13;9239.28;99;16.80
2021-11-22 02:35:41;4.13;9239.28;99;16.20
2021-11-22 02:40:39;4.13;9239.28;99;15.60
2021-11-22 02:45:41;4.13;9239.28;98;15.10
2021-11-22 02:50:39;4.13;9239.28;87;14.70
2021-11-22 02:55:42;4.13;9239.28;79;14.60
2021-11-22 03:00:40;4.13;9239.28;81;14.50
2021-11-22 03:05:38;4.13;9239.28;85;14.40
2021-11-22 03:10:41;4.13;9239.28;75;14.20
2021-11-22 03:15:39;4.13;9239.28;73;13.90
2021-11-22 03:20:41;4.13;9239.28;59;13.70
2021-11-22 03:25:39;4.13;9239.28;45;13.80
2021-11-22 03:30:41;4.13;9239.28;34;13.90
2021-11-22 03:35:39;4.13;9239.28;23;13.90
2021-11-22 03:40:42;4.12;9239.28;45;14.60
2021-11-22 03:45:39;4.12;9239.28;67;14.70
2021-11-22 03:50:42;4.12;9239.28;75;14.80
2021-11-22 03:55:40;4.12;9239.28;79;14.70
2021-11-22 04:00:42;4.12;9239.28;76;14.50
2021-11-22 04:05:40;4.12;9239.28;76;14.10
2021-11-22 04:10:38;4.12;9239.28;73;13.70
2021-11-22 04:15:40;4.12;9239.28;69;13.40
2021-11-22 04:20:38;4.12;9239.28;58;13.00
2021-11-22 04:25:40;4.12;9239.28;44;13.30
2021-11-22 04:30:38;4.12;9239.28;32;13.10
2021-11-22 04:35:40;4.12;9239.28;19;13.20
2021-11-22 04:40:38;4.12;9239.28;13;13.10
2021-11-22 04:45:41;4.12;9239.28;11;12.90
2021-11-22 04:50:38;4.12;9239.28;12;13.00
2021-11-22 04:55:40;4.12;9239.28;11;12.40
2021-11-22 05:00:38;4.12;9239.28;2;12.70
2021-11-22 05:05:40;4.12;9239.28;7;12.50
2021-11-22 05:10:38;4.12;9239.28;1;12.60
2021-11-22 05:15:40;4.12;9239.28;2;12.50
2021-11-22 05:20:38;4.12;9239.28;2;12.40
2021-11-22 05:25:40;4.12;9239.28;2;12.30
2021-11-22 05:30:38;4.12;9239.28;2;12.30
2021-11-22 05:35:40;4.12;9239.28;2;12.60
2021-11-22 05:40:38;4.12;9239.28;2;12.10
2021-11-22 05:45:40;4.12;9239.28;2;12.10
2021-11-22 05:50:42;4.12;9239.28;2;12.40
2021-11-22 05:55:40;4.12;9239.28;2;12.40
2021-11-22 06:00:42;4.12;9239.28;2;12.30
2021-11-22 06:05:39;4.12;9239.28;2;12.70
2021-11-22 06:10:41;4.12;9239.28;2;12.90
2021-11-22 06:15:39;4.12;9239.28;2;12.80
2021-11-22 06:20:41;4.12;9239.28;2;12.80
2021-11-22 06:25:39;4.12;9239.28;2;13.30
2021-11-22 06:30:41;4.12;9239.28;2;13.80
2021-11-22 06:35:39;4.12;9239.28;2;14.10
2021-11-22 06:40:41;4.12;9239.28;2;14.70
2021-11-22 06:45:39;4.12;9239.28;2;15.80
2021-11-22 06:50:41;4.12;9239.28;2;16.10
2021-11-22 06:55:39;4.12;9239.28;2;16.50
2021-11-22 07:00:41;4.12;9239.28;2;16.50
2021-11-22 07:05:39;4.12;9239.28;2;16.70
2021-11-22 07:10:42;4.12;9239.28;2;17.10
2021-11-22 07:15:40;4.12;9239.28;2;17.90
2021-11-22 07:20:42;4.12;9239.28;67;19.50
2021-11-22 07:25:40;4.12;9239.28;99;20.60
2021-11-22 07:30:38;4.12;9239.28;99;21.20
2021-11-22 07:35:41;4.12;9239.28;99;22.20
2021-11-22 07:40:39;4.12;9239.28;99;22.50
2021-11-22 07:45:42;4.12;9239.28;96;26.00
2021-11-22 07:50:41;4.12;9239.28;90;27.20
2021-11-22 07:55:39;4.12;9239.28;92;26.70
2021-11-22 08:00:42;4.12;9239.28;90;27.10
2021-11-22 08:05:41;4.12;9239.28;92;27.20
2021-11-22 08:10:40;4.12;9239.28;91;28.20
2021-11-22 08:15:43;4.12;9239.28;85;30.30
2021-11-22 08:20:42;4.12;9239.28;82;30.40
2021-11-22 08:25:42;4.12;9239.28;84;30.80
2021-11-22 08:30:41;4.13;9239.28;79;32.10
2021-11-22 08:35:40;4.13;9239.28;76;33.00
2021-11-22 08:40:40;4.13;9239.28;74;32.90
2021-11-22 08:45:44;4.13;9239.28;70;33.80
2021-11-22 08:50:39;4.13;9239.28;71;34.00
2021-11-22 08:55:44;4.13;9239.28;74;32.20
2021-11-22 09:00:44;4.13;9239.28;76;31.00
2021-11-22 09:05:44;4.13;9239.28;76;32.00
2021-11-22 09:10:39;4.13;9239.28;75;32.10
2021-11-22 09:15:44;4.13;9239.28;74;31.80
2021-11-22 09:20:40;4.13;9239.28;76;32.10
2021-11-22 09:25:40;4.13;9239.28;73;32.20
2021-11-22 09:30:41;4.13;9239.28;74;32.40
2021-11-22 09:35:41;4.13;9239.28;74;32.50
2021-11-22 09:40:42;4.13;9239.28;74;33.30
2021-11-22 09:45:43;4.13;9239.28;72;33.20
2021-11-22 09:50:43;4.13;9239.28;72;33.40
2021-11-22 09:55:44;4.13;9239.28;75;33.60
2021-11-22 10:00:40;4.13;9239.28;74;33.70
2021-11-22 10:05:41;4.13;9239.28;72;33.20
2021-11-22 10:10:42;4.13;9239.28;75;34.00
2021-11-22 10:15:43;4.13;9239.28;74;33.30
2021-11-22 10:20:44;4.13;9239.28;75;33.20
2021-11-22 10:25:41;4.13;9239.28;74;34.10
2021-11-22 10:30:42;4.13;9239.28;70;33.60
2021-11-22 10:35:43;4.13;9239.28;70;35.10
2021-11-22 10:40:44;4.13;9239.28;66;35.30
2021-11-22 10:45:41;4.13;9239.28;71;34.80
2021-11-22 10:50:42;4.13;9239.28;67;35.10
2021-11-22 10:55:44;4.13;9239.28;69;34.60
2021-11-22 11:00:45;4.13;9239.28;71;34.20
2021-11-22 11:05:42;4.13;9239.28;69;34.80
2021-11-22 11:10:43;4.13;9239.28;70;34.50
2021-11-22 11:15:45;4.13;9239.28;67;34.80
2021-11-22 11:20:41;4.13;9239.28;69;35.10
2021-11-22 11:25:43;4.13;9239.28;71;34.70
2021-11-22 11:30:44;4.13;9239.28;72;34.70
2021-11-22 11:35:41;4.13;9239.28;69;34.50
2021-11-22 11:40:43;4.13;9239.28;66;35.20
2021-11-22 11:45:44;4.13;9239.28;67;36.50
2021-11-22 11:50:41;4.13;9239.28;67;36.30
2021-11-22 11:55:43;4.13;9239.28;66;36.70
2021-11-22 12:00:44;4.13;9239.28;62;36.80
2021-11-22 12:05:42;4.13;9239.28;65;36.60
2021-11-22 12:10:43;4.13;9239.28;65;37.60
2021-11-22 12:15:45;4.13;9239.28;65;37.00
2021-11-22 12:20:42;4.13;9239.28;65;38.00
2021-11-22 12:25:45;4.13;9239.28;61;37.20
2021-11-22 12:30:42;4.13;9239.28;60;38.60
2021-11-22 12:35:44;4.13;9239.28;62;37.70
2021-11-22 12:40:41;4.13;9239.28;55;37.50
2021-11-22 12:45:44;4.14;9239.28;54;39.30
2021-11-22 12:50:46;4.13;9239.28;57;39.70
2021-11-22 12:55:44;4.14;9239.28;52;39.40
2021-11-22 13:00:46;4.14;9239.28;53;38.40
2021-11-22 13:05:44;4.14;9239.28;62;39.20
2021-11-22 13:10:46;4.14;9239.28;56;39.40
2021-11-22 13:15:44;4.13;9239.28;51;39.80
2021-11-22 13:20:42;4.14;9239.28;55;39.30
2021-11-22 13:25:44;4.14;9239.28;54;39.40
2021-11-22 13:30:42;4.14;9239.28;50;39.10
2021-11-22 13:35:45;4.14;9239.28;55;40.30
2021-11-22 13:40:43;4.14;9239.28;55;39.60
2021-11-22 13:45:46;4.14;9239.28;55;39.00
2021-11-22 13:50:43;4.14;9239.28;58;39.10
2021-11-22 13:55:46;4.14;9239.28;57;39.00
2021-11-22 14:00:44;4.14;9239.28;53;40.20
2021-11-22 14:05:42;4.14;9239.28;53;39.90
2021-11-22 14:10:45;4.14;9239.28;57;38.70
2021-11-22 14:15:43;4.14;9239.28;57;38.20
2021-11-22 14:20:45;4.14;9239.28;57;38.20
2021-11-22 14:25:43;4.14;9239.28;55;39.50
2021-11-22 14:30:46;4.14;9239.28;54;38.80
2021-11-22 14:35:44;4.14;9239.28;57;38.80
2021-11-22 14:40:47;4.14;9239.28;55;39.00
2021-11-22 14:45:44;4.14;9239.28;55;39.90
2021-11-22 14:50:42;4.14;9239.28;51;39.90
2021-11-22 14:55:45;4.14;9239.28;55;39.10
2021-11-22 15:00:43;4.14;9239.28;53;38.80
2021-11-22 15:05:46;4.14;9239.28;54;39.20
2021-11-22 15:10:43;4.14;9239.28;54;39.10
2021-11-22 15:15:46;4.14;9239.28;55;38.70
2021-11-22 15:20:44;4.14;9239.28;52;39.20
2021-11-22 15:25:42;4.14;9239.28;51;39.30
2021-11-22 15:30:44;4.14;9239.28;51;40.20
2021-11-22 15:35:42;4.14;9239.28;52;40.40
2021-11-22 15:40:45;4.14;9239.28;48;40.00
2021-11-22 15:45:43;4.14;9239.28;53;40.30
2021-11-22 15:50:46;4.14;9239.28;51;40.20
2021-11-22 15:55:44;4.14;9239.28;52;40.30
2021-11-22 16:00:46;4.14;9239.28;52;40.20
2021-11-22 16:05:44;4.14;9239.28;50;40.30
2021-11-22 16:10:42;4.14;9239.28;52;40.10
2021-11-22 16:15:45;4.14;9239.28;54;39.90
2021-11-22 16:20:43;4.14;9239.28;53;39.60
2021-11-22 16:25:46;4.14;9239.28;55;40.00
2021-11-22 16:30:44;4.14;9239.28;49;40.60
2021-11-22 16:35:46;4.14;9239.28;49;41.50
2021-11-22 16:40:44;4.14;9239.28;52;40.40
2021-11-22 16:45:42;4.14;9239.28;51;40.00
2021-11-22 16:50:45;4.14;9239.28;55;40.40
2021-11-22 16:55:43;4.14;9239.28;54;40.80
2021-11-22 17:00:46;4.14;9239.28;49;41.70
2021-11-22 17:05:44;4.14;9239.28;51;39.90
2021-11-22 17:10:42;4.15;9239.28;52;39.20
2021-11-22 17:15:45;4.15;9239.28;53;39.70
2021-11-22 17:20:43;4.15;9239.28;51;38.70
2021-11-22 17:25:46;4.15;9239.28;53;39.50
2021-11-22 17:30:43;4.15;9239.28;54;41.00
2021-11-22 17:35:46;4.15;9239.28;54;39.50
2021-11-22 17:40:44;4.15;9239.28;59;40.00
2021-11-22 17:45:46;4.15;9239.28;59;40.60
2021-11-22 17:50:44;4.15;9239.28;61;40.30
2021-11-22 17:55:46;4.15;9239.28;59;40.60
2021-11-22 18:00:44;4.15;9239.28;64;40.20
2021-11-22 18:05:42;4.15;9239.28;62;38.70
2021-11-22 18:10:44;4.15;9239.28;61;40.10
2021-11-22 18:15:42;4.15;9239.28;64;39.70
2021-11-22 18:20:44;4.15;9239.28;63;39.90
2021-11-22 18:25:42;4.15;9239.28;64;39.20
2021-11-22 18:30:44;4.15;9239.28;64;38.00
2021-11-22 18:35:41;4.15;9239.28;66;37.70
2021-11-22 18:40:44;4.15;9239.28;70;38.20
2021-11-22 18:45:46;4.15;9239.28;73;37.80
2021-11-22 18:50:43;4.15;9239.28;74;37.60
2021-11-22 18:55:45;4.15;9239.28;77;36.70
2021-11-22 19:00:42;4.15;9239.28;67;33.60
2021-11-22 19:05:44;4.15;9239.28;68;32.10
2021-11-22 19:10:41;4.15;9239.28;70;31.40
2021-11-22 19:15:42;4.15;9239.28;73;31.00
2021-11-22 19:20:43;4.15;9239.28;74;30.90
2021-11-22 19:25:44;4.15;9239.28;75;30.40
2021-11-22 19:30:40;4.15;9239.28;76;30.20
2021-11-22 19:35:41;4.15;9239.28;78;29.90
2021-11-22 19:40:42;4.15;9239.28;78;29.60
2021-11-22 19:45:42;4.14;9239.28;78;29.30
2021-11-22 19:50:43;4.15;9239.28;78;29.10
2021-11-22 19:55:43;4.14;9239.28;77;29.10
2021-11-22 20:00:43;4.15;9239.28;79;28.80
2021-11-22 20:05:43;4.14;9239.28;79;28.20
2021-11-22 20:10:44;4.14;9239.28;79;28.40
2021-11-22 20:15:44;4.14;9239.28;79;28.00
2021-11-22 20:20:44;4.14;9239.28;80;28.20
2021-11-22 20:25:44;4.14;9239.28;80;27.70
2021-11-22 20:30:44;4.14;9239.28;82;27.50
2021-11-22 20:35:44;4.14;9239.28;82;27.40
2021-11-22 20:40:43;4.14;9239.28;83;27.20
2021-11-22 20:45:43;4.14;9239.28;84;27.10
2021-11-22 20:50:43;4.14;9239.28;85;26.50
2021-11-22 20:55:43;4.14;9239.28;86;26.10
2021-11-22 21:00:42;4.14;9239.28;88;25.80
2021-11-22 21:05:42;4.14;9239.28;89;25.40
2021-11-22 21:10:42;4.14;9239.28;90;25.20
2021-11-22 21:15:41;4.14;9239.28;92;24.70
2021-11-22 21:20:41;4.14;9239.28;92;24.60
2021-11-22 21:25:40;4.14;9239.28;94;24.10
2021-11-22 21:30:40;4.14;9239.28;94;24.20
2021-11-22 21:35:44;4.14;9239.28;94;23.80
2021-11-22 21:40:43;4.14;9239.28;95;23.90
2021-11-22 21:45:42;4.14;9239.28;95;24.10
2021-11-22 21:50:42;4.14;9239.28;97;23.30
2021-11-22 21:55:41;4.14;9239.28;98;23.10
2021-11-22 22:00:40;4.14;9239.28;98;23.00
2021-11-22 22:05:39;4.14;9239.28;98;22.90
2021-11-22 22:10:43;4.14;9239.28;99;22.60
2021-11-22 22:15:42;4.14;9239.28;99;22.70
2021-11-22 22:20:41;4.14;9239.28;99;22.50
2021-11-22 22:25:40;4.14;9239.28;99;22.20
2021-11-22 22:30:39;4.14;9239.28;99;22.20
2021-11-22 22:35:43;4.14;9239.28;99;22.10
2021-11-22 22:40:42;4.14;9239.28;99;22.10
2021-11-22 22:45:41;4.14;9239.28;99;22.00
2021-11-22 22:50:40;4.14;9239.28;98;22.20
2021-11-22 22:55:43;4.14;9239.28;96;22.80
2021-11-22 23:00:42;4.14;9239.28;95;23.40
2021-11-22 23:05:41;4.14;9239.28;95;23.40
2021-11-22 23:10:40;4.14;9239.28;94;23.40
2021-11-22 23:15:39;4.14;9239.28;94;23.80
2021-11-22 23:20:43;4.14;9239.28;94;23.50
2021-11-22 23:25:42;4.14;9239.28;93;24.00
2021-11-22 23:30:41;4.14;9239.28;93;24.10
2021-11-22 23:35:40;4.14;9239.28;92;24.10
2021-11-22 23:40:44;4.14;9239.28;92;24.30
2021-11-22 23:45:43;4.14;9239.28;92;24.20
2021-11-22 23:50:42;4.13;9239.28;91;24.40
2021-11-22 23:55:41;4.13;9239.28;90;24.30
