2021-12-2 0:0:21;4.30;85;18.40;22;0.202;0.021;22.12;71.9;0.020;12.4792;7.256;12.675;7.571;44;0.254;0.038;21.54;70.7;0.036;15.9564;13.049;16.193;13.694
2021-12-2 0:5:18;4.30;91;19.20;22;0.201;0.021;21.92;71.5;0.020;12.3592;7.307;12.556;7.616;44;0.254;0.038;21.54;70.7;0.036;15.9564;13.049;16.193;13.694
2021-12-2 0:10:20;4.30;92;19.70;22;0.195;0.022;21.92;71.5;0.021;12.0162;7.509;12.207;7.826;44;0.254;0.038;21.54;70.7;0.036;15.9564;13.049;16.193;13.694
2021-12-2 0:15:22;4.30;91;19.60;22;0.195;0.022;21.92;71.5;0.021;12.0162;7.509;12.207;7.826;44;0.255;0.038;21.54;70.7;0.036;16.0734;12.861;16.312;13.497
2021-12-2 0:20:20;4.30;91;19.30;22;0.195;0.022;22.12;71.9;0.021;12.0152;7.509;12.204;7.835;44;0.254;0.038;21.54;70.7;0.036;15.9564;13.049;16.193;13.694
2021-12-2 0:25:22;4.30;86;18.60;22;0.195;0.022;21.92;71.5;0.021;12.0162;7.509;12.207;7.826;44;0.254;0.038;21.54;70.7;0.036;15.9564;13.049;16.193;13.694
2021-12-2 0:30:20;4.30;90;18.90;22;0.195;0.022;21.92;71.5;0.021;12.0152;7.509;12.204;7.835;44;0.258;0.037;21.54;70.7;0.036;16.2664;12.770;16.508;13.402
2021-12-2 0:35:22;4.30;91;19.00;22;0.202;0.021;22.12;71.9;0.020;12.4782;7.256;12.672;7.579;44;0.254;0.038;21.54;70.7;0.036;15.9564;13.049;16.193;13.694
2021-12-2 0:40:19;4.30;87;18.50;22;0.197;0.022;21.92;71.5;0.021;12.1392;7.458;12.330;7.782;44;0.255;0.038;21.54;70.7;0.036;16.0734;12.861;16.312;13.497
2021-12-2 0:45:21;4.29;90;18.70;22;0.195;0.022;21.92;71.5;0.021;12.0152;7.509;12.204;7.835;44;0.254;0.038;21.54;70.7;0.036;15.9564;13.049;16.193;13.694
2021-12-2 0:50:19;4.30;91;18.60;22;0.197;0.022;21.92;71.5;0.021;12.1392;7.458;12.330;7.782;44;0.255;0.038;21.54;70.7;0.036;16.0734;12.861;16.312;13.497
2021-12-2 0:55:21;4.29;91;19.00;22;0.202;0.021;21.92;71.5;0.020;12.4792;7.256;12.675;7.571;44;0.261;0.037;21.54;70.7;0.035;16.4984;12.703;16.740;13.347
2021-12-2 1:0:19;4.29;91;18.90;22;0.202;0.021;21.92;71.5;0.020;12.4782;7.256;12.672;7.579;44;0.254;0.038;21.54;70.7;0.036;15.9534;13.047;16.188;13.708
2021-12-2 1:5:21;4.29;92;19.10;22;0.195;0.022;21.92;71.5;0.021;12.0142;7.508;12.201;7.843;44;0.263;0.037;21.54;70.7;0.035;16.6064;12.518;16.850;13.152
2021-12-2 1:10:18;4.29;92;19.10;22;0.195;0.022;21.92;71.5;0.021;12.0142;7.508;12.201;7.843;44;0.254;0.038;21.54;70.7;0.036;15.9534;13.047;16.188;13.708
2021-12-2 1:15:20;4.29;92;19.10;22;0.197;0.022;21.92;71.5;0.021;12.1372;7.457;12.324;7.799;44;0.254;0.038;21.34;70.3;0.036;15.9534;13.047;16.188;13.708
2021-12-2 1:20:22;4.29;92;18.80;22;0.197;0.022;21.92;71.5;0.021;12.1382;7.457;12.327;7.790;44;0.255;0.038;21.54;70.7;0.036;16.0714;12.859;16.307;13.511
2021-12-2 1:25:20;4.29;91;18.80;22;0.195;0.022;21.92;71.5;0.021;12.0142;7.508;12.201;7.843;44;0.254;0.038;21.34;70.3;0.036;15.9534;13.047;16.188;13.708
2021-12-2 1:30:22;4.29;87;18.10;22;0.199;0.022;21.92;71.5;0.021;12.2612;7.407;12.452;7.737;44;0.258;0.037;21.54;70.7;0.035;16.2644;12.769;16.503;13.415
2021-12-2 1:35:19;4.29;84;17.80;22;0.195;0.022;21.92;71.5;0.021;12.0142;7.508;12.201;7.843;44;0.254;0.038;21.34;70.3;0.036;15.9534;13.047;16.188;13.708
2021-12-2 1:40:21;4.28;86;18.00;22;0.195;0.022;21.92;71.5;0.021;12.0132;7.507;12.198;7.852;44;0.254;0.038;21.34;70.3;0.036;15.9534;13.047;16.188;13.708
2021-12-2 1:45:19;4.29;91;18.40;22;0.202;0.021;21.92;71.5;0.020;12.4772;7.255;12.669;7.588;44;0.254;0.038;21.34;70.3;0.036;15.9514;13.046;16.183;13.722
2021-12-2 1:50:21;4.29;91;18.50;22;0.195;0.022;21.92;71.5;0.021;12.0132;7.507;12.198;7.852;44;0.254;0.038;21.34;70.3;0.036;15.9514;13.046;16.183;13.722
2021-12-2 1:55:19;4.29;91;18.50;22;0.200;0.021;21.92;71.5;0.020;12.3352;7.296;12.524;7.630;44;0.258;0.037;21.34;70.3;0.035;16.2644;12.769;16.503;13.415
2021-12-2 2:0:20;4.29;91;18.50;22;0.198;0.021;21.92;71.5;0.020;12.2132;7.346;12.401;7.683;44;0.254;0.038;21.34;70.3;0.036;15.9514;13.046;16.183;13.722
2021-12-2 2:5:22;4.28;91;18.50;22;0.196;0.022;21.92;71.5;0.021;12.0902;7.396;12.276;7.735;44;0.258;0.037;21.34;70.3;0.035;16.2644;12.769;16.503;13.415
2021-12-2 2:10:20;4.28;90;18.20;22;0.197;0.022;21.92;71.5;0.021;12.1372;7.457;12.324;7.799;44;0.263;0.037;21.34;70.3;0.035;16.6064;12.518;16.850;13.152
2021-12-2 2:15:22;4.28;85;17.50;22;0.196;0.022;21.92;71.5;0.021;12.0892;7.396;12.273;7.744;44;0.255;0.038;21.34;70.3;0.036;16.0714;12.859;16.307;13.511
2021-12-2 2:20:19;4.28;86;17.60;22;0.199;0.022;21.92;71.5;0.021;12.2592;7.406;12.445;7.754;44;0.255;0.038;21.34;70.3;0.036;16.0694;12.858;16.302;13.525
2021-12-2 2:25:21;4.28;90;18.00;22;0.196;0.022;21.72;71.1;0.021;12.0892;7.396;12.273;7.744;44;0.254;0.038;21.34;70.3;0.036;15.9514;13.046;16.183;13.722
2021-12-2 2:30:19;4.28;81;17.10;22;0.199;0.022;21.92;71.5;0.021;12.2582;7.405;12.442;7.762;44;0.254;0.038;21.34;70.3;0.036;15.9514;13.046;16.183;13.722
2021-12-2 2:35:21;4.28;77;17.00;22;0.196;0.022;21.92;71.5;0.021;12.0892;7.396;12.273;7.744;44;0.254;0.038;21.34;70.3;0.036;15.9494;13.044;16.178;13.736
2021-12-2 2:40:18;4.28;89;17.70;22;0.196;0.022;21.72;71.1;0.021;12.0892;7.396;12.273;7.744;44;0.255;0.038;21.34;70.3;0.036;16.0694;12.858;16.302;13.525
2021-12-2 2:45:20;4.28;87;17.60;22;0.198;0.021;21.72;71.1;0.020;12.2112;7.345;12.394;7.699;44;0.254;0.038;21.34;70.3;0.036;15.9514;13.046;16.183;13.722
2021-12-2 2:50:22;4.28;86;17.40;22;0.196;0.022;21.72;71.1;0.021;12.0892;7.396;12.273;7.744;44;0.255;0.038;21.34;70.3;0.036;16.0664;12.857;16.297;13.539
2021-12-2 2:55:19;4.27;83;17.10;22;0.196;0.022;21.72;71.1;0.021;12.0882;7.395;12.270;7.752;44;0.254;0.038;21.34;70.3;0.036;15.9494;13.044;16.178;13.736
2021-12-2 3:0:21;4.27;78;16.90;22;0.200;0.021;21.92;71.5;0.020;12.3322;7.294;12.518;7.646;44;0.254;0.038;21.34;70.3;0.036;15.9474;13.043;16.173;13.750
2021-12-2 3:5:19;4.27;85;17.30;22;0.196;0.022;21.72;71.1;0.021;12.0882;7.395;12.270;7.752;44;0.254;0.038;21.34;70.3;0.036;15.9474;13.043;16.173;13.750
2021-12-2 3:10:20;4.27;82;17.10;22;0.198;0.021;21.72;71.1;0.020;12.2102;7.344;12.391;7.707;44;0.258;0.037;21.34;70.3;0.035;16.2604;12.766;16.493;13.443
2021-12-2 3:15:22;4.27;87;17.30;22;0.200;0.021;21.72;71.1;0.020;12.3312;7.294;12.515;7.655;44;0.258;0.037;21.34;70.3;0.035;16.2574;12.765;16.488;13.457
2021-12-2 3:20:19;4.27;83;17.10;22;0.198;0.021;21.72;71.1;0.020;12.2112;7.345;12.394;7.699;44;0.254;0.038;21.34;70.3;0.036;15.9474;13.043;16.173;13.750
2021-12-2 3:25:21;4.27;74;16.60;22;0.200;0.021;21.52;70.7;0.020;12.3312;7.294;12.515;7.655;44;0.255;0.038;21.14;70.0;0.036;16.0664;12.857;16.297;13.539
2021-12-2 3:30:19;4.27;88;17.40;22;0.191;0.022;21.52;70.7;0.021;11.7832;7.658;11.958;8.036;44;0.258;0.037;21.14;70.0;0.035;16.2574;12.765;16.488;13.457
2021-12-2 3:35:20;4.27;88;17.40;22;0.198;0.021;21.52;70.7;0.020;12.2102;7.344;12.391;7.707;44;0.258;0.037;21.14;70.0;0.035;16.2574;12.765;16.488;13.457
2021-12-2 3:40:22;4.27;86;17.20;22;0.200;0.021;21.72;71.1;0.020;12.3302;7.293;12.511;7.663;44;0.255;0.038;21.14;70.0;0.036;16.0644;12.855;16.292;13.553
2021-12-2 3:45:20;4.27;81;16.80;22;0.200;0.021;21.72;71.1;0.020;12.3302;7.293;12.511;7.663;44;0.258;0.037;21.14;70.0;0.035;16.2554;12.763;16.483;13.471
2021-12-2 3:50:21;4.27;67;16.20;22;0.200;0.021;21.72;71.1;0.020;12.3302;7.293;12.511;7.663;44;0.255;0.038;21.14;70.0;0.036;16.0644;12.855;16.292;13.553
2021-12-2 3:55:19;4.27;83;16.90;22;0.198;0.021;21.52;70.7;0.020;12.2102;7.344;12.391;7.707;44;0.255;0.038;21.14;70.0;0.036;16.0644;12.855;16.292;13.553
2021-12-2 4:0:20;4.27;84;17.00;22;0.200;0.021;21.52;70.7;0.020;12.3312;7.294;12.515;7.655;44;0.253;0.038;21.34;70.3;0.036;15.9454;13.041;16.168;13.764
2021-12-2 4:5:22;4.27;66;16.20;22;0.192;0.022;21.52;70.7;0.021;11.8632;7.545;12.037;7.928;44;0.253;0.038;21.34;70.3;0.036;15.9454;13.041;16.168;13.764
2021-12-2 4:10:19;4.27;50;15.70;22;0.200;0.021;21.72;71.1;0.020;12.3292;7.293;12.508;7.671;44;0.255;0.038;21.14;70.0;0.036;16.0624;12.854;16.287;13.566
2021-12-2 4:15:21;4.27;36;15.50;22;0.200;0.021;21.52;70.7;0.020;12.3302;7.293;12.511;7.663;44;0.258;0.037;21.14;70.0;0.035;16.2574;12.765;16.488;13.457
2021-12-2 4:20:18;4.27;11;15.30;22;0.200;0.021;21.52;70.7;0.020;12.3302;7.293;12.511;7.663;44;0.258;0.037;21.14;70.0;0.035;16.2554;12.763;16.483;13.471
2021-12-2 4:25:20;4.27;4;15.20;22;0.192;0.022;21.52;70.7;0.021;11.8622;7.545;12.034;7.936;44;0.253;0.038;21.34;70.3;0.036;15.9454;13.041;16.168;13.764
2021-12-2 4:30:22;4.27;9;15.20;22;0.193;0.022;21.52;70.7;0.021;11.9412;7.434;12.114;7.819;44;0.255;0.038;21.14;70.0;0.036;16.0624;12.854;16.287;13.566
2021-12-2 4:35:19;4.27;17;15.30;22;0.200;0.021;21.52;70.7;0.020;12.3292;7.293;12.508;7.671;44;0.258;0.037;21.14;70.0;0.035;16.2554;12.763;16.483;13.471
2021-12-2 4:40:21;4.27;7;15.20;22;0.201;0.021;21.52;70.7;0.020;12.4032;7.183;12.583;7.555;44;0.255;0.038;21.14;70.0;0.036;16.0624;12.854;16.287;13.566
2021-12-2 4:45:18;4.27;18;15.30;22;0.200;0.021;21.52;70.7;0.020;12.3282;7.292;12.505;7.679;44;0.255;0.038;21.14;70.0;0.036;16.0624;12.854;16.287;13.566
2021-12-2 4:50:19;4.27;2;15.00;22;0.193;0.022;21.52;70.7;0.021;11.9392;7.433;12.111;7.827;44;0.253;0.038;21.14;70.0;0.036;15.9434;13.040;16.163;13.779
2021-12-2 4:55:21;4.27;2;15.10;22;0.197;0.021;21.32;70.3;0.020;12.1852;7.333;12.360;7.722;44;0.258;0.037;21.14;70.0;0.035;16.2534;12.762;16.478;13.485
2021-12-2 5:0:18;4.27;18;15.00;22;0.200;0.021;21.32;70.3;0.020;12.3272;7.292;12.502;7.687;44;0.258;0.037;21.14;70.0;0.035;16.2534;12.762;16.478;13.485
2021-12-2 5:5:20;4.27;3;14.30;22;0.196;0.022;21.32;70.3;0.021;12.1082;7.443;12.280;7.846;44;0.255;0.038;21.14;70.0;0.036;16.0604;12.852;16.282;13.580
2021-12-2 5:10:21;4.27;2;14.20;22;0.196;0.022;21.32;70.3;0.021;12.1072;7.442;12.276;7.855;44;0.255;0.038;21.14;70.0;0.036;16.0584;12.851;16.277;13.594
2021-12-2 5:15:19;4.27;2;14.60;22;0.197;0.022;21.32;70.3;0.020;12.1832;7.332;12.354;7.738;44;0.253;0.038;21.14;70.0;0.036;15.9414;13.039;16.158;13.793
2021-12-2 5:20:20;4.27;2;15.00;22;0.193;0.022;21.32;70.3;0.021;11.9372;7.432;12.104;7.844;44;0.255;0.038;20.94;69.6;0.036;16.0584;12.851;16.277;13.594
2021-12-2 5:25:22;4.27;2;15.10;22;0.197;0.022;21.32;70.3;0.020;12.1832;7.332;12.354;7.738;44;0.255;0.038;21.14;70.0;0.036;16.0584;12.851;16.277;13.594
2021-12-2 5:30:19;4.26;2;14.40;22;0.197;0.022;21.32;70.3;0.020;12.1822;7.331;12.350;7.746;44;0.259;0.037;21.14;70.0;0.035;16.3624;12.575;16.585;13.303
2021-12-2 5:35:20;4.27;2;14.40;22;0.197;0.022;21.32;70.3;0.020;12.1832;7.332;12.354;7.738;44;0.255;0.038;21.14;70.0;0.036;16.0584;12.851;16.277;13.594
2021-12-2 5:40:22;4.26;2;14.30;22;0.197;0.022;21.32;70.3;0.020;12.1832;7.332;12.354;7.738;44;0.255;0.038;21.14;70.0;0.036;16.0584;12.851;16.277;13.594
2021-12-2 5:45:19;4.26;2;14.30;22;0.190;0.022;21.12;70.0;0.021;11.7112;7.583;11.873;8.012;44;0.253;0.038;20.94;69.6;0.036;15.9414;13.039;16.158;13.793
2021-12-2 5:50:20;4.26;2;14.40;22;0.190;0.022;21.12;70.0;0.021;11.7112;7.583;11.873;8.012;44;0.255;0.038;21.14;70.0;0.036;16.0584;12.851;16.277;13.594
2021-12-2 5:55:22;4.26;2;14.30;22;0.197;0.022;21.12;70.0;0.020;12.1822;7.331;12.350;7.746;44;0.253;0.038;20.94;69.6;0.036;15.9414;13.039;16.158;13.793
2021-12-2 6:0:19;4.26;2;14.10;22;0.197;0.022;21.12;70.0;0.020;12.1822;7.331;12.350;7.746;44;0.255;0.038;21.14;70.0;0.036;16.0584;12.851;16.277;13.594
2021-12-2 6:5:20;4.26;2;14.20;22;0.197;0.022;21.32;70.3;0.020;12.1812;7.331;12.347;7.754;44;0.255;0.038;20.94;69.6;0.036;16.0584;12.851;16.277;13.594
2021-12-2 6:10:22;4.26;2;14.50;22;0.197;0.022;21.32;70.3;0.020;12.1812;7.331;12.347;7.754;44;0.258;0.038;20.94;69.6;0.035;16.2514;12.761;16.473;13.499
2021-12-2 6:15:19;4.26;2;15.10;22;0.197;0.022;21.32;70.3;0.020;12.1812;7.331;12.347;7.754;44;0.258;0.038;20.94;69.6;0.035;16.2514;12.761;16.473;13.499
2021-12-2 6:20:20;4.26;18;15.60;22;0.197;0.022;21.12;70.0;0.020;12.1812;7.331;12.347;7.754;44;0.255;0.038;20.94;69.6;0.036;16.0564;12.850;16.272;13.608
2021-12-2 6:25:22;4.26;52;16.10;22;0.191;0.022;21.12;70.0;0.021;11.7902;7.471;11.951;7.903;44;0.255;0.038;20.94;69.6;0.036;16.0564;12.850;16.272;13.608
2021-12-2 6:30:19;4.26;55;16.00;22;0.197;0.022;21.12;70.0;0.020;12.1812;7.331;12.347;7.754;44;0.258;0.038;20.94;69.6;0.035;16.2514;12.761;16.473;13.499
2021-12-2 6:35:21;4.26;64;16.60;22;0.196;0.021;21.12;70.0;0.020;12.1352;7.271;12.300;7.691;44;0.258;0.038;20.94;69.6;0.035;16.2514;12.761;16.473;13.499
2021-12-2 6:40:18;4.26;67;17.00;22;0.197;0.022;21.12;70.0;0.020;12.1802;7.330;12.344;7.763;44;0.253;0.038;20.94;69.6;0.036;15.9384;13.037;16.153;13.807
2021-12-2 6:45:19;4.26;81;18.00;22;0.198;0.021;21.12;70.0;0.020;12.2562;7.221;12.423;7.638;44;0.259;0.037;20.94;69.6;0.035;16.3604;12.574;16.580;13.316
2021-12-2 6:50:21;4.26;92;19.20;22;0.197;0.022;21.12;70.0;0.020;12.1812;7.331;12.347;7.754;44;0.258;0.038;20.94;69.6;0.035;16.2494;12.759;16.468;13.512
2021-12-2 6:55:18;4.27;94;19.40;22;0.198;0.021;21.12;70.0;0.020;12.2562;7.221;12.423;7.638;44;0.253;0.038;21.14;70.0;0.036;15.9384;13.037;16.153;13.807
2021-12-2 7:0:20;4.27;93;19.30;22;0.198;0.021;21.12;70.0;0.020;12.2562;7.221;12.423;7.638;44;0.253;0.038;21.14;70.0;0.036;15.9384;13.037;16.153;13.807
2021-12-2 7:5:22;4.27;94;19.60;22;0.197;0.022;21.12;70.0;0.020;12.1802;7.330;12.344;7.763;44;0.253;0.038;20.94;69.6;0.036;15.9384;13.037;16.153;13.807
2021-12-2 7:10:20;4.27;94;19.70;22;0.193;0.022;21.12;70.0;0.021;11.9152;7.421;12.077;7.850;44;0.259;0.037;20.94;69.6;0.035;16.3624;12.575;16.585;13.303
2021-12-2 7:15:22;4.27;93;19.80;22;0.197;0.022;21.12;70.0;0.020;12.1802;7.330;12.344;7.763;44;0.255;0.038;20.94;69.6;0.036;16.0564;12.850;16.272;13.608
2021-12-2 7:20:19;4.27;93;20.10;22;0.198;0.021;21.12;70.0;0.020;12.2562;7.221;12.423;7.638;44;0.255;0.038;20.94;69.6;0.036;16.0584;12.851;16.277;13.594
2021-12-2 7:25:22;4.27;92;20.70;22;0.197;0.022;21.12;70.0;0.020;12.1812;7.331;12.347;7.754;44;0.255;0.038;20.94;69.6;0.036;16.0564;12.850;16.272;13.608
2021-12-2 7:30:19;4.27;91;20.80;22;0.195;0.022;21.12;70.0;0.020;12.0382;7.371;12.202;7.797;44;0.259;0.037;20.94;69.6;0.035;16.3624;12.575;16.585;13.303
2021-12-2 7:35:21;4.27;90;21.30;22;0.198;0.021;21.12;70.0;0.020;12.2562;7.221;12.423;7.638;44;0.259;0.037;21.14;70.0;0.035;16.3624;12.575;16.585;13.303
2021-12-2 7:40:19;4.27;89;21.80;22;0.198;0.021;21.12;70.0;0.020;12.2562;7.221;12.423;7.638;44;0.259;0.037;20.94;69.6;0.035;16.3624;12.575;16.585;13.303
2021-12-2 7:45:22;4.27;89;21.70;22;0.195;0.022;21.12;70.0;0.020;12.0382;7.371;12.202;7.797;44;0.255;0.038;20.94;69.6;0.036;16.0584;12.851;16.277;13.594
2021-12-2 7:50:20;4.27;87;22.30;22;0.195;0.022;21.12;70.0;0.020;12.0382;7.371;12.202;7.797;44;0.255;0.038;20.94;69.6;0.036;16.0584;12.851;16.277;13.594
2021-12-2 7:55:22;4.27;88;22.10;22;0.198;0.021;21.12;70.0;0.020;12.2562;7.221;12.423;7.638;44;0.253;0.038;20.94;69.6;0.036;15.9414;13.039;16.158;13.793
2021-12-2 8:0:20;4.27;88;22.50;22;0.197;0.022;21.32;70.3;0.020;12.1812;7.331;12.347;7.754;44;0.257;0.037;21.14;70.0;0.035;16.1724;12.665;16.392;13.398
2021-12-2 8:5:23;4.27;87;22.80;22;0.198;0.021;21.12;70.0;0.020;12.2562;7.221;12.423;7.638;44;0.257;0.037;21.14;70.0;0.035;16.1724;12.665;16.392;13.398
2021-12-2 8:10:21;4.27;86;23.20;22;0.198;0.021;21.12;70.0;0.020;12.2572;7.221;12.426;7.630;44;0.257;0.037;21.14;70.0;0.035;16.1724;12.665;16.392;13.398
2021-12-2 8:15:19;4.27;86;22.90;22;0.190;0.022;21.12;70.0;0.021;11.7112;7.583;11.873;8.012;44;0.248;0.039;20.94;69.6;0.037;15.5774;13.293;15.790;14.061
2021-12-2 8:20:22;4.27;87;23.50;22;0.197;0.022;21.12;70.0;0.020;12.1822;7.331;12.350;7.746;44;0.258;0.038;21.14;70.0;0.035;16.2514;12.761;16.473;13.499
2021-12-2 8:25:20;4.27;86;23.50;22;0.197;0.022;21.32;70.3;0.020;12.1812;7.331;12.347;7.754;44;0.255;0.038;20.94;69.6;0.036;16.0584;12.851;16.277;13.594
2021-12-2 8:30:23;4.27;84;24.10;22;0.198;0.021;21.12;70.0;0.020;12.2572;7.221;12.426;7.630;44;0.255;0.038;20.94;69.6;0.036;16.0584;12.851;16.277;13.594
2021-12-2 8:35:21;4.27;83;24.90;22;0.195;0.022;21.12;70.0;0.020;12.0392;7.371;12.205;7.789;44;0.257;0.037;21.14;70.0;0.035;16.1744;12.666;16.397;13.384
2021-12-2 8:40:20;4.27;83;24.50;22;0.198;0.021;21.12;70.0;0.020;12.2572;7.221;12.426;7.630;44;0.257;0.037;21.14;70.0;0.035;16.1744;12.666;16.397;13.384
2021-12-2 8:45:22;4.27;81;24.60;22;0.198;0.021;21.12;70.0;0.020;12.2572;7.221;12.426;7.630;44;0.259;0.037;21.14;70.0;0.035;16.3644;12.577;16.590;13.289
2021-12-2 8:50:21;4.27;80;25.10;22;0.198;0.021;21.12;70.0;0.020;12.2572;7.221;12.426;7.630;44;0.248;0.039;21.14;70.0;0.037;15.5794;13.294;15.795;14.047
2021-12-2 8:55:20;4.27;80;25.50;22;0.197;0.022;21.12;70.0;0.020;12.1822;7.331;12.350;7.746;44;0.259;0.037;21.14;70.0;0.035;16.3644;12.577;16.590;13.289
2021-12-2 9:0:22;4.28;79;25.60;22;0.199;0.021;21.12;70.0;0.020;12.2582;7.222;12.429;7.622;44;0.258;0.037;21.14;70.0;0.035;16.2554;12.763;16.483;13.471
2021-12-2 9:5:21;4.28;78;25.80;22;0.199;0.021;21.12;70.0;0.020;12.2582;7.222;12.429;7.622;44;0.255;0.038;21.14;70.0;0.036;16.0624;12.854;16.287;13.566
2021-12-2 9:10:20;4.28;77;26.80;22;0.195;0.022;21.12;70.0;0.020;12.0402;7.372;12.208;7.780;44;0.259;0.037;21.14;70.0;0.035;16.3664;12.578;16.595;13.275
2021-12-2 9:15:23;4.28;77;26.30;22;0.199;0.021;21.32;70.3;0.020;12.2582;7.222;12.429;7.622;44;0.259;0.037;21.14;70.0;0.035;16.3664;12.578;16.595;13.275
2021-12-2 9:20:22;4.28;75;26.70;22;0.197;0.022;21.32;70.3;0.020;12.1822;7.331;12.350;7.746;44;0.257;0.037;21.14;70.0;0.035;16.1764;12.668;16.402;13.370
2021-12-2 9:25:21;4.28;75;27.00;22;0.199;0.021;21.12;70.0;0.020;12.2592;7.222;12.433;7.614;44;0.255;0.038;20.94;69.6;0.036;16.0624;12.854;16.287;13.566
2021-12-2 9:30:19;4.30;73;27.20;22;0.199;0.021;21.12;70.0;0.020;12.2582;7.222;12.429;7.622;44;0.248;0.039;21.14;70.0;0.037;15.5824;13.295;15.799;14.033
2021-12-2 9:35:23;4.28;74;27.20;22;0.199;0.021;21.12;70.0;0.020;12.2582;7.222;12.429;7.622;44;0.255;0.038;21.14;70.0;0.036;16.0624;12.854;16.287;13.566
2021-12-2 9:40:22;4.29;73;27.30;22;0.199;0.021;21.32;70.3;0.020;12.2582;7.222;12.429;7.622;44;0.259;0.037;21.14;70.0;0.035;16.3694;12.579;16.600;13.262
2021-12-2 9:45:21;4.29;72;27.60;22;0.195;0.022;21.32;70.3;0.020;12.0412;7.372;12.212;7.772;44;0.255;0.038;21.14;70.0;0.036;16.0644;12.855;16.292;13.553
2021-12-2 9:50:20;4.29;71;28.10;22;0.199;0.021;21.32;70.3;0.020;12.2592;7.222;12.433;7.614;44;0.248;0.039;21.14;70.0;0.037;15.5824;13.295;15.799;14.033
2021-12-2 9:55:23;4.29;69;28.10;22;0.199;0.021;21.32;70.3;0.020;12.2592;7.222;12.433;7.614;44;0.257;0.037;21.14;70.0;0.035;16.1784;12.669;16.407;13.356
2021-12-2 10:0:22;4.30;69;28.50;22;0.199;0.021;21.32;70.3;0.020;12.2592;7.222;12.433;7.614;44;0.259;0.037;21.14;70.0;0.035;16.3694;12.579;16.600;13.262
2021-12-2 10:5:22;4.30;70;29.10;22;0.199;0.021;21.32;70.3;0.020;12.2602;7.223;12.436;7.606;44;0.255;0.038;21.14;70.0;0.036;16.0644;12.855;16.292;13.553
2021-12-2 10:10:21;4.30;69;28.50;22;0.199;0.021;21.32;70.3;0.020;12.2602;7.223;12.436;7.606;44;0.259;0.037;21.14;70.0;0.035;16.3694;12.579;16.600;13.262
2021-12-2 10:15:20;4.30;68;29.10;22;0.190;0.022;21.32;70.3;0.021;11.7142;7.584;11.882;7.987;44;0.257;0.037;21.14;70.0;0.035;16.1804;12.671;16.412;13.343
2021-12-2 10:20:24;4.32;68;29.60;22;0.199;0.021;21.32;70.3;0.020;12.2602;7.223;12.436;7.606;44;0.259;0.037;21.34;70.3;0.035;16.3714;12.581;16.605;13.248
2021-12-2 10:25:23;4.31;68;29.80;22;0.199;0.021;21.32;70.3;0.020;12.2612;7.223;12.439;7.598;44;0.258;0.037;21.14;70.0;0.035;16.2604;12.766;16.493;13.443
2021-12-2 10:30:23;4.31;67;30.00;22;0.195;0.022;21.32;70.3;0.020;12.0432;7.373;12.218;7.756;44;0.257;0.037;21.14;70.0;0.035;16.1804;12.671;16.412;13.343
2021-12-2 10:35:22;4.32;64;30.00;22;0.199;0.021;21.32;70.3;0.020;12.2612;7.223;12.439;7.598;44;0.248;0.039;21.14;70.0;0.037;15.5864;13.298;15.809;14.004
2021-12-2 10:40:22;4.32;64;30.60;22;0.197;0.021;21.32;70.3;0.020;12.1872;7.333;12.363;7.713;44;0.254;0.038;21.34;70.3;0.036;15.9494;13.044;16.178;13.736
2021-12-2 10:45:21;4.33;64;29.70;22;0.199;0.021;21.32;70.3;0.020;12.2622;7.224;12.442;7.590;44;0.258;0.037;21.34;70.3;0.035;16.2624;12.767;16.498;13.429
2021-12-2 10:50:21;4.33;62;30.30;22;0.199;0.021;21.52;70.7;0.020;12.2622;7.224;12.442;7.590;44;0.255;0.038;21.34;70.3;0.036;16.0694;12.858;16.302;13.525
2021-12-2 10:55:21;4.33;63;30.40;22;0.198;0.021;21.52;70.7;0.020;12.1882;7.334;12.366;7.705;44;0.258;0.037;21.34;70.3;0.035;16.2624;12.767;16.498;13.429
2021-12-2 11:0:20;4.33;61;31.00;22;0.198;0.021;21.52;70.7;0.020;12.1882;7.334;12.366;7.705;44;0.254;0.038;21.34;70.3;0.036;15.9514;13.046;16.183;13.722
2021-12-2 11:5:25;4.33;61;30.30;22;0.199;0.021;21.52;70.7;0.020;12.2622;7.224;12.442;7.590;44;0.257;0.037;21.34;70.3;0.035;16.1834;12.672;16.417;13.329
2021-12-2 11:10:20;4.35;60;31.50;22;0.199;0.021;21.72;71.1;0.020;12.2622;7.224;12.442;7.590;44;0.258;0.037;21.34;70.3;0.035;16.2644;12.769;16.503;13.415
2021-12-2 11:15:24;4.34;61;31.20;22;0.199;0.021;21.52;70.7;0.020;12.2632;7.224;12.446;7.581;44;0.255;0.038;21.34;70.3;0.036;16.0714;12.859;16.307;13.511
2021-12-2 11:20:24;4.35;60;31.40;22;0.199;0.021;21.52;70.7;0.020;12.2642;7.225;12.449;7.573;44;0.249;0.039;21.34;70.3;0.037;15.5884;13.300;15.814;13.989
2021-12-2 11:25:24;4.35;60;31.80;22;0.191;0.022;21.52;70.7;0.021;11.7992;7.475;11.976;7.836;44;0.254;0.038;21.34;70.3;0.036;15.9534;13.047;16.188;13.708
2021-12-2 11:30:24;4.36;60;31.50;22;0.199;0.021;21.52;70.7;0.020;12.2662;7.225;12.452;7.565;44;0.258;0.037;21.34;70.3;0.035;16.2644;12.769;16.503;13.415
2021-12-2 11:35:24;4.36;60;32.00;22;0.199;0.021;21.52;70.7;0.020;12.2662;7.225;12.452;7.565;44;0.255;0.038;21.34;70.3;0.036;16.0734;12.861;16.312;13.497
2021-12-2 11:40:24;4.36;60;31.80;22;0.198;0.021;21.72;71.1;0.020;12.1902;7.335;12.373;7.689;44;0.258;0.037;21.54;70.7;0.036;16.2664;12.770;16.508;13.402
2021-12-2 11:45:24;4.36;58;31.70;22;0.199;0.021;21.72;71.1;0.020;12.2662;7.225;12.452;7.565;44;0.249;0.039;21.54;70.7;0.037;15.5904;13.301;15.819;13.975
2021-12-2 11:50:24;4.36;58;31.80;22;0.199K0.021;21.92;71.5;0.020;12.2672;7.226;12.455;7.557;44;0.254;0.038;21.54;70.7;0.036;15.9564;13.049;16.193;13.694
2021-12-2 11:55:25;4.36;58;32.00;22;0.198;0.021;21.92;71.5;0.020;12.1912;7.335;12.376;7.680;44;0.255;0.038;21.54;70.7;0.036;16.0734;12.861;16.312;13.497
2021-12-2 12:0:20;4.37;57;32.70;22;0.198;0.021;21.92;71.5;0.020;12.1922;7.336;12_379;7.672;44;0.258;0.037;21.54;70.7;0.036;16.2664;12.770;16.508;13.402
2021-12-2 12:5:25;4.36;59;32.20;22;0.193;0.022;21.92;71.5;0.021;11.9262;7.427;12.112;7.758;44;0.254;0.038;21.54;70.7;0.036;15.9564;13.049;16.193;13.694
2021-12-2 12:10:21;4.36;58;32.60;22;0.191;0.022;21.92;71.5;0.021;11.8022;7.477;1c.985;7.811;44;0.255;0.037;21.54;70.7;0.036;16.0754;12.862;16.317;13.483
2021-12-2 12:15:21;4.37;59;32.00;22;0.199;0.021;21.92;71.5;0.020;12.2692;7.227;12.462;7.541;44;0.255;0.037;21.54;70.7;0.036;16.0754;12.862;16.317;13.483
2021-12-2 12:20:21;4.36;57;32.00;22;0.194;0.022;21.92;71.5;0.021;11.9732;7.488;12.162;7.813;44;0.258;0.037;21.54;70.7;0.036;16.2684;12.771;16.513;13.388
2021-12-2 12:25:22;4.37;58;32.60;22;0.197;0.021;21.92;71.5;0.020;12.1482;7.277;12.339;7.593;44;0.255;0.037;21.54;70.7;0.036;16.0754;12.862;16.317;13.483
2021-12-2 12:30:22;4.37;57;32.40;22;0.199;0.021;21.92;71.5;0.020K12.26r2;7.227;12.462;7.541;44;0.254;0.038;21.54;70.7;0.036;15.9584;13.050;16.198;13.680
2021-12-2 12:35:22;4.37;57;32.90;22;0.198;0.021;21.92;71.5;0.020;12.1952;7.338;12.389;7.647;44;0.256;0.037;21.54;70.7;0.036;16.0774;12.864;16.322;13.469
2021-12-2 12:40:22;4.37;57;32.30;22;0.198;0.021;21.92;71.5;0.020;12.1952;7.338;12.389S7.647;44;0.249;0.039;21.54;70.7;0.037;15.5944;13.304;15.829;13.946
2021-12-2 12:45:23;4.38;57;32.20;22;0.198;0.021;21.92;71.5;0.020;12.1962;7.338;12.393;7.639;44;0.256;0.037;21.54;70.7;0.036;16.0774;12.864;16.322;13.469
2021-12-2 12:50:23;4.38;57;33.00;22;0.198;0.021;21.92%[s*ZrZsK2j2;7.{38;12.393;7.639;44;0.256;0.037;21.54;70.7;0.036;16.0774;12.864;16.322;13.469
2021-12-2 12:55:23;4.38;60;32.50;220.199;0.021;21.92;71.5;0.020;12.2712;7.228;12.469;7.525;44;0.256;0.037;21.54;70.7;0.036;16.0774;12.864;16.322;13.469
2021-12-2 13:0:24;4.37;60;31.70;22;0.192;0.02d;22.12;71.9;0.021;11.8512;7.539;12.041;7N849;44;0.256;0.037;21.54;70.7;0.036;16.0774;12.864;16.322;13.469
2021-12-2 13:5:24;4.38;59;32.10;22;0.192;0.022;22.12;71.9;0.021;11.8522;7.540;12.045;7.840;44;0.254;0.038;21.54;70.7;0.036;15.9604;13.051;16.203;13.665
2021-12-2 13:10:24;4.38;59;32.40;22;0.199;0.021;22.b2;71.9;0.020;12.2722;7.229;12.472;7.516;44;0.249;0.039;21.74;71.1;0.037;15.5964;13.306;15.833;13.932
2021-12-2 13:15:24;4.38;59;32.50;22;0.198;0.021;22.12;71.9;0.020;12.1972;7.339;12.396;7.631;44;0.258;0.037;21.54;70.7;0.036;16.2734;12.774;16.523;13.360
2021-12-2 13:20:25;4.38;60;32.90;d2;0.198%r[sk2;71.9;0.020;12\1982;7.f39;12.399;7.623;44;0.258;0.037;21.74;71.1;0.036;16.2734;12.774;16.523;13.360
2021-12-2 13:25:20;4.38;58;33.50;22;0.198;0.021;22.12;71.s;0.020;12.1972;7.339;12.396;7.631;44;0.256;0.037;21.54;70.7;0.036;16.0794;12.865;16.327;13.455
2021-12-2 13:30:25;4.38;57;33.80;22;0.198;0.021;22.12;71.9;0.020;12.1982;7.339;12.399;7.623;44;0.256;0.037;21.54;70.7;0.036;16.0794;12.865;16.327;13.455
2021-12-2 13:35:21;4.38;57;32.90;22;0.198;0.021;22.42;72.3;0.020;12.1982;7.339;12.399;7.623;44;0.258;0.037;21.54;70.7;0.036;16.2734;12.774;16.523;13.360
2021-12-2 13:40:21;4.38;58;33.50;22;0.198;0.021;22.12;71.9;0.020;12.1982;7.339;12.399;7.623;44;0.256;0.037;21.54;70.7;0.036;16.0794;12.865;16.327;13.455
2021-12-2 13:45:21;4.38;58;33.30;22;0.198;0.021;22.12;71.9;0.020;12.1982;7.339;12.399;7.623;44;0.256;0.037;21.74;71.1;0.036;16.0824;12.866;16.332;13.441
2021-12-2 13:50:21;4.38;58;32.70;22;0.190;0.022;22.42;72.3;0.021;11.7282;7.592;11.923;7.876;44;0.256;0.037;21.74;71.1;0.036;16.0794;12.865;16.327;13.455
2021-12-2 13:55:22;4.38;60;33.20;22;0.198;0.021;22.42;72.3;0.020;12.200d;7.340;12.403;7.614;44;0.254;0.038;21.74;71.1;0.036;15.9624;13.053;16.208;13.651
2021-12-2 14:0:22;4.38;58;33.50;22;0.190;0.022;22.42;72.3;0.021;11.7292;7.592;11.926;7.867;44;0.256;0.037;21.74;71.1;0.036;16.0824;12.866;16.332;13.441
2021-12-2 14:5:22;4.39;57;33.30;22;0.19H;0.021;22.42;72.3;0.`20;12.2012;7.340;12.406;7.606;44;0.258;0.037;21.74;71.1;0.036;16.2754;12.776;16.528;13.346
2021-12-2 14:10:22;4.38;57;33.10;22;0.198;0.021;22.42;72.3;0.020;12.2012;7.340;12.406;7.606;44;0.256;0.037;21.74;71.1;0.036;16.0824;12.866;16.332;13.441
2021-12-2 14:15:22;4.38;58;33.00;22;0.198;0.021;22.42;72.3;0.020;12.2012;7.340;12.406;7.606;44;0.254;0.038;21.74;71.1;0.036;15.9644;13.054;16.213;13.637
2021-12-2 14:20:22;4.39;56;33.20;22;0.198;0.021;22.42;72.3;0.020;12.2012;7.340;12.406;7.606;44;0.256;0.037;21.74;71.1;0.036;16.0824;12.866;16.332;13.441
2021-12-2 14:25:23;4.39;56;33.30;22;0.198;0.02Y;22.42;72.3;0.020;12.2022;7.341;12.409;7.598;44;0.256;0.037;21.74;71.1;0.036;16.0824;12.866;16.332;13.441
2021-12-2 14:30:23;4.39;58;33.20;22;0.198;0.021;22.42;72.3;0.020;12.2022;7.341;12.40	;7.598;44;0.254;0.038;21.74;71.1;0.036;15.9644;13.054;16.213;13.637
2021-12-2 14:35:23;4.39;58;33.40;22;0.198;0.021;22.62;72.6;0.020;12.2012;7.340%l6	2Z:s22j;44;0.256;0.037;21.74;71.1;0.036;16.0824;12.866;16.332;13.441
2021-12-2 14:40:23;4.39;56;33.60;22;0.198;0.021;22.42;72.3;0.020;12.2032;7.341;12.413;7.589;44;0.256;0.037;21.74;71.1;0.036;16.0824;12.866;16.332;13.441
2021-12-2 14:45:23;4.39;56;33.50;22;0.1980.021;22.42;72.3;0.020;12.2032;7.341;12.413;7.589;44;0.256;0.037;21.74;71.1;0.036;16.0844;12.868;16.337;13.427
2021-12-2 14:50:23;4.39;58;32.90;22;0.191;0.022;22.42;72.3;0.021;11.7312;7.593;11.933;7.850;44;0.254;0.038;21.74;71.1;0.036;15.9664;13.056;16.218;13.623
2021-12-2 14:55:24;4.39;60;33.80;22;0.198;0.021;22.42;72.3;0.020;l6Ij2;7.341;12.413;7.589;44;0.254;0.038;21.74;71.1;0.036;15.9644;13.054;16.213;13.637
2021-12-2 15:0:24;4.39;60;32.50;22;0.196;0.021;22.62;72.6;0.021;12.0802;7.392;12.288;7.641;44;0.254;0.038;21.74;71.1;0.036;15.9644;13.054;16.213;13.637
2021-12-2 15:5:24;4.38;59;33.20;22;0.198;0.021;22.62;72.6;0.020;12.2022;7.341;12.409k7.598;44;0.256;0.037;21.74;71.1;0.036;16.0844;12.868;16.337;13.427
2021-12-2 15:10:24;4.39;59;33.20;2b;0.196;0.021;22.62;72.6;0.021;12.08j2;7.392;12.288;7.641;44;0.256;0.037;21.74;71.1;0.036;16.0844;12.868;16.337;13.427
2021-12-2 15:15:24;4.39;57;33.30;z2;0.198;0.021;22.62;72.6;0.020;12.2032;7.341;12.413;7.589;44;0.254;0.038;21.74;71.1;0.036;15.9644;13.054;16.213;13.637
2021-12-2 15:20:24;4.39;57;33.40;22;0.194;0.021;22.42;72.3;0.21;11.95727.442;12.16d;7.694;44;0.258;0.037;21.74;71.1;0.036;16.2774;12.777;16.533;13.332
2021-12-2 15:25:24;4.39;58;33.10;22;0.198;0.021;22.62;72.6;0.020;12.2032;7.c41;12.413;7.589;44;0.256;0.037;21.94;71.5;0.036;16.0844;12.868;16.337;13.427
2021-12-2 15:30:24;4.39;59;32.70;22;0.198;0.021;22.62;72.6;0.020;12.2j2;7.341;12.413;7.589;44;0.254;0.038;21.74;71.1;0.036;15.9644;13.054;16.213;13.637
2021-12-2 15:35:25;4.39;58;33.20;22;0.194;0.021;22.62;72.6;0.021;11.9572;7.442;12.162;7.694;44;0.256;0.037;21.74;71.1;0.036;16.0844;12.868;16.337;13.427
2021-12-2 15:40:20;4.39;56;33.40;22;0.198;0.021;22.62;72.6;0.020;12.202;7.341;12.413;7.589;44;0.254;0.038;21.74;71.1;0.036;15.9644;13.054;16.213;13.637
2021-12-2 15:45:25;4.39;57;33.30;22;0.194;0.021;22.62;72.6;0.021;11.9572;7.442;12.162;7.694;44;0.256;0.037;21.74;71.1;0.036;16.0844;12.868;16.337;13.427
2021-12-2 15:50:21;4.39;58;33.30;22;0.198;0.021;22.62;72.6;0.020;12.2032;7.341;12.413;7.589;44;0.256;0.037;21.74;71.1;0.036;16.0824;12.866;16.332;13.441
2021-12-2 15:55:21;4.39;57;33.40;22;0.198%r[s2j2;72.6;0.020;12.2032;7.341;12.413;7.589;44;0.254;0.038;21.94;71.5;0.036;15.9644;13.054;16.213;13.637
2021-12-2 16:0:21;4.39;57;33.80;22;0.198;0.0d1;22.62;72.6;0.020;12.2032;7.341;12.413;7.589;44;0.258;0.037;21.94;71.5;0.036;16.2774;12.777;16.533;13.332
2021-12-2 16:5:21;4.39;57;32.90;22;0.197;0021;22.62;72.6;0.021;12.1272;7.45d;12.3357.704;44;0.256;0.037;21.74;71.1;0.036;16.0824;12.866;16.332;13.441
2021-12-2 16:10:21;4.39;57;32.80;22;0.196;0.021;22.62;72.6;0.021;12.080d;7.392;12.288;7.641;44;0.256;0.037;21.74;71.1;0.036;16.0824;12.866;16.332;13.441
2021-12-2 16:15:21;4.39;56;33.30;d2;0.196;0.021;22.62;72.6;0.021;12.0802;7.392;12.288;7.641;44;0.256;0.037;21.74;71.1;0.036;16.0824;12.866;16.332;13.441
2021-12-2 16:20:21;4.39;55;33.30;22;0.193;0.022;22.62;72.6;0.021;11.8782;7.553;12.082;7.809;44;0.254;0.038;21.74;71.1;0.036;15.9644;13.054;16.213;13.637
2021-12-2 16:25:21;4.39;57;32.70;22;0.198;0.021;22.62;72.6;0.020;12.2032;7.341;12.413;7.589;44;0.254;0.038;21.74;71.1;0.036;15.9644;13.054;16.213;13.637
2021-12-2 16:30:21;4.39;57;32.50;22;0.196;0.021;g2.62;72.6;0.021;12.0802;7.392;12.288;7.641;44;0.258;0.037;21.94;71.5;0.036;16.2754;12.776;16.528;13.346
2021-12-2 16:35:21;4.39;57;32.30;22;0.194;0.021;22.42;72.3;0.021;11.9572;7.442;12.162;7.f94;44;0.254;0.038;21.74;71.1;0.036;15.9644;13.054;16.213;13.637
2021-12-2 16:40:22;4.39;56;33.00;22;0.197;0.021;22.62;72.6;0.021;12.1262;7.452;12.332;7.712;44;0.258;0.037;21.74;71.1;0.036;16.2754;12.776;16.528;13.346
2021-12-2 16:45:22;4.39;55;32.80;22;0.197;0.021;22.62;72.6;0.021;12.1272;7.452;12.335;7.704;44;0.254;0.038;21.74;71.1;0.036;15.9644;13.054;16.213;13.637
2021-12-2 16:50:22;4.39;56;33.30;22;0.197;0.021;22.62;72.6;0.021;12.1272;7.452;12.335;7.704;44;0.249;0.039;21.94;71.5;0.037;15.6014;13.309;15.843;13.903
2021-12-2 16:55:22;4.39;55;33.70;22;`.195;0.022;22.62;72.6;0.021;12.0032;7.503;12.209;7.756;44;0.258;0.037;21.74;71.1;0.036;16.2754;12.776;16.528;13.346
2021-12-2 17:0:22;4.39;56;32.80;22;0.201;0.021;22.62;72.6;0.020;12.346b;7.301;12.558;7.548;44;0.254;0.038;21.74;71.1;0.036;15.9644;13.054;16.213;13.637
2021-12-2 17:5:22;4.39;57;32.30;22;0.193;0.022;22.62;7b.6;0.021;11.8782;7.553S12.082;7.809;44;0.256;0.037;21.74;71.1;0.036;16.0824;12.866;16.332;13.441
2021-12-2 17:10:22;4.39;57;32.30;22;0.193;0.022;22.62;72.6;0.021;11.8782;7.553;12.082;7.809;44;0.254;0.038;21.74;71.1;0.036;15.9644;13.054;16.213;13.637
2021-12-2 17:15:22;4.39;57;32.80;22;0.201;0.021;22.62;72.6;0.020;12.3462;7.301;12.558;7.548;44;0.256;0.037;21.74;71.1;0.036;16.0824;12.866;16.332;13.441
2021-12-2 17:20:22;4.39;57;32.80;22;0.201;0.021;22.62;72.6;0.020;12.3462;7.301;12.558;7.548;44;0.256;0.037;21.74;71.1;0.036;16.0824;12.866;16.332;13.441
2021-12-2 17:25:22;4.39;55;32.50;22;0.201;0.021;22.62;72.6;0.020;12.3462K7.301;12.558;7.548;44;0.256;0.037;21.74;71.1;0.036;16.0824;12.866;16.332;13.441
2021-12-2 17:30:22;4.39;57;32.30;22S0.195;0.022;22.62;72.6;0.021;12.0032;7.503;12.209;7.756;44;0.256;0.037;21.74;71.1;0.036;16.0824;12.866;16.332;13.441
2021-12-2 17:35:22;4.39;58;32.70;22;0.197;0.021;22.62;72.6;0.021;12.1012;7.402;12.309;7.652;44;0.256;0.037;21.74;71.1;0.036;16.0824;12.866;16.332;13.441
2021-12-2 17:40:22;4.39;58;32.50;22;0.199;0.021;22.62;72.6;0.020;12.2242;7.351;12.434;7.600;44;0.254;0.038;21.74;71.1;0.036;15.9644;13.054;16.213;13.637
2021-12-2 17:45:22;4.39;58;32.60;2b;0.201;0.021;22.62;72.6;0.020;12.3462;7.301;12.558;7.548;44;0.254;0.038;21.74;71.1;0.036;15.9644;13.054;16.213;13.637
2021-12-2 17:50:22;4.39;58;32.20;22;0.199;0.021;22.62;72.6;0.020;12.2242;7.351;12.434;7.600;44;0.258;0.037;21.74;71.1;0.036;16.2754;12.776;16.528;13.346
2021-12-2 17:55:22;4.39;59;32.00;22;0.201;0.021;22.62;72.6;0.020;12.3462;7.301;12.558;7.548;44;0.256;0.037;21.74;71.1;0.036;16.0824;12.866;16.332;13.441
2021-12-2 18:0:21;4.39;59;32.00;22;0.201;0.021;22.62;72.6;0.020;12.3462;7.301;12.558;7.548;44;0.256;0.037;21.74;71.1;0.036;16.0824;12.866;16.332;13.441
2021-12-2 18:5:21;4.39;59;31.70;22;0.193;0.022;22.62;72.6;0.021;11.8792;7.554;12.085;7.800;44;0.254;0.038;21.74;71.1;0.036;15.9644;13.054;16.213;13.637
2021-12-2 18:10:21;4.39;59;31.70;22;0.201;0.021;22.62;72.6;0.020;12.3462;7.301;12.558;7.548;44;0.254;0.038;21.74;71.1;0.036;15.9644;13.054;16.213;13.637
2021-12-2 18:15:21;4.39;59;31.40;22;0.201;0.021;22.62;72.6;0.020;12.3462;7.301;12.558;7.548;44;0.254;0.038;21.74;71.1;0.036;15.9644;13.054;16.213;13.637
2021-12-2 18:20:21;4.39;61;31.60;22;0.197;0.021;22.62;72.6;0.021;12.1012;7.402;12.309;7.652;44;0.258;0.037;21.74;71.1;0.036;16.2754;12.776;16.528;13.346
2021-12-2 18:25:21;4.38;60;31.60;22;0.197;0.021;22.62;72.6;0.021;12.1482;7.462;12.357;7.715;44;0.258;0.037;21.74;71.1;0.036;16.2754;12.776;16.528;13.346
2021-12-2 18:30:20;4.39;61;31.30;22;0.192;0.022;22.62;72.6;0.021;11.7972;7.665;12.000;7.924;44;0.256;0.037;21.74;71.1;0.036;16.0824;12.866;16.332;13.441
2021-12-2 18:35:24;4.38;61;31.40;22;0.199;0.021;22.62;72.6;0.020;12.2252;7.352;12.438;7.592;44;0.258;0.037;21.74;71.1;0.036;16.2754;12.776;16.528;13.346
2021-12-2 18:40:20;4.38;60;31.20;22;0.199;0.021;22.62;72.6;0.021;12.2712;7.412;12.482;7.662;44;0.254;0.038;21.74;71.1;0.036;15.9624;13.053;16.208;13.651
2021-12-2 18:45:24;4.37;62;30.90;22;0.197;0.021;22.62;72.6;0.021;12.1022;7.403;12.313;7.644;44;0.258;0.037;21.74;71.1;0.036;16.2754;12.776;16.528;13.346
2021-12-2 18:50:24;4.37;63;30.80;22;0.199;0.021;22.62;72.6;0.021;12.2712;7.412;12.482;7.662;44;0.256;0.037;21.74;71.1;0.036;16.0824;12.866;16.332;13.441
2021-12-2 18:55:23;4.37;63;30.60;22;0.197;0.021;22.62;72.6;0.021;12.1022;7.403;12.313;7.644;44;0.254;0.038;21.74;71.1;0.036;15.9644;13.054;16.213;13.637
2021-12-2 19:0:23;4.37;62;30.40;22;0.197;0.021;22.62;72.6;0.021;12.1012;7.402;12.309;7.652;44;0.258;0.037;21.74;71.1;0.036;16.2754;12.776;16.528;13.346
2021-12-2 19:5:22;4.37;64;30.10;22;0.201;0.021;22.62;72.6;0.020;12.3472;7.302;12.561;7.539;44;0.256;0.037;21.74;71.1;0.036;16.0824;12.866;16.332;13.441
2021-12-2 19:10:22;4.36;65;29.80;22;0.199;0.021;22.62;72.6;0.021;12.2712;7.412;12.482;7.662;44;0.256;0.037;21.74;71.1;0.036;16.0794;12.865;16.327;13.455
2021-12-2 19:15:21;4.36;66;29.50;22;0.201;0.021;22.62;72.6;0.020;12.3472;7.302;12.561;7.539;44;0.249;0.039;21.94;71.5;0.037;15.5984;13.307;15.838;13.917
2021-12-2 19:20:21;4.36;68;29.00;22;0.199;0.021;22.62;72.6;0.021;12.2712;7.412;12.482;7.662;44;0.258;0.037;21.74;71.1;0.036;16.2754;12.776;16.528;13.346
2021-12-2 19:25:20;4.36;70;28.50;22;0.195;0.022;22.62;72.6;0.021;12.0242;7.513;12.230;7.767;44;0.256;0.037;21.74;71.1;0.036;16.0794;12.865;16.327;13.455
2021-12-2 19:30:24;4.36;71;28.10;22;0.199;0.021;22.62;72.6;0.021;12.2712;7.412;12.482;7.662;44;0.254;0.038;21.54;70.7;0.036;15.9624;13.053;16.208;13.651
2021-12-2 19:35:23;4.36;74;27.10;22;0.195;0.022;22.62;72.6;0.021;12.0242;7.513;12.230;7.767;44;0.254;0.038;21.74;71.1;0.036;15.9624;13.053;16.208;13.651
2021-12-2 19:40:22;4.35;74;26.90;22;0.195;0.022;22.62;72.6;0.021;12.0242;7.513;12.230;7.767;44;0.258;0.037;21.74;71.1;0.036;16.2734;12.774;16.523;13.360
2021-12-2 19:45:21;4.35;77;26.40;22;0.195;0.022;22.62;72.6;0.021;12.0242;7.513;12.230;7.767;44;0.254;0.038;21.74;71.1;0.036;15.9624;13.053;16.208;13.651
2021-12-2 19:50:20;4.35;79;25.90;22;0.199;0.021;22.62;72.6;0.021;12.2712;7.412;12.482;7.662;44;0.258;0.037;21.74;71.1;0.036;16.2734;12.774;16.523;13.360
2021-12-2 19:55:24;4.35;81;25.30;22;0.203;0.021;22.62;72.6;0.020;12.4882;7.260;12.703;7.506;44;0.254;0.038;21.74;71.1;0.036;15.9624;13.053;16.208;13.651
2021-12-2 20:0:22;4.35;83;24.80;22;0.195;0.022;22.62;72.6;0.021;12.0242;7.513;12.230;7.767;44;0.263;0.036;21.74;71.1;0.035;16.6154;12.523;16.870;13.097
2021-12-2 20:5:21;4.34;86;24.10;22;0.195;0.022;22.62;72.6;0.021;12.0242;7.513;12.230;7.767;44;0.256;0.037;21.74;71.1;0.036;16.0794;12.865;16.327;13.455
2021-12-2 20:10:20;4.34;87;23.60;22;0.199;0.021;22.62;72.6;0.021;12.2712;7.412;12.482;7.662;44;0.254;0.038;21.74;71.1;0.036;15.9624;13.053;16.208;13.651
2021-12-2 20:15:23;4.33;87;23.60;22;0.195;0.022;22.62;72.6;0.021;12.0242;7.513;12.230;7.767;44;0.254;0.038;21.74;71.1;0.036;15.9624;13.053;16.208;13.651
2021-12-2 20:20:21;4.33;87;23.70;22;0.199;0.021;22.62;72.6;0.021;12.2702;7.411;12.478;7.671;44;0.256;0.037;21.74;71.1;0.036;16.0794;12.865;16.327;13.455
2021-12-2 20:25:20;4.33;85;24.00;22;0.195;0.022;22.62;72.6;0.021;12.0242;7.513;12.230;7.767;44;0.258;0.037;21.74;71.1;0.036;16.2734;12.774;16.523;13.360
2021-12-2 20:30:23;4.33;86;24.10;22;0.195;0.022;22.62;72.6;0.021;12.0242;7.513;12.230;7.767;44;0.254;0.038;21.54;70.7;0.036;15.9624;13.053;16.208;13.651
2021-12-2 20:35:21;4.33;89;22.80;22;0.199;0.021;22.62;72.6;0.021;12.2712;7.412;12.482;7.662;44;0.257;0.038;21.74;71.1;0.036;16.1564;12.960;16.402;13.570
2021-12-2 20:40:20;4.33;90;22.10;22;0.203;0.021;22.62;72.6;0.020;12.4872;7.260;12.699;7.514;44;0.256;0.037;21.74;71.1;0.036;16.0794;12.865;16.327;13.455
2021-12-2 20:45:22;4.33;89;22.60;22;0.192;0.022;22.42;72.3;0.021;11.8172;7.675;12.018;7.944;44;0.258;0.037;21.74;71.1;0.036;16.2734;12.774;16.523;13.360
2021-12-2 20:50:21;4.33;88;23.00;22;0.195;0.022;22.62;72.6;0.021;12.0232;7.513;12.227;7.775;44;0.256;0.037;21.54;70.7;0.036;16.0794;12.865;16.327;13.455
2021-12-2 20:55:19;4.33;88;23.00;22;0.200;0.021;22.62;72.6;0.021;12.2912;7.421;12.500;7.681;44;0.254;0.038;21.74;71.1;0.036;15.9604;13.051;16.203;13.665
2021-12-2 21:0:21;4.33;87;23.20;22;0.195;0.022;22.62;72.6;0.021;12.0232;7.513;12.227;7.775;44;0.256;0.037;21.54;70.7;0.036;16.0794;12.865;16.327;13.455
2021-12-2 21:5:20;4.32;88;22.90;22;0.197;0.021;22.62;72.6;0.021;12.1472;7.462;12.353;7.723;44;0.254;0.038;21.74;71.1;0.036;15.9624;13.053;16.208;13.651
2021-12-2 21:10:22;4.32;90;22.00;22;0.195;0.022;22.42;72.3;0.021;12.0232;7.513;12.227;7.775;44;0.258;0.037;21.54;70.7;0.036;16.2734;12.774;16.523;13.360
2021-12-2 21:15:20;4.32;90;22.10;22;0.199;0.021;22.62;72.6;0.021;12.2702;7.411;12.478;7.671;44;0.256;0.037;21.54;70.7;0.036;16.0794;12.865;16.327;13.455
2021-12-2 21:20:23;4.32;88;22.70;22;0.195;0.022;22.42;72.3;0.021;12.0232;7.513;12.227;7.775;44;0.258;0.037;21.54;70.7;0.036;16.2734;12.774;16.523;13.360
2021-12-2 21:25:21;4.32;87;22.80;22;0.195;0.022;22.42;72.3;0.021;12.0232;7.513;12.227;7.775;44;0.254;0.038;21.54;70.7;0.036;15.9604;13.051;16.203;13.665
2021-12-2 21:30:19;4.32;90;21.80;22;0.195;0.022;22.62;72.6;0.021;12.0232;7.513;12.227;7.775;44;0.253;0.038;21.54;70.7;0.036;15.8844;12.956;16.128;13.550
2021-12-2 21:35:22;4.32;91;21.60;22;0.195;0.022;22.62;72.6;0.021;12.0222;7.512;12.224;7.784;44;0.254;0.038;21.54;70.7;0.036;15.9604;13.051;16.203;13.665
2021-12-2 21:40:20;4.32;89;22.20;22;0.195;0.022;22.42;72.3;0.021;12.0222;7.512;12.224;7.784;44;0.258;0.037;21.54;70.7;0.036;16.2704;12.773;16.518;13.374
2021-12-2 21:45:22;4.32;87;22.70;22;0.195;0.022;22.62;72.6;0.021;12.0222;7.512;12.224;7.784;44;0.254;0.038;21.74;71.1;0.036;15.9604;13.051;16.203;13.665
2021-12-2 21:50:20;4.32;86;22.90;22;0.195;0.022;22.42;72.3;0.021;12.0222;7.512;12.224;7.784;44;0.254;0.038;21.74;71.1;0.036;15.9604;13.051;16.203;13.665
2021-12-2 21:55:23;4.32;86;22.80;22;0.202;0.021;22.62;72.6;0.020;12.4122;7.370;12.621;7.637;44;0.254;0.038;21.54;70.7;0.036;15.9604;13.051;16.203;13.665
2021-12-2 22:0:21;4.32;86;22.70;22;0.195;0.022;22.42;72.3;0.021;12.0222;7.512;12.224;7.784;44;0.254;0.038;21.54;70.7;0.036;15.9604;13.051;16.203;13.665
2021-12-2 22:5:19;4.32;88;22.00;22;0.193;0.022;22.42;72.3;0.021;11.8962;7.563;12.097;7.837;44;0.256;0.037;21.54;70.7;0.036;16.0794;12.865;16.327;13.455
2021-12-2 22:10:21;4.32;87;22.30;22;0.195;0.022;22.42;72.3;0.021;12.0222;7.512;12.224;7.784;44;0.254;0.038;21.74;71.1;0.036;15.9604;13.051;16.203;13.665
2021-12-2 22:15:19;4.32;87;22.20;22;0.195;0.022;22.42;72.3;0.021;12.0222;7.512;12.224;7.784;44;0.256;0.037;21.54;70.7;0.036;16.0774;12.864;16.322;13.469
2021-12-2 22:20:22;4.32;87;22.00;22;0.203;0.021;22.62;72.6;0.020;12.4852;7.259;12.692;7.530;44;0.258;0.037;21.54;70.7;0.036;16.2704;12.773;16.518;13.374
2021-12-2 22:25:20;4.32;88;21.80;22;0.203;0.021;22.62;72.6;0.020;12.4852;7.259;12.692;7.530;44;0.254;0.038;21.54;70.7;0.036;15.9604;13.051;16.203;13.665
2021-12-2 22:30:22;4.31;87;21.90;22;0.195;0.022;22.42;72.3;0.021;12.0222;7.512;12.224;7.784;44;0.251;0.038;21.54;70.7;0.037;15.7614;13.143;16.001;13.761
2021-12-2 22:35:20;4.31;88;21.50;22;0.195;0.022;22.42;72.3;0.021;12.0222;7.512;12.224;7.784;44;0.254;0.038;21.54;70.7;0.036;15.9604;13.051;16.203;13.665
2021-12-2 22:40:23;4.31;88;21.50;22;0.195;0.022;22.42;72.3;0.021;12.0222;7.512;12.224;7.784;44;0.254;0.038;21.74;71.1;0.036;15.9604;13.051;16.203;13.665
2021-12-2 22:45:21;4.31;88;21.40;22;0.197;0.021;22.42;72.3;0.021;12.1462;7.461;12.350;7.731;44;0.258;0.037;21.54;70.7;0.036;16.2704;12.773;16.518;13.374
2021-12-2 22:50:19;4.31;88;21.30;22;0.195;0.022;22.42;72.3;0.021;12.0222;7.512;12.224;7.784;44;0.254;0.038;21.54;70.7;0.036;15.9604;13.051;16.203;13.665
2021-12-2 22:55:21;4.31;88;21.30;22;0.195;0.022;22.42;72.3;0.021;12.0202;7.511;12.220;7.792;44;0.254;0.038;21.54;70.7;0.036;15.9604;13.051;16.203;13.665
2021-12-2 23:0:19;4.31;89;21.20;22;0.195;0.022;22.42;72.3;0.021;12.0202;7.511;12.220;7.792;44;0.254;0.038;21.74;71.1;0.036;15.9604;13.051;16.203;13.665
2021-12-2 23:5:22;4.31;88;21.40;22;0.197;0.022;22.42;72.3;0.021;12.1442;7.461;12.347;7.740;44;0.263;0.036;21.54;70.7;0.035;16.6104;12.521;16.860;13.125
2021-12-2 23:10:19;4.31;89;21.20;22;0.195;0.022;22.42;72.3;0.021;12.0202;7.511;12.220;7.792;44;0.258;0.037;21.54;70.7;0.036;16.2704;12.773;16.518;13.374
2021-12-2 23:15:22;4.31;88;21.20;22;0.195;0.022;22.42;72.3;0.021;12.0202;7.511;12.220;7.792;44;0.254;0.038;21.54;70.7;0.036;15.9604;13.051;16.203;13.665
2021-12-2 23:20:20;4.30;88;21.30;22;0.197;0.022;22.42;72.3;0.021;12.1432;7.460;12.343;7.748;44;0.254;0.038;21.54;70.7;0.036;15.9604;13.051;16.203;13.665
2021-12-2 23:25:22;4.31;90;20.70;22;0.195;0.022;22.42;72.3;0.021;12.0202;7.511;12.220;7.792;44;0.258;0.037;21.54;70.7;0.036;16.2704;12.773;16.518;13.374
2021-12-2 23:30:20;4.30;91;20.20;22;0.197;0.022;22.42;72.3;0.021;12.1432;7.460;12.343;7.748;44;0.254;0.038;21.54;70.7;0.036;15.9604;13.051;16.203;13.665
2021-12-2 23:35:22;4.30;91;19.90;22;0.199;0.021;22.42;72.3;0.021;12.2662;7.409;12.468;7.696;44;0.254;0.038;21.54;70.7;0.036;15.9604;13.051;16.203;13.665
2021-12-2 23:40:20;4.30;91;20.10;22;0.195;0.022;22.42;72.3;0.021;12.0192;7.511;12.217;7.801;44;0.261;0.037;21.54;70.7;0.035;16.5024;12.706;16.750;13.319
2021-12-2 23:45:22;4.30;91;20.00;22;0.195;0.022;22.42;72.3;0.021;12.0192;7.511;12.217;7.801;44;0.254;0.038;21.54;70.7;0.036;15.9604;13.051;16.203;13.665
2021-12-2 23:50:20;4.30;91;19.60;22;0.199;0.021;22.42;72.3;0.021;12.2652;7.409;12.465;7.704;44;0.254;0.038;21.74;71.1;0.036;15.9584;13.050;16.198;13.680
2021-12-2 23:55:22;4.30;91;20.10;22;0.197;0.022;22.42;72.3;0.021;12.1432;7.460;12.343;7.748;44;0.254;0.038;21.54;70.7;0.036;15.9584;13.050;16.198;13.680
