2021-12-9 0:0:22;4.31;90;20.20;22;0.196;0.021;23.72;74.7;0.020;12.0302;7.368;12.262;7.518;44;0.259;0.037;22.64;72.6;0.036;16.3004;12.791;16.586;13.193
2021-12-9 0:5:20;4.30;91;19.90;22;0.196;0.021;23.72;74.7;0.020;12.0312;7.368;12.265;7.510;44;0.261;0.036;22.64;72.6;0.035;16.4114;12.605;16.699;13.001
2021-12-9 0:10:22;4.30;91;19.90;22;0.194;0.021;23.72;74.7;0.021;11.9082;7.418;12.139;7.561;44;0.253;0.037;22.64;72.6;0.036;15.8674;12.946;16.142;13.367
2021-12-9 0:15:20;4.30;91;19.50;22;0.196;0.021;23.52;74.3;0.020;12.0292;7.367;12.258;7.527;44;0.250;0.038;22.64;72.6;0.037;15.6224;13.324;15.894;13.758
2021-12-9 0:20:22;4.30;90;19.10;22;0.196;0.021;23.72;74.7;0.020;12.0302;7.368;12.262;7.518;44;0.251;0.038;22.64;72.6;0.037;15.7464;13.134;16.020;13.562
2021-12-9 0:25:20;4.30;89;18.90;22;0.196;0.021;23.52;74.3;0.020;12.0302;7.368;12.262;7.518;44;0.251;0.038;22.64;72.6;0.037;15.7464;13.134;16.020;13.562
2021-12-9 0:30:22;4.30;89;19.10;22;0.197;0.021;23.52;74.3;0.020;12.1062;7.258;12.339;7.406;44;0.250;0.038;22.64;72.6;0.037;15.6224;13.324;15.894;13.758
2021-12-9 0:35:20;4.30;89;19.20;22;0.194;0.021;23.52;74.3;0.021;11.9072;7.418;12.136;7.569;44;0.251;0.038;22.64;72.6;0.037;15.7464;13.134;16.020;13.562
2021-12-9 0:40:22;4.30;89;19.10;22;0.197;0.021;23.52;74.3;0.020;12.1062;7.258;12.339;7.406;44;0.256;0.037;22.64;72.6;0.036;16.0624;12.855;16.341;13.274
2021-12-9 0:45:20;4.30;89;19.00;22;0.196;0.021;23.52;74.3;0.020;12.0292;7.367;12.258;7.527;44;0.256;0.037;22.64;72.6;0.036;16.0624;12.855;16.341;13.274
2021-12-9 0:50:22;4.30;88;18.90;22;0.198;0.021;23.52;74.3;0.020;12.1512;7.317;12.383;7.475;44;0.251;0.038;22.64;72.6;0.037;15.7464;13.134;16.020;13.562
2021-12-9 0:55:20;4.30;88;18.90;22;0.191;0.021;23.52;74.3;0.021;11.7612;7.457;11.985;7.618;44;0.256;0.037;22.64;72.6;0.036;16.0624;12.855;16.341;13.274
2021-12-9 1:0:22;4.29;88;18.90;22;0.197;0.021;23.32;73.9;0.020;12.1052;7.257;12.336;7.414;44;0.253;0.037;22.64;72.6;0.036;15.8674;12.946;16.142;13.367
2021-12-9 1:5:20;4.30;88;18.80;22;0.197;0.021;23.32;73.9;0.020;12.1052;7.257;12.336;7.414;44;0.256;0.037;22.64;72.6;0.036;16.0624;12.855;16.341;13.274
2021-12-9 1:10:22;4.29;87;18.50;22;0.197;0.021;23.32;73.9;0.020;12.1042;7.257;12.332;7.423;44;0.251;0.038;22.64;72.6;0.037;15.7444;13.132;16.015;13.576
2021-12-9 1:15:20;4.29;87;18.40;22;0.197;0.021;23.32;73.9;0.020;12.1042;7.257;12.332;7.423;44;0.254;0.037;22.64;72.6;0.036;15.9454;13.043;16.222;13.467
2021-12-9 1:20:22;4.29;84;18.00;22;0.197;0.021;23.52;74.3;0.020;12.1042;7.257;12.332;7.423;44;0.251;0.038;22.64;72.6;0.037;15.7444;13.132;16.015;13.576
2021-12-9 1:25:19;4.29;76;17.70;22;0.197;0.021;23.32;73.9;0.020;12.1042;7.257;12.332;7.423;44;0.262;0.036;22.64;72.6;0.035;16.4894;12.699;16.775;13.113
2021-12-9 1:30:21;4.29;79;17.70;22;0.197;0.021;23.32;73.9;0.020;12.1042;7.257;12.332;7.423;44;0.253;0.037;22.64;72.6;0.036;15.8674;12.946;16.142;13.367
2021-12-9 1:35:19;4.28;79;17.80;22;0.197;0.021;23.32;73.9;0.020;12.1042;7.257;12.332;7.423;44;0.259;0.037;22.64;72.6;0.036;16.2974;12.790;16.580;13.206
2021-12-9 1:40:21;4.28;84;17.90;22;0.195;0.021;23.32;73.9;0.020;11.9822;7.307;12.208;7.474;44;0.251;0.038;22.44;72.3;0.037;15.7464;13.134;16.020;13.562
2021-12-9 1:45:18;4.28;77;17.40;22;0.197;0.021;23.32;73.9;0.020;12.1032;7.256;12.329;7.431;44;0.251;0.038;22.44;72.3;0.037;15.7444;13.132;16.015;13.576
2021-12-9 1:50:20;4.28;75;17.40;22;0.197;0.021;23.32;73.9;0.020;12.1032;7.256;12.329;7.431;44;0.256;0.037;22.64;72.6;0.036;16.0604;12.853;16.336;13.288
2021-12-9 1:55:22;4.28;78;17.50;22;0.199;0.021;23.32;73.9;0.020;12.2242;7.206;12.452;7.380;44;0.261;0.036;22.44;72.3;0.035;16.4064;12.603;16.688;13.028
2021-12-9 2:0:20;4.28;76;17.40;22;0.193;0.021;23.32;73.9;0.021;11.8832;7.406;12.105;7.584;44;0.250;0.038;22.64;72.6;0.037;15.6204;13.322;15.889;13.772
2021-12-9 2:5:22;4.28;83;17.60;22;0.193;0.021;23.32;73.9;0.021;11.8832;7.406;12.105;7.584;44;0.253;0.037;22.44;72.3;0.036;15.8644;12.944;16.137;13.381
2021-12-9 2:10:19;4.28;80;17.40;22;0.197;0.021;23.32;73.9;0.020;12.1032;7.256;12.329;7.431;44;0.251;0.038;22.44;72.3;0.037;15.7444;13.132;16.015;13.576
2021-12-9 2:15:21;4.28;73;17.10;22;0.191;0.021;23.32;73.9;0.021;11.7582;7.455;11.975;7.644;44;0.253;0.037;22.44;72.3;0.036;15.8644;12.944;16.137;13.381
2021-12-9 2:20:19;4.28;73;17.10;22;0.198;0.020;23.32;73.9;0.020;12.1762;7.146;12.401;7.327;44;0.259;0.037;22.44;72.3;0.036;16.2954;12.788;16.575;13.220
2021-12-9 2:25:21;4.28;75;17.10;22;0.193;0.021;23.32;73.9;0.021;11.8822;7.405;12.101;7.593;44;0.256;0.037;22.44;72.3;0.036;16.0604;12.853;16.336;13.288
2021-12-9 2:30:18;4.28;71;17.10;22;0.199;0.021;23.32;73.9;0.020;12.2212;7.205;12.445;7.396;44;0.251;0.038;22.64;72.6;0.037;15.7424;13.131;16.009;13.590
2021-12-9 2:35:20;4.28;67;17.00;22;0.191;0.021;23.32;73.9;0.021;11.7582;7.455;11.975;7.644;44;0.251;0.038;22.44;72.3;0.037;15.7444;13.132;16.015;13.576
2021-12-9 2:40:22;4.27;69;17.10;22;0.193;0.021;23.32;73.9;0.021;11.8812;7.405;12.098;7.601;44;0.261;0.036;22.44;72.3;0.035;16.4064;12.603;16.688;13.028
2021-12-9 2:45:19;4.27;69;17.00;22;0.195;0.021;23.32;73.9;0.020;12.0042;7.355;12.223;7.550;44;0.251;0.038;22.44;72.3;0.037;15.7424;13.131;16.009;13.590
2021-12-9 2:50:21;4.27;64;16.90;22;0.193;0.021;23.32;73.9;0.021;11.8812;7.405;12.098;7.601;44;0.251;0.038;22.64;72.6;0.037;15.7424;13.131;16.009;13.590
2021-12-9 2:55:19;4.27;66;16.80;22;0.194;0.021;23.02;73.4;0.020;11.9582;7.295;12.177;7.488;44;0.260;0.036;22.44;72.3;0.035;16.4044;12.601;16.683;13.042
2021-12-9 3:0:21;4.27;60;16.60;22;0.194;0.021;23.02;73.4;0.020;11.9582;7.295;12.177;7.488;44;0.256;0.037;22.44;72.3;0.036;16.0574;12.852;16.330;13.302
2021-12-9 3:5:18;4.27;56;16.60;22;0.194;0.021;23.02;73.4;0.020;11.9582;7.295;12.177;7.488;44;0.251;0.038;22.44;72.3;0.037;15.7424;13.131;16.009;13.590
2021-12-9 3:10:20;4.27;52;16.50;22;0.194;0.021;23.02;73.4;0.020;11.9572;7.294;12.173;7.497;44;0.256;0.037;22.44;72.3;0.036;16.0574;12.852;16.330;13.302
2021-12-9 3:15:22;4.27;58;16.70;22;0.194;0.021;23.02;73.4;0.020;11.9572;7.294;12.173;7.497;44;0.253;0.037;22.44;72.3;0.036;15.8624;12.943;16.132;13.396
2021-12-9 3:20:19;4.27;60;16.80;22;0.196;0.021;23.02;73.4;0.020;12.0792;7.245;12.297;7.445;44;0.251;0.038;22.64;72.6;0.036;15.7404;13.129;16.004;13.605
2021-12-9 3:25:21;4.27;57;16.80;22;0.192;0.021;23.02;73.4;0.020;11.8342;7.344;12.048;7.548;44;0.256;0.037;22.44;72.3;0.036;16.0574;12.852;16.330;13.302
2021-12-9 3:30:18;4.27;54;16.70;22;0.194;0.021;23.02;73.4;0.020;11.9572;7.294;12.173;7.497;44;0.253;0.037;22.44;72.3;0.036;15.8624;12.943;16.132;13.396
2021-12-9 3:35:20;4.27;54;16.80;22;0.196;0.021;23.02;73.4;0.020;12.0782;7.244;12.294;7.454;44;0.256;0.037;22.44;72.3;0.036;16.0574;12.852;16.330;13.302
2021-12-9 3:40:22;4.27;64;17.00;22;0.196;0.021;23.02;73.4;0.020;12.0782;7.244;12.294;7.454;44;0.256;0.037;22.44;72.3;0.036;16.0574;12.852;16.330;13.302
2021-12-9 3:45:19;4.27;69;17.10;22;0.194;0.021;23.02;73.4;0.020;11.9562;7.294;12.170;7.505;44;0.251;0.038;22.44;72.3;0.037;15.7424;13.131;16.009;13.590
2021-12-9 3:50:21;4.27;71;17.10;22;0.194;0.021;23.02;73.4;0.020;11.9562;7.294;12.170;7.505;44;0.253;0.037;22.44;72.3;0.036;15.8624;12.943;16.132;13.396
2021-12-9 3:55:18;4.27;76;17.20;22;0.191;0.021;22.82;73.0;0.021;11.7342;7.443;11.944;7.659;44;0.251;0.038;22.44;72.3;0.036;15.7404;13.129;16.004;13.605
2021-12-9 4:0:20;4.27;77;17.10;22;0.194;0.021;23.02;73.4;0.020;11.9562;7.294;12.170;7.505;44;0.253;0.037;22.44;72.3;0.036;15.8604;12.941;16.127;13.410
2021-12-9 4:5:22;4.27;82;17.20;22;0.196;0.021;23.02;73.4;0.020;12.0782;7.244;12.294;7.454;44;0.256;0.037;22.44;72.3;0.036;16.0554;12.851;16.325;13.316
2021-12-9 4:10:19;4.27;78;16.90;22;0.196;0.021;22.82;73.0;0.020;12.0782;7.244;12.294;7.454;44;0.256;0.037;22.44;72.3;0.036;16.0554;12.851;16.325;13.316
2021-12-9 4:15:21;4.27;78;16.60;22;0.192;0.021;22.82;73.0;0.020;11.8132;7.333;12.024;7.546;44;0.253;0.037;22.44;72.3;0.036;15.8604;12.941;16.127;13.410
2021-12-9 4:20:19;4.27;74;16.50;22;0.189;0.021;22.82;73.0;0.021;11.6082;7.492;11.814;7.718;44;0.256;0.037;22.44;72.3;0.036;16.0554;12.851;16.325;13.316
2021-12-9 4:25:20;4.27;64;16.00;22;0.192;0.021;22.82;73.0;0.020;11.8132;7.333;12.024;7.546;44;0.256;0.037;22.44;72.3;0.036;16.0554;12.851;16.325;13.316
2021-12-9 4:30:22;4.27;50;15.90;22;0.198;0.021;23.02;73.4;0.020;12.1962;7.193;12.410;7.419;44;0.251;0.038;22.44;72.3;0.036;15.7404;13.129;16.004;13.605
2021-12-9 4:35:19;4.27;60;16.00;22;0.191;0.021;22.82;73.0;0.021;11.7332;7.443;11.941;7.667;44;0.251;0.038;22.44;72.3;0.036;15.7374;13.128;15.999;13.619
2021-12-9 4:40:21;4.27;67;16.20;22;0.198;0.021;22.82;73.0;0.020;12.1962;7.193;12.410;7.419;44;0.251;0.038;22.44;72.3;0.036;15.7374;13.128;15.999;13.619
2021-12-9 4:45:19;4.27;81;16.60;22;0.198;0.021;23.02;73.4;0.020;12.1962;7.193;12.410;7.419;44;0.251;0.038;22.14;71.9;0.036;15.7374;13.128;15.999;13.619
2021-12-9 4:50:20;4.27;77;16.40;22;0.196;0.021;22.82;73.0;0.020;12.0752;7.243;12.287;7.470;44;0.251;0.038;22.14;71.9;0.036;15.7374;13.128;15.999;13.619
2021-12-9 4:55:22;4.27;69;16.20;22;0.192;0.021;22.82;73.0;0.020;11.8122;7.333;12.021;7.554;44;0.253;0.037;22.44;72.3;0.036;15.8584;12.940;16.122;13.424
2021-12-9 5:0:19;4.27;64;16.10;22;0.197;0.020;22.82;73.0;0.020;12.1492;7.133;12.360;7.366;44;0.254;0.038;22.44;72.3;0.036;15.9364;13.037;16.201;13.524
2021-12-9 5:5:21;4.27;55;15.80;22;0.192;0.021;22.82;73.0;0.020;11.8102;7.332;12.018;7.562;44;0.256;0.037;22.44;72.3;0.036;16.0534;12.849;16.320;13.330
2021-12-9 5:10:18;4.27;50;15.90;22;0.199;0.020;22.82;73.0;0.020;12.2682;7.084;12.481;7.315;44;0.253;0.037;22.14;71.9;0.036;15.8584;12.940;16.122;13.424
2021-12-9 5:15:20;4.27;53;16.10;22;0.198;0.021;22.82;73.0;0.020;12.1952;7.193;12.407;7.427;44;0.251;0.038;22.14;71.9;0.036;15.7374;13.128;15.999;13.619
2021-12-9 5:20:22;4.27;48;16.10;22;0.196;0.021;22.82;73.0;0.020;12.0542;7.232;12.263;7.468;44;0.253;0.037;22.14;71.9;0.036;15.8584;12.940;16.122;13.424
2021-12-9 5:25:19;4.27;62;16.20;22;0.194;0.021;22.82;73.0;0.020;11.9332;7.283;12.143;7.511;44;0.258;0.037;22.44;72.3;0.035;16.2464;12.759;16.516;13.236
2021-12-9 5:30:21;4.27;69;16.10;22;0.194;0.021;22.82;73.0;0.020;11.9322;7.282;12.139;7.519;44;0.253;0.037;22.14;71.9;0.036;15.8584;12.940;16.122;13.424
2021-12-9 5:35:18;4.27;53;15.70;22;0.192;0.021;22.82;73.0;0.020;11.8092;7.332;12.015;7.570;44;0.251;0.038;22.14;71.9;0.036;15.7354;13.126;15.994;13.633
2021-12-9 5:40:20;4.27;29;15.70;22;0.192;0.021;22.82;73.0;0.020;11.8092;7.332;12.015;7.570;44;0.251;0.038;22.14;71.9;0.036;15.7354;13.126;15.994;13.633
2021-12-9 5:45:21;4.27;41;16.00;22;0.196;0.021;22.82;73.0;0.020;12.0542;7.232;12.263;7.468;44;0.256;0.037;22.14;71.9;0.036;16.0534;12.849;16.320;13.330
2021-12-9 5:50:19;4.27;61;16.50;22;0.196;0.021;22.62;72.6;0.020;12.0522;7.232;12.260;7.476;44;0.255;0.037;22.14;71.9;0.036;16.0514;12.848;16.315;13.344
2021-12-9 5:55:20;4.27;71;16.60;22;0.193;0.021;22.82;73.0;0.020;11.8872;7.222;12.093;7.458;44;0.253;0.037;22.14;71.9;0.036;15.8554;12.938;16.116;13.438
2021-12-9 6:0:22;4.26;69;16.10;22;0.194;0.021;22.62;72.6;0.020;11.9312;7.282;12.136;7.528;44;0.253;0.037;22.14;71.9;0.036;15.8554;12.938;16.116;13.438
2021-12-9 6:5:19;4.27;43;15.50;22;0.194;0.021;22.62;72.6;0.020;11.9312;7.282;12.136;7.528;44;0.251;0.038;22.14;71.9;0.036;15.7354;13.126;15.994;13.633
2021-12-9 6:10:21;4.27;28;15.50;22;0.196;0.021;22.62;72.6;0.020;12.0522;7.232;12.260;7.476;44;0.255;0.037;22.14;71.9;0.036;16.0514;12.848;16.315;13.344
2021-12-9 6:15:18;4.26;21;16.00;22;0.193;0.021;22.62;72.6;0.020;11.8852;7.222;12.090;7.466;44;0.253;0.037;22.14;71.9;0.036;15.8554;12.938;16.116;13.438
2021-12-9 6:20:20;4.26;56;16.50;22;0.197;0.020;22.62;72.6;0.020;12.1272;7.123;12.335;7.364;44;0.253;0.037;22.14;71.9;0.036;15.8554;12.938;16.116;13.438
2021-12-9 6:25:22;4.27;63;16.50;22;0.197;0.020;22.62;72.6;0.020;12.1272;7.123;12.335;7.364;44;0.251;0.038;22.14;71.9;0.036;15.7334;13.125;15.989;13.648
2021-12-9 6:30:19;4.26;65;16.60;22;0.196;0.021;22.62;72.6;0.020;12.0512;7.231;12.256;7.484;44;0.251;0.038;22.14;71.9;0.036;15.7334;13.125;15.989;13.648
2021-12-9 6:35:21;4.26;71;17.10;22;0.189;0.021;22.62;72.6;0.020;11.6632;7.370;11.862;7.628;44;0.255;0.037;22.14;71.9;0.036;16.0514;12.848;16.315;13.344
2021-12-9 6:40:18;4.26;51;16.90;22;0.195;0.021;22.62;72.6;0.020;12.0062;7.172;12.210;7.423;44;0.253;0.037;22.14;71.9;0.036;15.8554;12.938;16.116;13.438
2021-12-9 6:45:20;4.27;48;16.80;22;0.197;0.020;22.62;72.6;0.020;12.1262;7.123;12.332;7.372;44;0.251;0.038;22.14;71.9;0.036;15.7334;13.125;15.989;13.648
2021-12-9 6:50:22;4.27;56;17.10;22;0.197;0.020;22.62;72.6;0.020;12.1262;7.123;12.332;7.372;44;0.255;0.037;22.14;71.9;0.036;16.0494;12.846;16.310;13.358
2021-12-9 6:55:19;4.26;84;18.70;22;0.197;0.020;22.62;72.6;0.020;12.1262;7.123;12.332;7.372;44;0.251;0.038;22.14;71.9;0.036;15.7334;13.125;15.989;13.648
2021-12-9 7:0:21;4.27;92;19.60;22;0.195;0.021;22.42;72.3;0.020;12.0062;7.172;12.210;7.423;44;0.253;0.037;22.14;71.9;0.036;15.8534;12.937;16.111;13.452
2021-12-9 7:5:18;4.27;93;19.70;22;0.197;0.020;22.42;72.3;0.020;12.1262;7.123;12.332;7.372;44;0.255;0.037;22.14;71.9;0.036;16.0494;12.846;16.310;13.358
2021-12-9 7:10:20;4.27;93;20.20;22;0.197;0.020;22.42;72.3;0.020;12.1262;7.123;12.332;7.372;44;0.255;0.037;22.14;71.9;0.036;16.0494;12.846;16.310;13.358
2021-12-9 7:15:22;4.26;92;20.60;22;0.197;0.021;22.62;72.6;0.020;12.1252;7.122;12.329;7.380;44;0.253;0.037;22.14;71.9;0.036;15.8534;12.937;16.111;13.452
2021-12-9 7:20:20;4.27;92;20.80;22;0.197;0.021;22.62;72.6;0.020;12.1252;7.122;12.329;7.380;44;0.255;0.037;22.14;71.9;0.036;16.0514;12.848;16.315;13.344
2021-12-9 7:25:22;4.27;92;21.00;22;0.189;0.021;22.42;72.3;0.020;11.6632;7.370;11.862;7.628;44;0.255;0.037;22.14;71.9;0.036;16.0494;12.846;16.310;13.358
2021-12-9 7:30:20;4.27;92;21.00;22;0.189;0.021;22.62;72.6;0.020;11.6622;7.369;11.859;7.636;44;0.255;0.037;22.14;71.9;0.036;16.0514;12.848;16.315;13.344
2021-12-9 7:35:22;4.27;91;21.20;22;0.195;0.021;22.42;72.3;0.020;11.9852;7.162;12.189;7.413;44;0.255;0.037;22.14;71.9;0.036;16.0514;12.848;16.315;13.344
2021-12-9 7:40:20;4.27;91;21.30;22;0.189;0.021;22.42;72.3;0.020;11.6632;7.370;11.862;7.628;44;0.255;0.037;22.14;71.9;0.036;16.0494;12.846;16.310;13.358
2021-12-9 7:45:22;4.27;91;21.40;22;0.188;0.022;22.42;72.3;0.021;11.5832;7.480;11.780;7.742;44;0.251;0.038;22.14;71.9;0.036;15.7334;13.125;15.989;13.648
2021-12-9 7:50:20;4.27;91;21.50;22;0.191;0.021;22.62;72.6;0.020;11.7872;7.320;11.987;7.577;44;0.255;0.037;22.14;71.9;0.036;16.0514;12.848;16.315;13.344
2021-12-9 7:55:22;4.27;91;21.50;22;0.191;0.021;22.62;72.6;0.020;11.7872;7.320;11.987;7.577;44;0.255;0.037;22.14;71.9;0.036;16.0514;12.848;16.315;13.344
2021-12-9 8:0:20;4.27;88;23.30;22;0.189;0.021;22.42;72.3;0.020;11.6632;7.370;11.862;7.628;44;0.255;0.037;22.14;71.9;0.036;16.0514;12.848;16.315;13.344
2021-12-9 8:5:22;4.27;84;24.20;22;0.189;0.021;22.42;72.3;0.020;11.6632;7.370;11.862;7.628;44;0.255;0.037;22.14;71.9;0.036;16.0514;12.848;16.315;13.344
2021-12-9 8:10:21;4.27;83;24.90;22;0.193;0.021;22.62;72.6;0.020;11.9082;7.270;12.109;7.534;44;0.251;0.038;22.14;71.9;0.036;15.7354;13.126;15.994;13.633
2021-12-9 8:15:19;4.27;80;25.60;22;0.197;0.021;22.62;72.6;0.020;12.1252;7.122;12.329;7.380;44;0.255;0.037;22.14;71.9;0.036;16.0514;12.848;16.315;13.344
2021-12-9 8:20:22;4.27;78;26.10;22;0.191;0.021;22.62;72.6;0.020;11.7422;7.261;11.942;7.515;44;0.255;0.037;22.14;71.9;0.036;16.0514;12.848;16.315;13.344
2021-12-9 8:25:20;4.28;77;26.60;22;0.193;0.021;22.62;72.6;0.020;11.9082;7.270;12.109;7.534;44;0.255;0.037;22.14;71.9;0.036;16.0514;12.848;16.315;13.344
2021-12-9 8:30:23;4.27;74;26.70;22;0.193;0.021;22.62;72.6;0.020;11.9082;7.270;12.109;7.534;44;0.258;0.037;22.14;71.9;0.035;16.2464;12.759;16.516;13.236
2021-12-9 8:35:22;4.28;74;27.80;22;0.193;0.021;22.42;72.3;0.020;11.8642;7.212;12.066;7.464;44;0.251;0.038;22.14;71.9;0.036;15.7354;13.126;15.994;13.633
2021-12-9 8:40:20;4.28;75;26.30;22;0.194;0.021;22.62;72.6;0.020;11.9102;7.272;12.115;7.517;44;0.256;0.037;22.14;71.9;0.036;16.0534;12.849;16.320;13.330
2021-12-9 8:45:23;4.27;77;26.10;22;0.193;0.021;22.62;72.6;0.020;11.9092;7.271;12.112;7.525;44;0.253;0.037;22.14;71.9;0.036;15.8584;12.940;16.122;13.424
2021-12-9 8:50:22;4.27;76;26.10;22;0.194;0.021;22.62;72.6;0.020;11.9102;7.272;12.115;7.517;44;0.246;0.039;22.14;71.9;0.037;15.3674;13.381;15.620;13.897
2021-12-9 8:55:21;4.27;75;26.70;22;0.194;0.021;22.62;72.6;0.020;11.9102;7.272;12.115;7.517;44;0.257;0.037;22.44;72.3;0.036;16.1294;12.944;16.395;13.444
2021-12-9 9:0:20;4.27;78;26.10;22;0.193;0.021;22.62;72.6;0.020;11.8652;7.212;12.069;7.456;44;0.256;0.037;22.44;72.3;0.036;16.0534;12.849;16.320;13.330
2021-12-9 9:5:23;4.28;74;26.90;22;0.195;0.021;22.62;72.6;0.020;11.9862;7.163;12.192;7.405;44;0.253;0.037;22.14;71.9;0.036;15.8584;12.940;16.122;13.424
2021-12-9 9:10:22;4.28;72;28.80;22;0.193;0.021;22.62;72.6;0.020;11.8652;7.212;12.069;7.456;44;0.256;0.037;22.14;71.9;0.036;16.0534;12.849;16.320;13.330
2021-12-9 9:15:21;4.28;69;29.30;22;0.197;0.020;22.62;72.6;0.020;12.1262;7.123;12.332;7.372;44;0.256;0.037;22.14;71.9;0.036;16.0534;12.849;16.320;13.330
2021-12-9 9:20:20;4.28;68;29.10;22;0.197;0.020;22.62;72.6;0.020;12.1272;7.123;12.335;7.364;44;0.251;0.038;22.44;72.3;0.036;15.7374;13.128;15.999;13.619
2021-12-9 9:25:23;4.28;68;29.10;22;0.194;0.021;22.62;72.6;0.020;11.9102;7.272;12.115;7.517;44;0.253;0.037;22.44;72.3;0.036;15.8604;12.941;16.127;13.410
2021-12-9 9:30:22;4.29;68;29.20;22;0.194;0.021;22.62;72.6;0.020;11.9102;7.272;12.115;7.517;44;0.251;0.038;22.14;71.9;0.036;15.7374;13.128;15.999;13.619
2021-12-9 9:35:21;4.29;66;29.90;22;0.194;0.021;22.62;72.6;0.020;11.9102;7.272;12.115;7.517;44;0.256;0.037;22.44;72.3;0.036;16.0554;12.851;16.325;13.316
2021-12-9 9:40:21;4.29;67;30.00;22;0.191;0.021;22.62;72.6;0.020;11.7442;7.262;11.948;7.498;44;0.246;0.039;22.44;72.3;0.037;15.3694;13.382;15.625;13.883
2021-12-9 9:45:20;4.29;65;30.00;22;0.190;0.021;22.82;73.0;0.020;11.6662;7.371;11.868;7.611;44;0.256;0.037;22.44;72.3;0.036;16.0554;12.851;16.325;13.316
2021-12-9 9:50:24;4.30;65;30.60;22;0.190;0.021;22.82;73.0;0.020;11.6662;7.371;11.868;7.611;44;0.246;0.039;22.44;72.3;0.037;15.3694;13.382;15.625;13.883
2021-12-9 9:55:23;4.30;64;30.90;22;0.194;0.021;22.82;73.0;0.020;11.9132;7.273;12.122;7.501;44;0.256;0.037;22.44;72.3;0.036;16.0554;12.851;16.325;13.316
2021-12-9 10:0:23;4.30;63;31.70;22;0.193;0.021;22.82;73.0;0.020;11.8672;7.213;12.076;7.439;44;0.253;0.037;22.44;72.3;0.036;15.8604;12.941;16.127;13.410
2021-12-9 10:5:22;4.30;61;31.90;22;0.193;0.021;22.82;73.0;0.020;11.8672;7.213;12.076;7.439;44;0.253;0.037;22.44;72.3;0.036;15.8624;12.943;16.132;13.396
2021-12-9 10:10:22;4.30;63;30.90;22;0.197;0.020;22.82;73.0;0.020;12.1292;7.124;12.342;7.348;44;0.258;0.037;22.44;72.3;0.035;16.2514;12.761;16.527;13.208
2021-12-9 10:15:22;4.30;64;30.60;22;0.194;0.021;22.82;73.0;0.020;11.9132;7.273;12.122;7.501;44;0.258;0.037;22.44;72.3;0.035;16.2514;12.761;16.527;13.208
2021-12-9 10:20:21;4.31;61;31.90;22;0.184;0.022;22.82;73.0;0.021;11.3592;7.632;11.560;7.862;44;0.256;0.037;22.44;72.3;0.036;16.0574;12.852;16.330;13.302
2021-12-9 10:25:21;4.32;60;32.00;22;0.194;0.021;22.82;73.0;0.020;11.9142;7.273;12.125;7.493;44;0.256;0.037;22.44;72.3;0.036;16.0574;12.852;16.330;13.302
2021-12-9 10:30:21;4.32;61;31.20;22;0.194;0.021;22.82;73.0;0.020;11.9142;7.273;12.125;7.493;44;0.256;0.037;22.44;72.3;0.036;16.0574;12.852;16.330;13.302
2021-12-9 10:35:21;4.32;60;32.00;22;0.194;0.021;22.82;73.0;0.020;11.9152;7.274;12.128;7.484;44;0.256;0.037;22.44;72.3;0.036;16.0574;12.852;16.330;13.302
2021-12-9 10:40:21;4.32;61;32.40;22;0.194;0.021;22.82;73.0;0.020;11.9142;7.273;12.125;7.493;44;0.253;0.037;22.44;72.3;0.036;15.8624;12.943;16.132;13.396
2021-12-9 10:45:21;4.33;60;32.00;22;0.197;0.020;22.82;73.0;0.020;12.1312;7.125;12.349;7.332;44;0.256;0.037;22.44;72.3;0.036;16.0604;12.853;16.336;13.288
2021-12-9 10:50:21;4.33;61;32.50;22;0.194;0.021;23.02;73.4;0.020;11.9152;7.274;12.128;7.484;44;0.253;0.037;22.44;72.3;0.036;15.8644;12.944;16.137;13.381
2021-12-9 10:55:21;4.33;60;32.80;22;0.194;0.021;23.02;73.4;0.020;11.9152;7.274;12.128;7.484;44;0.251;0.038;22.44;72.3;0.037;15.7444;13.132;16.015;13.576
2021-12-9 11:0:21;4.33;60;32.30;22;0.192;0.021;23.02;73.4;0.020;11.7932;7.324;12.007;7.527;44;0.256;0.037;22.44;72.3;0.036;16.0604;12.853;16.336;13.288
2021-12-9 11:5:21;4.34;58;33.40;22;0.197;0.020;23.02;73.4;0.020;12.1342;7.126;12.356;7.315;44;0.246;0.038;22.44;72.3;0.037;15.3754;13.387;15.640;13.839
2021-12-9 11:10:21;4.34;58;32.90;22;0.192;0.021;23.02;73.4;0.020;11.7932;7.324;12.007;7.527;44;0.256;0.037;22.44;72.3;0.036;16.0604;12.853;16.336;13.288
2021-12-9 11:15:21;4.35;60;33.00;22;0.197;0.020;23.02;73.4;0.020;12.1342;7.126;12.356;7.315;44;0.251;0.038;22.64;72.6;0.037;15.7444;13.132;16.015;13.576
2021-12-9 11:20:21;4.35;56;33.80;22;0.194;0.021;23.02;73.4;0.020;11.9172;7.275;12.135;7.468;44;0.251;0.038;22.44;72.3;0.037;15.7464;13.134;16.020;13.562
2021-12-9 11:25:22;4.36;55;33.90;22;0.197;0.020;23.02;73.4;0.020;12.1342;7.126;12.356;7.315;44;0.253;0.037;22.44;72.3;0.036;15.8674;12.946;16.142;13.367
2021-12-9 11:30:22;4.36;56;34.20;22;0.190;0.021;23.02;73.4;0.021;11.672d;7.375;11.888;7.561;44;0.256;0.037;22.64;72.6;0.036;16.0624;12.855;16.341;13.274
2021-12-9 11:35:23;4.36;56;34.40;22;0.197;0.020;23.32;73.9;0.020;12.1342;7.126;12.356;7.315;44;0.256;0.037;22.64;72.6;0.036;16.0624;12.855;16.341;13.274
2021-12-9 11:40:23;4.36;56;33.70;22;0.190;0.021;23.32;73.9;0.021;11.6732;7.375;11.891;7.553;44;0.251;0.038;22.64;72.6;0.037;15.7464;13.134;16.020;13.562
2021-12-9 11:45:24;4.36;55;34.80;22;0.190;0.021;23.32;73.9;0.021;11.6732;7.375;11.891;7.553;44;0.256;0.037;22.64;72.6;0.036;16.0644;12.856;16.346;13.260
2021-12-9 11:50:24;4.36;55;33.50;22;0.190;0.021;23.32;73.9;0.021;11.6732;7.375;11.891;7.553;44;0.256;0.037;22.64;72.6;0.036;16.0644;12.856;16.346;13.260
2021-12-9 11:55:25;4.35;58;32.50;22;0.197;0.020;23.32;73.9;0.020;12.1362;7.128;12.362;7.299;44;0.246;0.038;22.64;72.6;0.037;15.3784;13.388;15.645;13.825
2021-12-9 12:0:21;4.35;60;31.60;22;0.190;0.021;23.32;73.9;0.021;11.6732;7.375;11.891;7.553;44;0.253;0.037;22.64;72.6;0.036;15.8694;12.947;16.147;13.353
2021-12-9 12:5:21;4.36;59;33.00;22;0.196;0.021;23.32;73.9;0.020;12.0602;7.236;12.283;7.419;44;0.253;0.037;22.64;72.6;0.036;15.8694;12.947;16.147;13.353
2021-12-9 12:10:22;4.36;58;32.60;22;0.197;0.020;23.32;73.9;0.020;12.1362;7.128;12.362;7.299;44;0.256;0.037;22.64;72.6;0.036;16.0644;12.856;16.346;13.260
2021-12-9 12:15:22;4.36;57;32.90;22;0.197;0.020;23.32;73.9;0.020;12.1362;7.128;12.362;7.299;44;0.256;0.037;22.64;72.6;0.036;16.0644;12.856;16.346;13.260
2021-12-9 12:20:22;4.36;57;33.60;22;0.195;0.020;23.32;73.9;0.020;12.0162;7.177;12.240;7.350;44;0.253;0.037;22.64;72.6;0.036;15.8694;12.947;16.147;13.353
2021-12-9 12:25:22;4.36;54;35.60;22;0.197;0.020;23.32;73.9;0.020;12.13f2;7.128;12.362;7.299;44;0.256;0.037;22.64;72.6;0.036;16.0644;12.856;16.346;13.260
2021-12-9 12:30:23;4.36;55;34.60;22;0.196;0.021;23.32;73.9;0.020;12.0612;7.236;12.286;7.411;44;0.256;0.037;22.64;72.6;0.036;16.0644;12.856;16.346;13.260
2021-12-9 12:35:23;4.36;56;34.40;22;0.197;0.20;23.32;73.9;0.020;12.1362;7.128;12.362;7.299;44;0.251;0.038;22.64;72.6;0.037;15.7484;13.135;16.025;13.547
2021-12-9 12:40:24;4.36;57;32.90;22;0.197;0.020;23.32;73.9;0.020;12.1362;7.128;12.362;7.299;44;0.253;0.037;22.64;72.6;0.036;15.8694;12.947;16.147;13.353
2021-12-9 12:45:24;4.36;59;32.80;22;0.192;0.021;23.32;73.9;0.020;11.7982;7.326;12.020;7.494;44;0.256;0.037;22.64;72.6;0.036;16.0644;12.856;16.346;13.260
2021-12-9 12:50:24;4.37;57;34.20;22;0.198;0.020;23.32;73.9;0.020;12.1372;7.128;12.366;7.291;44;0.256;0.037;22.64;72.6;0.036;16.0644;12.856;16.346;13.260
2021-12-9 12:55:25;4.37;55;34.30;22;0.196;0.020;23.32;73.9;0.020;12.0172;7.178;12.243;7.342;44;0.253;0.037;22.64;72.6;0.036;15.8694;12.947;16.147;13.353
2021-12-9 13:0:21;4.36;57;33.30;22;0.194;0.021;23.32;73.9;0.020;11.9202;7.277;12.145;7.443;44;0.259;0.037;22.64;72.6;0.035;16.2574;12.766;16.543;13.166
2021-12-9 13:5:21;4.37;57;34.30;22;0.198;0.020;23.32;73.9;0.020;12.1382;7.129;12.369;7.283;44;0.251;0.038;22.64;72.6;0.037;15.7484;13.135;16.025;13.547
2021-12-9 13:10:22;4.38;55;34.30;22;0.192;0.021;23.32;73.9;0.020;11.7992;7.327;12.024;7.485;44;0.246;0.038;22.84;73.0;0.037;15.3804;13.390;15.650;13.810
2021-12-9 13:15:22;4.37;57;34.40;22;0.189;0.021;23.32;73.9;0.021;11.5942;7.486;11.813;7.657;44;0.253;0.037;22.64;72.6;0.036;15.8694;12.947;16.147;13.353
2021-12-9 13:20:23;4.37;56;33.40;22;0.192;0.021;23.32;73.9;0.020;11.7992;7.327;12.024;7.485;44;0.256;0.037;22.64;72.6;0.036;16.0664;12.858;16.351;13.246
2021-12-9 13:25:23;4.38;55;34.00;22;0.190;0N021;23.32;73.9;0.021;11.f752;7.376;11.898;7.536;44;0.253;0.037;22.64;72.6;0.036;15.8714;12.949;16.153;13.339
2021-12-9 13:30:24;4.38;55;34.40;22;0.190;0.021;23.32;73.9;0.021;11.6752;7.376;11.898;7.536;44;0.256;0.037;22.64;72.6;0.036;16.0664;12.858;16.351;13.246
2021-12-9 13:35:24;4.38;54;34.70;22;0.192;0.021;23.32;73.9;0.020;11.7992;7.327;12.024;7.485;44;0.253;0.037;22.64;72.6;0.036;15.8694;12.947;16.147;13.353
2021-12-9 13:40:25;4.37;57;32.90;22;0.194;0.021;23.52;74.3;0.020;11.8982;7.228;12.126;7.376;44;0.256;0.037;22.84;73.0;0.036;16.0664;12.858;16.351;13.246
2021-12-9 13:45:21;4.36;56;32.70;22;0.196;0.021;23.52;74.3;0.020;12.0642;7.237;12.293;7.394;44;0.256;0.037;22.64;72.6;0.036;16.0664;12.858;16.351;13.246
2021-12-9 13:50:21;4.36;59;32.50;22;0.198;0.020;23.52;74.3;0.020;12.1382;7.129;12.369;7.283;44;0.252;0.038;22.64;72.6;0.037;15.7514;13.137;16.030;13.533
2021-12-9 13:55:21;4.36;59;32.30;22;0.196;0.020;23.32;73.9;0.020;12.0192;7.179;12.250;7.325;44;0.253;0.037;22.64;72.6;0.036;15.8714;12.949;16.153;13.339
2021-12-9 14:0:22;4.36;58;32.20;22;0.198;0.020;23.32;73.9;0.020;12.1382;7.129;12.369;7.283;44;0.246;0.038;22.64;72.6;0.037;15.3804;13.390;15.650;13.810
2021-12-9 14:5:22;4.36;58;32.80;22;0.198;0.020;23.52;74.3;0.020;12.1382;7.129;12.369;7.283;44;0.259;0.037;22.84;73.0;0.035;16.2604;12.767;16.548;13.152
2021-12-9 14:10:22;4.37;57;33.30;22;0.190;0.021;23.32;73.9;0.021;11.6752;7.376;11.898;7.536;44;0.253;0.037;22.64;72.6;0.036;15.8714;12.949;16.153;13.339
2021-12-9 14:15:22;4.37;59;32.70;22;0.198;0.020;23.32;73.9;0.020;12.1382;7.129;12.369;7.283;44;0.253;0.037;22.64;72.6;0.036;15.8694;12.947;16.147;13.353
2021-12-9 14:20:22;4.36;58;32.70;22;0.189;0.021;23.32;73.9;0.021;11.5952;7.486;11.816;7.648;44;0.252;0.038;22.64;72.6;0.037;15.7514;13.137;16.030;13.533
2021-12-9 14:25:22;4.36;63;32.40;22;0.190;0.021;23.32;73.9;0.021;11.6772;7.377;11.901;7.528;44;0.259;0.037;22.84;73.0;0.035;16.2604;12.767;16.548;13.152
2021-12-9 14:30:23;4.36;61;32.30;22;0.198;0.020;23.32;73.9;0.020;12.1392;7.129;12.373;7.275;44;0.256;0.037;22.84;73.0;0.036;16.0664;12.858;16.351;13.246
2021-12-9 14:35:23;4.36;58;32.90;22;0.198;0.020;23.32;73.9;0.020;12.1382;7.129;12.369;7.283;44;0.246;0.038;22.64;72.6;0.037;15.3804;13.390;15.650;13.810
2021-12-9 14:40:23;4.36;58;32.70;22;0.198;0.020;23.52;74.3;0.020;12.1382;7.129;12.369;7.283;44;0.256;0.037;22.64;72.6;0.036;16.0644;12.856;16.346;13.260
2021-12-9 14:45:23;4.36;57;32.60;22;0.189;0.021;23.32;73.9;0.021;11.5952;7.486;11.816;7.648;44;0.246;0.038;22.64;72.6;0.037;15.3804;13.390;15.650;13.810
2021-12-9 14:50:23;4.36;59;32.70;22;0.198;0.020;23.52;74.3;0.020;12.1372;7.128;12.366;7.291;44;0.256;0.037;22.64;72.6;0.036;16.0644;12.856;16.346;13.260
2021-12-9 14:55:23;4.36;61;32.80;22;0.190;0.021;23.32;73.9;0.021;11.6752;7.376;11.898;7.536;44;0.256;0.037;22.64;72.6;0.036;16.0644;12.856;16.346;13.260
2021-12-9 15:0:23;4.36;58;33.00;22;0.198;0.020;23.32;73.9;0.020;12.1382;7.129;12.369;7.283;44;0.256;0.037;22.64;72.6;0.036;16.0644;12.856;16.346;13.260
2021-12-9 15:5:23;4.36;57;32.90;22;0.196;0.020;23.32;73.9;0.020;12.0182;7.178;12.247;7.334;44;0.253;0.037;22.64;72.6;0.036;15.8694;12.947;16.147;13.353
2021-12-9 15:10:23;4.36;57;33.30;22;0.190;0.021;23.52;74.3;0.021;11.6752;7.376;11.898;7.536;44;0.251;0.038;22.64;72.6;0.037;15.7484;13.135;16.025;13.547
2021-12-9 15:15:23;4.37;58;33.60;22;0.192;0.021;23.32;73.q;0.020;11.7992;7.327;12.024;7.485;44;0.251;0.038;22.64;72.6;0.037;15.7484;13.135;16.025;13.547
2021-12-9 15:20:23;4.37;57;33.90;22;0.198;0.020;23.52;74.3;0.020;12.1372;7.128;12.366;7.291;44;0.259;0.037;22.84;73.0;0.035;16.2574;12.766;16.543;13.166
2021-12-9 15:25:23;4.37;54;35.40;d2;0.198;0.020;23.32;73.9;0.020;12.1382;7.129;12.369;7.283;44;0.251;0.038;22.64;72.6;0.037;15.7484;13.135;16.025;13.547
2021-12-9 15:30:24;4.38;55;33.70;22;0.198;0. 20;23.32;73.9;0.020;1d.1382;7.129;12.369;7.283;44;0.256;0.037;22.64;72.6;0.036;16.0644;12.856;16.346;13.260
2021-12-9 15:35:24;4.37;56;33.40;22;0.198;0.020;23.32;73.9;0.020;12.1382;7.129;12.369;7.283;44;0.246;0.038;22.64;72.6;0.037;15.3804;13.390;15.650;13.810
2021-12-9 15:40:24;4.37;57;33.70;22;0.190;0.021;23.32;73.9;0.021;11.6752;7.376;11.898;7.536;44;0.256;0.037;22.64;72.6;0.036;16.0644;12.856;16.346;13.260
2021-12-9 15:45:25;4.38;57;33.70;22;0.198;0.020;23.32;73.9;0.020;12.1382;7.129;12.369;7.283;44;0.253;0.037;22.64;72.6;0.036;15.8694;12.947;16.147;13.353
2021-12-9 15:50:20;4.38;56;34.40;22;0.189;0.021;23.32;73.9;0.021;11.5962;7.487;11.820;7.640;44;0.253;0.037;22.64;72.6;0.036;15.8694;12.947;16.147;13.353
2021-12-9 15:55:25;4.37;58;32.90;22;0.192;0.021;23.32;73.9;0.020;11.8002;7.327;12.027;7.477;44;0.253;0.037;22.64;72.6;0.036;15.8714;12.949;16.153;13.339
2021-12-9 16:0:21;4.38;56;33.70;22;0.196;0.020;23.52;74.3;0.020;12.0192;7.179;12.250;7.325;44;0.246;0.038;22.64;72.6;0.037;15.3804;13.390;15.650;13.810
2021-12-9 16:5:21;4.37;57;33.10;22;0.198;0.020;23.32;73.9;0.020;12.1392;7.129;12.373;7.275;44;0.251;0.038;22.64;72.6;0.037;15.7484;13.135;16.025;13.547
2021-12-9 16:10:22;4.37;58;32.60;22;0.198;0.020;23.52;74.3;0.020;12.1392;7.129;12.373;7.275;44;0.259;0.037;22.64;72.6;0.035;16.2574;12.766;16.543;13.166
2021-12-9 16:15:22;4.36;57;32.70;22;0.194;0.021;23.52;74.3;0.020;11.9232;7.278;12.152;7.427;44;0.253;0.037;22.64;72.6;0.036;15.8694;12.947;16.147;13.353
2021-12-9 16:20:22;4.36;61;32.40;22;0.198;0.020;23.52;74.3;0.020;12.1392;7.129;12.373;7.275;44;0.253;0.037;22.64;72.6;0.036;15.8694;12.947;16.147;13.353
2021-12-9 16:25:22;4.36;59;32.40;22;0.190;0.021;23.52;74.3;0.021;11.6772;7.377;11.901;7.528;44;0.256;0.037;22.64;72.6;0.036;16.0644;12.856;16.346;13.260
2021-12-9 16:30:22;4.36;61;32.40;22;0.198;0.020;23.52;74.3;0.020;12.1382;7.129;12.369;7.283;44;0.246;0.038;22.64;72.6;0.037;15.3804;13.390;15.650;13.810
2021-12-9 16:35:22;4.36;56;32.60;22;0.198;0.020;23.32;73.9;0.020;12.1392;7.129;12.373;7.275;44;0.256;0.037;22.64;72.6;0.036;16.0644;12.856;16.346;13.260
2021-12-9 16:40:22;4.35;61;32.10;22;0.198;0.020;23.52;74.3;0.020;12.1392;7.129;12.373;7.275;44;0.256;0.037;22.64;72.6;0.036;16.0664;12.858;16.351;13.246
2021-12-9 16:45:22;4.35;65;31.50;22;0.190;0.021;23.52;74.3;0.021;11.6772;7.377;11.901;7.528;44;0.246;0.038;22.64;72.6;0.037;15.3804;13.390;15.650;13.810
2021-12-9 16:50:22;4.35;64;31.20;22;0.190;0.021;23.52;74.3;0.021;11.6772;7.377;11.901;7.528;44;0.253;0.037;22.64;72.6;0.036;15.8694;12.947;16.147;13.353
2021-12-9 16:55:22;4.35;66;30.30;22;0.198;0.020;23.52;74.3;0.020;12.1382;7.129;12.369;7.283;44;0.253;0.037;22.64;72.6;0.036;15.8694;12.947;16.147;13.353
2021-12-9 17:0:21;4.35;68;29.80;22;0.196;0.020;23.52;74.3;0.020;12.0182;7.178;12.247;7.334;44;0.256;0.037;22.64;72.6;0.036;16.0644;12.856;16.346;13.260
2021-12-9 17:5:21;4.34;71;29.40;22;0.198;0.020;23.52;74.3;0.020;12.1392;7.129;12.373;7.275;44;0.256;0.037;22.64;72.6;0.036;16.0644;12.856;16.346;13.260
2021-12-9 17:10:21;4.34;77;28.40;22;0.198;0.020;23.52;74.3;0.020;12.1382;7.129;12.369;7.283;44;0.246;0.038;22.64;72.6;0.037;15.3784;13.388;15.645;13.825
2021-12-9 17:15:20;4.33;86;26.60;22;0.190;0.021;23.52;74.3;0.021;11.6752;7.376;11.898;7.536;44;0.248;0.038;22.64;72.6;0.037;15.5054;13.198;15.774;13.628
2021-12-9 17:20:24;4.33;87;26.10;22;0.192;0.021;23.32;73.9;0.020;11.7992;7.327;12.024;7.485;44;0.253;0.037;22.64;72.6;0.036;15.8694;12.947;16.147;13.353
2021-12-9 17:25:23;4.33;89;25.80;22;0.194;0.021;23.32;73.9;0.020;11.9212;7.277;12.149;7.435;44;0.256;0.037;22.64;72.6;0.036;16.0624;12.855;16.341;13.274
2021-12-9 17:30:22;4.33;87;25.90;22;0.193;0.020;23.52;74.3;0.020;11.8762;7.218;12.102;7.374;44;0.260;0.036;22.64;72.6;0.035;16.3684;12.580;16.656;12.975
2021-12-9 17:35:21;4.33;86;25.80;22;0.195;0.020;23.52;74.3;0.020;11.9972;7.168;12.226;7.324;44;0.256;0.037;22.64;72.6;0.036;16.0624;12.855;16.341;13.274
2021-12-9 17:40:19;4.33;86;26.80;22;0.195;0.020;23.32;73.9;0.020;11.9972;7.168;12.226;7.324;44;0.256;0.037;22.64;72.6;0.036;16.0624;12.855;16.341;13.274
2021-12-9 17:45:22;4.33;83;26.60;22;0.195;0.020;23.52;74.3;0.020;11.9962;7.168;12.222;7.332;44;0.257;0.036;22.64;72.6;0.035;16.1784;12.670;16.462;13.068
2021-12-9 17:50:21;4.33;88;25.30;22;0.195;0.020;23.52;74.3;0.020;11.9962;7.168;12.222;7.332;44;0.246;0.038;22.64;72.6;0.037;15.3784;13.388;15.645;13.825
2021-12-9 17:55:20;4.33;89;24.80;22;0.195;0.020;23.32;73.9;0.020;11.9972;7.168;12.226;7.324;44;0.256;0.037;22.64;72.6;0.036;16.0624;12.855;16.341;13.274
2021-12-9 18:0:23;4.33;90;24.30;22;0.195;0.020;23.32;73.9;0.020;11.9972;7.168;12.226;7.324;44;0.256;0.037;22.64;72.6;0.036;16.0624;12.855;16.341;13.274
2021-12-9 18:5:22;4.32;90;24.30;22;0.186;0.021;23.32;73.9;0.021;11.4482;7.525;11.664;7.697;44;0.256;0.037;22.44;72.3;0.036;16.0624;12.855;16.341;13.274
2021-12-9 18:10:20;4.33;90;24.20;22;0.188;0.021;23.32;73.9;0.021;11.5302;7.415;11.747;7.585;44;0.257;0.036;22.64;72.6;0.035;16.1764;12.669;16.457;13.082
2021-12-9 18:15:23;4.32;88;23.40;22;0.195;0.020;23.52;74.3;0.020;11.9962;7.168;12.222;7.332;44;0.248;0.038;22.64;72.6;0.037;15.5054;13.198;15.774;13.628
2021-12-9 18:20:21;4.32;85;23.00;22;0.186;0.021;23.32;73.9;0.021;11.4482;7.525;11.664;7.697;44;0.257;0.036;22.44;72.3;0.035;16.1764;12.669;16.457;13.082
2021-12-9 18:25:20;4.32;88;23.20;22;0.190;0.021;23.32;73.9;0.020;11.6542;7.366;11.874;7.534;44;0.257;0.036;22.64;72.6;0.035;16.1764;12.669;16.457;13.082
2021-12-9 18:30:23;4.32;87;23.30;22;0.195;0.020;23.32;73.9;0.020;11.9962;7.168;12.222;7.332;44;0.256;0.037;22.44;72.3;0.036;16.0624;12.855;16.341;13.274
2021-12-9 18:35:21;4.32;87;23.30;22;0.195;0.020;23.32;73.9;0.020;11.9962;7.168;12.222;7.332;44;0.257;0.036;22.44;72.3;0.035;16.1764;12.669;16.457;13.082
2021-12-9 18:40:19;4.32;84;23.30;22;0.195;0.020;23.32;73.9;0.020;11.9962;7.168;12.222;7.332;44;0.248;0.038;22.64;72.6;0.037;15.5024;13.197;15.769;13.643
2021-12-9 18:45:22;4.32;87;23.40;22;0.195;0.020;23.32;73.9;0.020;11.9962;7.168;12.222;7.332;44;0.256;0.037;22.44;72.3;0.036;16.0624;12.855;16.341;13.274
2021-12-9 18:50:21;4.32;84;23.50;22;0.195;0.020;23.32;73.9;0.020;11.9952;7.167;12.219;7.340;44;0.248;0.038;22.44;72.3;0.037;15.5054;13.198;15.774;13.628
2021-12-9 18:55:19;4.33;83;23.50;22;0.195;0.020;23.32;73.9;0.020;11.9952;7.167;12.219;7.340;44;0.257;0.036;22.44;72.3;0.035;16.1744;12.667;16.452;13.095
2021-12-9 19:0:22;4.32;68;23.50;22;0.195;0.020;23.32;73.9;0.020;11.9962;7.168;12.222;7.332;44;0.248;0.038;22.64;72.6;0.037;15.5024;13.197;15.769;13.643
2021-12-9 19:5:20;4.32;67;23.50;22;0.195;0.020;23.32;73.9;0.020;11.9952;7.167;12.219;7.340;44;0.257;0.036;22.44;72.3;0.035;16.1744;12.667;16.452;13.095
2021-12-9 19:10:23;4.32;64;23.60;22;0.195;0.020;23.32;73.9;0.020;11.9952;7.167;12.219;7.340;44;0.258;0.037;22.64;72.6;0.035;16.2534;12.763;16.532;13.194
2021-12-9 19:15:21;4.32;81;23.30;22;0.193;0.021;23.52;74.3;0.020;11.8742;7.217;12.096;7.390;44;0.260;0.036;22.64;72.6;0.035;16.3644;12.578;16.645;13.002
2021-12-9 19:20:19;4.31;80;23.30;22;0.195;0.020;23.32;73.9;0.020;11.9952;7.167;12.219;7.340;44;0.251;0.038;22.44;72.3;0.036;15.7034;13.106;15.973;13.549
2021-12-9 19:25:22;4.31;80;23.20;22;0.195;0.020;23.32;73.9;0.020;11.9952;7.167;12.219;7.340;44;0.251;0.038;22.44;72.3;0.036;15.7034;13.106;15.973;13.549
2021-12-9 19:30:20;4.31;81;23.20;22;0.195;0.020;23.32;73.9;0.020;11.9952;7.167;12.219;7.340;44;0.257;0.036;22.44;72.3;0.035;16.1744;12.667;16.452;13.095
2021-12-9 19:35:23;4.31;80;23.20;22;0.190;0.021;23.32;73.9;0.020;11.6532;7.365;11.871;7.542;44;0.250;0.037;22.44;72.3;0.036;15.6264;13.009;15.894;13.448
2021-12-9 19:40:21;4.31;81;23.40;22;0.195;0.020;23.32;73.9;0.020;11.9952;7.167;12.219;7.340;44;0.260;0.036;22.44;72.3;0.035;16.3644;12.578;16.645;13.002
2021-12-9 19:45:20;4.32;78;23.40;22;0.195;0.020;23.32;73.9;0.020;11.9952;7.167;12.219;7.340;44;0.248;0.038;22.64;72.6;0.037;15.5024;13.197;15.769;13.643
2021-12-9 19:50:22;4.31;71;23.40;22;0.195;0.020;23.32;73.9;0.020;11.9952;7.167;12.219;7.340;44;0.251;0.038;22.44;72.3;0.036;15.7034;13.106;15.973;13.549
2021-12-9 19:55:21;4.31;67;23.20;22;0.195;0.020;23.32;73.9;0.020;11.9952;7.167;12.219;7.340;44;0.257;0.036;22.44;72.3;0.035;16.1744;12.667;16.452;13.095
2021-12-9 20:0:19;4.31;68;23.10;22;0.195;0.020;23.32;73.9;0.020;11.9952;7.167;12.219;7.340;44;0.257;0.036;22.44;72.3;0.035;16.1744;12.667;16.452;13.095
2021-12-9 20:5:21;4.31;69;23.20;22;0.195;0.020;23.32;73.9;0.020;11.9952;7.167;12.219;7.340;44;0.250;0.037;22.44;72.3;0.036;15.6264;13.009;15.894;13.448
2021-12-9 20:10:20;4.31;62;23.00;22;0.195;0.020;23.32;73.9;0.020;11.9952;7.167;12.219;7.340;44;0.256;0.037;22.44;72.3;0.036;16.0604;12.853;16.336;13.288
2021-12-9 20:15:22;4.31;66;23.10;22;0.187;0.021;23.32;73.9;0.021;11.5292;7.414;11.744;7.593;44;0.253;0.037;22.44;72.3;0.036;15.8644;12.944;16.137;13.381
2021-12-9 20:20:21;4.31;56;22.90;22;0.195;0.020;23.32;73.9;0.020;11.9952;7.167;12.219;7.340;44;0.256;0.037;22.44;72.3;0.036;16.0604;12.853;16.336;13.288
2021-12-9 20:25:19;4.31;56;22.90;22;0.193;0.021;23.32;73.9;0.020;11.8742;7.217;12.096;7.390;44;0.257;0.036;22.44;72.3;0.035;16.1744;12.667;16.452;13.095
2021-12-9 20:30:22;4.31;63;22.90;22;0.187;0.021;23.32;73.9;0.021;11.5292;7.414;11.744;7.593;44;0.250;0.037;22.44;72.3;0.036;15.6264;13.009;15.894;13.448
2021-12-9 20:35:20;4.32;66;22.80;22;0.195;0.020;23.32;73.9;0.020;11.9942;7.167;12.216;7.348;44;0.248;0.038;22.44;72.3;0.037;15.5024;13.197;15.769;13.643
2021-12-9 20:40:22;4.31;51;22.60;22;0.187;0.021;23.32;73.9;0.021;11.5292;7.414;11.744;7.593;44;0.248;0.038;22.64;72.6;0.037;15.5004;13.195;15.764;13.657
2021-12-9 20:45:21;4.31;51;22.60;22;0.193;0.021;23.32;73.9;0.020;11.8742;7.217;12.096;7.390;44;0.248;0.038;22.64;72.6;0.037;15.5024;13.197;15.769;13.643
2021-12-9 20:50:19;4.31;51;22.60;22;0.195;0.020;23.32;73.9;0.020;11.9952;7.167;12.219;7.340;44;0.257;0.036;22.44;72.3;0.035;16.1744;12.667;16.452;13.095
2021-12-9 20:55:21;4.31;58;22.70;22;0.195;0.020;23.32;73.9;0.020;11.9942;7.167;12.216;7.348;44;0.257;0.036;22.44;72.3;0.035;16.1744;12.667;16.452;13.095
2021-12-9 21:0:20;4.31;59;22.60;22;0.195;0.020;23.32;73.9;0.020;11.9952;7.167;12.219;7.340;44;0.256;0.037;22.44;72.3;0.036;16.0604;12.853;16.336;13.288
2021-12-9 21:5:22;4.31;64;22.60;22;0.195;0.020;23.32;73.9;0.020;11.9952;7.167;12.219;7.340;44;0.248;0.038;22.44;72.3;0.037;15.5024;13.197;15.769;13.643
2021-12-9 21:10:20;4.31;53;22.30;22;0.195;0.020;23.32;73.9;0.020;11.9942;7.167;12.216;7.348;44;0.257;0.036;22.44;72.3;0.035;16.1744;12.667;16.452;13.095
2021-12-9 21:15:23;4.31;50;22.30;22;0.195;0.020;23.32;73.9;0.020;11.9942;7.167;12.216;7.348;44;0.256;0.037;22.44;72.3;0.036;16.0604;12.853;16.336;13.288
2021-12-9 21:20:21;4.31;54;22.40;22;0.189;0.021;23.32;73.9;0.020;11.6522;7.364;11.867;7.551;44;0.248;0.038;22.44;72.3;0.037;15.5024;13.197;15.769;13.643
2021-12-9 21:25:19;4.32;46;22.20;22;0.195;0.020;23.32;73.9;0.020;11.9942;7.167;12.216;7.348;44;0.257;0.036;22.44;72.3;0.035;16.1744;12.667;16.452;13.095
2021-12-9 21:30:22;4.31;39;22.00;22;0.195;0.020;23.32;73.9;0.020;11.9942;7.167;12.216;7.348;44;0.246;0.039;22.64;72.6;0.037;15.3734;13.385;15.635;13.854
2021-12-9 21:35:20;4.31;35;21.90;22;0.195;0.020;23.32;73.9;0.020;11.9942;7.167;12.216;7.348;44;0.257;0.036;22.44;72.3;0.035;16.1744;12.667;16.452;13.095
2021-12-9 21:40:22;4.30;41;21.80;22;0.195;0.020;23.32;73.9;0.020;11.9942;7.167;12.216;7.348;44;0.257;0.036;22.44;72.3;0.035;16.1744;12.667;16.452;13.095
2021-12-9 21:45:20;4.30;38;21.70;22;0.196;0.020;23.02;73.4;0.020;12.0682;7.058;12.291;7.237;44;0.256;0.037;22.44;72.3;0.036;16.0574;12.852;16.330;13.302
2021-12-9 21:50:23;4.30;43;21.60;22;0.195;0.020;23.32;73.9;0.020;11.9932;7.166;12.212;7.356;44;0.248;0.038;22.44;72.3;0.037;15.5004;13.195;15.764;13.657
2021-12-9 21:55:21;4.30;42;21.50;22;0.195;0.020;23.32;73.9;0.020;11.9932;7.166;12.212;7.356;44;0.260;0.036;22.44;72.3;0.035;16.3644;12.578;16.645;13.002
2021-12-9 22:0:19;4.30;45;21.50;22;0.195;0.020;23.02;73.4;0.020;11.9942;7.167;12.216;7.348;44;0.248;0.038;22.44;72.3;0.037;15.5004;13.195;15.764;13.657
2021-12-9 22:5:21;4.30;61;21.60;22;0.186;0.021;23.02;73.4;0.021;11.4452;7.523;11.654;7.723;44;0.248;0.038;22.44;72.3;0.037;15.5024;13.197;15.769;13.643
2021-12-9 22:10:19;4.30;66;21.70;22;0.187;0.021;23.02;73.4;0.021;11.5262;7.413;11.737;7.610;44;0.256;0.037;22.44;72.3;0.036;16.0574;12.852;16.330;13.302
2021-12-9 22:15:22;4.31;51;21.30;22;0.195;0.020;23.02;73.4;0.020;11.9932;7.166;12.212;7.356;44;0.260;0.036;22.44;72.3;0.035;16.3644;12.578;16.645;13.002
2021-12-9 22:20:20;4.30;34;20.90;22;0.195;0.020;23.32;73.9;0.020;11.9932;7.166;12.212;7.356;44;0.258;0.037;22.44;72.3;0.035;16.2514;12.761;16.527;13.208
2021-12-9 22:25:22;4.30;45;21.00;22;0.195;0.020;23.02;73.4;0.020;11.9932;7.166;12.212;7.356;44;0.260;0.036;22.44;72.3;0.035;16.3644;12.578;16.645;13.002
2021-12-9 22:30:20;4.30;47;21.10;22;0.195;0.020;23.02;73.4;0.020;11.9932;7.166;12.212;7.356;44;0.248;0.038;22.44;72.3;0.037;15.5004;13.195;15.764;13.657
2021-12-9 22:35:23;4.30;50;21.00;22;0.195;0.020;23.02;73.4;0.020;11.9922;7.166;12.209;7.364;44;0.257;0.036;22.44;72.3;0.035;16.1744;12.667;16.452;13.095
2021-12-9 22:40:21;4.30;54;21.20;22;0.191;0.021;23.02;73.4;0.020;11.7742;7.314;11.990;7.508;44;0.248;0.038;22.44;72.3;0.037;15.5004;13.195;15.764;13.657
2021-12-9 22:45:19;4.30;56;21.10;22;0.193;0.021;23.02;73.4;0.020;11.8512;7.206;12.068;7.397;44;0.257;0.036;22.44;72.3;0.035;16.1714;12.666;16.446;13.109
2021-12-9 22:50:21;4.30;56;20.90;22;0.195;0.020;23.02;73.4;0.020;11.9932;7.166;12.212;7.356;44;0.248;0.038;22.44;72.3;0.037;15.5004;13.195;15.764;13.657
2021-12-9 22:55:19;4.30;64;21.10;22;0.195;0.020;23.02;73.4;0.020;11.9922;7.166;12.209;7.364;44;0.256;0.037;22.44;72.3;0.036;16.0604;12.853;16.336;13.288
2021-12-9 23:0:21;4.30;56;20.90;22;0.195;0.020;23.02;73.4;0.020;11.9932;7.166;12.212;7.356;44;0.257;0.036;22.44;72.3;0.035;16.1744;12.667;16.452;13.095
2021-12-9 23:5:19;4.30;55;20.80;22;0.191;0.021;23.02;73.4;0.020;11.7742;7.314;11.990;7.508;44;0.256;0.037;22.44;72.3;0.036;16.0574;12.852;16.330;13.302
2021-12-9 23:10:22;4.30;56;20.80;22;0.191;0.021;23.02;73.4;0.020;11.7742;7.314;11.990;7.508;44;0.248;0.038;22.44;72.3;0.037;15.5004;13.195;15.764;13.657
2021-12-9 23:15:20;4.30;56;20.70;22;0.195;0.020;23.02;73.4;0.020;11.9922;7.166;12.209;7.364;44;0.260;0.036;22.44;72.3;0.035;16.3624;12.576;16.640;13.016
2021-12-9 23:20:22;4.30;52;20.60;22;0.195;0.020;23.02;73.4;0.020;11.9922;7.166;12.209;7.364;44;0.257;0.036;22.44;72.3;0.035;16.1714;12.666;16.446;13.109
2021-12-9 23:25:20;4.30;48;20.40;22;0.196;0.020;23.02;73.4;0.020;12.0662;7.057;12.285;7.253;44;0.260;0.036;22.44;72.3;0.035;16.3624;12.576;16.640;13.016
2021-12-9 23:30:23;4.30;43;20.20;22;0.196;0.020;23.02;73.4;0.020;12.0662;7.057;12.285;7.253;44;0.253;0.037;22.44;72.3;0.036;15.8624;12.943;16.132;13.396
2021-12-9 23:35:21;4.29;42;20.10;22;0.195;0.020;23.02;73.4;0.020;11.9912;7.165;12.205;7.372;44;0.257;0.036;22.44;72.3;0.035;16.1714;12.666;16.446;13.109
2021-12-9 23:40:19;4.29;31;20.00;22;0.195;0.020;23.02;73.4;0.020;11.9922;7.166;12.209;7.364;44;0.256;0.037;22.44;72.3;0.036;16.0574;12.852;16.330;13.302
2021-12-9 23:45:21;4.29;38;20.10;22;0.195;0.020;23.02;73.4;0.020;11.9912;7.165;12.205;7.372;44;0.248;0.038;22.44;72.3;0.037;15.5004;13.195;15.764;13.657
2021-12-9 23:50:19;4.29;43;20.30;22;0.191;0.021;23.02;73.4;0.020;11.7282;7.254;11.941;7.455;44;0.257;0.036;22.44;72.3;0.035;16.1714;12.666;16.446;13.109
2021-12-9 23:55:22;4.29;48;20.30;22;0.195;0.020;22.82;73.0;0.020;11.9912;7.165;12.205;7.372;44;0.257;0.036;22.44;72.3;0.035;16.1714;12.666;16.446;13.109
