2021-12-8 0:0:20;4.30;89;20.50;22;0.196;0.021;23.32;73.9;0.021;12.0702;7.387;12.297;7.556;44;0.259;0.037;22.44;72.3;0.036;16.2934;12.787;16.570;13.234
2021-12-8 0:5:23;4.30;90;20.00;22;0.196;0.021;23.32;73.9;0.021;12.0702;7.387;12.297;7.556;44;0.250;0.038;22.44;72.3;0.037;15.6184;13.321;15.884;13.787
2021-12-8 0:10:21;4.30;90;20.00;22;0.196;0.021;23.52;74.3;0.021;12.0682;7.386;12.294;7.564;44;0.259;0.037;22.44;72.3;0.036;16.2934;12.787;16.570;13.234
2021-12-8 0:15:18;4.30;90;20.10;22;0.197;0.021;23.32;73.9;0.021;12.1152;7.447;12.341;7.626;44;0.250;0.038;22.64;72.6;0.037;15.6184;13.321;15.884;13.787
2021-12-8 0:20:21;4.30;91;19.40;22;0.196;0.021;23.32;73.9;0.021;12.0682;7.386;12.294;7.564;44;0.251;0.038;22.44;72.3;0.037;15.7424;13.131;16.009;13.590
2021-12-8 0:25:18;4.30;91;19.60;22;0.196;0.021;23.32;73.9;0.021;12.0682;7.386;12.294;7.564;44;0.259;0.037;22.44;72.3;0.036;16.2934;12.787;16.570;13.234
2021-12-8 0:30:21;4.30;91;19.50;22;0.191;0.022;23.32;73.9;0.021;11.7192;7.588;11.938;7.770;44;0.250;0.038;22.44;72.3;0.037;15.6184;13.321;15.884;13.787
2021-12-8 0:35:18;4.30;91;19.10;22;0.196;0.021;23.32;73.9;0.021;12.0672;7.386;12.290;7.572;44;0.260;0.036;22.44;72.3;0.035;16.4044;12.601;16.683;13.042
2021-12-8 0:40:21;4.30;90;18.50;22;0.196;0.021;23.32;73.9;0.021;12.0672;7.386;12.290;7.572;44;0.251;0.038;22.44;72.3;0.037;15.7424;13.131;16.009;13.590
2021-12-8 0:45:18;4.29;91;18.80;22;0.196;0.021;23.32;73.9;0.021;12.0672;7.386;12.290;7.572;44;0.256;0.037;22.44;72.3;0.036;16.0994;12.878;16.373;13.329
2021-12-8 0:50:20;4.30;91;19.70;22;0.191;0.022;23.32;73.9;0.021;11.7182;7.587;11.935;7.779;44;0.259;0.037;22.44;72.3;0.036;16.2934;12.787;16.570;13.234
2021-12-8 0:55:22;4.29;91;19.70;22;0.196;0.021;23.32;73.9;0.021;12.0672;7.386;12.290;7.572;44;0.259;0.037;22.44;72.3;0.036;16.2934;12.787;16.570;13.234
2021-12-8 1:0:20;4.29;91;19.40;22;0.193;0.021;23.02;73.4;0.021;11.8442;7.537;12.063;7.727;44;0.256;0.037;22.44;72.3;0.036;16.0994;12.878;16.373;13.329
2021-12-8 1:5:22;4.29;91;19.00;22;0.196;0.021;23.32;73.9;0.021;12.0662;7.385;12.287;7.581;44;0.256;0.037;22.44;72.3;0.036;16.0994;12.878;16.373;13.329
2021-12-8 1:10:20;4.29;91;19.60;22;0.196;0.021;23.32;73.9;0.021;12.0662;7.385;12.287;7.581;44;0.256;0.037;22.44;72.3;0.036;16.0994;12.878;16.373;13.329
2021-12-8 1:15:22;4.29;91;18.60;22;0.193;0.022;23.02;73.4;0.021;11.8432;7.536;12.060;7.736;44;0.260;0.036;22.44;72.3;0.035;16.4044;12.601;16.683;13.042
2021-12-8 1:20:20;4.29;89;17.60;22;0.194;0.021;23.02;73.4;0.021;11.9222;7.425;12.140;7.622;44;0.249;0.038;22.44;72.3;0.037;15.6164;13.319;15.878;13.801
2021-12-8 1:25:22;4.29;90;17.70;22;0.193;0.022;23.02;73.4;0.021;11.8432;7.536;12.060;7.736;44;0.259;0.037;22.44;72.3;0.036;16.2904;12.786;16.564;13.248
2021-12-8 1:30:19;4.29;91;18.40;22;0.191;0.022;23.02;73.4;0.021;11.7172;7.586;11.932;7.788;44;0.249;0.038;22.14;71.9;0.037;15.6164;13.319;15.878;13.801
2021-12-8 1:35:21;4.29;91;19.00;22;0.195;0.021;23.02;73.4;0.021;11.9672;7.485;12.183;7.693;44;0.251;0.038;22.44;72.3;0.036;15.7404;13.129;16.004;13.605
2021-12-8 1:40:19;4.28;91;18.90;22;0.196;0.021;23.02;73.4;0.021;12.0452;7.375;12.266;7.570;44;0.249;0.038;22.14;71.9;0.037;15.6164;13.319;15.878;13.801
2021-12-8 1:45:21;4.29;91;18.60;22;0.190;0.022;23.02;73.4;0.021;11.7162;7.586;11.928;7.796;44;0.256;0.037;22.44;72.3;0.036;16.0974;12.876;16.368;13.343
2021-12-8 1:50:19;4.29;90;19.50;22;0.194;0.021;23.02;73.4;0.021;11.9212;7.425;12.137;7.630;44;0.260;0.036;22.44;72.3;0.035;16.4024;12.600;16.678;13.056
2021-12-8 1:55:21;4.29;90;19.60;22;0.194;0.021;23.02;73.4;0.021;11.9212;7.425;12.137;7.630;44;0.259;0.037;22.44;72.3;0.036;16.2904;12.786;16.564;13.248
2021-12-8 2:0:18;4.28;89;19.80;22;0.189;0.022;23.02;73.4;0.021;11.6132;7.686;11.821;7.909;44;0.260;0.036;22.44;72.3;0.035;16.4024;12.600;16.678;13.056
2021-12-8 2:5:20;4.28;89;19.60;22;0.196;0.021;23.02;73.4;0.021;12.0442;7.374;12.262;7.579;44;0.249;0.038;22.44;72.3;0.037;15.6144;13.318;15.873;13.816
2021-12-8 2:10:22;4.28;89;19.60;22;0.196;0.021;23.02;73.4;0.020;12.0432;7.374;12.259;7.587;44;0.256;0.037;22.44;72.3;0.036;16.0954;12.875;16.363;13.357
2021-12-8 2:15:20;4.28;90;19.40;22;0.198;0.021;22.82;73.0;0.020;12.1652;7.324;12.383;7.536;44;0.249;0.038;22.14;71.9;0.037;15.6144;13.318;15.873;13.816
2021-12-8 2:20:22;4.29;89;19.40;22;0.198;0.021;23.02;73.4;0.020;12.1652;7.324;12.383;7.536;44;0.259;0.037;22.44;72.3;0.036;16.2904;12.786;16.564;13.248
2021-12-8 2:25:20;4.28;90;19.20;22;0.194;0.021;22.82;73.0;0.021;11.9202;7.424;12.133;7.639;44;0.249;0.038;22.14;71.9;0.037;15.6144;13.318;15.873;13.816
2021-12-8 2:30:22;4.28;89;19.40;22;0.194;0.021;22.82;73.0;0.021;11.9202;7.424;12.133;7.639;44;0.259;0.037;22.14;71.9;0.036;16.2884;12.784;16.559;13.262
2021-12-8 2:35:19;4.29;88;19.60;22;0.199;0.021;22.82;73.0;0.020;12.2402;7.214;12.459;7.423;44;0.249;0.038;22.14;71.9;0.037;15.6144;13.318;15.873;13.816
2021-12-8 2:40:21;4.28;89;19.40;22;0.198;0.021;22.82;73.0;0.020;12.1652;7.324;12.383;7.536;44;0.260;0.036;22.44;72.3;0.035;16.3994;12.598;16.672;13.070
2021-12-8 2:45:19;4.28;90;19.10;22;0.190;0.022;22.82;73.0;0.021;11.6932;7.574;11.901;7.802;44;0.249;0.038;22.14;71.9;0.037;15.6144;13.318;15.873;13.816
2021-12-8 2:50:21;4.28;91;17.20;22;0.198;0.021;22.82;73.0;0.020;12.1632;7.322;12.377;7.552;44;0.256;0.037;22.44;72.3;0.036;16.0954;12.875;16.363;13.357
2021-12-8 2:55:19;4.28;91;17.10;22;0.198;0.021;22.82;73.0;0.020;12.1642;7.323;12.380;7.544;44;0.249;0.038;22.14;71.9;0.037;15.6144;13.318;15.873;13.816
2021-12-8 3:0:21;4.28;92;17.90;22;0.189;0.022;22.82;73.0;0.021;11.6122;7.686;11.817;7.917;44;0.253;0.037;22.14;71.9;0.036;15.8584;12.940;16.122;13.424
2021-12-8 3:5:18;4.28;92;18.00;22;0.198;0.021;22.82;73.0;0.020;12.1632;7.322;12.377;7.552;44;0.258;0.037;22.14;71.9;0.035;16.2094;12.689;16.479;13.163
2021-12-8 3:10:20;4.27;92;17.60;22;0.195;0.021;22.82;73.0;0.020;12.0212;7.363;12.234;7.585;44;0.260;0.036;22.14;71.9;0.035;16.3994;12.598;16.672;13.070
2021-12-8 3:15:22;4.27;92;17.40;22;0.197;0.021;22.82;73.0;0.020;12.1182;7.263;12.333;7.482;44;0.256;0.037;22.14;71.9;0.036;16.0954;12.875;16.363;13.357
2021-12-8 3:20:20;4.27;92;18.10;22;0.199;0.021;22.82;73.0;0.020;12.2382;7.213;12.453;7.439;44;0.251;0.038;22.14;71.9;0.036;15.7354;13.126;15.994;13.633
2021-12-8 3:25:22;4.27;91;18.40;22;0.193;0.021;22.82;73.0;0.021;11.8982;7.413;12.109;7.637;44;0.253;0.037;22.14;71.9;0.036;15.8554;12.938;16.116;13.438
2021-12-8 3:30:19;4.27;91;18.20;22;0.191;0.021;22.82;73.0;0.021;11.7732;7.463;11.979;7.697;44;0.249;0.038;22.44;72.3;0.037;15.6114;13.316;15.868;13.830
2021-12-8 3:35:21;4.27;91;18.20;22;0.190;0.022;22.62;72.6;0.021;11.6922;7.573;11.898;7.811;44;0.249;0.038;22.14;71.9;0.037;15.6114;13.316;15.868;13.830
2021-12-8 3:40:19;4.27;92;18.10;22;0.192;0.022;22.82;73.0;0.021;11.8182;7.523;12.025;7.759;44;0.251;0.038;22.14;71.9;0.036;15.7354;13.126;15.994;13.633
2021-12-8 3:45:21;4.27;92;17.70;22;0.199;0.021;22.82;73.0;0.020;12.2372;7.212;12.449;7.447;44;0.259;0.037;22.14;71.9;0.036;16.2864;12.783;16.554;13.276
2021-12-8 3:50:18;4.27;92;17.80;22;0.195;0.021;22.82;73.0;0.020;12.0202;7.363;12.231;7.593;44;0.261;0.037;22.14;71.9;0.035;16.4774;12.692;16.748;13.182
2021-12-8 3:55:20;4.27;92;17.90;22;0.199;0.021;22.82;73.0;0.020;12.2372;7.212;12.449;7.447;44;0.251;0.038;22.14;71.9;0.036;15.7354;13.126;15.994;13.633
2021-12-8 4:0:22;4.27;92;17.80;22;0.199;0.021;22.82;73.0;0.020;12.2362;7.212;12.446;7.455;44;0.259;0.037;22.14;71.9;0.036;16.2864;12.783;16.554;13.276
2021-12-8 4:5:20;4.27;92;17.00;22;0.199;0.021;22.82;73.0;0.020;12.2362;7.212;12.446;7.455;44;0.251;0.038;22.14;71.9;0.036;15.7354;13.126;15.994;13.633
2021-12-8 4:10:21;4.27;92;17.20;22;0.195;0.021;22.82;73.0;0.020;12.0192;7.362;12.228;7.602;44;0.251;0.038;22.14;71.9;0.036;15.7334;13.125;15.989;13.648
2021-12-8 4:15:19;4.27;92;17.30;22;0.195;0.021;22.82;73.0;0.020;12.0182;7.361;12.224;7.610;44;0.251;0.038;22.14;71.9;0.036;15.7334;13.125;15.989;13.648
2021-12-8 4:20:21;4.27;92;17.60;22;0.193;0.021;22.82;73.0;0.021;11.8952;7.411;12.099;7.662;44;0.260;0.036;22.14;71.9;0.035;16.3974;12.597;16.667;13.083
2021-12-8 4:25:18;4.27;92;17.70;22;0.193;0.021;22.62;72.6;0.021;11.8952;7.411;12.099;7.662;44;0.259;0.037;22.14;71.9;0.036;16.2844;12.781;16.549;13.290
2021-12-8 4:30:20;4.27;92;17.60;22;0.195;0.021;22.62;72.6;0.020;12.0182;7.361;12.224;7.610;44;0.251;0.038;22.14;71.9;0.036;15.7334;13.125;15.989;13.648
2021-12-8 4:35:22;4.27;92;17.30;22;0.195;0.021;22.62;72.6;0.020;11.9722;7.301;12.178;7.548;44;0.255;0.037;22.14;71.9;0.036;16.0494;12.846;16.310;13.358
2021-12-8 4:40:19;4.27;92;17.10;22;0.195;0.021;22.62;72.6;0.020;12.0172;7.361;12.221;7.618;44;0.255;0.037;22.14;71.9;0.036;16.0494;12.846;16.310;13.358
2021-12-8 4:45:21;4.27;92;17.10;22;0.195;0.021;22.62;72.6;0.020;11.9722;7.301;12.178;7.548;44;0.251;0.038;22.14;71.9;0.036;15.7334;13.125;15.989;13.648
2021-12-8 4:50:19;4.27;92;17.40;22;0.195;0.021;22.62;72.6;0.020;12.0172;7.361;12.221;7.618;44;0.259;0.037;22.14;71.9;0.036;16.2814;12.780;16.544;13.304
2021-12-8 4:55:20;4.27;92;17.30;22;0.195;0.021;22.62;72.6;0.020;12.0172;7.361;12.221;7.618;44;0.260;0.036;22.14;71.9;0.035;16.3954;12.596;16.662;13.097
2021-12-8 5:0:22;4.27;92;17.20;22;0.196;0.021;22.62;72.6;0.020;12.0942;7.252;12.302;7.497;44;0.251;0.038;22.14;71.9;0.036;15.7314;13.124;15.984;13.662
2021-12-8 5:5:20;4.27;92;17.10;22;0.196;0.021;22.62;72.6;0.020;12.0932;7.251;12.298;7.505;44;0.253;0.037;22.14;71.9;0.036;15.8534;12.937;16.111;13.452
2021-12-8 5:10:21;4.27;92;17.10;22;0.196;0.021;22.62;72.6;0.020;12.0932;7.251;12.298;7.505;44;0.260;0.036;21.94;71.5;0.035;16.3954;12.596;16.662;13.097
2021-12-8 5:15:19;4.27;92;17.30;22;0.196;0.021;22.62;72.6;0.020;12.0932;7.251;12.298;7.505;44;0.251;0.038;22.14;71.9;0.036;15.7314;13.124;15.984;13.662
2021-12-8 5:20:21;4.27;92;17.00;22;0.194;0.021;22.42;72.3;0.020;11.9712;7.301;12.174;7.556;44;0.255;0.037;21.94;71.5;0.036;16.0494;12.846;16.310;13.358
2021-12-8 5:25:18;4.27;91;17.00;22;0.194;0.021;22.42;72.3;0.020;11.9712;7.301;12.174;7.556;44;0.253;0.037;21.94;71.5;0.036;15.8534;12.937;16.111;13.452
2021-12-8 5:30:20;4.27;91;16.90;22;0.194;0.021;22.62;72.6;0.020;11.9702;7.300;12.171;7.565;44;0.251;0.038;21.74;71.1;0.036;15.7314;13.124;15.984;13.662
2021-12-8 5:35:22;4.27;91;16.90;22;0.196;0.021;22.42;72.3;0.020;12.0922;7.251;12.295;7.513;44;0.251;0.038;21.94;71.5;0.036;15.7314;13.124;15.984;13.662
2021-12-8 5:40:19;4.27;91;16.80;22;0.196;0.021;22.62;72.6;0.020;12.0912;7.250;12.292;7.521;44;0.251;0.038;22.14;71.9;0.036;15.7314;13.124;15.984;13.662
2021-12-8 5:45:21;4.27;91;16.70;22;0.196;0.021;22.42;72.3;0.020;12.0922;7.251;12.295;7.513;44;0.255;0.037;21.94;71.5;0.036;16.0464;12.845;16.305;13.372
2021-12-8 5:50:18;4.27;90;16.60;22;0.196;0.021;22.42;72.3;0.020;12.0922;7.251;12.295;7.513;44;0.255;0.037;21.94;71.5;0.036;16.0464;12.845;16.305;13.372
2021-12-8 5:55:20;4.27;90;16.60;22;0.196;0.021;22.42;72.3;0.020;12.0922;7.251;12.295;7.513;44;0.251;0.038;21.94;71.5;0.036;15.7314;13.124;15.984;13.662
2021-12-8 6:0:22;4.26;91;16.80;22;0.191;0.021;22.42;72.3;0.021;11.7482;7.450;11.945;7.720;44;0.255;0.037;21.94;71.5;0.036;16.0464;12.845;16.305;13.372
2021-12-8 6:5:19;4.26;91;16.90;22;0.191;0.021;22.42;72.3;0.021;11.7472;7.449;11.942;7.728;44;0.255;0.037;21.94;71.5;0.036;16.0464;12.845;16.305;13.372
2021-12-8 6:10:21;4.26;92;17.20;22;0.196;0.021;22.42;72.3;0.020;12.0922;7.251;12.295;7.513;44;0.253;0.037;21.94;71.5;0.036;15.8514;12.935;16.106;13.466
2021-12-8 6:15:18;4.26;92;17.50;22;0.192;0.021;22.42;72.3;0.020;11.8252;7.339;12.022;7.614;44;0.251;0.038;21.74;71.1;0.036;15.7294;13.122;15.979;13.676
2021-12-8 6:20:20;4.27;92;17.70;22;0.198;0.021;22.42;72.3;0.020;12.1652;7.141;12.367;7.408;44;0.253;0.037;21.94;71.5;0.036;15.8494;12.934;16.101;13.480
2021-12-8 6:25:22;4.27;92;17.90;22;0.191;0.021;22.42;72.3;0.021;11.7472;7.449;11.942;7.728;44;0.253;0.037;21.94;71.5;0.036;15.8514;12.935;16.106;13.466
2021-12-8 6:30:19;4.27;92;18.10;22;0.194;0.021;22.42;72.3;0.020;11.9482;7.290;12.147;7.562;44;0.253;0.037;21.94;71.5;0.036;15.8514;12.935;16.106;13.466
2021-12-8 6:35:21;4.27;92;18.40;22;0.193;0.021;22.42;72.3;0.021;11.8712;7.400;12.068;7.676;44;0.255;0.037;21.94;71.5;0.036;16.0444;12.843;16.300;13.386
2021-12-8 6:40:19;4.27;92;18.70;22;0.194;0.021;22.42;72.3;0.020;11.9482;7.290;12.147;7.562;44;0.251;0.038;21.74;71.1;0.036;15.7294;13.122;15.979;13.676
2021-12-8 6:45:21;4.27;91;19.10;22;0.197;0.021;22.42;72.3;0.020;12.1642;7.140;12.364;7.416;44;0.255;0.037;21.94;71.5;0.036;16.0464;12.845;16.305;13.372
2021-12-8 6:50:18;4.27;91;19.30;22;0.197;0.021;22.42;72.3;0.020;12.1642;7.140;12.364;7.416;44;0.255;0.037;21.94;71.5;0.036;16.0464;12.845;16.305;13.372
2021-12-8 6:55:20;4.27;91;19.70;22;0.194;0.021;22.42;72.3;0.020;11.9472;7.289;12.144;7.571;44;0.253;0.037;21.94;71.5;0.036;15.8494;12.934;16.101;13.480
2021-12-8 7:0:22;4.27;91;19.90;22;0.194;0.021;22.42;72.3;0.020;11.9472;7.289;12.144;7.571;44;0.251;0.038;21.94;71.5;0.036;15.7294;13.122;15.979;13.676
2021-12-8 7:5:20;4.27;89;20.40;22;0.192;0.021;22.42;72.3;0.020;11.8242;7.339;12.019;7.622;44;0.255;0.037;21.94;71.5;0.036;16.0444;12.843;16.300;13.386
2021-12-8 7:10:22;4.27;89;20.80;22;0.194;0.021;22.42;72.3;0.020;11.9472;7.289;12.144;7.571;44;0.253;0.037;21.74;71.1;0.036;15.8494;12.934;16.101;13.480
2021-12-8 7:15:20;4.26;89;21.00;22;0.194;0.021;22.42;72.3;0.020;11.9482;7.290;12.147;7.562;44;0.255;0.037;21.94;71.5;0.036;16.0464;12.845;16.305;13.372
2021-12-8 7:20:22;4.27;87;21.40;22;0.194;0.021;22.42;72.3;0.020;11.9472;7.289;12.144;7.571;44;0.255;0.037;21.94;71.5;0.036;16.0464;12.845;16.305;13.372
2021-12-8 7:25:20;4.27;87;21.70;22;0.196;0.021;22.42;72.3;0.020;12.0692;7.240;12.267;7.519;44;0.253;0.037;21.74;71.1;0.036;15.8494;12.934;16.101;13.480
2021-12-8 7:30:22;4.27;86;22.00;22;0.192;0.021;22.42;72.3;0.020;11.8242;7.339;12.019;7.622;44;0.253;0.037;21.74;71.1;0.036;15.8514;12.935;16.106;13.466
2021-12-8 7:35:20;4.27;86;22.20;22;0.194;0.021;22.42;72.3;0.020;11.9472;7.289;12.144;7.571;44;0.255;0.037;21.94;71.5;0.036;16.0464;12.845;16.305;13.372
2021-12-8 7:40:23;4.27;85;22.30;22;0.196;0.021;22.42;72.3;0.020;12.0692;7.240;12.267;7.519;44;0.253;0.037;21.94;71.5;0.036;15.8514;12.935;16.106;13.466
2021-12-8 7:45:21;4.27;84;22.70;22;0.194;0.021;22.42;72.3;0.020;11.9482;7.290;12.147;7.562;44;0.251;0.038;22.14;71.9;0.036;15.7314;13.124;15.984;13.662
2021-12-8 7:50:19;4.27;83;22.80;22;0.194;0.021;22.42;72.3;0.020;11.9472;7.289;12.144;7.571;44;0.251;0.038;21.74;71.1;0.036;15.7314;13.124;15.984;13.662
2021-12-8 7:55:22;4.27;83;23.10;22;0.187;0.022;22.42;72.3;0.021;11.5192;7.599;11.708;7.892;44;0.246;0.039;22.14;71.9;0.037;15.3604;13.376;15.605;13.941
2021-12-8 8:0:20;4.27;82;23.50;22;0.194;0.021;22.42;72.3;0.020;11.9482;7.290;12.147;7.562;44;0.253;0.037;21.74;71.1;0.036;15.8514;12.935;16.106;13.466
2021-12-8 8:5:22;4.27;80;23.70;22;0.194;0.021;22.42;72.3;0.020;11.9472;7.289;12.144;7.571;44;0.258;0.037;21.94;71.5;0.035;16.2424;12.756;16.506;13.264
2021-12-8 8:10:21;4.27;79;24.10;22;0.194;0.021;22.42;72.3;0.020;11.9482;7.290;12.147;7.562;44;0.251;0.038;21.94;71.5;0.036;15.7314;13.124;15.984;13.662
2021-12-8 8:15:19;4.27;78;24.20;22;0.194;0.021;22.42;72.3;0.020;11.9482;7.290;12.147;7.562;44;0.255;0.037;21.94;71.5;0.036;16.0494;12.846;16.310;13.358
2021-12-8 8:20:22;4.27;78;24.90;22;0.192;0.021;22.42;72.3;0.020;11.8252;7.339;12.022;7.614;44;0.253;0.037;21.74;71.1;0.036;15.8514;12.935;16.106;13.466
2021-12-8 8:25:20;4.27;78;24.60;22;0.194;0.021;22.42;72.3;0.020;11.9482;7.290;12.147;7.562;44;0.255;0.037;21.94;71.5;0.036;16.0494;12.846;16.310;13.358
2021-12-8 8:30:23;4.27;76;24.70;22;0.192;0.021;22.42;72.3;0.020;11.8252;7.339;12.022;7.614;44;0.251;0.038;21.94;71.5;0.036;15.7314;13.124;15.984;13.662
2021-12-8 8:35:22;4.27;76;25.00;22;0.196;0.021;22.42;72.3;0.020;12.0692;7.240;12.267;7.519;44;0.253;0.037;21.94;71.5;0.036;15.8534;12.937;16.111;13.452
2021-12-8 8:40:20;4.27;75;25.80;22;0.194;0.021;22.42;72.3;0.020;11.9482;7.290;12.147;7.562;44;0.251;0.038;22.14;71.9;0.036;15.7314;13.124;15.984;13.662
2021-12-8 8:45:23;4.27;76;25.20;22;0.194;0.021;22.42;72.3;0.020;11.9482;7.290;12.147;7.562;44;0.255;0.037;21.94;71.5;0.036;16.0494;12.846;16.310;13.358
2021-12-8 8:50:22;4.27;74;26.10;22;0.194;0.021;22.42;72.3;0.020;11.9482;7.290;12.147;7.562;44;0.253;0.037;21.94;71.5;0.036;15.8534;12.937;16.111;13.452
2021-12-8 8:55:20;4.27;74;25.70;22;0.196;0.021;22.42;72.3;0.020;12.0702;7.240;12.271;7.511;44;0.253;0.037;21.94;71.5;0.036;15.8534;12.937;16.111;13.452
2021-12-8 9:0:23;4.27;74;26.00;22;0.196;0.021;22.62;72.6;0.020;12.0702;7.240;12.271;7.511;44;0.255;0.037;21.94;71.5;0.036;16.0494;12.846;16.310;13.358
2021-12-8 9:5:22;4.27;73;26.00;22;0.194;0.021;22.42;72.3;0.020;11.9492;7.290;12.150;7.554;44;0.255;0.037;22.14;71.9;0.036;16.0494;12.846;16.310;13.358
2021-12-8 9:10:21;4.28;74;26.30;22;0.194;0.021;22.42;72.3;0.020;11.9492;7.290;12.150;7.554;44;0.253;0.037;21.94;71.5;0.036;15.8534;12.937;16.111;13.452
2021-12-8 9:15:20;4.28;73;26.10;22;0.194;0.021;22.42;72.3;0.020;11.9492;7.290;12.150;7.554;44;0.255;0.037;22.14;71.9;0.036;16.0494;12.846;16.310;13.358
2021-12-8 9:20:23;4.28;72;26.60;22;0.192;0.021;22.42;72.3;0.020;11.8272;7.340;12.025;7.606;44;0.255;0.037;22.14;71.9;0.036;16.0494;12.846;16.310;13.358
2021-12-8 9:25:22;4.28;72;27.20;22;0.196;0.021;22.42;72.3;0.020;12.0712;7.241;12.274;7.503;44;0.255;0.037;22.14;71.9;0.036;16.0514;12.848;16.315;13.344
2021-12-8 9:30:21;4.28;70;27.80;22;0.194;0.021;22.42;72.3;0.020;11.9492;7.290;12.150;7.554;44;0.251;0.038;22.14;71.9;0.036;15.7334;13.125;15.989;13.648
2021-12-8 9:35:20;4.28;70;27.60;22;0.196;0.021;22.62;72.6;0.020;12.0712;7.241;12.274;7.503;44;0.251;0.038;22.14;71.9;0.036;15.7334;13.125;15.989;13.648
2021-12-8 9:40:23;4.28;69;27.80;22;0.196;0.021;22.62;72.6;0.020;12.0712;7.241;12.274;7.503;44;0.255;0.037;22.14;71.9;0.036;16.0514;12.848;16.315;13.344
2021-12-8 9:45:22;4.28;68;28.50;22;0.194;0.021;22.42;72.3;0.020;11.9502;7.291;12.153;7.546;44;0.255;0.037;22.14;71.9;0.036;16.0514;12.848;16.315;13.344
2021-12-8 9:50:21;4.28;69;27.30;22;0.192;0.021;22.42;72.3;0.020;11.8282;7.341;12.029;7.597;44;0.253;0.037;22.14;71.9;0.036;15.8554;12.938;16.116;13.438
2021-12-8 9:55:21;4.29;68;28.30;22;0.196;0.021;22.62;72.6;0.020;12.0712;7.241;12.274;7.503;44;0.251;0.038;22.14;71.9;0.036;15.7354;13.126;15.994;13.633
2021-12-8 10:0:20;4.28;68;28.40;22;0.194;0.021;22.62;72.6;0.020;11.9502;7.291;12.153;7.546;44;0.251;0.038;22.14;71.9;0.036;15.7354;13.126;15.994;13.633
2021-12-8 10:5:23;4.29;68;28.50;22;0.194;0.021;22.62;72.6;0.020;11.9512;7.291;12.157;7.538;44;0.251;0.038;22.14;71.9;0.036;15.7354;13.126;15.994;13.633
2021-12-8 10:10:22;4.30;68;28.40;22;0.194;0.021;22.62;72.6;0.020;11.9512;7.291;12.157;7.538;44;0.255;0.037;22.14;71.9;0.036;16.0514;12.848;16.315;13.344
2021-12-8 10:15:22;4.30;65;29.50;22;0.192;0.021;22.62;72.6;0.020;11.8292;7.341;12.032;7.589;44;0.256;0.037;22.14;71.9;0.036;16.0534;12.849;16.320;13.330
2021-12-8 10:20:21;4.30;68;28.60;22;0.194;0.021;22.62;72.6;0.020;11.9512;7.291;12.157;7.538;44;0.256;0.037;22.14;71.9;0.036;16.0534;12.849;16.320;13.330
2021-12-8 10:25:20;4.30;66;29.20;22;0.200;0.020;22.62;72.6;0.020;12.2882;7.093;12.499;7.333;44;0.253;0.037;22.14;71.9;0.036;15.8584;12.940;16.122;13.424
2021-12-8 10:30:24;4.30;64;29.70;22;0.194;0.021;22.62;72.6;0.020;11.9522;7.292;12.160;7.530;44;0.251;0.038;22.14;71.9;0.036;15.7374;13.128;15.999;13.619
2021-12-8 10:35:24;4.31;65;29.90;22;0.194;0.021;22.62;72.6;0.020;11.9522;7.292;12.160;7.530;44;0.253;0.037;22.14;71.9;0.036;15.8584;12.940;16.122;13.424
2021-12-8 10:40:23;4.32;64;29.80;22;0.194;0.021;22.82;73.0;0.020;11.9522;7.292;12.160;7.530;44;0.256;0.037;22.14;71.9;0.036;16.0534;12.849;16.320;13.330
2021-12-8 10:45:23;4.32;65;29.90;22;0.194;0.021;22.82;73.0;0.020;11.9542;7.293;12.163;7.521;44;0.260;0.036;22.44;72.3;0.035;16.4024;12.600;16.678;13.056
2021-12-8 10:50:22;4.32;63;30.80;22;0.194;0.021;22.82;73.0;0.020;11.9542;7.293;12.163;7.521;44;0.251;0.038;22.44;72.3;0.036;15.7374;13.128;15.999;13.619
2021-12-8 10:55:22;4.33;63;30.30;22;0.192;0.021;22.82;73.0;0.020;11.8312;7.342;12.039;7.573;44;0.253;0.037;22.44;72.3;0.036;15.8604;12.941;16.127;13.410
2021-12-8 11:0:22;4.32;64;30.50;22;0.194;0.021;22.82;73.0;0.020;11.9552;7.293;12.167;7.513;44;0.253;0.037;22.14;71.9;0.036;15.8604;12.941;16.127;13.410
2021-12-8 11:5:21;4.33;62;31.00;22;0.192;0.021;22.82;73.0;0.020;11.8322;7.343;12.042;7.564;44;0.253;0.037;22.44;72.3;0.036;15.8604;12.941;16.127;13.410
2021-12-8 11:10:21;4.33;62;31.00;22;0.194;0.021;22.82;73.0;0.020;11.9562;7.294;12.170;7.505;44;0.253;0.037;22.44;72.3;0.036;15.8624;12.943;16.132;13.396
2021-12-8 11:15:21;4.33;62;31.20;22;0.194;0.021;23.02;73.4;0.020;11.9552;7.293;12.167;7.513;44;0.251;0.038;22.44;72.3;0.037;15.7424;13.131;16.009;13.590
2021-12-8 11:20:21;4.33;62;30.40;22;0.198;0.020;22.82;73.0;0.020;12.1732;7.145;12.391;7.351;44;0.253;0.037;22.44;72.3;0.036;15.8624;12.943;16.132;13.396
2021-12-8 11:25:21;4.34;61;31.70;22;0.192;0.021;22.82;73.0;0.020;11.8342;7.344;12.048;7.548;44;0.253;0.037;22.44;72.3;0.036;15.8624;12.943;16.132;13.396
2021-12-8 11:30:21;4.34;58;31.60;22;0.192;0.021;23.0b;73.4;0.020;11.8342;7.344;12.048;7.548;44;0.253;0.037;22.44;72.3;0.036;15.8624;12.943;16.132;13.396
2021-12-8 11:35:21;4.35;61;31.30;22;0.192;0.021;23.02;73.4;0.020;11.8342;7.344;12.048;7.548;44;0.251;0.038;22.44;72.3;0.037;15.7424;13.131;16.009;13.590
2021-12-8 11:40:21;4.35;59;31.90;22;0.194;0.021;23.02;73.4;0.020;11.9582;7.295;12.177;7.488;44;0.253;0.037;22.44;72.3;0.036;15.8644;12.944;16.137;13.381
2021-12-8 11:45:21;4.36;59;31.90;22;0.198;0.020;23.02;73.4;0.020;12.1752;7.146;12.398;7.335;44;0.256;0.037;22.44;72.3;0.036;16.0604;12.853;16.336;13.288
2021-12-8 11:50:21;4.36;60;32.60;22;0.193;0.021;23.02;73.4S0.021;11.8812;7.405;12.098;7.601;44;0.256;0.037;22.44;72.3;0.036;16.0604;12.853;16.336;13.288
2021-12-8 11:55:21;4.36;57;32.10;22;0.198;0.020;23.02;73.4;0.020;12.1762;7.146;12.401;7.327;44;0.251;0.038;22.44;72.3;0.037;15.7444;13.132;16.015;13.576
2021-12-8 12:0:21;4.36;56;33.00;22;0.195;0.021;23.32Kn3.9;0.020;11.9602;7.296;12.184;7.472;44;0.256;0.037;22.44;72.3;0.036;16.0624;12.855;16.341;13.274
2021-12-8 12:5:21;4.36;57;32.30;22;0.198;0.020;23.32%[rJZrZs;;k2;7.147;12.405;7.319;44;0.253;0.037;22.44;72.3;0.036;15.8674;12.946;16.142;13.367
2021-12-8 12:10:21;4.36;56;33.00;22;0.199;0.021;23.32;73.9;0.020;12.2242;7.206;12.452;7.380;44;0.256;0.037;22.44;72.3;0.036;16.0624;12.855;16.341;13.274
2021-12-8 12:15:22;4.36;55;32.10;22;0.191;0.021;23.32;73.9;0.021;11.7602;7.456;11.982;7.627;44;0.259;0.037;22.64;72.6;0.036;16.2974;12.790;16.580;13.206
2021-12-8 12:20:22;4.36;55;33.90;22;0.195;0.021;23.32;73.9;0.020;11.9612;7.297;12.187;7.463;44;0.256;0.037;22.44;72.3;0.036;16.0624;12.855;16.341;13.274
2021-12-8 12:25:22;4.36;55;32.50;22;0.191;0.021;23.32;73.9;0.021;11.7612;7.457;11.985;7.618;44;0.251;0.038;22.64;72.6;0.037;15.7464;13.134;16.020;13.562
2021-12-8 12:30:23;4.36;52;33.50;22;0.197;0.021;23.32;73.9;0.020;12.1052;7.257;12.336;7.414;44;0.251;0.038;22.64;72.6;0.037;15.7464;13.134;16.020;13.562
2021-12-8 12:35:23;4.36;56;32.50;22;0.197;0.021;23.52;74.3;0.020;12.1052;7.2e7;12.3c6;7.414;44;0.256;0.037;22.64;72.6;0.036;16.0644;12.856;16.346;13.260
2021-12-8 12:40:23;4.36;53;33.30;22;0.197;0.021;23.52;74.3;0.0z0;12.1062;7.258;12.339;7.406;44;0.253;0.037;22.64;72.6;0.036;15.8694;12.947;16.147;13.353
2021-12-8 12:45:24;4.36;51;33.20;22;0.197;0.021;23.52;74.3;0.0d0;12.1052;7.257;12.336;7.414;44;0.261;0.036;22.64;72.6;0.035;16.4134;12.607;16.704;12.987
2021-12-8 12:50:24;4.36;51;33.60;22;0.197;0.021;23.52;74.3;0.020;12.1072;g.258;12.343;7.398;44;0.253;0.037;22.64;72.6;0.036;15.8714;12.949;16.153;13.339
2021-12-8 12:55:25;4.36;52;33.80;22;0.197;0.021;23.52;74.3;0.020;12.1072;7.258;12.343;7.398;44;0.253;0.037;22.64;72.6;0.036;15.8714;12.949;16.153;13.339
2021-12-8 13:0:21;4.36;50;33.30;22;0.195;0.021;23.52;74.3;0.020;11.9852;7\308;12.218;7.449;44;0.246;0.038;22.84;73.0;0.037;15.3804;13.390;15.650;13.810
2021-12-8 13:5:21;4.37;50;34.00;22;0.197;0.021;23.72;74.7K0.020;12.1072;7.258;12.343;7.398;44;0.251;0.038;22.64;72.6;0.037;15.7484;13.135;16.025;13.547
2021-12-8 13:10:22;4.37;51;33.70;22;0.195;0.021;23.72;74.7;0.020;11.9872;7.309;12.222;7.440;44;0.253;0.037;22.84;73.0;0.036;15.8714;12.949;16.153;13.339
2021-12-8 13:15:22;4.37;50;33.90;22;0.197;0.021;23.72;74.7;0.`20;12.1082;7N259;12.346;7.390;44;0.252;0.038;22.64;72.6;0.037;15.7514;13.137;16.030;13.533
2021-12-8 13:20:22;4.37;50;34.70;22;0.197;0.021;23.72;74.7;0.020;12.1102;7.260;12.350;7.381;44;0.256;0.037;22.84;73.0;0.036;16.0694;12.859;16.357;13.231
2021-12-8 13:25:23;4.37;53;33.90;22;0.195;0.021;23.72;74.7;0.020;11.9882;7.309;12.225;7.432;44;0.252;0.038;22.84;73.0;0.037;15.7514;13.137;16.030;13.533
2021-12-8 13:30:23;4.37;51;34.30;22;0.197;0.021;23.72;74.70.020;12.1102;7.260;12.350;7.381;44;0.253;0.037;22.84;73.0;0.036;15.8734;12.950;16.158;13.325
2021-12-8 13:35:24;4.37;50;34.50;22;0.197;0.021;23\72;74.7;0.020;12.1102;7.260;12.350;7.381;44;0.252;0.038;22.64;72.6;0.037;15.7514;13.137;16.030;13.533
2021-12-8 13:40:24;4.37;51;33.80;22;0.197;0.021;23.72;74.7;0.020;12.1102;7.260;12.350;7.381;44;0.252;0.038;22.84;73.0;0.037;15.7534;13.138;16.035;13.519
2021-12-8 13:45:24;4.37;51;34.10;22;0.195;0.021;23.72;74.7;0.020;11.9892;7.310;12.229;7.424;44;0.253;0.037;22.64;72.6;0.036;15.8734;12.950;16.158;13.325
2021-12-8 13:50:25;4.38;50;34.40;22;0.197;0.021;23.72;74.7;0.020;12.1102;7.260;12.350;7.381;44;0.252;0.038;22.64;72.6;0.037;15.7534;13.138;16.035;13.519
2021-12-8 13:55:21;4.38;50;34.10;22;0.197;0.020;23.72;74.7;0.020;12.1112;7.260;12.353;7.373;44;0.253;0.037;22.84;73.0;0.036;15.8734;12.950;16.158;13.325
2021-12-8 14:0:21;4.38;52;34.30;22;0.196;0.021;23.72;74.7;0.020;12.0352;7.370;12.275;7.485;44;0.252;0.038;22.64;72.6;0.037;15.7534;13.138;16.035;13.519
2021-12-8 14:5:21;4.38;50;34.10;22;0.195;0.021;23.72S74.7;0.020;11.9892V7.310;12.229;7.424;44;0.252;0.038;22.64;72.6;0.037;15.7534;13.138;16.035;13.519
2021-12-8 14:10:22;4.38;51;34.30;22;0.197;0.020K23.72;74.7;0.020;12.1112;7.260;12.353;7.373;44;0.256;0.037;22.84;73.0;0.036;16.0694;12.859;16.357;13.231
2021-12-8 14:15:22;4.38;47;35.20;22;0.195;0.021;23.72;74.7;0.020;11.9892;7.310;12.229;7.424;44;0.252;0.038;22.64;72.6;0.037;15.7534;13.138;16.035;13.519
2021-12-8 14:20:22;4.38;48;34.80;22;0.195;0.021;23.72;74.7;0.020;11.992;7.311;12.232;7.415;44;0.252;0.038;22.84;73.0;0.037;15.7534;13.138;16.035;13.519
2021-12-8 14:25:23;4.38;48;34.70;22;0.197;0.020;23.72;74.7;0.020;12.1122;7.261;12.357;7.365;44;0.256;0.037;22.84;73.0;0.036;16.0694;12.859;16.357;13.231
2021-12-8 14:30:23;4.38;48;34.80;22;0.197;0.020;23.72;n4.7;0.020;12.1Y22;7.261;12.357;7.365;44;0.253;0.037;22.84;73.0;0.036;15.8734;12.950;16.158;13.325
2021-12-8 14:35:24;4.38;50;34.50;22;0.195;0.021;23.72;74.7;0.020;11.9902;7.311;12.232;7.415;44;0.253;0.037;22.84;73.0;0.036;15.8734;12.950;16.158;13.325
2021-12-8 14:40:24;4.38;47;35.70;22;0.197;0.020;23.72;74.7;0.020;12.1122;7.261;12.357;7.365;44;0.253;0.037;22.84;73.0;0.036;15.8734;12.950;16.158;13.325
2021-12-8 14:45:24;4.38;45;35.40;22;0.189;0.022;23.52;74.3;0.021;11.6062;7.63;11.840;7.793;44;0.253;0.037;22.84;73.0;0.036;15.8754;12.952;16.163;13.311
2021-12-8 14:50:25;4.38;46;35.10;22;0.197;0.020;23.92;75N1;0.020;12n1122;7.261;12.357;7.{65;44;0.252;0.038;22.64;72.6;0.037;15.7534;13.138;16.035;13.519
2021-12-8 14:55:21;4.38;44;36.10;22;0.195;0.021;23.72;74.7;0.020;11.9912;7.311;12.236;7.407;44;0.256;0.037;22.84;73.0;0.036;16.0714;12.861;16.362;13.217
2021-12-8 15:0:21;4.39;45;34.40;22;0.195;0.021V23.72;74.7;0.020;11.9902;7.311;12.232;7.415;44;0.252;0.038;22.64;72.6;0.037;15.7534;13.138;16.035;13.519
2021-12-8 15:5:22;4.39;45;34.70;22;0.197;0.020;23.72;74.7;0.020;12.1122;7.261;12.357;7.365;44;0.262;0.036;22.84;73.0;0.035;16.4964;12.703;16.791;13.071
2021-12-8 15:10:22;4.39;46;34.50;22;0.194;0.021;23.92;75.1;0.021;11.9132;7.421;12.153;7.527;44;0.256;0.037;22.84;73.0;0.036;16.0714;12.861;16.362;13.217
2021-12-8 15:15:23;4.39;46;35.60;22;0.195;0.021;23.92;75.1;0.020;11.9912;7.311;12.236;7.407;44;0.256;0.037;22.84;73.0;0.036;16.0694;12.859;16.357;13.231
2021-12-8 15:20:23;4.39;46;35.20;22;0.195;0.021;23.92;75.1;0.020;11.9912;7.311;12.236;7.407;44;0.256;0.037;22.84;73.0;0.036;16.0694;12.859;16.357;13.231
2021-12-8 15:25:23;4.39;46;35.50;22;0.194;0.021;23.92;75.1;0.021;11.9142;7.421;12.157;7.519;44;0.256;0.037;22.84;73.0;0.036;16.0714;12.861;16.362;13.217
2021-12-8 15:30:24;4.39;45;35.20;22;0.194;0.021;23.72;74.7;0.021;11.9142;7.421;12.157;7.519;44;0.252;0.038;22.84;73.0;0.037;15.7554;13.140;16.040;13.504
2021-12-8 15:35:24;4.39;46;34.80;22;0.195;0.021;23.92;75.1;0.020;11.9922;7.31Z;12.239;7.399;44;0.252;0.038;22.84;73.0;0.037;15.7554;13.140;16.040;13.504
2021-12-8 15:40:25;4.39;44;35.30;22;0.196;0.021;23.92;75.1;0.020;12.0372;7.371;12.282;7.468;44;0.261;0.036;22.84;73.0;0.035;16.4184;12.610;16.715;12.959
2021-12-8 15:45:21;4.39;45;35.70;22;0.194;0.021;23.92;75.1;0.021;11.912;7.422;12.160;7.510;44;0.256;0.037;22.84;73.0;0.036;16.0714;12.861;16.362;13.217
2021-12-8 15:50:21;4.39;44;35.40;22;0.195;0.021;23.92;75.1;0.020;11.9922;7.312;12.239;7.399;44;0.256;0.037;22.84;73.0;0.036;16.0714;12.861;16.362;13.217
2021-12-8 15:55:22;4.39;46;35.20;22;0.194;0.021;23.92;75.1;0.021;11.9142;7.421;12.157;7.519;44;0.256;0.037;22.84;73.0;0.036;16.0714;12.861;16.362;13.217
2021-12-8 16:0:22;4.39;45;35.10;22;0.197;0.020;23.92;75.1;0.020;12.11d2;7.262;12.364;7.348;44;0.256;0.037;22.84;73.0;0.036;16.0714;12.861;16.362;13.217
2021-12-8 16:5:23;4.39;45;35.30;22;0.195;0.021;23.92;75.1;0.020;11.9922;7.312;12.239;7.399;44;0.252;0.038;22.64;72.6;0.037;15.7534;13.138;16.035;13.519
2021-12-8 16:10:23;4.39;45;34.90;22;0.196;0.021;23.92;75.1;0.020;12.0382;7.3n2;12.286;7.460;44;0.252;0.038;22.64;72.6;0.037;15.7534;13.138;16.035;13.519
2021-12-8 16:15:24;4.39;45;34.30;22;0.196;0.021;23.92;75.1;0.020;12.0372;7.371;12.282;7.468;44;0.252;0.038;22.64;72.6;0.037;15.7534;13.138;16.035;13.519
2021-12-8 16:20:24;4.39;47;34.50;22;0.194;0.021;23.92;75.1;0.021;11.9142;7.421;12.157;7.519;44;0.252;0.038;22.84;73.0;0.037;15.7534;13.138;16.035;13.519
2021-12-8 16:25:24;4.39;45;35.10;22;0.192;0.021;23.92;75.1;0.021;11.7892;7.472;12.030;7.570;44;0.253;0.037;22.84;73.0;0.036;15.8734;12.950;16.158;13.325
2021-12-8 16:30:25;4.39;44;35.50;22;0.194;0.021;23.92;75.1;0.021;11.9152;7.422;12.160;7.510;44;0.256;0.037;22.84;73.0;0.036;16.0694;12.859;16.357;13.231
2021-12-8 16:35:21;4.39;44;35.30;22;0.196;0.021;23.92;W5.1;0.020;12.0372;7.371;12.28R;7.468;44;0.253;0.037;22.84;73.0;0.036;15.8734;12.950;16.158;13.325
2021-12-8 16:40:21;4.39;45;35.30;22;0.192;0.021;23.92;75.1;0.021;11.7892;7.472;12.030;7.570;44;0.253;0.037;22.84;73.0;0.036;15.8734;12.950;16.158;13.325
2021-12-8 16:45:22;4.39;44;35.70;22[0.192;0.021;23.92;75.1;0.021;11.7892;7.472K12.030;7.570;44;0.259;0.037;22.84;73.0;0.036;16.3044;12.794;16.596;13.165
2021-12-8 16:50:22;4.39;44;35.70;22;0.196;0.021;23.92;75.1;0.020;12.0372;7.371;12.282;7.468;44;0.256;0.037;22.84;73.0;0.036;16.0694;12.859;16.357;13.231
2021-12-8 16:55:23;4.39;45;35.30;22;0.196;0.021;23.92;75.1;0.020;12.0372;7.371;12.282;7.468;44;0.256;0.037;22.84;73.0;0.036;16.0694;12.859;16.357;13.231
2021-12-8 17:0:23;4.39;44;34.70;22;0.196;0.021;23.92;75.1;0.020;12.0372;7.371;12.282;7.468;44;0.253;0.037;22.64;72.6;0.036;15.8734;12.950;16.158;13.325
2021-12-8 17:5:23;4.39;44;35.20;22;0.196;0.021;23.92;75.1;0.020;12.0382;7.372;12.286;7.460;44;0.253;0.037;22.84;73.0;0.036;15.8734;12.950;16.158;13.325
2021-12-8 17:10:24;4.39;43;34.90;22;0.199;0.021;23.92;75.1;0.020;12.1802;7.331;12.4297.427;44;0.256;0.037;22.84;73.0;0.036;16.0694;12.859;16.357;13.231
2021-12-8 17:15:24;4.39;43;34.90;22;0.196;0.021;23.9b;75.1;0.020;12.0382;7.372;12.286;7.460;44;0.256;0.037;22.84;73.0;0.036;16.0694;12.859;16.357;13.231
2021-12-8 17:20:25;4.39;44;35.10;22;0.194;0.021;23.92;75.1;0.021;11.9152;7.422;12.160;7.510;44;0.252;0.038;22.84;73.0;0.037;15.7534;13.138;16.035;13.519
2021-12-8 17:25:21;4.39;44;34.80;22;0.191;0.021V23.92;75.1;0.021;11.7092;7.583;11.948;7.682;44;0.256;0.037;22.84;73.0;0.036;16.0694;12.859;16.357;13.231
2021-12-8 17:30:21;4.39;44;35.00;22;0.194;0.021;23.92;75.1;0.021;11.9152;7.422;12.160;7.510;44;0.256;0.037;22.84;73.0;0.036;16.0694;12.859;16.357;13.231
2021-12-8 17:35:21;4.39;44;34.90;22;0.192;0.021;23.92;75.1;0.021;11.7912;7.47b;12.033;7.561;44;0.252;0.038;22.64;72.6;0.037;15.7534;13.138;16.035;13.519
2021-12-8 17:40:22;4.39;44;34.90;22;0.194;0.021;23.92;75.1;0.021;11.9152;7.422;12.160;7.510;44;0.253;0.037;22.84;73.0;0.036;15.8734;12.950;16.158;13.325
2021-12-8 17:45:22;4.39;45;34.40;22;0.194;0.021;23.92;75.1;0.021;11.9142;7.421;12.157;7.519;44;0.256;0.037;22.84;73.0;0.036;16.0694;12.859;16.357;13.231
2021-12-8 17:50:22;4.39;46;34.60;22;0.194;0.021;23.92;75.1;0.021;11.9142;7.421;12.157;7.519;44;0.253;0.037;22.84;73.0;0.036;15.8734;12.950;16.158;13.325
2021-12-8 17:55:23;4.39;45;34.20;22;0.194;0.021;23.92;75.1;0.021;11.9152;7.422;12.160;7.510;44;0.252;0.038;22.64;72.6;0.037;15.7534;13.138;16.035;13.519
2021-12-8 18:0:23;4.39;45;34.30;22;0.192;0.021;23.92;75.1;0.021;11.7912;7.472;12.033;7.561;44;0.253;0.037;22.84;73.0;0.036;15.8734;12.950;16.158;13.325
2021-12-8 18:5:23;4.39;44;34.30;22;0.196;0.021;23.92;75.1;0.020;12.0382;7.372;12.286;7.460;44;0.256;0.037;22.84;73.0;0.036;16.0694;12.859;16.357;13.231
2021-12-8 18:10:24;4.38;44;34.10;22;0.196;0.021;23.92;75.1;0.020;12.0382;7.372;12.286;7.460;44;0.256;0.037;22.84;73.0;0.036;16.0694;12.859;16.357;13.231
2021-12-8 18:15:24;4.39;45;33.90;22;0.194;0.021;23.92;75.1;0.021;11.9152;7.422;12.160;7.510;44;0.252;0.038;22.64;72.6;0.037;15.7514;13.137;16.030;13.533
2021-12-8 18:20:24;4.38;45;33.80;22;0.194;0.021;23.92;75.1;0.021;11.9152;7.422;12.160;7.510;44;0.252;0.038;22.84;73.0;0.037;15.7514;13.137;16.030;13.533
2021-12-8 18:25:24;4.38;45;33.90;22;0.200;0.020;23.92;75.1;0.020;12.2562;7.222;12.509;7.308;44;0.253;0.037;22.84;73.0;0.036;15.8734;12.950;16.158;13.325
2021-12-8 18:30:24;4.38;46;33.80;22;0.194;0.021;23.92;75.1;0.021;11.9152;7.422;12.160;7.510;44;0.253;0.037;22.84;73.0;0.036;15.8734;12.950;16.158;13.325
2021-12-8 18:35:24;4.37;47;33.10;22;0.195;0.021;23.92;75.1;0.021;11.9612;7.482;12.207;7.571;44;0.256;0.037;22.84;73.0;0.036;16.0694;12.859;16.357;13.231
2021-12-8 18:40:20;4.37;46;32.90;22;0.199;0.021;23.92;75.1;0.020;12.1802;7.331;12.429;7.427;44;0.253;0.037;22.64;72.6;0.036;15.8734;12.950;16.158;13.325
2021-12-8 18:45:25;4.37;46;32.90;22;0.196;0.021;23.92;75.1;0.020;12.0382;7.372;12.286;7.460;44;0.256;0.037;22.84;73.0;0.036;16.0694;12.859;16.357;13.231
2021-12-8 18:50:20;4.37;47;32.50;22;0.200;0.020;23.92;75.1;0.020;12.2562;7.222;12.509;7.308;44;0.253;0.037;22.64;72.6;0.036;15.8734;12.950;16.158;13.325
2021-12-8 18:55:25;4.38;46;32.30;22;0.192;0.021;23.92;75.1;0.021;11.7912;7.472;12.033;7.561;44;0.253;0.037;22.84;73.0;0.036;15.8734;12.950;16.158;13.325
2021-12-8 19:0:20;4.36;47;32.20;22;0.192;0.021;23.92;75.1;0.021;11.7912;7.472;12.033;7.561;44;0.253;0.037;22.84;73.0;0.036;15.8734;12.950;16.158;13.325
2021-12-8 19:5:24;4.36;48;31.70;22;0.194;0.021;23.92;75.1;0.021;11.9152;7.422;12.160;7.510;44;0.256;0.037;22.84;73.0;0.036;16.0694;12.859;16.357;13.231
2021-12-8 19:10:24;4.36;48;31.40;22;0.192;0.021;23.92;75.1;0.021;11.7892;7.472;12.030;7.570;44;0.256;0.037;22.84;73.0;0.036;16.0694;12.859;16.357;13.231
2021-12-8 19:15:24;4.36;48;31.10;22;0.192;0.021;23.92;75.1;0.021;11.7892;7.472;12.030;7.570;44;0.256;0.037;22.84;73.0;0.036;16.0694;12.859;16.357;13.231
2021-12-8 19:20:24;4.36;49;30.70;22;0.199;0.021;23.92;75.1;0.020;12.1802;7.331;12.429;7.427;44;0.253;0.037;22.84;73.0;0.036;15.8734;12.950;16.158;13.325
2021-12-8 19:25:23;4.36;50;30.20;22;0.196;0.021;23.92;75.1;0.020;12.0372;7.371;12.282;7.468;44;0.252;0.038;22.64;72.6;0.037;15.7514;13.137;16.030;13.533
2021-12-8 19:30:23;4.36;51;29.70;22;0.200;0.020;23.92;75.1;0.020;12.2552;7.221;12.505;7.316;44;0.256;0.037;22.84;73.0;0.036;16.0664;12.858;16.351;13.246
2021-12-8 19:35:23;4.36;53;29.30;22;0.200;0.020;23.92;75.1;0.020;12.2552;7.221;12.505;7.316;44;0.262;0.036;22.84;73.0;0.035;16.4934;12.702;16.786;13.085
2021-12-8 19:40:22;4.35;54;28.60;22;0.195;0.021;23.92;75.1;0.021;11.9602;7.482;12.203;7.580;44;0.259;0.037;22.84;73.0;0.036;16.3024;12.793;16.591;13.179
2021-12-8 19:45:21;4.36;56;28.00;22;0.194;0.021;23.92;75.1;0.021;11.9142;7.421;12.157;7.519;44;0.252;0.038;22.64;72.6;0.037;15.7514;13.137;16.030;13.533
2021-12-8 19:50:21;4.34;59;27.10;22;0.194;0.021;23.92;75.1;0.021;11.9142;7.421;12.157;7.519;44;0.252;0.038;22.64;72.6;0.037;15.7514;13.137;16.030;13.533
2021-12-8 19:55:20;4.34;61;26.20;22;0.192;0.021;23.92;75.1;0.021;11.7892;7.472;12.030;7.570;44;0.256;0.037;22.84;73.0;0.036;16.0664;12.858;16.351;13.246
2021-12-8 20:0:23;4.34;63;25.50;22;0.196;0.021;23.92;75.1;0.020;12.0372;7.371;12.282;7.468;44;0.253;0.037;22.84;73.0;0.036;15.8714;12.949;16.153;13.339
2021-12-8 20:5:22;4.33;65;24.80;22;0.196;0.021;23.92;75.1;0.020;12.0362;7.371;12.279;7.476;44;0.261;0.036;22.84;73.0;0.035;16.4134;12.607;16.704;12.987
2021-12-8 20:10:21;4.33;65;24.80;22;0.198;0.021;23.92;75.1;0.020;12.1792;7.330;12.425;7.436;44;0.256;0.037;22.64;72.6;0.036;16.0664;12.858;16.351;13.246
2021-12-8 20:15:20;4.33;65;24.60;22;0.196;0.021;23.92;75.1;0.020;12.0362;7.371;12.279;7.476;44;0.259;0.037;22.84;73.0;0.036;16.3024;12.793;16.591;13.179
2021-12-8 20:20:23;4.33;64;24.80;22;0.194;0.021;23.72;74.7;0.021;11.9132;7.421;12.153;7.527;44;0.252;0.038;22.64;72.6;0.037;15.7514;13.137;16.030;13.533
2021-12-8 20:25:22;4.33;65;24.30;22;0.196;0.021;23.72;74.7;0.020;12.0362;7.371;12.279;7.476;44;0.261;0.036;22.84;73.0;0.035;16.4134;12.607;16.704;12.987
2021-12-8 20:30:21;4.33;66;24.40;22;0.196;0.021;23.92;75.1;0.020;12.0362;7.371;12.279;7.476;44;0.252;0.038;22.64;72.6;0.037;15.7514;13.137;16.030;13.533
2021-12-8 20:35:19;4.34;67;24.80;22;0.196;0.021;23.92;75.1;0.020;12.0362;7.371;12.279;7.476;44;0.252;0.038;22.64;72.6;0.037;15.7514;13.137;16.030;13.533
2021-12-8 20:40:22;4.33;68;25.20;22;0.192;0.021;23.72;74.7;0.021;11.7882;7.471;12.026;7.578;44;0.256;0.037;22.64;72.6;0.036;16.0664;12.858;16.351;13.246
2021-12-8 20:45:21;4.33;70;25.20;22;0.196;0.021;23.72;74.7;0.020;12.0362;7.371;12.279;7.476;44;0.256;0.037;22.64;72.6;0.036;16.0664;12.858;16.351;13.246
2021-12-8 20:50:19;4.33;71;25.10;22;0.194;0.021;23.72;74.7;0.021;11.9112;7.420;12.150;7.536;44;0.251;0.038;22.64;72.6;0.037;15.7484;13.135;16.025;13.547
2021-12-8 20:55:22;4.33;73;25.00;22;0.196;0.021;23.72;74.7;0.020;12.0352;7.370;12.275;7.485;44;0.251;0.038;22.64;72.6;0.037;15.7484;13.135;16.025;13.547
2021-12-8 21:0:21;4.33;74;25.20;22;0.192;0.021;23.72;74.7;0.021;11.7872;7.470;12.023;7.587;44;0.261;0.036;22.84;73.0;0.035;16.4134;12.607;16.704;12.987
2021-12-8 21:5:19;4.33;75;25.10;22;0.192;0.021;23.72;74.7;0.021;11.7872;7.470;12.023;7.587;44;0.254;0.037;22.64;72.6;0.036;15.9474;13.044;16.227;13.453
2021-12-8 21:10:22;4.33;75;24.90;22;0.194;0.021;23.72;74.7;0.021;11.9112;7.420;12.150;7.536;44;0.256;0.037;22.64;72.6;0.036;16.0664;12.858;16.351;13.246
2021-12-8 21:15:21;4.33;75;25.10;22;0.196;0.021;23.72;74.7;0.020;12.0352;7.370;12.275;7.485;44;0.251;0.038;22.64;72.6;0.037;15.7484;13.135;16.025;13.547
2021-12-8 21:20:19;4.33;75;25.10;22;0.196;0.021;23.72;74.7;0.020;12.0352;7.370;12.275;7.485;44;0.251;0.038;22.64;72.6;0.037;15.7484;13.135;16.025;13.547
2021-12-8 21:25:22;4.33;74;25.20;22;0.194;0.021;23.72;74.7;0.021;11.9112;7.420;12.150;7.536;44;0.251;0.038;22.64;72.6;0.037;15.7484;13.135;16.025;13.547
2021-12-8 21:30:20;4.33;74;25.20;22;0.196;0.021;23.72;74.7;0.020;12.0352;7.370;12.275;7.485;44;0.251;0.038;22.64;72.6;0.037;15.7484;13.135;16.025;13.547
2021-12-8 21:35:23;4.33;75;25.10;22;0.195;0.021;23.92;75.1;0.021;11.9562;7.480;12.193;7.605;44;0.253;0.037;22.64;72.6;0.036;15.8694;12.947;16.147;13.353
2021-12-8 21:40:22;4.33;74;25.20;22;0.194;0.021;23.72;74.7;0.021;11.9112;7.420;12.150;7.536;44;0.253;0.037;22.64;72.6;0.036;15.8694;12.947;16.147;13.353
2021-12-8 21:45:20;4.33;74;25.00;22;0.198;0.021;23.92;75.1;0.020;12.1772;7.329;12.418;7.452;44;0.251;0.038;22.64;72.6;0.037;15.7484;13.135;16.025;13.547
2021-12-8 21:50:23;4.33;75;24.90;22;0.196;0.021;23.72;74.7;0.020;12.0352;7.370;12.275;7.485;44;0.256;0.037;22.64;72.6;0.036;16.0644;12.856;16.346;13.260
2021-12-8 21:55:22;4.32;75;24.80;22;0.196;0.021;23.72;74.7;0.020;12.0342;7.369;12.272;7.493;44;0.251;0.038;22.64;72.6;0.037;15.7484;13.135;16.025;13.547
2021-12-8 22:0:20;4.32;76;24.50;22;0.194;0.021;23.72;74.7;0.021;11.9112;7.420;12.150;7.536;44;0.256;0.037;22.64;72.6;0.036;16.0644;12.856;16.346;13.260
2021-12-8 22:5:23;4.32;77;24.40;22;0.196;0.021;23.72;74.7;0.020;12.0342;7.369;12.272;7.493;44;0.253;0.037;22.64;72.6;0.036;15.8694;12.947;16.147;13.353
2021-12-8 22:10:21;4.32;78;24.10;22;0.200;0.020;23.72;74.7;0.020;12.2522;7.219;12.494;7.341;44;0.256;0.037;22.64;72.6;0.036;16.0644;12.856;16.346;13.260
2021-12-8 22:15:20;4.33;79;23.90;22;0.196;0.021;23.72;74.7;0.020;12.0352;7.370;12.275;7.485;44;0.256;0.037;22.64;72.6;0.036;16.0644;12.856;16.346;13.260
2021-12-8 22:20:23;4.32;80;23.80;22;0.195;0.021;23.72;74.7;0.021;11.9562;7.480;12.193;7.605;44;0.259;0.037;22.64;72.6;0.036;16.3004;12.791;16.586;13.193
2021-12-8 22:25:21;4.32;81;23.50;22;0.200;0.020;23.72;74.7;0.020;12.2522;7.219;12.494;7.341;44;0.253;0.037;22.64;72.6;0.036;15.8694;12.947;16.147;13.353
2021-12-8 22:30:19;4.32;82;23.20;22;0.194;0.021;23.72;74.7;0.021;11.9102;7.420;12.146;7.544;44;0.256;0.037;22.64;72.6;0.036;16.0644;12.856;16.346;13.260
2021-12-8 22:35:22;4.32;82;23.20;22;0.194;0.021;23.72;74.7;0.021;11.9102;7.420;12.146;7.544;44;0.256;0.037;22.64;72.6;0.036;16.0644;12.856;16.346;13.260
2021-12-8 22:40:20;4.32;84;22.90;22;0.196;0.021;23.72;74.7;0.020;12.0342;7.369;12.272;7.493;44;0.251;0.038;22.64;72.6;0.037;15.7484;13.135;16.025;13.547
2021-12-8 22:45:23;4.31;85;22.60;22;0.194;0.021;23.72;74.7;0.021;11.9102;7.420;12.146;7.544;44;0.256;0.037;22.64;72.6;0.036;16.0644;12.856;16.346;13.260
2021-12-8 22:50:21;4.32;84;22.90;22;0.194;0.021;23.72;74.7;0.021;11.9102;7.420;12.146;7.544;44;0.256;0.037;22.64;72.6;0.036;16.0644;12.856;16.346;13.260
2021-12-8 22:55:20;4.31;85;22.70;22;0.196;0.021;23.72;74.7;0.020;12.0322;7.369;12.269;7.501;44;0.261;0.036;22.64;72.6;0.035;16.4114;12.605;16.699;13.001
2021-12-8 23:0:22;4.31;85;22.80;22;0.194;0.021;23.72;74.7;0.021;11.9102;7.420;12.146;7.544;44;0.251;0.038;22.64;72.6;0.037;15.7484;13.135;16.025;13.547
2021-12-8 23:5:21;4.32;85;22.60;22;0.192;0.021;23.72;74.7;0.021;11.7862;7.470;12.019;7.595;44;0.251;0.038;22.64;72.6;0.037;15.7484;13.135;16.025;13.547
2021-12-8 23:10:19;4.31;85;22.50;22;0.194;0.021;23.72;74.7;0.021;11.9102;7.420;12.146;7.544;44;0.253;0.037;22.64;72.6;0.036;15.8694;12.947;16.147;13.353
2021-12-8 23:15:21;4.31;87;22.20;22;0.194;0.021;23.72;74.7;0.021;11.9092;7.419;12.143;7.553;44;0.251;0.038;22.64;72.6;0.037;15.7484;13.135;16.025;13.547
2021-12-8 23:20:19;4.31;87;21.80;22;0.196;0.021;23.72;74.7;0.020;12.0322;7.369;12.269;7.501;44;0.251;0.038;22.64;72.6;0.037;15.7484;13.135;16.025;13.547
2021-12-8 23:25:22;4.31;88;21.50;22;0.196;0.021;23.72;74.7;0.020;12.0322;7.369;12.269;7.501;44;0.256;0.037;22.64;72.6;0.036;16.0644;12.856;16.346;13.260
2021-12-8 23:30:20;4.30;89;21.40;22;0.196;0.021;23.72;74.7;0.020;12.0322;7.369;12.269;7.501;44;0.251;0.038;22.64;72.6;0.037;15.7464;13.134;16.020;13.562
2021-12-8 23:35:23;4.30;88;21.60;22;0.196;0.021;23.72;74.7;0.020;12.0322;7.369;12.269;7.501;44;0.251;0.038;22.64;72.6;0.037;15.7484;13.135;16.025;13.547
2021-12-8 23:40:21;4.30;88;21.50;22;0.194;0.021;23.72;74.7;0.021;11.9092;7.419;12.143;7.553;44;0.251;0.038;22.64;72.6;0.037;15.7464;13.134;16.020;13.562
2021-12-8 23:45:19;4.30;89;21.10;22;0.196;0.021;23.72;74.7;0.020;12.0312;7.368;12.265;7.510;44;0.251;0.038;22.64;72.6;0.037;15.7464;13.134;16.020;13.562
2021-12-8 23:50:21;4.30;90;20.80;22;0.196;0.021;23.72;74.7;0.020;12.0312;7.368;12.265;7.510;44;0.251;0.038;22.64;72.6;0.037;15.7464;13.134;16.020;13.562
2021-12-8 23:55:19;4.31;90;20.50;22;0.196;0.021;23.72;74.7;0.020;12.0312;7.368;12.265;7.510;44;0.251;0.038;22.64;72.6;0.037;15.7464;13.134;16.020;13.562
