2020-11-22 0:2:43;4.16;53;22.70;11;0.148;0.014;23.51;74.3;0.014;8.9991;4.922;9.170;5.028;307;269;292
2020-11-22 0:32:40;4.16;55;22.20;11;0.141;0.015;23.01;73.4;0.014;8.6241;5.093;8.782;5.228;307;270;291
2020-11-22 1:2:41;4.15;54;22.20;11;0.145;0.014;22.81;73.0;0.014;8.8371;4.948;8.992;5.103;308;270;293
2020-11-22 1:32:42;4.15;65;21.40;11;0.142;0.014;22.41;72.3;0.014;8.6931;4.982;8.839;5.162;308;271;293
2020-11-22 2:2:42;4.15;84;20.10;11;0.146;0.014;21.91;71.5;0.013;8.9001;4.836;9.038;5.052;309;271;293
2020-11-22 2:32:42;4.14;94;19.40;11;0.144;0.014;21.51;70.7;0.014;8.7571;4.870;8.886;5.117;309;271;294
2020-11-22 3:2:41;4.14;95;19.10;11;0.143;0.014;21.11;70.0;0.014;8.7371;4.861;8.855;5.148;309;272;294
2020-11-22 3:32:40;4.14;92;18.60;11;0.141;0.014;20.91;69.6;0.014;8.5951;4.895;8.704;5.207;310;272;295
2020-11-22 4:2:38;4.14;82;19.10;11;0.142;0.014;20.51;68.9;0.013;8.6801;4.794;8.785;5.123;310;273;295
2020-11-22 4:32:40;4.13;75;19.00;11;0.144;0.014;20.31;68.5;0.013;8.7641;4.694;8.865;5.033;311;273;295
2020-11-22 5:2:39;4.13;73;18.90;11;0.142;0.014;20.11;68.2;0.013;8.6601;4.785;8.755;5.153;311;273;296
2020-11-22 5:32:37;4.13;72;18.70;11;0.143;0.014;19.71;67.5;0.013;8.7441;4.686;8.835;5.063;312;274;296
2020-11-22 6:2:39;4.13;74;18.40;11;0.145;0.014;19.51;67.1;0.013;8.8261;4.586;8.912;4.977;312;274;297
2020-11-22 6:32:36;4.13;77;18.30;11;0.142;0.014;19.11;66.4;0.013;8.6871;4.620;8.767;5.036;312;274;297
2020-11-22 7:2:38;4.13;74;19.20;11;0.144;0.014;19.11;66.4;0.013;8.8081;4.579;8.889;4.991;313;275;298
2020-11-22 7:32:41;4.14;71;20.50;11;0.141;0.014;19.31;66.8;0.013;8.6041;4.719;8.689;5.122;313;275;298
2020-11-22 8:2:40;4.14;64;22.20;11;0.145;0.014;19.91;67.8;0.013;8.8301;4.589;8.927;4.942;313;275;298
2020-11-22 8:32:40;4.15;55;25.30;11;0.143;0.014;20.51;68.9;0.013;8.7531;4.690;8.862;5.000;313;275;298
2020-11-22 9:2:42;4.16;41;30.00;11;0.138;0.014;21.11;70.0;0.014;8.4461;4.926;8.567;5.188;313;275;298
2020-11-22 9:32:48;4.17;39;31.10;11;0.136;0.014;21.91;71.5;0.014;8.3271;4.972;8.461;5.176;313;275;298
2020-11-22 10:2:47;4.18;35;31.70;11;0.144;0.013;22.81;73.0;0.013;8.7921;4.707;8.951;4.838;313;275;298
2020-11-22 10:32:48;4.19;30;35.50;11;0.139;0.014;23.71;74.7;0.014;8.4861;4.946;8.659;5.011;313;275;298
2020-11-22 11:2:51;4.19;29;36.40;11;0.143;0.013;24.91;76.8;0.013;8.7291;4.817;8.935;4.786;313;323;299
2020-11-22 11:32:53;4.22;26;37.40;11;0.139;0.013;29.81;85.6;0.014;8.5261;5.153;8.833;4.766;312;322;297
2020-11-22 12:2:56;4.24;25;38.90;11;0.144;0.013;33.81;92.9;0.015;8.7971;5.220;9.202;4.576;310;322;294
2020-11-22 12:32:57;4.27;25;38.80;11;0.142;0.013;37.81;100.0;0.015;8.6831;5.467;9.171;4.559;309;323;292
2020-11-22 13:2:58;4.30;23;39.80;11;0.138;0.013;40.61;105.1;0.016;8.4771;5.634;9.009;4.555;309;324;292
2020-11-22 13:33:2;4.33;20;42.00;11;0.141;0.012;43.21;109.8;0.015;8.5931;5.537;9.202;4.320;309;325;294
2020-11-22 14:3:2;4.37;19;42.90;11;0.138;0.012;45.51;113.9;0.016;8.4481;5.578;9.092;4.251;310;325;293
2020-11-22 14:33:4;4.39;19;43.60;11;0.138;0.011;45.51;113.9;0.015;8.4661;5.388;9.116;4.097;310;325;292
2020-11-22 15:3:2;4.40;20;43.10;11;0.134;0.011;44.91;112.9;0.015;8.2421;5.345;8.863;4.091;309;324;293
2020-11-22 15:33:5;4.40;21;41.10;11;0.137;0.011;43.81;110.8;0.014;8.3891;5.114;8.983;3.989;310;323;294
2020-11-22 16:3:2;4.40;19;41.00;11;0.131;0.011;43.21;109.8;0.014;8.0861;5.180;8.640;4.083;310;321;296
2020-11-22 16:33:5;4.41;18;43.90;11;0.131;0.011;42.61;108.8;0.014;8.0671;5.170;8.608;4.099;310;320;297
2020-11-22 17:3:4;4.41;16;44.70;11;0.126;0.011;41.61;106.9;0.014;7.8301;5.118;8.332;4.114;311;319;298
2020-11-22 17:33:2;4.41;17;42.70;11;0.123;0.011;39.11;102.5;0.014;7.6671;4.950;8.100;4.121;312;320;299
2020-11-22 18:3:1;4.38;25;34.90;11;0.125;0.011;37.41;99.3;0.013;7.7691;4.668;8.172;3.974;313;321;299
2020-11-22 18:32:54;4.36;30;32.10;11;0.123;0.011;35.71;96.3;0.013;7.6811;4.585;8.047;3.987;314;321;299
2020-11-22 19:2:54;4.35;33;31.00;11;0.117;0.011;34.21;93.5;0.013;7.3761;4.639;7.705;4.099;315;322;300
2020-11-22 19:32:52;4.35;36;29.50;11;0.123;0.011;33.11;91.6;0.012;7.6671;4.398;7.984;3.951;316;323;301
2020-11-22 20:2:48;4.34;37;28.30;11;0.117;0.011;31.71;89.1;0.012;7.3691;4.453;7.654;4.060;317;323;301
2020-11-22 20:32:48;4.34;39;27.50;11;0.118;0.011;30.71;87.3;0.012;7.4411;4.349;7.709;4.023;319;324;301
2020-11-22 21:2:46;4.33;43;26.50;11;0.122;0.011;30.11;86.2;0.012;7.6031;4.155;7.861;3.887;320;325;303
2020-11-22 21:32:48;4.33;43;26.20;11;0.116;0.011;29.21;84.6;0.012;7.3281;4.217;7.563;3.988;320;326;304
2020-11-22 22:2:45;4.33;42;26.10;11;0.118;0.011;28.61;83.5;0.011;7.4021;4.118;7.628;3.925;321;327;305
2020-11-22 22:32:46;4.33;42;25.60;11;0.119;0.011;27.81;82.0;0.011;7.4741;4.019;7.690;3.867;322;326;304
2020-11-22 23:2:46;4.32;43;25.30;11;0.119;0.011;27.21;81.0;0.011;7.4581;4.012;7.665;3.885;323;328;306
2020-11-22 23:32:46;4.32;45;24.80;11;0.118;0.011;26.71;80.0;0.011;7.4101;3.952;7.607;3.857;324;329;307
