2021-11-02 00:03:45;1;165;165;164;164;164;163;164;165;164;164;
2021-11-02 00:03:45;2;120;120;120;120;120;120;120;120;120;120;
2021-11-02 00:03:45;3;30;30;30;30;30;30;30;30;30;30;
2021-11-02 00:03:45;4;126;126;126;126;126;126;126;126;126;126;
2021-11-02 00:03:45;5;97;97;97;97;97;97;97;97;97;97;
2021-11-02 00:03:45;ht;99;17.50
2021-11-02 00:03:45;v;4.15
2021-11-02 00:33:47;1;161;161;161;161;161;161;161;161;161;161;
2021-11-02 00:33:47;2;123;123;123;123;123;123;123;123;123;123;
2021-11-02 00:33:47;3;32;32;32;32;32;32;32;32;32;32;
2021-11-02 00:33:47;4;127;127;127;127;127;127;127;127;127;127;
2021-11-02 00:33:47;5;113;113;113;113;113;113;113;113;113;113;
2021-11-02 00:33:47;ht;99;17.50
2021-11-02 00:33:47;v;4.15
2021-11-02 01:03:49;1;161;161;161;161;161;161;161;161;161;161;
2021-11-02 01:03:49;2;123;123;123;123;123;124;123;123;123;123;
2021-11-02 01:03:49;3;32;32;32;32;32;32;32;32;32;32;
2021-11-02 01:03:49;4;127;127;127;127;127;127;127;127;127;127;
2021-11-02 01:03:49;5;99;99;99;99;99;99;99;99;99;100;
2021-11-02 01:03:49;ht;99;17.10
2021-11-02 01:03:49;v;4.14
2021-11-02 01:33:46;1;161;161;161;164;171;176;178;173;171;169;
2021-11-02 01:33:46;2;122;122;123;122;122;122;122;122;122;122;
2021-11-02 01:33:46;3;33;33;33;33;33;33;33;33;33;33;
2021-11-02 01:33:46;4;121;121;121;121;121;121;121;121;121;121;
2021-11-02 01:33:46;5;110;110;110;110;110;110;110;110;110;109;
2021-11-02 01:33:46;ht;99;17.00
2021-11-02 01:33:46;v;4.14
2021-11-02 02:03:48;1;173;170;169;168;175;179;183;177;179;184;
2021-11-02 02:03:48;2;125;125;125;125;125;125;125;125;125;125;
2021-11-02 02:03:48;3;25;25;25;25;25;25;25;25;25;25;
2021-11-02 02:03:48;4;127;127;127;127;127;127;127;127;127;127;
2021-11-02 02:03:48;5;96;95;96;96;96;95;96;96;96;95;
2021-11-02 02:03:48;ht;99;16.90
2021-11-02 02:03:48;v;4.14
2021-11-02 02:33:45;1;160;160;160;160;160;160;160;160;160;160;
2021-11-02 02:33:45;2;121;121;121;121;121;121;122;122;121;121;
2021-11-02 02:33:45;3;25;25;25;25;25;25;25;25;25;25;
2021-11-02 02:33:45;4;126;126;126;126;126;126;126;126;126;126;
2021-11-02 02:33:45;5;96;97;96;96;96;97;96;96;96;97;
2021-11-02 02:33:45;ht;99;16.90
2021-11-02 02:33:45;v;4.14
2021-11-02 03:03:46;1;186;180;177;176;175;178;188;187;185;181;
2021-11-02 03:03:46;2;125;125;125;125;125;125;125;125;125;125;
2021-11-02 03:03:46;3;27;27;27;27;27;27;27;27;27;27;
2021-11-02 03:03:46;4;124;124;124;124;124;124;124;124;124;124;
2021-11-02 03:03:46;5;2;2;2;2;1;2;2;1;1;2;
2021-11-02 03:03:46;ht;99;16.80
2021-11-02 03:03:46;v;4.14
2021-11-02 03:33:48;1;171;166;166;166;165;165;165;165;165;165;
2021-11-02 03:33:48;2;124;124;124;124;124;124;124;124;124;124;
2021-11-02 03:33:48;3;27;27;27;27;27;27;27;27;27;27;
2021-11-02 03:33:48;4;123;123;123;123;123;123;123;123;123;123;
2021-11-02 03:33:48;5;106;106;106;106;106;106;106;106;106;114;
2021-11-02 03:33:48;ht;99;16.90
2021-11-02 03:33:48;v;4.14
2021-11-02 04:03:44;1;180;183;187;188;194;190;191;190;191;193;
2021-11-02 04:03:44;2;123;123;123;123;123;123;123;123;123;123;
2021-11-02 04:03:44;3;26;26;26;26;26;26;26;26;26;26;
2021-11-02 04:03:44;4;125;125;125;125;125;125;125;125;126;125;
2021-11-02 04:03:44;5;131;126;124;124;124;124;124;124;124;124;
2021-11-02 04:03:44;ht;99;16.90
2021-11-02 04:03:44;v;4.14
2021-11-02 04:33:46;1;180;176;174;172;171;169;168;167;166;165;
2021-11-02 04:33:46;2;124;124;124;124;124;124;124;124;124;124;
2021-11-02 04:33:46;3;26;26;26;26;26;26;26;26;26;26;
2021-11-02 04:33:46;4;126;126;126;126;126;126;126;126;126;126;
2021-11-02 04:33:46;5;1;2;2;1;1;1;1;2;2;2;
2021-11-02 04:33:46;ht;99;16.90
2021-11-02 04:33:46;v;4.14
2021-11-02 05:03:47;1;177;178;182;183;184;187;185;188;188;186;
2021-11-02 05:03:47;2;124;124;124;124;124;124;124;124;124;124;
2021-11-02 05:03:47;3;26;26;26;26;26;26;26;26;26;26;
2021-11-02 05:03:47;4;124;124;124;124;124;124;124;124;124;124;
2021-11-02 05:03:47;5;95;95;95;95;95;95;95;94;94;95;
2021-11-02 05:03:47;ht;99;17.00
2021-11-02 05:03:47;v;4.14
2021-11-02 05:33:44;1;185;178;180;188;184;186;192;193;193;191;
2021-11-02 05:33:44;2;122;122;122;122;122;122;122;122;122;122;
2021-11-02 05:33:44;3;59;53;52;52;51;51;51;51;52;52;
2021-11-02 05:33:44;4;128;128;127;127;127;127;127;127;127;127;
2021-11-02 05:33:44;5;1;2;1;9;3;3;2;2;2;2;
2021-11-02 05:33:44;ht;99;17.00
2021-11-02 05:33:44;v;4.14
2021-11-02 06:03:46;1;187;184;181;179;178;176;175;174;174;173;
2021-11-02 06:03:46;2;123;123;123;123;124;123;123;124;123;124;
2021-11-02 06:03:46;3;25;25;25;25;25;25;25;25;25;25;
2021-11-02 06:03:46;4;126;126;126;126;126;126;126;126;126;126;
2021-11-02 06:03:46;5;89;89;89;89;89;88;88;88;88;89;
2021-11-02 06:03:46;ht;99;17.10
2021-11-02 06:03:46;v;4.14
2021-11-02 06:33:47;1;191;191;195;187;182;179;176;175;173;171;
2021-11-02 06:33:47;2;106;106;106;106;106;106;106;106;106;106;
2021-11-02 06:33:47;3;27;27;27;27;27;27;27;27;27;27;
2021-11-02 06:33:47;4;126;126;126;126;126;126;126;126;126;126;
2021-11-02 06:33:47;5;93;93;93;94;93;93;93;93;93;93;
2021-11-02 06:33:47;ht;99;17.40
2021-11-02 06:33:47;v;4.14
2021-11-02 07:03:44;1;172;171;171;171;171;170;170;170;169;169;
2021-11-02 07:03:44;2;110;110;110;110;110;110;110;110;110;111;
2021-11-02 07:03:44;3;28;27;28;28;27;28;29;28;28;28;
2021-11-02 07:03:44;4;124;124;124;124;124;124;124;124;124;124;
2021-11-02 07:03:44;5;87;87;87;87;87;87;87;87;87;87;
2021-11-02 07:03:44;ht;99;17.40
2021-11-02 07:03:44;v;4.14
2021-11-02 07:33:46;1;176;175;175;174;174;174;174;174;173;173;
2021-11-02 07:33:46;2;116;116;116;116;116;116;116;116;116;116;
2021-11-02 07:33:46;3;25;25;25;25;25;25;25;25;25;25;
2021-11-02 07:33:46;4;114;114;126;116;115;115;114;114;114;114;
2021-11-02 07:33:46;5;93;93;93;93;93;93;93;93;93;93;
2021-11-02 07:33:46;ht;99;17.50
2021-11-02 07:33:46;v;4.14
2021-11-02 08:03:48;1;176;176;175;174;174;173;173;173;173;173;
2021-11-02 08:03:48;2;121;121;121;121;121;121;121;121;121;121;
2021-11-02 08:03:48;3;79;79;79;79;79;79;79;79;79;79;
2021-11-02 08:03:48;4;126;126;126;126;126;126;126;126;126;126;
2021-11-02 08:03:48;5;110;110;110;111;111;110;114;114;111;111;
2021-11-02 08:03:48;ht;99;17.70
2021-11-02 08:03:48;v;4.14
2021-11-02 08:33:46;1;178;178;177;177;177;177;177;177;177;177;
2021-11-02 08:33:46;2;124;124;124;124;124;124;124;124;124;124;
2021-11-02 08:33:46;3;48;48;48;48;48;48;48;48;48;48;
2021-11-02 08:33:46;4;107;107;107;107;107;107;107;107;107;107;
2021-11-02 08:33:46;5;91;91;92;91;98;93;92;91;92;92;
2021-11-02 08:33:46;ht;99;17.90
2021-11-02 08:33:46;v;4.14
2021-11-02 09:03:48;1;172;172;172;172;172;172;171;171;172;172;
2021-11-02 09:03:48;2;117;117;117;117;117;117;117;117;117;117;
2021-11-02 09:03:48;3;49;48;49;49;49;48;49;48;49;48;
2021-11-02 09:03:48;4;112;112;112;112;112;112;112;112;112;112;
2021-11-02 09:03:48;5;95;95;95;95;95;95;95;95;95;95;
2021-11-02 09:03:48;ht;99;17.70
2021-11-02 09:03:48;v;4.14
2021-11-02 09:33:45;1;172;171;171;171;171;171;171;171;171;171;
2021-11-02 09:33:45;2;117;117;117;117;117;117;117;117;117;117;
2021-11-02 09:33:45;3;25;25;25;25;25;25;25;25;25;25;
2021-11-02 09:33:45;4;118;118;118;118;118;127;121;119;118;119;
2021-11-02 09:33:45;5;91;90;89;89;89;89;89;89;89;89;
2021-11-02 09:33:45;ht;99;17.20
2021-11-02 09:33:45;v;4.14
2021-11-02 10:03:47;1;170;169;169;169;169;169;169;169;169;169;
2021-11-02 10:03:47;2;112;112;112;112;112;112;112;112;112;112;
2021-11-02 10:03:47;3;48;49;48;48;48;48;48;48;48;48;
2021-11-02 10:03:47;4;112;112;112;112;112;112;112;112;112;112;
2021-11-02 10:03:47;5;94;94;94;94;93;94;95;94;94;94;
2021-11-02 10:03:47;ht;99;17.30
2021-11-02 10:03:47;v;4.14
2021-11-02 10:33:45;1;179;178;177;176;175;175;174;174;174;174;
2021-11-02 10:33:45;2;116;116;116;116;116;116;116;116;116;116;
2021-11-02 10:33:45;3;27;27;27;27;27;27;27;27;27;27;
2021-11-02 10:33:45;4;123;123;123;123;123;123;123;123;123;123;
2021-11-02 10:33:45;5;96;96;96;96;96;96;96;96;96;96;
2021-11-02 10:33:45;ht;99;18.00
2021-11-02 10:33:45;v;4.14
2021-11-02 11:03:47;1;167;167;167;167;167;166;166;166;166;166;
2021-11-02 11:03:47;2;122;122;122;122;122;122;122;122;122;122;
2021-11-02 11:03:47;3;26;34;28;27;26;26;26;26;26;27;
2021-11-02 11:03:47;4;121;121;120;120;120;120;121;120;120;120;
2021-11-02 11:03:47;5;91;91;91;91;91;91;91;91;91;91;
2021-11-02 11:03:47;ht;99;17.20
2021-11-02 11:03:47;v;4.14
2021-11-02 11:33:49;1;167;167;167;167;167;167;167;167;167;167;
2021-11-02 11:33:49;2;117;117;117;117;117;117;117;118;118;117;
2021-11-02 11:33:49;3;26;26;26;26;27;26;26;26;26;27;
2021-11-02 11:33:49;4;121;121;122;122;122;122;121;121;121;121;
2021-11-02 11:33:49;5;95;96;96;95;96;95;96;96;96;95;
2021-11-02 11:33:49;ht;99;17.50
2021-11-02 11:33:49;v;4.14
2021-11-02 12:03:47;1;172;171;181;180;183;184;184;182;180;178;
2021-11-02 12:03:47;2;102;102;102;102;102;102;102;102;102;102;
2021-11-02 12:03:47;3;27;27;27;27;27;27;27;27;27;27;
2021-11-02 12:03:47;4;117;117;117;117;117;117;117;117;117;117;
2021-11-02 12:03:47;5;96;96;96;96;96;96;96;96;96;96;
2021-11-02 12:03:47;ht;99;18.40
2021-11-02 12:03:47;v;4.14
2021-11-02 12:33:50;1;168;168;168;168;168;168;168;167;168;168;
2021-11-02 12:33:50;2;113;113;113;113;114;114;114;113;114;114;
2021-11-02 12:33:50;3;34;34;34;34;34;34;34;34;33;34;
2021-11-02 12:33:50;4;112;112;112;112;112;112;112;112;112;112;
2021-11-02 12:33:50;5;94;94;94;94;94;94;94;94;94;94;
2021-11-02 12:33:50;ht;99;18.60
2021-11-02 12:33:50;v;4.14
2021-11-02 13:03:49;1;166;166;166;166;166;166;166;166;166;166;
2021-11-02 13:03:49;2;122;122;122;122;122;122;122;122;122;123;
2021-11-02 13:03:49;3;37;37;37;37;38;37;37;37;37;37;
2021-11-02 13:03:49;4;120;120;120;121;120;120;120;120;120;120;
2021-11-02 13:03:49;5;84;84;84;84;85;85;85;84;84;84;
2021-11-02 13:03:49;ht;99;18.90
2021-11-02 13:03:49;v;4.14
2021-11-02 13:33:48;1;168;168;168;167;168;168;168;168;168;168;
2021-11-02 13:33:48;2;107;107;107;107;107;107;107;107;107;107;
2021-11-02 13:33:48;3;37;37;37;38;38;37;38;38;37;37;
2021-11-02 13:33:48;4;124;124;124;124;124;124;124;124;124;124;
2021-11-02 13:33:48;5;107;107;107;107;107;107;107;107;107;107;
2021-11-02 13:33:48;ht;99;20.50
2021-11-02 13:33:48;v;4.14
2021-11-02 14:03:47;1;164;164;164;164;164;164;164;164;165;164;
2021-11-02 14:03:47;2;116;116;116;116;115;115;115;115;115;115;
2021-11-02 14:03:47;3;37;37;37;37;37;37;37;37;37;37;
2021-11-02 14:03:47;4;121;121;121;121;121;121;121;121;121;121;
2021-11-02 14:03:47;5;100;100;100;100;100;100;100;100;100;100;
2021-11-02 14:03:47;ht;99;19.70
2021-11-02 14:03:47;v;4.15
2021-11-02 14:33:51;1;162;162;162;162;162;162;162;162;162;162;
2021-11-02 14:33:51;2;105;105;105;105;106;105;105;105;105;105;
2021-11-02 14:33:51;3;38;37;37;37;37;37;37;37;38;37;
2021-11-02 14:33:51;4;115;115;115;115;115;115;115;115;114;115;
2021-11-02 14:33:51;5;106;106;106;106;106;106;106;106;106;106;
2021-11-02 14:33:51;ht;99;19.90
2021-11-02 14:33:51;v;4.15
2021-11-02 15:03:50;1;162;162;161;161;161;161;161;161;161;161;
2021-11-02 15:03:50;2;112;110;107;107;107;106;106;106;106;106;
2021-11-02 15:03:50;3;37;37;37;37;37;37;37;37;37;37;
2021-11-02 15:03:50;4;125;125;125;125;125;125;125;125;125;125;
2021-11-02 15:03:50;5;97;96;97;97;96;97;97;97;97;97;
2021-11-02 15:03:50;ht;99;19.90
2021-11-02 15:03:50;v;4.15
2021-11-02 15:33:50;1;161;163;162;162;162;162;163;164;164;164;
2021-11-02 15:33:50;2;108;108;108;108;108;108;108;108;108;108;
2021-11-02 15:33:50;3;37;37;37;37;37;37;37;38;37;37;
2021-11-02 15:33:50;4;118;118;118;118;118;118;118;118;118;118;
2021-11-02 15:33:50;5;110;110;110;110;110;110;110;110;110;110;
2021-11-02 15:33:50;ht;99;20.10
2021-11-02 15:33:50;v;4.15
2021-11-02 16:03:49;1;167;166;166;166;167;167;166;166;166;166;
2021-11-02 16:03:49;2;110;110;117;113;111;110;110;110;110;110;
2021-11-02 16:03:49;3;37;37;37;37;37;37;37;37;37;38;
2021-11-02 16:03:49;4;113;113;113;113;113;113;113;113;113;113;
2021-11-02 16:03:49;5;87;87;87;87;87;87;87;87;87;87;
2021-11-02 16:03:49;ht;99;20.60
2021-11-02 16:03:49;v;4.15
2021-11-02 16:33:49;1;171;170;169;167;167;166;164;164;163;163;
2021-11-02 16:33:49;2;101;101;101;101;101;101;101;101;101;101;
2021-11-02 16:33:49;3;37;37;37;37;37;37;37;37;37;37;
2021-11-02 16:33:49;4;120;120;120;120;120;120;120;120;120;120;
2021-11-02 16:33:49;5;97;97;97;97;97;97;97;97;97;97;
2021-11-02 16:33:49;ht;99;20.70
2021-11-02 16:33:49;v;4.15
2021-11-02 17:03:49;1;160;160;160;160;160;160;160;160;160;161;
2021-11-02 17:03:49;2;97;96;97;97;96;97;96;97;97;97;
2021-11-02 17:03:49;3;37;37;37;37;37;37;37;37;37;37;
2021-11-02 17:03:49;4;121;121;121;121;121;121;121;121;121;121;
2021-11-02 17:03:49;5;85;85;85;85;85;85;85;85;85;85;
2021-11-02 17:03:49;ht;99;20.40
2021-11-02 17:03:49;v;4.15
2021-11-02 17:33:49;1;162;162;162;162;162;162;162;162;162;162;
2021-11-02 17:33:49;2;112;112;112;112;112;112;112;112;112;112;
2021-11-02 17:33:49;3;36;36;36;36;36;36;36;36;36;36;
2021-11-02 17:33:49;4;122;122;122;122;122;122;122;122;122;122;
2021-11-02 17:33:49;5;92;92;92;92;92;92;92;92;92;92;
2021-11-02 17:33:49;ht;99;21.10
2021-11-02 17:33:49;v;4.15
2021-11-02 18:03:49;1;161;160;161;161;161;161;161;161;161;161;
2021-11-02 18:03:49;2;114;114;114;114;114;114;114;114;114;114;
2021-11-02 18:03:49;3;32;32;32;32;32;32;32;32;32;32;
2021-11-02 18:03:49;4;121;121;121;121;121;121;121;121;121;121;
2021-11-02 18:03:49;5;92;92;92;91;92;92;92;92;92;92;
2021-11-02 18:03:49;ht;99;20.40
2021-11-02 18:03:49;v;4.15
2021-11-02 18:33:49;1;160;160;160;160;160;162;170;176;178;174;
2021-11-02 18:33:49;2;106;106;106;106;106;106;106;106;106;106;
2021-11-02 18:33:49;3;32;32;32;32;32;32;32;32;32;32;
2021-11-02 18:33:49;4;123;123;123;123;123;123;123;123;123;123;
2021-11-02 18:33:49;5;88;88;88;88;88;88;88;88;88;88;
2021-11-02 18:33:49;ht;99;20.20
2021-11-02 18:33:49;v;4.15
2021-11-02 19:03:49;1;159;159;159;159;159;159;159;159;159;179;
2021-11-02 19:03:49;2;2;2;2;2;2;2;2;2;2;2;
2021-11-02 19:03:49;3;41;41;41;41;41;41;41;41;41;41;
2021-11-02 19:03:49;4;120;120;120;120;120;120;120;120;120;120;
2021-11-02 19:03:49;5;87;87;87;87;87;87;87;87;87;87;
2021-11-02 19:03:49;ht;99;19.70
2021-11-02 19:03:49;v;4.15
2021-11-02 19:33:48;1;158;158;158;158;167;172;173;172;169;167;
2021-11-02 19:33:48;2;123;123;123;123;123;123;123;123;123;123;
2021-11-02 19:33:48;3;40;40;40;40;40;40;40;40;40;40;
2021-11-02 19:33:48;4;119;119;119;119;119;119;119;119;119;119;
2021-11-02 19:33:48;5;86;86;86;87;86;86;86;86;86;86;
2021-11-02 19:33:48;ht;99;18.60
2021-11-02 19:33:48;v;4.15
2021-11-02 20:03:45;1;170;170;170;178;184;184;182;179;177;176;
2021-11-02 20:03:45;2;106;106;106;106;106;106;106;106;105;105;
2021-11-02 20:03:45;3;88;88;88;88;88;88;88;88;88;88;
2021-11-02 20:03:45;4;120;120;120;120;120;120;120;120;120;120;
2021-11-02 20:03:45;5;91;91;91;91;91;91;91;91;91;91;
2021-11-02 20:03:45;ht;99;17.90
2021-11-02 20:03:45;v;4.14
2021-11-02 20:33:47;1;183;185;184;185;182;186;185;179;175;172;
2021-11-02 20:33:47;2;112;112;112;112;112;112;112;112;112;112;
2021-11-02 20:33:47;3;37;37;37;37;37;37;37;37;37;37;
2021-11-02 20:33:47;4;123;123;123;123;123;123;123;123;123;123;
2021-11-02 20:33:47;5;126;126;126;126;126;126;126;126;126;126;
2021-11-02 20:33:47;ht;99;17.40
2021-11-02 20:33:47;v;4.15
2021-11-02 21:03:49;1;170;169;166;164;163;164;171;171;175;171;
2021-11-02 21:03:49;2;119;119;119;119;119;119;119;119;119;119;
2021-11-02 21:03:49;3;110;109;110;110;110;110;110;110;110;110;
2021-11-02 21:03:49;4;125;125;125;125;125;125;125;125;125;125;
2021-11-02 21:03:49;5;129;129;129;129;129;129;129;129;135;131;
2021-11-02 21:03:49;ht;99;17.00
2021-11-02 21:03:49;v;4.14
2021-11-02 21:33:45;1;174;171;169;175;176;179;177;180;179;180;
2021-11-02 21:33:45;2;124;124;124;124;124;124;124;124;124;124;
2021-11-02 21:33:45;3;28;28;28;28;28;28;28;28;28;28;
2021-11-02 21:33:45;4;125;125;125;125;125;125;125;125;125;125;
2021-11-02 21:33:45;5;106;106;106;106;106;106;107;107;107;107;
2021-11-02 21:33:45;ht;99;16.90
2021-11-02 21:33:45;v;4.14
2021-11-02 22:03:46;1;162;161;163;173;172;171;168;176;178;181;
2021-11-02 22:03:46;2;116;116;116;116;116;116;116;116;116;116;
2021-11-02 22:03:46;3;30;30;30;30;30;30;30;30;30;30;
2021-11-02 22:03:46;4;126;126;126;126;126;126;126;126;126;126;
2021-11-02 22:03:46;5;92;93;92;93;92;92;92;92;92;92;
2021-11-02 22:03:46;ht;99;16.70
2021-11-02 22:03:46;v;4.14
2021-11-02 22:33:47;1;168;169;165;163;161;160;165;172;174;170;
2021-11-02 22:33:47;2;115;115;115;115;115;115;115;115;115;115;
2021-11-02 22:33:47;3;31;31;31;31;31;31;31;31;31;31;
2021-11-02 22:33:47;4;125;125;125;125;125;125;125;125;125;125;
2021-11-02 22:33:47;5;116;117;117;117;117;117;117;124;117;117;
2021-11-02 22:33:47;ht;99;16.80
2021-11-02 22:33:47;v;4.14
2021-11-02 23:03:48;1;173;172;170;167;172;175;178;179;182;178;
2021-11-02 23:03:48;2;124;124;124;124;124;124;124;124;124;124;
2021-11-02 23:03:48;3;29;29;29;29;29;29;29;29;29;29;
2021-11-02 23:03:48;4;124;124;124;124;124;124;125;125;124;125;
2021-11-02 23:03:48;5;128;128;128;128;128;128;128;129;128;128;
2021-11-02 23:03:48;ht;99;16.40
2021-11-02 23:03:48;v;4.14
2021-11-02 23:33:44;1;174;169;173;176;175;175;174;176;179;176;
2021-11-02 23:33:44;2;125;125;125;125;125;125;125;125;125;125;
2021-11-02 23:33:44;3;88;88;88;88;88;88;88;88;88;88;
2021-11-02 23:33:44;4;125;125;125;125;125;125;125;125;125;125;
2021-11-02 23:33:44;5;88;88;89;88;88;88;88;88;88;88;
2021-11-02 23:33:44;ht;99;15.70
2021-11-02 23:33:44;v;4.14
