2021-05-19 00:04:17;4.12;147.27;99;13.20
2021-05-19 00:34:21;4.12;146.30;99;13.70
2021-05-19 01:04:20;4.12;148.23;99;13.60
2021-05-19 01:34:20;4.12;148.56;99;13.70
2021-05-19 02:04:19;4.12;147.91;99;13.50
2021-05-19 02:34:19;4.12;145.98;99;13.30
2021-05-19 03:04:18;4.12;145.98;99;12.60
2021-05-19 03:34:17;4.12;147.59;99;12.60
2021-05-19 04:04:16;4.11;147.59;99;11.60
2021-05-19 04:34:19;4.11;146.62;99;12.00
2021-05-19 05:04:17;4.11;147.59;99;12.20
2021-05-19 05:34:16;4.11;148.88;99;12.10
2021-05-19 06:04:19;4.11;146.62;99;12.00
2021-05-19 06:34:17;4.11;147.59;99;11.30
2021-05-19 07:04:20;4.11;147.59;99;12.10
2021-05-19 07:34:18;4.11;148.23;99;12.80
2021-05-19 08:04:17;4.11;146.30;99;12.50
2021-05-19 08:34:21;4.11;147.91;99;13.00
2021-05-19 09:04:20;4.11;146.94;99;13.50
2021-05-19 09:34:20;4.11;148.56;99;14.00
2021-05-19 10:04:20;4.11;145.82;99;14.90
2021-05-19 10:34:21;4.12;147.27;96;15.90
2021-05-19 11:04:23;4.12;145.49;91;17.20
2021-05-19 11:34:21;4.12;147.27;89;18.00
2021-05-19 12:04:20;4.12;146.94;99;15.60
2021-05-19 12:34:23;4.12;148.56;99;17.10
2021-05-19 13:04:21;4.12;149.20;94;18.10
2021-05-19 13:34:20;4.12;146.30;92;18.40
2021-05-19 14:04:24;4.12;146.94;88;19.60
2021-05-19 14:34:24;4.12;147.27;85;20.30
2021-05-19 15:04:25;4.12;149.20;88;19.30
2021-05-19 15:34:21;4.12;147.91;94;18.00
2021-05-19 16:04:21;4.12;149.20;96;17.50
2021-05-19 16:34:24;4.12;148.56;95;17.40
2021-05-19 17:04:22;4.12;146.94;95;17.40
2021-05-19 17:34:21;4.12;148.88;96;17.40
2021-05-19 18:04:24;4.12;146.94;98;17.20
2021-05-19 18:34:22;4.12;148.56;98;17.20
2021-05-19 19:04:20;4.12;149.20;99;16.90
2021-05-19 19:34:22;4.12;149.20;99;16.20
2021-05-19 20:04:19;4.12;148.56;99;15.50
2021-05-19 20:34:20;4.12;147.91;99;15.30
2021-05-19 21:04:21;4.12;147.91;99;14.90
2021-05-19 21:34:21;4.11;146.30;99;14.50
2021-05-19 22:04:17;4.11;146.30;99;14.20
2021-05-19 22:34:21;4.11;147.59;99;13.50
2021-05-19 23:04:16;4.11;147.59;99;13.10
2021-05-19 23:34:20;4.11;146.94;99;12.80
