2021-05-22 00:04:17;4.09;147.27;99;12.90
2021-05-22 00:34:20;4.09;148.88;99;12.50
2021-05-22 01:04:19;4.09;147.91;99;12.30
2021-05-22 01:34:17;4.09;149.52;99;12.50
2021-05-22 02:04:16;4.09;148.56;99;12.60
2021-05-22 02:34:19;4.09;147.27;99;12.30
2021-05-22 03:04:18;4.09;146.62;99;12.30
2021-05-22 03:34:17;4.09;147.27;99;12.20
2021-05-22 04:04:20;4.09;146.94;99;12.20
2021-05-22 04:34:18;4.09;147.27;99;10.90
2021-05-22 05:04:16;4.09;148.23;99;11.20
2021-05-22 05:34:18;4.09;148.88;99;10.60
2021-05-22 06:04:15;4.09;148.88;99;10.70
2021-05-22 06:34:17;4.09;150.33;99;10.40
2021-05-22 07:04:14;4.09;149.20;99;10.00
2021-05-22 07:34:16;4.09;148.88;99;9.40
2021-05-22 08:04:17;4.09;147.27;99;9.20
2021-05-22 08:34:17;4.09;148.88;99;9.70
2021-05-22 09:04:14;4.09;147.59;99;10.60
2021-05-22 09:34:17;4.09;148.23;99;11.50
2021-05-22 10:04:16;4.09;149.84;99;12.40
2021-05-22 10:34:20;4.09;148.88;99;13.20
2021-05-22 11:04:21;4.09;149.20;97;13.60
2021-05-22 11:34:21;4.10;149.20;92;13.90
2021-05-22 12:04:22;4.10;148.23;90;15.00
2021-05-22 12:34:18;4.10;148.56;89;14.80
2021-05-22 13:04:19;4.10;150.17;86;14.50
2021-05-22 13:34:20;4.10;148.88;92;12.90
2021-05-22 14:04:20;4.10;149.20;96;13.50
2021-05-22 14:34:20;4.10;150.97;99;12.70
2021-05-22 15:04:19;4.10;150.97;99;13.40
2021-05-22 15:34:19;4.10;148.56;99;13.40
2021-05-22 16:04:18;4.10;148.56;99;13.30
2021-05-22 16:34:18;4.10;148.56;97;13.70
2021-05-22 17:04:18;4.11;148.56;96;13.90
2021-05-22 17:34:18;4.10;150.17;95;13.70
2021-05-22 18:04:18;4.11;148.88;96;13.50
2021-05-22 18:34:18;4.10;149.84;97;13.20
2021-05-22 19:04:17;4.10;149.84;99;12.30
2021-05-22 19:34:20;4.10;148.88;99;12.10
2021-05-22 20:04:18;4.10;149.20;99;12.00
2021-05-22 20:34:17;4.10;149.20;99;11.90
2021-05-22 21:04:19;4.10;150.33;99;11.70
2021-05-22 21:34:17;4.10;149.20;99;11.60
2021-05-22 22:04:20;4.10;150.33;99;11.40
2021-05-22 22:34:17;4.10;150.65;99;11.50
2021-05-22 23:04:15;4.10;149.84;99;11.70
2021-05-22 23:34:18;4.10;149.20;99;11.90
