2020-11-20 0:2:40;3.89;48;21.20;11;0.152;0.013;23.51;74.3;0.013;9.2161;4.607;9.387;4.724;310;252;298
2020-11-20 0:32:40;3.89;50;20.50;11;0.149;0.013;22.81;73.0;0.013;9.0611;4.635;9.218;4.786;310;253;299
2020-11-20 1:2:48;3.89;51;19.90;11;0.148;0.013;22.41;72.3;0.013;8.9881;4.563;9.132;4.750;311;255;300
2020-11-20 1:32:39;3.89;53;19.30;11;0.149;0.013;21.91;71.5;0.012;9.0491;4.457;9.185;4.672;312;255;300
2020-11-20 2:2:37;3.88;56;18.80;11;0.150;0.013;21.31;70.3;0.012;9.1101;4.353;9.237;4.594;312;256;300
2020-11-20 2:32:40;3.88;58;18.50;11;0.149;0.013;20.91;69.6;0.012;9.0521;4.290;9.168;4.563;313;257;301
2020-11-20 3:2:37;3.88;58;18.30;11;0.146;0.013;20.51;68.9;0.012;8.9031;4.317;9.009;4.619;313;259;302
2020-11-20 3:32:39;3.88;60;17.90;11;0.146;0.013;20.11;68.2;0.012;8.8841;4.310;8.982;4.641;314;259;302
2020-11-20 4:2:36;3.87;64;17.50;11;0.145;0.013;19.71;67.5;0.012;8.8301;4.248;8.920;4.600;315;261;303
2020-11-20 4:32:37;3.87;66;17.30;11;0.146;0.013;19.31;66.8;0.012;8.8911;4.146;8.974;4.514;315;261;303
2020-11-20 5:2:38;3.87;67;17.00;11;0.142;0.013;18.91;66.1;0.012;8.6641;4.268;8.739;4.672;316;262;302
2020-11-20 5:32:38;3.87;69;16.50;11;0.145;0.012;18.81;65.8;0.011;8.8201;4.078;8.887;4.494;316;263;302
2020-11-20 6:2:39;3.86;74;15.80;11;0.144;0.013;18.21;64.8;0.011;8.8021;4.072;8.863;4.510;317;264;303
2020-11-20 6:32:34;3.86;74;15.90;11;0.145;0.012;18.01;64.5;0.011;8.8621;3.972;8.916;4.424;317;265;304
2020-11-20 7:2:38;3.86;71;16.90;11;0.143;0.012;17.91;64.1;0.011;8.7351;4.006;8.787;4.466;318;266;304
2020-11-20 7:32:38;3.87;66;18.20;11;0.145;0.012;17.91;64.1;0.011;8.8131;3.914;8.868;4.354;318;266;305
2020-11-20 8:2:35;3.87;62;19.50;11;0.137;0.013;18.01;64.5;0.012;8.4021;4.168;8.461;4.612;318;267;306
2020-11-20 8:32:37;3.88;55;22.30;11;0.144;0.012;18.41;65.1;0.011;8.8061;3.912;8.876;4.301;318;267;306
2020-11-20 9:2:41;3.89;41;28.70;11;0.145;0.012;18.91;66.1;0.011;8.8111;3.914;8.892;4.266;319;267;305
2020-11-20 9:32:44;3.90;42;28.70;11;0.141;0.012;19.51;67.1;0.011;8.6271;4.047;8.718;4.368;318;267;305
2020-11-20 10:2:46;3.91;40;29.90;11;0.141;0.012;20.11;68.2;0.011;8.6331;4.050;8.737;4.328;318;267;305
2020-11-20 10:32:49;3.91;34;33.90;11;0.144;0.012;20.91;69.6;0.011;8.7681;4.019;8.891;4.242;318;267;305
2020-11-20 11:2:50;3.92;29;36.50;11;0.125;0.011;22.81;73.0;0.011;7.7821;3.849;7.925;3.946;318;264;304
2020-11-20 11:32:53;3.96;26;37.50;11;0.126;0.011;26.91;80.5;0.011;7.8051;4.024;8.033;3.867;317;263;303
2020-11-20 12:2:54;3.97;25;34.40;11;0.129;0.010;32.11;89.7;0.012;7.9661;4.172;8.295;3.748;316;262;301
2020-11-20 12:32:56;4.00;20;35.60;11;0.130;0.010;34.91;94.9;0.012;8.0491;4.249;8.435;3.689;314;262;299
2020-11-20 13:2:54;4.02;21;33.70;11;0.126;0.011;35.31;95.6;0.012;7.8291;4.377;8.209;3.788;314;263;299
2020-11-20 13:32:58;4.05;20;36.70;11;0.131;0.010;36.51;97.7;0.012;8.0661;4.256;8.490;3.611;314;264;298
2020-11-20 14:2:58;4.08;19;39.40;11;0.133;0.010;38.71;101.6;0.012;8.1871;4.178;8.669;3.441;315;264;298
2020-11-20 14:33:0;4.10;18;41.60;11;0.129;0.010;40.11;104.2;0.012;7.9811;4.312;8.483;3.486;316;264;299
2020-11-20 15:2:59;4.13;20;39.50;11;0.129;0.010;40.11;104.2;0.012;7.9651;4.305;8.459;3.493;317;264;299
2020-11-20 15:32:58;4.15;18;39.40;11;0.126;0.010;40.11;104.2;0.012;7.8311;4.339;8.320;3.514;318;264;300
2020-11-20 16:3:1;4.16;17;40.00;11;0.126;0.010;40.61;105.1;0.012;7.8331;4.340;8.325;3.508;320;264;302
2020-11-20 16:33:0;4.13;17;39.90;11;0.126;0.010;41.11;106.0;0.012;7.8341;4.341;8.329;3.502;320;263;302
2020-11-20 17:2:59;4.13;19;37.10;11;0.123;0.010;39.61;103.3;0.012;7.6571;4.355;8.107;3.586;321;264;303
2020-11-20 17:32:56;4.12;15;40.90;11;0.123;0.010;36.91;98.5;0.012;7.6651;4.184;8.063;3.562;322;266;303
2020-11-20 18:2:54;4.11;24;31.60;11;0.118;0.010;35.31;95.6;0.012;7.4461;4.138;7.796;3.610;323;268;304
2020-11-20 18:32:53;4.10;27;29.00;11;0.121;0.010;33.11;91.6;0.011;7.5811;3.938;7.898;3.527;324;269;305
2020-11-20 19:2:49;4.09;30;27.90;11;0.122;0.010;31.71;89.1;0.011;7.6301;3.832;7.922;3.499;325;270;306
2020-11-20 19:32:48;4.08;33;26.50;11;0.118;0.010;30.41;86.8;0.011;7.4481;3.803;7.712;3.527;326;271;307
2020-11-20 20:2:46;4.08;43;25.70;11;0.258;0.024;28.01;82.5;0.025;16.0471;9.064;16.515;8.710;273;241;260
2020-11-20 20:32:46;4.08;40;24.60;11;0.240;0.023;25.91;78.6;0.023;14.7521;8.348;15.100;8.294;277;241;263
2020-11-20 21:2:42;4.08;42;24.30;11;0.229;0.023;25.11;77.3;0.023;14.0121;8.195;14.320;8.222;280;239;266
2020-11-20 21:32:45;4.08;43;23.80;11;0.226;0.023;24.71;76.4;0.023;13.8211;8.245;14.111;8.323;279;238;264
2020-11-20 22:2:44;4.08;46;23.20;11;0.227;0.022;23.91;75.1;0.022;13.8891;7.910;14.162;8.053;280;238;266
2020-11-20 22:32:42;4.08;45;23.30;11;0.223;0.022;23.71;74.7;0.021;13.6061;7.690;13.858;7.885;281;240;267
2020-11-20 23:2:44;4.07;48;22.40;11;0.219;0.021;23.31;73.9;0.021;13.3651;7.490;13.604;7.707;283;242;269
2020-11-20 23:32:41;4.07;48;21.70;11;0.211;0.022;22.81;73.0;0.021;12.7861;7.612;13.006;7.870;284;243;270
