2022-12-20 00:03:45;3.94;12.89
2022-12-20 00:18:44;3.94;12.57
2022-12-20 00:33:43;3.94;12.25
2022-12-20 00:48:41;3.94;12.89
2022-12-20 01:03:40;3.94;13.05
2022-12-20 01:18:44;3.94;12.89
2022-12-20 01:33:42;3.94;13.37
2022-12-20 01:48:40;3.94;12.89
2022-12-20 02:03:43;3.94;12.89
2022-12-20 02:18:42;3.94;13.37
2022-12-20 02:33:40;3.93;12.89
2022-12-20 02:48:43;3.93;13.37
2022-12-20 03:03:41;3.93;13.37
2022-12-20 03:18:44;3.93;13.05
2022-12-20 03:33:42;3.93;12.89
2022-12-20 03:48:40;3.93;12.89
2022-12-20 04:03:44;3.93;13.05
2022-12-20 04:18:42;3.93;13.05
2022-12-20 04:33:40;3.93;12.25
2022-12-20 04:48:43;3.93;12.89
2022-12-20 05:03:41;3.93;12.89
2022-12-20 05:18:44;3.93;11.76
2022-12-20 05:33:41;3.93;12.57
2022-12-20 05:48:39;3.93;12.25
2022-12-20 06:03:42;3.93;12.57
2022-12-20 06:18:39;3.93;12.25
2022-12-20 06:33:43;3.93;11.76
2022-12-20 06:48:42;3.93;12.25
2022-12-20 07:03:42;3.93;12.09
2022-12-20 07:18:43;3.92;12.09
2022-12-20 07:33:44;3.92;12.09
2022-12-20 07:48:46;3.92;12.09
2022-12-20 08:03:43;3.92;11.60
2022-12-20 08:18:46;3.93;12.09
2022-12-20 08:33:44;3.94;11.60
2022-12-20 08:48:47;3.95;11.76
2022-12-20 09:03:46;3.95;11.60
2022-12-20 09:18:46;3.95;12.09
2022-12-20 09:33:45;3.95;11.60
2022-12-20 09:48:51;3.95;12.09
2022-12-20 10:03:45;3.95;11.28
2022-12-20 10:18:46;3.95;12.09
2022-12-20 10:33:46;4.08;11.60
2022-12-20 10:48:47;4.08;11.76
2022-12-20 11:03:47;4.08;12.25
2022-12-20 11:18:48;4.08;12.25
2022-12-20 11:33:49;4.08;11.60
2022-12-20 11:48:50;4.08;12.57
2022-12-20 12:03:45;4.08;12.57
2022-12-20 12:18:46;3.94;12.25
2022-12-20 12:33:48;4.12;12.89
2022-12-20 12:48:49;4.08;12.57
2022-12-20 13:03:50;4.08;12.25
2022-12-20 13:18:47;4.08;12.25
2022-12-20 13:33:48;4.08;12.25
2022-12-20 13:48:50;4.08;12.57
2022-12-20 14:03:47;4.07;12.89
2022-12-20 14:18:49;4.08;12.89
2022-12-20 14:33:51;4.06;13.05
2022-12-20 14:48:46;3.95;13.37
2022-12-20 15:03:48;3.95;13.05
2022-12-20 15:18:49;3.95;12.89
2022-12-20 15:33:46;3.95;13.05
2022-12-20 15:48:47;3.95;13.05
2022-12-20 16:03:49;3.95;13.37
2022-12-20 16:18:51;3.95;13.86
2022-12-20 16:33:47;3.95;13.86
2022-12-20 16:48:48;3.95;13.86
2022-12-20 17:03:49;3.95;13.37
2022-12-20 17:18:50;3.95;14.18
2022-12-20 17:33:45;3.95;13.37
2022-12-20 17:48:51;3.95;13.86
2022-12-20 18:03:46;3.95;13.86
2022-12-20 18:18:46;3.95;13.37
2022-12-20 18:33:46;3.95;13.37
2022-12-20 18:48:46;3.95;13.86
2022-12-20 19:03:46;3.95;13.86
2022-12-20 19:18:45;3.95;13.37
2022-12-20 19:33:50;3.95;13.37
2022-12-20 19:48:43;3.95;13.05
2022-12-20 20:03:46;3.95;13.05
2022-12-20 20:18:43;3.95;13.70
2022-12-20 20:33:45;3.95;13.70
2022-12-20 20:48:46;3.95;13.05
2022-12-20 21:03:42;3.95;13.05
2022-12-20 21:18:43;3.95;13.37
2022-12-20 21:33:44;3.95;13.37
2022-12-20 21:48:44;3.95;13.05
2022-12-20 22:03:44;3.94;13.05
2022-12-20 22:18:45;3.94;12.25
2022-12-20 22:33:45;3.94;13.05
2022-12-20 22:48:45;3.94;12.25
2022-12-20 23:03:45;3.94;12.89
2022-12-20 23:18:44;3.94;12.89
2022-12-20 23:33:44;3.94;12.25
2022-12-20 23:48:43;3.94;12.09
