2022-11-03 00:02:06;3.94;30.61
2022-11-03 00:17:07;3.94;30.29
2022-11-03 00:32:08;3.94;30.78
2022-11-03 00:47:09;3.94;30.78
2022-11-03 01:02:09;3.94;30.78
2022-11-03 01:17:09;3.94;30.29
2022-11-03 01:32:05;3.94;30.29
2022-11-03 01:47:10;3.94;30.78
2022-11-03 02:02:05;3.94;30.78
2022-11-03 02:17:06;3.94;30.78
2022-11-03 02:32:06;3.94;30.61
2022-11-03 02:47:06;3.94;30.29
2022-11-03 03:02:05;3.94;30.78
2022-11-03 03:17:09;3.93;30.78
2022-11-03 03:32:04;3.93;30.29
2022-11-03 03:47:09;3.93;30.29
2022-11-03 04:02:08;3.93;30.78
2022-11-03 04:17:07;3.93;30.78
2022-11-03 04:32:06;3.93;30.78
2022-11-03 04:47:05;3.93;30.78
2022-11-03 05:02:08;3.93;30.29
2022-11-03 05:17:07;3.93;30.78
2022-11-03 05:32:06;3.93;30.78
2022-11-03 05:47:05;3.93;30.78
2022-11-03 06:02:08;3.93;30.29
2022-11-03 06:17:07;3.93;30.78
2022-11-03 06:32:06;3.93;29.97
2022-11-03 06:47:06;3.93;30.61
2022-11-03 07:02:07;3.93;29.97
2022-11-03 07:17:09;3.93;30.61
2022-11-03 07:32:12;3.93;30.61
2022-11-03 07:47:11;3.94;30.61
2022-11-03 08:02:11;3.94;29.97
2022-11-03 08:17:12;3.95;30.61
2022-11-03 08:32:13;3.97;29.97
2022-11-03 08:47:11;3.96;30.61
2022-11-03 09:02:13;4.21;29.97
2022-11-03 09:17:16;4.21;30.61
2022-11-03 09:32:15;4.20;29.97
2022-11-03 09:47:14;4.21;30.61
2022-11-03 10:02:13;4.21;29.97
2022-11-03 10:17:17;4.13;30.61
2022-11-03 10:32:16;4.28;30.29
2022-11-03 10:47:16;4.17;30.29
2022-11-03 11:02:15;4.11;30.61
2022-11-03 11:17:14;4.24;30.78
2022-11-03 11:32:14;4.21;30.29
2022-11-03 11:47:13;4.09;29.97
2022-11-03 12:02:17;4.26;30.78
2022-11-03 12:17:12;4.10;30.29
2022-11-03 12:32:17;4.20;30.78
2022-11-03 12:47:17;4.21;30.78
2022-11-03 13:02:16;4.21;30.61
2022-11-03 13:17:16;4.21;30.78
2022-11-03 13:32:16;4.21;30.78
2022-11-03 13:47:16;4.21;31.10
2022-11-03 14:02:16;4.20;30.78
2022-11-03 14:17:16;3.96;30.61
2022-11-03 14:32:15;4.21;31.10
2022-11-03 14:47:15;4.20;30.61
2022-11-03 15:02:15;4.20;30.78
2022-11-03 15:17:16;4.21;31.42
2022-11-03 15:32:16;4.20;30.78
2022-11-03 15:47:16;4.20;30.78
2022-11-03 16:02:16;3.97;31.42
2022-11-03 16:17:15;3.97;31.42
2022-11-03 16:32:15;3.97;31.42
2022-11-03 16:47:14;3.97;31.42
2022-11-03 17:02:13;3.97;31.10
2022-11-03 17:17:17;3.97;31.42
2022-11-03 17:32:16;3.97;31.58
2022-11-03 17:47:14;3.97;30.78
2022-11-03 18:02:12;3.97;31.42
2022-11-03 18:17:15;3.97;31.58
2022-11-03 18:32:12;3.97;31.42
2022-11-03 18:47:14;3.97;31.42
2022-11-03 19:02:11;3.97;30.78
2022-11-03 19:17:11;3.97;31.42
2022-11-03 19:32:12;3.97;31.42
2022-11-03 19:47:11;3.97;31.42
2022-11-03 20:02:10;3.97;31.42
2022-11-03 20:17:09;3.97;30.78
2022-11-03 20:32:08;3.97;30.78
2022-11-03 20:47:11;3.97;30.78
2022-11-03 21:02:10;3.97;31.10
2022-11-03 21:17:08;3.97;30.61
2022-11-03 21:32:11;3.97;31.10
2022-11-03 21:47:09;3.97;30.61
2022-11-03 22:02:12;3.96;30.61
2022-11-03 22:17:10;3.96;30.29
2022-11-03 22:32:07;3.96;30.29
2022-11-03 22:47:09;3.96;30.61
2022-11-03 23:02:07;3.96;30.78
2022-11-03 23:17:09;3.96;30.78
2022-11-03 23:32:10;3.96;30.29
2022-11-03 23:47:07;3.96;30.78
