2022-11-08 00:02:09;3.96;29.00
2022-11-08 00:17:12;3.96;29.49
2022-11-08 00:32:10;3.96;29.00
2022-11-08 00:47:09;3.96;29.00
2022-11-08 01:02:12;3.96;29.49
2022-11-08 01:17:10;3.96;29.49
2022-11-08 01:32:07;3.96;29.00
2022-11-08 01:47:09;3.96;29.49
2022-11-08 02:02:07;3.96;29.49
2022-11-08 02:17:09;3.96;29.49
2022-11-08 02:32:11;3.96;29.00
2022-11-08 02:47:08;3.96;29.00
2022-11-08 03:02:09;3.96;29.49
2022-11-08 03:17:06;3.96;29.81
2022-11-08 03:32:08;3.96;29.81
2022-11-08 03:47:10;3.96;29.16
2022-11-08 04:02:06;3.96;29.16
2022-11-08 04:17:08;3.95;29.81
2022-11-08 04:32:09;3.95;29.81
2022-11-08 04:47:10;3.95;29.81
2022-11-08 05:02:06;3.95;29.81
2022-11-08 05:17:07;3.95;29.16
2022-11-08 05:32:08;3.95;29.16
2022-11-08 05:47:09;3.95;29.49
2022-11-08 06:02:10;3.95;29.00
2022-11-08 06:17:06;3.95;29.49
2022-11-08 06:32:07;3.95;29.00
2022-11-08 06:47:09;3.95;29.49
2022-11-08 07:02:07;3.95;29.00
2022-11-08 07:17:11;3.95;29.00
2022-11-08 07:32:10;3.95;29.49
2022-11-08 07:47:09;3.95;28.68
2022-11-08 08:02:14;3.96;29.00
2022-11-08 08:17:09;3.97;29.49
2022-11-08 08:32:10;3.97;29.00
2022-11-08 08:47:12;3.97;29.00
2022-11-08 09:02:14;3.97;29.49
2022-11-08 09:17:11;4.21;29.00
2022-11-08 09:32:14;4.21;29.16
2022-11-08 09:47:12;4.21;29.00
2022-11-08 10:02:16;4.12;28.68
2022-11-08 10:17:15;4.22;29.00
2022-11-08 10:32:14;4.10;28.68
2022-11-08 10:47:13;4.21;29.16
2022-11-08 11:02:17;4.21;29.49
2022-11-08 11:17:12;4.21;29.00
2022-11-08 11:32:17;4.21;29.81
2022-11-08 11:47:17;4.22;29.00
2022-11-08 12:02:17;4.21;29.81
2022-11-08 12:17:17;4.20;29.81
2022-11-08 12:32:17;4.22;29.81
2022-11-08 12:47:17;4.21;29.81
2022-11-08 13:02:17;4.21;29.16
2022-11-08 13:17:13;4.20;29.97
2022-11-08 13:32:18;4.21;29.97
2022-11-08 13:47:14;4.21;30.29
2022-11-08 14:02:14;4.20;29.97
2022-11-08 14:17:15;4.21;29.97
2022-11-08 14:32:15;4.21;30.29
2022-11-08 14:47:16;4.20;29.81
2022-11-08 15:02:16;4.21;29.81
2022-11-08 15:17:17;4.20;30.29
2022-11-08 15:32:17;3.97;30.29
2022-11-08 15:47:13;4.21;30.29
2022-11-08 16:02:18;3.97;30.29
2022-11-08 16:17:13;3.97;29.81
2022-11-08 16:32:18;3.97;30.61
2022-11-08 16:47:13;3.97;29.97
2022-11-08 17:02:17;3.97;30.61
2022-11-08 17:17:16;3.98;30.61
2022-11-08 17:32:15;3.98;30.61
2022-11-08 17:47:14;3.98;29.97
2022-11-08 18:02:12;3.98;30.29
2022-11-08 18:17:15;3.98;29.97
2022-11-08 18:32:13;3.98;30.61
2022-11-08 18:47:11;3.98;30.61
2022-11-08 19:02:13;3.97;29.97
2022-11-08 19:17:14;3.97;30.61
2022-11-08 19:32:11;3.97;29.97
2022-11-08 19:47:11;3.97;30.29
2022-11-08 20:02:11;3.97;29.81
2022-11-08 20:17:10;3.97;29.81
2022-11-08 20:32:09;3.97;30.29
2022-11-08 20:47:13;3.97;29.49
2022-11-08 21:02:11;3.97;29.97
2022-11-08 21:17:09;3.97;29.49
2022-11-08 21:32:07;3.97;29.97
2022-11-08 21:47:10;3.97;29.81
2022-11-08 22:02:08;3.97;29.81
2022-11-08 22:17:10;3.97;29.16
2022-11-08 22:32:08;3.97;29.16
2022-11-08 22:47:10;3.97;29.81
2022-11-08 23:02:07;3.97;29.81
2022-11-08 23:17:09;3.97;29.00
2022-11-08 23:32:11;3.97;29.49
2022-11-08 23:47:08;3.97;29.81
