2022-11-19 00:02:13;3.96;26.75
2022-11-19 00:17:13;3.96;26.59
2022-11-19 00:32:09;3.96;26.75
2022-11-19 00:47:10;3.96;26.59
2022-11-19 01:02:11;3.96;26.26
2022-11-19 01:17:12;3.96;25.94
2022-11-19 01:32:13;3.96;26.75
2022-11-19 01:47:14;3.96;26.59
2022-11-19 02:02:10;3.96;24.98
2022-11-19 02:17:11;3.96;26.75
2022-11-19 02:32:12;3.96;26.59
2022-11-19 02:47:13;3.96;26.75
2022-11-19 03:02:09;3.96;27.07
2022-11-19 03:17:10;3.96;27.07
2022-11-19 03:32:11;3.96;26.26
2022-11-19 03:47:11;3.96;26.59
2022-11-19 04:02:11;3.96;26.75
2022-11-19 04:17:12;3.96;26.26
2022-11-19 04:32:12;3.96;25.94
2022-11-19 04:47:12;3.96;25.78
2022-11-19 05:02:11;3.96;26.26
2022-11-19 05:17:11;3.96;25.94
2022-11-19 05:32:10;3.96;25.94
2022-11-19 05:47:09;3.96;25.94
2022-11-19 06:02:12;3.96;25.46
2022-11-19 06:17:11;3.96;26.59
2022-11-19 06:32:10;3.95;25.78
2022-11-19 06:47:10;3.95;26.26
2022-11-19 07:02:09;3.95;25.46
2022-11-19 07:17:14;3.95;25.94
2022-11-19 07:32:10;3.95;25.46
2022-11-19 07:47:13;3.96;25.78
2022-11-19 08:02:17;3.97;25.14
2022-11-19 08:17:17;3.97;25.14
2022-11-19 08:32:17;3.97;25.14
2022-11-19 08:47:18;3.97;25.78
2022-11-19 09:02:15;3.97;25.78
2022-11-19 09:17:18;4.20;25.14
2022-11-19 09:32:16;4.20;25.78
2022-11-19 09:47:19;4.20;25.14
2022-11-19 10:02:18;4.20;25.78
2022-11-19 10:17:17;4.21;25.78
2022-11-19 10:32:21;4.20;25.14
2022-11-19 10:47:20;4.20;25.78
2022-11-19 11:02:20;4.20;25.46
2022-11-19 11:17:19;4.20;25.94
2022-11-19 11:32:18;4.20;25.78
2022-11-19 11:47:17;4.20;25.94
2022-11-19 12:02:20;4.20;25.78
2022-11-19 12:17:19;4.20;26.26
2022-11-19 12:32:19;4.20;25.94
2022-11-19 12:47:18;4.20;25.94
2022-11-19 13:02:17;4.20;26.59
2022-11-19 13:17:21;4.20;26.59
2022-11-19 13:32:21;4.20;26.26
2022-11-19 13:47:20;4.20;26.26
2022-11-19 14:02:20;4.20;26.75
2022-11-19 14:17:20;4.20;26.26
2022-11-19 14:32:19;4.20;26.75
2022-11-19 14:47:19;4.20;27.39
2022-11-19 15:02:19;4.20;26.75
2022-11-19 15:17:19;4.20;27.07
2022-11-19 15:32:19;4.20;26.75
2022-11-19 15:47:19;4.20;27.07
2022-11-19 16:02:19;4.20;27.39
2022-11-19 16:17:18;3.97;26.75
2022-11-19 16:32:18;3.97;27.07
2022-11-19 16:47:17;3.97;27.07
2022-11-19 17:02:17;3.97;27.55
2022-11-19 17:17:20;3.98;27.07
2022-11-19 17:32:19;3.98;27.07
2022-11-19 17:47:17;3.98;27.55
2022-11-19 18:02:19;3.98;27.07
2022-11-19 18:17:16;3.98;27.07
2022-11-19 18:32:17;3.98;27.55
2022-11-19 18:47:18;3.98;27.07
2022-11-19 19:02:13;3.98;27.55
2022-11-19 19:17:18;3.97;26.59
2022-11-19 19:32:13;3.97;27.39
2022-11-19 19:47:17;3.97;27.07
2022-11-19 20:02:16;3.97;26.59
2022-11-19 20:17:15;3.97;26.59
2022-11-19 20:32:13;3.97;26.59
2022-11-19 20:47:16;3.97;26.59
2022-11-19 21:02:14;3.97;27.07
2022-11-19 21:17:12;3.97;26.59
2022-11-19 21:32:14;3.97;26.75
2022-11-19 21:47:12;3.97;26.26
2022-11-19 22:02:14;3.97;26.26
2022-11-19 22:17:12;3.97;26.26
2022-11-19 22:32:14;3.97;26.26
2022-11-19 22:47:12;3.97;26.75
2022-11-19 23:02:13;3.97;26.26
2022-11-19 23:17:10;3.97;25.94
2022-11-19 23:32:12;3.97;26.26
2022-11-19 23:47:13;3.97;26.75
