#EQ7-NFv2;2022-11-02 09:21:51;3.87;0.00
2022-11-02 09:33:13;3.89;0.00
2022-11-02 09:47:42;3.91;29.97
#EQ7-NFv2;2022-11-02 09:55:46;3.91;30.61
2022-11-02 10:00:41;3.92;30.29
2022-11-02 10:17:29;3.94;30.61
2022-11-02 10:32:10;4.24;29.97
2022-11-02 10:47:14;4.24;29.97
2022-11-02 11:02:14;4.20;30.29
2022-11-02 11:17:14;4.25;30.29
2022-11-02 11:32:15;4.20;29.97
2022-11-02 11:47:15;4.10;30.61
2022-11-02 12:02:15;4.23;30.61
2022-11-02 12:17:15;4.23;30.61
2022-11-02 12:32:15;4.21;30.61
2022-11-02 12:47:15;4.20;29.97
2022-11-02 13:02:15;4.23;30.29
2022-11-02 13:17:15;4.20;30.29
2022-11-02 13:32:14;4.20;30.78
2022-11-02 13:47:14;4.21;30.78
2022-11-02 14:02:14;4.20;30.29
2022-11-02 14:17:13;4.21;30.29
2022-11-02 14:32:18;4.20;30.61
2022-11-02 14:47:13;4.20;30.61
2022-11-02 15:02:18;4.25;31.10
2022-11-02 15:17:13;4.20;31.10
2022-11-02 15:32:18;4.20;31.10
2022-11-02 15:47:13;4.20;31.10
2022-11-02 16:02:17;3.93;30.61
2022-11-02 16:17:12;3.94;31.42
2022-11-02 16:32:16;3.94;31.42
2022-11-02 16:47:15;3.94;31.42
2022-11-02 17:02:14;3.94;31.42
2022-11-02 17:17:12;3.94;31.42
2022-11-02 17:32:15;3.94;30.78
2022-11-02 17:47:14;3.94;30.78
2022-11-02 18:02:11;3.94;30.78
2022-11-02 18:17:14;3.94;31.10
2022-11-02 18:32:11;3.94;31.10
2022-11-02 18:47:12;3.94;31.10
2022-11-02 19:02:13;3.94;30.78
2022-11-02 19:17:14;3.94;31.42
2022-11-02 19:32:09;3.94;30.78
2022-11-02 19:47:14;3.94;30.78
2022-11-02 20:02:08;3.94;31.42
2022-11-02 20:17:12;3.94;31.10
2022-11-02 20:32:10;3.94;30.78
2022-11-02 20:47:08;3.94;30.78
2022-11-02 21:02:10;3.94;30.61
2022-11-02 21:17:08;3.94;31.10
2022-11-02 21:32:09;3.94;31.10
2022-11-02 21:47:06;3.94;30.61
2022-11-02 22:02:07;3.94;30.29
2022-11-02 22:17:09;3.94;30.29
2022-11-02 22:32:10;3.94;30.78
2022-11-02 22:47:06;3.94;31.10
2022-11-02 23:02:07;3.94;30.29
2022-11-02 23:17:08;3.94;30.29
2022-11-02 23:32:09;3.94;30.78
2022-11-02 23:47:10;3.94;30.78
