2023-09-20 00:02:58;85;799;1
2023-09-20 00:32:57;85;799;1
2023-09-20 01:03:01;85;798;2
2023-09-20 01:33:00;84;799;1
2023-09-20 02:03:00;84;798;2
2023-09-20 02:32:59;84;799;1
2023-09-20 03:02:58;84;798;2
2023-09-20 03:32:56;84;798;2
2023-09-20 04:02:59;84;798;2
2023-09-20 04:32:57;84;799;1
2023-09-20 05:03:00;84;799;1
2023-09-20 05:32:59;84;799;1
2023-09-20 06:02:58;84;798;2
2023-09-20 06:32:57;84;799;1
2023-09-20 07:03:00;84;799;1
2023-09-20 07:32:59;84;799;1
2023-09-20 08:02:57;84;798;2
2023-09-20 08:33:00;84;799;1
2023-09-20 09:03:00;84;798;2
2023-09-20 09:32:59;85;798;2
2023-09-20 10:03:00;86;798;2
2023-09-20 10:33:01;86;798;2
2023-09-20 11:03:03;86;798;2
2023-09-20 11:33:00;86;798;2
2023-09-20 12:03:02;86;798;2
2023-09-20 12:33:00;86;798;2
2023-09-20 13:03:03;86;798;2
2023-09-20 13:33:02;86;798;2
2023-09-20 14:03:01;86;798;2
2023-09-20 14:33:04;86;799;1
2023-09-20 15:03:02;86;798;2
2023-09-20 15:33:00;86;798;2
2023-09-20 16:03:02;86;798;2
2023-09-20 16:33:00;86;798;2
2023-09-20 17:03:03;86;799;1
2023-09-20 17:33:02;86;798;2
2023-09-20 18:03:00;86;798;2
2023-09-20 18:33:02;86;798;2
2023-09-20 19:02:59;86;799;1
2023-09-20 19:33:01;86;799;1
2023-09-20 20:03:02;86;799;1
2023-09-20 20:32:59;86;798;2
2023-09-20 21:03:00;86;798;2
2023-09-20 21:33:00;85;798;2
2023-09-20 22:03:01;85;798;2
2023-09-20 22:33:01;85;799;1
2023-09-20 23:03:02;85;799;1
2023-09-20 23:32:58;85;798;2
