2023-01-06 00:03:44;3.95;6.77
2023-01-06 00:18:43;3.94;7.25
2023-01-06 00:33:42;3.94;7.25
2023-01-06 00:48:40;3.94;6.77
2023-01-06 01:03:44;3.94;7.25
2023-01-06 01:18:42;3.94;7.25
2023-01-06 01:33:40;3.94;6.77
2023-01-06 01:48:43;3.94;6.93
2023-01-06 02:03:41;3.94;7.25
2023-01-06 02:18:45;3.94;7.57
2023-01-06 02:33:42;3.94;7.25
2023-01-06 02:48:40;3.94;6.77
2023-01-06 03:03:43;3.94;7.25
2023-01-06 03:18:41;3.94;7.25
2023-01-06 03:33:43;3.94;7.25
2023-01-06 03:48:40;3.94;7.25
2023-01-06 04:03:42;3.94;7.57
2023-01-06 04:18:39;3.94;6.77
2023-01-06 04:33:41;3.94;7.25
2023-01-06 04:48:43;3.94;7.25
2023-01-06 05:03:40;3.94;6.77
2023-01-06 05:18:42;3.94;6.77
2023-01-06 05:33:39;3.94;6.93
2023-01-06 05:48:40;3.94;6.77
2023-01-06 06:03:42;3.94;6.93
2023-01-06 06:18:39;3.94;6.45
2023-01-06 06:33:41;3.93;6.93
2023-01-06 06:48:44;3.93;6.93
2023-01-06 07:03:43;3.93;6.12
2023-01-06 07:18:43;3.93;6.93
2023-01-06 07:33:44;3.93;6.12
2023-01-06 07:48:45;3.93;6.45
2023-01-06 08:03:47;3.93;6.77
2023-01-06 08:18:44;3.94;6.77
2023-01-06 08:33:46;3.95;5.64
2023-01-06 08:48:44;3.95;6.77
2023-01-06 09:03:48;3.95;5.96
2023-01-06 09:18:47;3.95;6.12
2023-01-06 09:33:46;3.95;6.45
2023-01-06 09:48:46;3.95;5.96
2023-01-06 10:03:46;3.96;6.45
2023-01-06 10:18:47;3.96;5.96
2023-01-06 10:33:47;4.07;6.77
2023-01-06 10:48:48;4.08;6.45
2023-01-06 11:03:50;4.08;6.77
2023-01-06 11:18:46;4.08;6.93
2023-01-06 11:33:48;4.08;6.12
2023-01-06 11:48:50;4.08;6.93
2023-01-06 12:03:46;4.07;6.93
2023-01-06 12:18:49;4.07;6.45
2023-01-06 12:33:51;4.08;6.77
2023-01-06 12:48:48;4.07;6.45
2023-01-06 13:03:50;4.08;6.45
2023-01-06 13:18:47;4.08;7.25
2023-01-06 13:33:50;4.08;7.25
2023-01-06 13:48:47;4.08;7.25
2023-01-06 14:03:50;4.08;6.77
2023-01-06 14:18:47;4.08;7.25
2023-01-06 14:33:50;4.08;7.25
2023-01-06 14:48:48;4.08;7.57
2023-01-06 15:03:51;4.08;6.77
2023-01-06 15:18:49;3.95;7.57
2023-01-06 15:33:52;3.95;6.93
2023-01-06 15:48:50;3.95;6.93
2023-01-06 16:03:47;3.95;6.77
2023-01-06 16:18:51;3.95;6.93
2023-01-06 16:33:48;3.95;7.57
2023-01-06 16:48:51;3.95;6.77
2023-01-06 17:03:48;3.95;7.57
2023-01-06 17:18:51;3.95;7.25
2023-01-06 17:33:47;3.95;7.57
2023-01-06 17:48:49;3.95;6.93
2023-01-06 18:03:51;3.95;7.25
2023-01-06 18:18:47;3.95;6.77
2023-01-06 18:33:48;3.95;6.77
2023-01-06 18:48:49;3.95;7.25
2023-01-06 19:03:50;3.95;6.45
2023-01-06 19:18:45;3.95;6.77
2023-01-06 19:33:50;3.95;6.45
2023-01-06 19:48:44;3.95;6.93
2023-01-06 20:03:49;3.95;6.45
2023-01-06 20:18:47;3.95;6.12
2023-01-06 20:33:46;3.95;6.77
2023-01-06 20:48:43;3.95;6.45
2023-01-06 21:03:46;3.95;6.77
2023-01-06 21:18:42;3.95;5.96
2023-01-06 21:33:44;3.95;6.12
2023-01-06 21:48:46;3.95;6.77
2023-01-06 22:03:42;3.95;6.45
2023-01-06 22:18:43;3.95;5.96
2023-01-06 22:33:44;3.95;5.96
2023-01-06 22:48:45;3.95;5.64
2023-01-06 23:03:45;3.95;6.45
2023-01-06 23:18:41;3.95;6.12
2023-01-06 23:33:47;3.95;6.12
2023-01-06 23:48:42;3.95;5.64
