2023-10-21 00:03:06;86;798;2
2023-10-21 00:33:03;85;799;1
2023-10-21 01:03:04;85;799;1
2023-10-21 01:33:05;85;799;1
2023-10-21 02:03:06;85;798;2
2023-10-21 02:33:02;85;798;2
2023-10-21 03:03:03;85;798;2
2023-10-21 03:33:03;85;798;2
2023-10-21 04:03:04;85;799;1
2023-10-21 04:33:04;85;798;2
2023-10-21 05:03:05;85;799;1
2023-10-21 05:33:05;85;799;1
2023-10-21 06:03:05;85;799;1
2023-10-21 06:33:05;85;798;2
2023-10-21 07:03:01;84;799;1
2023-10-21 07:33:02;85;799;1
2023-10-21 08:03:05;86;799;1
2023-10-21 08:33:08;86;799;1
2023-10-21 09:03:07;86;799;1
2023-10-21 09:33:07;86;798;2
2023-10-21 10:03:07;86;799;1
2023-10-21 10:33:07;86;799;1
2023-10-21 11:03:10;86;799;1
2023-10-21 11:33:12;86;798;2
2023-10-21 12:03:14;86;799;1
2023-10-21 12:33:10;86;799;1
2023-10-21 13:03:12;85;798;2
2023-10-21 13:33:14;86;799;1
2023-10-21 14:03:10;86;798;2
2023-10-21 14:33:12;94;799;1
2023-10-21 15:03:19;87;798;2
2023-10-21 15:33:16;86;798;2
2023-10-21 16:03:15;86;798;2
2023-10-21 16:33:15;86;799;1
2023-10-21 17:03:14;86;799;1
2023-10-21 17:33:14;86;798;2
2023-10-21 18:03:12;86;799;1
2023-10-21 18:33:15;86;798;2
2023-10-21 19:03:11;86;799;1
2023-10-21 19:33:10;86;798;2
2023-10-21 20:03:09;86;799;1
2023-10-21 20:33:11;86;799;1
2023-10-21 21:03:07;86;798;2
2023-10-21 21:33:08;86;798;2
2023-10-21 22:03:08;86;798;2
2023-10-21 22:33:07;86;798;2
2023-10-21 23:03:07;86;798;2
2023-10-21 23:33:07;86;798;2
