2023-04-19 00:03:39;3.94;0.00
2023-04-19 00:18:37;3.94;0.00
2023-04-19 00:33:40;3.94;0.00
2023-04-19 00:48:38;3.95;0.00
2023-04-19 01:03:36;3.94;0.00
2023-04-19 01:18:39;3.94;0.00
2023-04-19 01:33:37;3.94;0.00
2023-04-19 01:48:41;3.94;0.00
2023-04-19 02:03:40;3.94;0.00
2023-04-19 02:18:39;3.94;0.00
2023-04-19 02:33:37;3.94;0.00
2023-04-19 02:48:36;3.94;0.00
2023-04-19 03:03:41;3.94;0.00
2023-04-19 03:18:40;3.94;0.00
2023-04-19 03:33:39;3.94;0.00
2023-04-19 03:48:38;3.94;0.00
2023-04-19 04:03:38;3.94;0.00
2023-04-19 04:18:37;3.94;0.00
2023-04-19 04:33:37;3.94;0.00
2023-04-19 04:48:41;3.94;0.00
2023-04-19 05:03:35;3.94;0.00
2023-04-19 05:18:40;3.94;0.00
2023-04-19 05:33:38;3.94;0.00
2023-04-19 05:48:37;3.94;0.00
2023-04-19 06:03:40;3.94;0.00
2023-04-19 06:18:39;3.94;0.00
2023-04-19 06:33:37;3.94;0.00
2023-04-19 06:48:40;3.94;0.00
2023-04-19 07:03:38;3.94;0.00
2023-04-19 07:18:36;3.93;0.00
2023-04-19 07:33:39;3.93;0.00
2023-04-19 07:48:37;3.93;0.00
2023-04-19 08:03:36;3.93;0.00
2023-04-19 08:18:41;3.95;0.00
2023-04-19 08:33:42;3.96;0.00
2023-04-19 08:48:38;3.96;0.00
2023-04-19 09:03:41;3.96;0.00
2023-04-19 09:18:44;3.96;0.00
2023-04-19 09:33:43;3.96;0.00
2023-04-19 09:48:42;3.96;0.00
2023-04-19 10:03:41;3.96;0.00
2023-04-19 10:18:41;4.02;0.00
2023-04-19 10:33:47;4.03;0.00
2023-04-19 10:48:42;4.11;0.00
2023-04-19 11:03:42;4.12;0.00
2023-04-19 11:18:43;4.05;0.00
2023-04-19 11:33:44;4.13;0.00
2023-04-19 11:48:45;4.09;0.00
2023-04-19 12:03:46;4.02;0.00
2023-04-19 12:18:43;4.10;0.00
2023-04-19 12:33:44;4.12;0.00
2023-04-19 12:48:46;4.03;0.00
2023-04-19 13:03:43;4.10;0.00
2023-04-19 13:18:44;3.99;0.00
2023-04-19 13:33:47;4.06;0.00
2023-04-19 13:48:44;4.13;0.00
2023-04-19 14:03:46;4.05;0.00
2023-04-19 14:18:43;4.00;0.00
2023-04-19 14:33:45;4.13;0.00
2023-04-19 14:48:47;4.13;0.00
2023-04-19 15:03:44;4.01;0.00
2023-04-19 15:18:46;3.92;0.00
2023-04-19 15:33:43;3.96;0.00
2023-04-19 15:48:45;3.96;0.00
2023-04-19 16:03:47;3.96;0.00
2023-04-19 16:18:43;3.96;0.00
2023-04-19 16:33:45;3.96;0.00
2023-04-19 16:48:46;3.96;0.00
2023-04-19 17:03:42;3.96;0.00
2023-04-19 17:18:43;3.96;0.00
2023-04-19 17:33:44;3.96;0.00
2023-04-19 17:48:44;3.96;0.00
2023-04-19 18:03:44;3.96;0.00
2023-04-19 18:18:43;3.96;0.00
2023-04-19 18:33:41;3.96;0.00
2023-04-19 18:48:39;3.96;0.00
2023-04-19 19:03:42;3.96;0.00
2023-04-19 19:18:39;3.95;0.00
2023-04-19 19:33:42;3.96;0.00
2023-04-19 19:48:38;3.96;0.00
2023-04-19 20:03:39;3.96;0.00
2023-04-19 20:18:39;3.95;0.00
2023-04-19 20:33:40;3.95;0.00
2023-04-19 20:48:40;3.95;0.00
2023-04-19 21:03:40;3.95;0.00
2023-04-19 21:18:40;3.95;0.00
2023-04-19 21:33:39;3.95;0.00
2023-04-19 21:48:38;3.95;0.00
2023-04-19 22:03:37;3.95;0.00
2023-04-19 22:18:41;3.95;0.00
2023-04-19 22:33:39;3.95;0.00
2023-04-19 22:48:38;3.95;0.00
2023-04-19 23:03:36;3.95;0.00
2023-04-19 23:18:39;3.95;0.00
2023-04-19 23:33:37;3.95;0.00
2023-04-19 23:48:39;3.95;0.00
