2023-04-30 00:03:42;3.95;0.00
2023-04-30 00:18:42;3.95;0.00
2023-04-30 00:33:42;3.95;0.00
2023-04-30 00:48:42;3.95;0.00
2023-04-30 01:03:42;3.95;0.00
2023-04-30 01:18:42;3.95;0.00
2023-04-30 01:33:42;3.95;0.00
2023-04-30 01:48:41;3.95;0.00
2023-04-30 02:03:47;3.95;0.00
2023-04-30 02:18:41;3.95;0.00
2023-04-30 02:33:47;3.95;0.00
2023-04-30 02:48:41;3.95;0.00
2023-04-30 03:03:47;3.95;0.00
2023-04-30 03:18:42;3.95;0.00
2023-04-30 03:33:42;3.95;0.00
2023-04-30 03:48:42;3.95;0.00
2023-04-30 04:03:42;3.95;0.00
2023-04-30 04:18:42;3.95;0.00
2023-04-30 04:33:41;3.95;0.00
2023-04-30 04:48:41;3.94;0.00
2023-04-30 05:03:41;3.94;0.00
2023-04-30 05:18:47;3.94;0.00
2023-04-30 05:33:41;3.94;0.00
2023-04-30 05:48:46;3.94;0.00
2023-04-30 06:03:41;3.94;0.00
2023-04-30 06:18:46;3.94;0.00
2023-04-30 06:33:40;3.94;0.00
2023-04-30 06:48:45;3.94;0.00
2023-04-30 07:03:44;3.94;0.00
2023-04-30 07:18:43;3.94;0.00
2023-04-30 07:33:42;3.94;0.00
2023-04-30 07:48:41;3.94;0.00
2023-04-30 08:03:40;3.94;0.00
2023-04-30 08:18:45;3.94;0.00
2023-04-30 08:33:45;3.95;0.00
2023-04-30 08:48:46;3.96;0.00
2023-04-30 09:03:42;3.96;0.00
2023-04-30 09:18:44;3.96;0.00
2023-04-30 09:33:47;3.96;0.00
2023-04-30 09:48:45;3.96;0.00
2023-04-30 10:03:48;3.96;0.00
2023-04-30 10:18:47;3.97;0.00
2023-04-30 10:33:45;3.97;0.00
2023-04-30 10:48:49;3.97;0.00
2023-04-30 11:03:48;4.09;0.00
2023-04-30 11:18:48;4.08;0.00
2023-04-30 11:33:48;4.07;0.00
2023-04-30 11:48:48;4.08;0.00
2023-04-30 12:03:48;4.07;0.00
2023-04-30 12:18:49;4.07;0.00
2023-04-30 12:33:49;4.06;0.00
2023-04-30 12:48:50;4.07;0.00
2023-04-30 13:03:45;3.96;0.00
2023-04-30 13:18:51;4.07;0.00
2023-04-30 13:33:46;3.96;0.00
2023-04-30 13:48:47;3.96;0.00
2023-04-30 14:03:47;3.96;0.00
2023-04-30 14:18:47;4.07;0.00
2023-04-30 14:33:47;3.96;0.00
2023-04-30 14:48:47;4.05;0.00
2023-04-30 15:03:47;3.96;0.00
2023-04-30 15:18:47;3.96;0.00
2023-04-30 15:33:46;3.96;0.00
2023-04-30 15:48:46;3.97;0.00
2023-04-30 16:03:47;3.96;0.00
2023-04-30 16:18:46;3.96;0.00
2023-04-30 16:33:43;3.96;0.00
2023-04-30 16:48:44;3.96;0.00
2023-04-30 17:03:43;3.96;0.00
2023-04-30 17:18:42;3.96;0.00
2023-04-30 17:33:40;3.96;0.00
2023-04-30 17:48:43;3.96;0.00
2023-04-30 18:03:40;3.96;0.00
2023-04-30 18:18:43;3.96;0.00
2023-04-30 18:33:40;3.96;0.00
2023-04-30 18:48:42;3.96;0.00
2023-04-30 19:03:38;3.96;0.00
2023-04-30 19:18:40;3.96;0.00
2023-04-30 19:33:42;3.96;0.00
2023-04-30 19:48:38;3.96;0.00
2023-04-30 20:03:40;3.96;0.00
2023-04-30 20:18:41;3.96;0.00
2023-04-30 20:33:42;3.95;0.00
2023-04-30 20:48:38;3.95;0.00
2023-04-30 21:03:40;3.95;0.00
2023-04-30 21:18:41;3.95;0.00
2023-04-30 21:33:42;3.95;0.00
2023-04-30 21:48:38;3.95;0.00
2023-04-30 22:03:40;3.95;0.00
2023-04-30 22:18:41;3.95;0.00
2023-04-30 22:33:43;3.95;0.00
2023-04-30 22:48:39;3.95;0.00
2023-04-30 23:03:40;3.95;0.00
2023-04-30 23:18:42;3.95;0.00
2023-04-30 23:33:38;3.95;0.00
2023-04-30 23:48:39;3.95;0.00
