2023-11-26 00:03:01;85;798;2
2023-11-26 00:33:01;84;799;1
2023-11-26 01:03:02;84;799;1
2023-11-26 01:32:57;83;798;2
2023-11-26 02:03:02;83;799;1
2023-11-26 02:32:57;83;798;2
2023-11-26 03:03:01;77;799;1
2023-11-26 03:33:00;72;799;1
2023-11-26 04:02:59;83;799;1
2023-11-26 04:32:58;79;799;1
2023-11-26 05:02:57;79;799;1
2023-11-26 05:33:01;79;799;1
2023-11-26 06:03:00;82;799;1
2023-11-26 06:33:00;82;799;1
2023-11-26 07:03:05;84;799;1
2023-11-26 07:33:08;84;799;1
2023-11-26 08:03:08;82;799;1
2023-11-26 08:33:10;85;799;1
2023-11-26 09:03:09;86;799;1
2023-11-26 09:33:13;85;799;1
2023-11-26 10:03:09;94;799;1
2023-11-26 10:33:15;94;798;2
2023-11-26 11:03:12;93;799;1
2023-11-26 11:33:14;94;799;1
2023-11-26 12:03:12;94;799;1
2023-11-26 12:33:14;94;799;1
2023-11-26 13:03:12;94;798;2
2023-11-26 13:33:15;94;799;1
2023-11-26 14:03:14;93;799;1
2023-11-26 14:33:13;93;799;1
2023-11-26 15:03:17;93;799;1
2023-11-26 15:33:16;84;799;1
2023-11-26 16:03:15;84;798;2
2023-11-26 16:33:15;84;799;1
2023-11-26 17:03:13;84;799;1
2023-11-26 17:33:15;84;798;2
2023-11-26 18:03:12;83;798;2
2023-11-26 18:33:12;84;799;1
2023-11-26 19:03:11;85;799;1
2023-11-26 19:33:08;84;799;1
2023-11-26 20:03:07;85;799;1
2023-11-26 20:33:05;84;799;1
2023-11-26 21:03:05;84;799;1
2023-11-26 21:33:06;84;799;1
2023-11-26 22:03:02;84;798;2
2023-11-26 22:33:02;84;798;2
2023-11-26 23:03:02;84;799;1
2023-11-26 23:33:02;84;798;2
