2023-02-04 00:03:42;3.95;0.00
2023-02-04 00:18:40;3.94;0.00
2023-02-04 00:33:44;3.95;0.00
2023-02-04 00:48:42;3.94;0.00
2023-02-04 01:03:40;3.94;0.00
2023-02-04 01:18:43;3.94;0.00
2023-02-04 01:33:40;3.94;0.00
2023-02-04 01:48:42;3.94;0.00
2023-02-04 02:03:39;3.94;0.00
2023-02-04 02:18:42;3.94;0.00
2023-02-04 02:33:39;3.94;0.00
2023-02-04 02:48:41;3.94;0.00
2023-02-04 03:03:44;3.94;0.00
2023-02-04 03:18:41;3.94;0.00
2023-02-04 03:33:43;3.94;0.00
2023-02-04 03:48:40;3.94;0.00
2023-02-04 04:03:42;3.94;0.00
2023-02-04 04:18:39;3.94;0.00
2023-02-04 04:33:41;3.94;0.00
2023-02-04 04:48:43;3.94;0.00
2023-02-04 05:03:40;3.94;0.00
2023-02-04 05:18:42;3.94;0.00
2023-02-04 05:33:39;3.94;0.00
2023-02-04 05:48:41;3.94;0.00
2023-02-04 06:03:42;3.94;0.00
2023-02-04 06:18:39;3.94;0.00
2023-02-04 06:33:40;3.94;0.00
2023-02-04 06:48:42;3.94;0.00
2023-02-04 07:03:39;3.93;0.00
2023-02-04 07:18:42;3.93;0.00
2023-02-04 07:33:41;3.93;0.00
2023-02-04 07:48:45;3.93;0.00
2023-02-04 08:03:45;3.93;0.00
2023-02-04 08:18:41;3.94;0.00
2023-02-04 08:33:48;3.95;0.00
2023-02-04 08:48:45;3.95;0.00
2023-02-04 09:03:48;3.95;0.00
2023-02-04 09:18:46;3.95;0.00
2023-02-04 09:33:44;3.95;0.00
2023-02-04 09:48:47;3.95;0.00
2023-02-04 10:03:46;3.96;0.00
2023-02-04 10:18:45;3.96;0.00
2023-02-04 10:33:50;4.08;0.00
2023-02-04 10:48:43;4.12;0.00
2023-02-04 11:03:48;4.05;0.00
2023-02-04 11:18:47;4.07;0.00
2023-02-04 11:33:47;4.01;0.00
2023-02-04 11:48:46;4.05;0.00
2023-02-04 12:03:46;4.10;0.00
2023-02-04 12:18:45;3.94;0.00
2023-02-04 12:33:45;4.07;0.00
2023-02-04 12:48:50;3.98;0.00
2023-02-04 13:03:45;4.05;0.00
2023-02-04 13:18:50;4.07;0.00
2023-02-04 13:33:45;4.00;0.00
2023-02-04 13:48:51;4.07;0.00
2023-02-04 14:03:46;4.07;0.00
2023-02-04 14:18:46;4.13;0.00
2023-02-04 14:33:46;4.07;0.00
2023-02-04 14:48:46;4.08;0.00
2023-02-04 15:03:47;4.07;0.00
2023-02-04 15:18:47;4.07;0.00
2023-02-04 15:33:47;4.01;0.00
2023-02-04 15:48:47;3.96;0.00
2023-02-04 16:03:47;3.96;0.00
2023-02-04 16:18:47;3.96;0.00
2023-02-04 16:33:47;3.95;0.00
2023-02-04 16:48:47;3.95;0.00
2023-02-04 17:03:47;3.95;0.00
2023-02-04 17:18:47;3.95;0.00
2023-02-04 17:33:46;3.95;0.00
2023-02-04 17:48:45;3.95;0.00
2023-02-04 18:03:49;3.95;0.00
2023-02-04 18:18:47;3.95;0.00
2023-02-04 18:33:46;3.95;0.00
2023-02-04 18:48:44;3.95;0.00
2023-02-04 19:03:47;3.95;0.00
2023-02-04 19:18:45;3.95;0.00
2023-02-04 19:33:48;3.95;0.00
2023-02-04 19:48:44;3.95;0.00
2023-02-04 20:03:46;3.95;0.00
2023-02-04 20:18:42;3.95;0.00
2023-02-04 20:33:43;3.95;0.00
2023-02-04 20:48:43;3.95;0.00
2023-02-04 21:03:43;3.95;0.00
2023-02-04 21:18:42;3.95;0.00
2023-02-04 21:33:42;3.95;0.00
2023-02-04 21:48:41;3.95;0.00
2023-02-04 22:03:45;3.95;0.00
2023-02-04 22:18:44;3.94;0.00
2023-02-04 22:33:42;3.95;0.00
2023-02-04 22:48:41;3.95;0.00
2023-02-04 23:03:45;3.95;0.00
2023-02-04 23:18:43;3.95;0.00
2023-02-04 23:33:41;3.94;0.00
2023-02-04 23:48:40;3.94;0.00
