2023-03-02 00:03:43;3.95;0.00
2023-03-02 00:18:44;3.95;0.00
2023-03-02 00:33:44;3.95;0.00
2023-03-02 00:48:44;3.95;0.00
2023-03-02 01:03:44;3.95;0.00
2023-03-02 01:18:43;3.95;0.00
2023-03-02 01:33:43;3.95;0.00
2023-03-02 01:48:42;3.95;0.00
2023-03-02 02:03:42;3.95;0.00
2023-03-02 02:18:41;3.95;0.00
2023-03-02 02:33:46;3.95;0.00
2023-03-02 02:48:40;3.95;0.00
2023-03-02 03:03:44;3.95;0.00
2023-03-02 03:18:43;3.95;0.00
2023-03-02 03:33:42;3.95;0.00
2023-03-02 03:48:41;3.95;0.00
2023-03-02 04:03:45;3.95;0.00
2023-03-02 04:18:43;3.95;0.00
2023-03-02 04:33:42;3.95;0.00
2023-03-02 04:48:40;3.95;0.00
2023-03-02 05:03:44;3.95;0.00
2023-03-02 05:18:43;3.95;0.00
2023-03-02 05:33:41;3.95;0.00
2023-03-02 05:48:44;3.95;0.00
2023-03-02 06:03:43;3.95;0.00
2023-03-02 06:18:41;3.95;0.00
2023-03-02 06:33:44;3.95;0.00
2023-03-02 06:48:42;3.95;0.00
2023-03-02 07:03:40;3.94;0.00
2023-03-02 07:18:43;3.94;0.00
2023-03-02 07:33:42;3.94;0.00
2023-03-02 07:48:41;3.94;0.00
2023-03-02 08:03:42;3.94;0.00
2023-03-02 08:18:43;3.95;0.00
2023-03-02 08:33:45;3.95;0.00
2023-03-02 08:48:47;3.96;0.00
2023-03-02 09:03:44;3.96;0.00
2023-03-02 09:18:47;3.96;0.00
2023-03-02 09:33:46;3.96;0.00
2023-03-02 09:48:45;3.96;0.00
2023-03-02 10:03:50;3.96;0.00
2023-03-02 10:18:44;3.96;0.00
2023-03-02 10:33:49;4.08;0.00
2023-03-02 10:48:49;4.08;0.00
2023-03-02 11:03:49;4.08;0.00
2023-03-02 11:18:49;4.07;0.00
2023-03-02 11:33:49;4.03;0.00
2023-03-02 11:48:49;4.08;0.00
2023-03-02 12:03:49;4.08;0.00
2023-03-02 12:18:50;4.03;0.00
2023-03-02 12:33:45;4.08;0.00
2023-03-02 12:48:46;4.08;0.00
2023-03-02 13:03:48;4.07;0.00
2023-03-02 13:18:49;4.08;0.00
2023-03-02 13:33:50;4.08;0.00
2023-03-02 13:48:47;4.07;0.00
2023-03-02 14:03:48;4.07;0.00
2023-03-02 14:18:50;4.08;0.00
2023-03-02 14:33:47;4.07;0.00
2023-03-02 14:48:49;4.07;0.00
2023-03-02 15:03:52;4.08;0.00
2023-03-02 15:18:49;4.07;0.00
2023-03-02 15:33:51;4.07;0.00
2023-03-02 15:48:48;3.96;0.00
2023-03-02 16:03:50;3.96;0.00
2023-03-02 16:18:46;3.96;0.00
2023-03-02 16:33:48;3.96;0.00
2023-03-02 16:48:49;3.96;0.00
2023-03-02 17:03:50;3.96;0.00
2023-03-02 17:18:46;3.96;0.00
2023-03-02 17:33:46;3.96;0.00
2023-03-02 17:48:46;3.96;0.00
2023-03-02 18:03:46;3.96;0.00
2023-03-02 18:18:46;3.96;0.00
2023-03-02 18:33:46;3.96;0.00
2023-03-02 18:48:45;3.96;0.00
2023-03-02 19:03:49;3.96;0.00
2023-03-02 19:18:48;3.96;0.00
2023-03-02 19:33:46;3.96;0.00
2023-03-02 19:48:44;3.96;0.00
2023-03-02 20:03:46;3.96;0.00
2023-03-02 20:18:42;3.96;0.00
2023-03-02 20:33:44;3.96;0.00
2023-03-02 20:48:45;3.96;0.00
2023-03-02 21:03:46;3.96;0.00
2023-03-02 21:18:42;3.96;0.00
2023-03-02 21:33:44;3.96;0.00
2023-03-02 21:48:45;3.96;0.00
2023-03-02 22:03:46;3.96;0.00
2023-03-02 22:18:41;3.95;0.00
2023-03-02 22:33:47;3.96;0.00
2023-03-02 22:48:42;3.95;0.00
2023-03-02 23:03:42;3.95;0.00
2023-03-02 23:18:42;3.95;0.00
2023-03-02 23:33:42;3.95;0.00
2023-03-02 23:48:41;3.95;0.00
