2023-05-16 00:03:40;3.95;17.89
2023-05-16 00:18:39;3.95;17.40
2023-05-16 00:33:39;3.95;17.72
2023-05-16 00:48:38;3.95;18.21
2023-05-16 01:03:38;3.95;17.40
2023-05-16 01:18:37;3.95;17.72
2023-05-16 01:33:42;3.95;18.53
2023-05-16 01:48:37;3.95;18.53
2023-05-16 02:03:42;3.95;18.53
2023-05-16 02:18:37;3.95;18.53
2023-05-16 02:33:42;3.95;18.53
2023-05-16 02:48:36;3.95;18.21
2023-05-16 03:03:41;3.95;17.89
2023-05-16 03:18:41;3.95;18.21
2023-05-16 03:33:40;3.94;18.69
2023-05-16 03:48:39;3.95;18.53
2023-05-16 04:03:38;3.94;18.53
2023-05-16 04:18:36;3.94;18.69
2023-05-16 04:33:40;3.94;19.34
2023-05-16 04:48:38;3.94;18.69
2023-05-16 05:03:37;3.94;19.01
2023-05-16 05:18:41;3.94;18.69
2023-05-16 05:33:39;3.94;18.69
2023-05-16 05:48:37;3.94;19.01
2023-05-16 06:03:40;3.94;19.34
2023-05-16 06:18:37;3.94;19.50
2023-05-16 06:33:35;3.94;18.69
2023-05-16 06:48:39;3.94;18.69
2023-05-16 07:03:37;3.94;19.34
2023-05-16 07:18:40;3.94;18.69
2023-05-16 07:33:38;3.94;19.01
2023-05-16 07:48:36;3.94;18.21
2023-05-16 08:03:40;3.94;18.21
2023-05-16 08:18:39;3.95;18.69
2023-05-16 08:33:38;3.96;17.72
2023-05-16 08:48:39;3.96;18.21
2023-05-16 09:03:41;3.96;18.21
2023-05-16 09:18:39;3.96;17.89
2023-05-16 09:33:42;3.96;17.40
2023-05-16 09:48:41;3.96;17.72
2023-05-16 10:03:46;3.96;17.08
2023-05-16 10:18:40;3.96;17.89
2023-05-16 10:33:46;4.07;17.89
2023-05-16 10:48:42;3.98;17.08
2023-05-16 11:03:43;4.15;17.72
2023-05-16 11:18:44;3.99;17.72
2023-05-16 11:33:45;4.13;17.08
2023-05-16 11:48:42;4.05;17.08
2023-05-16 12:03:44;4.00;17.72
2023-05-16 12:18:46;4.10;17.72
2023-05-16 12:33:43;4.07;18.21
2023-05-16 12:48:46;4.06;18.21
2023-05-16 13:03:43;4.12;18.69
2023-05-16 13:18:46;4.11;19.01
2023-05-16 13:33:44;4.06;19.50
2023-05-16 13:48:47;4.03;19.82
2023-05-16 14:03:45;4.06;19.50
2023-05-16 14:18:49;4.08;19.82
2023-05-16 14:33:47;4.05;20.63
2023-05-16 14:48:44;4.02;20.63
2023-05-16 15:03:48;4.07;20.63
2023-05-16 15:18:45;3.96;20.95
2023-05-16 15:33:43;3.96;20.95
2023-05-16 15:48:46;3.96;20.63
2023-05-16 16:03:44;3.96;20.95
2023-05-16 16:18:46;3.96;20.95
2023-05-16 16:33:44;3.96;21.43
2023-05-16 16:48:46;3.96;20.95
2023-05-16 17:03:43;3.96;21.11
2023-05-16 17:18:45;3.96;20.63
2023-05-16 17:33:46;3.96;20.63
2023-05-16 17:48:41;3.96;21.11
2023-05-16 18:03:45;3.96;20.30
2023-05-16 18:18:44;3.96;20.95
2023-05-16 18:33:41;3.96;20.30
2023-05-16 18:48:43;3.96;20.95
2023-05-16 19:03:40;3.96;20.30
2023-05-16 19:18:41;3.96;20.95
2023-05-16 19:33:38;3.96;20.63
2023-05-16 19:48:39;3.96;20.14
2023-05-16 20:03:41;3.96;20.30
2023-05-16 20:18:42;3.95;20.30
2023-05-16 20:33:38;3.96;19.82
2023-05-16 20:48:39;3.95;20.14
2023-05-16 21:03:41;3.95;20.30
2023-05-16 21:18:43;3.95;19.82
2023-05-16 21:33:40;3.95;20.14
2023-05-16 21:48:42;3.95;20.14
2023-05-16 22:03:39;3.95;20.14
2023-05-16 22:18:42;3.95;20.14
2023-05-16 22:33:39;3.95;19.50
2023-05-16 22:48:41;3.95;19.50
2023-05-16 23:03:44;3.95;19.82
2023-05-16 23:18:40;3.95;19.50
2023-05-16 23:33:42;3.95;19.50
2023-05-16 23:48:38;3.95;19.34
