2023-11-22 00:03:00;84;799;1
2023-11-22 00:33:01;84;799;1
2023-11-22 01:03:02;80;799;1
2023-11-22 01:32:58;83;799;1
2023-11-22 02:02:59;83;799;1
2023-11-22 02:33:00;83;798;2
2023-11-22 03:03:01;83;799;1
2023-11-22 03:33:02;83;799;1
2023-11-22 04:02:59;82;799;1
2023-11-22 04:32:59;82;799;1
2023-11-22 05:03:00;81;799;1
2023-11-22 05:33:02;81;799;1
2023-11-22 06:02:58;82;798;2
2023-11-22 06:32:59;81;799;1
2023-11-22 07:03:00;81;798;2
2023-11-22 07:33:02;80;798;2
2023-11-22 08:03:00;81;799;1
2023-11-22 08:33:03;83;799;1
2023-11-22 09:03:02;83;798;2
2023-11-22 09:33:01;83;799;1
2023-11-22 10:03:05;83;799;1
2023-11-22 10:33:03;83;799;1
2023-11-22 11:03:07;84;799;1
2023-11-22 11:33:08;84;799;1
2023-11-22 12:03:09;85;799;1
2023-11-22 12:33:10;85;799;1
2023-11-22 13:03:07;86;798;2
2023-11-22 13:33:09;94;798;2
2023-11-22 14:03:08;85;799;1
2023-11-22 14:33:12;94;799;1
2023-11-22 15:03:10;85;799;1
2023-11-22 15:33:09;93;799;1
2023-11-22 16:03:12;86;799;1
2023-11-22 16:33:11;85;798;2
2023-11-22 17:03:09;86;799;1
2023-11-22 17:33:07;85;798;2
2023-11-22 18:03:09;85;798;2
2023-11-22 18:33:10;85;799;1
2023-11-22 19:03:05;85;799;1
2023-11-22 19:33:08;85;798;2
2023-11-22 20:03:04;85;799;1
2023-11-22 20:33:04;83;799;1
2023-11-22 21:03:02;85;799;1
2023-11-22 21:33:00;85;798;2
2023-11-22 22:03:03;85;798;2
2023-11-22 22:33:00;84;799;1
2023-11-22 23:03:02;84;800;0
2023-11-22 23:33:00;83;799;1
