2023-04-27 00:03:41;3.95;0.00
2023-04-27 00:18:42;3.95;0.00
2023-04-27 00:33:37;3.95;0.00
2023-04-27 00:48:43;3.95;0.00
2023-04-27 01:03:38;3.95;0.00
2023-04-27 01:18:39;3.95;0.00
2023-04-27 01:33:40;3.95;0.00
2023-04-27 01:48:40;3.95;0.00
2023-04-27 02:03:41;3.95;0.00
2023-04-27 02:18:41;3.95;0.00
2023-04-27 02:33:41;3.94;0.00
2023-04-27 02:48:36;3.94;0.00
2023-04-27 03:03:42;3.94;0.00
2023-04-27 03:18:37;3.94;0.00
2023-04-27 03:33:43;3.94;0.00
2023-04-27 03:48:37;3.94;0.00
2023-04-27 04:03:38;3.94;0.00
2023-04-27 04:18:38;3.94;0.00
2023-04-27 04:33:38;3.94;0.00
2023-04-27 04:48:38;3.94;0.00
2023-04-27 05:03:38;3.94;0.00
2023-04-27 05:18:38;3.94;0.00
2023-04-27 05:33:38;3.94;0.00
2023-04-27 05:48:38;3.94;0.00
2023-04-27 06:03:38;3.94;0.00
2023-04-27 06:18:38;3.94;0.00
2023-04-27 06:33:38;3.94;0.00
2023-04-27 06:48:38;3.94;0.00
2023-04-27 07:03:38;3.94;0.00
2023-04-27 07:18:38;3.94;0.00
2023-04-27 07:33:37;3.94;0.00
2023-04-27 07:48:37;3.94;0.00
2023-04-27 08:03:43;3.94;0.00
2023-04-27 08:18:39;3.95;0.00
2023-04-27 08:33:41;3.96;0.00
2023-04-27 08:48:40;3.96;0.00
2023-04-27 09:03:45;3.96;0.00
2023-04-27 09:18:45;3.96;0.00
2023-04-27 09:33:45;3.96;0.00
2023-04-27 09:48:46;3.96;0.00
2023-04-27 10:03:42;3.96;0.00
2023-04-27 10:18:44;3.96;0.00
2023-04-27 10:33:46;3.96;0.00
2023-04-27 10:48:43;4.08;0.00
2023-04-27 11:03:45;4.02;0.00
2023-04-27 11:18:48;4.08;0.00
2023-04-27 11:33:46;4.13;0.00
2023-04-27 11:48:43;4.09;0.00
2023-04-27 12:03:47;4.08;0.00
2023-04-27 12:18:45;4.07;0.00
2023-04-27 12:33:49;4.13;0.00
2023-04-27 12:48:47;4.08;0.00
2023-04-27 13:03:46;4.09;0.00
2023-04-27 13:18:45;4.07;0.00
2023-04-27 13:33:49;4.06;0.00
2023-04-27 13:48:48;4.07;0.00
2023-04-27 14:03:47;4.04;0.00
2023-04-27 14:18:46;4.08;0.00
2023-04-27 14:33:45;4.07;0.00
2023-04-27 14:48:49;4.02;0.00
2023-04-27 15:03:47;3.96;0.00
2023-04-27 15:18:46;3.96;0.00
2023-04-27 15:33:44;3.96;0.00
2023-04-27 15:48:47;3.96;0.00
2023-04-27 16:03:45;3.96;0.00
2023-04-27 16:18:48;3.96;0.00
2023-04-27 16:33:46;3.96;0.00
2023-04-27 16:48:44;3.97;0.00
2023-04-27 17:03:46;3.96;0.00
2023-04-27 17:18:42;3.96;0.00
2023-04-27 17:33:44;3.96;0.00
2023-04-27 17:48:45;3.96;0.00
2023-04-27 18:03:46;3.96;0.00
2023-04-27 18:18:40;3.96;0.00
2023-04-27 18:33:45;3.96;0.00
2023-04-27 18:48:43;3.96;0.00
2023-04-27 19:03:41;3.96;0.00
2023-04-27 19:18:39;3.96;0.00
2023-04-27 19:33:42;3.96;0.00
2023-04-27 19:48:39;3.96;0.00
2023-04-27 20:03:41;3.96;0.00
2023-04-27 20:18:43;3.96;0.00
2023-04-27 20:33:39;3.96;0.00
2023-04-27 20:48:41;3.96;0.00
2023-04-27 21:03:42;3.96;0.00
2023-04-27 21:18:38;3.96;0.00
2023-04-27 21:33:40;3.96;0.00
2023-04-27 21:48:41;3.96;0.00
2023-04-27 22:03:42;3.95;0.00
2023-04-27 22:18:38;3.95;0.00
2023-04-27 22:33:40;3.95;0.00
2023-04-27 22:48:41;3.95;0.00
2023-04-27 23:03:42;3.95;0.00
2023-04-27 23:18:38;3.95;0.00
2023-04-27 23:33:39;3.95;0.00
2023-04-27 23:48:40;3.95;0.00
