2023-05-13 00:03:39;3.95;6.93
2023-05-13 00:18:38;3.95;7.57
2023-05-13 00:33:38;3.95;7.57
2023-05-13 00:48:37;3.95;6.93
2023-05-13 01:03:41;3.95;6.93
2023-05-13 01:18:40;3.95;7.25
2023-05-13 01:33:39;3.95;7.74
2023-05-13 01:48:37;3.95;7.25
2023-05-13 02:03:41;3.94;7.74
2023-05-13 02:18:39;3.95;8.06
2023-05-13 02:33:38;3.95;7.25
2023-05-13 02:48:37;3.94;8.06
2023-05-13 03:03:40;3.94;7.74
2023-05-13 03:18:39;3.94;7.74
2023-05-13 03:33:37;3.94;8.38
2023-05-13 03:48:36;3.94;7.57
2023-05-13 04:03:39;3.94;7.74
2023-05-13 04:18:38;3.94;9.19
2023-05-13 04:33:36;3.94;8.38
2023-05-13 04:48:40;3.94;9.19
2023-05-13 05:03:38;3.94;9.35
2023-05-13 05:18:36;3.94;9.35
2023-05-13 05:33:40;3.94;8.86
2023-05-13 05:48:38;3.94;9.35
2023-05-13 06:03:36;3.94;9.35
2023-05-13 06:18:39;3.94;9.35
2023-05-13 06:33:37;3.94;8.86
2023-05-13 06:48:36;3.94;9.67
2023-05-13 07:03:40;3.94;9.67
2023-05-13 07:18:38;3.94;9.19
2023-05-13 07:33:36;3.94;10.47
2023-05-13 07:48:40;3.94;11.60
2023-05-13 08:03:37;3.94;11.28
2023-05-13 08:18:36;3.95;11.60
2023-05-13 08:33:41;3.96;12.09
2023-05-13 08:48:37;3.95;11.76
2023-05-13 09:03:45;3.96;12.09
2023-05-13 09:18:42;3.96;12.09
2023-05-13 09:33:40;3.96;12.57
2023-05-13 09:48:44;3.96;12.89
2023-05-13 10:03:44;3.96;12.09
2023-05-13 10:18:43;3.96;12.89
2023-05-13 10:33:44;4.06;12.09
2023-05-13 10:48:44;3.98;12.89
2023-05-13 11:03:45;4.06;12.25
2023-05-13 11:18:41;4.04;12.89
2023-05-13 11:33:48;4.04;12.57
2023-05-13 11:48:43;4.03;12.89
2023-05-13 12:03:45;4.10;13.37
2023-05-13 12:18:46;4.04;13.86
2023-05-13 12:33:42;4.03;14.50
2023-05-13 12:48:44;3.98;14.50
2023-05-13 13:03:46;4.13;14.18
2023-05-13 13:18:43;4.00;14.66
2023-05-13 13:33:46;4.11;14.99
2023-05-13 13:48:43;4.12;16.11
2023-05-13 14:03:46;4.09;16.60
2023-05-13 14:18:43;4.07;16.60
2023-05-13 14:33:46;3.96;16.27
2023-05-13 14:48:43;4.08;17.08
2023-05-13 15:03:45;4.13;16.60
2023-05-13 15:18:43;3.96;16.92
2023-05-13 15:33:45;3.96;17.72
2023-05-13 15:48:48;3.96;17.72
2023-05-13 16:03:44;3.96;17.89
2023-05-13 16:18:46;3.96;17.40
2023-05-13 16:33:43;3.96;17.40
2023-05-13 16:48:44;3.96;17.72
2023-05-13 17:03:45;3.96;18.21
2023-05-13 17:18:46;3.96;17.89
2023-05-13 17:33:40;3.96;17.72
2023-05-13 17:48:44;3.96;17.72
2023-05-13 18:03:42;3.96;17.72
2023-05-13 18:18:40;3.96;18.21
2023-05-13 18:33:43;3.96;17.72
2023-05-13 18:48:40;3.96;18.21
2023-05-13 19:03:42;3.96;18.21
2023-05-13 19:18:38;3.95;18.21
2023-05-13 19:33:40;3.95;17.40
2023-05-13 19:48:41;3.95;17.40
2023-05-13 20:03:43;3.95;17.08
2023-05-13 20:18:38;3.95;17.72
2023-05-13 20:33:39;3.95;17.89
2023-05-13 20:48:40;3.95;17.89
2023-05-13 21:03:41;3.95;17.89
2023-05-13 21:18:41;3.95;17.08
2023-05-13 21:33:41;3.95;17.08
2023-05-13 21:48:42;3.95;17.72
2023-05-13 22:03:37;3.95;17.72
2023-05-13 22:18:42;3.95;17.08
2023-05-13 22:33:37;3.95;17.72
2023-05-13 22:48:42;3.95;17.40
2023-05-13 23:03:37;3.95;17.08
2023-05-13 23:18:43;3.95;17.72
2023-05-13 23:33:38;3.95;17.08
2023-05-13 23:48:38;3.95;17.08
