2023-07-03 00:00:03;49;-108;108
2023-07-03 00:01:04;48;-108;108
2023-07-03 00:02:05;48;-108;108
2023-07-03 00:03:05;48;-108;108
2023-07-03 00:04:02;48;-108;108
2023-07-03 00:05:03;48;-108;108
2023-07-03 00:06:04;48;-108;108
2023-07-03 00:07:05;48;-108;108
2023-07-03 00:08:05;48;-108;108
2023-07-03 00:09:02;48;-108;108
2023-07-03 00:10:03;48;-108;108
2023-07-03 00:11:04;48;-108;108
2023-07-03 00:12:04;48;-108;108
2023-07-03 00:13:05;48;-108;108
2023-07-03 00:14:02;48;-108;108
2023-07-03 00:15:03;49;-108;108
2023-07-03 00:16:04;48;-108;108
2023-07-03 00:17:04;48;-108;108
2023-07-03 00:18:05;48;-108;108
2023-07-03 00:19:06;48;-108;108
2023-07-03 00:20:03;48;-108;108
2023-07-03 00:21:03;48;-108;108
2023-07-03 00:22:04;48;-108;108
2023-07-03 00:23:05;48;-108;108
2023-07-03 00:24:06;48;-108;108
2023-07-03 00:25:02;48;-108;108
2023-07-03 00:26:03;48;-108;108
2023-07-03 00:27:04;48;-108;108
2023-07-03 00:28:05;48;-108;108
2023-07-03 00:29:06;48;-108;108
2023-07-03 00:30:02;48;-108;108
2023-07-03 00:31:03;48;-108;108
2023-07-03 00:32:04;48;-108;108
2023-07-03 00:33:05;48;-108;108
2023-07-03 00:34:06;48;-108;108
2023-07-03 00:35:02;48;-107;107
2023-07-03 00:36:03;48;-108;108
2023-07-03 00:37:04;48;-107;107
2023-07-03 00:38:05;48;-108;108
2023-07-03 00:39:06;48;-108;108
2023-07-03 00:40:02;48;-108;108
2023-07-03 00:41:03;48;-108;108
2023-07-03 00:42:04;48;-108;108
2023-07-03 00:43:05;48;-108;108
2023-07-03 00:44:06;48;-108;108
2023-07-03 00:45:02;48;-108;108
2023-07-03 00:46:03;49;-108;108
2023-07-03 00:47:04;48;-107;107
2023-07-03 00:48:05;48;-108;108
2023-07-03 00:49:06;48;-108;108
2023-07-03 00:50:02;48;-108;108
2023-07-03 00:51:03;48;-108;108
2023-07-03 00:52:04;48;-108;108
2023-07-03 00:53:05;48;-108;108
2023-07-03 00:54:06;48;-108;108
2023-07-03 00:55:02;48;-108;108
2023-07-03 00:56:03;48;-108;108
2023-07-03 00:57:04;48;-108;108
2023-07-03 00:58:05;48;-108;108
2023-07-03 00:59:05;48;-108;108
2023-07-03 01:00:02;48;-108;108
2023-07-03 01:01:03;48;-108;108
2023-07-03 01:02:04;49;-108;108
2023-07-03 01:03:05;48;-108;108
2023-07-03 01:04:05;48;-108;108
2023-07-03 01:05:02;48;-108;108
2023-07-03 01:06:03;48;-108;108
2023-07-03 01:07:04;48;-108;108
2023-07-03 01:08:04;48;-108;108
2023-07-03 01:09:05;48;-108;108
2023-07-03 01:10:06;48;-108;108
2023-07-03 01:11:03;48;-108;108
2023-07-03 01:12:03;48;-108;108
2023-07-03 01:13:04;48;-108;108
2023-07-03 01:14:05;48;-108;108
2023-07-03 01:15:06;48;-108;108
2023-07-03 01:16:03;48;-108;108
2023-07-03 01:17:03;48;-108;108
2023-07-03 01:18:04;48;-108;108
2023-07-03 01:19:05;48;-107;107
2023-07-03 01:20:06;48;-108;108
2023-07-03 01:21:02;48;-108;108
2023-07-03 01:22:03;48;-108;108
2023-07-03 01:23:04;48;-108;108
2023-07-03 01:24:05;48;-108;108
2023-07-03 01:25:06;48;-108;108
2023-07-03 01:26:02;48;-108;108
2023-07-03 01:27:03;48;-108;108
2023-07-03 01:28:04;48;-108;108
2023-07-03 01:29:05;48;-108;108
2023-07-03 01:30:06;48;-108;108
2023-07-03 01:31:02;48;-108;108
2023-07-03 01:32:03;48;-108;108
2023-07-03 01:33:04;49;-108;108
2023-07-03 01:34:05;48;-108;108
2023-07-03 01:35:06;48;-108;108
2023-07-03 01:36:02;48;-108;108
2023-07-03 01:37:03;48;-108;108
2023-07-03 01:38:04;48;-108;108
2023-07-03 01:39:05;48;-108;108
2023-07-03 01:40:06;48;-108;108
2023-07-03 01:41:02;48;-108;108
2023-07-03 01:42:03;48;-108;108
2023-07-03 01:43:04;48;-108;108
2023-07-03 01:44:05;48;-108;108
2023-07-03 01:45:06;48;-108;108
2023-07-03 01:46:02;48;-108;108
2023-07-03 01:47:03;48;-108;108
2023-07-03 01:48:04;48;-108;108
2023-07-03 01:49:05;48;-108;108
2023-07-03 01:50:06;48;-108;108
2023-07-03 01:51:02;48;-108;108
2023-07-03 01:52:03;48;-108;108
2023-07-03 01:53:04;48;-108;108
2023-07-03 01:54:05;48;-108;108
2023-07-03 01:55:06;48;-108;108
2023-07-03 01:56:02;48;-108;108
2023-07-03 01:57:03;48;-107;107
2023-07-03 01:58:04;48;-108;108
2023-07-03 01:59:05;48;-108;108
2023-07-03 02:00:06;48;-108;108
2023-07-03 02:01:02;48;-108;108
2023-07-03 02:02:03;48;-108;108
2023-07-03 02:03:04;48;-108;108
2023-07-03 02:04:05;49;-108;108
2023-07-03 02:05:05;48;-108;108
2023-07-03 02:06:02;48;-108;108
2023-07-03 02:07:03;48;-108;108
2023-07-03 02:08:04;48;-108;108
2023-07-03 02:09:04;48;-108;108
2023-07-03 02:10:05;48;-108;108
2023-07-03 02:11:02;48;-108;108
2023-07-03 02:12:03;48;-108;108
2023-07-03 02:13:04;48;-108;108
2023-07-03 02:14:04;48;-108;108
2023-07-03 02:15:05;48;-108;108
2023-07-03 02:16:06;48;-108;108
2023-07-03 02:17:03;48;-108;108
2023-07-03 02:18:03;48;-108;108
2023-07-03 02:19:04;48;-108;108
2023-07-03 02:20:05;48;-108;108
2023-07-03 02:21:06;48;-108;108
2023-07-03 02:22:02;48;-108;108
2023-07-03 02:23:03;48;-108;108
2023-07-03 02:24:04;48;-108;108
2023-07-03 02:25:05;48;-107;107
2023-07-03 02:26:06;48;-108;108
2023-07-03 02:27:02;48;-108;108
2023-07-03 02:28:03;48;-108;108
2023-07-03 02:29:04;48;-108;108
2023-07-03 02:30:05;48;-108;108
2023-07-03 02:31:06;48;-108;108
2023-07-03 02:32:02;48;-108;108
2023-07-03 02:33:03;48;-108;108
2023-07-03 02:34:04;48;-108;108
2023-07-03 02:35:05;48;-108;108
2023-07-03 02:36:06;48;-108;108
2023-07-03 02:37:02;48;-108;108
2023-07-03 02:38:03;48;-108;108
2023-07-03 02:39:04;48;-108;108
2023-07-03 02:40:05;48;-108;108
2023-07-03 02:41:06;48;-108;108
2023-07-03 02:42:02;48;-108;108
2023-07-03 02:43:03;48;-108;108
2023-07-03 02:44:04;48;-108;108
2023-07-03 02:45:05;48;-108;108
2023-07-03 02:46:06;48;-107;107
2023-07-03 02:47:02;48;-108;108
2023-07-03 02:48:03;48;-108;108
2023-07-03 02:49:04;48;-108;108
2023-07-03 02:50:05;48;-108;108
2023-07-03 02:51:06;48;-108;108
2023-07-03 02:52:02;48;-108;108
2023-07-03 02:53:03;48;-108;108
2023-07-03 02:54:04;48;-108;108
2023-07-03 02:55:05;48;-108;108
2023-07-03 02:56:06;48;-108;108
2023-07-03 02:57:02;48;-108;108
2023-07-03 02:58:03;48;-108;108
2023-07-03 02:59:04;48;-108;108
2023-07-03 03:00:05;48;-108;108
2023-07-03 03:01:05;48;-108;108
2023-07-03 03:02:02;48;-108;108
2023-07-03 03:03:03;48;-108;108
2023-07-03 03:04:04;48;-108;108
2023-07-03 03:05:05;48;-108;108
2023-07-03 03:06:05;48;-108;108
2023-07-03 03:07:02;48;-108;108
2023-07-03 03:08:03;48;-108;108
2023-07-03 03:09:04;48;-108;108
2023-07-03 03:10:04;48;-108;108
2023-07-03 03:11:05;48;-108;108
2023-07-03 03:12:02;48;-108;108
2023-07-03 03:13:03;48;-107;107
2023-07-03 03:14:04;48;-108;108
2023-07-03 03:15:04;48;-108;108
2023-07-03 03:16:05;48;-108;108
2023-07-03 03:17:06;48;-108;108
2023-07-03 03:18:03;48;-108;108
2023-07-03 03:19:03;48;-108;108
2023-07-03 03:20:04;48;-108;108
2023-07-03 03:21:05;48;-108;108
2023-07-03 03:22:06;48;-108;108
2023-07-03 03:23:03;48;-108;108
2023-07-03 03:24:03;48;-108;108
2023-07-03 03:25:04;48;-108;108
2023-07-03 03:26:05;48;-108;108
2023-07-03 03:27:06;48;-108;108
2023-07-03 03:28:02;48;-108;108
2023-07-03 03:29:03;48;-108;108
2023-07-03 03:30:04;48;-108;108
2023-07-03 03:31:05;48;-108;108
2023-07-03 03:32:06;48;-108;108
2023-07-03 03:33:02;48;-108;108
2023-07-03 03:34:03;48;-108;108
2023-07-03 03:35:04;48;-107;107
2023-07-03 03:36:05;48;-108;108
2023-07-03 03:37:06;48;-108;108
2023-07-03 03:38:02;48;-108;108
2023-07-03 03:39:03;48;-108;108
2023-07-03 03:40:04;48;-108;108
2023-07-03 03:41:05;48;-108;108
2023-07-03 03:42:06;48;-108;108
2023-07-03 03:43:02;48;-108;108
2023-07-03 03:44:03;48;-108;108
2023-07-03 03:45:04;48;-108;108
2023-07-03 03:46:05;48;-108;108
2023-07-03 03:47:06;48;-108;108
2023-07-03 03:48:02;48;-108;108
2023-07-03 03:49:03;48;-108;108
2023-07-03 03:50:04;48;-108;108
2023-07-03 03:51:05;48;-108;108
2023-07-03 03:52:06;48;-108;108
2023-07-03 03:53:02;48;-108;108
2023-07-03 03:54:03;48;-108;108
2023-07-03 03:55:04;48;-108;108
2023-07-03 03:56:05;48;-108;108
2023-07-03 03:57:06;48;-108;108
2023-07-03 03:58:02;48;-108;108
2023-07-03 03:59:03;48;-108;108
2023-07-03 04:00:04;48;-108;108
2023-07-03 04:01:05;48;-108;108
2023-07-03 04:02:05;48;-108;108
2023-07-03 04:03:02;48;-108;108
2023-07-03 04:04:03;48;-108;108
2023-07-03 04:05:04;48;-108;108
2023-07-03 04:06:04;48;-108;108
2023-07-03 04:07:05;48;-108;108
2023-07-03 04:08:02;48;-108;108
2023-07-03 04:09:03;48;-108;108
2023-07-03 04:10:03;48;-108;108
2023-07-03 04:11:04;48;-108;108
2023-07-03 04:12:05;48;-108;108
2023-07-03 04:13:06;48;-108;108
2023-07-03 04:14:03;48;-108;108
2023-07-03 04:15:03;48;-108;108
2023-07-03 04:16:04;48;-108;108
2023-07-03 04:17:05;48;-108;108
2023-07-03 04:18:06;48;-108;108
2023-07-03 04:19:02;48;-108;108
2023-07-03 04:20:03;48;-108;108
2023-07-03 04:21:04;48;-108;108
2023-07-03 04:22:05;48;-108;108
2023-07-03 04:23:06;48;-108;108
2023-07-03 04:24:02;48;-108;108
2023-07-03 04:25:03;48;-108;108
2023-07-03 04:26:04;48;-108;108
2023-07-03 04:27:05;48;-108;108
2023-07-03 04:28:06;48;-108;108
2023-07-03 04:29:02;48;-108;108
2023-07-03 04:30:03;48;-108;108
2023-07-03 04:31:04;48;-108;108
2023-07-03 04:32:05;48;-108;108
2023-07-03 04:33:06;48;-108;108
2023-07-03 04:34:02;48;-108;108
2023-07-03 04:35:03;48;-108;108
2023-07-03 04:36:04;48;-108;108
2023-07-03 04:37:05;48;-108;108
2023-07-03 04:38:06;48;-108;108
2023-07-03 04:39:02;48;-108;108
2023-07-03 04:40:03;48;-108;108
2023-07-03 04:41:04;48;-108;108
2023-07-03 04:42:05;48;-108;108
2023-07-03 04:43:06;48;-108;108
2023-07-03 04:44:02;48;-108;108
2023-07-03 04:45:03;48;-108;108
2023-07-03 04:46:04;48;-108;108
2023-07-03 04:47:05;48;-108;108
2023-07-03 04:48:06;48;-108;108
2023-07-03 04:49:02;48;-108;108
2023-07-03 04:50:03;48;-108;108
2023-07-03 04:51:04;48;-108;108
2023-07-03 04:52:05;48;-108;108
2023-07-03 04:53:05;48;-108;108
2023-07-03 04:54:02;48;-108;108
2023-07-03 04:55:03;48;-108;108
2023-07-03 04:56:04;48;-108;108
2023-07-03 04:57:04;48;-108;108
2023-07-03 04:58:05;48;-108;108
2023-07-03 04:59:02;48;-108;108
2023-07-03 05:00:03;48;-108;108
2023-07-03 05:01:04;48;-108;108
2023-07-03 05:02:04;48;-108;108
2023-07-03 05:03:05;48;-108;108
2023-07-03 05:04:06;48;-108;108
2023-07-03 05:05:03;48;-108;108
2023-07-03 05:06:03;48;-108;108
2023-07-03 05:07:04;48;-108;108
2023-07-03 05:08:05;48;-108;108
2023-07-03 05:09:06;48;-108;108
2023-07-03 05:10:02;48;-108;108
2023-07-03 05:11:03;48;-108;108
2023-07-03 05:12:04;48;-108;108
2023-07-03 05:13:05;48;-108;108
2023-07-03 05:14:06;48;-108;108
2023-07-03 05:15:02;48;-108;108
2023-07-03 05:16:03;48;-108;108
2023-07-03 05:17:04;48;-108;108
2023-07-03 05:18:05;48;-108;108
2023-07-03 05:19:06;48;-108;108
2023-07-03 05:20:02;48;-108;108
2023-07-03 05:21:03;48;-108;108
2023-07-03 05:22:04;48;-108;108
2023-07-03 05:23:05;48;-108;108
2023-07-03 05:24:06;48;-108;108
2023-07-03 05:25:02;48;-108;108
2023-07-03 05:26:03;48;-108;108
2023-07-03 05:27:04;48;-108;108
2023-07-03 05:28:05;48;-108;108
2023-07-03 05:29:06;48;-108;108
2023-07-03 05:30:02;48;-108;108
2023-07-03 05:31:03;48;-107;107
2023-07-03 05:32:04;48;-108;108
2023-07-03 05:33:05;48;-108;108
2023-07-03 05:34:06;48;-108;108
2023-07-03 05:35:02;48;-108;108
2023-07-03 05:36:03;48;-108;108
2023-07-03 05:37:04;48;-108;108
2023-07-03 05:38:05;48;-108;108
2023-07-03 05:39:06;48;-108;108
2023-07-03 05:40:02;48;-108;108
2023-07-03 05:41:03;48;-108;108
2023-07-03 05:42:04;48;-108;108
2023-07-03 05:43:05;48;-108;108
2023-07-03 05:44:05;48;-108;108
2023-07-03 05:45:02;48;-108;108
2023-07-03 05:46:03;48;-108;108
2023-07-03 05:47:04;48;-108;108
2023-07-03 05:48:04;48;-108;108
2023-07-03 05:49:05;48;-108;108
2023-07-03 05:50:02;48;-108;108
2023-07-03 05:51:03;48;-108;108
2023-07-03 05:52:03;48;-108;108
2023-07-03 05:53:04;48;-108;108
2023-07-03 05:54:05;48;-108;108
2023-07-03 05:55:06;48;-108;108
2023-07-03 05:56:03;48;-108;108
2023-07-03 05:57:03;48;-108;108
2023-07-03 05:58:04;48;-108;108
2023-07-03 05:59:05;48;-108;108
2023-07-03 06:00:06;48;-108;108
2023-07-03 06:01:02;48;-108;108
2023-07-03 06:02:03;48;-108;108
2023-07-03 06:03:04;48;-108;108
2023-07-03 06:04:05;48;-108;108
2023-07-03 06:05:06;48;-108;108
2023-07-03 06:06:02;48;-108;108
2023-07-03 06:07:03;48;-108;108
2023-07-03 06:08:04;48;-108;108
2023-07-03 06:09:05;48;-108;108
2023-07-03 06:10:06;48;-108;108
2023-07-03 06:11:02;48;-108;108
2023-07-03 06:12:03;48;-108;108
2023-07-03 06:13:04;48;-108;108
2023-07-03 06:14:05;48;-108;108
2023-07-03 06:15:06;48;-108;108
2023-07-03 06:16:02;48;-108;108
2023-07-03 06:17:03;48;-108;108
2023-07-03 06:18:04;48;-108;108
2023-07-03 06:19:05;48;-107;107
2023-07-03 06:20:06;48;-108;108
2023-07-03 06:21:02;48;-108;108
2023-07-03 06:22:03;48;-108;108
2023-07-03 06:23:04;48;-108;108
2023-07-03 06:24:05;48;-108;108
2023-07-03 06:25:06;48;-108;108
2023-07-03 06:26:02;48;-108;108
2023-07-03 06:27:03;48;-108;108
2023-07-03 06:28:04;48;-108;108
2023-07-03 06:29:05;48;-108;108
2023-07-03 06:30:06;48;-108;108
2023-07-03 06:31:02;48;-108;108
2023-07-03 06:32:03;48;-108;108
2023-07-03 06:33:04;48;-108;108
2023-07-03 06:34:05;48;-108;108
2023-07-03 06:35:06;48;-108;108
2023-07-03 06:36:02;48;-108;108
2023-07-03 06:37:03;48;-108;108
2023-07-03 06:38:04;48;-108;108
2023-07-03 06:39:05;48;-108;108
2023-07-03 06:40:06;48;-108;108
2023-07-03 06:41:02;48;-108;108
2023-07-03 06:42:03;48;-108;108
2023-07-03 06:43:04;48;-108;108
2023-07-03 06:44:05;48;-108;108
2023-07-03 06:45:06;48;-108;108
2023-07-03 06:46:02;48;-108;108
2023-07-03 06:47:03;48;-108;108
2023-07-03 06:48:04;48;-108;108
2023-07-03 06:49:05;48;-108;108
2023-07-03 06:50:05;48;-108;108
2023-07-03 06:51:02;48;-108;108
2023-07-03 06:52:03;48;-108;108
2023-07-03 06:53:04;48;-108;108
2023-07-03 06:54:05;48;-108;108
2023-07-03 06:55:05;48;-108;108
2023-07-03 06:56:02;48;-108;108
2023-07-03 06:57:03;48;-107;107
2023-07-03 06:58:04;48;-108;108
2023-07-03 06:59:04;48;-108;108
2023-07-03 07:00:05;48;-108;108
2023-07-03 07:01:06;48;-108;108
2023-07-03 07:02:03;48;-108;108
2023-07-03 07:03:03;48;-108;108
2023-07-03 07:04:04;48;-108;108
2023-07-03 07:05:05;48;-108;108
2023-07-03 07:06:06;48;-108;108
2023-07-03 07:07:02;48;-108;108
2023-07-03 07:08:03;48;-108;108
2023-07-03 07:09:04;48;-108;108
2023-07-03 07:10:05;48;-108;108
2023-07-03 07:11:06;48;-108;108
2023-07-03 07:12:02;48;-108;108
2023-07-03 07:13:03;48;-108;108
2023-07-03 07:14:04;48;-108;108
2023-07-03 07:15:05;48;-108;108
2023-07-03 07:16:06;48;-108;108
2023-07-03 07:17:02;48;-108;108
2023-07-03 07:18:03;48;-108;108
2023-07-03 07:19:04;48;-108;108
2023-07-03 07:20:05;48;-107;107
2023-07-03 07:21:06;48;-108;108
2023-07-03 07:22:02;48;-108;108
2023-07-03 07:23:03;48;-108;108
2023-07-03 07:24:04;48;-108;108
2023-07-03 07:25:05;48;-108;108
2023-07-03 07:26:06;48;-108;108
2023-07-03 07:27:02;48;-108;108
2023-07-03 07:28:03;48;-108;108
2023-07-03 07:29:04;48;-108;108
2023-07-03 07:30:05;48;-108;108
2023-07-03 07:31:06;48;-108;108
2023-07-03 07:32:02;48;-108;108
2023-07-03 07:33:03;48;-108;108
2023-07-03 07:34:04;48;-108;108
2023-07-03 07:35:05;48;-107;107
2023-07-03 07:36:06;48;-108;108
2023-07-03 07:37:02;48;-108;108
2023-07-03 07:38:03;48;-108;108
2023-07-03 07:39:04;48;-108;108
2023-07-03 07:40:05;48;-108;108
2023-07-03 07:41:06;48;-108;108
2023-07-03 07:42:02;48;-108;108
2023-07-03 07:43:03;48;-108;108
2023-07-03 07:44:04;48;-108;108
2023-07-03 07:45:05;48;-108;108
2023-07-03 07:46:06;48;-107;107
2023-07-03 07:47:02;48;-108;108
2023-07-03 07:48:03;48;-108;108
2023-07-03 07:49:04;48;-108;108
2023-07-03 07:50:05;48;-108;108
2023-07-03 07:51:05;48;-108;108
2023-07-03 07:52:02;48;-108;108
2023-07-03 07:53:03;48;-107;107
2023-07-03 07:54:04;48;-108;108
2023-07-03 07:55:04;48;-108;108
2023-07-03 07:56:05;48;-108;108
2023-07-03 07:57:02;48;-108;108
2023-07-03 07:58:03;48;-108;108
2023-07-03 07:59:04;48;-108;108
2023-07-03 08:00:04;48;-108;108
2023-07-03 08:01:05;48;-108;108
2023-07-03 08:02:06;48;-108;108
2023-07-03 08:03:03;48;-108;108
2023-07-03 08:04:03;48;-108;108
2023-07-03 08:05:04;48;-108;108
2023-07-03 08:06:05;48;-108;108
2023-07-03 08:07:06;48;-108;108
2023-07-03 08:08:02;48;-108;108
2023-07-03 08:09:03;48;-107;107
2023-07-03 08:10:04;48;-108;108
2023-07-03 08:11:05;48;-108;108
2023-07-03 08:12:06;48;-108;108
2023-07-03 08:13:02;48;-108;108
2023-07-03 08:14:03;48;-108;108
2023-07-03 08:15:04;48;-108;108
2023-07-03 08:16:05;48;-108;108
2023-07-03 08:17:06;48;-108;108
2023-07-03 08:18:02;48;-108;108
2023-07-03 08:19:03;48;-108;108
2023-07-03 08:20:04;48;-107;107
2023-07-03 08:21:05;48;-108;108
2023-07-03 08:22:06;48;-107;107
2023-07-03 08:23:02;48;-108;108
2023-07-03 08:24:03;48;-107;107
2023-07-03 08:25:04;48;-108;108
2023-07-03 08:26:05;48;-108;108
2023-07-03 08:27:06;48;-108;108
2023-07-03 08:28:02;48;-107;107
2023-07-03 08:29:03;48;-108;108
2023-07-03 08:30:04;48;-108;108
2023-07-03 08:31:05;48;-108;108
2023-07-03 08:32:06;48;-107;107
2023-07-03 08:33:02;48;-107;107
2023-07-03 08:34:03;48;-107;107
2023-07-03 08:35:04;48;-107;107
2023-07-03 08:36:11;48;-108;108
2023-07-03 08:37:16;48;-108;108
2023-07-03 08:38:04;48;-108;108
2023-07-03 08:39:05;48;-107;107
2023-07-03 08:40:06;48;-108;108
2023-07-03 08:41:02;48;-107;107
2023-07-03 08:42:03;48;-108;108
2023-07-03 08:43:04;48;-108;108
2023-07-03 08:44:05;48;-108;108
2023-07-03 08:45:05;48;-108;108
2023-07-03 08:46:02;48;-108;108
2023-07-03 08:47:03;48;-108;108
2023-07-03 08:48:04;48;-108;108
2023-07-03 08:49:05;48;-108;108
2023-07-03 08:50:05;48;-108;108
2023-07-03 08:51:02;48;-108;108
2023-07-03 08:52:03;48;-107;107
2023-07-03 08:53:04;48;-108;108
2023-07-03 08:54:04;48;-108;108
2023-07-03 08:55:05;48;-108;108
2023-07-03 08:56:02;48;-108;108
2023-07-03 08:57:03;48;-108;108
2023-07-03 08:58:04;48;-108;108
2023-07-03 08:59:04;48;-108;108
2023-07-03 09:00:05;48;-107;107
2023-07-03 09:01:06;48;-108;108
2023-07-03 09:02:03;48;-108;108
2023-07-03 09:03:03;48;-108;108
2023-07-03 09:04:04;48;-108;108
2023-07-03 09:05:05;48;-108;108
2023-07-03 09:06:06;48;-107;107
2023-07-03 09:07:03;48;-107;107
2023-07-03 09:08:03;48;-108;108
2023-07-03 09:09:04;48;-108;108
2023-07-03 09:10:05;48;-108;108
2023-07-03 09:11:06;48;-108;108
2023-07-03 09:12:02;48;-108;108
2023-07-03 09:13:03;48;-108;108
2023-07-03 09:14:04;48;-108;108
2023-07-03 09:15:05;48;-108;108
2023-07-03 09:16:06;48;-108;108
2023-07-03 09:17:02;48;-108;108
2023-07-03 09:18:03;48;-108;108
2023-07-03 09:19:04;48;-108;108
2023-07-03 09:20:05;48;-108;108
2023-07-03 09:21:06;48;-108;108
2023-07-03 09:22:02;48;-108;108
2023-07-03 09:23:03;48;-108;108
2023-07-03 09:24:04;48;-108;108
2023-07-03 09:25:05;48;-108;108
2023-07-03 09:26:06;48;-108;108
2023-07-03 09:27:02;48;-108;108
2023-07-03 09:28:03;48;-108;108
2023-07-03 09:29:04;48;-107;107
2023-07-03 09:30:05;48;-108;108
2023-07-03 09:31:06;48;-108;108
2023-07-03 09:32:02;48;-108;108
2023-07-03 09:33:03;48;-108;108
2023-07-03 09:34:04;48;-108;108
2023-07-03 09:35:05;48;-108;108
2023-07-03 09:36:06;48;-108;108
2023-07-03 09:37:02;48;-107;107
2023-07-03 09:38:03;48;-108;108
2023-07-03 09:39:04;48;-108;108
2023-07-03 09:40:05;48;-108;108
2023-07-03 09:41:06;48;-108;108
2023-07-03 09:42:02;48;-108;108
2023-07-03 09:43:03;48;-108;108
2023-07-03 09:44:04;48;-107;107
2023-07-03 09:45:05;48;-108;108
2023-07-03 09:46:06;48;-108;108
2023-07-03 09:47:02;48;-108;108
2023-07-03 09:48:03;48;-108;108
2023-07-03 09:49:04;48;-108;108
2023-07-03 09:50:05;48;-108;108
2023-07-03 09:51:06;48;-108;108
2023-07-03 09:52:02;48;-108;108
2023-07-03 09:53:03;48;-108;108
2023-07-03 09:54:04;48;-108;108
2023-07-03 09:55:05;48;-108;108
2023-07-03 09:56:06;48;-108;108
2023-07-03 09:57:02;48;-108;108
2023-07-03 09:58:03;48;-108;108
2023-07-03 09:59:04;48;-108;108
2023-07-03 10:00:05;48;-108;108
2023-07-03 10:01:06;48;-108;108
2023-07-03 10:02:02;48;-108;108
2023-07-03 10:03:03;48;-108;108
2023-07-03 10:04:04;48;-108;108
2023-07-03 10:05:05;48;-108;108
2023-07-03 10:06:06;48;-108;108
2023-07-03 10:07:02;48;-108;108
2023-07-03 10:08:03;48;-108;108
2023-07-03 10:09:04;48;-108;108
2023-07-03 10:10:05;48;-108;108
2023-07-03 10:11:06;48;-108;108
2023-07-03 10:12:02;48;-108;108
2023-07-03 10:13:03;48;-108;108
2023-07-03 10:14:04;48;-108;108
2023-07-03 10:15:05;48;-108;108
2023-07-03 10:16:06;48;-108;108
2023-07-03 10:17:02;48;-108;108
2023-07-03 10:18:03;48;-108;108
2023-07-03 10:19:04;48;-108;108
2023-07-03 10:20:05;48;-108;108
2023-07-03 10:21:06;48;-108;108
2023-07-03 10:22:02;48;-108;108
2023-07-03 10:23:03;48;-108;108
2023-07-03 10:24:04;48;-108;108
2023-07-03 10:25:05;48;-108;108
2023-07-03 10:26:05;48;-108;108
2023-07-03 10:27:02;48;-108;108
2023-07-03 10:28:03;48;-108;108
2023-07-03 10:29:04;48;-108;108
2023-07-03 10:30:05;48;-108;108
2023-07-03 10:31:05;48;-107;107
2023-07-03 10:32:02;48;-108;108
2023-07-03 10:33:03;48;-108;108
2023-07-03 10:34:04;48;-107;107
2023-07-03 10:35:05;48;-107;107
2023-07-03 10:36:05;48;-108;108
2023-07-03 10:37:02;48;-107;107
2023-07-03 10:38:03;48;-108;108
2023-07-03 10:39:04;48;-108;108
2023-07-03 10:40:05;48;-108;108
2023-07-03 10:41:05;48;-108;108
2023-07-03 10:42:02;48;-107;107
2023-07-03 10:43:03;48;-108;108
2023-07-03 10:44:04;48;-108;108
2023-07-03 10:45:05;48;-108;108
2023-07-03 10:46:05;48;-108;108
2023-07-03 10:47:02;48;-108;108
2023-07-03 10:48:03;48;-108;108
2023-07-03 10:49:04;48;-108;108
2023-07-03 10:50:05;48;-108;108
2023-07-03 10:51:05;48;-108;108
2023-07-03 10:52:02;48;-108;108
2023-07-03 10:53:03;48;-108;108
2023-07-03 10:54:04;48;-108;108
2023-07-03 10:55:05;48;-108;108
2023-07-03 10:56:05;48;-108;108
2023-07-03 10:57:02;48;-108;108
2023-07-03 10:58:03;48;-108;108
2023-07-03 10:59:04;48;-108;108
2023-07-03 11:00:05;48;-108;108
2023-07-03 11:01:05;48;-108;108
2023-07-03 11:02:02;48;-108;108
2023-07-03 11:03:03;48;-108;108
2023-07-03 11:04:04;48;-108;108
2023-07-03 11:05:05;48;-108;108
2023-07-03 11:06:06;48;-108;108
2023-07-03 11:07:02;48;-108;108
2023-07-03 11:08:03;48;-107;107
2023-07-03 11:09:04;48;-108;108
2023-07-03 11:10:05;48;-108;108
2023-07-03 11:11:06;48;-108;108
2023-07-03 11:12:02;48;-108;108
2023-07-03 11:13:03;48;-108;108
2023-07-03 11:14:04;48;-108;108
2023-07-03 11:15:05;48;-108;108
2023-07-03 11:16:06;48;-108;108
2023-07-03 11:17:02;48;-108;108
2023-07-03 11:18:03;48;-108;108
2023-07-03 11:19:04;48;-108;108
2023-07-03 11:20:05;48;-108;108
2023-07-03 11:21:06;48;-108;108
2023-07-03 11:22:02;48;-108;108
2023-07-03 11:23:03;48;-108;108
2023-07-03 11:24:04;48;-108;108
2023-07-03 11:25:05;48;-108;108
2023-07-03 11:26:06;48;-108;108
2023-07-03 11:27:02;48;-108;108
2023-07-03 11:28:03;47;-108;108
2023-07-03 11:29:04;48;-108;108
2023-07-03 11:30:05;48;-108;108
2023-07-03 11:31:06;48;-108;108
2023-07-03 11:32:02;48;-108;108
2023-07-03 11:33:03;48;-107;107
2023-07-03 11:34:04;48;-108;108
2023-07-03 11:35:05;48;-108;108
2023-07-03 11:36:06;48;-108;108
2023-07-03 11:37:02;48;-108;108
2023-07-03 11:38:03;48;-107;107
2023-07-03 11:39:04;48;-108;108
2023-07-03 11:40:05;48;-108;108
2023-07-03 11:41:06;48;-108;108
2023-07-03 11:42:02;48;-108;108
2023-07-03 11:43:03;48;-108;108
2023-07-03 11:44:04;48;-108;108
2023-07-03 11:45:05;48;-108;108
2023-07-03 11:46:06;48;-108;108
2023-07-03 11:47:02;48;-108;108
2023-07-03 11:48:03;48;-108;108
2023-07-03 11:49:04;48;-108;108
2023-07-03 11:50:05;48;-108;108
2023-07-03 11:51:06;48;-108;108
2023-07-03 11:52:02;48;-108;108
2023-07-03 11:53:03;48;-108;108
2023-07-03 11:54:04;48;-108;108
2023-07-03 11:55:05;48;-108;108
2023-07-03 11:56:06;48;-108;108
2023-07-03 11:57:02;48;-107;107
2023-07-03 11:58:03;48;-108;108
2023-07-03 11:59:04;48;-108;108
2023-07-03 12:00:05;48;-108;108
2023-07-03 12:01:06;48;-107;107
2023-07-03 12:02:02;48;-108;108
2023-07-03 12:03:03;48;-108;108
2023-07-03 12:04:04;48;-108;108
2023-07-03 12:05:05;48;-108;108
2023-07-03 12:06:06;48;-108;108
2023-07-03 12:07:02;48;-108;108
2023-07-03 12:08:03;48;-108;108
2023-07-03 12:09:04;48;-108;108
2023-07-03 12:10:05;48;-108;108
2023-07-03 12:11:06;48;-108;108
2023-07-03 12:12:02;48;-108;108
2023-07-03 12:13:03;48;-108;108
2023-07-03 12:14:04;48;-108;108
2023-07-03 12:15:05;48;-108;108
2023-07-03 12:16:06;48;-108;108
2023-07-03 12:17:02;48;-108;108
2023-07-03 12:18:03;48;-108;108
2023-07-03 12:19:04;48;-108;108
2023-07-03 12:20:05;48;-108;108
2023-07-03 12:21:06;48;-108;108
2023-07-03 12:22:02;48;-108;108
2023-07-03 12:23:03;48;-108;108
2023-07-03 12:24:04;48;-108;108
2023-07-03 12:25:05;48;-108;108
2023-07-03 12:26:06;48;-108;108
2023-07-03 12:27:03;48;-108;108
2023-07-03 12:28:03;48;-108;108
2023-07-03 12:29:04;48;-108;108
2023-07-03 12:30:05;48;-108;108
2023-07-03 12:31:06;48;-108;108
2023-07-03 12:32:03;47;-108;108
2023-07-03 12:33:04;48;-108;108
2023-07-03 12:34:04;48;-108;108
2023-07-03 12:35:05;48;-108;108
2023-07-03 12:36:02;48;-108;108
2023-07-03 12:37:03;48;-107;107
2023-07-03 12:38:04;48;-108;108
2023-07-03 12:39:05;48;-108;108
2023-07-03 12:40:06;48;-108;108
2023-07-03 12:41:02;48;-108;108
2023-07-03 12:42:03;48;-108;108
2023-07-03 12:43:04;48;-108;108
2023-07-03 12:44:05;48;-108;108
2023-07-03 12:45:06;48;-108;108
2023-07-03 12:46:02;48;-108;108
2023-07-03 12:47:03;48;-108;108
2023-07-03 12:48:04;48;-108;108
2023-07-03 12:49:05;48;-108;108
2023-07-03 12:50:06;48;-108;108
2023-07-03 12:51:02;48;-108;108
2023-07-03 12:52:03;48;-108;108
2023-07-03 12:53:04;48;-108;108
2023-07-03 12:54:05;48;-108;108
2023-07-03 12:55:06;48;-108;108
2023-07-03 12:56:02;48;-108;108
2023-07-03 12:57:03;48;-108;108
2023-07-03 12:58:04;48;-108;108
2023-07-03 12:59:05;48;-108;108
2023-07-03 13:00:06;48;-108;108
2023-07-03 13:01:02;48;-108;108
2023-07-03 13:02:03;48;-108;108
2023-07-03 13:03:04;48;-108;108
2023-07-03 13:04:05;47;-108;108
2023-07-03 13:05:06;48;-108;108
2023-07-03 13:06:02;48;-108;108
2023-07-03 13:07:03;48;-108;108
2023-07-03 13:08:04;48;-108;108
2023-07-03 13:09:05;48;-108;108
2023-07-03 13:10:06;48;-109;109
2023-07-03 13:11:03;48;-108;108
2023-07-03 13:12:03;48;-108;108
2023-07-03 13:13:04;48;-108;108
2023-07-03 13:14:05;48;-108;108
2023-07-03 13:15:06;48;-108;108
2023-07-03 13:16:03;48;-108;108
2023-07-03 13:17:04;48;-108;108
2023-07-03 13:18:04;48;-108;108
2023-07-03 13:19:05;47;-108;108
2023-07-03 13:20:02;48;-108;108
2023-07-03 13:21:03;48;-108;108
2023-07-03 13:22:04;48;-108;108
2023-07-03 13:23:05;48;-108;108
2023-07-03 13:24:05;48;-108;108
2023-07-03 13:25:02;48;-108;108
2023-07-03 13:26:03;48;-108;108
2023-07-03 13:27:04;48;-108;108
2023-07-03 13:28:05;48;-108;108
2023-07-03 13:29:06;48;-108;108
2023-07-03 13:30:02;48;-108;108
2023-07-03 13:31:03;48;-108;108
2023-07-03 13:32:04;48;-108;108
2023-07-03 13:33:05;48;-108;108
2023-07-03 13:34:06;48;-108;108
2023-07-03 13:35:02;48;-108;108
2023-07-03 13:36:03;47;-108;108
2023-07-03 13:37:04;48;-108;108
2023-07-03 13:38:05;48;-108;108
2023-07-03 13:39:06;48;-108;108
2023-07-03 13:40:02;48;-108;108
2023-07-03 13:41:03;48;-108;108
2023-07-03 13:42:04;48;-108;108
2023-07-03 13:43:05;48;-108;108
2023-07-03 13:44:06;48;-108;108
2023-07-03 13:45:02;48;-108;108
2023-07-03 13:46:03;48;-108;108
2023-07-03 13:47:04;48;-108;108
2023-07-03 13:48:05;48;-108;108
2023-07-03 13:49:06;48;-108;108
2023-07-03 13:50:02;48;-108;108
2023-07-03 13:51:03;48;-108;108
2023-07-03 13:52:04;48;-108;108
2023-07-03 13:53:05;48;-108;108
2023-07-03 13:54:06;48;-108;108
2023-07-03 13:55:02;48;-108;108
2023-07-03 13:56:03;48;-108;108
2023-07-03 13:57:04;47;-108;108
2023-07-03 13:58:05;48;-108;108
2023-07-03 13:59:06;48;-108;108
2023-07-03 14:00:02;48;-108;108
2023-07-03 14:01:03;48;-108;108
2023-07-03 14:02:04;48;-108;108
2023-07-03 14:03:05;48;-108;108
2023-07-03 14:04:06;48;-108;108
2023-07-03 14:05:02;48;-108;108
2023-07-03 14:06:03;48;-108;108
2023-07-03 14:07:04;48;-108;108
2023-07-03 14:08:05;47;-108;108
2023-07-03 14:09:06;48;-108;108
2023-07-03 14:10:03;48;-108;108
2023-07-03 14:11:03;48;-108;108
2023-07-03 14:12:04;48;-108;108
2023-07-03 14:13:05;48;-108;108
2023-07-03 14:14:06;48;-108;108
2023-07-03 14:15:03;48;-108;108
2023-07-03 14:16:04;48;-108;108
2023-07-03 14:17:04;48;-108;108
2023-07-03 14:18:05;48;-108;108
2023-07-03 14:19:02;48;-108;108
2023-07-03 14:20:03;48;-108;108
2023-07-03 14:21:04;48;-108;108
2023-07-03 14:22:05;48;-108;108
2023-07-03 14:23:05;48;-108;108
2023-07-03 14:24:02;47;-109;109
2023-07-03 14:25:03;48;-108;108
2023-07-03 14:26:04;48;-108;108
2023-07-03 14:27:05;48;-108;108
2023-07-03 14:28:06;47;-108;108
2023-07-03 14:29:02;48;-108;108
2023-07-03 14:30:03;48;-108;108
2023-07-03 14:31:04;48;-108;108
2023-07-03 14:32:05;47;-108;108
2023-07-03 14:33:06;48;-108;108
2023-07-03 14:34:02;48;-108;108
2023-07-03 14:35:03;47;-108;108
2023-07-03 14:36:04;48;-108;108
2023-07-03 14:37:05;48;-108;108
2023-07-03 14:38:06;48;-108;108
2023-07-03 14:39:02;48;-108;108
2023-07-03 14:40:03;48;-108;108
2023-07-03 14:41:04;48;-108;108
2023-07-03 14:42:05;48;-108;108
2023-07-03 14:43:06;47;-108;108
2023-07-03 14:44:02;48;-108;108
2023-07-03 14:45:03;48;-108;108
2023-07-03 14:46:04;48;-108;108
2023-07-03 14:47:05;48;-108;108
2023-07-03 14:48:06;48;-108;108
2023-07-03 14:49:02;47;-108;108
2023-07-03 14:50:03;48;-108;108
2023-07-03 14:51:04;48;-108;108
2023-07-03 14:52:05;48;-108;108
2023-07-03 14:53:06;48;-108;108
2023-07-03 14:54:02;48;-108;108
2023-07-03 14:55:03;48;-108;108
2023-07-03 14:56:04;48;-108;108
2023-07-03 14:57:05;48;-108;108
2023-07-03 14:58:06;48;-108;108
2023-07-03 14:59:02;48;-108;108
2023-07-03 15:00:03;47;-108;108
2023-07-03 15:01:04;48;-108;108
2023-07-03 15:02:05;48;-108;108
2023-07-03 15:03:06;48;-108;108
2023-07-03 15:04:02;48;-108;108
2023-07-03 15:05:03;48;-108;108
2023-07-03 15:06:04;47;-108;108
2023-07-03 15:07:05;48;-108;108
2023-07-03 15:08:06;48;-108;108
2023-07-03 15:09:03;48;-108;108
2023-07-03 15:10:03;47;-108;108
2023-07-03 15:11:04;48;-108;108
2023-07-03 15:12:05;48;-108;108
2023-07-03 15:13:06;48;-108;108
2023-07-03 15:14:03;48;-108;108
2023-07-03 15:15:04;48;-108;108
2023-07-03 15:16:04;47;-108;108
2023-07-03 15:17:05;48;-108;108
2023-07-03 15:18:02;47;-108;108
2023-07-03 15:19:03;47;-108;108
2023-07-03 15:20:04;48;-108;108
2023-07-03 15:21:05;48;-108;108
2023-07-03 15:22:05;48;-108;108
2023-07-03 15:23:02;48;-108;108
2023-07-03 15:24:03;48;-108;108
2023-07-03 15:25:04;48;-108;108
2023-07-03 15:26:05;48;-108;108
2023-07-03 15:27:06;48;-108;108
2023-07-03 15:28:02;48;-108;108
2023-07-03 15:29:03;48;-108;108
2023-07-03 15:30:04;48;-108;108
2023-07-03 15:31:05;48;-108;108
2023-07-03 15:32:06;48;-108;108
2023-07-03 15:33:02;48;-108;108
2023-07-03 15:34:03;47;-108;108
2023-07-03 15:35:04;48;-108;108
2023-07-03 15:36:05;48;-108;108
2023-07-03 15:37:06;48;-108;108
2023-07-03 15:38:02;48;-108;108
2023-07-03 15:39:03;47;-108;108
2023-07-03 15:40:04;48;-108;108
2023-07-03 15:41:05;48;-108;108
2023-07-03 15:42:06;48;-108;108
2023-07-03 15:43:02;48;-108;108
2023-07-03 15:44:03;48;-108;108
2023-07-03 15:45:04;48;-108;108
2023-07-03 15:46:05;48;-108;108
2023-07-03 15:47:06;48;-108;108
2023-07-03 15:48:03;48;-108;108
2023-07-03 15:49:03;48;-108;108
2023-07-03 15:50:04;47;-108;108
2023-07-03 15:51:05;48;-108;108
2023-07-03 15:52:02;48;-108;108
2023-07-03 15:53:03;47;-108;108
2023-07-03 15:54:04;48;-108;108
2023-07-03 15:55:05;47;-108;108
2023-07-03 15:56:06;48;-108;108
2023-07-03 15:57:02;48;-108;108
2023-07-03 15:58:03;48;-108;108
2023-07-03 15:59:04;48;-108;108
2023-07-03 16:00:05;47;-108;108
2023-07-03 16:01:06;48;-108;108
2023-07-03 16:02:02;48;-108;108
2023-07-03 16:03:03;47;-108;108
2023-07-03 16:04:04;47;-108;108
2023-07-03 16:05:05;47;-108;108
2023-07-03 16:06:06;48;-108;108
2023-07-03 16:07:02;48;-108;108
2023-07-03 16:08:03;47;-108;108
2023-07-03 16:09:04;48;-108;108
2023-07-03 16:10:05;48;-108;108
2023-07-03 16:11:06;47;-108;108
2023-07-03 16:12:03;48;-108;108
2023-07-03 16:13:03;48;-108;108
2023-07-03 16:14:04;48;-108;108
2023-07-03 16:15:05;48;-108;108
2023-07-03 16:16:02;48;-108;108
2023-07-03 16:17:03;48;-108;108
2023-07-03 16:18:04;47;-108;108
2023-07-03 16:19:05;48;-108;108
2023-07-03 16:20:06;48;-108;108
2023-07-03 16:21:02;48;-108;108
2023-07-03 16:22:03;48;-108;108
2023-07-03 16:23:04;48;-108;108
2023-07-03 16:24:05;47;-108;108
2023-07-03 16:25:06;48;-108;108
2023-07-03 16:26:02;48;-108;108
2023-07-03 16:27:03;47;-108;108
2023-07-03 16:28:04;47;-108;108
2023-07-03 16:29:05;48;-108;108
2023-07-03 16:30:06;48;-108;108
2023-07-03 16:31:02;48;-108;108
2023-07-03 16:32:03;47;-108;108
2023-07-03 16:33:04;48;-108;108
#EQ-Puntano; time; bat; cm; cmca: 2023-07-03 16:42:33;47;-104;104
2023-07-03 16:43:02;48;-108;108
2023-07-03 16:44:03;48;-108;108
2023-07-03 16:45:04;48;-108;108
2023-07-03 16:46:05;48;-108;108
2023-07-03 16:47:06;48;-108;108
2023-07-03 16:48:02;48;-108;108
2023-07-03 16:49:03;48;-108;108
2023-07-03 16:50:04;48;-108;108
2023-07-03 16:51:05;48;-108;108
2023-07-03 16:52:06;48;-108;108
2023-07-03 16:53:03;48;-108;108
2023-07-03 16:54:04;48;-108;108
2023-07-03 16:55:04;48;-108;108
2023-07-03 16:56:05;48;-108;108
2023-07-03 16:57:02;48;-108;108
2023-07-03 16:58:03;48;-108;108
2023-07-03 16:59:04;48;-108;108
2023-07-03 17:00:05;48;-108;108
2023-07-03 17:01:06;48;-108;108
2023-07-03 17:02:02;48;-108;108
2023-07-03 17:03:03;48;-108;108
2023-07-03 17:04:04;48;-108;108
2023-07-03 17:05:05;48;-108;108
2023-07-03 17:06:06;48;-108;108
2023-07-03 17:07:02;47;-108;108
2023-07-03 17:08:03;48;-108;108
2023-07-03 17:09:04;48;-108;108
2023-07-03 17:10:05;48;-108;108
2023-07-03 17:11:06;48;-108;108
2023-07-03 17:12:03;47;-108;108
2023-07-03 17:13:03;48;-108;108
2023-07-03 17:14:04;48;-108;108
2023-07-03 17:15:05;47;-108;108
2023-07-03 17:16:02;48;-108;108
2023-07-03 17:17:03;47;-108;108
2023-07-03 17:18:04;47;-108;108
2023-07-03 17:19:05;48;-108;108
2023-07-03 17:20:06;48;-108;108
2023-07-03 17:21:02;48;-108;108
2023-07-03 17:22:03;48;-108;108
2023-07-03 17:23:04;48;-108;108
2023-07-03 17:24:05;48;-108;108
2023-07-03 17:25:06;48;-108;108
2023-07-03 17:26:02;48;-108;108
2023-07-03 17:27:03;48;-108;108
2023-07-03 17:28:04;48;-108;108
2023-07-03 17:29:05;48;-108;108
2023-07-03 17:30:06;47;-108;108
2023-07-03 17:31:02;47;-108;108
2023-07-03 17:32:03;48;-108;108
2023-07-03 17:33:04;47;-108;108
2023-07-03 17:34:05;48;-108;108
2023-07-03 17:35:06;48;-108;108
2023-07-03 17:36:03;48;-108;108
2023-07-03 17:37:04;48;-108;108
2023-07-03 17:38:05;48;-108;108
2023-07-03 17:39:06;48;-108;108
2023-07-03 17:40:02;47;-108;108
#EQ-Puntano; time; bat; cm; cmca: 2023-07-03 17:44:18;48;-104;104
#EQ-Puntano; time; bat; cm; cmca: 2023-07-03 17:46:12;48;-104;104
2023-07-03 17:47:04;48;-108;108
2023-07-03 17:48:05;47;-108;108
2023-07-03 17:49:02;47;-108;108
2023-07-03 17:50:03;48;-108;108
2023-07-03 17:51:04;48;-108;108
2023-07-03 17:52:05;47;-108;108
2023-07-03 17:53:06;48;-108;108
2023-07-03 17:54:02;48;-108;108
2023-07-03 17:55:03;48;-108;108
2023-07-03 17:56:04;48;-108;108
2023-07-03 17:57:05;48;-108;108
2023-07-03 17:58:06;48;-108;108
2023-07-03 17:59:03;48;-108;108
2023-07-03 18:00:04;47;-108;108
2023-07-03 18:01:05;48;-108;108
2023-07-03 18:02:06;48;-108;108
2023-07-03 18:03:02;48;-108;108
2023-07-03 18:04:03;48;-108;108
2023-07-03 18:05:04;48;-108;108
2023-07-03 18:06:05;48;-108;108
2023-07-03 18:07:06;48;-108;108
2023-07-03 18:08:03;48;-108;108
2023-07-03 18:09:04;48;-108;108
2023-07-03 18:10:05;48;-108;108
2023-07-03 18:11:06;48;-108;108
2023-07-03 18:12:02;48;-108;108
2023-07-03 18:13:03;48;-108;108
2023-07-03 18:14:04;48;-108;108
2023-07-03 18:15:05;48;-108;108
2023-07-03 18:16:06;48;-108;108
2023-07-03 18:17:02;48;-108;108
2023-07-03 18:18:03;48;-108;108
2023-07-03 18:19:04;47;-108;108
2023-07-03 18:20:05;48;-108;108
2023-07-03 18:21:02;48;-108;108
2023-07-03 18:22:03;48;-108;108
2023-07-03 18:23:04;48;-108;108
2023-07-03 18:24:05;48;-108;108
2023-07-03 18:25:06;48;-108;108
2023-07-03 18:26:02;48;-108;108
2023-07-03 18:27:03;48;-108;108
2023-07-03 18:28:04;47;-108;108
2023-07-03 18:29:05;48;-108;108
2023-07-03 18:30:06;48;-108;108
2023-07-03 18:31:03;48;-108;108
2023-07-03 18:32:04;47;-108;108
2023-07-03 18:33:05;48;-108;108
2023-07-03 18:34:06;47;-108;108
2023-07-03 18:35:02;47;-108;108
2023-07-03 18:36:03;48;-108;108
2023-07-03 18:37:04;47;-108;108
2023-07-03 18:38:05;47;-108;108
2023-07-03 18:39:06;48;-107;107
2023-07-03 18:40:02;48;-108;108
2023-07-03 18:41:03;48;-108;108
2023-07-03 18:42:04;48;-108;108
2023-07-03 18:43:05;48;-108;108
2023-07-03 18:44:06;48;-108;108
2023-07-03 18:45:03;48;-108;108
2023-07-03 18:46:04;47;-108;108
2023-07-03 18:47:05;48;-108;108
2023-07-03 18:48:06;47;-108;108
2023-07-03 18:49:02;48;-108;108
2023-07-03 18:50:03;47;-108;108
2023-07-03 18:51:04;48;-108;108
2023-07-03 18:52:05;48;-108;108
2023-07-03 18:53:06;48;-108;108
2023-07-03 18:54:02;48;-107;107
2023-07-03 18:55:03;48;-108;108
2023-07-03 18:56:04;47;-108;108
2023-07-03 18:57:05;47;-108;108
2023-07-03 18:58:02;47;-108;108
2023-07-03 18:59:03;48;-108;108
2023-07-03 19:00:04;48;-108;108
2023-07-03 19:01:05;48;-107;107
2023-07-03 19:02:06;47;-108;108
2023-07-03 19:03:02;48;-108;108
2023-07-03 19:04:03;48;-108;108
2023-07-03 19:05:04;47;-108;108
2023-07-03 19:06:05;48;-108;108
2023-07-03 19:07:06;48;-108;108
2023-07-03 19:08:03;47;-107;107
2023-07-03 19:09:04;48;-107;107
2023-07-03 19:10:05;47;-107;107
2023-07-03 19:11:06;47;-107;107
2023-07-03 19:12:02;48;-107;107
2023-07-03 19:13:03;48;-108;108
2023-07-03 19:14:04;48;-107;107
2023-07-03 19:15:05;48;-107;107
2023-07-03 19:16:06;48;-107;107
2023-07-03 19:17:02;48;-107;107
2023-07-03 19:18:03;48;-107;107
2023-07-03 19:19:04;47;-107;107
2023-07-03 19:20:05;48;-107;107
2023-07-03 19:21:06;48;-107;107
2023-07-03 19:22:03;48;-107;107
2023-07-03 19:23:04;48;-107;107
2023-07-03 19:24:05;47;-107;107
2023-07-03 19:25:06;48;-107;107
2023-07-03 19:26:02;47;-107;107
2023-07-03 19:27:03;47;-107;107
2023-07-03 19:28:04;48;-108;108
2023-07-03 19:29:05;47;-107;107
2023-07-03 19:30:06;47;-107;107
2023-07-03 19:31:03;48;-107;107
2023-07-03 19:32:03;48;-107;107
2023-07-03 19:33:04;48;-107;107
2023-07-03 19:34:05;48;-107;107
2023-07-03 19:35:02;47;-107;107
2023-07-03 19:36:03;48;-107;107
2023-07-03 19:37:04;48;-107;107
2023-07-03 19:38:05;48;-107;107
2023-07-03 19:39:06;47;-107;107
2023-07-03 19:40:02;48;-107;107
2023-07-03 19:41:03;48;-107;107
2023-07-03 19:42:04;48;-107;107
2023-07-03 19:43:05;48;-107;107
2023-07-03 19:44:06;48;-107;107
2023-07-03 19:45:03;48;-107;107
2023-07-03 19:46:04;48;-107;107
2023-07-03 19:47:05;48;-107;107
2023-07-03 19:48:05;48;-107;107
2023-07-03 19:49:02;48;-107;107
2023-07-03 19:50:03;48;-107;107
2023-07-03 19:51:04;48;-107;107
2023-07-03 19:52:05;48;-108;108
2023-07-03 19:53:06;48;-107;107
2023-07-03 19:54:02;48;-107;107
2023-07-03 19:55:03;48;-107;107
2023-07-03 19:56:04;47;-107;107
2023-07-03 19:57:05;47;-107;107
2023-07-03 19:58:06;48;-107;107
2023-07-03 19:59:03;48;-107;107
2023-07-03 20:00:04;48;-107;107
2023-07-03 20:01:05;47;-107;107
2023-07-03 20:02:06;48;-107;107
2023-07-03 20:03:02;48;-107;107
2023-07-03 20:04:03;48;-107;107
2023-07-03 20:05:04;48;-107;107
2023-07-03 20:06:05;47;-107;107
2023-07-03 20:07:06;48;-107;107
2023-07-03 20:08:02;48;-107;107
2023-07-03 20:09:03;47;-107;107
2023-07-03 20:10:04;47;-107;107
2023-07-03 20:11:05;48;-107;107
2023-07-03 20:12:06;48;-108;108
2023-07-03 20:13:03;48;-107;107
2023-07-03 20:14:04;48;-107;107
2023-07-03 20:15:05;47;-107;107
2023-07-03 20:16:06;47;-107;107
2023-07-03 20:17:02;48;-107;107
2023-07-03 20:18:03;48;-107;107
2023-07-03 20:19:04;48;-107;107
2023-07-03 20:20:05;47;-107;107
2023-07-03 20:21:06;47;-107;107
2023-07-03 20:22:02;48;-107;107
2023-07-03 20:23:03;47;-107;107
2023-07-03 20:24:04;48;-107;107
2023-07-03 20:25:05;48;-107;107
2023-07-03 20:26:06;47;-107;107
2023-07-03 20:27:03;48;-107;107
2023-07-03 20:28:04;47;-107;107
2023-07-03 20:29:05;48;-107;107
2023-07-03 20:30:06;48;-107;107
2023-07-03 20:31:02;47;-107;107
2023-07-03 20:32:03;47;-108;108
2023-07-03 20:33:04;48;-107;107
2023-07-03 20:34:05;48;-107;107
2023-07-03 20:35:06;47;-107;107
2023-07-03 20:36:02;47;-107;107
2023-07-03 20:37:03;48;-107;107
2023-07-03 20:38:04;47;-107;107
2023-07-03 20:39:05;48;-107;107
2023-07-03 20:40:06;47;-107;107
2023-07-03 20:41:03;48;-107;107
2023-07-03 20:42:04;48;-107;107
2023-07-03 20:43:05;48;-107;107
2023-07-03 20:44:06;48;-107;107
2023-07-03 20:45:02;47;-107;107
2023-07-03 20:46:03;48;-107;107
2023-07-03 20:47:04;48;-107;107
2023-07-03 20:48:05;48;-107;107
2023-07-03 20:49:06;48;-107;107
2023-07-03 20:50:02;48;-107;107
2023-07-03 20:51:03;48;-107;107
2023-07-03 20:52:04;48;-107;107
2023-07-03 20:53:05;48;-107;107
2023-07-03 20:54:02;47;-107;107
2023-07-03 20:55:03;48;-107;107
2023-07-03 20:56:04;48;-107;107
2023-07-03 20:57:05;48;-107;107
2023-07-03 20:58:06;47;-107;107
2023-07-03 20:59:02;48;-107;107
2023-07-03 21:00:03;48;-107;107
2023-07-03 21:01:04;48;-107;107
2023-07-03 21:02:05;48;-107;107
2023-07-03 21:03:06;47;-107;107
2023-07-03 21:04:02;47;-107;107
2023-07-03 21:05:03;48;-107;107
2023-07-03 21:06:04;47;-107;107
2023-07-03 21:07:05;47;-107;107
2023-07-03 21:08:06;47;-107;107
2023-07-03 21:09:03;47;-107;107
2023-07-03 21:10:04;48;-107;107
2023-07-03 21:11:05;47;-107;107
2023-07-03 21:12:06;48;-107;107
2023-07-03 21:13:02;48;-107;107
2023-07-03 21:14:03;47;-107;107
2023-07-03 21:15:04;48;-107;107
2023-07-03 21:16:05;47;-107;107
2023-07-03 21:17:06;47;-107;107
2023-07-03 21:18:02;48;-107;107
2023-07-03 21:19:03;47;-107;107
2023-07-03 21:20:04;48;-107;107
2023-07-03 21:21:05;48;-107;107
2023-07-03 21:22:06;47;-107;107
2023-07-03 21:23:03;48;-107;107
2023-07-03 21:24:04;48;-107;107
2023-07-03 21:25:05;47;-107;107
2023-07-03 21:26:06;47;-107;107
2023-07-03 21:27:02;48;-107;107
2023-07-03 21:28:03;48;-107;107
2023-07-03 21:29:04;47;-107;107
2023-07-03 21:30:05;48;-107;107
2023-07-03 21:31:06;47;-107;107
2023-07-03 21:32:02;48;-107;107
2023-07-03 21:33:03;48;-107;107
2023-07-03 21:34:04;48;-107;107
2023-07-03 21:35:05;48;-107;107
2023-07-03 21:36:06;47;-107;107
2023-07-03 21:37:03;47;-107;107
2023-07-03 21:38:04;47;-107;107
2023-07-03 21:39:05;47;-107;107
2023-07-03 21:40:05;48;-107;107
2023-07-03 21:41:02;47;-108;108
2023-07-03 21:42:03;48;-107;107
2023-07-03 21:43:04;48;-107;107
2023-07-03 21:44:05;47;-107;107
2023-07-03 21:45:06;48;-107;107
2023-07-03 21:46:02;48;-107;107
2023-07-03 21:47:03;47;-107;107
2023-07-03 21:48:04;48;-107;107
2023-07-03 21:49:05;48;-107;107
2023-07-03 21:50:06;48;-107;107
2023-07-03 21:51:03;48;-107;107
2023-07-03 21:52:04;48;-107;107
2023-07-03 21:53:04;47;-107;107
2023-07-03 21:54:05;48;-107;107
2023-07-03 21:55:02;48;-107;107
2023-07-03 21:56:03;48;-107;107
2023-07-03 21:57:04;47;-107;107
2023-07-03 21:58:05;47;-107;107
2023-07-03 21:59:06;48;-107;107
2023-07-03 22:00:02;48;-107;107
2023-07-03 22:01:03;48;-107;107
2023-07-03 22:02:04;48;-107;107
2023-07-03 22:03:05;48;-107;107
2023-07-03 22:04:06;48;-107;107
2023-07-03 22:05:02;47;-107;107
2023-07-03 22:06:03;48;-107;107
2023-07-03 22:07:04;47;-107;107
2023-07-03 22:08:05;48;-107;107
2023-07-03 22:09:06;47;-107;107
2023-07-03 22:10:03;48;-107;107
2023-07-03 22:11:04;47;-107;107
2023-07-03 22:12:05;48;-107;107
2023-07-03 22:13:06;48;-107;107
2023-07-03 22:14:02;47;-107;107
2023-07-03 22:15:03;47;-107;107
2023-07-03 22:16:04;48;-106;106
2023-07-03 22:17:05;48;-107;107
2023-07-03 22:18:06;48;-107;107
2023-07-03 22:19:02;48;-107;107
2023-07-03 22:20:03;48;-107;107
2023-07-03 22:21:04;47;-107;107
2023-07-03 22:22:05;48;-107;107
2023-07-03 22:23:06;48;-107;107
2023-07-03 22:24:03;48;-107;107
2023-07-03 22:25:04;48;-107;107
2023-07-03 22:26:05;47;-107;107
2023-07-03 22:27:05;48;-107;107
2023-07-03 22:28:02;48;-107;107
2023-07-03 22:29:03;47;-107;107
2023-07-03 22:30:04;48;-107;107
2023-07-03 22:31:05;47;-107;107
2023-07-03 22:32:06;47;-107;107
2023-07-03 22:33:02;48;-107;107
2023-07-03 22:34:03;48;-107;107
2023-07-03 22:35:04;48;-107;107
2023-07-03 22:36:05;48;-107;107
2023-07-03 22:37:06;48;-107;107
2023-07-03 22:38:03;48;-107;107
2023-07-03 22:39:03;48;-107;107
2023-07-03 22:40:04;47;-107;107
2023-07-03 22:41:05;47;-107;107
2023-07-03 22:42:02;48;-107;107
2023-07-03 22:43:03;47;-107;107
2023-07-03 22:44:04;48;-107;107
2023-07-03 22:45:05;47;-107;107
2023-07-03 22:46:06;47;-106;106
2023-07-03 22:47:02;48;-107;107
2023-07-03 22:48:03;48;-107;107
2023-07-03 22:49:04;47;-107;107
2023-07-03 22:50:05;48;-107;107
2023-07-03 22:51:06;47;-107;107
2023-07-03 22:52:02;48;-107;107
2023-07-03 22:53:03;47;-107;107
2023-07-03 22:54:04;48;-107;107
2023-07-03 22:55:05;48;-107;107
2023-07-03 22:56:06;48;-107;107
2023-07-03 22:57:03;47;-107;107
2023-07-03 22:58:04;48;-107;107
2023-07-03 22:59:04;47;-107;107
2023-07-03 23:00:05;47;-107;107
2023-07-03 23:01:02;47;-107;107
2023-07-03 23:02:03;48;-107;107
2023-07-03 23:03:04;47;-107;107
2023-07-03 23:04:05;47;-107;107
2023-07-03 23:05:06;48;-107;107
2023-07-03 23:06:02;48;-107;107
2023-07-03 23:07:03;48;-107;107
2023-07-03 23:08:04;48;-107;107
2023-07-03 23:09:05;47;-107;107
2023-07-03 23:10:06;48;-107;107
2023-07-03 23:11:02;47;-107;107
2023-07-03 23:12:03;47;-107;107
2023-07-03 23:13:04;47;-106;106
2023-07-03 23:14:05;48;-107;107
2023-07-03 23:15:06;48;-107;107
2023-07-03 23:16:03;48;-107;107
2023-07-03 23:17:04;47;-107;107
2023-07-03 23:18:04;48;-107;107
2023-07-03 23:19:05;48;-107;107
2023-07-03 23:20:02;48;-107;107
2023-07-03 23:21:03;48;-107;107
2023-07-03 23:22:04;48;-107;107
2023-07-03 23:23:05;47;-107;107
2023-07-03 23:24:06;48;-107;107
2023-07-03 23:25:02;48;-107;107
2023-07-03 23:26:03;48;-107;107
2023-07-03 23:27:04;48;-107;107
2023-07-03 23:28:05;47;-107;107
2023-07-03 23:29:06;48;-107;107
2023-07-03 23:30:02;47;-107;107
2023-07-03 23:31:03;48;-107;107
2023-07-03 23:32:04;47;-107;107
2023-07-03 23:33:05;47;-107;107
2023-07-03 23:34:06;47;-107;107
2023-07-03 23:35:03;47;-107;107
2023-07-03 23:36:04;48;-107;107
2023-07-03 23:37:04;48;-107;107
2023-07-03 23:38:05;47;-107;107
2023-07-03 23:39:02;47;-107;107
2023-07-03 23:40:03;48;-107;107
2023-07-03 23:41:04;48;-107;107
2023-07-03 23:42:05;47;-107;107
2023-07-03 23:43:06;47;-107;107
2023-07-03 23:44:02;48;-106;106
2023-07-03 23:45:03;47;-107;107
2023-07-03 23:46:04;48;-107;107
2023-07-03 23:47:05;47;-107;107
2023-07-03 23:48:06;47;-107;107
2023-07-03 23:49:02;47;-107;107
2023-07-03 23:50:03;47;-107;107
2023-07-03 23:51:04;47;-107;107
2023-07-03 23:52:05;47;-107;107
2023-07-03 23:53:06;48;-107;107
2023-07-03 23:54:03;47;-107;107
2023-07-03 23:55:04;47;-107;107
2023-07-03 23:56:05;48;-107;107
2023-07-03 23:57:05;48;-107;107
2023-07-03 23:58:02;47;-107;107
2023-07-03 23:59:03;47;-107;107
