2023-12-01 00:03:08;85;799;1
2023-12-01 00:33:06;85;799;1
2023-12-01 01:03:04;84;798;2
2023-12-01 01:33:07;84;799;1
2023-12-01 02:03:04;84;799;1
2023-12-01 02:33:06;84;799;1
2023-12-01 03:03:03;83;798;2
2023-12-01 03:33:04;83;799;1
2023-12-01 04:03:06;83;798;2
2023-12-01 04:33:03;83;799;1
2023-12-01 05:03:05;82;798;2
2023-12-01 05:33:03;82;798;2
2023-12-01 06:03:05;81;798;2
2023-12-01 06:33:04;82;799;1
2023-12-01 07:03:08;82;799;1
2023-12-01 07:33:10;83;799;1
2023-12-01 08:03:09;85;799;1
2023-12-01 08:33:13;85;798;2
2023-12-01 09:03:14;85;799;1
2023-12-01 09:33:11;83;798;2
2023-12-01 10:03:16;85;799;1
2023-12-01 10:33:17;93;798;2
2023-12-01 11:03:19;93;798;2
2023-12-01 11:33:17;93;798;2
2023-12-01 12:03:20;94;799;1
2023-12-01 12:33:19;93;799;1
2023-12-01 13:03:18;93;799;1
2023-12-01 13:33:18;93;798;2
2023-12-01 14:03:19;84;799;1
2023-12-01 14:33:19;93;798;2
2023-12-01 15:03:20;94;799;1
2023-12-01 15:33:22;85;799;1
2023-12-01 16:03:16;86;798;2
2023-12-01 16:33:09;86;799;1
2023-12-01 17:03:05;86;799;1
2023-12-01 17:33:08;85;799;1
2023-12-01 18:03:05;85;799;1
2023-12-01 18:33:05;85;798;2
2023-12-01 19:03:05;85;799;1
2023-12-01 19:33:01;85;798;2
2023-12-01 20:03:06;84;799;1
2023-12-01 20:33:02;84;799;1
2023-12-01 21:03:02;84;799;1
2023-12-01 21:33:02;84;799;1
2023-12-01 22:03:02;84;799;1
2023-12-01 22:33:02;84;798;2
2023-12-01 23:03:01;84;799;1
2023-12-01 23:33:01;84;799;1
