2023-11-02 00:02:56;85;798;2
2023-11-02 00:32:58;85;799;1
2023-11-02 01:02:55;84;799;1
2023-11-02 01:32:58;84;798;2
2023-11-02 02:02:55;84;799;1
2023-11-02 02:32:57;84;799;1
2023-11-02 03:02:55;84;799;1
2023-11-02 03:32:57;84;798;2
2023-11-02 04:02:59;84;799;1
2023-11-02 04:32:57;84;799;1
2023-11-02 05:02:59;84;798;2
2023-11-02 05:32:57;84;799;1
2023-11-02 06:03:00;84;799;1
2023-11-02 06:32:58;84;799;1
2023-11-02 07:02:56;84;799;1
2023-11-02 07:32:58;84;799;1
2023-11-02 08:02:57;84;799;1
2023-11-02 08:32:59;84;799;1
2023-11-02 09:02:57;84;799;1
2023-11-02 09:32:55;84;798;2
2023-11-02 10:02:58;84;799;1
2023-11-02 10:32:56;84;799;1
2023-11-02 11:02:59;84;798;2
2023-11-02 11:32:57;85;799;1
2023-11-02 12:02:56;85;799;1
2023-11-02 12:32:58;86;799;1
2023-11-02 13:02:56;86;799;1
2023-11-02 13:32:58;86;799;1
2023-11-02 14:02:55;86;799;1
2023-11-02 14:32:57;86;799;1
2023-11-02 15:02:55;86;799;1
2023-11-02 15:32:58;86;799;1
2023-11-02 16:02:57;86;798;2
2023-11-02 16:33:01;86;799;1
2023-11-02 17:02:59;86;798;2
2023-11-02 17:32:59;86;799;1
2023-11-02 18:02:57;86;799;1
2023-11-02 18:32:59;86;799;1
2023-11-02 19:02:55;85;798;2
2023-11-02 19:32:56;85;798;2
2023-11-02 20:02:56;85;799;1
2023-11-02 20:32:56;85;799;1
2023-11-02 21:02:55;85;799;1
2023-11-02 21:32:53;85;799;1
2023-11-02 22:02:52;84;798;2
2023-11-02 22:32:54;85;798;2
2023-11-02 23:02:51;85;799;1
2023-11-02 23:32:53;85;798;2
