2023-07-08 00:00:06;44;-3;3
2023-07-08 00:01:02;44;-3;3
2023-07-08 00:02:03;44;-3;3
2023-07-08 00:03:04;44;-3;3
2023-07-08 00:04:05;44;-3;3
2023-07-08 00:05:06;44;-3;3
2023-07-08 00:06:02;44;-3;3
2023-07-08 00:07:03;44;-3;3
2023-07-08 00:08:04;44;-3;3
2023-07-08 00:09:05;44;-3;3
2023-07-08 00:10:06;44;-3;3
2023-07-08 00:11:02;44;-3;3
2023-07-08 00:12:03;44;-3;3
2023-07-08 00:13:04;44;-3;3
2023-07-08 00:14:05;44;-3;3
2023-07-08 00:15:05;44;-3;3
2023-07-08 00:16:02;44;-3;3
2023-07-08 00:17:03;44;-3;3
2023-07-08 00:18:04;44;-3;3
2023-07-08 00:19:05;44;-3;3
2023-07-08 00:20:05;44;-3;3
2023-07-08 00:21:02;44;-3;3
2023-07-08 00:22:03;44;-3;3
2023-07-08 00:23:04;44;-3;3
2023-07-08 00:24:04;44;-3;3
2023-07-08 00:25:05;44;-3;3
2023-07-08 00:26:02;44;-3;3
2023-07-08 00:27:03;44;-3;3
2023-07-08 00:28:04;44;-3;3
2023-07-08 00:29:04;44;-3;3
2023-07-08 00:30:05;44;-3;3
2023-07-08 00:31:06;44;-3;3
2023-07-08 00:32:03;44;-3;3
2023-07-08 00:33:03;44;-3;3
2023-07-08 00:34:04;44;-3;3
2023-07-08 00:35:05;44;-3;3
2023-07-08 00:36:06;44;-3;3
2023-07-08 00:37:02;44;-3;3
2023-07-08 00:38:03;44;-3;3
2023-07-08 00:39:04;44;-3;3
2023-07-08 00:40:05;44;-3;3
2023-07-08 00:41:06;44;-3;3
2023-07-08 00:42:02;44;-3;3
2023-07-08 00:43:03;44;-3;3
2023-07-08 00:44:04;44;-3;3
2023-07-08 00:45:05;44;-3;3
2023-07-08 00:46:06;44;-3;3
2023-07-08 00:47:02;44;-3;3
2023-07-08 00:48:03;44;-3;3
2023-07-08 00:49:04;44;-3;3
2023-07-08 00:50:05;44;-3;3
2023-07-08 00:51:06;44;-3;3
2023-07-08 00:52:02;44;-3;3
2023-07-08 00:53:03;44;-3;3
2023-07-08 00:54:04;44;-3;3
2023-07-08 00:55:05;44;-3;3
2023-07-08 00:56:06;44;-3;3
2023-07-08 00:57:02;44;-3;3
2023-07-08 00:58:03;44;-3;3
2023-07-08 00:59:04;44;-3;3
2023-07-08 01:00:05;44;-3;3
2023-07-08 01:01:06;44;-3;3
2023-07-08 01:02:02;44;-3;3
2023-07-08 01:03:03;44;-3;3
2023-07-08 01:04:04;44;-3;3
2023-07-08 01:05:05;44;-3;3
2023-07-08 01:06:06;44;-3;3
2023-07-08 01:07:02;44;-3;3
2023-07-08 01:08:03;44;-3;3
2023-07-08 01:09:04;44;-3;3
2023-07-08 01:10:05;44;-3;3
2023-07-08 01:11:06;44;-3;3
2023-07-08 01:12:02;44;-3;3
2023-07-08 01:13:03;44;-3;3
2023-07-08 01:14:04;44;-3;3
2023-07-08 01:15:05;44;-3;3
2023-07-08 01:16:05;44;-3;3
2023-07-08 01:17:02;44;-2;2
2023-07-08 01:18:03;44;-3;3
2023-07-08 01:19:04;44;-3;3
2023-07-08 01:20:05;44;-3;3
2023-07-08 01:21:05;44;-3;3
2023-07-08 01:22:02;44;-3;3
2023-07-08 01:23:03;44;-3;3
2023-07-08 01:24:04;44;-3;3
2023-07-08 01:25:04;44;-3;3
2023-07-08 01:26:05;44;-3;3
2023-07-08 01:27:06;44;-3;3
2023-07-08 01:28:03;44;-3;3
2023-07-08 01:29:03;44;-3;3
2023-07-08 01:30:04;44;-3;3
2023-07-08 01:31:05;44;-3;3
2023-07-08 01:32:06;44;-3;3
2023-07-08 01:33:02;44;-3;3
2023-07-08 01:34:03;44;-3;3
2023-07-08 01:35:04;44;-3;3
2023-07-08 01:36:05;44;-3;3
2023-07-08 01:37:06;44;-3;3
2023-07-08 01:38:02;44;-3;3
2023-07-08 01:39:03;44;-3;3
2023-07-08 01:40:04;44;-3;3
2023-07-08 01:41:05;44;-3;3
2023-07-08 01:42:06;44;-3;3
2023-07-08 01:43:02;44;-3;3
2023-07-08 01:44:03;44;-3;3
2023-07-08 01:45:04;44;-3;3
2023-07-08 01:46:05;44;-2;2
2023-07-08 01:47:06;44;-3;3
2023-07-08 01:48:02;44;-3;3
2023-07-08 01:49:03;44;-3;3
2023-07-08 01:50:04;44;-3;3
2023-07-08 01:51:05;44;-3;3
2023-07-08 01:52:06;44;-3;3
2023-07-08 01:53:02;44;-3;3
2023-07-08 01:54:03;44;-3;3
2023-07-08 01:55:04;44;-3;3
2023-07-08 01:56:05;44;-3;3
2023-07-08 01:57:06;44;-3;3
2023-07-08 01:58:02;44;-2;2
2023-07-08 01:59:03;44;-3;3
2023-07-08 02:00:04;44;-3;3
2023-07-08 02:01:05;44;-3;3
2023-07-08 02:02:06;44;-3;3
2023-07-08 02:03:02;44;-3;3
2023-07-08 02:04:03;44;-2;2
2023-07-08 02:05:04;44;-3;3
2023-07-08 02:06:05;44;-3;3
2023-07-08 02:07:05;44;-3;3
2023-07-08 02:08:02;44;-3;3
2023-07-08 02:09:03;44;-3;3
2023-07-08 02:10:04;44;-3;3
2023-07-08 02:11:05;44;-3;3
2023-07-08 02:12:05;44;-3;3
2023-07-08 02:13:02;44;-3;3
2023-07-08 02:14:03;44;-3;3
2023-07-08 02:15:04;44;-3;3
2023-07-08 02:16:05;44;-3;3
2023-07-08 02:17:05;44;-3;3
2023-07-08 02:18:02;44;-3;3
2023-07-08 02:19:03;44;-3;3
2023-07-08 02:20:04;44;-3;3
2023-07-08 02:21:04;44;-3;3
2023-07-08 02:22:05;44;-3;3
2023-07-08 02:23:02;44;-3;3
2023-07-08 02:24:03;44;-3;3
2023-07-08 02:25:04;44;-3;3
2023-07-08 02:26:04;44;-3;3
2023-07-08 02:27:05;44;-3;3
2023-07-08 02:28:06;44;-3;3
2023-07-08 02:29:03;44;-3;3
2023-07-08 02:30:03;44;-3;3
2023-07-08 02:31:04;44;-3;3
2023-07-08 02:32:05;44;-3;3
2023-07-08 02:33:06;44;-3;3
2023-07-08 02:34:02;44;-3;3
2023-07-08 02:35:03;44;-2;2
2023-07-08 02:36:04;44;-3;3
2023-07-08 02:37:05;44;-3;3
2023-07-08 02:38:06;44;-3;3
2023-07-08 02:39:02;44;-3;3
2023-07-08 02:40:03;44;-3;3
2023-07-08 02:41:04;44;-3;3
2023-07-08 02:42:05;44;-3;3
2023-07-08 02:43:06;44;-3;3
2023-07-08 02:44:02;44;-3;3
2023-07-08 02:45:03;44;-3;3
2023-07-08 02:46:04;44;-3;3
2023-07-08 02:47:05;44;-3;3
2023-07-08 02:48:06;44;-3;3
2023-07-08 02:49:02;44;-2;2
2023-07-08 02:50:03;44;-3;3
2023-07-08 02:51:04;44;-3;3
2023-07-08 02:52:05;44;-3;3
2023-07-08 02:53:06;44;-3;3
2023-07-08 02:54:02;44;-3;3
2023-07-08 02:55:03;44;-3;3
2023-07-08 02:56:04;44;-3;3
2023-07-08 02:57:05;44;-3;3
2023-07-08 02:58:06;44;-3;3
2023-07-08 02:59:02;44;-3;3
2023-07-08 03:00:03;44;-3;3
2023-07-08 03:01:04;44;-3;3
2023-07-08 03:02:05;44;-3;3
2023-07-08 03:03:06;44;-3;3
2023-07-08 03:04:02;44;-3;3
2023-07-08 03:05:03;44;-3;3
2023-07-08 03:06:04;44;-3;3
2023-07-08 03:07:05;44;-3;3
2023-07-08 03:08:05;44;-3;3
2023-07-08 03:09:02;44;-3;3
2023-07-08 03:10:03;44;-3;3
2023-07-08 03:11:04;44;-3;3
2023-07-08 03:12:04;44;-3;3
2023-07-08 03:13:05;44;-3;3
2023-07-08 03:14:02;44;-3;3
2023-07-08 03:15:03;44;-3;3
2023-07-08 03:16:03;44;-3;3
2023-07-08 03:17:04;44;-3;3
2023-07-08 03:18:05;44;-3;3
2023-07-08 03:19:06;44;-3;3
2023-07-08 03:20:02;44;-3;3
2023-07-08 03:21:03;44;-3;3
2023-07-08 03:22:04;44;-3;3
2023-07-08 03:23:05;44;-3;3
2023-07-08 03:24:06;44;-3;3
2023-07-08 03:25:02;44;-3;3
2023-07-08 03:26:03;44;-3;3
2023-07-08 03:27:04;44;-3;3
2023-07-08 03:28:05;44;-3;3
2023-07-08 03:29:06;44;-3;3
2023-07-08 03:30:02;44;-3;3
2023-07-08 03:31:03;44;-3;3
2023-07-08 03:32:04;44;-3;3
2023-07-08 03:33:05;44;-3;3
2023-07-08 03:34:06;44;-3;3
2023-07-08 03:35:02;44;-3;3
2023-07-08 03:36:03;44;-3;3
2023-07-08 03:37:04;44;-3;3
2023-07-08 03:38:05;44;-3;3
2023-07-08 03:39:06;44;-3;3
2023-07-08 03:40:02;44;-3;3
2023-07-08 03:41:03;44;-3;3
2023-07-08 03:42:04;44;-3;3
2023-07-08 03:43:05;44;-3;3
2023-07-08 03:44:06;44;-3;3
2023-07-08 03:45:02;44;-3;3
2023-07-08 03:46:03;44;-3;3
2023-07-08 03:47:04;44;-3;3
2023-07-08 03:48:05;44;-3;3
2023-07-08 03:49:05;44;-3;3
2023-07-08 03:50:02;44;-3;3
2023-07-08 03:51:03;44;-3;3
2023-07-08 03:52:04;44;-3;3
2023-07-08 03:53:04;44;-3;3
2023-07-08 03:54:05;44;-3;3
2023-07-08 03:55:02;44;-3;3
2023-07-08 03:56:03;44;-3;3
2023-07-08 03:57:03;44;-3;3
2023-07-08 03:58:04;44;-4;4
2023-07-08 03:59:05;44;-3;3
2023-07-08 04:00:06;44;-3;3
2023-07-08 04:01:02;44;-3;3
2023-07-08 04:02:03;44;-3;3
2023-07-08 04:03:04;44;-3;3
2023-07-08 04:04:05;44;-3;3
2023-07-08 04:05:06;44;-3;3
2023-07-08 04:06:02;44;-3;3
2023-07-08 04:07:03;44;-3;3
2023-07-08 04:08:04;44;-3;3
2023-07-08 04:09:05;44;-3;3
2023-07-08 04:10:06;44;-3;3
2023-07-08 04:11:02;44;-3;3
2023-07-08 04:12:03;44;-3;3
2023-07-08 04:13:04;44;-3;3
2023-07-08 04:14:05;44;-3;3
2023-07-08 04:15:06;44;-3;3
2023-07-08 04:16:02;44;-3;3
2023-07-08 04:17:03;44;-3;3
2023-07-08 04:18:04;44;-3;3
2023-07-08 04:19:05;44;-3;3
2023-07-08 04:20:06;44;-3;3
2023-07-08 04:21:02;44;-3;3
2023-07-08 04:22:03;44;-3;3
2023-07-08 04:23:04;44;-3;3
2023-07-08 04:24:05;44;-3;3
2023-07-08 04:25:06;44;-3;3
2023-07-08 04:26:02;44;-3;3
2023-07-08 04:27:03;44;-3;3
2023-07-08 04:28:04;44;-3;3
2023-07-08 04:29:05;44;-3;3
2023-07-08 04:30:06;44;-3;3
2023-07-08 04:31:02;44;-3;3
2023-07-08 04:32:03;44;-3;3
2023-07-08 04:33:04;44;-3;3
2023-07-08 04:34:05;44;-3;3
2023-07-08 04:35:05;44;-3;3
2023-07-08 04:36:02;44;-3;3
2023-07-08 04:37:03;44;-3;3
2023-07-08 04:38:04;44;-3;3
2023-07-08 04:39:04;44;-3;3
2023-07-08 04:40:05;44;-3;3
2023-07-08 04:41:02;44;-3;3
2023-07-08 04:42:03;44;-3;3
2023-07-08 04:43:03;44;-3;3
2023-07-08 04:44:04;44;-3;3
2023-07-08 04:45:05;44;-3;3
2023-07-08 04:46:06;44;-3;3
2023-07-08 04:47:02;44;-3;3
2023-07-08 04:48:03;44;-3;3
2023-07-08 04:49:04;44;-3;3
2023-07-08 04:50:05;44;-3;3
2023-07-08 04:51:06;44;-3;3
2023-07-08 04:52:02;44;-3;3
2023-07-08 04:53:03;44;-3;3
2023-07-08 04:54:04;44;-3;3
2023-07-08 04:55:05;44;-3;3
2023-07-08 04:56:06;44;-3;3
2023-07-08 04:57:02;44;-4;4
2023-07-08 04:58:03;44;-3;3
2023-07-08 04:59:04;44;-3;3
2023-07-08 05:00:05;44;-3;3
2023-07-08 05:01:06;44;-3;3
2023-07-08 05:02:02;44;-3;3
2023-07-08 05:03:03;44;-3;3
2023-07-08 05:04:04;44;-3;3
2023-07-08 05:05:05;44;-3;3
2023-07-08 05:06:06;44;-3;3
2023-07-08 05:07:02;44;-3;3
2023-07-08 05:08:03;44;-3;3
2023-07-08 05:09:04;44;-4;4
2023-07-08 05:10:05;44;-3;3
2023-07-08 05:11:06;44;-3;3
2023-07-08 05:12:02;44;-3;3
2023-07-08 05:13:03;44;-3;3
2023-07-08 05:14:04;44;-2;2
2023-07-08 05:15:05;44;-3;3
2023-07-08 05:16:06;44;-3;3
2023-07-08 05:17:02;44;-3;3
2023-07-08 05:18:03;44;-3;3
2023-07-08 05:19:04;44;-3;3
2023-07-08 05:20:05;44;-3;3
2023-07-08 05:21:05;44;-3;3
2023-07-08 05:22:02;44;-3;3
2023-07-08 05:23:03;44;-3;3
2023-07-08 05:24:04;44;-3;3
2023-07-08 05:25:05;44;-3;3
2023-07-08 05:26:05;44;-3;3
2023-07-08 05:27:02;44;-3;3
2023-07-08 05:28:03;44;-3;3
2023-07-08 05:29:04;44;-3;3
2023-07-08 05:30:04;44;-3;3
2023-07-08 05:31:05;44;-3;3
2023-07-08 05:32:06;44;-3;3
2023-07-08 05:33:03;44;-3;3
2023-07-08 05:34:03;44;-3;3
2023-07-08 05:35:04;44;-3;3
2023-07-08 05:36:05;44;-3;3
2023-07-08 05:37:06;44;-3;3
2023-07-08 05:38:02;44;-3;3
2023-07-08 05:39:03;44;-3;3
2023-07-08 05:40:04;44;-3;3
2023-07-08 05:41:05;44;-3;3
2023-07-08 05:42:06;44;-3;3
2023-07-08 05:43:02;44;-3;3
2023-07-08 05:44:03;44;-3;3
2023-07-08 05:45:04;44;-3;3
2023-07-08 05:46:05;44;-2;2
2023-07-08 05:47:06;44;-3;3
2023-07-08 05:48:02;44;-3;3
2023-07-08 05:49:03;44;-3;3
2023-07-08 05:50:04;44;-3;3
2023-07-08 05:51:05;44;-3;3
2023-07-08 05:52:06;44;-3;3
2023-07-08 05:53:02;44;-3;3
2023-07-08 05:54:03;44;-3;3
2023-07-08 05:55:04;44;-3;3
2023-07-08 05:56:05;44;-3;3
2023-07-08 05:57:06;44;-3;3
2023-07-08 05:58:02;44;-3;3
2023-07-08 05:59:03;44;-3;3
2023-07-08 06:00:04;44;-3;3
2023-07-08 06:01:05;44;-3;3
2023-07-08 06:02:06;44;-3;3
2023-07-08 06:03:02;44;-3;3
2023-07-08 06:04:03;44;-3;3
2023-07-08 06:05:04;44;-3;3
2023-07-08 06:06:05;44;-3;3
2023-07-08 06:07:05;44;-3;3
2023-07-08 06:08:02;44;-3;3
2023-07-08 06:09:03;44;-3;3
2023-07-08 06:10:04;44;-3;3
2023-07-08 06:11:04;44;-3;3
2023-07-08 06:12:05;44;-3;3
2023-07-08 06:13:02;44;-3;3
2023-07-08 06:14:03;44;-3;3
2023-07-08 06:15:03;44;-3;3
2023-07-08 06:16:04;44;-3;3
2023-07-08 06:17:05;44;-3;3
2023-07-08 06:18:06;44;-3;3
2023-07-08 06:19:03;44;-3;3
2023-07-08 06:20:03;44;-3;3
2023-07-08 06:21:04;44;-3;3
2023-07-08 06:22:05;44;-3;3
2023-07-08 06:23:06;44;-2;2
2023-07-08 06:24:02;44;-3;3
2023-07-08 06:25:03;44;-3;3
2023-07-08 06:26:04;44;-3;3
2023-07-08 06:27:05;44;-3;3
2023-07-08 06:28:06;44;-3;3
2023-07-08 06:29:02;44;-3;3
2023-07-08 06:30:03;44;-3;3
2023-07-08 06:31:04;44;-3;3
2023-07-08 06:32:05;44;-3;3
2023-07-08 06:33:06;44;-3;3
2023-07-08 06:34:02;44;-3;3
2023-07-08 06:35:03;44;-3;3
2023-07-08 06:36:04;44;-3;3
2023-07-08 06:37:05;44;-2;2
2023-07-08 06:38:06;44;-3;3
2023-07-08 06:39:02;44;-3;3
2023-07-08 06:40:03;44;-3;3
2023-07-08 06:41:04;44;-3;3
2023-07-08 06:42:05;44;-3;3
2023-07-08 06:43:05;44;-3;3
2023-07-08 06:44:02;44;-3;3
2023-07-08 06:45:03;44;-3;3
2023-07-08 06:46:04;44;-3;3
2023-07-08 06:47:04;44;-3;3
2023-07-08 06:48:05;44;-3;3
2023-07-08 06:49:06;44;-3;3
2023-07-08 06:50:03;44;-3;3
2023-07-08 06:51:03;44;-3;3
2023-07-08 06:52:04;44;-3;3
2023-07-08 06:53:05;44;-3;3
2023-07-08 06:54:06;44;-3;3
2023-07-08 06:55:02;44;-3;3
2023-07-08 06:56:03;44;-3;3
2023-07-08 06:57:04;44;-3;3
2023-07-08 06:58:05;44;-3;3
2023-07-08 06:59:06;44;-3;3
2023-07-08 07:00:02;44;-3;3
2023-07-08 07:01:03;44;-3;3
2023-07-08 07:02:04;44;-3;3
2023-07-08 07:03:05;44;-3;3
2023-07-08 07:04:06;44;-3;3
2023-07-08 07:05:02;44;-2;2
2023-07-08 07:06:03;44;-3;3
2023-07-08 07:07:04;44;-3;3
2023-07-08 07:08:05;44;-3;3
2023-07-08 07:09:06;44;-2;2
2023-07-08 07:10:02;44;-3;3
2023-07-08 07:11:03;44;-3;3
2023-07-08 07:12:04;44;-3;3
2023-07-08 07:13:05;44;-3;3
2023-07-08 07:14:06;44;-3;3
2023-07-08 07:15:02;44;-3;3
2023-07-08 07:16:03;44;-3;3
2023-07-08 07:17:04;44;-3;3
2023-07-08 07:18:05;44;-3;3
2023-07-08 07:19:05;44;-2;2
2023-07-08 07:20:02;44;-3;3
2023-07-08 07:21:03;44;-3;3
2023-07-08 07:22:04;44;-3;3
2023-07-08 07:23:04;44;-3;3
2023-07-08 07:24:05;44;-3;3
2023-07-08 07:25:06;44;-2;2
2023-07-08 07:26:03;44;-3;3
2023-07-08 07:27:03;44;-3;3
2023-07-08 07:28:04;44;-3;3
2023-07-08 07:29:05;44;-3;3
2023-07-08 07:30:06;44;-3;3
2023-07-08 07:31:02;44;-3;3
2023-07-08 07:32:03;44;-3;3
2023-07-08 07:33:04;44;-3;3
2023-07-08 07:34:05;44;-3;3
2023-07-08 07:35:06;44;-3;3
2023-07-08 07:36:02;44;-3;3
2023-07-08 07:37:03;44;-3;3
2023-07-08 07:38:04;44;-3;3
2023-07-08 07:39:05;44;-3;3
2023-07-08 07:40:06;44;-3;3
2023-07-08 07:41:02;44;-3;3
2023-07-08 07:42:03;44;-3;3
2023-07-08 07:43:04;44;-3;3
2023-07-08 07:44:05;44;-3;3
2023-07-08 07:45:06;44;-3;3
2023-07-08 07:46:02;44;-3;3
2023-07-08 07:47:03;44;-3;3
2023-07-08 07:48:04;44;-3;3
2023-07-08 07:49:05;44;-3;3
2023-07-08 07:50:06;44;-3;3
2023-07-08 07:51:02;44;-3;3
2023-07-08 07:52:03;44;-3;3
2023-07-08 07:53:04;44;-3;3
2023-07-08 07:54:05;44;-3;3
2023-07-08 07:55:05;44;-3;3
2023-07-08 07:56:02;44;-3;3
2023-07-08 07:57:03;44;-3;3
2023-07-08 07:58:03;44;-3;3
2023-07-08 07:59:04;44;-3;3
2023-07-08 08:00:05;44;-3;3
2023-07-08 08:01:06;44;-3;3
2023-07-08 08:02:02;44;-3;3
2023-07-08 08:03:03;44;-3;3
2023-07-08 08:04:04;44;-3;3
2023-07-08 08:05:05;44;-3;3
2023-07-08 08:06:06;44;-3;3
2023-07-08 08:07:02;44;-3;3
2023-07-08 08:08:03;44;-3;3
2023-07-08 08:09:04;44;-3;3
2023-07-08 08:10:05;44;-3;3
2023-07-08 08:11:06;44;-3;3
2023-07-08 08:12:02;44;-3;3
2023-07-08 08:13:03;44;-3;3
2023-07-08 08:14:04;44;-3;3
2023-07-08 08:15:05;44;-3;3
2023-07-08 08:16:06;44;-3;3
2023-07-08 08:17:02;44;-3;3
2023-07-08 08:18:03;44;-3;3
2023-07-08 08:19:04;44;-3;3
2023-07-08 08:20:05;44;-3;3
2023-07-08 08:21:06;44;-3;3
2023-07-08 08:22:02;44;-2;2
2023-07-08 08:23:03;44;-3;3
2023-07-08 08:24:04;44;-3;3
2023-07-08 08:25:05;44;-3;3
2023-07-08 08:26:05;44;-3;3
2023-07-08 08:27:02;44;-3;3
2023-07-08 08:28:03;44;-3;3
2023-07-08 08:29:04;44;-3;3
2023-07-08 08:30:04;44;-3;3
2023-07-08 08:31:05;44;-3;3
2023-07-08 08:32:06;44;-3;3
2023-07-08 08:33:03;44;-3;3
2023-07-08 08:34:03;44;-3;3
2023-07-08 08:35:04;44;-3;3
2023-07-08 08:36:05;44;-3;3
2023-07-08 08:37:06;44;-3;3
2023-07-08 08:38:02;44;-3;3
2023-07-08 08:39:03;44;-3;3
2023-07-08 08:40:04;44;-3;3
2023-07-08 08:41:05;44;-3;3
2023-07-08 08:42:06;44;-3;3
2023-07-08 08:43:02;44;-3;3
2023-07-08 08:44:03;44;-3;3
2023-07-08 08:45:04;44;-3;3
2023-07-08 08:46:05;44;-3;3
2023-07-08 08:47:06;44;-3;3
2023-07-08 08:48:02;44;-3;3
2023-07-08 08:49:03;44;-3;3
2023-07-08 08:50:04;44;-3;3
2023-07-08 08:51:05;44;-3;3
2023-07-08 08:52:06;44;-3;3
2023-07-08 08:53:02;44;-3;3
2023-07-08 08:54:03;44;-3;3
2023-07-08 08:55:04;44;-3;3
2023-07-08 08:56:05;44;-3;3
2023-07-08 08:57:05;44;-3;3
2023-07-08 08:58:02;44;-3;3
2023-07-08 08:59:03;44;-3;3
2023-07-08 09:00:04;44;-3;3
2023-07-08 09:01:04;44;-3;3
2023-07-08 09:02:05;44;-3;3
2023-07-08 09:03:02;44;-3;3
2023-07-08 09:04:03;44;-3;3
2023-07-08 09:05:03;44;-3;3
2023-07-08 09:06:04;44;-3;3
2023-07-08 09:07:05;44;-3;3
2023-07-08 09:08:06;44;-3;3
2023-07-08 09:09:02;44;-2;2
2023-07-08 09:10:03;44;-3;3
2023-07-08 09:11:04;44;-3;3
2023-07-08 09:12:05;44;-3;3
2023-07-08 09:13:06;44;-3;3
2023-07-08 09:14:02;44;-3;3
2023-07-08 09:15:03;44;-3;3
2023-07-08 09:16:04;44;-3;3
2023-07-08 09:17:05;44;-3;3
2023-07-08 09:18:06;44;-3;3
2023-07-08 09:19:02;44;-3;3
2023-07-08 09:20:03;44;-3;3
2023-07-08 09:21:04;44;-3;3
2023-07-08 09:22:05;44;-3;3
2023-07-08 09:23:06;44;-3;3
2023-07-08 09:24:02;44;-3;3
2023-07-08 09:25:03;44;-2;2
2023-07-08 09:26:04;44;-3;3
2023-07-08 09:27:05;44;-3;3
2023-07-08 09:28:05;44;-3;3
2023-07-08 09:29:02;44;-3;3
2023-07-08 09:30:03;44;-3;3
2023-07-08 09:31:04;44;-3;3
2023-07-08 09:32:04;44;-3;3
2023-07-08 09:33:05;44;-2;2
2023-07-08 09:34:02;44;-3;3
2023-07-08 09:35:03;44;-3;3
2023-07-08 09:36:03;44;-3;3
2023-07-08 09:37:04;44;-3;3
2023-07-08 09:38:05;44;-3;3
2023-07-08 09:39:06;44;-3;3
2023-07-08 09:40:02;44;-3;3
2023-07-08 09:41:03;44;-3;3
2023-07-08 09:42:04;44;-3;3
2023-07-08 09:43:05;44;-3;3
2023-07-08 09:44:06;44;-3;3
2023-07-08 09:45:02;44;-3;3
2023-07-08 09:46:03;44;-3;3
2023-07-08 09:47:04;44;-3;3
2023-07-08 09:48:05;44;-3;3
2023-07-08 09:49:06;44;-3;3
2023-07-08 09:50:02;44;-3;3
2023-07-08 09:51:03;44;-3;3
2023-07-08 09:52:04;44;-3;3
2023-07-08 09:53:05;44;-3;3
2023-07-08 09:54:06;44;-3;3
2023-07-08 09:55:02;44;-3;3
2023-07-08 09:56:03;44;-3;3
2023-07-08 09:57:04;44;-3;3
2023-07-08 09:58:05;44;-3;3
2023-07-08 09:59:06;44;-3;3
2023-07-08 10:00:02;44;-3;3
2023-07-08 10:01:03;44;-3;3
2023-07-08 10:02:04;43;-3;3
2023-07-08 10:03:05;44;-3;3
2023-07-08 10:04:05;44;-2;2
2023-07-08 10:05:02;44;-3;3
2023-07-08 10:06:03;44;-3;3
2023-07-08 10:07:04;44;-3;3
2023-07-08 10:08:04;44;-3;3
2023-07-08 10:09:05;44;-3;3
2023-07-08 10:10:02;43;-3;3
2023-07-08 10:11:03;44;-3;3
2023-07-08 10:12:04;44;-3;3
2023-07-08 10:13:04;44;-3;3
2023-07-08 10:14:05;44;-3;3
2023-07-08 10:15:06;44;-3;3
2023-07-08 10:16:03;44;-3;3
2023-07-08 10:17:03;43;-3;3
2023-07-08 10:18:04;44;-3;3
2023-07-08 10:19:05;44;-3;3
2023-07-08 10:20:06;44;-3;3
2023-07-08 10:21:02;44;-3;3
2023-07-08 10:22:03;44;-3;3
2023-07-08 10:23:04;44;-3;3
2023-07-08 10:24:05;44;-3;3
2023-07-08 10:25:06;44;-3;3
2023-07-08 10:26:02;44;-2;2
2023-07-08 10:27:03;44;-3;3
2023-07-08 10:28:04;44;-3;3
2023-07-08 10:29:05;44;-3;3
2023-07-08 10:30:06;43;-3;3
2023-07-08 10:31:02;44;-3;3
2023-07-08 10:32:03;44;-3;3
2023-07-08 10:33:04;44;-3;3
2023-07-08 10:34:05;43;-3;3
2023-07-08 10:35:06;44;-3;3
2023-07-08 10:36:02;44;-3;3
2023-07-08 10:37:03;44;-3;3
2023-07-08 10:38:04;44;-3;3
2023-07-08 10:39:05;44;-3;3
2023-07-08 10:40:06;44;-3;3
2023-07-08 10:41:02;44;-3;3
2023-07-08 10:42:03;44;-3;3
2023-07-08 10:43:04;44;-3;3
2023-07-08 10:44:05;44;-3;3
2023-07-08 10:45:05;44;-3;3
2023-07-08 10:46:02;44;-3;3
2023-07-08 10:47:03;44;-3;3
2023-07-08 10:48:04;44;-3;3
2023-07-08 10:49:04;44;-3;3
2023-07-08 10:50:05;44;-3;3
2023-07-08 10:51:02;43;-3;3
2023-07-08 10:52:03;44;-3;3
2023-07-08 10:53:04;44;-3;3
2023-07-08 10:54:04;44;-3;3
2023-07-08 10:55:05;44;-3;3
2023-07-08 10:56:06;44;-3;3
2023-07-08 10:57:03;44;-3;3
2023-07-08 10:58:03;44;-3;3
2023-07-08 10:59:04;44;-3;3
2023-07-08 11:00:05;44;-3;3
2023-07-08 11:01:06;44;-3;3
2023-07-08 11:02:02;44;-3;3
2023-07-08 11:03:03;44;-3;3
2023-07-08 11:04:04;44;-3;3
2023-07-08 11:05:05;44;-3;3
2023-07-08 11:06:06;44;-3;3
2023-07-08 11:07:02;44;-3;3
2023-07-08 11:08:03;44;-3;3
2023-07-08 11:09:04;44;-3;3
2023-07-08 11:10:05;44;-3;3
2023-07-08 11:11:06;44;-3;3
2023-07-08 11:12:02;44;-3;3
2023-07-08 11:13:03;44;-3;3
2023-07-08 11:14:04;44;-3;3
2023-07-08 11:15:05;44;-3;3
2023-07-08 11:16:06;44;-3;3
2023-07-08 11:17:02;44;-3;3
2023-07-08 11:18:03;44;-3;3
2023-07-08 11:19:04;44;-3;3
2023-07-08 11:20:05;43;-3;3
2023-07-08 11:21:06;44;-3;3
2023-07-08 11:22:02;44;-3;3
2023-07-08 11:23:03;44;-3;3
2023-07-08 11:24:04;44;-3;3
2023-07-08 11:25:05;44;-3;3
2023-07-08 11:26:05;44;-3;3
2023-07-08 11:27:02;44;-3;3
2023-07-08 11:28:03;44;-3;3
2023-07-08 11:29:04;44;-3;3
2023-07-08 11:30:05;44;-3;3
2023-07-08 11:31:05;44;-3;3
2023-07-08 11:32:02;44;-3;3
2023-07-08 11:33:03;44;-3;3
2023-07-08 11:34:04;44;-3;3
2023-07-08 11:35:04;44;-3;3
2023-07-08 11:36:05;44;-3;3
2023-07-08 11:37:06;44;-3;3
2023-07-08 11:38:03;44;-3;3
2023-07-08 11:39:03;44;-3;3
2023-07-08 11:40:04;44;-3;3
2023-07-08 11:41:05;44;-3;3
2023-07-08 11:42:06;44;-3;3
2023-07-08 11:43:02;44;-3;3
2023-07-08 11:44:03;44;-3;3
2023-07-08 11:45:04;43;-3;3
2023-07-08 11:46:05;44;-3;3
2023-07-08 11:47:06;44;-3;3
2023-07-08 11:48:02;44;-3;3
2023-07-08 11:49:03;44;-3;3
2023-07-08 11:50:04;44;-3;3
2023-07-08 11:51:05;44;-3;3
2023-07-08 11:52:06;44;-3;3
2023-07-08 11:53:02;44;-3;3
2023-07-08 11:54:03;44;-3;3
2023-07-08 11:55:04;44;-3;3
2023-07-08 11:56:05;43;-3;3
2023-07-08 11:57:06;44;-3;3
2023-07-08 11:58:02;44;-3;3
2023-07-08 11:59:03;44;-3;3
2023-07-08 12:00:04;43;-3;3
2023-07-08 12:01:05;44;-3;3
2023-07-08 12:02:06;44;-3;3
2023-07-08 12:03:02;44;-3;3
2023-07-08 12:04:03;44;-3;3
2023-07-08 12:05:04;44;-3;3
2023-07-08 12:06:05;44;-3;3
2023-07-08 12:07:05;44;-3;3
2023-07-08 12:08:02;44;-3;3
2023-07-08 12:09:03;44;-3;3
2023-07-08 12:10:04;44;-3;3
2023-07-08 12:11:04;44;-3;3
2023-07-08 12:12:05;44;-3;3
2023-07-08 12:13:06;44;-3;3
2023-07-08 12:14:03;44;-3;3
2023-07-08 12:15:03;44;-3;3
2023-07-08 12:16:04;44;-3;3
2023-07-08 12:17:05;44;-3;3
2023-07-08 12:18:06;44;-3;3
2023-07-08 12:19:02;44;-3;3
2023-07-08 12:20:03;43;-3;3
2023-07-08 12:21:04;44;-3;3
2023-07-08 12:22:05;44;-3;3
2023-07-08 12:23:06;44;-3;3
2023-07-08 12:24:02;44;-2;2
2023-07-08 12:25:03;44;-3;3
2023-07-08 12:26:04;44;-3;3
2023-07-08 12:27:05;44;-3;3
2023-07-08 12:28:06;44;-3;3
2023-07-08 12:29:02;44;-3;3
2023-07-08 12:30:03;44;-3;3
2023-07-08 12:31:04;43;-3;3
2023-07-08 12:32:05;44;-3;3
2023-07-08 12:33:06;44;-4;4
2023-07-08 12:34:02;44;-3;3
2023-07-08 12:35:03;44;-3;3
2023-07-08 12:36:04;44;-3;3
2023-07-08 12:37:05;43;-3;3
2023-07-08 12:38:05;44;-3;3
2023-07-08 12:39:02;44;-3;3
2023-07-08 12:40:03;44;-3;3
2023-07-08 12:41:04;44;-3;3
2023-07-08 12:42:04;44;-3;3
2023-07-08 12:43:05;44;-3;3
2023-07-08 12:44:06;44;-3;3
2023-07-08 12:45:03;43;-3;3
2023-07-08 12:46:03;44;-3;3
2023-07-08 12:47:04;43;-3;3
2023-07-08 12:48:05;44;-3;3
2023-07-08 12:49:06;44;-3;3
2023-07-08 12:50:02;44;-3;3
2023-07-08 12:51:03;44;-3;3
2023-07-08 12:52:04;44;-3;3
2023-07-08 12:53:05;44;-3;3
2023-07-08 12:54:06;44;-3;3
2023-07-08 12:55:02;44;-3;3
2023-07-08 12:56:03;44;-3;3
2023-07-08 12:57:04;44;-3;3
2023-07-08 12:58:05;44;-3;3
2023-07-08 12:59:06;44;-4;4
2023-07-08 13:00:02;44;-4;4
2023-07-08 13:01:03;44;-3;3
2023-07-08 13:02:04;44;-3;3
2023-07-08 13:03:05;44;-4;4
2023-07-08 13:04:06;44;-3;3
2023-07-08 13:05:02;44;-3;3
2023-07-08 13:06:03;43;-3;3
2023-07-08 13:07:04;44;-3;3
2023-07-08 13:08:05;44;-3;3
2023-07-08 13:09:06;43;-3;3
2023-07-08 13:10:02;43;-3;3
2023-07-08 13:11:03;44;-4;4
2023-07-08 13:12:04;44;-3;3
2023-07-08 13:13:05;44;-3;3
2023-07-08 13:14:05;44;-3;3
2023-07-08 13:15:02;44;-4;4
2023-07-08 13:16:03;43;-3;3
2023-07-08 13:17:04;44;-3;3
2023-07-08 13:18:04;44;-4;4
2023-07-08 13:19:05;44;-3;3
2023-07-08 13:20:06;44;-3;3
2023-07-08 13:21:03;44;-3;3
2023-07-08 13:22:03;43;-3;3
2023-07-08 13:23:04;44;-3;3
2023-07-08 13:24:05;44;-4;4
2023-07-08 13:25:06;43;-3;3
2023-07-08 13:26:02;44;-3;3
2023-07-08 13:27:03;44;-4;4
2023-07-08 13:28:04;44;-4;4
2023-07-08 13:29:05;44;-4;4
2023-07-08 13:30:06;44;-3;3
2023-07-08 13:31:02;44;-4;4
2023-07-08 13:32:03;44;-4;4
2023-07-08 13:33:04;44;-4;4
2023-07-08 13:34:05;44;-3;3
2023-07-08 13:35:06;44;-4;4
2023-07-08 13:36:02;44;-4;4
2023-07-08 13:37:03;44;-4;4
2023-07-08 13:38:04;43;-4;4
2023-07-08 13:39:05;44;-3;3
2023-07-08 13:40:06;44;-3;3
2023-07-08 13:41:02;44;-4;4
2023-07-08 13:42:03;43;-3;3
2023-07-08 13:43:04;43;-4;4
2023-07-08 13:44:05;43;-3;3
2023-07-08 13:45:05;43;-4;4
2023-07-08 13:46:02;44;-3;3
2023-07-08 13:47:03;44;-3;3
2023-07-08 13:48:04;44;-4;4
2023-07-08 13:49:04;44;-3;3
2023-07-08 13:50:05;44;-4;4
2023-07-08 13:51:02;43;-4;4
2023-07-08 13:52:03;44;-3;3
2023-07-08 13:53:03;44;-4;4
2023-07-08 13:54:04;44;-3;3
2023-07-08 13:55:05;43;-4;4
2023-07-08 13:56:06;44;-4;4
2023-07-08 13:57:02;43;-3;3
2023-07-08 13:58:03;44;-4;4
2023-07-08 13:59:04;44;-4;4
2023-07-08 14:00:05;43;-3;3
2023-07-08 14:01:06;44;-4;4
2023-07-08 14:02:02;44;-4;4
2023-07-08 14:03:03;43;-3;3
2023-07-08 14:04:04;44;-3;3
2023-07-08 14:05:05;43;-4;4
2023-07-08 14:06:06;44;-4;4
2023-07-08 14:07:02;44;-4;4
2023-07-08 14:08:03;43;-4;4
2023-07-08 14:09:04;44;-4;4
2023-07-08 14:10:05;44;-4;4
2023-07-08 14:11:06;44;-4;4
2023-07-08 14:12:02;44;-4;4
2023-07-08 14:13:03;44;-4;4
2023-07-08 14:14:04;44;-4;4
2023-07-08 14:15:05;44;-4;4
2023-07-08 14:16:06;44;-4;4
2023-07-08 14:17:02;44;-4;4
2023-07-08 14:18:03;44;-4;4
2023-07-08 14:19:04;44;-4;4
2023-07-08 14:20:05;44;-4;4
2023-07-08 14:21:05;44;-3;3
2023-07-08 14:22:02;44;-4;4
2023-07-08 14:23:03;44;-4;4
2023-07-08 14:24:04;44;-4;4
2023-07-08 14:25:04;44;-3;3
2023-07-08 14:26:05;44;-4;4
2023-07-08 14:27:06;44;-4;4
2023-07-08 14:28:03;43;-3;3
2023-07-08 14:29:03;44;-4;4
2023-07-08 14:30:04;44;-4;4
2023-07-08 14:31:05;44;-4;4
2023-07-08 14:32:06;44;-4;4
2023-07-08 14:33:02;44;-4;4
2023-07-08 14:34:03;44;-3;3
2023-07-08 14:35:04;43;-4;4
2023-07-08 14:36:05;44;-4;4
2023-07-08 14:37:06;44;-4;4
2023-07-08 14:38:02;43;-4;4
2023-07-08 14:39:03;44;-4;4
2023-07-08 14:40:04;43;-3;3
2023-07-08 14:41:05;44;-4;4
2023-07-08 14:42:06;44;-4;4
2023-07-08 14:43:02;44;-4;4
2023-07-08 14:44:03;44;-4;4
2023-07-08 14:45:04;43;-4;4
2023-07-08 14:46:05;44;-4;4
2023-07-08 14:47:06;44;-4;4
2023-07-08 14:48:02;44;-4;4
2023-07-08 14:49:03;44;-4;4
2023-07-08 14:50:04;44;-4;4
2023-07-08 14:51:05;44;-4;4
2023-07-08 14:52:06;43;-4;4
2023-07-08 14:53:02;43;-4;4
2023-07-08 14:54:03;43;-4;4
2023-07-08 14:55:04;44;-4;4
2023-07-08 14:56:05;43;-4;4
2023-07-08 14:57:06;44;-4;4
2023-07-08 14:58:02;43;-4;4
2023-07-08 14:59:03;44;-4;4
2023-07-08 15:00:04;44;-4;4
2023-07-08 15:01:05;44;-4;4
2023-07-08 15:02:05;44;-4;4
2023-07-08 15:03:02;44;-4;4
2023-07-08 15:04:03;43;-4;4
2023-07-08 15:05:04;43;-4;4
2023-07-08 15:06:04;44;-4;4
2023-07-08 15:07:05;44;-4;4
2023-07-08 15:08:06;44;-4;4
2023-07-08 15:09:03;44;-4;4
2023-07-08 15:10:03;44;-4;4
2023-07-08 15:11:04;44;-4;4
2023-07-08 15:12:05;43;-3;3
2023-07-08 15:13:06;43;-4;4
2023-07-08 15:14:02;44;-4;4
2023-07-08 15:15:03;44;-4;4
2023-07-08 15:16:04;43;-4;4
2023-07-08 15:17:05;43;-4;4
2023-07-08 15:18:06;44;-4;4
2023-07-08 15:19:02;44;-4;4
2023-07-08 15:20:03;43;-4;4
2023-07-08 15:21:04;44;-4;4
2023-07-08 15:22:05;44;-4;4
2023-07-08 15:23:06;44;-4;4
2023-07-08 15:24:02;44;-4;4
2023-07-08 15:25:03;43;-4;4
2023-07-08 15:26:04;43;-4;4
2023-07-08 15:27:05;44;-4;4
2023-07-08 15:28:06;44;-4;4
2023-07-08 15:29:02;43;-4;4
2023-07-08 15:30:03;44;-4;4
2023-07-08 15:31:04;44;-4;4
2023-07-08 15:32:05;43;-4;4
2023-07-08 15:33:06;43;-4;4
2023-07-08 15:34:02;43;-4;4
2023-07-08 15:35:03;44;-4;4
2023-07-08 15:36:04;44;-4;4
2023-07-08 15:37:05;43;-4;4
2023-07-08 15:38:06;44;-4;4
2023-07-08 15:39:02;43;-4;4
2023-07-08 15:40:03;44;-4;4
2023-07-08 15:41:04;44;-4;4
2023-07-08 15:42:05;43;-3;3
2023-07-08 15:43:05;44;-4;4
2023-07-08 15:44:02;44;-4;4
2023-07-08 15:45:03;44;-4;4
2023-07-08 15:46:04;44;-4;4
2023-07-08 15:47:04;43;-4;4
2023-07-08 15:48:05;43;-4;4
2023-07-08 15:49:02;43;-4;4
2023-07-08 15:50:03;43;-4;4
2023-07-08 15:51:03;43;-4;4
2023-07-08 15:52:04;44;-4;4
2023-07-08 15:53:05;44;-4;4
2023-07-08 15:54:06;44;-3;3
2023-07-08 15:55:03;43;-4;4
2023-07-08 15:56:03;44;-4;4
2023-07-08 15:57:04;43;-4;4
2023-07-08 15:58:05;43;-3;3
2023-07-08 15:59:06;43;-4;4
2023-07-08 16:00:02;43;-4;4
2023-07-08 16:01:03;43;-3;3
2023-07-08 16:02:04;43;-4;4
2023-07-08 16:03:05;44;-4;4
2023-07-08 16:04:06;43;-4;4
2023-07-08 16:05:02;43;-4;4
2023-07-08 16:06:03;44;-4;4
2023-07-08 16:07:04;44;-4;4
2023-07-08 16:08:05;44;-4;4
2023-07-08 16:09:06;44;-3;3
2023-07-08 16:10:02;43;-4;4
2023-07-08 16:11:03;44;-4;4
2023-07-08 16:12:04;44;-4;4
2023-07-08 16:13:05;43;-4;4
2023-07-08 16:14:06;43;-4;4
2023-07-08 16:15:02;44;-4;4
2023-07-08 16:16:03;44;-3;3
2023-07-08 16:17:04;44;-4;4
2023-07-08 16:18:05;43;-4;4
2023-07-08 16:19:06;44;-4;4
2023-07-08 16:20:02;44;-4;4
2023-07-08 16:21:03;43;-4;4
2023-07-08 16:22:04;43;-4;4
2023-07-08 16:23:05;43;-3;3
2023-07-08 16:24:05;44;-4;4
2023-07-08 16:25:02;43;-4;4
2023-07-08 16:26:03;43;-4;4
2023-07-08 16:27:04;43;-4;4
2023-07-08 16:28:04;44;-4;4
2023-07-08 16:29:05;43;-4;4
2023-07-08 16:30:02;44;-4;4
2023-07-08 16:31:03;43;-4;4
2023-07-08 16:32:03;44;-4;4
2023-07-08 16:33:04;43;-4;4
2023-07-08 16:34:05;43;-4;4
2023-07-08 16:35:06;43;-4;4
2023-07-08 16:36:03;44;-4;4
2023-07-08 16:37:03;44;-4;4
2023-07-08 16:38:04;44;-4;4
2023-07-08 16:39:05;43;-4;4
2023-07-08 16:40:06;43;-4;4
2023-07-08 16:41:02;44;-4;4
2023-07-08 16:42:03;44;-4;4
2023-07-08 16:43:04;43;-4;4
2023-07-08 16:44:05;43;-4;4
2023-07-08 16:45:06;44;-3;3
2023-07-08 16:46:02;44;-3;3
2023-07-08 16:47:03;44;-4;4
2023-07-08 16:48:04;43;-4;4
2023-07-08 16:49:05;43;-4;4
2023-07-08 16:50:06;43;-4;4
2023-07-08 16:51:02;43;-4;4
2023-07-08 16:52:03;43;-4;4
2023-07-08 16:53:04;44;-4;4
2023-07-08 16:54:05;44;-4;4
2023-07-08 16:55:06;43;-3;3
2023-07-08 16:56:02;44;-3;3
2023-07-08 16:57:03;44;-3;3
2023-07-08 16:58:04;44;-4;4
2023-07-08 16:59:05;44;-4;4
2023-07-08 17:00:06;43;-3;3
2023-07-08 17:01:02;43;-3;3
2023-07-08 17:02:03;44;-3;3
2023-07-08 17:03:04;43;-4;4
2023-07-08 17:04:05;43;-3;3
2023-07-08 17:05:06;44;-4;4
2023-07-08 17:06:02;44;-4;4
2023-07-08 17:07:03;43;-4;4
2023-07-08 17:08:04;43;-3;3
2023-07-08 17:09:05;43;-4;4
2023-07-08 17:10:06;44;-4;4
2023-07-08 17:11:02;44;-4;4
2023-07-08 17:12:03;43;-4;4
2023-07-08 17:13:04;43;-4;4
2023-07-08 17:14:05;43;-3;3
2023-07-08 17:15:05;43;-4;4
2023-07-08 17:16:02;43;-3;3
2023-07-08 17:17:03;44;-3;3
2023-07-08 17:18:04;44;-4;4
2023-07-08 17:19:04;44;-4;4
2023-07-08 17:20:05;43;-3;3
2023-07-08 17:21:02;44;-4;4
2023-07-08 17:22:03;43;-4;4
2023-07-08 17:23:04;44;-4;4
2023-07-08 17:24:04;44;-3;3
2023-07-08 17:25:05;44;-4;4
2023-07-08 17:26:06;43;-3;3
2023-07-08 17:27:03;43;-4;4
2023-07-08 17:28:03;43;-4;4
2023-07-08 17:29:04;43;-3;3
2023-07-08 17:30:05;43;-4;4
2023-07-08 17:31:06;44;-3;3
2023-07-08 17:32:02;43;-4;4
2023-07-08 17:33:03;43;-4;4
2023-07-08 17:34:04;43;-3;3
2023-07-08 17:35:05;44;-4;4
2023-07-08 17:36:06;43;-3;3
2023-07-08 17:37:02;43;-3;3
2023-07-08 17:38:03;43;-3;3
2023-07-08 17:39:04;44;-3;3
2023-07-08 17:40:05;43;-3;3
2023-07-08 17:41:06;43;-4;4
2023-07-08 17:42:02;44;-4;4
2023-07-08 17:43:03;43;-3;3
2023-07-08 17:44:04;44;-3;3
2023-07-08 17:45:05;44;-4;4
2023-07-08 17:46:06;44;-3;3
2023-07-08 17:47:02;44;-3;3
2023-07-08 17:48:03;43;-4;4
2023-07-08 17:49:04;43;-4;4
2023-07-08 17:50:05;43;-4;4
2023-07-08 17:51:06;43;-3;3
2023-07-08 17:52:02;43;-4;4
2023-07-08 17:53:03;44;-3;3
2023-07-08 17:54:04;44;-3;3
2023-07-08 17:55:05;44;-4;4
2023-07-08 17:56:06;43;-4;4
2023-07-08 17:57:02;43;-3;3
2023-07-08 17:58:03;43;-3;3
2023-07-08 17:59:04;43;-4;4
2023-07-08 18:00:05;44;-4;4
2023-07-08 18:01:05;44;-4;4
2023-07-08 18:02:02;43;-4;4
2023-07-08 18:03:03;44;-4;4
2023-07-08 18:04:04;44;-4;4
2023-07-08 18:05:04;43;-3;3
2023-07-08 18:06:05;44;-4;4
2023-07-08 18:07:02;43;-4;4
2023-07-08 18:08:03;44;-4;4
2023-07-08 18:09:03;43;-3;3
2023-07-08 18:10:04;43;-4;4
2023-07-08 18:11:05;43;-4;4
2023-07-08 18:12:06;44;-4;4
2023-07-08 18:13:03;43;-4;4
2023-07-08 18:14:03;44;-4;4
2023-07-08 18:15:04;44;-4;4
2023-07-08 18:16:05;44;-3;3
2023-07-08 18:17:06;43;-3;3
2023-07-08 18:18:02;43;-4;4
2023-07-08 18:19:03;43;-4;4
2023-07-08 18:20:04;43;-3;3
2023-07-08 18:21:05;43;-4;4
2023-07-08 18:22:06;43;-3;3
2023-07-08 18:23:02;43;-3;3
2023-07-08 18:24:03;44;-3;3
2023-07-08 18:25:04;44;-4;4
2023-07-08 18:26:05;43;-3;3
2023-07-08 18:27:06;44;-4;4
2023-07-08 18:28:02;44;-4;4
2023-07-08 18:29:03;43;-3;3
2023-07-08 18:30:04;44;-3;3
2023-07-08 18:31:05;43;-3;3
2023-07-08 18:32:06;44;-3;3
2023-07-08 18:33:02;43;-3;3
2023-07-08 18:34:03;43;-3;3
2023-07-08 18:35:04;44;-3;3
2023-07-08 18:36:05;44;-3;3
2023-07-08 18:37:06;43;-3;3
2023-07-08 18:38:02;44;-3;3
2023-07-08 18:39:03;44;-3;3
2023-07-08 18:40:04;43;-4;4
2023-07-08 18:41:05;43;-3;3
2023-07-08 18:42:06;44;-3;3
2023-07-08 18:43:02;43;-3;3
2023-07-08 18:44:03;43;-3;3
2023-07-08 18:45:04;44;-3;3
2023-07-08 18:46:05;43;-3;3
2023-07-08 18:47:05;43;-3;3
2023-07-08 18:48:02;44;-3;3
2023-07-08 18:49:03;43;-3;3
2023-07-08 18:50:04;43;-3;3
2023-07-08 18:51:05;43;-4;4
2023-07-08 18:52:05;43;-3;3
2023-07-08 18:53:02;44;-3;3
2023-07-08 18:54:03;44;-3;3
2023-07-08 18:55:04;43;-3;3
2023-07-08 18:56:04;43;-3;3
2023-07-08 18:57:05;44;-3;3
2023-07-08 18:58:06;43;-3;3
2023-07-08 18:59:03;44;-3;3
2023-07-08 19:00:03;43;-3;3
2023-07-08 19:01:04;43;-3;3
2023-07-08 19:02:05;43;-3;3
2023-07-08 19:03:06;44;-3;3
2023-07-08 19:04:02;43;-3;3
2023-07-08 19:05:03;43;-3;3
2023-07-08 19:06:04;43;-3;3
2023-07-08 19:07:05;44;-3;3
2023-07-08 19:08:06;43;-3;3
2023-07-08 19:09:02;44;-3;3
2023-07-08 19:10:03;43;-4;4
2023-07-08 19:11:04;43;-3;3
2023-07-08 19:12:05;43;-3;3
2023-07-08 19:13:06;43;-3;3
2023-07-08 19:14:02;43;-3;3
2023-07-08 19:15:03;43;-3;3
2023-07-08 19:16:04;43;-3;3
2023-07-08 19:17:05;43;-3;3
2023-07-08 19:18:06;43;-3;3
2023-07-08 19:19:02;44;-3;3
2023-07-08 19:20:03;44;-3;3
2023-07-08 19:21:04;43;-3;3
2023-07-08 19:22:05;43;-3;3
2023-07-08 19:23:06;43;-3;3
2023-07-08 19:24:02;43;-3;3
2023-07-08 19:25:03;44;-3;3
2023-07-08 19:26:04;43;-3;3
2023-07-08 19:27:05;43;-3;3
2023-07-08 19:28:06;43;-3;3
2023-07-08 19:29:02;43;-3;3
2023-07-08 19:30:03;43;-3;3
2023-07-08 19:31:04;44;-3;3
2023-07-08 19:32:05;43;-3;3
2023-07-08 19:33:06;43;-3;3
2023-07-08 19:34:02;43;-3;3
2023-07-08 19:35:03;43;-3;3
2023-07-08 19:36:04;43;-3;3
2023-07-08 19:37:05;43;-3;3
2023-07-08 19:38:05;43;-3;3
2023-07-08 19:39:02;43;-3;3
2023-07-08 19:40:03;43;-3;3
2023-07-08 19:41:04;43;-3;3
2023-07-08 19:42:04;43;-3;3
2023-07-08 19:43:05;44;-3;3
2023-07-08 19:44:02;44;-3;3
2023-07-08 19:45:03;43;-3;3
2023-07-08 19:46:03;43;-3;3
2023-07-08 19:47:04;43;-3;3
2023-07-08 19:48:05;43;-3;3
2023-07-08 19:49:06;43;-3;3
2023-07-08 19:50:03;43;-3;3
2023-07-08 19:51:03;43;-3;3
2023-07-08 19:52:04;43;-4;4
2023-07-08 19:53:05;43;-3;3
2023-07-08 19:54:06;43;-3;3
2023-07-08 19:55:02;43;-3;3
2023-07-08 19:56:03;43;-3;3
2023-07-08 19:57:04;43;-3;3
2023-07-08 19:58:05;43;-3;3
2023-07-08 19:59:06;43;-3;3
2023-07-08 20:00:02;43;-3;3
2023-07-08 20:01:03;43;-3;3
2023-07-08 20:02:04;44;-3;3
2023-07-08 20:03:05;43;-3;3
2023-07-08 20:04:06;43;-3;3
2023-07-08 20:05:02;43;-3;3
2023-07-08 20:06:03;43;-3;3
2023-07-08 20:07:04;43;-3;3
2023-07-08 20:08:05;43;-3;3
2023-07-08 20:09:06;43;-3;3
2023-07-08 20:10:02;43;-3;3
2023-07-08 20:11:03;43;-3;3
2023-07-08 20:12:04;43;-3;3
2023-07-08 20:13:05;43;-3;3
2023-07-08 20:14:06;43;-3;3
2023-07-08 20:15:02;44;-4;4
2023-07-08 20:16:03;43;-3;3
2023-07-08 20:17:04;43;-3;3
2023-07-08 20:18:05;44;-3;3
2023-07-08 20:19:05;43;-3;3
2023-07-08 20:20:02;44;-3;3
2023-07-08 20:21:03;43;-3;3
2023-07-08 20:22:04;43;-3;3
2023-07-08 20:23:05;43;-3;3
2023-07-08 20:24:05;43;-3;3
2023-07-08 20:25:02;43;-3;3
2023-07-08 20:26:03;43;-3;3
2023-07-08 20:27:04;43;-4;4
2023-07-08 20:28:04;43;-3;3
2023-07-08 20:29:05;43;-3;3
2023-07-08 20:30:06;43;-3;3
2023-07-08 20:31:03;43;-3;3
2023-07-08 20:32:03;44;-3;3
2023-07-08 20:33:04;43;-3;3
2023-07-08 20:34:05;43;-3;3
2023-07-08 20:35:06;43;-3;3
2023-07-08 20:36:02;43;-3;3
2023-07-08 20:37:03;43;-3;3
2023-07-08 20:38:04;43;-3;3
2023-07-08 20:39:05;43;-4;4
2023-07-08 20:40:06;43;-3;3
2023-07-08 20:41:02;43;-3;3
2023-07-08 20:42:03;43;-3;3
2023-07-08 20:43:04;43;-3;3
2023-07-08 20:44:05;43;-3;3
2023-07-08 20:45:06;43;-3;3
2023-07-08 20:46:02;43;-3;3
2023-07-08 20:47:03;43;-3;3
2023-07-08 20:48:04;43;-3;3
2023-07-08 20:49:05;43;-3;3
2023-07-08 20:50:06;43;-3;3
2023-07-08 20:51:02;43;-3;3
2023-07-08 20:52:03;43;-3;3
2023-07-08 20:53:04;44;-3;3
2023-07-08 20:54:05;43;-3;3
2023-07-08 20:55:06;43;-3;3
2023-07-08 20:56:02;43;-3;3
2023-07-08 20:57:03;43;-3;3
2023-07-08 20:58:04;43;-3;3
2023-07-08 20:59:05;44;-3;3
2023-07-08 21:00:06;43;-3;3
2023-07-08 21:01:02;43;-3;3
2023-07-08 21:02:03;43;-3;3
2023-07-08 21:03:04;43;-3;3
2023-07-08 21:04:05;43;-3;3
2023-07-08 21:05:06;43;-3;3
2023-07-08 21:06:02;43;-3;3
2023-07-08 21:07:03;43;-3;3
2023-07-08 21:08:04;43;-3;3
2023-07-08 21:09:05;43;-3;3
2023-07-08 21:10:05;43;-3;3
2023-07-08 21:11:02;43;-3;3
2023-07-08 21:12:03;43;-3;3
2023-07-08 21:13:04;43;-3;3
2023-07-08 21:14:04;43;-3;3
2023-07-08 21:15:05;43;-3;3
2023-07-08 21:16:02;43;-3;3
2023-07-08 21:17:03;43;-3;3
2023-07-08 21:18:04;43;-3;3
2023-07-08 21:19:04;43;-3;3
2023-07-08 21:20:05;43;-3;3
2023-07-08 21:21:06;43;-3;3
2023-07-08 21:22:03;43;-3;3
2023-07-08 21:23:03;43;-3;3
2023-07-08 21:24:04;43;-3;3
2023-07-08 21:25:05;43;-3;3
2023-07-08 21:26:06;43;-3;3
2023-07-08 21:27:02;43;-3;3
2023-07-08 21:28:03;43;-3;3
2023-07-08 21:29:04;43;-3;3
2023-07-08 21:30:05;43;-3;3
2023-07-08 21:31:06;43;-3;3
2023-07-08 21:32:02;43;-3;3
2023-07-08 21:33:03;43;-3;3
2023-07-08 21:34:04;43;-3;3
2023-07-08 21:35:05;43;-3;3
2023-07-08 21:36:06;43;-3;3
2023-07-08 21:37:02;43;-3;3
2023-07-08 21:38:03;43;-3;3
2023-07-08 21:39:04;43;-3;3
2023-07-08 21:40:05;43;-3;3
2023-07-08 21:41:06;43;-3;3
2023-07-08 21:42:02;43;-3;3
2023-07-08 21:43:03;43;-3;3
2023-07-08 21:44:04;43;-3;3
2023-07-08 21:45:05;43;-3;3
2023-07-08 21:46:06;43;-3;3
2023-07-08 21:47:02;43;-3;3
2023-07-08 21:48:03;43;-3;3
2023-07-08 21:49:04;43;-3;3
2023-07-08 21:50:05;43;-3;3
2023-07-08 21:51:06;43;-3;3
2023-07-08 21:52:02;43;-3;3
2023-07-08 21:53:03;43;-3;3
2023-07-08 21:54:04;43;-3;3
2023-07-08 21:55:05;43;-3;3
2023-07-08 21:56:05;43;-3;3
2023-07-08 21:57:02;43;-3;3
2023-07-08 21:58:03;43;-3;3
2023-07-08 21:59:04;43;-3;3
2023-07-08 22:00:05;43;-3;3
2023-07-08 22:01:05;43;-3;3
2023-07-08 22:02:02;43;-3;3
2023-07-08 22:03:03;43;-3;3
2023-07-08 22:04:04;43;-3;3
2023-07-08 22:05:04;43;-3;3
2023-07-08 22:06:05;43;-3;3
2023-07-08 22:07:06;43;-3;3
2023-07-08 22:08:03;43;-3;3
2023-07-08 22:09:03;43;-3;3
2023-07-08 22:10:04;43;-3;3
2023-07-08 22:11:05;43;-3;3
2023-07-08 22:12:06;43;-3;3
2023-07-08 22:13:02;43;-3;3
2023-07-08 22:14:03;43;-3;3
2023-07-08 22:15:04;43;-3;3
2023-07-08 22:16:05;43;-3;3
2023-07-08 22:17:06;43;-3;3
2023-07-08 22:18:02;43;-3;3
2023-07-08 22:19:03;43;-3;3
2023-07-08 22:20:04;43;-3;3
2023-07-08 22:21:05;43;-3;3
2023-07-08 22:22:06;43;-3;3
2023-07-08 22:23:02;43;-3;3
2023-07-08 22:24:03;43;-3;3
2023-07-08 22:25:04;43;-3;3
2023-07-08 22:26:05;43;-3;3
2023-07-08 22:27:06;43;-4;4
2023-07-08 22:28:02;43;-3;3
2023-07-08 22:29:03;43;-3;3
2023-07-08 22:30:04;43;-3;3
2023-07-08 22:31:05;43;-3;3
2023-07-08 22:32:06;43;-3;3
2023-07-08 22:33:02;43;-3;3
2023-07-08 22:34:03;43;-3;3
2023-07-08 22:35:04;43;-3;3
2023-07-08 22:36:05;43;-3;3
2023-07-08 22:37:06;43;-3;3
2023-07-08 22:38:02;43;-4;4
2023-07-08 22:39:03;44;-3;3
2023-07-08 22:40:04;43;-3;3
2023-07-08 22:41:05;43;-3;3
2023-07-08 22:42:05;43;-3;3
2023-07-08 22:43:02;43;-3;3
2023-07-08 22:44:03;43;-3;3
2023-07-08 22:45:04;43;-3;3
2023-07-08 22:46:04;43;-3;3
2023-07-08 22:47:05;43;-3;3
2023-07-08 22:48:02;43;-3;3
2023-07-08 22:49:03;43;-3;3
2023-07-08 22:50:04;43;-3;3
2023-07-08 22:51:04;43;-3;3
2023-07-08 22:52:05;43;-3;3
2023-07-08 22:53:06;43;-3;3
2023-07-08 22:54:03;43;-3;3
2023-07-08 22:55:03;43;-3;3
2023-07-08 22:56:04;43;-3;3
2023-07-08 22:57:05;44;-3;3
2023-07-08 22:58:06;43;-3;3
2023-07-08 22:59:03;43;-3;3
2023-07-08 23:00:03;43;-3;3
2023-07-08 23:01:04;43;-3;3
2023-07-08 23:02:05;43;-3;3
2023-07-08 23:03:06;43;-3;3
2023-07-08 23:04:02;43;-3;3
2023-07-08 23:05:03;43;-3;3
2023-07-08 23:06:04;43;-3;3
2023-07-08 23:07:05;43;-3;3
2023-07-08 23:08:06;43;-3;3
2023-07-08 23:09:02;43;-3;3
2023-07-08 23:10:03;43;-3;3
2023-07-08 23:11:04;43;-3;3
2023-07-08 23:12:05;43;-3;3
2023-07-08 23:13:06;43;-3;3
2023-07-08 23:14:02;43;-3;3
2023-07-08 23:15:03;43;-3;3
2023-07-08 23:16:04;43;-3;3
2023-07-08 23:17:05;43;-3;3
2023-07-08 23:18:06;43;-3;3
2023-07-08 23:19:02;43;-3;3
2023-07-08 23:20:03;43;-3;3
2023-07-08 23:21:04;43;-3;3
2023-07-08 23:22:05;43;-3;3
2023-07-08 23:23:06;43;-3;3
2023-07-08 23:24:02;43;-3;3
2023-07-08 23:25:03;43;-3;3
2023-07-08 23:26:04;43;-3;3
2023-07-08 23:27:05;43;-3;3
2023-07-08 23:28:06;43;-3;3
2023-07-08 23:29:02;43;-3;3
2023-07-08 23:30:03;43;-3;3
2023-07-08 23:31:04;43;-3;3
2023-07-08 23:32:05;44;-3;3
2023-07-08 23:33:06;43;-3;3
2023-07-08 23:34:02;43;-3;3
2023-07-08 23:35:03;43;-3;3
2023-07-08 23:36:04;43;-3;3
2023-07-08 23:37:05;43;-3;3
2023-07-08 23:38:05;43;-3;3
2023-07-08 23:39:02;43;-3;3
2023-07-08 23:40:03;43;-3;3
2023-07-08 23:41:04;43;-3;3
2023-07-08 23:42:05;43;-3;3
2023-07-08 23:43:05;43;-3;3
2023-07-08 23:44:02;43;-3;3
2023-07-08 23:45:03;43;-3;3
2023-07-08 23:46:04;43;-3;3
2023-07-08 23:47:04;43;-3;3
2023-07-08 23:48:05;43;-3;3
2023-07-08 23:49:06;43;-3;3
2023-07-08 23:50:03;43;-3;3
2023-07-08 23:51:03;43;-3;3
2023-07-08 23:52:04;43;-3;3
2023-07-08 23:53:05;43;-3;3
2023-07-08 23:54:06;43;-3;3
2023-07-08 23:55:02;43;-3;3
2023-07-08 23:56:03;43;-3;3
2023-07-08 23:57:04;43;-3;3
2023-07-08 23:58:05;43;-3;3
2023-07-08 23:59:06;43;-3;3
