2023-04-11 00:03:38;3.95;0.00
2023-04-11 00:18:40;3.95;0.00
2023-04-11 00:33:41;3.95;0.00
2023-04-11 00:48:42;3.95;0.00
2023-04-11 01:03:38;3.95;0.00
2023-04-11 01:18:39;3.95;0.00
2023-04-11 01:33:40;3.95;0.00
2023-04-11 01:48:42;3.95;0.00
2023-04-11 02:03:37;3.95;0.00
2023-04-11 02:18:43;3.95;0.00
2023-04-11 02:33:39;3.95;0.00
2023-04-11 02:48:39;3.95;0.00
2023-04-11 03:03:40;3.95;0.00
2023-04-11 03:18:41;3.95;0.00
2023-04-11 03:33:42;3.95;0.00
2023-04-11 03:48:38;3.95;0.00
2023-04-11 04:03:39;3.95;0.00
2023-04-11 04:18:40;3.95;0.00
2023-04-11 04:33:41;3.95;0.00
2023-04-11 04:48:42;3.95;0.00
2023-04-11 05:03:38;3.95;0.00
2023-04-11 05:18:39;3.94;0.00
2023-04-11 05:33:39;3.94;0.00
2023-04-11 05:48:40;3.94;0.00
2023-04-11 06:03:41;3.94;0.00
2023-04-11 06:18:41;3.94;0.00
2023-04-11 06:33:37;3.94;0.00
2023-04-11 06:48:43;3.94;0.00
2023-04-11 07:03:39;3.94;0.00
2023-04-11 07:18:40;3.94;0.00
2023-04-11 07:33:41;3.94;0.00
2023-04-11 07:48:43;3.94;0.00
2023-04-11 08:03:40;3.94;0.00
2023-04-11 08:18:43;3.95;0.00
2023-04-11 08:33:43;3.97;0.00
2023-04-11 08:48:42;3.96;0.00
2023-04-11 09:03:43;3.96;0.00
2023-04-11 09:18:43;3.96;0.00
2023-04-11 09:33:44;3.97;0.00
2023-04-11 09:48:45;3.97;0.00
2023-04-11 10:03:47;3.97;0.00
2023-04-11 10:18:44;3.97;0.00
2023-04-11 10:33:47;4.06;0.00
2023-04-11 10:48:45;4.13;0.00
2023-04-11 11:03:49;3.96;0.00
2023-04-11 11:18:47;4.08;0.00
2023-04-11 11:33:45;3.99;0.00
2023-04-11 11:48:44;4.04;0.00
2023-04-11 12:03:49;4.02;0.00
2023-04-11 12:18:48;4.07;0.00
2023-04-11 12:33:48;4.08;0.00
2023-04-11 12:48:47;4.12;0.00
2023-04-11 13:03:47;3.96;0.00
2023-04-11 13:18:46;4.12;0.00
2023-04-11 13:33:46;4.08;0.00
2023-04-11 13:48:46;4.08;0.00
2023-04-11 14:03:46;3.96;0.00
2023-04-11 14:18:46;4.07;0.00
2023-04-11 14:33:46;3.95;0.00
2023-04-11 14:48:45;3.96;0.00
2023-04-11 15:03:50;3.96;0.00
2023-04-11 15:18:44;3.96;0.00
2023-04-11 15:33:49;3.97;0.00
2023-04-11 15:48:49;3.97;0.00
2023-04-11 16:03:48;3.97;0.00
2023-04-11 16:18:48;3.96;0.00
2023-04-11 16:33:47;3.97;0.00
2023-04-11 16:48:45;3.96;0.00
2023-04-11 17:03:44;3.97;0.00
2023-04-11 17:18:48;3.97;0.00
2023-04-11 17:33:46;3.96;0.00
2023-04-11 17:48:45;3.96;0.00
2023-04-11 18:03:48;3.96;0.00
2023-04-11 18:18:45;3.96;0.00
2023-04-11 18:33:43;3.96;0.00
2023-04-11 18:48:44;3.96;0.00
2023-04-11 19:03:45;3.96;0.00
2023-04-11 19:18:41;3.96;0.00
2023-04-11 19:33:46;3.96;0.00
2023-04-11 19:48:41;3.96;0.00
2023-04-11 20:03:46;3.96;0.00
2023-04-11 20:18:40;3.96;0.00
2023-04-11 20:33:44;3.96;0.00
2023-04-11 20:48:43;3.96;0.00
2023-04-11 21:03:43;3.96;0.00
2023-04-11 21:18:42;3.96;0.00
2023-04-11 21:33:41;3.96;0.00
2023-04-11 21:48:45;3.96;0.00
2023-04-11 22:03:39;3.96;0.00
2023-04-11 22:18:43;3.96;0.00
2023-04-11 22:33:42;3.96;0.00
2023-04-11 22:48:40;3.96;0.00
2023-04-11 23:03:44;3.96;0.00
2023-04-11 23:18:43;3.96;0.00
2023-04-11 23:33:41;3.96;0.00
2023-04-11 23:48:40;3.96;0.00
