2020-11-27 0:2:42;4.35;69;21.60;11;0.200;0.017;23.71;74.7;0.017;12.1201;6.096;12.356;6.213;276;276;276;276;276;276;276;276;276;276;271;272;272;271;272;272;271;271;272;271;273;273;273;273;273;273;273;273;273;273
2020-11-27 0:32:43;4.34;56;21.60;11;0.200;0.017;23.51;74.3;0.017;12.0921;6.085;12.318;6.231;276;276;276;276;276;276;276;276;276;276;272;272;272;272;272;272;272;272;272;272;273;273;273;273;273;273;273;273;273;273
2020-11-27 1:2:39;4.34;57;21.20;11;0.198;0.018;23.01;73.4;0.017;11.9331;6.127;12.145;6.312;277;277;277;277;277;277;277;277;277;277;272;272;272;272;272;272;272;272;272;272;273;273;273;273;273;273;273;274;274;274
2020-11-27 1:32:39;4.34;56;20.90;11;0.197;0.018;22.61;72.6;0.017;11.9041;6.115;12.105;6.336;277;277;277;277;277;277;277;277;277;277;273;273;273;273;273;273;273;273;273;273;274;274;274;274;274;274;274;274;274;274
2020-11-27 2:2:39;4.33;57;20.30;11;0.196;0.018;22.11;71.9;0.017;11.8231;6.037;12.009;6.300;277;277;277;277;277;277;277;277;277;277;401;404;405;405;405;405;406;406;406;406;274;274;274;274;274;274;274;274;274;274
2020-11-27 2:32:39;4.33;54;20.10;11;0.195;0.018;21.71;71.1;0.017;11.7951;6.026;11.970;6.324;277;277;277;277;277;277;277;277;277;277;491;495;496;497;497;498;498;498;498;498;274;274;274;274;274;274;274;274;274;274
2020-11-27 3:2:38;4.33;55;19.80;11;0.196;0.017;21.31;70.3;0.016;11.8671;5.906;12.033;6.233;277;277;277;277;277;277;277;277;277;277;495;499;500;501;501;502;502;502;503;503;274;274;274;274;274;274;274;274;274;274
2020-11-27 3:32:42;4.33;53;19.70;11;0.192;0.018;20.91;69.6;0.017;11.6101;6.056;11.763;6.428;277;277;277;277;277;277;277;277;277;277;497;502;503;504;504;505;505;505;505;506;275;274;274;275;274;275;274;274;275;274
2020-11-27 4:2:41;4.33;55;19.40;11;0.194;0.018;20.71;69.2;0.017;11.6841;5.936;11.827;6.336;278;278;278;278;278;278;278;278;278;278;499;503;504;505;506;506;506;507;507;507;275;275;275;275;275;275;275;275;275;275
2020-11-27 4:32:39;4.33;59;19.10;11;0.194;0.017;20.31;68.5;0.016;11.7351;5.809;11.871;6.228;278;278;278;278;278;278;278;278;278;278;500;505;514;514;514;514;514;514;514;514;275;275;275;275;275;275;275;275;275;275
2020-11-27 5:2:37;4.33;66;18.70;11;0.196;0.017;19.91;67.8;0.016;11.8061;5.692;11.936;6.129;278;278;278;278;278;278;278;278;278;278;501;506;508;508;509;509;510;510;510;510;275;275;275;275;275;275;275;275;275;275
2020-11-27 5:32:39;4.32;71;18.40;11;0.193;0.017;19.71;67.5;0.016;11.6551;5.733;11.775;6.201;278;278;278;278;278;278;278;278;278;278;503;508;509;510;510;511;511;511;512;512;275;275;275;275;275;275;275;275;275;275
2020-11-27 6:2:37;4.32;73;18.50;11;0.196;0.017;19.51;67.1;0.015;11.8501;5.565;11.965;6.046;278;278;278;278;278;278;278;278;278;278;503;507;509;509;510;510;511;511;511;511;276;276;275;275;275;276;276;275;275;275
2020-11-27 6:32:39;4.32;76;18.90;11;0.194;0.017;19.31;66.8;0.016;11.7041;5.608;11.815;6.099;279;278;278;278;278;278;278;278;278;278;500;505;506;507;507;508;508;508;508;509;276;276;276;276;276;276;276;276;276;276
2020-11-27 7:2:37;4.32;74;19.80;11;0.196;0.017;19.31;66.8;0.015;11.8291;5.557;11.943;6.038;279;279;279;279;279;279;279;279;279;279;477;481;482;483;483;484;484;484;484;485;276;276;276;276;276;276;276;276;276;276
2020-11-27 7:32:40;4.33;77;21.10;11;0.192;0.017;19.71;67.5;0.016;11.6131;5.717;11.734;6.177;279;278;278;278;279;279;278;279;278;279;486;491;492;493;493;494;494;494;494;495;276;276;276;276;276;276;276;276;276;276
2020-11-27 8:2:39;4.33;82;22.80;11;0.193;0.017;20.11;68.2;0.016;11.6211;5.720;11.758;6.126;278;278;278;278;278;278;278;278;278;278;455;459;460;461;461;461;462;462;462;462;276;276;276;276;276;276;276;276;276;276
2020-11-27 8:32:41;4.34;54;28.40;11;0.193;0.017;20.91;69.6;0.016;11.6331;5.725;11.792;6.056;278;278;278;278;278;278;278;278;278;278;280;280;280;280;280;280;280;280;280;280;276;276;276;276;276;276;276;276;276;276
2020-11-27 9:2:44;4.35;46;31.20;11;0.195;0.017;21.71;71.1;0.016;11.7911;5.686;11.973;5.947;278;278;278;278;278;278;278;278;278;278;279;279;279;279;279;279;279;279;279;279;276;276;276;276;276;276;276;276;276;276
2020-11-27 9:32:46;4.36;53;29.60;11;0.195;0.016;22.41;72.3;0.016;11.8041;5.691;12.009;5.877;278;278;278;278;278;278;278;278;278;278;278;278;278;278;278;278;278;278;278;278;276;276;276;276;276;276;276;276;276;276
2020-11-27 10:2:49;4.36;50;31.90;11;0.190;0.017;23.31;73.9;0.016;11.4641;5.908;11.687;6.021;278;278;278;278;278;278;278;278;278;278;278;279;278;278;278;278;278;278;278;278;275;275;275;275;275;276;275;275;275;275
2020-11-27 10:32:50;4.38;44;35.70;11;0.190;0.017;24.21;75.5;0.016;11.4791;5.914;11.729;5.941;280;281;280;281;281;280;281;280;280;281;280;280;280;279;278;278;278;278;277;277;275;275;275;275;275;275;275;275;275;275
2020-11-27 11:2:53;4.38;39;36.80;11;0.193;0.016;25.61;78.2;0.016;11.6271;5.870;11.915;5.788;281;281;281;282;282;282;282;282;282;281;276;276;276;276;276;276;276;276;276;276;275;275;275;275;275;275;275;275;275;275
2020-11-27 11:32:55;4.40;37;37.70;11;0.189;0.016;29.51;85.1;0.017;11.4021;6.188;11.809;5.731;285;285;285;285;285;285;285;285;285;285;274;274;274;274;274;274;274;274;274;274;272;272;272;272;272;272;272;272;272;272
2020-11-27 12:2:54;4.40;34;37.70;11;0.189;0.015;33.41;92.2;0.018;11.3781;6.335;11.895;5.570;285;285;285;285;285;285;285;285;285;285;273;273;273;273;273;273;273;273;273;273;271;271;271;271;271;271;271;271;271;271
2020-11-27 12:32:59;4.41;32;39.90;11;0.183;0.016;36.11;97.0;0.018;11.0341;6.574;11.611;5.587;283;283;282;282;282;282;283;283;282;282;272;272;272;272;272;272;272;272;272;272;271;271;271;270;271;271;270;271;271;271
2020-11-27 13:2:56;4.41;30;40.10;11;0.188;0.015;37.41;99.3;0.017;11.3441;6.277;11.973;5.252;282;282;282;282;282;282;282;282;282;282;273;272;272;272;271;271;271;271;271;272;271;270;270;271;271;271;271;271;271;271
2020-11-27 13:32:59;4.41;33;39.30;11;0.179;0.015;39.61;103.3;0.018;10.8121;6.545;11.473;5.331;282;282;282;282;282;282;282;282;282;282;273;272;272;271;271;271;272;271;271;271;273;273;273;273;273;273;273;273;273;273
2020-11-27 14:3:16;4.42;29;41.00;11;0.178;0.014;41.61;106.9;0.018;10.7291;6.461;11.440;5.143;283;283;283;283;283;283;283;283;283;283;272;272;272;271;272;271;272;272;272;272;272;272;272;272;272;272;272;272;272;272
2020-11-27 14:33:0;4.42;29;40.70;11;0.176;0.014;42.11;107.8;0.018;10.6271;6.367;11.345;5.038;283;283;283;283;283;283;283;283;283;283;272;272;272;272;272;272;272;272;272;272;271;271;271;271;271;271;271;271;271;271
2020-11-27 15:3:2;4.43;28;41.50;11;0.174;0.014;41.61;106.9;0.017;10.5151;6.269;11.215;4.980;283;282;282;282;282;282;282;282;282;283;271;271;271;271;271;271;271;271;271;271;272;272;272;272;272;272;272;272;272;272
2020-11-27 15:33:6;4.43;28;42.00;11;0.166;0.014;41.61;106.9;0.018;10.0101;6.381;10.664;5.099;283;283;283;283;283;283;283;283;283;283;271;271;271;271;271;271;271;271;271;271;272;272;272;272;272;272;272;272;272;272
2020-11-27 16:3:6;4.44;26;41.90;11;0.160;0.014;41.61;106.9;0.018;9.6661;6.452;10.293;5.166;282;282;282;282;282;282;282;282;282;282;271;271;271;271;271;271;271;271;271;271;273;273;273;273;273;273;273;273;273;273
2020-11-27 16:33:4;4.44;27;40.50;11;0.165;0.014;42.11;107.8;0.017;9.9891;6.161;10.650;4.904;283;283;283;283;283;283;283;283;283;283;271;271;271;271;271;271;271;271;271;271;273;273;273;273;273;273;273;273;273;273
2020-11-27 17:3:7;4.44;27;40.10;11;0.163;0.014;42.61;108.8;0.017;9.8171;6.195;10.476;4.912;284;284;284;284;284;284;284;283;284;284;271;271;271;271;271;271;271;271;271;271;274;274;274;274;274;274;274;274;274;274
2020-11-27 17:33:3;4.43;28;39.10;11;0.158;0.014;41.61;106.9;0.017;9.5481;6.135;10.164;4.921;284;284;284;284;284;284;284;284;284;284;272;272;272;272;272;272;272;272;272;272;274;274;274;274;274;274;274;274;274;274
2020-11-27 18:3:2;4.41;36;34.50;11;0.158;0.013;38.71;101.6;0.016;9.5631;5.778;10.093;4.835;284;284;284;284;284;284;284;284;284;284;275;273;273;273;273;273;273;273;273;273;275;275;275;275;275;275;275;275;275;275
2020-11-27 18:32:56;4.40;40;32.00;11;0.151;0.014;36.11;97.0;0.016;9.1391;5.752;9.592;4.954;286;286;286;286;286;286;286;286;286;286;279;279;279;279;279;279;279;279;278;278;276;276;276;275;276;276;276;275;275;276
2020-11-27 19:2:52;4.39;42;31.60;11;0.153;0.013;34.91;94.9;0.015;9.2751;5.510;9.700;4.837;287;287;287;287;287;287;287;287;287;287;279;279;278;278;278;278;278;278;278;277;276;276;276;276;276;276;276;276;276;276
2020-11-27 19:32:51;4.39;47;30.60;11;0.150;0.014;33.81;92.9;0.015;9.0991;5.534;9.494;4.919;287;287;287;287;287;287;287;287;287;287;282;282;281;281;281;281;281;280;280;280;276;276;276;276;276;276;276;276;276;276
2020-11-27 20:2:48;4.38;52;29.60;11;0.149;0.014;32.71;90.9;0.015;9.0331;5.459;9.404;4.912;288;288;288;288;288;288;288;288;288;288;284;284;284;284;284;284;284;284;284;284;276;276;276;276;276;276;276;276;276;276
2020-11-27 20:32:49;4.38;52;29.00;11;0.148;0.014;32.11;89.7;0.015;9.0071;5.446;9.357;4.958;289;289;289;289;289;288;289;288;289;288;288;288;288;288;288;288;288;288;288;288;276;276;276;276;276;276;276;276;276;276
2020-11-27 21:2:49;4.38;53;28.30;11;0.145;0.014;31.11;87.9;0.015;8.8501;5.479;9.178;5.039;289;289;289;289;289;289;289;289;289;289;284;284;284;284;284;284;284;284;284;284;277;277;277;277;277;277;277;277;277;277
2020-11-27 21:32:48;4.37;57;28.00;11;0.151;0.013;30.41;86.8;0.015;9.1561;5.220;9.478;4.848;290;290;290;290;290;290;290;290;290;290;285;285;285;285;285;285;285;285;285;285;277;277;277;277;277;277;277;277;277;277
2020-11-27 22:2:47;4.37;60;27.30;11;0.151;0.014;29.81;85.6;0.015;9.1501;5.217;9.461;4.880;290;290;290;290;290;290;290;290;290;290;285;285;285;285;285;285;285;285;285;285;277;277;277;277;277;277;277;277;277;277
2020-11-27 22:32:45;4.37;60;27.40;11;0.148;0.014;29.51;85.1;0.015;9.0011;5.252;9.298;4.939;292;292;292;291;292;292;291;292;292;292;286;286;286;286;286;286;286;286;286;286;278;278;278;278;278;278;278;278;278;278
2020-11-27 23:2:47;4.37;60;27.60;11;0.148;0.014;29.21;84.6;0.015;8.9981;5.250;9.288;4.958;291;291;291;291;290;291;291;291;291;291;297;298;298;298;298;298;298;298;298;298;278;278;278;278;278;278;278;278;278;278
2020-11-27 23:32:45;4.36;62;27.30;11;0.148;0.014;28.91;84.0;0.015;8.9951;5.249;9.278;4.977;290;290;290;290;290;291;291;291;290;291;293;293;293;293;293;293;293;293;293;293;278;278;278;278;278;278;278;278;278;278
