2021-03-12 00:03:48;1;125;125;125;125;125;125;125;125;125;125;
2021-03-12 00:03:48;2;127;127;127;127;127;127;127;127;127;127;
2021-03-12 00:03:48;3;57;57;57;57;57;57;57;57;57;57;
2021-03-12 00:03:48;4;126;126;126;126;126;125;126;126;126;126;
2021-03-12 00:03:48;5;127;127;127;127;127;127;127;127;127;127;
2021-03-12 00:03:48;ht;99;18.30
2021-03-12 00:03:48;v;4.15
2021-03-12 00:33:47;1;126;125;125;125;125;125;125;125;125;125;
2021-03-12 00:33:47;2;127;127;127;127;127;127;127;127;127;127;
2021-03-12 00:33:47;3;57;57;57;57;57;57;57;57;57;57;
2021-03-12 00:33:47;4;126;126;126;126;126;126;126;126;126;126;
2021-03-12 00:33:47;5;128;128;128;128;128;128;128;128;128;128;
2021-03-12 00:33:47;ht;99;18.40
2021-03-12 00:33:47;v;4.15
2021-03-12 01:03:49;1;125;125;125;125;125;125;125;125;125;125;
2021-03-12 01:03:49;2;128;128;128;128;128;128;128;128;128;128;
2021-03-12 01:03:49;3;55;55;55;55;55;55;55;55;55;55;
2021-03-12 01:03:49;4;124;124;124;124;124;124;124;124;124;124;
2021-03-12 01:03:49;5;128;127;127;127;128;128;128;128;128;128;
2021-03-12 01:03:49;ht;99;18.20
2021-03-12 01:03:49;v;4.15
2021-03-12 01:33:47;1;125;125;125;125;124;125;125;125;125;125;
2021-03-12 01:33:47;2;129;129;129;129;129;129;129;129;129;129;
2021-03-12 01:33:47;3;57;57;57;57;57;57;57;57;57;57;
2021-03-12 01:33:47;4;126;126;125;125;125;126;125;126;126;125;
2021-03-12 01:33:47;5;127;127;127;127;127;127;127;127;127;127;
2021-03-12 01:33:47;ht;99;19.00
2021-03-12 01:33:47;v;4.15
2021-03-12 02:03:46;1;125;125;125;125;125;125;125;125;125;125;
2021-03-12 02:03:46;2;118;118;118;118;118;118;118;118;118;118;
2021-03-12 02:03:46;3;60;60;60;60;59;60;60;59;59;60;
2021-03-12 02:03:46;4;123;123;123;123;123;123;123;123;123;123;
2021-03-12 02:03:46;5;128;128;128;128;128;128;128;128;128;128;
2021-03-12 02:03:46;ht;99;18.60
2021-03-12 02:03:46;v;4.15
2021-03-12 02:33:49;1;126;126;126;126;126;126;126;126;126;126;
2021-03-12 02:33:49;2;128;128;128;128;128;128;128;128;128;128;
2021-03-12 02:33:49;3;59;59;58;58;59;58;59;59;59;59;
2021-03-12 02:33:49;4;123;123;123;123;123;123;123;123;123;123;
2021-03-12 02:33:49;5;128;128;128;128;128;128;128;128;128;128;
2021-03-12 02:33:49;ht;99;18.10
2021-03-12 02:33:49;v;4.15
2021-03-12 03:03:47;1;126;126;126;126;126;126;126;126;126;126;
2021-03-12 03:03:47;2;124;124;124;124;124;124;124;124;124;124;
2021-03-12 03:03:47;3;60;60;60;60;60;60;60;60;60;60;
2021-03-12 03:03:47;4;125;125;125;125;125;125;125;125;125;125;
2021-03-12 03:03:47;5;128;128;127;127;127;128;128;128;128;128;
2021-03-12 03:03:47;ht;99;18.30
2021-03-12 03:03:47;v;4.15
2021-03-12 03:33:49;1;125;125;125;125;125;125;125;125;125;125;
2021-03-12 03:33:49;2;1;1;1;1;2;1;1;1;1;1;
2021-03-12 03:33:49;3;62;62;61;62;62;62;61;61;62;62;
2021-03-12 03:33:49;4;3;3;3;3;3;3;3;3;3;3;
2021-03-12 03:33:49;5;127;128;128;127;127;127;127;127;127;127;
2021-03-12 03:33:49;ht;99;17.70
2021-03-12 03:33:49;v;4.15
2021-03-12 04:03:47;1;125;125;125;125;125;125;125;125;125;125;
2021-03-12 04:03:47;2;1;1;1;1;1;1;1;1;2;1;
2021-03-12 04:03:47;3;61;61;61;61;62;62;62;62;62;62;
2021-03-12 04:03:47;4;133;133;133;134;134;134;133;133;134;134;
2021-03-12 04:03:47;5;128;128;128;128;128;128;128;128;128;128;
2021-03-12 04:03:47;ht;99;17.10
2021-03-12 04:03:47;v;4.15
2021-03-12 04:33:49;1;124;124;124;124;124;124;124;124;124;124;
2021-03-12 04:33:49;2;141;141;141;141;142;141;141;142;141;141;
2021-03-12 04:33:49;3;61;62;61;62;61;61;61;61;62;61;
2021-03-12 04:33:49;4;142;142;142;142;142;142;142;142;142;142;
2021-03-12 04:33:49;5;127;127;127;127;127;127;127;127;127;126;
2021-03-12 04:33:49;ht;99;17.20
2021-03-12 04:33:49;v;4.15
2021-03-12 05:03:46;1;125;125;125;125;125;125;125;125;125;125;
2021-03-12 05:03:46;2;119;119;119;119;119;119;119;119;119;119;
2021-03-12 05:03:46;3;60;60;60;60;60;60;60;60;60;60;
2021-03-12 05:03:46;4;140;140;140;140;140;140;140;140;140;140;
2021-03-12 05:03:46;5;127;127;127;127;127;127;127;127;127;127;
2021-03-12 05:03:46;ht;99;17.30
2021-03-12 05:03:46;v;4.14
2021-03-12 05:33:48;1;126;126;126;126;126;126;126;126;126;126;
2021-03-12 05:33:48;2;119;119;119;119;119;119;119;119;119;119;
2021-03-12 05:33:48;3;62;61;62;62;62;62;62;62;61;62;
2021-03-12 05:33:48;4;129;129;129;130;129;129;130;129;130;129;
2021-03-12 05:33:48;5;126;126;126;126;126;126;126;126;126;126;
2021-03-12 05:33:48;ht;99;17.40
2021-03-12 05:33:48;v;4.15
2021-03-12 06:03:45;1;126;126;126;126;126;126;126;126;126;126;
2021-03-12 06:03:45;2;118;118;118;118;117;118;118;118;118;118;
2021-03-12 06:03:45;3;60;60;60;60;60;60;60;60;60;60;
2021-03-12 06:03:45;4;131;131;131;131;131;132;131;131;131;131;
2021-03-12 06:03:45;5;128;128;128;128;128;128;128;128;128;128;
2021-03-12 06:03:45;ht;99;17.00
2021-03-12 06:03:45;v;4.15
2021-03-12 06:33:47;1;127;127;127;127;127;127;127;127;127;127;
2021-03-12 06:33:47;2;119;119;119;118;119;118;119;119;119;119;
2021-03-12 06:33:47;3;60;60;60;60;60;60;60;60;60;60;
2021-03-12 06:33:47;4;132;132;132;132;132;132;132;132;132;132;
2021-03-12 06:33:47;5;126;126;126;126;126;126;126;126;126;126;
2021-03-12 06:33:47;ht;99;17.10
2021-03-12 06:33:47;v;4.14
2021-03-12 07:03:48;1;126;126;126;126;126;126;126;126;126;126;
2021-03-12 07:03:48;2;123;123;123;123;123;123;123;123;123;123;
2021-03-12 07:03:48;3;59;59;59;59;59;59;59;59;59;59;
2021-03-12 07:03:48;4;139;139;139;139;139;139;139;139;139;139;
2021-03-12 07:03:48;5;127;127;127;127;127;127;127;127;127;127;
2021-03-12 07:03:48;ht;99;16.90
2021-03-12 07:03:48;v;4.14
2021-03-12 07:33:45;1;126;126;126;126;126;126;126;126;126;126;
2021-03-12 07:33:45;2;118;118;118;118;118;118;118;118;118;118;
2021-03-12 07:33:45;3;61;61;61;61;61;61;61;61;61;61;
2021-03-12 07:33:45;4;136;136;136;136;136;136;136;136;136;136;
2021-03-12 07:33:45;5;127;127;127;127;127;127;127;127;127;127;
2021-03-12 07:33:45;ht;99;18.40
2021-03-12 07:33:45;v;4.15
2021-03-12 08:03:48;1;127;127;127;127;127;127;127;127;127;127;
2021-03-12 08:03:48;2;2;1;1;1;1;1;2;1;2;1;
2021-03-12 08:03:48;3;55;55;55;55;55;55;55;55;55;55;
2021-03-12 08:03:48;4;126;126;126;126;126;126;126;126;126;126;
2021-03-12 08:03:48;5;127;127;127;127;127;127;127;127;127;127;
2021-03-12 08:03:48;ht;99;20.20
2021-03-12 08:03:48;v;4.15
2021-03-12 08:33:47;1;124;124;124;124;124;124;124;124;124;124;
2021-03-12 08:33:47;2;126;126;126;126;126;126;126;126;126;126;
2021-03-12 08:33:47;3;57;57;57;57;57;57;57;57;57;57;
2021-03-12 08:33:47;4;132;132;132;132;132;132;132;132;132;132;
2021-03-12 08:33:47;5;126;126;126;126;126;126;126;126;126;126;
2021-03-12 08:33:47;ht;99;22.00
2021-03-12 08:33:47;v;4.15
2021-03-12 09:03:52;1;125;125;125;125;125;125;125;125;125;125;
2021-03-12 09:03:52;2;129;129;129;128;129;129;129;129;128;129;
2021-03-12 09:03:52;3;57;56;57;56;57;57;57;57;56;57;
2021-03-12 09:03:52;4;127;127;127;127;127;127;127;127;127;127;
2021-03-12 09:03:52;5;126;126;126;126;126;126;126;126;126;126;
2021-03-12 09:03:52;ht;99;23.50
2021-03-12 09:03:52;v;4.15
2021-03-12 09:33:50;1;2;2;1;2;1;1;1;1;1;1;
2021-03-12 09:33:50;2;123;123;123;123;123;123;123;123;123;123;
2021-03-12 09:33:50;3;55;55;55;55;55;55;55;55;55;55;
2021-03-12 09:33:50;4;124;124;124;124;124;124;124;124;124;124;
2021-03-12 09:33:50;5;126;126;126;126;126;126;126;126;126;126;
2021-03-12 09:33:50;ht;99;23.80
2021-03-12 09:33:50;v;4.15
2021-03-12 10:03:53;1;124;124;124;124;124;124;124;124;124;124;
2021-03-12 10:03:53;2;121;121;121;121;121;121;121;121;121;121;
2021-03-12 10:03:53;3;55;55;55;55;55;55;55;55;54;55;
2021-03-12 10:03:53;4;3;3;3;3;3;3;3;3;3;3;
2021-03-12 10:03:53;5;123;123;123;123;123;123;123;123;123;123;
2021-03-12 10:03:53;ht;99;25.10
2021-03-12 10:03:53;v;4.15
2021-03-12 10:33:54;1;123;123;123;123;123;123;123;123;123;123;
2021-03-12 10:33:54;2;128;128;128;128;128;128;128;128;128;128;
2021-03-12 10:33:54;3;51;51;51;51;51;51;51;51;51;51;
2021-03-12 10:33:54;4;129;128;128;129;128;128;128;128;128;129;
2021-03-12 10:33:54;5;125;125;125;125;125;125;125;125;125;125;
2021-03-12 10:33:54;ht;95;27.50
2021-03-12 10:33:54;v;4.15
2021-03-12 11:03:56;1;123;123;123;123;123;123;123;123;123;123;
2021-03-12 11:03:56;2;125;125;125;125;125;125;125;125;125;125;
2021-03-12 11:03:56;3;48;49;48;49;48;49;49;49;48;48;
2021-03-12 11:03:56;4;123;124;123;123;124;124;123;123;123;123;
2021-03-12 11:03:56;5;124;124;124;124;124;124;124;124;124;124;
2021-03-12 11:03:56;ht;91;28.50
2021-03-12 11:03:56;v;4.15
2021-03-12 11:33:54;1;124;124;124;124;124;124;124;124;124;124;
2021-03-12 11:33:54;2;119;119;119;119;119;119;119;119;119;119;
2021-03-12 11:33:54;3;48;48;48;48;48;48;48;48;48;48;
2021-03-12 11:33:54;4;121;121;121;121;121;121;121;121;121;121;
2021-03-12 11:33:54;5;125;125;125;125;125;125;125;125;125;125;
2021-03-12 11:33:54;ht;92;28.90
2021-03-12 11:33:54;v;4.16
2021-03-12 12:03:58;1;124;124;124;124;124;124;124;124;124;124;
2021-03-12 12:03:58;2;118;118;118;118;118;118;118;118;118;118;
2021-03-12 12:03:58;3;47;47;47;47;47;47;47;47;47;47;
2021-03-12 12:03:58;4;121;121;121;121;121;121;121;121;121;121;
2021-03-12 12:03:58;5;126;126;126;126;126;126;126;126;126;126;
2021-03-12 12:03:58;ht;91;29.20
2021-03-12 12:03:58;v;4.16
2021-03-12 12:33:58;1;125;125;125;125;125;125;125;125;125;125;
2021-03-12 12:33:58;2;123;123;123;123;123;123;123;123;123;123;
2021-03-12 12:33:58;3;47;47;47;47;47;47;47;47;47;47;
2021-03-12 12:33:58;4;120;120;120;120;121;120;120;120;120;120;
2021-03-12 12:33:58;5;2;2;2;2;2;2;2;2;2;2;
2021-03-12 12:33:58;ht;91;29.00
2021-03-12 12:33:58;v;4.16
2021-03-12 13:03:58;1;124;124;124;124;124;124;124;124;124;124;
2021-03-12 13:03:58;2;124;124;124;124;124;124;124;124;124;124;
2021-03-12 13:03:58;3;47;47;47;47;47;47;47;47;47;47;
2021-03-12 13:03:58;4;121;121;121;121;121;121;121;121;121;121;
2021-03-12 13:03:58;5;125;125;125;125;125;125;125;125;125;125;
2021-03-12 13:03:58;ht;93;29.10
2021-03-12 13:03:58;v;4.16
2021-03-12 13:33:58;1;124;124;124;124;124;124;124;124;124;124;
2021-03-12 13:33:58;2;118;118;118;118;118;118;118;118;118;118;
2021-03-12 13:33:58;3;48;48;48;48;48;48;48;48;48;48;
2021-03-12 13:33:58;4;121;121;121;121;121;121;121;121;121;121;
2021-03-12 13:33:58;5;2;1;1;1;1;2;1;1;1;1;
2021-03-12 13:33:58;ht;92;29.10
2021-03-12 13:33:58;v;4.16
2021-03-12 14:03:58;1;124;124;124;124;124;124;124;124;124;124;
2021-03-12 14:03:58;2;115;115;115;115;115;115;115;115;115;115;
2021-03-12 14:03:58;3;49;50;49;49;49;49;49;49;49;50;
2021-03-12 14:03:58;4;121;121;121;121;121;121;121;121;121;121;
2021-03-12 14:03:58;5;126;126;126;126;126;126;126;126;126;126;
2021-03-12 14:03:58;ht;84;29.30
2021-03-12 14:03:58;v;4.16
2021-03-12 14:33:58;1;124;124;124;124;124;124;124;124;124;124;
2021-03-12 14:33:58;2;128;128;128;128;128;128;128;128;128;128;
2021-03-12 14:33:58;3;50;50;51;51;51;50;51;51;51;51;
2021-03-12 14:33:58;4;120;120;120;120;120;120;120;120;120;120;
2021-03-12 14:33:58;5;2;2;2;2;2;2;2;2;2;2;
2021-03-12 14:33:58;ht;91;29.20
2021-03-12 14:33:58;v;4.16
2021-03-12 15:03:58;1;124;124;124;124;124;124;124;124;124;124;
2021-03-12 15:03:58;2;2;2;2;2;2;2;2;2;2;2;
2021-03-12 15:03:58;3;44;44;44;44;44;44;44;44;44;44;
2021-03-12 15:03:58;4;121;121;121;121;121;121;120;121;121;121;
2021-03-12 15:03:58;5;121;121;121;120;121;121;121;121;121;121;
2021-03-12 15:03:58;ht;88;29.40
2021-03-12 15:03:58;v;4.16
2021-03-12 15:33:58;1;124;124;124;124;124;124;124;124;124;124;
2021-03-12 15:33:58;2;2;2;1;2;2;2;2;2;2;1;
2021-03-12 15:33:58;3;47;47;47;47;47;47;47;47;47;47;
2021-03-12 15:33:58;4;122;121;122;122;122;122;122;122;122;122;
2021-03-12 15:33:58;5;118;118;118;118;118;118;118;118;118;118;
2021-03-12 15:33:58;ht;85;29.70
2021-03-12 15:33:58;v;4.16
2021-03-12 16:03:59;1;124;124;124;124;124;124;124;124;124;124;
2021-03-12 16:03:59;2;2;2;2;2;2;2;2;2;1;2;
2021-03-12 16:03:59;3;48;48;48;48;48;48;48;48;48;48;
2021-03-12 16:03:59;4;121;121;121;121;121;121;121;121;121;121;
2021-03-12 16:03:59;5;124;124;124;124;124;124;124;124;124;124;
2021-03-12 16:03:59;ht;90;28.90
2021-03-12 16:03:59;v;4.16
2021-03-12 16:33:58;1;124;124;124;124;124;124;124;124;124;124;
2021-03-12 16:33:58;2;2;2;2;1;1;1;2;1;2;2;
2021-03-12 16:33:58;3;50;50;50;50;50;50;50;50;50;50;
2021-03-12 16:33:58;4;121;121;121;121;121;121;121;121;121;121;
2021-03-12 16:33:58;5;126;125;126;126;126;125;125;125;125;125;
2021-03-12 16:33:58;ht;92;27.60
2021-03-12 16:33:58;v;4.16
2021-03-12 17:03:56;1;124;124;124;124;124;124;124;124;124;124;
2021-03-12 17:03:56;2;128;129;128;128;128;128;128;128;128;128;
2021-03-12 17:03:56;3;51;51;51;51;51;51;51;51;51;51;
2021-03-12 17:03:56;4;122;122;122;122;122;122;122;123;122;122;
2021-03-12 17:03:56;5;124;124;124;124;124;124;124;124;124;124;
2021-03-12 17:03:56;ht;95;27.10
2021-03-12 17:03:56;v;4.16
2021-03-12 17:33:53;1;143;143;143;143;142;143;143;143;143;143;
2021-03-12 17:33:53;2;127;127;127;127;127;127;127;127;127;127;
2021-03-12 17:33:53;3;51;51;51;51;51;51;51;51;51;51;
2021-03-12 17:33:53;4;123;123;123;123;123;123;123;123;123;123;
2021-03-12 17:33:53;5;125;125;125;125;125;125;125;125;125;125;
2021-03-12 17:33:53;ht;95;26.50
2021-03-12 17:33:53;v;4.16
2021-03-12 18:03:54;1;1;1;1;1;1;2;2;2;1;1;
2021-03-12 18:03:54;2;116;116;116;116;116;116;116;116;116;116;
2021-03-12 18:03:54;3;51;51;51;51;51;51;51;51;51;51;
2021-03-12 18:03:54;4;122;123;122;122;122;122;122;122;122;123;
2021-03-12 18:03:54;5;126;126;126;126;126;126;126;126;126;126;
2021-03-12 18:03:54;ht;98;25.40
2021-03-12 18:03:54;v;4.16
2021-03-12 18:33:53;1;136;137;137;137;137;137;136;137;137;137;
2021-03-12 18:33:53;2;125;124;124;125;124;125;125;125;124;124;
2021-03-12 18:33:53;3;51;51;51;50;50;50;50;51;51;50;
2021-03-12 18:33:53;4;123;123;124;123;123;124;124;124;123;123;
2021-03-12 18:33:53;5;126;126;126;126;126;126;126;126;126;126;
2021-03-12 18:33:53;ht;99;24.90
2021-03-12 18:33:53;v;4.16
2021-03-12 19:03:52;1;126;126;126;126;126;126;126;126;126;126;
2021-03-12 19:03:52;2;121;121;121;121;121;121;121;121;121;121;
2021-03-12 19:03:52;3;54;54;54;54;54;54;54;54;54;54;
2021-03-12 19:03:52;4;124;124;124;124;124;124;124;124;124;124;
2021-03-12 19:03:52;5;126;126;126;126;126;126;126;126;126;126;
2021-03-12 19:03:52;ht;99;23.80
2021-03-12 19:03:52;v;4.16
2021-03-12 19:33:50;1;126;126;126;126;126;126;126;126;126;126;
2021-03-12 19:33:50;2;120;120;120;120;120;120;120;120;120;120;
2021-03-12 19:33:50;3;55;55;55;56;55;56;55;55;56;55;
2021-03-12 19:33:50;4;123;123;123;123;123;123;123;123;122;123;
2021-03-12 19:33:50;5;126;126;126;126;126;126;126;126;126;126;
2021-03-12 19:33:50;ht;99;22.90
2021-03-12 19:33:50;v;4.16
2021-03-12 20:03:52;1;125;125;125;125;125;125;125;125;125;125;
2021-03-12 20:03:52;2;121;121;121;121;121;121;121;121;121;121;
2021-03-12 20:03:52;3;53;53;54;53;53;53;53;54;53;53;
2021-03-12 20:03:52;4;123;123;123;123;123;124;123;123;124;124;
2021-03-12 20:03:52;5;125;125;125;125;125;125;125;125;125;125;
2021-03-12 20:03:52;ht;99;22.40
2021-03-12 20:03:52;v;4.16
2021-03-12 20:33:49;1;124;124;124;124;124;124;124;124;124;124;
2021-03-12 20:33:49;2;130;130;130;130;130;130;130;130;130;130;
2021-03-12 20:33:49;3;56;56;56;56;56;56;56;56;56;56;
2021-03-12 20:33:49;4;123;123;123;123;123;123;123;123;123;123;
2021-03-12 20:33:49;5;126;126;126;126;126;126;126;126;126;126;
2021-03-12 20:33:49;ht;99;22.00
2021-03-12 20:33:49;v;4.15
2021-03-12 21:03:50;1;126;126;126;126;126;126;126;126;126;126;
2021-03-12 21:03:50;2;120;120;120;120;120;120;120;120;120;120;
2021-03-12 21:03:50;3;57;57;57;57;57;57;57;57;57;57;
2021-03-12 21:03:50;4;122;123;123;123;123;123;123;123;123;123;
2021-03-12 21:03:50;5;127;127;127;127;127;127;127;127;127;127;
2021-03-12 21:03:50;ht;99;21.90
2021-03-12 21:03:50;v;4.15
2021-03-12 21:33:51;1;126;126;126;126;126;126;126;126;126;126;
2021-03-12 21:33:51;2;124;124;124;124;124;124;124;124;124;124;
2021-03-12 21:33:51;3;55;55;55;55;55;55;55;55;55;55;
2021-03-12 21:33:51;4;125;125;125;125;125;125;125;125;125;125;
2021-03-12 21:33:51;5;127;127;127;127;127;127;127;127;127;127;
2021-03-12 21:33:51;ht;99;21.80
2021-03-12 21:33:51;v;4.15
2021-03-12 22:03:52;1;125;125;125;125;125;125;125;125;124;125;
2021-03-12 22:03:52;2;125;125;125;125;125;125;125;125;125;125;
2021-03-12 22:03:52;3;58;58;58;58;58;58;58;58;58;58;
2021-03-12 22:03:52;4;124;124;124;124;124;124;124;124;124;124;
2021-03-12 22:03:52;5;126;126;126;126;126;126;126;126;126;126;
2021-03-12 22:03:52;ht;99;21.60
2021-03-12 22:03:52;v;4.15
2021-03-12 22:33:48;1;126;126;126;126;126;126;126;126;126;126;
2021-03-12 22:33:48;2;124;124;124;124;124;124;124;124;124;124;
2021-03-12 22:33:48;3;58;58;58;58;58;58;58;58;58;58;
2021-03-12 22:33:48;4;123;123;124;124;124;123;124;123;123;123;
2021-03-12 22:33:48;5;127;127;127;127;127;127;127;127;127;127;
2021-03-12 22:33:48;ht;99;21.50
2021-03-12 22:33:48;v;4.15
2021-03-12 23:03:48;1;125;125;125;125;125;125;125;125;125;125;
2021-03-12 23:03:48;2;125;125;125;125;125;125;125;125;125;125;
2021-03-12 23:03:48;3;58;58;58;58;58;58;58;58;58;58;
2021-03-12 23:03:48;4;124;124;124;124;124;124;124;124;124;124;
2021-03-12 23:03:48;5;127;127;127;127;127;127;127;127;127;127;
2021-03-12 23:03:48;ht;99;21.30
2021-03-12 23:03:48;v;4.15
2021-03-12 23:33:49;1;125;125;125;125;125;125;125;125;125;125;
2021-03-12 23:33:49;2;125;125;125;125;125;125;125;124;125;125;
2021-03-12 23:33:49;3;57;57;57;57;57;57;57;57;57;57;
2021-03-12 23:33:49;4;124;124;124;124;124;124;124;124;124;124;
2021-03-12 23:33:49;5;127;127;127;127;127;127;127;127;127;127;
2021-03-12 23:33:49;ht;99;21.00
2021-03-12 23:33:49;v;4.15
