2021-1-9 0:2:37;4.30;99;21.80;11;0.413;0.075;23.91;75.1;0.074;29.4831;26.468;30.079;26.848;236;236;236;236;236;236;237;236;236;237;257;257;257;257;257;257;257;257;257;257;249;249;249;249;249;249;249;249;249;249
2021-1-9 0:32:37;4.29;99;22.10;11;0.413;0.075;23.91;75.1;0.074;29.4751;26.463;30.064;26.874;237;237;237;237;236;236;236;236;236;237;257;257;257;257;256;257;257;257;257;257;249;249;249;249;249;249;249;249;249;249
2021-1-9 1:2:38;4.29;99;20.60;11;0.415;0.073;23.91;75.1;0.072;29.6641;25.996;30.264;26.369;236;235;236;236;236;236;236;236;236;236;257;257;257;257;257;257;256;257;256;257;250;249;249;249;249;249;250;250;249;249
2021-1-9 1:32:38;4.29;99;20.20;11;0.413;0.075;23.91;75.1;0.074;29.4831;26.468;30.079;26.848;236;236;236;236;236;236;236;236;236;236;257;257;257;257;257;257;257;257;257;257;249;249;249;250;249;250;249;249;250;249
2021-1-9 2:2:40;4.30;99;22.30;11;0.405;0.076;23.91;75.1;0.075;28.7351;27.106;29.315;27.495;235;234;235;234;234;234;234;234;234;235;256;257;256;256;257;257;257;256;256;256;250;249;250;249;249;250;249;250;250;250
2021-1-9 2:32:37;4.29;99;19.20;11;0.415;0.073;23.91;75.1;0.072;29.6641;25.996;30.264;26.369;236;237;237;237;236;237;237;236;236;237;257;256;257;257;257;257;257;257;257;256;249;249;250;250;250;250;250;250;250;250
2021-1-9 3:2:38;4.29;99;18.60;11;0.415;0.073;23.91;75.1;0.072;29.6641;25.996;30.264;26.369;237;237;237;237;237;237;237;237;237;237;257;257;257;257;257;257;257;257;257;257;250;250;250;250;250;250;250;250;250;250
2021-1-9 3:32:37;4.28;99;17.80;11;0.407;0.075;23.91;75.1;0.074;28.9371;26.625;29.521;27.007;237;237;237;237;237;237;237;237;237;237;257;257;257;257;257;257;257;257;257;257;250;250;250;250;249;250;250;250;250;250
2021-1-9 4:2:36;4.27;99;17.80;11;0.405;0.076;23.91;75.1;0.075;28.7351;27.106;29.315;27.495;238;238;238;238;238;238;238;238;238;238;257;257;257;257;257;256;256;256;257;257;249;249;249;249;249;249;249;249;249;249
2021-1-9 4:32:34;4.27;99;18.10;11;0.415;0.073;23.91;75.1;0.072;29.6641;25.996;30.264;26.369;238;238;238;238;238;238;238;238;238;238;257;256;257;257;257;256;257;257;256;257;250;249;250;249;249;250;249;249;249;250
2021-1-9 5:2:37;4.27;99;18.10;11;0.415;0.073;23.91;75.1;0.072;29.6641;25.996;30.264;26.369;237;237;237;237;237;237;237;237;237;237;257;257;257;257;257;257;257;257;257;257;250;249;249;249;249;249;249;249;250;250
2021-1-9 5:32:36;4.27;99;18.10;11;0.415;0.073;23.91;75.1;0.072;29.6641;25.996;30.264;26.369;238;238;238;238;238;238;238;238;238;238;256;256;257;256;256;257;257;257;257;256;249;249;249;249;249;249;249;249;250;249
2021-1-9 6:2:34;4.27;99;18.00;11;0.407;0.075;23.91;75.1;0.074;28.9371;26.625;29.521;27.007;238;238;238;238;238;238;238;238;238;238;257;257;256;257;257;257;257;257;257;257;250;249;249;249;249;249;250;250;249;249
2021-1-9 6:32:37;4.27;99;18.00;11;0.415;0.073;23.91;75.1;0.072;29.6641;25.996;30.264;26.369;237;237;237;237;237;237;237;237;237;237;256;257;256;257;257;256;257;257;257;257;249;249;249;250;249;250;249;249;250;249
2021-1-9 7:2:35;4.27;99;18.20;11;0.415;0.073;23.91;75.1;0.072;29.6641;25.996;30.264;26.369;238;237;238;238;238;238;238;238;238;238;257;256;257;257;257;257;257;256;257;257;249;249;250;249;249;250;249;250;249;249
2021-1-9 7:32:34;4.27;99;18.50;11;0.407;0.075;23.91;75.1;0.074;28.9371;26.625;29.521;27.007;237;237;237;237;237;237;237;237;237;237;257;257;256;257;257;257;256;257;256;257;250;249;249;249;249;249;249;249;250;249
2021-1-9 8:2:37;4.28;99;19.30;11;0.415;0.073;23.91;75.1;0.072;29.6641;25.996;30.264;26.369;237;237;237;237;237;237;237;237;237;237;257;256;257;257;256;256;257;256;256;257;249;249;249;249;249;249;249;249;249;249
2021-1-9 8:32:37;4.30;99;20.40;11;0.415;0.073;23.91;75.1;0.072;29.6641;25.996;30.264;26.369;236;236;236;236;236;236;236;236;236;236;256;256;257;257;256;257;256;257;257;256;250;249;250;250;249;250;250;249;249;249
2021-1-9 9:2:38;4.31;99;21.70;11;0.407;0.075;23.91;75.1;0.074;28.9371;26.625;29.521;27.007;235;235;235;235;235;235;235;235;235;236;256;257;256;256;256;256;257;256;256;257;249;249;250;250;249;250;250;249;250;250
2021-1-9 9:32:40;4.32;99;22.10;11;0.407;0.075;23.91;75.1;0.074;28.9371;26.625;29.521;27.007;235;235;235;235;235;235;235;235;235;235;256;256;256;256;256;256;256;257;257;256;249;249;249;249;249;249;249;249;249;249
2021-1-9 10:2:39;4.33;99;24.30;11;0.415;0.073;23.91;75.1;0.072;29.6641;25.996;30.264;26.369;236;235;236;236;236;236;236;236;236;236;256;256;256;256;256;256;257;256;256;256;250;250;250;250;250;249;250;249;250;249
2021-1-9 10:32:44;4.35;99;26.80;11;0.407;0.075;23.91;75.1;0.074;28.9451;26.631;29.535;26.980;238;238;238;238;238;238;238;238;238;238;256;256;256;256;256;256;256;256;256;256;249;250;250;250;250;250;249;250;250;250
2021-1-9 11:2:43;4.35;97;30.80;11;0.407;0.075;23.91;75.1;0.074;28.9371;26.625;29.521;27.007;243;242;242;242;242;242;242;243;242;242;256;256;256;256;256;256;256;256;256;256;249;250;249;249;250;250;250;250;249;250
2021-1-9 11:32:49;4.36;93;31.80;11;0.415;0.073;23.91;75.1;0.072;29.6641;25.996;30.264;26.369;248;248;248;248;248;248;248;248;248;248;256;256;256;256;256;256;256;256;256;256;250;250;250;250;250;250;249;250;249;250
2021-1-9 12:2:49;4.37;99;30.10;11;0.407;0.075;23.91;75.1;0.074;28.9371;26.625;29.521;27.007;258;258;258;258;258;258;258;258;258;258;256;256;256;256;256;256;256;256;256;256;250;249;250;249;250;249;250;250;249;250
2021-1-9 12:32:50;4.37;95;30.80;11;0.407;0.075;23.91;75.1;0.074;28.9371;26.625;29.521;27.007;263;263;263;263;263;263;263;263;263;263;256;256;256;256;256;256;256;256;256;256;250;250;250;250;250;250;250;250;250;250
2021-1-9 13:2:51;4.38;94;31.50;11;0.407;0.075;23.91;75.1;0.074;28.9371;26.625;29.521;27.007;269;268;269;269;269;269;269;269;269;269;256;256;256;256;256;256;256;256;256;256;250;250;250;250;250;250;250;250;250;250
2021-1-9 13:32:49;4.38;95;32.30;11;0.407;0.075;23.91;75.1;0.074;28.9371;26.625;29.521;27.007;280;280;280;280;280;280;280;280;280;280;256;256;256;256;256;256;256;256;256;256;250;250;250;250;250;250;250;250;250;250
2021-1-9 14:2:54;4.38;86;33.70;11;0.407;0.075;23.91;75.1;0.074;28.9451;26.631;29.535;26.980;289;289;289;289;289;289;289;289;289;289;256;256;256;257;256;256;256;256;256;256;250;250;250;250;250;250;250;250;250;250
2021-1-9 14:32:56;4.39;94;33.90;11;0.402;0.075;23.91;75.1;0.074;28.3961;26.786;28.975;27.137;290;290;290;290;290;291;290;291;291;291;256;256;256;256;256;256;256;256;256;256;250;250;250;250;250;250;250;250;250;250
2021-1-9 15:2:54;4.39;73;34.70;11;0.409;0.074;23.91;75.1;0.073;29.1361;26.158;29.730;26.501;292;292;292;292;292;292;292;292;292;292;256;256;256;256;256;256;256;256;256;256;250;250;250;250;250;250;250;250;250;250
2021-1-9 15:32:57;4.38;76;35.60;11;0.413;0.073;23.91;75.1;0.072;29.5301;25.905;30.132;26.245;295;295;295;295;295;295;295;295;295;295;256;256;256;256;256;256;256;256;256;256;250;250;250;250;250;250;250;250;250;250
2021-1-9 16:2:55;4.38;68;35.50;11;0.409;0.074;23.91;75.1;0.073;29.1361;26.158;29.730;26.501;292;292;292;292;292;292;292;292;292;292;256;256;256;256;256;256;256;256;256;256;250;250;250;250;250;250;250;250;250;250
2021-1-9 16:32:58;4.39;61;32.80;11;0.411;0.074;23.91;75.1;0.073;29.3481;26.375;29.947;26.721;289;289;289;289;289;290;290;290;290;290;256;256;256;256;256;256;256;256;256;256;250;250;250;250;250;250;250;250;250;250
2021-1-9 17:2:58;4.39;61;34.60;11;0.413;0.073;23.91;75.1;0.072;29.5301;25.905;30.132;26.245;290;290;290;290;290;290;290;290;290;290;256;256;256;256;256;256;256;256;256;256;250;250;250;250;250;250;250;250;250;250
2021-1-9 17:32:57;4.38;72;32.60;11;0.409;0.074;23.91;75.1;0.073;29.1361;26.158;29.730;26.501;284;284;284;284;284;284;284;284;284;284;256;256;256;256;256;256;256;256;256;256;250;250;250;250;250;250;250;250;250;250
2021-1-9 18:2:54;4.39;74;31.40;11;0.413;0.073;23.91;75.1;0.072;29.5381;25.911;30.146;26.219;279;279;279;279;279;279;279;279;279;279;256;256;256;256;256;256;256;256;256;256;250;250;250;250;250;250;250;250;250;250
2021-1-9 18:32:55;4.38;75;30.90;11;0.413;0.073;23.91;75.1;0.072;29.5381;25.911;30.146;26.219;276;276;276;276;276;276;276;276;276;276;256;256;256;256;256;256;256;256;256;256;250;250;250;250;250;250;250;250;250;250
2021-1-9 19:2:54;4.38;80;29.80;11;0.413;0.073;23.91;75.1;0.072;29.5381;25.911;30.146;26.219;270;270;270;270;270;270;270;270;270;270;256;256;256;256;256;256;256;256;256;256;250;250;250;250;250;250;250;250;250;250
2021-1-9 19:32:50;4.36;97;28.50;11;0.402;0.075;23.91;75.1;0.074;28.4041;26.792;28.989;27.111;261;262;262;261;262;262;262;262;262;262;256;256;256;256;256;256;256;256;256;256;250;250;250;250;250;250;250;250;250;250
2021-1-9 20:2:48;4.34;99;26.40;11;0.413;0.073;23.91;75.1;0.072;29.5381;25.911;30.146;26.219;258;258;258;258;258;258;258;258;258;258;256;256;256;256;256;256;256;256;256;256;250;250;250;250;250;250;250;250;250;250
2021-1-9 20:32:43;4.33;99;23.80;11;0.413;0.073;24.21;75.5;0.072;29.5381;25.911;30.146;26.219;268;268;268;268;268;268;268;268;268;268;256;256;256;256;256;256;256;256;256;256;250;250;250;250;250;250;250;250;250;250
2021-1-9 21:2:44;4.31;99;22.00;11;0.402;0.075;24.21;75.5;0.074;28.4041;26.792;28.989;27.111;267;267;267;267;267;267;267;267;267;267;256;256;256;256;256;256;256;256;256;256;250;250;250;250;251;250;250;250;250;250
2021-1-9 21:32:38;4.31;99;21.60;11;0.406;0.075;23.91;75.1;0.074;28.8131;26.536;29.406;26.852;267;267;267;267;268;267;267;268;268;267;256;256;256;256;256;256;256;256;256;256;250;250;250;250;250;250;250;250;250;250
2021-1-9 22:2:41;4.30;99;21.50;11;0.406;0.075;24.21;75.5;0.074;28.8211;26.542;29.420;26.825;264;264;264;264;264;264;264;264;264;264;256;256;256;256;256;256;256;256;256;256;250;250;250;250;250;250;250;250;250;250
2021-1-9 22:32:38;4.30;99;21.60;11;0.413;0.073;24.21;75.5;0.072;29.5461;25.916;30.160;26.193;260;260;260;260;260;260;260;260;260;260;256;256;256;256;256;256;256;256;256;256;250;250;250;250;250;250;250;250;250;250
2021-1-9 23:2:39;4.30;99;21.80;11;0.406;0.075;24.21;75.5;0.074;28.8211;26.542;29.420;26.825;257;257;257;257;257;257;257;257;257;257;256;256;256;256;256;256;256;256;256;256;250;250;250;250;250;250;250;250;250;250
2021-1-9 23:32:36;4.30;99;20.60;11;0.406;0.075;24.21;75.5;0.074;28.8211;26.542;29.420;26.825;259;259;259;259;259;259;259;259;259;259;256;256;256;256;256;256;256;256;256;256;250;250;250;250;250;250;250;250;250;250
