#2021-12-21 11:24:58;1;91;91;91;91;91;91;91;91;91;91;
2021-12-21 11:24:58;2;88;88;88;88;88;88;88;88;88;88;
2021-12-21 11:24:58;3;94;95;95;94;95;95;94;94;95;95;
2021-12-21 11:24:58;4;80;80;81;80;80;81;81;80;81;80;
2021-12-21 11:24:58;5;124;124;124;124;124;124;124;124;124;124;
2021-12-21 11:24:58;ht;97;33.70
2021-12-21 11:24:58;v;4.16
2021-12-21 11:30:59;1;92;92;92;92;91;92;92;91;92;92;
2021-12-21 11:30:59;2;101;101;101;101;101;101;101;101;101;101;
2021-12-21 11:30:59;3;2;1;2;1;1;1;1;2;2;1;
2021-12-21 11:30:59;4;124;124;124;124;124;124;124;124;124;124;
2021-12-21 11:30:59;5;2;2;2;2;2;2;2;2;2;2;
2021-12-21 11:30:59;ht;94;32.90
2021-12-21 11:30:59;v;4.17
2021-12-21 12:04:31;1;2;2;2;2;2;2;2;2;2;2;
2021-12-21 12:04:31;2;3;3;3;3;3;3;3;3;3;3;
2021-12-21 12:04:31;3;2;2;2;2;2;1;2;2;2;2;
2021-12-21 12:04:31;4;124;124;124;124;124;124;124;124;124;124;
2021-12-21 12:04:31;5;2;2;1;2;2;2;2;2;2;2;
2021-12-21 12:04:31;ht;94;33.70
2021-12-21 12:04:31;v;4.16
2021-12-21 12:33:57;1;2;2;2;2;2;2;1;2;2;2;
2021-12-21 12:33:57;2;120;120;121;121;121;121;121;121;121;121;
2021-12-21 12:33:57;3;2;2;2;2;2;2;2;2;2;2;
2021-12-21 12:33:57;4;121;121;121;121;121;121;121;121;121;121;
2021-12-21 12:33:57;5;2;2;2;2;2;2;2;2;2;2;
2021-12-21 12:33:57;ht;93;34.60
2021-12-21 12:33:57;v;4.17
2021-12-21 13:04:02;1;116;116;116;116;116;116;116;116;116;116;
2021-12-21 13:04:02;2;121;121;121;121;121;121;121;121;121;121;
2021-12-21 13:04:02;3;1;2;1;1;1;2;1;2;2;2;
2021-12-21 13:04:02;4;120;120;120;120;120;120;120;120;120;120;
2021-12-21 13:04:02;5;2;2;2;2;2;2;2;2;2;2;
2021-12-21 13:04:02;ht;89;36.10
2021-12-21 13:04:02;v;4.17
2021-12-21 13:34:03;1;2;2;2;2;2;2;2;2;2;2;
2021-12-21 13:34:03;2;121;121;121;121;121;121;121;121;121;122;
2021-12-21 13:34:03;3;2;1;2;2;2;2;2;2;2;2;
2021-12-21 13:34:03;4;2;2;2;2;2;2;2;2;2;2;
2021-12-21 13:34:03;5;122;123;123;123;123;123;123;123;123;123;
2021-12-21 13:34:03;ht;85;36.20
2021-12-21 13:34:03;v;4.17
2021-12-21 14:04:04;1;121;121;121;121;121;121;121;121;121;121;
2021-12-21 14:04:04;2;122;123;123;123;123;123;123;123;123;123;
2021-12-21 14:04:04;3;2;2;2;2;1;2;2;2;2;2;
2021-12-21 14:04:04;4;121;121;121;121;121;121;121;121;121;121;
2021-12-21 14:04:04;5;1;2;2;2;2;2;2;2;2;2;
2021-12-21 14:04:04;ht;87;35.00
2021-12-21 14:04:04;v;4.17
2021-12-21 14:34:01;1;117;117;117;117;117;117;117;117;117;117;
2021-12-21 14:34:01;2;122;122;122;122;122;122;122;122;122;122;
2021-12-21 14:34:01;3;1;2;2;2;1;2;1;2;1;2;
2021-12-21 14:34:01;4;123;123;123;123;123;123;123;123;123;123;
2021-12-21 14:34:01;5;2;2;2;2;2;2;2;2;2;2;
2021-12-21 14:34:01;ht;81;36.60
2021-12-21 14:34:01;v;4.17
2021-12-21 15:04:03;1;91;91;91;90;91;91;91;91;90;91;
2021-12-21 15:04:03;2;118;118;118;118;118;118;118;118;118;118;
2021-12-21 15:04:03;3;1;2;2;1;2;2;2;2;2;1;
2021-12-21 15:04:03;4;119;119;119;119;119;119;119;119;119;119;
2021-12-21 15:04:03;5;2;2;2;2;2;2;1;2;2;2;
2021-12-21 15:04:03;ht;83;35.90
2021-12-21 15:04:03;v;4.17
2021-12-21 15:34:01;1;124;124;124;124;124;124;124;124;124;124;
2021-12-21 15:34:01;2;123;123;123;122;123;123;123;123;123;123;
2021-12-21 15:34:01;3;2;2;2;2;2;2;2;2;2;2;
2021-12-21 15:34:01;4;122;122;122;122;122;122;122;122;122;122;
2021-12-21 15:34:01;5;120;120;120;120;120;120;120;120;120;120;
2021-12-21 15:34:01;ht;80;36.70
2021-12-21 15:34:01;v;4.17
2021-12-21 16:04:03;1;124;124;124;124;124;124;124;124;124;124;
2021-12-21 16:04:03;2;122;122;122;122;122;122;122;122;122;122;
2021-12-21 16:04:03;3;1;2;2;1;2;2;2;1;2;2;
2021-12-21 16:04:03;4;122;122;122;122;122;122;121;122;122;122;
2021-12-21 16:04:03;5;123;123;123;123;123;123;123;123;123;123;
2021-12-21 16:04:03;ht;81;36.30
2021-12-21 16:04:03;v;4.17
2021-12-21 16:34:05;1;119;119;119;119;119;119;119;119;119;119;
2021-12-21 16:34:05;2;122;122;123;122;122;123;123;122;122;123;
2021-12-21 16:34:05;3;111;111;111;111;111;111;111;111;111;111;
2021-12-21 16:34:05;4;122;122;122;122;122;122;122;122;122;122;
2021-12-21 16:34:05;5;2;2;2;2;2;2;2;2;2;2;
2021-12-21 16:34:05;ht;79;37.30
2021-12-21 16:34:05;v;4.17
2021-12-21 17:04:02;1;2;2;2;2;2;2;2;2;1;2;
2021-12-21 17:04:02;2;121;121;121;122;122;121;121;121;122;122;
2021-12-21 17:04:02;3;2;2;2;2;2;2;2;2;2;2;
2021-12-21 17:04:02;4;122;122;122;122;122;122;122;122;122;123;
2021-12-21 17:04:02;5;2;2;2;2;2;2;2;2;2;2;
2021-12-21 17:04:02;ht;77;36.50
2021-12-21 17:04:02;v;4.17
2021-12-21 17:34:04;1;97;97;96;97;96;97;97;97;97;97;
2021-12-21 17:34:04;2;121;121;121;121;121;121;120;121;121;121;
2021-12-21 17:34:04;3;91;91;91;91;92;92;91;91;92;91;
2021-12-21 17:34:04;4;122;122;123;122;122;122;122;122;122;122;
2021-12-21 17:34:04;5;2;2;2;2;2;2;2;2;2;2;
2021-12-21 17:34:04;ht;79;35.90
2021-12-21 17:34:04;v;4.18
2021-12-21 18:04:00;1;113;113;113;113;113;113;113;113;113;113;
2021-12-21 18:04:00;2;117;117;117;116;116;117;117;116;116;117;
2021-12-21 18:04:00;3;2;2;2;2;2;2;2;2;2;2;
2021-12-21 18:04:00;4;125;125;125;125;125;125;125;125;125;125;
2021-12-21 18:04:00;5;95;95;96;95;95;95;96;95;96;96;
2021-12-21 18:04:00;ht;76;35.70
2021-12-21 18:04:00;v;4.17
2021-12-21 18:33:59;1;93;93;93;93;93;93;92;93;93;93;
2021-12-21 18:33:59;2;121;121;121;121;121;121;121;121;121;121;
2021-12-21 18:33:59;3;2;2;2;2;2;2;2;2;2;2;
2021-12-21 18:33:59;4;124;124;124;124;124;124;124;124;124;124;
2021-12-21 18:33:59;5;2;2;2;2;2;2;2;2;2;2;
2021-12-21 18:33:59;ht;78;34.30
2021-12-21 18:33:59;v;4.18
2021-12-21 19:03:58;1;118;118;118;118;118;118;118;118;118;118;
2021-12-21 19:03:58;2;122;121;122;122;122;122;122;122;122;122;
2021-12-21 19:03:58;3;96;96;96;97;96;96;96;96;96;96;
2021-12-21 19:03:58;4;124;123;124;124;124;124;124;124;124;124;
2021-12-21 19:03:58;5;2;2;2;2;2;2;2;2;2;2;
2021-12-21 19:03:58;ht;83;33.30
2021-12-21 19:03:58;v;4.18
2021-12-21 19:33:59;1;2;2;2;2;2;2;2;2;2;2;
2021-12-21 19:33:59;2;121;121;121;121;121;121;121;121;121;121;
2021-12-21 19:33:59;3;25;26;25;25;25;25;25;25;25;25;
2021-12-21 19:33:59;4;120;120;120;120;120;120;120;120;120;120;
2021-12-21 19:33:59;5;2;2;2;2;2;2;2;2;2;2;
2021-12-21 19:33:59;ht;89;31.70
2021-12-21 19:33:59;v;4.18
2021-12-21 20:03:55;1;119;119;119;119;119;119;119;119;119;119;
2021-12-21 20:03:55;2;122;122;122;122;123;123;123;123;123;123;
2021-12-21 20:03:55;3;29;29;29;29;29;29;29;29;29;29;
2021-12-21 20:03:55;4;123;123;123;123;123;123;123;123;123;123;
2021-12-21 20:03:55;5;2;2;2;2;2;2;2;2;2;2;
2021-12-21 20:03:55;ht;93;29.80
2021-12-21 20:03:55;v;4.18
2021-12-21 20:33:57;1;102;102;102;102;102;102;102;101;101;101;
2021-12-21 20:33:57;2;124;124;124;124;124;124;124;124;124;124;
2021-12-21 20:33:57;3;1;1;2;1;1;2;2;2;1;2;
2021-12-21 20:33:57;4;125;125;125;125;125;125;125;125;125;125;
2021-12-21 20:33:57;5;2;2;2;2;2;2;2;2;2;1;
2021-12-21 20:33:57;ht;96;28.20
2021-12-21 20:33:57;v;4.17
2021-12-21 21:03:54;1;128;128;128;128;128;128;128;128;128;128;
2021-12-21 21:03:54;2;124;124;124;124;124;124;124;124;124;124;
2021-12-21 21:03:54;3;2;2;2;1;1;1;2;2;2;1;
2021-12-21 21:03:54;4;124;124;124;124;124;124;124;124;124;124;
2021-12-21 21:03:54;5;2;1;1;1;2;1;1;1;2;1;
2021-12-21 21:03:54;ht;97;27.30
2021-12-21 21:03:54;v;4.17
2021-12-21 21:33:55;1;115;115;115;115;115;115;115;115;115;115;
2021-12-21 21:33:55;2;2;2;2;2;2;2;2;2;2;2;
2021-12-21 21:33:55;3;2;2;2;2;2;2;2;2;2;2;
2021-12-21 21:33:55;4;122;122;122;122;122;122;122;122;122;122;
2021-12-21 21:33:55;5;2;2;2;2;2;2;2;2;2;2;
2021-12-21 21:33:55;ht;99;26.60
2021-12-21 21:33:55;v;4.17
2021-12-21 22:03:54;1;131;131;131;131;131;131;131;131;131;131;
2021-12-21 22:03:54;2;120;120;120;120;120;120;120;120;120;120;
2021-12-21 22:03:54;3;2;2;1;2;2;2;1;2;1;2;
2021-12-21 22:03:54;4;118;119;119;118;118;119;118;118;119;119;
2021-12-21 22:03:54;5;108;108;108;108;108;108;108;108;108;108;
2021-12-21 22:03:54;ht;99;25.40
2021-12-21 22:03:54;v;4.17
2021-12-21 22:33:53;1;124;124;124;124;124;124;124;124;124;124;
2021-12-21 22:33:53;2;126;126;125;126;126;126;126;126;126;126;
2021-12-21 22:33:53;3;126;126;126;126;126;126;126;126;126;126;
2021-12-21 22:33:53;4;121;121;121;121;121;121;121;121;121;121;
2021-12-21 22:33:53;5;2;2;2;2;2;2;2;1;2;2;
2021-12-21 22:33:53;ht;99;24.30
2021-12-21 22:33:53;v;4.17
2021-12-21 23:03:50;1;122;122;122;122;122;122;122;122;122;122;
2021-12-21 23:03:50;2;2;2;2;2;2;2;2;2;2;2;
2021-12-21 23:03:50;3;119;119;119;119;119;119;119;119;119;119;
2021-12-21 23:03:50;4;2;2;2;2;2;2;2;2;2;2;
2021-12-21 23:03:50;5;2;2;2;2;2;2;2;2;2;2;
2021-12-21 23:03:50;ht;99;22.90
2021-12-21 23:03:50;v;4.17
2021-12-21 23:33:52;1;128;127;127;127;128;128;127;127;127;127;
2021-12-21 23:33:52;2;135;136;135;136;136;135;135;135;136;136;
2021-12-21 23:33:52;3;124;124;124;124;124;124;124;124;124;124;
2021-12-21 23:33:52;4;127;128;127;127;128;128;128;128;128;128;
2021-12-21 23:33:52;5;102;102;102;102;102;102;102;102;102;102;
2021-12-21 23:33:52;ht;99;23.20
2021-12-21 23:33:52;v;4.17
