2021-09-01 00:00:33;4.06;3.38;65;25.10
2021-09-01 00:05:28;4.06;3.38;66;25.20
2021-09-01 00:10:33;4.06;3.38;65;25.20
2021-09-01 00:15:33;4.06;3.38;64;25.20
2021-09-01 00:20:33;4.06;3.38;64;25.10
2021-09-01 00:25:33;4.06;3.38;64;25.10
2021-09-01 00:30:33;4.06;3.22;64;25.10
2021-09-01 00:35:33;4.06;2.90;64;25.10
2021-09-01 00:40:29;4.06;3.38;64;25.10
2021-09-01 00:45:33;4.06;3.38;64;25.10
2021-09-01 00:50:29;4.06;3.38;64;25.10
2021-09-01 00:55:33;4.06;3.38;64;25.10
2021-09-01 01:00:29;4.06;3.38;64;25.00
2021-09-01 01:05:33;4.06;3.38;64;25.00
2021-09-01 01:10:29;4.06;3.38;64;25.00
2021-09-01 01:15:33;4.06;3.38;64;25.00
2021-09-01 01:20:29;4.06;3.22;65;25.00
2021-09-01 01:25:33;4.06;3.38;65;25.00
2021-09-01 01:30:29;4.06;3.38;65;25.00
2021-09-01 01:35:33;4.06;3.38;65;25.00
2021-09-01 01:40:29;4.06;3.38;65;25.00
2021-09-01 01:45:34;4.06;3.38;65;25.00
2021-09-01 01:50:29;4.06;3.38;65;25.00
2021-09-01 01:55:29;4.06;3.22;65;24.90
2021-09-01 02:00:29;4.06;3.38;65;24.90
2021-09-01 02:05:29;4.06;3.22;65;24.90
2021-09-01 02:10:29;4.06;3.38;65;24.90
2021-09-01 02:15:29;4.06;3.38;65;24.90
2021-09-01 02:20:29;4.06;3.38;65;24.90
2021-09-01 02:25:29;4.06;3.38;65;24.80
2021-09-01 02:30:29;4.06;3.38;65;24.80
2021-09-01 02:35:29;4.06;3.38;65;24.80
2021-09-01 02:40:29;4.06;3.38;65;24.80
2021-09-01 02:45:29;4.06;3.38;65;24.70
2021-09-01 02:50:29;4.06;3.22;65;24.70
2021-09-01 02:55:29;4.06;3.71;66;24.70
2021-09-01 03:00:29;4.06;3.38;66;24.80
2021-09-01 03:05:29;4.06;3.38;66;24.90
2021-09-01 03:10:30;4.06;3.38;66;24.90
2021-09-01 03:15:30;4.06;3.38;66;24.90
2021-09-01 03:20:30;4.06;3.38;66;24.90
2021-09-01 03:25:30;4.06;3.38;66;24.90
2021-09-01 03:30:30;4.06;3.22;66;24.90
2021-09-01 03:35:30;4.06;3.22;65;24.90
2021-09-01 03:40:30;4.06;3.38;65;24.90
2021-09-01 03:45:30;4.06;3.38;65;25.00
2021-09-01 03:50:30;4.06;3.22;65;25.00
2021-09-01 03:55:30;4.06;3.38;65;24.90
2021-09-01 04:00:30;4.06;3.22;65;24.90
2021-09-01 04:05:30;4.06;3.38;65;25.00
2021-09-01 04:10:30;4.06;3.22;66;24.90
2021-09-01 04:15:30;4.06;2.90;66;24.90
2021-09-01 04:20:30;4.06;3.38;66;25.00
2021-09-01 04:25:30;4.06;3.22;66;24.90
2021-09-01 04:30:30;4.06;3.22;66;24.90
2021-09-01 04:35:30;4.06;2.90;66;24.90
2021-09-01 04:40:30;4.06;3.22;66;24.90
2021-09-01 04:45:30;4.06;3.22;66;24.90
2021-09-01 04:50:30;4.06;3.22;66;24.90
2021-09-01 04:55:30;4.06;2.90;66;24.90
2021-09-01 05:00:30;4.06;3.22;66;25.00
2021-09-01 05:05:30;4.06;3.22;66;24.90
2021-09-01 05:10:30;4.06;3.22;66;24.90
2021-09-01 05:15:30;4.06;3.22;66;24.90
2021-09-01 05:20:30;4.06;3.22;66;24.90
2021-09-01 05:25:30;4.06;3.22;66;24.90
2021-09-01 05:30:30;4.06;3.22;66;24.90
2021-09-01 05:35:30;4.06;3.22;66;24.90
2021-09-01 05:40:30;4.06;3.22;66;24.90
2021-09-01 05:45:30;4.06;3.22;66;24.90
2021-09-01 05:50:30;4.06;3.22;66;24.90
2021-09-01 05:55:30;4.06;3.22;66;24.90
2021-09-01 06:00:30;4.06;3.22;66;24.80
2021-09-01 06:05:30;4.06;3.38;67;24.80
2021-09-01 06:10:31;4.06;2.90;67;24.80
2021-09-01 06:15:31;4.06;3.38;67;24.80
2021-09-01 06:20:31;4.06;3.38;67;24.80
2021-09-01 06:25:31;4.06;3.38;67;24.90
2021-09-01 06:30:31;4.06;3.22;67;24.90
2021-09-01 06:35:31;4.06;3.22;67;24.80
2021-09-01 06:40:31;4.06;3.22;67;24.90
2021-09-01 06:45:31;4.06;3.22;67;24.90
2021-09-01 06:50:31;4.06;3.22;67;24.90
2021-09-01 06:55:31;4.06;3.22;67;24.90
2021-09-01 07:00:31;4.06;3.22;67;24.90
2021-09-01 07:05:31;4.06;3.22;67;24.80
2021-09-01 07:10:31;4.06;2.90;67;24.90
2021-09-01 07:15:31;4.06;3.22;67;24.90
2021-09-01 07:20:31;4.06;3.22;67;24.90
2021-09-01 07:25:31;4.06;3.22;67;24.90
2021-09-01 07:30:31;4.06;3.22;67;24.90
2021-09-01 07:35:31;4.06;2.90;67;24.90
2021-09-01 07:40:31;4.06;3.22;67;24.90
2021-09-01 07:45:31;4.06;3.22;67;24.90
2021-09-01 07:50:31;4.06;2.90;67;24.90
2021-09-01 07:55:31;4.06;3.22;67;24.90
2021-09-01 08:00:31;4.06;3.22;67;24.90
2021-09-01 08:05:31;4.06;2.90;67;24.90
2021-09-01 08:10:31;4.05;3.22;67;24.90
2021-09-01 08:15:31;4.06;3.22;67;24.90
2021-09-01 08:20:31;4.05;3.22;67;24.90
2021-09-01 08:25:31;4.06;3.22;67;24.90
2021-09-01 08:30:31;4.05;3.22;67;24.90
2021-09-01 08:35:31;4.05;2.90;67;24.90
2021-09-01 08:40:31;4.05;3.22;67;24.90
2021-09-01 08:45:31;4.05;3.22;67;24.90
2021-09-01 08:50:31;4.05;3.22;67;24.90
2021-09-01 08:55:31;4.05;2.90;68;24.90
2021-09-01 09:00:31;4.05;3.22;68;24.90
2021-09-01 09:05:31;4.05;3.22;67;25.00
2021-09-01 09:10:31;4.05;3.38;68;24.90
2021-09-01 09:15:31;4.05;3.22;68;24.90
2021-09-01 09:20:31;4.05;3.22;68;24.90
2021-09-01 09:25:31;4.05;2.90;68;25.00
2021-09-01 09:30:32;4.05;2.90;68;25.00
2021-09-01 09:35:32;4.05;3.22;67;25.00
2021-09-01 09:40:32;4.05;2.90;67;25.00
2021-09-01 09:45:32;4.05;3.22;68;25.00
2021-09-01 09:50:32;4.05;3.22;68;25.00
2021-09-01 09:55:32;4.05;2.90;68;25.00
2021-09-01 10:00:32;4.05;2.90;68;25.00
2021-09-01 10:05:32;4.05;3.22;67;25.00
2021-09-01 10:10:32;4.05;2.90;67;25.00
2021-09-01 10:15:32;4.05;3.22;67;25.00
2021-09-01 10:20:32;4.05;3.22;67;25.10
2021-09-01 10:25:32;4.05;3.22;67;25.10
2021-09-01 10:30:32;4.05;3.38;67;25.10
2021-09-01 10:35:32;4.05;3.22;68;25.10
2021-09-01 10:40:28;4.05;3.22;68;25.10
2021-09-01 10:45:32;4.05;3.22;68;25.10
2021-09-01 10:50:32;4.05;3.38;68;25.10
2021-09-01 10:55:32;4.05;3.22;68;25.10
2021-09-01 11:00:32;4.05;3.38;68;25.20
2021-09-01 11:05:32;4.05;3.38;68;25.20
2021-09-01 11:10:32;4.05;2.90;68;25.20
2021-09-01 11:15:32;4.05;2.90;67;25.20
2021-09-01 11:20:32;4.05;3.22;67;25.30
2021-09-01 11:25:32;4.05;3.22;66;25.30
2021-09-01 11:30:28;4.05;3.22;66;25.30
2021-09-01 11:35:33;4.05;3.22;67;25.30
2021-09-01 11:40:33;4.05;3.22;67;25.30
2021-09-01 11:45:33;4.05;3.22;67;25.30
2021-09-01 11:50:33;4.05;2.90;67;25.30
2021-09-01 11:55:33;4.05;2.90;67;25.30
2021-09-01 12:00:33;4.05;3.22;68;25.40
2021-09-01 12:05:33;4.05;3.22;68;25.40
2021-09-01 12:10:29;4.05;3.22;68;25.40
2021-09-01 12:15:33;4.05;3.22;68;25.40
2021-09-01 12:20:29;4.05;3.22;68;25.40
2021-09-01 12:25:33;4.05;3.38;69;25.40
2021-09-01 12:30:29;4.05;3.22;72;25.40
2021-09-01 12:35:33;4.05;3.22;72;25.40
2021-09-01 12:40:29;4.05;2.90;73;25.40
2021-09-01 12:45:29;4.05;3.22;74;25.40
2021-09-01 12:50:29;4.05;3.22;74;25.40
2021-09-01 12:55:29;4.05;3.22;74;25.40
2021-09-01 13:00:29;4.05;3.22;74;25.40
2021-09-01 13:05:29;4.05;3.38;75;25.40
2021-09-01 13:10:30;4.05;3.22;74;25.50
2021-09-01 13:15:30;4.05;3.22;74;25.50
2021-09-01 13:20:30;4.05;3.22;74;25.50
2021-09-01 13:25:30;4.05;3.38;73;25.50
2021-09-01 13:30:30;4.05;2.90;73;25.50
2021-09-01 13:35:30;4.05;3.22;72;25.50
2021-09-01 13:40:30;4.05;3.22;72;25.50
2021-09-01 13:45:30;4.05;3.38;71;25.60
2021-09-01 13:50:30;4.05;3.22;71;25.60
2021-09-01 13:55:30;4.05;3.22;71;25.60
2021-09-01 14:00:31;4.05;3.38;71;25.60
2021-09-01 14:05:31;4.05;3.38;71;25.60
2021-09-01 14:10:31;4.05;2.90;71;25.60
2021-09-01 14:15:31;4.05;3.22;71;25.60
2021-09-01 14:20:31;4.05;3.22;71;25.60
2021-09-01 14:25:31;4.05;3.22;71;25.60
2021-09-01 14:30:31;4.05;3.22;71;25.50
2021-09-01 14:35:31;4.05;3.22;71;25.50
2021-09-01 14:40:31;4.05;3.22;71;25.60
2021-09-01 14:45:31;4.05;3.22;71;25.60
2021-09-01 14:50:32;4.05;3.22;71;25.60
2021-09-01 14:55:32;4.05;3.22;71;25.60
2021-09-01 15:00:32;4.05;3.38;71;25.60
2021-09-01 15:05:32;4.05;3.22;72;25.60
2021-09-01 15:10:32;4.05;3.38;72;25.70
2021-09-01 15:15:32;4.05;3.22;72;25.70
2021-09-01 15:20:32;4.05;3.22;72;25.70
2021-09-01 15:25:32;4.05;3.38;72;25.70
2021-09-01 15:30:32;4.05;3.22;71;25.70
2021-09-01 15:35:32;4.05;3.38;71;25.70
2021-09-01 15:40:28;4.05;3.38;71;25.70
2021-09-01 15:45:33;4.05;3.22;72;25.70
2021-09-01 15:50:33;4.05;3.22;72;25.70
2021-09-01 15:55:33;4.05;3.38;72;25.70
2021-09-01 16:00:33;4.05;3.38;72;25.70
2021-09-01 16:05:29;4.05;3.22;71;25.80
2021-09-01 16:10:33;4.05;3.38;72;25.80
2021-09-01 16:15:29;4.05;3.38;71;25.80
2021-09-01 16:20:34;4.05;3.38;71;25.80
2021-09-01 16:25:29;4.05;3.38;71;25.80
2021-09-01 16:30:29;4.05;3.38;71;25.80
2021-09-01 16:35:29;4.05;3.38;70;25.90
2021-09-01 16:40:30;4.05;3.22;73;26.00
2021-09-01 16:45:30;4.05;3.38;73;26.00
2021-09-01 16:50:30;4.05;3.38;73;25.90
2021-09-01 16:55:30;4.05;3.38;74;25.90
2021-09-01 17:00:30;4.05;3.38;74;25.90
2021-09-01 17:05:30;4.05;3.38;75;25.90
2021-09-01 17:10:30;4.05;3.38;75;25.90
2021-09-01 17:15:30;4.05;3.22;77;25.70
2021-09-01 17:20:31;4.05;3.22;77;25.70
2021-09-01 17:25:31;4.05;3.22;77;25.70
2021-09-01 17:30:31;4.05;3.38;76;25.70
2021-09-01 17:35:31;4.05;3.38;77;25.60
2021-09-01 17:40:31;4.05;3.22;78;25.40
2021-09-01 17:45:31;4.05;3.38;78;25.40
2021-09-01 17:50:31;4.05;3.38;78;25.40
2021-09-01 17:55:32;4.05;3.22;77;25.40
2021-09-01 18:00:32;4.05;3.38;77;25.50
2021-09-01 18:05:32;4.05;3.38;78;25.40
2021-09-01 18:10:32;4.05;2.90;78;25.40
2021-09-01 18:15:32;4.05;3.38;79;25.40
2021-09-01 18:20:32;4.05;3.38;80;25.20
2021-09-01 18:25:32;4.05;3.22;81;25.10
2021-09-01 18:30:32;4.05;3.22;80;25.10
2021-09-01 18:35:32;4.05;3.22;80;25.20
2021-09-01 18:40:33;4.05;3.22;79;25.30
2021-09-01 18:45:33;4.05;3.22;79;25.40
2021-09-01 18:50:33;4.05;3.22;80;25.40
2021-09-01 18:55:33;4.05;3.38;79;25.40
2021-09-01 19:00:29;4.05;3.22;79;25.50
2021-09-01 19:05:33;4.05;3.22;78;25.50
2021-09-01 19:10:29;4.05;3.22;78;25.50
2021-09-01 19:15:33;4.05;3.22;77;25.50
2021-09-01 19:20:29;4.05;3.22;77;25.60
2021-09-01 19:25:33;4.05;3.22;77;25.60
2021-09-01 19:30:29;4.05;3.38;77;25.60
2021-09-01 19:35:29;4.05;3.22;77;25.60
2021-09-01 19:40:29;4.05;3.38;76;25.60
2021-09-01 19:45:29;4.05;3.38;76;25.60
2021-09-01 19:50:30;4.05;3.38;76;25.60
2021-09-01 19:55:30;4.05;3.22;76;25.60
2021-09-01 20:00:30;4.05;3.22;76;25.60
2021-09-01 20:05:30;4.05;3.38;76;25.60
2021-09-01 20:10:30;4.05;3.38;76;25.60
2021-09-01 20:15:30;4.05;3.38;76;25.60
2021-09-01 20:20:30;4.05;3.22;76;25.60
2021-09-01 20:25:30;4.05;3.38;76;25.60
2021-09-01 20:30:30;4.05;3.38;76;25.60
2021-09-01 20:35:31;4.05;3.22;76;25.60
2021-09-01 20:40:31;4.05;3.22;76;25.60
2021-09-01 20:45:31;4.05;2.90;76;25.60
2021-09-01 20:50:31;4.05;3.38;76;25.60
2021-09-01 20:55:31;4.05;3.38;76;25.60
2021-09-01 21:00:31;4.05;3.22;76;25.60
2021-09-01 21:05:31;4.05;3.38;76;25.60
2021-09-01 21:10:31;4.05;3.38;76;25.70
2021-09-01 21:15:31;4.05;3.38;76;25.60
2021-09-01 21:20:32;4.05;3.38;76;25.70
2021-09-01 21:25:32;4.05;3.38;76;25.60
2021-09-01 21:30:32;4.05;3.38;76;25.60
2021-09-01 21:35:32;4.04;3.38;76;25.60
2021-09-01 21:40:32;4.05;3.22;76;25.60
2021-09-01 21:45:32;4.05;3.38;76;25.60
2021-09-01 21:50:32;4.04;3.22;76;25.60
2021-09-01 21:55:32;4.04;3.38;76;25.60
2021-09-01 22:00:33;4.04;3.38;76;25.60
2021-09-01 22:05:33;4.04;3.22;76;25.60
2021-09-01 22:10:33;4.04;3.38;76;25.60
2021-09-01 22:15:33;4.04;3.38;76;25.60
2021-09-01 22:20:29;4.04;3.38;76;25.60
2021-09-01 22:25:33;4.04;3.22;76;25.60
2021-09-01 22:30:29;4.04;3.38;76;25.60
2021-09-01 22:35:33;4.04;3.38;76;25.60
2021-09-01 22:40:29;4.05;3.22;76;25.60
2021-09-01 22:45:29;4.04;3.22;76;25.60
2021-09-01 22:50:29;4.04;3.38;76;25.60
2021-09-01 22:55:29;4.04;3.38;76;25.60
2021-09-01 23:00:29;4.04;3.38;76;25.60
2021-09-01 23:05:30;4.04;3.22;76;25.60
2021-09-01 23:10:30;4.04;3.22;76;25.60
2021-09-01 23:15:30;4.04;3.38;76;25.50
2021-09-01 23:20:30;4.04;3.22;76;25.50
2021-09-01 23:25:30;4.04;3.38;76;25.50
2021-09-01 23:30:30;4.04;3.38;76;25.50
2021-09-01 23:35:30;4.04;3.22;76;25.50
2021-09-01 23:40:30;4.04;3.38;76;25.50
2021-09-01 23:45:31;4.04;3.38;76;25.50
2021-09-01 23:50:31;4.04;3.38;76;25.50
2021-09-01 23:55:31;4.04;3.38;76;25.50
