2021-08-26 00:00:30;4.06;2.09;48;14.00
2021-08-26 00:05:29;4.06;2.42;48;13.90
2021-08-26 00:10:32;4.06;2.58;49;13.80
2021-08-26 00:15:30;4.06;2.42;49;13.70
2021-08-26 00:20:29;4.06;2.58;49;13.80
2021-08-26 00:25:28;4.06;2.42;50;13.70
2021-08-26 00:30:31;4.06;2.58;49;13.60
2021-08-26 00:35:30;4.06;2.42;49;13.70
2021-08-26 00:40:28;4.06;2.42;50;13.70
2021-08-26 00:45:31;4.06;2.42;51;13.50
2021-08-26 00:50:30;4.06;2.42;51;13.40
2021-08-26 00:55:29;4.06;2.42;52;13.30
2021-08-26 01:00:32;4.06;2.42;53;13.20
2021-08-26 01:05:30;4.06;2.42;53;13.00
2021-08-26 01:10:29;4.06;2.42;53;13.00
2021-08-26 01:15:28;4.06;2.42;54;13.00
2021-08-26 01:20:31;4.06;2.42;55;13.00
2021-08-26 01:25:29;4.06;2.42;56;13.10
2021-08-26 01:30:28;4.06;2.42;56;13.00
2021-08-26 01:35:31;4.06;2.09;57;13.00
2021-08-26 01:40:30;4.06;2.58;57;13.10
2021-08-26 01:45:28;4.06;2.42;57;13.10
2021-08-26 01:50:31;4.06;2.42;57;13.10
2021-08-26 01:55:30;4.06;2.42;56;13.00
2021-08-26 02:00:29;4.06;2.42;56;13.10
2021-08-26 02:05:32;4.06;2.09;56;13.10
2021-08-26 02:10:30;4.06;2.42;55;13.00
2021-08-26 02:15:29;4.06;2.42;54;13.00
2021-08-26 02:20:32;4.06;2.42;54;13.10
2021-08-26 02:25:30;4.06;2.09;54;13.00
2021-08-26 02:30:29;4.06;2.42;54;13.00
2021-08-26 02:35:32;4.06;2.42;54;13.00
2021-08-26 02:40:26;4.06;2.58;53;13.00
2021-08-26 02:45:29;4.06;2.58;53;12.90
2021-08-26 02:50:28;4.06;2.42;52;12.90
2021-08-26 02:55:31;4.06;2.42;51;12.90
2021-08-26 03:00:29;4.06;2.42;50;12.90
2021-08-26 03:05:28;4.06;2.42;48;13.00
2021-08-26 03:10:31;4.06;2.58;48;12.90
2021-08-26 03:15:30;4.06;2.42;49;12.90
2021-08-26 03:20:28;4.06;2.58;49;12.80
2021-08-26 03:25:31;4.06;2.58;49;12.80
2021-08-26 03:30:30;4.06;2.42;49;12.60
2021-08-26 03:35:28;4.06;2.42;49;12.60
2021-08-26 03:40:27;4.06;2.09;50;12.50
2021-08-26 03:45:30;4.06;2.09;50;12.50
2021-08-26 03:50:28;4.06;2.09;50;12.40
2021-08-26 03:55:31;4.06;2.58;50;12.30
2021-08-26 04:00:30;4.06;2.42;50;12.30
2021-08-26 04:05:28;4.06;2.42;50;12.30
2021-08-26 04:10:31;4.06;2.58;51;12.30
2021-08-26 04:15:30;4.06;2.42;52;12.20
2021-08-26 04:20:28;4.06;2.58;53;12.10
2021-08-26 04:25:31;4.06;2.42;53;12.00
2021-08-26 04:30:30;4.06;2.42;53;12.00
2021-08-26 04:35:28;4.06;2.09;52;11.90
2021-08-26 04:40:31;4.06;2.42;54;11.80
2021-08-26 04:45:30;4.06;2.42;55;11.90
2021-08-26 04:50:28;4.06;2.42;55;11.70
2021-08-26 04:55:31;4.06;2.42;57;11.50
2021-08-26 05:00:30;4.06;2.42;58;11.40
2021-08-26 05:05:28;4.06;2.42;57;11.20
2021-08-26 05:10:31;4.06;2.42;57;11.10
2021-08-26 05:15:30;4.06;2.42;58;11.00
2021-08-26 05:20:28;4.06;2.58;58;10.90
2021-08-26 05:25:31;4.06;2.58;58;10.90
2021-08-26 05:30:29;4.06;2.42;57;10.90
2021-08-26 05:35:28;4.06;2.42;57;10.90
2021-08-26 05:40:31;4.06;2.58;58;10.90
2021-08-26 05:45:29;4.06;2.42;58;11.00
2021-08-26 05:50:28;4.06;2.42;58;10.90
2021-08-26 05:55:30;4.06;2.09;58;11.00
2021-08-26 06:00:29;4.06;2.42;58;10.90
2021-08-26 06:05:32;4.06;2.42;58;11.00
2021-08-26 06:10:30;4.06;2.42;59;11.00
2021-08-26 06:15:29;4.06;2.42;59;10.90
2021-08-26 06:20:31;4.06;2.42;59;10.90
2021-08-26 06:25:30;4.05;2.42;60;10.70
2021-08-26 06:30:28;4.06;2.58;61;10.60
2021-08-26 06:35:31;4.06;2.42;61;10.60
2021-08-26 06:40:29;4.05;2.90;62;10.40
2021-08-26 06:45:28;4.05;2.42;62;10.60
2021-08-26 06:50:31;4.05;2.42;62;10.70
2021-08-26 06:55:29;4.06;2.42;63;10.60
2021-08-26 07:00:27;4.05;2.42;63;10.70
2021-08-26 07:05:30;4.05;2.42;63;10.70
2021-08-26 07:10:29;4.05;2.42;64;10.60
2021-08-26 07:15:31;4.05;2.42;64;10.60
2021-08-26 07:20:30;4.05;2.42;64;10.50
2021-08-26 07:25:28;4.05;2.42;65;10.40
2021-08-26 07:30:31;4.05;2.42;65;10.50
2021-08-26 07:35:29;4.05;2.42;66;10.50
2021-08-26 07:40:28;4.05;2.42;68;10.30
2021-08-26 07:45:30;4.06;2.58;68;10.50
2021-08-26 07:50:29;4.06;2.42;64;11.90
2021-08-26 07:55:32;4.07;2.42;61;12.90
2021-08-26 08:00:30;4.07;2.42;59;13.30
2021-08-26 08:05:29;4.07;2.42;57;14.20
2021-08-26 08:10:31;4.08;2.58;55;14.80
2021-08-26 08:15:30;4.08;2.58;54;14.80
2021-08-26 08:20:29;4.08;2.58;52;15.60
2021-08-26 08:25:32;4.08;2.90;52;15.90
2021-08-26 08:30:30;4.09;2.58;50;16.70
2021-08-26 08:35:29;4.08;2.90;49;17.00
2021-08-26 08:40:28;4.08;2.90;49;17.00
2021-08-26 08:45:31;4.08;3.38;50;16.90
2021-08-26 08:50:30;4.09;3.38;49;17.30
2021-08-26 08:55:29;4.08;3.22;48;18.00
2021-08-26 09:00:29;4.08;3.22;46;18.80
2021-08-26 09:05:32;4.08;3.22;46;19.10
2021-08-26 09:10:32;4.08;3.22;46;18.80
2021-08-26 09:15:31;4.08;3.22;46;19.40
2021-08-26 09:20:30;4.08;3.22;45;19.70
2021-08-26 09:25:30;4.08;3.22;47;19.10
2021-08-26 09:30:30;4.09;3.22;44;20.40
2021-08-26 09:35:29;4.09;3.22;45;19.60
2021-08-26 09:40:29;4.09;2.90;44;20.20
2021-08-26 09:45:29;4.09;3.38;44;20.00
2021-08-26 09:50:33;4.08;2.90;43;20.40
2021-08-26 09:55:29;4.09;3.22;42;20.80
2021-08-26 10:00:29;4.08;3.22;43;20.20
2021-08-26 10:05:29;4.09;3.22;45;19.10
2021-08-26 10:10:29;4.09;3.22;48;17.70
2021-08-26 10:15:30;4.09;3.22;50;16.90
2021-08-26 10:20:30;4.09;3.71;51;16.60
2021-08-26 10:25:31;4.08;3.22;53;16.10
2021-08-26 10:30:31;4.08;3.71;52;16.40
2021-08-26 10:35:31;4.08;3.38;53;16.30
2021-08-26 10:40:32;4.09;3.22;55;16.00
2021-08-26 10:45:32;4.09;3.22;56;16.00
2021-08-26 10:50:33;4.08;3.22;55;16.40
2021-08-26 10:55:33;4.08;3.38;55;16.50
2021-08-26 11:00:33;4.08;3.38;54;16.60
2021-08-26 11:05:33;4.08;3.22;52;16.80
2021-08-26 11:10:28;4.08;3.38;51;16.60
2021-08-26 11:15:33;4.08;2.90;50;16.80
2021-08-26 11:20:32;4.08;2.58;51;17.00
2021-08-26 11:25:32;4.08;2.58;49;17.30
2021-08-26 11:30:32;4.08;2.42;48;17.20
2021-08-26 11:35:31;4.08;2.58;46;17.20
2021-08-26 11:40:31;4.08;2.58;44;17.30
2021-08-26 11:45:30;4.08;2.58;45;17.40
2021-08-26 11:50:30;4.08;2.90;44;17.60
2021-08-26 11:55:29;4.08;2.90;44;17.80
2021-08-26 12:00:29;4.08;2.58;45;17.80
2021-08-26 12:05:32;4.08;2.90;42;17.90
2021-08-26 12:10:32;4.08;2.58;43;18.10
2021-08-26 12:15:31;4.08;2.58;44;18.10
2021-08-26 12:20:30;4.08;2.42;43;18.40
2021-08-26 12:25:30;4.07;2.90;43;18.60
2021-08-26 12:30:29;4.07;2.58;42;18.90
2021-08-26 12:35:33;4.08;2.58;41;18.90
2021-08-26 12:40:32;4.07;2.58;41;18.90
2021-08-26 12:45:31;4.07;2.42;41;19.10
2021-08-26 12:50:31;4.07;2.58;41;19.20
2021-08-26 12:55:30;4.07;2.58;38;19.20
2021-08-26 13:00:29;4.07;2.58;37;19.40
2021-08-26 13:05:28;4.07;2.42;37;19.40
2021-08-26 13:10:32;4.07;2.58;36;19.60
2021-08-26 13:15:31;4.07;2.58;37;19.80
2021-08-26 13:20:31;4.07;2.58;36;19.60
2021-08-26 13:25:30;4.07;2.90;36;19.60
2021-08-26 13:30:29;4.07;2.58;35;19.80
2021-08-26 13:35:29;4.07;2.58;35;19.90
2021-08-26 13:40:28;4.07;2.90;34;20.00
2021-08-26 13:45:32;4.07;2.58;34;20.00
2021-08-26 13:50:31;4.07;2.90;34;20.20
2021-08-26 13:55:30;4.07;2.58;33;20.30
2021-08-26 14:00:30;4.07;2.58;33;20.40
2021-08-26 14:05:29;4.07;2.58;34;20.30
2021-08-26 14:10:33;4.07;2.42;33;20.20
2021-08-26 14:15:32;4.07;2.58;33;20.30
2021-08-26 14:20:31;4.07;2.42;31;20.50
2021-08-26 14:25:31;4.07;2.58;32;20.50
2021-08-26 14:30:30;4.07;2.58;32;20.50
2021-08-26 14:35:29;4.07;2.58;32;20.70
2021-08-26 14:40:29;4.07;2.42;33;20.60
2021-08-26 14:45:32;4.07;2.58;32;20.70
2021-08-26 14:50:32;4.07;2.58;32;20.90
2021-08-26 14:55:31;4.07;2.58;32;20.90
2021-08-26 15:00:31;4.07;2.90;33;20.90
2021-08-26 15:05:30;4.07;2.90;33;20.80
2021-08-26 15:10:29;4.07;2.90;30;20.80
2021-08-26 15:15:29;4.07;2.90;32;20.80
2021-08-26 15:20:28;4.07;2.90;32;20.80
2021-08-26 15:25:32;4.07;2.58;31;20.80
2021-08-26 15:30:31;4.07;2.90;30;21.00
2021-08-26 15:35:31;4.07;2.90;31;20.90
2021-08-26 15:40:30;4.07;2.90;32;20.90
2021-08-26 15:45:30;4.07;2.90;33;21.00
2021-08-26 15:50:29;4.07;2.90;30;21.10
2021-08-26 15:55:33;4.07;2.58;30;21.10
2021-08-26 16:00:32;4.07;2.58;29;21.20
2021-08-26 16:05:32;4.07;2.58;30;21.10
2021-08-26 16:10:31;4.07;2.58;31;21.20
2021-08-26 16:15:31;4.07;2.58;30;21.20
2021-08-26 16:20:30;4.07;2.42;30;21.10
2021-08-26 16:25:29;4.07;2.58;30;21.10
2021-08-26 16:30:29;4.07;2.90;31;21.00
2021-08-26 16:35:33;4.07;2.90;31;21.00
2021-08-26 16:40:32;4.07;2.90;31;21.20
2021-08-26 16:45:32;4.07;2.90;30;21.10
2021-08-26 16:50:31;4.07;2.90;30;21.10
2021-08-26 16:55:30;4.07;2.90;31;21.00
2021-08-26 17:00:30;4.07;2.90;31;21.10
2021-08-26 17:05:29;4.07;2.90;30;21.00
2021-08-26 17:10:29;4.07;2.90;30;21.10
2021-08-26 17:15:33;4.07;2.90;31;21.00
2021-08-26 17:20:32;4.07;2.90;31;21.00
2021-08-26 17:25:27;4.07;2.42;30;21.00
2021-08-26 17:30:31;4.07;2.58;30;21.00
2021-08-26 17:35:30;4.07;2.58;31;20.90
2021-08-26 17:40:30;4.07;2.58;31;20.90
2021-08-26 17:45:29;4.07;2.42;30;20.80
2021-08-26 17:50:29;4.07;2.58;31;20.70
2021-08-26 17:55:33;4.07;2.42;32;20.70
2021-08-26 18:00:32;4.07;2.58;31;20.60
2021-08-26 18:05:31;4.07;2.58;31;20.50
2021-08-26 18:10:31;4.07;2.90;32;20.40
2021-08-26 18:15:30;4.07;2.90;32;20.30
2021-08-26 18:20:29;4.07;2.58;32;20.10
2021-08-26 18:25:29;4.07;2.58;33;20.10
2021-08-26 18:30:33;4.07;2.58;33;19.90
2021-08-26 18:35:32;4.07;2.58;33;19.80
2021-08-26 18:40:31;4.07;2.90;34;19.60
2021-08-26 18:45:31;4.07;2.90;34;19.60
2021-08-26 18:50:30;4.07;2.58;34;19.40
2021-08-26 18:55:29;4.07;2.42;34;19.20
2021-08-26 19:00:28;4.07;2.58;35;19.30
2021-08-26 19:05:32;4.07;2.90;36;19.10
2021-08-26 19:10:31;4.07;2.58;37;19.00
2021-08-26 19:15:30;4.07;2.90;37;18.90
2021-08-26 19:20:30;4.07;2.42;37;18.80
2021-08-26 19:25:29;4.07;2.42;37;18.70
2021-08-26 19:30:28;4.07;2.58;38;18.70
2021-08-26 19:35:32;4.07;2.42;37;18.80
2021-08-26 19:40:31;4.07;2.42;38;18.60
2021-08-26 19:45:30;4.07;2.42;38;18.60
2021-08-26 19:50:29;4.07;3.22;38;18.40
2021-08-26 19:55:28;4.07;2.90;38;18.40
2021-08-26 20:00:32;4.07;2.58;38;18.30
2021-08-26 20:05:31;4.07;2.58;38;18.30
2021-08-26 20:10:30;4.07;2.90;38;18.30
2021-08-26 20:15:29;4.06;2.90;38;18.20
2021-08-26 20:20:28;4.07;2.58;38;18.20
2021-08-26 20:25:32;4.06;2.58;38;18.10
2021-08-26 20:30:31;4.06;2.58;38;18.10
2021-08-26 20:35:30;4.06;2.58;38;18.10
2021-08-26 20:40:29;4.06;2.58;38;18.00
2021-08-26 20:45:28;4.06;2.42;38;17.90
2021-08-26 20:50:32;4.06;2.58;38;17.90
2021-08-26 20:55:31;4.06;2.42;38;17.90
2021-08-26 21:00:30;4.06;2.42;38;17.80
2021-08-26 21:05:29;4.06;2.42;38;17.70
2021-08-26 21:10:28;4.06;2.42;39;17.70
2021-08-26 21:15:32;4.06;2.42;39;17.60
2021-08-26 21:20:31;4.06;2.42;40;17.60
2021-08-26 21:25:30;4.06;2.42;40;17.60
2021-08-26 21:30:29;4.06;2.42;40;17.60
2021-08-26 21:35:32;4.06;2.42;40;17.60
2021-08-26 21:40:31;4.06;2.42;40;17.50
2021-08-26 21:45:30;4.06;2.42;41;17.40
2021-08-26 21:50:29;4.06;2.42;40;17.40
2021-08-26 21:55:28;4.06;2.58;41;17.30
2021-08-26 22:00:27;4.06;2.90;41;17.20
2021-08-26 22:05:31;4.06;2.58;41;17.10
2021-08-26 22:10:30;4.06;2.90;42;17.00
2021-08-26 22:15:29;4.06;2.58;41;17.00
2021-08-26 22:20:32;4.06;2.58;41;16.90
2021-08-26 22:25:31;4.06;2.42;41;16.80
2021-08-26 22:30:30;4.06;2.42;41;16.80
2021-08-26 22:35:29;4.06;2.58;41;16.80
2021-08-26 22:40:28;4.06;2.58;41;16.70
2021-08-26 22:45:31;4.06;2.58;42;16.60
2021-08-26 22:50:30;4.06;2.58;42;16.50
2021-08-26 22:55:29;4.06;2.42;42;16.50
2021-08-26 23:00:28;4.06;2.58;41;16.40
2021-08-26 23:05:32;4.06;2.42;42;16.40
2021-08-26 23:10:31;4.06;2.58;42;16.30
2021-08-26 23:15:30;4.06;2.42;42;16.30
2021-08-26 23:20:28;4.06;2.42;41;16.30
2021-08-26 23:25:32;4.06;2.90;42;16.30
2021-08-26 23:30:31;4.06;2.58;43;16.10
2021-08-26 23:35:30;4.06;2.09;43;16.00
2021-08-26 23:40:29;4.06;2.42;43;15.90
2021-08-26 23:45:32;4.06;2.42;44;15.80
2021-08-26 23:50:31;4.06;2.58;44;15.80
2021-08-26 23:55:30;4.06;2.58;44;15.70
