2021-08-30 00:00:29;4.06;2.90;66;19.30
2021-08-30 00:05:28;4.06;2.58;67;19.20
2021-08-30 00:10:32;4.06;2.90;67;19.20
2021-08-30 00:15:31;4.06;2.58;67;19.20
2021-08-30 00:20:30;4.06;2.90;67;19.10
2021-08-30 00:25:30;4.06;2.90;68;19.00
2021-08-30 00:30:29;4.06;2.42;68;19.00
2021-08-30 00:35:32;4.06;2.58;68;19.00
2021-08-30 00:40:32;4.06;2.58;68;18.90
2021-08-30 00:45:31;4.06;2.90;68;19.00
2021-08-30 00:50:30;4.06;2.58;68;19.00
2021-08-30 00:55:29;4.06;2.58;68;18.90
2021-08-30 01:00:29;4.06;2.90;69;18.90
2021-08-30 01:05:32;4.06;2.90;69;18.90
2021-08-30 01:10:31;4.06;2.42;69;18.90
2021-08-30 01:15:31;4.06;2.58;69;18.80
2021-08-30 01:20:30;4.06;2.42;69;18.80
2021-08-30 01:25:29;4.06;2.58;70;18.70
2021-08-30 01:30:28;4.06;2.42;70;18.70
2021-08-30 01:35:32;4.06;2.58;70;18.60
2021-08-30 01:40:31;4.06;2.58;70;18.50
2021-08-30 01:45:30;4.06;2.42;71;18.40
2021-08-30 01:50:29;4.06;2.90;71;18.40
2021-08-30 01:55:29;4.06;2.58;71;18.30
2021-08-30 02:00:32;4.06;2.58;71;18.30
2021-08-30 02:05:31;4.06;2.90;71;18.30
2021-08-30 02:10:31;4.06;2.58;71;18.30
2021-08-30 02:15:30;4.06;2.58;71;18.20
2021-08-30 02:20:29;4.06;2.58;72;18.10
2021-08-30 02:25:32;4.06;2.58;72;18.10
2021-08-30 02:30:27;4.06;2.90;72;18.00
2021-08-30 02:35:31;4.06;2.90;72;18.00
2021-08-30 02:40:30;4.06;2.58;72;17.90
2021-08-30 02:45:29;4.06;2.90;73;17.90
2021-08-30 02:50:28;4.06;2.42;73;17.90
2021-08-30 02:55:32;4.06;2.42;73;17.90
2021-08-30 03:00:31;4.06;2.42;73;17.80
2021-08-30 03:05:30;4.06;2.42;73;17.80
2021-08-30 03:10:29;4.06;2.42;73;17.70
2021-08-30 03:15:33;4.06;2.42;74;17.70
2021-08-30 03:20:27;4.06;2.58;74;17.70
2021-08-30 03:25:31;4.06;2.58;74;17.70
2021-08-30 03:30:30;4.06;2.42;74;17.70
2021-08-30 03:35:29;4.06;2.58;74;17.70
2021-08-30 03:40:32;4.06;2.42;75;17.60
2021-08-30 03:45:31;4.06;2.42;75;17.50
2021-08-30 03:50:30;4.06;2.42;75;17.50
2021-08-30 03:55:30;4.06;2.58;76;17.40
2021-08-30 04:00:29;4.06;2.58;76;17.40
2021-08-30 04:05:32;4.06;2.90;76;17.30
2021-08-30 04:10:27;4.06;2.90;76;17.30
2021-08-30 04:15:30;4.06;2.90;77;17.30
2021-08-30 04:20:29;4.06;2.90;77;17.30
2021-08-30 04:25:28;4.06;2.90;77;17.30
2021-08-30 04:30:32;4.06;2.58;78;17.20
2021-08-30 04:35:31;4.06;2.58;78;17.20
2021-08-30 04:40:30;4.06;2.58;78;17.20
2021-08-30 04:45:29;4.05;2.58;78;17.20
2021-08-30 04:50:32;4.05;2.42;78;17.20
2021-08-30 04:55:31;4.05;2.90;78;17.10
2021-08-30 05:00:30;4.05;2.58;78;17.10
2021-08-30 05:05:29;4.05;2.58;78;17.00
2021-08-30 05:10:28;4.05;2.42;79;16.90
2021-08-30 05:15:32;4.05;2.58;79;16.80
2021-08-30 05:20:31;4.05;2.58;79;16.80
2021-08-30 05:25:30;4.05;2.58;79;16.80
2021-08-30 05:30:29;4.05;2.09;80;16.60
2021-08-30 05:35:32;4.05;2.42;80;16.60
2021-08-30 05:40:31;4.05;2.58;80;16.60
2021-08-30 05:45:30;4.05;2.09;80;16.40
2021-08-30 05:50:29;4.05;2.42;81;16.30
2021-08-30 05:55:28;4.05;2.42;81;16.40
2021-08-30 06:00:31;4.05;2.58;81;16.50
2021-08-30 06:05:30;4.05;2.42;81;16.40
2021-08-30 06:10:29;4.05;2.58;81;16.40
2021-08-30 06:15:28;4.05;2.09;81;16.40
2021-08-30 06:20:32;4.05;2.58;82;16.40
2021-08-30 06:25:31;4.05;2.42;82;16.40
2021-08-30 06:30:30;4.05;2.58;82;16.30
2021-08-30 06:35:29;4.05;2.09;82;16.40
2021-08-30 06:40:28;4.05;2.42;82;16.40
2021-08-30 06:45:31;4.05;2.58;82;16.40
2021-08-30 06:50:30;4.05;2.42;82;16.30
2021-08-30 06:55:29;4.05;2.58;82;16.30
2021-08-30 07:00:32;4.05;2.42;83;16.10
2021-08-30 07:05:31;4.05;2.42;83;16.20
2021-08-30 07:10:30;4.05;2.42;83;16.10
2021-08-30 07:15:29;4.05;2.42;83;16.00
2021-08-30 07:20:28;4.05;2.58;84;16.00
2021-08-30 07:25:31;4.05;2.42;84;16.00
2021-08-30 07:30:30;4.05;2.42;84;16.00
2021-08-30 07:35:29;4.05;2.42;83;16.10
2021-08-30 07:40:28;4.06;2.42;81;16.70
2021-08-30 07:45:31;4.06;2.58;80;17.00
2021-08-30 07:50:30;4.06;2.90;79;17.20
2021-08-30 07:55:29;4.06;2.58;78;17.50
2021-08-30 08:00:28;4.06;2.58;77;17.70
2021-08-30 08:05:32;4.06;2.58;76;18.00
2021-08-30 08:10:31;4.06;2.90;76;18.20
2021-08-30 08:15:30;4.07;3.38;75;18.40
2021-08-30 08:20:29;4.07;3.38;75;18.50
2021-08-30 08:25:29;4.07;3.22;74;18.80
2021-08-30 08:30:32;4.07;3.38;73;19.10
2021-08-30 08:35:32;4.08;3.38;72;19.40
2021-08-30 08:40:31;4.07;3.38;73;19.60
2021-08-30 08:45:31;4.08;3.22;73;19.70
2021-08-30 08:50:30;4.08;3.22;73;19.80
2021-08-30 08:55:30;4.08;3.22;73;20.20
2021-08-30 09:00:29;4.08;3.22;73;20.50
2021-08-30 09:05:29;4.09;3.22;72;20.70
2021-08-30 09:10:29;4.09;3.38;72;20.80
2021-08-30 09:15:33;4.08;3.22;73;20.70
2021-08-30 09:20:28;4.09;3.22;72;21.20
2021-08-30 09:25:33;4.09;3.22;72;21.20
2021-08-30 09:30:33;4.08;3.38;70;22.30
2021-08-30 09:35:33;4.08;3.22;70;22.10
2021-08-30 09:40:28;4.09;3.22;70;22.20
2021-08-30 09:45:33;4.09;3.22;70;22.60
2021-08-30 09:50:29;4.08;3.22;68;23.20
2021-08-30 09:55:34;4.08;3.71;69;23.00
2021-08-30 10:00:30;4.09;3.38;69;23.30
2021-08-30 10:05:30;4.09;3.71;68;23.60
2021-08-30 10:10:30;4.08;3.38;69;23.60
2021-08-30 10:15:31;4.09;3.38;71;22.90
2021-08-30 10:20:32;4.09;3.38;72;22.50
2021-08-30 10:25:32;4.08;3.38;72;22.50
2021-08-30 10:30:33;4.08;3.38;72;22.60
2021-08-30 10:35:29;4.08;3.22;72;22.60
2021-08-30 10:40:30;4.08;3.38;71;22.90
2021-08-30 10:45:31;4.09;3.71;71;23.10
2021-08-30 10:50:32;4.08;3.22;71;23.10
2021-08-30 10:55:33;4.08;3.22;70;23.30
2021-08-30 11:00:33;4.08;3.22;70;23.30
2021-08-30 11:05:29;4.08;3.38;70;23.40
2021-08-30 11:10:30;4.08;3.38;70;23.50
2021-08-30 11:15:30;4.08;3.22;70;23.50
2021-08-30 11:20:31;4.08;3.22;70;23.70
2021-08-30 11:25:31;4.08;3.22;70;23.80
2021-08-30 11:30:31;4.08;3.38;69;23.90
2021-08-30 11:35:31;4.08;3.22;69;24.30
2021-08-30 11:40:31;4.08;3.22;69;24.20
2021-08-30 11:45:32;4.08;3.22;68;24.60
2021-08-30 11:50:32;4.08;3.22;67;24.80
2021-08-30 11:55:32;4.08;3.38;67;24.80
2021-08-30 12:00:32;4.08;3.22;67;24.80
2021-08-30 12:05:32;4.08;3.22;66;24.80
2021-08-30 12:10:32;4.08;3.38;67;24.80
2021-08-30 12:15:32;4.08;3.22;67;24.80
2021-08-30 12:20:32;4.08;3.38;67;24.90
2021-08-30 12:25:33;4.08;3.22;67;25.00
2021-08-30 12:30:28;4.08;3.38;66;25.20
2021-08-30 12:35:33;4.08;3.22;67;25.10
2021-08-30 12:40:33;4.08;3.38;67;25.30
2021-08-30 12:45:33;4.08;3.38;65;25.90
2021-08-30 12:50:33;4.08;3.22;65;26.00
2021-08-30 12:55:29;4.08;3.22;65;25.80
2021-08-30 13:00:33;4.08;3.22;64;26.20
2021-08-30 13:05:29;4.08;3.22;64;26.20
2021-08-30 13:10:33;4.08;3.22;64;26.20
2021-08-30 13:15:29;4.08;3.38;64;26.30
2021-08-30 13:20:29;4.08;3.22;63;26.80
2021-08-30 13:25:30;4.07;3.22;63;26.70
2021-08-30 13:30:30;4.08;3.22;63;26.80
2021-08-30 13:35:30;4.07;3.38;62;26.90
2021-08-30 13:40:30;4.07;3.22;61;27.10
2021-08-30 13:45:30;4.08;3.22;61;27.10
2021-08-30 13:50:30;4.07;3.22;61;27.00
2021-08-30 13:55:31;4.07;2.90;61;26.80
2021-08-30 14:00:31;4.07;3.22;59;27.30
2021-08-30 14:05:31;4.07;3.22;57;27.60
2021-08-30 14:10:31;4.08;3.38;58;27.30
2021-08-30 14:15:32;4.08;3.38;57;27.60
2021-08-30 14:20:32;4.08;3.22;56;27.80
2021-08-30 14:25:32;4.07;3.22;54;28.10
2021-08-30 14:30:33;4.08;3.38;52;28.30
2021-08-30 14:35:33;4.08;3.22;52;28.40
2021-08-30 14:40:33;4.08;3.22;51;28.30
2021-08-30 14:45:29;4.08;3.22;51;28.40
2021-08-30 14:50:30;4.08;3.22;50;28.40
2021-08-30 14:55:30;4.08;3.22;49;28.40
2021-08-30 15:00:30;4.08;3.22;49;28.40
2021-08-30 15:05:31;4.08;3.22;48;28.80
2021-08-30 15:10:31;4.08;3.22;47;28.60
2021-08-30 15:15:32;4.08;3.22;47;28.90
2021-08-30 15:20:32;4.08;3.38;46;29.10
2021-08-30 15:25:33;4.08;3.22;48;28.70
2021-08-30 15:30:33;4.08;3.22;49;28.30
2021-08-30 15:35:29;4.08;3.22;49;28.40
2021-08-30 15:40:30;4.08;3.22;49;28.60
2021-08-30 15:45:30;4.08;2.90;50;28.50
2021-08-30 15:50:31;4.08;3.22;49;28.80
2021-08-30 15:55:32;4.08;3.22;50;28.60
2021-08-30 16:00:32;4.08;3.22;51;28.40
2021-08-30 16:05:33;4.08;3.22;51;28.30
2021-08-30 16:10:33;4.07;3.38;52;28.10
2021-08-30 16:15:29;4.07;3.38;51;28.50
2021-08-30 16:20:30;4.08;3.38;50;28.60
2021-08-30 16:25:30;4.07;3.22;51;28.60
2021-08-30 16:30:31;4.07;3.38;52;28.40
2021-08-30 16:35:31;4.07;3.22;51;28.60
2021-08-30 16:40:32;4.07;3.22;51;28.50
2021-08-30 16:45:32;4.07;3.38;53;27.90
2021-08-30 16:50:33;4.07;3.38;53;28.10
2021-08-30 16:55:33;4.07;3.38;52;28.40
2021-08-30 17:00:29;4.07;3.38;52;28.60
2021-08-30 17:05:30;4.07;3.22;52;28.60
2021-08-30 17:10:30;4.07;3.38;53;28.20
2021-08-30 17:15:31;4.07;3.38;52;28.40
2021-08-30 17:20:32;4.07;3.38;53;28.00
2021-08-30 17:25:32;4.07;3.22;53;28.20
2021-08-30 17:30:28;4.07;3.22;53;28.00
2021-08-30 17:35:33;4.07;3.22;53;28.00
2021-08-30 17:40:29;4.07;3.22;54;27.90
2021-08-30 17:45:30;4.07;3.38;54;27.70
2021-08-30 17:50:30;4.07;3.22;56;27.80
2021-08-30 17:55:30;4.07;3.38;57;27.50
2021-08-30 18:00:31;4.07;3.22;57;27.40
2021-08-30 18:05:31;4.07;3.22;57;27.20
2021-08-30 18:10:32;4.07;3.22;57;27.30
2021-08-30 18:15:32;4.07;3.38;57;27.20
2021-08-30 18:20:28;4.07;3.22;58;27.20
2021-08-30 18:25:33;4.07;3.38;58;27.20
2021-08-30 18:30:29;4.07;3.38;59;26.90
2021-08-30 18:35:34;4.07;3.38;59;26.90
2021-08-30 18:40:30;4.07;3.22;59;27.00
2021-08-30 18:45:30;4.07;3.22;59;26.80
2021-08-30 18:50:30;4.07;3.22;60;26.80
2021-08-30 18:55:31;4.07;3.22;60;26.80
2021-08-30 19:00:31;4.07;3.22;61;26.50
2021-08-30 19:05:31;4.07;3.38;61;26.40
2021-08-30 19:10:31;4.07;3.22;62;26.30
2021-08-30 19:15:32;4.07;3.22;62;26.30
2021-08-30 19:20:32;4.07;3.22;62;26.30
2021-08-30 19:25:32;4.07;3.22;62;26.20
2021-08-30 19:30:32;4.07;3.22;62;26.20
2021-08-30 19:35:32;4.07;2.90;62;26.10
2021-08-30 19:40:33;4.07;3.22;63;26.00
2021-08-30 19:45:33;4.07;3.22;63;26.00
2021-08-30 19:50:33;4.07;2.90;63;25.90
2021-08-30 19:55:33;4.07;3.22;63;25.80
2021-08-30 20:00:29;4.07;3.22;63;25.70
2021-08-30 20:05:33;4.07;3.22;63;25.70
2021-08-30 20:10:29;4.07;3.38;63;25.70
2021-08-30 20:15:29;4.07;2.90;63;25.70
2021-08-30 20:20:29;4.07;3.22;63;25.70
2021-08-30 20:25:29;4.07;3.22;63;25.60
2021-08-30 20:30:29;4.07;3.38;63;25.60
2021-08-30 20:35:30;4.07;3.22;63;25.60
2021-08-30 20:40:30;4.07;3.38;63;25.50
2021-08-30 20:45:30;4.07;3.38;63;25.50
2021-08-30 20:50:30;4.07;3.38;63;25.50
2021-08-30 20:55:30;4.07;3.38;63;25.50
2021-08-30 21:00:30;4.07;3.38;63;25.40
2021-08-30 21:05:30;4.07;3.38;63;25.30
2021-08-30 21:10:30;4.07;3.22;63;25.30
2021-08-30 21:15:30;4.07;3.38;63;25.30
2021-08-30 21:20:30;4.07;3.22;64;25.20
2021-08-30 21:25:30;4.07;3.22;64;25.20
2021-08-30 21:30:30;4.07;2.90;64;25.20
2021-08-30 21:35:30;4.07;3.38;64;25.10
2021-08-30 21:40:30;4.07;3.22;64;25.10
2021-08-30 21:45:30;4.07;3.22;64;25.00
2021-08-30 21:50:30;4.07;3.22;64;24.90
2021-08-30 21:55:30;4.07;3.22;65;24.80
2021-08-30 22:00:30;4.07;3.22;65;24.80
2021-08-30 22:05:30;4.07;3.22;65;24.70
2021-08-30 22:10:30;4.07;3.22;65;24.70
2021-08-30 22:15:30;4.07;3.22;66;24.60
2021-08-30 22:20:30;4.07;3.22;65;24.70
2021-08-30 22:25:30;4.07;3.22;65;24.60
2021-08-30 22:30:30;4.07;3.22;65;24.60
2021-08-30 22:35:30;4.07;3.22;65;24.60
2021-08-30 22:40:30;4.07;3.22;65;24.60
2021-08-30 22:45:30;4.07;3.22;66;24.60
2021-08-30 22:50:30;4.07;3.38;66;24.60
2021-08-30 22:55:30;4.07;3.22;65;24.70
2021-08-30 23:00:30;4.07;3.22;65;24.70
2021-08-30 23:05:30;4.07;3.22;65;24.60
2021-08-30 23:10:30;4.07;3.38;66;24.60
2021-08-30 23:15:30;4.07;3.38;66;24.50
2021-08-30 23:20:30;4.07;3.38;66;24.30
2021-08-30 23:25:30;4.07;3.38;66;24.30
2021-08-30 23:30:30;4.07;3.38;67;24.30
2021-08-30 23:35:30;4.07;3.38;67;24.20
2021-08-30 23:40:29;4.07;3.22;67;24.10
2021-08-30 23:45:29;4.07;3.22;67;24.00
2021-08-30 23:50:29;4.07;3.22;68;23.90
2021-08-30 23:55:29;4.07;3.22;68;23.80
