#2021-07-29 13:48:48;4.03;-1319.92;0;0.00;0;0.00
#2021-07-29 13:52:10;4.03;3.38;48;21.00;47;21.50
#2021-07-29 13:53:53;4.03;3.38;34;19.80;32;20.30
2021-07-29 13:55:50;4.06;2.42;38;14.70;36;15.90
2021-07-29 14:03:25;4.06;111.50;43;12.80;42;12.60
2021-07-29 14:05:06;4.05;112.14;43;12.70;43;12.40
2021-07-29 14:10:32;4.07;111.01;41;12.60;43;12.20
2021-07-29 14:15:27;4.07;111.34;42;12.90;42;11.90
2021-07-29 14:20:30;4.07;111.34;46;12.60;43;12.10
2021-07-29 14:25:29;4.08;111.01;48;12.50;47;11.80
2021-07-29 14:30:28;4.08;111.01;43;12.80;49;11.50
2021-07-29 14:35:27;4.08;110.69;46;12.50;44;11.80
2021-07-29 14:40:45;4.08;111.01;46;12.60;47;11.60
2021-07-29 14:45:26;4.09;110.53;43;12.50;47;11.60
2021-07-29 14:50:30;4.08;110.69;41;13.00;45;11.50
2021-07-29 14:55:29;4.09;110.69;40;13.10;42;12.20
2021-07-29 15:00:28;4.08;110.53;39;12.80;41;12.30
2021-07-29 15:05:31;4.09;110.69;42;12.70;40;12.20
2021-07-29 15:10:30;4.09;110.21;43;12.60;43;11.90
2021-07-29 15:15:29;4.10;109.89;45;12.50;43;11.80
2021-07-29 15:20:28;4.10;110.21;43;12.40;46;11.50
2021-07-29 15:25:31;4.09;110.21;42;12.60;44;11.40
2021-07-29 15:30:30;4.10;110.53;42;12.80;43;11.60
2021-07-29 15:35:29;4.10;110.53;42;13.00;43;11.90
2021-07-29 15:40:28;4.09;110.21;42;12.90;42;12.30
2021-07-29 15:45:27;4.10;110.53;44;12.40;43;12.10
2021-07-29 15:50:30;4.09;110.21;42;12.70;45;11.40
2021-07-29 15:55:29;4.10;110.21;45;12.00;43;11.80
2021-07-29 16:00:28;4.09;109.89;45;12.20;46;11.20
2021-07-29 16:05:27;4.09;110.21;42;12.70;46;11.40
2021-07-29 16:10:30;4.09;109.89;42;12.50;43;12.00
2021-07-29 16:15:29;4.08;109.89;46;12.10;43;12.00
2021-07-29 16:20:28;4.10;109.89;45;11.90;47;11.40
2021-07-29 16:26:09;4.08;109.40;45;12.00;47;11.10
2021-07-29 16:30:23;4.07;109.72;44;11.90;45;11.30
2021-07-29 16:35:31;4.07;109.40;42;12.20;45;11.30
2021-07-29 16:40:30;4.07;109.08;43;11.70;43;11.60
2021-07-29 16:45:29;4.07;109.40;43;11.50;43;11.20
2021-07-29 16:50:28;4.07;109.40;43;11.40;43;10.90
2021-07-29 16:55:27;4.07;109.08;44;11.10;44;10.70
