2021-01-13 00:03:49;1;122;122;122;122;122;122;122;122;122;122;
2021-01-13 00:03:49;2;124;124;124;124;124;124;124;124;124;124;
2021-01-13 00:03:49;3;40;40;40;40;40;40;40;40;40;40;
2021-01-13 00:03:49;4;127;127;127;127;127;127;127;127;127;127;
2021-01-13 00:03:49;5;127;127;127;127;127;127;127;127;127;127;
2021-01-13 00:03:49;ht;99;18.50
2021-01-13 00:03:49;v;4.15
2021-01-13 00:33:47;1;125;125;125;125;125;125;125;125;125;125;
2021-01-13 00:33:47;2;124;124;124;124;124;124;124;124;124;124;
2021-01-13 00:33:47;3;40;40;40;40;40;40;40;40;40;40;
2021-01-13 00:33:47;4;127;127;127;127;127;127;127;127;127;127;
2021-01-13 00:33:47;5;123;123;123;123;123;123;123;123;123;124;
2021-01-13 00:33:47;ht;99;18.00
2021-01-13 00:33:47;v;4.15
2021-01-13 01:03:49;1;121;121;121;121;121;121;121;121;121;121;
2021-01-13 01:03:49;2;125;125;125;125;125;125;125;125;125;125;
2021-01-13 01:03:49;3;40;40;41;41;40;40;40;40;40;40;
2021-01-13 01:03:49;4;126;126;126;127;126;126;126;126;126;126;
2021-01-13 01:03:49;5;1;1;1;1;1;1;1;1;1;1;
2021-01-13 01:03:49;ht;99;17.30
2021-01-13 01:03:49;v;4.14
2021-01-13 01:33:46;1;125;125;125;125;125;125;125;125;125;125;
2021-01-13 01:33:46;2;123;123;123;123;123;123;123;123;123;123;
2021-01-13 01:33:46;3;41;41;41;41;41;41;41;41;41;41;
2021-01-13 01:33:46;4;124;124;124;124;124;124;124;124;124;124;
2021-01-13 01:33:46;5;124;124;124;124;124;124;124;124;124;124;
2021-01-13 01:33:46;ht;99;17.50
2021-01-13 01:33:46;v;4.14
2021-01-13 02:03:48;1;123;123;123;123;123;123;123;123;123;123;
2021-01-13 02:03:48;2;127;127;127;127;127;127;127;127;127;127;
2021-01-13 02:03:48;3;40;40;40;41;40;41;40;41;40;40;
2021-01-13 02:03:48;4;125;125;125;126;126;126;126;126;126;126;
2021-01-13 02:03:48;5;2;1;2;2;2;1;2;1;1;2;
2021-01-13 02:03:48;ht;99;16.90
2021-01-13 02:03:48;v;4.14
2021-01-13 02:33:45;1;123;122;122;122;122;123;123;123;122;122;
2021-01-13 02:33:45;2;132;132;132;132;132;132;132;132;132;132;
2021-01-13 02:33:45;3;40;40;40;40;40;40;40;40;40;40;
2021-01-13 02:33:45;4;126;126;126;126;126;126;126;126;126;126;
2021-01-13 02:33:45;5;127;127;127;127;127;127;127;127;127;127;
2021-01-13 02:33:45;ht;99;16.50
2021-01-13 02:33:45;v;4.14
2021-01-13 03:03:46;1;125;125;125;125;125;125;125;125;125;124;
2021-01-13 03:03:46;2;121;120;121;121;120;121;121;121;121;121;
2021-01-13 03:03:46;3;40;40;40;40;40;40;40;40;40;40;
2021-01-13 03:03:46;4;127;126;126;127;126;126;126;127;126;126;
2021-01-13 03:03:46;5;128;128;128;128;128;128;128;128;128;128;
2021-01-13 03:03:46;ht;99;16.40
2021-01-13 03:03:46;v;4.14
2021-01-13 03:33:47;1;125;125;125;125;125;125;125;125;125;125;
2021-01-13 03:33:47;2;121;121;121;122;121;121;121;121;122;122;
2021-01-13 03:33:47;3;40;40;40;40;40;40;40;40;40;40;
2021-01-13 03:33:47;4;125;125;125;125;125;125;125;125;125;125;
2021-01-13 03:33:47;5;125;125;125;125;125;124;125;125;124;124;
2021-01-13 03:33:47;ht;99;16.30
2021-01-13 03:33:47;v;4.14
2021-01-13 04:03:48;1;125;125;125;125;125;125;125;125;125;125;
2021-01-13 04:03:48;2;122;123;122;122;123;123;122;122;123;122;
2021-01-13 04:03:48;3;37;38;38;38;38;38;38;38;38;38;
2021-01-13 04:03:48;4;126;126;126;126;126;126;126;126;126;125;
2021-01-13 04:03:48;5;110;110;110;110;110;110;110;110;110;110;
2021-01-13 04:03:48;ht;99;15.90
2021-01-13 04:03:48;v;4.14
2021-01-13 04:33:45;1;125;125;125;124;125;125;125;125;125;125;
2021-01-13 04:33:45;2;122;122;122;122;122;122;122;122;122;122;
2021-01-13 04:33:45;3;37;37;36;37;37;36;37;37;37;37;
2021-01-13 04:33:45;4;126;126;126;126;126;126;126;126;126;126;
2021-01-13 04:33:45;5;1;1;1;1;1;1;1;1;1;1;
2021-01-13 04:33:45;ht;99;15.60
2021-01-13 04:33:45;v;4.14
2021-01-13 05:03:45;1;128;128;128;128;128;128;128;128;128;128;
2021-01-13 05:03:45;2;124;124;124;124;124;123;124;124;124;124;
2021-01-13 05:03:45;3;36;36;37;37;37;36;36;36;36;36;
2021-01-13 05:03:45;4;123;123;123;123;123;123;123;123;123;123;
2021-01-13 05:03:45;5;129;129;129;129;129;129;129;129;129;129;
2021-01-13 05:03:45;ht;99;15.30
2021-01-13 05:03:45;v;4.14
2021-01-13 05:33:46;1;118;118;118;118;118;118;118;118;118;118;
2021-01-13 05:33:46;2;123;123;124;123;124;124;124;124;123;123;
2021-01-13 05:33:46;3;36;36;36;36;36;36;36;36;36;36;
2021-01-13 05:33:46;4;123;123;123;123;123;124;124;124;124;124;
2021-01-13 05:33:46;5;129;129;129;129;129;129;129;129;129;129;
2021-01-13 05:33:46;ht;99;15.30
2021-01-13 05:33:46;v;4.14
2021-01-13 06:03:47;1;127;127;127;127;127;127;127;127;127;127;
2021-01-13 06:03:47;2;122;122;122;122;122;122;122;122;122;122;
2021-01-13 06:03:47;3;34;34;34;34;34;34;34;34;34;34;
2021-01-13 06:03:47;4;127;127;127;127;127;127;127;127;127;127;
2021-01-13 06:03:47;5;1;1;1;1;1;1;1;1;1;1;
2021-01-13 06:03:47;ht;99;15.40
2021-01-13 06:03:47;v;4.13
2021-01-13 06:33:47;1;124;124;124;124;124;124;124;124;124;124;
2021-01-13 06:33:47;2;121;121;121;121;121;121;121;121;121;121;
2021-01-13 06:33:47;3;33;33;33;33;33;33;33;33;33;33;
2021-01-13 06:33:47;4;126;126;126;126;126;126;126;126;126;126;
2021-01-13 06:33:47;5;1;1;1;1;1;1;1;1;1;1;
2021-01-13 06:33:47;ht;99;16.20
2021-01-13 06:33:47;v;4.13
2021-01-13 07:03:48;1;127;127;126;127;127;126;126;126;126;126;
2021-01-13 07:03:48;2;123;123;123;123;123;123;123;123;123;123;
2021-01-13 07:03:48;3;30;30;30;30;30;30;30;30;30;30;
2021-01-13 07:03:48;4;123;123;123;123;123;123;123;123;123;123;
2021-01-13 07:03:48;5;124;124;124;124;124;124;124;124;124;124;
2021-01-13 07:03:48;ht;99;17.70
2021-01-13 07:03:48;v;4.14
2021-01-13 07:33:45;1;127;127;127;127;127;127;127;127;127;127;
2021-01-13 07:33:45;2;122;122;122;122;122;122;122;122;122;122;
2021-01-13 07:33:45;3;31;31;31;31;31;31;31;31;31;31;
2021-01-13 07:33:45;4;122;122;122;122;122;122;122;122;122;122;
2021-01-13 07:33:45;5;116;116;116;116;116;116;116;117;117;117;
2021-01-13 07:33:45;ht;99;19.10
2021-01-13 07:33:45;v;4.14
2021-01-13 08:03:49;1;123;123;123;123;123;123;123;123;123;123;
2021-01-13 08:03:49;2;122;122;122;122;122;122;122;122;122;122;
2021-01-13 08:03:49;3;34;35;34;34;34;35;34;34;34;34;
2021-01-13 08:03:49;4;122;122;122;123;122;122;123;122;122;122;
2021-01-13 08:03:49;5;117;118;118;118;118;118;118;118;118;118;
2021-01-13 08:03:49;ht;99;20.60
2021-01-13 08:03:49;v;4.14
2021-01-13 08:33:49;1;124;124;124;124;124;124;124;124;124;124;
2021-01-13 08:33:49;2;121;121;121;121;121;121;121;121;121;121;
2021-01-13 08:33:49;3;37;37;37;37;37;36;37;36;36;37;
2021-01-13 08:33:49;4;125;124;124;125;124;124;124;124;124;124;
2021-01-13 08:33:49;5;135;135;135;135;134;134;134;134;134;134;
2021-01-13 08:33:49;ht;99;21.90
2021-01-13 08:33:49;v;4.14
2021-01-13 09:03:50;1;125;125;124;125;125;125;125;125;125;125;
2021-01-13 09:03:50;2;125;125;125;125;125;125;125;125;125;125;
2021-01-13 09:03:50;3;37;37;37;37;37;37;37;37;37;37;
2021-01-13 09:03:50;4;125;125;125;125;125;125;125;125;125;125;
2021-01-13 09:03:50;5;121;121;121;121;121;120;121;121;121;121;
2021-01-13 09:03:50;ht;99;23.50
2021-01-13 09:03:50;v;4.15
2021-01-13 09:33:53;1;123;123;123;123;123;123;123;123;123;123;
2021-01-13 09:33:53;2;121;121;121;121;121;121;120;120;120;121;
2021-01-13 09:33:53;3;37;37;37;37;37;37;37;37;37;37;
2021-01-13 09:33:53;4;125;125;125;125;126;126;125;126;125;126;
2021-01-13 09:33:53;5;125;125;125;125;125;125;125;125;125;125;
2021-01-13 09:33:53;ht;99;24.70
2021-01-13 09:33:53;v;4.14
2021-01-13 10:03:53;1;124;124;124;124;124;124;124;124;124;124;
2021-01-13 10:03:53;2;123;123;123;123;122;123;123;123;123;123;
2021-01-13 10:03:53;3;37;37;37;37;36;37;37;37;37;37;
2021-01-13 10:03:53;4;126;126;126;126;126;126;126;126;126;126;
2021-01-13 10:03:53;5;118;118;118;118;119;119;119;119;119;119;
2021-01-13 10:03:53;ht;99;26.20
2021-01-13 10:03:53;v;4.15
2021-01-13 10:33:53;1;126;126;126;126;126;126;126;126;126;126;
2021-01-13 10:33:53;2;119;119;119;119;119;119;119;119;119;119;
2021-01-13 10:33:53;3;36;36;35;36;36;35;35;36;36;36;
2021-01-13 10:33:53;4;127;127;127;127;127;127;127;127;127;127;
2021-01-13 10:33:53;5;131;131;131;131;131;131;131;131;131;131;
2021-01-13 10:33:53;ht;99;26.90
2021-01-13 10:33:53;v;4.15
2021-01-13 11:03:55;1;125;125;125;125;125;125;125;125;125;125;
2021-01-13 11:03:55;2;119;119;119;119;119;119;119;119;119;119;
2021-01-13 11:03:55;3;35;35;35;35;35;36;35;35;35;35;
2021-01-13 11:03:55;4;127;128;127;128;127;127;128;128;127;128;
2021-01-13 11:03:55;5;124;124;124;124;124;124;125;125;125;125;
2021-01-13 11:03:55;ht;98;27.80
2021-01-13 11:03:55;v;4.15
2021-01-13 11:33:53;1;123;123;123;123;123;123;123;123;123;123;
2021-01-13 11:33:53;2;121;121;121;121;121;121;121;121;121;121;
2021-01-13 11:33:53;3;35;35;35;35;35;35;35;35;35;35;
2021-01-13 11:33:53;4;126;126;126;126;126;127;127;126;127;127;
2021-01-13 11:33:53;5;125;125;125;125;125;125;125;126;125;125;
2021-01-13 11:33:53;ht;91;29.20
2021-01-13 11:33:53;v;4.15
2021-01-13 12:03:57;1;119;119;119;119;119;119;119;119;119;119;
2021-01-13 12:03:57;2;123;123;123;123;123;123;123;123;123;123;
2021-01-13 12:03:57;3;35;35;35;35;34;35;35;34;35;35;
2021-01-13 12:03:57;4;124;124;123;124;124;123;123;123;124;124;
2021-01-13 12:03:57;5;120;120;120;120;120;120;120;120;120;120;
2021-01-13 12:03:57;ht;90;28.70
2021-01-13 12:03:57;v;4.15
2021-01-13 12:33:56;1;122;122;122;122;122;121;121;121;121;121;
2021-01-13 12:33:56;2;116;116;116;116;115;116;115;116;115;116;
2021-01-13 12:33:56;3;34;35;34;35;35;34;35;35;34;34;
2021-01-13 12:33:56;4;126;126;126;126;126;126;126;126;126;126;
2021-01-13 12:33:56;5;123;123;123;123;123;123;123;123;123;123;
2021-01-13 12:33:56;ht;89;29.50
2021-01-13 12:33:56;v;4.16
2021-01-13 13:03:55;1;123;123;123;123;123;123;123;123;123;123;
2021-01-13 13:03:55;2;118;118;118;118;117;118;118;118;118;118;
2021-01-13 13:03:55;3;34;34;34;34;34;34;34;34;34;34;
2021-01-13 13:03:55;4;126;126;126;125;125;126;125;125;126;126;
2021-01-13 13:03:55;5;133;133;133;133;133;133;134;134;134;134;
2021-01-13 13:03:55;ht;81;30.20
2021-01-13 13:03:55;v;4.16
2021-01-13 13:33:56;1;124;124;123;124;124;124;124;124;124;124;
2021-01-13 13:33:56;2;120;120;120;120;120;120;120;120;120;120;
2021-01-13 13:33:56;3;34;34;34;34;34;34;34;34;34;34;
2021-01-13 13:33:56;4;124;124;124;124;124;124;124;124;124;124;
2021-01-13 13:33:56;5;125;124;124;124;124;124;124;124;124;124;
2021-01-13 13:33:56;ht;66;30.50
2021-01-13 13:33:56;v;4.15
2021-01-13 14:03:57;1;124;124;124;124;124;124;124;124;124;124;
2021-01-13 14:03:57;2;124;124;123;123;123;124;123;124;124;123;
2021-01-13 14:03:57;3;33;33;33;33;33;33;33;33;33;33;
2021-01-13 14:03:57;4;124;124;124;124;124;124;124;124;124;123;
2021-01-13 14:03:57;5;1;1;1;1;1;1;1;1;1;1;
2021-01-13 14:03:57;ht;68;30.70
2021-01-13 14:03:57;v;4.15
2021-01-13 14:33:59;1;124;124;124;124;124;124;124;124;124;124;
2021-01-13 14:33:59;2;120;120;120;120;120;120;120;119;119;119;
2021-01-13 14:33:59;3;33;33;33;33;33;33;33;33;33;33;
2021-01-13 14:33:59;4;128;128;128;128;128;128;128;128;128;128;
2021-01-13 14:33:59;5;1;1;1;1;1;1;1;1;1;2;
2021-01-13 14:33:59;ht;66;31.20
2021-01-13 14:33:59;v;4.16
2021-01-13 15:04:01;1;125;125;125;125;125;125;125;125;125;125;
2021-01-13 15:04:01;2;118;118;118;118;118;118;118;118;118;118;
2021-01-13 15:04:01;3;32;32;32;32;32;32;32;32;32;32;
2021-01-13 15:04:01;4;125;125;125;125;125;125;125;125;125;125;
2021-01-13 15:04:01;5;1;1;1;1;1;1;1;1;1;1;
2021-01-13 15:04:01;ht;62;31.50
2021-01-13 15:04:01;v;4.16
2021-01-13 15:33:59;1;123;123;123;123;123;123;123;123;123;123;
2021-01-13 15:33:59;2;119;119;119;119;119;119;119;119;119;119;
2021-01-13 15:33:59;3;32;32;32;32;32;32;32;32;32;32;
2021-01-13 15:33:59;4;127;127;127;127;127;127;127;127;127;126;
2021-01-13 15:33:59;5;124;124;124;124;124;124;124;124;124;124;
2021-01-13 15:33:59;ht;59;31.40
2021-01-13 15:33:59;v;4.16
2021-01-13 16:04:01;1;124;124;124;124;124;124;124;124;124;124;
2021-01-13 16:04:01;2;120;120;120;120;120;120;120;120;120;120;
2021-01-13 16:04:01;3;32;32;32;32;32;32;32;32;32;32;
2021-01-13 16:04:01;4;126;126;126;126;126;126;126;126;126;126;
2021-01-13 16:04:01;5;123;123;123;123;123;123;123;123;123;123;
2021-01-13 16:04:01;ht;62;31.60
2021-01-13 16:04:01;v;4.16
2021-01-13 16:33:59;1;123;123;123;123;123;123;123;123;123;123;
2021-01-13 16:33:59;2;121;121;121;121;121;121;121;121;121;121;
2021-01-13 16:33:59;3;31;31;31;31;31;31;31;31;31;31;
2021-01-13 16:33:59;4;126;126;126;126;126;126;126;126;126;126;
2021-01-13 16:33:59;5;113;113;113;113;113;113;113;113;113;113;
2021-01-13 16:33:59;ht;59;31.80
2021-01-13 16:33:59;v;4.16
2021-01-13 17:03:57;1;124;124;124;124;124;124;124;124;124;124;
2021-01-13 17:03:57;2;121;121;121;121;121;121;121;121;121;121;
2021-01-13 17:03:57;3;31;31;31;31;31;31;31;31;31;31;
2021-01-13 17:03:57;4;128;128;128;128;128;128;128;128;128;128;
2021-01-13 17:03:57;5;122;122;122;122;122;122;122;122;122;122;
2021-01-13 17:03:57;ht;59;31.90
2021-01-13 17:03:57;v;4.16
2021-01-13 17:34:00;1;123;123;123;123;123;123;123;123;123;123;
2021-01-13 17:34:00;2;118;118;118;118;118;118;118;118;118;118;
2021-01-13 17:34:00;3;31;31;31;31;31;31;31;31;31;31;
2021-01-13 17:34:00;4;130;130;130;130;130;130;130;130;130;130;
2021-01-13 17:34:00;5;121;121;121;121;121;121;121;121;121;122;
2021-01-13 17:34:00;ht;58;31.80
2021-01-13 17:34:00;v;4.16
2021-01-13 18:03:58;1;120;120;120;120;120;120;120;120;120;120;
2021-01-13 18:03:58;2;120;120;120;120;120;120;120;120;119;119;
2021-01-13 18:03:58;3;31;31;31;31;31;31;31;31;31;31;
2021-01-13 18:03:58;4;125;125;125;125;125;125;125;125;125;125;
2021-01-13 18:03:58;5;120;120;120;120;120;120;120;121;121;121;
2021-01-13 18:03:58;ht;58;31.20
2021-01-13 18:03:58;v;4.16
2021-01-13 18:34:00;1;121;121;121;121;121;121;121;121;121;121;
2021-01-13 18:34:00;2;121;121;121;121;121;121;121;121;121;121;
2021-01-13 18:34:00;3;31;32;31;31;31;31;31;31;31;31;
2021-01-13 18:34:00;4;126;126;126;126;126;126;126;126;126;126;
2021-01-13 18:34:00;5;115;115;115;115;115;115;115;116;115;115;
2021-01-13 18:34:00;ht;55;30.70
2021-01-13 18:34:00;v;4.16
2021-01-13 19:03:56;1;124;124;124;124;124;124;124;124;124;124;
2021-01-13 19:03:56;2;119;118;118;118;118;118;119;118;119;118;
2021-01-13 19:03:56;3;32;32;32;32;32;32;32;32;31;32;
2021-01-13 19:03:56;4;127;128;127;127;128;128;127;127;127;127;
2021-01-13 19:03:56;5;123;123;123;123;123;123;123;123;123;123;
2021-01-13 19:03:56;ht;58;29.80
2021-01-13 19:03:56;v;4.16
2021-01-13 19:33:56;1;123;123;123;123;122;123;123;122;123;122;
2021-01-13 19:33:56;2;120;120;120;120;120;120;120;120;120;120;
2021-01-13 19:33:56;3;33;33;33;33;33;33;33;33;33;33;
2021-01-13 19:33:56;4;123;123;123;123;123;123;123;123;123;123;
2021-01-13 19:33:56;5;124;124;124;124;124;124;124;124;124;124;
2021-01-13 19:33:56;ht;67;28.30
2021-01-13 19:33:56;v;4.16
2021-01-13 20:03:55;1;122;122;122;122;121;122;121;121;121;121;
2021-01-13 20:03:55;2;122;122;122;122;122;122;122;122;122;122;
2021-01-13 20:03:55;3;34;34;34;34;33;34;34;34;34;34;
2021-01-13 20:03:55;4;121;120;121;121;121;121;121;121;121;120;
2021-01-13 20:03:55;5;124;124;124;124;124;124;124;125;125;125;
2021-01-13 20:03:55;ht;76;25.80
2021-01-13 20:03:55;v;4.16
2021-01-13 20:33:55;1;127;127;127;127;127;127;127;127;127;127;
2021-01-13 20:33:55;2;121;121;121;121;121;121;121;120;121;121;
2021-01-13 20:33:55;3;37;37;37;37;37;37;37;37;37;37;
2021-01-13 20:33:55;4;122;122;122;122;122;122;122;122;122;122;
2021-01-13 20:33:55;5;120;120;120;120;120;120;120;120;120;120;
2021-01-13 20:33:55;ht;90;23.40
2021-01-13 20:33:55;v;4.15
2021-01-13 21:03:52;1;124;124;124;124;124;124;124;124;124;124;
2021-01-13 21:03:52;2;122;122;122;122;122;122;122;122;122;122;
2021-01-13 21:03:52;3;40;40;40;40;40;40;40;40;40;40;
2021-01-13 21:03:52;4;123;123;123;123;123;123;123;123;123;123;
2021-01-13 21:03:52;5;120;120;120;120;120;120;120;120;120;120;
2021-01-13 21:03:52;ht;97;21.80
2021-01-13 21:03:52;v;4.15
2021-01-13 21:33:49;1;125;125;125;125;125;125;125;125;125;125;
2021-01-13 21:33:49;2;122;122;123;122;122;123;122;122;122;122;
2021-01-13 21:33:49;3;41;41;41;41;41;41;41;41;41;41;
2021-01-13 21:33:49;4;121;121;121;122;122;122;122;122;122;122;
2021-01-13 21:33:49;5;127;128;128;128;128;128;128;128;128;128;
2021-01-13 21:33:49;ht;99;21.50
2021-01-13 21:33:49;v;4.16
2021-01-13 22:03:50;1;128;128;128;128;128;128;128;128;128;128;
2021-01-13 22:03:50;2;120;120;120;120;120;120;120;120;120;120;
2021-01-13 22:03:50;3;42;42;42;42;42;41;41;41;41;42;
2021-01-13 22:03:50;4;121;121;121;121;122;121;121;121;121;121;
2021-01-13 22:03:50;5;117;117;117;117;117;117;117;117;117;117;
2021-01-13 22:03:50;ht;99;21.00
2021-01-13 22:03:50;v;4.15
2021-01-13 22:33:50;1;131;131;131;131;131;131;131;132;131;131;
2021-01-13 22:33:50;2;123;123;123;123;123;123;123;123;123;123;
2021-01-13 22:33:50;3;42;42;42;42;42;42;42;42;42;42;
2021-01-13 22:33:50;4;119;119;119;119;119;119;119;119;119;119;
2021-01-13 22:33:50;5;121;121;121;121;121;121;121;121;121;121;
2021-01-13 22:33:50;ht;99;20.70
2021-01-13 22:33:50;v;4.15
2021-01-13 23:03:50;1;129;129;129;129;129;129;130;129;129;130;
2021-01-13 23:03:50;2;120;121;121;121;121;121;121;121;121;121;
2021-01-13 23:03:50;3;42;42;42;42;42;42;42;42;42;42;
2021-01-13 23:03:50;4;121;121;121;121;121;121;121;121;121;121;
2021-01-13 23:03:50;5;128;128;128;128;128;128;128;128;128;128;
2021-01-13 23:03:50;ht;99;20.80
2021-01-13 23:03:50;v;4.15
2021-01-13 23:33:50;1;129;128;128;128;128;128;128;128;128;128;
2021-01-13 23:33:50;2;122;122;122;122;122;122;122;122;122;122;
2021-01-13 23:33:50;3;42;42;42;42;42;42;42;42;42;42;
2021-01-13 23:33:50;4;122;122;122;122;122;122;122;122;122;122;
2021-01-13 23:33:50;5;129;129;129;129;129;129;129;129;129;129;
2021-01-13 23:33:50;ht;99;20.50
2021-01-13 23:33:50;v;4.15
