#HS_EQB8;2022-10-17 15:35:11;v;3.96;;;;;;;;
2022-10-17 15:35:11;h1;;;;;;;;;;
2022-10-17 15:35:11;d;227.00;;;;;;;;;
#HS_EQB8;2022-10-17 19:20:47;v;3.96;;;;;;;;
2022-10-17 19:20:47;h1;;;;;;;;;;
2022-10-17 19:20:47;d;60.00;;;;;;;;;
2022-10-17 19:20:56;v;3.96;;;;;;;;;
2022-10-17 19:20:56;h1;;;;;;;;;;
2022-10-17 19:20:56;d;856.00;;;;;;;;;
#HS_EQB8;2022-10-17 19:46:39;v;3.96;;;;;;;;
2022-10-17 19:46:39;h1;;;;;;;;;;
2022-10-17 19:46:39;d;276.00;;;;;;;;;
#HS_EQB9;2022-10-17 19:50:28;v;3.96;;;;;;;;
2022-10-17 19:50:28;h1;;;;;;;;;;
2022-10-17 19:50:28;d;0.26;;;;;;;;;
#HS_EQB9;2022-10-17 20:01:16;v;3.96;;;;;;;;
2022-10-17 20:01:16;h1;11;93;5;21.51;70.7;4;6.2331;1614;6325;1694
2022-10-17 20:01:16;d;0.74;;;;;;;;;
2022-10-17 20:03:04;v;3.95;;;;;;;;;
2022-10-17 20:03:04;h1;11;89;5;21.51;70.7;5;6.0601;1710;6152;1790
2022-10-17 20:03:04;d;0.73;;;;;;;;;
2022-10-17 20:04:00;v;3.95;;;;;;;;;
2022-10-17 20:04:00;h1;11;91;5;21.51;70.7;5;6.1551;1682;6247;1763
2022-10-17 20:04:00;d;0.73;;;;;;;;;
2022-10-17 20:05:18;v;3.95;;;;;;;;;
2022-10-17 20:05:18;h1;11;93;5;21.51;70.7;4;6.2251;1613;6319;1691
2022-10-17 20:05:18;d;0.77;;;;;;;;;
2022-10-17 20:06:00;v;3.95;;;;;;;;;
2022-10-17 20:06:00;h1;11;93;5;21.51;70.7;4;6.2251;1613;6319;1691
2022-10-17 20:06:00;d;0.79;;;;;;;;;
2022-10-17 20:07:01;v;3.95;;;;;;;;;
2022-10-17 20:07:01;h1;11;91;5;21.51;70.7;5;6.1551;1682;6247;1763
2022-10-17 20:07:01;d;0.82;;;;;;;;;
2022-10-17 20:08:02;v;3.95;;;;;;;;;
2022-10-17 20:08:02;h1;11;89;5;21.51;70.7;5;6.0591;1710;6150;1792
2022-10-17 20:08:02;d;0.84;;;;;;;;;
2022-10-17 20:09:03;v;3.95;;;;;;;;;
2022-10-17 20:09:03;h1;11;92;5;21.51;70.7;5;6.1631;1684;6255;1765
2022-10-17 20:09:03;d;0.84;;;;;;;;;
2022-10-17 20:10:04;v;3.95;;;;;;;;;
2022-10-17 20:10:04;h1;11;102;5;21.51;70.7;5;6.6371;1631;6737;1710
2022-10-17 20:10:04;d;0.85;;;;;;;;;
2022-10-17 20:11:01;v;3.95;;;;;;;;;
2022-10-17 20:11:01;h1;11;111;5;21.51;70.7;5;7.0881;1816;7194;1903
2022-10-17 20:11:01;d;0.85;;;;;;;;;
2022-10-17 20:12:01;v;3.95;;;;;;;;;
2022-10-17 20:12:01;h1;11;127;5;21.51;70.7;5;7.8901;1801;8008;1888
2022-10-17 20:12:01;d;0.85;;;;;;;;;
2022-10-17 20:13:02;v;3.95;;;;;;;;;
2022-10-17 20:13:02;h1;11;136;6;21.51;70.7;5;8.3311;1942;8456;2035
2022-10-17 20:13:02;d;0.85;;;;;;;;;
2022-10-17 20:14:03;v;3.95;;;;;;;;;
2022-10-17 20:14:03;h1;11;141;6;21.51;70.7;6;8.6301;2066;8758;2168
2022-10-17 20:14:03;d;0.85;;;;;;;;;
2022-10-17 20:15:04;v;3.95;;;;;;;;;
2022-10-17 20:15:04;h1;11;148;6;21.51;70.7;6;9.0201;2029;9154;2129
2022-10-17 20:15:04;d;0.85;;;;;;;;;
2022-10-17 20:16:01;v;3.95;;;;;;;;;
2022-10-17 20:16:01;h1;11;151;6;21.51;70.7;6;9.1491;2131;9285;2237
2022-10-17 20:16:01;d;0.85;;;;;;;;;
2022-10-17 20:17:01;v;3.95;;;;;;;;;
2022-10-17 20:17:01;h1;11;154;6;21.51;70.7;6;9.3241;2153;9461;2262
2022-10-17 20:17:01;d;0.85;;;;;;;;;
2022-10-17 20:18:02;v;3.95;;;;;;;;;
2022-10-17 20:18:02;h1;11;155;6;21.51;70.7;6;9.3981;2206;9538;2315
2022-10-17 20:18:02;d;0.85;;;;;;;;;
2022-10-17 20:19:03;v;3.95;;;;;;;;;
2022-10-17 20:19:03;h1;11;157;6;21.51;70.7;6;9.5151;2177;9655;2287
2022-10-17 20:19:03;d;0.85;;;;;;;;;
2022-10-17 20:20:04;v;3.95;;;;;;;;;
2022-10-17 20:20:04;h1;11;158;7;21.51;70.7;6;9.5771;2228;9718;2341
2022-10-17 20:20:04;d;0.85;;;;;;;;;
2022-10-17 20:21:01;v;3.95;;;;;;;;;
2022-10-17 20:21:01;h1;11;159;7;21.51;70.7;6;9.5901;2230;9731;2343
2022-10-17 20:21:01;d;0.85;;;;;;;;;
2022-10-17 20:22:01;v;3.95;;;;;;;;;
2022-10-17 20:22:01;h1;11;160;6;21.31;70.3;6;9.6951;2198;9838;2309
2022-10-17 20:22:01;d;0.85;;;;;;;;;
2022-10-17 20:23:02;v;3.95;;;;;;;;;
2022-10-17 20:23:02;h1;11;157;7;21.31;70.3;7;9.4901;2397;9630;2518
2022-10-17 20:23:02;d;0.85;;;;;;;;;
2022-10-17 20:24:03;v;3.95;;;;;;;;;
2022-10-17 20:24:03;h1;11;160;7;21.31;70.3;6;9.6531;2282;9795;2398
2022-10-17 20:24:03;d;0.85;;;;;;;;;
2022-10-17 20:25:04;v;3.95;;;;;;;;;
2022-10-17 20:25:04;h1;11;160;7;21.31;70.3;6;9.6671;2285;9808;2400
2022-10-17 20:25:04;d;0.85;;;;;;;;;
2022-10-17 20:26:00;v;3.95;;;;;;;;;
2022-10-17 20:26:00;h1;11;160;7;21.31;70.3;6;9.6661;2284;9806;2403
2022-10-17 20:26:00;d;0.84;;;;;;;;;
2022-10-17 20:27:01;v;3.95;;;;;;;;;
2022-10-17 20:27:01;h1;11;159;7;21.31;70.3;7;9.6101;2367;9749;2490
2022-10-17 20:27:01;d;0.84;;;;;;;;;
2022-10-17 20:28:02;v;3.95;;;;;;;;;
2022-10-17 20:28:02;h1;11;162;7;21.31;70.3;6;9.7711;2252;9913;2369
2022-10-17 20:28:02;d;0.84;;;;;;;;;
2022-10-17 20:29:03;v;3.95;;;;;;;;;
2022-10-17 20:29:03;h1;11;162;7;21.31;70.3;6;9.7711;2252;9911;2371
2022-10-17 20:29:03;d;0.84;;;;;;;;;
2022-10-17 20:30:04;v;3.95;;;;;;;;;
2022-10-17 20:30:04;h1;11;161;7;21.31;70.3;6;9.7161;2334;9857;2455
2022-10-17 20:30:04;d;0.84;;;;;;;;;
2022-10-17 20:31:00;v;3.95;;;;;;;;;
2022-10-17 20:31:00;h1;11;161;7;21.31;70.3;6;9.7151;2334;9854;2458
2022-10-17 20:31:00;d;0.84;;;;;;;;;
2022-10-17 20:32:01;v;3.95;;;;;;;;;
2022-10-17 20:32:01;h1;11;161;7;21.31;70.3;6;9.7151;2334;9854;2458
2022-10-17 20:32:01;d;0.84;;;;;;;;;
2022-10-17 20:33:02;v;3.95;;;;;;;;;
2022-10-17 20:33:02;h1;11;161;7;21.31;70.3;6;9.7151;2334;9854;2458
2022-10-17 20:33:02;d;0.84;;;;;;;;;
2022-10-17 20:34:03;v;3.95;;;;;;;;;
2022-10-17 20:34:03;h1;11;161;7;21.31;70.3;6;9.7151;2334;9854;2458
2022-10-17 20:34:03;d;0.84;;;;;;;;;
2022-10-17 20:35:04;v;3.95;;;;;;;;;
2022-10-17 20:35:04;h1;11;161;7;21.31;70.3;6;9.7151;2334;9854;2458
2022-10-17 20:35:04;d;0.84;;;;;;;;;
2022-10-17 20:36:00;v;3.95;;;;;;;;;
2022-10-17 20:36:00;h1;11;161;7;21.31;70.3;6;9.7151;2334;9854;2458
2022-10-17 20:36:00;d;0.84;;;;;;;;;
2022-10-17 20:37:01;v;3.95;;;;;;;;;
2022-10-17 20:37:01;h1;11;161;7;21.31;70.3;6;9.7141;2334;9852;2461
2022-10-17 20:37:01;d;0.84;;;;;;;;;
2022-10-17 20:38:02;v;3.95;;;;;;;;;
2022-10-17 20:38:02;h1;11;162;7;21.11;70.0;6;9.7701;2252;9908;2374
2022-10-17 20:38:02;d;0.84;;;;;;;;;
2022-10-17 20:39:03;v;3.95;;;;;;;;;
2022-10-17 20:39:03;h1;11;162;7;21.31;70.3;6;9.7711;2252;9911;2371
2022-10-17 20:39:03;d;0.84;;;;;;;;;
2022-10-17 20:40:03;v;3.95;;;;;;;;;
2022-10-17 20:40:03;h1;11;162;7;21.11;70.0;6;9.7701;2252;9908;2374
2022-10-17 20:40:03;d;0.84;;;;;;;;;
2022-10-17 20:41:00;v;3.95;;;;;;;;;
2022-10-17 20:41:00;h1;11;162;7;21.11;70.0;6;9.7701;2252;9908;2374
2022-10-17 20:41:00;d;0.84;;;;;;;;;
2022-10-17 20:42:01;v;3.95;;;;;;;;;
2022-10-17 20:42:01;h1;11;162;7;21.11;70.0;6;9.7701;2252;9908;2374
2022-10-17 20:42:01;d;0.84;;;;;;;;;
2022-10-17 20:43:01;v;3.95;;;;;;;;;
2022-10-17 20:43:01;h1;11;159;7;21.11;70.0;7;9.6081;2367;9744;2495
2022-10-17 20:43:01;d;0.84;;;;;;;;;
2022-10-17 20:44:02;v;3.95;;;;;;;;;
2022-10-17 20:44:02;h1;11;159;7;21.11;70.0;7;9.6081;2366;9742;2498
2022-10-17 20:44:02;d;0.84;;;;;;;;;
2022-10-17 20:45:03;v;3.95;;;;;;;;;
2022-10-17 20:45:03;h1;11;159;7;21.11;70.0;7;9.6081;2366;9742;2498
2022-10-17 20:45:03;d;0.84;;;;;;;;;
2022-10-17 20:46:04;v;3.95;;;;;;;;;
2022-10-17 20:46:04;h1;11;159;7;21.11;70.0;7;9.6081;2366;9742;2498
2022-10-17 20:46:04;d;0.84;;;;;;;;;
2022-10-17 20:47:00;v;3.95;;;;;;;;;
2022-10-17 20:47:00;h1;11;160;7;21.11;70.0;6;9.6641;2284;9799;2411
2022-10-17 20:47:00;d;0.84;;;;;;;;;
2022-10-17 20:48:01;v;3.95;;;;;;;;;
2022-10-17 20:48:01;h1;11;160;7;21.11;70.0;6;9.6641;2284;9799;2411
2022-10-17 20:48:01;d;0.84;;;;;;;;;
2022-10-17 20:49:02;v;3.95;;;;;;;;;
2022-10-17 20:49:02;h1;11;160;7;21.11;70.0;6;9.6641;2284;9799;2411
2022-10-17 20:49:02;d;0.84;;;;;;;;;
2022-10-17 20:50:03;v;3.95;;;;;;;;;
2022-10-17 20:50:03;h1;11;160;7;21.11;70.0;6;9.6641;2284;9799;2411
2022-10-17 20:50:03;d;0.84;;;;;;;;;
2022-10-17 20:51:04;v;3.95;;;;;;;;;
2022-10-17 20:51:04;h1;11;161;7;21.11;70.0;6;9.7561;2249;9892;2374
2022-10-17 20:51:04;d;0.84;;;;;;;;;
2022-10-17 20:52:00;v;3.95;;;;;;;;;
2022-10-17 20:52:00;h1;11;160;7;21.11;70.0;6;9.6641;2284;9799;2411
2022-10-17 20:52:00;d;0.84;;;;;;;;;
2022-10-17 20:53:01;v;3.95;;;;;;;;;
2022-10-17 20:53:01;h1;11;160;7;21.11;70.0;6;9.6501;2282;9785;2408
2022-10-17 20:53:01;d;0.84;;;;;;;;;
2022-10-17 20:54:02;v;3.94;;;;;;;;;
2022-10-17 20:54:02;h1;11;160;7;21.11;70.0;6;9.6501;2281;9783;2411
2022-10-17 20:54:02;d;0.84;;;;;;;;;
2022-10-17 20:55:03;v;3.94;;;;;;;;;
2022-10-17 20:55:03;h1;11;160;7;21.11;70.0;6;9.6501;2282;9785;2408
2022-10-17 20:55:03;d;0.84;;;;;;;;;
2022-10-17 20:56:03;v;3.94;;;;;;;;;
2022-10-17 20:56:03;h1;11;160;7;21.11;70.0;6;9.6501;2281;9783;2411
2022-10-17 20:56:03;d;0.84;;;;;;;;;
2022-10-17 20:57:00;v;3.94;;;;;;;;;
2022-10-17 20:57:00;h1;11;160;7;21.11;70.0;6;9.6501;2281;9783;2411
2022-10-17 20:57:00;d;0.84;;;;;;;;;
2022-10-17 20:58:01;v;3.94;;;;;;;;;
2022-10-17 20:58:01;h1;11;160;7;21.11;70.0;6;9.6501;2281;9783;2411
2022-10-17 20:58:01;d;0.84;;;;;;;;;
2022-10-17 20:59:01;v;3.94;;;;;;;;;
2022-10-17 20:59:01;h1;11;161;6;21.11;70.0;6;9.7051;2200;9839;2324
2022-10-17 20:59:01;d;0.84;;;;;;;;;
2022-10-17 21:00:02;v;3.94;;;;;;;;;
2022-10-17 21:00:02;h1;11;158;7;21.11;70.0;6;9.5441;2314;9676;2445
2022-10-17 21:00:02;d;0.84;;;;;;;;;
2022-10-17 21:01:03;v;3.94;;;;;;;;;
2022-10-17 21:01:03;h1;11;158;7;21.11;70.0;6;9.5441;2314;9676;2445
2022-10-17 21:01:03;d;0.84;;;;;;;;;
2022-10-17 21:02:04;v;3.94;;;;;;;;;
2022-10-17 21:02:04;h1;11;158;7;21.11;70.0;6;9.5441;2314;9676;2445
2022-10-17 21:02:04;d;0.84;;;;;;;;;
2022-10-17 21:03:00;v;3.94;;;;;;;;;
2022-10-17 21:03:00;h1;11;158;7;21.11;70.0;6;9.5441;2314;9676;2445
2022-10-17 21:03:00;d;0.84;;;;;;;;;
2022-10-17 21:04:01;v;3.94;;;;;;;;;
2022-10-17 21:04:01;h1;11;158;7;21.11;70.0;6;9.5441;2314;9676;2445
2022-10-17 21:04:01;d;0.84;;;;;;;;;
2022-10-17 21:05:02;v;3.94;;;;;;;;;
2022-10-17 21:05:02;h1;11;160;6;21.11;70.0;6;9.6911;2197;9823;2324
2022-10-17 21:05:02;d;0.84;;;;;;;;;
2022-10-17 21:06:03;v;3.94;;;;;;;;;
2022-10-17 21:06:03;h1;11;160;6;20.91;69.6;6;9.6911;2197;9823;2324
2022-10-17 21:06:03;d;0.84;;;;;;;;;
2022-10-17 21:07:04;v;3.94;;;;;;;;;
2022-10-17 21:07:04;h1;11;160;6;20.91;69.6;6;9.6911;2197;9823;2324
2022-10-17 21:07:04;d;0.84;;;;;;;;;
2022-10-17 21:08:00;v;3.94;;;;;;;;;
2022-10-17 21:08:00;h1;11;160;6;20.91;69.6;6;9.6911;2197;9823;2324
2022-10-17 21:08:00;d;0.84;;;;;;;;;
2022-10-17 21:09:01;v;3.94;;;;;;;;;
2022-10-17 21:09:01;h1;11;157;7;20.91;69.6;6;9.5301;2311;9660;2445
2022-10-17 21:09:01;d;0.84;;;;;;;;;
2022-10-17 21:10:02;v;3.94;;;;;;;;;
2022-10-17 21:10:02;h1;11;157;7;20.91;69.6;6;9.5301;2311;9660;2445
2022-10-17 21:10:02;d;0.84;;;;;;;;;
2022-10-17 21:11:02;v;3.94;;;;;;;;;
2022-10-17 21:11:02;h1;11;157;7;20.91;69.6;6;9.5301;2311;9660;2445
2022-10-17 21:11:02;d;0.84;;;;;;;;;
2022-10-17 21:12:03;v;3.94;;;;;;;;;
2022-10-17 21:12:03;h1;11;158;7;20.91;69.6;6;9.5861;2230;9717;2359
2022-10-17 21:12:03;d;0.84;;;;;;;;;
2022-10-17 21:13:04;v;3.94;;;;;;;;;
2022-10-17 21:13:04;h1;11;158;7;20.91;69.6;6;9.5861;2230;9717;2359
2022-10-17 21:13:04;d;0.84;;;;;;;;;
2022-10-17 21:14:00;v;3.94;;;;;;;;;
2022-10-17 21:14:00;h1;11;158;7;20.91;69.6;6;9.5861;2229;9715;2361
2022-10-17 21:14:00;d;0.84;;;;;;;;;
2022-10-17 21:15:01;v;3.94;;;;;;;;;
2022-10-17 21:15:01;h1;11;158;7;20.91;69.6;6;9.5861;2230;9717;2359
2022-10-17 21:15:01;d;0.84;;;;;;;;;
2022-10-17 21:16:02;v;3.94;;;;;;;;;
2022-10-17 21:16:02;h1;11;156;7;20.91;69.6;7;9.4231;2344;9550;2482
2022-10-17 21:16:02;d;0.84;;;;;;;;;
2022-10-17 21:17:03;v;3.94;;;;;;;;;
2022-10-17 21:17:03;h1;11;156;7;20.91;69.6;7;9.4231;2344;9550;2482
2022-10-17 21:17:03;d;0.84;;;;;;;;;
2022-10-17 21:18:04;v;3.94;;;;;;;;;
2022-10-17 21:18:04;h1;11;157;7;20.91;69.6;6;9.4811;2262;9608;2395
2022-10-17 21:18:04;d;0.84;;;;;;;;;
2022-10-17 21:19:00;v;3.94;;;;;;;;;
2022-10-17 21:19:00;h1;11;157;7;20.91;69.6;6;9.4811;2262;9608;2395
2022-10-17 21:19:00;d;0.84;;;;;;;;;
2022-10-17 21:20:01;v;3.94;;;;;;;;;
2022-10-17 21:20:01;h1;11;157;7;20.91;69.6;6;9.4811;2262;9608;2395
2022-10-17 21:20:01;d;0.84;;;;;;;;;
2022-10-17 21:21:02;v;3.94;;;;;;;;;
2022-10-17 21:21:02;h1;11;158;7;20.91;69.6;6;9.5721;2227;9699;2361
2022-10-17 21:21:02;d;0.84;;;;;;;;;
2022-10-17 21:22:03;v;3.94;;;;;;;;;
2022-10-17 21:22:03;h1;11;158;7;20.91;69.6;6;9.5721;2227;9699;2361
2022-10-17 21:22:03;d;0.84;;;;;;;;;
2022-10-17 21:23:03;v;3.94;;;;;;;;;
2022-10-17 21:23:03;h1;11;158;7;20.91;69.6;6;9.5721;2227;9699;2361
2022-10-17 21:23:03;d;0.84;;;;;;;;;
2022-10-17 21:24:00;v;3.94;;;;;;;;;
2022-10-17 21:24:00;h1;11;158;7;20.91;69.6;6;9.5721;2227;9699;2361
2022-10-17 21:24:00;d;0.84;;;;;;;;;
2022-10-17 21:25:00;v;3.94;;;;;;;;;
2022-10-17 21:25:00;h1;11;155;7;20.91;69.6;7;9.4101;2341;9535;2482
2022-10-17 21:25:00;d;0.84;;;;;;;;;
2022-10-17 21:26:01;v;3.94;;;;;;;;;
2022-10-17 21:26:01;h1;11;156;7;20.91;69.6;6;9.4671;2259;9593;2395
2022-10-17 21:26:01;d;0.84;;;;;;;;;
2022-10-17 21:27:02;v;3.94;;;;;;;;;
2022-10-17 21:27:02;h1;11;156;7;20.91;69.6;6;9.4671;2259;9593;2395
2022-10-17 21:27:02;d;0.84;;;;;;;;;
2022-10-17 21:28:03;v;3.94;;;;;;;;;
2022-10-17 21:28:03;h1;11;156;7;20.91;69.6;6;9.4671;2259;9593;2395
2022-10-17 21:28:03;d;0.84;;;;;;;;;
2022-10-17 21:29:04;v;3.94;;;;;;;;;
2022-10-17 21:29:04;h1;11;156;7;20.91;69.6;6;9.4671;2259;9593;2395
2022-10-17 21:29:04;d;0.84;;;;;;;;;
2022-10-17 21:30:00;v;3.94;;;;;;;;;
2022-10-17 21:30:00;h1;11;156;7;20.91;69.6;6;9.4671;2259;9593;2395
2022-10-17 21:30:00;d;0.84;;;;;;;;;
2022-10-17 21:31:01;v;3.94;;;;;;;;;
2022-10-17 21:31:01;h1;11;157;6;20.71;69.2;6;9.5231;2178;9650;2309
2022-10-17 21:31:01;d;0.84;;;;;;;;;
2022-10-17 21:32:02;v;3.94;;;;;;;;;
2022-10-17 21:32:02;h1;11;155;7;20.71;69.2;6;9.3611;2291;9486;2429
2022-10-17 21:32:02;d;0.83;;;;;;;;;
2022-10-17 21:33:03;v;3.94;;;;;;;;;
2022-10-17 21:33:03;h1;11;156;7;20.71;69.2;6;9.4541;2257;9579;2393
2022-10-17 21:33:03;d;0.83;;;;;;;;;
2022-10-17 21:34:03;v;3.94;;;;;;;;;
2022-10-17 21:34:03;h1;11;159;6;20.91;69.6;6;9.6141;2143;9742;2273
2022-10-17 21:34:03;d;0.83;;;;;;;;;
2022-10-17 21:35:00;v;3.94;;;;;;;;;
2022-10-17 21:35:00;h1;11;156;7;20.91;69.6;6;9.4531;2257;9577;2395
2022-10-17 21:35:00;d;0.83;;;;;;;;;
2022-10-17 21:36:01;v;3.94;;;;;;;;;
2022-10-17 21:36:01;h1;11;156;7;20.91;69.6;6;9.4531;2257;9577;2395
2022-10-17 21:36:01;d;0.83;;;;;;;;;
2022-10-17 21:37:01;v;3.94;;;;;;;;;
2022-10-17 21:37:01;h1;11;156;7;20.71;69.2;6;9.4531;2257;9577;2395
2022-10-17 21:37:01;d;0.83;;;;;;;;;
2022-10-17 21:38:02;v;3.94;;;;;;;;;
2022-10-17 21:38:02;h1;11;156;7;20.71;69.2;6;9.4531;2257;9577;2395
2022-10-17 21:38:02;d;0.83;;;;;;;;;
2022-10-17 21:39:03;v;3.94;;;;;;;;;
2022-10-17 21:39:03;h1;11;157;6;20.71;69.2;6;9.5091;2175;9634;2309
2022-10-17 21:39:03;d;0.83;;;;;;;;;
2022-10-17 21:40:04;v;3.94;;;;;;;;;
2022-10-17 21:40:04;h1;11;157;6;20.71;69.2;6;9.5091;2175;9634;2309
2022-10-17 21:40:04;d;0.83;;;;;;;;;
2022-10-17 21:41:00;v;3.94;;;;;;;;;
2022-10-17 21:41:00;h1;11;157;6;20.71;69.2;6;9.5091;2175;9634;2309
2022-10-17 21:41:00;d;0.83;;;;;;;;;
2022-10-17 21:42:01;v;3.94;;;;;;;;;
2022-10-17 21:42:01;h1;11;157;6;20.71;69.2;6;9.5091;2175;9632;2312
2022-10-17 21:42:01;d;0.83;;;;;;;;;
2022-10-17 21:43:02;v;3.94;;;;;;;;;
2022-10-17 21:43:02;h1;11;154;7;20.71;69.2;6;9.3471;2289;9468;2432
2022-10-17 21:43:02;d;0.83;;;;;;;;;
2022-10-17 21:44:03;v;3.94;;;;;;;;;
2022-10-17 21:44:03;h1;11;154;7;20.71;69.2;6;9.3481;2289;9470;2429
2022-10-17 21:44:03;d;0.83;;;;;;;;;
2022-10-17 21:45:03;v;3.94;;;;;;;;;
2022-10-17 21:45:03;h1;11;155;7;20.71;69.2;6;9.4041;2207;9526;2346
2022-10-17 21:45:03;d;0.83;;;;;;;;;
2022-10-17 21:46:00;v;3.94;;;;;;;;;
2022-10-17 21:46:00;h1;11;155;7;20.71;69.2;6;9.4041;2207;9526;2346
2022-10-17 21:46:00;d;0.83;;;;;;;;;
2022-10-17 21:47:01;v;3.94;;;;;;;;;
2022-10-17 21:47:01;h1;11;155;7;20.71;69.2;6;9.4041;2207;9526;2346
2022-10-17 21:47:01;d;0.83;;;;;;;;;
2022-10-17 21:48:01;v;3.94;;;;;;;;;
2022-10-17 21:48:01;h1;11;155;7;20.71;69.2;6;9.4041;2207;9526;2346
2022-10-17 21:48:01;d;0.83;;;;;;;;;
2022-10-17 21:49:02;v;3.94;;;;;;;;;
2022-10-17 21:49:02;h1;11;155;7;20.71;69.2;6;9.4041;2207;9526;2346
2022-10-17 21:49:02;d;0.83;;;;;;;;;
2022-10-17 21:50:03;v;3.94;;;;;;;;;
2022-10-17 21:50:03;h1;11;157;6;20.71;69.2;6;9.4961;2173;9619;2309
2022-10-17 21:50:03;d;0.83;;;;;;;;;
2022-10-17 21:51:04;v;3.94;;;;;;;;;
2022-10-17 21:51:04;h1;11;154;7;20.71;69.2;6;9.3341;2286;9455;2429
2022-10-17 21:51:04;d;0.83;;;;;;;;;
2022-10-17 21:52:00;v;3.94;;;;;;;;;
2022-10-17 21:52:00;h1;11;153;7;20.71;69.2;6;9.2991;2239;9420;2379
2022-10-17 21:52:00;d;0.83;;;;;;;;;
2022-10-17 21:53:01;v;3.93;;;;;;;;;
2022-10-17 21:53:01;h1;11;155;7;20.71;69.2;6;9.3911;2205;9513;2343
2022-10-17 21:53:01;d;0.83;;;;;;;;;
2022-10-17 21:54:02;v;3.94;;;;;;;;;
2022-10-17 21:54:02;h1;11;155;7;20.71;69.2;6;9.3911;2205;9511;2346
2022-10-17 21:54:02;d;0.83;;;;;;;;;
2022-10-17 21:55:03;v;3.93;;;;;;;;;
2022-10-17 21:55:03;h1;11;155;7;20.71;69.2;6;9.3911;2205;9511;2346
2022-10-17 21:55:03;d;0.83;;;;;;;;;
2022-10-17 21:56:04;v;3.93;;;;;;;;;
2022-10-17 21:56:04;h1;11;155;7;20.71;69.2;6;9.3911;2205;9511;2346
2022-10-17 21:56:04;d;0.83;;;;;;;;;
2022-10-17 21:57:00;v;3.93;;;;;;;;;
2022-10-17 21:57:00;h1;11;155;7;20.71;69.2;6;9.3911;2205;9511;2346
2022-10-17 21:57:00;d;0.83;;;;;;;;;
2022-10-17 21:58:01;v;3.93;;;;;;;;;
2022-10-17 21:58:01;h1;11;155;7;20.71;69.2;6;9.3911;2205;9511;2346
2022-10-17 21:58:01;d;0.83;;;;;;;;;
2022-10-17 21:59:01;v;3.93;;;;;;;;;
2022-10-17 21:59:01;h1;11;156;6;20.71;69.2;6;9.4471;2124;9567;2260
2022-10-17 21:59:01;d;0.83;;;;;;;;;
2022-10-17 22:00:02;v;3.93;;;;;;;;;
2022-10-17 22:00:02;h1;11;153;7;20.71;69.2;6;9.2861;2237;9405;2379
2022-10-17 22:00:02;d;0.83;;;;;;;;;
2022-10-17 22:01:03;v;3.93;;;;;;;;;
2022-10-17 22:01:03;h1;11;153;7;20.71;69.2;6;9.2851;2237;9402;2382
2022-10-17 22:01:03;d;0.83;;;;;;;;;
2022-10-17 22:02:04;v;3.93;;;;;;;;;
2022-10-17 22:02:04;h1;11;153;7;20.71;69.2;6;9.2861;2237;9405;2379
2022-10-17 22:02:04;d;0.83;;;;;;;;;
2022-10-17 22:03:00;v;3.93;;;;;;;;;
2022-10-17 22:03:00;h1;11;153;7;20.71;69.2;6;9.2861;2237;9405;2379
2022-10-17 22:03:00;d;0.83;;;;;;;;;
2022-10-17 22:04:01;v;3.93;;;;;;;;;
2022-10-17 22:04:01;h1;11;153;7;20.51;68.9;6;9.2861;2237;9405;2379
2022-10-17 22:04:01;d;0.83;;;;;;;;;
2022-10-17 22:05:02;v;3.93;;;;;;;;;
2022-10-17 22:05:02;h1;11;153;7;20.51;68.9;6;9.2851;2237;9402;2382
2022-10-17 22:05:02;d;0.83;;;;;;;;;
2022-10-17 22:06:03;v;3.93;;;;;;;;;
2022-10-17 22:06:03;h1;11;156;6;20.51;68.9;6;9.4331;2122;9552;2260
2022-10-17 22:06:03;d;0.83;;;;;;;;;
2022-10-17 22:07:04;v;3.93;;;;;;;;;
2022-10-17 22:07:04;h1;11;154;6;20.51;68.9;6;9.3421;2156;9460;2296
2022-10-17 22:07:04;d;0.83;;;;;;;;;
2022-10-17 22:08:00;v;3.93;;;;;;;;;
2022-10-17 22:08:00;h1;11;156;6;20.51;68.9;6;9.4331;2122;9552;2260
2022-10-17 22:08:00;d;0.83;;;;;;;;;
2022-10-17 22:09:01;v;3.93;;;;;;;;;
2022-10-17 22:09:01;h1;11;156;6;20.51;68.9;6;9.4331;2122;9552;2260
2022-10-17 22:09:01;d;0.83;;;;;;;;;
2022-10-17 22:10:01;v;3.93;;;;;;;;;
2022-10-17 22:10:01;h1;11;153;7;20.51;68.9;6;9.2721;2234;9389;2379
2022-10-17 22:10:01;d;0.83;;;;;;;;;
2022-10-17 22:11:02;v;3.93;;;;;;;;;
2022-10-17 22:11:02;h1;11;153;7;20.51;68.9;6;9.2721;2234;9389;2379
2022-10-17 22:11:02;d;0.83;;;;;;;;;
2022-10-17 22:12:03;v;3.93;;;;;;;;;
2022-10-17 22:12:03;h1;11;153;7;20.51;68.9;6;9.2721;2234;9389;2379
2022-10-17 22:12:03;d;0.83;;;;;;;;;
2022-10-17 22:13:04;v;3.93;;;;;;;;;
2022-10-17 22:13:04;h1;11;154;6;20.51;68.9;6;9.3291;2154;9445;2296
2022-10-17 22:13:04;d;0.83;;;;;;;;;
2022-10-17 22:14:00;v;3.93;;;;;;;;;
2022-10-17 22:14:00;h1;11;154;6;20.51;68.9;6;9.3291;2154;9447;2294
2022-10-17 22:14:00;d;0.83;;;;;;;;;
2022-10-17 22:15:01;v;3.93;;;;;;;;;
2022-10-17 22:15:01;h1;11;154;6;20.51;68.9;6;9.3291;2154;9447;2294
2022-10-17 22:15:01;d;0.83;;;;;;;;;
2022-10-17 22:16:02;v;3.93;;;;;;;;;
2022-10-17 22:16:02;h1;11;154;6;20.51;68.9;6;9.3291;2154;9445;2296
2022-10-17 22:16:02;d;0.83;;;;;;;;;
2022-10-17 22:17:03;v;3.93;;;;;;;;;
2022-10-17 22:17:03;h1;11;154;6;20.51;68.9;6;9.3291;2154;9445;2296
2022-10-17 22:17:03;d;0.83;;;;;;;;;
2022-10-17 22:18:04;v;3.93;;;;;;;;;
2022-10-17 22:18:04;h1;11;154;6;20.51;68.9;6;9.3291;2154;9445;2296
2022-10-17 22:18:04;d;0.83;;;;;;;;;
2022-10-17 22:19:00;v;3.93;;;;;;;;;
2022-10-17 22:19:00;h1;11;154;6;20.51;68.9;6;9.3291;2154;9445;2296
2022-10-17 22:19:00;d;0.83;;;;;;;;;
2022-10-17 22:20:01;v;3.93;;;;;;;;;
2022-10-17 22:20:01;h1;11;151;7;20.51;68.9;6;9.1671;2266;9281;2416
2022-10-17 22:20:01;d;0.83;;;;;;;;;
2022-10-17 22:21:02;v;3.93;;;;;;;;;
2022-10-17 22:21:02;h1;11;154;6;20.51;68.9;6;9.3291;2154;9445;2296
2022-10-17 22:21:02;d;0.83;;;;;;;;;
2022-10-17 22:22:02;v;3.93;;;;;;;;;
2022-10-17 22:22:02;h1;11;152;6;20.51;68.9;6;9.2241;2185;9339;2330
2022-10-17 22:22:02;d;0.83;;;;;;;;;
2022-10-17 22:23:03;v;3.93;;;;;;;;;
2022-10-17 22:23:03;h1;11;152;6;20.51;68.9;6;9.2241;2185;9339;2330
2022-10-17 22:23:03;d;0.83;;;;;;;;;
2022-10-17 22:24:04;v;3.93;;;;;;;;;
2022-10-17 22:24:04;h1;11;152;6;20.51;68.9;6;9.2241;2185;9339;2330
2022-10-17 22:24:04;d;0.83;;;;;;;;;
2022-10-17 22:25:00;v;3.93;;;;;;;;;
2022-10-17 22:25:00;h1;11;154;6;20.51;68.9;6;9.3161;2151;9432;2294
2022-10-17 22:25:00;d;0.83;;;;;;;;;
2022-10-17 22:26:01;v;3.93;;;;;;;;;
2022-10-17 22:26:01;h1;11;154;6;20.51;68.9;6;9.3161;2151;9432;2294
2022-10-17 22:26:01;d;0.83;;;;;;;;;
2022-10-17 22:27:02;v;3.93;;;;;;;;;
2022-10-17 22:27:02;h1;11;154;6;20.51;68.9;6;9.3161;2151;9432;2294
2022-10-17 22:27:02;d;0.83;;;;;;;;;
2022-10-17 22:28:03;v;3.93;;;;;;;;;
2022-10-17 22:28:03;h1;11;154;6;20.51;68.9;6;9.3151;2151;9430;2296
2022-10-17 22:28:03;d;0.83;;;;;;;;;
2022-10-17 22:29:04;v;3.93;;;;;;;;;
2022-10-17 22:29:04;h1;11;154;6;20.51;68.9;6;9.3151;2151;9430;2296
2022-10-17 22:29:04;d;0.83;;;;;;;;;
2022-10-17 22:30:00;v;3.93;;;;;;;;;
2022-10-17 22:30:00;h1;11;154;6;20.51;68.9;6;9.3151;2151;9430;2296
2022-10-17 22:30:00;d;0.83;;;;;;;;;
2022-10-17 22:31:01;v;3.93;;;;;;;;;
2022-10-17 22:31:01;h1;11;152;6;20.31;68.5;6;9.2111;2183;9324;2330
2022-10-17 22:31:01;d;0.83;;;;;;;;;
2022-10-17 22:32:02;v;3.93;;;;;;;;;
2022-10-17 22:32:02;h1;11;152;6;20.31;68.5;6;9.2111;2183;9324;2330
2022-10-17 22:32:02;d;0.83;;;;;;;;;
2022-10-17 22:33:02;v;3.93;;;;;;;;;
2022-10-17 22:33:02;h1;11;152;6;20.31;68.5;6;9.2111;2183;9324;2330
2022-10-17 22:33:02;d;0.83;;;;;;;;;
2022-10-17 22:34:03;v;3.93;;;;;;;;;
2022-10-17 22:34:03;h1;11;152;6;20.31;68.5;6;9.2111;2183;9324;2330
2022-10-17 22:34:03;d;0.83;;;;;;;;;
2022-10-17 22:35:04;v;3.93;;;;;;;;;
2022-10-17 22:35:04;h1;11;152;6;20.31;68.5;6;9.2111;2183;9324;2330
2022-10-17 22:35:04;d;0.83;;;;;;;;;
2022-10-17 22:36:00;v;3.93;;;;;;;;;
2022-10-17 22:36:00;h1;11;152;6;20.31;68.5;6;9.2111;2183;9324;2330
2022-10-17 22:36:00;d;0.83;;;;;;;;;
2022-10-17 22:37:01;v;3.93;;;;;;;;;
2022-10-17 22:37:01;h1;11;152;6;20.31;68.5;6;9.2111;2183;9324;2330
2022-10-17 22:37:01;d;0.83;;;;;;;;;
2022-10-17 22:38:02;v;3.93;;;;;;;;;
2022-10-17 22:38:02;h1;11;152;6;20.31;68.5;6;9.2111;2183;9322;2332
2022-10-17 22:38:02;d;0.83;;;;;;;;;
2022-10-17 22:39:03;v;3.93;;;;;;;;;
2022-10-17 22:39:03;h1;11;153;6;20.31;68.5;6;9.2671;2103;9380;2247
2022-10-17 22:39:03;d;0.83;;;;;;;;;
2022-10-17 22:40:04;v;3.93;;;;;;;;;
2022-10-17 22:40:04;h1;11;153;6;20.31;68.5;6;9.2671;2103;9380;2247
2022-10-17 22:40:04;d;0.83;;;;;;;;;
2022-10-17 22:41:00;v;3.93;;;;;;;;;
2022-10-17 22:41:00;h1;11;154;6;20.31;68.5;6;9.3581;2069;9471;2211
2022-10-17 22:41:00;d;0.83;;;;;;;;;
2022-10-17 22:42:01;v;3.93;;;;;;;;;
2022-10-17 22:42:01;h1;11;152;6;20.31;68.5;6;9.1981;2180;9309;2330
2022-10-17 22:42:01;d;0.83;;;;;;;;;
2022-10-17 22:43:02;v;3.93;;;;;;;;;
2022-10-17 22:43:02;h1;11;152;6;20.31;68.5;6;9.1971;2180;9307;2332
2022-10-17 22:43:02;d;0.83;;;;;;;;;
2022-10-17 22:44:02;v;3.93;;;;;;;;;
2022-10-17 22:44:02;h1;11;152;6;20.31;68.5;6;9.1971;2180;9307;2332
2022-10-17 22:44:02;d;0.83;;;;;;;;;
2022-10-17 22:45:03;v;3.93;;;;;;;;;
2022-10-17 22:45:03;h1;11;152;6;20.31;68.5;6;9.1971;2180;9307;2332
2022-10-17 22:45:03;d;0.83;;;;;;;;;
2022-10-17 22:46:04;v;3.93;;;;;;;;;
2022-10-17 22:46:04;h1;11;152;6;20.31;68.5;6;9.1971;2180;9307;2332
2022-10-17 22:46:04;d;0.83;;;;;;;;;
2022-10-17 22:47:00;v;3.93;;;;;;;;;
2022-10-17 22:47:00;h1;11;153;6;20.31;68.5;6;9.2541;2100;9365;2247
2022-10-17 22:47:00;d;0.83;;;;;;;;;
2022-10-17 22:48:01;v;3.93;;;;;;;;;
2022-10-17 22:48:01;h1;11;153;6;20.31;68.5;6;9.2541;2100;9365;2247
2022-10-17 22:48:01;d;0.83;;;;;;;;;
2022-10-17 22:49:02;v;3.93;;;;;;;;;
2022-10-17 22:49:02;h1;11;153;6;20.31;68.5;6;9.2541;2100;9365;2247
2022-10-17 22:49:02;d;0.83;;;;;;;;;
2022-10-17 22:50:03;v;3.93;;;;;;;;;
2022-10-17 22:50:03;h1;11;153;6;20.31;68.5;6;9.2541;2100;9365;2247
2022-10-17 22:50:03;d;0.83;;;;;;;;;
2022-10-17 22:51:04;v;3.93;;;;;;;;;
2022-10-17 22:51:04;h1;11;153;6;20.31;68.5;6;9.2541;2100;9365;2247
2022-10-17 22:51:04;d;0.83;;;;;;;;;
2022-10-17 22:52:00;v;3.93;;;;;;;;;
2022-10-17 22:52:00;h1;11;150;7;20.31;68.5;6;9.0931;2212;9202;2366
2022-10-17 22:52:00;d;0.83;;;;;;;;;
2022-10-17 22:53:01;v;3.93;;;;;;;;;
2022-10-17 22:53:01;h1;11;153;6;20.31;68.5;6;9.2541;2100;9365;2247
2022-10-17 22:53:01;d;0.83;;;;;;;;;
2022-10-17 22:54:02;v;3.93;;;;;;;;;
2022-10-17 22:54:02;h1;11;150;7;20.31;68.5;6;9.0931;2212;9202;2366
2022-10-17 22:54:02;d;0.83;;;;;;;;;
2022-10-17 22:55:02;v;3.93;;;;;;;;;
2022-10-17 22:55:02;h1;11;151;6;20.31;68.5;6;9.1511;2132;9260;2280
2022-10-17 22:55:02;d;0.83;;;;;;;;;
2022-10-17 22:56:03;v;3.93;;;;;;;;;
2022-10-17 22:56:03;h1;11;150;7;20.31;68.5;6;9.0931;2212;9202;2366
2022-10-17 22:56:03;d;0.83;;;;;;;;;
2022-10-17 22:57:04;v;3.93;;;;;;;;;
2022-10-17 22:57:04;h1;11;151;6;20.31;68.5;6;9.1501;2132;9258;2283
2022-10-17 22:57:04;d;0.83;;;;;;;;;
2022-10-17 22:58:00;v;3.92;;;;;;;;;
2022-10-17 22:58:00;h1;11;151;6;20.31;68.5;6;9.1501;2132;9258;2283
2022-10-17 22:58:00;d;0.83;;;;;;;;;
2022-10-17 22:59:01;v;3.93;;;;;;;;;
2022-10-17 22:59:01;h1;11;151;6;20.31;68.5;6;9.1501;2132;9258;2283
2022-10-17 22:59:01;d;0.83;;;;;;;;;
2022-10-17 23:00:02;v;3.92;;;;;;;;;
2022-10-17 23:00:02;h1;11;151;6;20.31;68.5;6;9.1501;2132;9258;2283
2022-10-17 23:00:02;d;0.83;;;;;;;;;
2022-10-17 23:01:03;v;3.92;;;;;;;;;
2022-10-17 23:01:03;h1;11;151;6;20.31;68.5;6;9.1501;2132;9258;2283
2022-10-17 23:01:03;d;0.83;;;;;;;;;
2022-10-17 23:02:04;v;3.92;;;;;;;;;
2022-10-17 23:02:04;h1;11;152;6;20.31;68.5;6;9.2411;2098;9350;2247
2022-10-17 23:02:04;d;0.83;;;;;;;;;
2022-10-17 23:03:00;v;3.92;;;;;;;;;
2022-10-17 23:03:00;h1;11;151;6;20.31;68.5;6;9.1501;2132;9258;2283
2022-10-17 23:03:00;d;0.83;;;;;;;;;
2022-10-17 23:04:01;v;3.92;;;;;;;;;
2022-10-17 23:04:01;h1;11;152;6;20.31;68.5;6;9.2401;2098;9348;2249
2022-10-17 23:04:01;d;0.82;;;;;;;;;
2022-10-17 23:05:01;v;3.92;;;;;;;;;
2022-10-17 23:05:01;h1;11;149;6;20.11;68.2;6;9.0461;2163;9152;2316
2022-10-17 23:05:01;d;0.82;;;;;;;;;
2022-10-17 23:06:02;v;3.92;;;;;;;;;
2022-10-17 23:06:02;h1;11;150;6;20.31;68.5;6;9.1381;2129;9245;2280
2022-10-17 23:06:02;d;0.82;;;;;;;;;
2022-10-17 23:07:03;v;3.92;;;;;;;;;
2022-10-17 23:07:03;h1;11;153;6;20.31;68.5;6;9.2961;2018;9404;2164
2022-10-17 23:07:03;d;0.82;;;;;;;;;
2022-10-17 23:08:04;v;3.92;;;;;;;;;
2022-10-17 23:08:04;h1;11;150;6;20.31;68.5;6;9.1371;2129;9243;2283
2022-10-17 23:08:04;d;0.82;;;;;;;;;
2022-10-17 23:09:00;v;3.92;;;;;;;;;
2022-10-17 23:09:00;h1;11;150;6;20.11;68.2;6;9.1371;2129;9243;2283
2022-10-17 23:09:00;d;0.82;;;;;;;;;
2022-10-17 23:10:01;v;3.92;;;;;;;;;
2022-10-17 23:10:01;h1;11;150;6;20.11;68.2;6;9.1371;2129;9243;2283
2022-10-17 23:10:01;d;0.82;;;;;;;;;
2022-10-17 23:11:02;v;3.92;;;;;;;;;
2022-10-17 23:11:02;h1;11;150;6;20.11;68.2;6;9.1371;2129;9243;2283
2022-10-17 23:11:02;d;0.82;;;;;;;;;
2022-10-17 23:12:03;v;3.92;;;;;;;;;
2022-10-17 23:12:03;h1;11;150;6;20.11;68.2;6;9.1371;2129;9243;2283
2022-10-17 23:12:03;d;0.82;;;;;;;;;
2022-10-17 23:13:04;v;3.92;;;;;;;;;
2022-10-17 23:13:04;h1;11;150;6;20.11;68.2;6;9.1371;2129;9243;2283
2022-10-17 23:13:04;d;0.82;;;;;;;;;
2022-10-17 23:14:00;v;3.92;;;;;;;;;
2022-10-17 23:14:00;h1;11;151;6;20.11;68.2;6;9.1941;2050;9300;2198
2022-10-17 23:14:00;d;0.82;;;;;;;;;
2022-10-17 23:15:01;v;3.92;;;;;;;;;
2022-10-17 23:15:01;h1;11;151;6;20.11;68.2;6;9.1941;2050;9300;2198
2022-10-17 23:15:01;d;0.82;;;;;;;;;
2022-10-17 23:16:01;v;3.92;;;;;;;;;
2022-10-17 23:16:01;h1;11;151;6;20.11;68.2;6;9.1941;2050;9300;2198
2022-10-17 23:16:01;d;0.82;;;;;;;;;
2022-10-17 23:17:02;v;3.92;;;;;;;;;
2022-10-17 23:17:02;h1;11;151;6;20.11;68.2;6;9.1941;2050;9300;2198
2022-10-17 23:17:02;d;0.82;;;;;;;;;
2022-10-17 23:18:03;v;3.92;;;;;;;;;
2022-10-17 23:18:03;h1;11;149;6;20.11;68.2;6;9.0331;2160;9138;2316
2022-10-17 23:18:03;d;0.82;;;;;;;;;
2022-10-17 23:19:04;v;3.92;;;;;;;;;
2022-10-17 23:19:04;h1;11;149;6;20.11;68.2;6;9.0321;2160;9136;2319
2022-10-17 23:19:04;d;0.82;;;;;;;;;
2022-10-17 23:20:00;v;3.92;;;;;;;;;
2022-10-17 23:20:00;h1;11;149;6;20.11;68.2;6;9.0321;2160;9136;2319
2022-10-17 23:20:00;d;0.82;;;;;;;;;
2022-10-17 23:21:01;v;3.92;;;;;;;;;
2022-10-17 23:21:01;h1;11;149;6;20.11;68.2;6;9.0321;2160;9136;2319
2022-10-17 23:21:01;d;0.82;;;;;;;;;
2022-10-17 23:22:02;v;3.92;;;;;;;;;
2022-10-17 23:22:02;h1;11;149;6;20.11;68.2;6;9.0321;2160;9136;2319
2022-10-17 23:22:02;d;0.82;;;;;;;;;
2022-10-17 23:23:03;v;3.92;;;;;;;;;
2022-10-17 23:23:03;h1;11;149;6;20.11;68.2;6;9.0321;2160;9136;2319
2022-10-17 23:23:03;d;0.82;;;;;;;;;
2022-10-17 23:24:03;v;3.92;;;;;;;;;
2022-10-17 23:24:03;h1;11;150;6;20.11;68.2;6;9.0901;2081;9194;2234
2022-10-17 23:24:03;d;0.82;;;;;;;;;
2022-10-17 23:25:00;v;3.92;;;;;;;;;
2022-10-17 23:25:00;h1;11;150;6;20.11;68.2;6;9.0901;2081;9194;2234
2022-10-17 23:25:00;d;0.82;;;;;;;;;
2022-10-17 23:26:00;v;3.92;;;;;;;;;
2022-10-17 23:26:00;h1;11;151;6;20.11;68.2;6;9.1811;2048;9286;2198
2022-10-17 23:26:00;d;0.82;;;;;;;;;
2022-10-17 23:27:01;v;3.92;;;;;;;;;
2022-10-17 23:27:01;h1;11;151;6;20.11;68.2;6;9.1801;2047;9284;2200
2022-10-17 23:27:01;d;0.82;;;;;;;;;
2022-10-17 23:28:02;v;3.92;;;;;;;;;
2022-10-17 23:28:02;h1;11;151;6;20.11;68.2;6;9.1801;2047;9284;2200
2022-10-17 23:28:02;d;0.82;;;;;;;;;
2022-10-17 23:29:03;v;3.92;;;;;;;;;
2022-10-17 23:29:03;h1;11;151;6;20.11;68.2;6;9.1801;2047;9284;2200
2022-10-17 23:29:03;d;0.82;;;;;;;;;
2022-10-17 23:30:04;v;3.92;;;;;;;;;
2022-10-17 23:30:04;h1;11;151;6;20.11;68.2;6;9.1801;2047;9284;2200
2022-10-17 23:30:04;d;0.82;;;;;;;;;
2022-10-17 23:31:00;v;3.92;;;;;;;;;
2022-10-17 23:31:00;h1;11;151;6;20.11;68.2;6;9.1801;2047;9284;2200
2022-10-17 23:31:00;d;0.82;;;;;;;;;
2022-10-17 23:32:01;v;3.92;;;;;;;;;
2022-10-17 23:32:01;h1;11;151;6;20.11;68.2;6;9.1801;2047;9284;2200
2022-10-17 23:32:01;d;0.82;;;;;;;;;
2022-10-17 23:33:01;v;3.92;;;;;;;;;
2022-10-17 23:33:01;h1;11;151;6;20.11;68.2;6;9.1801;2047;9284;2200
2022-10-17 23:33:01;d;0.82;;;;;;;;;
2022-10-17 23:34:02;v;3.92;;;;;;;;;
2022-10-17 23:34:02;h1;11;148;6;19.91;67.8;6;9.0201;2158;9121;2319
2022-10-17 23:34:02;d;0.82;;;;;;;;;
2022-10-17 23:35:03;v;3.92;;;;;;;;;
2022-10-17 23:35:03;h1;11;149;6;19.91;67.8;6;9.0771;2079;9179;2234
2022-10-17 23:35:03;d;0.82;;;;;;;;;
2022-10-17 23:36:04;v;3.92;;;;;;;;;
2022-10-17 23:36:04;h1;11;149;6;19.91;67.8;6;9.0771;2079;9179;2234
2022-10-17 23:36:04;d;0.82;;;;;;;;;
2022-10-17 23:37:00;v;3.92;;;;;;;;;
2022-10-17 23:37:00;h1;11;149;6;19.91;67.8;6;9.0771;2079;9179;2234
2022-10-17 23:37:00;d;0.82;;;;;;;;;
2022-10-17 23:38:01;v;3.92;;;;;;;;;
2022-10-17 23:38:01;h1;11;149;6;19.91;67.8;6;9.0771;2079;9179;2234
2022-10-17 23:38:01;d;0.82;;;;;;;;;
2022-10-17 23:39:02;v;3.92;;;;;;;;;
2022-10-17 23:39:02;h1;11;149;6;19.91;67.8;6;9.0771;2079;9179;2234
2022-10-17 23:39:02;d;0.82;;;;;;;;;
2022-10-17 23:40:03;v;3.92;;;;;;;;;
2022-10-17 23:40:03;h1;11;149;6;19.91;67.8;6;9.0771;2079;9179;2234
2022-10-17 23:40:03;d;0.82;;;;;;;;;
2022-10-17 23:41:03;v;3.92;;;;;;;;;
2022-10-17 23:41:03;h1;11;149;6;19.91;67.8;6;9.0771;2079;9179;2234
2022-10-17 23:41:03;d;0.82;;;;;;;;;
2022-10-17 23:42:00;v;3.92;;;;;;;;;
2022-10-17 23:42:00;h1;11;149;6;19.91;67.8;6;9.0771;2079;9179;2234
2022-10-17 23:42:00;d;0.82;;;;;;;;;
2022-10-17 23:43:00;v;3.92;;;;;;;;;
2022-10-17 23:43:00;h1;11;149;6;19.91;67.8;6;9.0761;2078;9177;2236
2022-10-17 23:43:00;d;0.82;;;;;;;;;
2022-10-17 23:44:01;v;3.92;;;;;;;;;
2022-10-17 23:44:01;h1;11;146;7;19.91;67.8;6;8.9151;2189;9014;2354
2022-10-17 23:44:01;d;0.82;;;;;;;;;
2022-10-17 23:45:02;v;3.92;;;;;;;;;
2022-10-17 23:45:02;h1;11;146;7;19.91;67.8;6;8.9151;2189;9014;2354
2022-10-17 23:45:02;d;0.82;;;;;;;;;
2022-10-17 23:46:03;v;3.92;;;;;;;;;
2022-10-17 23:46:03;h1;11;148;6;19.91;67.8;6;8.9731;2109;9073;2269
2022-10-17 23:46:03;d;0.82;;;;;;;;;
2022-10-17 23:47:04;v;3.92;;;;;;;;;
2022-10-17 23:47:04;h1;11;148;6;19.91;67.8;6;8.9731;2109;9073;2269
2022-10-17 23:47:04;d;0.82;;;;;;;;;
2022-10-17 23:48:00;v;3.92;;;;;;;;;
2022-10-17 23:48:00;h1;11;148;6;19.91;67.8;6;8.9731;2109;9073;2269
2022-10-17 23:48:00;d;0.82;;;;;;;;;
2022-10-17 23:49:01;v;3.92;;;;;;;;;
2022-10-17 23:49:01;h1;11;148;6;19.91;67.8;6;8.9731;2109;9073;2269
2022-10-17 23:49:01;d;0.82;;;;;;;;;
2022-10-17 23:50:01;v;3.92;;;;;;;;;
2022-10-17 23:50:01;h1;11;149;6;19.91;67.8;6;9.0641;2076;9163;2236
2022-10-17 23:50:01;d;0.82;;;;;;;;;
2022-10-17 23:51:02;v;3.92;;;;;;;;;
2022-10-17 23:51:02;h1;11;148;6;19.91;67.8;6;8.9731;2109;9073;2269
2022-10-17 23:51:02;d;0.82;;;;;;;;;
2022-10-17 23:52:03;v;3.92;;;;;;;;;
2022-10-17 23:52:03;h1;11;149;6;19.91;67.8;6;9.0641;2076;9163;2236
2022-10-17 23:52:03;d;0.82;;;;;;;;;
2022-10-17 23:53:04;v;3.92;;;;;;;;;
2022-10-17 23:53:04;h1;11;149;6;19.91;67.8;6;9.0641;2076;9163;2236
2022-10-17 23:53:04;d;0.82;;;;;;;;;
2022-10-17 23:54:00;v;3.92;;;;;;;;;
2022-10-17 23:54:00;h1;11;149;6;19.91;67.8;6;9.0641;2076;9163;2236
2022-10-17 23:54:00;d;0.82;;;;;;;;;
2022-10-17 23:55:01;v;3.92;;;;;;;;;
2022-10-17 23:55:01;h1;11;149;6;19.91;67.8;6;9.0641;2076;9163;2236
2022-10-17 23:55:01;d;0.82;;;;;;;;;
2022-10-17 23:56:02;v;3.92;;;;;;;;;
2022-10-17 23:56:02;h1;11;150;6;19.91;67.8;6;9.1201;1997;9220;2151
2022-10-17 23:56:02;d;0.82;;;;;;;;;
2022-10-17 23:57:02;v;3.92;;;;;;;;;
2022-10-17 23:57:02;h1;11;150;6;19.91;67.8;6;9.1201;1997;9220;2151
2022-10-17 23:57:02;d;0.82;;;;;;;;;
2022-10-17 23:58:03;v;3.92;;;;;;;;;
2022-10-17 23:58:03;h1;11;150;6;19.91;67.8;6;9.1201;1997;9220;2151
2022-10-17 23:58:03;d;0.82;;;;;;;;;
2022-10-17 23:59:04;v;3.92;;;;;;;;;
2022-10-17 23:59:04;h1;11;147;6;19.91;67.8;6;8.9601;2107;9059;2269
2022-10-17 23:59:04;d;0.82;;;;;;;;;
