2021-08-15 00:00:27;4.06;2.42;93;11.60;91;11.40
2021-08-15 00:05:30;4.06;2.42;93;11.50;93;11.40
2021-08-15 00:10:29;4.06;2.42;92;11.60;93;11.30
2021-08-15 00:15:28;4.06;2.58;93;11.50;92;11.30
2021-08-15 00:20:27;4.06;2.58;94;11.30;93;11.20
2021-08-15 00:25:30;4.06;2.09;93;11.20;94;11.10
2021-08-15 00:30:29;4.06;2.42;93;11.40;93;11.00
2021-08-15 00:35:28;4.06;2.42;92;11.40;93;11.20
2021-08-15 00:40:31;4.06;2.09;93;11.30;93;11.20
2021-08-15 00:45:30;4.06;2.09;91;11.30;92;11.10
2021-08-15 00:50:28;4.06;2.09;91;11.40;90;11.10
2021-08-15 00:55:27;4.06;2.09;90;11.40;91;11.20
2021-08-15 01:00:30;4.06;2.42;91;11.30;90;11.20
2021-08-15 01:05:29;4.06;2.09;90;11.40;91;11.20
2021-08-15 01:10:28;4.06;2.09;90;11.20;90;11.30
2021-08-15 01:15:27;4.06;2.42;91;11.00;90;11.20
2021-08-15 01:20:30;4.06;2.09;91;11.20;91;10.90
2021-08-15 01:25:29;4.06;2.42;92;11.10;91;11.00
2021-08-15 01:30:27;4.06;2.09;92;11.10;92;10.90
2021-08-15 01:35:31;4.06;2.58;93;11.00;92;10.90
2021-08-15 01:40:29;4.06;2.58;95;10.80;93;10.80
2021-08-15 01:45:28;4.06;2.58;95;11.00;95;10.60
2021-08-15 01:50:27;4.06;2.58;95;10.90;95;10.80
2021-08-15 01:55:30;4.06;2.42;96;10.90;95;10.70
2021-08-15 02:00:29;4.06;2.58;96;10.80;96;10.70
2021-08-15 02:05:27;4.06;2.42;96;10.80;96;10.70
2021-08-15 02:10:31;4.06;2.42;97;10.80;96;10.70
2021-08-15 02:15:29;4.06;2.42;96;10.80;96;10.60
2021-08-15 02:20:28;4.06;2.42;96;10.70;96;10.70
2021-08-15 02:25:27;4.06;2.42;96;10.70;96;10.60
2021-08-15 02:30:30;4.06;2.42;96;10.80;96;10.50
2021-08-15 02:35:29;4.06;2.58;96;10.70;96;10.60
2021-08-15 02:40:27;4.06;2.42;97;10.60;96;10.50
2021-08-15 02:45:30;4.06;2.42;97;10.50;96;10.40
2021-08-15 02:50:29;4.06;2.42;96;10.30;97;10.20
2021-08-15 02:55:28;4.06;2.09;96;10.40;96;10.10
2021-08-15 03:00:27;4.06;2.58;97;10.20;96;10.20
2021-08-15 03:05:30;4.06;2.09;96;10.20;96;10.00
2021-08-15 03:10:28;4.06;2.09;96;10.30;96;9.90
2021-08-15 03:15:27;4.06;2.58;96;10.30;97;10.00
2021-08-15 03:20:30;4.06;2.09;95;10.20;96;10.00
2021-08-15 03:25:29;4.06;2.09;95;10.20;96;10.00
2021-08-15 03:30:28;4.06;2.42;95;10.30;94;10.10
2021-08-15 03:35:31;4.06;2.42;94;10.40;94;10.20
2021-08-15 03:40:29;4.06;2.42;95;10.40;94;10.20
2021-08-15 03:45:28;4.06;2.42;95;10.30;95;10.20
2021-08-15 03:50:27;4.06;2.42;95;10.30;95;10.10
2021-08-15 03:55:30;4.06;2.09;95;10.10;95;10.10
2021-08-15 04:00:28;4.06;2.58;96;10.10;95;9.90
2021-08-15 04:05:27;4.05;2.09;97;10.10;96;9.90
2021-08-15 04:10:30;4.05;2.09;97;10.10;97;9.90
2021-08-15 04:15:29;4.06;2.09;97;10.00;97;9.90
2021-08-15 04:20:28;4.05;2.09;97;9.80;98;9.90
2021-08-15 04:25:31;4.05;2.09;97;9.80;99;9.70
2021-08-15 04:30:29;4.05;2.42;97;9.80;99;9.70
2021-08-15 04:35:28;4.05;2.42;97;9.70;99;9.70
2021-08-15 04:40:27;4.05;2.42;97;9.70;99;9.60
2021-08-15 04:45:30;4.05;2.58;97;9.70;99;9.60
2021-08-15 04:50:28;4.05;2.42;97;9.60;99;9.60
2021-08-15 04:55:27;4.05;2.42;97;9.60;99;9.50
2021-08-15 05:00:30;4.05;2.42;97;9.50;99;9.50
2021-08-15 05:05:29;4.05;2.42;97;9.40;99;9.40
2021-08-15 05:10:27;4.05;2.58;97;9.40;99;9.30
2021-08-15 05:15:30;4.05;2.42;97;9.40;99;9.30
2021-08-15 05:20:29;4.05;2.42;97;9.30;99;9.30
2021-08-15 05:25:28;4.05;2.58;97;9.20;99;9.20
2021-08-15 05:30:31;4.05;2.58;97;9.20;99;9.20
2021-08-15 05:35:29;4.05;2.42;97;9.00;99;9.10
2021-08-15 05:40:28;4.05;2.42;97;8.90;99;9.00
2021-08-15 05:45:26;4.05;2.42;97;9.00;99;8.80
2021-08-15 05:50:29;4.05;2.42;97;9.00;99;8.90
2021-08-15 05:55:28;4.05;2.09;97;8.70;99;8.90
2021-08-15 06:00:27;4.05;2.58;97;8.70;99;8.80
2021-08-15 06:05:30;4.05;2.09;97;8.60;99;8.70
2021-08-15 06:10:28;4.05;2.09;97;8.60;99;8.60
2021-08-15 06:15:27;4.05;2.09;97;8.60;99;8.60
2021-08-15 06:20:30;4.05;2.09;97;8.50;99;8.60
2021-08-15 06:25:28;4.05;2.42;97;8.40;99;8.50
2021-08-15 06:30:27;4.05;2.42;97;8.40;99;8.40
2021-08-15 06:35:30;4.05;2.42;97;8.30;99;8.30
2021-08-15 06:40:28;4.05;2.42;97;8.20;99;8.30
2021-08-15 06:45:27;4.05;2.42;97;8.30;99;8.20
2021-08-15 06:50:30;4.05;2.42;97;8.10;99;8.30
2021-08-15 06:55:28;4.05;2.42;97;8.20;99;8.00
2021-08-15 07:00:27;4.05;2.42;97;8.20;99;8.10
2021-08-15 07:05:30;4.05;2.42;97;8.20;99;8.20
2021-08-15 07:10:28;4.05;2.42;97;8.10;99;8.10
2021-08-15 07:15:27;4.05;2.42;97;8.10;99;8.10
2021-08-15 07:20:30;4.05;2.42;97;8.10;99;8.00
2021-08-15 07:25:28;4.05;2.58;97;8.10;99;8.10
2021-08-15 07:30:27;4.05;2.42;97;8.10;99;8.10
2021-08-15 07:35:30;4.05;2.42;97;8.00;99;8.00
2021-08-15 07:40:28;4.05;2.42;97;8.00;99;8.00
2021-08-15 07:45:27;4.05;2.42;97;8.00;99;8.00
2021-08-15 07:50:30;4.05;2.58;97;8.20;99;8.00
2021-08-15 07:55:28;4.05;2.09;97;8.20;99;8.10
2021-08-15 08:00:27;4.05;2.09;97;8.20;99;8.20
2021-08-15 08:05:30;4.05;2.42;97;8.50;99;8.30
2021-08-15 08:10:28;4.05;2.58;97;8.80;99;8.50
2021-08-15 08:15:27;4.05;2.42;97;9.00;99;8.80
2021-08-15 08:20:30;4.05;2.09;97;9.20;99;9.00
2021-08-15 08:25:28;4.05;2.42;97;9.40;98;9.20
2021-08-15 08:30:27;4.06;2.58;93;10.60;97;9.50
2021-08-15 08:35:30;4.06;2.42;90;10.80;89;11.20
2021-08-15 08:40:28;4.05;2.42;93;10.30;86;11.60
2021-08-15 08:45:27;4.05;2.58;94;10.20;90;10.70
2021-08-15 08:50:30;4.05;2.42;94;10.20;91;10.50
2021-08-15 08:55:29;4.05;2.42;94;10.20;92;10.50
2021-08-15 09:00:27;4.06;2.58;94;10.20;91;10.50
2021-08-15 09:05:31;4.06;2.42;94;10.30;90;10.80
2021-08-15 09:10:29;4.05;2.42;95;10.50;91;10.70
2021-08-15 09:15:28;4.06;2.42;94;10.90;93;10.80
2021-08-15 09:20:27;4.06;2.42;93;11.20;92;11.20
2021-08-15 09:25:30;4.06;2.42;93;11.40;91;11.50
2021-08-15 09:30:29;4.06;2.42;92;11.70;91;11.70
2021-08-15 09:35:28;4.06;2.58;91;12.00;90;12.10
2021-08-15 09:40:31;4.06;2.58;90;12.10;88;12.30
2021-08-15 09:45:30;4.06;2.90;90;12.40;88;12.40
2021-08-15 09:50:29;4.06;2.09;89;12.70;88;12.70
2021-08-15 09:55:27;4.06;2.09;88;13.00;87;12.90
2021-08-15 10:00:31;4.06;2.58;86;13.30;86;13.30
2021-08-15 10:05:30;4.06;2.58;85;13.60;84;13.60
2021-08-15 10:10:28;4.06;2.42;84;13.80;83;14.00
2021-08-15 10:15:27;4.06;2.58;83;14.30;82;14.40
2021-08-15 10:20:31;4.07;2.42;83;14.40;77;16.00
2021-08-15 10:25:30;4.06;2.42;81;14.50;74;16.60
2021-08-15 10:30:30;4.06;2.58;81;14.80;77;15.40
2021-08-15 10:35:29;4.07;2.09;79;15.10;77;15.70
2021-08-15 10:40:28;4.08;2.42;79;15.40;74;16.40
2021-08-15 10:45:28;4.07;2.42;79;15.40;76;16.00
2021-08-15 10:50:27;4.06;2.42;78;15.80;76;16.00
2021-08-15 10:55:31;4.06;2.58;78;16.00;76;16.10
2021-08-15 11:00:31;4.06;2.58;72;17.60;76;16.30
2021-08-15 11:05:30;4.06;2.09;68;18.80;68;18.90
2021-08-15 11:10:30;4.09;2.42;66;19.40;61;21.30
2021-08-15 11:15:29;4.09;2.42;65;19.80;58;22.30
2021-08-15 11:20:29;4.08;2.42;65;20.00;56;22.80
2021-08-15 11:25:29;4.08;2.42;63;20.60;58;22.40
2021-08-15 11:30:29;4.09;2.09;61;21.10;55;23.50
2021-08-15 11:35:29;4.09;2.42;62;20.90;55;23.50
2021-08-15 11:40:30;4.08;2.42;62;21.10;55;23.80
2021-08-15 11:45:30;4.08;2.58;59;21.70;54;24.10
2021-08-15 11:50:31;4.08;2.42;58;21.70;52;24.20
2021-08-15 11:55:31;4.09;2.42;58;22.10;52;24.40
2021-08-15 12:00:32;4.08;2.58;59;21.80;51;24.60
2021-08-15 12:05:28;4.09;2.58;56;22.20;52;24.30
2021-08-15 12:10:29;4.08;2.58;53;22.30;50;24.60
2021-08-15 12:15:30;4.10;3.38;52;22.30;49;24.30
2021-08-15 12:20:31;4.10;2.90;53;22.40;47;24.30
2021-08-15 12:25:32;4.08;2.90;54;22.50;49;24.30
2021-08-15 12:30:28;4.08;3.22;53;22.90;49;24.80
2021-08-15 12:35:29;4.08;3.71;51;23.20;48;25.00
2021-08-15 12:40:31;4.10;3.38;50;23.40;47;25.20
2021-08-15 12:45:32;4.09;3.38;50;23.10;46;25.10
2021-08-15 12:50:33;4.08;3.38;49;23.50;46;24.90
2021-08-15 12:55:29;4.08;3.38;49;23.90;47;25.00
2021-08-15 13:00:31;4.08;3.38;50;24.00;46;25.40
2021-08-15 13:05:32;4.10;3.38;47;23.90;47;25.60
2021-08-15 13:10:29;4.08;3.38;50;24.20;44;25.10
2021-08-15 13:15:30;4.08;3.38;48;24.10;46;25.80
2021-08-15 13:20:31;4.08;3.71;48;24.20;44;25.80
2021-08-15 13:25:33;4.08;3.38;48;24.30;45;25.60
2021-08-15 13:30:29;4.08;3.38;46;24.70;46;25.60
2021-08-15 13:35:31;4.09;3.38;47;25.00;44;26.00
2021-08-15 13:40:32;4.09;3.71;45;25.20;44;26.40
2021-08-15 13:45:29;4.08;3.71;46;25.20;43;26.50
2021-08-15 13:50:31;4.08;3.71;47;25.30;43;26.40
2021-08-15 13:55:32;4.08;3.71;46;25.40;46;26.20
2021-08-15 14:00:29;4.10;3.38;45;25.20;45;26.40
2021-08-15 14:05:30;4.08;3.71;45;25.20;44;26.20
2021-08-15 14:10:32;4.09;3.71;47;25.20;44;26.40
2021-08-15 14:15:29;4.08;3.38;46;25.40;45;26.40
2021-08-15 14:20:30;4.08;3.38;44;25.50;44;26.50
2021-08-15 14:25:32;4.09;3.71;44;25.40;43;26.40
2021-08-15 14:30:33;4.08;3.71;44;25.70;42;26.40
2021-08-15 14:35:30;4.10;3.71;43;25.30;42;26.60
2021-08-15 14:40:31;4.08;3.38;44;25.40;42;26.40
2021-08-15 14:45:33;4.08;3.38;43;25.50;42;26.60
2021-08-15 14:50:30;4.08;3.38;43;25.50;41;26.40
2021-08-15 14:55:31;4.08;3.38;42;25.40;41;26.40
2021-08-15 15:00:32;4.08;3.38;44;25.50;40;26.40
2021-08-15 15:05:29;4.08;3.22;43;25.30;42;26.50
2021-08-15 15:10:31;4.08;3.38;44;25.30;41;26.40
2021-08-15 15:15:32;4.08;3.22;44;25.50;43;26.30
2021-08-15 15:20:29;4.09;3.22;42;25.40;42;26.60
2021-08-15 15:25:30;4.08;3.22;43;24.80;41;26.30
2021-08-15 15:30:31;4.08;3.22;43;24.70;41;25.60
2021-08-15 15:35:33;4.08;3.22;43;24.90;42;25.50
2021-08-15 15:40:29;4.09;3.22;43;25.00;42;25.60
2021-08-15 15:45:31;4.08;3.22;44;25.10;42;25.90
2021-08-15 15:50:32;4.09;3.22;46;24.00;42;25.90
2021-08-15 15:55:29;4.09;3.22;47;22.80;43;25.40
2021-08-15 16:00:30;4.08;3.22;48;22.00;45;23.90
2021-08-15 16:05:31;4.08;3.22;51;21.60;47;22.70
2021-08-15 16:10:31;4.08;3.22;51;21.30;49;22.10
2021-08-15 16:15:32;4.08;2.90;50;21.30;49;21.80
2021-08-15 16:20:28;4.08;3.22;51;21.10;49;21.70
2021-08-15 16:25:29;4.08;2.58;51;20.90;51;21.50
2021-08-15 16:30:29;4.08;2.42;53;20.70;51;21.30
2021-08-15 16:35:29;4.08;2.58;51;20.70;52;21.00
2021-08-15 16:40:29;4.08;2.42;53;20.60;51;20.90
2021-08-15 16:45:29;4.08;2.58;53;20.40;52;20.90
2021-08-15 16:50:30;4.08;2.58;53;20.20;53;20.70
2021-08-15 16:55:29;4.07;2.58;52;20.40;52;20.50
2021-08-15 17:00:29;4.07;2.42;54;20.20;52;20.70
2021-08-15 17:05:29;4.07;2.58;56;20.10;53;20.40
2021-08-15 17:10:29;4.07;2.90;55;19.90;55;20.30
2021-08-15 17:15:29;4.07;2.58;56;19.80;54;20.10
2021-08-15 17:20:29;4.07;2.58;55;19.80;55;20.00
2021-08-15 17:25:29;4.07;2.58;55;19.70;54;20.00
2021-08-15 17:30:28;4.07;2.58;55;19.70;54;19.90
2021-08-15 17:35:28;4.07;2.58;55;19.60;55;19.80
2021-08-15 17:40:28;4.07;2.58;57;19.30;55;19.80
2021-08-15 17:45:27;4.07;2.90;55;19.10;56;19.40
2021-08-15 17:50:32;4.07;2.90;57;19.30;55;19.20
2021-08-15 17:55:31;4.07;2.58;56;19.20;56;19.40
2021-08-15 18:00:31;4.07;2.58;55;19.30;56;19.40
2021-08-15 18:05:30;4.07;2.58;55;19.20;55;19.40
2021-08-15 18:10:30;4.07;2.58;56;18.90;55;19.30
2021-08-15 18:15:30;4.07;2.58;56;18.90;56;19.10
2021-08-15 18:20:29;4.07;2.58;55;18.90;56;19.00
2021-08-15 18:25:29;4.07;2.42;58;18.60;55;19.00
2021-08-15 18:30:28;4.07;2.90;61;18.10;57;18.70
2021-08-15 18:35:28;4.07;2.58;62;17.80;60;18.20
2021-08-15 18:40:27;4.07;2.58;63;17.60;62;17.80
2021-08-15 18:45:31;4.07;2.58;65;17.40;62;17.70
2021-08-15 18:50:31;4.07;2.42;64;17.20;64;17.40
2021-08-15 18:55:30;4.07;2.90;66;16.90;64;17.20
2021-08-15 19:00:30;4.07;2.58;65;17.00;65;16.90
2021-08-15 19:05:29;4.07;2.58;64;17.00;64;16.90
2021-08-15 19:10:28;4.07;2.42;68;16.70;64;16.90
2021-08-15 19:15:28;4.07;2.58;69;16.40;67;16.70
2021-08-15 19:20:27;4.07;2.42;66;16.40;69;16.40
2021-08-15 19:25:31;4.07;2.42;67;16.50;66;16.40
2021-08-15 19:30:30;4.07;2.42;67;16.60;66;16.50
2021-08-15 19:35:30;4.07;2.42;64;16.90;66;16.60
2021-08-15 19:40:29;4.07;2.42;64;16.80;64;16.80
2021-08-15 19:45:28;4.07;2.42;63;16.80;64;16.80
2021-08-15 19:50:28;4.07;2.42;65;16.60;63;16.80
2021-08-15 19:55:31;4.07;2.42;65;16.40;65;16.50
2021-08-15 20:00:31;4.07;2.58;65;16.40;64;16.30
2021-08-15 20:05:30;4.07;2.58;65;16.30;65;16.40
2021-08-15 20:10:29;4.07;2.58;67;16.20;65;16.20
2021-08-15 20:15:29;4.07;2.58;68;16.00;67;16.20
2021-08-15 20:20:28;4.07;2.58;71;15.70;68;15.90
2021-08-15 20:25:27;4.07;2.42;71;15.90;71;15.60
2021-08-15 20:30:31;4.07;2.42;71;16.20;71;15.90
2021-08-15 20:35:30;4.07;2.58;74;16.00;71;16.20
2021-08-15 20:40:29;4.07;2.58;76;15.70;73;16.00
2021-08-15 20:45:28;4.07;2.58;73;15.60;75;15.70
2021-08-15 20:50:28;4.07;2.58;69;15.70;72;15.60
2021-08-15 20:55:31;4.07;2.58;68;15.60;69;15.70
2021-08-15 21:00:30;4.07;2.09;69;15.50;68;15.60
2021-08-15 21:05:30;4.06;2.42;69;15.50;69;15.40
2021-08-15 21:10:29;4.06;2.58;69;15.40;69;15.50
2021-08-15 21:15:28;4.06;2.58;69;15.30;68;15.30
2021-08-15 21:20:27;4.06;2.09;67;15.60;68;15.30
2021-08-15 21:25:31;4.06;2.58;68;15.50;66;15.60
2021-08-15 21:30:30;4.06;2.09;70;15.20;68;15.40
2021-08-15 21:35:29;4.06;2.42;70;14.90;70;15.10
2021-08-15 21:40:28;4.06;2.42;69;15.10;70;14.80
2021-08-15 21:45:27;4.06;2.58;69;15.10;69;15.00
2021-08-15 21:50:31;4.06;2.58;70;15.00;69;15.00
2021-08-15 21:55:30;4.06;2.42;70;15.10;70;15.00
2021-08-15 22:00:29;4.06;2.58;70;15.10;69;15.00
2021-08-15 22:05:28;4.06;2.42;69;15.10;70;15.10
2021-08-15 22:10:27;4.06;2.42;70;15.10;69;15.10
2021-08-15 22:15:31;4.06;2.58;70;15.10;69;15.00
2021-08-15 22:20:30;4.06;2.58;71;14.90;69;15.10
2021-08-15 22:25:29;4.06;2.58;75;14.40;71;14.90
2021-08-15 22:30:28;4.06;2.42;76;14.30;75;14.50
2021-08-15 22:35:27;4.06;2.42;73;14.50;75;14.30
2021-08-15 22:40:31;4.06;2.58;72;14.50;72;14.50
2021-08-15 22:45:30;4.06;2.42;72;14.60;71;14.50
2021-08-15 22:50:29;4.06;2.58;71;14.60;72;14.50
2021-08-15 22:55:28;4.06;2.42;71;14.60;71;14.60
2021-08-15 23:00:27;4.06;2.42;72;14.40;71;14.60
2021-08-15 23:05:31;4.06;2.42;73;14.30;72;14.40
2021-08-15 23:10:30;4.06;2.58;74;14.30;72;14.40
2021-08-15 23:15:29;4.06;2.42;74;14.30;73;14.30
2021-08-15 23:20:28;4.06;2.09;74;14.30;73;14.40
2021-08-15 23:25:27;4.06;2.58;74;14.30;74;14.40
2021-08-15 23:30:30;4.06;2.42;75;14.30;74;14.40
2021-08-15 23:35:29;4.06;2.42;75;14.20;74;14.40
2021-08-15 23:40:28;4.06;2.58;76;14.10;74;14.30
2021-08-15 23:45:27;4.06;2.09;76;14.00;75;14.10
2021-08-15 23:50:31;4.06;2.58;77;13.90;76;14.10
2021-08-15 23:55:30;4.06;2.42;78;13.80;76;14.00
