2021-08-14 00:03:33;4.19;1;4.80;0;0.00
2021-08-14 00:33:28;4.19;6;3.70;0;0.00
2021-08-14 01:03:28;4.19;39;3.60;0;0.00
2021-08-14 01:33:32;4.19;64;3.50;0;0.00
2021-08-14 02:03:31;4.19;82;3.10;0;0.00
2021-08-14 02:33:31;4.18;99;2.40;0;0.00
2021-08-14 03:03:30;4.18;99;2.70;0;0.00
2021-08-14 03:33:29;4.19;99;2.60;0;0.00
2021-08-14 04:03:28;4.18;99;2.10;0;0.00
2021-08-14 04:33:27;4.18;99;2.10;0;0.00
2021-08-14 05:03:30;4.18;99;1.10;0;0.00
2021-08-14 05:33:29;4.18;99;1.10;0;0.00
2021-08-14 06:03:27;4.18;1;1.40;0;0.00
2021-08-14 06:33:30;4.18;1;1.10;0;0.00
2021-08-14 07:03:28;4.18;1;1.30;0;0.00
2021-08-14 07:33:26;4.18;1;0.70;0;0.00
2021-08-14 08:03:29;4.19;1;0.40;0;0.00
2021-08-14 08:33:28;4.19;1;2.20;0;0.00
2021-08-14 09:03:32;4.19;99;4.80;0;1.10
2021-08-14 09:33:33;4.19;44;7.80;0;0.00
2021-08-14 10:03:32;4.20;1;10.90;0;0.00
2021-08-14 10:33:38;4.21;1;13.30;0;0.00
2021-08-14 11:03:36;4.21;1;15.40;0;0.00
2021-08-14 11:33:36;4.21;1;16.70;0;0.00
2021-08-14 12:03:40;4.21;1;15.50;1;0.00
2021-08-14 12:33:37;4.22;1;17.70;1;0.00
2021-08-14 13:03:39;4.22;1;19.00;1;0.00
2021-08-14 13:33:43;4.22;1;18.40;1;1.50
2021-08-14 14:03:42;4.22;1;19.80;1;0.00
2021-08-14 14:33:42;4.22;1;19.00;1;0.00
2021-08-14 15:03:41;4.23;1;19.50;1;1.10
2021-08-14 15:33:41;4.23;1;20.20;1;0.00
2021-08-14 16:03:41;4.23;1;19.20;1;0.00
2021-08-14 16:33:41;4.23;1;20.20;1;0.00
2021-08-14 17:03:41;4.23;1;20.60;1;0.00
2021-08-14 17:33:39;4.23;1;19.30;1;0.00
2021-08-14 18:03:42;4.23;1;18.50;1;0.00
2021-08-14 18:33:38;4.23;1;15.30;1;0.00
2021-08-14 19:03:35;4.22;1;12.70;1;0.00
2021-08-14 19:33:36;4.22;1;11.50;1;0.00
2021-08-14 20:03:35;4.22;1;11.20;1;0.00
2021-08-14 20:33:33;4.21;1;9.60;1;0.00
2021-08-14 21:03:31;4.21;1;9.70;1;0.00
2021-08-14 21:33:34;4.21;1;6.60;1;0.00
2021-08-14 22:03:31;4.20;1;7.60;1;0.00
2021-08-14 22:33:32;4.20;1;7.30;1;0.00
2021-08-14 23:03:29;4.20;1;7.40;1;0.00
2021-08-14 23:33:30;4.20;1;4.80;1;0.00
