#EQ3t;v;h;t;p;a2021-07-29 10:28:00;4.18;1;7.80;0;0.00
2021-07-29 10:30:19;4.19;1;7.80;0;1.50
2021-07-29 11:04:01;4.19;1;9.90;0;1.40
2021-07-29 11:33:29;4.20;1;10.80;0;2.29
2021-07-29 12:03:35;4.20;1;11.70;0;2.39
2021-07-29 12:33:37;4.20;1;11.70;0;0.00
2021-07-29 13:03:35;4.21;1;13.10;0;0.00
2021-07-29 13:33:39;4.21;1;14.30;0;1.30
2021-07-29 14:03:39;4.21;1;13.60;0;1.10
2021-07-29 14:33:40;4.21;1;14.30;0;1.40
2021-07-29 15:03:40;4.21;1;14.80;0;0.00
2021-07-29 15:33:37;4.22;1;15.10;0;1.70
2021-07-29 16:03:37;4.22;1;15.00;0;1.70
2021-07-29 16:33:37;4.22;1;15.80;0;0.00
2021-07-29 17:03:37;4.22;1;15.00;0;0.00
2021-07-29 17:33:36;4.22;1;13.80;0;0.00
2021-07-29 18:03:38;4.22;1;10.30;0;0.00
2021-07-29 18:33:33;4.21;1;8.20;0;0.00
2021-07-29 19:03:31;4.20;1;7.60;0;0.00
2021-07-29 19:33:33;4.20;1;8.00;0;0.00
2021-07-29 20:03:30;4.20;1;7.00;0;0.00
2021-07-29 20:33:31;4.19;1;5.20;0;0.00
2021-07-29 21:03:31;4.19;1;4.30;0;0.00
2021-07-29 21:33:32;4.19;1;3.80;0;0.00
2021-07-29 22:03:31;4.19;1;3.60;0;0.00
2021-07-29 22:33:31;4.19;1;3.00;0;0.00
2021-07-29 23:03:31;4.18;1;1.80;0;0.00
2021-07-29 23:33:30;4.18;1;1.80;0;0.00
