#HS_EQB9;2022-12-07 09:08:03;v;3.92
2022-12-07 09:08:03;h1;11;82.5;0.045;14.467
2022-12-07 09:08:03;d;0.95
2022-12-07 09:16:18;v;3.92
2022-12-07 09:16:18;h1;1;0.245;0.041;28.31;15.627;15.618;14.918
2022-12-07 09:16:18;d;0.95
2022-12-07 09:32:23;v;3.92
2022-12-07 09:32:23;h1;1;0.245;0.041;28.31;15.627;15.618;14.918
2022-12-07 09:32:23;d;0.95
2022-12-07 09:46:52;v;3.93
2022-12-07 09:46:52;h1;1;0.245;0.041;28.31;15.627;15.618;14.918
2022-12-07 09:46:52;d;0.95
2022-12-07 10:01:58;v;3.93
2022-12-07 10:01:58;h1;1;0.245;0.041;28.31;15.627;15.618;14.918
2022-12-07 10:01:58;d;0.95
2022-12-07 10:16:59;v;3.93
2022-12-07 10:16:59;h1;1;0.245;0.041;28.31;15.627;15.618;14.918
2022-12-07 10:16:59;d;0.95
2022-12-07 10:32:01;v;3.93
2022-12-07 10:32:01;h1;1;0.245;0.041;28.31;15.627;15.618;14.918
2022-12-07 10:32:01;d;0.95
2022-12-07 10:46:58;v;3.93
2022-12-07 10:46:58;h1;1;0.245;0.041;28.31;15.627;15.618;14.918
2022-12-07 10:46:58;d;0.95
2022-12-07 11:02:01;v;3.93
2022-12-07 11:02:01;h1;1;0.245;0.041;28.31;15.627;15.618;14.918
2022-12-07 11:02:01;d;0.95
2022-12-07 11:16:59;v;3.93
2022-12-07 11:16:59;h1;1;0.245;0.041;28.31;15.627;15.618;14.918
2022-12-07 11:16:59;d;0.95
2022-12-07 11:32:01;v;3.93
2022-12-07 11:32:01;h1;1;0.245;0.041;28.31;15.627;15.618;14.918
2022-12-07 11:32:01;d;0.95
2022-12-07 11:47:00;v;3.93
2022-12-07 11:47:00;h1;1;83.0;0.043;15.158
2022-12-07 11:47:00;d;0.95
2022-12-07 12:01:59;v;3.93
2022-12-07 12:01:59;h1;1;0.245;0.041;28.31;15.627;15.618;14.918
2022-12-07 12:01:59;d;0.95
2022-12-07 12:17:02;v;3.94
2022-12-07 12:17:02;h1;1;0.245;0.041;28.31;15.627;15.618;14.918
2022-12-07 12:17:02;d;0.95
2022-12-07 12:32:00;v;3.93
2022-12-07 12:32:00;h1;1;0.245;0.041;28.31;15.627;15.618;14.918
2022-12-07 12:32:00;d;0.95
2022-12-07 12:46:59;v;3.93
2022-12-07 12:46:59;h1;1;0.245;0.041;28.31;15.627;15.618;14.918
2022-12-07 12:46:59;d;0.95
2022-12-07 13:02:02;v;3.93
2022-12-07 13:02:02;h1;1;83.0;0.043;15.158
2022-12-07 13:02:02;d;0.95
2022-12-07 13:17:00;v;3.93
2022-12-07 13:17:00;h1;1;0.245;0.041;28.31;15.627;15.618;14.918
2022-12-07 13:17:00;d;0.95
2022-12-07 13:31:59;v;3.94
2022-12-07 13:31:59;h1;1;83.0;0.043;15.158
2022-12-07 13:31:59;d;0.95
2022-12-07 13:47:02;v;3.94
2022-12-07 13:47:02;h1;1;0.245;0.041;28.31;15.627;15.618;14.918
2022-12-07 13:47:02;d;0.95
2022-12-07 14:02:00;v;3.94
2022-12-07 14:02:00;h1;1;83.0;0.043;15.158
2022-12-07 14:02:00;d;0.95
2022-12-07 14:16:59;v;3.94
2022-12-07 14:16:59;h1;1;0.245;0.041;28.31;15.627;15.618;14.918
2022-12-07 14:16:59;d;0.95
2022-12-07 14:32:02;v;3.94
2022-12-07 14:32:02;h1;1;83.0;0.043;15.158
2022-12-07 14:32:02;d;0.95
2022-12-07 14:47:00;v;3.94
2022-12-07 14:47:00;h1;1;0.245;0.041;28.31;15.627;15.618;14.918
2022-12-07 14:47:00;d;0.95
2022-12-07 15:01:59;v;3.94
2022-12-07 15:01:59;h1;1;83.0;0.043;15.158
2022-12-07 15:01:59;d;0.95
2022-12-07 15:17:03;v;3.94
2022-12-07 15:17:03;h1;1;0.245;0.041;28.31;15.627;15.618;14.918
2022-12-07 15:17:03;d;0.95
2022-12-07 15:32:01;v;3.94
2022-12-07 15:32:01;h1;1;83.0;0.043;15.158
2022-12-07 15:32:01;d;0.95
2022-12-07 15:47:00;v;3.94
2022-12-07 15:47:00;h1;1;0.245;0.041;28.31;15.627;15.618;14.918
2022-12-07 15:47:00;d;0.95
2022-12-07 16:01:59;v;3.94
2022-12-07 16:01:59;h1;1;83.0;0.043;15.158
2022-12-07 16:01:59;d;0.95
2022-12-07 16:17:02;v;3.94
2022-12-07 16:17:02;h1;1;0.245;0.041;28.31;15.627;15.618;14.918
2022-12-07 16:17:02;d;0.95
2022-12-07 16:32:00;v;3.94
2022-12-07 16:32:00;h1;1;83.0;0.043;15.158
2022-12-07 16:32:00;d;0.95
2022-12-07 16:46:58;v;3.94
2022-12-07 16:46:58;h1;1;0.245;0.041;28.31;15.627;15.618;14.918
2022-12-07 16:46:58;d;0.95
2022-12-07 17:02:01;v;3.94
2022-12-07 17:02:01;h1;1;83.0;0.043;15.158
2022-12-07 17:02:01;d;0.95
2022-12-07 17:16:59;v;3.94
2022-12-07 17:16:59;h1;1;0.245;0.041;28.31;15.627;15.618;14.918
2022-12-07 17:16:59;d;0.95
2022-12-07 17:32:02;v;3.94
2022-12-07 17:32:02;h1;1;83.0;0.043;15.158
2022-12-07 17:32:02;d;0.95
2022-12-07 17:47:00;v;3.94
2022-12-07 17:47:00;h1;1;0.245;0.041;28.31;15.627;15.618;14.918
2022-12-07 17:47:00;d;0.95
2022-12-07 18:01:57;v;3.94
2022-12-07 18:01:57;h1;1;83.0;0.043;15.158
2022-12-07 18:01:57;d;0.95
2022-12-07 18:17:00;v;3.94
2022-12-07 18:17:00;h1;1;0.245;0.041;28.31;15.627;15.618;14.918
2022-12-07 18:17:00;d;0.95
2022-12-07 18:31:57;v;3.94
2022-12-07 18:31:57;h1;1;83.0;0.043;15.158
2022-12-07 18:31:57;d;0.95
2022-12-07 18:47:00;v;3.94
2022-12-07 18:47:00;h1;1;0.245;0.041;28.31;15.627;15.618;14.918
2022-12-07 18:47:00;d;0.95
2022-12-07 19:01:57;v;3.94
2022-12-07 19:01:57;h1;1;83.0;0.043;15.158
2022-12-07 19:01:57;d;0.95
2022-12-07 19:16:59;v;3.94
2022-12-07 19:16:59;h1;1;0.245;0.041;28.31;15.627;15.618;14.918
2022-12-07 19:16:59;d;0.95
2022-12-07 19:32:00;v;3.93
2022-12-07 19:32:00;h1;1;0.245;0.041;28.31;15.627;15.618;14.918
2022-12-07 19:32:00;d;0.95
2022-12-07 19:46:56;v;3.93
2022-12-07 19:46:56;h1;1;0.245;0.041;28.31;15.627;15.618;14.918
2022-12-07 19:46:56;d;0.95
2022-12-07 20:01:56;v;3.93
2022-12-07 20:01:56;h1;1;0.245;0.041;28.31;15.627;15.618;14.918
2022-12-07 20:01:56;d;0.95
2022-12-07 20:16:55;v;3.93
2022-12-07 20:16:55;h1;1;0.245;0.041;28.31;15.627;15.618;14.918
2022-12-07 20:16:55;d;0.95
2022-12-07 20:31:59;v;3.93
2022-12-07 20:31:59;h1;1;0.245;0.041;28.31;15.627;15.618;14.918
2022-12-07 20:31:59;d;0.95
2022-12-07 20:46:57;v;3.93
2022-12-07 20:46:57;h1;1;0.245;0.041;28.31;15.627;15.618;14.918
2022-12-07 20:46:57;d;0.95
2022-12-07 21:01:54;v;3.93
2022-12-07 21:01:54;h1;1;0.245;0.041;28.31;15.627;15.618;14.918
2022-12-07 21:01:54;d;0.95
2022-12-07 21:16:56;v;3.93
2022-12-07 21:16:56;h1;1;0.245;0.041;28.31;15.627;15.618;14.918
2022-12-07 21:16:56;d;0.95
2022-12-07 21:31:53;v;3.93
2022-12-07 21:31:53;h1;1;0.245;0.041;28.31;15.627;15.618;14.918
2022-12-07 21:31:53;d;0.95
2022-12-07 21:46:55;v;3.93
2022-12-07 21:46:55;h1;1;0.245;0.041;28.31;15.627;15.618;14.918
2022-12-07 21:46:55;d;0.95
2022-12-07 22:01:56;v;3.93
2022-12-07 22:01:56;h1;1;0.245;0.041;28.31;15.627;15.618;14.918
2022-12-07 22:01:56;d;0.95
2022-12-07 22:16:53;v;3.93
2022-12-07 22:16:53;h1;1;0.245;0.041;28.31;15.627;15.618;14.918
2022-12-07 22:16:53;d;0.95
2022-12-07 22:31:54;v;3.93
2022-12-07 22:31:54;h1;1;0.245;0.041;28.31;15.627;15.618;14.918
2022-12-07 22:31:54;d;0.95
2022-12-07 22:46:56;v;3.93
2022-12-07 22:46:56;h1;1;0.245;0.041;28.31;15.627;15.618;14.918
2022-12-07 22:46:56;d;0.95
2022-12-07 23:01:53;v;3.92
2022-12-07 23:01:53;h1;1;0.245;0.041;28.31;15.627;15.618;14.918
2022-12-07 23:01:53;d;0.95
2022-12-07 23:16:54;v;3.92
2022-12-07 23:16:54;h1;1;0.245;0.041;28.3
2022-12-07 23:16:54;d;0.95
2022-12-07 23:31:55;v;3.92
2022-12-07 23:31:55;h1;11;82.5;0.044;14.614
2022-12-07 23:31:55;d;0.95
2022-12-07 23:46:56;v;3.92
2022-12-07 23:46:56;h1;1;0.238;0.042;28.01;15.900;15.058;15.178
2022-12-07 23:46:56;d;0.95
