2022-11-10 00:01:52;v;3.92
2022-11-10 00:01:52;h1;11;0.327;0.063;22.11;71.9;0.061;21.5701;21.778;21.925;22.619
2022-11-10 00:01:52;d;1.00
2022-11-10 00:16:50;v;3.91
2022-11-10 00:16:50;h1;11;0.327;0.063;22.11;71.9;0.061;21.5751;21.782;21.934;22.597
2022-11-10 00:16:50;d;1.00
2022-11-10 00:31:52;v;3.91
2022-11-10 00:31:52;h1;11;0.327;0.063;22.11;71.9;0.061;21.5751;21.782;21.934;22.597
2022-11-10 00:31:52;d;1.00
2022-11-10 00:46:49;v;3.91
2022-11-10 00:46:49;h1;11;0.327;0.063;22.11;71.9;0.061;21.5751;21.782;21.934;22.597
2022-11-10 00:46:49;d;1.00
2022-11-10 01:01:51;v;3.91
2022-11-10 01:01:51;h1;11;0.327;0.063;22.11;71.9;0.061;21.5751;21.782;21.934;22.597
2022-11-10 01:01:51;d;1.00
2022-11-10 01:16:53;v;3.91
2022-11-10 01:16:53;h1;11;0.327;0.063;22.11;71.9;0.061;21.5751;21.782;21.934;22.597
2022-11-10 01:16:53;d;1.00
2022-11-10 01:31:50;v;3.91
2022-11-10 01:31:50;h1;11;0.327;0.063;22.41;72.3;0.061;21.5801;21.786;21.943;22.574
2022-11-10 01:31:50;d;1.00
2022-11-10 01:46:51;v;3.91
2022-11-10 01:46:51;h1;11;0.327;0.063;22.41;72.3;0.061;21.5801;21.786;21.943;22.574
2022-11-10 01:46:51;d;1.00
2022-11-10 02:01:49;v;3.91
2022-11-10 02:01:49;h1;11;0.327;0.063;22.41;72.3;0.061;21.5801;21.786;21.943;22.574
2022-11-10 02:01:49;d;1.00
2022-11-10 02:16:51;v;3.91
2022-11-10 02:16:51;h1;11;0.327;0.063;22.41;72.3;0.061;21.5801;21.786;21.943;22.574
2022-11-10 02:16:51;d;1.00
2022-11-10 02:31:53;v;3.91
2022-11-10 02:31:53;h1;11;0.327;0.063;22.11;71.9;0.061;21.5801;21.786;21.943;22.574
2022-11-10 02:31:53;d;1.00
2022-11-10 02:46:50;v;3.91
2022-11-10 02:46:50;h1;11;0.327;0.063;22.41;72.3;0.061;21.5801;21.786;21.943;22.574
2022-11-10 02:46:50;d;1.00
2022-11-10 03:01:52;v;3.91
2022-11-10 03:01:52;h1;11;0.327;0.063;22.61;72.6;0.061;21.5841;21.790;21.951;22.552
2022-11-10 03:01:52;d;1.00
2022-11-10 03:16:50;v;3.91
2022-11-10 03:16:50;h1;11;0.327;0.063;22.61;72.6;0.061;21.5841;21.790;21.951;22.552
2022-11-10 03:16:50;d;1.00
2022-11-10 03:31:52;v;3.91
2022-11-10 03:31:52;h1;11;0.327;0.063;22.41;72.3;0.061;21.5841;21.790;21.951;22.552
2022-11-10 03:31:52;d;1.00
2022-11-10 03:46:49;v;3.91
2022-11-10 03:46:49;h1;11;0.327;0.063;22.61;72.6;0.061;21.5841;21.790;21.951;22.552
2022-11-10 03:46:49;d;1.00
2022-11-10 04:01:51;v;3.91
2022-11-10 04:01:51;h1;11;0.325;0.064;22.41;72.3;0.062;21.3761;22.144;21.739;22.918
2022-11-10 04:01:51;d;1.00
2022-11-10 04:16:53;v;3.91
2022-11-10 04:16:53;h1;11;0.327;0.063;22.41;72.3;0.061;21.5841;21.790;21.951;22.552
2022-11-10 04:16:53;d;1.00
2022-11-10 04:31:50;v;3.91
2022-11-10 04:31:50;h1;11;0.327;0.063;22.41;72.3;0.061;21.5801;21.786;21.943;22.574
2022-11-10 04:31:50;d;1.00
2022-11-10 04:46:52;v;3.91
2022-11-10 04:46:52;h1;11;0.327;0.063;22.41;72.3;0.061;21.5841;21.790;21.951;22.552
2022-11-10 04:46:52;d;1.00
2022-11-10 05:01:49;v;3.91
2022-11-10 05:01:49;h1;11;0.327;0.063;22.41;72.3;0.061;21.5841;21.790;21.951;22.552
2022-11-10 05:01:49;d;1.00
2022-11-10 05:16:50;v;3.90
2022-11-10 05:16:50;h1;11;0.327;0.063;22.61;72.6;0.061;21.5841;21.790;21.951;22.552
2022-11-10 05:16:50;d;1.00
2022-11-10 05:31:52;v;3.90
2022-11-10 05:31:52;h1;11;0.327;0.063;22.41;72.3;0.061;21.5841;21.790;21.951;22.552
2022-11-10 05:31:52;d;1.00
2022-11-10 05:46:48;v;3.90
2022-11-10 05:46:48;h1;11;0.327;0.063;22.41;72.3;0.061;21.5841;21.790;21.951;22.552
2022-11-10 05:46:48;d;1.00
2022-11-10 06:01:50;v;3.90
2022-11-10 06:01:50;h1;11;0.327;0.063;22.41;72.3;0.061;21.5841;21.790;21.951;22.552
2022-11-10 06:01:50;d;1.00
2022-11-10 06:16:51;v;3.90
2022-11-10 06:16:51;h1;11;0.327;0.063;22.41;72.3;0.061;21.5841;21.790;21.951;22.552
2022-11-10 06:16:51;d;1.00
2022-11-10 06:31:53;v;3.90
2022-11-10 06:31:53;h1;11;0.327;0.063;22.41;72.3;0.061;21.5841;21.790;21.951;22.552
2022-11-10 06:31:53;d;1.00
2022-11-10 06:46:50;v;3.90
2022-11-10 06:46:50;h1;11;0.327;0.063;22.41;72.3;0.061;21.5841;21.790;21.951;22.552
2022-11-10 06:46:50;d;1.00
2022-11-10 07:01:51;v;3.90
2022-11-10 07:01:51;h1;11;0.327;0.063;22.41;72.3;0.061;21.5841;21.790;21.951;22.552
2022-11-10 07:01:51;d;1.00
2022-11-10 07:16:49;v;3.91
2022-11-10 07:16:49;h1;11;0.327;0.063;22.41;72.3;0.061;21.5841;21.790;21.951;22.552
2022-11-10 07:16:49;d;1.00
2022-11-10 07:31:51;v;3.90
2022-11-10 07:31:51;h1;11;0.327;0.063;22.41;72.3;0.061;21.5841;21.790;21.951;22.552
2022-11-10 07:31:51;d;1.00
2022-11-10 07:46:54;v;3.90
2022-11-10 07:46:54;h1;11;0.327;0.063;22.41;72.3;0.061;21.5841;21.790;21.951;22.552
2022-11-10 07:46:54;d;1.00
2022-11-10 08:01:52;v;3.90
2022-11-10 08:01:52;h1;11;0.327;0.063;22.61;72.6;0.061;21.5841;21.790;21.951;22.552
2022-11-10 08:01:52;d;1.00
2022-11-10 08:16:50;v;3.90
2022-11-10 08:16:50;h1;11;0.327;0.063;22.41;72.3;0.061;21.5841;21.790;21.951;22.552
2022-11-10 08:16:50;d;1.00
2022-11-10 08:31:53;v;3.90
2022-11-10 08:31:53;h1;11;0.327;0.063;22.41;72.3;0.061;21.5841;21.790;21.951;22.552
2022-11-10 08:31:53;d;1.00
2022-11-10 08:46:50;v;3.90
2022-11-10 08:46:50;h1;11;0.327;0.063;22.41;72.3;0.061;21.5841;21.790;21.951;22.552
2022-11-10 08:46:50;d;1.00
2022-11-10 09:01:53;v;3.90
2022-11-10 09:01:53;h1;11;0.327;0.063;22.41;72.3;0.061;21.5841;21.790;21.951;22.552
2022-11-10 09:01:53;d;1.00
2022-11-10 09:16:51;v;3.90
2022-11-10 09:16:51;h1;11;0.327;0.063;22.61;72.6;0.061;21.5841;21.790;21.951;22.552
2022-11-10 09:16:51;d;1.00
2022-11-10 09:31:53;v;3.90
2022-11-10 09:31:53;h1;11;0.330;0.062;22.41;72.3;0.060;21.7841;21.440;22.155;22.191
2022-11-10 09:31:53;d;1.00
2022-11-10 09:46:51;v;3.90
2022-11-10 09:46:51;h1;11;0.325;0.062;22.41;72.3;0.060;21.3611;21.551;21.725;22.305
2022-11-10 09:46:51;d;1.00
2022-11-10 10:01:53;v;3.90
2022-11-10 10:01:53;h1;11;0.320;0.062;22.41;72.3;0.060;20.9361;21.661;21.292;22.419
2022-11-10 10:01:53;d;1.00
2022-11-10 10:16:50;v;3.90
2022-11-10 10:16:50;h1;11;0.320;0.062;22.41;72.3;0.060;20.9361;21.661;21.292;22.419
2022-11-10 10:16:50;d;1.00
2022-11-10 10:31:51;v;3.90
2022-11-10 10:31:51;h1;11;0.322;0.063;22.41;72.3;0.061;21.1491;21.897;21.505;22.689
2022-11-10 10:31:51;d;1.00
2022-11-10 10:46:49;v;3.90
2022-11-10 10:46:49;h1;11;0.322;0.063;22.41;72.3;0.061;21.1491;21.897;21.505;22.689
2022-11-10 10:46:49;d;1.00
2022-11-10 11:01:51;v;3.90
2022-11-10 11:01:51;h1;11;0.327;0.063;22.41;72.3;0.061;21.5801;21.786;21.943;22.574
2022-11-10 11:01:51;d;1.00
2022-11-10 11:16:53;v;3.90
2022-11-10 11:16:53;h1;11;0.327;0.063;22.41;72.3;0.061;21.5801;21.786;21.943;22.574
2022-11-10 11:16:53;d;1.00
2022-11-10 11:31:51;v;3.90
2022-11-10 11:31:51;h1;11;0.327;0.063;22.61;72.6;0.061;21.5801;21.786;21.943;22.574
2022-11-10 11:31:51;d;1.00
2022-11-10 11:46:53;v;3.90
2022-11-10 11:46:53;h1;11;0.327;0.063;22.11;71.9;0.061;21.5801;21.786;21.943;22.574
2022-11-10 11:46:53;d;1.00
2022-11-10 12:01:51;v;3.90
2022-11-10 12:01:51;h1;11;0.327;0.063;22.41;72.3;0.061;21.5801;21.786;21.943;22.574
2022-11-10 12:01:51;d;1.00
2022-11-10 12:16:53;v;3.90
2022-11-10 12:16:53;h1;11;0.327;0.063;22.11;71.9;0.061;21.5801;21.786;21.943;22.574
2022-11-10 12:16:53;d;1.00
2022-11-10 12:31:51;v;3.90
2022-11-10 12:31:51;h1;11;0.327;0.063;22.11;71.9;0.061;21.5801;21.786;21.943;22.574
2022-11-10 12:31:51;d;1.00
2022-11-10 12:46:49;v;3.90
2022-11-10 12:46:49;h1;11;0.330;0.062;22.61;72.6;0.060;21.7751;21.433;22.137;22.235
2022-11-10 12:46:49;d;1.00
2022-11-10 13:01:52;v;3.90
2022-11-10 13:01:52;h1;11;0.327;0.063;22.11;71.9;0.061;21.5751;21.782;21.934;22.597
2022-11-10 13:01:52;d;1.00
2022-11-10 13:16:50;v;3.90
2022-11-10 13:16:50;h1;11;0.327;0.063;22.11;71.9;0.061;21.5801;21.786;21.943;22.574
2022-11-10 13:16:50;d;1.00
2022-11-10 13:31:53;v;3.90
2022-11-10 13:31:53;h1;11;0.330;0.062;22.11;71.9;0.060;21.7751;21.433;22.137;22.235
2022-11-10 13:31:53;d;1.00
2022-11-10 13:46:50;v;3.90
2022-11-10 13:46:50;h1;11;0.322;0.063;22.11;71.9;0.061;21.1451;21.893;21.497;22.712
2022-11-10 13:46:50;d;1.00
2022-11-10 14:01:52;v;3.90
2022-11-10 14:01:52;h1;11;0.322;0.063;22.11;71.9;0.061;21.1451;21.893;21.497;22.712
2022-11-10 14:01:52;d;1.00
2022-11-10 14:16:50;v;3.90
2022-11-10 14:16:50;h1;11;0.322;0.063;22.11;71.9;0.061;21.1451;21.893;21.497;22.712
2022-11-10 14:16:50;d;1.00
2022-11-10 14:31:52;v;3.90
2022-11-10 14:31:52;h1;11;0.322;0.063;22.11;71.9;0.061;21.1451;21.893;21.497;22.712
2022-11-10 14:31:52;d;1.00
2022-11-10 14:46:49;v;3.89
2022-11-10 14:46:49;h1;11;0.325;0.062;22.11;71.9;0.060;21.3481;21.540;21.699;22.372
2022-11-10 14:46:49;d;1.00
2022-11-10 15:01:51;v;3.89
2022-11-10 15:01:51;h1;11;0.325;0.062;22.11;71.9;0.060;21.3481;21.540;21.699;22.372
2022-11-10 15:01:51;d;1.00
2022-11-10 15:16:49;v;3.89
2022-11-10 15:16:49;h1;11;0.325;0.062;22.41;72.3;0.060;21.3481;21.540;21.699;22.372
2022-11-10 15:16:49;d;1.00
2022-11-10 15:31:51;v;3.89
2022-11-10 15:31:51;h1;11;0.322;0.063;22.11;71.9;0.061;21.1401;21.889;21.488;22.734
2022-11-10 15:31:51;d;1.00
2022-11-10 15:46:53;v;3.90
2022-11-10 15:46:53;h1;11;0.322;0.063;22.11;71.9;0.061;21.1401;21.889;21.488;22.734
2022-11-10 15:46:53;d;1.00
2022-11-10 16:01:51;v;3.90
2022-11-10 16:01:51;h1;11;0.322;0.063;22.11;71.9;0.061;21.1401;21.889;21.488;22.734
2022-11-10 16:01:51;d;1.00
2022-11-10 16:16:53;v;3.90
2022-11-10 16:16:53;h1;11;0.320;0.064;22.11;71.9;0.062;20.9241;22.243;21.268;23.102
2022-11-10 16:16:53;d;1.00
2022-11-10 16:31:52;v;3.90
2022-11-10 16:31:52;h1;11;0.322;0.063;22.11;71.9;0.061;21.1401;21.889;21.488;22.734
2022-11-10 16:31:52;d;1.00
2022-11-10 16:46:51;v;3.90
2022-11-10 16:46:51;h1;11;0.322;0.063;22.11;71.9;0.061;21.1401;21.889;21.488;22.734
2022-11-10 16:46:51;d;1.00
2022-11-10 17:01:55;v;3.90
2022-11-10 17:01:55;h1;11;0.322;0.063;22.11;71.9;0.061;21.1401;21.889;21.488;22.734
2022-11-10 17:01:55;d;1.00
2022-11-10 17:16:54;v;3.90
2022-11-10 17:16:54;h1;11;0.326;0.063;22.11;71.9;0.060;21.4851;21.710;21.838;22.548
2022-11-10 17:16:54;d;1.00
2022-11-10 17:31:52;v;3.90
2022-11-10 17:31:52;h1;11;0.326;0.063;22.11;71.9;0.060;21.4801;21.706;21.830;22.571
2022-11-10 17:31:52;d;1.00
2022-11-10 17:46:51;v;3.90
2022-11-10 17:46:51;h1;11;0.322;0.063;21.91;71.5;0.061;21.1361;21.885;21.480;22.757
2022-11-10 17:46:51;d;1.00
2022-11-10 18:01:54;v;3.90
2022-11-10 18:01:54;h1;11;0.326;0.063;22.11;71.9;0.060;21.4801;21.706;21.830;22.571
2022-11-10 18:01:54;d;1.00
2022-11-10 18:16:53;v;3.90
2022-11-10 18:16:53;h1;11;0.326;0.063;22.11;71.9;0.060;21.4801;21.706;21.830;22.571
2022-11-10 18:16:53;d;1.00
2022-11-10 18:31:51;v;3.90
2022-11-10 18:31:51;h1;11;0.322;0.063;22.11;71.9;0.061;21.1361;21.885;21.480;22.757
2022-11-10 18:31:51;d;1.00
2022-11-10 18:46:50;v;3.90
2022-11-10 18:46:50;h1;11;0.326;0.063;22.11;71.9;0.060;21.4801;21.706;21.830;22.571
2022-11-10 18:46:50;d;1.00
2022-11-10 19:01:53;v;3.90
2022-11-10 19:01:53;h1;11;0.326;0.063;21.91;71.5;0.060;21.4761;21.703;21.821;22.593
2022-11-10 19:01:53;d;1.00
2022-11-10 19:16:52;v;3.90
2022-11-10 19:16:52;h1;11;0.326;0.063;22.11;71.9;0.060;21.4761;21.703;21.821;22.593
2022-11-10 19:16:52;d;1.00
2022-11-10 19:31:42;v;3.90
2022-11-10 19:31:42;h1;11;0.326;0.063;21.91;71.5;0.060;21.4761;21.703;21.821;22.593
2022-11-10 19:31:42;d;1.00
2022-11-10 19:46:36;v;3.90
2022-11-10 19:46:36;h1;11;0.326;0.063;21.91;71.5;0.060;21.4761;21.703;21.821;22.593
2022-11-10 19:46:36;d;1.00
2022-11-10 20:01:52;v;3.90
2022-11-10 20:01:52;h1;11;0.326;0.063;21.91;71.5;0.060;21.4761;21.703;21.821;22.593
2022-11-10 20:01:52;d;1.00
2022-11-10 20:16:49;v;3.90
2022-11-10 20:16:49;h1;11;0.326;0.063;22.11;71.9;0.060;21.4761;21.703;21.821;22.593
2022-11-10 20:16:49;d;1.00
2022-11-10 20:31:50;v;3.90
2022-11-10 20:31:50;h1;11;0.326;0.063;22.11;71.9;0.060;21.4761;21.703;21.821;22.593
2022-11-10 20:31:50;d;1.00
2022-11-10 20:46:51;v;3.90
2022-11-10 20:46:51;h1;11;0.326;0.063;22.11;71.9;0.060;21.4761;21.703;21.821;22.593
2022-11-10 20:46:51;d;1.00
2022-11-10 21:01:48;v;3.90
2022-11-10 21:01:48;h1;11;0.326;0.063;21.91;71.5;0.060;21.4761;21.703;21.821;22.593
2022-11-10 21:01:48;d;1.00
2022-11-10 21:16:49;v;3.90
2022-11-10 21:16:49;h1;11;0.326;0.063;21.91;71.5;0.060;21.4761;21.703;21.821;22.593
2022-11-10 21:16:49;d;1.00
2022-11-10 21:31:50;v;3.90
2022-11-10 21:31:50;h1;11;0.326;0.063;22.11;71.9;0.060;21.4761;21.703;21.821;22.593
2022-11-10 21:31:50;d;1.00
2022-11-10 21:46:51;v;3.90
2022-11-10 21:46:51;h1;11;0.326;0.063;22.11;71.9;0.060;21.4761;21.703;21.821;22.593
2022-11-10 21:46:51;d;1.00
2022-11-10 22:01:52;v;3.89
2022-11-10 22:01:52;h1;11;0.326;0.063;21.91;71.5;0.060;21.4761;21.703;21.821;22.593
2022-11-10 22:01:52;d;1.00
2022-11-10 22:16:48;v;3.89
2022-11-10 22:16:48;h1;11;0.326;0.063;21.91;71.5;0.060;21.4711;21.699;21.813;22.615
2022-11-10 22:16:48;d;1.00
2022-11-10 22:31:49;v;3.89
2022-11-10 22:31:49;h1;11;0.326;0.063;21.91;71.5;0.060;21.4711;21.699;21.813;22.615
2022-11-10 22:31:49;d;1.00
2022-11-10 22:46:50;v;3.89
2022-11-10 22:46:50;h1;11;0.326;0.063;21.91;71.5;0.060;21.4761;21.703;21.821;22.593
2022-11-10 22:46:50;d;1.00
2022-11-10 23:01:50;v;3.89
2022-11-10 23:01:50;h1;11;0.326;0.063;21.91;71.5;0.060;21.4711;21.699;21.813;22.615
2022-11-10 23:01:50;d;1.00
2022-11-10 23:16:51;v;3.89
2022-11-10 23:16:51;h1;11;0.328;0.062;22.11;71.9;0.059;21.6711;21.352;22.016;22.254
2022-11-10 23:16:51;d;1.00
2022-11-10 23:31:51;v;3.89
2022-11-10 23:31:51;h1;11;0.326;0.063;21.91;71.5;0.060;21.4711;21.699;21.813;22.615
2022-11-10 23:31:51;d;1.00
2022-11-10 23:46:48;v;3.89
2022-11-10 23:46:48;h1;11;0.326;0.063;21.91;71.5;0.060;21.4711;21.699;21.813;22.615
2022-11-10 23:46:48;d;1.00
