2023-02-01 00:01:53;v;3.92
2023-02-01 00:01:53;h1;1;0.233;0.037;28.91;13.901;14.724;13.181
2023-02-01 00:01:53;d;0.93
2023-02-01 00:16:52;v;3.92
2023-02-01 00:16:52;h1;1;0.233;0.037;28.91;13.901;14.724;13.181
2023-02-01 00:16:52;d;0.93
2023-02-01 00:31:51;v;3.92
2023-02-01 00:31:51;h1;1;0.233;0.037;28.91;13.901;14.724;13.181
2023-02-01 00:31:51;d;0.93
2023-02-01 00:46:54;v;3.92
2023-02-01 00:46:54;h1;1;0.233;0.037;28.91;13.901;14.724;13.181
2023-02-01 00:46:54;d;0.93
2023-02-01 01:01:52;v;3.92
2023-02-01 01:01:52;h1;1;0.233;0.037;28.91;13.901;14.724;13.181
2023-02-01 01:01:52;d;0.93
2023-02-01 01:16:50;v;3.92
2023-02-01 01:16:50;h1;1;0.233;0.037;28.91;13.901;14.724;13.181
2023-02-01 01:16:50;d;0.93
2023-02-01 01:31:53;v;3.92
2023-02-01 01:31:53;h1;1;0.233;0.037;28.91;13.901;14.724;13.181
2023-02-01 01:31:53;d;0.93
2023-02-01 01:46:51;v;3.92
2023-02-01 01:46:51;h1;1;0.233;0.037;28.91;13.901;14.724;13.181
2023-02-01 01:46:51;d;0.93
2023-02-01 02:01:53;v;3.92
2023-02-01 02:01:53;h1;1;0.233;0.037;28.91;13.901;14.724;13.181
2023-02-01 02:01:53;d;0.93
2023-02-01 02:16:51;v;3.91
2023-02-01 02:16:51;h1;1;0.233;0.037;28.91;13.901;14.724;13.181
2023-02-01 02:16:51;d;0.93
2023-02-01 02:31:54;v;3.91
2023-02-01 02:31:54;h1;1;0.233;0.037;28.91;13.901;14.724;13.181
2023-02-01 02:31:54;d;0.93
2023-02-01 02:46:52;v;3.91
2023-02-01 02:46:52;h1;1;0.233;0.037;28.91;13.901;14.724;13.181
2023-02-01 02:46:52;d;0.93
2023-02-01 03:01:50;v;3.91
2023-02-01 03:01:50;h1;1;0.233;0.037;28.91;13.901;14.724;13.181
2023-02-01 03:01:50;d;0.93
2023-02-01 03:16:52;v;3.91
2023-02-01 03:16:52;h1;1;0.233;0.037;28.91;13.901;14.724;13.181
2023-02-01 03:16:52;d;0.93
2023-02-01 03:31:49;v;3.91
2023-02-01 03:31:49;h1;1;0.233;0.037;28.91;13.901;14.724;13.181
2023-02-01 03:31:49;d;0.93
2023-02-01 03:46:51;v;3.91
2023-02-01 03:46:51;h1;1;0.233;0.037;28.91;13.901;14.724;13.181
2023-02-01 03:46:51;d;0.93
2023-02-01 04:01:49;v;3.91
2023-02-01 04:01:49;h1;1;0.233;0.037;28.91;13.901;14.724;13.181
2023-02-01 04:01:49;d;0.93
2023-02-01 04:16:51;v;3.91
2023-02-01 04:16:51;h1;1;0.233;0.037;28.91;13.901;14.724;13.181
2023-02-01 04:16:51;d;0.93
2023-02-01 04:31:53;v;3.91
2023-02-01 04:31:53;h1;1;0.233;0.037;28.91;13.901;14.724;13.181
2023-02-01 04:31:53;d;0.93
2023-02-01 04:46:50;v;3.91
2023-02-01 04:46:50;h1;1;0.233;0.037;28.91;13.901;14.724;13.181
2023-02-01 04:46:50;d;0.93
2023-02-01 05:01:52;v;3.91
2023-02-01 05:01:52;h1;1;0.233;0.037;28.91;13.901;14.724;13.181
2023-02-01 05:01:52;d;0.93
2023-02-01 05:16:50;v;3.91
2023-02-01 05:16:50;h1;1;0.233;0.037;28.91;13.901;14.724;13.181
2023-02-01 05:16:50;d;0.93
2023-02-01 05:31:52;v;3.91
2023-02-01 05:31:52;h1;1;0.233;0.037;28.91;13.901;14.724;13.181
2023-02-01 05:31:52;d;0.93
2023-02-01 05:46:49;v;3.91
2023-02-01 05:46:49;h1;1;0.233;0.037;28.91;13.901;14.724;13.181
2023-02-01 05:46:49;d;0.93
2023-02-01 06:01:51;v;3.91
2023-02-01 06:01:51;h1;1;0.233;0.037;28.91;13.901;14.724;13.181
2023-02-01 06:01:51;d;0.93
2023-02-01 06:16:53;v;3.91
2023-02-01 06:16:53;h1;1;0.233;0.037;28.91;13.901;14.724;13.181
2023-02-01 06:16:53;d;0.93
2023-02-01 06:31:50;v;3.91
2023-02-01 06:31:50;h1;1;0.233;0.037;28.91;13.901;14.724;13.181
2023-02-01 06:31:50;d;0.93
2023-02-01 06:46:52;v;3.91
2023-02-01 06:46:52;h1;1;0.233;0.037;28.91;13.901;14.724;13.181
2023-02-01 06:46:52;d;0.93
2023-02-01 07:01:49;v;3.91
2023-02-01 07:01:49;h1;1;0.233;0.037;28.91;13.901;14.724;13.181
2023-02-01 07:01:49;d;0.93
2023-02-01 07:16:52;v;3.91
2023-02-01 07:16:52;h1;1;0.233;0.037;28.91;13.901;14.724;13.181
2023-02-01 07:16:52;d;0.93
2023-02-01 07:31:50;v;3.91
2023-02-01 07:31:50;h1;1;0.233;0.037;28.91;13.901;14.724;13.181
2023-02-01 07:31:50;d;0.93
2023-02-01 07:46:54;v;3.91
2023-02-01 07:46:54;h1;1;0.233;0.037;28.91;13.901;14.724;13.181
2023-02-01 07:46:54;d;0.93
#HS_EQB9;2023-02-01 08:00:15;v;3.92
2023-02-01 08:00:15;h1;11;14.419;14.538;13.468
2023-02-01 08:00:15;d;0.93
2023-02-01 08:17:12;v;3.92
2023-02-01 08:17:12;h1;1;0.230;0.037;29.81;14.419;14.538;13.468
2023-02-01 08:17:12;d;0.93
2023-02-01 08:31:51;v;3.92
2023-02-01 08:31:51;h1;1;0.230;0.037;29.81;14.419;14.538;13.468
2023-02-01 08:31:51;d;0.93
2023-02-01 08:47:15;v;3.91
2023-02-01 08:47:15;h1;1;0.230;0.037;29.81;14.419;14.538;13.468
2023-02-01 08:47:15;d;0.93
2023-02-01 09:01:54;v;3.92
2023-02-01 09:01:54;h1;1;0.230;0.037;29.81;14.419;14.538;13.468
2023-02-01 09:01:54;d;0.93
2023-02-01 09:16:56;v;3.92
2023-02-01 09:16:56;h1;1;0.230;0.037;29.81;14.419;14.538;13.468
2023-02-01 09:16:56;d;0.93
2023-02-01 09:31:54;v;3.92
2023-02-01 09:31:54;h1;1;0.230;0.037;29.81;14.419;14.538;13.468
2023-02-01 09:31:54;d;0.93
2023-02-01 09:46:57;v;3.92
2023-02-01 09:46:57;h1;1;0.230;0.037;29.81;14.419;14.538;13.468
2023-02-01 09:46:57;d;0.93
2023-02-01 10:01:55;v;3.92
2023-02-01 10:01:55;h1;1;0.230;0.037;29.81;14.419;14.538;13.468
2023-02-01 10:01:55;d;0.93
2023-02-01 10:16:58;v;3.93
2023-02-01 10:16:58;h1;1;0.230;0.037;29.81;14.419;14.538;13.468
2023-02-01 10:16:58;d;0.93
2023-02-01 10:31:57;v;3.93
2023-02-01 10:31:57;h1;1;0.230;0.037;29.81;14.419;14.538;13.468
2023-02-01 10:31:57;d;0.93
2023-02-01 10:46:57;v;3.93
2023-02-01 10:46:57;h1;1;0.230;0.037;29.81;14.419;14.538;13.468
2023-02-01 10:46:57;d;0.93
2023-02-01 11:01:57;v;3.93
2023-02-01 11:01:57;h1;1;0.230;0.037;29.81;14.419;14.538;13.468
2023-02-01 11:01:57;d;0.93
2023-02-01 11:16:57;v;3.93
2023-02-01 11:16:57;h1;1;0.230;0.037;29.81;14.419;14.538;13.468
2023-02-01 11:16:57;d;0.93
2023-02-01 11:31:58;v;3.93
2023-02-01 11:31:58;h1;1;0.230;0.037;29.81;14.419;14.538;13.468
2023-02-01 11:31:58;d;0.93
2023-02-01 11:46:59;v;3.93
2023-02-01 11:46:59;h1;1;0.230;0.037;29.81;14.419;14.538;13.468
2023-02-01 11:46:59;d;0.93
2023-02-01 12:02:00;v;3.93
2023-02-01 12:02:00;h1;1;0.230;0.037;29.81;14.419;14.538;13.468
2023-02-01 12:02:00;d;0.93
2023-02-01 12:16:57;v;3.93
2023-02-01 12:16:57;h1;1;0.230;0.037;29.81;14.419;14.538;13.468
2023-02-01 12:16:57;d;0.93
2023-02-01 12:31:59;v;3.93
2023-02-01 12:31:59;h1;1;0.230;0.037;29.81;14.419;14.538;13.468
2023-02-01 12:31:59;d;0.93
2023-02-01 12:47:02;v;3.93
2023-02-01 12:47:02;h1;1;0.230;0.037;29.81;14.419;14.538;13.468
2023-02-01 12:47:02;d;0.93
2023-02-01 13:02:00;v;3.94
2023-02-01 13:02:00;h1;1;0.230;0.037;29.81;14.419;14.538;13.468
2023-02-01 13:02:00;d;0.93
2023-02-01 13:16:58;v;3.93
2023-02-01 13:16:58;h1;1;0.230;0.037;29.81;14.419;14.538;13.468
2023-02-01 13:16:58;d;0.93
2023-02-01 13:32:01;v;3.93
2023-02-01 13:32:01;h1;1;0.230;0.037;29.81;14.419;14.538;13.468
2023-02-01 13:32:01;d;0.93
2023-02-01 13:46:59;v;3.94
2023-02-01 13:46:59;h1;1;0.230;0.037;29.81;14.419;14.538;13.468
2023-02-01 13:46:59;d;0.93
2023-02-01 14:02:02;v;3.94
2023-02-01 14:02:02;h1;1;0.230;0.037;29.81;14.419;14.538;13.468
2023-02-01 14:02:02;d;0.93
2023-02-01 14:17:00;v;3.94
2023-02-01 14:17:00;h1;1;0.230;0.037;29.81;14.419;14.538;13.468
2023-02-01 14:17:00;d;0.93
2023-02-01 14:31:59;v;3.94
2023-02-01 14:31:59;h1;1;0.230;0.037;29.81;14.419;14.538;13.468
2023-02-01 14:31:59;d;0.93
2023-02-01 14:47:02;v;3.94
2023-02-01 14:47:02;h1;1;0.230;0.037;29.81;14.419;14.538;13.468
2023-02-01 14:47:02;d;0.93
2023-02-01 15:02:01;v;3.94
2023-02-01 15:02:01;h1;1;0.230;0.037;29.81;14.419;14.538;13.468
2023-02-01 15:02:01;d;0.93
2023-02-01 15:16:58;v;3.94
2023-02-01 15:16:58;h1;1;0.230;0.037;29.81;14.419;14.538;13.468
2023-02-01 15:16:58;d;0.93
2023-02-01 15:32:01;v;3.94
2023-02-01 15:32:01;h1;1;0.230;0.037;29.81;14.419;14.538;13.468
2023-02-01 15:32:01;d;0.93
2023-02-01 15:46:59;v;3.94
2023-02-01 15:46:59;h1;1;0.230;0.037;29.81;14.419;14.538;13.468
2023-02-01 15:46:59;d;0.93
2023-02-01 16:02:02;v;3.94
2023-02-01 16:02:02;h1;1;0.230;0.037;29.81;14.419;14.538;13.468
2023-02-01 16:02:02;d;0.93
2023-02-01 16:17:00;v;3.94
2023-02-01 16:17:00;h1;1;0.230;0.037;29.81;14.419;14.538;13.468
2023-02-01 16:17:00;d;0.93
2023-02-01 16:31:58;v;3.94
2023-02-01 16:31:58;h1;1;0.230;0.037;29.81;14.419;14.538;13.468
2023-02-01 16:31:58;d;0.93
2023-02-01 16:47:00;v;3.94
2023-02-01 16:47:00;h1;1;0.230;0.037;29.81;14.419;14.538;13.468
2023-02-01 16:47:00;d;0.93
2023-02-01 17:01:58;v;3.94
2023-02-01 17:01:58;h1;1;0.230;0.037;29.81;14.419;14.538;13.468
2023-02-01 17:01:58;d;0.93
2023-02-01 17:16:59;v;3.94
2023-02-01 17:16:59;h1;1;0.230;0.037;29.81;14.419;14.538;13.468
2023-02-01 17:16:59;d;0.93
2023-02-01 17:32:00;v;3.94
2023-02-01 17:32:00;h1;1;0.230;0.037;29.81;14.419;14.538;13.468
2023-02-01 17:32:00;d;0.93
2023-02-01 17:46:57;v;3.94
2023-02-01 17:46:57;h1;1;0.230;0.037;29.81;14.419;14.538;13.468
2023-02-01 17:46:57;d;0.93
2023-02-01 18:01:58;v;3.94
2023-02-01 18:01:58;h1;1;0.230;0.037;29.81;14.419;14.538;13.468
2023-02-01 18:01:58;d;0.93
2023-02-01 18:16:59;v;3.94
2023-02-01 18:16:59;h1;1;0.230;0.037;29.81;14.419;14.538;13.468
2023-02-01 18:16:59;d;0.93
2023-02-01 18:31:55;v;3.94
2023-02-01 18:31:55;h1;1;0.230;0.037;29.81;14.419;14.538;13.468
2023-02-01 18:31:55;d;0.93
2023-02-01 18:46:56;v;3.94
2023-02-01 18:46:56;h1;1;0.230;0.037;29.81;14.419;14.538;13.468
2023-02-01 18:46:56;d;0.93
2023-02-01 19:01:56;v;3.94
2023-02-01 19:01:56;h1;1;0.230;0.037;29.81;14.419;14.538;13.468
2023-02-01 19:01:56;d;0.93
2023-02-01 19:16:56;v;3.94
2023-02-01 19:16:56;h1;1;0.230;0.037;29.81;14.419;14.538;13.468
2023-02-01 19:16:56;d;0.93
2023-02-01 19:31:55;v;3.93
2023-02-01 19:31:55;h1;1;0.230;0.037;29.81;14.419;14.538;13.468
2023-02-01 19:31:55;d;0.93
2023-02-01 19:46:58;v;3.93
2023-02-01 19:46:58;h1;1;0.230;0.037;29.81;14.419;14.538;13.468
2023-02-01 19:46:58;d;0.93
2023-02-01 20:01:56;v;3.93
2023-02-01 20:01:56;h1;1;0.230;0.037;29.81;14.419;14.538;13.468
2023-02-01 20:01:56;d;0.93
2023-02-01 20:16:52;v;3.93
2023-02-01 20:16:52;h1;1;0.230;0.037;29.81;14.419;14.538;13.468
2023-02-01 20:16:52;d;0.93
2023-02-01 20:31:53;v;3.93
2023-02-01 20:31:53;h1;1;0.230;0.037;29.81;14.419;14.538;13.468
2023-02-01 20:31:53;d;0.93
2023-02-01 20:46:53;v;3.93
2023-02-01 20:46:53;h1;1;0.230;0.037;29.81;14.419;14.538;13.468
2023-02-01 20:46:53;d;0.93
2023-02-01 21:01:53;v;3.93
2023-02-01 21:01:53;h1;1;0.230;0.037;29.81;14.419;14.538;13.468
2023-02-01 21:01:53;d;0.93
2023-02-01 21:16:53;v;3.93
2023-02-01 21:16:53;h1;1;0.230;0.037;29.81;14.419;14.538;13.468
2023-02-01 21:16:53;d;0.93
2023-02-01 21:31:53;v;3.93
2023-02-01 21:31:53;h1;1;0.230;0.037;29.81;14.419;14.538;13.468
2023-02-01 21:31:53;d;0.93
2023-02-01 21:46:52;v;3.93
2023-02-01 21:46:52;h1;1;0.230;0.037;29.81;14.419;14.538;13.468
2023-02-01 21:46:52;d;0.93
2023-02-01 22:01:52;v;3.93
2023-02-01 22:01:52;h1;1;0.230;0.037;29.81;14.419;14.538;13.468
2023-02-01 22:01:52;d;0.93
2023-02-01 22:16:52;v;3.93
2023-02-01 22:16:52;h1;1;0.230;0.037;29.81;14.419;14.538;13.468
2023-02-01 22:16:52;d;0.93
2023-02-01 22:31:51;v;3.93
2023-02-01 22:31:51;h1;1;0.230;0.037;29.81;14.419;14.538;13.468
2023-02-01 22:31:51;d;0.93
2023-02-01 22:46:55;v;3.93
2023-02-01 22:46:55;h1;1;0.230;0.037;29.81;14.419;14.538;13.468
2023-02-01 22:46:55;d;0.93
2023-02-01 23:01:55;v;3.93
2023-02-01 23:01:55;h1;1;0.230;0.037;29.81;14.419;14.538;13.468
2023-02-01 23:01:55;d;0.93
2023-02-01 23:16:54;v;3.92
2023-02-01 23:16:54;h1;1;0.230;0.037;29.81;14.419;14.538;13.468
2023-02-01 23:16:54;d;0.93
2023-02-01 23:31:53;v;3.92
2023-02-01 23:31:53;h1;1;0.230;0.037;29.81;14.419;14.538;13.468
2023-02-01 23:31:53;d;0.93
2023-02-01 23:46:52;v;3.92
2023-02-01 23:46:52;h1;1;0.230;0.037;29.81;14.419;14.538;13.468
2023-02-01 23:46:52;d;0.93