2023-01-24 00:01:51;v;3.92
2023-01-24 00:01:51;h1;1;0.232;0.037;28.01;13.849;14.626;13.291
2023-01-24 00:01:51;d;0.93
2023-01-24 00:16:55;v;3.92
2023-01-24 00:16:55;h1;1;0.232;0.037;28.01;13.849;14.626;13.291
2023-01-24 00:16:55;d;0.93
2023-01-24 00:31:54;v;3.92
2023-01-24 00:31:54;h1;1;0.232;0.037;28.01;13.849;14.626;13.291
2023-01-24 00:31:54;d;0.93
2023-01-24 00:46:52;v;3.92
2023-01-24 00:46:52;h1;1;0.232;0.037;28.01;13.849;14.626;13.291
2023-01-24 00:46:52;d;0.93
2023-01-24 01:01:51;v;3.92
2023-01-24 01:01:51;h1;1;0.232;0.037;28.01;13.849;14.626;13.291
2023-01-24 01:01:51;d;0.93
2023-01-24 01:16:54;v;3.92
2023-01-24 01:16:54;h1;1;0.232;0.037;28.01;13.849;14.626;13.291
2023-01-24 01:16:54;d;0.93
2023-01-24 01:31:53;v;3.92
2023-01-24 01:31:53;h1;1;0.232;0.037;28.01;13.849;14.626;13.291
2023-01-24 01:31:53;d;0.93
2023-01-24 01:46:51;v;3.92
2023-01-24 01:46:51;h1;1;0.232;0.037;28.01;13.849;14.626;13.291
2023-01-24 01:46:51;d;0.93
2023-01-24 02:01:55;v;3.91
2023-01-24 02:01:55;h1;1;0.232;0.037;28.01;13.849;14.626;13.291
2023-01-24 02:01:55;d;0.93
2023-01-24 02:16:54;v;3.91
2023-01-24 02:16:54;h1;1;0.232;0.037;28.01;13.849;14.626;13.291
2023-01-24 02:16:54;d;0.93
2023-01-24 02:31:53;v;3.91
2023-01-24 02:31:53;h1;1;0.232;0.037;28.01;13.849;14.626;13.291
2023-01-24 02:31:53;d;0.93
2023-01-24 02:46:52;v;3.91
2023-01-24 02:46:52;h1;1;0.232;0.037;28.01;13.849;14.626;13.291
2023-01-24 02:46:52;d;0.93
2023-01-24 03:01:51;v;3.91
2023-01-24 03:01:51;h1;1;0.232;0.037;28.01;13.849;14.626;13.291
2023-01-24 03:01:51;d;0.93
2023-01-24 03:16:54;v;3.91
2023-01-24 03:16:54;h1;1;0.232;0.037;28.01;13.849;14.626;13.291
2023-01-24 03:16:54;d;0.93
2023-01-24 03:31:53;v;3.91
2023-01-24 03:31:53;h1;1;0.232;0.037;28.01;82.5;0.039;14.2081;13.849;14.626;13.291
2023-01-24 03:31:53;d;0.93
2023-01-24 03:46:51;v;3.91
2023-01-24 03:46:51;h1;1;0.232;0.037;28.01;82.5;0.039;14.2081;13.849;14.626;13.291
2023-01-24 03:46:51;d;0.93
2023-01-24 04:01:54;v;3.91
2023-01-24 04:01:54;h1;1;0.232;0.037;28.01;82.5;0.039;14.2081;13.849;14.626;13.291
2023-01-24 04:01:54;d;0.93
2023-01-24 04:16:53;v;3.91
2023-01-24 04:16:53;h1;1;0.232;0.037;28.01;82.5;0.039;14.2081;13.849;14.626;13.291
2023-01-24 04:16:53;d;0.93
2023-01-24 04:31:51;v;3.91
2023-01-24 04:31:51;h1;1;0.232;0.037;28.01;82.5;0.039;14.2081;13.849;14.626;13.291
2023-01-24 04:31:51;d;0.93
2023-01-24 04:46:54;v;3.91
2023-01-24 04:46:54;h1;1;0.232;0.037;28.01;82.5;0.039;14.2081;13.849;14.626;13.291
2023-01-24 04:46:54;d;0.93
2023-01-24 05:01:52;v;3.91
2023-01-24 05:01:52;h1;1;0.232;0.037;28.01;82.5;0.039;14.2081;13.849;14.626;13.291
2023-01-24 05:01:52;d;0.93
2023-01-24 05:16:51;v;3.91
2023-01-24 05:16:51;h1;1;0.232;0.037;28.01;82.5;0.039;14.208
2023-01-24 05:16:51;d;0.93
2023-01-24 05:31:53;v;3.91
2023-01-24 05:31:53;h1;11;14.204;14.712;13.267
2023-01-24 05:31:53;d;0.93
2023-01-24 05:46:52;v;3.91
2023-01-24 05:46:52;h1;1;0.232;0.037;30.11;86.2;0.039;14.226
2023-01-24 05:46:52;d;0.93
2023-01-24 06:01:50;v;3.91
2023-01-24 06:01:50;h1;11;14.419;14.538;13.468
2023-01-24 06:01:50;d;0.93
2023-01-24 06:16:52;v;3.91
2023-01-24 06:16:52;h1;1;0.230;0.037;29.51;85.1;0.040;14.058
2023-01-24 06:16:52;d;0.93
2023-01-24 06:31:50;v;3.91
2023-01-24 06:31:50;h1;11;14.204;14.712;13.267
2023-01-24 06:31:50;d;0.93
2023-01-24 06:46:52;v;3.91
2023-01-24 06:46:52;h1;1;0.232;0.037;29.81;85.6;0.039;14.226
2023-01-24 06:46:52;d;0.93
2023-01-24 07:01:50;v;3.91
2023-01-24 07:01:50;h1;11;14.102;14.961;13.172
2023-01-24 07:01:50;d;0.93
2023-01-24 07:16:53;v;3.91
2023-01-24 07:16:53;h1;1;0.236;0.037;30.11;86.2;0.039;14.467
2023-01-24 07:16:53;d;0.93
2023-01-24 07:31:52;v;3.91
2023-01-24 07:31:52;h1;11;14.204;14.712;13.267
2023-01-24 07:31:52;d;0.93
2023-01-24 07:46:51;v;3.91
2023-01-24 07:46:51;h1;1;0.232;0.037;29.81;85.6;0.039;14.226
2023-01-24 07:46:51;d;0.93
2023-01-24 08:01:55;v;3.92
2023-01-24 08:01:55;h1;11;14.314;14.786;13.388
2023-01-24 08:01:55;d;0.93
2023-01-24 08:16:55;v;3.92
2023-01-24 08:16:55;h1;1;0.233;0.037;29.81;85.6;0.040;14.301
2023-01-24 08:16:55;d;0.93
2023-01-24 08:31:55;v;3.92
2023-01-24 08:31:55;h1;11;14.099;14.955;13.188
2023-01-24 08:31:55;d;0.93
2023-01-24 08:46:55;v;3.92
2023-01-24 08:46:55;h1;1;0.236;0.037;29.81;85.6;0.039;14.464
2023-01-24 08:46:55;d;0.93
2023-01-24 09:01:57;v;3.92
2023-01-24 09:01:57;h1;11;14.600;14.310;13.655
2023-01-24 09:01:57;d;0.93
2023-01-24 09:16:54;v;3.92
2023-01-24 09:16:54;h1;11;14.383;14.489;13.453
2023-01-24 09:16:54;d;0.93
2023-01-24 09:31:56;v;3.92
2023-01-24 09:31:56;h1;11;14.099;14.955;13.188
2023-01-24 09:31:56;d;0.93
2023-01-24 09:46:53;v;3.92
2023-01-24 09:46:53;h1;1;0.236;0.037;29.81;85.6;0.039;14.464
2023-01-24 09:46:53;d;0.93
2023-01-24 10:01:56;v;3.92
2023-01-24 10:01:56;h1;11;14.383;14.489;13.453
2023-01-24 10:01:56;d;0.93
2023-01-24 10:16:55;v;3.93
2023-01-24 10:16:55;h1;11;14.383;14.489;13.453
2023-01-24 10:16:55;d;0.93
2023-01-24 10:31:59;v;3.93
2023-01-24 10:31:59;h1;11;13.885;15.112;13.005
2023-01-24 10:31:59;d;0.93
2023-01-24 10:46:59;v;3.93
2023-01-24 10:46:59;h1;11;14.380;14.483;13.469
2023-01-24 10:46:59;d;0.93
2023-01-24 11:01:59;v;3.93
2023-01-24 11:01:59;h1;1;0.229;0.037;29.81;85.6;0.040;14.011
2023-01-24 11:01:59;d;0.93
2023-01-24 11:17:00;v;3.93
2023-01-24 11:17:00;h1;11;14.380;14.483;13.469
2023-01-24 11:17:00;d;0.93
2023-01-24 11:31:56;v;3.93
2023-01-24 11:31:56;h1;1;0.229;0.037;29.51;85.1;0.040;14.0111;14.380;14.483;13.469
2023-01-24 11:31:56;d;0.93
2023-01-24 11:46:58;v;3.93
2023-01-24 11:46:58;h1;1;0.229;0.037;29.51;85.1;0.040;14.0111;14.380;14.483;13.469
2023-01-24 11:46:58;d;0.93
2023-01-24 12:01:59;v;3.93
2023-01-24 12:01:59;h1;1;0.229;0.037;29.51;85.1;0.040;14.0111;14.380;14.483;13.469
2023-01-24 12:01:59;d;0.93
2023-01-24 12:16:57;v;3.93
2023-01-24 12:16:57;h1;1;0.229;0.037;29.51;85.1;0.040;14.0111;14.380;14.483;13.469
2023-01-24 12:16:57;d;0.93
2023-01-24 12:31:59;v;3.93
2023-01-24 12:31:59;h1;1;0.229;0.037;29.51;85.1;0.040;14.0111;14.380;14.483;13.469
2023-01-24 12:31:59;d;0.93
2023-01-24 12:47:02;v;3.93
2023-01-24 12:47:02;h1;1;0.229;0.037;29.51;85.1;0.040;14.0111;14.380;14.483;13.469
2023-01-24 12:47:02;d;0.93
2023-01-24 13:02:00;v;3.93
2023-01-24 13:02:00;h1;1;0.229;0.037;29.51;85.1;0.040;14.0111;14.380;14.483;13.469
2023-01-24 13:02:00;d;0.93
2023-01-24 13:16:59;v;3.93
2023-01-24 13:16:59;h1;1;0.229;0.037;29.51;85.1;0.040;14.0111;14.380;14.483;13.469
2023-01-24 13:16:59;d;0.93
2023-01-24 13:32:02;v;3.93
2023-01-24 13:32:02;h1;1;0.229;0.037;29.51;85.1;0.040;14.0111;14.380;14.483;13.469
2023-01-24 13:32:02;d;0.93
2023-01-24 13:47:01;v;3.94
2023-01-24 13:47:01;h1;1;0.229;0.037;29.51;85.1;0.040;14.0111;14.380;14.483;13.469
2023-01-24 13:47:01;d;0.93
2023-01-24 14:02:00;v;3.94
2023-01-24 14:02:00;h1;1;0.229;0.037;29.51;85.1;0.040;14.0111;14.380;14.483;13.469
2023-01-24 14:02:00;d;0.93
2023-01-24 14:16:59;v;3.94
2023-01-24 14:16:59;h1;1;0.229;0.037;29.51;85.1;0.040;14.0111;14.380;14.483;13.469
2023-01-24 14:16:59;d;0.93
2023-01-24 14:32:03;v;3.94
2023-01-24 14:32:03;h1;1;0.229;0.037;29.51;85.1;0.040;14.0111;14.380;14.483;13.469
2023-01-24 14:32:03;d;0.93
2023-01-24 14:47:02;v;3.94
2023-01-24 14:47:02;h1;1;0.229;0.037;29.51;85.1;0.040;14.0111;14.380;14.483;13.469
2023-01-24 14:47:02;d;0.93
2023-01-24 15:02:02;v;3.94
2023-01-24 15:02:02;h1;1;0.229;0.037;29.51;85.1;0.040;14.0111;14.380;14.483;13.469
2023-01-24 15:02:02;d;0.93
2023-01-24 15:17:00;v;3.94
2023-01-24 15:17:00;h1;1;0.229;0.037;29.51;85.1;0.040;14.0111;14.380;14.483;13.469
2023-01-24 15:17:00;d;0.93
2023-01-24 15:31:59;v;3.94
2023-01-24 15:31:59;h1;1;0.229;0.037;29.51;85.1;0.040;14.0111;14.380;14.483;13.469
2023-01-24 15:31:59;d;0.93
2023-01-24 15:47:01;v;3.94
2023-01-24 15:47:01;h1;1;0.229;0.037;29.51;85.1;0.040;14.0111;14.380;14.483;13.469
2023-01-24 15:47:01;d;0.93
2023-01-24 16:01:58;v;3.94
2023-01-24 16:01:58;h1;1;0.229;0.037;29.51;85.1;0.040;14.0111;14.380;14.483;13.469
2023-01-24 16:01:58;d;0.93
2023-01-24 16:16:58;v;3.94
2023-01-24 16:16:58;h1;1;0.229;0.037;29.51;85.1;0.040;14.0111;14.380;14.483;13.469
2023-01-24 16:16:58;d;0.93
2023-01-24 16:31:56;v;3.94
2023-01-24 16:31:56;h1;1;0.229;0.037;29.51;85.1;0.040;14.0111;14.380;14.483;13.469
2023-01-24 16:31:56;d;0.93
2023-01-24 16:46:53;v;3.94
2023-01-24 16:46:53;h1;1;0.229;0.037;29.51;85.1;0.040;14.0111;14.380;14.483;13.469
2023-01-24 16:46:53;d;0.93
2023-01-24 17:01:54;v;3.94
2023-01-24 17:01:54;h1;1;0.229;0.037;29.51;85.1;0.040;14.0111;14.380;14.483;13.469
2023-01-24 17:01:54;d;0.93
2023-01-24 17:16:55;v;3.94
2023-01-24 17:16:55;h1;1;0.229;0.037;29.51;85.1;0.040;14.0111;14.380;14.483;13.469
2023-01-24 17:16:55;d;0.93
2023-01-24 17:31:55;v;3.94
2023-01-24 17:31:55;h1;1;0.229;0.037;29.51;85.1;0.040;14.0111;14.380;14.483;13.469
2023-01-24 17:31:55;d;0.93
2023-01-24 17:46:54;v;3.94
2023-01-24 17:46:54;h1;1;0.229;0.037;29.51;85.1;0.040;14.0111;14.380;14.483;13.469
2023-01-24 17:46:54;d;0.93
2023-01-24 18:01:53;v;3.94
2023-01-24 18:01:53;h1;1;0.229;0.037;29.51;85.1;0.040;14.0111;14.380;14.483;13.469
2023-01-24 18:01:53;d;0.93
2023-01-24 18:16:52;v;3.94
2023-01-24 18:16:52;h1;1;0.229;0.037;29.51;85.1;0.040;14.0111;14.380;14.483;13.469
2023-01-24 18:16:52;d;0.93
2023-01-24 18:31:52;v;3.94
2023-01-24 18:31:52;h1;1;0.229;0.037;29.51;85.1;0.040;14.0111;14.380;14.483;13.469
2023-01-24 18:31:52;d;0.93
2023-01-24 18:46:52;v;3.94
2023-01-24 18:46:52;h1;1;0.229;0.037;29.51;85.1;0.040;14.0111;14.380;14.483;13.469
2023-01-24 18:46:52;d;0.93
2023-01-24 19:01:52;v;3.94
2023-01-24 19:01:52;h1;1;0.229;0.037;29.51;85.1;0.040;14.0111;14.380;14.483;13.469
2023-01-24 19:01:52;d;0.93
2023-01-24 19:16:52;v;3.94
2023-01-24 19:16:52;h1;1;0.229;0.037;29.51;85.1;0.040;14.0111;14.380;14.483;13.469
2023-01-24 19:16:52;d;0.93
2023-01-24 19:31:53;v;3.93
2023-01-24 19:31:53;h1;1;0.229;0.037;29.51;85.1;0.040;14.011
2023-01-24 19:31:53;d;0.93
2023-01-24 19:46:53;v;3.93
2023-01-24 19:46:53;h1;11;14.161;14.643;13.300
2023-01-24 19:46:53;d;0.93
2023-01-24 20:01:53;v;3.93
2023-01-24 20:01:53;h1;11;14.161;14.643;13.300
2023-01-24 20:01:53;d;0.93
2023-01-24 20:16:53;v;3.94
2023-01-24 20:16:53;h1;11;14.161;14.643;13.300
2023-01-24 20:16:53;d;0.93
2023-01-24 20:31:52;v;3.93
2023-01-24 20:31:52;h1;11;14.161;14.643;13.300
2023-01-24 20:31:52;d;0.93
2023-01-24 20:46:51;v;3.93
2023-01-24 20:46:51;h1;11;14.378;14.476;13.485
2023-01-24 20:46:51;d;0.93
2023-01-24 21:01:55;v;3.93
2023-01-24 21:01:55;h1;11;14.378;14.476;13.485
2023-01-24 21:01:55;d;0.93
2023-01-24 21:16:54;v;3.93
2023-01-24 21:16:54;h1;11;14.163;14.650;13.284
2023-01-24 21:16:54;d;0.93
2023-01-24 21:31:53;v;3.93
2023-01-24 21:31:53;h1;1;0.231;0.037;29.81;85.6;0.039;14.176
2023-01-24 21:31:53;d;0.93
2023-01-24 21:46:52;v;3.93
2023-01-24 21:46:52;h1;11;14.378;14.476;13.485
2023-01-24 21:46:52;d;0.93
2023-01-24 22:01:51;v;3.93
2023-01-24 22:01:51;h1;11;14.163;14.650;13.284
2023-01-24 22:01:51;d;0.93
2023-01-24 22:16:54;v;3.93
2023-01-24 22:16:54;h1;1;0.231;0.037;29.81;85.6;0.039;14.176
2023-01-24 22:16:54;d;0.93
2023-01-24 22:31:54;v;3.93
2023-01-24 22:31:54;h1;11;14.380;14.483;13.469
2023-01-24 22:31:54;d;0.93
2023-01-24 22:46:53;v;3.92
2023-01-24 22:46:53;h1;1;0.229;0.037;29.51;85.1;0.040;14.011
2023-01-24 22:46:53;d;0.93
2023-01-24 23:01:52;v;3.92
2023-01-24 23:01:52;h1;11;14.166;14.656;13.268
2023-01-24 23:01:52;d;0.93
2023-01-24 23:16:50;v;3.92
2023-01-24 23:16:50;h1;1;0.231;0.037;29.81;85.6;0.039;14.179
2023-01-24 23:16:50;d;0.93
2023-01-24 23:31:54;v;3.92
2023-01-24 23:31:54;h1;11;14.380;14.483;13.469
2023-01-24 23:31:54;d;0.93
2023-01-24 23:46:53;v;3.92
2023-01-24 23:46:53;h1;1;0.229;0.037;29.81;85.6;0.040;14.011
2023-01-24 23:46:53;d;0.93
