2023-01-22 00:01:53;v;3.91
2023-01-22 00:01:53;h1;1;0.232;0.037;28.01;13.849;14.626;13.291
2023-01-22 00:01:53;d;0.93
2023-01-22 00:16:52;v;3.91
2023-01-22 00:16:52;h1;1;0.232;0.037;28.01;13.849;14.626;13.291
2023-01-22 00:16:52;d;0.93
2023-01-22 00:31:50;v;3.91
2023-01-22 00:31:50;h1;1;0.232;0.037;28.01;13.849;14.626;13.291
2023-01-22 00:31:50;d;0.93
2023-01-22 00:46:53;v;3.91
2023-01-22 00:46:53;h1;1;0.232;0.037;28.01;13.849;14.626;13.291
2023-01-22 00:46:53;d;0.93
2023-01-22 01:01:51;v;3.91
2023-01-22 01:01:51;h1;1;0.232;0.037;28.01;13.849;14.626;13.291
2023-01-22 01:01:51;d;0.93
2023-01-22 01:16:54;v;3.91
2023-01-22 01:16:54;h1;1;0.232;0.037;28.01;13.849;14.626;13.291
2023-01-22 01:16:54;d;0.93
2023-01-22 01:31:52;v;3.91
2023-01-22 01:31:52;h1;1;0.232;0.037;28.01;13.849;14.626;13.291
2023-01-22 01:31:52;d;0.93
2023-01-22 01:46:50;v;3.91
2023-01-22 01:46:50;h1;1;0.232;0.037;28.01;13.849;14.626;13.291
2023-01-22 01:46:50;d;0.93
2023-01-22 02:01:53;v;3.91
2023-01-22 02:01:53;h1;1;0.232;0.037;28.01;13.849;14.626;13.291
2023-01-22 02:01:53;d;0.93
2023-01-22 02:16:51;v;3.91
2023-01-22 02:16:51;h1;1;0.232;0.037;28.01;13.849;14.626;13.291
2023-01-22 02:16:51;d;0.93
2023-01-22 02:31:50;v;3.91
2023-01-22 02:31:50;h1;1;0.232;0.037;28.01;13.849;14.626;13.291
2023-01-22 02:31:50;d;0.93
2023-01-22 02:46:52;v;3.91
2023-01-22 02:46:52;h1;1;0.232;0.037;28.01;13.849;14.626;13.291
2023-01-22 02:46:52;d;0.93
2023-01-22 03:01:51;v;3.91
2023-01-22 03:01:51;h1;1;0.232;0.037;28.01;13.849;14.626;13.291
2023-01-22 03:01:51;d;0.93
2023-01-22 03:16:53;v;3.91
2023-01-22 03:16:53;h1;1;0.232;0.037;28.01;13.849;14.626;13.291
2023-01-22 03:16:53;d;0.93
2023-01-22 03:31:52;v;3.91
2023-01-22 03:31:52;h1;1;0.232;0.037;28.01;13.849;14.626;13.291
2023-01-22 03:31:52;d;0.93
2023-01-22 03:46:50;v;3.91
2023-01-22 03:46:50;h1;1;0.232;0.037;28.01;13.849;14.626;13.291
2023-01-22 03:46:50;d;0.93
2023-01-22 04:01:52;v;3.91
2023-01-22 04:01:52;h1;1;0.232;0.037;28.01;13.849;14.626;13.291
2023-01-22 04:01:52;d;0.93
2023-01-22 04:16:51;v;3.91
2023-01-22 04:16:51;h1;1;0.232;0.037;28.01;13.849;14.626;13.291
2023-01-22 04:16:51;d;0.93
2023-01-22 04:31:53;v;3.90
2023-01-22 04:31:53;h1;1;0.232;0.037;28.01;13.849;14.626;13.291
2023-01-22 04:31:53;d;0.93
2023-01-22 04:46:51;v;3.90
2023-01-22 04:46:51;h1;1;0.232;0.037;28.01;13.849;14.626;13.291
2023-01-22 04:46:51;d;0.93
2023-01-22 05:01:49;v;3.90
2023-01-22 05:01:49;h1;1;0.232;0.037;28.01;13.849;14.626;13.291
2023-01-22 05:01:49;d;0.93
2023-01-22 05:16:52;v;3.91
2023-01-22 05:16:52;h1;1;0.232;0.037;28.01;13.849;14.626;13.291
2023-01-22 05:16:52;d;0.93
2023-01-22 05:31:50;v;3.90
2023-01-22 05:31:50;h1;1;0.232;0.037;28.01;13.849;14.626;13.291
2023-01-22 05:31:50;d;0.93
2023-01-22 05:46:53;v;3.90
2023-01-22 05:46:53;h1;1;0.232;0.037;28.01;13.849;14.626;13.291
2023-01-22 05:46:53;d;0.93
2023-01-22 06:01:51;v;3.90
2023-01-22 06:01:51;h1;1;0.232;0.037;28.01;13.849;14.626;13.291
2023-01-22 06:01:51;d;0.93
2023-01-22 06:16:53;v;3.90
2023-01-22 06:16:53;h1;1;0.232;0.037;28.01;13.849;14.626;13.291
2023-01-22 06:16:53;d;0.93
2023-01-22 06:31:51;v;3.90
2023-01-22 06:31:51;h1;1;0.232;0.037;28.01;13.849;14.626;13.291
2023-01-22 06:31:51;d;0.93
2023-01-22 06:46:54;v;3.90
2023-01-22 06:46:54;h1;1;0.232;0.037;28.01;13.849;14.626;13.291
2023-01-22 06:46:54;d;0.93
2023-01-22 07:01:52;v;3.90
2023-01-22 07:01:52;h1;1;0.232;0.037;28.01;13.849;14.626;13.291
2023-01-22 07:01:52;d;0.93
2023-01-22 07:16:51;v;3.90
2023-01-22 07:16:51;h1;1;0.232;0.037;28.01;13.849;14.626;13.291
2023-01-22 07:16:51;d;0.93
2023-01-22 07:31:55;v;3.91
2023-01-22 07:31:55;h1;1;0.232;0.037;28.01;13.849;14.626;13.291
2023-01-22 07:31:55;d;0.93
2023-01-22 07:46:54;v;3.91
2023-01-22 07:46:54;h1;1;0.232;0.037;28.01;13.849;14.626;13.291
2023-01-22 07:46:54;d;0.93
2023-01-22 08:01:54;v;3.91
2023-01-22 08:01:54;h1;1;0.232;0.037;28.01;13.849;14.626;13.291
2023-01-22 08:01:54;d;0.93
2023-01-22 08:16:54;v;3.91
2023-01-22 08:16:54;h1;1;0.232;0.037;28.01;13.849;14.626;13.291
2023-01-22 08:16:54;d;0.93
2023-01-22 08:31:55;v;3.92
2023-01-22 08:31:55;h1;1;0.232;0.037;28.01;13.849;14.626;13.291
2023-01-22 08:31:55;d;0.93
2023-01-22 08:46:56;v;3.92
2023-01-22 08:46:56;h1;1;0.232;0.037;28.01;13.849;14.626;13.291
2023-01-22 08:46:56;d;0.93
2023-01-22 09:01:52;v;3.92
2023-01-22 09:01:52;h1;1;0.232;0.037;28.01;13.849;14.626;13.291
2023-01-22 09:01:52;d;0.93
2023-01-22 09:16:54;v;3.93
2023-01-22 09:16:54;h1;1;0.232;0.037;28.01;13.849;14.626;13.291
2023-01-22 09:16:54;d;0.93
2023-01-22 09:31:56;v;3.92
2023-01-22 09:31:56;h1;1;0.232;0.037;28.01;13.849;14.626;13.291
2023-01-22 09:31:56;d;0.93
2023-01-22 09:46:54;v;3.92
2023-01-22 09:46:54;h1;1;0.232;0.037;28.01;13.849;14.626;13.291
2023-01-22 09:46:54;d;0.93
2023-01-22 10:01:57;v;3.92
2023-01-22 10:01:57;h1;1;0.232;0.037;28.01;13.849;14.626;13.291
2023-01-22 10:01:57;d;0.93
2023-01-22 10:16:56;v;3.92
2023-01-22 10:16:56;h1;1;0.232;0.037;28.01;13.849;14.626;13.291
2023-01-22 10:16:56;d;0.93
2023-01-22 10:31:55;v;3.93
2023-01-22 10:31:55;h1;1;0.232;0.037;28.01;13.849;14.626;13.291
2023-01-22 10:31:55;d;0.93
2023-01-22 10:46:59;v;3.93
2023-01-22 10:46:59;h1;1;0.232;0.037;28.01;13.849;14.626;13.291
2023-01-22 10:46:59;d;0.93
2023-01-22 11:01:58;v;3.93
2023-01-22 11:01:58;h1;1;0.232;0.037;28.01;13.849;14.626;13.291
2023-01-22 11:01:58;d;0.93
2023-01-22 11:16:58;v;3.93
2023-01-22 11:16:58;h1;1;0.232;0.037;28.01;13.849;14.626;13.291
2023-01-22 11:16:58;d;0.93
2023-01-22 11:31:58;v;3.93
2023-01-22 11:31:58;h1;1;0.232;0.037;28.01;13.849;14.626;13.291
2023-01-22 11:31:58;d;0.93
2023-01-22 11:46:58;v;3.93
2023-01-22 11:46:58;h1;1;0.232;0.037;28.01;13.849;14.626;13.291
2023-01-22 11:46:58;d;0.93
2023-01-22 12:01:59;v;3.93
2023-01-22 12:01:59;h1;1;0.232;0.037;28.01;13.849;14.626;13.291
2023-01-22 12:01:59;d;0.93
2023-01-22 12:17:00;v;3.93
2023-01-22 12:17:00;h1;1;0.232;0.037;28.01;13.849;14.626;13.291
2023-01-22 12:17:00;d;0.93
2023-01-22 12:31:56;v;3.93
2023-01-22 12:31:56;h1;1;0.232;0.037;28.01;13.849;14.626;13.291
2023-01-22 12:31:56;d;0.93
2023-01-22 12:46:57;v;3.93
2023-01-22 12:46:57;h1;1;0.232;0.037;28.01;13.849;14.626;13.291
2023-01-22 12:46:57;d;0.93
2023-01-22 13:01:58;v;3.93
2023-01-22 13:01:58;h1;1;0.232;0.037;28.01;13.849;14.626;13.291
2023-01-22 13:01:58;d;0.93
2023-01-22 13:16:59;v;3.93
2023-01-22 13:16:59;h1;1;0.232;0.037;28.01;13.849;14.626;13.291
2023-01-22 13:16:59;d;0.93
2023-01-22 13:32:00;v;3.93
2023-01-22 13:32:00;h1;1;0.232;0.037;28.01;13.849;14.626;13.291
2023-01-22 13:32:00;d;0.93
2023-01-22 13:46:57;v;3.94
2023-01-22 13:46:57;h1;1;0.232;0.037;28.01;13.849;14.626;13.291
2023-01-22 13:46:57;d;0.93
2023-01-22 14:01:59;v;3.93
2023-01-22 14:01:59;h1;1;0.232;0.037;28.01;13.849;14.626;13.291
2023-01-22 14:01:59;d;0.93
2023-01-22 14:17:00;v;3.94
2023-01-22 14:17:00;h1;1;0.232;0.037;28.01;13.849;14.626;13.291
2023-01-22 14:17:00;d;0.93
2023-01-22 14:31:57;v;3.94
2023-01-22 14:31:57;h1;1;0.232;0.037;28.01;13.849;14.626;13.291
2023-01-22 14:31:57;d;0.93
2023-01-22 14:46:59;v;3.94
2023-01-22 14:46:59;h1;1;0.232;0.037;28.01;13.849;14.626;13.291
2023-01-22 14:46:59;d;0.93
2023-01-22 15:02:00;v;3.94
2023-01-22 15:02:00;h1;1;0.232;0.037;28.01;13.849;14.626;13.291
2023-01-22 15:02:00;d;0.93
2023-01-22 15:16:58;v;3.94
2023-01-22 15:16:58;h1;1;0.232;0.037;28.01;13.849;14.626;13.291
2023-01-22 15:16:58;d;0.93
2023-01-22 15:31:59;v;3.94
2023-01-22 15:31:59;h1;1;0.232;0.037;28.01;13.849;14.626;13.291
2023-01-22 15:31:59;d;0.93
2023-01-22 15:47:01;v;3.94
2023-01-22 15:47:01;h1;1;0.232;0.037;28.01;13.849;14.626;13.291
2023-01-22 15:47:01;d;0.93
2023-01-22 16:01:58;v;3.94
2023-01-22 16:01:58;h1;1;0.232;0.037;28.01;13.849;14.626;13.291
2023-01-22 16:01:58;d;0.93
2023-01-22 16:17:00;v;3.94
2023-01-22 16:17:00;h1;1;0.232;0.037;28.01;13.849;14.626;13.291
2023-01-22 16:17:00;d;0.93
2023-01-22 16:31:57;v;3.94
2023-01-22 16:31:57;h1;1;0.232;0.037;28.01;13.849;14.626;13.291
2023-01-22 16:31:57;d;0.93
2023-01-22 16:46:58;v;3.94
2023-01-22 16:46:58;h1;1;0.232;0.037;28.01;13.849;14.626;13.291
2023-01-22 16:46:58;d;0.93
2023-01-22 17:02:00;v;3.94
2023-01-22 17:02:00;h1;1;0.232;0.037;28.01;13.849;14.626;13.291
2023-01-22 17:02:00;d;0.93
2023-01-22 17:16:56;v;3.94
2023-01-22 17:16:56;h1;1;0.232;0.037;28.01;13.849;14.626;13.291
2023-01-22 17:16:56;d;0.93
2023-01-22 17:31:57;v;3.94
2023-01-22 17:31:57;h1;1;0.232;0.037;28.01;13.849;14.626;13.291
2023-01-22 17:31:57;d;0.93
2023-01-22 17:46:57;v;3.94
2023-01-22 17:46:57;h1;1;0.232;0.037;28.01;13.849;14.626;13.291
2023-01-22 17:46:57;d;0.93
2023-01-22 18:01:57;v;3.94
2023-01-22 18:01:57;h1;1;0.232;0.037;28.01;13.849;14.626;13.291
2023-01-22 18:01:57;d;0.93
2023-01-22 18:16:57;v;3.94
2023-01-22 18:16:57;h1;1;0.232;0.037;28.01;13.849;14.626;13.291
2023-01-22 18:16:57;d;0.93
2023-01-22 18:31:57;v;3.94
2023-01-22 18:31:57;h1;1;0.232;0.037;28.01;13.849;14.626;13.291
2023-01-22 18:31:57;d;0.93
2023-01-22 18:46:56;v;3.94
2023-01-22 18:46:56;h1;1;0.232;0.037;28.01;13.849;14.626;13.291
2023-01-22 18:46:56;d;0.93
2023-01-22 19:01:55;v;3.94
2023-01-22 19:01:55;h1;1;0.232;0.037;28.01;13.849;14.626;13.291
2023-01-22 19:01:55;d;0.93
2023-01-22 19:16:58;v;3.94
2023-01-22 19:16:58;h1;1;0.232;0.037;28.01;13.849;14.626;13.291
2023-01-22 19:16:58;d;0.93
2023-01-22 19:31:56;v;3.94
2023-01-22 19:31:56;h1;1;0.232;0.037;28.01;13.849;14.626;13.291
2023-01-22 19:31:56;d;0.93
2023-01-22 19:46:54;v;3.94
2023-01-22 19:46:54;h1;1;0.232;0.037;28.01;13.849;14.626;13.291
2023-01-22 19:46:54;d;0.93
2023-01-22 20:01:57;v;3.94
2023-01-22 20:01:57;h1;1;0.232;0.037;28.01;13.849;14.626;13.291
2023-01-22 20:01:57;d;0.93
2023-01-22 20:16:53;v;3.94
2023-01-22 20:16:53;h1;1;0.232;0.037;28.01;13.849;14.626;13.291
2023-01-22 20:16:53;d;0.93
2023-01-22 20:31:54;v;3.94
2023-01-22 20:31:54;h1;1;0.232;0.037;28.01;13.849;14.626;13.291
2023-01-22 20:31:54;d;0.93
2023-01-22 20:46:55;v;3.93
2023-01-22 20:46:55;h1;1;0.232;0.037;28.01;13.849;14.626;13.291
2023-01-22 20:46:55;d;0.93
2023-01-22 21:01:55;v;3.93
2023-01-22 21:01:55;h1;1;0.232;0.037;28.01;13.849;14.626;13.291
2023-01-22 21:01:55;d;0.93
2023-01-22 21:16:54;v;3.93
2023-01-22 21:16:54;h1;1;0.232;0.037;28.01;13.849;14.626;13.291
2023-01-22 21:16:54;d;0.93
2023-01-22 21:31:54;v;3.93
2023-01-22 21:31:54;h1;1;0.232;0.037;28.01;13.849;14.626;13.291
2023-01-22 21:31:54;d;0.93
2023-01-22 21:46:54;v;3.93
2023-01-22 21:46:54;h1;1;0.232;0.037;28.01;13.849;14.626;13.291
2023-01-22 21:46:54;d;0.93
2023-01-22 22:01:53;v;3.93
2023-01-22 22:01:53;h1;1;0.232;0.037;28.01;13.849;14.626;13.291
2023-01-22 22:01:53;d;0.93
2023-01-22 22:16:52;v;3.93
2023-01-22 22:16:52;h1;1;0.232;0.037;28.01;13.849;14.626;13.291
2023-01-22 22:16:52;d;0.93
2023-01-22 22:31:51;v;3.93
2023-01-22 22:31:51;h1;1;0.232;0.037;28.01;13.849;14.626;13.291
2023-01-22 22:31:51;d;0.93
2023-01-22 22:46:55;v;3.93
2023-01-22 22:46:55;h1;1;0.232;0.037;28.01;13.849;14.626;13.291
2023-01-22 22:46:55;d;0.93
2023-01-22 23:01:53;v;3.93
2023-01-22 23:01:53;h1;1;0.232;0.037;28.01;13.849;14.626;13.291
2023-01-22 23:01:53;d;0.93
2023-01-22 23:16:52;v;3.93
2023-01-22 23:16:52;h1;1;0.232;0.037;28.01;13.849;14.626;13.291
2023-01-22 23:16:52;d;0.93
2023-01-22 23:31:50;v;3.93
2023-01-22 23:31:50;h1;1;0.232;0.037;28.01;13.849;14.626;13.291
2023-01-22 23:31:50;d;0.93
2023-01-22 23:46:53;v;3.93
2023-01-22 23:46:53;h1;1;0.232;0.037;28.01;13.849;14.626;13.291
2023-01-22 23:46:53;d;0.93
