2023-01-23 00:01:52;v;3.93
2023-01-23 00:01:52;h1;1;0.232;0.037;28.01;13.849;14.626;13.291
2023-01-23 00:01:52;d;0.93
2023-01-23 00:16:50;v;3.92
2023-01-23 00:16:50;h1;1;0.232;0.037;28.01;13.849;14.626;13.291
2023-01-23 00:16:50;d;0.93
2023-01-23 00:31:53;v;3.92
2023-01-23 00:31:53;h1;1;0.232;0.037;28.01;13.849;14.626;13.291
2023-01-23 00:31:53;d;0.93
2023-01-23 00:46:51;v;3.92
2023-01-23 00:46:51;h1;1;0.232;0.037;28.01;13.849;14.626;13.291
2023-01-23 00:46:51;d;0.93
2023-01-23 01:01:54;v;3.92
2023-01-23 01:01:54;h1;1;0.232;0.037;28.01;13.849;14.626;13.291
2023-01-23 01:01:54;d;0.93
2023-01-23 01:16:52;v;3.92
2023-01-23 01:16:52;h1;1;0.232;0.037;28.01;13.849;14.626;13.291
2023-01-23 01:16:52;d;0.93
2023-01-23 01:31:50;v;3.92
2023-01-23 01:31:50;h1;1;0.232;0.037;28.01;13.849;14.626;13.291
2023-01-23 01:31:50;d;0.93
2023-01-23 01:46:53;v;3.92
2023-01-23 01:46:53;h1;1;0.232;0.037;28.01;13.849;14.626;13.291
2023-01-23 01:46:53;d;0.93
2023-01-23 02:01:51;v;3.92
2023-01-23 02:01:51;h1;1;0.232;0.037;28.01;13.849;14.626;13.291
2023-01-23 02:01:51;d;0.93
2023-01-23 02:16:53;v;3.92
2023-01-23 02:16:53;h1;1;0.232;0.037;28.01;13.849;14.626;13.291
2023-01-23 02:16:53;d;0.93
2023-01-23 02:31:51;v;3.92
2023-01-23 02:31:51;h1;1;0.232;0.037;28.01;13.849;14.626;13.291
2023-01-23 02:31:51;d;0.93
2023-01-23 02:46:54;v;3.92
2023-01-23 02:46:54;h1;1;0.232;0.037;28.01;13.849;14.626;13.291
2023-01-23 02:46:54;d;0.93
2023-01-23 03:01:52;v;3.92
2023-01-23 03:01:52;h1;1;0.232;0.037;28.01;13.849;14.626;13.291
2023-01-23 03:01:52;d;0.93
2023-01-23 03:16:50;v;3.92
2023-01-23 03:16:50;h1;1;0.232;0.037;28.01;13.849;14.626;13.291
2023-01-23 03:16:50;d;0.93
2023-01-23 03:31:52;v;3.91
2023-01-23 03:31:52;h1;1;0.232;0.037;28.01;13.849;14.626;13.291
2023-01-23 03:31:52;d;0.93
2023-01-23 03:46:50;v;3.91
2023-01-23 03:46:50;h1;1;0.232;0.037;28.01;13.849;14.626;13.291
2023-01-23 03:46:50;d;0.93
2023-01-23 04:01:52;v;3.91
2023-01-23 04:01:52;h1;1;0.232;0.037;28.01;13.849;14.626;13.291
2023-01-23 04:01:52;d;0.93
2023-01-23 04:16:49;v;3.91
2023-01-23 04:16:49;h1;1;0.232;0.037;28.01;13.849;14.626;13.291
2023-01-23 04:16:49;d;0.93
2023-01-23 04:31:52;v;3.91
2023-01-23 04:31:52;h1;1;0.232;0.037;28.01;13.849;14.626;13.291
2023-01-23 04:31:52;d;0.93
2023-01-23 04:46:49;v;3.91
2023-01-23 04:46:49;h1;1;0.232;0.037;28.01;13.849;14.626;13.291
2023-01-23 04:46:49;d;0.93
2023-01-23 05:01:51;v;3.91
2023-01-23 05:01:51;h1;1;0.232;0.037;28.01;13.849;14.626;13.291
2023-01-23 05:01:51;d;0.93
2023-01-23 05:16:53;v;3.91
2023-01-23 05:16:53;h1;1;0.232;0.037;28.01;13.849;14.626;13.291
2023-01-23 05:16:53;d;0.93
2023-01-23 05:31:50;v;3.91
2023-01-23 05:31:50;h1;1;0.232;0.037;28.01;13.849;14.626;13.291
2023-01-23 05:31:50;d;0.93
2023-01-23 05:46:52;v;3.91
2023-01-23 05:46:52;h1;1;0.232;0.037;28.01;13.849;14.626;13.291
2023-01-23 05:46:52;d;0.93
2023-01-23 06:01:50;v;3.91
2023-01-23 06:01:50;h1;1;0.232;0.037;28.01;13.849;14.626;13.291
2023-01-23 06:01:50;d;0.93
2023-01-23 06:16:52;v;3.91
2023-01-23 06:16:52;h1;1;0.232;0.037;28.01;13.849;14.626;13.291
2023-01-23 06:16:52;d;0.93
2023-01-23 06:31:49;v;3.91
2023-01-23 06:31:49;h1;1;0.232;0.037;28.01;13.849;14.626;13.291
2023-01-23 06:31:49;d;0.93
2023-01-23 06:46:51;v;3.91
2023-01-23 06:46:51;h1;1;0.232;0.037;28.01;13.849;14.626;13.291
2023-01-23 06:46:51;d;0.93
2023-01-23 07:01:53;v;3.91
2023-01-23 07:01:53;h1;1;0.232;0.037;28.01;13.849;14.626;13.291
2023-01-23 07:01:53;d;0.93
2023-01-23 07:16:51;v;3.91
2023-01-23 07:16:51;h1;1;0.232;0.037;28.01;13.849;14.626;13.291
2023-01-23 07:16:51;d;0.93
2023-01-23 07:31:50;v;3.92
2023-01-23 07:31:50;h1;1;0.232;0.037;28.01;13.849;14.626;13.291
2023-01-23 07:31:50;d;0.93
2023-01-23 07:46:53;v;3.92
2023-01-23 07:46:53;h1;1;0.232;0.037;28.01;13.849;14.626;13.291
2023-01-23 07:46:53;d;0.93
2023-01-23 08:01:52;v;3.92
2023-01-23 08:01:52;h1;1;0.232;0.037;28.01;13.849;14.626;13.291
2023-01-23 08:01:52;d;0.93
2023-01-23 08:16:52;v;3.92
2023-01-23 08:16:52;h1;1;0.232;0.037;28.01;13.849;14.626;13.291
2023-01-23 08:16:52;d;0.93
2023-01-23 08:31:52;v;3.92
2023-01-23 08:31:52;h1;1;0.232;0.037;28.01;13.849;14.626;13.291
2023-01-23 08:31:52;d;0.93
2023-01-23 08:46:53;v;3.92
2023-01-23 08:46:53;h1;1;0.232;0.037;28.01;13.849;14.626;13.291
2023-01-23 08:46:53;d;0.93
2023-01-23 09:01:54;v;3.92
2023-01-23 09:01:54;h1;1;0.232;0.037;28.01;13.849;14.626;13.291
2023-01-23 09:01:54;d;0.93
2023-01-23 09:16:55;v;3.93
2023-01-23 09:16:55;h1;1;0.232;0.037;28.01;13.849;14.626;13.291
2023-01-23 09:16:55;d;0.93
2023-01-23 09:31:57;v;3.93
2023-01-23 09:31:57;h1;1;0.232;0.037;28.01;13.849;14.626;13.291
2023-01-23 09:31:57;d;0.93
2023-01-23 09:46:55;v;3.93
2023-01-23 09:46:55;h1;1;0.232;0.037;28.01;13.849;14.626;13.291
2023-01-23 09:46:55;d;0.93
2023-01-23 10:01:58;v;3.93
2023-01-23 10:01:58;h1;1;0.232;0.037;28.01;13.849;14.626;13.291
2023-01-23 10:01:58;d;0.93
2023-01-23 10:16:56;v;3.93
2023-01-23 10:16:56;h1;1;0.232;0.037;28.01;13.849;14.626;13.291
2023-01-23 10:16:56;d;0.93
2023-01-23 10:31:55;v;3.93
2023-01-23 10:31:55;h1;1;0.232;0.037;28.01;13.849;14.626;13.291
2023-01-23 10:31:55;d;0.93
2023-01-23 10:46:59;v;3.93
2023-01-23 10:46:59;h1;1;0.232;0.037;28.01;13.849;14.626;13.291
2023-01-23 10:46:59;d;0.93
2023-01-23 11:01:59;v;3.93
2023-01-23 11:01:59;h1;1;0.232;0.037;28.01;13.849;14.626;13.291
2023-01-23 11:01:59;d;0.93
2023-01-23 11:16:59;v;3.93
2023-01-23 11:16:59;h1;1;0.232;0.037;28.01;13.849;14.626;13.291
2023-01-23 11:16:59;d;0.93
2023-01-23 11:31:59;v;3.93
2023-01-23 11:31:59;h1;1;0.232;0.037;28.01;13.849;14.626;13.291
2023-01-23 11:31:59;d;0.93
2023-01-23 11:47:00;v;3.93
2023-01-23 11:47:00;h1;1;0.232;0.037;28.01;13.849;14.626;13.291
2023-01-23 11:47:00;d;0.93
2023-01-23 12:01:56;v;3.93
2023-01-23 12:01:56;h1;1;0.232;0.037;28.01;13.849;14.626;13.291
2023-01-23 12:01:56;d;0.93
2023-01-23 12:16:57;v;3.93
2023-01-23 12:16:57;h1;1;0.232;0.037;28.01;13.849;14.626;13.291
2023-01-23 12:16:57;d;0.93
2023-01-23 12:31:59;v;3.93
2023-01-23 12:31:59;h1;1;0.232;0.037;28.01;13.849;14.626;13.291
2023-01-23 12:31:59;d;0.93
2023-01-23 12:47:00;v;3.93
2023-01-23 12:47:00;h1;1;0.232;0.037;28.01;13.849;14.626;13.291
2023-01-23 12:47:00;d;0.93
2023-01-23 13:01:58;v;3.93
2023-01-23 13:01:58;h1;1;0.232;0.037;28.01;13.849;14.626;13.291
2023-01-23 13:01:58;d;0.93
2023-01-23 13:17:00;v;3.93
2023-01-23 13:17:00;h1;1;0.232;0.037;28.01;13.849;14.626;13.291
2023-01-23 13:17:00;d;0.93
2023-01-23 13:31:58;v;3.93
2023-01-23 13:31:58;h1;1;0.232;0.037;28.01;13.849;14.626;13.291
2023-01-23 13:31:58;d;0.93
2023-01-23 13:47:00;v;3.94
2023-01-23 13:47:00;h1;1;0.232;0.037;28.01;13.849;14.626;13.291
2023-01-23 13:47:00;d;0.93
2023-01-23 14:01:58;v;3.94
2023-01-23 14:01:58;h1;1;0.232;0.037;28.01;13.849;14.626;13.291
2023-01-23 14:01:58;d;0.93
2023-01-23 14:17:00;v;3.94
2023-01-23 14:17:00;h1;1;0.232;0.037;28.01;13.849;14.626;13.291
2023-01-23 14:17:00;d;0.93
2023-01-23 14:31:58;v;3.94
2023-01-23 14:31:58;h1;1;0.232;0.037;28.01;13.849;14.626;13.291
2023-01-23 14:31:58;d;0.93
2023-01-23 14:47:01;v;3.94
2023-01-23 14:47:01;h1;1;0.232;0.037;28.01;13.849;14.626;13.291
2023-01-23 14:47:01;d;0.93
2023-01-23 15:01:59;v;3.94
2023-01-23 15:01:59;h1;1;0.232;0.037;28.01;13.849;14.626;13.291
2023-01-23 15:01:59;d;0.93
2023-01-23 15:17:02;v;3.94
2023-01-23 15:17:02;h1;1;0.232;0.037;28.01;13.849;14.626;13.291
2023-01-23 15:17:02;d;0.93
2023-01-23 15:31:59;v;3.94
2023-01-23 15:31:59;h1;1;0.232;0.037;28.01;13.849;14.626;13.291
2023-01-23 15:31:59;d;0.93
2023-01-23 15:46:57;v;3.94
2023-01-23 15:46:57;h1;1;0.232;0.037;28.01;13.849;14.626;13.291
2023-01-23 15:46:57;d;0.93
2023-01-23 16:02:00;v;3.94
2023-01-23 16:02:00;h1;1;0.232;0.037;28.01;13.849;14.626;13.291
2023-01-23 16:02:00;d;0.93
2023-01-23 16:16:58;v;3.94
2023-01-23 16:16:58;h1;1;0.232;0.037;28.01;13.849;14.626;13.291
2023-01-23 16:16:58;d;0.93
2023-01-23 16:32:00;v;3.94
2023-01-23 16:32:00;h1;1;0.232;0.037;28.01;13.849;14.626;13.291
2023-01-23 16:32:00;d;0.93
2023-01-23 16:46:58;v;3.94
2023-01-23 16:46:58;h1;1;0.232;0.037;28.01;13.849;14.626;13.291
2023-01-23 16:46:58;d;0.93
2023-01-23 17:02:01;v;3.94
2023-01-23 17:02:01;h1;1;0.232;0.037;28.01;13.849;14.626;13.291
2023-01-23 17:02:01;d;0.93
2023-01-23 17:16:59;v;3.94
2023-01-23 17:16:59;h1;1;0.232;0.037;28.01;13.849;14.626;13.291
2023-01-23 17:16:59;d;0.93
2023-01-23 17:32:01;v;3.94
2023-01-23 17:32:01;h1;1;0.232;0.037;28.01;13.849;14.626;13.291
2023-01-23 17:32:01;d;0.93
2023-01-23 17:46:59;v;3.94
2023-01-23 17:46:59;h1;1;0.232;0.037;28.01;13.849;14.626;13.291
2023-01-23 17:46:59;d;0.93
2023-01-23 18:02:01;v;3.94
2023-01-23 18:02:01;h1;1;0.232;0.037;28.01;13.849;14.626;13.291
2023-01-23 18:02:01;d;0.93
2023-01-23 18:16:58;v;3.94
2023-01-23 18:16:58;h1;1;0.232;0.037;28.01;13.849;14.626;13.291
2023-01-23 18:16:58;d;0.93
2023-01-23 18:32:00;v;3.94
2023-01-23 18:32:00;h1;1;0.232;0.037;28.01;13.849;14.626;13.291
2023-01-23 18:32:00;d;0.93
2023-01-23 18:46:57;v;3.93
2023-01-23 18:46:57;h1;1;0.232;0.037;28.01;13.849;14.626;13.291
2023-01-23 18:46:57;d;0.93
2023-01-23 19:01:59;v;3.94
2023-01-23 19:01:59;h1;1;0.232;0.037;28.01;13.849;14.626;13.291
2023-01-23 19:01:59;d;0.93
2023-01-23 19:17:00;v;3.93
2023-01-23 19:17:00;h1;1;0.232;0.037;28.01;13.849;14.626;13.291
2023-01-23 19:17:00;d;0.93
2023-01-23 19:31:56;v;3.93
2023-01-23 19:31:56;h1;1;0.232;0.037;28.01;13.849;14.626;13.291
2023-01-23 19:31:56;d;0.93
2023-01-23 19:46:56;v;3.93
2023-01-23 19:46:56;h1;1;0.232;0.037;28.01;13.849;14.626;13.291
2023-01-23 19:46:56;d;0.93
2023-01-23 20:01:56;v;3.93
2023-01-23 20:01:56;h1;1;0.232;0.037;28.01;13.849;14.626;13.291
2023-01-23 20:01:56;d;0.93
2023-01-23 20:16:54;v;3.93
2023-01-23 20:16:54;h1;1;0.232;0.037;28.01;13.849;14.626;13.291
2023-01-23 20:16:54;d;0.93
2023-01-23 20:31:56;v;3.93
2023-01-23 20:31:56;h1;1;0.232;0.037;28.01;13.849;14.626;13.291
2023-01-23 20:31:56;d;0.93
2023-01-23 20:46:53;v;3.93
2023-01-23 20:46:53;h1;1;0.232;0.037;28.01;13.849;14.626;13.291
2023-01-23 20:46:53;d;0.93
2023-01-23 21:01:54;v;3.93
2023-01-23 21:01:54;h1;1;0.232;0.037;28.01;13.849;14.626;13.291
2023-01-23 21:01:54;d;0.93
2023-01-23 21:16:55;v;3.93
2023-01-23 21:16:55;h1;1;0.232;0.037;28.01;13.849;14.626;13.291
2023-01-23 21:16:55;d;0.93
2023-01-23 21:31:55;v;3.93
2023-01-23 21:31:55;h1;1;0.232;0.037;28.01;13.849;14.626;13.291
2023-01-23 21:31:55;d;0.93
2023-01-23 21:46:51;v;3.93
2023-01-23 21:46:51;h1;1;0.232;0.037;28.01;13.849;14.626;13.291
2023-01-23 21:46:51;d;0.93
2023-01-23 22:01:56;v;3.93
2023-01-23 22:01:56;h1;1;0.232;0.037;28.01;13.849;14.626;13.291
2023-01-23 22:01:56;d;0.93
2023-01-23 22:16:52;v;3.93
2023-01-23 22:16:52;h1;1;0.232;0.037;28.01;13.849;14.626;13.291
2023-01-23 22:16:52;d;0.93
2023-01-23 22:31:51;v;3.93
2023-01-23 22:31:51;h1;1;0.232;0.037;28.01;13.849;14.626;13.291
2023-01-23 22:31:51;d;0.93
2023-01-23 22:46:56;v;3.92
2023-01-23 22:46:56;h1;1;0.232;0.037;28.01;13.849;14.626;13.291
2023-01-23 22:46:56;d;0.93
2023-01-23 23:01:50;v;3.92
2023-01-23 23:01:50;h1;1;0.232;0.037;28.01;13.849;14.626;13.291
2023-01-23 23:01:50;d;0.93
2023-01-23 23:16:54;v;3.92
2023-01-23 23:16:54;h1;1;0.232;0.037;28.01;13.849;14.626;13.291
2023-01-23 23:16:54;d;0.93
2023-01-23 23:31:53;v;3.92
2023-01-23 23:31:53;h1;1;0.232;0.037;28.01;13.849;14.626;13.291
2023-01-23 23:31:53;d;0.93
2023-01-23 23:46:52;v;3.92
2023-01-23 23:46:52;h1;1;0.232;0.037;28.01;13.849;14.626;13.291
2023-01-23 23:46:52;d;0.93
