2023-01-30 00:01:54;v;3.93
2023-01-30 00:01:54;h1;1;0.229;0.037;28.6
2023-01-30 00:01:54;d;0.93
2023-01-30 00:16:54;v;3.92
2023-01-30 00:16:54;h1;11;14.119;14.575;13.333
2023-01-30 00:16:54;d;0.93
2023-01-30 00:31:53;v;3.92
2023-01-30 00:31:53;h1;11;14.220;14.324;13.429
2023-01-30 00:31:53;d;0.93
2023-01-30 00:46:52;v;3.92
2023-01-30 00:46:52;h1;1;0.227;0.037;29.2
2023-01-30 00:46:52;d;0.93
2023-01-30 01:01:51;v;3.92
2023-01-30 01:01:51;h1;11;14.222;14.330;13.413
2023-01-30 01:01:51;d;0.93
2023-01-30 01:16:54;v;3.93
2023-01-30 01:16:54;h1;1;0.227;0.037;29.21;14.222;14.330;13.413
2023-01-30 01:16:54;d;0.93
2023-01-30 01:31:52;v;3.92
2023-01-30 01:31:52;h1;1;0.227;0.037;29.2
2023-01-30 01:31:52;d;0.93
2023-01-30 01:46:50;v;3.92
2023-01-30 01:46:50;h1;11;14.437;14.152;13.615
2023-01-30 01:46:50;d;0.93
2023-01-30 02:01:53;v;3.92
2023-01-30 02:01:53;h1;11;14.437;14.152;13.615
2023-01-30 02:01:53;d;0.93
2023-01-30 02:16:50;v;3.92
2023-01-30 02:16:50;h1;11;14.437;14.152;13.615
2023-01-30 02:16:50;d;0.93
2023-01-30 02:31:53;v;3.92
2023-01-30 02:31:53;h1;11;13.942;14.792;13.148
2023-01-30 02:31:53;d;0.93
2023-01-30 02:46:51;v;3.92
2023-01-30 02:46:51;h1;1;0.234;0.037;29.51;85.1;0.039;14.327
2023-01-30 02:46:51;d;0.93
2023-01-30 03:01:53;v;3.92
2023-01-30 03:01:53;h1;1;0.234;0.037;29.51;85.1;0.039;14.327
2023-01-30 03:01:53;d;0.93
2023-01-30 03:16:51;v;3.92
2023-01-30 03:16:51;h1;1;0.234;0.037;29.51;85.1;0.039;14.327
2023-01-30 03:16:51;d;0.93
2023-01-30 03:31:53;v;3.92
2023-01-30 03:31:53;h1;11;14.437;14.152;13.615
2023-01-30 03:31:53;d;0.93
2023-01-30 03:46:51;v;3.91
2023-01-30 03:46:51;h1;11;14.437;14.152;13.615
2023-01-30 03:46:51;d;0.93
2023-01-30 04:01:53;v;3.91
2023-01-30 04:01:53;h1;11;13.942;14.792;13.148
2023-01-30 04:01:53;d;0.93
2023-01-30 04:16:51;v;3.91
2023-01-30 04:16:51;h1;11;14.154;14.624;13.348
2023-01-30 04:16:51;d;0.93
2023-01-30 04:31:53;v;3.91
2023-01-30 04:31:53;h1;11;13.942;14.792;13.148
2023-01-30 04:31:53;d;0.93
2023-01-30 04:46:51;v;3.91
2023-01-30 04:46:51;h1;11;14.154;14.624;13.348
2023-01-30 04:46:51;d;0.93
2023-01-30 05:01:53;v;3.91
2023-01-30 05:01:53;h1;11;14.154;14.624;13.348
2023-01-30 05:01:53;d;0.93
2023-01-30 05:16:50;v;3.91
2023-01-30 05:16:50;h1;11;14.437;14.152;13.615
2023-01-30 05:16:50;d;0.93
2023-01-30 05:31:51;v;3.91
2023-01-30 05:31:51;h1;11;13.942;14.792;13.148
2023-01-30 05:31:51;d;0.93
2023-01-30 05:46:48;v;3.91
2023-01-30 05:46:48;h1;1;0.234;0.037;29.51;85.1;0.039;14.327
2023-01-30 05:46:48;d;0.93
2023-01-30 06:01:50;v;3.91
2023-01-30 06:01:50;h1;1;0.234;0.037;29.51;85.1;0.039;14.327
2023-01-30 06:01:50;d;0.93
2023-01-30 06:16:52;v;3.91
2023-01-30 06:16:52;h1;1;0.234;0.037;29.51;85.1;0.039;14.327
2023-01-30 06:16:52;d;0.93
2023-01-30 06:31:49;v;3.91
2023-01-30 06:31:49;h1;1;0.234;0.037;29.51;85.1;0.039;14.327
2023-01-30 06:31:49;d;0.93
2023-01-30 06:46:50;v;3.91
2023-01-30 06:46:50;h1;1;0.234;0.037;29.51;85.1;0.039;14.327
2023-01-30 06:46:50;d;0.93
2023-01-30 07:01:52;v;3.91
2023-01-30 07:01:52;h1;1;0.234;0.037;29.51;85.1;0.039;14.327
2023-01-30 07:01:52;d;0.93
2023-01-30 07:16:50;v;3.91
2023-01-30 07:16:50;h1;1;0.234;0.037;29.51;85.1;0.039;14.327
2023-01-30 07:16:50;d;0.93
2023-01-30 07:31:52;v;3.91
2023-01-30 07:31:52;h1;1;0.234;0.037;29.51;85.1;0.039;14.327
2023-01-30 07:31:52;d;0.93
2023-01-30 07:46:50;v;3.91
2023-01-30 07:46:50;h1;1;0.234;0.037;29.51;85.1;0.039;14.327
2023-01-30 07:46:50;d;0.93
2023-01-30 08:01:52;v;3.91
2023-01-30 08:01:52;h1;1;0.234;0.037;29.51;85.1;0.039;14.327
2023-01-30 08:01:52;d;0.93
2023-01-30 08:16:50;v;3.91
2023-01-30 08:16:50;h1;1;0.234;0.037;29.51;85.1;0.039;14.327
2023-01-30 08:16:50;d;0.93
2023-01-30 08:31:53;v;3.91
2023-01-30 08:31:53;h1;1;0.234;0.037;29.51;85.1;0.039;14.327
2023-01-30 08:31:53;d;0.93
2023-01-30 08:46:51;v;3.92
2023-01-30 08:46:51;h1;1;0.234;0.037;29.51;85.1;0.039;14.327
2023-01-30 08:46:51;d;0.93
2023-01-30 09:01:51;v;3.92
2023-01-30 09:01:51;h1;1;0.234;0.037;29.51;85.1;0.039;14.327
2023-01-30 09:01:51;d;0.93
2023-01-30 09:16:55;v;3.92
2023-01-30 09:16:55;h1;1;0.234;0.037;29.51;85.1;0.039;14.327
2023-01-30 09:16:55;d;0.93
2023-01-30 09:31:51;v;3.92
2023-01-30 09:31:51;h1;1;0.234;0.037;29.51;85.1;0.039;14.327
2023-01-30 09:31:51;d;0.93
2023-01-30 09:46:53;v;3.92
2023-01-30 09:46:53;h1;1;0.234;0.037;29.51;85.1;0.039;14.327
2023-01-30 09:46:53;d;0.93
2023-01-30 10:01:54;v;3.92
2023-01-30 10:01:54;h1;1;0.234;0.037;29.51;85.1;0.039;14.327
2023-01-30 10:01:54;d;0.93
2023-01-30 10:16:56;v;3.92
2023-01-30 10:16:56;h1;1;0.234;0.037;29.51;85.1;0.039;14.327
2023-01-30 10:16:56;d;0.93
2023-01-30 10:31:54;v;3.93
2023-01-30 10:31:54;h1;1;0.234;0.037;29.51;85.1;0.039;14.327
2023-01-30 10:31:54;d;0.93
2023-01-30 10:46:57;v;3.93
2023-01-30 10:46:57;h1;1;0.234;0.037;29.51;85.1;0.039;14.327
2023-01-30 10:46:57;d;0.93
2023-01-30 11:01:56;v;3.93
2023-01-30 11:01:56;h1;1;0.234;0.037;29.51;85.1;0.039;14.327
2023-01-30 11:01:56;d;0.93
2023-01-30 11:16:56;v;3.93
2023-01-30 11:16:56;h1;1;0.234;0.037;29.51;85.1;0.039;14.327
2023-01-30 11:16:56;d;0.93
2023-01-30 11:31:55;v;3.93
2023-01-30 11:31:55;h1;1;0.234;0.037;29.51;85.1;0.039;14.327
2023-01-30 11:31:55;d;0.93
2023-01-30 11:47:00;v;3.93
2023-01-30 11:47:00;h1;1;0.234;0.037;29.51;85.1;0.039;14.327
2023-01-30 11:47:00;d;0.93
2023-01-30 12:01:57;v;3.93
2023-01-30 12:01:57;h1;1;0.234;0.037;29.51;85.1;0.039;14.327
2023-01-30 12:01:57;d;0.93
2023-01-30 12:16:58;v;3.93
2023-01-30 12:16:58;h1;1;0.234;0.037;29.51;85.1;0.039;14.327
2023-01-30 12:16:58;d;0.93
2023-01-30 12:31:59;v;3.93
2023-01-30 12:31:59;h1;1;0.234;0.037;29.51;85.1;0.039;14.327
2023-01-30 12:31:59;d;0.93
2023-01-30 12:47:00;v;3.93
2023-01-30 12:47:00;h1;1;0.234;0.037;29.51;85.1;0.039;14.327
2023-01-30 12:47:00;d;0.93
2023-01-30 13:01:58;v;3.93
2023-01-30 13:01:58;h1;1;0.234;0.037;29.51;85.1;0.039;14.327
2023-01-30 13:01:58;d;0.93
2023-01-30 13:17:00;v;3.93
2023-01-30 13:17:00;h1;1;0.234;0.037;29.51;85.1;0.039;14.327
2023-01-30 13:17:00;d;0.93
2023-01-30 13:31:57;v;3.93
2023-01-30 13:31:57;h1;1;0.234;0.037;29.51;85.1;0.039;14.327
2023-01-30 13:31:57;d;0.93
2023-01-30 13:46:59;v;3.94
2023-01-30 13:46:59;h1;1;0.234;0.037;29.51;85.1;0.039;14.327
2023-01-30 13:46:59;d;0.93
2023-01-30 14:02:02;v;3.94
2023-01-30 14:02:02;h1;1;0.234;0.037;29.51;85.1;0.039;14.327
2023-01-30 14:02:02;d;0.93
2023-01-30 14:17:00;v;3.94
2023-01-30 14:17:00;h1;1;0.234;0.037;29.51;85.1;0.039;14.327
2023-01-30 14:17:00;d;0.93
2023-01-30 14:31:58;v;3.94
2023-01-30 14:31:58;h1;1;0.234;0.037;29.51;85.1;0.039;14.327
2023-01-30 14:31:58;d;0.93
2023-01-30 14:47:01;v;3.94
2023-01-30 14:47:01;h1;1;0.234;0.037;29.51;85.1;0.039;14.327
2023-01-30 14:47:01;d;0.93
2023-01-30 15:01:59;v;3.94
2023-01-30 15:01:59;h1;1;0.234;0.037;29.51;85.1;0.039;14.327
2023-01-30 15:01:59;d;0.93
2023-01-30 15:17:01;v;3.94
2023-01-30 15:17:01;h1;1;0.234;0.037;29.51;85.1;0.039;14.327
2023-01-30 15:17:01;d;0.93
2023-01-30 15:32:00;v;3.94
2023-01-30 15:32:00;h1;11;13.901;14.724;13.181
2023-01-30 15:32:00;d;0.93
2023-01-30 15:46:58;v;3.94
2023-01-30 15:46:58;h1;1;0.233;0.037;28.91;13.901;14.724;13.181
2023-01-30 15:46:58;d;0.93
2023-01-30 16:02:01;v;3.94
2023-01-30 16:02:01;h1;1;0.233;0.037;28.91;13.901;14.724;13.181
2023-01-30 16:02:01;d;0.93
2023-01-30 16:16:58;v;3.94
2023-01-30 16:16:58;h1;1;0.233;0.037;28.91;13.901;14.724;13.181
2023-01-30 16:16:58;d;0.93
2023-01-30 16:32:00;v;3.94
2023-01-30 16:32:00;h1;1;0.233;0.037;28.91;13.901;14.724;13.181
2023-01-30 16:32:00;d;0.93
2023-01-30 16:46:58;v;3.94
2023-01-30 16:46:58;h1;1;0.233;0.037;28.91;13.901;14.724;13.181
2023-01-30 16:46:58;d;0.93
2023-01-30 17:02:01;v;3.94
2023-01-30 17:02:01;h1;1;0.233;0.037;28.91;13.901;14.724;13.181
2023-01-30 17:02:01;d;0.93
2023-01-30 17:16:58;v;3.94
2023-01-30 17:16:58;h1;1;0.233;0.037;28.91;13.901;14.724;13.181
2023-01-30 17:16:58;d;0.93
2023-01-30 17:32:01;v;3.94
2023-01-30 17:32:01;h1;1;0.233;0.037;28.91;13.901;14.724;13.181
2023-01-30 17:32:01;d;0.93
2023-01-30 17:46:58;v;3.94
2023-01-30 17:46:58;h1;1;0.233;0.037;28.91;13.901;14.724;13.181
2023-01-30 17:46:58;d;0.93
2023-01-30 18:01:59;v;3.94
2023-01-30 18:01:59;h1;1;0.233;0.037;28.91;13.901;14.724;13.181
2023-01-30 18:01:59;d;0.93
2023-01-30 18:17:00;v;3.94
2023-01-30 18:17:00;h1;1;0.233;0.037;28.91;13.901;14.724;13.181
2023-01-30 18:17:00;d;0.93
2023-01-30 18:31:56;v;3.94
2023-01-30 18:31:56;h1;1;0.233;0.037;28.91;13.901;14.724;13.181
2023-01-30 18:31:56;d;0.93
2023-01-30 18:46:57;v;3.94
2023-01-30 18:46:57;h1;1;0.233;0.037;28.91;13.901;14.724;13.181
2023-01-30 18:46:57;d;0.93
2023-01-30 19:01:57;v;3.94
2023-01-30 19:01:57;h1;1;0.233;0.037;28.91;13.901;14.724;13.181
2023-01-30 19:01:57;d;0.93
2023-01-30 19:16:57;v;3.94
2023-01-30 19:16:57;h1;1;0.233;0.037;28.91;13.901;14.724;13.181
2023-01-30 19:16:57;d;0.93
2023-01-30 19:31:57;v;3.94
2023-01-30 19:31:57;h1;1;0.233;0.037;28.91;13.901;14.724;13.181
2023-01-30 19:31:57;d;0.93
2023-01-30 19:46:56;v;3.94
2023-01-30 19:46:56;h1;1;0.233;0.037;28.91;13.901;14.724;13.181
2023-01-30 19:46:56;d;0.93
2023-01-30 20:01:55;v;3.94
2023-01-30 20:01:55;h1;1;0.233;0.037;28.91;13.901;14.724;13.181
2023-01-30 20:01:55;d;0.93
2023-01-30 20:16:57;v;3.93
2023-01-30 20:16:57;h1;1;0.233;0.037;28.91;13.901;14.724;13.181
2023-01-30 20:16:57;d;0.93
2023-01-30 20:31:55;v;3.93
2023-01-30 20:31:55;h1;1;0.233;0.037;28.91;13.901;14.724;13.181
2023-01-30 20:31:55;d;0.93
2023-01-30 20:46:56;v;3.93
2023-01-30 20:46:56;h1;1;0.233;0.037;28.91;13.901;14.724;13.181
2023-01-30 20:46:56;d;0.93
2023-01-30 21:01:53;v;3.93
2023-01-30 21:01:53;h1;1;0.233;0.037;28.91;13.901;14.724;13.181
2023-01-30 21:01:53;d;0.93
2023-01-30 21:16:53;v;3.93
2023-01-30 21:16:53;h1;1;0.233;0.037;28.91;13.901;14.724;13.181
2023-01-30 21:16:53;d;0.93
2023-01-30 21:31:54;v;3.93
2023-01-30 21:31:54;h1;1;0.233;0.037;28.91;13.901;14.724;13.181
2023-01-30 21:31:54;d;0.93
2023-01-30 21:46:54;v;3.93
2023-01-30 21:46:54;h1;1;0.233;0.037;28.91;13.901;14.724;13.181
2023-01-30 21:46:54;d;0.93
2023-01-30 22:01:54;v;3.93
2023-01-30 22:01:54;h1;1;0.233;0.037;28.91;13.901;14.724;13.181
2023-01-30 22:01:54;d;0.93
2023-01-30 22:16:53;v;3.93
2023-01-30 22:16:53;h1;1;0.233;0.037;28.91;13.901;14.724;13.181
2023-01-30 22:16:53;d;0.93
2023-01-30 22:31:53;v;3.93
2023-01-30 22:31:53;h1;1;0.233;0.037;28.91;13.901;14.724;13.181
2023-01-30 22:31:53;d;0.93
2023-01-30 22:46:52;v;3.93
2023-01-30 22:46:52;h1;1;0.233;0.037;28.91;13.901;14.724;13.181
2023-01-30 22:46:52;d;0.93
2023-01-30 23:01:52;v;3.93
2023-01-30 23:01:52;h1;1;0.233;0.037;28.91;13.901;14.724;13.181
2023-01-30 23:01:52;d;0.93
2023-01-30 23:16:51;v;3.93
2023-01-30 23:16:51;h1;1;0.233;0.037;28.91;13.901;14.724;13.181
2023-01-30 23:16:51;d;0.93
2023-01-30 23:31:54;v;3.93
2023-01-30 23:31:54;h1;1;0.233;0.037;28.91;13.901;14.724;13.181
2023-01-30 23:31:54;d;0.93
2023-01-30 23:46:53;v;3.93
2023-01-30 23:46:53;h1;1;0.233;0.037;28.91;13.901;14.724;13.181
2023-01-30 23:46:53;d;0.93
