2023-01-31 00:01:51;v;3.93
2023-01-31 00:01:51;h1;1;0.233;0.037;28.91;13.901;14.724;13.181
2023-01-31 00:01:51;d;0.93
2023-01-31 00:16:50;v;3.92
2023-01-31 00:16:50;h1;1;0.233;0.037;28.91;13.901;14.724;13.181
2023-01-31 00:16:50;d;0.93
2023-01-31 00:31:53;v;3.92
2023-01-31 00:31:53;h1;1;0.233;0.037;28.91;13.901;14.724;13.181
2023-01-31 00:31:53;d;0.93
2023-01-31 00:46:52;v;3.92
2023-01-31 00:46:52;h1;1;0.233;0.037;28.91;13.901;14.724;13.181
2023-01-31 00:46:52;d;0.93
2023-01-31 01:01:50;v;3.92
2023-01-31 01:01:50;h1;1;0.233;0.037;28.91;13.901;14.724;13.181
2023-01-31 01:01:50;d;0.93
2023-01-31 01:16:53;v;3.92
2023-01-31 01:16:53;h1;1;0.233;0.037;28.91;13.901;14.724;13.181
2023-01-31 01:16:53;d;0.93
2023-01-31 01:31:51;v;3.92
2023-01-31 01:31:51;h1;1;0.233;0.037;28.91;13.901;14.724;13.181
2023-01-31 01:31:51;d;0.93
2023-01-31 01:46:50;v;3.92
2023-01-31 01:46:50;h1;1;0.233;0.037;28.91;13.901;14.724;13.181
2023-01-31 01:46:50;d;0.93
2023-01-31 02:01:53;v;3.92
2023-01-31 02:01:53;h1;1;0.233;0.037;28.91;13.901;14.724;13.181
2023-01-31 02:01:53;d;0.93
2023-01-31 02:16:51;v;3.92
2023-01-31 02:16:51;h1;1;0.233;0.037;28.91;13.901;14.724;13.181
2023-01-31 02:16:51;d;0.93
2023-01-31 02:31:54;v;3.92
2023-01-31 02:31:54;h1;1;0.233;0.037;28.91;13.901;14.724;13.181
2023-01-31 02:31:54;d;0.93
2023-01-31 02:46:52;v;3.92
2023-01-31 02:46:52;h1;1;0.233;0.037;28.91;13.901;14.724;13.181
2023-01-31 02:46:52;d;0.93
2023-01-31 03:01:49;v;3.92
2023-01-31 03:01:49;h1;1;0.233;0.037;28.91;13.901;14.724;13.181
2023-01-31 03:01:49;d;0.93
2023-01-31 03:16:52;v;3.91
2023-01-31 03:16:52;h1;1;0.233;0.037;28.91;13.901;14.724;13.181
2023-01-31 03:16:52;d;0.93
2023-01-31 03:31:50;v;3.91
2023-01-31 03:31:50;h1;1;0.233;0.037;28.91;13.901;14.724;13.181
2023-01-31 03:31:50;d;0.93
2023-01-31 03:46:52;v;3.91
2023-01-31 03:46:52;h1;1;0.233;0.037;28.91;13.901;14.724;13.181
2023-01-31 03:46:52;d;0.93
2023-01-31 04:01:50;v;3.91
2023-01-31 04:01:50;h1;1;0.233;0.037;28.91;13.901;14.724;13.181
2023-01-31 04:01:50;d;0.93
2023-01-31 04:16:52;v;3.91
2023-01-31 04:16:52;h1;1;0.233;0.037;28.91;13.901;14.724;13.181
2023-01-31 04:16:52;d;0.93
2023-01-31 04:31:50;v;3.91
2023-01-31 04:31:50;h1;1;0.233;0.037;28.91;13.901;14.724;13.181
2023-01-31 04:31:50;d;0.93
2023-01-31 04:46:52;v;3.91
2023-01-31 04:46:52;h1;1;0.233;0.037;28.91;13.901;14.724;13.181
2023-01-31 04:46:52;d;0.93
2023-01-31 05:01:50;v;3.91
2023-01-31 05:01:50;h1;1;0.233;0.037;28.91;13.901;14.724;13.181
2023-01-31 05:01:50;d;0.93
2023-01-31 05:16:52;v;3.91
2023-01-31 05:16:52;h1;1;0.233;0.037;28.91;13.901;14.724;13.181
2023-01-31 05:16:52;d;0.93
2023-01-31 05:31:50;v;3.91
2023-01-31 05:31:50;h1;1;0.233;0.037;28.91;13.901;14.724;13.181
2023-01-31 05:31:50;d;0.93
2023-01-31 05:46:52;v;3.91
2023-01-31 05:46:52;h1;1;0.233;0.037;28.91;13.901;14.724;13.181
2023-01-31 05:46:52;d;0.93
2023-01-31 06:01:49;v;3.91
2023-01-31 06:01:49;h1;1;0.233;0.037;28.91;13.901;14.724;13.181
2023-01-31 06:01:49;d;0.93
2023-01-31 06:16:51;v;3.91
2023-01-31 06:16:51;h1;1;0.233;0.037;28.91;13.901;14.724;13.181
2023-01-31 06:16:51;d;0.93
2023-01-31 06:31:53;v;3.91
2023-01-31 06:31:53;h1;1;0.233;0.037;28.91;13.901;14.724;13.181
2023-01-31 06:31:53;d;0.93
2023-01-31 06:46:50;v;3.91
2023-01-31 06:46:50;h1;1;0.233;0.037;28.91;13.901;14.724;13.181
2023-01-31 06:46:50;d;0.93
2023-01-31 07:01:53;v;3.91
2023-01-31 07:01:53;h1;1;0.233;0.037;28.91;13.901;14.724;13.181
2023-01-31 07:01:53;d;0.93
2023-01-31 07:16:50;v;3.91
2023-01-31 07:16:50;h1;1;0.233;0.037;28.91;13.901;14.724;13.181
2023-01-31 07:16:50;d;0.93
2023-01-31 07:31:53;v;3.91
2023-01-31 07:31:53;h1;1;0.233;0.037;28.91;13.901;14.724;13.181
2023-01-31 07:31:53;d;0.93
2023-01-31 07:46:52;v;3.92
2023-01-31 07:46:52;h1;1;0.233;0.037;28.91;13.901;14.724;13.181
2023-01-31 07:46:52;d;0.93
2023-01-31 08:01:51;v;3.92
2023-01-31 08:01:51;h1;1;0.233;0.037;28.91;13.901;14.724;13.181
2023-01-31 08:01:51;d;0.93
2023-01-31 08:16:51;v;3.92
2023-01-31 08:16:51;h1;1;0.233;0.037;28.91;13.901;14.724;13.181
2023-01-31 08:16:51;d;0.93
2023-01-31 08:31:56;v;3.92
2023-01-31 08:31:56;h1;1;0.233;0.037;28.91;13.901;14.724;13.181
2023-01-31 08:31:56;d;0.93
2023-01-31 08:46:52;v;3.92
2023-01-31 08:46:52;h1;1;0.233;0.037;28.91;13.901;14.724;13.181
2023-01-31 08:46:52;d;0.93
2023-01-31 09:01:54;v;3.93
2023-01-31 09:01:54;h1;1;0.233;0.037;28.91;13.901;14.724;13.181
2023-01-31 09:01:54;d;0.93
2023-01-31 09:16:55;v;3.93
2023-01-31 09:16:55;h1;1;0.233;0.037;28.91;13.901;14.724;13.181
2023-01-31 09:16:55;d;0.93
2023-01-31 09:31:58;v;3.93
2023-01-31 09:31:58;h1;1;0.233;0.037;28.91;13.901;14.724;13.181
2023-01-31 09:31:58;d;0.93
2023-01-31 09:46:56;v;3.93
2023-01-31 09:46:56;h1;1;0.233;0.037;28.91;13.901;14.724;13.181
2023-01-31 09:46:56;d;0.93
2023-01-31 10:01:54;v;3.93
2023-01-31 10:01:54;h1;1;0.233;0.037;28.91;13.901;14.724;13.181
2023-01-31 10:01:54;d;0.93
2023-01-31 10:16:58;v;3.93
2023-01-31 10:16:58;h1;1;0.233;0.037;28.91;13.901;14.724;13.181
2023-01-31 10:16:58;d;0.93
2023-01-31 10:31:57;v;3.93
2023-01-31 10:31:57;h1;1;0.233;0.037;28.91;13.901;14.724;13.181
2023-01-31 10:31:57;d;0.93
2023-01-31 10:46:57;v;3.93
2023-01-31 10:46:57;h1;1;0.233;0.037;28.91;13.901;14.724;13.181
2023-01-31 10:46:57;d;0.93
2023-01-31 11:01:58;v;3.93
2023-01-31 11:01:58;h1;1;0.233;0.037;28.91;13.901;14.724;13.181
2023-01-31 11:01:58;d;0.93
2023-01-31 11:16:59;v;3.93
2023-01-31 11:16:59;h1;1;0.233;0.037;28.91;13.901;14.724;13.181
2023-01-31 11:16:59;d;0.93
2023-01-31 11:32:01;v;3.93
2023-01-31 11:32:01;h1;1;0.233;0.037;28.91;13.901;14.724;13.181
2023-01-31 11:32:01;d;0.93
2023-01-31 11:46:58;v;3.93
2023-01-31 11:46:58;h1;1;0.233;0.037;28.91;13.901;14.724;13.181
2023-01-31 11:46:58;d;0.93
2023-01-31 12:02:00;v;3.93
2023-01-31 12:02:00;h1;1;0.233;0.037;28.91;13.901;14.724;13.181
2023-01-31 12:02:00;d;0.93
2023-01-31 12:16:57;v;3.93
2023-01-31 12:16:57;h1;1;0.233;0.037;28.91;13.901;14.724;13.181
2023-01-31 12:16:57;d;0.93
2023-01-31 12:31:59;v;3.93
2023-01-31 12:31:59;h1;1;0.233;0.037;28.91;13.901;14.724;13.181
2023-01-31 12:31:59;d;0.93
2023-01-31 12:47:01;v;3.93
2023-01-31 12:47:01;h1;1;0.233;0.037;28.91;13.901;14.724;13.181
2023-01-31 12:47:01;d;0.93
2023-01-31 13:01:59;v;3.93
2023-01-31 13:01:59;h1;1;0.233;0.037;28.91;13.901;14.724;13.181
2023-01-31 13:01:59;d;0.93
2023-01-31 13:17:01;v;3.93
2023-01-31 13:17:01;h1;1;0.233;0.037;28.91;13.901;14.724;13.181
2023-01-31 13:17:01;d;0.93
2023-01-31 13:31:59;v;3.94
2023-01-31 13:31:59;h1;1;0.233;0.037;28.91;13.901;14.724;13.181
2023-01-31 13:31:59;d;0.93
2023-01-31 13:47:02;v;3.94
2023-01-31 13:47:02;h1;1;0.233;0.037;28.91;13.901;14.724;13.181
2023-01-31 13:47:02;d;0.93
2023-01-31 14:02:00;v;3.94
2023-01-31 14:02:00;h1;1;0.233;0.037;28.91;13.901;14.724;13.181
2023-01-31 14:02:00;d;0.93
2023-01-31 14:16:57;v;3.94
2023-01-31 14:16:57;h1;1;0.233;0.037;28.91;13.901;14.724;13.181
2023-01-31 14:16:57;d;0.93
2023-01-31 14:31:59;v;3.94
2023-01-31 14:31:59;h1;1;0.233;0.037;28.91;13.901;14.724;13.181
2023-01-31 14:31:59;d;0.93
2023-01-31 14:47:02;v;3.94
2023-01-31 14:47:02;h1;1;0.233;0.037;28.91;13.901;14.724;13.181
2023-01-31 14:47:02;d;0.93
2023-01-31 15:02:00;v;3.94
2023-01-31 15:02:00;h1;1;0.233;0.037;28.91;13.901;14.724;13.181
2023-01-31 15:02:00;d;0.93
2023-01-31 15:16:57;v;3.94
2023-01-31 15:16:57;h1;1;0.233;0.037;28.91;13.901;14.724;13.181
2023-01-31 15:16:57;d;0.93
2023-01-31 15:32:00;v;3.94
2023-01-31 15:32:00;h1;1;0.233;0.037;28.91;13.901;14.724;13.181
2023-01-31 15:32:00;d;0.93
2023-01-31 15:46:57;v;3.94
2023-01-31 15:46:57;h1;1;0.233;0.037;28.91;13.901;14.724;13.181
2023-01-31 15:46:57;d;0.93
2023-01-31 16:02:00;v;3.94
2023-01-31 16:02:00;h1;1;0.233;0.037;28.91;13.901;14.724;13.181
2023-01-31 16:02:00;d;0.93
2023-01-31 16:16:57;v;3.94
2023-01-31 16:16:57;h1;1;0.233;0.037;28.91;13.901;14.724;13.181
2023-01-31 16:16:57;d;0.93
2023-01-31 16:32:00;v;3.94
2023-01-31 16:32:00;h1;1;0.233;0.037;28.91;13.901;14.724;13.181
2023-01-31 16:32:00;d;0.93
2023-01-31 16:46:57;v;3.94
2023-01-31 16:46:57;h1;1;0.233;0.037;28.91;13.901;14.724;13.181
2023-01-31 16:46:57;d;0.93
2023-01-31 17:01:59;v;3.94
2023-01-31 17:01:59;h1;1;0.233;0.037;28.91;13.901;14.724;13.181
2023-01-31 17:01:59;d;0.93
2023-01-31 17:17:01;v;3.94
2023-01-31 17:17:01;h1;1;0.233;0.037;28.91;13.901;14.724;13.181
2023-01-31 17:17:01;d;0.93
2023-01-31 17:31:58;v;3.94
2023-01-31 17:31:58;h1;1;0.233;0.037;28.91;13.901;14.724;13.181
2023-01-31 17:31:58;d;0.93
2023-01-31 17:47:00;v;3.94
2023-01-31 17:47:00;h1;1;0.233;0.037;28.91;13.901;14.724;13.181
2023-01-31 17:47:00;d;0.93
2023-01-31 18:01:57;v;3.94
2023-01-31 18:01:57;h1;1;0.233;0.037;28.91;13.901;14.724;13.181
2023-01-31 18:01:57;d;0.93
2023-01-31 18:16:58;v;3.94
2023-01-31 18:16:58;h1;1;0.233;0.037;28.91;13.901;14.724;13.181
2023-01-31 18:16:58;d;0.93
2023-01-31 18:31:59;v;3.94
2023-01-31 18:31:59;h1;1;0.233;0.037;28.91;13.901;14.724;13.181
2023-01-31 18:31:59;d;0.93
2023-01-31 18:47:00;v;3.94
2023-01-31 18:47:00;h1;1;0.233;0.037;28.91;13.901;14.724;13.181
2023-01-31 18:47:00;d;0.93
2023-01-31 19:01:56;v;3.94
2023-01-31 19:01:56;h1;1;0.233;0.037;28.91;13.901;14.724;13.181
2023-01-31 19:01:56;d;0.93
2023-01-31 19:16:56;v;3.93
2023-01-31 19:16:56;h1;1;0.233;0.037;28.91;13.901;14.724;13.181
2023-01-31 19:16:56;d;0.93
2023-01-31 19:31:56;v;3.93
2023-01-31 19:31:56;h1;1;0.233;0.037;28.91;13.901;14.724;13.181
2023-01-31 19:31:56;d;0.93
2023-01-31 19:46:55;v;3.93
2023-01-31 19:46:55;h1;1;0.233;0.037;28.91;13.901;14.724;13.181
2023-01-31 19:46:55;d;0.93
2023-01-31 20:01:58;v;3.93
2023-01-31 20:01:58;h1;1;0.233;0.037;28.91;13.901;14.724;13.181
2023-01-31 20:01:58;d;0.93
2023-01-31 20:16:56;v;3.93
2023-01-31 20:16:56;h1;1;0.233;0.037;28.91;13.901;14.724;13.181
2023-01-31 20:16:56;d;0.93
2023-01-31 20:31:53;v;3.93
2023-01-31 20:31:53;h1;1;0.233;0.037;28.91;13.901;14.724;13.181
2023-01-31 20:31:53;d;0.93
2023-01-31 20:46:54;v;3.93
2023-01-31 20:46:54;h1;1;0.233;0.037;28.91;13.901;14.724;13.181
2023-01-31 20:46:54;d;0.93
2023-01-31 21:01:55;v;3.93
2023-01-31 21:01:55;h1;1;0.233;0.037;28.91;13.901;14.724;13.181
2023-01-31 21:01:55;d;0.93
2023-01-31 21:16:55;v;3.93
2023-01-31 21:16:55;h1;1;0.233;0.037;28.91;13.901;14.724;13.181
2023-01-31 21:16:55;d;0.93
2023-01-31 21:31:55;v;3.93
2023-01-31 21:31:55;h1;1;0.233;0.037;28.91;13.901;14.724;13.181
2023-01-31 21:31:55;d;0.93
2023-01-31 21:46:55;v;3.93
2023-01-31 21:46:55;h1;1;0.233;0.037;28.91;13.901;14.724;13.181
2023-01-31 21:46:55;d;0.93
2023-01-31 22:01:55;v;3.93
2023-01-31 22:01:55;h1;1;0.233;0.037;28.91;13.901;14.724;13.181
2023-01-31 22:01:55;d;0.93
2023-01-31 22:16:54;v;3.93
2023-01-31 22:16:54;h1;1;0.233;0.037;28.91;13.901;14.724;13.181
2023-01-31 22:16:54;d;0.93
2023-01-31 22:31:54;v;3.93
2023-01-31 22:31:54;h1;1;0.233;0.037;28.91;13.901;14.724;13.181
2023-01-31 22:31:54;d;0.93
2023-01-31 22:46:53;v;3.92
2023-01-31 22:46:53;h1;1;0.233;0.037;28.91;13.901;14.724;13.181
2023-01-31 22:46:53;d;0.93
2023-01-31 23:01:52;v;3.92
2023-01-31 23:01:52;h1;1;0.233;0.037;28.91;13.901;14.724;13.181
2023-01-31 23:01:52;d;0.93
2023-01-31 23:16:52;v;3.92
2023-01-31 23:16:52;h1;1;0.233;0.037;28.91;13.901;14.724;13.181
2023-01-31 23:16:52;d;0.93
2023-01-31 23:31:51;v;3.92
2023-01-31 23:31:51;h1;1;0.233;0.037;28.91;13.901;14.724;13.181
2023-01-31 23:31:51;d;0.93
2023-01-31 23:46:55;v;3.92
2023-01-31 23:46:55;h1;1;0.233;0.037;28.91;13.901;14.724;13.181
2023-01-31 23:46:55;d;0.93
