2022-04-03 00:00:37;3.73;3.54
2022-04-03 00:05:38;3.73;3.54
2022-04-03 00:10:35;3.73;3.54
2022-04-03 00:15:36;3.73;3.54
2022-04-03 00:20:38;3.73;3.54
2022-04-03 00:25:35;3.73;3.54
2022-04-03 00:30:36;3.73;3.54
2022-04-03 00:35:38;3.73;3.54
2022-04-03 00:40:35;3.73;3.54
2022-04-03 00:45:36;3.73;3.54
2022-04-03 00:50:37;3.73;3.54
2022-04-03 00:55:34;3.73;3.54
2022-04-03 01:00:36;3.73;3.87
2022-04-03 01:05:37;3.73;3.54
2022-04-03 01:10:39;3.73;3.54
2022-04-03 01:15:35;3.73;3.54
2022-04-03 01:20:37;3.73;3.54
2022-04-03 01:25:38;3.73;3.87
2022-04-03 01:30:35;3.73;3.87
2022-04-03 01:35:37;3.73;3.87
2022-04-03 01:40:38;3.73;3.38
2022-04-03 01:45:35;3.73;3.54
2022-04-03 01:50:36;3.73;3.54
2022-04-03 01:55:38;3.73;3.38
2022-04-03 02:00:35;3.73;3.54
2022-04-03 02:05:36;3.73;3.87
2022-04-03 02:10:38;3.73;3.54
2022-04-03 02:15:34;3.73;3.54
2022-04-03 02:20:36;3.73;3.38
2022-04-03 02:25:37;3.73;3.38
2022-04-03 02:30:39;3.73;3.38
2022-04-03 02:35:36;3.73;3.54
2022-04-03 02:40:37;3.73;3.38
2022-04-03 02:45:38;3.73;3.87
2022-04-03 02:50:35;3.73;3.38
2022-04-03 02:55:37;3.73;3.54
2022-04-03 03:00:38;3.73;3.54
2022-04-03 03:05:35;3.73;3.54
2022-04-03 03:10:36;3.73;3.54
2022-04-03 03:15:38;3.73;3.38
2022-04-03 03:20:35;3.73;3.38
2022-04-03 03:25:36;3.73;3.38
2022-04-03 03:30:38;3.73;3.38
2022-04-03 03:35:34;3.73;3.38
2022-04-03 03:40:36;3.73;3.54
2022-04-03 03:45:37;3.73;3.38
2022-04-03 03:50:39;3.73;3.54
2022-04-03 03:55:35;3.72;3.38
2022-04-03 04:00:37;3.72;3.38
2022-04-03 04:05:38;3.72;3.38
2022-04-03 04:10:35;3.72;3.87
2022-04-03 04:15:37;3.73;3.87
2022-04-03 04:20:38;3.72;3.87
2022-04-03 04:25:35;3.72;3.87
2022-04-03 04:30:36;3.72;3.87
2022-04-03 04:35:38;3.72;3.54
2022-04-03 04:40:34;3.72;3.87
2022-04-03 04:45:36;3.72;3.54
2022-04-03 04:50:37;3.72;3.87
2022-04-03 04:55:39;3.72;3.54
2022-04-03 05:00:35;3.72;3.54
2022-04-03 05:05:37;3.72;3.87
2022-04-03 05:10:38;3.72;3.54
2022-04-03 05:15:35;3.72;3.87
2022-04-03 05:20:36;3.72;3.54
2022-04-03 05:25:38;3.72;3.87
2022-04-03 05:30:35;3.72;3.54
2022-04-03 05:35:36;3.72;3.54
2022-04-03 05:40:38;3.72;3.54
2022-04-03 05:45:34;3.72;3.54
2022-04-03 05:50:36;3.72;3.54
2022-04-03 05:55:37;3.72;3.87
2022-04-03 06:00:39;3.72;3.54
2022-04-03 06:05:35;3.72;3.54
2022-04-03 06:10:37;3.72;3.54
2022-04-03 06:15:38;3.72;3.87
2022-04-03 06:20:35;3.72;3.87
2022-04-03 06:25:37;3.72;3.87
2022-04-03 06:30:38;3.72;3.87
2022-04-03 06:35:35;3.72;3.54
2022-04-03 06:40:36;3.72;3.54
2022-04-03 06:45:38;3.72;3.54
2022-04-03 06:50:34;3.72;3.54
2022-04-03 06:55:36;3.72;3.87
2022-04-03 07:00:37;3.72;3.87
2022-04-03 07:05:34;3.72;3.87
2022-04-03 07:10:36;3.72;3.87
2022-04-03 07:15:37;3.72;3.87
2022-04-03 07:20:38;3.72;3.54
2022-04-03 07:25:35;3.72;3.87
2022-04-03 07:30:37;3.72;3.54
2022-04-03 07:35:38;3.72;3.54
2022-04-03 07:40:35;3.72;3.87
2022-04-03 07:45:36;3.72;3.54
2022-04-03 07:50:38;3.72;3.87
2022-04-03 07:55:35;3.72;3.54
2022-04-03 08:00:36;3.72;3.54
2022-04-03 08:05:37;3.72;3.87
2022-04-03 08:10:34;3.72;3.87
2022-04-03 08:15:36;3.72;3.54
2022-04-03 08:20:37;3.72;3.54
2022-04-03 08:25:38;3.72;3.54
2022-04-03 08:30:35;3.72;3.87
2022-04-03 08:35:37;3.72;3.54
2022-04-03 08:40:38;3.72;3.54
2022-04-03 08:45:35;3.72;3.54
2022-04-03 08:50:36;3.72;3.54
2022-04-03 08:55:38;3.72;3.54
2022-04-03 09:00:35;3.72;3.87
2022-04-03 09:05:36;3.72;3.54
2022-04-03 09:10:38;3.72;3.87
2022-04-03 09:15:34;3.72;3.87
2022-04-03 09:20:36;3.72;3.54
2022-04-03 09:25:37;3.72;3.87
2022-04-03 09:30:39;3.72;3.54
2022-04-03 09:35:36;3.72;3.54
2022-04-03 09:40:37;3.72;3.87
2022-04-03 09:45:38;3.72;3.54
2022-04-03 09:50:35;3.72;3.54
2022-04-03 09:55:37;3.72;3.87
2022-04-03 10:00:38;3.72;3.87
2022-04-03 10:05:35;3.72;3.54
2022-04-03 10:10:37;3.72;3.87
2022-04-03 10:15:38;3.72;3.87
2022-04-03 10:20:35;3.72;3.87
2022-04-03 10:25:36;3.72;3.54
2022-04-03 10:30:38;3.72;3.54
2022-04-03 10:35:35;3.72;3.54
2022-04-03 10:40:36;3.72;3.54
2022-04-03 10:45:38;3.72;3.87
2022-04-03 10:50:34;3.72;3.87
2022-04-03 10:55:36;3.72;3.54
2022-04-03 11:00:37;3.72;3.87
2022-04-03 11:05:34;3.72;3.54
2022-04-03 11:10:36;3.72;3.54
2022-04-03 11:15:37;3.72;3.87
2022-04-03 11:20:39;3.72;3.87
2022-04-03 11:25:36;3.72;3.54
2022-04-03 11:30:37;3.72;3.54
2022-04-03 11:35:39;3.72;3.38
2022-04-03 11:40:35;3.72;3.38
2022-04-03 11:45:37;3.72;3.54
2022-04-03 11:50:38;3.72;3.54
2022-04-03 11:55:35;3.72;3.38
2022-04-03 12:00:37;3.72;3.38
2022-04-03 12:05:38;3.72;3.38
2022-04-03 12:10:35;3.72;3.38
2022-04-03 12:15:37;3.72;3.54
2022-04-03 12:20:38;3.72;3.38
2022-04-03 12:25:35;3.72;3.38
2022-04-03 12:30:37;3.72;3.54
2022-04-03 12:35:38;3.72;3.54
2022-04-03 12:40:35;3.72;3.38
2022-04-03 12:45:37;3.72;3.54
2022-04-03 12:50:38;3.72;3.54
2022-04-03 12:55:35;3.72;3.54
2022-04-03 13:00:36;3.72;3.87
2022-04-03 13:05:38;3.72;3.38
2022-04-03 13:10:35;3.71;3.87
2022-04-03 13:15:36;3.72;3.87
2022-04-03 13:20:38;3.71;3.54
2022-04-03 13:25:35;3.72;3.54
2022-04-03 13:30:36;3.72;3.54
2022-04-03 13:35:38;3.71;3.54
2022-04-03 13:40:35;3.71;3.54
2022-04-03 13:45:36;3.71;3.54
2022-04-03 13:50:38;3.71;3.87
2022-04-03 13:55:35;3.71;3.87
2022-04-03 14:00:36;3.71;3.54
2022-04-03 14:05:38;3.71;3.54
2022-04-03 14:10:35;3.71;3.87
2022-04-03 14:15:36;3.71;3.87
2022-04-03 14:20:38;3.71;3.87
2022-04-03 14:25:35;3.71;3.54
2022-04-03 14:30:36;3.71;3.87
2022-04-03 14:35:38;3.71;3.87
2022-04-03 14:40:35;3.71;3.54
2022-04-03 14:45:36;3.71;3.54
2022-04-03 14:50:38;3.71;3.54
2022-04-03 14:55:35;3.71;3.87
2022-04-03 15:00:36;3.71;3.54
2022-04-03 15:05:38;3.71;3.54
2022-04-03 15:10:35;3.71;3.54
2022-04-03 15:15:36;3.71;3.54
2022-04-03 15:20:38;3.71;3.38
2022-04-03 15:25:35;3.71;3.38
2022-04-03 15:30:37;3.71;3.54
2022-04-03 15:35:38;3.71;3.87
2022-04-03 15:40:35;3.71;3.54
2022-04-03 15:45:37;3.71;3.38
2022-04-03 15:50:38;3.71;3.54
2022-04-03 15:55:35;3.71;3.54
2022-04-03 16:00:37;3.71;3.87
2022-04-03 16:05:39;3.71;3.54
2022-04-03 16:10:36;3.71;3.54
2022-04-03 16:15:37;3.71;3.87
2022-04-03 16:20:39;3.71;3.54
2022-04-03 16:25:36;3.71;3.87
2022-04-03 16:30:38;3.71;3.87
2022-04-03 16:35:35;3.71;3.87
2022-04-03 16:40:36;3.71;3.87
2022-04-03 16:45:38;3.71;3.54
2022-04-03 16:50:35;3.71;3.54
2022-04-03 16:55:37;3.71;3.87
2022-04-03 17:00:38;3.71;3.54
2022-04-03 17:05:35;3.71;3.87
2022-04-03 17:10:37;3.71;3.54
2022-04-03 17:15:39;3.71;3.54
2022-04-03 17:20:36;3.71;3.87
2022-04-03 17:25:37;3.71;3.54
2022-04-03 17:30:39;3.71;3.87
2022-04-03 17:35:36;3.71;3.54
2022-04-03 17:40:38;3.71;3.38
2022-04-03 17:45:35;3.71;3.54
2022-04-03 17:50:36;3.71;3.54
2022-04-03 17:55:38;3.71;3.54
2022-04-03 18:00:35;3.71;3.54
2022-04-03 18:05:37;3.71;3.87
2022-04-03 18:10:38;3.71;3.54
2022-04-03 18:15:35;3.71;3.54
2022-04-03 18:20:37;3.71;3.38
2022-04-03 18:25:39;3.71;3.54
2022-04-03 18:30:36;3.71;3.38
2022-04-03 18:35:38;3.71;3.54
2022-04-03 18:40:35;3.71;3.38
2022-04-03 18:45:36;3.71;3.38
2022-04-03 18:50:38;3.71;3.38
2022-04-03 18:55:35;3.71;3.38
2022-04-03 19:00:37;3.71;3.38
2022-04-03 19:05:38;3.71;3.38
2022-04-03 19:10:35;3.71;3.38
2022-04-03 19:15:37;3.71;3.54
2022-04-03 19:20:39;3.71;3.87
2022-04-03 19:25:36;3.71;3.87
2022-04-03 19:30:37;3.71;3.87
2022-04-03 19:35:35;3.71;3.38
2022-04-03 19:40:36;3.71;3.87
2022-04-03 19:45:38;3.71;3.87
2022-04-03 19:50:35;3.71;3.54
2022-04-03 19:55:37;3.71;3.54
2022-04-03 20:00:38;3.71;3.54
2022-04-03 20:05:35;3.71;3.87
2022-04-03 20:10:37;3.71;3.54
2022-04-03 20:15:39;3.71;3.54
2022-04-03 20:20:36;3.71;3.87
2022-04-03 20:25:37;3.71;3.54
2022-04-03 20:30:34;3.71;3.54
2022-04-03 20:35:36;3.71;3.54
2022-04-03 20:40:38;3.71;3.87
2022-04-03 20:45:35;3.71;3.87
2022-04-03 20:50:36;3.71;3.87
2022-04-03 20:55:38;3.71;3.54
2022-04-03 21:00:35;3.71;3.87
2022-04-03 21:05:37;3.71;3.87
2022-04-03 21:10:38;3.71;3.87
2022-04-03 21:15:36;3.71;3.54
2022-04-03 21:20:37;3.71;3.54
2022-04-03 21:25:39;3.71;3.54
2022-04-03 21:30:36;3.71;3.54
2022-04-03 21:35:38;3.71;3.54
2022-04-03 21:40:35;3.71;3.87
2022-04-03 21:45:36;3.71;3.87
2022-04-03 21:50:38;3.71;3.87
2022-04-03 21:55:35;3.71;3.87
2022-04-03 22:00:37;3.71;3.54
2022-04-03 22:05:38;3.71;3.54
2022-04-03 22:10:35;3.71;3.54
2022-04-03 22:15:37;3.71;3.54
2022-04-03 22:20:39;3.71;3.87
2022-04-03 22:25:36;3.71;3.87
2022-04-03 22:30:37;3.71;3.54
2022-04-03 22:35:39;3.71;3.54
2022-04-03 22:40:36;3.70;3.54
2022-04-03 22:45:37;3.71;3.54
2022-04-03 22:50:35;3.70;3.38
2022-04-03 22:55:36;3.70;3.54
2022-04-03 23:00:38;3.70;3.38
2022-04-03 23:05:35;3.70;3.54
2022-04-03 23:10:36;3.70;3.87
2022-04-03 23:15:38;3.70;3.38
2022-04-03 23:20:35;3.70;3.87
2022-04-03 23:25:37;3.70;3.38
2022-04-03 23:30:38;3.70;3.38
2022-04-03 23:35:35;3.70;3.54
2022-04-03 23:40:37;3.70;3.87
2022-04-03 23:45:39;3.70;3.87
2022-04-03 23:50:36;3.70;3.54
2022-04-03 23:55:37;3.70;3.54
