2022-04-07 00:00:36;4.18;3.87
2022-04-07 00:05:38;4.18;3.54
2022-04-07 00:10:35;4.18;3.54
2022-04-07 00:15:37;4.18;3.54
2022-04-07 00:20:39;4.19;3.87
2022-04-07 00:25:36;4.18;3.54
2022-04-07 00:30:38;4.18;3.54
2022-04-07 00:35:35;4.19;3.87
2022-04-07 00:40:37;4.19;3.54
2022-04-07 00:45:39;4.18;3.87
2022-04-07 00:50:36;4.18;3.87
2022-04-07 00:55:38;4.18;3.54
2022-04-07 01:00:36;4.18;3.54
2022-04-07 01:05:37;4.18;3.87
2022-04-07 01:10:35;4.18;3.87
2022-04-07 01:15:37;4.18;3.87
2022-04-07 01:20:39;4.19;3.87
2022-04-07 01:25:36;4.18;3.54
2022-04-07 01:30:38;4.18;3.87
2022-04-07 01:35:35;4.19;3.87
2022-04-07 01:40:37;4.19;3.54
2022-04-07 01:45:39;4.19;3.87
2022-04-07 01:50:36;4.18;3.54
2022-04-07 01:55:38;4.19;3.54
2022-04-07 02:00:35;4.18;3.54
2022-04-07 02:05:37;4.18;3.87
2022-04-07 02:10:39;4.18;3.87
2022-04-07 02:15:36;4.19;4.19
2022-04-07 02:20:38;4.18;3.87
2022-04-07 02:25:35;4.19;3.87
2022-04-07 02:30:37;4.18;3.87
2022-04-07 02:35:39;4.18;3.87
2022-04-07 02:40:36;4.18;3.87
2022-04-07 02:45:38;4.18;3.54
2022-04-07 02:50:36;4.18;3.54
2022-04-07 02:55:37;4.18;3.54
2022-04-07 03:00:35;4.18;3.54
2022-04-07 03:05:37;4.18;3.54
2022-04-07 03:10:38;4.18;3.87
2022-04-07 03:15:36;4.18;3.54
2022-04-07 03:20:38;4.18;3.54
2022-04-07 03:25:35;4.18;3.54
2022-04-07 03:30:37;4.19;3.54
2022-04-07 03:35:39;4.19;3.54
2022-04-07 03:40:36;4.19;3.54
2022-04-07 03:45:38;4.19;3.87
2022-04-07 03:50:35;4.19;3.87
2022-04-07 03:55:37;4.18;3.54
2022-04-07 04:00:39;4.18;3.54
2022-04-07 04:05:36;4.18;3.54
2022-04-07 04:10:38;4.18;3.87
2022-04-07 04:15:35;4.18;3.54
2022-04-07 04:20:37;4.18;3.87
2022-04-07 04:25:39;4.18;3.87
2022-04-07 04:30:36;4.18;3.54
2022-04-07 04:35:38;4.19;3.54
2022-04-07 04:40:35;4.18;3.87
2022-04-07 04:45:37;4.18;3.87
2022-04-07 04:50:39;4.19;3.54
2022-04-07 04:55:36;4.18;3.54
2022-04-07 05:00:38;4.18;3.54
2022-04-07 05:05:35;4.18;3.54
2022-04-07 05:10:37;4.19;3.54
2022-04-07 05:15:39;4.19;3.54
2022-04-07 05:20:36;4.18;3.87
2022-04-07 05:25:38;4.18;3.54
2022-04-07 05:30:35;4.19;3.87
2022-04-07 05:35:37;4.19;3.87
2022-04-07 05:40:39;4.18;3.54
2022-04-07 05:45:36;4.19;3.54
2022-04-07 05:50:38;4.19;3.54
2022-04-07 05:55:35;4.18;3.87
2022-04-07 06:00:37;4.18;3.87
2022-04-07 06:05:39;4.19;3.38
2022-04-07 06:10:36;4.18;3.54
2022-04-07 06:15:38;4.18;3.38
2022-04-07 06:20:35;4.18;3.54
2022-04-07 06:25:37;4.19;3.54
2022-04-07 06:30:39;4.19;3.87
2022-04-07 06:35:36;4.18;3.54
2022-04-07 06:40:38;4.18;3.54
2022-04-07 06:45:35;4.18;3.54
2022-04-07 06:50:37;4.18;3.54
2022-04-07 06:55:38;4.19;3.87
2022-04-07 07:00:36;4.18;3.54
2022-04-07 07:05:38;4.18;3.87
2022-04-07 07:10:35;4.19;3.54
2022-04-07 07:15:37;4.18;3.87
2022-04-07 07:20:38;4.18;3.38
2022-04-07 07:25:36;4.19;3.54
2022-04-07 07:30:37;4.19;3.38
2022-04-07 07:35:35;4.19;3.54
2022-04-07 07:40:37;4.19;3.54
2022-04-07 07:45:38;4.18;3.54
2022-04-07 07:50:36;4.18;3.38
2022-04-07 07:55:37;4.18;3.38
2022-04-07 08:00:35;4.19;3.54
2022-04-07 08:05:36;4.18;3.54
2022-04-07 08:10:38;4.18;3.54
2022-04-07 08:15:35;4.18;3.87
2022-04-07 08:20:37;4.18;3.54
2022-04-07 08:25:39;4.18;3.87
2022-04-07 08:30:36;4.18;3.54
2022-04-07 08:35:38;4.18;3.38
2022-04-07 08:40:35;4.19;3.38
2022-04-07 08:45:37;4.18;3.54
2022-04-07 08:50:39;4.18;3.38
2022-04-07 08:55:36;4.18;3.54
2022-04-07 09:00:38;4.19;3.54
2022-04-07 09:05:35;4.18;3.87
2022-04-07 09:10:37;4.19;3.38
2022-04-07 09:15:39;4.19;3.54
2022-04-07 09:20:36;4.19;3.54
2022-04-07 09:25:38;4.18;3.54
2022-04-07 09:30:35;4.19;3.54
2022-04-07 09:35:37;4.18;3.54
2022-04-07 09:40:39;4.18;3.38
2022-04-07 09:45:36;4.19;3.38
2022-04-07 09:50:38;4.18;3.54
2022-04-07 09:55:35;4.18;3.38
2022-04-07 10:00:37;4.18;3.54
2022-04-07 10:05:39;4.18;3.54
2022-04-07 10:10:36;4.18;3.38
2022-04-07 10:15:38;4.18;3.38
2022-04-07 10:20:35;4.18;3.38
2022-04-07 10:25:37;4.18;3.38
2022-04-07 10:30:39;4.18;3.38
2022-04-07 10:35:36;4.18;3.54
2022-04-07 10:40:38;4.19;3.54
2022-04-07 10:45:35;4.18;3.54
2022-04-07 10:50:37;4.19;3.54
2022-04-07 10:55:39;4.18;3.38
2022-04-07 11:00:36;4.18;3.54
2022-04-07 11:05:38;4.19;3.54
2022-04-07 11:10:35;4.19;3.38
2022-04-07 11:15:37;4.19;3.38
2022-04-07 11:20:39;4.19;3.54
2022-04-07 11:25:36;4.19;3.54
2022-04-07 11:30:38;4.19;3.54
2022-04-07 11:35:35;4.18;3.38
2022-04-07 11:40:37;4.19;3.38
2022-04-07 11:45:39;4.18;3.38
2022-04-07 11:50:36;4.19;3.54
2022-04-07 11:55:38;4.18;3.38
2022-04-07 12:00:35;4.18;3.54
2022-04-07 12:05:37;4.19;3.38
2022-04-07 12:10:39;4.18;3.38
2022-04-07 12:15:36;4.18;3.87
2022-04-07 12:20:38;4.19;3.38
2022-04-07 12:25:35;4.18;3.54
2022-04-07 12:30:37;4.18;3.38
2022-04-07 12:35:39;4.18;3.38
2022-04-07 12:40:36;4.18;3.87
2022-04-07 12:45:38;4.18;3.54
2022-04-07 12:50:35;4.18;3.54
2022-04-07 12:55:37;4.18;3.38
2022-04-07 13:00:39;4.19;3.87
2022-04-07 13:05:36;4.18;3.54
2022-04-07 13:10:38;4.19;3.54
2022-04-07 13:15:35;4.19;3.38
2022-04-07 13:20:37;4.18;3.54
2022-04-07 13:25:39;4.19;3.38
2022-04-07 13:30:36;4.18;3.54
2022-04-07 13:35:38;4.19;3.54
2022-04-07 13:40:35;4.19;3.38
2022-04-07 13:45:37;4.19;3.87
2022-04-07 13:50:39;4.19;3.54
2022-04-07 13:55:36;4.18;3.87
2022-04-07 14:00:38;4.19;3.54
2022-04-07 14:05:36;4.18;3.87
2022-04-07 14:10:37;4.18;3.54
2022-04-07 14:15:35;4.18;3.87
2022-04-07 14:20:37;4.19;3.87
2022-04-07 14:25:38;4.18;3.87
2022-04-07 14:30:36;4.18;3.54
2022-04-07 14:35:38;4.18;3.54
2022-04-07 14:40:35;4.18;3.54
2022-04-07 14:45:37;4.18;3.54
2022-04-07 14:50:39;4.18;3.87
2022-04-07 14:55:36;4.18;3.54
2022-04-07 15:00:38;4.19;3.87
2022-04-07 15:05:35;4.19;3.87
2022-04-07 15:10:37;4.18;3.87
2022-04-07 15:15:39;4.18;3.54
2022-04-07 15:20:36;4.18;3.54
2022-04-07 15:25:38;4.18;3.54
2022-04-07 15:30:36;4.18;3.87
2022-04-07 15:35:37;4.18;3.54
2022-04-07 15:40:35;4.18;3.87
2022-04-07 15:45:37;4.18;3.54
2022-04-07 15:50:39;4.18;3.54
2022-04-07 15:55:36;4.19;3.87
2022-04-07 16:00:38;4.19;3.54
2022-04-07 16:05:35;4.18;3.54
2022-04-07 16:10:37;4.19;3.87
2022-04-07 16:15:39;4.18;3.87
2022-04-07 16:20:36;4.18;3.87
2022-04-07 16:25:38;4.18;3.54
2022-04-07 16:30:35;4.19;3.87
2022-04-07 16:35:37;4.19;3.54
2022-04-07 16:40:39;4.19;3.54
2022-04-07 16:45:36;4.18;3.54
2022-04-07 16:50:38;4.18;3.87
2022-04-07 16:55:36;4.18;3.54
2022-04-07 17:00:37;4.18;3.87
2022-04-07 17:05:35;4.18;3.54
2022-04-07 17:10:37;4.18;3.87
2022-04-07 17:15:39;4.18;3.87
2022-04-07 17:20:36;4.18;3.87
2022-04-07 17:25:38;4.19;3.87
2022-04-07 17:30:35;4.18;3.87
2022-04-07 17:35:37;4.18;3.54
2022-04-07 17:40:39;4.19;3.54
2022-04-07 17:45:36;4.19;3.87
2022-04-07 17:50:38;4.19;3.87
2022-04-07 17:55:35;4.19;4.19
2022-04-07 18:00:37;4.18;3.87
2022-04-07 18:05:35;4.18;3.54
2022-04-07 18:10:37;4.18;4.19
2022-04-07 18:15:39;4.18;3.54
2022-04-07 18:20:36;4.19;3.54
2022-04-07 18:25:38;4.19;3.87
2022-04-07 18:30:35;4.18;3.87
2022-04-07 18:35:37;4.18;3.38
2022-04-07 18:40:39;4.18;3.38
2022-04-07 18:45:36;4.18;3.87
2022-04-07 18:50:38;4.18;3.54
2022-04-07 18:55:35;4.18;3.54
2022-04-07 19:00:37;4.18;3.54
2022-04-07 19:05:35;4.18;3.87
2022-04-07 19:10:37;4.18;3.87
2022-04-07 19:15:38;4.18;3.87
2022-04-07 19:20:36;4.18;3.54
2022-04-07 19:25:38;4.18;3.54
2022-04-07 19:30:35;4.19;3.87
2022-04-07 19:35:37;4.18;4.19
2022-04-07 19:40:39;4.18;3.54
2022-04-07 19:45:36;4.18;3.54
2022-04-07 19:50:38;4.18;3.87
2022-04-07 19:55:35;4.18;3.87
2022-04-07 20:00:37;4.18;4.19
2022-04-07 20:05:35;4.19;3.87
2022-04-07 20:10:37;4.19;3.87
2022-04-07 20:15:38;4.19;3.54
2022-04-07 20:20:36;4.19;4.19
2022-04-07 20:25:38;4.18;3.54
2022-04-07 20:30:35;4.18;3.54
2022-04-07 20:35:37;4.19;3.87
2022-04-07 20:40:39;4.19;3.54
2022-04-07 20:45:36;4.19;3.54
2022-04-07 20:50:38;4.19;3.54
2022-04-07 20:55:35;4.18;3.87
2022-04-07 21:00:37;4.18;3.87
2022-04-07 21:05:39;4.19;3.54
2022-04-07 21:10:36;4.18;3.54
2022-04-07 21:15:38;4.18;3.54
2022-04-07 21:20:35;4.18;3.54
2022-04-07 21:25:37;4.19;3.54
2022-04-07 21:30:39;4.18;3.87
2022-04-07 21:35:36;4.18;3.38
2022-04-07 21:40:38;4.19;3.54
2022-04-07 21:45:35;4.19;3.87
2022-04-07 21:50:37;4.18;3.87
2022-04-07 21:55:39;4.18;3.87
2022-04-07 22:00:36;4.18;3.54
2022-04-07 22:05:38;4.18;3.54
2022-04-07 22:10:36;4.19;3.87
2022-04-07 22:15:37;4.18;3.87
2022-04-07 22:20:35;4.19;3.87
2022-04-07 22:25:37;4.18;3.87
2022-04-07 22:30:38;4.19;3.54
2022-04-07 22:35:36;4.19;3.87
2022-04-07 22:40:38;4.18;3.54
2022-04-07 22:45:35;4.18;3.54
2022-04-07 22:50:37;4.19;3.87
2022-04-07 22:55:38;4.18;3.54
2022-04-07 23:00:36;4.19;3.87
2022-04-07 23:05:38;4.18;3.87
2022-04-07 23:10:35;4.18;3.87
2022-04-07 23:15:37;4.18;3.54
2022-04-07 23:20:39;4.18;3.54
2022-04-07 23:25:36;4.18;3.87
2022-04-07 23:30:38;4.18;3.54
2022-04-07 23:35:35;4.18;3.54
2022-04-07 23:40:37;4.18;3.54
2022-04-07 23:45:39;4.19;3.54
2022-04-07 23:50:36;4.19;3.54
2022-04-07 23:55:38;4.18;3.54
