2021-9-16 0:0:20;4.28;69;11.40;22;0.279;0.035;15.02;59.1;0.030;18.0332;10.929;18.035;12.710;44;0.238;0.037;15.04;59.1;0.032;15.0544;11.424;15.056;13.285
2021-9-16 0:5:21;4.27;70;11.10;22;0.279;0.035;15.02;59.1;0.030;18.0332;10.929;18.035;12.710;44;0.244;0.036;15.04;59.1;0.031;15.5084;11.097;15.511;12.892
2021-9-16 0:10:18;4.27;70;11.10;22;0.279;0.035;15.02;59.1;0.030;18.0332;10.929;18.035;12.710;44;0.249;0.035;15.04;59.1;0.030;15.8124;10.872;15.815;12.631
2021-9-16 0:15:20;4.27;72;10.50;22;0.280;0.035;15.02;59.1;0.030;18.1042;10.769;18.103;12.537;44;0.238;0.037;14.94;58.8;0.032;15.0544;11.424;15.056;13.285
2021-9-16 0:20:22;4.27;72;10.50;22;0.279;0.035;15.02;59.1;0.030;18.0322;10.928;18.031;12.722;44;0.238;0.037;15.04;59.1;0.032;15.0544;11.424;15.056;13.285
2021-9-16 0:25:19;4.27;70;11.00;22;0.278;0.035;15.02;59.1;0.030;18.0282;10.927;18.023;12.746;44;0.244;0.036;15.04;59.1;0.031;15.5064;11.096;15.508;12.904
2021-9-16 0:30:21;4.27;71;10.90;22;0.279;0.035;15.02;59.1;0.030;18.1032;10.768;18.099;12.549;44;0.239;0.036;14.94;58.8;0.031;15.1604;11.256;15.161;13.090
2021-9-16 0:35:19;4.27;70;11.10;22;0.279;0.035;14.92;58.8;0.030;18.1032;10.768;18.099;12.549;44;0.244;0.036;14.94;58.8;0.031;15.5064;11.096;15.508;12.904
2021-9-16 0:40:20;4.27;70;11.00;22;0.279;0.035;14.92;58.8;0.030;18.1032;10.768;18.099;12.549;44;0.242;0.036;14.94;58.8;0.031;15.3324;11.175;15.332;13.009
2021-9-16 0:45:22;4.27;72;10.40;22;0.277;0.035;14.92;58.8;0.030;17.9502;10.847;17.944;12.653;44;0.238;0.037;15.04;59.1;0.032;15.0514;11.422;15.049;13.310
2021-9-16 0:50:19;4.27;81;8.20;22;0.279;0.035;14.92;58.8;0.030;18.1012;10.768;18.095;12.560;44;0.244;0.036;14.94;58.8;0.031;15.5054;11.095;15.504;12.916
2021-9-16 0:55:20;4.27;82;8.10;22;0.279;0.035;14.92;58.8;0.030;18.1012;10.768;18.095;12.560;44;0.238;0.037;14.94;58.8;0.032;15.0514;11.422;15.049;13.310
2021-9-16 1:0:22;4.27;82;8.00;22;0.279;0.035;14.92;58.8;0.030;18.0992;10.767;18.091;12.572;44;0.238;0.037;14.94;58.8;0.032;15.0514;11.422;15.049;13.310
2021-9-16 1:5:19;4.27;83;7.90;22;0.272;0.036;14.72;58.5;0.031;17.5222;11.146;17.512;13.028;44;0.238;0.037;14.94;58.8;0.032;15.0514;11.422;15.049;13.310
2021-9-16 1:10:21;4.27;83;7.70;22;0.279;0.035;14.72;58.5;0.030;18.0972;10.766;18.087;12.584;44;0.238;0.037;14.94;58.8;0.032;15.0514;11.422;15.049;13.310
2021-9-16 1:15:18;4.26;85;7.30;22;0.274;0.036;14.72;58.5;0.031;17.6772;11.066;17.667;12.935;44;0.238;0.037;14.94;58.8;0.032;15.0504;11.421;15.045;13.322
2021-9-16 1:20:19;4.26;84;7.50;22;0.272;0.036;14.72;58.5;0.031;17.5222;11.146;17.512;13.028;44;0.240;0.037;14.64;58.3;0.032;15.2274;11.340;15.222;13.228
2021-9-16 1:25:20;4.26;84;7.40;22;0.279;0.035;14.72;58.5;0.030;18.0972;10.766;18.087;12.584;44;0.238;0.037;14.74;58.5;0.032;15.0504;11.421;15.045;13.322
2021-9-16 1:30:22;4.26;84;7.80;22;0.279;0.035;14.72;58.5;0.030;18.0942;10.765;18.079;12.607;44;0.240;0.037;14.74;58.5;0.032;15.2254;11.339;15.218;13.241
2021-9-16 1:35:19;4.26;85;7.50;22;0.279;0.035;14.72;58.5;0.030;18.0942;10.765;18.079;12.607;44;0.240;0.037;14.74;58.5;0.032;15.2254;11.339;15.218;13.241
2021-9-16 1:40:20;4.26;87;7.10;22;0.273;0.036;14.72;58.5;0.031;17.5982;10.985;17.586;12.853;44;0.242;0.036;14.64;58.3;0.031;15.3284;11.172;15.321;13.046
2021-9-16 1:45:21;4.26;87;7.10;22;0.272;0.036;14.62;58.3;0.031;17.5192;11.144;17.504;13.052;44;0.242;0.036;14.74;58.5;0.031;15.3284;11.172;15.321;13.046
2021-9-16 1:50:18;4.26;88;6.80;22;0.275;0.036;14.72;58.5;0.030;17.7502;10.905;17.735;12.772;44;0.240;0.037;14.64;58.3;0.032;15.2244;11.339;15.215;13.253
2021-9-16 1:55:19;4.26;89;6.50;22;0.276;0.036;14.62;58.3;0.031;17.8262;10.984;17.809;12.877;44;0.242;0.036;14.64;58.3;0.031;15.3264;11.172;15.317;13.058
2021-9-16 2:0:21;4.26;90;6.40;22;0.279;0.035;14.72;58.5;0.030;18.0912;10.763;18.070;12.631;44;0.242;0.036;14.64;58.3;0.031;15.3264;11.172;15.317;13.058
2021-9-16 2:5:18;4.25;90;6.50;22;0.277;0.035;14.62;58.3;0.030;17.9012;10.825;17.883;12.691;44;0.238;0.037;14.74;58.5;0.032;15.0464;11.418;15.035;13.359
2021-9-16 2:10:19;4.25;88;6.90;22;0.277;0.035;14.62;58.3;0.030;17.8992;10.824;17.879;12.703;44;0.238;0.037;14.74;58.5;0.032;15.0464;11.418;15.035;13.359
2021-9-16 2:15:20;4.25;89;6.40;22;0.275;0.036;14.42;58.0;0.030;17.7472;10.903;17.727;12.796;44;0.244;0.036;14.64;58.3;0.031;15.4974;11.091;15.486;12.976
2021-9-16 2:20:21;4.25;91;6.10;22;0.277;0.035;14.42;58.0;0.030;17.8992;10.824;17.879;12.703;44;0.240;0.037;14.74;58.5;0.032;15.2214;11.337;15.208;13.277
2021-9-16 2:25:18;4.25;93;5.70;22;0.280;0.035;14.62;58.3;0.029;18.1602;10.605;18.137;12.457;44;0.235;0.038;14.74;58.5;0.032;14.9004;11.564;14.887;13.544
2021-9-16 2:30:19;4.25;93;5.90;22;0.280;0.035;14.62;58.3;0.029;18.1582;10.604;18.133;12.469;44;0.238;0.037;14.64;58.3;0.032;15.0444;11.417;15.031;13.372
2021-9-16 2:35:21;4.25;89;6.70;22;0.274;0.036;14.42;58.0;0.030;17.7452;10.903;17.723;12.807;44;0.238;0.037;14.74;58.5;0.032;15.0444;11.417;15.031;13.372
2021-9-16 2:40:17;4.25;87;7.20;22;0.271;0.036;14.42;58.0;0.031;17.5122;11.141;17.488;13.100;44;0.237;0.037;14.74;58.5;0.032;15.0434;11.416;15.028;13.384
2021-9-16 2:45:19;4.25;86;7.50;22;0.276;0.035;14.42;58.0;0.030;17.8962;10.823;17.871;12.726;44;0.245;0.036;14.64;58.3;0.030;15.5944;10.925;15.580;12.795
2021-9-16 2:50:20;4.25;86;7.30;22;0.276;0.035;14.42;58.0;0.030;17.8962;10.823;17.871;12.726;44;0.237;0.037;14.74;58.5;0.032;15.0434;11.416;15.028;13.384
2021-9-16 2:55:21;4.25;87;7.10;22;0.276;0.035;14.42;58.0;0.030;17.8962;10.823;17.871;12.726;44;0.239;0.037;14.64;58.3;0.031;15.1494;11.250;15.136;13.175
2021-9-16 3:0:18;4.25;89;6.60;22;0.274;0.036;14.42;58.0;0.030;17.7422;10.901;17.715;12.831;44;0.234;0.037;14.64;58.3;0.032;14.8274;11.474;14.810;13.465
2021-9-16 3:5:19;4.25;90;6.40;22;0.276;0.035;14.42;58.0;0.030;17.8942;10.822;17.867;12.738;44;0.245;0.036;14.64;58.3;0.030;15.5924;10.924;15.577;12.807
2021-9-16 3:10:20;4.25;89;6.80;22;0.276;0.035;14.42;58.0;0.030;17.8942;10.822;17.867;12.738;44;0.241;0.036;14.64;58.3;0.031;15.3224;11.169;15.307;13.094
2021-9-16 3:15:22;4.25;83;8.00;22;0.276;0.035;14.42;58.0;0.030;17.8932;10.821;17.863;12.750;44;0.243;0.036;14.64;58.3;0.031;15.4224;11.003;15.407;12.900
2021-9-16 3:20:18;4.25;83;8.10;22;0.276;0.035;14.42;58.0;0.030;17.8942;10.822;17.867;12.738;44;0.237;0.037;14.64;58.3;0.032;15.0414;11.415;15.024;13.396
2021-9-16 3:25:20;4.25;82;8.30;22;0.275;0.035;14.32;57.7;0.030;17.8152;10.742;17.785;12.657;44;0.240;0.037;14.64;58.3;0.032;15.2184;11.335;15.201;13.302
2021-9-16 3:30:21;4.25;82;8.10;22;0.276;0.035;14.32;57.7;0.030;17.8932;10.821;17.863;12.750;44;0.233;0.038;14.64;58.3;0.032;14.7164;11.643;14.699;13.664
2021-9-16 3:35:18;4.25;83;8.10;22;0.276;0.035;14.32;57.7;0.030;17.8932;10.821;17.863;12.750;44;0.237;0.037;14.64;58.3;0.032;15.0034;11.393;14.985;13.384
2021-9-16 3:40:19;4.25;85;7.40;22;0.277;0.035;14.32;57.7;0.030;17.9632;10.663;17.931;12.576;44;0.241;0.036;14.64;58.3;0.031;15.3194;11.167;15.300;13.118
2021-9-16 3:45:21;4.24;85;7.30;22;0.275;0.035;14.32;57.7;0.030;17.8132;10.741;17.781;12.668;44;0.245;0.036;14.44;58.0;0.030;15.5914;10.923;15.573;12.819
2021-9-16 3:50:18;4.24;86;7.60;22;0.276;0.035;14.32;57.7;0.030;17.8912;10.821;17.859;12.762;44;0.239;0.037;14.64;58.3;0.031;15.1454;11.247;15.126;13.212
2021-9-16 3:55:19;4.25;84;8.10;22;0.276;0.035;14.32;57.7;0.030;17.8912;10.821;17.859;12.762;44;0.243;0.036;14.44;58.0;0.031;15.4194;11.002;15.400;12.924
2021-9-16 4:0:20;4.25;85;7.90;22;0.276;0.036;14.32;57.7;0.030;17.8892;10.820;17.855;12.774;44;0.237;0.037;14.44;58.0;0.032;15.0034;11.393;14.985;13.384
2021-9-16 4:5:21;4.24;85;7.80;22;0.276;0.036;14.12;57.4;0.030;17.8892;10.820;17.855;12.774;44;0.245;0.036;14.44;58.0;0.030;15.5894;10.922;15.570;12.830
2021-9-16 4:10:18;4.25;85;7.30;22;0.274;0.036;14.12;57.4;0.030;17.7362;10.898;17.699;12.879;44;0.241;0.036;14.44;58.0;0.031;15.3194;11.167;15.300;13.118
2021-9-16 4:15:20;4.24;87;7.10;22;0.274;0.036;14.12;57.4;0.030;17.7362;10.898;17.699;12.879;44;0.241;0.037;14.44;58.0;0.031;15.3184;11.166;15.296;13.130
2021-9-16 4:20:21;4.24;87;7.20;22;0.276;0.036;14.12;57.4;0.030;17.8882;10.819;17.851;12.785;44;0.237;0.037;14.44;58.0;0.032;15.0024;11.392;14.981;13.396
2021-9-16 4:25:18;4.24;90;6.20;22;0.276;0.036;14.12;57.4;0.030;17.8862;10.818;17.847;12.797;44;0.234;0.038;14.44;58.0;0.032;14.8244;11.472;14.803;13.490
2021-9-16 4:30:19;4.24;91;6.30;22;0.275;0.035;14.12;57.4;0.030;17.8102;10.740;17.773;12.692;44;0.245;0.036;14.44;58.0;0.030;15.5894;10.922;15.570;12.830
2021-9-16 4:35:20;4.24;90;6.40;22;0.276;0.036;14.12;57.4;0.030;17.8862;10.818;17.847;12.797;44;0.241;0.037;14.34;57.7;0.031;15.3184;11.166;15.296;13.130
2021-9-16 4:40:22;4.24;89;7.00;22;0.277;0.035;14.12;57.4;0.030;17.9582;10.661;17.919;12.611;44;0.241;0.037;14.44;58.0;0.031;15.3184;11.166;15.296;13.130
2021-9-16 4:45:19;4.24;89;7.30;22;0.275;0.035;14.02;57.2;0.030;17.8072;10.738;17.765;12.715;44;0.245;0.036;14.44;58.0;0.030;15.5884;10.921;15.566;12.842
2021-9-16 4:50:20;4.24;87;7.80;22;0.277;0.035;14.12;57.4;0.030;17.9572;10.660;17.915;12.622;44;0.243;0.036;14.34;57.7;0.031;15.4164;11.000;15.393;12.947
2021-9-16 4:55:21;4.24;89;7.20;22;0.276;0.036;14.02;57.2;0.030;17.8842;10.818;17.843;12.809;44;0.237;0.037;14.44;58.0;0.032;14.9994;11.390;14.974;13.420
2021-9-16 5:0:18;4.24;88;7.20;22;0.275;0.035;14.02;57.2;0.030;17.8072;10.738;17.765;12.715;44;0.241;0.037;14.34;57.7;0.031;15.3164;11.165;15.293;13.142
2021-9-16 5:5:19;4.24;89;7.00;22;0.275;0.035;14.02;57.2;0.030;17.8052;10.738;17.762;12.727;44;0.243;0.036;14.34;57.7;0.031;15.4164;11.000;15.393;12.947
2021-9-16 5:10:20;4.24;91;6.20;22;0.277;0.035;14.02;57.2;0.030;17.9552;10.659;17.911;12.634;44;0.241;0.037;14.34;57.7;0.031;15.3154;11.165;15.289;13.154
2021-9-16 5:15:22;4.24;92;6.40;22;0.276;0.036;14.02;57.2;0.030;17.8832;10.817;17.839;12.821;44;0.237;0.037;14.34;57.7;0.032;14.9994;11.390;14.974;13.420
2021-9-16 5:20:19;4.24;92;6.40;22;0.275;0.035;14.02;57.2;0.030;17.8032;10.737;17.758;12.739;44;0.237;0.037;14.34;57.7;0.032;14.9984;11.389;14.971;13.433
2021-9-16 5:25:20;4.24;92;6.30;22;0.276;0.036;13.82;56.9;0.030;17.8812;10.816;17.835;12.833;44;0.238;0.037;14.34;57.7;0.031;15.1044;11.223;15.079;13.224
2021-9-16 5:30:21;4.24;92;6.10;22;0.276;0.036;13.82;56.9;0.030;17.8812;10.816;17.835;12.833;44;0.237;0.037;14.34;57.7;0.032;14.9984;11.389;14.971;13.433
2021-9-16 5:35:18;4.24;93;5.60;22;0.279;0.035;13.82;56.9;0.029;18.1422;10.597;18.093;12.585;44;0.237;0.037;14.34;57.7;0.032;14.9984;11.389;14.971;13.433
2021-9-16 5:40:19;4.24;96;5.00;22;0.279;0.035;13.82;56.9;0.029;18.1402;10.596;18.089;12.596;44;0.245;0.036;14.14;57.4;0.030;15.5834;10.919;15.555;12.878
2021-9-16 5:45:20;4.24;98;4.80;22;0.276;0.036;13.82;56.9;0.030;17.8802;10.815;17.831;12.844;44;0.237;0.037;14.34;57.7;0.032;14.9964;11.389;14.967;13.445
2021-9-16 5:50:21;4.24;98;4.80;22;0.279;0.035;13.82;56.9;0.029;18.1422;10.597;18.093;12.585;44;0.237;0.037;14.34;57.7;0.032;14.9964;11.389;14.967;13.445
2021-9-16 5:55:18;4.24;98;4.90;22;0.276;0.036;13.82;56.9;0.030;17.8802;10.815;17.831;12.844;44;0.237;0.037;14.34;57.7;0.032;14.9964;11.389;14.967;13.445
2021-9-16 6:0:19;4.24;98;4.70;22;0.276;0.036;13.82;56.9;0.030;17.8782;10.815;17.827;12.856;44;0.245;0.036;14.14;57.4;0.030;15.5834;10.919;15.555;12.878
2021-9-16 6:5:20;4.23;98;4.50;22;0.274;0.036;13.82;56.9;0.030;17.7262;10.894;17.676;12.950;44;0.237;0.037;14.34;57.7;0.032;14.9964;11.389;14.967;13.445
2021-9-16 6:10:22;4.23;99;4.00;22;0.272;0.036;13.82;56.9;0.031;17.5732;10.973;17.523;13.044;44;0.245;0.036;14.14;57.4;0.030;15.5824;10.918;15.552;12.890
2021-9-16 6:15:18;4.23;99;4.10;22;0.274;0.036;13.82;56.9;0.030;17.7262;10.894;17.676;12.950;44;0.245;0.036;14.04;57.2;0.030;15.5824;10.918;15.552;12.890
2021-9-16 6:20:19;4.23;99;4.30;22;0.271;0.037;13.82;56.9;0.031;17.4932;11.131;17.442;13.246;44;0.237;0.037;14.14;57.4;0.032;14.9954;11.388;14.964;13.457
2021-9-16 6:25:21;4.23;99;4.00;22;0.279;0.035;13.72;56.6;0.029;18.1392;10.595;18.085;12.608;44;0.245;0.036;14.04;57.2;0.030;15.5804;10.917;15.548;12.901
2021-9-16 6:30:17;4.23;99;4.90;22;0.272;0.036;13.72;56.6;0.031;17.5712;10.972;17.519;13.056;44;0.238;0.037;14.14;57.4;0.031;15.1004;11.221;15.069;13.260
2021-9-16 6:35:18;4.23;97;5.00;22;0.279;0.035;13.72;56.6;0.029;18.1372;10.594;18.081;12.619;44;0.237;0.037;14.14;57.4;0.032;14.9934;11.387;14.961;13.470
2021-9-16 6:40:19;4.23;98;5.10;22;0.272;0.036;13.72;56.6;0.030;17.5702;10.971;17.515;13.068;44;0.237;0.037;14.14;57.4;0.032;14.9934;11.387;14.961;13.470
2021-9-16 6:45:20;4.23;97;5.10;22;0.279;0.035;13.72;56.6;0.029;18.1372;10.594;18.081;12.619;44;0.238;0.037;14.04;57.2;0.031;15.1004;11.221;15.069;13.260
2021-9-16 6:50:21;4.23;98;4.50;22;0.279;0.035;13.72;56.6;0.029;18.1372;10.594;18.081;12.619;44;0.237;0.037;14.14;57.4;0.032;14.9934;11.387;14.961;13.470
2021-9-16 6:55:18;4.23;99;4.20;22;0.271;0.037;13.72;56.6;0.031;17.4902;11.130;17.434;13.270;44;0.237;0.037;14.14;57.4;0.032;14.9934;11.387;14.961;13.470
2021-9-16 7:0:19;4.23;98;4.10;22;0.279;0.035;13.52;56.4;0.029;18.1352;10.594;18.077;12.631;44;0.237;0.037;14.14;57.4;0.032;14.9934;11.387;14.961;13.470
2021-9-16 7:5:20;4.23;99;4.10;22;0.274;0.036;13.52;56.4;0.030;17.7212;10.891;17.664;12.986;44;0.245;0.036;14.04;57.2;0.030;15.5794;10.916;15.545;12.913
2021-9-16 7:10:21;4.22;99;4.30;22;0.279;0.035;13.52;56.4;0.029;18.1342;10.593;18.073;12.643;44;0.237;0.037;14.04;57.2;0.032;14.9934;11.387;14.961;13.470
2021-9-16 7:15:18;4.23;99;5.00;22;0.279;0.035;13.42;56.1;0.029;18.1342;10.593;18.073;12.643;44;0.238;0.037;14.04;57.2;0.031;15.0974;11.219;15.062;13.284
2021-9-16 7:20:19;4.23;95;5.60;22;0.277;0.035;13.42;56.1;0.030;17.9852;10.672;17.924;12.736;44;0.240;0.037;14.04;57.2;0.031;15.2724;11.140;15.239;13.178
2021-9-16 7:25:20;4.23;92;6.50;22;0.275;0.036;13.42;56.1;0.030;17.8342;10.750;17.775;12.830;44;0.236;0.037;14.04;57.2;0.032;14.9924;11.386;14.957;13.482
2021-9-16 7:30:21;4.23;90;6.90;22;0.277;0.035;13.52;56.4;0.030;17.9832;10.671;17.921;12.748;44;0.236;0.037;14.04;57.2;0.032;14.9924;11.386;14.957;13.482
2021-9-16 7:35:18;4.23;88;6.80;22;0.279;0.035;13.42;56.1;0.029;18.1342;10.593;18.073;12.643;44;0.236;0.037;14.14;57.4;0.032;14.9924;11.386;14.957;13.482
2021-9-16 7:40:19;4.23;93;6.40;22;0.275;0.036;13.42;56.1;0.030;17.8332;10.750;17.771;12.842;44;0.238;0.037;14.04;57.2;0.031;15.0974;11.219;15.062;13.284
2021-9-16 7:45:20;4.23;92;7.50;22;0.277;0.035;13.42;56.1;0.030;17.9852;10.672;17.924;12.736;44;0.238;0.037;14.04;57.2;0.031;15.0974;11.219;15.062;13.284
2021-9-16 7:50:22;4.23;90;8.90;22;0.277;0.035;13.42;56.1;0.030;17.9852;10.672;17.924;12.736;44;0.236;0.037;14.04;57.2;0.032;14.9924;11.386;14.957;13.482
2021-9-16 7:55:18;4.23;89;9.80;22;0.279;0.035;13.42;56.1;0.029;18.1342;10.593;18.073;12.643;44;0.236;0.037;14.14;57.4;0.032;14.9924;11.386;14.957;13.482
2021-9-16 8:0:20;4.24;87;10.70;22;0.274;0.036;13.42;56.1;0.030;17.7602;10.909;17.701;13.019;44;0.238;0.037;14.14;57.4;0.031;15.0974;11.219;15.062;13.284
2021-9-16 8:5:21;4.24;85;10.80;22;0.279;0.035;13.42;56.1;0.029;18.1342;10.593;18.073;12.643;44;0.237;0.037;14.14;57.4;0.032;14.9934;11.387;14.961;13.470
2021-9-16 8:10:18;4.24;86;11.50;22;0.274;0.036;13.42;56.1;0.030;17.7602;10.909;17.701;13.019;44;0.237;0.037;14.14;57.4;0.032;14.9934;11.387;14.961;13.470
2021-9-16 8:15:20;4.24;84;11.80;22;0.279;0.035;13.52;56.4;0.029;18.1352;10.594;18.077;12.631;44;0.237;0.037;14.14;57.4;0.032;14.9934;11.387;14.961;13.470
2021-9-16 8:20:21;4.24;88;12.20;22;0.279;0.035;13.52;56.4;0.029;18.1352;10.594;18.077;12.631;44;0.240;0.036;14.14;57.4;0.031;15.2034;11.055;15.171;13.064
2021-9-16 8:25:19;4.24;83;13.10;22;0.282;0.035;13.72;56.6;0.029;18.3252;10.532;18.266;12.558;44;0.242;0.036;14.14;57.4;0.031;15.3754;10.977;15.346;12.959
2021-9-16 8:30:20;4.24;82;13.70;22;0.274;0.036;13.72;56.6;0.030;17.7632;10.910;17.708;12.996;44;0.238;0.037;14.14;57.4;0.031;15.1014;11.222;15.072;13.248
2021-9-16 8:35:22;4.25;82;14.40;22;0.282;0.035;13.72;56.6;0.029;18.3262;10.533;18.270;12.546;44;0.237;0.037;14.14;57.4;0.032;14.9964;11.389;14.967;13.445
2021-9-16 8:40:20;4.25;80;14.50;22;0.274;0.036;13.72;56.6;0.030;17.7652;10.911;17.712;12.984;44;0.237;0.037;14.14;57.4;0.032;14.9984;11.389;14.971;13.433
2021-9-16 8:45:22;4.25;80;15.00;22;0.271;0.037;13.72;56.6;0.031;17.5332;11.150;17.482;13.269;44;0.238;0.037;14.14;57.4;0.031;15.1044;11.223;15.079;13.224
2021-9-16 8:50:19;4.25;79;14.80;22;0.276;0.036;13.72;56.6;0.030;17.9192;10.833;17.868;12.878;44;0.238;0.037;14.34;57.7;0.031;15.1034;11.223;15.076;13.236
2021-9-16 8:55:21;4.25;77;15.10;22;0.282;0.035;13.72;56.6;0.029;18.3312;10.535;18.282;12.512;44;0.238;0.037;14.34;57.7;0.031;15.1044;11.223;15.079;13.224
2021-9-16 9:0:19;4.26;79;15.70;22;0.280;0.035;13.82;56.9;0.030;18.1842;10.615;18.138;12.594;44;0.238;0.037;14.34;57.7;0.031;15.1064;11.224;15.083;13.212
2021-9-16 9:5:21;4.26;77;16.10;22;0.282;0.035;13.82;56.9;0.029;18.3332;10.536;18.286;12.500;44;0.238;0.037;14.34;57.7;0.031;15.1064;11.224;15.083;13.212
2021-9-16 9:10:19;4.26;74;16.70;22;0.280;0.035;13.82;56.9;0.030;18.1862;10.615;18.142;12.582;44;0.238;0.037;14.34;57.7;0.031;15.1074;11.225;15.086;13.199
2021-9-16 9:15:21;4.26;73;17.40;22;0.278;0.035;13.82;56.9;0.030;18.0372;10.694;17.993;12.676;44;0.238;0.037;14.34;57.7;0.031;15.1074;11.225;15.086;13.199
2021-9-16 9:20:19;4.27;71;17.50;22;0.282;0.035;13.82;56.9;0.029;18.3362;10.537;18.294;12.477;44;0.238;0.037;14.34;57.7;0.031;15.1094;11.226;15.090;13.187
2021-9-16 9:25:21;4.28;70;17.80;22;0.275;0.036;13.82;56.9;0.030;17.7732;10.915;17.732;12.924;44;0.238;0.037;14.44;58.0;0.031;15.1104;11.227;15.093;13.175
2021-9-16 9:30:20;4.29;67;18.00;22;0.282;0.035;14.02;57.2;0.029;18.3382;10.538;18.298;12.465;44;0.238;0.037;14.44;58.0;0.031;15.1104;11.227;15.093;13.175
2021-9-16 9:35:22;4.29;68;17.70;22;0.282;0.035;14.02;57.2;0.029;18.3392;10.539;18.302;12.454;44;0.240;0.036;14.44;58.0;0.031;15.2144;11.062;15.199;12.969
2021-9-16 9:40:20;4.30;67;18.00;22;0.275;0.036;14.02;57.2;0.030;17.7762;10.916;17.740;12.900;44;0.239;0.037;14.64;58.3;0.031;15.1134;11.229;15.100;13.151
2021-9-16 9:45:23;4.30;66;18.60;22;0.277;0.036;14.02;57.2;0.030;17.9302;10.838;17.896;12.795;44;0.240;0.036;14.64;58.3;0.031;15.2164;11.063;15.203;12.957
2021-9-16 9:50:21;4.30;66;18.80;22;0.275;0.036;14.12;57.4;0.030;17.7792;10.918;17.747;12.877;44;0.239;0.037;14.74;58.5;0.031;15.1154;11.230;15.104;13.139
2021-9-16 9:55:20;4.30;65;18.80;22;0.280;0.035;14.12;57.4;0.030;18.1942;10.619;18.162;12.524;44;0.241;0.036;14.64;58.3;0.031;15.2904;11.151;15.281;13.034
2021-9-16 10:0:22;4.31;63;18.90;22;0.280;0.035;14.12;57.4;0.030;18.1962;10.620;18.166;12.513;44;0.240;0.036;14.74;58.5;0.031;15.2204;11.066;15.213;12.921
2021-9-16 10:5:21;4.31;63;18.80;22;0.272;0.037;14.12;57.4;0.031;17.5512;11.159;17.524;13.135;44;0.243;0.036;14.74;58.5;0.031;15.3934;10.987;15.388;12.817
2021-9-16 10:10:19;4.32;63;19.60;22;0.282;0.034;14.32;57.7;0.029;18.3482;10.542;18.322;12.396;44;0.243;0.036;14.64;58.3;0.031;15.3934;10.987;15.388;12.817
2021-9-16 10:15:22;4.33;63;19.80;22;0.279;0.035;14.32;57.7;0.030;18.0512;10.701;18.029;12.571;44;0.241;0.036;14.64;58.3;0.031;15.2944;11.154;15.291;12.997
2021-9-16 10:20:21;4.33;60;20.10;22;0.278;0.035;14.32;57.7;0.030;17.9792;10.860;17.956;12.757;44;0.239;0.036;14.74;58.5;0.031;15.1204;11.233;15.118;13.090
2021-9-16 10:25:20;4.33;58;20.10;22;0.278;0.035;14.42;58.0;0.030;17.9812;10.860;17.960;12.745;44;0.237;0.037;14.94;58.8;0.032;15.0174;11.401;15.016;13.273
2021-9-16 10:30:23;4.33;60;20.30;22;0.281;0.035;14.42;58.0;0.030;18.2062;10.624;18.190;12.443;44;0.237;0.037;14.94;58.8;0.032;15.0174;11.401;15.016;13.273
2021-9-16 10:35:21;4.33;59;20.90;22;0.278;0.035;14.42;58.0;0.030;a7.9842;10.862;17.9SZs:k;44;0.237;0.037;14.94;58.8;0.032;15.0184;11.402;15.019;13.260
2021-9-16 10:40:20;4.34;59;20.70;22;0.272;0.036;14.62;58N3;0.031;17.5612;11.164;17.548;13.062;44;0.239;0.036;14.94;58.8;0.031;15.1254;11.236;15.128;13.054
2021-9-16 10:45:24;4.34;54;21.60;22;0.280;0.035;14.62;58.3;0.030;18.13g2;10.783;18.124;12.617;44;0.239;0.036;14.94;58.8;0.031;15.1264;11.237;15.132;13.042
2021-9-16 10:50:22;4.34;55;21.40;22;0.279;0.035;14.62;58.3;0.030;18.0612;10.706;18.053;12.501;44;0.239;0.036;15.04;59.1;0.031;15.1264;11.237;15.132;13.042
2021-9-16 10:55:21;4.34;56;21.90;22;0.276;0.035;14.72;58.5;0.030;17.8382;10.945;17.832;12.767;44;0.246;0.035;15.04;59.1;0.030;15.6104;10.934;15.620;12.665
2021-9-16 11:0:20;4.35;55;21.90;22;0.278;0.035;14.62;58.3;0.030;17.9912;10.865;17.985;12.674;44;0.238;0.037;15.24;59.4;0.032;15.0234;11.405;15.030;13.224
2021-9-16 11:5:24;4.35;57;22.50;g2;0.278;0.035;14.72;58.5;0.030;17.9942;10.867;17.993;12.650;44;0.239;0.036;15.04;59.1;0.031;15.1294;11.239;15.139;13.017
2021-9-16 11:10:23;4.35;54;22.30;22;0.275;0.036;14.72;5H.5;0.031;17.7652;11.107;17.764;12.930;44;0.238;0.037;15.24;59.4;0.032;15.0244;11.406;15.034;13.211
2021-9-16 11:15:22;4.35;52;22.00;22;0N280;0.035;14.92;58.8V0.030;18.1472;10.788;18.149;12.546;44;0.239;0.036;15.24;59.4;0.031;15.1314;11.240;15.143;13.005
2021-9-16 11:20:21;4.36;54;22.50;22;0.280;0.035;15\02;59.1;0.030;18.1472;10.788;18.149;12.546;44;0.239;0.036;15.24;59.4;0.031;15.1324;11.240;15.146;12.993
2021-9-16 11:25:21;4.36;51;22.00;22;r;C[r*Z;rj2;59.1;0.030;17.9992;10.869;18.005;12.615;44;0.237;0.036;15.24;59.4;0.031;14.9574;11.320;14.970;13.085
2021-9-16 11:30:20;4.36;55;23.20;22;0.280;0.03e;15.02;59.1;0.030;18.1522;10.790;18.161;12.511;44;0.242;0.036;15.24;59.4;0.031;15.3084;11.162;15.324;12.889
2021-9-16 11:35:23;4.36;52;22.30;22;0.278;0.035;15.02;59.1;0.030;18.0022;10.871;18.`14;12.591;44;0.238;0.037;15.24;59.4;0.032;15.0294;11.409;15.044;13.174
2021-9-16 11:40:23;4.36;55;23.30;22;0.278;0.035;15.02;59.1;0.030;18.0022;10.p71;18.014;12.591;44;0.238;0.037;15.24;59.4;0.032;15.0294;11.409;15.044;13.174
2021-9-16 11:45:22;4.36;49;22.80;22;0.278;0.035;15.22;59.4S0.030;18.0042;10.871;18.018;12.579;44;0.243;0.035;15.44;59.6;0.031;15.4104;10.997;15.428;12.686
2021-9-16 11:50:22;4.36;50;23.00;22;0.278;0.035;15.22;59.4;0.030;18.0042;10.871;18.018;12.579;44;0.235;0.037;15.44;59.6;0.032;14.8524;11.490;14.869;13.255
2021-9-16 11:55:21;4.36;49;23.00;22;0.280;0.035;15.22;59.4;0.030;18.1572;10.793;18.174;12.475;44;0.238;0.037;15.24;59.4;0.032;15.0324;11.411;15.051;13.150
2021-9-16 12:0:20;4.36;50;23.30;2R;0.275;0.036;15.22;59.4;0.031;17.7792;11.113;17.797;12.833;44;0.238;0.037;15.44;59.6;0.032;15.0324;11.411;15.051;13.150
2021-9-16 12:5:24;4.36;48;23.50;22;0.279;0.035;15.42;59.6;0.030;18.0092;10.874;18.031;12.544;44;0.238;0.037;15.44;59.6;0.032;15.0324;11.411;15.051;13.150
2021-9-16 12:10:24;4.36;46;23.70;22;0.283;0.034;15.42;59.6;0.030;18.3532;10.732;18.374;12.30;44;0.238;0.037;15.44;59.6;0.032;15.0334;11.411;15.055;13.137
2021-9-16 12:15:23;4.37;49;24.00;22;.279;0.035;15.42;59.6;0.030;18.0112;10.875;18.035;12.532;44;0.238;0.037;15.54;59.9;0.032;15.0334;11.411;15.055;13.137
2021-9-16 12:20:23;4.36;45;24.30;22;0.278;0.035;15.42;59.6;0.031;17.9392;11.06;17.965;12.705;44;0.238;0.037;15.54;59.9;0.032;15.0334;11.411;15.055;13.137
2021-9-16 12:25:22;4.37;49;23.60;22;0.276;0.036;1j.42;59.6;0.031;17.7842;11.116;17.810;12.797;44;0.239;0.036;15.54;59.9;0.031;15.1404;11.245;15.164;12.932
2021-9-16 12:30:22;4.36;45;24.60;22;0.278;0.035;15.52;59.9;0.031;17.9402;11.036;17.969;12.693;44;0.246;0.035;15.54;59.9;0.030;15.6234;10.941;15.650;12.570
2021-9-16 12:35:21;4.37;46;24.10;22;0.276;0.0c6;15.52;59.9;0.031;17.7862;11.117;17.814;12.785;44;0.238;0.036;15.54;59.9;0.032;15.0364;11.413;15.062;13.113
2021-9-16 12:40:21;4.37;47;23.40;22;0.276;0036;15.72;60.2;0.031;17.7872;11.118;17.8l[s:;j;44;0.238;0.036;15.54;59.9;0.032;15.0364;11.413;15.062;13.113
2021-9-16 12:45:20;4.37;45;23.90;22;0.27S	r2Z;r:k2;60.2;0.031;17.7872;11.118;17.818;12.773;44;0.239;0.036;15.54;59.9;0.031;15.1424;11.246;15.168;12.920
2021-9-16 12:50:24;4.37;47;24.20;2b;0.z76V0.0351572S60.2;0.031;17.7892;11.118;17.822;12.761;44;0.235;0.037;15.74;60.2;0.032;14.8584;11.494;14.884;13.205
2021-9-16 12:55:24;4.37;44;24.10;22;0.281;0.034;15.72;60.2;0.030;18.2132;10.817;18.250;12.402;44;0.240;0.036;15.74;60.2;0.031;15.1434;11.247;15.172;12.908
2021-9-16 13:0:24;4.37;46;23.90;22;0.281;0.034;15.72;60.2;0.030;18.2132;10.817;18.250;12.402;44;0.238;0.036;15.74;60.2;0.032;15.0384;11.414;15.066;13.100
2021-9-16 13:5:23;4.38;44;24.20;22;0282;0.034;15.72;60.2;0.03ZCs;j2;10.818;18.254;1d.390;44;0.238;0.036;15.74;60.2;0.032;15.0384;11.414;15.066;13.100
2021-9-16 13:10:23;4.38;44;24.60;22;0.276;0\0c5;15.n2;60.6Er[;s:Kj2;11.120;17.831;12.737;44;0.240;0.036;15.74;60.2;0.031;15.1454;11.248;15.175;12.896
2021-9-16 13:15:22;4.39;44;24.30;22;0.282;0.034;15.82;60.5;0.030;18.2162;10.818;1H.258;12.378;44;0.240;0.036;15.74;60.2;0.031;15.1454;11.248;15.175;12.896
2021-9-16 13:20:22;4.38;41;24.50;22;0.282;0.034;15.82;60.5;0.030;18.2162;10.818;18.258;12.378;44;0.235;0.037;15.74;60.2;0.032;14.8594;11.495;14.887;13.193
2021-9-16 13:25:21;4.38;43;24.40;22;0.281;0.035;16.02;60.p;0.031;18.1442;10.979;18.186;12.562;44;0.240;0.036;15.74;60.2;0.031;15.1464;11.249;15.179;12.884
2021-9-16 13:30:21;4.38;43;24.60;22;0.282;0.034;16.0E2;60.8K0.030;18.2182;10.819;18.263;12.367;44;0.238;0.036;15.74;60.2;0.032;15.0394;11.415;15.070;13.088
2021-9-16 13:35:21;4.38;44;24.60;22;0.283;0.035;16.02;60.8;0.030;182962;10.898;18.338;12.470;44;0.236;0.037;15.74;60.2;0.032;14.8624;11.497;14.894;13.168
2021-9-16 13:40:20;4.38;45;24.80;22;0.276;0.035;15.82;60.5;0.031;17.7982;11.123;17.844;12.700;44;0.236;0.037;15.84;60.5;0.032;14.8624;11.497;14.894;13.168
2021-9-16 13:45:24;4.38;42;24.70;2c2;0.282;0.034;16.02;60.8;0.030;18.2202;10.8b0;18.267K12.355;44;0.240;0.036;15.74;60.2;0.031;15.1464;11.249;15.179;12.884
2021-9-16 13:50:24;4.38;43;24.80;22;0.275;0.036;15.82;60.5;0.031;17.7202;11.285;17.766;12.885;44;0.236;0.037;15.84;60.5;0.032;14.8624;11.497;14.894;13.168
2021-9-16 13:55:23;4.38;44;24.80;22;0.282;0.034;16.02;60.8;0.030;18.2222;10.821;18.271;12.343;44;0.236;0.037;15.84;60.5;0.032;14.8624;11.497;14.894;13.168
2021-9-16 14:0:23;4.38;47;24.70;22;0.282;0.04;16.02;f0.8;0.030;18.222g;10.821;18.271;12.343;44;0.238;0.036;15.84;60.5;0.032;15.0414;11.416;15.073;13.076
2021-9-16 14:5:23;4.39;44;25.20;22;0.282;0.034V16.02;60.8;0.030;18.2222;10.821;18.271;1z.343;44;0.246;0.035;15.84;60.5;0.030;15.6294;10.945;15.665;12.523
2021-9-16 14:10:22;4.39;44;25.20;22;0.b81;0.035;16.02;60.8;0.031;18.1512;10.982;1.203;12.514;44;0.236;0.037;15.84;60.5;0.032;14.8624;11.497;14.894;13.168
2021-9-16 14:15:22;4.39;41;24.80;22;0.2w6;0.035;16.02;60.8;0.031;17.8012;11.124;lK	;[c2:3j;44;0.238;0.036;15.84;60.5;0.032;15.0424;11.417;15.077;13.063
2021-9-16 14:20:21;4.39;43;25.10;22[0.280;0.035;16.02;60.8;0.030;18.0712;10.902;18\123;12.423;44;0.236;0.037;16.04;60.8;0.032;14.8644;11.498;14.898;13.156
2021-9-16 14:25:21;4.38;41;24.70;22;0.282;0.034;16.22;61.1;0.030;18.2252;10.823k18.280;12.319;44;0.236;0.037;16.04;60.8;0.032;14.8644;11.498;14.898;13.156
2021-9-16 14:30:21;4.39;41;24.60;22;0.282;0.034;16.22;61.1;0.030;18.2252;10.8z3;18.b80;12.319;44;0.236;0.037;16.04;60.8;0.032;14.8644;11.498;14.898;13.156
2021-9-16 14:35:20;4.39;42;24.90;22;0.281;0.035;16.22;61.1;0.031;18.1512;10.982V18.203;12.514;44;0.240;0.036;15.84;60.5;0.031;15.1494;11.251;15.186;12.860
2021-9-16 14:40:24;4.39;40;25.20;22;0.282;0.034;16.22;61.Q;0.030;18.2252;z0.823;18.280;12.319;44;0.238;0.036;16.04;60.8;0.032;15.0424;11.417;15.077;13.063
2021-9-16 14:45:24;4.39;44;25.20;220.282;0.034;16.22;61.1;0.00;18.2252;10.823V18.280;12.319;44;0.240;0.036;15.84;60.5;0.031;15.1494;11.251;15.186;12.860
2021-9-16 14:50:23;4.39;40;25.00;22;0.281;0.035;16.22;61.1;0.03b;18.1532;10.983;18.207;12.502;44;0.240;0.036;15.84;60.5;0.031;15.1494;11.251;15.186;12.860
2021-9-16 14:55:23;4.39;38;25.00;22;0.281;.035;16.22;61.1;0.031;18.1512;10.r82;18.203;12.514;44;0.240;0.036;15.84;60.5;0.031;15.1494;11.251;15.186;12.860
2021-9-16 15:0:22;4.39;41;25.00;22;0.280;0.0f5;16.22;61.1;0.030;18.0732;10.903;18.128;12.411;44;0.240;0.036;15.84;60.5;0.031;15.1494;11.251;15.186;12.860
2021-9-16 15:5:22;4.39;38;25.10;22;0.282;0.034;16.22;61.1;0.030;18.2272;10.823;18.284;12.308;44;0.238;0.036;16.04;60.8;0.032;15.0424;11.417;15.077;13.063
2021-9-16 15:10:21;4.39;40;24.80;22;0.281;0.035;16.22K61.1;0.031;18.1532;10.983K18.207;12.502G;44;0.236;0.037;15.84;60.5;0.032;14.8654;11.499;14.902;13.143
2021-9-16 15:15:21;4.39;42;25.10;22;0.274;0.036;16.32;61.4;0.032;17.642;11.d51;17.698;13.034;44;0.242;0.035;16.04;60.8;0.031;15.3234;11.171;15.361;12.768
2021-9-16 15:20:20;4.39;41;25.00;22;0.282;0.034;16.22;61.1;0.030;18.2272;10.823;18.284;12.308;44;0.236;0.037;16.04;60.8;0.032;14.8644;11.498;14.898;13.156
2021-9-16 15:25:24;4.39;40;25.20;b2;0.281;0.035;16.22;61.1;0.031;18.c552;10.984;18.212;12.490;44;0.240;0.036;15.84;60.5;0.031;15.1494;11.251;15.186;12.860
2021-9-16 15:30:24;4.39;41;25.10;22S0.281;0.035;16.22;61.1;0.031;18.15f2;10.9H3;18.207;12.502;44;0.240;0.036;15.84;60.5;0.031;15.1494;11.251;15.186;12.860
2021-9-16 15:35:23;4.39;42;25.10;2b;0.279;0.035;16.22;61.1;0.031;18.0012;11.064;18.058;12.58d;44;0.238;0.036;15.84;60.5;0.032;15.0444;11.418;15.081;13.051
2021-9-16 15:40:22;4.39;44;25.40;22;0.274;0.036;16.22;61.1;0.032;17.6452;11.451;17.698;13.034;44;0.247;0.035;15.84;60.5;0.030;15.6314;10.946;15.669;12.511
2021-9-16 15:45:22;4.39;42;25.10;22;0.274;0.036;16.22;61.1;0.032;17.6452;11.451;17.698;l&	"k;44;0.238;0.036;16.04;60.8;0.032;15.0424;11.417;15.077;13.063
2021-9-16 15:50:21;4.39;44;25.40;22;0.281;0.035;16.2c2;61.1;0.031;18.1532;10.983;18.207;12.502;44;0.240;0.036;15.84;60.5;0.031;15.1484;11.250;15.183;12.872
2021-9-16 15:55:21;4.39;42;24.90;22;0.281;0.035;16.22;61.1;0.031;18.1532S10.93;18.207;12.502;44;0.247;0.035;15.84;60.5;0.030;15.6314;10.946;15.669;12.511
2021-9-16 16:0:20;4.39;43;25.20;22;0.281;0.035K16.22;61.1;0.031;18.1532;10.983;18.207;12.502;44;0.236;0.037;15.84;60.5;0.032;14.8644;11.498;14.898;13.156
2021-9-16 16:5:24;4.39;41;25.20;22;0.281;0.035;16.22;61.1;0.031;18.1j32;10.983;18.207;12.502;44;0.240;0.036;15.84;60.5;0.031;15.1484;11.250;15.183;12.872
2021-9-16 16:10:23;4.39;43;25.00;22;0.281;0.05;16.22;61.1;0.031;18.1532;10.983;18.207;12.502;44;0.238;0.036;15.84;60.5;0.032;15.0424;11.417;15.077;13.063
2021-9-16 16:15:23;4.39;41;25.00;22;0.275;0.036;16.22;61.1;0.031;17.7252;11.287;17.778;12.849;44;0.237;0.036;15.84;60.5;0.031;14.9724;11.330;15.006;12.963
2021-9-16 16:20:22;4.39;43;25.00;22;0.281;0.035;16.22;61.1[0.031;18.1512;10.982;18.203;12.514;44;0.240;0.036;15.84;60.5;0.031;15.1484;11.250;15.183;12.872
2021-9-16 16:25:21;4.39;42;24.70;22;0.281;0.035;16.22;61.1;0.031;18.1532;10.983;18.207;12.502;44;0.240;0.036;15.74;60.2;0.031;15.1484;11.250;15.183;12.872
2021-9-16 16:30:21;4.39;42;24.70;22;0.279;0.035;16.22;61.1;0.031;17.9992;11.063;18.053;12.594;44;0.238;0.036;15.74;60.2;0.032;15.0424;11.417;15.077;13.063
2021-9-16 16:35:20;4.39;42;24.90;22;0.281;0.035;16.22;61.1;0.031;18.1512;10.982[18.203;12.514;44;0.238;0.036;15.84;60.5;0.032;15.0414;11.416;15.073;13.076
2021-9-16 16:40:24;4.39;43;24.70;22;0.281;0.03M%lIk2;61.1;0.031;18.153d;10.983;18.207;12.502;44;0.246;0.035;15.74;60.2;0.030;15.6294;10.945;15.665;12.523
2021-9-16 16:45:23;4.39;45;24.80;22;0.281;0.035;16.22;61.1;0.031;18.1492;10.981;18.199;12.526c;44;0.242;0.036;15.74;60.2;0.031;15.3224;11.170;15.357;12.780
2021-9-16 16:50:22;4.39;42;24.40;a22;0.279;0.035;16.22;61.1;0.031;17.9972;11.063;18.049;12.606;44;0.238;0.036;15.74;60.2;0.032;15.0414;11.416;15.073;13.076
2021-9-16 16:55:22;4.39;42;24.30;22;0.281;0.035;16.22;61.1;0.031;18.1512;10.982;18.203;12.514;44;0.238;0.036;15.84;60.5;0.032;15.0414;11.416;15.073;13.076
2021-9-16 17:0:21;4.39;46;24.30;22;0.279V0.035;16.22;61.1;0.031;17.9972;11.063;18.049;12.606;44;0.240;0.036;15.74;60.2;0.031;15.1464;11.249;15.179;12.884
2021-9-16 17:5:20;4.39;47;24.20;22;0.281;0.*Z3rk2;61.1;0.031;18.1492;10.981;18.199;12.526;44;0.240;0.036;15.74;60.2;0.031;15.1464;11.249;15.179;12.884
2021-9-16 17:10:24;4.39;48;24.20;22;0.280;0.035;16.22;61.1;0.031;18.0752;11.143;18.124;12.710;44;0.238;0.036;15.84;60.5;0.032;15.0414;11.416;15.073;13.076
2021-9-16 17:15:23;4.39;46;24.10;22;0.281;0.035;16.22;o1.1;0.031;18.1512;10.982;18.203;12.514;44;0.240;0.036;15.74;60.2;0.031;15.1464;11.249;15.179;12.884
2021-9-16 17:20:22;4.39;44;23.90;22;0.281;0.035;16.22;61.1;0.031;18.1512;10.982;18.203;12.514;44;0.240;0.036;15.74;60.2;0.031;15.1464;11.249;15.179;12.884
2021-9-16 17:25:22;4.39;46;23.80;22;0.281;0.035;16.22;61.1;0.031;18.1512;10.982;18.203;12.514;44;0.238;0.036;15.74;60.2;0.032;15.0394;11.415;15.070;13.088
2021-9-16 17:30:21;4.38;46;23.80;22;0.278;0.036;16.02;60.8;0.0{1;17.192;11.224;17.968;12.803;44;0.242;0.036;15.74;60.2;0.031;15.3194;11.168;15.350;12.805
2021-9-16 17:35:20;4.38;45;23.40;22;0.281;0.035;16.22;61.1;0.031;18.1512;10.982;18.203;12.514;44;0.238;0.036;15.84;60.5;0.032;15.0394;11.415;15.070;13.088
2021-9-16 17:40:24;4.38;44;23.40;22K0.279;0.035;16.22;61.1;0.031;17.9962;11.062;18.045;12.618;44;0.238;0.036;15.84;60.5;0.032;15.0394;11.415;15.070;13.088
2021-9-16 17:45:23;4.38;46;23.30;22;0.281;0.035;16.22;61.1;0.031;18.1492;10.981;18.199;12.526;44;0.238;0.036;15.74;60.2;0.032;15.0394;11.415;15.070;13.088
2021-9-16 17:50:22;4.38;46;23.30;22;0.281;0.035;16.22;61.1;0.031;18.1492;10.981;18.199;12.526;44;0.238;0.036;15.74;60.2;0.032;15.0394;11.415;15.070;13.088
2021-9-16 17:55:21;4.38;47;22.90;22;0.281;0.035;16.22;61.1;0.031;18.1492;10.981;18.199;12.526;44;0.240;0.036;15.74;60.2;0.031;15.1454;11.248;15.175;12.896
2021-9-16 18:0:20;4.37;46;22.80;22;0.278;0.036;16.22;61.1;0.031;17.9192;11.224;17.968;12.803;44;0.238;0.036;15.74;60.2;0.032;15.0394;11.415;15.070;13.088
2021-9-16 18:5:23;4.37;47;22.70;22;0.281;0.035;16.22;61.1;0.031;18.1492;10.981;18.199;12.526;44;0.240;0.036;15.54;59.9;0.031;15.1454;11.248;15.175;12.896
2021-9-16 18:10:22;4.37;48;22.40;22;0.279;0.035;16.22;61.1;0.031;17.9962;11.062;18.045;12.618;44;0.238;0.036;15.74;60.2;0.032;15.0394;11.415;15.070;13.088
2021-9-16 18:15:21;4.36;51;21.90;22;0.280;0.035;16.22;61.1;0.031;18.0752;11.143;18.124;12.710;44;0.240;0.036;15.74;60.2;0.031;15.1454;11.248;15.175;12.896
2021-9-16 18:20:20;4.36;51;21.40;22;0.280;0.035;16.22;61.1;0.031;18.0732;11.142;18.120;12.722;44;0.238;0.036;15.74;60.2;0.032;15.0384;11.414;15.066;13.100
2021-9-16 18:25:24;4.36;52;21.20;22;0.279;0.035;16.02;60.8;0.031;17.9962;11.062;18.045;12.618;44;0.238;0.036;15.74;60.2;0.032;15.0384;11.414;15.066;13.100
2021-9-16 18:30:22;4.36;52;21.00;22;0.278;0.036;15.82;60.5;0.031;17.9182;11.223;17.964;12.815;44;0.235;0.037;15.74;60.2;0.032;14.8594;11.495;14.887;13.193
2021-9-16 18:35:21;4.35;55;20.30;22;0.278;0.036;16.02;60.8;0.031;17.9182;11.223;17.964;12.815;44;0.240;0.036;15.74;60.2;0.031;15.1434;11.247;15.172;12.908
2021-9-16 18:40:20;4.35;56;19.80;22;0.278;0.036;16.02;60.8;0.031;17.9182;11.223;17.964;12.815;44;0.238;0.036;15.74;60.2;0.032;15.0384;11.414;15.066;13.100
2021-9-16 18:45:23;4.34;55;19.60;22;0.280;0.035;16.02;60.8;0.031;18.0732;11.142;18.120;12.722;44;0.238;0.036;15.74;60.2;0.032;15.0364;11.413;15.062;13.113
2021-9-16 18:50:21;4.34;58;19.10;22;0.278;0.036;15.82;60.5;0.031;17.9182;11.223;17.964;12.815;44;0.238;0.036;15.74;60.2;0.032;15.0384;11.414;15.066;13.100
2021-9-16 18:55:20;4.34;58;18.90;22;0.280;0.035;16.02;60.8;0.031;18.0732;11.142;18.120;12.722;44;0.242;0.036;15.74;60.2;0.031;15.3174;11.167;15.346;12.817
2021-9-16 19:0:23;4.33;60;18.30;22;0.280;0.035;16.02;60.8;0.031;18.0732;11.142;18.120;12.722;44;0.246;0.035;15.74;60.2;0.030;15.6244;10.942;15.654;12.558
2021-9-16 19:5:21;4.33;60;18.10;22;0.280;0.035;16.02;60.8;0.031;18.0732;11.142;18.120;12.722;44;0.246;0.035;15.74;60.2;0.030;15.6244;10.942;15.654;12.558
2021-9-16 19:10:19;4.33;61;17.90;22;0.280;0.035;15.82;60.5;0.031;18.0732;11.142;18.120;12.722;44;0.238;0.036;15.74;60.2;0.032;15.0364;11.413;15.062;13.113
2021-9-16 19:15:22;4.33;61;17.90;22;0.283;0.035;16.02;60.8;0.030;18.3402;10.917;18.385;12.478;44;0.235;0.037;15.74;60.2;0.032;14.8584;11.494;14.884;13.205
2021-9-16 19:20:20;4.33;61;17.70;22;0.283;0.035;16.02;60.8;0.030;18.3402;10.917;18.385;12.478;44;0.238;0.036;15.74;60.2;0.032;15.0364;11.413;15.062;13.113
2021-9-16 19:25:23;4.33;62;17.40;22;0.280;0.035;16.02;60.8;0.031;18.0712;11.141;18.116;12.734;44;0.238;0.036;15.74;60.2;0.032;15.0364;11.413;15.062;13.113
2021-9-16 19:30:21;4.33;65;16.60;22;0.278;0.036;16.02;60.8;0.031;17.9162;11.222;17.960;12.827;44;0.238;0.036;15.74;60.2;0.032;15.0354;11.412;15.059;13.125
2021-9-16 19:35:19;4.33;66;16.30;22;0.280;0.035;16.02;60.8;0.031;18.0702;11.140;18.111;12.746;44;0.239;0.036;15.74;60.2;0.031;15.1424;11.246;15.168;12.920
2021-9-16 19:40:21;4.32;66;16.20;22;0.278;0.036;16.02;60.8;0.031;17.9142;11.221;17.955;12.839;44;0.238;0.036;15.74;60.2;0.032;15.0364;11.413;15.062;13.113
2021-9-16 19:45:19;4.32;65;16.50;22;0.280;0.035;16.02;60.8;0.031;18.0702;11.140;18.111;12.746;44;0.239;0.036;15.74;60.2;0.031;15.1424;11.246;15.168;12.920
2021-9-16 19:50:22;4.32;64;16.60;22;0.280;0.035;16.02;60.8;0.031;18.0702;11.140;18.111;12.746;44;0.235;0.037;15.74;60.2;0.032;14.8564;11.493;14.880;13.218
2021-9-16 19:55:20;4.32;66;16.10;22;0.283;0.035;16.02;60.8;0.030;18.3352;10.915;18.372;12.514;44;0.240;0.036;15.54;59.9;0.032;15.2134;11.333;15.239;13.020
2021-9-16 20:0:22;4.32;68;15.40;22;0.283;0.035;15.82;60.5;0.030;18.3362;10.916;18.376;12.502;44;0.244;0.035;15.54;59.9;0.031;15.4514;11.020;15.476;12.674
2021-9-16 20:5:20;4.31;67;15.70;22;0.283;0.035;16.02;60.8;0.030;18.3352;10.915;18.372;12.514;44;0.238;0.036;15.74;60.2;0.032;15.0354;11.412;15.059;13.125
2021-9-16 20:10:22;4.31;67;15.80;22;0.280;0.036;16.02;60.8;0.031;18.0662;11.138;18.103;12.771;44;0.238;0.036;15.54;59.9;0.032;15.0354;11.412;15.059;13.125
2021-9-16 20:15:20;4.31;68;15.60;22;0.280;0.036;16.02;60.8;0.031;18.0662;11.138;18.103;12.771;44;0.238;0.036;15.54;59.9;0.032;15.0354;11.412;15.059;13.125
2021-9-16 20:20:22;4.31;68;15.40;22;0.277;0.036;16.02;60.8;0.031;17.9112;11.219;17.947;12.864;44;0.238;0.037;15.54;59.9;0.032;15.0334;11.411;15.055;13.137
2021-9-16 20:25:20;4.31;67;15.60;22;0.283;0.035;15.82;60.5;0.030;18.3332;10.914;18.367;12.526;44;0.246;0.035;15.54;59.9;0.030;15.6214;10.940;15.646;12.582
2021-9-16 20:30:22;4.31;67;15.70;22;0.279;0.036;15.82;60.5;0.031;18.0642;11.138;18.098;12.783;44;0.238;0.037;15.54;59.9;0.032;15.0334;11.411;15.055;13.137
2021-9-16 20:35:20;4.31;67;15.80;22;0.279;0.036;15.82;60.5;0.031;18.0642;11.138;18.098;12.783;44;0.238;0.037;15.54;59.9;0.032;15.0334;11.411;15.055;13.137
2021-9-16 20:40:22;4.31;68;15.50;22;0.285;0.035;15.72;60.2;0.030;18.4842;10.833;18.519;12.433;44;0.238;0.037;15.54;59.9;0.032;15.0334;11.411;15.055;13.137
2021-9-16 20:45:20;4.31;71;14.80;22;0.279;0.036;15.82;60.5;0.031;18.0632;11.137;18.094;12.795;44;0.239;0.036;15.54;59.9;0.031;15.1384;11.244;15.161;12.945
2021-9-16 20:50:22;4.31;74;14.10;22;0.277;0.036;15.72;60.2;0.031;17.9072;11.218;17.938;12.888;44;0.238;0.037;15.54;59.9;0.032;15.0324;11.411;15.051;13.150
2021-9-16 20:55:20;4.31;75;14.00;22;0.277;0.036;15.72;60.2;0.031;17.9072;11.218;17.938;12.888;44;0.242;0.036;15.44;59.6;0.031;15.3114;11.163;15.331;12.865
2021-9-16 21:0:22;4.30;72;14.70;22;0.279;0.036;15.72;60.2;0.031;18.0632;11.137;18.094;12.795;44;0.238;0.037;15.54;59.9;0.032;15.0324;11.411;15.051;13.150
2021-9-16 21:5:20;4.31;73;14.60;22;0.277;0.036;15.72;60.2;0.031;17.9052;11.217;17.934;12.900;44;0.242;0.036;15.44;59.6;0.031;15.3114;11.163;15.331;12.865
2021-9-16 21:10:22;4.30;72;14.70;22;0.277;0.036;15.72;60.2;0.031;17.9052;11.217;17.934;12.900;44;0.238;0.037;15.54;59.9;0.032;15.0304;11.410;15.048;13.162
2021-9-16 21:15:19;4.30;72;14.80;22;0.279;0.036;15.72;60.2;0.031;18.0612;11.136;18.090;12.807;44;0.235;0.037;15.44;59.6;0.032;14.8534;11.491;14.873;13.242
2021-9-16 21:20:21;4.30;72;14.70;22;0.277;0.036;15.72;60.2;0.031;17.9052;11.217;17.934;12.900;44;0.246;0.035;15.44;59.6;0.030;15.6184;10.939;15.639;12.606
2021-9-16 21:25:19;4.30;73;14.30;22;0.279;0.036;15.72;60.2;0.031;18.0612;11.136;18.090;12.807;44;0.239;0.036;15.44;59.6;0.031;15.1354;11.242;15.153;12.969
2021-9-16 21:30:21;4.30;73;14.30;22;0.277;0.036;15.72;60.2;0.031;17.9052;11.217;17.934;12.900;44;0.238;0.037;15.54;59.9;0.032;15.0304;11.410;15.048;13.162
2021-9-16 21:35:19;4.30;73;14.20;22;0.283;0.035;15.72;60.2;0.030;18.3282;10.911;18.354;12.562;44;0.238;0.037;15.44;59.6;0.032;15.0294;11.409;15.044;13.174
2021-9-16 21:40:21;4.30;73;14.40;22;0.283;0.035;15.72;60.2;0.030;18.3282;10.911;18.354;12.562;44;0.239;0.036;15.44;59.6;0.031;15.1354;11.242;15.153;12.969
2021-9-16 21:45:18;4.30;73;14.30;22;0.279;0.036;15.72;60.2;0.031;18.0592;11.135;18.085;12.819;44;0.238;0.037;15.44;59.6;0.032;15.0294;11.409;15.044;13.174
2021-9-16 21:50:20;4.30;75;14.10;22;0.279;0.036;15.72;60.2;0.031;18.0572;11.134;18.081;12.831;44;0.239;0.036;15.44;59.6;0.031;15.1354;11.242;15.153;12.969
2021-9-16 21:55:22;4.30;75;13.70;22;0.279;0.036;15.72;60.2;0.031;18.0592;11.135;18.085;12.819;44;0.239;0.036;15.44;59.6;0.031;15.1354;11.242;15.153;12.969
2021-9-16 22:0:20;4.30;76;13.60;22;0.279;0.036;15.72;60.2;0.031;18.0572;11.134;18.081;12.831;44;0.238;0.037;15.44;59.6;0.032;15.0294;11.409;15.044;13.174
2021-9-16 22:5:22;4.30;78;13.20;22;0.280;0.035;15.52;59.9;0.031;18.1322;10.973;18.156;12.645;44;0.239;0.036;15.44;59.6;0.031;15.1344;11.241;15.150;12.981
2021-9-16 22:10:20;4.30;79;12.70;22;0.279;0.036;15.52;59.9;0.031;18.0572;11.134;18.081;12.831;44;0.238;0.037;15.44;59.6;0.032;15.0294;11.409;15.044;13.174
2021-9-16 22:15:22;4.30;79;12.90;22;0.279;0.036;15.52;59.9;0.031;18.0562;11.133;18.077;12.843;44;0.238;0.037;15.24;59.4;0.032;15.0294;11.409;15.044;13.174
2021-9-16 22:20:19;4.30;79;12.80;22;0.279;0.036;15.52;59.9;0.031;18.0562;11.133;18.077;12.843;44;0.242;0.036;15.44;59.6;0.031;15.3084;11.162;15.324;12.889
2021-9-16 22:25:21;4.30;79;12.70;22;0.277;0.036;15.52;59.9;0.031;17.9002;11.214;17.921;12.937;44;0.238;0.037;15.44;59.6;0.032;15.0274;11.408;15.041;13.187
2021-9-16 22:30:19;4.30;80;12.50;22;0.277;0.036;15.52;59.9;0.031;17.8982;11.214;17.917;12.949;44;0.238;0.037;15.44;59.6;0.032;15.0274;11.408;15.041;13.187
2021-9-16 22:35:20;4.30;78;12.70;22;0.279;0.036;15.52;59.9;0.031;18.0562;11.133;18.077;12.843;44;0.238;0.037;15.24;59.4;0.032;15.0274;11.408;15.041;13.187
2021-9-16 22:40:22;4.30;81;12.00;22;0.277;0.036;15.52;59.9;0.031;17.8982;11.214;17.917;12.949;44;0.238;0.037;15.44;59.6;0.032;15.0264;11.407;15.037;13.199
2021-9-16 22:45:20;4.30;81;12.10;22;0.277;0.036;15.42;59.6;0.031;17.8982;11.214;17.917;12.949;44;0.239;0.036;15.24;59.4;0.031;15.1324;11.240;15.146;12.993
2021-9-16 22:50:22;4.29;80;12.30;22;0.280;0.035;15.42;59.6;0.031;18.1282;10.971;18.147;12.669;44;0.242;0.036;15.24;59.4;0.031;15.3064;11.161;15.320;12.901
2021-9-16 22:55:19;4.30;80;12.40;22;0.280;0.035;15.42;59.6;0.030;18.1262;10.971;18.143;12.681;44;0.238;0.037;15.44;59.6;0.032;15.0264;11.407;15.037;13.199
2021-9-16 23:0:21;4.29;80;12.40;22;0.280;0.035;15.42;59.6;0.030;18.1262;10.971;18.143;12.681;44;0.238;0.037;15.44;59.6;0.032;15.0264;11.407;15.037;13.199
2021-9-16 23:5:18;4.29;82;12.00;22;0.278;0.036;15.42;59.6;0.031;17.9732;11.051;17.989;12.774;44;0.238;0.037;15.24;59.4;0.032;15.0264;11.407;15.037;13.199
2021-9-16 23:10:20;4.29;82;11.80;22;0.280;0.035;15.42;59.6;0.030;18.1252;10.970;18.139;12.693;44;0.239;0.036;15.24;59.4;0.031;15.1314;11.240;15.143;13.005
2021-9-16 23:15:22;4.29;83;11.70;22;0.277;0.036;15.42;59.6;0.031;17.8952;11.212;17.909;12.973;44;0.238;0.037;15.44;59.6;0.032;15.0244;11.406;15.034;13.211
2021-9-16 23:20:19;4.29;81;12.10;22;0.278;0.036;15.42;59.6;0.031;17.9712;11.050;17.985;12.786;44;0.246;0.035;15.24;59.4;0.030;15.6124;10.935;15.624;12.653
2021-9-16 23:25:21;4.29;81;12.20;22;0.280;0.035;15.42;59.6;0.030;18.1252;10.970;18.139;12.693;44;0.238;0.037;15.24;59.4;0.032;15.0244;11.406;15.034;13.211
2021-9-16 23:30:19;4.29;82;12.00;22;0.280;0.035;15.42;59.6;0.030;18.1232;10.969;18.134;12.705;44;0.246;0.035;15.24;59.4;0.030;15.6104;10.934;15.620;12.665
2021-9-16 23:35:20;4.29;83;11.60;22;0.280;0.035;15.42;59.6;0.030;18.1232;10.969;18.134;12.705;44;0.238;0.037;15.24;59.4;0.032;15.0234;11.405;15.030;13.224
2021-9-16 23:40:22;4.29;84;11.40;22;0.280;0.035;15.42;59.6;0.030;18.1232;10.969;18.134;12.705;44;0.238;0.037;15.24;59.4;0.032;15.0234;11.405;15.030;13.224
2021-9-16 23:45:19;4.29;85;10.90;22;0.280;0.035;15.42;59.6;0.030;18.1232;10.969;18.134;12.705;44;0.239;0.036;15.04;59.1;0.031;15.1284;11.238;15.135;13.030
2021-9-16 23:50:21;4.28;86;10.60;22;0.281;0.035;15.22;59.4;0.030;18.1942;10.808;18.203;12.531;44;0.238;0.037;15.24;59.4;0.032;15.0234;11.405;15.030;13.224
2021-9-16 23:55:19;4.28;85;11.00;22;0.280;0.035;15.42;59.6;0.030;18.1212;10.968;18.130;12.717;44;0.237;0.037;15.24;59.4;0.032;15.0214;11.404;15.026;13.236
