2021-9-14 0:0:19;4.32;82;16.20;22;0.281;0.035;17.92;64.1;0.032;18.1272;11.366;18.240;12.644;44;0.243;0.037;16.84;62.3;0.033;15.3564;11.696;15.422;13.189
2021-9-14 0:5:22;4.31;80;16.20;22;0.283;0.035;17.92;64.1;0.031;18.2842;11.283;18.398;12.552;44;0.243;0.037;16.84;62.3;0.033;15.3584;11.697;15.426;13.177
2021-9-14 0:10:19;4.31;82;15.90;22;0.278;0.036;17.72;63.8;0.032;17.8472;11.594;17.958;12.897;44;0.241;0.037;16.84;62.3;0.033;15.1774;11.779;15.244;13.270
2021-9-14 0:15:22;4.31;81;16.10;22;0.281;0.035;17.92;64.1;0.032;18.1252;11.365;18.236;12.656;44;0.240;0.037;16.84;62.3;0.033;15.1754;11.778;15.240;13.283
2021-9-14 0:20:20;4.31;82;15.90;22;0.280;0.036;17.72;63.8;0.032;18.0052;11.510;18.115;12.818;44;0.245;0.036;16.84;62.3;0.032;15.4624;11.524;15.529;12.996
2021-9-14 0:25:22;4.30;83;15.90;22;0.283;0.035;17.72;63.8;0.031;18.2822;11.282;18.393;12.564;44;0.245;0.036;16.84;62.3;0.032;15.4624;11.524;15.529;12.996
2021-9-14 0:30:20;4.30;84;15.70;22;0.275;0.036;17.72;63.8;0.032;17.6842;11.676;17.792;13.002;44;0.245;0.036;16.84;62.3;0.032;15.4624;11.524;15.529;12.996
2021-9-14 0:35:22;4.30;83;15.80;22;0.280;0.036;17.72;63.8;0.032;18.0032;11.509;18.110;12.830;44;0.247;0.036;16.74;62.0;0.032;15.6394;11.442;15.707;12.904
2021-9-14 0:40:20;4.30;84;15.60;22;0.279;0.035;17.72;63.8;0.032;17.9232;11.427;18.030;12.738;44;0.243;0.037;16.74;62.0;0.033;15.3564;11.696;15.422;13.189
2021-9-14 0:45:22;4.30;81;15.20;22;0.283;0.035;17.72;63.8;0.031;18.2782;11.281;18.384;12.589;44;0.239;0.038;16.84;62.3;0.033;15.0624;11.950;15.124;13.491
2021-9-14 0:50:20;4.30;78;14.50;22;0.279;0.035;17.72;63.8;0.032;17.9212;11.426;18.025;12.751;44;0.240;0.037;16.84;62.3;0.033;15.1734;11.777;15.237;13.295
2021-9-14 0:55:22;4.30;77;14.20;22;0.280;0.036;17.72;63.8;0.032;18.0012;11.508;18.105;12.843;44;0.243;0.037;16.84;62.3;0.033;15.3554;11.695;15.419;13.202
2021-9-14 1:0:20;4.30;77;14.00;22;0.280;0.036;17.72;63.8;0.032;17.9992;11.507;18.101;12.855;44;0.243;0.037;16.74;62.0;0.033;15.3554;11.695;15.419;13.202
2021-9-14 1:5:22;4.30;76;13.90;22;0.278;0.035;17.52;63.5;0.032;17.9202;11.425;18.021;12.763;44;0.245;0.036;16.54;61.7;0.032;15.4614;11.523;15.525;13.009
2021-9-14 1:10:20;4.30;75;13.80;22;0.278;0.035;17.52;63.5;0.032;17.9202;11.425;18.021;12.763;44;0.240;0.037;16.54;61.7;0.033;15.1734;11.777;15.237;13.295
2021-9-14 1:15:22;4.30;74;13.70;22;0.279;0.036;17.52;63.5;0.032;17.9982;11.506;18.096;12.868;44;0.240;0.037;16.74;62.0;0.033;15.1724;11.776;15.233;13.308
2021-9-14 1:20:19;4.30;74;13.50;22;0.278;0.036;17.52;63.5;0.032;17.9182;11.424;18.016;12.775;44;0.240;0.037;16.74;62.0;0.033;15.1724;11.776;15.233;13.308
2021-9-14 1:25:21;4.30;74;13.40;22;0.283;0.035;17.52;63.5;0.031;18.2302;11.259;18.328;12.604;44;0.243;0.037;16.74;62.0;0.033;15.3534;11.693;15.415;13.215
2021-9-14 1:30:19;4.30;73;13.50;22;0.281;0.036;17.52;63.5;0.032;18.1522;11.422;18.246;12.800;44;0.239;0.038;16.54;61.7;0.033;15.0604;11.949;15.121;13.504
2021-9-14 1:35:21;4.30;74;13.40;22;0.280;0.035;17.32;63.2;0.032;18.0742;11.341;18.170;12.696;44;0.251;0.035;16.74;62.0;0.031;15.9484;11.210;16.012;12.668
2021-9-14 1:40:19;4.30;74;13.40;22;0.280;0.035;17.32;63.2;0.032;18.0722;11.340;18.166;12.708;44;0.251;0.035;16.74;62.0;0.031;15.9464;11.209;16.008;12.681
2021-9-14 1:45:21;4.30;74;13.40;22;0.282;0.035;17.32;63.2;0.031;18.2282;11.258;18.323;12.616;44;0.240;0.037;16.54;61.7;0.033;15.1704;11.775;15.229;13.321
2021-9-14 1:50:18;4.29;75;13.20;22;0.282;0.035;17.32;63.2;0.031;18.2262;11.257;18.318;12.629;44;0.243;0.037;16.54;61.7;0.033;15.3514;11.692;15.411;13.227
2021-9-14 1:55:20;4.29;75;13.40;22;0.281;0.036;17.22;62.9;0.032;18.1502;11.421;18.242;12.813;44;0.244;0.036;16.54;61.7;0.032;15.4564;11.520;15.513;13.046
2021-9-14 2:0:22;4.29;76;13.30;22;0.280;0.035;17.32;63.2;0.032;18.0702;11.339;18.161;12.721;44;0.243;0.037;16.54;61.7;0.033;15.3504;11.691;15.407;13.240
2021-9-14 2:5:20;4.29;77;13.30;22;0.282;0.035;17.32;63.2;0.031;18.2262;11.257;18.318;12.629;44;0.240;0.037;16.54;61.7;0.033;15.1694;11.774;15.225;13.333
2021-9-14 2:10:22;4.29;77;13.30;22;0.280;0.035;17.32;63.2;0.032;18.0682;11.338;18.157;12.733;44;0.243;0.037;16.54;61.7;0.033;15.3504;11.691;15.407;13.240
2021-9-14 2:15:19;4.29;77;13.40;22;0.280;0.035;17.32;63.2;0.032;18.0682;11.338;18.157;12.733;44;0.240;0.037;16.74;62.0;0.033;15.1674;11.773;15.221;13.346
2021-9-14 2:20:21;4.29;78;13.30;22;0.280;0.035;17.32;63.2;0.032;18.0682;11.338;18.157;12.733;44;0.243;0.037;16.54;61.7;0.032;15.3484;11.690;15.403;13.252
2021-9-14 2:25:19;4.29;79;13.10;22;0.282;0.035;17.22;62.9;0.031;18.2232;11.255;18.309;12.653;44;0.244;0.036;16.54;61.7;0.032;15.4564;11.520;15.513;13.046
2021-9-14 2:30:21;4.29;77;13.10;22;0.280;0.035;17.22;62.9;0.032;18.0662;11.337;18.152;12.745;44;0.250;0.036;16.54;61.7;0.032;15.8444;11.377;15.901;12.897
2021-9-14 2:35:18;4.29;78;12.90;22;0.276;0.036;17.22;62.9;0.032;17.7872;11.564;17.871;13.001;44;0.243;0.037;16.54;61.7;0.032;15.3484;11.690;15.403;13.252
2021-9-14 2:40:20;4.29;78;12.70;22;0.281;0.035;17.22;62.9;0.031;18.1422;11.174;18.228;12.562;44;0.243;0.037;16.54;61.7;0.032;15.3464;11.689;15.399;13.265
2021-9-14 2:45:22;4.30;77;12.80;22;0.283;0.035;17.22;62.9;0.031;18.2952;11.091;18.379;12.482;44;0.247;0.036;16.54;61.7;0.032;15.6314;11.437;15.687;12.965
2021-9-14 2:50:20;4.29;78;12.50;22;0.276;0.036;17.02;62.6;0.032;17.7852;11.563;17.867;13.013;44;0.243;0.037;16.54;61.7;0.032;15.3464;11.689;15.399;13.265
2021-9-14 2:55:21;4.29;77;12.50;22;0.277;0.036;17.02;62.6;0.032;17.8652;11.399;17.947;12.828;44;0.244;0.036;16.54;61.7;0.032;15.4544;11.519;15.509;13.058
2021-9-14 3:0:19;4.29;78;12.30;22;0.283;0.035;17.02;62.6;0.031;18.2952;11.091;18.379;12.482;44;0.243;0.037;16.54;61.7;0.032;15.3464;11.689;15.399;13.265
2021-9-14 3:5:21;4.29;78;12.30;22;0.281;0.035;17.02;62.6;0.031;18.1412;11.173;18.224;12.574;44;0.243;0.037;16.54;61.7;0.032;15.3464;11.689;15.399;13.265
2021-9-14 3:10:18;4.29;79;12.10;22;0.277;0.036;17.02;62.6;0.032;17.8632;11.398;17.943;12.840;44;0.243;0.037;16.54;61.7;0.032;15.3454;11.688;15.395;13.278
2021-9-14 3:15:20;4.29;79;12.00;22;0.277;0.036;17.02;62.6;0.032;17.8632;11.398;17.943;12.840;44;0.243;0.037;16.34;61.4;0.032;15.3454;11.688;15.395;13.278
2021-9-14 3:20:22;4.28;79;12.10;22;0.277;0.036;17.02;62.6;0.032;17.8612;11.397;17.938;12.853;44;0.243;0.037;16.34;61.4;0.032;15.3434;11.687;15.392;13.290
2021-9-14 3:25:19;4.28;78;12.20;22;0.283;0.035;17.02;62.6;0.031;18.2912;11.090;18.370;12.506;44;0.247;0.036;16.34;61.4;0.032;15.6284;11.435;15.679;12.990
2021-9-14 3:30:21;4.28;78;12.10;22;0.277;0.036;17.02;62.6;0.032;17.8612;11.397;17.938;12.853;44;0.244;0.036;16.34;61.4;0.032;15.4514;11.517;15.502;13.083
2021-9-14 3:35:19;4.28;79;12.00;22;0.283;0.035;17.02;62.6;0.031;18.2902;11.089;18.366;12.518;44;0.238;0.038;16.34;61.4;0.033;15.0134;11.920;15.061;13.555
2021-9-14 3:40:21;4.28;78;12.00;22;0.279;0.036;16.82;62.3;0.031;18.0172;11.314;18.092;12.773;44;0.243;0.037;16.34;61.4;0.032;15.3434;11.687;15.392;13.290
2021-9-14 3:45:18;4.28;79;11.90;22;0.279;0.036;17.02;62.6;0.031;18.0172;11.314;18.092;12.773;44;0.243;0.037;16.34;61.4;0.032;15.3434;11.687;15.392;13.290
2021-9-14 3:50:20;4.28;79;11.80;22;0.279;0.036;16.82;62.3;0.031;18.0172;11.314;18.092;12.773;44;0.244;0.036;16.34;61.4;0.032;15.4494;11.516;15.498;13.096
2021-9-14 3:55:22;4.28;78;11.90;22;0.278;0.035;16.82;62.3;0.031;17.9362;11.232;18.008;12.693;44;0.244;0.036;16.24;61.1;0.032;15.4494;11.516;15.498;13.096
2021-9-14 4:0:19;4.28;79;11.60;22;0.277;0.036;16.82;62.3;0.032;17.8562;11.394;17.925;12.890;44;0.243;0.037;16.24;61.1;0.032;15.3424;11.686;15.388;13.303
2021-9-14 4:5:21;4.28;80;11.50;22;0.277;0.036;16.82;62.3;0.032;17.8562;11.394;17.925;12.890;44;0.243;0.037;16.34;61.4;0.032;15.3424;11.686;15.388;13.303
2021-9-14 4:10:18;4.28;79;11.60;22;0.279;0.036;16.82;62.3;0.031;18.0132;11.312;18.083;12.797;44;0.243;0.037;16.34;61.4;0.032;15.3424;11.686;15.388;13.303
2021-9-14 4:15:20;4.28;80;11.40;22;0.279;0.036;16.82;62.3;0.031;18.0112;11.312;18.079;12.810;44;0.244;0.036;16.24;61.1;0.032;15.4484;11.515;15.494;13.108
2021-9-14 4:20:22;4.28;80;11.40;22;0.273;0.037;16.82;62.3;0.032;17.5702;11.619;17.633;13.171;44;0.243;0.037;16.34;61.4;0.032;15.3404;11.685;15.384;13.315
2021-9-14 4:25:19;4.28;80;11.40;22;0.280;0.035;16.72;62.0;0.031;18.0882;11.149;18.155;12.625;44;0.243;0.037;16.34;61.4;0.032;15.3404;11.685;15.384;13.315
2021-9-14 4:30:21;4.28;81;11.30;22;0.280;0.035;16.72;62.0;0.031;18.0882;11.149;18.155;12.625;44;0.243;0.037;16.34;61.4;0.032;15.3404;11.685;15.384;13.315
2021-9-14 4:35:18;4.27;81;11.20;22;0.278;0.035;16.72;62.0;0.031;17.9302;11.229;17.994;12.729;44;0.247;0.036;16.24;61.1;0.032;15.6234;11.432;15.667;13.027
2021-9-14 4:40:20;4.27;82;11.10;22;0.280;0.035;16.72;62.0;0.031;18.0862;11.148;18.151;12.637;44;0.247;0.036;16.24;61.1;0.032;15.6234;11.432;15.667;13.027
2021-9-14 4:45:22;4.27;82;11.20;22;0.280;0.035;16.72;62.0;0.031;18.0862;11.148;18.151;12.637;44;0.242;0.037;16.24;61.1;0.032;15.3384;11.684;15.380;13.328
2021-9-14 4:50:19;4.27;82;11.10;22;0.281;0.035;16.72;62.0;0.031;18.1622;11.227;18.222;12.754;44;0.247;0.036;16.24;61.1;0.032;15.6234;11.432;15.667;13.027
2021-9-14 4:55:21;4.27;82;11.10;22;0.280;0.035;16.52;61.7;0.031;18.0822;11.146;18.142;12.662;44;0.246;0.036;16.24;61.1;0.032;15.6214;11.431;15.664;13.039
2021-9-14 5:0:18;4.27;82;11.10;22;0.278;0.035;16.52;61.7;0.031;17.9272;11.227;17.986;12.754;44;0.242;0.037;16.24;61.1;0.032;15.3374;11.683;15.376;13.341
2021-9-14 5:5:20;4.27;83;10.90;22;0.280;0.035;16.52;61.7;0.031;18.0802;11.145;18.137;12.674;44;0.242;0.037;16.04;60.8;0.032;15.3374;11.683;15.376;13.341
2021-9-14 5:10:21;4.27;82;11.00;22;0.278;0.035;16.52;61.7;0.031;17.9252;11.226;17.981;12.766;44;0.246;0.036;16.04;60.8;0.032;15.6214;11.431;15.664;13.039
2021-9-14 5:15:19;4.27;83;10.80;22;0.280;0.035;16.52;61.7;0.031;18.0802;11.145;18.137;12.674;44;0.244;0.037;16.04;60.8;0.032;15.4434;11.512;15.483;13.145
2021-9-14 5:20:21;4.27;83;10.80;22;0.280;0.035;16.52;61.7;0.031;18.0802;11.145;18.137;12.674;44;0.242;0.037;16.24;61.1;0.032;15.3354;11.682;15.373;13.353
2021-9-14 5:25:18;4.27;84;10.60;22;0.280;0.035;16.52;61.7;0.031;18.0802;11.145;18.137;12.674;44;0.242;0.037;16.24;61.1;0.032;15.3354;11.682;15.373;13.353
2021-9-14 5:30:19;4.27;84;10.50;22;0.280;0.035;16.52;61.7;0.031;18.0802;11.145;18.137;12.674;44;0.244;0.037;15.84;60.5;0.032;15.4414;11.511;15.479;13.158
2021-9-14 5:35:21;4.27;84;10.40;22;0.280;0.035;16.32;61.4;0.031;18.0792;11.144;18.133;12.686;44;0.242;0.037;16.24;61.1;0.032;15.3354;11.682;15.373;13.353
2021-9-14 5:40:18;4.27;84;10.50;22;0.278;0.036;16.32;61.4;0.031;17.9232;11.226;17.977;12.778;44;0.242;0.037;16.04;60.8;0.032;15.3344;11.681;15.369;13.366
2021-9-14 5:45:20;4.27;85;10.40;22;0.280;0.035;16.32;61.4;0.031;18.0772;11.144;18.129;12.698;44;0.244;0.037;15.84;60.5;0.032;15.4414;11.511;15.479;13.158
2021-9-14 5:50:22;4.27;84;10.50;22;0.278;0.036;16.32;61.4;0.031;17.9212;11.225;17.973;12.790;44;0.244;0.037;16.04;60.8;0.032;15.4414;11.511;15.479;13.158
2021-9-14 5:55:19;4.27;84;10.50;22;0.277;0.036;16.32;61.4;0.032;17.8412;11.387;17.890;12.989;44;0.246;0.036;15.84;60.5;0.032;15.6184;11.429;15.656;13.064
2021-9-14 6:0:21;4.27;85;10.30;22;0.278;0.036;16.32;61.4;0.031;17.9192;11.224;17.968;12.803;44;0.244;0.037;16.04;60.8;0.032;15.4404;11.510;15.475;13.170
2021-9-14 6:5:18;4.27;86;10.10;22;0.280;0.035;16.32;61.4;0.031;18.0752;11.143;18.124;12.710;44;0.244;0.037;15.84;60.5;0.032;15.4404;11.510;15.475;13.170
2021-9-14 6:10:20;4.27;88;9.70;22;0.280;0.035;16.32;61.4;0.031;18.0752;11.143;18.124;12.710;44;0.242;0.037;16.04;60.8;0.032;15.3324;11.680;15.365;13.378
2021-9-14 6:15:21;4.27;88;9.70;22;0.280;0.035;16.32;61.4;0.031;18.0752;11.143;18.124;12.710;44;0.242;0.037;16.04;60.8;0.032;15.3324;11.680;15.365;13.378
2021-9-14 6:20:18;4.28;87;9.80;22;0.280;0.035;16.32;61.4;0.031;18.0752;11.143;18.124;12.710;44;0.242;0.037;16.04;60.8;0.032;15.3324;11.680;15.365;13.378
2021-9-14 6:25:20;4.27;87;9.60;22;0.273;0.037;16.22;61.1;0.032;17.5582;11.612;17.603;13.260;44;0.242;0.037;16.04;60.8;0.032;15.3324;11.680;15.365;13.378
2021-9-14 6:30:22;4.27;89;9.30;22;0.282;0.035;16.22;61.1;0.031;18.2272;11.061;18.274;12.630;44;0.246;0.036;15.84;60.5;0.032;15.6154;11.428;15.648;13.089
2021-9-14 6:35:19;4.27;89;9.30;22;0.278;0.036;16.22;61.1;0.031;17.9182;11.223;17.964;12.815;44;0.242;0.037;16.04;60.8;0.032;15.3304;11.679;15.361;13.391
2021-9-14 6:40:20;4.27;90;9.10;22;0.273;0.037;16.22;61.1;0.032;17.5562;11.612;17.599;13.272;44;0.242;0.037;16.04;60.8;0.032;15.3304;11.679;15.361;13.391
2021-9-14 6:45:22;4.27;89;9.20;22;0.274;0.036;16.22;61.1;0.032;17.6382;11.447;17.681;13.084;44;0.244;0.037;15.84;60.5;0.032;15.4364;11.508;15.468;13.195
2021-9-14 6:50:19;4.27;90;9.10;22;0.280;0.035;16.22;61.1;0.031;18.0712;11.141;18.116;12.734;44;0.244;0.037;15.84;60.5;0.032;15.4364;11.508;15.468;13.195
2021-9-14 6:55:20;4.27;90;8.90;22;0.281;0.035;16.02;60.8;0.031;18.1442;10.979;18.186;12.562;44;0.246;0.036;15.84;60.5;0.032;15.6134;11.427;15.644;13.101
2021-9-14 7:0:18;4.27;91;8.80;22;0.280;0.035;16.22;61.1;0.031;18.0702;11.140;18.111;12.746;44;0.239;0.037;16.04;60.8;0.033;15.1114;11.739;15.139;13.473
2021-9-14 7:5:19;4.27;92;8.70;22;0.274;0.036;16.02;60.8;0.032;17.6362;11.446;17.677;13.097;44;0.245;0.036;15.84;60.5;0.032;15.5404;11.339;15.571;13.000
2021-9-14 7:10:21;4.27;93;8.50;22;0.282;0.035;16.22;61.1;0.031;18.2202;11.057;18.257;12.678;44;0.244;0.037;15.84;60.5;0.032;15.4354;11.508;15.464;13.207
2021-9-14 7:15:18;4.27;93;8.50;22;0.281;0.035;15.82;60.5;0.031;18.1422;10.978;18.181;12.574;44;0.239;0.037;16.04;60.8;0.033;15.1094;11.738;15.135;13.485
2021-9-14 7:20:19;4.27;92;8.70;22;0.277;0.036;16.02;60.8;0.031;17.8712;11.201;17.910;12.830;44;0.239;0.037;16.04;60.8;0.033;15.1094;11.738;15.135;13.485
2021-9-14 7:25:21;4.27;93;8.70;22;0.277;0.036;16.02;60.8;0.031;17.8712;11.201;17.910;12.830;44;0.244;0.037;15.74;60.2;0.032;15.4354;11.508;15.464;13.207
2021-9-14 7:30:18;4.27;93;8.80;22;0.275;0.036;16.02;60.8;0.031;17.7132;11.281;17.749;12.934;44;0.248;0.036;15.84;60.5;0.031;15.7124;11.257;15.742;12.919
2021-9-14 7:35:19;4.27;92;9.00;22;0.283;0.035;16.02;60.8;0.030;18.2932;10.897;18.330;12.493;44;0.239;0.037;15.84;60.5;0.033;15.1094;11.738;15.135;13.485
2021-9-14 7:40:21;4.27;93;9.10;22;0.275;0.036;16.02;60.8;0.031;17.7132;11.281;17.749;12.934;44;0.239;0.037;15.84;60.5;0.033;15.1094;11.738;15.135;13.485
2021-9-14 7:45:18;4.27;92;9.30;22;0.277;0.036;16.02;60.8;0.031;17.8692;11.200;17.905;12.842;44;0.247;0.036;15.74;60.2;0.031;15.7114;11.256;15.738;12.931
2021-9-14 7:50:19;4.27;91;9.60;22;0.277;0.036;15.82;60.5;0.031;17.8682;11.200;17.901;12.854;44;0.244;0.037;15.74;60.2;0.032;15.4334;11.507;15.460;13.220
2021-9-14 7:55:21;4.27;91;9.80;22;0.276;0.035;16.02;60.8;0.031;17.7892;11.118;17.822;12.761;44;0.247;0.036;15.74;60.2;0.031;15.7114;11.256;15.738;12.931
2021-9-14 8:0:18;4.27;90;9.90;22;0.277;0.036;16.02;60.8;0.031;17.8682;11.200;17.901;12.854;44;0.244;0.037;15.84;60.5;0.032;15.4334;11.507;15.460;13.220
2021-9-14 8:5:20;4.27;91;10.10;22;0.282;0.035;16.02;60.8;0.030;18.2912;10.896;18.325;12.505;44;0.239;0.037;15.84;60.5;0.033;15.1094;11.738;15.135;13.485
2021-9-14 8:10:21;4.27;91;10.20;22;0.275;0.036;15.82;60.5;0.031;17.7112;11.280;17.744;12.947;44;0.245;0.036;15.74;60.2;0.032;15.5364;11.337;15.563;13.025
2021-9-14 8:15:19;4.27;90;10.40;22;0.275;0.036;15.82;60.5;0.031;17.7112;11.280;17.744;12.947;44;0.246;0.036;15.84;60.5;0.032;15.6104;11.425;15.637;13.126
2021-9-14 8:20:20;4.27;90;10.70;22;0.278;0.035;16.02;60.8;0.031;17.9442;11.038;17.977;12.669;44;0.244;0.037;15.84;60.5;0.032;15.4334;11.507;15.460;13.220
2021-9-14 8:25:22;4.27;90;10.80;22;0.278;0.035;15.82;60.5;0.031;17.9442;11.038;17.977;12.669;44;0.239;0.037;15.84;60.5;0.033;15.1094;11.738;15.135;13.485
2021-9-14 8:30:19;4.27;89;10.80;22;0.277;0.036;16.02;60.8;0.031;17.8692;11.200;17.905;12.842;44;0.239;0.037;15.84;60.5;0.033;15.1094;11.738;15.135;13.485
2021-9-14 8:35:21;4.27;87;10.80;22;0.278;0.035;16.02;60.8;0.031;17.9452;11.039;17.982;12.657;44;0.239;0.037;15.74;60.2;0.033;15.1114;11.739;15.139;13.473
2021-9-14 8:40:18;4.27;87;11.30;22;0.278;0.035;15.82;60.5;0.031;17.9452;11.039;17.982;12.657;44;0.245;0.036;15.74;60.2;0.032;15.5384;11.338;15.567;13.013
2021-9-14 8:45:20;4.27;85;11.40;22;0.278;0.035;16.02;60.8;0.031;17.9452;11.039;17.982;12.657;44;0.239;0.037;16.04;60.8;0.033;15.1094;11.738;15.135;13.485
2021-9-14 8:50:22;4.27;83;11.70;22;0.281;0.035;16.02;60.8;0.031;18.1772;11.038;18.211;12.669;44;0.244;0.037;15.84;60.5;0.032;15.4354;11.508;15.464;13.207
2021-9-14 8:55:19;4.27;83;12.00;22;0.280;0.035;16.02;60.8;0.030;18.0992;10.959;18.135;12.565;44;0.239;0.037;15.84;60.5;0.033;15.1114;11.739;15.139;13.473
2021-9-14 9:0:21;4.27;82;12.20;22;0.282;0.035;16.02;60.8;0.030;18.2532;10.879;18.292;12.461;44;0.239;0.037;15.84;60.5;0.033;15.1114;11.739;15.139;13.473
2021-9-14 9:5:18;4.27;79;12.60;22;0.279;0.035;16.02;60.8;0.031;18.0252;11.120;18.061;12.749;44;0.239;0.037;16.04;60.8;0.033;15.1124;11.740;15.143;13.460
2021-9-14 9:10:20;4.27;76;13.00;22;0.278;0.035;15.82;60.5;0.031;17.9472;11.040;17.986;12.645;44;0.239;0.037;16.04;60.8;0.033;15.1114;11.739;15.139;13.473
2021-9-14 9:15:22;4.27;76;13.10;22;0.280;0.035;16.02;60.8;0.030;18.1022;10.960;18.144;12.541;44;0.239;0.037;16.04;60.8;0.033;15.1124;11.740;15.143;13.460
2021-9-14 9:20:20;4.28;75;13.30;22;0.276;0.035;16.02;60.8;0.031;17.7942;11.121;17.835;12.725;44;0.239;0.037;15.84;60.5;0.033;15.1144;11.741;15.146;13.447
2021-9-14 9:25:22;4.29;75;13.80;22;0.280;0.035;16.02;60.8;0.030;18.1042;10.961;18.148;12.529;44;0.248;0.036;15.84;60.5;0.031;15.7174;11.259;15.753;12.883
2021-9-14 9:30:20;4.29;74;14.20;22;0.279;0.035;16.22;61.1;0.031;18.0282;11.121;18.070;12.725;44;0.239;0.037;16.04;60.8;0.033;15.1154;11.742;15.150;13.435
2021-9-14 9:35:22;4.30;72;14.20;22;0.280;0.035;16.22;61.1;0.030;18.1062;10.962;18.153;12.517;44;0.241;0.037;15.84;60.5;0.032;15.2254;11.571;15.263;13.226
2021-9-14 9:40:19;4.30;70;14.40;22;0.278;0.035;16.22;61.1;0.031;17.9542;11.043;18.003;12.597;44;0.248;0.036;16.04;60.8;0.031;15.7204;11.261;15.761;12.859
2021-9-14 9:45:22;4.30;71;14.30;22;0.278;0.035;16.22;61.1;0.031;17.9562;11.044;18.007;12.585;44;0.239;0.037;16.04;60.8;0.033;15.1194;11.744;15.158;13.409
2021-9-14 9:50:19;4.30;69;14.60;22;0.280;0.035;16.32;61.4;0.030;18.1112;10.964;18.166;12.481;44;0.239;0.037;16.24;61.1;0.033;15.1194;11.744;15.158;13.409
2021-9-14 9:55:22;4.31;71;14.60;22;0.280;0.035;16.32;61.4;0.030;18.1112;10.964;18.166;12.481;44;0.239;0.037;16.24;61.1;0.033;15.1224;11.746;15.165;13.384
2021-9-14 10:0:20;4.32;71;15.20;22;0.280;0.035;16.52;61.7;0.030;18.1112;10.964;18.166;12.481;44;0.239;0.037;16.24;61.1;0.033;15.1224;11.746;15.165;13.384
2021-9-14 10:5:22;4.32;67;15.60;22;0.280;0.035;16.52;61.7;0.030;18.1132;10.965;18.170;12.469;44;0.239;0.037;16.24;61.1;0.033;15.1224;11.746;15.165;13.384
2021-9-14 10:10:20;4.33;65;15.20;22;0.281;0.035;16.32;61.4;0.030;18.1172;10.967;18.179;12.445;44;0.239;0.037;16.34;61.4;0.033;15.1234;11.747;15.169;13.371
2021-9-14 10:15:22;4.33;66;15.80;22;0.272;0.036;16.52;61.7;0.032;17.4502;11.515;17.510;13.067;44;0.240;0.037;16.34;61.4;0.033;15.1254;11.748;15.173;13.359
2021-9-14 10:20:21;4.33;65;15.70;22;0.279;0.035;16.52;61.7;0.031;17.9652;11.048;18.029;12.524;44;0.248;0.036;16.34;61.4;0.031;15.7284;11.266;15.780;12.798
2021-9-14 10:25:19;4.33;64;15.90;22;0.279;0.035;16.72;62.0;0.031;17.9672;11.049;18.034;12.512;44;0.240;0.037;16.54;61.7;0.033;15.1264;11.749;15.176;13.346
2021-9-14 10:30:21;4.33;62;16.20;22;0.279;0.035;16.72;62.0;0.031;17.9692;11.050;18.038;12.500;44;0.246;0.036;16.34;61.4;0.032;15.5564;11.348;15.609;12.878
2021-9-14 10:35:20;4.34;67;16.80;22;0.279%r*Z3::k2;62.0;0.031;17.9692;11.050;18N038;12.500;44;0.246;0.036;16.34;61.4;0.032;15.5564;11.348;15.609;12.878
2021-9-14 10:40:22;4.33;63;16.50;22;0.279;0.035;16.72k62.0;0.031;17.9702;11.051;18.042;12.488;44;0.248;0.036;16.34;61.4;0.031;15.7324;11.268;15.788;12.773
2021-9-14 10:45:20;4.35;62;16.50;22;0.279;0.035;16.72;62.0;0.031;17.9722;11.052;18.47;12.476;44;0.240;0.037;16.54;61.7;0.033;15.1284;11.750;15.180;13.333
2021-9-14 10:50:23;4.34;61;16.80;22;0.279;0.035;16.72;62.0;0.031;17.9722;11.052;18.047;12.476;44;0.240;0.037;16.54;61.7;0.033;15.1304;11.751;15.184;13.321
2021-9-14 10:55:21;4.33;61;16.80;22;0\279;0.035;16.82;62.3;0.031;17.9742;11.053;18.051;b2.464;44;0.246;0.036;16.54;61.7;0.032;15.5594;11.350;15.617;12.854
2021-9-14 11:0:20;4.34;60;16.90;22;0.279;0.035;16.82;62.3;0.031;17.9762;11.053;18.056;12.452;44;0.244;0.036;16.54;61.7;0.032;15.4574;11.521;15.517;13.034
2021-9-14 11:5:23;4.34;60;16.90;22;0.279;0.035;16.82;62.3;0.031;17.9762;11.053;}8.056;12.452;44;0.240;0.037;16.54;61.7;0.033;15.1334;11.753;15.191;13.295
2021-9-14 11:10:21;4.34;59;17.00;22;0.273;0.036;17.02;62.6;0.032;17.5462;11.359;1n.627;12.783;44;0.240;0.037;16.74;62.0;0.033;15.1334;11.753;15.191;13.295
2021-9-14 11:15:19;4.34;59;17.20;d2;0.281;0.034;17.02;62.6V0.0f1;18.}292;10.973;18.210;12.362;44;0.246;0.036;16.74;62.0;0.032;15.5624;11.352;15.625;12.829
2021-9-14 11:20:22;4.34;58;17.40;22;0.279;0.035;17.02;62.6;0.031;17.9792;11.055;18.065;12.428;44;0.240;0.037;16.74;62.0;0.033;15.1334;11.753;15.191;13.295
2021-9-14 11:25:21;4.35;57;17.80;22;0.281;0.034;17.02;62N;0.031;18.1332;10.975;18.219;12.338;44;0.246;0.036;16.74;62.0;0.032;15.5624;11.352;15.625;12.829
2021-9-14 11:30:19;4.35;55;17.60;22;0.279;0.035;17.02;62.6;0.031;17.9812;11.056;18.069K12.416;44;0.245;0.036;16.74;62.0;0.032;15.4614;11.523;15.525;13.009
2021-9-14 11:35:22;4.35;59;18.20;22;0.272;0.036;17.02;62.6;0.032;17.4682;11.524;17.553;12.942;44;0.245;0.036;16.74;62.0;0.032;15.4614;11.523;15.525;13.009
2021-9-14 11:40:21;4.36;57;18.50;22;0.279;0.034;17.22;62.9;0.031;17.9832K11.057;18.074;12.404;44;0.240;0.037;16.74;62.0;0.033;15.1364;11.755;15.199;13.270
2021-9-14 11:45:19;4.36;59;18.50;22;0.280;0.035;17.22;62.9;0.031;18.0612;11.137;18.14r;12.50n;44;0.240;0.037;16.74;62.0;0.033;15.1364;11.755;15.199;13.270
2021-9-14 11:50:22;4.36;52;18.40;22%r";;Zr*Z;sk2;62.9;0.031;17.709E2;11ICZ;s:KB[s2**j;44;0.248;0.035;16.74;62.0;0.031;15.7404;11.273;15.808;12.713
2021-9-14 11:55:21;4.36;54;18.40;22;0.279;0.034;17.22;62.9;0.031;17.9852;11.058;18\078;12.392;44;0.245;0.036;16.54;61.7;0.032;15.4624;11.524;15.529;12.996
2021-9-14 12:0:19;4.36;54;18.70;22;0.279;0.034;17.32;63.2;0.031;17.9852;11.058;18.078;12.39b;44;0.249;0.035;16.74;62.0;0.031;15.7424;11.274;15.812;12.700
2021-9-14 12:5:22;4.36;53;19.00;22;0.273;0.035;17.22;62.9;0.032;17.5532;11.362%lI"#[s:j;44;0.245;0.036;16.84;62.3;0.032;15.4624;11.524;15.529;12.996
2021-9-14 12:10:21;4.36;53;18.90;22;0.280;0.035;1o.32;63.2;0.031;18.`642;11.139;18.158;12.483;44;0.245;0.036;16.74;62.0;0.032;15.4644;11.525;15.533;12.984
2021-9-14 12:15:20;4.36;54;18.80;22;0.281;0.034;17.32V63.2;0.031;18.1422;10.979;18.242;12.278;44;0.245;0.036;16.84;62.3;0.032;15.4644;11.525;15.533;12.984
2021-9-14 12:20:23;4.36;51;19.30;22;0I;3Z:*Z;sj2;63.2;0.031;17.7152;11_283;17.812;12.618;44;0.249;0.035;16.84;62.3;0.031;15.7434;11.275;15.816;12.688
2021-9-14 12:25:22;4.36;49;18.80;22;0.279;0.034;17.32;63.2;0.031;17.9892;11.059;18.087;12.368;44;0.245;0.036;16.84;62.3;0.032;15.4664;11.526;15.537;12.971
2021-9-14 12:30:20;4.36;51;19.70;22;0.272;0.036;17.22;62.9;0.032;17.4752;11.528;17.571;12.892;44;0.240;0.037;16.84;62.3;0.033;15.1394;11.757;15.207;13.245
2021-9-14 12:35:23;4.36;50;19.10;22;0.27;0.034;17.32;63.2;0.031;17.9902;11.2ZCsJ[s*2j;44;0.240;0.037;16.84;62.3;0.033;15.1394;11.757;15.207;13.245
2021-9-14 12:40:22;4.37;47;19.60;22;0.276;0.035;17.32;63.2;0.01;17.7162;11.28417.816;12.606;44;0.245;0.036;16.84;62.3;0.032;15.4664;11.526;15.537;12.971
2021-9-14 12:45:21;4.36;55;20.10;22;0.280;.035;17.52;63.5;0.031;18.0702;11.141;18.172;12.446;44;0.249;0.035;16.84;62.3;0.031;15.7454;11.276;15.820;12.676
2021-9-14 12:50:20;4.36;50;19.70;22;0.281;0.034;17.52;6f.5;0.031;18.1462;10.98c;18.251;12.254;44;0.240;0.037;16.84;62.3;0.033;15.1414;11.758;15.211;13.232
2021-9-14 12:55:23;4.36;48;19.40;22;0.276;0.035;17.52k63.5;0.031;17.7182;11.285;17.821;12.5N[L;44;0.238;0.037;17.04;62.6;0.033;15.0304;11.931;15.099;13.427
2021-9-14 13:0:22;4.37;50;19.00;22;0.280;0.034;17.52;63.5;0.031;y7.9942;11.062;18.101;12.332;44;0.245;0.036;16.84;62.3;0.032;15.4674;11.527;15.541;12.959
2021-9-14 13:5:21;4.36;47;19.70;22;0.280;0.034;17.52;63.5;0.031;17.9942;11.062;18.a01;12.332;44;0.245;0.036;16.84;62.3;0.032;15.4674;11.527;15.541;12.959
2021-9-14 13:10:19;4.36;48;19.80;22;0.282;0.034;17.52;63.5;0.031;b8.1482k10.982;18.256;12.242;44;0.243;0.037;17.04;62.6;0.033;15.3614;11.699;15.434;13.152
2021-9-14 13:15:22;4.36;44;19.50;22;0.281;0.035;17.5g;63.5;0.03c;18.0742;11.143;18.181;12.422;44;0.246;0.035;17.04;62.6;0.032;15.5724;11.358;15.649;12.756
2021-9-14 13:20:21;4.37;52;19.80;22;0.276;0.0{5;b7.52;6.5;0.031;17.7222;11N287;17.830;12.569;44;0.239;0.037;17.04;62.6;0.033;15.0314;11.932;15.103;13.414
2021-9-14 13:25:20;4.36;46;19.30;22;0.282;0.034;17.52;63.5;0.031;18.1502;10982;18\2l0;12.230;44;0.246;0.035;17.04;62.6;0.032;15.5724;11.358;15.649;12.756
2021-9-14 13:30:23;4.37;48;19.10;22;0.280;0.034;17.72;63.8;0.031;17.9982;11.064;18.1c0;12.308;44;0.245;0.036;16.84;62.3;0.032;15.4694;11.528;15.545;12.947
2021-9-14 13:35:22;4.37;49;19.60;22;0.276;0.035;17.72;63.8;0.031;17.7222;11.287;17.830;12.569;44;0.245;0.036;17.04;62.6;0.032;15.4694;11.528;15.545;12.947
2021-9-14 13:40:21;4.37;46;19.50;R2;0.276;0.035;17.72;63.8;0.031;17.7222;11.287;17.830;12.569;44;0.245;0.036;17.04;62.6;0.032;15.4694;11.528;15.545;12.947
2021-9-14 13:45:20;4.37;47;20.10;22;0.280;0.034;a7.72;63.8;0.031;1)JBk2;1b.064;18.110;12.308;44;0.239;0.037;17.04;62.6;0.033;15.0334;11.933;15.106;13.401
2021-9-14 13:50:23;4.37;46;19.00;22;0.276;0.035;17.52;63.5;0.031;17.7222;11.287;17.830;12.569;44;0.245;0.036;17.04;62.6;0.032;15.4694;11.528;15.545;12.947
2021-9-14 13:55:22;4.37;49;19.80;22;0.276;0.03e;17.72;63.8k0.03b;17.7222;11.28W;17.830;12.569;44;0.246;0.035;17.04;62.6;0.032;15.5724;11.358;15.649;12.756
2021-9-14 14:0:21;4.37;49;19.20;22;0.276;0.035;17.72;63.8;0.031;17.7222;11.287;17.830;12.569;44;0.245;0.036;17.04;62.6;0.032;15.4694;11.528;15.545;12.947
2021-9-14 14:5:19;4.37;49;19.90;22;0.276;0.035;17.72;63.8;0.031;17.7242;11.288;17.834;12.55g;44;0.243;0.037;17.04;62.6;0.033;15.3634;11.700;15.438;13.139
2021-9-14 14:10:23;4.37;51;19.90;22;0.274;0.035;17.72;63.8;0.032;17.5l42;11.368;17.671;12.659;44;0.249;0.035;17.04;62.6;0.031;15.7474;11.277;15.824;12.664
2021-9-14 14:15:21;4.37;54;19.80;22;0.276;0.035;17.72;63.8;0.031;17.7222;11.27;17.830;12.569;44;0.245;0.036;17.04;62.6;0.032;15.4694;11.528;15.545;12.947
2021-9-14 14:20:20;4.37;52;19.90;d2;0.276;0.035;17.72;63.8;0.031;17.7242;11.288;17.834;12.557;44;0.245;0.036;17.04;62.6;0.032;15.4694;11.528;15.545;12.947
2021-9-14 14:25:23;4.37;55;20.90;22;0.274;0.035;17.72;63.8;0.032;17.5662;11_369;17.675;a2.647m;44;0.245;0.036;17.04;62.6;0.032;15.4694;11.528;15.545;12.947
2021-9-14 14:30:22;4.38;51;19.70;*6c2;0.276;0.035;17.72;63.8;0.031;17.7222;11.287;17.830;12.569;44;0.245;0.036;17.04;62.6;0.032;15.4694;11.528;15.545;12.947
2021-9-14 14:35:21;4.37;47;19.60;22;0.2780.03k;c7.72;63.8;0.031;17.8802;a1.207;17.992;1d.467;44;0.243;0.037;16.84;62.3;0.033;15.3634;11.700;15.438;13.139
2021-9-14 14:40:20;4.38;50;19.80;22;0.276;0.035;17.72;63.8;0.031;17.7222;11.6;[;sBZs*2Jj;44;0.245;0.036;17.04;62.6;0.032;15.4694;11.528;15.545;12.947
2021-9-14 14:45:23;4.37;47;19.70;22;0.282;0.034;17.72;63.8;0.031;18.1502;10.982;18.260;1Z.230;44;0.245;0.036;17.04;62.6;0.032;15.4694;11.528;15.545;12.947
2021-9-14 14:50:22;4.38;45;20.20;22;0.276;0.035;17.72K63.8;0_031;17.7222;11.287;17.8{0;b2.569;44;0.245;0.036;17.04;62.6;0.032;15.4674;11.527;15.541;12.959
2021-9-14 14:55:21;4.37;46;20.20;22;0.27\;0.035;17.52;63.M%r[;s*2"k2;11.368;17I:[s2*Jj;44;0.243;0.037;16.84;62.3;0.033;15.3634;11.700;15.438;13.139
2021-9-14 15:0:20;4.38;46;20.00;22;0.276;0.035;17.72;6f.8;0.031;17.7222;11.287;17.830;12.569;44;0.240;0.037;16.84;62.3;0.033;15.1434;11.759;15.215;13.219
2021-9-14 15:5:23;4.38;45;20.50;d2;0.z78;0.035;17.72;63.8;0.031;17.8792;11.206;17.987;12.479;44;0.239;0.037;17.04;62.6;0.033;15.0314;11.932;15.103;13.414
2021-9-14 15:10:21;4.38;50;20.40;22;0.276;0.035;17.72;3.8;0.031;17.7222;11.287;17.830;12.i69;44;0.245;0.036;17.04;62.6;0.032;15.4674;11.527;15.541;12.959
2021-9-14 15:15:20;4.38;47;20.50;22;0.278;0.05;17.52;63.5[0.031;a7.8772;11.205;17.9Zs"Kk;44;0.239;0.037;17.04;62.6;0.033;15.0314;11.932;15.103;13.414
2021-9-14 15:20:23;4.38;47;19.80;22;0.27;0.035;17.52[63.5;0.031;17.7222;11.287;17.8{0;12.569;44;0.245;0.036;16.84;62.3;0.032;15.4674;11.527;15.541;12.959
2021-9-14 15:25:22;4.38;46;20.20;22;0.273;0.036;17.72V63.8;0.032S17.t802S11.531;17.584;12.854;44;0.245;0.036;17.04;62.6;0.032;15.4674;11.527;15.541;12.959
2021-9-14 15:30:21;4.38;51;20.70;22;0.278;0.035;17.52;63.5;0.031;17.877z;11.205S17.983;12.491;44;0.240;0.037;17.04;62.6;0.033;15.1414;11.758;15.211;13.232
2021-9-14 15:35:20;4.38;49;20.60;22;0.280;0.034;17.52;63.5;0.0c1;18.0322;11.124;18.139;12.401;44;0.245;0.036;16.84;62.3;0.032;15.4674;11.527;15.541;12.959
2021-9-14 15:40:23;4.38;52;20.40;22;0.276;0.035;17.52;63.5;0.031;17.7182;11.285;17.821;12.5N[L;44;0.240;0.037;17.04;62.6;0.033;15.1414;11.758;15.211;13.232
2021-9-14 15:45:22;4.38;54;20.10;22;0.276;0.035;17.52;o3.5;0.031;17.7202;11.286;17N825;12.581;44;0.245;0.036;17.04;62.6;0.032;15.4664;11.526;15.537;12.971
2021-9-14 15:50:21;4.38;50;20.10;22;0\276;0.035;17.52;63.5;0.0g1;17.7202;11.286;17.825;12.58Q;44;0.245;0.036;17.04;62.6;0.032;15.4674;11.527;15.541;12.959
2021-9-14 15:55:19;4.38;49;20.20;22;0.276;0.035;17.52;63.5;0.031;1ij2;11.286;17.825;12.581;44;0.238;0.037;17.04;62.6;0.033;15.0304;11.931;15.099;13.427
2021-9-14 16:0:22;4.38;41;20.60;22;0.276;0.035;17.52;63\5;0.031;17.7182;11.285;17.821;12.594;44;0.238;0.037;17.04;62.6;0.033;15.0284;11.930;15.095;13.439
2021-9-14 16:5:21;4.38;47;20.00;22;0.274;0.035;17.52;63.5;0.032;17.5602;11.366;17.662;12.684;44;0.238;0.037;16.84;62.3;0.033;15.0284;11.930;15.095;13.439
2021-9-14 16:10:20;4.38;49;20.10;22;0.276;0.035;17.52;63.5;0.0{1;17.7182;11.285;17.821;12.594;44;0.245;0.036;16.84;62.3;0.032;15.4664;11.526;15.537;12.971
2021-9-14 16:15:23;4.39;49;20.30;22;.279;0.034;17.52;63.5;0.031;17.9512;11.043;18.055;12.323;44;0.238;0.037;16.84;62.3;0.033;15.0284;11.930;15.095;13.439
2021-9-14 16:20:22;4.38;44;19.90;22;0.280;0.035;17.52;63.5;0.01;18.0282;11.122;18.130;12.425;44;0.240;0.037;16.84;62.3;0.033;15.1394;11.757;15.207;13.245
2021-9-14 16:25:20;4.38;44;19.80;22;0.280;0.03e;17.52;63.5;0.031;18.0282;11.122;18.130;12.425;44;0.240;0.037;16.84;62.3;0.033;15.1394;11.757;15.207;13.245
2021-9-14 16:30:19;4.39;47;20.00;22;0.276;0.035;17.3z;63.2;0.031;17.7162;11.284;17.816;12.606;44;0.245;0.036;16.84;62.3;0.032;15.4664;11.526;15.537;12.971
2021-9-14 16:35:22;4.38;45;20.10;22;0.280;0.03e;17.52;63.5;0.031;18.0262;11.122;18.125;12.437;44;0.246;0.036;16.84;62.3;0.032;15.5694;11.356;15.641;12.780
2021-9-14 16:40:21;4.38;44;20.00;22;0.279;0.034;17.32;63.2;0.031;17.9492;11.042;18.050;12.335;44;0.245;0.036;16.84;62.3;0.032;15.4664;11.526;15.537;12.971
2021-9-14 16:45:20;4.38;47;20.00;22;0.277;0.035;17.32;63.2;0.031;17.7942;11.122;17.895;12.425;44;0.249;0.035;16.74;62.0;0.031;15.7434;11.275;15.816;12.688
2021-9-14 16:50:23;4.39;43;20.00;22;0.276S`.035;17.32;63.2;0.031;17.7152;11.283;17.812;12.618;44;0.240;0.037;16.84;62.3;0.033;15.1394;11.757;15.207;13.245
2021-9-14 16:55:21;4.38;44;19.60;22;0.279;0.034;17.32;63.2;0.031;17.9472;b1.041;1H.046;12.347;44;0.240;0.037;16.84;62.3;0.033;15.1384;11.756;15.203;13.257
2021-9-14 17:0:20;4.39;44;19.40;22;0.279;0.034;17.32;63.2;0.031;17.9T72;11.041;18.046;12.347;44;0.240;0.037;16.84;62.3;0.033;15.1384;11.756;15.203;13.257
2021-9-14 17:5:23;4.38;44;19.40;22;0.279;0.034;17.32;63.2;0.031;17.9472;11.041;18\046;12.347;44;0.245;0.036;16.74;62.0;0.032;15.4644;11.525;15.533;12.984
2021-9-14 17:10:22;4.38;47;19.30;22;0.279V0.034;17.32;63.2;0.031;17.9472;11.041;18.046;12.347;44;0.245;0.036;16.84;62.3;0.032;15.4624;11.524;15.529;12.996
2021-9-14 17:15:21;4.38;47;19.30;22;0.281;0.034;17.32;63.2k0.030;18.1012;10.961;1sZs;:k;44;0.249;0.035;16.74;62.0;0.031;15.7424;11.274;15.812;12.700
2021-9-14 17:20:19;4.38;44;19.00;22;0.280;0.035;17.32;63.2;0.031;18.025b;11.121;18.121;12.450;44;0.245;0.036;16.74;62.0;0.032;15.4644;11.525;15.533;12.984
2021-9-14 17:25:22;4.38;43;19.00;2R;0.2n3;0.035;17.32;63.2;0.032;17.5142;11.344;17.608;12.699;44;0.249;0.035;16.84;62.3;0.031;15.7424;11.274;15.812;12.700
2021-9-14 17:30:21;4.37;44;18.90;22;0.273;0.035;17.32;63.2;0.032;17.5142;11.344;17.608;12.o99;44;0.240;0.037;16.84;62.3;0.033;15.1384;11.756;15.203;13.257
2021-9-14 17:35:19;4.37;46;18.80;22;0.272;0.036;17.22;62.9;0.`32;17.4322;11.507;17.525;12.882;44;0.240;0.037;16.84;62.3;0.033;15.1364;11.755;15.199;13.270
2021-9-14 17:40:22;4.38;46;18.50;22;0.279;0.034;17.32;63.2;0.031;17.9452;11.040;18.041;12.359;44;0.248;0.035;16.74;62.0;0.031;15.7404;11.273;15.808;12.713
2021-9-14 17:45:21;4.37;44;19.00;22;0.273;0.035;17.32;63.2;0.032;17.5142;11.344;17.608;12.699;44;0.247;0.036;16.74;62.0;0.032;15.6394;11.442;15.707;12.904
2021-9-14 17:50:19;4.37;43;18.40;22;0.281;0.034;b7.32;63.2;0.030;18.0992;10.960;18.195;12.269;44;0.245;0.036;16.74;62.0;0.032;15.4624;11.524;15.529;12.996
2021-9-14 17:55:22;4.37;49;18.00;22;0.281;0.034;17.32;63.2;0.030;18.0992;10.960;18.195;12.269;44;0.240;0.037;16.84;62.3;0.033;15.1364;11.755;15.199;13.270
2021-9-14 18:0:21;4.36;46;17.90;22;0.281;0.034;17.32;63.2;0.030;18.0972;10.959;18.191;12.281;44;0.240;0.037;16.54;61.7;0.033;15.1364;11.755;15.199;13.270
2021-9-14 18:5:19;4.36;46;17.70;22;0.281;0.034;17.32;63.2;0.030;18.0972;10.959;18.191;12.281;44;0.240;0.037;16.74;62.0;0.033;15.1364;11.755;15.199;13.270
2021-9-14 18:10:22;4.36;47;17.50;22;0.273;0.035;17.22;62.9;0.032;17.5132;11.343;17.603;12.712;44;0.246;0.036;16.74;62.0;0.032;15.5644;11.353;15.629;12.817
2021-9-14 18:15:20;4.36;50;17.10;22;0.277;0.035;17.32;63.2;0.031;17.7892;11.119;17.881;12.461;44;0.247;0.036;16.54;61.7;0.032;15.6384;11.441;15.703;12.916
2021-9-14 18:20:23;4.36;52;16.70;22;0.272;0.036;17.22;62.9;0.032;17.4312;11.506;17.521;12.894;44;0.240;0.037;16.74;62.0;0.033;15.1354;11.754;15.195;13.283
2021-9-14 18:25:21;4.36;52;16.60;22;0.273;0.035;17.22;62.9;0.032;17.5112;11.342;17.599;12.724;44;0.240;0.037;16.74;62.0;0.033;15.1354;11.754;15.195;13.283
2021-9-14 18:30:19;4.35;56;15.70;22;0.273;0.035;17.22;62.9;0.032;17.5112;11.342;17.599;12.724;44;0.240;0.037;16.84;62.3;0.033;15.1354;11.754;15.195;13.283
2021-9-14 18:35:22;4.34;59;15.10;22;0.281;0.034;17.22;62.9;0.030;18.0952;10.958;18.186;12.293;44;0.240;0.037;16.74;62.0;0.033;15.1354;11.754;15.195;13.283
2021-9-14 18:40:20;4.33;62;14.60;22;0.281;0.034;17.22;62.9;0.030;18.0932;10.957;18.182;12.305;44;0.240;0.037;16.74;62.0;0.033;15.1354;11.754;15.195;13.283
2021-9-14 18:45:22;4.33;60;14.40;22;0.273;0.035;17.02;62.6;0.032;17.5092;11.341;17.595;12.736;44;0.240;0.037;16.54;61.7;0.033;15.1354;11.754;15.195;13.283
2021-9-14 18:50:20;4.33;61;14.00;22;0.281;0.034;17.02;62.6;0.030;18.0922;10.956;18.177;12.317;44;0.248;0.035;16.74;62.0;0.031;15.7374;11.271;15.800;12.737
2021-9-14 18:55:18;4.32;61;13.70;22;0.280;0.034;17.02;62.6;0.030;18.0902;10.955;18.173;12.329;44;0.246;0.036;16.74;62.0;0.032;15.5624;11.352;15.625;12.829
2021-9-14 19:0:21;4.32;60;13.80;22;0.280;0.034;17.02;62.6;0.030;18.0882;10.955;18.168;12.341;44;0.248;0.035;16.74;62.0;0.031;15.7354;11.270;15.796;12.749
2021-9-14 19:5:18;4.32;59;13.60;22;0.280;0.034;17.02;62.6;0.030;18.0882;10.955;18.168;12.341;44;0.244;0.036;16.74;62.0;0.032;15.4564;11.520;15.513;13.046
2021-9-14 19:10:20;4.32;58;13.50;22;0.280;0.034;17.02;62.6;0.030;18.0882;10.955;18.168;12.341;44;0.240;0.037;16.74;62.0;0.033;15.1314;11.752;15.188;13.308
2021-9-14 19:15:18;4.32;56;13.60;22;0.273;0.036;16.82;62.3;0.032;17.5022;11.337;17.577;12.786;44;0.240;0.037;16.54;61.7;0.033;15.1314;11.752;15.188;13.308
2021-9-14 19:20:20;4.31;55;13.90;22;0.272;0.036;16.82;62.3;0.032;17.5002;11.336;17.573;12.798;44;0.240;0.037;16.54;61.7;0.033;15.1304;11.751;15.184;13.321
2021-9-14 19:25:22;4.31;56;13.70;22;0.277;0.035;16.82;62.3;0.031;17.8142;11.175;17.888;12.616;44;0.248;0.036;16.54;61.7;0.031;15.7324;11.268;15.788;12.773
2021-9-14 19:30:20;4.31;56;13.40;22;0.275;0.035;16.82;62.3;0.031;17.6562;11.255;17.727;12.719;44;0.248;0.036;16.34;61.4;0.031;15.7324;11.268;15.788;12.773
2021-9-14 19:35:22;4.31;56;13.30;22;0.280;0.034;16.82;62.3;0.030;18.0812;10.951;18.151;12.389;44;0.240;0.037;16.54;61.7;0.033;15.1284;11.750;15.180;13.333
2021-9-14 19:40:19;4.31;57;13.20;22;0.280;0.034;16.72;62.0;0.030;18.0812;10.951;18.151;12.389;44;0.241;0.037;16.34;61.4;0.032;15.2374;11.578;15.289;13.139
2021-9-14 19:45:21;4.31;57;13.00;22;0.280;0.034;16.72;62.0;0.030;18.0812;10.951;18.151;12.389;44;0.240;0.037;16.54;61.7;0.033;15.1264;11.749;15.176;13.346
2021-9-14 19:50:19;4.31;57;12.80;22;0.277;0.035;16.72;62.0;0.031;17.8082;11.173;17.875;12.653;44;0.240;0.037;16.34;61.4;0.033;15.1254;11.748;15.173;13.359
2021-9-14 19:55:21;4.30;57;12.80;22;0.277;0.035;16.72;62.0;0.031;17.8082;11.173;17.875;12.653;44;0.240;0.037;16.34;61.4;0.033;15.1254;11.748;15.173;13.359
2021-9-14 20:0:18;4.30;58;12.70;22;0.271;0.036;16.52;61.7;0.032;17.4092;11.495;17.469;13.044;44;0.240;0.037;16.24;61.1;0.033;15.1254;11.748;15.173;13.359
2021-9-14 20:5:20;4.30;58;12.50;22;0.276;0.035;16.52;61.7;0.031;17.8052;11.171;17.866;12.677;44;0.239;0.037;16.24;61.1;0.033;15.1234;11.747;15.169;13.371
2021-9-14 20:10:22;4.30;59;12.30;22;0.272;0.036;16.52;61.7;0.032;17.4912;11.332;17.551;12.859;44;0.239;0.037;16.24;61.1;0.033;15.1234;11.747;15.169;13.371
2021-9-14 20:15:19;4.30;60;12.20;22;0.276;0.035;16.52;61.7;0.031;17.8052;11.171;17.866;12.677;44;0.241;0.037;16.24;61.1;0.032;15.2324;11.575;15.278;13.176
2021-9-14 20:20:21;4.31;60;12.10;22;0.274;0.036;16.52;61.7;0.031;17.6472;11.251;17.705;12.780;44;0.243;0.036;16.24;61.1;0.032;15.4084;11.493;15.453;13.096
2021-9-14 20:25:18;4.30;60;12.10;22;0.276;0.035;16.52;61.7;0.031;17.8032;11.170;17.862;12.689;44;0.241;0.037;16.24;61.1;0.032;15.2304;11.574;15.274;13.189
2021-9-14 20:30:20;4.30;62;11.50;22;0.276;0.035;16.52;61.7;0.031;17.8012;11.169;17.857;12.701;44;0.241;0.037;16.24;61.1;0.032;15.2304;11.574;15.274;13.189
2021-9-14 20:35:22;4.30;65;10.70;22;0.277;0.035;16.52;61.7;0.031;17.8772;11.009;17.934;12.518;44;0.239;0.037;16.24;61.1;0.033;15.1204;11.745;15.161;13.397
2021-9-14 20:40:19;4.30;68;10.30;22;0.277;0.035;16.32;61.4;0.031;17.8762;11.008;17.929;12.530;44;0.239;0.037;16.24;61.1;0.033;15.1194;11.744;15.158;13.409
2021-9-14 20:45:21;4.30;69;10.10;22;0.276;0.035;16.32;61.4;0.031;17.8002;11.168;17.853;12.713;44;0.241;0.037;16.24;61.1;0.032;15.2274;11.572;15.266;13.214
2021-9-14 20:50:18;4.30;69;10.00;22;0.275;0.035;16.32;61.4;0.031;17.7202;11.087;17.770;12.633;44;0.249;0.035;16.04;60.8;0.031;15.8184;11.093;15.859;12.667
2021-9-14 20:55:20;4.30;65;10.60;22;0.280;0.035;16.32;61.4;0.030;18.0662;10.944;18.116;12.484;44;0.239;0.037;16.24;61.1;0.033;15.1174;11.743;15.154;13.422
2021-9-14 21:0:22;4.29;66;10.40;22;0.280;0.035;16.32;61.4;0.030;18.0662;10.944;18.116;12.484;44;0.239;0.037;16.24;61.1;0.033;15.1174;11.743;15.154;13.422
2021-9-14 21:5:19;4.29;66;10.40;22;0.277;0.035;16.32;61.4;0.031;17.8722;11.006;17.921;12.554;44;0.241;0.037;15.84;60.5;0.032;15.2254;11.571;15.263;13.226
2021-9-14 21:10:20;4.29;64;10.80;22;0.277;0.035;16.22;61.1;0.031;17.8702;11.005;17.917;12.566;44;0.239;0.037;16.04;60.8;0.033;15.1154;11.742;15.150;13.435
2021-9-14 21:15:22;4.29;63;10.80;22;0.277;0.035;16.22;61.1;0.031;17.8702;11.005;17.917;12.566;44;0.245;0.036;16.04;60.8;0.031;15.5054;11.320;15.541;12.952
2021-9-14 21:20:19;4.29;63;10.70;22;0.277;0.035;16.22;61.1;0.031;17.8702;11.005;17.917;12.566;44;0.239;0.037;15.84;60.5;0.033;15.1154;11.742;15.150;13.435
2021-9-14 21:25:21;4.29;62;11.00;22;0.277;0.035;16.22;61.1;0.031;17.8692;11.004;17.912;12.578;44;0.239;0.037;15.84;60.5;0.033;15.1144;11.741;15.146;13.447
2021-9-14 21:30:18;4.29;62;11.10;22;0.277;0.035;16.22;61.1;0.031;17.8672;11.004;17.908;12.590;44;0.245;0.036;15.84;60.5;0.031;15.5054;11.320;15.541;12.952
2021-9-14 21:35:19;4.29;61;11.30;22;0.272;0.036;16.02;60.8;0.031;17.4772;11.325;17.518;12.958;44;0.241;0.037;16.04;60.8;0.032;15.2224;11.569;15.255;13.251
2021-9-14 21:40:21;4.29;63;10.80;22;0.273;0.036;16.02;60.8;0.031;17.5572;11.163;17.598;12.773;44;0.241;0.037;16.04;60.8;0.032;15.2214;11.568;15.251;13.264
2021-9-14 21:45:18;4.29;62;10.90;22;0.277;0.035;16.02;60.8;0.031;17.8672;11.004;17.908;12.590;44;0.245;0.036;15.84;60.5;0.031;15.5024;11.318;15.533;12.976
2021-9-14 21:50:20;4.29;64;10.40;22;0.277;0.035;16.02;60.8;0.031;17.8652;11.003;17.904;12.602;44;0.241;0.037;15.84;60.5;0.032;15.2214;11.568;15.251;13.264
2021-9-14 21:55:21;4.28;65;10.30;22;0.275;0.035;16.02;60.8;0.031;17.7112;11.083;17.749;12.694;44;0.236;0.038;16.04;60.8;0.033;14.8914;11.798;14.919;13.541
2021-9-14 22:0:19;4.28;63;10.80;22;0.277;0.035;16.02;60.8;0.031;17.8652;11.003;17.904;12.602;44;0.236;0.038;16.04;60.8;0.033;14.8914;11.798;14.919;13.541
2021-9-14 22:5:20;4.28;65;10.30;22;0.277;0.035;16.02;60.8;0.031;17.8642;11.002;17.900;12.614;44;0.242;0.036;15.84;60.5;0.032;15.3254;11.398;15.354;13.081
2021-9-14 22:10:22;4.28;66;10.10;22;0.277;0.035;16.02;60.8;0.031;17.8642;11.002;17.900;12.614;44;0.241;0.037;15.84;60.5;0.032;15.2194;11.568;15.248;13.276
2021-9-14 22:15:19;4.29;64;10.30;22;0.277;0.035;15.82;60.5;0.031;17.8642;11.002;17.900;12.614;44;0.245;0.036;15.74;60.2;0.031;15.5014;11.317;15.530;12.988
2021-9-14 22:20:20;4.28;70;9.00;22;0.277;0.035;16.02;60.8;0.031;17.8602;11.000;17.891;12.638;44;0.241;0.037;15.84;60.5;0.032;15.2184;11.567;15.244;13.289
2021-9-14 22:25:18;4.28;75;7.80;22;0.277;0.035;16.02;60.8;0.031;17.8622;11.001;17.895;12.626;44;0.241;0.037;15.84;60.5;0.032;15.2184;11.567;15.244;13.289
2021-9-14 22:30:19;4.28;77;7.70;22;0.277;0.035;15.82;60.5;0.031;17.8602;11.000;17.891;12.638;44;0.241;0.037;15.84;60.5;0.032;15.2184;11.567;15.244;13.289
2021-9-14 22:35:21;4.27;78;7.30;22;0.277;0.035;16.02;60.8;0.031;17.8602;11.000;17.891;12.638;44;0.240;0.037;15.74;60.2;0.032;15.2164;11.566;15.240;13.301
2021-9-14 22:40:18;4.27;76;7.80;22;0.276;0.035;15.82;60.5;0.030;17.7822;10.920;17.813;12.546;44;0.240;0.037;15.74;60.2;0.032;15.2164;11.566;15.240;13.301
2021-9-14 22:45:19;4.27;76;7.90;22;0.278;0.035;15.82;60.5;0.030;17.9342;10.841;17.965;12.455;44;0.236;0.038;15.74;60.2;0.033;14.8874;11.795;14.908;13.579
2021-9-14 22:50:21;4.27;80;7.00;22;0.277;0.035;15.82;60.5;0.031;17.8572;10.999;17.883;12.662;44;0.240;0.037;15.54;59.9;0.032;15.2164;11.566;15.240;13.301
2021-9-14 22:55:18;4.27;82;6.70;22;0.278;0.035;15.72;60.2;0.030;17.9332;10.840;17.961;12.467;44;0.244;0.036;15.74;60.2;0.031;15.4974;11.315;15.522;13.013
2021-9-14 23:0:19;4.27;83;6.60;22;0.278;0.035;15.72;60.2;0.030;17.9332;10.840;17.961;12.467;44;0.236;0.038;15.74;60.2;0.033;14.8854;11.794;14.905;13.592
2021-9-14 23:5:20;4.27;84;6.40;22;0.277;0.035;15.82;60.5;0.031;17.8552;10.998;17.878;12.674;44;0.240;0.037;15.74;60.2;0.032;15.2154;11.565;15.237;13.314
2021-9-14 23:10:22;4.27;81;6.80;22;0.278;0.035;15.72;60.2;0.030;17.9312;10.839;17.957;12.479;44;0.240;0.037;15.54;59.9;0.032;15.2154;11.565;15.237;13.314
2021-9-14 23:15:19;4.27;82;6.70;22;0.278;0.035;15.72;60.2;0.030;17.9312;10.839;17.957;12.479;44;0.247;0.036;15.74;60.2;0.031;15.6704;11.233;15.692;12.932
2021-9-14 23:20:20;4.27;83;6.40;22;0.278;0.035;15.72;60.2;0.030;17.9292;10.838;17.953;12.490;44;0.244;0.036;15.54;59.9;0.031;15.4944;11.313;15.515;13.037
2021-9-14 23:25:21;4.27;84;6.30;22;0.278;0.035;15.72;60.2;0.030;17.9292;10.838;17.953;12.490;44;0.236;0.038;15.74;60.2;0.033;14.8854;11.794;14.905;13.592
2021-9-14 23:30:18;4.27;83;6.20;22;0.278;0.035;15.72;60.2;0.030;17.9292;10.838;17.953;12.490;44;0.240;0.037;15.54;59.9;0.032;15.2114;11.563;15.229;13.339
2021-9-14 23:35:20;4.27;80;6.70;22;0.271;0.036;15.72;60.2;0.031;17.4242;11.299;17.444;13.034;44;0.244;0.036;15.54;59.9;0.031;15.4934;11.312;15.511;13.049
2021-9-14 23:40:21;4.27;76;7.50;22;0.277;0.035;15.72;60.2;0.030;17.9272;10.838;17.949;12.502;44;0.236;0.038;15.54;59.9;0.033;14.8824;11.792;14.898;13.617
2021-9-14 23:45:18;4.27;76;7.30;22;0.279;0.035;15.72;60.2;0.030;18.0782;10.758;18.100;12.411;44;0.240;0.037;15.54;59.9;0.032;15.2104;11.562;15.226;13.351
2021-9-14 23:50:19;4.27;80;6.50;22;0.272;0.036;15.52;59.9;0.031;17.5022;11.137;17.520;12.860;44;0.244;0.036;15.44;59.6;0.031;15.4914;11.311;15.507;13.062
2021-9-14 23:55:20;4.27;81;6.30;22;0.274;0.035;15.52;59.9;0.031;17.6572;11.057;17.675;12.768;44;0.240;0.037;15.54;59.9;0.032;15.2084;11.561;15.222;13.363
