2021-12-30 0:0:21;4.32;71;23.80;22;0.188;0.020;26.72;80.0;0.020;11.4962;7.250;11.804;7.067;44;0.253;0.037;25.94;78.6;0.037;15.7154;13.388;16.108;13.184
2021-12-30 0:5:20;4.31;65;25.20;22;0.186;0.020;26.72;80.0;0.020;11.3732;7.298;11.677;7.114;44;0.255;0.036;25.94;78.6;0.037;15.9174;13.295;16.316;13.093
2021-12-30 0:10:23;4.31;71;23.80;22;0.190;0.020;26.72;80.0;0.020;11.6172;7.200;11.925;7.028;44;0.255;0.036;25.94;78.6;0.037;15.9174;13.295;16.316;13.093
2021-12-30 0:15:22;4.31;74;22.70;22;0.184;0.020;26.72;80.0;0.020;11.2292;7.337;11.530;7.152;44;0.254;0.037;25.94;78.6;0.037;15.7934;13.487;16.188;13.282
2021-12-30 0:20:20;4.31;69;24.00;22;0.184;0.020;26.72;80.0;0.020;11.2292;7.337;11.530;7.152;44;0.251;0.037;25.64;78.2;0.038;15.5844;13.579;15.971;13.389
2021-12-30 0:25:24;4.31;70;23.90;22;0.188;0.020;26.72;80.0;0.020;11.4512;7.190;11.755;7.018;44;0.259;0.036;25.94;78.6;0.037;16.1574;13.228;16.558;13.043
2021-12-30 0:30:22;4.31;74;23.30;22;0.186;0.020;26.72;80.0;0.020;11.3522;7.288;11.653;7.113;44;0.251;0.037;25.64;78.2;0.038;15.5844;13.579;15.971;13.389
2021-12-30 0:35:21;4.31;74;22.90;22;0.182;0.020;26.72;80.0;0.021;11.1452;7.445;11.441;7.266;44;0.251;0.037;25.64;78.2;0.038;15.5844;13.579;15.971;13.389
2021-12-30 0:40:20;4.30;70;23.70;22;0.184;0.020;26.72;80.0;0.020;11.2272;7.336;11.522;7.169;44;0.255;0.036;25.64;78.2;0.037;15.9154;13.293;16.310;13.108
2021-12-30 0:45:23;4.31;70;24.10;22;0.184;0.020;26.72;80.0;0.020;11.2272;7.336;11.522;7.169;44;0.255;0.036;25.64;78.2;0.037;15.9154;13.293;16.310;13.108
2021-12-30 0:50:22;4.31;74;23.00;22;0.184;0.020;26.72;80.0;0.020;11.2272;7.336;11.522;7.169;44;0.251;0.037;25.64;78.2;0.038;15.5844;13.579;15.971;13.389
2021-12-30 0:55:20;4.30;74;22.80;22;0.186;0.020;26.72;80.0;0.020;11.3512;7.287;11.650;7.122;44;0.260;0.036;25.64;78.2;0.036;16.2754;13.037;16.679;12.855
2021-12-30 1:0:19;4.30;72;23.40;22;0.186;0.020;26.72;80.0;0.020;11.3512;7.287;11.650;7.122;44;0.260;0.036;25.64;78.2;0.036;16.2754;13.037;16.679;12.855
2021-12-30 1:5:22;4.30;74;22.60;22;0.192;0.019;26.42;79.5;0.020;11.6922;7.092;11.997;6.940;44;0.253;0.037;25.64;78.2;0.037;15.7124;13.386;16.102;13.199
2021-12-30 1:10:21;4.30;76;22.20;22;0.186;0.020;26.42;79.5;0.020;11.3502;7.286;11.646;7.130;44;0.251;0.037;25.44;77.7;0.038;15.5844;13.579;15.971;13.389
2021-12-30 1:15:20;4.30;75;22.20;22;0.186;0.020;26.42;79.5;0.020;11.3502;7.286;11.646;7.130;44;0.253;0.037;25.64;78.2;0.037;15.7124;13.386;16.102;13.199
2021-12-30 1:20:23;4.30;74;22.50;22;0.192;0.019;26.42;79.5;0.020;11.6922;7.092;11.997;6.940;44;0.255;0.036;25.64;78.2;0.037;15.9124;13.292;16.304;13.122
2021-12-30 1:25:21;4.30;74;22.50;22;0.186;0.020;26.42;79.5;0.020;11.3492;7.286;11.642;7.139;44;0.251;0.037;25.44;77.7;0.038;15.5824;13.577;15.966;13.404
2021-12-30 1:30:20;4.30;76;22.10;22;0.186;0.020;26.42;79.5;0.020;11.3492;7.286;11.642;7.139;44;0.252;0.037;25.64;78.2;0.037;15.7104;13.384;16.096;13.214
2021-12-30 1:35:23;4.30;78;21.70;22;0.186;0.020;26.42;79.5;0.020;11.3492;7.286;11.642;7.139;44;0.252;0.037;25.44;77.7;0.037;15.7104;13.384;16.096;13.214
2021-12-30 1:40:22;4.30;75;22.30;22;0.186;0.020;26.42;79.5;0.020;11.3492;7.286;11.642;7.139;44;0.251;0.037;25.64;78.2;0.038;15.5824;13.577;15.966;13.404
2021-12-30 1:45:20;4.30;74;22.50;22;0.187;0.020;26.42;79.5;0.020;11.4282;7.178;11.724;7.033;44;0.255;0.036;25.64;78.2;0.037;15.9124;13.292;16.304;13.122
2021-12-30 1:50:23;4.30;78;21.80;22;0.188;0.020;26.42;79.5;0.020;11.4712;7.237;11.765;7.099;44;0.251;0.037;25.64;78.2;0.038;15.5824;13.577;15.966;13.404
2021-12-30 1:55:22;4.30;78;21.60;22;0.186;0.020;26.42;79.5;0.020;11.3462;7.285;11.635;7.155;44;0.251;0.037;25.64;78.2;0.038;15.5824;13.577;15.966;13.404
2021-12-30 2:0:20;4.30;73;22.80;22;0.180;0.020;26.22;79.1;0.021;10.9952;7.480;11.277;7.339;44;0.252;0.037;25.44;77.7;0.037;15.7104;13.384;16.096;13.214
2021-12-30 2:5:23;4.30;77;21.70;22;0.187;0.020;26.22;79.1;0.020;11.4272;7.178;11.720;7.042;44;0.252;0.037;25.44;77.7;0.037;15.7074;13.383;16.090;13.229
2021-12-30 2:10:22;4.30;79;21.20;22;0.187;0.020;26.22;79.1;0.020;11.4272;7.178;11.720;7.042;44;0.252;0.037;25.64;78.2;0.037;15.7074;13.383;16.090;13.229
2021-12-30 2:15:21;4.30;75;22.10;22;0.187;0.020;26.22;79.1;0.020;11.4272;7.178;11.720;7.042;44;0.251;0.037;25.64;78.2;0.038;15.5794;13.576;15.960;13.419
2021-12-30 2:20:19;4.30;72;22.90;22;0.187;0.020;26.22;79.1;0.020;11.4262;7.177;11.717;7.050;44;0.255;0.037;25.64;78.2;0.037;15.9104;13.290;16.298;13.137
2021-12-30 2:25:22;4.30;75;22.30;22;0.180;0.020;26.22;79.1;0.021;10.9942;7.480;11.274;7.347;44;0.252;0.037;25.64;78.2;0.037;15.7074;13.383;16.090;13.229
2021-12-30 2:30:21;4.30;78;21.30;22;0.189;0.019;26.42;79.5;0.020;11.5462;7.128;11.838;7.011;44;0.255;0.037;25.64;78.2;0.037;15.9104;13.290;16.298;13.137
2021-12-30 2:35:19;4.30;80;20.90;22;0.187;0.020;26.22;79.1;0.020;11.4262;7.177;11.717;7.050;44;0.251;0.037;25.64;78.2;0.038;15.5794;13.576;15.960;13.419
2021-12-30 2:40:22;4.30;76;22.20;22;0.181;0.020;26.22;79.1;0.020;11.0772;7.371;11.356;7.249;44;0.252;0.037;25.44;77.7;0.037;15.7074;13.383;16.090;13.229
2021-12-30 2:45:21;4.30;79;21.30;22;0.187;0.020;26.22;79.1;0.020;11.4252;7.176;11.713;7.058;44;0.252;0.037;25.44;77.7;0.037;15.7074;13.383;16.090;13.229
2021-12-30 2:50:19;4.30;79;21.20;22;0.191;0.019;26.22;79.1;0.020;11.6672;7.080;11.962;6.963;44;0.260;0.036;25.44;77.7;0.036;16.2674;13.032;16.661;12.899
2021-12-30 2:55:22;4.30;76;22.00;22;0.183;0.020;26.22;79.1;0.020;11.2022;7.322;11.485;7.202;44;0.252;0.037;25.64;78.2;0.037;15.7054;13.381;16.085;13.244
2021-12-30 3:0:21;4.30;78;21.40;22;0.187;0.020;26.22;79.1;0.020;11.4252;7.176;11.713;7.058;44;0.250;0.037;25.44;77.7;0.038;15.5774;13.574;15.954;13.435
2021-12-30 3:5:19;4.30;81;20.60;22;0.183;0.020;26.22;79.1;0.020;11.2022;7.322;11.485;7.202;44;0.255;0.037;25.64;78.2;0.037;15.9074;13.288;16.292;13.152
2021-12-30 3:10:22;4.30;79;21.30;22;0.183;0.020;26.22;79.1;0.020;11.2022;7.322;11.485;7.202;44;0.250;0.037;25.44;77.7;0.038;15.5774;13.574;15.954;13.435
2021-12-30 3:15:21;4.30;81;20.80;22;0.183;0.020;26.22;79.1;0.020;11.2012;7.322;11.481;7.210;44;0.255;0.037;25.64;78.2;0.037;15.9074;13.288;16.292;13.152
2021-12-30 3:20:19;4.30;79;21.20;22;0.191;0.019;26.22;79.1;0.020;11.6662;7.079;11.958;6.972;44;0.252;0.037;25.44;77.7;0.037;15.7054;13.381;16.085;13.244
2021-12-30 3:25:22;4.30;80;21.10;22;0.191;0.019;26.22;79.1;0.020;11.6662;7.079;11.958;6.972;44;0.250;0.037;25.64;78.2;0.038;15.5744;13.572;15.948;13.450
2021-12-30 3:30:20;4.30;78;21.50;22;0.183;0.020;26.22;79.1;0.020;11.2012;7.322;11.481;7.210;44;0.250;0.037;25.44;77.7;0.038;15.5774;13.574;15.954;13.435
2021-12-30 3:35:23;4.30;79;21.30;22;0.191;0.019;26.22;79.1;0.020;11.6652;7.079;11.954;6.980;44;0.255;0.037;25.44;77.7;0.037;15.9074;13.288;16.292;13.152
2021-12-30 3:40:22;4.30;80;20.90;22;0.191;0.019;26.22;79.1;0.020;11.6652;7.079;11.954;6.980;44;0.255;0.037;25.64;78.2;0.037;15.9074;13.288;16.292;13.152
2021-12-30 3:45:20;4.29;80;20.90;22;0.183;0.020;25.92;78.6;0.020;11.1992;7.321;11.477;7.219;44;0.255;0.037;25.64;78.2;0.037;15.9074;13.288;16.292;13.152
2021-12-30 3:50:23;4.29;80;20.70;22;0.183;0.020;25.92;78.6;0.020;11.1992;7.321;11.477;7.219;44;0.255;0.037;25.44;77.7;0.037;15.9044;13.287;16.286;13.167
2021-12-30 3:55:22;4.29;81;20.60;22;0.191;0.019;25.92;78.6;0.020;11.6652;7.079;11.954;6.980;44;0.252;0.037;25.44;77.7;0.037;15.7024;13.379;16.079;13.259
2021-12-30 4:0:20;4.29;79;21.00;22;0.185;0.020;25.92;78.6;0.020;11.3222;7.272;11.601;7.179;44;0.250;0.037;25.44;77.7;0.038;15.5744;13.572;15.948;13.450
2021-12-30 4:5:23;4.29;79;21.00;22;0.184;0.020;25.92;78.6;0.020;11.2802;7.214;11.560;7.113;44;0.250;0.037;25.44;77.7;0.038;15.5744;13.572;15.948;13.450
2021-12-30 4:10:21;4.29;78;21.20;22;0.184;0.020;25.92;78.6;0.020;11.2792;7.213;11.557;7.121;44;0.255;0.037;25.64;78.2;0.037;15.9044;13.287;16.286;13.167
2021-12-30 4:15:20;4.29;75;22.00;22;0.186;0.020;25.92;78.6;0.020;11.4022;7.165;11.682;7.074;44;0.252;0.037;25.44;77.7;0.037;15.7024;13.379;16.079;13.259
2021-12-30 4:20:23;4.29;73;22.50;22;0.189;0.020;25.92;78.6;0.020;11.5232;7.117;11.807;7.026;44;0.255;0.037;25.44;77.7;0.037;15.9044;13.287;16.286;13.167
2021-12-30 4:25:21;4.29;72;22.50;22;0.187;0.020;25.92;78.6;0.020;11.4452;7.224;11.727;7.132;44;0.252;0.037;25.44;77.7;0.037;15.7024;13.379;16.079;13.259
2021-12-30 4:30:20;4.29;72;22.40;22;0.187;0.020;25.92;78.6;0.020;11.4442;7.223;11.723;7.140;44;0.255;0.037;25.44;77.7;0.037;15.9044;13.287;16.286;13.167
2021-12-30 4:35:22;4.29;71;22.60;22;0.192;0.019;25.92;78.6;0.019;11.7382;6.971;12.024;6.891;44;0.255;0.037;25.44;77.7;0.037;15.9044;13.287;16.286;13.167
2021-12-30 4:40:21;4.29;72;22.40;22;0.184;0.020;25.92;78.6;0.020;11.2792;7.213;11.557;7.121;44;0.252;0.037;25.44;77.7;0.037;15.7024;13.379;16.079;13.259
2021-12-30 4:45:20;4.29;74;21.90;22;0.184;0.020;25.62;78.2;0.020;11.2792;7.213;11.557;7.121;44;0.255;0.037;25.44;77.7;0.037;15.9044;13.287;16.286;13.167
2021-12-30 4:50:22;4.29;75;21.50;22;0.189;0.020;25.92;78.6;0.020;11.5232;7.117;11.807;7.026;44;0.255;0.037;25.44;77.7;0.037;15.9044;13.287;16.286;13.167
2021-12-30 4:55:21;4.29;75;21.50;22;0.189;0.020;25.62;78.2;0.020;11.5232;7.117;11.807;7.026;44;0.252;0.037;25.44;77.7;0.037;15.7024;13.379;16.079;13.259
2021-12-30 5:0:20;4.29;76;21.30;22;0.186;0.020;25.92;78.6;0.020;11.4012;7.164;11.679;7.082;44;0.255;0.037;25.44;77.7;0.037;15.9044;13.287;16.286;13.167
2021-12-30 5:5:22;4.29;76;21.40;22;0.188;0.020;25.62;78.2;0.020;11.5222;7.116;11.803;7.034;44;0.245;0.038;25.44;77.7;0.038;15.1884;13.830;15.549;13.722
2021-12-30 5:10:21;4.29;73;22.10;22;0.184;0.020;25.62;78.2;0.020;11.2782;7.212;11.553;7.129;44;0.255;0.037;25.44;77.7;0.037;15.9024;13.285;16.280;13.181
2021-12-30 5:15:19;4.29;75;21.70;22;0.188;0.020;25.62;78.2;0.020;11.5222;7.116;11.803;7.034;44;0.252;0.037;25.44;77.7;0.037;15.7004;13.378;16.073;13.273
2021-12-30 5:20:22;4.29;73;22.00;22;0.186;0.020;25.62;78.2;0.020;11.3992;7.164;11.675;7.090;44;0.255;0.037;25.64;78.2;0.037;15.9024;13.285;16.280;13.181
2021-12-30 5:25:21;4.29;74;21.70;22;0.188;0.020;25.92;78.6;0.020;11.5212;7.116;11.800;7.043;44;0.252;0.037;25.44;77.7;0.037;15.7004;13.378;16.073;13.273
2021-12-30 5:30:19;4.29;75;21.60;22;0.190;0.019;25.62;78.2;0.019;11.5982;7.009;11.878;6.937;44;0.255;0.037;25.44;77.7;0.037;15.9024;13.285;16.280;13.181
2021-12-30 5:35:22;4.28;74;21.80;22;0.180;0.020;25.62;78.2;0.020;11.0522;7.357;11.319;7.282;44;0.255;0.037;25.44;77.7;0.037;15.9024;13.285;16.280;13.181
2021-12-30 5:40:21;4.29;74;21.70;22;0.180;0.020;25.62;78.2;0.020;11.0522;7.357;11.319;7.282;44;0.255;0.037;25.44;77.7;0.037;15.9024;13.285;16.280;13.181
2021-12-30 5:45:19;4.29;76;21.20;22;0.186;0.020;25.62;78.2;0.020;11.3802;7.154;11.656;7.081;44;0.255;0.037;25.44;77.7;0.037;15.9024;13.285;16.280;13.181
2021-12-30 5:50:22;4.29;78;20.80;22;0.185;0.020;25.62;78.2;0.020;11.3012;7.261;11.574;7.186;44;0.255;0.037;25.44;77.7;0.037;15.9024;13.285;16.280;13.181
2021-12-30 5:55:21;4.28;79;20.60;22;0.188;0.020;25.62;78.2;0.020;11.5202;7.115;11.796;7.051;44;0.255;0.037;25.44;77.7;0.037;15.9024;13.285;16.280;13.181
2021-12-30 6:0:19;4.28;79;20.40;22;0.180;0.020;25.62;78.2;0.020;11.0522;7.357;11.319;7.282;44;0.255;0.037;25.44;77.7;0.037;15.9024;13.285;16.280;13.181
2021-12-30 6:5:22;4.28;80;20.40;22;0.190;0.019;25.42;77.7;0.019;11.5982;7.009;11.878;6.937;44;0.247;0.038;25.44;77.7;0.038;15.3204;13.634;15.682;13.544
2021-12-30 6:10:21;4.28;81;20.10;22;0.182;0.020;25.62;78.2;0.020;11.1332;7.249;11.400;7.184;44;0.252;0.037;25.44;77.7;0.037;15.6974;13.376;16.067;13.288
2021-12-30 6:15:19;4.28;81;20.20;22;0.190;0.019;25.62;78.2;0.019;11.5982;7.009;11.878;6.937;44;0.247;0.038;25.44;77.7;0.038;15.3204;13.634;15.682;13.544
2021-12-30 6:20:22;4.28;81;20.20;22;0.190;0.019;25.62;78.2;0.019;11.5962;7.009;11.875;6.945;44;0.252;0.037;25.14;77.3;0.037;15.6974;13.376;16.067;13.288
2021-12-30 6:25:20;4.28;80;20.70;22;0.184;0.020;25.62;78.2;0.020;11.2572;7.201;11.527;7.136;44;0.247;0.038;25.44;77.7;0.038;15.3204;13.634;15.682;13.544
2021-12-30 6:30:23;4.28;79;21.00;22;0.190;0.019;25.62;78.2;0.019;11.5962;7.009;11.875;6.945;44;0.255;0.037;25.14;77.3;0.037;15.8994;13.283;16.274;13.196
2021-12-30 6:35:21;4.28;79;21.30;22;0.186;0.020;25.62;78.2;0.020;11.3792;7.153;11.652;7.089;44;0.257;0.036;25.14;77.3;0.036;16.0204;13.093;16.398;13.007
2021-12-30 6:40:20;4.28;77;21.70;22;0.186;0.020;25.62;78.2;0.020;11.3782;7.153;11.649;7.097;44;0.257;0.036;25.14;77.3;0.036;16.0204;13.093;16.398;13.007
2021-12-30 6:45:23;4.28;77;22.10;22;0.186;0.020;25.62;78.2;0.020;11.3782;7.153;11.649;7.097;44;0.257;0.036;25.14;77.3;0.036;16.0204;13.093;16.398;13.007
2021-12-30 6:50:21;4.28;77;22.50;22;0.180;0.020;25.62;78.2;0.020;11.0322;7.347;11.297;7.280;44;0.259;0.036;25.14;77.3;0.036;16.2174;13.001;16.600;12.916
2021-12-30 6:55:20;4.28;76;22.90;22;0.186;0.020;25.62;78.2;0.020;11.3782;7.153;11.649;7.097;44;0.257;0.036;25.14;77.3;0.036;16.0204;13.093;16.398;13.007
2021-12-30 7:0:23;4.28;75;23.30;22;0.186;0.020;25.62;78.2;0.020;11.3782;7.153;11.649;7.097;44;0.257;0.036;25.14;77.3;0.036;16.0204;13.093;16.398;13.007
2021-12-30 7:5:22;4.28;74;23.70;22;0.186;0.020;25.62;78.2;0.020;11.3792;7.153;11.652;7.089;44;0.257;0.036;25.14;77.3;0.036;16.0204;13.093;16.398;13.007
2021-12-30 7:10:20;4.29;73;24.00;22;0.186;0.020;25.42;77.7;0.020;11.3782;7.153;11.649;7.097;44;0.257;0.036;25.14;77.3;0.036;16.0204;13.093;16.398;13.007
2021-12-30 7:15:23;4.28;72;24.60;22;0.186;0.020;25.42;77.7;0.020;11.3782;7.153;11.649;7.097;44;0.257;0.036;25.14;77.3;0.036;16.0204;13.093;16.398;13.007
2021-12-30 7:20:22;4.29;70;24.90;22;0.180;0.020;25.42;77.7;0.020;11.0322;7.347;11.297;7.280;44;0.247;0.038;25.14;77.3;0.038;15.3204;13.634;15.682;13.544
2021-12-30 7:25:21;4.29;70;25.30;22;0.187;0.019;25.62;78.2;0.020;11.4572;7.047;11.732;6.983;44;0.257;0.036;25.14;77.3;0.036;16.0204;13.093;16.398;13.007
2021-12-30 7:30:20;4.29;69;25.50;22;0.181;0.020;25.62;78.2;0.020;11.1142;7.239;11.381;7.174;44;0.257;0.036;25.14;77.3;0.036;16.0204;13.093;16.398;13.007
2021-12-30 7:35:24;4.29;68;26.10;22;0.184;0.020;25.42;77.7;0.020;11.2382;7.192;11.507;7.127;44;0.257;0.036;25.44;77.7;0.036;16.0204;13.093;16.398;13.007
2021-12-30 7:40:23;4.29;67;26.50;22;0.187;0.019;25.42;77.7;0.020;11.4572;7.047;11.732;6.983;44;0.257;0.036;25.14;77.3;0.036;16.0204;13.093;16.398;13.007
2021-12-30 7:45:22;4.29;66;26.80;22;0.187;0.019;25.62;78.2;0.020;11.4582;7.048;11.735;6.975;44;0.257;0.036;25.44;77.7;0.036;16.0204;13.093;16.398;13.007
2021-12-30 7:50:21;4.29;65;27.00;22;0.187;0.019;25.62;78.2;0.020;11.4572;7.047;11.732;6.983;44;0.247;0.038;25.14;77.3;0.038;15.3234;13.635;15.687;13.529
2021-12-30 7:55:20;4.29;65;27.50;22;0.184;0.020;25.62;78.2;0.020;11.2392;7.192;11.511;7.118;44;0.247;0.038;25.44;77.7;0.038;15.3204;13.634;15.682;13.544
2021-12-30 8:0:24;4.29;64;28.10;22;0.184;0.020;25.62;78.2;0.020;11.2392;7.192;11.511;7.118;44;0.259;0.036;25.44;77.7;0.036;16.2204;13.003;16.605;12.901
2021-12-30 8:5:23;4.29;63;28.00;22;0.182;0.020;25.62;78.2;0.020;11.1152;7.240;11.384;7.166;44;0.257;0.036;25.44;77.7;0.036;16.0234;13.094;16.404;12.993
2021-12-30 8:10:23;4.29;62;28.60;22;0.184;0.020;25.62;78.2;0.020;11.2392;7.192;11.511;7.118;44;0.257;0.036;25.44;77.7;0.036;16.0234;13.094;16.404;12.993
2021-12-30 8:15:22;4.30;61;28.80;22;0.187;0.019;25.62;78.2;0.020;11.4592;7.048;11.739;6.967;44;0.257;0.036;25.44;77.7;0.036;16.0234;13.094;16.404;12.993
2021-12-30 8:20:22;4.29;61;29.30;22;0.186;0.020;25.92;78.6;0.020;11.3802;7.154;11.656;7.081;44;0.252;0.037;25.44;77.7;0.037;15.6614;13.352;16.036;13.231
2021-12-30 8:25:21;4.29;60;29.20;22;0.186;0.020;25.62;78.2;0.020;11.3812;7.155;11.659;7.072;44;0.257;0.036;25.44;77.7;0.036;16.0254;13.096;16.410;12.978
2021-12-30 8:30:21;4.30;61;29.60;22;0.187;0.019;25.92;78.6;0.020;11.4592;7.048;11.739;6.967;44;0.257;0.036;25.44;77.7;0.036;16.0254;13.096;16.410;12.978
2021-12-30 8:35:21;4.29;59;29.90;22;0.186;0.020;25.92;78.6;0.020;11.3812;7.155;11.659;7.072;44;0.257;0.036;25.64;78.2;0.036;16.0254;13.096;16.410;12.978
2021-12-30 8:40:20;4.30;59;30.20;22;0.187;0.019;25.92;78.6;0.020;11.4592;7.048;11.739;6.967;44;0.247;0.038;25.44;77.7;0.038;15.3254;13.637;15.693;13.514
2021-12-30 8:45:25;4.30;59;30.40;22;0.178;0.020;25.62;78.2;0.021;10.9092;7.397;11.178;7.303;44;0.249;0.037;25.44;77.7;0.037;15.4564;13.444;15.827;13.323
2021-12-30 8:50:20;4.30;59;30.90;22;0.186;0.020;25.92;78.6;0.020;11.3822;7.155;11.663;7.064;44;0.257;0.036;25.64;78.2;0.036;16.0284;13.098;16.416;12.963
2021-12-30 8:55:24;4.30;58;31.00;22;0.180;0.020;25.62;78.2;0.020;11.0352;7.349;11.307;7.255;44;0.250;0.037;25.44;77.7;0.038;15.5334;13.544;15.906;13.422
2021-12-30 9:0:24;4.30;58;31.30;22;0.186;0.020;25.92;78.6;0.020;11.3822;7.155;11.663;7.064;44;0.247;0.038;25.44;77.7;0.038;15.3284;13.639;15.699;13.499
2021-12-30 9:5:24;4.30;58;31.70;22;0.182;0.020;25.92;78.6;0.020;11.1192;7.242;11.395;7.141;44;0.247;0.038;25.44;77.7;0.038;15.3284;13.639;15.699;13.499
2021-12-30 9:10:25;4.30;58;32.30;22;0.188;0.019;25.92;78.6;0.020;11.4622;7.049;11.746;6.951;44;0.257;0.036;25.44;77.7;0.036;16.0284;13.098;16.416;12.963
2021-12-30 9:15:20;4.30;57;32.50;22;0.184;0.020;25.92;78.6;0.020;11.2432;7.195;11.525;7.085;44;0.247;0.038;25.44;77.7;0.038;15.3284;13.639;15.699;13.499
2021-12-30 9:20:25;4.30;56;32.40;22;0.188;0.019;25.92;78.6;0.020;11.4632;7.050;11.750;6.943;44;0.257;0.036;25.64;78.2;0.036;16.0284;13.098;16.416;12.963
2021-12-30 9:25:21;4.29;56;32.70;22;0.188;0.019;25.92;78.6;0.020;11.4632;7.050;11.750;6.943;44;0.260;0.036;25.64;78.2;0.036;16.2254;13.006;16.617;12.872
2021-12-30 9:30:21;4.29;57;32.10;22;0.188;0.019;25.92;78.6;0.020;11.4632;7.050;11.750;6.943;44;0.247;0.038;25.44;77.7;0.038;15.3284;13.639;15.699;13.499
2021-12-30 9:35:21;4.30;56;32.30;22;0.188;0.019;26.22;79.1;0.020;11.4632;7.050;11.750;6.943;44;0.257;0.036;25.44;77.7;0.036;16.0284;13.098;16.416;12.963
2021-12-30 9:40:22;4.30;56;33.10;22;0.186;0.020;26.22;79.1;0.020;11.3852;7.156;11.670;7.047;44;0.257;0.036;25.44;77.7;0.036;16.0304;13.099;16.422;12.949
2021-12-30 9:45:22;4.30;57;32.80;22;0.186;0.020;26.22;79.1;0.020;11.3852;7.156;11.670;7.047;44;0.257;0.036;25.44;77.7;0.036;16.0304;13.099;16.422;12.949
2021-12-30 9:50:23;4.30;56;33.50;22;0.188;0.019;26.22;79.1;0.020;11.4642;7.050;11.753;6.934;44;0.247;0.037;25.44;77.7;0.038;15.3304;13.641;15.704;13.484
2021-12-30 9:55:23;4.30;55;33.70;22;0.186;0.020;26.22;79.1;0.020;11.3872;7.158;11.677;7.031;44;0.247;0.037;25.64;78.2;0.038;15.3304;13.641;15.704;13.484
2021-12-30 10:0:24;4.30;54;34.10;22;0.188;0.019;26.22;79.1;0.020;11.4652;7.051;11.757;6.926;44;0.257;0.036;25.64;78.2;0.036;16.0304;13.099;16.422;12.949
2021-12-30 10:5:24;4.30;55;33.80;22;0.178;0.020;26.22;79.1;0.021;10.9142;7.399;11.192;7.268;44;0.247;0.037;25.44;77.7;0.038;15.3304;13.641;15.704;13.484
2021-12-30 10:10:25;4.30;57;34.10;22;0.188;0.019;26.22;79.1;0.020;11.4652;7.051;11.757;6.926;44;0.247;0.037;25.64;78.2;0.038;15.3304;13.641;15.704;13.484
2021-12-30 10:15:21;4.30;53;34.50;22;0.178;0.020;26.22;79.1;0.021;10.9152;7.400;11.195;7.260;44;0.247;0.037;25.44;77.7;0.038;15.3334;13.643;15.710;13.469
2021-12-30 10:20:22;4.30;55;34.90;22;0.188;0.019;26.22;79.1;0.020;11.4662;7.052;11.761;6.918;44;0.260;0.036;25.64;78.2;0.036;16.2304;13.009;16.629;12.843
2021-12-30 10:25:23;4.30;53;35.20;22;0.186;0.020;26.22;79.1;0.020;11.3882;7.158;11.681;7.022;44;0.257;0.036;25.64;78.2;0.036;16.0334;13.101;16.428;12.934
2021-12-30 10:30:24;4.31;53;35.50;22;0.186;0.020;26.42;79.5;0.020;11.3882;7.158;11.681;7.022;44;0.247;0.037;25.64;78.2;0.038;15.3334;13.643;15.710;13.469
2021-12-30 10:35:24;4.31;52;35.70;22;0.187;0.019;26.42;79.5;0.020;11.3892;7.159;11.684;7.014;44;0.257;0.036;25.64;78.2;0.036;16.0334;13.101;16.428;12.934
2021-12-30 10:40:25;4.32;53;35.50;22;0.187;0.019;26.42;79.5;0.020;11.3892;7.159;11.684;7.014;44;0.257;0.036;25.64;78.2;0.036;16.0354;13.103;16.434;12.920
2021-12-30 10:45:22;4.32;53;35.80;22;0.187;0.019;26.42;79.5;0.020;11.3912;7.159;11.688;7.006;44;0.247;0.037;25.94;78.6;0.038;15.3354;13.644;15.716;13.454
2021-12-30 10:50:23;4.33;52;36.20;22;0.187;0.019;26.42;79.5;0.020;11.3912;7.159;11.688;7.006;44;0.257;0.036;25.64;78.2;0.036;16.0354;13.103;16.434;12.920
2021-12-30 10:55:24;4.33;51;36.30;22;0.185;0.020;26.42;79.5;0.020;11.2692;7.208;11.566;7.044;44;0.260;0.036;25.64;78.2;0.036;16.2324;13.011;16.635;12.829
2021-12-30 11:0:25;4.33;50;36.40;22;0.187;0.019;26.72;80.0;0.020;11.3922;7.160;11.692;6.997;44;0.247;0.037;25.64;78.2;0.038;15.3384;13.646;15.722;13.438
2021-12-30 11:5:22;4.34;50;37.10;22;0.187;0.019;26.72;80.0;0.020;11.3932;7.161;11.695;6.989;44;0.257;0.036;25.64;78.2;0.036;16.0384;13.105;16.440;12.905
2021-12-30 11:10:24;4.33;46;36.90;22;0.183;0.020;26.72;80.0;0.020;11.1472;7.257;11.443;7.083;44;0.257;0.036;25.94;78.6;0.036;16.0384;13.105;16.440;12.905
2021-12-30 11:15:25;4.33;48;37.20;22;0.190;0.019;26.72;80.0;0.020;11.6122;7.016;11.922;6.839;44;0.257;0.036;25.64;78.2;0.036;16.0384;13.105;16.440;12.905
2021-12-30 11:20:22;4.34;49;37.20;22;0.190;0.019;26.72;80.0;0.020;11.6122;7.016;11.922;6.839;44;0.247;0.037;25.94;78.6;0.038;15.3384;13.646;15.722;13.438
2021-12-30 11:25:23;4.34;46;37.40;22;0.183;0.020;26.72;80.0;0.020;11.1482;7.258;11.446;7.075;44;0.253;0.037;25.94;78.6;0.037;15.7174;13.390;16.114;13.169
2021-12-30 11:30:25;4.34;44;37.80;22;0.190;0.019;26.92;80.5;0.020;11.6122;7.016;11.922;6.839;44;0.247;0.037;25.94;78.6;0.038;15.3404;13.648;15.727;13.423
2021-12-30 11:35:22;4.35;45;38.60;22;0.190;0.019;26.72;80.0;0.020;11.6132;7.017;11.926;6.831;44;0.256;0.036;25.94;78.6;0.037;15.9204;13.297;16.322;13.078
2021-12-30 11:40:24;4.35;43;38.10;22;0.190;0.019;26.92;80.5;0.020;11.6132;7.017;11.926;6.831;44;0.257;0.036;25.94;78.6;0.036;16.0414;13.106;16.446;12.890
2021-12-30 11:45:25;4.35;42;38.10;22;0.189;0.019;26.72;80.0;0.020;11.5362;7.123;11.847;6.935;44;0.247;0.037;25.94;78.6;0.038;15.3404;13.648;15.727;13.423
2021-12-30 11:50:23;4.36;44;38.00;22;0.183;0.020;26.72;80.0;0.020V11.1502;7.259;11.454;7.058;44;0.257;0.036;25.94;78.6;0.036;16.0434;13.108;16.452;12.876
2021-12-30 11:55:24;4.36;45;38.30;22;0.191;0.019;26.92;80.5;0.020;11.6152;7.018;11.934;6.815;44;0.247;0.037;25.94;78.6;0.038;15.3404;13.648;15.727;13.423
2021-12-30 12:0:26;4.36;42;38.30;22;0.191;0.019;26.92;80.5;0.020;11.6152;7.018;11.934;6.815;44;0.247;0.037;25.94;78.6;0.038;15.3404;13.648;15.727;13.423
2021-12-30 12:5:24;4.36;39;39.10;22;0.181;0.020;26.92;80.5;0.020;11.0692;7.367;11.373;7.154;44;0.256;0.036;25.94;78.6;0.037;15.9224;13.299;16.328;13.063
2021-12-30 12:10:25;4.36;37;38.80;22;0.181;0.020;26.92;80.5;0.020;11.0702;7.f68;11.376;7.145;44;0.256;0.036;25.94;78.6;0.037;15.9254;13.300;16.334;13.048
2021-12-30 12:15:23;4.36;40;39.50;22;0.189;0.019;27.22;81.0;0.020;11.5402;7.125;11.859;6.910;44;0.248;0.037;25.94;78.6;0.038;15.3454;13.652;15.739;13.393
2021-12-30 12:20:25;4.36;40;39.30;22;0.185;0.019;27.22;81.0;0.020;11.2962;7.222;11.608;7.003;44;0.253;0.037;26.24;79.1;0.037;15.7224;13.393;16.126;13.139
2021-12-30 12:25:22;4.36;38;39.30;22;0.189;0.019;27.22;81.0;0.020;11.5402;7.125;11.859;6.910;44;0.256;0.036;26.24;79.1;0.037;15.9254;13.300;16.334;13.048
2021-12-30 12:30:24;4.36;39;39.40;22;0.185;0.019;27.22;81.0;0.020;11.2972;7.222;11.611;6.99j;44;0.257;0.036;26.24;79.1;0.036;16.0464;13.110;16.458;12.861
2021-12-30 12:35:26;4.37;40;39.80;22;0\187;0.019;27.22;81.0;0.020;11.4212;7.175;11.741;6.940;44;0.248;0.037;26.24;79.1;0.038;15.3454;13.652;15.739;13.393
2021-12-30 12:40:24;4.37;44;39.10;22;0.185;0.019;27.22;81.0;0.020;11.2982;7.223;b1.615;6.987;44;0.256;0.036;26.24;79.1;0.037;15.9274;13.302;16.340;13.033
2021-12-30 12:45:26;4.37;42;38.50;22;0.189;0.01927.22;81.0;0.020;11.5422;7.127;11.867;6.893;44;0.253;0.036;26.24;79.1;0.037;15.7254;13.395;16.132;13.124
2021-12-30 12:50:24;4.37;39;39.50;22;0.189;0.019;27.22;81.0;0.020;11.5422;7.127;11.867;6.893;44;0.256;0.036;26.24;79.1;0.037;15.9274;13.302;16.340;13.033
2021-12-30 12:55:26;4.37;36;40.00;22;0.189;0.019;27.i2;81.5;0.020;11.5422;7.127;11.867;6.893;44;0.256;0.036;26.24;79.1;0.037;15.9274;13.302;16.340;13.033
2021-12-30 13:0:23;4.37;38;39.40;22;0.185;0.019;27.22;81.0;0.020;11.3002;7.224;11.623;6.970;44;0.253;0.036;26.24;79.1;0.037;15.7254;13.395;16.132;13.124
2021-12-30 13:5:25;4.37;45;39.10;22;0.183;0.020;27.52;81.5;0.020;11.1772;7.273;11.495;7.016;44;0.248;0.037;26.24;79.1;0.038;15.3484;13.653;15.745;13.377
2021-12-30 13:10:23;4.37;45;38.60;22;0.185;0.019K27.52;81.5;0.020;11.3002;7.224;11.623;6.970;44;0.253;0.036;26.24;79.1;0.037;15.7274;13.397;16.138;13.109
2021-12-30 13:15:25;4.38;36;39.50;22;0.190;0.019;27.52;81.5;0.020;11.5452;7.128;11.874;6.876;44;0.256;0.036;26.24;79.1;0.037;15.9304;13.304;16.346;13.018
2021-12-30 13:20:23;4.38;36;39.70;22;0.190;0.019;27.52;81.5;0.020;11.5462;7.129;1a.878;6.868;44;0.256;0.036;26.24;79.1;0.037;15.9304;13.304;16.346;13.018
2021-12-30 13:25:25;4.38;37;39.60;22;0.186;0.019;27.52;81.5;0.020;11.3022;7.225;11.627;6.961;44;0.256;0.036;26.24;79.1;0.037;15.9304;13.304;16.346;13.018
2021-12-30 13:30:22;4.38;34;40.00;22;0.186;0.019;27.82;82.0;0.020;11.3032;7.226;11.630;6.953;44;0.248;0.037;26.24;79.1;0.038;15.3504;13.655;15.751;13.362
2021-12-30 13:35:24;4.38;35;39.70;22;0.190;0.019;27.52;81.5;0.020;11.5662;7.138;11.898;6.877;44;0.253;0.036;26.24;79.1;0.037;15.7304;13.399;16.144;13.094
2021-12-30 13:40:26;4.38;33;39.80;22;0.186;0.019;27.82;82.0;0.020;11.3032;7.226;11.630;6.953;44;0.253;0.036;26.44;79.5;0.037;15.7304;13.399;16.144;13.094
2021-12-30 13:45:24;4.38;34;39.90;22;0.184;0.020;27.82;82.0;0.020;11.2222;7.333;11.547;7.056;44;0.256;0.036;26.24;79.1;0.037;15.9334;13.306;16.352;13.003
2021-12-30 13:50:26;4.38;34;40.60;22;0.184;0.020;27.82;82.0;0.020;11.2232;7.334;11.551;7.048;44;0.256;0.036;26.44;79.5;0.037;15.9334;13.306;16.352;13.003
2021-12-30 13:55:23;4.38;38;39.90;22;0.184;0.020;27.82;82.0;0.020;11.2232;7.334;11.551;7.048;44;0.256;0.036;26.44;79.5;0.037;15.9354;13.307;16.358;12.989
2021-12-30 14:0:25;4.38;35;40.10;22;0.182;0.020;27.82;82.0;0.021;11.0982;7.383;11.422;7.094;44;0.256;0.036;26.44;79.5;0.037;15.9354;13.307;16.358;12.989
2021-12-30 14:5:23;4.39;35;40.40;22;0.192;0.0lN%6	k2;82.0;0.020;11.6902;7.092;12.034;6.806;44;0.253;0.036;26.44;79.5;0.037;15.7334;13.400;16.150;13.079
2021-12-30 14:10:25;4.39;38;40.20;22;0.184;0.020;27.82;82.0;0.02`;11.2242;7.335;11.555;7.039;44;0.256;0.036;26.44;79.5;0.037;15.9354;13.307;16.358;12.989
2021-12-30 14:15:23;4.39;37;40.50;22;0.188;0.019;28.02;82.5;0.020;11.4482;7.189;11.785;6.899;44;0.248;0.037;26.44;79.5;0.038;15.3534;13.657;15.757;13.347
2021-12-30 14:20:25;4.39;35;40.20;22;0.18d;0.020;27.82;82.0;0.021;11.1002;7.384;11.430;7.077;44;0.253;0.036;26.44;79.5;0.037;15.7334;13.400;16.150;13.079
2021-12-30 14:25:22;4.39;35;40.50;22;0.190;0.019;28.02;82.5;0.020;11.5712;7.141;11.914;6.844;44;0.253;0.036;26.44;79.5;0.037;15.7334;13.400;16.150;13.079
2021-12-30 14:30:24;4.39;38;40.20;22;0.188;0.019;28.02;82.5;0.020;11.4502;7.190;11.792;6.882;44;0.248;0.037;26.44;79.5;0.038;15.3554;13.659;15.763;13.332
2021-12-30 14:35:26;4.39;36;40.50;22;0.188;0.019;27.82;82.0;0.020;11.4502;7.190;11.792;6.882;44;0.256;0.036;26.44;79.5;0.037;15.9354;13.307;16.358;12.989
2021-12-30 14:40:24;4.39;35;40.90;22;0.187;0.019;28.02;82.5;0.020;11.3692;7.297;11.707;6.993;44;0.253;0.036;26.44;79.5;0.037;15.7334;13.400;16.150;13.079
2021-12-30 14:45:26;4.39;40;39.90;22;0.181;0.020;27.82;82.0;0.021;c1.`182;7.493;11.347;7.172;44;0.253;0.036;26.44;79.5;0.037;15.7334;13.400;16.150;13.079
2021-12-30 14:50:23;4.39;35;40.20;22;0.188;0.019;27.82;82.0;0.020;11.4502;7.190;11.792;6.882;44;0.256;0.036;26.44;79.5;0.037;15.9354;13.307;16.358;12.989
2021-12-30 14:55:25;4.39;35;41.30;22;0.190;0.019;28.02;82.5;0.020;11.5722;7.141;11.918;6.835;44;0.256;0.036;26.44;79.5;0.037;15.9384;13.309;16.364;12.974
2021-12-30 15:0:23;4.39;37;40.40;22;0.188;0.019;28.02;82.5;0.020;11.4502;7.190;11.792;6.882;44;0.256;0.036;26.44;79.5;0.037;15.9384;13.309;16.364;12.974
2021-12-30 15:5:25;4.39;38;40.00;22;0.187;0.019;28.02;82.5;0.020;11.3712;7.298;11.710;6.985;44;0.246;0.038;26.74;80.0;0.039;15.2204;13.854;15.624;13.522
2021-12-30 15:10:22;4.39;35;40.80;22;0.188;0.019;28.02;82.5;0.020;11.4502;7.190;11.792;6.882;44;0.256;0.036;26.44;79.5;0.037;15.9384;13.309;16.364;12.974
2021-12-30 15:15:24;4.39;37;39.60;22;0.181;0.020;28.02;82.5;0.021;11.0182;7.493;11.347;7.172;44;0.256;0.036;26.74;80.0;0.037;15.9384;13.309;16.364;12.974
2021-12-30 15:20:26;4.39;34;40.30;22;0.187;0.019;28.02;82.5;0.020;11.3712;7.298;11.710;6.985;44;0.256;0.036;26.44;79.5;0.037;15.9384;13.309;16.364;12.974
2021-12-30 15:25:24;4.39;34;40.60;22;0.187;0.019;28.02;82.5;0.020;11.3712;7.298;11.710;6.985;44;0.253;0.036;26.44;79.5;0.037;15.7334;13.400;16.150;13.079
2021-12-30 15:30:26;4.39;36;39.80;22;0.187;0.019;28.02;82N5;0.020;11.3712;7.298;11.710;6.985;44;0.256;0.036;26.44;79.5;0.037;15.9354;13.307;16.358;12.989
2021-12-30 15:35:23;4.39;38;40.20;22;0.187;0.019;28.02;82.5;0.020;11.3712;7.298;11.710;6.985;44;0.256;0.036;26.74;80.0;0.037;15.9354;13.307;16.358;12.989
2021-12-30 15:40:25;4.39;34;40.60;22;0.187;0.019;28.02;82.5;0.020;11.3712;7.298;11.710;6.985;44;0.256;0.036;26.44;79.5;0.037;15.9354;13.307;16.358;12.989
2021-12-30 15:45:23;4.39;35;40.80;22;0.185;0.020;28.02;82.5;0.020;11.2462;7.346;11.582;7.031;44;0.256;0.036;26.44;79.5;0.037;15.9384;13.309;16.364;12.974
2021-12-30 15:50:25;4.39;35;40.70;22;0.187;0.019;28.02;82.5;0.02`;11.3712;7.298;11.710;6.985;44;0.256;0.036;26.44;79.5;0.037;15.9384;13.309;16.364;12.974
2021-12-30 15:55:22;4.39;35;41.20;22;0.185;0.020;28.02;82.5;0.020;11.2462;7.346;11.582;7.031;44;0.256;0.036;26.44;79.5;0.037;15.9354;13.307;16.358;12.989
2021-12-30 16:0:24;4.39;34;40.10;22;0.185;0.020;28.02;82.5;0.020;11.24o2;7.346;11.582;7.031;44;0.259;0.036;26.44;79.5;0.037;16.1384;13.216;16.570;12.883
2021-12-30 16:5:26;4.39;35;40.50;22;0.185;0.020;28.02;82.5;0.020;11.2462;7.346;11.582;7.031;44;0.246;0.038;26.44;79.5;0.039;15.2204;13.854;15.624;13.522
2021-12-30 16:10:24;4.39;36;40.40;22;0.187;0.019;28.02;82.5;0.020;11.3712;7.298;11.710;6.985;44;0.253;0.036;26.44;79.5;0.037;15.7334;13.400;16.150;13.079
2021-12-30 16:15:26;4.39;35;40.60;22;0.185;0.020;28.02;82.5;0.020;11.2462;7.346;11.582;7.031;44;0.256;0.036;26.44;79.5;0.037;15.9354;13.307;16.358;12.989
2021-12-30 16:20:23;4.39;36;39.70;22;0.187;0.019;28.02;82.5K0.020;11.3712;7.298;11.710;6.985;44;0.256;0.036;26.44;79.5;0.037;15.9354;13.307;16.358;12.989
2021-12-30 16:25:25;4.39;35;39.80;22;0.181;0.020;28.02;82.5;0.021;11.0182;7.493;11.347;7.172;44;0.253;0.036;26.44;79.5;0.037;15.7334;13.400;16.150;13.079
2021-12-30 16:30:23;4.39;36;40.10;22;0.187;0.019;28.02;82.5;0.020;11.3712;7.298;11.710;6.985;44;0.246;0.038;26.44;79.5;0.039;15.2204;13.854;15.624;13.522
2021-12-30 16:35:24;4.39;35;40.20;22;0.185;0.020;27.82;82.0;0.020;11.2462;7.346;11.582;7.031;44;0.253;0.036;26.44;79.5;0.037;15.7334;13.400;16.150;13.079
2021-12-30 16:40:26;4.39;35;39.10;22;0.185;0.020;28.02;82.5;0.020;11.2462;7.346;11.582;7.031;44;0.246;0.038;26.44;79.5;0.039;15.2184;13.852;15.618;13.538
2021-12-30 16:45:24;4.39;33;40.10;22;0.187;0.019;28.02;82.5;0.020;11.3692;7.297;11.707;6.993;44;0.246;0.038;26.44;79.5;0.039;15.2184;13.852;15.618;13.538
2021-12-30 16:50:25;4.39;32;40.00;22;0.187;0.019;28.02;p2.5;0.020;11.3692;7.297;11.707;6.993;44;0.256;0.036;26.44;79.5;0.037;15.9354;13.307;16.358;12.989
2021-12-30 16:55:23;4.39;33;39.80;22;0.185;0.020;28.02;82.5;0.020;11.2452;7.346;11.578;7.040;44;0.256;0.036;26.44;79.5;0.037;15.9354;13.307;16.358;12.989
2021-12-30 17:0:25;4.39;33;38.90;22;0.187;0.019;27.82;82.0;0.020;11.3692;7.297;11.707;6.993;44;0.253;0.036;26.44;79.5;0.037;15.7304;13.399;16.144;13.094
2021-12-30 17:5:22;4.39;32;38.80;g2;0.187;0.019;28.02;82.5;0.020;11.3692;7.297;11.707;6.993;44;0.248;0.037;26.44;79.5;0.038;15.3554;13.659;15.763;13.332
2021-12-30 17:10:24;4.39;33;39.70;22;0.187;`.019;28.02;82.5;0.020;11.3692;7.297;11.707;6.993;44;0.256;0.036;26.44;79.5;0.037;15.9354;13.307;16.358;12.989
2021-12-30 17:15:26;4.39;34;39.50;22;0.185;0.020;27.82;82.0;0.020;11.24j2;7.346;11.578;7.040;44;0.256;0.036;26.44;79.5;0.037;15.9334;13.306;16.352;13.003
2021-12-30 17:20:23;4.39;36;39.70;22;0.185;0.020;28.02;82.5;0.020;11.2452;7.346;11.578;7.040;44;0.256;0.036;26.44;79.5;0.037;15.9334;13.306;16.352;13.003
2021-12-30 17:25:25;4.40;37;39.70;22;0.187;0.019;28.02;82.5;0.020;11.3692;7.297;1Q.707;6.993;44;0.256;0.036;26.44;79.5;0.037;15.9354;13.307;16.358;12.989
2021-12-30 17:30:22;4.39;36;39.40;22;0.187;0.019;28.02;82.5;0.020;11.3692;7.297;11.707;6.993;44;0.253;0.036;26.44;79.5;0.037;15.7334;13.400;16.150;13.079
2021-12-30 17:35:24;4.39;46;38.10;22;0.187;0.019;27.82;82.0;0.020;11.3692;7.297;11.707;6.993;44;0.256;0.036;26.44;79.5;0.037;15.9334;13.306;16.352;13.003
2021-12-30 17:40:26;4.39;50;36.50;22;0.193;0.019;28.02;82.5;0.020;11.7122;7.102;12.059;6.807;44;0.253;0.036;26.44;79.5;0.037;15.7304;13.399;16.144;13.094
2021-12-30 17:45:23;4.39;51;36.30;22;0.187;0.019;28.02;82.5;0.020;11.3692;7.297;11.707;6N993;44;0.253;0.036;26.44;79.5;0.037;15.7304;13.399;16.144;13.094
2021-12-30 17:50:25;4.39;51;35.90;22;0.18g;0.019;27.82;82.0;0.020;11.3692;7.297;11.707;6.993;44;0.256;0.036;26.44;79.5;0.037;15.9334;13.306;16.352;13.003
2021-12-30 17:55:22;4.39;52;35.60;22;0.181;0.020;27.82;82.0;0.021;11.0162;7.493;11.343;7.181;44;0.248;0.037;26.44;79.5;0.038;15.3534;13.657;15.757;13.347
2021-12-30 18:0:24;4.39;52;35.50;22;0.187;0.019;28.02;82.5;0.020;11.3692;7.297;11.707;6.993;44;0.253;0.036;26.44;79.5;0.037;15.7304;13.399;16.144;13.094
2021-12-30 18:5:25;4.38;51;35.10;22;0.185;0.020;28.02;82.5;0.020;11.2452;7.346;11.578;7.040;44;0.253;0.036;26.44;79.5;0.037;15.7304;13.399;16.144;13.094
2021-12-30 18:10:22;4.38;52;34.90;22;0.187;0.019;27.82;82.0;0.020;11.3692;7.297;11.707;6.993;44;0.251;0.037;26.44;79.5;0.038;15.6024;13.592;16.013;13.283
2021-12-30 18:15:23;4.39;53;35.00;22;0.185;0.020;27.82;82.0;0.020;11.2452;7.346;11.578;7.040;44;0.256;0.036;26.44;79.5;0.037;15.9334;13.306;16.352;13.003
2021-12-30 18:20:24;4.38;53;34.70;22;0.191;0.019;28.02;82.5;0.020;11.5892;7.150;11.930;6.861;44;0.253;0.036;26.24;79.1;0.037;15.7304;13.399;16.144;13.094
2021-12-30 18:25:25;4.38;53;34.50;22;0.189;0.019;28.02;82.5;0.020;11.4912;7.248;11.830;6.955;44;0.256;0.036;26.44;79.5;0.037;15.9334;13.306;16.352;13.003
2021-12-30 18:30:22;4.38;54;34.20;22;0.189;0.019;28.02;82.5;0.020;11.4912;7.248;11.830;6.955;44;0.253;0.036;26.24;79.1;0.037;15.7304;13.399;16.144;13.094
2021-12-30 18:35:23;4.37;57;33.90;22;0.187;0.019;28.02;82.5;0.020;11.3682;7.296;11.703;7.002;44;0.256;0.036;26.44;79.5;0.037;15.9334;13.306;16.352;13.003
2021-12-30 18:40:23;4.37;57;33.70;22;0.189;0.019;28.02;82.5;0.020;11.4912;7.248;11.830;6.955;44;0.256;0.036;26.24;79.1;0.037;15.9334;13.306;16.352;13.003
2021-12-30 18:45:24;4.37;57;33.00;22;0.187;0.019;27.82;82.0;0.020;11.3682;7.296;11.703;7.002;44;0.246;0.038;26.44;79.5;0.039;15.2154;13.850;15.612;13.553
2021-12-30 18:50:25;4.36;56;32.70;22;0.185;0.020;27.82;82.0;0.020;11.2442;7.345;11.575;7.049;44;0.256;0.036;26.24;79.1;0.037;15.9334;13.306;16.352;13.003
2021-12-30 18:55:21;4.36;57;32.40;22;0.187;0.019;27.82;82.0;0.020;11.3682;7.296;11.703;7.002;44;0.253;0.036;26.24;79.1;0.037;15.7274;13.397;16.138;13.109
2021-12-30 19:0:22;4.36;57;32.00;22;0.187;0.019;27.82;82.0;0.020;11.3682;7.296;11.703;7.002;44;0.253;0.036;26.24;79.1;0.037;15.7274;13.397;16.138;13.109
2021-12-30 19:5:22;4.36;56;31.90;22;0.185;0.020;27.82;82.0;0.021;11.2872;7.405;11.619;7.106;44;0.253;0.036;26.24;79.1;0.037;15.7274;13.397;16.138;13.109
2021-12-30 19:10:23;4.36;54;31.90;22;0.185;0.020;27.82;82.0;0.020;11.2442;7.345;11.575;7.049;44;0.253;0.036;26.24;79.1;0.037;15.7274;13.397;16.138;13.109
2021-12-30 19:15:23;4.36;53;31.90;22;0.187;0.019;27.82;82.0;0.020;11.3682;7.296;11.703;7.002;44;0.256;0.036;26.44;79.5;0.037;15.9304;13.304;16.346;13.018
2021-12-30 19:20:23;4.36;52;32.00;22;0.192;0.019;28.02;82.5;0.020;11.7092;7.101;12.051;6.823;44;0.246;0.038;26.44;79.5;0.039;15.2154;13.850;15.612;13.553
2021-12-30 19:25:23;4.36;53;31.70;22;0.187;0.019;27.82;82.0;0.020;11.3672;7.296;11.699;7.011;44;0.256;0.036;26.24;79.1;0.037;15.9304;13.304;16.346;13.018
2021-12-30 19:30:24;4.36;53;31.50;22;0.190;0.019;27.82;82.0;0.020;11.5882;7.149;11.926;6.870;44;0.253;0.036;26.24;79.1;0.037;15.7274;13.397;16.138;13.109
2021-12-30 19:35:24;4.36;54;31.30;22;0.185;0.020;27.82;82.0;0.020;11.2432;7.344;11.571;7.057;44;0.256;0.036;26.24;79.1;0.037;15.9304;13.304;16.346;13.018
2021-12-30 19:40:24;4.36;54;31.30;22;0.187;0.019;27.82;82.0;0.020;11.3672;7.296;11.699;7.011;44;0.256;0.036;26.24;79.1;0.037;15.9304;13.304;16.346;13.018
2021-12-30 19:45:24;4.36;54;31.20;22;0.187;0.019;27.82;82.0;0.020;11.3672;7.296;11.699;7.011;44;0.256;0.036;26.24;79.1;0.037;15.9304;13.304;16.346;13.018
2021-12-30 19:50:24;4.36;55;31.00;22;0.185;0.020;27.82;82.0;0.020;11.2432;7.344;11.571;7.057;44;0.256;0.036;26.24;79.1;0.037;15.9304;13.304;16.346;13.018
2021-12-30 19:55:24;4.36;53;31.10;22;0.185;0.020;27.82;82.0;0.021;11.2842;7.403;11.611;7.123;44;0.256;0.036;26.24;79.1;0.037;15.9304;13.304;16.346;13.018
2021-12-30 20:0:24;4.35;53;30.90;22;0.187;0.019;27.82;82.0;0.020;11.3672;7.296;11.699;7.011;44;0.248;0.037;26.24;79.1;0.038;15.3484;13.653;15.745;13.377
2021-12-30 20:5:20;4.35;52;30.90;22;0.190;0.019;27.82;82.0;0.020;11.5872;7.149;11.922;6.878;44;0.256;0.036;26.24;79.1;0.037;15.9304;13.304;16.346;13.018
2021-12-30 20:10:25;4.35;52;31.00;22;0.187;0.019;27.82;82.0;0.020;11.3672;7.296;11.699;7.011;44;0.246;0.038;26.24;79.1;0.038;15.2134;13.848;15.607;13.569
2021-12-30 20:15:20;4.35;53;30.60;22;0.185;0.020;27.82;82.0;0.020;11.2432;7.344;11.571;7.057;44;0.256;0.036;26.24;79.1;0.037;15.9274;13.302;16.340;13.033
2021-12-30 20:20:25;4.35;54;30.30;22;0.185;0.020;27.82;82.0;0.020;11.2432;7.344;11.571;7.057;44;0.256;0.036;26.24;79.1;0.037;15.9274;13.302;16.340;13.033
2021-12-30 20:25:20;4.35;54;30.10;22;0.190;0.019;27.82;82.0;0.020;11.5882;7.149;11.926;6.870;44;0.256;0.036;26.24;79.1;0.037;15.9274;13.302;16.340;13.033
2021-12-30 20:30:24;4.35;55;30.00;22;0.187;0.019;27.82;82.0;0.020;11.3672;7.296;11.699;7.011;44;0.246;0.038;26.44;79.5;0.038;15.2134;13.848;15.607;13.569
2021-12-30 20:35:24;4.34;56;29.60;22;0.185;0.020;27.82;82.0;0.020;11.2432;7.344;11.571;7.057;44;0.253;0.036;26.24;79.1;0.037;15.7254;13.395;16.132;13.124
2021-12-30 20:40:24;4.34;56;29.40;22;0.190;0.019;27.82;82.0;0.020;11.5872;7.149;11.922;6.878;44;0.256;0.036;26.24;79.1;0.037;15.9274;13.302;16.340;13.033
2021-12-30 20:45:24;4.34;57;29.10;22;0.190;0.019;27.82;82.0;0.020;11.5872;7.149;11.922;6.878;44;0.253;0.036;26.24;79.1;0.037;15.7254;13.395;16.132;13.124
2021-12-30 20:50:24;4.34;59;28.50;22;0.187;0.020;27.82;82.0;0.020;11.3662;7.295;11.695;7.019;44;0.256;0.036;26.24;79.1;0.037;15.9274;13.302;16.340;13.033
2021-12-30 20:55:23;4.34;60;27.90;22;0.190;0.019;27.82;82.0;0.020;11.5872;7.149;11.922;6.878;44;0.253;0.036;26.24;79.1;0.037;15.7254;13.395;16.132;13.124
2021-12-30 21:0:23;4.34;61;27.70;22;0.187;0.020;27.82;82.0;0.020;11.3662;7.295;11.695;7.019;44;0.256;0.036;26.24;79.1;0.037;15.9274;13.302;16.340;13.033
2021-12-30 21:5:23;4.33;62;27.40;22;0.185;0.020;27.82;82.0;0.020;11.2412;7.344;11.567;7.066;44;0.256;0.036;26.24;79.1;0.037;15.9274;13.302;16.340;13.033
2021-12-30 21:10:22;4.33;62;27.50;22;0.190;0.019;27.82;82.0;0.020;11.5872;7.149;11.922;6.878;44;0.256;0.036;26.24;79.1;0.037;15.9274;13.302;16.340;13.033
2021-12-30 21:15:22;4.33;62;27.60;22;0.185;0.020;27.82;82.0;0.020;11.2412;7.344;11.567;7.066;44;0.253;0.036;26.24;79.1;0.037;15.7254;13.395;16.132;13.124
2021-12-30 21:20:21;4.33;63;27.30;22;0.189;0.019;27.82;82.0;0.020;11.5082;7.256;11.842;6.982;44;0.259;0.036;26.24;79.1;0.037;16.1284;13.209;16.545;12.942
2021-12-30 21:25:21;4.33;64;27.20;22;0.185;0.020;27.82;82.0;0.020;11.2412;7.344;11.567;7.066;44;0.253;0.036;26.24;79.1;0.037;15.7254;13.395;16.132;13.124
2021-12-30 21:30:20;4.33;65;26.90;22;0.190;0.019;27.82;82.0;0.020;11.5872;7.149;11.922;6.878;44;0.246;0.038;26.24;79.1;0.038;15.2134;13.848;15.607;13.569
2021-12-30 21:35:24;4.33;65;26.80;22;0.190;0.019;27.82;82.0;0.020;11.5872;7.149;11.922;6.878;44;0.253;0.036;26.24;79.1;0.037;15.7254;13.395;16.132;13.124
2021-12-30 21:40:23;4.33;66;26.50;22;0.185;0.020;27.82;82.0;0.020;11.2402;7.343;11.563;7.075;44;0.256;0.036;26.24;79.1;0.037;15.9274;13.302;16.340;13.033
2021-12-30 21:45:23;4.33;66;26.60;22;0.185;0.020;27.82;82.0;0.020;11.2402;7.343;11.563;7.075;44;0.256;0.036;26.24;79.1;0.037;15.9274;13.302;16.340;13.033
2021-12-30 21:50:22;4.33;66;26.60;22;0.187;0.020;27.52;81.5;0.020;11.3642;7.294;11.691;7.028;44;0.256;0.036;26.24;79.1;0.037;15.9274;13.302;16.340;13.033
2021-12-30 21:55:22;4.33;67;26.50;22;0.190;0.019;27.82;82.0;0.020;11.5852;7.148;11.918;6.887;44;0.246;0.038;26.24;79.1;0.038;15.2104;13.847;15.601;13.584
2021-12-30 22:0:21;4.33;67;26.50;22;0.191;0.019;27.82;82.0;0.020;11.6282;7.206;11.960;6.952;44;0.253;0.037;26.24;79.1;0.037;15.7224;13.393;16.126;13.139
2021-12-30 22:5:20;4.33;67;26.30;22;0.190;0.019;27.82;82.0;0.020;11.5852;7.148;11.918;6.887;44;0.253;0.037;26.24;79.1;0.037;15.7224;13.393;16.126;13.139
2021-12-30 22:10:24;4.33;68;26.10;22;0.187;0.020;27.52;81.5;0.020;11.3642;7.294;11.691;7.028;44;0.253;0.037;26.24;79.1;0.037;15.7224;13.393;16.126;13.139
2021-12-30 22:15:23;4.33;70;25.50;22;0.183;0.020;27.52;81.5;0.021;11.1562;7.451;11.474;7.188;44;0.256;0.036;26.24;79.1;0.037;15.9254;13.300;16.334;13.048
2021-12-30 22:20:22;4.33;71;25.20;22;0.187;0.020;27.52;81.5;0.020;11.3632;7.294;11.687;7.036;44;0.246;0.038;26.24;79.1;0.038;15.2104;13.847;15.601;13.584
2021-12-30 22:25:21;4.33;70;25.40;22;0.184;0.020;27.52;81.5;0.020;11.2392;7.342;11.559;7.083;44;0.256;0.036;26.24;79.1;0.037;15.9254;13.300;16.334;13.048
2021-12-30 22:30:20;4.33;71;25.30;22;0.187;0.020;27.52;81.5;0.020;11.3632;7.294;11.687;7.036;44;0.253;0.037;26.24;79.1;0.037;15.7224;13.393;16.126;13.139
2021-12-30 22:35:24;4.33;73;24.90;22;0.191;0.019;27.52;81.5;0.020;11.6272;7.206;11.956;6.961;44;0.253;0.037;26.24;79.1;0.037;15.7224;13.393;16.126;13.139
2021-12-30 22:40:23;4.33;74;24.40;22;0.192;0.019;27.52;81.5;0.020;11.7042;7.098;12.035;6.857;44;0.256;0.036;26.24;79.1;0.037;15.9254;13.300;16.334;13.048
2021-12-30 22:45:22;4.32;76;24.00;22;0.192;0.019;27.52;81.5;0.020;11.7042;7.098;12.035;6.857;44;0.246;0.038;26.24;79.1;0.038;15.2104;13.847;15.601;13.584
2021-12-30 22:50:21;4.32;78;23.80;22;0.187;0.020;27.52;81.5;0.020;11.3632;7.294;11.687;7.036;44;0.246;0.038;26.24;79.1;0.038;15.2104;13.847;15.601;13.584
2021-12-30 22:55:20;4.32;78;23.70;22;0.189;0.019;27.52;81.5;0.020;11.4852;7.244;11.810;6.998;44;0.253;0.037;26.24;79.1;0.037;15.7224;13.393;16.126;13.139
2021-12-30 23:0:23;4.32;79;23.70;22;0.189;0.019;27.52;81.5;0.020;11.4842;7.244;11.806;7.006;44;0.253;0.037;26.24;79.1;0.037;15.7224;13.393;16.126;13.139
2021-12-30 23:5:22;4.32;80;23.00;22;0.186;0.020;27.22;81.0;0.020;11.3622;7.293;11.683;7.045;44;0.246;0.038;26.24;79.1;0.038;15.2104;13.847;15.601;13.584
2021-12-30 23:10:21;4.32;80;23.20;22;0.189;0.019;27.52;81.5;0.020;11.4842;7.244;11.806;7.006;44;0.256;0.036;26.24;79.1;0.037;15.9254;13.300;16.334;13.048
2021-12-30 23:15:20;4.32;80;23.30;22;0.189;0.019;27.52;81.5;0.020;11.4842;7.244;11.806;7.006;44;0.253;0.037;26.24;79.1;0.037;15.7224;13.393;16.126;13.139
2021-12-30 23:20:23;4.32;81;23.20;22;0.186;0.020;27.22;81.0;0.020;11.3612;7.292;11.680;7.053;44;0.253;0.037;26.24;79.1;0.037;15.7224;13.393;16.126;13.139
2021-12-30 23:25:22;4.31;82;23.20;22;0.186;0.020;27.22;81.0;0.020;11.3612;7.292;11.680;7.053;44;0.256;0.036;26.24;79.1;0.037;15.9254;13.300;16.334;13.048
2021-12-30 23:30:21;4.32;82;23.00;22;0.186;0.020;27.22;81.0;0.020;11.3612;7.292;11.680;7.053;44;0.256;0.036;26.24;79.1;0.037;15.9254;13.300;16.334;13.048
2021-12-30 23:35:20;4.31;81;23.10;22;0.188;0.020;27.52;81.5;0.020;11.4832;7.243;11.802;7.015;44;0.253;0.037;26.24;79.1;0.037;15.7224;13.393;16.126;13.139
2021-12-30 23:40:23;4.31;80;23.40;22;0.186;0.020;27.22;81.0;0.020;11.3612;7.292;11.680;7.053;44;0.251;0.037;26.44;79.5;0.038;15.5954;13.586;15.995;13.329
2021-12-30 23:45:22;4.31;82;23.00;22;0.186;0.020;27.22;81.0;0.020;11.3612;7.292;11.680;7.053;44;0.246;0.038;25.94;78.6;0.038;15.2104;13.847;15.601;13.584
2021-12-30 23:50:21;4.31;81;23.10;22;0.188;0.020;27.22;81.0;0.020;11.4832;7.243;11.802;7.015;44;0.253;0.037;26.24;79.1;0.037;15.7224;13.393;16.126;13.139
2021-12-30 23:55:19;4.31;81;23.10;22;0.188;0.020;27.22;81.0;0.020;11.4832;7.243;11.802;7.015;44;0.245;0.038;26.24;79.1;0.038;15.2084;13.845;15.595;13.599
