2020-11-04 00:03:49;1;119;119;119;119;119;119;119;119;119;119;
2020-11-04 00:03:49;2;100;100;100;100;100;100;100;100;100;100;
2020-11-04 00:03:49;3;119;119;119;119;119;119;119;119;119;119;
2020-11-04 00:03:49;4;81;81;80;81;80;80;80;80;80;81;
2020-11-04 00:03:49;5;2;2;2;2;2;2;2;2;2;2;
2020-11-04 00:03:49;ht;68;20.00
2020-11-04 00:03:49;v;4.13
2020-11-04 00:33:50;1;118;118;118;118;118;118;118;118;118;118;
2020-11-04 00:33:50;2;100;101;101;101;100;101;100;100;100;108;
2020-11-04 00:33:50;3;119;119;119;119;119;119;119;119;119;119;
2020-11-04 00:33:50;4;80;80;81;80;80;80;80;80;80;80;
2020-11-04 00:33:50;5;119;119;119;119;119;119;119;119;119;119;
2020-11-04 00:33:50;ht;70;19.90
2020-11-04 00:33:50;v;4.13
2020-11-04 01:03:50;1;119;119;119;119;119;119;119;119;119;119;
2020-11-04 01:03:50;2;100;100;100;100;100;101;101;100;100;100;
2020-11-04 01:03:50;3;119;118;119;119;118;118;119;119;119;118;
2020-11-04 01:03:50;4;80;80;80;80;80;80;80;80;80;80;
2020-11-04 01:03:50;5;124;123;124;124;124;124;123;124;123;124;
2020-11-04 01:03:50;ht;80;18.80
2020-11-04 01:03:50;v;4.13
2020-11-04 01:33:50;1;117;118;118;117;117;117;117;118;118;118;
2020-11-04 01:33:50;2;99;99;99;99;99;99;99;99;99;99;
2020-11-04 01:33:50;3;120;120;120;120;120;120;119;119;120;120;
2020-11-04 01:33:50;4;80;80;80;80;80;80;80;80;80;80;
2020-11-04 01:33:50;5;117;118;118;117;118;118;118;118;118;118;
2020-11-04 01:33:50;ht;76;19.10
2020-11-04 01:33:50;v;4.13
2020-11-04 02:03:50;1;119;119;119;119;119;119;119;119;119;119;
2020-11-04 02:03:50;2;101;101;101;101;101;101;107;102;101;101;
2020-11-04 02:03:50;3;120;120;120;120;120;120;120;120;120;120;
2020-11-04 02:03:50;4;81;80;81;81;81;80;81;80;80;80;
2020-11-04 02:03:50;5;120;120;120;120;120;120;120;120;120;120;
2020-11-04 02:03:50;ht;77;19.10
2020-11-04 02:03:50;v;4.13
2020-11-04 02:33:50;1;119;119;119;119;119;119;119;119;119;118;
2020-11-04 02:33:50;2;100;100;100;100;100;100;100;100;100;101;
2020-11-04 02:33:50;3;120;120;120;119;119;119;119;119;120;119;
2020-11-04 02:33:50;4;81;81;80;80;80;81;80;81;80;81;
2020-11-04 02:33:50;5;121;121;121;121;121;121;121;121;121;121;
2020-11-04 02:33:50;ht;76;18.90
2020-11-04 02:33:50;v;4.13
2020-11-04 03:03:50;1;118;118;118;118;118;118;118;117;118;118;
2020-11-04 03:03:50;2;100;100;100;100;100;100;100;101;101;100;
2020-11-04 03:03:50;3;120;120;120;120;120;120;120;120;120;120;
2020-11-04 03:03:50;4;79;79;79;79;79;79;79;79;79;79;
2020-11-04 03:03:50;5;119;119;119;119;119;119;119;119;119;120;
2020-11-04 03:03:50;ht;79;18.50
2020-11-04 03:03:50;v;4.13
2020-11-04 03:33:49;1;132;132;132;132;132;132;132;132;132;132;
2020-11-04 03:33:49;2;100;100;100;100;100;100;100;100;100;100;
2020-11-04 03:33:49;3;120;120;120;120;120;120;120;120;120;120;
2020-11-04 03:33:49;4;80;80;80;79;80;80;80;80;80;80;
2020-11-04 03:33:49;5;122;122;122;122;122;122;122;122;122;122;
2020-11-04 03:33:49;ht;81;18.00
2020-11-04 03:33:49;v;4.13
2020-11-04 04:03:48;1;119;119;119;119;119;118;119;119;119;119;
2020-11-04 04:03:48;2;100;100;100;100;101;100;100;100;100;100;
2020-11-04 04:03:48;3;120;120;120;120;120;120;120;120;120;120;
2020-11-04 04:03:48;4;80;80;80;80;80;79;79;80;79;79;
2020-11-04 04:03:48;5;122;122;122;122;122;122;122;122;122;122;
2020-11-04 04:03:48;ht;81;17.80
2020-11-04 04:03:48;v;4.13
2020-11-04 04:33:47;1;121;121;121;121;121;121;120;121;121;121;
2020-11-04 04:33:47;2;100;100;100;100;100;100;100;100;100;100;
2020-11-04 04:33:47;3;120;120;120;120;119;120;119;120;120;120;
2020-11-04 04:33:47;4;79;80;79;79;79;79;79;79;79;79;
2020-11-04 04:33:47;5;122;122;122;122;122;122;122;122;122;122;
2020-11-04 04:33:47;ht;82;17.60
2020-11-04 04:33:47;v;4.13
2020-11-04 05:03:46;1;131;131;131;131;131;131;131;131;131;131;
2020-11-04 05:03:46;2;100;100;100;100;100;100;100;100;100;101;
2020-11-04 05:03:46;3;120;120;120;120;120;120;120;120;120;120;
2020-11-04 05:03:46;4;80;80;80;80;80;80;80;80;80;80;
2020-11-04 05:03:46;5;123;123;123;123;123;123;123;123;123;123;
2020-11-04 05:03:46;ht;85;17.30
2020-11-04 05:03:46;v;4.13
2020-11-04 05:33:49;1;120;120;120;120;120;120;120;120;120;120;
2020-11-04 05:33:49;2;101;101;101;101;101;101;107;102;101;101;
2020-11-04 05:33:49;3;120;120;120;120;120;120;120;120;120;120;
2020-11-04 05:33:49;4;79;79;79;79;78;78;79;78;78;79;
2020-11-04 05:33:49;5;122;122;122;122;122;122;122;122;122;122;
2020-11-04 05:33:49;ht;86;17.00
2020-11-04 05:33:49;v;4.13
2020-11-04 06:03:48;1;118;118;118;118;118;118;118;118;117;118;
2020-11-04 06:03:48;2;100;101;100;100;100;100;100;100;100;100;
2020-11-04 06:03:48;3;120;120;120;119;120;120;120;120;120;120;
2020-11-04 06:03:48;4;80;80;80;80;81;81;81;80;80;80;
2020-11-04 06:03:48;5;121;121;121;121;121;121;121;121;121;121;
2020-11-04 06:03:48;ht;88;16.60
2020-11-04 06:03:48;v;4.13
2020-11-04 06:33:46;1;122;123;123;123;123;123;123;123;123;123;
2020-11-04 06:33:46;2;100;100;101;100;100;100;100;100;100;100;
2020-11-04 06:33:46;3;120;120;120;120;120;120;120;120;120;120;
2020-11-04 06:33:46;4;80;80;80;80;80;80;80;80;80;80;
2020-11-04 06:33:46;5;119;119;119;119;119;119;119;119;119;119;
2020-11-04 06:33:46;ht;90;16.40
2020-11-04 06:33:46;v;4.13
2020-11-04 07:03:48;1;118;118;118;118;118;117;118;118;118;118;
2020-11-04 07:03:48;2;100;100;100;100;101;100;100;100;100;100;
2020-11-04 07:03:48;3;120;120;120;120;120;120;120;120;120;120;
2020-11-04 07:03:48;4;80;80;80;80;80;80;80;80;80;80;
2020-11-04 07:03:48;5;123;123;122;123;122;123;122;123;123;123;
2020-11-04 07:03:48;ht;90;17.00
2020-11-04 07:03:48;v;4.13
2020-11-04 07:33:47;1;118;118;118;118;118;117;117;118;118;118;
2020-11-04 07:33:47;2;100;100;100;101;101;101;101;101;101;101;
2020-11-04 07:33:47;3;120;120;120;120;120;120;120;120;120;120;
2020-11-04 07:33:47;4;80;80;79;80;79;80;80;79;79;80;
2020-11-04 07:33:47;5;123;123;123;123;123;123;123;123;123;123;
2020-11-04 07:33:47;ht;85;18.10
2020-11-04 07:33:47;v;4.13
2020-11-04 08:03:50;1;121;121;121;121;121;121;121;121;121;121;
2020-11-04 08:03:50;2;100;100;101;100;101;101;100;100;100;100;
2020-11-04 08:03:50;3;120;119;120;120;119;119;119;119;120;119;
2020-11-04 08:03:50;4;81;81;81;81;81;81;81;81;81;81;
2020-11-04 08:03:50;5;120;120;120;120;120;120;120;120;120;120;
2020-11-04 08:03:50;ht;81;18.70
2020-11-04 08:03:50;v;4.13
2020-11-04 08:33:50;1;119;119;119;119;119;119;119;119;119;119;
2020-11-04 08:33:50;2;100;100;101;101;100;100;101;101;100;100;
2020-11-04 08:33:50;3;119;119;119;119;119;119;119;119;118;119;
2020-11-04 08:33:50;4;124;124;124;124;124;124;124;124;124;124;
2020-11-04 08:33:50;5;119;119;119;119;119;119;119;119;119;119;
2020-11-04 08:33:50;ht;76;19.80
2020-11-04 08:33:50;v;4.13
2020-11-04 09:03:50;1;118;118;118;118;118;118;118;118;118;118;
2020-11-04 09:03:50;2;100;100;100;101;101;100;101;100;101;100;
2020-11-04 09:03:50;3;119;119;119;119;119;119;118;119;119;119;
2020-11-04 09:03:50;4;80;80;80;80;80;80;80;80;80;80;
2020-11-04 09:03:50;5;119;119;119;119;119;119;119;119;119;119;
2020-11-04 09:03:50;ht;67;21.70
2020-11-04 09:03:50;v;4.13
2020-11-04 09:33:52;1;118;118;118;118;118;118;118;118;118;118;
2020-11-04 09:33:52;2;99;99;99;99;99;99;99;99;99;99;
2020-11-04 09:33:52;3;120;120;120;120;120;120;120;120;120;120;
2020-11-04 09:33:52;4;80;80;80;80;80;80;80;80;80;80;
2020-11-04 09:33:52;5;120;120;120;120;120;120;120;120;120;120;
2020-11-04 09:33:52;ht;57;24.00
2020-11-04 09:33:52;v;4.13
2020-11-04 10:03:52;1;118;118;118;118;118;117;118;118;118;118;
2020-11-04 10:03:52;2;99;99;99;99;99;100;99;100;100;100;
2020-11-04 10:03:52;3;119;119;118;119;119;119;119;119;119;119;
2020-11-04 10:03:52;4;79;79;79;79;79;79;79;79;79;79;
2020-11-04 10:03:52;5;130;129;129;129;129;129;129;129;129;130;
2020-11-04 10:03:52;ht;48;25.90
2020-11-04 10:03:52;v;4.13
2020-11-04 10:33:54;1;118;118;118;118;118;118;118;118;118;118;
2020-11-04 10:33:54;2;99;99;99;99;99;99;99;99;99;99;
2020-11-04 10:33:54;3;120;120;120;120;120;120;120;120;119;120;
2020-11-04 10:33:54;4;79;79;79;79;79;79;79;79;79;79;
2020-11-04 10:33:54;5;1;1;1;1;1;1;1;1;1;1;
2020-11-04 10:33:54;ht;46;26.50
2020-11-04 10:33:54;v;4.13
2020-11-04 11:03:58;1;117;117;117;117;117;117;117;117;117;117;
2020-11-04 11:03:58;2;99;99;100;99;99;100;100;100;100;100;
2020-11-04 11:03:58;3;121;121;121;121;121;121;121;121;121;121;
2020-11-04 11:03:58;4;80;80;79;79;79;79;79;80;79;79;
2020-11-04 11:03:58;5;119;119;119;119;119;119;119;119;119;119;
2020-11-04 11:03:58;ht;43;27.80
2020-11-04 11:03:58;v;4.14
2020-11-04 11:33:58;1;118;118;118;118;118;117;118;117;118;118;
2020-11-04 11:33:58;2;99;99;99;99;99;99;104;102;100;99;
2020-11-04 11:33:58;3;119;119;120;119;119;120;119;119;119;119;
2020-11-04 11:33:58;4;79;79;79;79;79;79;79;79;79;79;
2020-11-04 11:33:58;5;2;2;2;2;2;2;2;2;1;2;
2020-11-04 11:33:58;ht;41;29.70
2020-11-04 11:33:58;v;4.14
2020-11-04 12:03:58;1;117;117;117;117;117;117;117;117;117;117;
2020-11-04 12:03:58;2;99;99;99;100;104;102;100;100;100;99;
2020-11-04 12:03:58;3;118;119;118;119;118;118;119;119;119;119;
2020-11-04 12:03:58;4;79;79;79;79;79;79;79;79;79;79;
2020-11-04 12:03:58;5;119;119;119;119;119;119;119;119;119;119;
2020-11-04 12:03:58;ht;37;31.30
2020-11-04 12:03:58;v;4.14
2020-11-04 12:33:59;1;119;119;119;119;119;119;119;119;119;119;
2020-11-04 12:33:59;2;102;100;100;100;100;100;100;100;100;100;
2020-11-04 12:33:59;3;118;118;118;118;118;118;118;118;118;118;
2020-11-04 12:33:59;4;79;79;79;79;79;79;78;79;79;78;
2020-11-04 12:33:59;5;114;114;114;114;114;114;114;114;114;114;
2020-11-04 12:33:59;ht;30;33.60
2020-11-04 12:33:59;v;4.14
2020-11-04 13:04:02;1;119;119;119;119;119;119;119;119;119;118;
2020-11-04 13:04:02;2;99;104;101;100;100;99;99;99;99;99;
2020-11-04 13:04:02;3;118;118;118;118;118;118;118;118;118;118;
2020-11-04 13:04:02;4;79;78;78;78;79;79;78;78;79;79;
2020-11-04 13:04:02;5;118;118;118;118;118;118;118;118;118;118;
2020-11-04 13:04:02;ht;30;34.60
2020-11-04 13:04:02;v;4.14
2020-11-04 13:34:01;1;119;119;119;119;119;119;119;118;119;119;
2020-11-04 13:34:01;2;99;99;99;99;99;104;102;100;100;99;
2020-11-04 13:34:01;3;119;119;119;119;119;119;119;119;119;119;
2020-11-04 13:34:01;4;78;78;78;78;78;78;78;78;78;78;
2020-11-04 13:34:01;5;117;117;117;117;117;117;116;116;117;117;
2020-11-04 13:34:01;ht;30;33.50
2020-11-04 13:34:01;v;4.15
2020-11-04 14:04:01;1;118;117;118;117;118;118;118;118;117;117;
2020-11-04 14:04:01;2;98;98;98;98;98;98;98;99;106;99;
2020-11-04 14:04:01;3;118;118;117;118;118;118;118;118;118;117;
2020-11-04 14:04:01;4;79;79;79;79;79;79;79;79;79;79;
2020-11-04 14:04:01;5;125;125;125;125;125;125;125;125;125;125;
2020-11-04 14:04:01;ht;28;34.90
2020-11-04 14:04:01;v;4.15
2020-11-04 14:34:01;1;120;120;120;120;120;120;120;120;120;120;
2020-11-04 14:34:01;2;98;98;99;98;98;98;98;103;101;99;
2020-11-04 14:34:01;3;119;119;119;119;119;119;119;119;119;119;
2020-11-04 14:34:01;4;75;75;75;75;75;75;75;75;75;75;
2020-11-04 14:34:01;5;117;117;117;117;117;117;117;117;117;117;
2020-11-04 14:34:01;ht;28;34.90
2020-11-04 14:34:01;v;4.15
2020-11-04 15:04:01;1;126;126;126;126;126;126;126;125;126;126;
2020-11-04 15:04:01;2;99;99;99;99;107;100;100;100;100;100;
2020-11-04 15:04:01;3;118;118;118;118;118;118;118;118;118;117;
2020-11-04 15:04:01;4;80;80;80;80;80;80;80;80;80;80;
2020-11-04 15:04:01;5;116;117;117;117;117;117;117;117;117;117;
2020-11-04 15:04:01;ht;27;34.20
2020-11-04 15:04:01;v;4.15
2020-11-04 15:34:01;1;119;119;119;119;118;119;119;119;119;119;
2020-11-04 15:34:01;2;98;98;98;98;98;98;98;98;98;98;
2020-11-04 15:34:01;3;118;118;118;118;118;118;118;118;118;117;
2020-11-04 15:34:01;4;79;79;79;79;79;79;79;79;79;79;
2020-11-04 15:34:01;5;118;118;118;118;118;118;118;118;118;118;
2020-11-04 15:34:01;ht;28;34.70
2020-11-04 15:34:01;v;4.15
#2020-11-04 16:53:27;1;117;118;117;118;118;117;117;118;118;118;
2020-11-04 16:53:27;2;100;101;101;100;101;101;101;100;100;100;
2020-11-04 16:53:27;3;119;119;119;119;119;119;119;119;119;119;
2020-11-04 16:53:27;4;79;79;79;78;79;79;78;79;79;78;
2020-11-04 16:53:27;5;118;118;118;118;118;118;118;118;118;118;
2020-11-04 16:53:27;ht;30;29.10
2020-11-04 16:53:27;v;4.15
2020-11-04 17:01:00;1;118;117;118;118;118;118;118;118;118;118;
2020-11-04 17:01:00;2;98;98;98;98;98;98;98;98;98;98;
2020-11-04 17:01:00;3;2;2;1;1;1;1;1;1;1;1;
2020-11-04 17:01:00;4;79;79;80;80;79;80;79;80;80;80;
2020-11-04 17:01:00;5;118;118;118;118;118;118;118;118;118;118;
2020-11-04 17:01:00;ht;31;28.10
2020-11-04 17:01:00;v;4.15
2020-11-04 17:34:21;1;118;118;118;118;118;118;118;118;125;120;
2020-11-04 17:34:21;2;98;98;105;99;99;98;98;98;98;98;
2020-11-04 17:34:21;3;1;1;2;1;1;1;1;1;1;1;
2020-11-04 17:34:21;4;79;79;79;79;79;79;79;79;79;79;
2020-11-04 17:34:21;5;117;117;116;117;117;117;117;117;117;117;
2020-11-04 17:34:21;ht;33;27.10
2020-11-04 17:34:21;v;4.15
2020-11-04 18:03:51;1;119;119;119;124;123;120;119;119;119;119;
2020-11-04 18:03:51;2;99;99;99;99;99;99;99;99;99;99;
2020-11-04 18:03:51;3;207;207;207;207;207;207;207;207;207;207;
2020-11-04 18:03:51;4;78;78;78;78;78;78;78;78;78;78;
2020-11-04 18:03:51;5;118;118;118;118;118;118;118;118;118;118;
2020-11-04 18:03:51;ht;33;26.60
2020-11-04 18:03:51;v;4.15
2020-11-04 18:33:53;1;119;118;119;119;119;119;119;119;119;119;
2020-11-04 18:33:53;2;98;98;98;98;99;99;99;98;98;107;
2020-11-04 18:33:53;3;1;1;1;1;1;1;1;1;1;1;
2020-11-04 18:33:53;4;79;80;80;80;80;80;80;80;80;79;
2020-11-04 18:33:53;5;118;118;118;118;118;118;118;118;118;118;
2020-11-04 18:33:53;ht;37;25.70
2020-11-04 18:33:53;v;4.15
2020-11-04 19:03:54;1;119;119;119;119;119;119;119;119;119;119;
2020-11-04 19:03:54;2;99;98;99;99;98;105;100;99;98;98;
2020-11-04 19:03:54;3;1;1;2;1;1;1;1;1;1;1;
2020-11-04 19:03:54;4;79;79;79;79;79;79;79;79;79;79;
2020-11-04 19:03:54;5;116;116;117;116;116;117;116;116;117;117;
2020-11-04 19:03:54;ht;40;24.90
2020-11-04 19:03:54;v;4.15
2020-11-04 19:33:54;1;120;120;120;120;120;120;120;119;119;120;
2020-11-04 19:33:54;2;99;98;105;100;99;99;98;98;98;98;
2020-11-04 19:33:54;3;1;1;1;1;1;1;1;1;1;1;
2020-11-04 19:33:54;4;79;79;79;79;79;79;79;79;79;79;
2020-11-04 19:33:54;5;119;119;119;119;119;118;118;118;119;119;
2020-11-04 19:33:54;ht;43;23.70
2020-11-04 19:33:54;v;4.15
2020-11-04 20:03:53;1;119;119;119;119;119;119;119;119;118;125;
2020-11-04 20:03:53;2;99;99;98;98;98;98;98;99;98;105;
2020-11-04 20:03:53;3;120;120;120;120;119;119;120;120;120;120;
2020-11-04 20:03:53;4;79;79;79;79;79;80;79;79;80;79;
2020-11-04 20:03:53;5;118;118;118;118;118;118;118;118;118;118;
2020-11-04 20:03:53;ht;42;23.10
2020-11-04 20:03:53;v;4.15
2020-11-04 20:33:51;1;121;121;121;121;121;121;121;121;121;121;
2020-11-04 20:33:51;2;99;99;99;100;99;99;99;99;99;99;
2020-11-04 20:33:51;3;2;1;1;1;1;1;1;1;1;1;
2020-11-04 20:33:51;4;79;79;79;79;79;79;79;79;79;79;
2020-11-04 20:33:51;5;120;120;120;120;120;120;120;120;120;120;
2020-11-04 20:33:51;ht;42;22.10
2020-11-04 20:33:51;v;4.15
2020-11-04 21:06:34;1;94;94;94;94;94;94;94;94;94;94;
2020-11-04 21:06:34;2;120;120;120;119;120;120;120;120;120;120;
2020-11-04 21:06:34;3;97;97;98;97;97;97;97;98;98;97;
2020-11-04 21:06:34;4;119;118;119;119;119;119;119;118;119;119;
2020-11-04 21:06:34;5;80;80;80;80;80;80;80;80;80;80;
2020-11-04 21:06:34;ht;43;21.70
2020-11-04 21:06:34;v;4.14
2020-11-04 21:33:28;1;96;96;96;96;96;96;96;96;96;96;
2020-11-04 21:33:28;2;120;127;121;120;120;120;120;120;120;120;
2020-11-04 21:33:28;3;98;98;98;98;98;98;98;98;97;98;
2020-11-04 21:33:28;4;119;119;119;119;119;119;119;119;119;119;
2020-11-04 21:33:28;5;80;80;80;80;80;80;80;80;80;80;
2020-11-04 21:33:28;ht;45;21.50
2020-11-04 21:33:28;v;4.14
#2020-11-04 21:39:58;1;101;101;101;101;101;101;101;101;101;101;
2020-11-04 21:39:58;2;120;120;120;120;120;120;121;120;120;120;
2020-11-04 21:39:58;3;98;98;98;98;98;98;98;98;98;98;
2020-11-04 21:39:58;4;45;44;44;44;45;44;45;44;44;44;
2020-11-04 21:39:58;5;80;80;80;80;80;80;80;80;80;80;
2020-11-04 21:39:58;ht;45;21.10
2020-11-04 21:39:58;v;4.14
2020-11-04 22:03:02;1;104;104;104;104;104;104;104;104;104;104;
2020-11-04 22:03:02;2;119;119;119;119;119;119;120;120;120;119;
2020-11-04 22:03:02;3;98;98;98;98;98;98;99;98;99;98;
2020-11-04 22:03:02;4;54;54;54;54;54;54;54;54;54;54;
2020-11-04 22:03:02;5;80;80;80;80;81;81;81;80;80;80;
2020-11-04 22:03:02;ht;43;20.80
2020-11-04 22:03:02;v;4.14
2020-11-04 22:33:58;1;97;97;97;97;98;98;97;97;97;97;
2020-11-04 22:33:58;2;120;120;120;119;127;121;120;120;120;120;
2020-11-04 22:33:58;3;98;98;98;98;98;98;98;98;98;98;
2020-11-04 22:33:58;4;49;49;49;49;49;49;49;49;49;49;
2020-11-04 22:33:58;5;81;81;82;81;82;81;81;82;81;82;
2020-11-04 22:33:58;ht;45;20.30
2020-11-04 22:33:58;v;4.14
2020-11-04 23:03:50;1;98;98;98;97;98;98;98;98;98;98;
2020-11-04 23:03:50;2;120;127;121;120;120;120;120;120;120;120;
2020-11-04 23:03:50;3;97;97;97;97;97;97;97;97;97;97;
2020-11-04 23:03:50;4;1;1;1;1;1;1;1;1;1;1;
2020-11-04 23:03:50;5;81;81;81;81;81;81;81;81;81;81;
2020-11-04 23:03:50;ht;46;20.30
2020-11-04 23:03:50;v;4.14
2020-11-04 23:33:51;1;98;98;98;98;98;98;102;101;99;98;
2020-11-04 23:33:51;2;127;119;119;119;119;119;119;119;118;119;
2020-11-04 23:33:51;3;97;97;97;97;97;97;98;97;97;97;
2020-11-04 23:33:51;4;59;59;59;59;59;59;59;59;59;59;
2020-11-04 23:33:51;5;81;81;81;81;81;81;81;81;81;81;
2020-11-04 23:33:51;ht;47;19.90
2020-11-04 23:33:51;v;4.13
