2020-11-06 00:03:48;1;103;103;103;103;103;103;103;103;103;103;
2020-11-06 00:03:48;2;2;2;2;2;2;2;2;2;2;2;
2020-11-06 00:03:48;3;120;120;120;120;120;120;120;120;120;120;
2020-11-06 00:03:48;4;58;59;58;59;59;59;59;59;59;59;
2020-11-06 00:03:48;5;121;121;121;121;121;121;121;121;121;121;
2020-11-06 00:03:48;ht;60;19.20
2020-11-06 00:03:48;v;4.14
2020-11-06 00:33:48;1;103;103;103;103;103;103;103;103;103;102;
2020-11-06 00:33:48;2;131;131;131;131;131;131;131;131;131;131;
2020-11-06 00:33:48;3;119;120;119;120;120;120;120;120;120;120;
2020-11-06 00:33:48;4;55;55;55;56;55;55;55;55;55;56;
2020-11-06 00:33:48;5;122;122;122;122;122;122;122;122;122;122;
2020-11-06 00:33:48;ht;63;19.30
2020-11-06 00:33:48;v;4.14
2020-11-06 01:03:49;1;100;100;100;100;100;100;100;100;100;100;
2020-11-06 01:03:49;2;131;131;131;131;131;131;131;131;131;131;
2020-11-06 01:03:49;3;120;120;119;120;120;120;120;120;120;120;
2020-11-06 01:03:49;4;54;54;54;54;54;54;54;54;54;54;
2020-11-06 01:03:49;5;122;122;122;122;122;122;122;122;122;122;
2020-11-06 01:03:49;ht;59;19.40
2020-11-06 01:03:49;v;4.14
2020-11-06 01:33:49;1;100;100;99;99;99;99;99;100;99;99;
2020-11-06 01:33:49;2;1;1;1;1;1;1;1;1;2;1;
2020-11-06 01:33:49;3;120;120;120;120;120;120;120;120;120;120;
2020-11-06 01:33:49;4;55;55;55;55;55;55;54;55;55;55;
2020-11-06 01:33:49;5;123;123;123;123;123;123;123;123;123;123;
2020-11-06 01:33:49;ht;64;19.20
2020-11-06 01:33:49;v;4.14
2020-11-06 02:03:50;1;101;101;101;101;101;101;101;101;101;101;
2020-11-06 02:03:50;2;131;131;131;131;132;132;132;132;132;132;
2020-11-06 02:03:50;3;120;120;120;120;120;120;120;120;120;120;
2020-11-06 02:03:50;4;56;56;56;56;56;56;56;56;56;56;
2020-11-06 02:03:50;5;123;123;123;123;123;123;123;123;123;123;
2020-11-06 02:03:50;ht;58;19.40
2020-11-06 02:03:50;v;4.14
2020-11-06 02:33:50;1;104;104;104;104;104;104;104;104;104;104;
2020-11-06 02:33:50;2;131;131;131;131;131;131;131;131;131;131;
2020-11-06 02:33:50;3;120;120;120;120;120;120;120;120;120;120;
2020-11-06 02:33:50;4;58;58;58;58;58;58;58;58;58;58;
2020-11-06 02:33:50;5;122;122;122;122;122;122;122;122;122;122;
2020-11-06 02:33:50;ht;61;19.30
2020-11-06 02:33:50;v;4.14
2020-11-06 03:03:51;1;103;102;103;103;103;103;103;103;102;103;
2020-11-06 03:03:51;2;123;123;123;123;123;123;123;123;123;123;
2020-11-06 03:03:51;3;119;119;119;119;119;119;119;119;119;119;
2020-11-06 03:03:51;4;54;54;54;54;54;54;54;54;54;54;
2020-11-06 03:03:51;5;124;124;124;124;124;124;123;124;124;124;
2020-11-06 03:03:51;ht;64;18.80
2020-11-06 03:03:51;v;4.14
2020-11-06 03:33:51;1;102;102;102;102;102;102;102;102;102;102;
2020-11-06 03:33:51;2;123;123;123;123;123;123;123;123;123;123;
2020-11-06 03:33:51;3;119;119;119;119;119;119;119;119;119;119;
2020-11-06 03:33:51;4;55;55;55;55;55;55;55;55;55;55;
2020-11-06 03:33:51;5;122;121;122;121;122;122;121;121;121;121;
2020-11-06 03:33:51;ht;67;18.30
2020-11-06 03:33:51;v;4.14
2020-11-06 04:03:50;1;103;103;103;102;103;102;103;103;103;103;
2020-11-06 04:03:50;2;122;122;121;122;121;122;122;121;122;122;
2020-11-06 04:03:50;3;119;119;119;119;119;119;119;119;119;119;
2020-11-06 04:03:50;4;58;58;58;58;59;58;58;58;59;58;
2020-11-06 04:03:50;5;123;123;123;123;123;123;123;123;123;123;
2020-11-06 04:03:50;ht;69;18.30
2020-11-06 04:03:50;v;4.14
2020-11-06 04:33:50;1;99;98;98;99;98;98;99;99;99;98;
2020-11-06 04:33:50;2;122;122;122;122;122;122;122;122;122;122;
2020-11-06 04:33:50;3;119;119;119;119;119;119;119;119;119;119;
2020-11-06 04:33:50;4;55;55;55;55;55;55;55;55;55;55;
2020-11-06 04:33:50;5;123;123;123;123;123;122;123;123;123;123;
2020-11-06 04:33:50;ht;71;18.20
2020-11-06 04:33:50;v;4.14
2020-11-06 05:03:49;1;104;103;103;103;104;103;103;103;103;104;
2020-11-06 05:03:49;2;121;121;121;121;121;120;121;121;121;121;
2020-11-06 05:03:49;3;119;119;119;119;119;119;119;119;119;119;
2020-11-06 05:03:49;4;52;52;52;52;52;52;52;52;52;52;
2020-11-06 05:03:49;5;123;123;123;123;123;123;123;123;123;123;
2020-11-06 05:03:49;ht;77;17.90
2020-11-06 05:03:49;v;4.14
2020-11-06 05:33:48;1;99;99;99;99;99;99;99;99;99;99;
2020-11-06 05:33:48;2;120;120;120;120;120;120;120;120;120;120;
2020-11-06 05:33:48;3;119;119;119;119;119;119;119;119;119;119;
2020-11-06 05:33:48;4;51;51;51;51;51;51;51;51;51;51;
2020-11-06 05:33:48;5;124;124;124;124;124;124;124;124;124;124;
2020-11-06 05:33:48;ht;81;17.60
2020-11-06 05:33:48;v;4.14
2020-11-06 06:03:47;1;100;100;100;100;100;100;100;100;100;100;
2020-11-06 06:03:47;2;120;121;121;121;121;121;121;121;121;121;
2020-11-06 06:03:47;3;119;119;119;118;119;119;119;119;118;119;
2020-11-06 06:03:47;4;52;52;52;52;52;52;52;52;52;52;
2020-11-06 06:03:47;5;123;123;123;123;123;123;123;123;123;123;
2020-11-06 06:03:47;ht;87;16.90
2020-11-06 06:03:47;v;4.14
2020-11-06 06:33:46;1;102;102;102;102;102;102;102;102;102;102;
2020-11-06 06:33:46;2;122;121;122;122;122;122;122;122;122;122;
2020-11-06 06:33:46;3;119;119;119;119;119;119;119;119;119;119;
2020-11-06 06:33:46;4;52;52;52;52;52;52;52;52;52;52;
2020-11-06 06:33:46;5;124;124;124;124;124;124;123;124;124;124;
2020-11-06 06:33:46;ht;90;16.90
2020-11-06 06:33:46;v;4.14
2020-11-06 07:03:49;1;99;99;99;99;99;99;99;99;100;99;
2020-11-06 07:03:49;2;121;121;121;121;121;121;121;121;121;121;
2020-11-06 07:03:49;3;119;118;119;119;119;119;119;119;119;119;
2020-11-06 07:03:49;4;50;50;50;50;50;50;50;50;50;50;
2020-11-06 07:03:49;5;123;123;123;123;123;123;123;123;123;123;
2020-11-06 07:03:49;ht;87;17.70
2020-11-06 07:03:49;v;4.13
2020-11-06 07:33:49;1;105;105;105;105;105;104;105;104;105;105;
2020-11-06 07:33:49;2;121;121;121;121;120;121;121;121;121;121;
2020-11-06 07:33:49;3;119;119;119;119;119;119;119;119;119;119;
2020-11-06 07:33:49;4;49;49;49;49;49;49;49;49;49;49;
2020-11-06 07:33:49;5;124;124;124;124;124;124;124;124;124;124;
2020-11-06 07:33:49;ht;85;19.00
2020-11-06 07:33:49;v;4.14
2020-11-06 08:03:48;1;105;104;104;105;105;105;105;105;105;105;
2020-11-06 08:03:48;2;120;119;120;120;120;120;120;120;120;120;
2020-11-06 08:03:48;3;118;118;118;118;118;118;118;118;118;118;
2020-11-06 08:03:48;4;56;56;56;56;56;56;56;56;56;56;
2020-11-06 08:03:48;5;121;121;121;121;121;121;121;121;121;121;
2020-11-06 08:03:48;ht;77;20.70
2020-11-06 08:03:48;v;4.14
2020-11-06 08:33:49;1;2;1;1;1;1;1;1;2;1;1;
2020-11-06 08:33:49;2;121;121;121;121;121;121;121;121;121;121;
2020-11-06 08:33:49;3;118;118;118;118;118;118;118;118;118;118;
2020-11-06 08:33:49;4;53;53;53;53;53;53;53;53;52;53;
2020-11-06 08:33:49;5;118;118;118;118;118;118;118;118;118;118;
2020-11-06 08:33:49;ht;72;22.00
2020-11-06 08:33:49;v;4.14
2020-11-06 09:03:51;1;96;96;96;96;96;96;96;97;96;97;
2020-11-06 09:03:51;2;117;118;118;118;118;118;118;118;118;118;
2020-11-06 09:03:51;3;118;118;118;118;118;118;118;118;118;118;
2020-11-06 09:03:51;4;53;53;53;53;53;53;53;53;53;54;
2020-11-06 09:03:51;5;123;123;123;123;123;123;123;123;123;123;
2020-11-06 09:03:51;ht;65;23.60
2020-11-06 09:03:51;v;4.14
2020-11-06 09:33:55;1;99;99;99;99;100;100;99;99;100;99;
2020-11-06 09:33:55;2;120;120;120;120;120;120;120;120;120;120;
2020-11-06 09:33:55;3;118;118;118;118;118;118;118;118;118;118;
2020-11-06 09:33:55;4;61;61;61;61;61;61;61;61;61;61;
2020-11-06 09:33:55;5;118;118;118;118;118;118;118;118;118;118;
2020-11-06 09:33:55;ht;54;26.40
2020-11-06 09:33:55;v;4.14
2020-11-06 10:03:57;1;104;104;104;104;103;103;104;103;104;104;
2020-11-06 10:03:57;2;124;124;123;123;123;124;123;124;123;123;
2020-11-06 10:03:57;3;118;118;118;118;118;118;118;118;118;118;
2020-11-06 10:03:57;4;58;58;58;58;58;58;58;58;58;58;
2020-11-06 10:03:57;5;117;117;117;117;117;117;117;117;117;117;
2020-11-06 10:03:57;ht;49;28.50
2020-11-06 10:03:57;v;4.14
2020-11-06 10:33:56;1;102;102;102;102;102;102;102;102;102;102;
2020-11-06 10:33:56;2;119;119;119;119;119;119;119;119;119;119;
2020-11-06 10:33:56;3;118;118;118;118;118;118;118;118;118;118;
2020-11-06 10:33:56;4;59;59;59;59;59;59;59;59;59;59;
2020-11-06 10:33:56;5;117;117;117;117;117;117;117;117;117;117;
2020-11-06 10:33:56;ht;46;28.80
2020-11-06 10:33:56;v;4.15
2020-11-06 11:03:57;1;99;99;99;100;100;99;99;99;99;99;
2020-11-06 11:03:57;2;118;119;119;119;119;119;119;119;119;119;
2020-11-06 11:03:57;3;118;118;118;118;118;118;118;118;118;118;
2020-11-06 11:03:57;4;60;61;61;61;61;61;61;61;60;60;
2020-11-06 11:03:57;5;116;116;116;116;116;117;116;116;117;116;
2020-11-06 11:03:57;ht;43;30.30
2020-11-06 11:03:57;v;4.15
2020-11-06 11:33:59;1;101;100;100;100;100;101;100;100;100;100;
2020-11-06 11:33:59;2;125;125;125;125;125;125;125;125;125;125;
2020-11-06 11:33:59;3;118;118;118;118;118;118;118;118;118;118;
2020-11-06 11:33:59;4;58;58;58;58;58;58;58;58;58;58;
2020-11-06 11:33:59;5;119;119;119;119;119;119;119;119;119;119;
2020-11-06 11:33:59;ht;40;29.70
2020-11-06 11:33:59;v;4.15
2020-11-06 12:04:01;1;99;99;99;99;99;99;99;99;99;99;
2020-11-06 12:04:01;2;122;122;123;122;122;122;122;122;122;122;
2020-11-06 12:04:01;3;117;117;117;117;117;117;117;117;117;117;
2020-11-06 12:04:01;4;60;60;60;60;60;60;60;60;60;60;
2020-11-06 12:04:01;5;120;120;120;120;120;120;120;119;120;120;
2020-11-06 12:04:01;ht;41;30.00
2020-11-06 12:04:01;v;4.15
2020-11-06 12:33:59;1;102;102;102;102;102;102;102;102;102;102;
2020-11-06 12:33:59;2;128;128;128;128;128;128;128;128;128;128;
2020-11-06 12:33:59;3;117;117;117;117;117;117;117;117;117;117;
2020-11-06 12:33:59;4;59;59;59;59;59;59;59;59;60;60;
2020-11-06 12:33:59;5;119;119;119;119;119;119;119;119;119;119;
2020-11-06 12:33:59;ht;35;33.50
2020-11-06 12:33:59;v;4.15
2020-11-06 13:04:02;1;99;99;99;99;99;99;99;99;99;99;
2020-11-06 13:04:02;2;125;125;125;125;125;125;125;125;125;125;
2020-11-06 13:04:02;3;119;119;119;119;119;119;119;119;119;119;
2020-11-06 13:04:02;4;60;60;60;60;60;60;61;60;61;61;
2020-11-06 13:04:02;5;2;2;2;2;2;2;2;2;2;2;
2020-11-06 13:04:02;ht;26;38.40
2020-11-06 13:04:02;v;4.15
2020-11-06 13:34:04;1;99;99;99;99;99;99;100;99;99;99;
2020-11-06 13:34:04;2;117;117;117;117;117;117;117;117;117;117;
2020-11-06 13:34:04;3;121;120;121;121;120;121;121;121;121;121;
2020-11-06 13:34:04;4;60;60;60;60;60;60;60;60;60;60;
2020-11-06 13:34:04;5;117;118;117;118;118;118;118;117;118;118;
2020-11-06 13:34:04;ht;25;38.50
2020-11-06 13:34:04;v;4.15
2020-11-06 14:04:01;1;99;100;100;100;100;100;99;100;100;100;
2020-11-06 14:04:01;2;118;118;118;118;118;118;118;118;118;118;
2020-11-06 14:04:01;3;115;115;115;115;115;115;115;115;115;115;
2020-11-06 14:04:01;4;60;61;61;60;61;60;60;61;60;60;
2020-11-06 14:04:01;5;126;126;126;126;126;126;126;126;126;126;
2020-11-06 14:04:01;ht;25;39.80
2020-11-06 14:04:01;v;4.15
2020-11-06 14:34:05;1;99;99;99;99;99;99;99;99;99;99;
2020-11-06 14:34:05;2;118;118;118;118;118;118;118;118;118;118;
2020-11-06 14:34:05;3;124;124;124;124;124;124;124;124;124;124;
2020-11-06 14:34:05;4;60;60;60;60;60;60;60;60;60;60;
2020-11-06 14:34:05;5;126;126;126;126;126;126;126;126;126;126;
2020-11-06 14:34:05;ht;25;39.80
2020-11-06 14:34:05;v;4.16
2020-11-06 15:04:03;1;103;103;103;102;102;102;103;102;103;103;
2020-11-06 15:04:03;2;118;118;118;118;118;118;118;118;118;118;
2020-11-06 15:04:03;3;116;116;116;116;116;116;116;116;116;116;
2020-11-06 15:04:03;4;59;59;59;59;59;59;59;59;59;59;
2020-11-06 15:04:03;5;119;119;118;119;119;118;119;119;119;119;
2020-11-06 15:04:03;ht;24;39.40
2020-11-06 15:04:03;v;4.16
2020-11-06 15:34:02;1;1;2;2;1;1;1;2;1;1;1;
2020-11-06 15:34:02;2;118;118;118;118;118;118;118;118;118;118;
2020-11-06 15:34:02;3;116;115;116;116;116;116;116;116;116;116;
2020-11-06 15:34:02;4;60;60;60;60;60;60;60;60;60;60;
2020-11-06 15:34:02;5;120;121;121;121;120;120;121;120;120;121;
2020-11-06 15:34:02;ht;25;38.10
2020-11-06 15:34:02;v;4.16
2020-11-06 16:04:04;1;2;1;1;1;1;1;1;1;1;1;
2020-11-06 16:04:04;2;118;118;118;118;118;118;118;118;118;118;
2020-11-06 16:04:04;3;117;117;117;117;117;117;117;117;117;117;
2020-11-06 16:04:04;4;60;60;59;60;59;60;60;60;59;60;
2020-11-06 16:04:04;5;126;126;126;126;126;126;126;126;126;126;
2020-11-06 16:04:04;ht;25;37.90
2020-11-06 16:04:04;v;4.16
2020-11-06 16:34:01;1;1;1;1;1;1;2;1;1;1;1;
2020-11-06 16:34:01;2;118;118;118;118;118;118;118;118;118;118;
2020-11-06 16:34:01;3;117;117;117;117;117;117;117;117;116;117;
2020-11-06 16:34:01;4;51;51;51;51;51;51;51;51;51;51;
2020-11-06 16:34:01;5;119;119;119;119;119;119;120;120;120;120;
2020-11-06 16:34:01;ht;26;35.10
2020-11-06 16:34:01;v;4.16
2020-11-06 17:04:01;1;133;132;132;132;132;132;133;133;132;132;
2020-11-06 17:04:01;2;118;118;118;118;118;117;118;118;118;118;
2020-11-06 17:04:01;3;117;117;117;117;117;117;117;117;117;117;
2020-11-06 17:04:01;4;60;60;60;60;60;60;60;60;60;60;
2020-11-06 17:04:01;5;121;121;121;121;121;121;121;121;121;121;
2020-11-06 17:04:01;ht;32;30.80
2020-11-06 17:04:01;v;4.16
2020-11-06 17:33:57;1;1;1;1;1;1;2;1;1;1;1;
2020-11-06 17:33:57;2;118;118;118;118;118;118;118;118;118;118;
2020-11-06 17:33:57;3;117;117;117;117;117;117;117;117;117;117;
2020-11-06 17:33:57;4;51;51;51;51;51;51;51;51;51;51;
2020-11-06 17:33:57;5;118;118;118;118;118;118;118;118;118;118;
2020-11-06 17:33:57;ht;35;29.30
2020-11-06 17:33:57;v;4.16
2020-11-06 18:03:56;1;1;1;2;1;1;1;1;1;1;1;
2020-11-06 18:03:56;2;118;118;118;118;118;118;118;118;118;118;
2020-11-06 18:03:56;3;116;117;117;117;117;117;117;117;117;117;
2020-11-06 18:03:56;4;117;117;117;116;116;117;117;117;117;117;
2020-11-06 18:03:56;5;118;118;118;118;118;118;118;118;118;118;
2020-11-06 18:03:56;ht;35;28.50
2020-11-06 18:03:56;v;4.16
2020-11-06 18:33:55;1;1;1;1;1;1;1;1;2;1;1;
2020-11-06 18:33:55;2;118;118;118;118;118;118;118;118;118;118;
2020-11-06 18:33:55;3;117;117;117;117;117;117;117;117;117;117;
2020-11-06 18:33:55;4;50;50;50;50;50;50;50;50;50;50;
2020-11-06 18:33:55;5;119;119;118;119;119;119;119;119;119;119;
2020-11-06 18:33:55;ht;38;27.80
2020-11-06 18:33:55;v;4.16
2020-11-06 19:03:58;1;2;2;2;2;2;2;2;2;2;2;
2020-11-06 19:03:58;2;118;118;118;118;118;118;118;118;118;118;
2020-11-06 19:03:58;3;118;118;118;118;118;118;118;118;118;118;
2020-11-06 19:03:58;4;55;55;55;55;55;55;55;55;55;55;
2020-11-06 19:03:58;5;119;119;119;119;119;119;119;119;119;119;
2020-11-06 19:03:58;ht;40;26.70
2020-11-06 19:03:58;v;4.16
2020-11-06 19:33:55;1;1;1;1;1;1;1;1;1;1;1;
2020-11-06 19:33:55;2;118;118;118;118;118;118;118;118;118;118;
2020-11-06 19:33:55;3;118;118;118;118;118;118;118;118;117;118;
2020-11-06 19:33:55;4;55;55;55;55;55;55;55;55;55;55;
2020-11-06 19:33:55;5;117;117;117;117;117;117;117;117;117;117;
2020-11-06 19:33:55;ht;42;25.90
2020-11-06 19:33:55;v;4.16
2020-11-06 20:03:56;1;1;1;1;1;1;1;1;1;1;1;
2020-11-06 20:03:56;2;119;119;119;119;119;119;119;119;119;119;
2020-11-06 20:03:56;3;118;118;118;118;118;118;118;118;118;118;
2020-11-06 20:03:56;4;59;59;59;59;59;59;59;59;59;59;
2020-11-06 20:03:56;5;118;118;118;118;118;118;118;117;118;118;
2020-11-06 20:03:56;ht;46;24.90
2020-11-06 20:03:56;v;4.16
2020-11-06 20:33:51;1;1;1;1;1;1;2;1;1;1;1;
2020-11-06 20:33:51;2;119;119;119;119;119;119;119;119;119;119;
2020-11-06 20:33:51;3;118;118;118;118;118;118;118;118;118;118;
2020-11-06 20:33:51;4;58;58;58;58;58;58;58;58;58;58;
2020-11-06 20:33:51;5;118;118;118;118;118;118;118;118;118;118;
2020-11-06 20:33:51;ht;49;24.40
2020-11-06 20:33:51;v;4.15
2020-11-06 21:03:51;1;117;117;117;117;117;117;117;117;117;117;
2020-11-06 21:03:51;2;119;119;119;119;119;119;119;119;119;119;
2020-11-06 21:03:51;3;118;118;118;118;118;118;118;118;118;118;
2020-11-06 21:03:51;4;59;59;59;59;60;60;59;59;60;60;
2020-11-06 21:03:51;5;117;117;117;117;117;118;117;117;117;117;
2020-11-06 21:03:51;ht;52;23.70
2020-11-06 21:03:51;v;4.16
2020-11-06 21:33:55;1;1;1;1;1;1;1;1;1;1;2;
2020-11-06 21:33:55;2;119;119;119;119;119;119;119;119;119;119;
2020-11-06 21:33:55;3;118;117;118;118;118;118;118;118;117;118;
2020-11-06 21:33:55;4;59;59;59;59;59;59;59;59;59;59;
2020-11-06 21:33:55;5;118;118;118;118;118;118;118;118;117;118;
2020-11-06 21:33:55;ht;58;22.70
2020-11-06 21:33:55;v;4.16
2020-11-06 22:03:54;1;102;102;103;102;102;102;102;102;102;102;
2020-11-06 22:03:54;2;119;118;119;118;118;118;118;118;119;118;
2020-11-06 22:03:54;3;117;118;118;118;118;118;118;117;118;118;
2020-11-06 22:03:54;4;59;59;59;59;59;59;59;59;59;59;
2020-11-06 22:03:54;5;118;118;118;118;118;118;118;118;118;118;
2020-11-06 22:03:54;ht;65;22.30
2020-11-06 22:03:54;v;4.15
2020-11-06 22:33:52;1;112;112;111;112;112;111;111;112;112;112;
2020-11-06 22:33:52;2;119;119;119;119;119;119;119;119;119;119;
2020-11-06 22:33:52;3;119;119;119;119;119;119;119;119;119;119;
2020-11-06 22:33:52;4;59;59;59;59;59;59;59;60;59;59;
2020-11-06 22:33:52;5;118;118;118;118;118;118;118;118;118;118;
2020-11-06 22:33:52;ht;73;22.10
2020-11-06 22:33:52;v;4.15
2020-11-06 23:03:50;1;111;111;110;111;111;111;110;111;111;111;
2020-11-06 23:03:50;2;120;120;120;120;120;120;120;119;120;120;
2020-11-06 23:03:50;3;119;119;119;119;119;119;119;119;119;119;
2020-11-06 23:03:50;4;59;59;59;59;59;59;60;59;60;59;
2020-11-06 23:03:50;5;117;117;117;117;117;117;117;117;117;117;
2020-11-06 23:03:50;ht;78;21.80
2020-11-06 23:03:50;v;4.15
2020-11-06 23:33:52;1;115;115;115;115;115;115;115;115;115;115;
2020-11-06 23:33:52;2;119;119;119;119;119;119;119;119;119;119;
2020-11-06 23:33:52;3;118;119;119;118;119;119;119;118;119;119;
2020-11-06 23:33:52;4;59;59;59;59;59;59;59;59;59;59;
2020-11-06 23:33:52;5;118;118;117;118;118;118;118;118;118;117;
2020-11-06 23:33:52;ht;83;21.30
2020-11-06 23:33:52;v;4.15
