2022-06-22 00:00:05;4.11;106.50
2022-06-22 00:01:01;4.11;106.50
2022-06-22 00:02:02;4.11;106.66
2022-06-22 00:03:03;4.11;106.66
2022-06-22 00:04:03;4.11;106.66
2022-06-22 00:05:04;4.11;106.50
2022-06-22 00:06:04;4.11;106.50
2022-06-22 00:07:05;4.11;106.66
2022-06-22 00:08:06;4.11;106.50
2022-06-22 00:09:02;4.11;106.66
2022-06-22 00:10:02;4.11;106.66
2022-06-22 00:11:03;4.11;106.50
2022-06-22 00:12:04;4.11;106.50
2022-06-22 00:13:04;4.11;106.66
2022-06-22 00:14:05;4.11;106.66
2022-06-22 00:15:06;4.11;106.50
2022-06-22 00:16:02;4.11;106.50
2022-06-22 00:17:02;4.11;106.50
2022-06-22 00:18:03;4.11;106.50
2022-06-22 00:19:03;4.11;106.50
2022-06-22 00:20:04;4.11;106.50
2022-06-22 00:21:05;4.11;106.50
2022-06-22 00:22:05;4.11;106.50
2022-06-22 00:23:06;4.11;106.50
2022-06-22 00:24:02;4.11;106.50
2022-06-22 00:25:02;4.11;106.50
2022-06-22 00:26:03;4.11;106.50
2022-06-22 00:27:04;4.11;106.18
2022-06-22 00:28:04;4.11;106.18
2022-06-22 00:29:05;4.11;106.18
2022-06-22 00:30:05;4.11;106.18
2022-06-22 00:31:01;4.11;106.50
2022-06-22 00:32:02;4.11;106.18
2022-06-22 00:33:03;4.11;106.50
2022-06-22 00:34:03;4.11;105.86
2022-06-22 00:35:04;4.11;106.18
2022-06-22 00:36:05;4.11;106.50
2022-06-22 00:37:05;4.11;105.86
2022-06-22 00:38:06;4.11;106.18
2022-06-22 00:39:02;4.11;106.50
2022-06-22 00:40:02;4.11;106.50
2022-06-22 00:41:03;4.11;106.50
2022-06-22 00:42:04;4.11;106.18
2022-06-22 00:43:04;4.11;106.18
2022-06-22 00:44:05;4.11;106.18
2022-06-22 00:45:05;4.11;106.18
2022-06-22 00:46:01;4.11;106.18
2022-06-22 00:47:02;4.11;106.50
2022-06-22 00:48:03;4.11;106.50
2022-06-22 00:49:03;4.11;106.18
2022-06-22 00:50:04;4.11;106.50
2022-06-22 00:51:04;4.11;106.18
2022-06-22 00:52:05;4.10;106.18
2022-06-22 00:53:05;4.11;106.18
2022-06-22 00:54:02;4.11;106.50
2022-06-22 00:55:02;4.11;106.18
2022-06-22 00:56:03;4.11;106.50
2022-06-22 00:57:03;4.11;106.50
2022-06-22 00:58:04;4.11;106.18
2022-06-22 00:59:05;4.11;106.18
2022-06-22 01:00:05;4.11;106.18
2022-06-22 01:01:06;4.11;106.18
2022-06-22 01:02:02;4.11;106.18
2022-06-22 01:03:02;4.11;106.18
2022-06-22 01:04:03;4.10;106.18
2022-06-22 01:05:04;4.11;106.18
2022-06-22 01:06:04;4.11;106.18
2022-06-22 01:07:05;4.11;106.50
2022-06-22 01:08:05;4.10;106.50
2022-06-22 01:09:02;4.10;106.50
2022-06-22 01:10:02;4.10;106.50
2022-06-22 01:11:03;4.10;106.50
2022-06-22 01:12:03;4.11;106.50
2022-06-22 01:13:04;4.10;106.50
2022-06-22 01:14:04;4.11;106.18
2022-06-22 01:15:05;4.10;106.50
2022-06-22 01:16:06;4.10;106.50
2022-06-22 01:17:02;4.10;106.50
2022-06-22 01:18:02;4.10;106.50
2022-06-22 01:19:03;4.10;106.50
2022-06-22 01:20:04;4.11;106.18
2022-06-22 01:21:04;4.11;106.18
2022-06-22 01:22:05;4.11;106.50
2022-06-22 01:23:05;4.10;106.50
2022-06-22 01:24:02;4.10;106.50
2022-06-22 01:25:02;4.10;106.50
2022-06-22 01:26:03;4.10;106.50
2022-06-22 01:27:03;4.10;106.50
2022-06-22 01:28:04;4.10;106.18
2022-06-22 01:29:05;4.10;106.50
2022-06-22 01:30:05;4.10;106.50
2022-06-22 01:31:06;4.10;106.50
2022-06-22 01:32:02;4.10;106.18
2022-06-22 01:33:03;4.10;106.18
2022-06-22 01:34:03;4.10;106.50
2022-06-22 01:35:04;4.10;106.50
2022-06-22 01:36:04;4.10;106.18
2022-06-22 01:37:05;4.10;106.18
2022-06-22 01:38:06;4.10;106.50
2022-06-22 01:39:02;4.10;106.50
2022-06-22 01:40:02;4.10;106.50
2022-06-22 01:41:03;4.10;106.50
2022-06-22 01:42:04;4.10;106.50
2022-06-22 01:43:04;4.10;106.50
2022-06-22 01:44:05;4.10;106.50
2022-06-22 01:45:05;4.10;106.66
2022-06-22 01:46:06;4.10;106.66
2022-06-22 01:47:02;4.10;106.50
2022-06-22 01:48:03;4.10;106.50
2022-06-22 01:49:03;4.10;106.50
2022-06-22 01:50:04;4.10;106.66
2022-06-22 01:51:04;4.10;106.66
2022-06-22 01:52:05;4.10;106.66
2022-06-22 01:53:06;4.10;106.66
2022-06-22 01:54:02;4.10;106.66
2022-06-22 01:55:02;4.10;106.50
2022-06-22 01:56:03;4.10;106.18
2022-06-22 01:57:03;4.10;106.50
2022-06-22 01:58:04;4.10;106.66
2022-06-22 01:59:05;4.10;106.50
2022-06-22 02:00:05;4.10;106.50
2022-06-22 02:01:06;4.10;106.50
2022-06-22 02:02:02;4.10;106.50
2022-06-22 02:03:03;4.10;106.50
2022-06-22 02:04:03;4.10;106.18
2022-06-22 02:05:04;4.10;106.50
2022-06-22 02:06:04;4.10;106.18
2022-06-22 02:07:05;4.10;106.66
2022-06-22 02:08:06;4.10;106.50
2022-06-22 02:09:02;4.10;106.50
2022-06-22 02:10:02;4.10;106.66
2022-06-22 02:11:03;4.10;106.50
2022-06-22 02:12:03;4.10;106.50
2022-06-22 02:13:04;4.10;106.50
2022-06-22 02:14:05;4.10;106.50
2022-06-22 02:15:05;4.10;106.50
2022-06-22 02:16:06;4.10;106.50
2022-06-22 02:17:02;4.10;106.66
2022-06-22 02:18:02;4.10;106.18
2022-06-22 02:19:03;4.10;106.50
2022-06-22 02:20:04;4.10;106.50
2022-06-22 02:21:04;4.10;106.66
2022-06-22 02:22:05;4.10;106.50
2022-06-22 02:23:05;4.10;106.66
2022-06-22 02:24:01;4.10;106.50
2022-06-22 02:25:02;4.10;106.50
2022-06-22 02:26:03;4.10;106.66
2022-06-22 02:27:03;4.10;106.66
2022-06-22 02:28:04;4.10;106.50
2022-06-22 02:29:04;4.10;106.66
2022-06-22 02:30:05;4.10;106.50
2022-06-22 02:31:06;4.10;106.50
2022-06-22 02:32:02;4.10;106.50
2022-06-22 02:33:02;4.10;106.50
2022-06-22 02:34:03;4.10;106.50
2022-06-22 02:35:04;4.10;106.50
2022-06-22 02:36:04;4.10;106.66
2022-06-22 02:37:05;4.10;106.50
2022-06-22 02:38:05;4.10;106.50
2022-06-22 02:39:01;4.10;106.50
2022-06-22 02:40:02;4.10;106.50
2022-06-22 02:41:03;4.10;106.50
2022-06-22 02:42:03;4.10;106.50
2022-06-22 02:43:04;4.10;106.66
2022-06-22 02:44:04;4.10;106.50
2022-06-22 02:45:05;4.10;106.50
2022-06-22 02:46:06;4.10;106.66
2022-06-22 02:47:02;4.10;106.66
2022-06-22 02:48:02;4.10;106.66
2022-06-22 02:49:03;4.10;106.66
2022-06-22 02:50:04;4.10;106.66
2022-06-22 02:51:04;4.10;106.66
2022-06-22 02:52:05;4.10;106.66
2022-06-22 02:53:05;4.10;106.66
2022-06-22 02:54:01;4.10;106.18
2022-06-22 02:55:02;4.10;106.66
2022-06-22 02:56:03;4.10;106.50
2022-06-22 02:57:03;4.10;106.66
2022-06-22 02:58:04;4.10;106.50
2022-06-22 02:59:04;4.10;106.66
2022-06-22 03:00:05;4.10;106.66
2022-06-22 03:01:06;4.10;106.50
2022-06-22 03:02:02;4.10;106.66
2022-06-22 03:03:03;4.10;106.50
2022-06-22 03:04:03;4.10;106.66
2022-06-22 03:05:04;4.10;106.66
2022-06-22 03:06:04;4.10;106.50
2022-06-22 03:07:05;4.10;106.50
2022-06-22 03:08:05;4.09;106.50
2022-06-22 03:09:02;4.10;106.50
2022-06-22 03:10:02;4.10;106.66
2022-06-22 03:11:03;4.10;106.50
2022-06-22 03:12:03;4.09;106.50
2022-06-22 03:13:04;4.10;106.66
2022-06-22 03:14:04;4.10;106.66
2022-06-22 03:15:05;4.10;106.66
2022-06-22 03:16:06;4.10;106.66
2022-06-22 03:17:02;4.10;106.66
2022-06-22 03:18:02;4.10;106.66
2022-06-22 03:19:03;4.09;106.66
2022-06-22 03:20:03;4.10;106.66
2022-06-22 03:21:04;4.10;106.66
2022-06-22 03:22:05;4.09;106.66
2022-06-22 03:23:05;4.09;106.66
2022-06-22 03:24:06;4.09;106.50
2022-06-22 03:25:02;4.09;106.66
2022-06-22 03:26:03;4.09;106.66
2022-06-22 03:27:03;4.09;106.66
2022-06-22 03:28:04;4.09;106.50
2022-06-22 03:29:04;4.10;106.66
2022-06-22 03:30:05;4.09;106.66
2022-06-22 03:31:05;4.09;106.50
2022-06-22 03:32:02;4.10;106.66
2022-06-22 03:33:02;4.09;106.50
2022-06-22 03:34:03;4.09;106.50
2022-06-22 03:35:03;4.09;106.50
2022-06-22 03:36:04;4.09;106.50
2022-06-22 03:37:05;4.09;106.50
2022-06-22 03:38:05;4.09;106.50
2022-06-22 03:39:06;4.09;106.50
2022-06-22 03:40:02;4.09;106.50
2022-06-22 03:41:02;4.09;106.50
2022-06-22 03:42:03;4.09;106.50
2022-06-22 03:43:04;4.09;106.50
2022-06-22 03:44:04;4.09;106.50
2022-06-22 03:45:05;4.09;106.50
2022-06-22 03:46:05;4.09;106.18
2022-06-22 03:47:01;4.09;106.18
2022-06-22 03:48:02;4.09;106.50
2022-06-22 03:49:03;4.09;106.50
2022-06-22 03:50:03;4.09;106.50
2022-06-22 03:51:04;4.09;106.50
2022-06-22 03:52:04;4.09;106.50
2022-06-22 03:53:05;4.09;106.50
2022-06-22 03:54:05;4.09;106.50
2022-06-22 03:55:02;4.09;106.50
2022-06-22 03:56:02;4.09;106.50
2022-06-22 03:57:03;4.09;106.50
2022-06-22 03:58:03;4.09;106.50
2022-06-22 03:59:04;4.09;106.50
2022-06-22 04:00:04;4.09;106.50
2022-06-22 04:01:05;4.09;106.50
2022-06-22 04:02:06;4.09;106.50
2022-06-22 04:03:02;4.09;106.50
2022-06-22 04:04:02;4.09;106.50
2022-06-22 04:05:03;4.09;106.50
2022-06-22 04:06:03;4.09;106.50
2022-06-22 04:07:04;4.09;106.50
2022-06-22 04:08:05;4.09;106.50
2022-06-22 04:09:05;4.09;106.50
2022-06-22 04:10:06;4.09;106.50
2022-06-22 04:11:02;4.09;106.50
2022-06-22 04:12:02;4.09;106.50
2022-06-22 04:13:03;4.09;106.50
2022-06-22 04:14:04;4.09;106.50
2022-06-22 04:15:04;4.09;106.50
2022-06-22 04:16:05;4.09;106.50
2022-06-22 04:17:05;4.09;106.50
2022-06-22 04:18:01;4.09;106.50
2022-06-22 04:19:02;4.09;106.50
2022-06-22 04:20:03;4.09;106.50
2022-06-22 04:21:03;4.09;106.50
2022-06-22 04:22:04;4.09;106.50
2022-06-22 04:23:04;4.09;106.50
2022-06-22 04:24:05;4.09;106.50
2022-06-22 04:25:06;4.09;106.50
2022-06-22 04:26:02;4.09;106.50
2022-06-22 04:27:02;4.09;106.50
2022-06-22 04:28:03;4.09;106.50
2022-06-22 04:29:03;4.09;106.66
2022-06-22 04:30:04;4.09;106.66
2022-06-22 04:31:05;4.09;106.66
2022-06-22 04:32:05;4.09;106.66
2022-06-22 04:33:06;4.09;106.66
2022-06-22 04:34:02;4.09;106.66
2022-06-22 04:35:02;4.09;106.66
2022-06-22 04:36:03;4.09;106.66
2022-06-22 04:37:04;4.09;106.66
2022-06-22 04:38:04;4.09;106.66
2022-06-22 04:39:05;4.09;106.66
2022-06-22 04:40:05;4.09;107.31
2022-06-22 04:41:06;4.09;106.66
2022-06-22 04:42:02;4.09;106.66
2022-06-22 04:43:03;4.09;106.66
2022-06-22 04:44:03;4.09;106.66
2022-06-22 04:45:04;4.09;106.66
2022-06-22 04:46:04;4.09;106.66
2022-06-22 04:47:05;4.09;106.66
2022-06-22 04:48:05;4.09;106.99
2022-06-22 04:49:02;4.09;106.50
2022-06-22 04:50:02;4.09;106.66
2022-06-22 04:51:03;4.09;106.66
2022-06-22 04:52:03;4.09;106.66
2022-06-22 04:53:04;4.09;106.66
2022-06-22 04:54:04;4.09;106.66
2022-06-22 04:55:05;4.09;106.66
2022-06-22 04:56:06;4.09;106.66
2022-06-22 04:57:02;4.09;106.66
2022-06-22 04:58:02;4.09;106.66
2022-06-22 04:59:03;4.09;106.66
2022-06-22 05:00:03;4.09;106.66
2022-06-22 05:01:04;4.09;106.50
2022-06-22 05:02:05;4.09;106.66
2022-06-22 05:03:05;4.09;106.66
2022-06-22 05:04:06;4.09;106.66
2022-06-22 05:05:02;4.09;106.99
2022-06-22 05:06:03;4.09;106.66
2022-06-22 05:07:03;4.09;106.66
2022-06-22 05:08:04;4.09;106.66
2022-06-22 05:09:04;4.09;106.66
2022-06-22 05:10:05;4.09;106.66
2022-06-22 05:11:05;4.09;106.66
2022-06-22 05:12:01;4.09;106.66
2022-06-22 05:13:02;4.09;106.66
2022-06-22 05:14:03;4.09;106.50
2022-06-22 05:15:03;4.09;106.66
2022-06-22 05:16:04;4.09;106.66
2022-06-22 05:17:04;4.09;106.66
2022-06-22 05:18:05;4.09;106.66
2022-06-22 05:19:05;4.09;106.66
2022-06-22 05:20:02;4.09;106.66
2022-06-22 05:21:02;4.09;106.66
2022-06-22 05:22:03;4.09;106.66
2022-06-22 05:23:03;4.09;106.66
2022-06-22 05:24:04;4.09;106.66
2022-06-22 05:25:04;4.09;106.66
2022-06-22 05:26:05;4.09;106.50
2022-06-22 05:27:05;4.09;106.66
2022-06-22 05:28:02;4.09;106.66
2022-06-22 05:29:02;4.09;106.66
2022-06-22 05:30:03;4.09;106.66
2022-06-22 05:31:03;4.09;106.66
2022-06-22 05:32:04;4.09;106.66
2022-06-22 05:33:04;4.09;106.66
2022-06-22 05:34:05;4.09;106.66
2022-06-22 05:35:06;4.08;106.66
2022-06-22 05:36:02;4.09;106.50
2022-06-22 05:37:02;4.09;106.66
2022-06-22 05:38:03;4.08;106.66
2022-06-22 05:39:03;4.09;106.66
2022-06-22 05:40:04;4.08;106.66
2022-06-22 05:41:05;4.08;106.66
2022-06-22 05:42:05;4.08;106.66
2022-06-22 05:43:06;4.09;106.66
2022-06-22 05:44:02;4.09;106.99
2022-06-22 05:45:02;4.09;106.66
2022-06-22 05:46:03;4.08;106.66
2022-06-22 05:47:04;4.08;106.50
2022-06-22 05:48:04;4.08;106.66
2022-06-22 05:49:05;4.08;106.66
2022-06-22 05:50:05;4.08;106.66
2022-06-22 05:51:02;4.09;106.66
2022-06-22 05:52:02;4.08;106.66
2022-06-22 05:53:03;4.09;106.66
2022-06-22 05:54:03;4.08;106.66
2022-06-22 05:55:04;4.08;106.66
2022-06-22 05:56:04;4.08;106.66
2022-06-22 05:57:05;4.08;106.66
2022-06-22 05:58:05;4.08;106.66
2022-06-22 05:59:02;4.08;106.50
2022-06-22 06:00:02;4.08;106.66
2022-06-22 06:01:03;4.08;106.66
2022-06-22 06:02:03;4.08;106.66
2022-06-22 06:03:04;4.08;106.66
2022-06-22 06:04:04;4.09;106.66
2022-06-22 06:05:05;4.08;106.50
2022-06-22 06:06:06;4.09;106.66
2022-06-22 06:07:02;4.08;106.66
2022-06-22 06:08:02;4.09;106.66
2022-06-22 06:09:03;4.08;106.66
2022-06-22 06:10:03;4.08;106.66
2022-06-22 06:11:04;4.08;106.66
2022-06-22 06:12:04;4.08;106.66
2022-06-22 06:13:05;4.08;106.66
2022-06-22 06:14:06;4.08;106.50
2022-06-22 06:15:02;4.08;106.50
2022-06-22 06:16:02;4.08;106.66
2022-06-22 06:17:03;4.08;106.66
2022-06-22 06:18:03;4.08;106.66
2022-06-22 06:19:04;4.08;106.66
2022-06-22 06:20:04;4.08;106.66
2022-06-22 06:21:05;4.08;106.66
2022-06-22 06:22:06;4.08;106.66
2022-06-22 06:23:02;4.08;106.50
2022-06-22 06:24:02;4.08;106.66
2022-06-22 06:25:03;4.08;106.66
2022-06-22 06:26:03;4.08;106.66
2022-06-22 06:27:04;4.08;106.66
2022-06-22 06:28:05;4.08;106.66
2022-06-22 06:29:05;4.08;106.66
2022-06-22 06:30:06;4.08;106.66
2022-06-22 06:31:02;4.08;106.50
2022-06-22 06:32:02;4.08;106.66
2022-06-22 06:33:03;4.08;106.66
2022-06-22 06:34:04;4.08;106.66
2022-06-22 06:35:04;4.08;106.66
2022-06-22 06:36:05;4.08;106.66
2022-06-22 06:37:05;4.08;106.66
2022-06-22 06:38:01;4.08;106.66
2022-06-22 06:39:02;4.08;106.66
2022-06-22 06:40:03;4.08;106.50
2022-06-22 06:41:03;4.08;106.18
2022-06-22 06:42:04;4.08;106.50
2022-06-22 06:43:04;4.08;106.50
2022-06-22 06:44:05;4.08;106.50
2022-06-22 06:45:05;4.08;106.50
2022-06-22 06:46:01;4.08;106.50
2022-06-22 06:47:02;4.08;106.50
2022-06-22 06:48:03;4.08;106.50
2022-06-22 06:49:03;4.08;106.50
2022-06-22 06:50:04;4.08;106.50
2022-06-22 06:51:04;4.08;106.50
2022-06-22 06:52:05;4.08;106.18
2022-06-22 06:53:05;4.08;106.50
2022-06-22 06:54:06;4.08;106.50
2022-06-22 06:55:02;4.08;106.50
2022-06-22 06:56:02;4.08;106.50
2022-06-22 06:57:03;4.08;106.50
2022-06-22 06:58:04;4.08;106.50
2022-06-22 06:59:04;4.08;106.50
2022-06-22 07:00:05;4.08;106.50
2022-06-22 07:01:05;4.08;106.50
2022-06-22 07:02:06;4.08;106.50
2022-06-22 07:03:02;4.08;106.50
2022-06-22 07:04:02;4.08;106.50
2022-06-22 07:05:03;4.08;106.50
2022-06-22 07:06:04;4.08;106.50
2022-06-22 07:07:04;4.08;106.66
2022-06-22 07:08:05;4.08;106.50
2022-06-22 07:09:05;4.08;106.50
2022-06-22 07:10:06;4.08;106.66
2022-06-22 07:11:02;4.08;106.66
2022-06-22 07:12:02;4.08;106.66
2022-06-22 07:13:03;4.08;106.66
2022-06-22 07:14:04;4.08;106.66
2022-06-22 07:15:04;4.08;106.50
2022-06-22 07:16:05;4.08;106.66
2022-06-22 07:17:05;4.08;106.66
2022-06-22 07:18:06;4.08;106.66
2022-06-22 07:19:02;4.08;106.66
2022-06-22 07:20:02;4.08;106.66
2022-06-22 07:21:03;4.08;106.66
2022-06-22 07:22:04;4.08;106.66
2022-06-22 07:23:04;4.08;106.66
2022-06-22 07:24:05;4.08;106.50
2022-06-22 07:25:05;4.08;106.66
2022-06-22 07:26:06;4.08;106.66
2022-06-22 07:27:02;4.08;106.66
2022-06-22 07:28:02;4.08;106.66
2022-06-22 07:29:03;4.08;106.66
2022-06-22 07:30:03;4.08;106.50
2022-06-22 07:31:04;4.08;106.50
2022-06-22 07:32:05;4.08;106.66
2022-06-22 07:33:05;4.08;106.66
2022-06-22 07:34:06;4.08;106.50
2022-06-22 07:35:02;4.08;106.66
2022-06-22 07:36:02;4.08;106.66
2022-06-22 07:37:03;4.08;106.66
2022-06-22 07:38:03;4.08;106.50
2022-06-22 07:39:04;4.08;106.50
2022-06-22 07:40:05;4.08;106.66
2022-06-22 07:41:05;4.08;106.66
2022-06-22 07:42:06;4.08;106.66
2022-06-22 07:43:02;4.08;106.50
2022-06-22 07:44:02;4.08;106.66
2022-06-22 07:45:03;4.08;106.50
2022-06-22 07:46:03;4.08;106.66
2022-06-22 07:47:04;4.08;106.50
2022-06-22 07:48:05;4.08;106.50
2022-06-22 07:49:05;4.08;106.50
2022-06-22 07:50:06;4.08;106.66
2022-06-22 07:51:02;4.08;106.66
2022-06-22 07:52:02;4.08;106.50
2022-06-22 07:53:03;4.08;106.66
2022-06-22 07:54:03;4.08;106.66
2022-06-22 07:55:04;4.08;106.66
2022-06-22 07:56:05;4.08;106.18
2022-06-22 07:57:05;4.08;106.50
2022-06-22 07:58:06;4.08;106.66
2022-06-22 07:59:02;4.08;106.66
2022-06-22 08:00:02;4.08;106.66
2022-06-22 08:01:03;4.08;106.66
2022-06-22 08:02:04;4.08;106.66
2022-06-22 08:03:04;4.08;106.66
2022-06-22 08:04:05;4.08;106.50
2022-06-22 08:05:05;4.08;106.66
2022-06-22 08:06:02;4.08;106.66
2022-06-22 08:07:02;4.08;106.66
2022-06-22 08:08:03;4.08;106.66
2022-06-22 08:09:03;4.08;106.66
2022-06-22 08:10:04;4.08;106.66
2022-06-22 08:11:04;4.08;106.66
2022-06-22 08:12:05;4.08;106.66
2022-06-22 08:13:05;4.08;106.66
2022-06-22 08:14:02;4.08;106.50
2022-06-22 08:15:02;4.08;106.66
2022-06-22 08:16:03;4.07;106.66
2022-06-22 08:17:03;4.08;106.18
2022-06-22 08:18:04;4.08;106.50
2022-06-22 08:19:04;4.08;106.66
2022-06-22 08:20:05;4.08;106.50
2022-06-22 08:21:05;4.08;106.66
2022-06-22 08:22:02;4.08;106.66
2022-06-22 08:23:02;4.08;106.66
2022-06-22 08:24:03;4.07;106.66
2022-06-22 08:25:03;4.07;106.18
2022-06-22 08:26:04;4.08;106.66
2022-06-22 08:27:04;4.08;106.50
2022-06-22 08:28:05;4.08;106.50
2022-06-22 08:29:06;4.08;106.66
2022-06-22 08:30:02;4.07;106.66
2022-06-22 08:31:02;4.07;106.66
2022-06-22 08:32:03;4.07;106.66
2022-06-22 08:33:03;4.07;106.66
2022-06-22 08:34:04;4.07;106.50
2022-06-22 08:35:04;4.08;106.50
2022-06-22 08:36:05;4.08;106.50
2022-06-22 08:37:06;4.07;106.50
2022-06-22 08:38:02;4.08;106.50
2022-06-22 08:39:02;4.07;106.66
2022-06-22 08:40:03;4.07;106.66
2022-06-22 08:41:04;4.07;106.50
2022-06-22 08:42:04;4.07;106.50
2022-06-22 08:43:05;4.07;106.66
2022-06-22 08:44:05;4.07;106.66
2022-06-22 08:45:06;4.08;106.66
2022-06-22 08:46:02;4.07;106.50
2022-06-22 08:47:02;4.07;106.50
2022-06-22 08:48:03;4.07;106.66
2022-06-22 08:49:04;4.07;106.66
2022-06-22 08:50:04;4.07;106.66
2022-06-22 08:51:05;4.07;106.66
2022-06-22 08:52:05;4.07;106.66
2022-06-22 08:53:06;4.07;106.66
2022-06-22 08:54:02;4.07;106.50
2022-06-22 08:55:02;4.07;106.50
2022-06-22 08:56:03;4.07;106.50
2022-06-22 08:57:04;4.07;106.50
2022-06-22 08:58:04;4.07;106.66
2022-06-22 08:59:05;4.07;106.50
2022-06-22 09:00:05;4.07;106.50
2022-06-22 09:01:06;4.07;106.50
2022-06-22 09:02:02;4.07;106.50
2022-06-22 09:03:03;4.07;106.50
2022-06-22 09:04:03;4.07;106.50
2022-06-22 09:05:04;4.07;106.50
2022-06-22 09:06:04;4.07;106.50
2022-06-22 09:07:05;4.07;106.66
2022-06-22 09:08:05;4.07;106.66
2022-06-22 09:09:01;4.07;106.50
2022-06-22 09:10:02;4.07;106.66
2022-06-22 09:11:03;4.07;106.50
2022-06-22 09:12:03;4.07;106.50
2022-06-22 09:13:04;4.07;106.50
2022-06-22 09:14:04;4.07;106.50
2022-06-22 09:15:05;4.07;106.50
2022-06-22 09:16:05;4.07;106.66
2022-06-22 09:17:02;4.07;106.50
2022-06-22 09:18:02;4.07;106.50
2022-06-22 09:19:03;4.07;106.50
2022-06-22 09:20:03;4.07;106.50
2022-06-22 09:21:04;4.07;106.66
2022-06-22 09:22:04;4.07;106.66
2022-06-22 09:23:05;4.07;106.50
2022-06-22 09:24:06;4.07;106.50
2022-06-22 09:25:02;4.07;106.66
2022-06-22 09:26:02;4.07;106.50
2022-06-22 09:27:03;4.07;106.66
2022-06-22 09:28:03;4.07;106.66
2022-06-22 09:29:04;4.07;106.50
2022-06-22 09:30:05;4.08;106.66
2022-06-22 09:31:05;4.07;106.66
2022-06-22 09:32:06;4.08;106.50
2022-06-22 09:33:02;4.07;106.66
2022-06-22 09:34:02;4.08;106.50
2022-06-22 09:35:03;4.07;106.18
2022-06-22 09:36:04;4.07;106.66
2022-06-22 09:37:04;4.07;106.66
2022-06-22 09:38:05;4.08;106.50
2022-06-22 09:39:06;4.08;106.66
2022-06-22 09:40:02;4.08;106.50
2022-06-22 09:41:02;4.08;106.50
2022-06-22 09:42:03;4.07;106.66
2022-06-22 09:43:03;4.08;106.66
2022-06-22 09:44:04;4.08;106.50
2022-06-22 09:45:05;4.08;106.66
2022-06-22 09:46:05;4.08;106.50
2022-06-22 09:47:06;4.08;106.50
2022-06-22 09:48:02;4.08;106.66
2022-06-22 09:49:02;4.08;106.18
2022-06-22 09:50:03;4.08;106.66
2022-06-22 09:51:04;4.08;106.66
2022-06-22 09:52:04;4.08;106.66
2022-06-22 09:53:05;4.08;106.66
2022-06-22 09:54:05;4.08;106.66
2022-06-22 09:55:01;4.08;106.66
2022-06-22 09:56:02;4.08;106.66
2022-06-22 09:57:03;4.08;106.66
2022-06-22 09:58:03;4.08;106.50
2022-06-22 09:59:04;4.08;106.50
2022-06-22 10:00:04;4.08;106.66
2022-06-22 10:01:05;4.08;106.66
2022-06-22 10:02:06;4.08;106.66
2022-06-22 10:03:02;4.08;106.66
2022-06-22 10:04:03;4.08;106.66
2022-06-22 10:05:03;4.08;106.66
2022-06-22 10:06:04;4.08;106.66
2022-06-22 10:07:04;4.08;106.50
2022-06-22 10:08:05;4.08;106.66
2022-06-22 10:09:05;4.08;106.50
2022-06-22 10:10:02;4.08;106.66
2022-06-22 10:11:02;4.08;106.66
2022-06-22 10:12:03;4.08;106.66
2022-06-22 10:13:03;4.08;106.50
2022-06-22 10:14:04;4.08;106.66
2022-06-22 10:15:04;4.08;106.66
2022-06-22 10:16:05;4.08;106.66
2022-06-22 10:17:06;4.08;106.50
2022-06-22 10:18:02;4.08;106.66
2022-06-22 10:19:02;4.08;106.66
2022-06-22 10:20:03;4.08;106.66
2022-06-22 10:21:04;4.08;106.66
2022-06-22 10:22:04;4.08;106.66
2022-06-22 10:23:05;4.08;106.66
2022-06-22 10:24:05;4.08;106.66
2022-06-22 10:25:01;4.08;106.66
2022-06-22 10:26:02;4.08;106.66
2022-06-22 10:27:03;4.08;106.66
2022-06-22 10:28:03;4.08;106.66
2022-06-22 10:29:04;4.08;106.66
2022-06-22 10:30:04;4.08;106.66
2022-06-22 10:31:05;4.08;106.66
2022-06-22 10:32:06;4.08;106.66
2022-06-22 10:33:02;4.08;106.66
2022-06-22 10:34:02;4.08;106.66
2022-06-22 10:35:03;4.08;106.66
2022-06-22 10:36:04;4.08;106.50
2022-06-22 10:37:04;4.08;106.50
2022-06-22 10:38:05;4.08;106.66
2022-06-22 10:39:05;4.08;106.50
2022-06-22 10:40:02;4.08;106.66
2022-06-22 10:41:02;4.08;106.66
2022-06-22 10:42:03;4.08;106.66
2022-06-22 10:43:03;4.08;106.50
2022-06-22 10:44:04;4.08;106.66
2022-06-22 10:45:05;4.08;106.66
2022-06-22 10:46:05;4.08;106.66
2022-06-22 10:47:06;4.08;106.66
2022-06-22 10:48:02;4.08;106.66
2022-06-22 10:49:03;4.08;106.66
2022-06-22 10:50:03;4.08;106.66
2022-06-22 10:51:04;4.08;106.66
2022-06-22 10:52:04;4.08;106.66
2022-06-22 10:53:05;4.08;106.50
2022-06-22 10:54:06;4.08;106.66
2022-06-22 10:55:02;4.08;106.66
2022-06-22 10:56:02;4.08;106.66
2022-06-22 10:57:03;4.08;106.66
2022-06-22 10:58:04;4.08;106.66
2022-06-22 10:59:04;4.08;106.66
2022-06-22 11:00:05;4.08;106.66
2022-06-22 11:01:06;4.08;106.66
2022-06-22 11:02:02;4.09;106.66
2022-06-22 11:03:02;4.08;106.50
2022-06-22 11:04:03;4.08;106.66
2022-06-22 11:05:04;4.09;106.66
2022-06-22 11:06:04;4.09;106.66
2022-06-22 11:07:05;4.09;106.66
2022-06-22 11:08:06;4.09;106.66
2022-06-22 11:09:02;4.09;106.50
2022-06-22 11:10:02;4.09;106.66
2022-06-22 11:11:03;4.09;106.66
2022-06-22 11:12:04;4.09;106.66
2022-06-22 11:13:04;4.09;106.66
2022-06-22 11:14:05;4.09;106.66
2022-06-22 11:15:06;4.09;106.66
2022-06-22 11:16:02;4.09;106.66
2022-06-22 11:17:02;4.09;106.66
2022-06-22 11:18:03;4.09;106.66
2022-06-22 11:19:04;4.09;106.50
2022-06-22 11:20:04;4.09;106.66
2022-06-22 11:21:05;4.10;106.66
2022-06-22 11:22:06;4.10;106.66
2022-06-22 11:23:02;4.10;106.66
2022-06-22 11:24:02;4.10;106.50
2022-06-22 11:25:03;4.10;106.99
2022-06-22 11:26:04;4.10;106.66
2022-06-22 11:27:04;4.10;106.50
2022-06-22 11:28:05;4.10;106.66
2022-06-22 11:29:06;4.10;106.66
2022-06-22 11:30:02;4.10;106.50
2022-06-22 11:31:03;4.10;106.66
2022-06-22 11:32:03;4.10;106.66
2022-06-22 11:33:04;4.10;106.66
2022-06-22 11:34:05;4.10;106.66
2022-06-22 11:35:05;4.10;106.66
2022-06-22 11:36:06;4.12;106.66
2022-06-22 11:37:02;4.12;106.66
2022-06-22 11:38:03;4.10;106.66
2022-06-22 11:39:03;4.11;106.66
2022-06-22 11:40:04;4.10;106.50
2022-06-22 11:41:05;4.10;106.66
2022-06-22 11:42:05;4.10;106.99
2022-06-22 11:43:02;4.10;106.66
2022-06-22 11:44:02;4.10;106.66
2022-06-22 11:45:03;4.10;106.66
2022-06-22 11:46:04;4.10;106.66
2022-06-22 11:47:04;4.10;106.66
2022-06-22 11:48:05;4.10;106.66
2022-06-22 11:49:06;4.11;106.66
2022-06-22 11:50:02;4.10;106.66
2022-06-22 11:51:02;4.10;106.66
2022-06-22 11:52:03;4.10;106.66
2022-06-22 11:53:04;4.10;106.66
2022-06-22 11:54:04;4.10;106.50
2022-06-22 11:55:05;4.10;106.50
2022-06-22 11:56:06;4.10;106.50
2022-06-22 11:57:02;4.10;106.66
2022-06-22 11:58:03;4.11;106.50
2022-06-22 11:59:03;4.10;106.50
2022-06-22 12:00:04;4.11;106.66
2022-06-22 12:01:05;4.11;106.50
2022-06-22 12:02:05;4.11;106.50
2022-06-22 12:03:06;4.11;106.66
2022-06-22 12:04:02;4.11;106.50
2022-06-22 12:05:03;4.11;106.50
2022-06-22 12:06:03;4.10;106.50
2022-06-22 12:07:04;4.10;106.50
2022-06-22 12:08:05;4.10;106.50
2022-06-22 12:09:05;4.10;106.18
2022-06-22 12:10:02;4.10;106.50
2022-06-22 12:11:02;4.10;106.66
2022-06-22 12:12:03;4.10;106.66
2022-06-22 12:13:04;4.10;106.50
2022-06-22 12:14:04;4.10;106.50
2022-06-22 12:15:05;4.10;106.50
2022-06-22 12:16:06;4.10;106.50
2022-06-22 12:17:02;4.10;106.66
2022-06-22 12:18:02;4.10;106.50
2022-06-22 12:19:03;4.10;106.50
2022-06-22 12:20:04;4.10;106.50
2022-06-22 12:21:05;4.10;106.18
2022-06-22 12:22:05;4.10;106.50
2022-06-22 12:23:06;4.10;106.66
2022-06-22 12:24:02;4.10;106.66
2022-06-22 12:25:03;4.10;106.66
2022-06-22 12:26:03;4.10;106.66
2022-06-22 12:27:04;4.10;106.66
2022-06-22 12:28:05;4.10;106.66
2022-06-22 12:29:05;4.10;106.99
2022-06-22 12:30:02;4.10;106.50
2022-06-22 12:31:02;4.10;106.99
2022-06-22 12:32:03;4.10;106.99
2022-06-22 12:33:04;4.10;106.66
2022-06-22 12:34:04;4.10;106.66
2022-06-22 12:35:05;4.10;106.66
2022-06-22 12:36:06;4.10;106.66
2022-06-22 12:37:02;4.10;106.66
2022-06-22 12:38:03;4.10;106.99
2022-06-22 12:39:03;4.09;106.66
2022-06-22 12:40:04;4.09;106.66
2022-06-22 12:41:05;4.09;106.66
2022-06-22 12:42:05;4.09;106.66
2022-06-22 12:43:06;4.09;106.66
2022-06-22 12:44:02;4.09;106.66
2022-06-22 12:45:03;4.09;106.50
2022-06-22 12:46:03;4.09;106.66
2022-06-22 12:47:04;4.09;106.66
2022-06-22 12:48:05;4.09;106.99
2022-06-22 12:49:05;4.09;106.99
2022-06-22 12:50:02;4.09;106.66
2022-06-22 12:51:02;4.10;106.99
2022-06-22 12:52:03;4.10;106.66
2022-06-22 12:53:04;4.10;106.66
2022-06-22 12:54:04;4.10;106.66
2022-06-22 12:55:05;4.10;106.66
2022-06-22 12:56:06;4.10;106.66
2022-06-22 12:57:02;4.10;106.99
2022-06-22 12:58:02;4.10;106.66
2022-06-22 12:59:03;4.10;106.99
2022-06-22 13:00:04;4.10;106.66
2022-06-22 13:01:04;4.10;106.66
2022-06-22 13:02:05;4.10;106.66
2022-06-22 13:03:06;4.10;106.66
2022-06-22 13:04:02;4.09;106.66
2022-06-22 13:05:02;4.10;106.66
2022-06-22 13:06:03;4.10;106.66
2022-06-22 13:07:04;4.10;106.66
2022-06-22 13:08:04;4.09;106.66
2022-06-22 13:09:05;4.10;106.50
2022-06-22 13:10:06;4.10;106.99
2022-06-22 13:11:02;4.10;106.66
2022-06-22 13:12:02;4.10;106.66
2022-06-22 13:13:03;4.10;106.66
2022-06-22 13:14:04;4.10;106.50
2022-06-22 13:15:04;4.10;106.66
2022-06-22 13:16:05;4.10;106.66
2022-06-22 13:17:06;4.11;106.99
2022-06-22 13:18:02;4.11;106.66
2022-06-22 13:19:03;4.10;106.66
2022-06-22 13:20:03;4.10;106.99
2022-06-22 13:21:04;4.10;106.66
2022-06-22 13:22:05;4.10;106.66
2022-06-22 13:23:05;4.10;106.66
2022-06-22 13:24:06;4.10;106.66
2022-06-22 13:25:02;4.10;106.50
2022-06-22 13:26:03;4.10;106.66
2022-06-22 13:27:03;4.10;106.66
2022-06-22 13:28:04;4.10;106.66
2022-06-22 13:29:05;4.10;106.99
2022-06-22 13:30:05;4.10;106.66
2022-06-22 13:31:02;4.10;106.99
2022-06-22 13:32:02;4.10;106.50
2022-06-22 13:33:03;4.10;106.66
2022-06-22 13:34:04;4.10;106.66
2022-06-22 13:35:04;4.10;106.66
2022-06-22 13:36:05;4.10;106.66
2022-06-22 13:37:06;4.10;106.66
2022-06-22 13:38:02;4.10;106.99
2022-06-22 13:39:02;4.10;106.99
2022-06-22 13:40:03;4.10;106.99
2022-06-22 13:41:04;4.10;106.99
2022-06-22 13:42:04;4.10;106.99
2022-06-22 13:43:05;4.10;106.99
2022-06-22 13:44:06;4.10;106.66
2022-06-22 13:45:02;4.10;106.99
2022-06-22 13:46:03;4.10;106.99
2022-06-22 13:47:03;4.10;106.50
2022-06-22 13:48:04;4.10;106.99
2022-06-22 13:49:05;4.10;106.66
2022-06-22 13:50:05;4.10;106.99
2022-06-22 13:51:06;4.10;106.99
2022-06-22 13:52:02;4.10;106.66
2022-06-22 13:53:03;4.10;106.99
2022-06-22 13:54:03;4.10;106.66
2022-06-22 13:55:04;4.10;106.66
2022-06-22 13:56:05;4.10;106.66
2022-06-22 13:57:05;4.10;106.99
2022-06-22 13:58:02;4.10;106.99
2022-06-22 13:59:02;4.10;106.66
2022-06-22 14:00:03;4.10;106.66
2022-06-22 14:01:04;4.10;106.99
2022-06-22 14:02:04;4.10;106.99
2022-06-22 14:03:05;4.10;106.99
2022-06-22 14:04:06;4.10;106.99
2022-06-22 14:05:02;4.10;106.99
2022-06-22 14:06:03;4.10;106.99
2022-06-22 14:07:03;4.10;106.99
2022-06-22 14:08:04;4.10;106.99
2022-06-22 14:09:05;4.10;106.18
2022-06-22 14:10:05;4.10;106.66
2022-06-22 14:11:02;4.10;106.50
2022-06-22 14:12:02;4.10;106.66
2022-06-22 14:13:03;4.10;106.66
2022-06-22 14:14:04;4.10;106.66
2022-06-22 14:15:04;4.10;106.66
2022-06-22 14:16:05;4.10;106.50
2022-06-22 14:17:06;4.10;106.66
2022-06-22 14:18:02;4.10;106.50
2022-06-22 14:19:02;4.10;106.50
2022-06-22 14:20:03;4.10;106.66
2022-06-22 14:21:04;4.10;106.50
2022-06-22 14:22:04;4.10;106.66
2022-06-22 14:23:05;4.10;106.66
2022-06-22 14:24:06;4.10;106.66
2022-06-22 14:25:02;4.10;106.66
2022-06-22 14:26:02;4.10;106.66
2022-06-22 14:27:03;4.10;106.66
2022-06-22 14:28:04;4.10;106.50
2022-06-22 14:29:04;4.10;106.50
2022-06-22 14:30:05;4.10;106.50
2022-06-22 14:31:06;4.10;106.66
2022-06-22 14:32:02;4.10;106.66
2022-06-22 14:33:03;4.10;106.66
2022-06-22 14:34:03;4.10;106.66
2022-06-22 14:35:04;4.10;106.66
2022-06-22 14:36:04;4.09;106.66
2022-06-22 14:39:57;4.09;106.66
2022-06-22 14:40:04;4.09;106.66
2022-06-22 14:41:05;4.09;106.50
2022-06-22 14:42:06;4.09;106.66
2022-06-22 14:43:02;4.09;106.66
2022-06-22 14:44:02;4.09;106.66
2022-06-22 14:45:03;4.09;106.66
2022-06-22 14:46:04;4.09;106.66
2022-06-22 14:47:04;4.09;106.66
2022-06-22 14:48:05;4.09;106.66
2022-06-22 14:49:06;4.09;106.66
2022-06-22 14:50:02;4.09;106.50
2022-06-22 14:51:02;4.09;106.66
2022-06-22 14:52:03;4.09;106.66
2022-06-22 14:53:04;4.09;106.66
2022-06-22 14:54:04;4.09;106.66
2022-06-22 14:55:05;4.09;106.66
2022-06-22 14:56:06;4.09;106.50
2022-06-22 14:57:02;4.09;106.66
2022-06-22 14:58:02;4.09;106.50
2022-06-22 14:59:03;4.09;106.66
2022-06-22 15:00:04;4.09;106.66
2022-06-22 15:01:04;4.09;106.66
2022-06-22 15:02:05;4.09;106.66
2022-06-22 15:03:06;4.09;106.50
2022-06-22 15:04:02;4.09;106.66
2022-06-22 15:05:03;4.09;106.66
2022-06-22 15:06:03;4.09;106.66
2022-06-22 15:07:04;4.09;106.66
2022-06-22 15:08:04;4.09;106.66
2022-06-22 15:09:05;4.09;106.66
2022-06-22 15:10:06;4.09;106.66
2022-06-22 15:11:02;4.09;106.66
2022-06-22 15:12:03;4.09;106.66
2022-06-22 15:13:03;4.09;106.66
2022-06-22 15:14:04;4.09;106.66
2022-06-22 15:15:05;4.09;106.66
2022-06-22 15:16:05;4.09;106.66
2022-06-22 15:17:06;4.09;106.66
2022-06-22 15:18:02;4.09;106.66
2022-06-22 15:19:03;4.09;106.66
2022-06-22 15:20:03;4.09;106.66
2022-06-22 15:21:04;4.09;106.50
2022-06-22 15:22:05;4.09;106.66
2022-06-22 15:23:05;4.09;106.66
2022-06-22 15:24:02;4.09;106.66
2022-06-22 15:25:02;4.09;106.66
2022-06-22 15:26:03;4.09;106.66
2022-06-22 15:27:04;4.09;106.66
2022-06-22 15:28:04;4.09;106.66
2022-06-22 15:29:05;4.09;106.66
2022-06-22 15:30:06;4.09;106.66
2022-06-22 15:31:02;4.09;106.66
2022-06-22 15:32:02;4.09;106.66
2022-06-22 15:33:03;4.09;106.99
2022-06-22 15:34:04;4.09;106.66
2022-06-22 15:35:04;4.09;106.66
2022-06-22 15:36:05;4.08;106.66
2022-06-22 15:37:06;4.09;106.66
2022-06-22 15:38:02;4.09;106.66
2022-06-22 15:39:02;4.09;106.66
2022-06-22 15:40:03;4.09;106.66
2022-06-22 15:41:04;4.09;106.50
2022-06-22 15:42:04;4.08;106.66
2022-06-22 15:43:05;4.09;106.66
2022-06-22 15:44:06;4.08;106.66
2022-06-22 15:45:02;4.09;106.66
2022-06-22 15:46:03;4.09;106.66
2022-06-22 15:47:03;4.08;106.66
2022-06-22 15:48:04;4.08;106.66
2022-06-22 15:49:04;4.08;106.66
2022-06-22 15:50:05;4.08;106.99
2022-06-22 15:51:06;4.08;106.66
2022-06-22 15:52:02;4.09;106.66
2022-06-22 15:53:02;4.08;106.66
2022-06-22 15:54:03;4.08;106.66
2022-06-22 15:55:04;4.08;106.99
2022-06-22 15:56:04;4.08;106.66
2022-06-22 15:57:05;4.08;106.50
2022-06-22 15:58:06;4.08;106.99
2022-06-22 15:59:02;4.08;106.99
2022-06-22 16:00:02;4.08;106.99
2022-06-22 16:01:03;4.08;106.99
2022-06-22 16:02:04;4.08;106.99
2022-06-22 16:03:04;4.08;106.99
2022-06-22 16:04:05;4.08;106.99
2022-06-22 16:05:06;4.08;106.99
2022-06-22 16:06:02;4.08;106.99
2022-06-22 16:07:02;4.08;106.99
2022-06-22 16:08:03;4.08;106.99
2022-06-22 16:09:04;4.08;106.99
2022-06-22 16:10:04;4.08;106.99
2022-06-22 16:11:05;4.08;106.66
2022-06-22 16:12:06;4.08;106.99
2022-06-22 16:13:02;4.08;106.99
2022-06-22 16:14:02;4.08;106.99
2022-06-22 16:15:03;4.08;106.99
2022-06-22 16:16:04;4.08;106.99
2022-06-22 16:17:04;4.08;106.66
2022-06-22 16:18:05;4.08;106.99
2022-06-22 16:19:06;4.08;106.99
2022-06-22 16:20:02;4.08;106.99
2022-06-22 16:21:02;4.08;106.99
2022-06-22 16:22:03;4.08;106.99
2022-06-22 16:23:04;4.08;106.99
2022-06-22 16:24:04;4.08;106.99
2022-06-22 16:25:05;4.08;106.66
2022-06-22 16:26:05;4.08;106.99
2022-06-22 16:27:02;4.08;106.99
2022-06-22 16:28:02;4.08;106.66
2022-06-22 16:29:03;4.08;106.99
2022-06-22 16:30:04;4.08;106.99
2022-06-22 16:31:04;4.08;106.99
2022-06-22 16:32:05;4.08;106.99
2022-06-22 16:33:05;4.08;106.99
2022-06-22 16:34:02;4.08;106.99
2022-06-22 16:35:02;4.08;106.99
2022-06-22 16:36:03;4.08;106.66
2022-06-22 16:37:04;4.08;106.66
2022-06-22 16:38:04;4.08;106.99
2022-06-22 16:39:05;4.08;106.99
2022-06-22 16:40:05;4.08;106.99
2022-06-22 16:41:02;4.08;106.66
2022-06-22 16:42:02;4.08;106.99
2022-06-22 16:43:03;4.08;106.99
2022-06-22 16:44:04;4.08;106.99
2022-06-22 16:45:04;4.08;106.99
2022-06-22 16:46:05;4.08;106.99
2022-06-22 16:47:05;4.08;106.99
2022-06-22 16:48:02;4.08;106.99
2022-06-22 16:49:02;4.08;106.66
2022-06-22 16:50:03;4.08;106.99
2022-06-22 16:51:04;4.08;106.66
2022-06-22 16:52:04;4.08;106.99
2022-06-22 16:53:05;4.08;106.66
2022-06-22 16:54:06;4.08;106.99
2022-06-22 16:55:02;4.08;106.99
2022-06-22 16:56:02;4.08;106.99
2022-06-22 16:57:03;4.08;106.99
2022-06-22 16:58:04;4.08;106.99
2022-06-22 16:59:04;4.08;106.99
2022-06-22 17:00:05;4.08;106.99
2022-06-22 17:01:06;4.08;106.99
2022-06-22 17:02:02;4.08;106.99
2022-06-22 17:03:02;4.08;106.99
2022-06-22 17:04:03;4.08;106.99
2022-06-22 17:05:04;4.08;106.99
2022-06-22 17:06:04;4.08;106.66
2022-06-22 17:07:05;4.08;106.99
2022-06-22 17:08:06;4.08;106.99
2022-06-22 17:09:02;4.08;106.99
2022-06-22 17:10:02;4.08;106.99
2022-06-22 17:11:03;4.08;106.99
2022-06-22 17:12:04;4.08;106.99
2022-06-22 17:13:04;4.08;106.99
2022-06-22 17:14:05;4.08;107.31
2022-06-22 17:15:06;4.08;106.99
2022-06-22 17:16:02;4.08;106.99
2022-06-22 17:17:02;4.08;106.99
2022-06-22 17:18:03;4.08;106.99
2022-06-22 17:19:04;4.08;106.66
2022-06-22 17:20:04;4.08;106.99
2022-06-22 17:21:05;4.08;106.99
2022-06-22 17:22:05;4.08;106.99
2022-06-22 17:23:01;4.08;107.31
2022-06-22 17:24:02;4.08;106.99
2022-06-22 17:25:03;4.08;106.99
2022-06-22 17:26:03;4.08;106.99
2022-06-22 17:27:04;4.08;106.66
2022-06-22 17:28:05;4.08;106.99
2022-06-22 17:29:05;4.08;106.99
2022-06-22 17:30:06;4.08;106.99
2022-06-22 17:31:02;4.08;106.99
2022-06-22 17:32:03;4.08;106.99
2022-06-22 17:33:03;4.08;106.99
2022-06-22 17:34:04;4.08;106.99
2022-06-22 17:35:04;4.08;106.99
2022-06-22 17:36:05;4.08;106.99
2022-06-22 17:37:06;4.08;106.99
2022-06-22 17:38:02;4.08;106.99
2022-06-22 17:39:02;4.08;106.99
2022-06-22 17:40:03;4.08;106.99
2022-06-22 17:41:04;4.08;106.99
2022-06-22 17:42:04;4.08;106.99
2022-06-22 17:43:05;4.08;106.99
2022-06-22 17:44:06;4.08;107.31
2022-06-22 17:45:02;4.08;106.99
2022-06-22 17:46:02;4.08;106.99
2022-06-22 17:47:03;4.08;106.99
2022-06-22 17:48:04;4.08;106.99
2022-06-22 17:49:04;4.08;106.99
2022-06-22 17:50:05;4.08;106.99
2022-06-22 17:51:05;4.08;106.99
2022-06-22 17:52:02;4.08;106.99
2022-06-22 17:53:02;4.07;106.99
2022-06-22 17:54:03;4.07;106.99
2022-06-22 17:55:03;4.08;106.99
2022-06-22 17:56:04;4.07;106.99
2022-06-22 17:57:05;4.08;106.99
2022-06-22 17:58:05;4.07;106.99
2022-06-22 17:59:06;4.07;106.99
2022-06-22 18:00:02;4.07;106.99
2022-06-22 18:01:03;4.07;106.99
2022-06-22 18:02:03;4.07;106.99
2022-06-22 18:03:04;4.07;106.99
2022-06-22 18:04:05;4.07;106.99
2022-06-22 18:05:05;4.07;106.99
2022-06-22 18:06:06;4.07;106.99
2022-06-22 18:07:02;4.07;106.99
2022-06-22 18:08:03;4.07;106.66
2022-06-22 18:09:03;4.07;106.99
2022-06-22 18:10:04;4.07;106.99
2022-06-22 18:11:04;4.07;106.99
2022-06-22 18:12:05;4.07;106.99
2022-06-22 18:13:06;4.07;106.99
2022-06-22 18:14:02;4.07;106.99
2022-06-22 18:15:02;4.07;106.99
2022-06-22 18:16:03;4.07;106.99
2022-06-22 18:17:04;4.07;106.99
2022-06-22 18:18:04;4.07;106.99
2022-06-22 18:19:05;4.07;106.99
2022-06-22 18:20:06;4.07;106.99
2022-06-22 18:21:02;4.07;106.99
2022-06-22 18:22:02;4.07;106.99
2022-06-22 18:23:03;4.07;106.99
2022-06-22 18:24:04;4.07;106.99
2022-06-22 18:25:04;4.07;106.99
2022-06-22 18:26:05;4.07;106.99
2022-06-22 18:27:06;4.07;106.99
2022-06-22 18:28:02;4.07;106.99
2022-06-22 18:29:02;4.07;106.99
2022-06-22 18:30:03;4.07;106.99
2022-06-22 18:31:04;4.07;106.99
2022-06-22 18:32:04;4.07;106.99
2022-06-22 18:33:05;4.07;106.99
2022-06-22 18:34:06;4.07;106.99
2022-06-22 18:35:02;4.07;106.99
2022-06-22 18:36:02;4.07;106.99
2022-06-22 18:37:03;4.07;106.99
2022-06-22 18:38:03;4.07;106.99
2022-06-22 18:39:04;4.07;106.99
2022-06-22 18:40:05;4.07;106.66
2022-06-22 18:41:05;4.07;106.99
2022-06-22 18:42:06;4.07;106.99
2022-06-22 18:43:02;4.07;106.99
2022-06-22 18:44:03;4.07;106.66
2022-06-22 18:45:03;4.07;106.66
2022-06-22 18:46:04;4.07;106.66
2022-06-22 18:47:04;4.07;106.66
2022-06-22 18:48:05;4.07;106.99
2022-06-22 18:49:06;4.07;106.66
2022-06-22 18:50:02;4.07;106.66
2022-06-22 18:51:02;4.07;106.99
2022-06-22 18:52:03;4.07;106.66
2022-06-22 18:53:03;4.07;106.66
2022-06-22 18:54:04;4.07;106.66
2022-06-22 18:55:05;4.07;106.66
2022-06-22 18:56:05;4.07;106.66
2022-06-22 18:57:01;4.07;106.99
2022-06-22 18:58:02;4.07;106.66
2022-06-22 18:59:03;4.07;106.66
2022-06-22 19:00:03;4.07;106.66
2022-06-22 19:01:04;4.07;106.66
2022-06-22 19:02:04;4.07;106.66
2022-06-22 19:03:05;4.07;106.66
2022-06-22 19:04:06;4.07;106.66
2022-06-22 19:05:02;4.07;106.66
2022-06-22 19:06:02;4.07;106.66
2022-06-22 19:07:03;4.07;106.66
2022-06-22 19:08:04;4.07;106.66
2022-06-22 19:09:04;4.07;106.66
2022-06-22 19:10:05;4.07;106.50
2022-06-22 19:11:05;4.07;106.66
2022-06-22 19:12:02;4.07;106.66
2022-06-22 19:13:02;4.07;106.66
2022-06-22 19:14:03;4.07;106.66
2022-06-22 19:15:03;4.07;106.66
2022-06-22 19:16:04;4.07;106.66
2022-06-22 19:17:05;4.07;106.66
2022-06-22 19:18:05;4.07;106.66
2022-06-22 19:19:06;4.07;106.99
2022-06-22 19:20:02;4.07;106.66
2022-06-22 19:21:03;4.07;106.66
2022-06-22 19:22:03;4.07;106.66
2022-06-22 19:23:04;4.07;106.66
2022-06-22 19:24:04;4.07;106.66
2022-06-22 19:25:05;4.07;106.66
2022-06-22 19:26:06;4.07;106.66
2022-06-22 19:27:02;4.07;106.66
2022-06-22 19:28:02;4.07;106.66
2022-06-22 19:29:03;4.07;106.66
2022-06-22 19:30:04;4.07;106.50
2022-06-22 19:31:04;4.07;106.66
2022-06-22 19:32:05;4.07;106.66
2022-06-22 19:33:06;4.07;106.66
2022-06-22 19:34:02;4.07;106.66
2022-06-22 19:35:02;4.07;106.66
2022-06-22 19:36:03;4.07;106.66
2022-06-22 19:37:04;4.07;106.66
2022-06-22 19:38:04;4.07;106.66
2022-06-22 19:39:05;4.07;106.66
2022-06-22 19:40:05;4.07;106.99
2022-06-22 19:41:02;4.07;106.66
2022-06-22 19:42:02;4.07;106.66
2022-06-22 19:43:03;4.07;106.66
2022-06-22 19:44:03;4.07;106.50
2022-06-22 19:45:04;4.07;106.66
2022-06-22 19:46:05;4.07;106.66
2022-06-22 19:47:05;4.07;106.66
2022-06-22 19:48:06;4.07;106.66
2022-06-22 19:49:02;4.07;106.66
2022-06-22 19:50:03;4.07;106.50
2022-06-22 19:51:03;4.07;106.99
2022-06-22 19:52:04;4.07;106.66
2022-06-22 19:53:05;4.07;106.66
2022-06-22 19:54:05;4.07;106.66
2022-06-22 19:55:02;4.07;106.50
2022-06-22 19:56:02;4.07;106.66
2022-06-22 19:57:03;4.07;106.50
2022-06-22 19:58:03;4.07;106.66
2022-06-22 19:59:04;4.07;106.66
2022-06-22 20:00:05;4.07;106.66
2022-06-22 20:01:05;4.07;106.66
2022-06-22 20:02:06;4.07;106.66
2022-06-22 20:03:02;4.07;106.66
2022-06-22 20:04:03;4.07;106.99
2022-06-22 20:05:03;4.07;106.66
2022-06-22 20:06:04;4.07;106.66
2022-06-22 20:07:04;4.07;106.66
2022-06-22 20:08:05;4.07;106.66
2022-06-22 20:09:06;4.07;106.66
2022-06-22 20:10:02;4.07;106.66
2022-06-22 20:11:02;4.07;106.66
2022-06-22 20:12:03;4.07;106.66
2022-06-22 20:13:03;4.07;106.66
2022-06-22 20:14:04;4.07;106.66
2022-06-22 20:15:05;4.07;106.66
2022-06-22 20:16:05;4.07;106.66
2022-06-22 20:17:06;4.07;106.66
2022-06-22 20:18:02;4.07;106.66
2022-06-22 20:19:02;4.07;106.66
2022-06-22 20:20:03;4.07;106.66
2022-06-22 20:21:04;4.07;106.50
2022-06-22 20:22:04;4.07;106.66
2022-06-22 20:23:05;4.07;106.66
2022-06-22 20:24:05;4.07;106.66
2022-06-22 20:25:02;4.07;106.66
2022-06-22 20:26:02;4.07;106.66
2022-06-22 20:27:03;4.07;106.66
2022-06-22 20:28:03;4.07;106.66
2022-06-22 20:29:04;4.07;106.66
2022-06-22 20:30:05;4.07;106.66
2022-06-22 20:31:05;4.07;106.66
2022-06-22 20:32:06;4.07;106.66
2022-06-22 20:33:02;4.07;106.66
2022-06-22 20:34:02;4.07;106.66
2022-06-22 20:35:03;4.07;106.66
2022-06-22 20:36:04;4.07;106.66
2022-06-22 20:37:04;4.07;106.66
2022-06-22 20:38:05;4.07;106.66
2022-06-22 20:39:05;4.07;106.99
2022-06-22 20:40:02;4.07;106.66
2022-06-22 20:41:02;4.07;106.66
2022-06-22 20:42:03;4.07;106.66
2022-06-22 20:43:03;4.07;106.66
2022-06-22 20:44:04;4.07;106.66
2022-06-22 20:45:05;4.07;106.66
2022-06-22 20:46:05;4.07;106.66
2022-06-22 20:47:06;4.07;106.66
2022-06-22 20:48:02;4.07;106.66
2022-06-22 20:49:03;4.07;106.66
2022-06-22 20:50:03;4.07;106.66
2022-06-22 20:51:04;4.07;106.66
2022-06-22 20:52:04;4.07;106.66
2022-06-22 20:53:05;4.07;106.66
2022-06-22 20:54:06;4.07;106.50
2022-06-22 20:55:02;4.06;106.99
2022-06-22 20:56:02;4.07;106.66
2022-06-22 20:57:03;4.07;106.99
2022-06-22 20:58:04;4.07;106.66
2022-06-22 20:59:04;4.07;106.50
2022-06-22 21:00:05;4.06;106.66
2022-06-22 21:01:05;4.06;106.66
2022-06-22 21:02:01;4.07;106.66
2022-06-22 21:03:02;4.06;106.66
2022-06-22 21:04:03;4.06;106.66
2022-06-22 21:05:03;4.07;106.50
2022-06-22 21:06:04;4.07;106.99
2022-06-22 21:07:05;4.07;106.66
2022-06-22 21:08:05;4.07;106.50
2022-06-22 21:09:06;4.07;106.66
2022-06-22 21:10:02;4.07;106.66
2022-06-22 21:11:02;4.07;106.66
2022-06-22 21:12:03;4.06;106.66
2022-06-22 21:13:04;4.07;106.66
2022-06-22 21:14:04;4.06;106.66
2022-06-22 21:15:05;4.06;106.66
2022-06-22 21:16:06;4.07;106.66
2022-06-22 21:17:02;4.06;106.66
2022-06-22 21:18:02;4.07;106.50
2022-06-22 21:19:03;4.06;106.66
2022-06-22 21:20:04;4.06;106.99
2022-06-22 21:21:04;4.06;106.66
2022-06-22 21:22:05;4.06;106.50
2022-06-22 21:23:06;4.06;106.66
2022-06-22 21:24:02;4.06;106.66
2022-06-22 21:25:02;4.06;106.66
2022-06-22 21:26:03;4.07;106.66
2022-06-22 21:27:04;4.06;106.66
2022-06-22 21:28:04;4.06;106.66
2022-06-22 21:29:05;4.06;106.66
2022-06-22 21:30:05;4.07;106.66
2022-06-22 21:31:01;4.06;106.66
2022-06-22 21:32:02;4.06;106.99
2022-06-22 21:33:03;4.06;106.66
2022-06-22 21:34:03;4.07;106.66
2022-06-22 21:35:04;4.06;106.66
2022-06-22 21:36:04;4.06;106.66
2022-06-22 21:37:05;4.06;106.66
2022-06-22 21:38:06;4.06;106.66
2022-06-22 21:39:02;4.06;106.66
2022-06-22 21:40:02;4.06;106.66
2022-06-22 21:41:03;4.06;106.66
2022-06-22 21:42:03;4.06;106.66
2022-06-22 21:43:04;4.06;106.99
2022-06-22 21:44:05;4.06;106.66
2022-06-22 21:45:05;4.06;106.66
2022-06-22 21:46:06;4.06;106.50
2022-06-22 21:47:02;4.06;106.66
2022-06-22 21:48:02;4.06;106.66
2022-06-22 21:49:03;4.06;106.66
2022-06-22 21:50:04;4.06;106.66
2022-06-22 21:51:04;4.06;106.66
2022-06-22 21:52:05;4.06;106.66
2022-06-22 21:53:05;4.06;106.66
2022-06-22 21:54:01;4.06;106.66
2022-06-22 21:55:02;4.06;106.66
2022-06-22 21:56:03;4.06;106.66
2022-06-22 21:57:03;4.06;106.66
2022-06-22 21:58:04;4.06;106.50
2022-06-22 21:59:04;4.06;106.66
2022-06-22 22:00:05;4.06;106.66
2022-06-22 22:01:06;4.06;106.66
2022-06-22 22:02:02;4.06;106.66
2022-06-22 22:03:02;4.06;106.66
2022-06-22 22:04:03;4.06;106.66
2022-06-22 22:05:03;4.06;106.66
2022-06-22 22:06:04;4.06;106.66
2022-06-22 22:07:05;4.06;106.66
2022-06-22 22:08:05;4.06;106.99
2022-06-22 22:09:06;4.06;106.66
2022-06-22 22:10:02;4.06;106.66
2022-06-22 22:11:03;4.06;106.66
2022-06-22 22:12:03;4.06;106.50
2022-06-22 22:13:04;4.06;106.66
2022-06-22 22:14:04;4.06;106.66
2022-06-22 22:15:05;4.06;106.66
2022-06-22 22:16:06;4.06;106.66
2022-06-22 22:17:02;4.06;106.50
2022-06-22 22:18:02;4.06;106.66
2022-06-22 22:19:03;4.06;106.66
2022-06-22 22:20:03;4.06;106.99
2022-06-22 22:21:04;4.06;106.99
2022-06-22 22:22:05;4.06;106.99
2022-06-22 22:23:05;4.06;106.99
2022-06-22 22:24:06;4.06;106.99
2022-06-22 22:25:02;4.06;106.99
2022-06-22 22:26:03;4.06;106.99
2022-06-22 22:27:03;4.06;106.99
2022-06-22 22:28:04;4.06;106.99
2022-06-22 22:29:04;4.06;106.99
2022-06-22 22:30:05;4.06;106.99
2022-06-22 22:31:06;4.06;106.99
2022-06-22 22:32:02;4.06;106.99
2022-06-22 22:33:02;4.06;106.99
2022-06-22 22:34:03;4.06;106.99
2022-06-22 22:35:04;4.06;106.66
2022-06-22 22:36:04;4.06;106.99
2022-06-22 22:37:05;4.06;106.99
2022-06-22 22:38:05;4.06;106.99
2022-06-22 22:39:01;4.06;106.99
2022-06-22 22:40:02;4.06;106.99
2022-06-22 22:41:03;4.06;106.99
2022-06-22 22:42:03;4.06;106.99
2022-06-22 22:43:04;4.06;106.99
2022-06-22 22:44:05;4.06;106.99
2022-06-22 22:45:05;4.06;107.31
2022-06-22 22:46:06;4.06;106.99
2022-06-22 22:47:02;4.06;106.99
2022-06-22 22:48:03;4.06;106.66
2022-06-22 22:49:03;4.06;106.99
2022-06-22 22:50:04;4.06;106.99
2022-06-22 22:51:04;4.06;106.99
2022-06-22 22:52:05;4.06;106.99
2022-06-22 22:53:06;4.06;106.99
2022-06-22 22:54:02;4.06;107.31
2022-06-22 22:55:03;4.06;106.99
2022-06-22 22:56:03;4.06;107.31
2022-06-22 22:57:04;4.06;106.99
2022-06-22 22:58:04;4.06;106.99
2022-06-22 22:59:05;4.06;106.99
2022-06-22 23:00:05;4.06;106.99
2022-06-22 23:01:01;4.06;106.99
2022-06-22 23:02:02;4.06;106.99
2022-06-22 23:03:03;4.06;106.99
2022-06-22 23:04:03;4.06;106.99
2022-06-22 23:05:04;4.06;106.99
2022-06-22 23:06:04;4.06;106.99
2022-06-22 23:07:05;4.06;107.31
2022-06-22 23:08:06;4.06;106.99
2022-06-22 23:09:02;4.06;106.99
2022-06-22 23:10:02;4.06;106.66
2022-06-22 23:11:03;4.06;106.99
2022-06-22 23:12:03;4.06;106.99
2022-06-22 23:13:04;4.06;106.99
2022-06-22 23:14:05;4.06;106.99
2022-06-22 23:15:05;4.06;106.99
2022-06-22 23:16:06;4.06;106.99
2022-06-22 23:17:02;4.06;106.99
2022-06-22 23:18:02;4.06;106.66
2022-06-22 23:19:03;4.06;106.99
2022-06-22 23:20:04;4.06;106.99
2022-06-22 23:21:04;4.06;106.99
2022-06-22 23:22:05;4.06;106.66
2022-06-22 23:23:05;4.06;106.99
2022-06-22 23:24:01;4.06;106.99
2022-06-22 23:25:02;4.06;106.99
2022-06-22 23:26:03;4.06;106.99
2022-06-22 23:27:03;4.06;106.99
2022-06-22 23:28:04;4.06;106.99
2022-06-22 23:29:04;4.06;106.99
2022-06-22 23:30:05;4.06;106.99
2022-06-22 23:31:06;4.06;106.99
2022-06-22 23:32:02;4.06;106.99
2022-06-22 23:33:02;4.06;107.31
2022-06-22 23:34:03;4.06;106.66
2022-06-22 23:35:03;4.06;106.99
2022-06-22 23:36:04;4.06;106.99
2022-06-22 23:37:05;4.06;106.99
2022-06-22 23:38:05;4.06;107.31
2022-06-22 23:39:06;4.06;106.99
2022-06-22 23:40:02;4.06;106.99
2022-06-22 23:41:03;4.06;106.66
2022-06-22 23:42:03;4.06;106.66
2022-06-22 23:43:04;4.06;106.99
2022-06-22 23:44:04;4.06;106.99
2022-06-22 23:45:05;4.06;106.99
2022-06-22 23:46:06;4.06;106.99
2022-06-22 23:47:02;4.06;106.99
2022-06-22 23:48:02;4.06;106.99
2022-06-22 23:49:03;4.06;106.99
2022-06-22 23:50:03;4.06;106.99
2022-06-22 23:51:04;4.06;106.66
2022-06-22 23:52:05;4.06;106.99
2022-06-22 23:53:05;4.06;106.99
2022-06-22 23:54:06;4.06;106.99
2022-06-22 23:55:02;4.06;106.99
2022-06-22 23:56:03;4.06;106.99
2022-06-22 23:57:03;4.06;106.99
2022-06-22 23:58:04;4.06;106.66
2022-06-22 23:59:04;4.06;107.31
