2022-07-08 00:00:05;3.28;104.89
2022-07-08 00:01:06;3.28;104.89
2022-07-08 00:02:02;3.28;105.05
2022-07-08 00:03:02;3.28;104.89
2022-07-08 00:04:03;3.28;104.89
2022-07-08 00:05:03;3.28;104.89
2022-07-08 00:06:04;3.28;104.89
2022-07-08 00:07:04;3.28;104.89
2022-07-08 00:08:05;3.28;104.89
2022-07-08 00:09:06;3.28;104.89
2022-07-08 00:10:02;3.28;104.89
2022-07-08 00:11:02;3.28;104.89
2022-07-08 00:12:03;3.28;104.89
2022-07-08 00:13:03;3.28;104.89
2022-07-08 00:14:04;3.28;104.89
2022-07-08 00:15:04;3.28;104.89
2022-07-08 00:16:05;3.28;104.89
2022-07-08 00:17:06;3.28;104.57
2022-07-08 00:18:02;3.28;104.57
2022-07-08 00:19:02;3.28;104.57
2022-07-08 00:20:03;3.28;104.57
2022-07-08 00:21:03;3.28;104.57
2022-07-08 00:22:04;3.28;104.57
2022-07-08 00:23:05;3.28;104.57
2022-07-08 00:24:05;3.28;104.57
2022-07-08 00:25:06;3.28;104.25
2022-07-08 00:26:02;3.28;104.57
2022-07-08 00:27:02;3.28;104.57
2022-07-08 00:28:03;3.28;104.57
2022-07-08 00:29:03;3.28;104.57
2022-07-08 00:30:04;3.28;104.57
2022-07-08 00:31:04;3.28;104.57
2022-07-08 00:32:05;3.28;104.57
2022-07-08 00:33:06;3.28;104.57
2022-07-08 00:34:02;3.28;104.57
2022-07-08 00:35:02;3.28;104.57
2022-07-08 00:36:03;3.28;104.57
2022-07-08 00:37:03;3.28;104.57
2022-07-08 00:38:04;3.28;104.57
2022-07-08 00:39:04;3.28;104.57
2022-07-08 00:40:05;3.28;104.57
2022-07-08 00:41:05;3.28;104.57
2022-07-08 00:42:01;3.28;104.57
2022-07-08 00:43:02;3.28;104.89
2022-07-08 00:44:03;3.28;104.89
2022-07-08 00:45:03;3.28;104.89
2022-07-08 00:46:04;3.28;104.89
2022-07-08 00:47:04;3.28;104.89
2022-07-08 00:48:05;3.28;104.57
2022-07-08 00:49:05;3.28;104.89
2022-07-08 00:50:06;3.28;104.89
2022-07-08 00:51:02;3.28;104.89
2022-07-08 00:52:02;3.28;104.89
2022-07-08 00:53:03;3.28;104.89
2022-07-08 00:54:04;3.28;104.89
2022-07-08 00:55:04;3.28;104.89
2022-07-08 00:56:05;3.28;104.89
2022-07-08 00:57:05;3.28;104.57
2022-07-08 00:58:06;3.28;104.57
2022-07-08 00:59:02;3.28;104.89
2022-07-08 01:00:02;3.28;104.89
2022-07-08 01:01:03;3.28;104.89
2022-07-08 01:02:04;3.28;104.89
2022-07-08 01:03:04;3.28;104.89
2022-07-08 01:04:05;3.28;104.89
2022-07-08 01:05:05;3.28;104.89
2022-07-08 01:06:06;3.28;104.89
2022-07-08 01:07:02;3.28;104.89
2022-07-08 01:08:02;3.28;104.57
2022-07-08 01:09:03;3.28;104.89
2022-07-08 01:10:03;3.28;104.89
2022-07-08 01:11:04;3.28;104.89
2022-07-08 01:12:05;3.28;104.89
2022-07-08 01:13:05;3.28;104.89
2022-07-08 01:14:06;3.28;104.89
2022-07-08 01:15:02;3.28;104.57
2022-07-08 01:16:02;3.28;104.89
2022-07-08 01:17:03;3.28;104.89
2022-07-08 01:18:03;3.28;104.89
2022-07-08 01:19:04;3.28;104.89
2022-07-08 01:20:05;3.28;104.89
2022-07-08 01:21:05;3.28;104.57
2022-07-08 01:22:06;3.28;104.57
2022-07-08 01:23:02;3.28;104.89
2022-07-08 01:24:02;3.28;104.89
2022-07-08 01:25:03;3.28;104.89
2022-07-08 01:26:03;3.28;104.89
2022-07-08 01:27:04;3.28;104.57
2022-07-08 01:28:04;3.28;104.89
2022-07-08 01:29:05;3.28;104.89
2022-07-08 01:30:05;3.28;104.89
2022-07-08 01:31:02;3.28;104.57
2022-07-08 01:32:02;3.28;104.89
2022-07-08 01:33:03;3.28;104.89
2022-07-08 01:34:03;3.28;104.89
2022-07-08 01:35:04;3.28;104.57
2022-07-08 01:36:04;3.28;104.89
2022-07-08 01:37:05;3.28;104.57
2022-07-08 01:38:05;3.28;104.89
2022-07-08 01:39:06;3.28;104.89
2022-07-08 01:40:02;3.28;104.57
2022-07-08 01:41:02;3.28;104.57
2022-07-08 01:42:03;3.28;104.89
2022-07-08 01:43:04;3.28;104.57
2022-07-08 01:44:04;3.28;104.89
2022-07-08 01:45:05;3.28;104.57
2022-07-08 01:46:05;3.28;104.89
2022-07-08 01:47:01;3.28;104.57
2022-07-08 01:48:02;3.28;104.57
2022-07-08 01:49:02;3.28;104.89
2022-07-08 01:50:03;3.28;104.89
2022-07-08 01:51:03;3.28;104.89
2022-07-08 01:52:04;3.28;104.89
2022-07-08 01:53:05;3.28;104.89
2022-07-08 01:54:05;3.28;104.89
2022-07-08 01:55:06;3.28;104.89
2022-07-08 01:56:02;3.28;104.89
2022-07-08 01:57:02;3.28;104.89
2022-07-08 01:58:03;3.28;104.57
2022-07-08 01:59:03;3.28;104.57
2022-07-08 02:00:04;3.28;104.57
2022-07-08 02:01:04;3.28;104.57
2022-07-08 02:02:05;3.28;104.57
2022-07-08 02:03:05;3.27;104.89
2022-07-08 02:04:02;3.28;104.89
2022-07-08 02:05:02;3.28;104.89
2022-07-08 02:06:03;3.28;104.57
2022-07-08 02:07:03;3.28;104.57
2022-07-08 02:08:04;3.27;104.57
2022-07-08 02:09:04;3.28;104.89
2022-07-08 02:10:05;3.28;104.57
2022-07-08 02:11:05;3.28;104.57
2022-07-08 02:12:01;3.28;104.89
2022-07-08 02:13:02;3.28;104.57
2022-07-08 02:14:02;3.28;104.57
2022-07-08 02:15:03;3.28;104.57
2022-07-08 02:16:04;3.27;104.57
2022-07-08 02:17:04;3.27;104.57
2022-07-08 02:18:05;3.27;104.89
2022-07-08 02:19:05;3.28;104.57
2022-07-08 02:20:06;3.27;104.57
2022-07-08 02:21:02;3.28;105.05
2022-07-08 02:22:02;3.27;104.89
2022-07-08 02:23:03;3.27;105.05
2022-07-08 02:24:03;3.28;104.89
2022-07-08 02:25:04;3.27;105.05
2022-07-08 02:26:05;3.27;105.05
2022-07-08 02:27:05;3.27;104.89
2022-07-08 02:28:06;3.27;105.05
2022-07-08 02:29:02;3.27;104.89
2022-07-08 02:30:02;3.27;105.05
2022-07-08 02:31:03;3.27;105.05
2022-07-08 02:32:03;3.27;104.89
2022-07-08 02:33:04;3.27;105.05
2022-07-08 02:34:05;3.27;104.89
2022-07-08 02:35:05;3.27;104.89
2022-07-08 02:36:06;3.27;105.05
2022-07-08 02:37:02;3.27;105.05
2022-07-08 02:38:02;3.27;105.05
2022-07-08 02:39:03;3.27;105.05
2022-07-08 02:40:03;3.27;105.05
2022-07-08 02:41:04;3.27;105.05
2022-07-08 02:42:05;3.27;104.89
2022-07-08 02:43:05;3.27;105.05
2022-07-08 02:44:06;3.27;105.05
2022-07-08 02:45:02;3.27;104.89
2022-07-08 02:46:02;3.27;105.05
2022-07-08 02:47:03;3.27;105.05
2022-07-08 02:48:03;3.27;105.05
2022-07-08 02:49:04;3.27;105.05
2022-07-08 02:50:05;3.27;105.05
2022-07-08 02:51:05;3.27;105.05
2022-07-08 02:52:06;3.27;105.05
2022-07-08 02:53:02;3.27;105.05
2022-07-08 02:54:02;3.27;104.89
2022-07-08 02:55:03;3.27;105.05
2022-07-08 02:56:03;3.27;105.05
2022-07-08 02:57:04;3.27;105.05
2022-07-08 02:58:04;3.27;105.05
2022-07-08 02:59:05;3.27;105.05
2022-07-08 03:00:06;3.27;105.05
2022-07-08 03:01:02;3.27;105.37
2022-07-08 03:02:02;3.27;105.05
2022-07-08 03:03:03;3.27;105.05
2022-07-08 03:04:03;3.27;105.05
2022-07-08 03:05:04;3.27;104.89
2022-07-08 03:06:04;3.27;105.05
2022-07-08 03:07:05;3.27;104.89
2022-07-08 03:08:06;3.27;105.05
2022-07-08 03:09:02;3.27;105.05
2022-07-08 03:10:02;3.27;105.05
2022-07-08 03:11:03;3.27;104.89
2022-07-08 03:12:03;3.27;105.05
2022-07-08 03:13:04;3.27;105.05
2022-07-08 03:14:05;3.27;105.37
2022-07-08 03:15:05;3.27;105.05
2022-07-08 03:16:06;3.27;105.05
2022-07-08 03:17:02;3.27;105.37
2022-07-08 03:18:02;3.27;104.89
2022-07-08 03:19:03;3.27;105.37
2022-07-08 03:20:03;3.27;105.05
2022-07-08 03:21:04;3.27;105.05
2022-07-08 03:22:04;3.27;105.37
2022-07-08 03:23:05;3.27;105.05
2022-07-08 03:24:06;3.27;105.37
2022-07-08 03:25:02;3.27;105.37
2022-07-08 03:26:02;3.27;105.05
2022-07-08 03:27:03;3.27;105.05
2022-07-08 03:28:03;3.27;105.37
2022-07-08 03:29:04;3.27;105.37
2022-07-08 03:30:04;3.27;105.37
2022-07-08 03:31:05;3.27;105.05
2022-07-08 03:32:05;3.27;105.37
2022-07-08 03:33:02;3.27;105.37
2022-07-08 03:34:02;3.27;104.89
2022-07-08 03:35:03;3.27;105.37
2022-07-08 03:36:03;3.27;105.37
2022-07-08 03:37:04;3.27;105.37
2022-07-08 03:38:04;3.27;105.37
2022-07-08 03:39:05;3.27;105.37
2022-07-08 03:40:05;3.27;105.37
2022-07-08 03:41:02;3.27;105.37
2022-07-08 03:42:02;3.27;105.05
2022-07-08 03:43:03;3.27;105.37
2022-07-08 03:44:03;3.27;105.37
2022-07-08 03:45:04;3.27;105.37
2022-07-08 03:46:04;3.27;105.05
2022-07-08 03:47:05;3.27;105.05
2022-07-08 03:48:05;3.27;105.05
2022-07-08 03:49:02;3.27;105.37
2022-07-08 03:50:02;3.27;105.37
2022-07-08 03:51:03;3.27;105.37
2022-07-08 03:52:03;3.27;105.37
2022-07-08 03:53:04;3.27;104.89
2022-07-08 03:54:04;3.27;105.37
2022-07-08 03:55:05;3.27;105.37
2022-07-08 03:56:05;3.27;105.05
2022-07-08 03:57:02;3.27;105.37
2022-07-08 03:58:02;3.27;105.37
2022-07-08 03:59:03;3.27;105.37
2022-07-08 04:00:03;3.27;105.37
2022-07-08 04:01:04;3.27;105.05
2022-07-08 04:02:04;3.27;104.89
2022-07-08 04:03:05;3.27;105.37
2022-07-08 04:04:06;3.27;105.05
2022-07-08 04:05:02;3.27;105.37
2022-07-08 04:06:02;3.27;105.37
2022-07-08 04:07:03;3.27;105.05
2022-07-08 04:08:03;3.27;105.05
2022-07-08 04:09:04;3.27;104.89
2022-07-08 04:10:05;3.27;105.05
2022-07-08 04:11:05;3.27;105.05
2022-07-08 04:12:02;3.27;105.05
2022-07-08 04:13:02;3.27;105.37
2022-07-08 04:14:03;3.27;105.05
2022-07-08 04:15:03;3.27;105.37
2022-07-08 04:16:04;3.27;105.37
2022-07-08 04:17:04;3.27;105.37
2022-07-08 04:18:05;3.27;105.37
2022-07-08 04:19:05;3.27;105.37
2022-07-08 04:20:02;3.27;105.37
2022-07-08 04:21:02;3.27;105.37
2022-07-08 04:22:03;3.27;105.37
2022-07-08 04:23:03;3.27;105.37
2022-07-08 04:24:04;3.27;105.37
2022-07-08 04:25:04;3.27;105.05
2022-07-08 04:26:05;3.27;105.37
2022-07-08 04:27:06;3.27;105.37
2022-07-08 04:28:02;3.27;105.37
2022-07-08 04:29:02;3.27;105.05
2022-07-08 04:30:03;3.27;105.37
2022-07-08 04:31:03;3.27;105.37
2022-07-08 04:32:04;3.27;105.37
2022-07-08 04:33:05;3.27;105.70
2022-07-08 04:34:05;3.27;105.37
2022-07-08 04:35:01;3.27;105.37
2022-07-08 04:36:02;3.27;105.37
2022-07-08 04:37:03;3.27;105.37
2022-07-08 04:38:03;3.27;105.70
2022-07-08 04:39:04;3.27;105.37
2022-07-08 04:40:04;3.27;105.70
2022-07-08 04:41:05;3.27;105.70
2022-07-08 04:42:05;3.27;105.37
2022-07-08 04:43:01;3.27;105.37
2022-07-08 04:44:02;3.27;105.70
2022-07-08 04:45:03;3.27;105.70
2022-07-08 04:46:03;3.27;105.37
2022-07-08 04:47:04;3.27;105.05
2022-07-08 04:48:04;3.27;105.37
2022-07-08 04:49:05;3.27;105.70
2022-07-08 04:50:05;3.27;105.70
2022-07-08 04:51:01;3.27;105.05
2022-07-08 04:52:02;3.27;105.70
2022-07-08 04:53:03;3.27;105.70
2022-07-08 04:54:03;3.27;105.37
2022-07-08 04:55:04;3.27;105.37
2022-07-08 04:56:04;3.27;105.37
2022-07-08 04:57:05;3.27;105.37
2022-07-08 04:58:05;3.27;105.37
2022-07-08 04:59:01;3.27;105.37
2022-07-08 05:00:02;3.27;105.37
2022-07-08 05:01:03;3.27;105.37
2022-07-08 05:02:03;3.27;105.37
2022-07-08 05:03:04;3.27;105.70
2022-07-08 05:04:04;3.27;105.37
2022-07-08 05:05:05;3.26;105.37
2022-07-08 05:06:05;3.27;105.37
2022-07-08 05:07:02;3.27;105.37
2022-07-08 05:08:02;3.27;105.37
2022-07-08 05:09:03;3.27;105.37
2022-07-08 05:10:03;3.27;105.37
2022-07-08 05:11:04;3.27;105.37
2022-07-08 05:12:04;3.27;105.37
2022-07-08 05:13:05;3.27;105.37
2022-07-08 05:14:06;3.27;105.70
2022-07-08 05:15:02;3.27;105.37
2022-07-08 05:16:02;3.26;105.05
2022-07-08 05:17:03;3.26;105.05
2022-07-08 05:18:03;3.26;105.05
2022-07-08 05:19:04;3.27;105.05
2022-07-08 05:20:04;3.27;105.05
2022-07-08 05:21:05;3.26;105.05
2022-07-08 05:22:06;3.26;105.05
2022-07-08 05:23:02;3.26;105.05
2022-07-08 05:24:02;3.27;105.05
2022-07-08 05:25:03;3.27;105.05
2022-07-08 05:26:03;3.27;104.89
2022-07-08 05:27:04;3.27;104.89
2022-07-08 05:28:05;3.26;105.05
2022-07-08 05:29:05;3.26;105.05
2022-07-08 05:30:06;3.26;104.89
2022-07-08 05:31:02;3.26;105.37
2022-07-08 05:32:02;3.26;105.37
2022-07-08 05:33:03;3.26;105.37
2022-07-08 05:34:04;3.26;105.05
2022-07-08 05:35:04;3.27;105.37
2022-07-08 05:36:05;3.26;105.05
2022-07-08 05:37:05;3.26;105.05
2022-07-08 05:38:06;3.26;105.37
2022-07-08 05:39:02;3.26;105.37
2022-07-08 05:40:03;3.26;105.05
2022-07-08 05:41:03;3.26;105.05
2022-07-08 05:42:04;3.26;105.37
2022-07-08 05:43:04;3.26;105.37
2022-07-08 05:44:05;3.26;105.05
2022-07-08 05:45:06;3.26;105.37
2022-07-08 05:46:02;3.26;105.37
2022-07-08 05:47:02;3.26;105.37
2022-07-08 05:48:03;3.26;105.05
2022-07-08 05:49:03;3.26;105.05
2022-07-08 05:50:04;3.26;105.37
2022-07-08 05:51:04;3.26;104.89
2022-07-08 05:52:05;3.26;104.89
2022-07-08 05:53:06;3.26;105.05
2022-07-08 05:54:02;3.26;105.05
2022-07-08 05:55:02;3.26;105.05
2022-07-08 05:56:03;3.26;104.89
2022-07-08 05:57:03;3.26;105.05
2022-07-08 05:58:04;3.26;105.05
2022-07-08 05:59:05;3.26;105.05
2022-07-08 06:00:05;3.26;104.89
2022-07-08 06:01:06;3.26;105.05
2022-07-08 06:02:02;3.26;105.05
2022-07-08 06:03:02;3.26;104.89
2022-07-08 06:04:03;3.26;105.05
2022-07-08 06:05:03;3.26;105.05
2022-07-08 06:06:04;3.26;105.05
2022-07-08 06:07:04;3.26;104.89
2022-07-08 06:08:05;3.26;104.89
2022-07-08 06:09:05;3.26;105.05
2022-07-08 06:10:02;3.26;104.89
2022-07-08 06:11:02;3.26;105.37
2022-07-08 06:12:03;3.26;105.05
2022-07-08 06:13:03;3.26;105.37
2022-07-08 06:14:04;3.26;105.37
2022-07-08 06:15:04;3.26;105.05
2022-07-08 06:16:05;3.26;105.05
2022-07-08 06:17:05;3.26;105.05
2022-07-08 06:18:01;3.26;105.05
2022-07-08 06:19:02;3.26;105.05
2022-07-08 06:20:03;3.26;104.89
2022-07-08 06:21:03;3.26;105.05
2022-07-08 06:22:04;3.26;105.05
2022-07-08 06:23:04;3.26;105.05
2022-07-08 06:24:05;3.26;105.05
2022-07-08 06:25:05;3.26;105.05
2022-07-08 06:26:06;3.26;105.05
2022-07-08 06:27:02;3.26;105.37
2022-07-08 06:28:02;3.26;105.37
2022-07-08 06:29:03;3.26;105.37
2022-07-08 06:30:04;3.26;105.05
2022-07-08 06:31:04;3.26;105.05
2022-07-08 06:32:05;3.26;105.37
2022-07-08 06:33:05;3.26;105.05
2022-07-08 06:34:06;3.26;105.05
2022-07-08 06:35:02;3.26;105.05
2022-07-08 06:36:02;3.26;105.05
2022-07-08 06:37:03;3.26;105.05
2022-07-08 06:38:03;3.26;105.05
2022-07-08 06:39:04;3.26;105.05
2022-07-08 06:40:05;3.26;104.89
2022-07-08 06:41:05;3.26;104.89
2022-07-08 06:42:06;3.26;105.37
2022-07-08 06:43:02;3.26;105.05
2022-07-08 06:44:02;3.26;105.05
2022-07-08 06:45:03;3.26;105.05
2022-07-08 06:46:03;3.26;105.37
2022-07-08 06:47:04;3.26;105.05
2022-07-08 06:48:04;3.26;105.05
2022-07-08 06:49:05;3.26;105.37
2022-07-08 06:50:06;3.26;105.37
2022-07-08 06:51:02;3.26;105.05
2022-07-08 06:52:02;3.26;105.05
2022-07-08 06:53:03;3.26;105.37
2022-07-08 06:54:03;3.26;105.37
2022-07-08 06:55:04;3.26;105.05
2022-07-08 06:56:04;3.26;105.05
2022-07-08 06:57:05;3.26;105.05
2022-07-08 06:58:06;3.26;105.05
2022-07-08 06:59:02;3.26;104.89
2022-07-08 07:00:02;3.26;105.05
2022-07-08 07:01:03;3.26;105.05
2022-07-08 07:02:03;3.26;105.05
2022-07-08 07:03:04;3.26;105.05
2022-07-08 07:04:05;3.26;105.37
2022-07-08 07:05:05;3.26;105.05
2022-07-08 07:06:06;3.26;105.37
2022-07-08 07:07:02;3.26;104.89
2022-07-08 07:08:02;3.26;105.05
2022-07-08 07:09:03;3.26;105.05
2022-07-08 07:10:03;3.26;105.05
2022-07-08 07:11:04;3.26;105.05
2022-07-08 07:12:05;3.26;105.05
2022-07-08 07:13:05;3.26;105.37
2022-07-08 07:14:01;3.26;105.37
2022-07-08 07:15:02;3.26;105.37
2022-07-08 07:16:02;3.26;105.37
2022-07-08 07:17:03;3.26;105.05
2022-07-08 07:18:04;3.26;105.05
2022-07-08 07:19:04;3.26;105.37
2022-07-08 07:20:05;3.26;105.05
2022-07-08 07:21:05;3.26;105.05
2022-07-08 07:22:06;3.26;105.05
2022-07-08 07:23:02;3.26;105.05
2022-07-08 07:24:03;3.26;105.05
2022-07-08 07:25:03;3.26;104.89
2022-07-08 07:26:04;3.26;105.05
2022-07-08 07:27:04;3.26;104.57
2022-07-08 07:28:05;3.26;105.05
2022-07-08 07:29:05;3.26;105.05
2022-07-08 07:30:06;3.26;105.05
2022-07-08 07:31:02;3.26;104.89
2022-07-08 07:32:02;3.26;105.05
2022-07-08 07:33:03;3.26;105.05
2022-07-08 07:34:03;3.26;105.05
2022-07-08 07:35:04;3.26;104.89
2022-07-08 07:36:05;3.26;104.89
2022-07-08 07:37:05;3.26;105.05
2022-07-08 07:38:06;3.26;104.89
2022-07-08 07:39:02;3.26;105.05
2022-07-08 07:40:02;3.26;105.05
2022-07-08 07:41:03;3.26;105.05
2022-07-08 07:42:03;3.26;105.05
2022-07-08 07:43:04;3.26;105.05
2022-07-08 07:44:04;3.26;105.37
2022-07-08 07:45:05;3.26;105.05
2022-07-08 07:46:05;3.26;105.05
2022-07-08 07:47:02;3.26;105.05
2022-07-08 07:48:02;3.26;105.37
2022-07-08 07:49:03;3.26;105.05
2022-07-08 07:50:03;3.26;105.37
2022-07-08 07:51:04;3.26;105.05
2022-07-08 07:52:04;3.26;105.37
2022-07-08 07:53:05;3.26;105.05
2022-07-08 07:54:05;3.26;105.37
2022-07-08 07:55:01;3.26;104.89
2022-07-08 07:56:02;3.25;105.05
2022-07-08 07:57:03;3.26;105.05
2022-07-08 07:58:03;3.25;105.05
2022-07-08 07:59:04;3.26;105.05
2022-07-08 08:00:04;3.26;105.05
2022-07-08 08:01:05;3.26;105.05
2022-07-08 08:02:05;3.25;105.05
2022-07-08 08:03:06;3.26;105.05
2022-07-08 08:04:02;3.26;105.05
2022-07-08 08:05:02;3.25;105.05
2022-07-08 08:06:03;3.26;104.89
2022-07-08 08:07:04;3.25;105.37
2022-07-08 08:08:04;3.25;105.37
2022-07-08 08:09:05;3.25;105.05
2022-07-08 08:10:05;3.26;105.37
2022-07-08 08:11:06;3.25;105.37
2022-07-08 08:12:02;3.25;105.70
2022-07-08 08:13:02;3.26;105.37
2022-07-08 08:14:03;3.25;105.37
2022-07-08 08:15:04;3.25;105.37
2022-07-08 08:16:04;3.25;105.05
2022-07-08 08:17:05;3.25;105.70
2022-07-08 08:18:05;3.25;105.05
2022-07-08 08:19:06;3.25;105.70
2022-07-08 08:20:02;3.25;105.37
2022-07-08 08:21:02;3.25;105.70
2022-07-08 08:22:03;3.25;105.70
2022-07-08 08:23:04;3.25;105.37
2022-07-08 08:24:04;3.25;105.70
2022-07-08 08:25:05;3.25;105.37
2022-07-08 08:26:05;3.25;105.37
2022-07-08 08:27:06;3.25;105.37
2022-07-08 08:28:02;3.25;105.37
2022-07-08 08:29:03;3.25;105.37
2022-07-08 08:30:03;3.25;105.05
2022-07-08 08:31:04;3.25;105.37
2022-07-08 08:32:04;3.25;105.37
2022-07-08 08:33:05;3.25;105.70
2022-07-08 08:34:05;3.25;105.37
2022-07-08 08:35:02;3.25;105.37
2022-07-08 08:36:02;3.25;105.37
2022-07-08 08:37:03;3.25;105.05
2022-07-08 08:38:03;3.25;105.70
2022-07-08 08:39:04;3.25;105.37
2022-07-08 08:40:04;3.25;105.37
2022-07-08 08:41:05;3.25;105.37
2022-07-08 08:42:06;3.25;105.37
2022-07-08 08:43:02;3.25;105.37
2022-07-08 08:44:03;3.25;105.37
2022-07-08 08:45:03;3.25;105.37
2022-07-08 08:46:04;3.25;105.37
2022-07-08 08:47:04;3.25;105.05
2022-07-08 08:48:05;3.25;105.37
2022-07-08 08:49:06;3.25;105.05
2022-07-08 08:50:02;3.25;105.37
2022-07-08 08:51:02;3.25;105.05
2022-07-08 08:52:03;3.25;105.05
2022-07-08 08:53:03;3.25;105.37
2022-07-08 08:54:04;3.25;105.37
2022-07-08 08:55:04;3.25;105.37
2022-07-08 08:56:05;3.25;105.05
2022-07-08 08:57:06;3.25;105.05
2022-07-08 08:58:02;3.25;105.37
2022-07-08 08:59:02;3.25;105.37
2022-07-08 09:00:03;3.25;105.37
2022-07-08 09:01:03;3.25;105.05
2022-07-08 09:02:04;3.25;105.37
2022-07-08 09:03:05;3.25;105.37
2022-07-08 09:04:05;3.25;105.37
2022-07-08 09:05:06;3.25;105.37
2022-07-08 09:06:02;3.25;105.37
2022-07-08 09:07:02;3.25;105.37
2022-07-08 09:08:03;3.25;105.05
2022-07-08 09:09:04;3.25;105.37
2022-07-08 09:10:04;3.25;105.37
2022-07-08 09:11:05;3.25;105.37
2022-07-08 09:12:05;3.25;105.37
2022-07-08 09:13:06;3.25;105.37
2022-07-08 09:14:02;3.25;105.37
2022-07-08 09:15:03;3.26;105.37
2022-07-08 09:16:03;3.26;105.37
2022-07-08 09:17:04;3.26;105.05
2022-07-08 09:18:04;3.26;105.37
2022-07-08 09:19:05;3.26;105.70
2022-07-08 09:20:06;3.26;105.37
2022-07-08 09:21:02;3.26;105.37
2022-07-08 09:22:02;3.26;105.37
2022-07-08 09:23:03;3.26;105.37
2022-07-08 09:24:04;3.26;105.37
2022-07-08 09:25:04;3.26;105.37
2022-07-08 09:26:05;3.26;105.70
2022-07-08 09:27:05;3.26;105.37
2022-07-08 09:28:01;3.26;105.70
2022-07-08 09:29:02;3.26;105.37
2022-07-08 09:30:03;3.26;105.70
2022-07-08 09:31:03;3.26;105.70
2022-07-08 09:32:04;3.26;105.37
2022-07-08 09:33:05;3.26;105.37
2022-07-08 09:34:05;3.26;105.37
2022-07-08 09:35:06;3.26;105.37
2022-07-08 09:36:02;3.26;105.70
2022-07-08 09:37:03;3.26;105.70
2022-07-08 09:38:03;3.26;105.70
2022-07-08 09:39:04;3.25;105.86
2022-07-08 09:40:04;3.25;105.70
2022-07-08 09:41:05;3.26;105.70
2022-07-08 09:42:06;3.26;105.70
2022-07-08 09:43:02;3.26;105.70
2022-07-08 09:44:03;3.26;105.37
2022-07-08 09:45:03;3.26;105.86
2022-07-08 09:46:04;3.26;105.86
2022-07-08 09:47:04;3.26;105.86
2022-07-08 09:48:05;3.26;105.86
2022-07-08 09:49:06;3.26;105.86
2022-07-08 09:50:02;3.26;105.86
2022-07-08 09:51:03;3.26;105.86
2022-07-08 09:52:03;3.26;105.86
2022-07-08 09:53:04;3.26;105.86
2022-07-08 09:54:04;3.26;105.86
2022-07-08 09:55:05;3.26;105.70
2022-07-08 09:56:06;3.26;105.86
2022-07-08 09:57:02;3.26;105.86
2022-07-08 09:58:03;3.26;106.18
2022-07-08 09:59:03;3.26;106.18
2022-07-08 10:00:04;3.26;106.18
2022-07-08 10:01:05;3.26;106.18
2022-07-08 10:02:05;3.26;106.18
2022-07-08 10:03:06;3.26;106.18
2022-07-08 10:04:02;3.26;106.18
2022-07-08 10:05:03;3.26;106.18
2022-07-08 10:06:03;3.25;106.18
2022-07-08 10:07:04;3.25;106.18
2022-07-08 10:08:05;3.26;106.18
2022-07-08 10:09:05;3.26;106.18
2022-07-08 10:10:02;3.26;106.50
2022-07-08 10:11:02;3.26;106.50
2022-07-08 10:12:03;3.26;106.50
2022-07-08 10:13:04;3.26;106.50
2022-07-08 10:14:04;3.26;106.18
2022-07-08 10:15:05;3.26;106.18
2022-07-08 10:16:06;3.26;106.50
2022-07-08 10:17:02;3.26;106.50
2022-07-08 10:18:03;3.26;106.50
2022-07-08 10:19:03;3.26;106.50
2022-07-08 10:20:04;3.26;106.66
2022-07-08 10:21:05;3.26;106.50
2022-07-08 10:22:05;3.26;106.18
2022-07-08 10:23:06;3.26;106.50
2022-07-08 10:24:02;3.26;106.50
2022-07-08 10:25:03;3.26;106.18
2022-07-08 10:26:03;3.26;106.18
2022-07-08 10:27:04;3.26;106.18
2022-07-08 10:28:05;3.26;106.18
2022-07-08 10:29:05;3.26;106.50
2022-07-08 10:30:02;3.26;106.50
2022-07-08 10:31:02;3.26;106.50
2022-07-08 10:32:03;3.26;106.18
2022-07-08 10:33:04;3.26;106.50
2022-07-08 10:34:04;3.26;106.50
2022-07-08 10:35:05;3.26;106.50
2022-07-08 10:36:06;3.26;106.50
2022-07-08 10:37:02;3.26;106.50
2022-07-08 10:38:02;3.26;106.50
2022-07-08 10:39:03;3.26;106.50
2022-07-08 10:40:04;3.26;106.50
2022-07-08 10:41:04;3.26;106.50
2022-07-08 10:42:05;3.26;106.50
2022-07-08 10:43:06;3.26;106.50
2022-07-08 10:44:02;3.26;106.50
2022-07-08 10:45:03;3.26;106.50
2022-07-08 10:46:03;3.26;106.66
2022-07-08 10:47:04;3.26;106.18
2022-07-08 10:48:05;3.26;106.66
2022-07-08 10:49:06;3.27;106.66
2022-07-08 10:50:02;3.27;106.66
2022-07-08 10:51:02;3.27;106.66
2022-07-08 10:52:03;3.27;106.66
2022-07-08 10:53:04;3.27;106.50
2022-07-08 10:54:05;3.27;106.66
2022-07-08 10:55:05;3.27;106.50
2022-07-08 10:56:06;3.27;106.50
2022-07-08 10:57:02;3.27;106.66
2022-07-08 10:58:03;3.27;106.66
2022-07-08 10:59:04;3.27;106.50
2022-07-08 11:00:04;3.27;106.50
2022-07-08 11:01:05;3.27;106.50
2022-07-08 11:02:06;3.27;106.50
2022-07-08 11:03:02;3.27;106.66
2022-07-08 11:04:03;3.27;106.50
2022-07-08 11:05:03;3.27;106.50
2022-07-08 11:06:04;3.27;106.50
2022-07-08 11:07:05;3.27;106.66
2022-07-08 11:08:06;3.27;106.66
2022-07-08 11:09:02;3.27;106.50
2022-07-08 11:10:03;3.27;106.66
2022-07-08 11:11:03;3.27;106.99
2022-07-08 11:12:04;3.27;106.66
2022-07-08 11:13:05;3.27;106.99
2022-07-08 11:14:06;3.27;106.99
2022-07-08 11:15:02;3.27;106.99
2022-07-08 11:16:03;3.27;106.66
2022-07-08 11:17:03;3.27;106.66
2022-07-08 11:18:04;3.27;106.66
2022-07-08 11:19:05;3.27;106.66
2022-07-08 11:20:06;3.27;106.66
2022-07-08 11:21:02;3.27;106.66
2022-07-08 11:22:02;3.27;106.66
2022-07-08 11:23:03;3.27;106.66
2022-07-08 11:24:04;3.27;106.66
2022-07-08 11:25:05;3.27;106.99
2022-07-08 11:26:05;3.27;106.66
2022-07-08 11:27:02;3.27;106.99
2022-07-08 11:28:02;3.27;106.99
2022-07-08 11:29:03;3.27;106.50
2022-07-08 11:30:04;3.28;106.99
2022-07-08 11:31:05;3.28;106.66
2022-07-08 11:32:05;3.29;106.99
2022-07-08 11:33:02;3.29;106.99
2022-07-08 11:34:02;3.30;106.99
2022-07-08 11:35:03;3.30;106.66
2022-07-08 11:36:04;3.30;106.99
2022-07-08 11:37:05;3.31;106.99
2022-07-08 11:38:06;3.31;106.99
2022-07-08 11:39:02;3.32;106.99
2022-07-08 11:40:03;3.33;106.66
2022-07-08 11:41:03;3.34;106.99
2022-07-08 11:42:04;3.34;106.99
2022-07-08 11:43:05;3.34;106.99
2022-07-08 11:44:06;3.34;106.99
2022-07-08 11:45:02;3.34;106.99
2022-07-08 11:46:03;3.34;106.66
2022-07-08 11:47:03;3.33;106.99
2022-07-08 11:48:04;3.33;106.99
2022-07-08 11:49:05;3.33;106.99
2022-07-08 11:50:06;3.31;106.99
2022-07-08 11:51:02;3.32;106.99
2022-07-08 11:52:03;3.34;106.66
2022-07-08 11:53:03;3.35;106.99
2022-07-08 11:54:04;3.34;106.99
2022-07-08 11:55:05;3.33;106.66
2022-07-08 11:56:06;3.32;106.66
2022-07-08 11:57:02;3.31;106.66
2022-07-08 11:58:03;3.31;106.66
2022-07-08 11:59:04;3.32;106.66
2022-07-08 12:00:04;3.31;106.50
2022-07-08 12:01:05;3.31;106.99
2022-07-08 12:02:06;3.32;106.66
2022-07-08 12:03:02;3.32;106.66
2022-07-08 12:04:03;3.31;106.99
2022-07-08 12:05:04;3.31;106.66
2022-07-08 12:06:05;3.31;106.66
2022-07-08 12:07:06;3.31;106.66
2022-07-08 12:08:02;3.31;106.99
2022-07-08 12:09:03;3.31;106.99
2022-07-08 12:10:03;3.31;106.99
2022-07-08 12:11:04;3.31;106.99
2022-07-08 12:12:05;3.30;106.66
2022-07-08 12:13:06;3.30;106.99
2022-07-08 12:14:02;3.30;106.99
2022-07-08 12:15:03;3.31;106.66
2022-07-08 12:16:04;3.31;106.66
2022-07-08 12:17:05;3.31;106.66
2022-07-08 12:18:05;3.31;106.66
2022-07-08 12:19:02;3.31;106.99
2022-07-08 12:20:02;3.30;106.99
2022-07-08 12:21:03;3.31;106.99
2022-07-08 12:22:04;3.30;106.99
2022-07-08 12:23:05;3.30;106.99
2022-07-08 12:24:06;3.30;106.99
2022-07-08 12:25:02;3.30;107.31
2022-07-08 12:26:03;3.30;107.31
2022-07-08 12:27:03;3.30;107.31
2022-07-08 12:28:04;3.30;106.99
2022-07-08 12:29:05;3.30;106.99
2022-07-08 12:30:06;3.30;106.66
2022-07-08 12:31:02;3.30;106.99
2022-07-08 12:32:03;3.30;106.99
2022-07-08 12:33:04;3.30;106.99
2022-07-08 12:34:04;3.31;107.31
2022-07-08 12:35:05;3.31;107.31
2022-07-08 12:36:06;3.31;107.31
2022-07-08 12:37:02;3.31;106.66
2022-07-08 12:38:03;3.31;107.31
2022-07-08 12:39:04;3.31;107.31
2022-07-08 12:40:05;3.31;107.31
2022-07-08 12:41:06;3.31;107.31
2022-07-08 12:42:02;3.31;107.31
2022-07-08 12:43:03;3.31;107.31
2022-07-08 12:44:03;3.31;107.31
2022-07-08 12:45:04;3.31;107.31
2022-07-08 12:46:05;3.31;107.31
2022-07-08 12:47:06;3.32;107.31
2022-07-08 12:48:02;3.31;106.99
2022-07-08 12:49:03;3.31;107.31
2022-07-08 12:50:04;3.31;107.31
2022-07-08 12:51:05;3.32;107.31
2022-07-08 12:52:05;3.32;107.31
2022-07-08 12:53:02;3.32;107.31
2022-07-08 12:54:03;3.32;107.31
2022-07-08 12:55:03;3.32;107.31
2022-07-08 12:56:04;3.33;106.66
2022-07-08 12:57:05;3.33;106.99
2022-07-08 12:58:06;3.34;106.66
2022-07-08 12:59:02;3.34;106.99
2022-07-08 13:00:03;3.34;106.99
2022-07-08 13:01:04;3.33;106.99
2022-07-08 13:02:05;3.33;106.99
2022-07-08 13:03:06;3.33;106.99
2022-07-08 13:04:02;3.33;106.66
2022-07-08 13:05:03;3.33;106.99
2022-07-08 13:06:04;3.33;106.99
2022-07-08 13:07:05;3.33;106.99
2022-07-08 13:08:06;3.33;107.31
2022-07-08 13:09:02;3.33;106.99
2022-07-08 13:10:03;3.32;106.99
2022-07-08 13:11:04;3.32;106.99
2022-07-08 13:12:05;3.32;106.99
2022-07-08 13:13:06;3.32;107.31
2022-07-08 13:14:02;3.31;106.99
2022-07-08 13:15:03;3.31;106.99
2022-07-08 13:16:04;3.31;106.66
2022-07-08 13:17:04;3.32;106.99
2022-07-08 13:18:05;3.32;107.31
2022-07-08 13:19:06;3.32;106.99
2022-07-08 13:20:02;3.32;106.99
2022-07-08 13:21:03;3.32;106.99
2022-07-08 13:22:04;3.31;106.99
2022-07-08 13:23:05;3.32;106.99
2022-07-08 13:24:06;3.32;107.31
2022-07-08 13:25:02;3.32;107.31
2022-07-08 13:26:03;3.31;107.31
2022-07-08 13:27:04;3.32;107.31
2022-07-08 13:28:04;3.32;107.31
2022-07-08 13:29:05;3.32;107.31
2022-07-08 13:30:06;3.32;107.31
2022-07-08 13:31:02;3.32;107.31
2022-07-08 13:32:03;3.32;107.31
2022-07-08 13:33:04;3.31;107.31
2022-07-08 13:34:05;3.32;107.31
2022-07-08 13:35:06;3.32;107.31
2022-07-08 13:36:02;3.32;107.31
2022-07-08 13:37:03;3.32;107.31
2022-07-08 13:38:04;3.32;107.31
2022-07-08 13:39:04;3.32;107.47
2022-07-08 13:40:05;3.32;107.31
2022-07-08 13:41:06;3.32;107.31
2022-07-08 13:42:02;3.32;107.31
2022-07-08 13:43:03;3.32;107.31
2022-07-08 13:44:04;3.31;107.31
2022-07-08 13:45:05;3.32;107.31
2022-07-08 13:46:06;3.32;107.31
2022-07-08 13:47:02;3.31;107.31
2022-07-08 13:48:03;3.32;106.99
2022-07-08 13:49:04;3.32;106.99
2022-07-08 13:50:04;3.32;106.99
2022-07-08 13:51:05;3.32;106.99
2022-07-08 13:52:06;3.32;106.99
2022-07-08 13:53:02;3.31;106.99
2022-07-08 13:54:03;3.32;106.99
2022-07-08 13:55:04;3.32;106.99
2022-07-08 13:56:05;3.32;106.66
2022-07-08 13:57:06;3.31;106.66
2022-07-08 13:58:02;3.31;106.99
2022-07-08 13:59:03;3.31;106.99
2022-07-08 14:00:04;3.31;106.99
2022-07-08 14:01:05;3.31;106.99
2022-07-08 14:02:06;3.31;106.99
2022-07-08 14:03:02;3.31;107.31
2022-07-08 14:04:03;3.31;106.99
2022-07-08 14:05:04;3.31;106.99
2022-07-08 14:06:05;3.31;106.99
2022-07-08 14:07:05;3.31;106.99
2022-07-08 14:08:02;3.31;106.99
2022-07-08 14:09:03;3.31;106.66
2022-07-08 14:10:04;3.31;106.99
2022-07-08 14:11:04;3.31;106.99
2022-07-08 14:12:05;3.31;106.99
2022-07-08 14:13:02;3.31;106.66
2022-07-08 14:14:03;3.31;106.99
2022-07-08 14:15:03;3.31;106.99
2022-07-08 14:16:04;3.31;106.99
2022-07-08 14:17:05;3.31;106.99
2022-07-08 14:18:06;3.31;106.99
2022-07-08 14:19:02;3.31;106.99
2022-07-08 14:20:03;3.31;106.66
2022-07-08 14:21:04;3.31;106.99
2022-07-08 14:22:05;3.31;106.99
2022-07-08 14:23:06;3.31;106.99
2022-07-08 14:24:02;3.31;106.99
2022-07-08 14:25:03;3.31;106.66
2022-07-08 14:26:04;3.31;107.31
2022-07-08 14:27:05;3.31;106.99
2022-07-08 14:28:06;3.31;106.99
2022-07-08 14:29:02;3.31;107.31
2022-07-08 14:30:03;3.31;107.31
2022-07-08 14:31:04;3.31;106.99
2022-07-08 14:32:05;3.31;107.31
2022-07-08 14:33:06;3.31;106.99
2022-07-08 14:34:02;3.31;106.99
2022-07-08 14:35:03;3.31;106.99
2022-07-08 14:36:04;3.31;106.99
2022-07-08 14:37:04;3.31;107.31
2022-07-08 14:38:05;3.31;107.31
2022-07-08 14:39:02;3.31;107.31
2022-07-08 14:40:03;3.31;107.31
2022-07-08 14:41:03;3.31;107.31
2022-07-08 14:42:04;3.31;107.47
2022-07-08 14:43:05;3.31;107.31
2022-07-08 14:44:06;3.31;107.31
2022-07-08 14:45:02;3.31;107.31
2022-07-08 14:46:03;3.31;107.31
2022-07-08 14:47:04;3.31;107.31
2022-07-08 14:48:05;3.31;107.47
2022-07-08 14:49:06;3.31;107.31
2022-07-08 14:50:02;3.31;107.31
2022-07-08 14:51:03;3.31;107.47
2022-07-08 14:52:04;3.31;107.31
2022-07-08 14:53:04;3.31;107.31
2022-07-08 14:54:05;3.31;107.31
2022-07-08 14:55:02;3.31;107.31
2022-07-08 14:56:02;3.31;107.31
2022-07-08 14:57:03;3.31;107.31
2022-07-08 14:58:04;3.31;107.31
2022-07-08 14:59:05;3.31;107.31
2022-07-08 15:00:06;3.31;106.99
2022-07-08 15:01:02;3.31;107.31
2022-07-08 15:02:03;3.31;106.99
2022-07-08 15:03:04;3.31;106.99
2022-07-08 15:04:05;3.31;106.99
2022-07-08 15:05:05;3.31;106.99
2022-07-08 15:06:02;3.31;106.99
2022-07-08 15:07:03;3.31;106.99
2022-07-08 15:08:03;3.31;106.99
2022-07-08 15:09:04;3.31;106.99
2022-07-08 15:10:05;3.31;106.99
2022-07-08 15:11:06;3.31;106.99
2022-07-08 15:12:02;3.31;106.99
2022-07-08 15:13:03;3.31;106.99
2022-07-08 15:14:04;3.31;106.99
2022-07-08 15:15:05;3.30;106.99
2022-07-08 15:16:06;3.30;106.99
2022-07-08 15:17:02;3.31;106.99
2022-07-08 15:18:03;3.31;106.99
2022-07-08 15:19:04;3.30;106.99
2022-07-08 15:20:04;3.31;106.99
2022-07-08 15:21:05;3.31;106.99
2022-07-08 15:22:02;3.31;106.99
2022-07-08 15:23:02;3.31;106.99
2022-07-08 15:24:03;3.31;107.31
2022-07-08 15:25:04;3.31;106.99
2022-07-08 15:26:05;3.31;107.31
2022-07-08 15:27:06;3.31;106.99
2022-07-08 15:28:02;3.31;106.99
2022-07-08 15:29:03;3.31;106.99
2022-07-08 15:30:04;3.31;106.99
2022-07-08 15:31:05;3.31;106.99
2022-07-08 15:32:06;3.31;106.99
2022-07-08 15:33:02;3.31;106.99
2022-07-08 15:34:03;3.31;106.99
2022-07-08 15:35:04;3.31;106.99
2022-07-08 15:36:04;3.30;106.99
2022-07-08 15:37:05;3.31;106.99
2022-07-08 15:38:02;3.30;106.99
2022-07-08 15:39:02;3.31;106.99
2022-07-08 15:40:03;3.30;106.99
2022-07-08 15:41:04;3.31;106.99
2022-07-08 15:42:05;3.30;106.99
2022-07-08 15:43:06;3.30;106.99
2022-07-08 15:44:02;3.30;106.99
2022-07-08 15:45:03;3.30;106.99
2022-07-08 15:46:04;3.30;106.99
2022-07-08 15:47:05;3.30;106.99
2022-07-08 15:48:06;3.30;106.99
2022-07-08 15:49:02;3.30;106.99
2022-07-08 15:50:03;3.30;106.99
2022-07-08 15:51:04;3.30;106.99
2022-07-08 15:52:05;3.30;106.99
2022-07-08 15:53:05;3.30;106.99
2022-07-08 15:54:02;3.30;106.99
2022-07-08 15:55:03;3.31;106.99
2022-07-08 15:56:03;3.30;106.99
2022-07-08 15:57:04;3.31;106.99
2022-07-08 15:58:05;3.31;106.99
2022-07-08 15:59:06;3.31;106.99
2022-07-08 16:00:02;3.31;106.99
2022-07-08 16:01:03;3.31;107.31
2022-07-08 16:02:04;3.31;106.99
2022-07-08 16:03:05;3.31;107.31
2022-07-08 16:04:06;3.31;106.99
2022-07-08 16:05:02;3.30;106.99
2022-07-08 16:06:03;3.31;107.31
2022-07-08 16:07:04;3.30;107.31
2022-07-08 16:08:05;3.30;106.99
2022-07-08 16:09:05;3.30;106.99
2022-07-08 16:10:02;3.30;106.99
2022-07-08 16:11:03;3.30;106.99
2022-07-08 16:12:04;3.30;106.99
2022-07-08 16:13:04;3.30;106.99
2022-07-08 16:14:05;3.30;106.99
2022-07-08 16:15:06;3.30;106.99
2022-07-08 16:16:02;3.30;106.99
2022-07-08 16:17:03;3.30;106.99
2022-07-08 16:18:04;3.30;106.99
2022-07-08 16:19:05;3.30;106.99
2022-07-08 16:20:06;3.30;106.99
2022-07-08 16:21:02;3.30;107.31
2022-07-08 16:22:03;3.30;106.99
2022-07-08 16:23:04;3.30;106.99
2022-07-08 16:24:04;3.30;106.99
2022-07-08 16:25:05;3.30;107.31
2022-07-08 16:26:02;3.30;106.99
2022-07-08 16:27:02;3.30;106.99
2022-07-08 16:28:03;3.30;106.99
2022-07-08 16:29:04;3.30;106.99
2022-07-08 16:30:05;3.30;106.99
2022-07-08 16:31:06;3.30;106.99
2022-07-08 16:32:02;3.30;106.99
2022-07-08 16:33:03;3.30;107.31
2022-07-08 16:34:04;3.30;106.99
2022-07-08 16:35:05;3.30;106.99
2022-07-08 16:36:05;3.30;107.31
2022-07-08 16:37:02;3.30;106.99
2022-07-08 16:38:02;3.30;106.99
2022-07-08 16:39:03;3.30;106.99
2022-07-08 16:40:04;3.30;106.99
2022-07-08 16:41:05;3.30;107.47
2022-07-08 16:42:06;3.30;107.31
2022-07-08 16:43:02;3.30;107.47
2022-07-08 16:44:03;3.30;107.31
2022-07-08 16:45:04;3.30;107.47
2022-07-08 16:46:05;3.30;107.47
2022-07-08 16:47:05;3.30;107.31
2022-07-08 16:48:02;3.30;107.31
2022-07-08 16:49:03;3.30;107.31
2022-07-08 16:50:03;3.30;107.47
2022-07-08 16:51:04;3.30;107.31
2022-07-08 16:52:05;3.30;107.31
2022-07-08 16:53:06;3.30;107.31
2022-07-08 16:54:02;3.30;107.31
2022-07-08 16:55:03;3.30;107.31
2022-07-08 16:56:04;3.30;106.99
2022-07-08 16:57:05;3.30;107.31
2022-07-08 16:58:05;3.30;107.31
2022-07-08 16:59:02;3.30;107.31
2022-07-08 17:00:03;3.30;107.31
2022-07-08 17:01:03;3.30;107.31
2022-07-08 17:02:04;3.30;107.31
2022-07-08 17:03:05;3.30;107.31
2022-07-08 17:04:06;3.30;106.99
2022-07-08 17:05:02;3.30;106.99
2022-07-08 17:06:03;3.30;106.99
2022-07-08 17:07:04;3.30;106.99
2022-07-08 17:08:05;3.30;106.66
2022-07-08 17:09:06;3.30;106.99
2022-07-08 17:10:02;3.30;106.66
2022-07-08 17:11:03;3.30;106.99
2022-07-08 17:12:04;3.30;106.99
2022-07-08 17:13:04;3.30;106.99
2022-07-08 17:14:05;3.30;106.99
2022-07-08 17:15:06;3.30;106.99
2022-07-08 17:16:02;3.30;106.99
2022-07-08 17:17:03;3.30;106.99
2022-07-08 17:18:04;3.30;106.99
2022-07-08 17:19:05;3.30;106.99
2022-07-08 17:20:06;3.30;106.99
2022-07-08 17:21:02;3.30;106.99
2022-07-08 17:22:03;3.30;106.99
2022-07-08 17:23:04;3.30;106.66
2022-07-08 17:24:05;3.30;106.99
2022-07-08 17:25:05;3.30;106.99
2022-07-08 17:26:02;3.30;106.99
2022-07-08 17:27:03;3.30;106.99
2022-07-08 17:28:03;3.30;106.99
2022-07-08 17:29:04;3.30;106.66
2022-07-08 17:30:05;3.30;106.99
2022-07-08 17:31:06;3.30;106.99
2022-07-08 17:32:02;3.30;106.99
2022-07-08 17:33:03;3.30;106.99
2022-07-08 17:34:04;3.30;106.99
2022-07-08 17:35:05;3.30;106.99
2022-07-08 17:36:05;3.30;106.99
2022-07-08 17:37:02;3.29;106.66
2022-07-08 17:38:03;3.29;106.99
2022-07-08 17:39:03;3.29;106.99
2022-07-08 17:40:04;3.29;106.99
2022-07-08 17:41:05;3.29;106.99
2022-07-08 17:42:06;3.29;106.99
2022-07-08 17:43:02;3.30;106.99
2022-07-08 17:44:03;3.30;106.99
2022-07-08 17:45:04;3.29;106.66
2022-07-08 17:46:05;3.29;106.99
2022-07-08 17:47:06;3.29;106.99
2022-07-08 17:48:02;3.30;106.99
2022-07-08 17:49:03;3.29;106.99
2022-07-08 17:50:03;3.29;106.99
2022-07-08 17:51:04;3.29;106.99
2022-07-08 17:52:05;3.30;106.99
2022-07-08 17:53:06;3.29;106.99
2022-07-08 17:54:02;3.29;106.99
2022-07-08 17:55:03;3.29;106.99
2022-07-08 17:56:04;3.29;106.99
2022-07-08 17:57:05;3.29;106.99
2022-07-08 17:58:05;3.29;106.99
2022-07-08 17:59:02;3.29;106.99
2022-07-08 18:00:03;3.29;106.99
2022-07-08 18:01:03;3.29;106.99
2022-07-08 18:02:04;3.29;106.99
2022-07-08 18:03:05;3.29;106.99
2022-07-08 18:04:06;3.29;106.99
2022-07-08 18:05:02;3.29;106.99
2022-07-08 18:06:03;3.29;106.66
2022-07-08 18:07:04;3.29;106.99
2022-07-08 18:08:04;3.29;106.99
2022-07-08 18:09:05;3.29;106.99
2022-07-08 18:10:02;3.29;106.99
2022-07-08 18:11:02;3.29;106.99
2022-07-08 18:12:03;3.29;106.99
2022-07-08 18:13:04;3.29;106.99
2022-07-08 18:14:05;3.29;106.99
2022-07-08 18:15:06;3.29;106.99
2022-07-08 18:16:02;3.29;106.99
2022-07-08 18:17:03;3.29;106.99
2022-07-08 18:18:04;3.29;106.99
2022-07-08 18:19:04;3.29;106.99
2022-07-08 18:20:05;3.29;106.99
2022-07-08 18:21:06;3.29;106.99
2022-07-08 18:22:02;3.29;106.66
2022-07-08 18:23:03;3.29;106.99
2022-07-08 18:24:04;3.29;106.99
2022-07-08 18:25:05;3.29;106.99
2022-07-08 18:26:06;3.29;106.99
2022-07-08 18:27:02;3.29;106.99
2022-07-08 18:28:03;3.29;106.99
2022-07-08 18:29:04;3.29;106.99
2022-07-08 18:30:04;3.29;106.99
2022-07-08 18:31:05;3.29;106.99
2022-07-08 18:32:06;3.29;106.99
2022-07-08 18:33:02;3.29;106.99
2022-07-08 18:34:03;3.29;106.99
2022-07-08 18:35:04;3.29;106.99
2022-07-08 18:36:05;3.29;106.99
2022-07-08 18:37:05;3.29;106.99
2022-07-08 18:38:02;3.29;106.99
2022-07-08 18:39:03;3.29;106.66
2022-07-08 18:40:03;3.29;106.99
2022-07-08 18:41:04;3.29;106.66
2022-07-08 18:42:05;3.29;106.66
2022-07-08 18:43:06;3.29;106.99
2022-07-08 18:44:02;3.29;106.66
2022-07-08 18:45:03;3.29;106.99
2022-07-08 18:46:04;3.29;106.99
2022-07-08 18:47:05;3.29;106.99
2022-07-08 18:48:05;3.29;106.99
2022-07-08 18:49:02;3.29;106.99
2022-07-08 18:50:03;3.29;106.99
2022-07-08 18:51:03;3.29;106.99
2022-07-08 18:52:04;3.29;106.99
2022-07-08 18:53:05;3.29;106.99
2022-07-08 18:54:06;3.29;106.99
2022-07-08 18:55:02;3.29;106.99
2022-07-08 18:56:03;3.29;106.66
2022-07-08 18:57:04;3.29;106.99
2022-07-08 18:58:04;3.29;106.66
2022-07-08 18:59:05;3.29;106.99
2022-07-08 19:00:06;3.29;106.66
2022-07-08 19:01:02;3.29;106.99
2022-07-08 19:02:03;3.29;106.99
2022-07-08 19:03:04;3.29;106.99
2022-07-08 19:04:05;3.29;106.99
2022-07-08 19:05:05;3.29;106.99
2022-07-08 19:06:02;3.29;106.99
2022-07-08 19:07:03;3.29;106.99
2022-07-08 19:08:03;3.29;106.99
2022-07-08 19:09:04;3.29;106.99
2022-07-08 19:10:05;3.29;106.66
2022-07-08 19:11:06;3.29;106.99
2022-07-08 19:12:02;3.29;106.99
2022-07-08 19:13:03;3.29;106.99
2022-07-08 19:14:04;3.29;106.99
2022-07-08 19:15:05;3.29;106.99
2022-07-08 19:16:05;3.29;106.99
2022-07-08 19:17:02;3.29;106.66
2022-07-08 19:18:02;3.29;106.99
2022-07-08 19:19:03;3.29;106.99
2022-07-08 19:20:04;3.29;106.99
2022-07-08 19:21:05;3.29;106.66
2022-07-08 19:22:06;3.29;106.99
2022-07-08 19:23:02;3.29;106.99
2022-07-08 19:24:03;3.29;106.99
2022-07-08 19:25:03;3.29;106.99
2022-07-08 19:26:04;3.29;106.99
2022-07-08 19:27:05;3.29;106.99
2022-07-08 19:28:06;3.29;106.66
2022-07-08 19:29:02;3.29;106.99
2022-07-08 19:30:03;3.29;106.99
2022-07-08 19:31:03;3.29;106.99
2022-07-08 19:32:04;3.29;106.66
2022-07-08 19:33:05;3.29;106.99
2022-07-08 19:34:06;3.29;106.99
2022-07-08 19:35:02;3.29;106.99
2022-07-08 19:36:03;3.29;106.99
2022-07-08 19:37:03;3.29;106.99
2022-07-08 19:38:04;3.29;106.66
2022-07-08 19:39:05;3.29;106.99
2022-07-08 19:40:06;3.29;106.99
2022-07-08 19:41:02;3.29;106.66
2022-07-08 19:42:03;3.29;106.99
2022-07-08 19:43:03;3.29;106.66
2022-07-08 19:44:04;3.29;106.66
2022-07-08 19:45:05;3.29;107.31
2022-07-08 19:46:05;3.29;106.66
2022-07-08 19:47:02;3.29;106.99
2022-07-08 19:48:02;3.29;106.99
2022-07-08 19:49:03;3.29;106.66
2022-07-08 19:50:04;3.29;106.66
2022-07-08 19:51:05;3.29;106.66
2022-07-08 19:52:05;3.29;106.99
2022-07-08 19:53:02;3.29;106.66
2022-07-08 19:54:02;3.29;106.66
2022-07-08 19:55:03;3.29;106.66
2022-07-08 19:56:04;3.29;106.99
2022-07-08 19:57:05;3.29;106.99
2022-07-08 19:58:05;3.29;106.99
2022-07-08 19:59:02;3.29;106.66
2022-07-08 20:00:02;3.28;106.99
2022-07-08 20:01:03;3.28;106.66
2022-07-08 20:02:04;3.29;106.99
2022-07-08 20:03:05;3.28;106.66
2022-07-08 20:04:05;3.29;106.99
2022-07-08 20:05:06;3.29;106.99
2022-07-08 20:06:02;3.28;106.66
2022-07-08 20:07:03;3.28;106.99
2022-07-08 20:08:04;3.29;106.99
2022-07-08 20:09:05;3.29;106.66
2022-07-08 20:10:05;3.29;106.66
2022-07-08 20:11:02;3.28;106.99
2022-07-08 20:12:02;3.29;106.99
2022-07-08 20:13:03;3.28;106.99
2022-07-08 20:14:04;3.29;106.66
2022-07-08 20:15:05;3.28;106.99
2022-07-08 20:16:05;3.28;106.99
2022-07-08 20:17:06;3.29;106.66
2022-07-08 20:18:02;3.28;106.66
2022-07-08 20:19:03;3.28;106.99
2022-07-08 20:20:04;3.28;106.99
2022-07-08 20:21:04;3.28;106.99
2022-07-08 20:22:05;3.28;106.99
2022-07-08 20:23:06;3.28;106.99
2022-07-08 20:24:02;3.28;106.66
2022-07-08 20:25:03;3.28;106.99
2022-07-08 20:26:04;3.28;106.99
2022-07-08 20:27:04;3.28;106.99
2022-07-08 20:28:05;3.28;106.66
2022-07-08 20:29:06;3.28;106.66
2022-07-08 20:30:02;3.28;106.99
2022-07-08 20:31:03;3.28;106.99
2022-07-08 20:32:04;3.28;106.99
2022-07-08 20:33:04;3.28;106.99
2022-07-08 20:34:05;3.28;106.99
2022-07-08 20:35:06;3.28;106.99
2022-07-08 20:36:02;3.28;106.66
2022-07-08 20:37:03;3.28;106.99
2022-07-08 20:38:04;3.28;106.99
2022-07-08 20:39:04;3.28;107.31
2022-07-08 20:40:05;3.28;106.99
2022-07-08 20:41:06;3.28;106.66
2022-07-08 20:42:02;3.28;106.99
2022-07-08 20:43:03;3.28;106.99
2022-07-08 20:44:04;3.28;106.99
2022-07-08 20:45:04;3.28;106.99
2022-07-08 20:46:05;3.28;106.99
2022-07-08 20:47:06;3.28;106.99
2022-07-08 20:48:02;3.28;106.99
2022-07-08 20:49:03;3.28;106.99
2022-07-08 20:50:04;3.28;106.99
2022-07-08 20:51:04;3.28;106.99
2022-07-08 20:52:05;3.28;106.99
2022-07-08 20:53:06;3.28;106.99
2022-07-08 20:54:02;3.28;106.99
2022-07-08 20:55:03;3.28;106.66
2022-07-08 20:56:04;3.28;106.66
2022-07-08 20:57:04;3.28;106.99
2022-07-08 20:58:05;3.28;106.99
2022-07-08 20:59:06;3.28;106.99
2022-07-08 21:00:02;3.28;106.99
2022-07-08 21:01:03;3.28;106.99
2022-07-08 21:02:03;3.28;106.66
2022-07-08 21:03:04;3.28;106.66
2022-07-08 21:04:05;3.28;106.99
2022-07-08 21:05:06;3.28;106.99
2022-07-08 21:06:02;3.28;106.99
2022-07-08 21:07:03;3.28;106.99
2022-07-08 21:08:03;3.28;106.66
2022-07-08 21:09:04;3.28;106.99
2022-07-08 21:10:05;3.28;106.99
2022-07-08 21:11:06;3.28;106.99
2022-07-08 21:12:02;3.28;106.99
2022-07-08 21:13:03;3.28;106.99
2022-07-08 21:14:03;3.28;106.99
2022-07-08 21:15:04;3.28;106.99
2022-07-08 21:16:05;3.28;106.66
2022-07-08 21:17:06;3.28;106.99
2022-07-08 21:18:02;3.28;106.99
2022-07-08 21:19:03;3.28;106.66
2022-07-08 21:20:03;3.28;106.99
2022-07-08 21:21:04;3.28;106.66
2022-07-08 21:22:05;3.28;106.99
2022-07-08 21:23:06;3.28;106.66
2022-07-08 21:24:02;3.28;106.66
2022-07-08 21:25:03;3.28;106.66
2022-07-08 21:26:03;3.28;106.99
2022-07-08 21:27:04;3.28;106.66
2022-07-08 21:28:05;3.28;106.66
2022-07-08 21:29:06;3.28;106.66
2022-07-08 21:30:02;3.28;106.99
2022-07-08 21:31:03;3.28;106.99
2022-07-08 21:32:03;3.28;106.99
2022-07-08 21:33:04;3.28;106.99
2022-07-08 21:34:05;3.28;106.66
2022-07-08 21:35:06;3.28;106.66
2022-07-08 21:36:02;3.28;106.99
2022-07-08 21:37:03;3.28;106.99
2022-07-08 21:38:03;3.28;106.99
2022-07-08 21:39:04;3.28;106.99
2022-07-08 21:40:05;3.28;106.66
2022-07-08 21:41:05;3.28;106.66
2022-07-08 21:42:02;3.28;106.99
2022-07-08 21:43:02;3.28;106.66
2022-07-08 21:44:03;3.28;106.99
2022-07-08 21:45:04;3.28;106.99
2022-07-08 21:46:05;3.28;106.99
2022-07-08 21:47:05;3.28;106.66
2022-07-08 21:48:02;3.28;106.66
2022-07-08 21:49:02;3.28;106.99
2022-07-08 21:50:03;3.28;106.99
2022-07-08 21:51:04;3.28;106.99
2022-07-08 21:52:05;3.28;106.66
2022-07-08 21:53:05;3.28;106.99
2022-07-08 21:54:06;3.28;106.99
2022-07-08 21:55:02;3.28;106.66
2022-07-08 21:56:03;3.28;106.66
2022-07-08 21:57:04;3.28;106.66
2022-07-08 21:58:04;3.28;106.99
2022-07-08 21:59:05;3.28;106.99
2022-07-08 22:00:06;3.28;106.99
2022-07-08 22:01:02;3.28;106.99
2022-07-08 22:02:03;3.28;106.99
2022-07-08 22:03:04;3.28;106.99
2022-07-08 22:04:05;3.28;106.66
2022-07-08 22:05:05;3.28;106.99
2022-07-08 22:06:02;3.28;106.99
2022-07-08 22:07:03;3.28;106.66
2022-07-08 22:08:03;3.28;106.99
2022-07-08 22:09:04;3.28;106.66
2022-07-08 22:10:05;3.28;106.99
2022-07-08 22:11:06;3.28;106.99
2022-07-08 22:12:02;3.28;106.66
2022-07-08 22:13:03;3.28;106.99
2022-07-08 22:14:04;3.28;106.99
2022-07-08 22:15:04;3.28;106.66
2022-07-08 22:16:05;3.28;106.99
2022-07-08 22:17:06;3.28;106.99
2022-07-08 22:18:02;3.28;106.99
2022-07-08 22:19:03;3.28;106.99
2022-07-08 22:20:04;3.28;106.66
2022-07-08 22:21:05;3.28;106.99
2022-07-08 22:22:05;3.28;106.66
2022-07-08 22:23:02;3.28;106.99
2022-07-08 22:24:02;3.28;106.66
2022-07-08 22:25:03;3.28;106.99
2022-07-08 22:26:04;3.28;106.99
2022-07-08 22:27:05;3.28;106.66
2022-07-08 22:28:05;3.28;106.99
2022-07-08 22:29:02;3.28;106.66
2022-07-08 22:30:02;3.28;106.99
2022-07-08 22:31:03;3.27;106.66
2022-07-08 22:32:04;3.28;106.66
2022-07-08 22:33:05;3.28;106.66
2022-07-08 22:34:06;3.28;106.66
2022-07-08 22:35:02;3.28;106.99
2022-07-08 22:36:03;3.28;106.99
2022-07-08 22:37:03;3.28;106.99
2022-07-08 22:38:04;3.28;106.99
2022-07-08 22:39:05;3.28;106.99
2022-07-08 22:40:06;3.28;106.66
2022-07-08 22:41:02;3.28;106.66
2022-07-08 22:42:03;3.28;106.66
2022-07-08 22:43:04;3.27;106.99
2022-07-08 22:44:04;3.28;106.99
2022-07-08 22:45:05;3.27;106.99
2022-07-08 22:46:06;3.27;106.50
2022-07-08 22:47:02;3.28;106.66
2022-07-08 22:48:03;3.28;106.99
2022-07-08 22:49:04;3.27;106.99
2022-07-08 22:50:04;3.27;106.66
2022-07-08 22:51:05;3.27;106.99
2022-07-08 22:52:06;3.27;106.66
2022-07-08 22:53:02;3.27;106.99
2022-07-08 22:54:03;3.27;106.99
2022-07-08 22:55:04;3.28;106.99
2022-07-08 22:56:05;3.27;106.66
2022-07-08 22:57:05;3.27;106.66
2022-07-08 22:58:02;3.27;106.66
2022-07-08 22:59:02;3.27;106.66
2022-07-08 23:00:03;3.27;106.66
2022-07-08 23:01:04;3.27;106.66
2022-07-08 23:02:05;3.27;106.66
2022-07-08 23:03:05;3.27;106.99
2022-07-08 23:04:02;3.27;106.66
2022-07-08 23:05:03;3.27;106.99
2022-07-08 23:06:03;3.27;106.66
2022-07-08 23:07:04;3.27;106.66
2022-07-08 23:08:05;3.27;106.66
2022-07-08 23:09:06;3.27;106.66
2022-07-08 23:10:02;3.27;106.66
2022-07-08 23:11:03;3.27;106.66
2022-07-08 23:12:03;3.27;106.66
2022-07-08 23:13:04;3.27;106.66
2022-07-08 23:14:05;3.27;106.66
2022-07-08 23:15:06;3.27;106.66
2022-07-08 23:16:02;3.27;106.66
2022-07-08 23:17:03;3.27;106.66
2022-07-08 23:18:03;3.27;106.66
2022-07-08 23:19:04;3.27;106.66
2022-07-08 23:20:05;3.27;106.66
2022-07-08 23:21:06;3.27;106.99
2022-07-08 23:22:02;3.27;106.66
2022-07-08 23:23:03;3.27;106.66
2022-07-08 23:24:03;3.27;106.66
2022-07-08 23:25:04;3.27;106.50
2022-07-08 23:26:05;3.27;106.66
2022-07-08 23:27:06;3.27;107.31
2022-07-08 23:28:02;3.27;106.66
2022-07-08 23:29:03;3.27;106.66
2022-07-08 23:30:03;3.27;106.66
2022-07-08 23:31:04;3.27;106.66
2022-07-08 23:32:05;3.27;106.66
2022-07-08 23:33:06;3.27;106.66
2022-07-08 23:34:02;3.27;106.66
2022-07-08 23:35:03;3.27;106.66
2022-07-08 23:36:03;3.27;106.66
2022-07-08 23:37:04;3.27;106.66
2022-07-08 23:38:05;3.27;106.66
2022-07-08 23:39:06;3.27;106.50
2022-07-08 23:40:02;3.27;106.66
2022-07-08 23:41:03;3.27;106.99
2022-07-08 23:42:04;3.27;106.66
2022-07-08 23:43:04;3.27;106.66
2022-07-08 23:44:05;3.27;106.66
2022-07-08 23:45:06;3.27;106.66
2022-07-08 23:46:02;3.27;106.66
2022-07-08 23:47:03;3.27;106.66
2022-07-08 23:48:04;3.27;106.66
2022-07-08 23:49:04;3.27;106.66
2022-07-08 23:50:05;3.27;106.66
2022-07-08 23:51:06;3.27;106.66
2022-07-08 23:52:02;3.27;106.66
2022-07-08 23:53:03;3.27;106.66
2022-07-08 23:54:04;3.27;106.66
2022-07-08 23:55:04;3.27;106.66
2022-07-08 23:56:05;3.27;106.66
2022-07-08 23:57:06;3.27;106.50
2022-07-08 23:58:02;3.27;106.66
2022-07-08 23:59:03;3.27;106.66
