2022-08-06 00:00:04;3.66;108.92
2022-08-06 00:01:05;3.67;108.92
2022-08-06 00:02:05;3.66;108.60
2022-08-06 00:03:02;3.67;108.92
2022-08-06 00:04:02;3.66;108.92
2022-08-06 00:05:03;3.66;108.92
2022-08-06 00:06:04;3.66;108.92
2022-08-06 00:07:04;3.66;109.08
2022-08-06 00:08:05;3.66;108.92
2022-08-06 00:09:05;3.66;108.92
2022-08-06 00:10:02;3.66;108.92
2022-08-06 00:11:02;3.66;108.92
2022-08-06 00:12:03;3.66;108.92
2022-08-06 00:13:04;3.66;108.92
2022-08-06 00:14:04;3.66;108.92
2022-08-06 00:15:05;3.66;108.60
2022-08-06 00:16:05;3.66;108.92
2022-08-06 00:17:02;3.66;108.60
2022-08-06 00:18:02;3.66;108.92
2022-08-06 00:19:03;3.66;108.92
2022-08-06 00:20:03;3.66;108.60
2022-08-06 00:21:04;3.66;108.92
2022-08-06 00:22:05;3.66;108.92
2022-08-06 00:23:05;3.66;108.60
2022-08-06 00:24:06;3.66;108.60
2022-08-06 00:25:02;3.66;108.92
2022-08-06 00:26:03;3.66;108.60
2022-08-06 00:27:03;3.66;108.60
2022-08-06 00:28:04;3.66;108.60
2022-08-06 00:29:04;3.66;108.60
2022-08-06 00:30:05;3.66;108.60
2022-08-06 00:31:06;3.66;108.60
2022-08-06 00:32:02;3.66;108.60
2022-08-06 00:33:02;3.66;108.60
2022-08-06 00:34:03;3.66;108.60
2022-08-06 00:35:04;3.66;108.60
2022-08-06 00:36:04;3.66;108.60
2022-08-06 00:37:05;3.66;108.60
2022-08-06 00:38:05;3.66;108.60
2022-08-06 00:39:02;3.66;108.60
2022-08-06 00:40:02;3.66;108.60
2022-08-06 00:41:03;3.66;108.60
2022-08-06 00:42:03;3.66;108.27
2022-08-06 00:43:04;3.66;108.60
2022-08-06 00:44:05;3.66;108.60
2022-08-06 00:45:05;3.66;108.27
2022-08-06 00:46:06;3.66;108.60
2022-08-06 00:47:02;3.66;108.60
2022-08-06 00:48:03;3.66;108.60
2022-08-06 00:49:03;3.66;108.60
2022-08-06 00:50:04;3.66;108.27
2022-08-06 00:51:04;3.66;108.60
2022-08-06 00:52:05;3.66;108.60
2022-08-06 00:53:06;3.66;108.60
2022-08-06 00:54:02;3.66;108.60
2022-08-06 00:55:02;3.66;108.27
2022-08-06 00:56:03;3.66;108.60
2022-08-06 00:57:04;3.66;108.60
2022-08-06 00:58:04;3.66;108.27
2022-08-06 00:59:05;3.66;108.27
2022-08-06 01:00:05;3.66;108.27
2022-08-06 01:01:02;3.66;108.27
2022-08-06 01:02:02;3.66;108.27
2022-08-06 01:03:03;3.66;108.27
2022-08-06 01:04:03;3.66;108.60
2022-08-06 01:05:04;3.66;108.27
2022-08-06 01:06:05;3.66;108.27
2022-08-06 01:07:05;3.66;108.60
2022-08-06 01:08:01;3.66;108.60
2022-08-06 01:09:02;3.66;108.60
2022-08-06 01:10:03;3.66;108.27
2022-08-06 01:11:04;3.66;108.60
2022-08-06 01:12:04;3.66;108.27
2022-08-06 01:13:05;3.66;108.27
2022-08-06 01:14:05;3.66;108.27
2022-08-06 01:15:01;3.66;108.27
2022-08-06 01:16:02;3.66;108.27
2022-08-06 01:17:03;3.66;108.27
2022-08-06 01:18:03;3.66;108.27
2022-08-06 01:19:04;3.66;108.27
2022-08-06 01:20:04;3.66;108.27
2022-08-06 01:21:05;3.66;108.27
2022-08-06 01:22:06;3.66;108.11
2022-08-06 01:23:02;3.66;108.11
2022-08-06 01:24:02;3.66;108.27
2022-08-06 01:25:03;3.66;108.27
2022-08-06 01:26:04;3.66;108.27
2022-08-06 01:27:04;3.66;108.11
2022-08-06 01:28:05;3.66;108.11
2022-08-06 01:29:05;3.66;108.11
2022-08-06 01:30:01;3.66;108.11
2022-08-06 01:31:02;3.66;108.11
2022-08-06 01:32:03;3.66;108.11
2022-08-06 01:33:03;3.66;108.11
2022-08-06 01:34:04;3.66;108.11
2022-08-06 01:35:05;3.66;108.11
2022-08-06 01:36:05;3.66;108.11
2022-08-06 01:37:06;3.66;107.79
2022-08-06 01:38:02;3.66;108.11
2022-08-06 01:39:03;3.66;108.11
2022-08-06 01:40:03;3.66;108.11
2022-08-06 01:41:04;3.66;108.11
2022-08-06 01:42:04;3.66;108.11
2022-08-06 01:43:05;3.66;108.11
2022-08-06 01:44:05;3.66;108.27
2022-08-06 01:45:02;3.66;108.27
2022-08-06 01:46:02;3.66;108.27
2022-08-06 01:47:03;3.66;108.11
2022-08-06 01:48:03;3.66;108.11
2022-08-06 01:49:04;3.66;108.11
2022-08-06 01:50:04;3.66;108.11
2022-08-06 01:51:05;3.66;108.11
2022-08-06 01:52:06;3.66;108.11
2022-08-06 01:53:02;3.66;108.27
2022-08-06 01:54:02;3.66;108.11
2022-08-06 01:55:03;3.66;108.11
2022-08-06 01:56:03;3.66;108.11
2022-08-06 01:57:04;3.66;108.11
2022-08-06 01:58:05;3.66;108.11
2022-08-06 01:59:05;3.66;108.11
2022-08-06 02:00:06;3.66;108.11
2022-08-06 02:01:02;3.66;108.11
2022-08-06 02:02:02;3.66;108.11
2022-08-06 02:03:03;3.66;108.11
2022-08-06 02:04:04;3.66;107.79
2022-08-06 02:05:04;3.66;107.47
2022-08-06 02:06:05;3.66;107.79
2022-08-06 02:07:05;3.66;107.47
2022-08-06 02:08:02;3.66;107.79
2022-08-06 02:09:02;3.66;107.47
2022-08-06 02:10:03;3.66;107.47
2022-08-06 02:11:03;3.66;107.47
2022-08-06 02:12:04;3.66;107.47
2022-08-06 02:13:04;3.66;107.47
2022-08-06 02:14:05;3.66;107.47
2022-08-06 02:15:06;3.66;107.47
2022-08-06 02:16:02;3.66;107.47
2022-08-06 02:17:02;3.66;107.47
2022-08-06 02:18:03;3.66;107.47
2022-08-06 02:19:04;3.66;107.47
2022-08-06 02:20:04;3.66;107.31
2022-08-06 02:21:05;3.66;107.47
2022-08-06 02:22:05;3.66;107.47
2022-08-06 02:23:01;3.66;107.47
2022-08-06 02:24:02;3.66;107.47
2022-08-06 02:25:03;3.66;107.47
2022-08-06 02:26:03;3.66;107.47
2022-08-06 02:27:04;3.66;107.47
2022-08-06 02:28:04;3.66;107.47
2022-08-06 02:29:05;3.66;107.31
2022-08-06 02:30:06;3.66;107.31
2022-08-06 02:31:02;3.66;107.31
2022-08-06 02:32:02;3.66;107.47
2022-08-06 02:33:03;3.66;107.31
2022-08-06 02:34:04;3.66;107.31
2022-08-06 02:35:04;3.66;107.31
2022-08-06 02:36:05;3.66;107.31
2022-08-06 02:37:05;3.66;107.47
2022-08-06 02:38:06;3.66;107.31
2022-08-06 02:39:02;3.66;107.47
2022-08-06 02:40:03;3.66;107.31
2022-08-06 02:41:03;3.66;107.47
2022-08-06 02:42:04;3.66;107.31
2022-08-06 02:43:05;3.66;107.31
2022-08-06 02:44:05;3.66;107.31
2022-08-06 02:45:06;3.66;107.31
2022-08-06 02:46:02;3.66;107.31
2022-08-06 02:47:02;3.65;107.31
2022-08-06 02:48:03;3.65;107.31
2022-08-06 02:49:04;3.66;107.31
2022-08-06 02:50:04;3.66;107.31
2022-08-06 02:51:05;3.66;107.31
2022-08-06 02:52:05;3.66;107.31
2022-08-06 02:53:01;3.65;107.31
2022-08-06 02:54:02;3.65;107.31
2022-08-06 02:55:03;3.66;107.31
2022-08-06 02:56:03;3.66;107.31
2022-08-06 02:57:04;3.65;107.31
2022-08-06 02:58:04;3.65;107.31
2022-08-06 02:59:05;3.65;107.31
2022-08-06 03:00:06;3.65;107.31
2022-08-06 03:01:02;3.65;107.31
2022-08-06 03:02:02;3.65;107.31
2022-08-06 03:03:03;3.65;107.31
2022-08-06 03:04:03;3.65;107.31
2022-08-06 03:05:04;3.65;107.31
2022-08-06 03:06:05;3.65;107.31
2022-08-06 03:07:05;3.65;107.31
2022-08-06 03:08:06;3.65;107.31
2022-08-06 03:09:02;3.65;107.31
2022-08-06 03:10:02;3.65;107.31
2022-08-06 03:11:03;3.65;107.31
2022-08-06 03:12:04;3.65;107.31
2022-08-06 03:13:04;3.65;107.31
2022-08-06 03:14:05;3.65;107.31
2022-08-06 03:15:05;3.65;107.31
2022-08-06 03:16:06;3.65;106.99
2022-08-06 03:17:02;3.65;107.31
2022-08-06 03:18:03;3.65;107.31
2022-08-06 03:19:03;3.65;107.31
2022-08-06 03:20:04;3.65;107.31
2022-08-06 03:21:04;3.65;106.99
2022-08-06 03:22:05;3.65;106.99
2022-08-06 03:23:05;3.65;106.99
2022-08-06 03:24:01;3.65;107.31
2022-08-06 03:25:02;3.65;106.99
2022-08-06 03:26:03;3.65;106.99
2022-08-06 03:27:03;3.65;106.99
2022-08-06 03:28:04;3.65;106.99
2022-08-06 03:29:04;3.65;106.99
2022-08-06 03:30:05;3.65;106.99
2022-08-06 03:31:06;3.65;107.31
2022-08-06 03:32:02;3.65;107.31
2022-08-06 03:33:02;3.65;107.31
2022-08-06 03:34:03;3.65;107.31
2022-08-06 03:35:03;3.65;107.31
2022-08-06 03:36:04;3.65;107.47
2022-08-06 03:37:05;3.65;107.31
2022-08-06 03:38:05;3.65;107.31
2022-08-06 03:39:06;3.65;107.31
2022-08-06 03:40:02;3.65;107.31
2022-08-06 03:41:03;3.65;107.31
2022-08-06 03:42:03;3.65;107.31
2022-08-06 03:43:04;3.65;107.47
2022-08-06 03:44:04;3.65;107.47
2022-08-06 03:45:05;3.65;107.47
2022-08-06 03:46:06;3.65;107.47
2022-08-06 03:47:02;3.65;107.79
2022-08-06 03:48:02;3.65;107.47
2022-08-06 03:49:03;3.65;107.79
2022-08-06 03:50:03;3.65;107.79
2022-08-06 03:51:04;3.65;107.79
2022-08-06 03:52:05;3.65;107.47
2022-08-06 03:53:05;3.65;107.79
2022-08-06 03:54:06;3.65;107.79
2022-08-06 03:55:02;3.65;107.79
2022-08-06 03:56:03;3.65;107.31
2022-08-06 03:57:03;3.65;107.47
2022-08-06 03:58:04;3.65;107.47
2022-08-06 03:59:05;3.65;107.79
2022-08-06 04:00:05;3.65;107.79
2022-08-06 04:01:06;3.65;107.47
2022-08-06 04:02:02;3.65;107.79
2022-08-06 04:03:02;3.65;107.47
2022-08-06 04:04:03;3.65;107.79
2022-08-06 04:05:04;3.65;107.79
2022-08-06 04:06:04;3.65;107.79
2022-08-06 04:07:05;3.65;107.79
2022-08-06 04:08:06;3.65;107.79
2022-08-06 04:09:02;3.65;107.79
2022-08-06 04:10:03;3.65;107.79
2022-08-06 04:11:03;3.65;107.79
2022-08-06 04:12:04;3.65;107.47
2022-08-06 04:13:04;3.65;107.79
2022-08-06 04:14:05;3.65;107.79
2022-08-06 04:15:06;3.65;107.79
2022-08-06 04:16:02;3.65;107.79
2022-08-06 04:17:02;3.65;107.47
2022-08-06 04:18:03;3.65;107.79
2022-08-06 04:19:03;3.65;107.47
2022-08-06 04:20:04;3.65;107.47
2022-08-06 04:21:05;3.65;107.47
2022-08-06 04:22:05;3.65;107.47
2022-08-06 04:23:06;3.65;107.47
2022-08-06 04:24:02;3.65;107.47
2022-08-06 04:25:03;3.65;107.47
2022-08-06 04:26:03;3.65;107.79
2022-08-06 04:27:04;3.65;107.47
2022-08-06 04:28:05;3.65;107.79
2022-08-06 04:29:05;3.65;107.47
2022-08-06 04:30:06;3.65;107.47
2022-08-06 04:31:02;3.65;107.47
2022-08-06 04:32:02;3.65;107.79
2022-08-06 04:33:03;3.65;107.47
2022-08-06 04:34:04;3.65;107.79
2022-08-06 04:35:04;3.65;107.47
2022-08-06 04:36:05;3.65;107.79
2022-08-06 04:37:05;3.65;107.47
2022-08-06 04:38:01;3.65;107.47
2022-08-06 04:39:02;3.65;107.47
2022-08-06 04:40:03;3.65;107.47
2022-08-06 04:41:03;3.65;107.47
2022-08-06 04:42:04;3.65;107.47
2022-08-06 04:43:04;3.65;107.79
2022-08-06 04:44:05;3.65;107.47
2022-08-06 04:45:06;3.65;107.47
2022-08-06 04:46:02;3.65;107.47
2022-08-06 04:47:02;3.65;107.47
2022-08-06 04:48:03;3.65;107.47
2022-08-06 04:49:04;3.65;107.47
2022-08-06 04:50:04;3.65;107.47
2022-08-06 04:51:05;3.65;107.31
2022-08-06 04:52:05;3.65;107.47
2022-08-06 04:53:06;3.65;107.47
2022-08-06 04:54:02;3.65;107.47
2022-08-06 04:55:03;3.65;107.47
2022-08-06 04:56:03;3.65;107.31
2022-08-06 04:57:04;3.65;107.47
2022-08-06 04:58:04;3.65;107.47
2022-08-06 04:59:05;3.65;107.31
2022-08-06 05:00:06;3.65;107.47
2022-08-06 05:01:02;3.65;107.47
2022-08-06 05:02:02;3.65;107.47
2022-08-06 05:03:03;3.65;107.47
2022-08-06 05:04:03;3.65;107.47
2022-08-06 05:05:04;3.65;107.47
2022-08-06 05:06:05;3.65;107.47
2022-08-06 05:07:05;3.65;107.47
2022-08-06 05:08:06;3.65;107.31
2022-08-06 05:09:02;3.65;107.31
2022-08-06 05:10:02;3.65;107.31
2022-08-06 05:11:03;3.65;107.31
2022-08-06 05:12:04;3.65;107.31
2022-08-06 05:13:04;3.65;107.31
2022-08-06 05:14:05;3.65;107.31
2022-08-06 05:15:05;3.65;107.31
2022-08-06 05:16:02;3.65;107.31
2022-08-06 05:17:02;3.65;107.31
2022-08-06 05:18:03;3.65;107.31
2022-08-06 05:19:03;3.65;107.31
2022-08-06 05:20:04;3.65;107.31
2022-08-06 05:21:05;3.65;107.31
2022-08-06 05:22:05;3.65;107.31
2022-08-06 05:23:06;3.65;107.31
2022-08-06 05:24:02;3.65;107.31
2022-08-06 05:25:02;3.65;107.31
2022-08-06 05:26:03;3.65;107.31
2022-08-06 05:27:04;3.65;107.31
2022-08-06 05:28:04;3.65;107.31
2022-08-06 05:29:05;3.65;107.31
2022-08-06 05:30:05;3.65;107.31
2022-08-06 05:31:02;3.65;107.31
2022-08-06 05:32:02;3.65;107.31
2022-08-06 05:33:03;3.65;107.31
2022-08-06 05:34:03;3.65;107.31
2022-08-06 05:35:04;3.65;106.99
2022-08-06 05:36:05;3.65;107.31
2022-08-06 05:37:05;3.65;106.99
2022-08-06 05:38:06;3.65;107.31
2022-08-06 05:39:02;3.65;106.99
2022-08-06 05:40:03;3.65;107.31
2022-08-06 05:41:03;3.65;107.31
2022-08-06 05:42:04;3.65;107.31
2022-08-06 05:43:04;3.65;107.31
2022-08-06 05:44:05;3.65;107.31
2022-08-06 05:45:05;3.65;107.31
2022-08-06 05:46:02;3.65;107.31
2022-08-06 05:47:02;3.65;107.31
2022-08-06 05:48:03;3.65;107.31
2022-08-06 05:49:03;3.65;106.99
2022-08-06 05:50:04;3.65;106.99
2022-08-06 05:51:05;3.65;106.99
2022-08-06 05:52:05;3.65;106.99
2022-08-06 05:53:06;3.65;106.99
2022-08-06 05:54:02;3.65;106.99
2022-08-06 05:55:02;3.65;107.31
2022-08-06 05:56:03;3.65;106.99
2022-08-06 05:57:03;3.65;106.99
2022-08-06 05:58:04;3.65;106.99
2022-08-06 05:59:05;3.65;106.99
2022-08-06 06:00:05;3.65;107.31
2022-08-06 06:01:06;3.65;106.99
2022-08-06 06:02:02;3.65;106.99
2022-08-06 06:03:02;3.65;107.31
2022-08-06 06:04:03;3.64;107.31
2022-08-06 06:05:03;3.65;106.99
2022-08-06 06:06:04;3.65;107.31
2022-08-06 06:07:05;3.65;106.99
2022-08-06 06:08:05;3.65;107.31
2022-08-06 06:09:06;3.65;107.31
2022-08-06 06:10:02;3.65;106.99
2022-08-06 06:11:02;3.65;107.31
2022-08-06 06:12:03;3.65;107.31
2022-08-06 06:13:04;3.65;107.31
2022-08-06 06:14:04;3.65;106.99
2022-08-06 06:15:05;3.65;107.31
2022-08-06 06:16:05;3.65;106.99
2022-08-06 06:17:06;3.65;107.31
2022-08-06 06:18:02;3.64;106.99
2022-08-06 06:19:03;3.65;107.31
2022-08-06 06:20:03;3.65;107.31
2022-08-06 06:21:04;3.65;106.99
2022-08-06 06:22:04;3.65;106.99
2022-08-06 06:23:05;3.65;107.31
2022-08-06 06:24:05;3.65;106.99
2022-08-06 06:25:01;3.64;106.99
2022-08-06 06:26:02;3.64;106.99
2022-08-06 06:27:03;3.65;107.31
2022-08-06 06:28:03;3.64;106.99
2022-08-06 06:29:04;3.65;106.99
2022-08-06 06:30:04;3.65;107.31
2022-08-06 06:31:05;3.65;106.99
2022-08-06 06:32:06;3.64;106.99
2022-08-06 06:33:02;3.65;106.99
2022-08-06 06:34:02;3.64;106.99
2022-08-06 06:35:03;3.64;106.99
2022-08-06 06:36:03;3.64;106.99
2022-08-06 06:37:04;3.64;106.99
2022-08-06 06:38:05;3.64;106.99
2022-08-06 06:39:05;3.64;106.99
2022-08-06 06:40:06;3.64;107.31
2022-08-06 06:41:02;3.65;107.31
2022-08-06 06:42:02;3.64;106.99
2022-08-06 06:43:03;3.64;106.99
2022-08-06 06:44:04;3.64;107.31
2022-08-06 06:45:04;3.65;107.31
2022-08-06 06:46:05;3.65;106.99
2022-08-06 06:47:05;3.64;107.31
2022-08-06 06:48:02;3.64;107.31
2022-08-06 06:49:02;3.64;107.31
2022-08-06 06:50:03;3.64;106.66
2022-08-06 06:51:03;3.64;106.99
2022-08-06 06:52:04;3.64;106.99
2022-08-06 06:53:05;3.64;106.99
2022-08-06 06:54:05;3.65;107.31
2022-08-06 06:55:06;3.65;107.31
2022-08-06 06:56:02;3.64;107.31
2022-08-06 06:57:02;3.64;107.31
2022-08-06 06:58:03;3.64;107.31
2022-08-06 06:59:04;3.64;107.31
2022-08-06 07:00:04;3.64;107.31
2022-08-06 07:01:05;3.64;106.99
2022-08-06 07:02:05;3.64;107.31
2022-08-06 07:03:02;3.64;106.99
2022-08-06 07:04:02;3.64;107.31
2022-08-06 07:05:03;3.64;106.99
2022-08-06 07:06:03;3.64;107.31
2022-08-06 07:07:04;3.64;107.47
2022-08-06 07:08:05;3.64;107.31
2022-08-06 07:09:05;3.64;107.47
2022-08-06 07:10:02;3.64;107.31
2022-08-06 07:11:02;3.64;107.31
2022-08-06 07:12:03;3.64;107.47
2022-08-06 07:13:04;3.64;107.31
2022-08-06 07:14:04;3.64;107.31
2022-08-06 07:15:05;3.64;107.31
2022-08-06 07:16:05;3.64;107.47
2022-08-06 07:17:06;3.64;107.31
2022-08-06 07:18:02;3.64;107.47
2022-08-06 07:19:03;3.64;107.31
2022-08-06 07:20:03;3.64;107.47
2022-08-06 07:21:04;3.64;107.31
2022-08-06 07:22:04;3.64;107.47
2022-08-06 07:23:05;3.64;107.47
2022-08-06 07:24:05;3.64;107.47
2022-08-06 07:25:02;3.64;107.31
2022-08-06 07:26:02;3.64;107.31
2022-08-06 07:27:03;3.64;107.31
2022-08-06 07:28:03;3.64;107.31
2022-08-06 07:29:04;3.64;107.31
2022-08-06 07:30:04;3.64;107.31
2022-08-06 07:31:05;3.64;107.31
2022-08-06 07:32:06;3.64;107.31
2022-08-06 07:33:02;3.64;107.47
2022-08-06 07:34:02;3.64;107.31
2022-08-06 07:35:03;3.64;107.31
2022-08-06 07:36:03;3.64;107.31
2022-08-06 07:37:04;3.64;107.31
2022-08-06 07:38:05;3.64;107.31
2022-08-06 07:39:05;3.64;107.31
2022-08-06 07:40:06;3.64;107.47
2022-08-06 07:41:02;3.64;107.47
2022-08-06 07:42:03;3.64;107.47
2022-08-06 07:43:03;3.64;107.47
2022-08-06 07:44:04;3.64;107.47
2022-08-06 07:45:04;3.64;107.31
2022-08-06 07:46:05;3.64;107.47
2022-08-06 07:47:05;3.64;107.31
2022-08-06 07:48:02;3.64;107.47
2022-08-06 07:49:02;3.64;107.47
2022-08-06 07:50:03;3.64;107.47
2022-08-06 07:51:03;3.64;107.47
2022-08-06 07:52:04;3.64;107.47
2022-08-06 07:53:05;3.64;107.31
2022-08-06 07:54:05;3.64;107.47
2022-08-06 07:55:06;3.64;107.47
2022-08-06 07:56:02;3.64;107.47
2022-08-06 07:57:02;3.64;107.47
2022-08-06 07:58:03;3.64;107.47
2022-08-06 07:59:04;3.64;107.47
2022-08-06 08:00:04;3.64;107.31
2022-08-06 08:01:05;3.64;107.47
2022-08-06 08:02:05;3.64;107.47
2022-08-06 08:03:02;3.64;107.31
2022-08-06 08:04:02;3.64;106.99
2022-08-06 08:05:03;3.64;107.47
2022-08-06 08:06:03;3.64;107.47
2022-08-06 08:07:04;3.64;107.47
2022-08-06 08:08:05;3.64;107.47
2022-08-06 08:09:05;3.64;107.47
2022-08-06 08:10:06;3.64;107.31
2022-08-06 08:11:02;3.64;107.31
2022-08-06 08:12:03;3.64;107.31
2022-08-06 08:13:03;3.64;107.31
2022-08-06 08:14:04;3.64;107.47
2022-08-06 08:15:04;3.64;107.47
2022-08-06 08:16:05;3.64;107.31
2022-08-06 08:17:06;3.64;107.31
2022-08-06 08:18:02;3.64;107.47
2022-08-06 08:19:02;3.64;106.99
2022-08-06 08:20:03;3.64;107.47
2022-08-06 08:21:04;3.64;107.47
2022-08-06 08:22:04;3.64;107.31
2022-08-06 08:23:05;3.64;107.47
2022-08-06 08:24:05;3.64;107.31
2022-08-06 08:25:01;3.64;107.31
2022-08-06 08:26:02;3.64;107.31
2022-08-06 08:27:03;3.64;107.31
2022-08-06 08:28:03;3.64;107.31
2022-08-06 08:29:04;3.64;107.31
2022-08-06 08:30:05;3.64;107.31
2022-08-06 08:31:05;3.64;107.31
2022-08-06 08:32:06;3.64;107.31
2022-08-06 08:33:02;3.64;107.31
2022-08-06 08:34:03;3.64;107.31
2022-08-06 08:35:03;3.64;107.31
2022-08-06 08:36:04;3.64;107.31
2022-08-06 08:37:04;3.64;107.47
2022-08-06 08:38:05;3.64;107.31
2022-08-06 08:39:06;3.64;107.47
2022-08-06 08:40:02;3.64;107.31
2022-08-06 08:41:03;3.64;107.31
2022-08-06 08:42:03;3.64;107.31
2022-08-06 08:43:04;3.64;107.31
2022-08-06 08:44:04;3.64;107.31
2022-08-06 08:45:05;3.64;107.31
2022-08-06 08:46:06;3.64;107.31
2022-08-06 08:47:02;3.64;107.31
2022-08-06 08:48:02;3.64;107.31
2022-08-06 08:49:03;3.64;107.31
2022-08-06 08:50:04;3.64;106.99
2022-08-06 08:51:04;3.64;107.31
2022-08-06 08:52:05;3.64;107.31
2022-08-06 08:53:05;3.64;107.31
2022-08-06 08:54:01;3.64;107.31
2022-08-06 08:55:02;3.64;107.31
2022-08-06 08:56:03;3.64;107.47
2022-08-06 08:57:03;3.64;107.31
2022-08-06 08:58:04;3.64;107.31
2022-08-06 08:59:04;3.64;107.31
2022-08-06 09:00:05;3.64;107.31
2022-08-06 09:01:06;3.64;107.31
2022-08-06 09:02:02;3.64;107.31
2022-08-06 09:03:02;3.64;107.31
2022-08-06 09:04:03;3.64;107.31
2022-08-06 09:05:04;3.64;107.31
2022-08-06 09:06:04;3.64;107.31
2022-08-06 09:07:05;3.64;107.31
2022-08-06 09:08:05;3.64;106.99
2022-08-06 09:09:02;3.64;107.31
2022-08-06 09:10:02;3.64;107.31
2022-08-06 09:11:03;3.64;107.31
2022-08-06 09:12:03;3.64;107.47
2022-08-06 09:13:04;3.64;107.47
2022-08-06 09:14:05;3.64;107.47
2022-08-06 09:15:05;3.64;107.47
2022-08-06 09:16:06;3.64;107.47
2022-08-06 09:17:02;3.64;107.47
2022-08-06 09:18:03;3.64;107.47
2022-08-06 09:19:03;3.64;107.47
2022-08-06 09:20:04;3.64;107.47
2022-08-06 09:21:04;3.64;107.47
2022-08-06 09:22:05;3.64;107.47
2022-08-06 09:23:06;3.64;107.47
2022-08-06 09:24:02;3.64;107.47
2022-08-06 09:25:03;3.64;107.47
2022-08-06 09:26:03;3.64;107.47
2022-08-06 09:27:04;3.64;107.31
2022-08-06 09:28:04;3.64;107.47
2022-08-06 09:29:05;3.64;107.47
2022-08-06 09:30:06;3.64;107.47
2022-08-06 09:31:02;3.64;107.47
2022-08-06 09:32:02;3.64;107.47
2022-08-06 09:33:03;3.64;107.79
2022-08-06 09:34:04;3.64;107.47
2022-08-06 09:35:04;3.64;107.31
2022-08-06 09:36:05;3.64;107.79
2022-08-06 09:37:06;3.64;107.47
2022-08-06 09:38:02;3.64;107.47
2022-08-06 09:39:02;3.64;107.47
2022-08-06 09:40:03;3.64;107.47
2022-08-06 09:41:04;3.64;107.47
2022-08-06 09:42:04;3.64;107.47
2022-08-06 09:43:05;3.64;107.47
2022-08-06 09:44:06;3.64;107.47
2022-08-06 09:45:02;3.64;107.79
2022-08-06 09:46:03;3.64;107.47
2022-08-06 09:47:03;3.64;107.79
2022-08-06 09:48:04;3.64;107.79
2022-08-06 09:49:04;3.64;107.79
2022-08-06 09:50:05;3.64;107.79
2022-08-06 09:51:06;3.64;107.79
2022-08-06 09:52:02;3.64;107.79
2022-08-06 09:53:03;3.64;107.47
2022-08-06 09:54:03;3.64;107.47
2022-08-06 09:55:04;3.64;107.47
2022-08-06 09:56:05;3.64;107.47
2022-08-06 09:57:05;3.64;107.79
2022-08-06 09:58:06;3.64;107.47
2022-08-06 09:59:02;3.64;107.79
2022-08-06 10:00:03;3.64;107.47
2022-08-06 10:01:03;3.64;107.47
2022-08-06 10:02:04;3.64;107.47
2022-08-06 10:03:05;3.64;107.47
2022-08-06 10:04:06;3.64;107.47
2022-08-06 10:05:02;3.64;107.47
2022-08-06 10:06:02;3.64;107.47
2022-08-06 10:07:03;3.64;107.47
2022-08-06 10:08:04;3.64;107.47
2022-08-06 10:09:04;3.64;107.47
2022-08-06 10:10:05;3.64;107.47
2022-08-06 10:11:06;3.64;107.47
2022-08-06 10:12:02;3.64;107.47
2022-08-06 10:13:03;3.64;107.79
2022-08-06 10:14:03;3.64;107.47
2022-08-06 10:15:04;3.64;107.79
2022-08-06 10:16:05;3.64;107.79
2022-08-06 10:17:05;3.64;107.79
2022-08-06 10:18:06;3.64;107.47
2022-08-06 10:19:02;3.64;107.47
2022-08-06 10:20:03;3.64;107.79
2022-08-06 10:21:03;3.64;107.79
2022-08-06 10:22:04;3.64;107.47
2022-08-06 10:23:05;3.64;107.47
2022-08-06 10:24:05;3.64;107.31
2022-08-06 10:25:06;3.64;107.31
2022-08-06 10:26:02;3.64;107.47
2022-08-06 10:27:03;3.64;107.31
2022-08-06 10:28:03;3.64;107.47
2022-08-06 10:29:04;3.64;107.47
2022-08-06 10:30:05;3.64;107.47
2022-08-06 10:31:05;3.64;107.47
2022-08-06 10:32:02;3.64;107.31
2022-08-06 10:33:02;3.64;107.47
2022-08-06 10:34:03;3.64;107.47
2022-08-06 10:35:04;3.64;107.47
2022-08-06 10:36:04;3.64;107.31
2022-08-06 10:37:05;3.64;107.31
2022-08-06 10:38:05;3.64;107.47
2022-08-06 10:39:02;3.64;107.47
2022-08-06 10:40:02;3.64;107.31
2022-08-06 10:41:03;3.64;107.47
2022-08-06 10:42:04;3.64;107.47
2022-08-06 10:43:04;3.64;107.47
2022-08-06 10:44:05;3.64;107.47
2022-08-06 10:45:06;3.64;107.47
2022-08-06 10:46:02;3.64;107.47
2022-08-06 10:47:03;3.64;107.47
2022-08-06 10:48:03;3.64;107.47
2022-08-06 10:49:04;3.64;107.47
2022-08-06 10:50:05;3.64;107.47
2022-08-06 10:51:05;3.64;107.47
2022-08-06 10:52:06;3.64;107.47
2022-08-06 10:53:02;3.64;107.47
2022-08-06 10:54:03;3.64;107.47
2022-08-06 10:55:03;3.64;107.47
2022-08-06 10:56:04;3.64;107.47
2022-08-06 10:57:05;3.64;107.47
2022-08-06 10:58:05;3.64;107.47
2022-08-06 10:59:02;3.64;107.47
2022-08-06 11:00:02;3.64;107.47
2022-08-06 11:01:03;3.64;107.47
2022-08-06 11:02:04;3.64;107.47
2022-08-06 11:03:04;3.64;107.47
2022-08-06 11:04:05;3.64;107.79
2022-08-06 11:05:06;3.64;107.79
2022-08-06 11:06:02;3.64;107.79
2022-08-06 11:07:03;3.64;107.79
2022-08-06 11:08:03;3.64;107.47
2022-08-06 11:09:04;3.64;107.79
2022-08-06 11:10:05;3.64;107.47
2022-08-06 11:11:05;3.64;107.47
2022-08-06 11:12:02;3.64;107.79
2022-08-06 11:13:02;3.64;107.79
2022-08-06 11:14:03;3.64;107.79
2022-08-06 11:15:04;3.64;107.79
2022-08-06 11:16:04;3.64;107.79
2022-08-06 11:17:05;3.64;107.79
2022-08-06 11:18:06;3.64;107.79
2022-08-06 11:19:02;3.64;107.79
2022-08-06 11:20:03;3.64;107.79
2022-08-06 11:21:03;3.64;107.79
2022-08-06 11:22:04;3.64;107.79
2022-08-06 11:23:05;3.64;107.79
2022-08-06 11:24:05;3.64;107.79
2022-08-06 11:25:02;3.64;107.79
2022-08-06 11:26:02;3.64;107.79
2022-08-06 11:27:03;3.64;108.11
2022-08-06 11:28:04;3.64;107.79
2022-08-06 11:29:04;3.64;107.79
2022-08-06 11:30:05;3.64;108.11
2022-08-06 11:31:06;3.64;108.11
2022-08-06 11:32:02;3.64;108.11
2022-08-06 11:33:03;3.64;108.11
2022-08-06 11:34:03;3.64;108.11
2022-08-06 11:35:04;3.64;108.11
2022-08-06 11:36:05;3.64;108.11
2022-08-06 11:37:06;3.64;108.11
2022-08-06 11:38:02;3.64;108.11
2022-08-06 11:39:02;3.64;108.11
2022-08-06 11:40:03;3.64;108.11
2022-08-06 11:41:04;3.64;108.11
2022-08-06 11:42:05;3.64;108.11
2022-08-06 11:43:05;3.64;108.11
2022-08-06 11:44:02;3.64;108.11
2022-08-06 11:45:02;3.64;108.11
2022-08-06 11:46:03;3.64;108.11
2022-08-06 11:47:04;3.64;108.11
2022-08-06 11:48:04;3.64;108.11
2022-08-06 11:49:05;3.64;108.27
2022-08-06 11:50:06;3.64;108.11
2022-08-06 11:51:02;3.64;108.27
2022-08-06 11:52:03;3.64;108.27
2022-08-06 11:53:03;3.64;108.27
2022-08-06 11:54:04;3.64;108.11
2022-08-06 11:55:05;3.64;108.27
2022-08-06 11:56:05;3.64;108.27
2022-08-06 11:57:02;3.64;108.27
2022-08-06 11:58:02;3.64;108.27
2022-08-06 11:59:03;3.64;108.27
2022-08-06 12:00:04;3.64;108.27
2022-08-06 12:01:04;3.64;108.11
2022-08-06 12:02:05;3.64;108.27
2022-08-06 12:03:06;3.64;108.27
2022-08-06 12:04:02;3.64;108.27
2022-08-06 12:05:03;3.64;108.27
2022-08-06 12:06:04;3.64;108.27
2022-08-06 12:07:04;3.64;108.27
2022-08-06 12:08:05;3.64;108.27
2022-08-06 12:09:06;3.64;108.27
2022-08-06 12:10:02;3.64;108.27
2022-08-06 12:11:03;3.64;108.27
2022-08-06 12:12:03;3.64;108.27
2022-08-06 12:13:04;3.64;108.27
2022-08-06 12:14:05;3.64;108.27
2022-08-06 12:15:05;3.64;108.27
2022-08-06 12:16:02;3.64;108.60
2022-08-06 12:17:02;3.64;108.27
2022-08-06 12:18:03;3.65;108.60
2022-08-06 12:19:04;3.65;108.27
2022-08-06 12:20:05;3.65;108.60
2022-08-06 12:21:05;3.65;108.27
2022-08-06 12:22:06;3.65;108.92
2022-08-06 12:23:02;3.65;108.60
2022-08-06 12:24:03;3.65;108.92
2022-08-06 12:25:04;3.65;108.92
2022-08-06 12:26:04;3.65;108.92
2022-08-06 12:27:05;3.65;108.92
2022-08-06 12:28:06;3.65;108.92
2022-08-06 12:29:02;3.65;108.92
2022-08-06 12:30:03;3.65;108.92
2022-08-06 12:31:03;3.65;108.92
2022-08-06 12:32:04;3.65;108.92
2022-08-06 12:33:05;3.65;108.92
2022-08-06 12:34:06;3.65;108.60
2022-08-06 12:35:02;3.65;108.92
2022-08-06 12:36:03;3.65;108.92
2022-08-06 12:37:03;3.65;108.92
2022-08-06 12:38:04;3.65;108.92
2022-08-06 12:39:05;3.65;108.92
2022-08-06 12:40:06;3.65;108.92
2022-08-06 12:41:02;3.65;108.92
2022-08-06 12:42:03;3.65;108.92
2022-08-06 12:43:03;3.65;108.92
2022-08-06 12:44:04;3.65;108.92
2022-08-06 12:45:05;3.65;108.92
2022-08-06 12:46:06;3.65;108.92
2022-08-06 12:47:02;3.65;108.92
2022-08-06 12:48:03;3.65;109.08
2022-08-06 12:49:03;3.65;108.92
2022-08-06 12:50:04;3.65;108.92
2022-08-06 12:51:05;3.65;109.08
2022-08-06 12:52:06;3.65;109.08
2022-08-06 12:53:02;3.65;108.60
2022-08-06 12:54:03;3.65;109.08
2022-08-06 12:55:03;3.65;108.92
2022-08-06 12:56:04;3.65;109.08
2022-08-06 12:57:05;3.65;108.92
2022-08-06 12:58:06;3.65;109.08
2022-08-06 12:59:02;3.65;108.92
2022-08-06 13:00:03;3.65;108.92
2022-08-06 13:01:03;3.65;108.92
2022-08-06 13:02:04;3.65;108.92
2022-08-06 13:03:05;3.65;108.92
2022-08-06 13:04:05;3.65;108.92
2022-08-06 13:05:02;3.65;108.60
2022-08-06 13:06:02;3.65;108.92
2022-08-06 13:07:03;3.65;108.92
2022-08-06 13:08:04;3.65;108.60
2022-08-06 13:09:05;3.65;108.60
2022-08-06 13:10:06;3.65;108.60
2022-08-06 13:11:02;3.65;108.60
2022-08-06 13:12:03;3.65;108.92
2022-08-06 13:13:03;3.65;108.60
2022-08-06 13:14:04;3.65;108.60
2022-08-06 13:15:05;3.65;108.92
2022-08-06 13:16:05;3.65;108.60
2022-08-06 13:17:02;3.65;108.60
2022-08-06 13:18:02;3.65;108.60
2022-08-06 13:19:03;3.66;108.60
2022-08-06 13:20:04;3.65;108.92
2022-08-06 13:21:05;3.65;108.92
2022-08-06 13:22:05;3.65;108.60
2022-08-06 13:23:02;3.65;108.92
2022-08-06 13:24:02;3.65;108.92
2022-08-06 13:25:03;3.65;108.92
2022-08-06 13:26:04;3.66;108.92
2022-08-06 13:27:05;3.65;108.92
2022-08-06 13:28:05;3.65;108.92
2022-08-06 13:29:02;3.65;108.92
2022-08-06 13:30:02;3.65;108.92
2022-08-06 13:31:03;3.65;108.92
2022-08-06 13:32:04;3.65;108.92
2022-08-06 13:33:05;3.65;108.92
2022-08-06 13:34:05;3.65;108.92
2022-08-06 13:35:02;3.65;108.92
2022-08-06 13:36:02;3.65;108.92
2022-08-06 13:37:03;3.65;108.92
2022-08-06 13:38:04;3.65;108.92
2022-08-06 13:39:05;3.65;108.92
2022-08-06 13:40:05;3.65;108.92
2022-08-06 13:41:02;3.65;108.92
2022-08-06 13:42:02;3.65;108.92
2022-08-06 13:43:03;3.65;108.92
2022-08-06 13:44:04;3.65;108.92
2022-08-06 13:45:05;3.65;108.92
2022-08-06 13:46:05;3.65;108.92
2022-08-06 13:47:02;3.66;108.60
2022-08-06 13:48:02;3.66;108.92
2022-08-06 13:49:03;3.66;108.92
2022-08-06 13:50:04;3.66;108.92
2022-08-06 13:51:05;3.66;108.92
2022-08-06 13:52:05;3.66;108.92
2022-08-06 13:53:02;3.66;108.92
2022-08-06 13:54:02;3.66;108.92
2022-08-06 13:55:03;3.66;108.92
2022-08-06 13:56:04;3.66;108.92
2022-08-06 13:57:05;3.66;108.92
2022-08-06 13:58:05;3.67;108.92
2022-08-06 13:59:02;3.67;108.92
2022-08-06 14:00:03;3.67;108.92
2022-08-06 14:01:03;3.67;108.92
2022-08-06 14:02:04;3.66;108.92
2022-08-06 14:03:05;3.66;108.92
2022-08-06 14:04:06;3.67;108.60
2022-08-06 14:05:02;3.66;108.92
2022-08-06 14:06:03;3.66;108.92
2022-08-06 14:07:04;3.66;108.92
2022-08-06 14:08:05;3.66;108.92
2022-08-06 14:09:05;3.66;108.92
2022-08-06 14:10:02;3.66;108.92
2022-08-06 14:11:02;3.66;108.92
2022-08-06 14:12:03;3.67;108.92
2022-08-06 14:13:04;3.66;108.60
2022-08-06 14:14:05;3.67;108.92
2022-08-06 14:15:06;3.67;108.92
2022-08-06 14:16:02;3.66;108.92
2022-08-06 14:17:03;3.66;108.92
2022-08-06 14:18:04;3.66;108.92
2022-08-06 14:19:05;3.66;108.92
2022-08-06 14:20:05;3.66;108.92
2022-08-06 14:21:02;3.67;108.92
2022-08-06 14:22:02;3.67;108.60
2022-08-06 14:23:03;3.67;108.92
2022-08-06 14:24:04;3.67;108.92
2022-08-06 14:25:05;3.67;108.92
2022-08-06 14:26:06;3.67;109.08
2022-08-06 14:27:02;3.67;109.08
2022-08-06 14:28:03;3.67;109.08
2022-08-06 14:29:04;3.67;109.08
2022-08-06 14:30:04;3.67;109.08
2022-08-06 14:31:05;3.67;109.08
2022-08-06 14:32:06;3.67;109.08
2022-08-06 14:33:02;3.67;109.08
2022-08-06 14:34:03;3.67;109.08
2022-08-06 14:35:04;3.67;109.08
2022-08-06 14:36:05;3.67;109.08
2022-08-06 14:37:06;3.67;109.08
2022-08-06 14:38:02;3.67;109.08
2022-08-06 14:39:03;3.67;108.92
2022-08-06 14:40:04;3.68;108.92
2022-08-06 14:41:05;3.68;108.92
2022-08-06 14:42:05;3.67;108.92
2022-08-06 14:43:02;3.67;108.92
2022-08-06 14:44:03;3.67;108.92
2022-08-06 14:45:03;3.67;108.92
2022-08-06 14:46:04;3.67;108.92
2022-08-06 14:47:05;3.67;108.92
2022-08-06 14:48:06;3.67;108.92
2022-08-06 14:49:02;3.67;108.92
2022-08-06 14:50:03;3.67;108.92
2022-08-06 14:51:04;3.67;108.92
2022-08-06 14:52:05;3.67;108.92
2022-08-06 14:53:05;3.67;108.92
2022-08-06 14:54:02;3.67;108.92
2022-08-06 14:55:03;3.67;108.92
2022-08-06 14:56:03;3.67;108.92
2022-08-06 14:57:04;3.67;108.92
2022-08-06 14:58:05;3.67;108.92
2022-08-06 14:59:06;3.67;108.92
2022-08-06 15:00:02;3.67;108.92
2022-08-06 15:01:03;3.67;109.08
2022-08-06 15:02:04;3.67;108.92
2022-08-06 15:03:05;3.67;108.92
2022-08-06 15:04:05;3.67;108.92
2022-08-06 15:05:02;3.67;108.92
2022-08-06 15:06:02;3.67;109.08
2022-08-06 15:07:03;3.67;109.08
2022-08-06 15:08:04;3.67;108.92
2022-08-06 15:09:05;3.67;108.92
2022-08-06 15:10:06;3.67;108.92
2022-08-06 15:11:02;3.67;108.92
2022-08-06 15:12:03;3.67;108.92
2022-08-06 15:13:04;3.67;108.92
2022-08-06 15:14:04;3.67;108.92
2022-08-06 15:15:05;3.67;108.92
2022-08-06 15:16:06;3.67;108.92
2022-08-06 15:17:02;3.67;108.92
2022-08-06 15:18:03;3.67;108.92
2022-08-06 15:19:04;3.67;108.92
2022-08-06 15:20:05;3.67;108.92
2022-08-06 15:21:05;3.67;108.60
2022-08-06 15:22:02;3.67;108.92
2022-08-06 15:23:02;3.68;108.92
2022-08-06 15:24:03;3.68;108.92
2022-08-06 15:25:04;3.67;108.92
2022-08-06 15:26:05;3.68;108.92
2022-08-06 15:27:06;3.68;108.92
2022-08-06 15:28:02;3.68;108.92
2022-08-06 15:29:03;3.68;108.92
2022-08-06 15:30:04;3.68;108.92
2022-08-06 15:31:04;3.68;108.92
2022-08-06 15:32:05;3.68;109.08
2022-08-06 15:33:06;3.68;108.92
2022-08-06 15:34:02;3.68;108.92
2022-08-06 15:35:03;3.68;108.92
2022-08-06 15:36:04;3.68;108.92
2022-08-06 15:37:05;3.68;109.08
2022-08-06 15:38:05;3.68;109.08
2022-08-06 15:39:02;3.68;108.92
2022-08-06 15:40:03;3.68;108.92
2022-08-06 15:41:04;3.68;108.92
2022-08-06 15:42:04;3.68;108.92
2022-08-06 15:43:05;3.68;109.08
2022-08-06 15:44:06;3.68;108.92
2022-08-06 15:45:02;3.68;108.92
2022-08-06 15:46:03;3.68;108.92
2022-08-06 15:47:04;3.68;108.92
2022-08-06 15:48:05;3.68;108.92
2022-08-06 15:49:05;3.68;109.08
2022-08-06 15:50:02;3.68;108.92
2022-08-06 15:51:03;3.68;108.92
2022-08-06 15:52:03;3.68;108.92
2022-08-06 15:53:04;3.68;109.08
2022-08-06 15:54:05;3.68;108.92
2022-08-06 15:55:06;3.68;108.92
2022-08-06 15:56:02;3.68;108.92
2022-08-06 15:57:03;3.68;108.92
2022-08-06 15:58:04;3.68;108.92
2022-08-06 15:59:04;3.68;108.92
2022-08-06 16:00:05;3.68;108.92
2022-08-06 16:01:06;3.68;109.08
2022-08-06 16:02:02;3.68;108.92
2022-08-06 16:03:03;3.68;108.92
2022-08-06 16:04:04;3.68;108.92
2022-08-06 16:05:05;3.68;109.08
2022-08-06 16:06:05;3.68;108.92
2022-08-06 16:07:06;3.68;108.92
2022-08-06 16:08:02;3.68;108.92
2022-08-06 16:09:03;3.68;108.92
2022-08-06 16:10:04;3.68;108.92
2022-08-06 16:11:05;3.68;108.92
2022-08-06 16:12:06;3.68;108.92
2022-08-06 16:13:02;3.68;108.92
2022-08-06 16:14:03;3.68;108.92
2022-08-06 16:15:03;3.68;108.92
2022-08-06 16:16:04;3.68;109.08
2022-08-06 16:17:05;3.68;108.92
2022-08-06 16:18:06;3.68;109.08
2022-08-06 16:19:02;3.68;108.92
2022-08-06 16:20:03;3.68;108.92
2022-08-06 16:21:03;3.68;109.08
2022-08-06 16:22:04;3.68;109.08
2022-08-06 16:23:05;3.68;109.08
2022-08-06 16:24:06;3.68;108.92
2022-08-06 16:25:02;3.68;108.92
2022-08-06 16:26:03;3.68;108.92
2022-08-06 16:27:03;3.68;108.92
2022-08-06 16:28:04;3.68;108.92
2022-08-06 16:29:05;3.68;108.92
2022-08-06 16:30:06;3.68;108.92
2022-08-06 16:31:02;3.68;109.08
2022-08-06 16:32:03;3.68;108.92
2022-08-06 16:33:03;3.68;108.92
2022-08-06 16:34:04;3.68;108.92
2022-08-06 16:35:05;3.68;108.92
2022-08-06 16:36:06;3.68;109.08
2022-08-06 16:37:02;3.68;108.92
2022-08-06 16:38:03;3.68;109.08
2022-08-06 16:39:04;3.68;108.92
2022-08-06 16:40:04;3.68;108.92
2022-08-06 16:41:05;3.68;108.92
2022-08-06 16:42:06;3.68;108.92
2022-08-06 16:43:02;3.68;108.92
2022-08-06 16:44:03;3.68;109.08
2022-08-06 16:45:04;3.68;109.08
2022-08-06 16:46:04;3.68;109.08
2022-08-06 16:47:05;3.68;108.92
2022-08-06 16:48:06;3.68;108.92
2022-08-06 16:49:02;3.68;108.92
2022-08-06 16:50:03;3.68;108.92
2022-08-06 16:51:04;3.68;108.92
2022-08-06 16:52:04;3.68;109.08
2022-08-06 16:53:05;3.68;109.08
2022-08-06 16:54:06;3.68;109.08
2022-08-06 16:55:02;3.68;108.92
2022-08-06 16:56:03;3.68;108.92
2022-08-06 16:57:04;3.68;109.08
2022-08-06 16:58:04;3.68;109.08
2022-08-06 16:59:05;3.68;108.92
2022-08-06 17:00:06;3.68;109.08
2022-08-06 17:01:02;3.68;108.92
2022-08-06 17:02:03;3.68;108.92
2022-08-06 17:03:04;3.68;108.92
2022-08-06 17:04:04;3.68;109.08
2022-08-06 17:05:05;3.68;108.92
2022-08-06 17:06:02;3.68;108.92
2022-08-06 17:07:02;3.68;109.08
2022-08-06 17:08:03;3.68;109.08
2022-08-06 17:09:04;3.68;108.92
2022-08-06 17:10:05;3.68;108.92
2022-08-06 17:11:05;3.68;108.92
2022-08-06 17:12:06;3.68;108.92
2022-08-06 17:13:02;3.68;108.92
2022-08-06 17:14:03;3.68;109.08
2022-08-06 17:15:04;3.68;109.08
2022-08-06 17:16:04;3.68;108.92
2022-08-06 17:17:05;3.68;108.92
2022-08-06 17:18:06;3.68;109.08
2022-08-06 17:19:02;3.68;108.92
2022-08-06 17:20:03;3.68;108.92
2022-08-06 17:21:04;3.68;108.92
2022-08-06 17:22:04;3.68;109.08
2022-08-06 17:23:05;3.68;109.08
2022-08-06 17:24:06;3.68;109.08
2022-08-06 17:25:02;3.68;109.08
2022-08-06 17:26:03;3.68;109.08
2022-08-06 17:27:04;3.68;109.08
2022-08-06 17:28:04;3.68;108.92
2022-08-06 17:29:05;3.68;108.92
2022-08-06 17:30:06;3.68;109.08
2022-08-06 17:31:02;3.68;108.92
2022-08-06 17:32:03;3.68;109.40
2022-08-06 17:33:03;3.68;109.08
2022-08-06 17:34:04;3.68;109.08
2022-08-06 17:35:05;3.68;109.08
2022-08-06 17:36:06;3.68;108.92
2022-08-06 17:37:02;3.68;108.92
2022-08-06 17:38:03;3.67;108.92
2022-08-06 17:39:03;3.68;108.92
2022-08-06 17:40:04;3.67;108.92
2022-08-06 17:41:05;3.67;109.08
2022-08-06 17:42:06;3.68;109.08
2022-08-06 17:43:02;3.67;108.60
2022-08-06 17:44:03;3.67;109.08
2022-08-06 17:45:03;3.68;108.92
2022-08-06 17:46:04;3.67;109.08
2022-08-06 17:47:05;3.67;109.08
2022-08-06 17:48:06;3.67;108.92
2022-08-06 17:49:02;3.67;109.08
2022-08-06 17:50:03;3.67;109.08
2022-08-06 17:51:03;3.67;108.92
2022-08-06 17:52:04;3.67;108.92
2022-08-06 17:53:05;3.67;109.08
2022-08-06 17:54:05;3.67;108.92
2022-08-06 17:55:02;3.67;108.92
2022-08-06 17:56:02;3.67;108.92
2022-08-06 17:57:03;3.67;108.92
2022-08-06 17:58:04;3.67;108.92
2022-08-06 17:59:05;3.67;108.92
2022-08-06 18:00:05;3.67;108.92
2022-08-06 18:01:06;3.67;108.92
2022-08-06 18:02:02;3.67;108.92
2022-08-06 18:03:03;3.67;108.92
2022-08-06 18:04:04;3.67;108.92
2022-08-06 18:05:04;3.67;108.92
2022-08-06 18:06:05;3.67;109.08
2022-08-06 18:07:06;3.67;108.92
2022-08-06 18:08:02;3.67;108.92
2022-08-06 18:09:03;3.67;108.92
2022-08-06 18:10:03;3.67;108.92
2022-08-06 18:11:04;3.67;108.92
2022-08-06 18:12:05;3.67;108.92
2022-08-06 18:13:06;3.67;108.92
2022-08-06 18:14:02;3.67;108.92
2022-08-06 18:15:03;3.67;108.92
2022-08-06 18:16:03;3.67;109.08
2022-08-06 18:17:04;3.67;108.92
2022-08-06 18:18:05;3.67;108.92
2022-08-06 18:19:05;3.67;108.92
2022-08-06 18:20:02;3.67;108.92
2022-08-06 18:21:02;3.67;108.92
2022-08-06 18:22:03;3.67;108.92
2022-08-06 18:23:04;3.67;108.92
2022-08-06 18:24:04;3.67;108.92
2022-08-06 18:25:05;3.67;108.92
2022-08-06 18:26:06;3.67;108.92
2022-08-06 18:27:02;3.67;109.08
2022-08-06 18:28:03;3.67;108.92
2022-08-06 18:29:03;3.67;108.92
2022-08-06 18:30:04;3.67;108.92
2022-08-06 18:31:05;3.67;108.92
2022-08-06 18:32:06;3.67;108.92
2022-08-06 18:33:02;3.67;108.92
2022-08-06 18:34:03;3.67;109.08
2022-08-06 18:35:03;3.67;108.92
2022-08-06 18:36:04;3.67;108.92
2022-08-06 18:37:05;3.67;108.92
2022-08-06 18:38:05;3.67;108.92
2022-08-06 18:39:06;3.67;109.08
2022-08-06 18:40:02;3.67;108.92
2022-08-06 18:41:03;3.67;108.92
2022-08-06 18:42:03;3.67;108.92
2022-08-06 18:43:04;3.67;108.92
2022-08-06 18:44:05;3.67;108.92
2022-08-06 18:45:06;3.67;108.92
2022-08-06 18:46:02;3.67;109.08
2022-08-06 18:47:02;3.67;108.92
2022-08-06 18:48:03;3.67;108.92
2022-08-06 18:49:04;3.67;108.92
2022-08-06 18:50:04;3.67;108.92
2022-08-06 18:51:05;3.67;108.92
2022-08-06 18:52:06;3.67;108.92
2022-08-06 18:53:02;3.67;108.92
2022-08-06 18:54:03;3.67;108.92
2022-08-06 18:55:03;3.67;108.92
2022-08-06 18:56:04;3.67;108.92
2022-08-06 18:57:05;3.67;109.08
2022-08-06 18:58:05;3.67;108.92
2022-08-06 18:59:06;3.67;108.92
2022-08-06 19:00:02;3.67;108.92
2022-08-06 19:01:03;3.67;108.92
2022-08-06 19:02:03;3.67;108.92
2022-08-06 19:03:04;3.67;108.92
2022-08-06 19:04:05;3.67;108.92
2022-08-06 19:05:05;3.67;108.92
2022-08-06 19:06:02;3.67;108.60
2022-08-06 19:07:02;3.67;108.92
2022-08-06 19:08:03;3.67;108.92
2022-08-06 19:09:04;3.67;108.92
2022-08-06 19:10:05;3.67;108.92
2022-08-06 19:11:05;3.67;108.92
2022-08-06 19:12:06;3.67;108.92
2022-08-06 19:13:02;3.67;108.92
2022-08-06 19:14:03;3.66;108.92
2022-08-06 19:15:03;3.67;109.08
2022-08-06 19:16:04;3.67;108.60
2022-08-06 19:17:05;3.67;108.60
2022-08-06 19:18:05;3.67;109.08
2022-08-06 19:19:02;3.66;108.92
2022-08-06 19:20:02;3.66;108.92
2022-08-06 19:21:03;3.66;108.60
2022-08-06 19:22:04;3.66;108.92
2022-08-06 19:23:04;3.66;108.92
2022-08-06 19:24:05;3.66;108.92
2022-08-06 19:25:06;3.66;108.92
2022-08-06 19:26:02;3.66;108.92
2022-08-06 19:27:02;3.66;108.92
2022-08-06 19:28:03;3.66;108.60
2022-08-06 19:29:04;3.66;108.60
2022-08-06 19:30:04;3.66;108.92
2022-08-06 19:31:05;3.66;108.60
2022-08-06 19:32:06;3.66;108.60
2022-08-06 19:33:02;3.66;108.60
2022-08-06 19:34:03;3.66;108.60
2022-08-06 19:35:03;3.66;108.60
2022-08-06 19:36:04;3.66;108.60
2022-08-06 19:37:05;3.66;108.60
2022-08-06 19:38:05;3.66;108.60
2022-08-06 19:39:06;3.66;109.08
2022-08-06 19:40:02;3.66;108.60
2022-08-06 19:41:03;3.66;108.60
2022-08-06 19:42:04;3.66;108.60
2022-08-06 19:43:04;3.66;108.60
2022-08-06 19:44:05;3.66;108.60
2022-08-06 19:45:05;3.66;108.60
2022-08-06 19:46:02;3.66;108.60
2022-08-06 19:47:02;3.66;108.60
2022-08-06 19:48:03;3.66;108.60
2022-08-06 19:49:04;3.66;108.60
2022-08-06 19:50:04;3.66;108.60
2022-08-06 19:51:05;3.66;108.60
2022-08-06 19:52:06;3.66;108.60
2022-08-06 19:53:02;3.66;108.60
2022-08-06 19:54:02;3.66;108.60
2022-08-06 19:55:03;3.66;108.60
2022-08-06 19:56:04;3.66;108.60
2022-08-06 19:57:05;3.66;108.92
2022-08-06 19:58:05;3.66;108.60
2022-08-06 19:59:06;3.66;108.92
2022-08-06 20:00:02;3.66;108.60
2022-08-06 20:01:03;3.66;108.60
2022-08-06 20:02:03;3.66;108.60
2022-08-06 20:03:04;3.66;108.27
2022-08-06 20:04:04;3.66;108.60
2022-08-06 20:05:05;3.66;108.60
2022-08-06 20:06:06;3.66;108.60
2022-08-06 20:07:02;3.66;108.60
2022-08-06 20:08:03;3.66;108.60
2022-08-06 20:09:03;3.66;108.60
2022-08-06 20:10:04;3.66;108.60
2022-08-06 20:11:04;3.66;108.60
2022-08-06 20:12:05;3.66;108.27
2022-08-06 20:13:06;3.66;108.27
2022-08-06 20:14:02;3.66;108.27
2022-08-06 20:15:03;3.66;108.27
2022-08-06 20:16:03;3.66;108.27
2022-08-06 20:17:04;3.66;108.60
2022-08-06 20:18:04;3.66;108.27
2022-08-06 20:19:05;3.66;108.27
2022-08-06 20:20:06;3.66;108.27
2022-08-06 20:21:02;3.66;108.27
2022-08-06 20:22:02;3.66;108.27
2022-08-06 20:23:03;3.66;108.11
2022-08-06 20:24:04;3.66;108.27
2022-08-06 20:25:04;3.66;108.11
2022-08-06 20:26:05;3.66;108.27
2022-08-06 20:27:06;3.66;108.27
2022-08-06 20:28:02;3.66;108.27
2022-08-06 20:29:02;3.66;108.11
2022-08-06 20:30:03;3.66;108.27
2022-08-06 20:31:04;3.66;108.11
2022-08-06 20:32:04;3.66;108.11
2022-08-06 20:33:05;3.66;108.27
2022-08-06 20:34:06;3.66;108.11
2022-08-06 20:35:02;3.66;108.27
2022-08-06 20:36:02;3.66;108.11
2022-08-06 20:37:03;3.66;108.11
2022-08-06 20:38:04;3.66;108.11
2022-08-06 20:39:04;3.66;108.11
2022-08-06 20:40:05;3.66;108.11
2022-08-06 20:41:06;3.66;108.27
2022-08-06 20:42:02;3.66;108.27
2022-08-06 20:43:02;3.66;108.11
2022-08-06 20:44:03;3.66;108.11
2022-08-06 20:45:04;3.66;108.11
2022-08-06 20:46:04;3.66;108.11
2022-08-06 20:47:05;3.66;108.11
2022-08-06 20:48:06;3.66;108.11
2022-08-06 20:49:02;3.66;108.11
2022-08-06 20:50:02;3.66;108.11
2022-08-06 20:51:03;3.66;108.11
2022-08-06 20:52:04;3.66;108.11
2022-08-06 20:53:04;3.66;108.11
2022-08-06 20:54:05;3.66;108.11
2022-08-06 20:55:05;3.66;108.11
2022-08-06 20:56:02;3.66;108.11
2022-08-06 20:57:02;3.66;108.11
2022-08-06 20:58:03;3.66;108.11
2022-08-06 20:59:03;3.66;108.11
2022-08-06 21:00:04;3.66;108.11
2022-08-06 21:01:05;3.66;108.11
2022-08-06 21:02:05;3.66;108.11
2022-08-06 21:03:01;3.66;108.11
2022-08-06 21:04:02;3.66;108.11
2022-08-06 21:05:03;3.66;108.11
2022-08-06 21:06:03;3.66;108.11
2022-08-06 21:07:04;3.66;108.11
2022-08-06 21:08:05;3.66;108.11
2022-08-06 21:09:05;3.66;108.11
2022-08-06 21:10:06;3.66;108.11
2022-08-06 21:11:02;3.66;108.11
2022-08-06 21:12:03;3.66;108.11
2022-08-06 21:13:03;3.66;108.11
2022-08-06 21:14:04;3.66;108.11
2022-08-06 21:15:05;3.66;108.11
2022-08-06 21:16:05;3.65;108.11
2022-08-06 21:17:06;3.66;108.11
2022-08-06 21:18:02;3.66;108.11
2022-08-06 21:19:03;3.66;108.11
2022-08-06 21:20:03;3.66;108.11
2022-08-06 21:21:04;3.66;108.11
2022-08-06 21:22:05;3.66;108.27
2022-08-06 21:23:05;3.66;108.11
2022-08-06 21:24:06;3.66;108.11
2022-08-06 21:25:02;3.66;108.11
2022-08-06 21:26:03;3.66;108.11
2022-08-06 21:27:03;3.65;108.11
2022-08-06 21:28:04;3.66;108.11
2022-08-06 21:29:04;3.66;108.11
2022-08-06 21:30:05;3.66;108.11
2022-08-06 21:31:06;3.66;108.27
2022-08-06 21:32:02;3.66;108.27
2022-08-06 21:33:02;3.65;108.11
2022-08-06 21:34:03;3.66;108.11
2022-08-06 21:35:04;3.66;108.11
2022-08-06 21:36:04;3.66;108.11
2022-08-06 21:37:05;3.66;108.11
2022-08-06 21:38:05;3.66;108.27
2022-08-06 21:39:02;3.65;108.27
2022-08-06 21:40:02;3.65;108.27
2022-08-06 21:41:03;3.65;108.27
2022-08-06 21:42:03;3.65;108.27
2022-08-06 21:43:04;3.66;108.27
2022-08-06 21:44:05;3.65;108.27
2022-08-06 21:45:05;3.65;108.60
2022-08-06 21:46:06;3.65;108.11
2022-08-06 21:47:02;3.65;108.27
2022-08-06 21:48:03;3.65;108.27
2022-08-06 21:49:03;3.65;108.60
2022-08-06 21:50:04;3.65;108.27
2022-08-06 21:51:04;3.65;108.27
2022-08-06 21:52:05;3.65;108.27
2022-08-06 21:53:06;3.65;108.27
2022-08-06 21:54:02;3.65;108.27
2022-08-06 21:55:02;3.65;108.27
2022-08-06 21:56:03;3.65;108.27
2022-08-06 21:57:04;3.65;108.27
2022-08-06 21:58:04;3.66;108.27
2022-08-06 21:59:05;3.65;108.27
2022-08-06 22:00:05;3.65;108.27
2022-08-06 22:01:02;3.65;108.27
2022-08-06 22:02:02;3.65;108.27
2022-08-06 22:03:03;3.65;108.27
2022-08-06 22:04:03;3.65;108.11
2022-08-06 22:05:04;3.65;108.11
2022-08-06 22:06:05;3.65;108.11
2022-08-06 22:07:05;3.65;108.11
2022-08-06 22:08:01;3.65;108.11
2022-08-06 22:09:02;3.65;107.79
2022-08-06 22:10:03;3.65;107.79
2022-08-06 22:11:03;3.65;108.11
2022-08-06 22:12:04;3.65;107.79
2022-08-06 22:13:05;3.65;108.11
2022-08-06 22:14:05;3.65;108.11
2022-08-06 22:15:06;3.65;108.11
2022-08-06 22:16:02;3.65;107.79
2022-08-06 22:17:03;3.65;108.11
2022-08-06 22:18:03;3.65;108.11
2022-08-06 22:19:04;3.65;107.79
2022-08-06 22:20:04;3.65;107.79
2022-08-06 22:21:05;3.65;108.11
2022-08-06 22:22:06;3.65;108.11
2022-08-06 22:23:02;3.65;108.11
2022-08-06 22:24:02;3.65;107.79
2022-08-06 22:25:03;3.65;107.79
2022-08-06 22:26:04;3.65;107.79
2022-08-06 22:27:04;3.65;107.79
2022-08-06 22:28:05;3.65;107.79
2022-08-06 22:29:05;3.65;107.79
2022-08-06 22:30:01;3.65;107.79
2022-08-06 22:31:02;3.65;107.79
2022-08-06 22:32:03;3.65;107.79
2022-08-06 22:33:03;3.65;107.79
2022-08-06 22:34:04;3.65;107.79
2022-08-06 22:35:04;3.65;107.79
2022-08-06 22:36:05;3.65;107.79
2022-08-06 22:37:06;3.65;107.79
2022-08-06 22:38:02;3.65;107.79
2022-08-06 22:39:02;3.65;107.79
2022-08-06 22:40:03;3.65;107.79
2022-08-06 22:41:04;3.65;107.79
2022-08-06 22:42:04;3.65;107.79
2022-08-06 22:43:05;3.65;107.79
2022-08-06 22:44:05;3.65;107.79
2022-08-06 22:45:02;3.65;107.79
2022-08-06 22:46:02;3.65;107.79
2022-08-06 22:47:03;3.65;107.79
2022-08-06 22:48:04;3.65;107.79
2022-08-06 22:49:04;3.65;107.79
2022-08-06 22:50:05;3.65;107.79
2022-08-06 22:51:05;3.65;107.79
2022-08-06 22:52:06;3.65;107.79
2022-08-06 22:53:02;3.65;107.79
2022-08-06 22:54:03;3.65;107.79
2022-08-06 22:55:03;3.65;107.79
2022-08-06 22:56:04;3.65;107.79
2022-08-06 22:57:04;3.65;107.79
2022-08-06 22:58:05;3.65;107.79
2022-08-06 22:59:06;3.65;107.79
2022-08-06 23:00:02;3.65;107.79
2022-08-06 23:01:02;3.65;107.47
2022-08-06 23:02:03;3.65;107.79
2022-08-06 23:03:03;3.65;107.79
2022-08-06 23:04:04;3.65;107.79
2022-08-06 23:05:05;3.65;107.79
2022-08-06 23:06:05;3.65;107.79
2022-08-06 23:07:06;3.65;107.79
2022-08-06 23:08:02;3.65;107.47
2022-08-06 23:09:03;3.65;107.79
2022-08-06 23:10:03;3.65;107.79
2022-08-06 23:11:04;3.65;107.79
2022-08-06 23:12:04;3.65;107.79
2022-08-06 23:13:05;3.65;107.79
2022-08-06 23:14:06;3.65;107.79
2022-08-06 23:15:02;3.65;107.79
2022-08-06 23:16:02;3.65;107.79
2022-08-06 23:17:03;3.65;107.47
2022-08-06 23:18:03;3.65;107.79
2022-08-06 23:19:04;3.65;107.47
2022-08-06 23:20:05;3.65;107.47
2022-08-06 23:21:05;3.65;107.79
2022-08-06 23:22:01;3.65;107.79
2022-08-06 23:23:02;3.65;107.47
2022-08-06 23:24:03;3.65;107.47
2022-08-06 23:25:03;3.65;107.47
2022-08-06 23:26:04;3.65;107.47
2022-08-06 23:27:04;3.65;107.47
2022-08-06 23:28:05;3.65;107.47
2022-08-06 23:29:06;3.65;107.79
2022-08-06 23:30:02;3.65;107.47
2022-08-06 23:31:02;3.65;107.47
2022-08-06 23:32:03;3.65;107.47
2022-08-06 23:33:04;3.65;107.31
2022-08-06 23:34:04;3.65;107.47
2022-08-06 23:35:05;3.65;107.47
2022-08-06 23:36:05;3.65;107.47
2022-08-06 23:37:02;3.65;107.47
2022-08-06 23:38:02;3.65;107.47
2022-08-06 23:39:03;3.65;107.47
2022-08-06 23:40:04;3.65;107.47
2022-08-06 23:41:04;3.65;107.47
2022-08-06 23:42:05;3.65;107.31
2022-08-06 23:43:05;3.65;107.31
2022-08-06 23:44:01;3.65;107.31
2022-08-06 23:45:02;3.65;107.31
2022-08-06 23:46:03;3.65;107.31
2022-08-06 23:47:03;3.65;107.79
2022-08-06 23:48:04;3.65;107.47
2022-08-06 23:49:04;3.65;107.47
2022-08-06 23:50:05;3.65;107.47
2022-08-06 23:51:06;3.65;107.47
2022-08-06 23:52:02;3.65;107.47
2022-08-06 23:53:02;3.65;107.47
2022-08-06 23:54:03;3.65;107.79
2022-08-06 23:55:04;3.65;107.47
2022-08-06 23:56:04;3.65;107.47
2022-08-06 23:57:05;3.65;107.47
2022-08-06 23:58:05;3.65;107.47
2022-08-06 23:59:01;3.65;107.47
