2022-06-09 00:00:37;4.16;85.40
2022-06-09 00:05:37;4.16;85.40
2022-06-09 00:10:37;4.16;85.40
2022-06-09 00:15:37;4.16;85.40
2022-06-09 00:20:37;4.16;85.07
2022-06-09 00:25:37;4.16;85.07
2022-06-09 00:30:37;4.16;85.07
2022-06-09 00:35:33;4.16;84.75
2022-06-09 00:40:37;4.16;85.07
2022-06-09 00:45:33;4.16;85.07
2022-06-09 00:50:37;4.16;84.75
2022-06-09 00:55:33;4.16;85.07
2022-06-09 01:00:38;4.16;84.75
2022-06-09 01:05:33;4.16;84.75
2022-06-09 01:10:38;4.16;84.59
2022-06-09 01:15:33;4.16;85.07
2022-06-09 01:20:38;4.16;85.07
2022-06-09 01:25:33;4.16;85.07
2022-06-09 01:30:38;4.16;85.07
2022-06-09 01:35:33;4.16;85.07
2022-06-09 01:40:38;4.16;84.75
2022-06-09 01:45:33;4.16;85.07
2022-06-09 01:50:37;4.16;85.07
2022-06-09 01:55:33;4.16;84.75
2022-06-09 02:00:37;4.16;84.75
2022-06-09 02:05:33;4.16;84.59
2022-06-09 02:10:37;4.16;84.75
2022-06-09 02:15:37;4.16;85.07
2022-06-09 02:20:37;4.16;84.75
2022-06-09 02:25:37;4.16;84.75
2022-06-09 02:30:37;4.16;84.75
2022-06-09 02:35:37;4.16;84.75
2022-06-09 02:40:37;4.16;84.75
2022-06-09 02:45:37;4.16;84.75
2022-06-09 02:50:37;4.16;84.75
2022-06-09 02:55:37;4.16;84.75
2022-06-09 03:00:37;4.16;84.75
2022-06-09 03:05:37;4.16;85.07
2022-06-09 03:10:36;4.16;85.07
2022-06-09 03:15:36;4.16;85.07
2022-06-09 03:20:36;4.16;85.07
2022-06-09 03:25:36;4.16;85.07
2022-06-09 03:30:36;4.16;84.75
2022-06-09 03:35:36;4.16;84.75
2022-06-09 03:40:36;4.16;84.75
2022-06-09 03:45:36;4.16;84.59
2022-06-09 03:50:36;4.16;84.75
2022-06-09 03:55:36;4.16;84.75
2022-06-09 04:00:36;4.16;84.75
2022-06-09 04:05:35;4.16;84.75
2022-06-09 04:10:35;4.16;84.75
2022-06-09 04:15:35;4.16;84.59
2022-06-09 04:20:35;4.16;84.59
2022-06-09 04:25:35;4.16;84.75
2022-06-09 04:30:35;4.16;84.59
2022-06-09 04:35:35;4.16;84.59
2022-06-09 04:40:35;4.16;84.27
2022-06-09 04:45:35;4.16;84.59
2022-06-09 04:50:35;4.16;84.59
2022-06-09 04:55:35;4.15;84.59
2022-06-09 05:00:35;4.16;84.59
2022-06-09 05:05:34;4.16;84.59
2022-06-09 05:10:34;4.15;84.59
2022-06-09 05:15:34;4.15;84.59
2022-06-09 05:20:34;4.15;84.27
2022-06-09 05:25:34;4.15;84.59
2022-06-09 05:30:34;4.15;84.59
2022-06-09 05:35:34;4.15;84.59
2022-06-09 05:40:34;4.15;84.59
2022-06-09 05:45:34;4.15;84.59
2022-06-09 05:50:34;4.15;84.27
2022-06-09 05:55:34;4.15;84.27
2022-06-09 06:00:34;4.15;84.59
2022-06-09 06:05:34;4.15;84.27
2022-06-09 06:10:34;4.15;84.59
2022-06-09 06:15:34;4.15;84.59
2022-06-09 06:20:34;4.15;84.59
2022-06-09 06:25:34;4.15;84.59
2022-06-09 06:30:34;4.15;84.59
2022-06-09 06:35:34;4.15;84.59
2022-06-09 06:40:34;4.15;84.59
2022-06-09 06:45:34;4.15;84.59
2022-06-09 06:50:34;4.15;84.59
2022-06-09 06:55:34;4.15;84.59
2022-06-09 07:00:34;4.15;84.27
2022-06-09 07:05:34;4.15;84.75
2022-06-09 07:10:34;4.15;84.27
2022-06-09 07:15:34;4.15;84.75
2022-06-09 07:20:34;4.15;84.59
2022-06-09 07:25:34;4.15;84.75
2022-06-09 07:30:34;4.15;84.27
2022-06-09 07:35:34;4.15;84.75
2022-06-09 07:40:34;4.15;84.27
2022-06-09 07:45:34;4.15;84.27
2022-06-09 07:50:34;4.15;84.59
2022-06-09 07:55:34;4.15;84.27
2022-06-09 08:00:34;4.15;84.27
2022-06-09 08:05:34;4.15;84.75
2022-06-09 08:10:34;4.15;84.27
2022-06-09 08:15:34;4.15;84.59
2022-06-09 08:20:34;4.15;84.75
2022-06-09 08:25:35;4.15;84.59
2022-06-09 08:30:35;4.15;84.75
2022-06-09 08:35:35;4.15;84.59
2022-06-09 08:40:35;4.15;84.27
2022-06-09 08:45:35;4.15;84.59
2022-06-09 08:50:35;4.15;84.75
2022-06-09 08:55:35;4.15;84.75
2022-06-09 09:00:35;4.15;84.75
2022-06-09 09:05:35;4.15;84.27
2022-06-09 09:10:36;4.15;84.59
2022-06-09 09:15:36;4.15;84.59
2022-06-09 09:20:36;4.15;84.75
2022-06-09 09:25:36;4.15;84.75
2022-06-09 09:30:36;4.15;84.75
2022-06-09 09:35:36;4.15;84.75
2022-06-09 09:40:37;4.15;84.75
2022-06-09 09:45:37;4.15;84.59
2022-06-09 09:50:37;4.15;84.75
2022-06-09 09:55:37;4.15;84.75
2022-06-09 10:00:37;4.15;84.75
2022-06-09 10:05:33;4.15;85.07
2022-06-09 10:10:38;4.15;85.07
2022-06-09 10:15:34;4.15;85.07
2022-06-09 10:20:34;4.15;85.07
2022-06-09 10:25:34;4.15;84.75
2022-06-09 10:30:34;4.15;85.07
2022-06-09 10:35:35;4.16;84.75
2022-06-09 10:40:35;4.16;85.07
2022-06-09 10:45:35;4.16;85.07
2022-06-09 10:50:36;4.16;84.75
2022-06-09 10:55:36;4.15;85.07
2022-06-09 11:00:37;4.16;85.40
2022-06-09 11:05:37;4.16;85.40
2022-06-09 11:10:33;4.16;85.40
2022-06-09 11:15:38;4.16;85.40
2022-06-09 11:20:34;4.16;85.40
2022-06-09 11:25:34;4.17;85.07
2022-06-09 11:30:35;4.16;85.40
2022-06-09 11:35:35;4.16;85.40
2022-06-09 11:40:36;4.16;85.56
2022-06-09 11:45:36;4.16;85.56
2022-06-09 11:50:37;4.16;85.40
2022-06-09 11:55:37;4.16;85.88
2022-06-09 12:00:38;4.16;85.40
2022-06-09 12:05:34;4.16;85.56
2022-06-09 12:10:34;4.16;85.40
2022-06-09 12:15:35;4.16;85.07
2022-06-09 12:20:35;4.16;85.40
2022-06-09 12:25:35;4.16;85.40
2022-06-09 12:30:36;4.16;85.40
2022-06-09 12:35:36;4.16;85.56
2022-06-09 12:40:37;4.16;85.40
2022-06-09 12:45:37;4.16;85.56
2022-06-09 12:50:38;4.16;85.56
2022-06-09 12:55:34;4.16;85.56
2022-06-09 13:00:34;4.16;85.88
2022-06-09 13:05:35;4.16;85.88
2022-06-09 13:10:35;4.16;85.88
2022-06-09 13:15:35;4.16;85.88
2022-06-09 13:20:36;4.16;85.88
2022-06-09 13:25:36;4.16;85.56
2022-06-09 13:30:37;4.16;85.88
2022-06-09 13:35:37;4.16;85.88
2022-06-09 13:40:33;4.16;85.88
2022-06-09 13:45:38;4.16;85.88
2022-06-09 13:50:34;4.16;85.88
2022-06-09 13:55:35;4.16;85.88
2022-06-09 14:00:35;4.16;85.88
2022-06-09 14:05:36;4.16;85.88
2022-06-09 14:10:36;4.16;85.88
2022-06-09 14:15:37;4.16;85.56
2022-06-09 14:20:37;4.16;85.40
2022-06-09 14:25:37;4.16;85.56
2022-06-09 14:30:33;4.16;85.56
2022-06-09 14:35:34;4.16;85.56
2022-06-09 14:40:34;4.16;85.56
2022-06-09 14:45:35;4.16;85.40
2022-06-09 14:50:35;4.16;85.56
2022-06-09 14:55:36;4.16;85.56
2022-06-09 15:00:36;4.16;85.56
2022-06-09 15:05:37;4.16;85.56
2022-06-09 15:10:37;4.16;85.56
2022-06-09 15:15:33;4.16;85.40
2022-06-09 15:20:34;4.16;85.56
2022-06-09 15:25:35;4.16;85.88
2022-06-09 15:30:35;4.16;85.56
2022-06-09 15:35:36;4.16;85.56
2022-06-09 15:40:36;4.16;85.56
2022-06-09 15:45:37;4.16;85.56
2022-06-09 15:50:37;4.16;85.88
2022-06-09 15:55:38;4.16;85.88
2022-06-09 16:00:34;4.17;85.56
2022-06-09 16:05:34;4.17;85.56
2022-06-09 16:10:35;4.17;86.20
2022-06-09 16:15:36;4.17;86.20
2022-06-09 16:20:36;4.17;85.88
2022-06-09 16:25:37;4.17;86.20
2022-06-09 16:30:37;4.17;86.20
2022-06-09 16:35:38;4.17;86.36
2022-06-09 16:40:34;4.16;85.88
2022-06-09 16:45:34;4.16;85.88
2022-06-09 16:50:35;4.16;85.88
2022-06-09 16:55:36;4.16;85.88
2022-06-09 17:00:36;4.16;85.56
2022-06-09 17:05:37;4.16;85.88
2022-06-09 17:10:37;4.16;85.88
2022-06-09 17:15:38;4.16;85.88
2022-06-09 17:20:33;4.16;85.88
2022-06-09 17:25:34;4.16;85.88
2022-06-09 17:30:34;4.16;85.88
2022-06-09 17:35:35;4.16;85.88
2022-06-09 17:40:35;4.16;85.56
2022-06-09 17:45:36;4.16;85.88
2022-06-09 17:50:36;4.16;85.88
2022-06-09 17:55:37;4.16;85.88
2022-06-09 18:00:37;4.16;85.88
2022-06-09 18:05:37;4.16;85.88
2022-06-09 18:10:33;4.16;85.88
2022-06-09 18:15:38;4.16;85.56
2022-06-09 18:20:34;4.16;85.88
2022-06-09 18:25:35;4.16;85.56
2022-06-09 18:30:35;4.16;85.88
2022-06-09 18:35:35;4.16;85.56
2022-06-09 18:40:36;4.16;85.88
2022-06-09 18:45:36;4.16;85.88
2022-06-09 18:50:37;4.16;85.88
2022-06-09 18:55:37;4.16;85.88
2022-06-09 19:00:37;4.16;85.88
2022-06-09 19:05:33;4.16;85.88
2022-06-09 19:10:38;4.16;85.88
2022-06-09 19:15:34;4.15;85.88
2022-06-09 19:20:34;4.16;85.88
2022-06-09 19:25:35;4.16;85.88
2022-06-09 19:30:35;4.15;85.56
2022-06-09 19:35:36;4.15;85.88
2022-06-09 19:40:36;4.15;85.88
2022-06-09 19:45:36;4.15;85.88
2022-06-09 19:50:37;4.15;85.88
2022-06-09 19:55:37;4.15;85.88
2022-06-09 20:00:33;4.15;85.56
2022-06-09 20:05:38;4.15;85.88
2022-06-09 20:10:34;4.15;85.56
2022-06-09 20:15:34;4.15;85.88
2022-06-09 20:20:35;4.15;85.56
2022-06-09 20:25:35;4.15;85.88
2022-06-09 20:30:36;4.15;85.56
2022-06-09 20:35:36;4.15;85.88
2022-06-09 20:40:36;4.15;85.88
2022-06-09 20:45:37;4.15;85.88
2022-06-09 20:50:37;4.15;85.88
2022-06-09 20:55:38;4.15;85.88
2022-06-09 21:00:33;4.15;85.88
2022-06-09 21:05:34;4.15;85.56
2022-06-09 21:10:34;4.15;85.88
2022-06-09 21:15:34;4.15;85.88
2022-06-09 21:20:35;4.15;85.56
2022-06-09 21:25:35;4.15;85.56
2022-06-09 21:30:35;4.15;85.88
2022-06-09 21:35:36;4.15;85.56
2022-06-09 21:40:36;4.15;85.56
2022-06-09 21:45:36;4.15;85.56
2022-06-09 21:50:37;4.15;85.56
2022-06-09 21:55:37;4.15;85.56
2022-06-09 22:00:37;4.15;85.56
2022-06-09 22:05:37;4.15;85.88
2022-06-09 22:10:33;4.15;85.88
2022-06-09 22:15:38;4.15;85.88
2022-06-09 22:20:34;4.15;85.88
2022-06-09 22:25:34;4.15;85.56
2022-06-09 22:30:34;4.15;85.56
2022-06-09 22:35:34;4.15;85.56
2022-06-09 22:40:35;4.15;85.56
2022-06-09 22:45:35;4.15;85.56
2022-06-09 22:50:35;4.15;85.56
2022-06-09 22:55:36;4.15;85.56
2022-06-09 23:00:36;4.15;85.56
2022-06-09 23:05:36;4.15;85.56
2022-06-09 23:10:36;4.15;85.07
2022-06-09 23:15:37;4.15;85.40
2022-06-09 23:20:37;4.15;85.07
2022-06-09 23:25:37;4.15;85.07
2022-06-09 23:30:37;4.15;85.07
2022-06-09 23:35:33;4.15;84.75
2022-06-09 23:40:38;4.15;84.75
2022-06-09 23:45:34;4.15;85.07
2022-06-09 23:50:34;4.15;84.59
2022-06-09 23:55:34;4.15;85.07
