2021-02-11 00:04:21;4.14;128.09;99;18.00
2021-02-11 00:34:20;4.14;128.09;99;18.20
2021-02-11 01:04:24;4.14;128.42;99;17.90
2021-02-11 01:34:22;4.14;128.42;99;17.50
2021-02-11 02:04:21;4.14;126.80;99;17.00
2021-02-11 02:34:19;4.14;128.42;99;16.90
2021-02-11 03:04:22;4.14;126.80;99;17.80
2021-02-11 03:34:20;4.14;128.42;99;17.80
2021-02-11 04:04:23;4.14;127.13;99;18.00
2021-02-11 04:34:22;4.14;128.42;99;18.30
2021-02-11 05:04:21;4.14;128.42;99;18.00
2021-02-11 05:34:20;4.14;126.80;99;17.40
2021-02-11 06:04:19;4.14;126.80;99;17.20
2021-02-11 06:34:22;4.13;128.42;99;17.70
2021-02-11 07:04:21;4.13;126.80;99;19.00
2021-02-11 07:34:21;4.14;126.80;99;21.70
2021-02-11 08:04:24;4.14;128.09;99;21.70
2021-02-11 08:34:29;4.14;126.48;99;23.20
2021-02-11 09:04:26;4.14;126.48;99;24.30
2021-02-11 09:34:28;4.14;128.09;98;24.70
2021-02-11 10:04:27;4.14;128.42;91;26.20
2021-02-11 10:34:32;4.14;128.42;86;27.20
2021-02-11 11:04:33;4.14;128.42;88;26.10
2021-02-11 11:34:29;4.14;128.42;83;28.10
2021-02-11 12:04:30;4.14;126.80;84;27.10
2021-02-11 12:34:30;4.14;126.80;80;27.70
2021-02-11 13:04:32;4.14;128.42;82;27.00
2021-02-11 13:34:33;4.14;128.42;77;28.80
2021-02-11 14:04:30;4.14;128.74;79;28.20
2021-02-11 14:34:32;4.15;128.42;78;28.30
2021-02-11 15:04:34;4.15;127.45;77;27.90
2021-02-11 15:34:31;4.15;127.77;73;28.70
2021-02-11 16:04:32;4.15;129.70;72;28.60
2021-02-11 16:34:33;4.15;127.77;79;29.30
2021-02-11 17:04:28;4.15;129.87;89;26.40
2021-02-11 17:34:29;4.15;129.87;75;29.80
2021-02-11 18:04:32;4.15;128.42;75;28.10
2021-02-11 18:34:34;4.15;129.87;71;28.70
2021-02-11 19:04:31;4.15;129.70;71;28.70
2021-02-11 19:34:33;4.15;127.77;81;26.80
2021-02-11 20:04:26;4.15;129.38;91;24.50
2021-02-11 20:34:27;4.15;129.38;99;22.60
2021-02-11 21:04:26;4.15;129.38;99;21.80
2021-02-11 21:34:23;4.15;129.06;99;21.10
2021-02-11 22:04:25;4.15;127.13;99;20.80
2021-02-11 22:34:21;4.15;128.74;99;20.60
2021-02-11 23:04:22;4.15;128.74;99;19.80
2021-02-11 23:34:22;4.15;128.74;99;19.20
