2021-3-31 0:2:33;4.27;99;13.60;11;0.278;0.045;21.51;70.7;0.043;17.5561;15.333;17.817;16.091;230;230;230;230;230;230;230;230;230;230;946;946;946;946;946;946;946;946;946;946;223;223;223;223;223;223;223;223;223;223
2021-3-31 0:32:32;4.26;99;12.90;11;0.283;0.044;21.51;70.7;0.042;17.9901;15.012;18.254;15.773;230;230;230;230;230;230;230;230;230;230;947;947;947;947;947;947;947;947;947;947;223;223;223;223;223;223;223;223;223;223
2021-3-31 1:2:35;4.25;99;12.50;11;0.278;0.045;21.51;70.7;0.043;17.5531;15.331;17.811;16.107;230;230;230;230;230;230;230;230;230;230;952;952;952;952;952;952;952;952;952;952;223;223;223;223;223;223;223;223;223;223
2021-3-31 1:32:33;4.24;99;11.90;11;0.278;0.045;21.51;70.7;0.043;17.5531;15.331;17.811;16.107;230;230;230;230;230;230;230;230;230;230;949;949;949;949;949;949;949;950;950;949;223;223;223;223;223;223;223;223;223;223
2021-3-31 2:2:30;4.24;99;12.20;11;0.278;0.045;21.51;70.7;0.043;17.5531;15.331;17.811;16.107;230;230;230;230;230;230;230;230;230;230;951;951;951;951;951;951;951;951;951;951;224;223;223;223;223;223;223;223;223;223
2021-3-31 2:32:32;4.24;99;13.20;11;0.278;0.045;21.51;70.7;0.043;17.5531;15.331;17.811;16.107;230;230;230;230;230;230;230;230;230;230;952;952;952;952;952;952;952;952;952;952;223;223;223;223;223;223;223;223;223;223
2021-3-31 3:2:34;4.24;99;13.70;11;0.278;0.045;21.51;70.7;0.043;17.5531;15.331;17.811;16.107;230;230;230;230;230;230;230;230;230;230;943;943;943;943;943;943;943;943;943;943;224;224;223;224;223;223;223;223;223;224
2021-3-31 3:32:33;4.25;99;13.30;11;0.278;0.045;21.51;70.7;0.043;17.5531;15.331;17.811;16.107;230;230;230;230;230;230;230;230;230;230;954;954;954;954;954;955;955;955;955;955;223;223;223;223;223;223;223;223;223;223
2021-3-31 4:2:31;4.24;99;13.90;11;0.278;0.045;21.51;70.7;0.043;17.5531;15.331;17.811;16.107;230;230;230;230;231;230;231;230;231;230;954;954;954;954;954;954;954;954;954;954;223;223;223;223;223;223;223;223;223;223
2021-3-31 4:32:34;4.25;99;12.00;11;0.278;0.045;21.51;70.7;0.043;17.5561;15.333;17.817;16.091;230;230;230;230;230;230;230;230;230;230;953;953;953;953;953;953;953;953;953;953;224;223;223;223;223;223;223;223;223;223
2021-3-31 5:2:32;4.24;99;11.30;11;0.283;0.044;21.51;70.7;0.042;17.9901;15.012;18.254;15.773;230;230;230;230;230;230;230;230;230;230;947;947;947;947;947;947;947;947;947;946;224;224;224;224;224;224;224;224;224;224
2021-3-31 5:32:33;4.24;99;11.20;11;0.278;0.045;21.51;70.7;0.043;17.5531;15.331;17.811;16.107;231;230;230;230;230;230;230;230;230;230;947;947;947;947;947;947;947;947;947;947;224;224;224;224;224;224;224;224;224;223
2021-3-31 6:2:30;4.24;99;11.40;11;0.278;0.045;21.51;70.7;0.043;17.5531;15.331;17.811;16.107;231;231;231;231;231;231;231;231;231;231;946;946;946;946;946;946;946;946;946;946;224;224;224;224;224;224;224;224;224;224
2021-3-31 6:32:31;4.23;99;11.30;11;0.278;0.045;21.51;70.7;0.043;17.5531;15.331;17.811;16.107;231;231;231;231;231;231;231;231;231;231;954;954;954;954;954;954;954;954;954;954;224;224;224;224;224;224;224;224;224;224
2021-3-31 7:2:32;4.24;99;11.40;11;0.283;0.044;21.51;70.7;0.042;17.9901;15.012;18.254;15.773;231;231;231;231;231;231;231;231;231;231;953;953;953;953;953;953;953;953;953;953;224;224;224;224;224;224;224;224;224;224
2021-3-31 7:32:29;4.23;99;12.50;11;0.278;0.045;21.51;70.7;0.043;17.5531;15.331;17.811;16.107;231;231;231;231;231;231;231;231;231;231;953;953;953;953;953;953;953;953;953;953;224;224;224;224;224;224;224;224;224;224
2021-3-31 8:2:31;4.26;99;16.70;11;0.278;0.045;21.51;70.7;0.043;17.5531;15.331;17.811;16.107;233;232;233;233;232;233;232;232;233;233;953;953;953;953;953;953;953;953;953;953;224;224;224;224;224;224;224;224;224;224
2021-3-31 8:32:35;4.28;99;20.40;11;0.283;0.044;21.51;70.7;0.042;17.9901;15.012;18.254;15.773;233;233;233;233;233;233;233;233;233;233;952;952;952;952;952;952;952;952;952;952;224;224;224;224;223;224;224;224;223;224
2021-3-31 9:2:38;4.30;99;22.10;11;0.278;0.045;21.51;70.7;0.043;17.5531;15.331;17.811;16.107;232;232;232;232;232;232;232;232;232;232;948;948;949;949;949;949;949;949;949;949;224;224;223;224;223;223;224;223;224;223
2021-3-31 9:32:38;4.33;94;23.90;11;0.278;0.045;21.51;70.7;0.043;17.5531;15.331;17.811;16.107;233;232;232;232;232;232;232;232;232;232;947;948;948;948;948;948;948;948;948;948;224;223;223;223;223;223;223;223;223;223
2021-3-31 10:2:42;4.33;81;25.10;11;0.283;0.044;21.51;70.7;0.042;17.9901;15.012;18.254;15.773;232;232;232;232;232;232;232;232;232;232;946;946;946;946;946;946;946;946;946;946;223;223;223;223;223;223;223;223;223;223
2021-3-31 10:32:43;4.35;68;26.20;11;0.283;0.044;21.51;70.7;0.042;17.9901;15.012;18.254;15.773;231;231;231;231;231;231;231;231;231;231;949;949;949;949;950;950;949;949;950;950;223;223;223;223;223;223;223;223;223;223
2021-3-31 11:2:46;4.35;61;27.50;11;0.283;0.044;21.51;70.7;0.042;17.9901;15.012;18.254;15.773;232;232;232;232;232;232;232;232;232;232;947;947;947;947;947;947;947;947;947;947;223;223;223;223;223;223;223;223;223;223
2021-3-31 11:32:46;4.36;55;28.30;11;0.283;0.044;21.51;70.7;0.042;17.9901;15.012;18.254;15.773;232;231;231;231;231;231;231;231;231;231;945;946;946;946;946;946;946;946;946;946;223;223;223;223;223;223;223;223;223;223
2021-3-31 12:2:48;4.38;44;30.60;11;0.278;0.045;21.51;70.7;0.043;17.5531;15.331;17.811;16.107;232;232;232;232;232;232;232;232;232;232;933;933;933;933;934;933;934;934;934;934;223;223;223;223;223;223;223;223;223;223
2021-3-31 12:32:51;4.37;42;30.20;11;0.278;0.045;21.51;70.7;0.043;17.5531;15.331;17.811;16.107;231;231;231;231;231;231;231;231;231;231;942;942;942;942;942;942;942;942;942;942;223;223;223;223;223;223;223;223;223;223
2021-3-31 13:2:50;4.38;39;31.10;11;0.278;0.045;21.51;70.7;0.043;17.5531;15.331;17.811;16.107;231;231;231;231;231;231;231;231;231;231;939;939;940;940;940;939;940;939;940;940;223;223;222;222;223;222;222;222;222;222
2021-3-31 13:32:52;4.38;40;30.00;11;0.278;0.045;21.51;70.7;0.043;17.5531;15.331;17.811;16.107;230;230;230;230;230;230;230;230;230;230;948;948;946;943;940;941;944;946;947;947;223;222;222;222;223;223;222;222;222;222
2021-3-31 14:2:53;4.38;38;30.30;11;0.280;0.044;21.51;70.7;0.042;17.6961;15.093;17.956;15.857;229;229;229;229;229;229;229;229;229;229;943;943;944;944;944;944;944;944;944;944;223;222;222;222;222;222;222;222;222;222
2021-3-31 14:32:50;4.38;35;31.90;11;0.285;0.043;21.51;70.7;0.041;18.1251;14.777;18.391;15.526;230;229;229;229;229;229;229;229;229;229;950;950;950;950;951;950;950;951;951;950;222;222;222;222;222;222;222;222;222;222
2021-3-31 15:2:51;4.38;36;30.70;11;0.288;0.043;21.51;70.7;0.041;18.3561;14.661;18.625;15.404;229;229;229;229;229;229;229;229;229;229;947;947;947;947;947;947;947;947;947;947;223;222;222;222;222;222;222;222;222;222
2021-3-31 15:32:52;4.38;39;29.60;11;0.280;0.044;21.51;70.7;0.042;17.6961;15.093;17.956;15.857;229;229;229;229;229;229;229;229;229;229;950;950;950;950;950;950;951;950;950;950;223;222;222;222;222;222;222;222;222;222
2021-3-31 16:2:52;4.37;45;27.60;11;0.280;0.044;21.51;70.7;0.042;17.6961;15.093;17.956;15.857;228;228;227;227;227;228;228;228;228;228;952;952;952;952;952;952;952;952;952;952;223;222;222;222;222;222;222;222;222;222
2021-3-31 16:32:49;4.36;50;25.70;11;0.285;0.043;21.51;70.7;0.041;18.1251;14.777;18.391;15.526;227;227;227;227;227;227;227;227;227;227;951;951;951;952;951;952;951;952;952;952;223;222;222;222;222;222;222;222;222;222
2021-3-31 17:2:46;4.35;51;24.80;11;0.280;0.044;21.51;70.7;0.042;17.6961;15.093;17.956;15.857;227;227;227;227;227;227;227;227;227;227;951;952;952;951;952;952;951;952;952;951;223;222;222;222;222;222;222;222;222;222
2021-3-31 17:32:44;4.36;45;27.30;11;0.280;0.044;21.51;70.7;0.042;17.6961;15.093;17.956;15.857;228;228;228;228;228;228;228;228;228;228;950;951;951;951;951;951;951;951;951;951;223;222;222;222;222;222;222;222;222;222
2021-3-31 18:2:43;4.33;62;23.00;11;0.280;0.044;21.51;70.7;0.042;17.6961;15.093;17.956;15.857;227;227;227;227;227;227;227;227;227;227;948;948;948;948;948;948;948;948;948;948;223;223;223;222;222;222;222;222;222;222
2021-3-31 18:32:43;4.33;66;23.10;11;0.280;0.044;21.51;70.7;0.042;17.6961;15.093;17.956;15.857;227;227;227;227;227;227;227;227;227;227;954;954;954;954;954;954;954;954;954;954;222;222;222;222;222;222;222;222;222;222
2021-3-31 19:2:42;4.31;99;19.90;11;0.280;0.044;21.51;70.7;0.042;17.6961;15.093;17.956;15.857;227;226;227;227;227;226;227;227;227;227;950;950;951;950;951;951;951;951;951;951;223;222;222;222;222;222;222;222;222;222
2021-3-31 19:32:38;4.30;99;17.50;11;0.280;0.044;21.51;70.7;0.042;17.6961;15.093;17.956;15.857;226;226;226;226;226;226;226;226;226;226;951;951;951;951;951;951;951;951;951;951;223;222;222;223;222;222;222;222;222;223
2021-3-31 20:2:37;4.29;99;15.30;11;0.280;0.044;21.51;70.7;0.042;17.6961;15.093;17.956;15.857;226;226;226;226;226;226;226;226;226;226;951;951;951;951;951;951;951;951;951;951;223;223;223;223;223;222;222;223;223;222
2021-3-31 20:32:33;4.28;99;14.80;11;0.280;0.044;21.51;70.7;0.042;17.6961;15.093;17.956;15.857;227;226;226;227;226;226;226;227;226;227;943;943;943;943;943;943;943;943;943;943;223;222;223;223;222;222;222;222;223;222
2021-3-31 21:2:34;4.27;99;14.10;11;0.280;0.044;21.51;70.7;0.042;17.6961;15.093;17.956;15.857;227;227;227;227;227;227;227;227;227;227;948;949;949;949;949;949;949;949;949;949;223;223;223;223;223;222;223;223;223;223
2021-3-31 21:32:33;4.27;99;13.90;11;0.280;0.044;21.51;70.7;0.042;17.6961;15.093;17.956;15.857;227;227;227;227;227;227;227;227;227;227;946;946;947;947;947;947;947;947;947;947;223;223;223;223;223;223;223;223;223;223
2021-3-31 22:2:32;4.26;99;14.20;11;0.280;0.044;21.51;70.7;0.042;17.6961;15.093;17.956;15.857;227;227;227;227;227;227;227;227;227;227;948;948;948;948;948;948;949;949;949;949;223;223;223;223;223;223;223;223;223;223
2021-3-31 22:32:36;4.26;99;14.30;11;0.279;0.044;21.51;70.7;0.042;17.6931;15.091;17.950;15.873;227;227;227;227;227;227;227;227;227;227;952;952;953;953;953;953;953;953;953;953;223;223;223;223;223;223;223;223;223;223
2021-3-31 23:2:35;4.27;99;14.40;11;0.280;0.044;21.51;70.7;0.042;17.6961;15.093;17.956;15.857;227;227;227;227;227;227;227;227;227;227;955;955;955;955;955;955;955;955;955;955;223;223;223;223;223;223;223;223;223;223
2021-3-31 23:32:33;4.26;99;14.90;11;0.285;0.043;21.51;70.7;0.041;18.1251;14.777;18.391;15.526;227;227;227;227;227;227;227;227;227;227;957;957;957;957;957;957;957;957;957;957;223;223;223;223;223;223;223;223;223;223
