2021-06-15 00:03:42;1;118;118;118;118;118;118;118;118;118;118;
2021-06-15 00:03:42;2;118;118;118;118;118;118;118;118;118;118;
2021-06-15 00:03:42;3;43;43;43;42;43;42;42;42;42;43;
2021-06-15 00:03:42;4;126;126;126;126;126;126;126;126;126;126;
2021-06-15 00:03:42;5;124;124;124;124;124;124;124;124;124;124;
2021-06-15 00:03:42;ht;99;10.40
2021-06-15 00:03:42;v;4.12
2021-06-15 00:33:43;1;118;118;118;118;118;118;118;118;118;118;
2021-06-15 00:33:43;2;124;125;124;124;124;124;124;124;124;124;
2021-06-15 00:33:43;3;41;41;41;41;41;41;41;41;41;41;
2021-06-15 00:33:43;4;125;125;125;125;125;125;125;125;125;125;
2021-06-15 00:33:43;5;124;124;123;123;124;124;123;124;124;123;
2021-06-15 00:33:43;ht;99;11.20
2021-06-15 00:33:43;v;4.12
2021-06-15 01:03:41;1;121;121;121;121;121;121;121;121;121;121;
2021-06-15 01:03:41;2;120;120;120;120;120;120;120;120;120;120;
2021-06-15 01:03:41;3;40;40;40;40;40;39;40;40;40;40;
2021-06-15 01:03:41;4;121;121;121;121;121;121;121;121;121;121;
2021-06-15 01:03:41;5;117;117;117;117;117;117;117;117;117;117;
2021-06-15 01:03:41;ht;99;11.40
2021-06-15 01:03:41;v;4.12
2021-06-15 01:33:43;1;125;125;125;125;125;125;125;125;125;125;
2021-06-15 01:33:43;2;122;122;122;122;122;122;122;122;122;122;
2021-06-15 01:33:43;3;39;39;40;39;40;40;40;40;40;40;
2021-06-15 01:33:43;4;119;119;119;119;119;119;119;119;119;119;
2021-06-15 01:33:43;5;123;123;123;123;123;123;123;123;123;123;
2021-06-15 01:33:43;ht;99;11.40
2021-06-15 01:33:43;v;4.12
2021-06-15 02:03:45;1;119;119;119;119;119;119;119;119;119;119;
2021-06-15 02:03:45;2;126;126;126;126;126;126;126;126;126;126;
2021-06-15 02:03:45;3;40;40;40;40;40;40;40;40;40;40;
2021-06-15 02:03:45;4;120;120;121;120;120;121;120;120;120;121;
2021-06-15 02:03:45;5;119;119;119;119;119;119;119;119;119;119;
2021-06-15 02:03:45;ht;99;11.00
2021-06-15 02:03:45;v;4.12
2021-06-15 02:33:43;1;121;121;121;121;121;121;121;121;121;121;
2021-06-15 02:33:43;2;116;116;116;116;116;116;116;116;116;116;
2021-06-15 02:33:43;3;40;40;40;40;40;40;40;40;40;40;
2021-06-15 02:33:43;4;120;121;120;120;120;120;120;120;121;121;
2021-06-15 02:33:43;5;125;125;125;125;125;125;125;125;125;125;
2021-06-15 02:33:43;ht;99;10.60
2021-06-15 02:33:43;v;4.12
2021-06-15 03:03:44;1;117;118;118;118;118;118;118;118;117;118;
2021-06-15 03:03:44;2;114;114;114;114;114;114;114;114;114;114;
2021-06-15 03:03:44;3;39;39;39;39;39;39;39;39;39;39;
2021-06-15 03:03:44;4;120;120;120;120;120;120;120;120;120;120;
2021-06-15 03:03:44;5;123;123;123;123;123;123;123;123;123;123;
2021-06-15 03:03:44;ht;99;10.10
2021-06-15 03:03:44;v;4.12
2021-06-15 03:33:41;1;123;123;123;123;123;123;123;123;123;123;
2021-06-15 03:33:41;2;128;128;128;128;128;128;128;128;128;128;
2021-06-15 03:33:41;3;41;41;41;41;41;41;41;41;41;41;
2021-06-15 03:33:41;4;120;120;120;120;120;120;120;120;120;120;
2021-06-15 03:33:41;5;118;118;118;118;118;118;118;118;118;118;
2021-06-15 03:33:41;ht;99;10.00
2021-06-15 03:33:41;v;4.11
2021-06-15 04:03:43;1;120;120;120;120;120;120;120;120;120;120;
2021-06-15 04:03:43;2;117;117;117;117;117;117;117;117;117;117;
2021-06-15 04:03:43;3;44;44;44;44;44;44;44;44;44;44;
2021-06-15 04:03:43;4;122;122;122;122;122;122;122;122;122;122;
2021-06-15 04:03:43;5;125;125;125;125;125;125;125;125;125;125;
2021-06-15 04:03:43;ht;99;9.90
2021-06-15 04:03:43;v;4.12
2021-06-15 04:33:44;1;125;125;125;125;125;125;125;125;125;125;
2021-06-15 04:33:44;2;118;118;118;118;118;118;118;118;118;118;
2021-06-15 04:33:44;3;45;45;45;46;46;46;46;46;46;45;
2021-06-15 04:33:44;4;118;118;118;118;118;118;118;118;118;117;
2021-06-15 04:33:44;5;115;115;115;115;115;115;115;115;115;115;
2021-06-15 04:33:44;ht;99;9.80
2021-06-15 04:33:44;v;4.12
2021-06-15 05:03:41;1;122;122;122;122;122;122;122;122;122;122;
2021-06-15 05:03:41;2;117;117;117;117;117;117;117;117;117;117;
2021-06-15 05:03:41;3;47;47;47;47;46;47;47;47;47;47;
2021-06-15 05:03:41;4;115;115;115;115;115;115;115;114;115;115;
2021-06-15 05:03:41;5;115;115;115;115;115;114;115;115;115;115;
2021-06-15 05:03:41;ht;99;9.40
2021-06-15 05:03:41;v;4.11
2021-06-15 05:33:42;1;122;122;122;122;122;122;122;122;122;122;
2021-06-15 05:33:42;2;124;124;124;124;124;124;124;124;124;124;
2021-06-15 05:33:42;3;47;47;47;47;47;47;48;47;47;48;
2021-06-15 05:33:42;4;118;118;118;118;118;118;118;118;118;118;
2021-06-15 05:33:42;5;118;118;118;118;118;118;118;118;118;118;
2021-06-15 05:33:42;ht;99;9.10
2021-06-15 05:33:42;v;4.12
2021-06-15 06:03:43;1;119;119;119;119;119;119;119;119;119;119;
2021-06-15 06:03:43;2;129;129;129;128;129;128;129;129;128;128;
2021-06-15 06:03:43;3;49;48;48;48;49;49;49;49;49;49;
2021-06-15 06:03:43;4;122;122;122;122;122;122;122;122;122;122;
2021-06-15 06:03:43;5;122;122;122;122;122;122;122;122;122;122;
2021-06-15 06:03:43;ht;99;8.90
2021-06-15 06:03:43;v;4.11
2021-06-15 06:33:44;1;122;122;122;122;122;122;122;122;122;122;
2021-06-15 06:33:44;2;117;117;117;117;117;117;117;117;117;117;
2021-06-15 06:33:44;3;49;49;49;49;49;49;49;49;49;49;
2021-06-15 06:33:44;4;122;123;123;123;123;123;123;123;123;123;
2021-06-15 06:33:44;5;121;121;121;121;121;121;121;121;121;121;
2021-06-15 06:33:44;ht;99;8.60
2021-06-15 06:33:44;v;4.11
2021-06-15 07:03:40;1;121;121;121;121;121;121;121;121;121;121;
2021-06-15 07:03:40;2;118;118;118;117;117;117;118;118;118;118;
2021-06-15 07:03:40;3;50;49;49;49;49;49;50;50;49;50;
2021-06-15 07:03:40;4;124;124;124;124;124;124;124;124;124;124;
2021-06-15 07:03:40;5;110;111;111;111;111;111;110;111;111;111;
2021-06-15 07:03:40;ht;99;8.30
2021-06-15 07:03:40;v;4.11
2021-06-15 07:33:40;1;124;124;124;124;124;124;124;124;124;124;
2021-06-15 07:33:40;2;119;119;119;119;119;119;120;119;119;119;
2021-06-15 07:33:40;3;50;50;50;50;50;50;50;50;50;50;
2021-06-15 07:33:40;4;124;124;124;124;124;124;124;124;124;124;
2021-06-15 07:33:40;5;112;112;112;112;112;112;112;112;112;112;
2021-06-15 07:33:40;ht;99;8.00
2021-06-15 07:33:40;v;4.11
2021-06-15 08:03:41;1;127;127;127;127;127;127;127;127;127;127;
2021-06-15 08:03:41;2;121;121;121;121;121;121;121;121;121;121;
2021-06-15 08:03:41;3;50;50;50;50;50;50;50;50;50;50;
2021-06-15 08:03:41;4;127;127;127;127;127;127;127;127;127;127;
2021-06-15 08:03:41;5;113;114;114;114;114;114;114;114;114;114;
2021-06-15 08:03:41;ht;99;7.70
2021-06-15 08:03:41;v;4.11
2021-06-15 08:33:41;1;121;121;121;121;121;121;121;121;121;121;
2021-06-15 08:33:41;2;116;116;116;116;116;116;116;116;116;116;
2021-06-15 08:33:41;3;50;50;50;50;50;50;50;50;50;50;
2021-06-15 08:33:41;4;126;126;126;126;126;126;126;126;126;126;
2021-06-15 08:33:41;5;111;111;111;112;111;112;112;111;111;111;
2021-06-15 08:33:41;ht;99;7.60
2021-06-15 08:33:41;v;4.11
2021-06-15 09:03:41;1;121;121;121;120;121;121;121;121;121;121;
2021-06-15 09:03:41;2;117;117;117;117;117;117;117;117;117;117;
2021-06-15 09:03:41;3;50;50;50;50;50;50;50;50;50;50;
2021-06-15 09:03:41;4;123;123;123;123;123;123;123;123;123;123;
2021-06-15 09:03:41;5;115;115;115;115;115;114;115;115;115;115;
2021-06-15 09:03:41;ht;99;7.80
2021-06-15 09:03:41;v;4.11
2021-06-15 09:33:41;1;116;116;116;116;116;116;116;116;116;116;
2021-06-15 09:33:41;2;116;117;117;117;117;117;117;117;117;117;
2021-06-15 09:33:41;3;50;50;50;50;50;50;50;50;50;50;
2021-06-15 09:33:41;4;125;125;125;125;125;125;125;125;125;125;
2021-06-15 09:33:41;5;109;109;109;109;109;109;109;109;109;109;
2021-06-15 09:33:41;ht;99;8.30
2021-06-15 09:33:41;v;4.12
2021-06-15 10:03:42;1;120;120;120;120;120;120;120;120;120;120;
2021-06-15 10:03:42;2;117;117;117;117;117;117;117;117;117;117;
2021-06-15 10:03:42;3;50;50;50;50;50;50;50;50;50;50;
2021-06-15 10:03:42;4;118;118;118;118;118;118;118;118;118;118;
2021-06-15 10:03:42;5;109;109;109;109;109;109;109;109;109;109;
2021-06-15 10:03:42;ht;99;8.80
2021-06-15 10:03:42;v;4.12
2021-06-15 10:33:43;1;119;119;119;119;119;119;119;119;119;119;
2021-06-15 10:33:43;2;117;117;117;117;117;117;117;117;117;117;
2021-06-15 10:33:43;3;50;50;50;50;50;50;50;49;50;50;
2021-06-15 10:33:43;4;117;117;117;117;117;117;117;117;117;117;
2021-06-15 10:33:43;5;110;110;110;110;110;110;110;110;110;110;
2021-06-15 10:33:43;ht;99;9.80
2021-06-15 10:33:43;v;4.12
2021-06-15 11:03:45;1;119;119;119;119;119;119;119;119;119;119;
2021-06-15 11:03:45;2;118;118;118;118;118;118;118;118;118;118;
2021-06-15 11:03:45;3;48;48;48;48;48;48;48;48;48;48;
2021-06-15 11:03:45;4;118;118;118;118;118;118;118;118;118;118;
2021-06-15 11:03:45;5;111;111;111;111;111;111;111;111;111;111;
2021-06-15 11:03:45;ht;99;10.80
2021-06-15 11:03:45;v;4.12
2021-06-15 11:33:44;1;118;118;118;117;118;118;118;118;118;118;
2021-06-15 11:33:44;2;117;117;117;117;117;117;117;117;117;117;
2021-06-15 11:33:44;3;47;48;47;47;47;47;48;48;47;48;
2021-06-15 11:33:44;4;116;116;116;116;116;116;116;116;116;116;
2021-06-15 11:33:44;5;108;109;109;109;109;109;109;109;109;109;
2021-06-15 11:33:44;ht;99;11.80
2021-06-15 11:33:44;v;4.12
2021-06-15 12:03:43;1;119;119;119;119;119;119;119;119;119;119;
2021-06-15 12:03:43;2;118;118;118;118;118;118;118;118;118;118;
2021-06-15 12:03:43;3;46;46;46;46;46;46;46;46;46;46;
2021-06-15 12:03:43;4;114;114;114;114;114;114;114;114;114;114;
2021-06-15 12:03:43;5;129;129;129;129;129;129;129;129;129;130;
2021-06-15 12:03:43;ht;99;13.00
2021-06-15 12:03:43;v;4.13
2021-06-15 12:33:48;1;119;119;119;119;119;119;119;119;119;119;
2021-06-15 12:33:48;2;118;117;118;118;117;118;118;118;118;117;
2021-06-15 12:33:48;3;46;46;46;46;46;46;46;46;46;46;
2021-06-15 12:33:48;4;122;122;122;122;122;122;130;126;123;122;
2021-06-15 12:33:48;5;119;113;112;112;112;112;112;112;112;112;
2021-06-15 12:33:48;ht;99;14.00
2021-06-15 12:33:48;v;4.12
2021-06-15 13:03:44;1;118;118;118;118;118;118;118;117;118;118;
2021-06-15 13:03:44;2;116;116;116;116;116;116;116;116;116;116;
2021-06-15 13:03:44;3;45;45;45;45;45;45;45;45;45;45;
2021-06-15 13:03:44;4;117;117;117;117;117;117;117;117;117;117;
2021-06-15 13:03:44;5;113;113;113;113;112;113;113;113;112;112;
2021-06-15 13:03:44;ht;99;14.30
2021-06-15 13:03:44;v;4.13
2021-06-15 13:33:45;1;123;123;123;123;124;124;124;124;124;124;
2021-06-15 13:33:45;2;114;114;114;114;114;114;114;114;114;114;
2021-06-15 13:33:45;3;45;44;44;45;44;44;45;44;44;45;
2021-06-15 13:33:45;4;118;118;118;118;119;118;118;119;118;119;
2021-06-15 13:33:45;5;119;119;119;119;119;119;119;119;119;119;
2021-06-15 13:33:45;ht;99;14.70
2021-06-15 13:33:45;v;4.13
2021-06-15 14:03:47;1;120;119;119;119;119;119;120;119;119;119;
2021-06-15 14:03:47;2;118;118;118;118;118;118;118;118;118;118;
2021-06-15 14:03:47;3;44;44;44;44;44;44;44;44;44;44;
2021-06-15 14:03:47;4;116;116;116;116;116;116;116;116;117;116;
2021-06-15 14:03:47;5;120;120;120;120;120;120;119;119;120;119;
2021-06-15 14:03:47;ht;99;14.80
2021-06-15 14:03:47;v;4.13
2021-06-15 14:33:49;1;119;119;119;119;119;119;119;119;118;119;
2021-06-15 14:33:49;2;121;121;121;121;121;121;121;121;121;121;
2021-06-15 14:33:49;3;44;44;44;44;44;44;44;44;44;44;
2021-06-15 14:33:49;4;118;118;118;118;118;118;118;118;118;118;
2021-06-15 14:33:49;5;121;121;121;121;121;121;121;121;121;121;
2021-06-15 14:33:49;ht;99;14.80
2021-06-15 14:33:49;v;4.13
2021-06-15 15:03:46;1;118;118;118;118;118;118;118;118;118;118;
2021-06-15 15:03:46;2;120;120;120;120;120;120;120;120;120;120;
2021-06-15 15:03:46;3;43;43;43;43;43;43;43;43;43;43;
2021-06-15 15:03:46;4;119;119;119;119;119;119;119;119;119;119;
2021-06-15 15:03:46;5;116;116;116;116;116;116;116;116;116;116;
2021-06-15 15:03:46;ht;99;13.40
2021-06-15 15:03:46;v;4.13
2021-06-15 15:33:47;1;132;132;132;132;132;132;132;132;132;132;
2021-06-15 15:33:47;2;116;115;116;116;116;115;115;116;116;116;
2021-06-15 15:33:47;3;43;43;43;43;43;43;43;43;43;43;
2021-06-15 15:33:47;4;120;120;120;120;120;120;120;120;120;120;
2021-06-15 15:33:47;5;107;107;107;107;107;107;107;107;107;107;
2021-06-15 15:33:47;ht;95;15.00
2021-06-15 15:33:47;v;4.13
2021-06-15 16:03:44;1;122;122;122;122;122;122;122;122;122;122;
2021-06-15 16:03:44;2;114;114;114;114;114;114;113;114;114;114;
2021-06-15 16:03:44;3;44;44;44;44;44;44;44;44;44;45;
2021-06-15 16:03:44;4;117;117;117;117;118;117;117;117;117;118;
2021-06-15 16:03:44;5;117;117;117;116;117;116;116;116;116;117;
2021-06-15 16:03:44;ht;90;14.90
2021-06-15 16:03:44;v;4.13
2021-06-15 16:33:46;1;119;119;119;119;119;119;119;119;119;119;
2021-06-15 16:33:46;2;115;115;115;115;115;115;115;115;115;115;
2021-06-15 16:33:46;3;44;44;44;44;45;44;45;45;45;44;
2021-06-15 16:33:46;4;116;116;116;116;116;116;116;116;116;116;
2021-06-15 16:33:46;5;121;121;121;121;121;121;121;121;121;121;
2021-06-15 16:33:46;ht;90;14.00
2021-06-15 16:33:46;v;4.13
2021-06-15 17:03:46;1;121;121;121;121;121;121;121;121;121;121;
2021-06-15 17:03:46;2;115;115;115;115;115;115;115;115;115;115;
2021-06-15 17:03:46;3;44;44;44;44;44;44;44;44;44;44;
2021-06-15 17:03:46;4;117;117;117;117;117;117;117;117;117;117;
2021-06-15 17:03:46;5;118;118;118;118;118;118;118;118;118;118;
2021-06-15 17:03:46;ht;93;13.00
2021-06-15 17:03:46;v;4.13
2021-06-15 17:33:46;1;120;120;121;121;121;121;121;121;120;121;
2021-06-15 17:33:46;2;116;116;116;116;117;116;116;116;116;116;
2021-06-15 17:33:46;3;43;43;43;43;43;43;43;43;43;43;
2021-06-15 17:33:46;4;117;118;117;118;117;118;117;117;117;118;
2021-06-15 17:33:46;5;111;111;111;111;111;111;111;111;111;111;
2021-06-15 17:33:46;ht;97;11.20
2021-06-15 17:33:46;v;4.12
2021-06-15 18:03:44;1;124;124;123;123;123;124;123;123;124;123;
2021-06-15 18:03:44;2;119;119;119;119;119;119;119;119;119;119;
2021-06-15 18:03:44;3;46;46;46;46;46;46;46;46;46;46;
2021-06-15 18:03:44;4;120;120;120;120;120;120;120;120;120;120;
2021-06-15 18:03:44;5;109;108;109;109;108;108;109;109;109;109;
2021-06-15 18:03:44;ht;99;10.30
2021-06-15 18:03:44;v;4.12
2021-06-15 18:33:41;1;122;122;122;122;122;122;122;122;122;122;
2021-06-15 18:33:41;2;118;118;118;118;118;118;118;118;118;118;
2021-06-15 18:33:41;3;47;48;48;47;48;48;47;48;47;47;
2021-06-15 18:33:41;4;115;115;115;115;115;115;115;115;115;115;
2021-06-15 18:33:41;5;108;108;108;108;108;108;108;108;108;108;
2021-06-15 18:33:41;ht;99;9.50
2021-06-15 18:33:41;v;4.12
2021-06-15 19:03:42;1;121;121;121;121;121;121;121;121;121;121;
2021-06-15 19:03:42;2;116;116;116;116;116;116;116;116;116;116;
2021-06-15 19:03:42;3;49;49;49;49;49;49;49;49;49;49;
2021-06-15 19:03:42;4;127;127;127;127;127;127;127;127;127;127;
2021-06-15 19:03:42;5;118;118;119;118;118;118;118;118;118;118;
2021-06-15 19:03:42;ht;99;10.10
2021-06-15 19:03:42;v;4.12
2021-06-15 19:33:43;1;116;116;116;116;116;116;116;116;116;116;
2021-06-15 19:33:43;2;116;116;115;116;116;116;116;116;116;116;
2021-06-15 19:33:43;3;49;49;49;49;49;49;49;49;49;49;
2021-06-15 19:33:43;4;120;120;120;120;120;120;120;120;120;120;
2021-06-15 19:33:43;5;121;121;121;121;121;121;121;121;121;121;
2021-06-15 19:33:43;ht;99;9.80
2021-06-15 19:33:43;v;4.11
2021-06-15 20:03:44;1;122;122;122;122;122;122;122;122;122;122;
2021-06-15 20:03:44;2;117;117;117;117;117;117;117;117;117;117;
2021-06-15 20:03:44;3;50;50;50;50;50;50;50;50;50;50;
2021-06-15 20:03:44;4;123;123;124;123;123;123;123;123;124;124;
2021-06-15 20:03:44;5;113;113;113;113;113;113;112;113;112;113;
2021-06-15 20:03:44;ht;99;9.70
2021-06-15 20:03:44;v;4.12
2021-06-15 20:33:41;1;121;121;121;121;121;121;121;121;121;121;
2021-06-15 20:33:41;2;116;116;116;116;116;116;116;116;116;116;
2021-06-15 20:33:41;3;50;49;50;50;50;50;50;50;50;50;
2021-06-15 20:33:41;4;119;119;119;119;119;119;119;119;119;119;
2021-06-15 20:33:41;5;123;123;123;123;123;123;123;123;123;123;
2021-06-15 20:33:41;ht;99;9.60
2021-06-15 20:33:41;v;4.12
2021-06-15 21:03:42;1;121;121;121;121;121;121;121;121;121;121;
2021-06-15 21:03:42;2;117;116;117;117;116;117;117;117;117;117;
2021-06-15 21:03:42;3;50;50;50;50;50;50;50;50;50;50;
2021-06-15 21:03:42;4;117;118;117;117;118;117;117;117;117;117;
2021-06-15 21:03:42;5;122;122;122;122;121;121;122;121;122;121;
2021-06-15 21:03:42;ht;99;9.40
2021-06-15 21:03:42;v;4.12
2021-06-15 21:33:43;1;121;120;120;120;121;120;120;120;120;121;
2021-06-15 21:33:43;2;117;117;117;117;117;117;117;117;117;117;
2021-06-15 21:33:43;3;50;50;50;50;50;50;49;50;50;50;
2021-06-15 21:33:43;4;122;122;122;122;122;121;122;122;122;122;
2021-06-15 21:33:43;5;118;118;118;118;118;118;118;118;118;118;
2021-06-15 21:33:43;ht;99;9.20
2021-06-15 21:33:43;v;4.11
2021-06-15 22:03:44;1;119;119;119;119;119;119;119;119;119;119;
2021-06-15 22:03:44;2;117;117;117;117;116;117;117;117;117;117;
2021-06-15 22:03:44;3;51;51;51;51;51;51;51;51;51;51;
2021-06-15 22:03:44;4;135;135;135;135;135;135;135;135;135;135;
2021-06-15 22:03:44;5;122;122;122;122;122;122;122;121;122;122;
2021-06-15 22:03:44;ht;99;9.00
2021-06-15 22:03:44;v;4.12
2021-06-15 22:33:40;1;125;125;124;125;124;125;124;124;125;124;
2021-06-15 22:33:40;2;116;116;116;116;116;116;116;116;116;116;
2021-06-15 22:33:40;3;51;51;51;50;51;51;51;51;51;51;
2021-06-15 22:33:40;4;125;125;125;125;125;125;125;125;125;125;
2021-06-15 22:33:40;5;134;134;134;134;134;134;134;134;134;134;
2021-06-15 22:33:40;ht;99;9.00
2021-06-15 22:33:40;v;4.12
2021-06-15 23:03:41;1;118;119;118;118;119;118;119;118;118;119;
2021-06-15 23:03:41;2;116;117;116;116;116;116;116;116;116;116;
2021-06-15 23:03:41;3;51;51;51;51;51;51;51;51;51;51;
2021-06-15 23:03:41;4;130;130;130;130;130;130;130;130;130;130;
2021-06-15 23:03:41;5;129;129;130;130;129;130;130;129;130;130;
2021-06-15 23:03:41;ht;99;9.30
2021-06-15 23:03:41;v;4.11
2021-06-15 23:33:42;1;124;124;124;124;124;124;124;124;124;124;
2021-06-15 23:33:42;2;116;116;116;116;116;116;117;117;116;116;
2021-06-15 23:33:42;3;51;51;51;51;51;51;51;51;51;51;
2021-06-15 23:33:42;4;125;126;125;125;125;125;125;125;125;125;
2021-06-15 23:33:42;5;119;119;119;119;119;119;119;119;119;119;
2021-06-15 23:33:42;ht;99;9.30
2021-06-15 23:33:42;v;4.11
