2021-06-22 00:03:44;1;127;127;127;127;127;127;127;127;127;127;
2021-06-22 00:03:44;2;129;129;129;129;129;129;129;129;129;129;
2021-06-22 00:03:44;3;43;43;43;43;43;43;43;43;43;43;
2021-06-22 00:03:44;4;114;113;114;114;114;114;114;114;114;113;
2021-06-22 00:03:44;5;112;113;113;113;113;113;113;113;113;113;
2021-06-22 00:03:44;ht;99;10.70
2021-06-22 00:03:44;v;4.09
2021-06-22 00:33:41;1;126;126;126;126;126;126;126;126;126;126;
2021-06-22 00:33:41;2;118;118;118;118;118;118;118;118;118;118;
2021-06-22 00:33:41;3;43;43;43;43;43;43;43;43;43;43;
2021-06-22 00:33:41;4;115;115;115;115;115;115;115;115;115;115;
2021-06-22 00:33:41;5;116;116;116;116;116;116;116;116;116;116;
2021-06-22 00:33:41;ht;99;10.60
2021-06-22 00:33:41;v;4.09
2021-06-22 01:03:43;1;127;128;127;128;128;127;128;128;127;127;
2021-06-22 01:03:43;2;118;118;118;118;118;118;118;118;118;118;
2021-06-22 01:03:43;3;43;43;43;43;43;43;43;43;43;43;
2021-06-22 01:03:43;4;115;115;115;115;115;115;115;115;115;115;
2021-06-22 01:03:43;5;116;116;116;116;116;116;116;116;116;116;
2021-06-22 01:03:43;ht;99;10.60
2021-06-22 01:03:43;v;4.09
2021-06-22 01:33:44;1;128;128;128;128;128;128;128;128;128;128;
2021-06-22 01:33:44;2;117;117;117;117;117;117;117;117;117;117;
2021-06-22 01:33:44;3;43;43;43;43;43;43;43;43;43;43;
2021-06-22 01:33:44;4;123;123;123;123;123;123;123;123;123;123;
2021-06-22 01:33:44;5;113;114;114;114;114;113;114;114;114;114;
2021-06-22 01:33:44;ht;99;10.40
2021-06-22 01:33:44;v;4.09
2021-06-22 02:03:41;1;134;134;133;134;133;134;133;133;134;134;
2021-06-22 02:03:41;2;116;116;116;116;116;116;116;116;116;116;
2021-06-22 02:03:41;3;43;43;43;43;43;43;43;44;43;43;
2021-06-22 02:03:41;4;122;122;122;122;122;122;122;122;122;122;
2021-06-22 02:03:41;5;115;115;115;115;115;115;115;115;115;115;
2021-06-22 02:03:41;ht;99;10.50
2021-06-22 02:03:41;v;4.09
2021-06-22 02:33:43;1;131;131;131;131;131;131;131;131;130;131;
2021-06-22 02:33:43;2;126;126;126;126;126;126;126;126;126;126;
2021-06-22 02:33:43;3;43;43;43;43;43;43;43;43;43;43;
2021-06-22 02:33:43;4;116;116;116;116;116;116;116;116;116;116;
2021-06-22 02:33:43;5;117;117;117;117;117;117;117;117;117;117;
2021-06-22 02:33:43;ht;99;10.50
2021-06-22 02:33:43;v;4.09
2021-06-22 03:03:44;1;121;121;121;121;121;121;121;121;121;121;
2021-06-22 03:03:44;2;120;120;120;120;120;120;120;120;120;120;
2021-06-22 03:03:44;3;43;43;43;43;43;43;43;43;43;43;
2021-06-22 03:03:44;4;115;115;115;115;115;115;115;115;115;115;
2021-06-22 03:03:44;5;110;110;110;110;110;110;110;110;110;109;
2021-06-22 03:03:44;ht;99;10.40
2021-06-22 03:03:44;v;4.09
2021-06-22 03:33:41;1;122;122;122;122;122;122;122;122;122;122;
2021-06-22 03:33:41;2;120;120;120;120;120;120;120;120;120;120;
2021-06-22 03:33:41;3;43;43;43;43;43;43;43;43;43;43;
2021-06-22 03:33:41;4;117;117;117;117;117;117;117;117;117;117;
2021-06-22 03:33:41;5;121;121;121;121;121;121;120;121;121;121;
2021-06-22 03:33:41;ht;99;10.30
2021-06-22 03:33:41;v;4.08
2021-06-22 04:03:42;1;121;121;121;121;121;121;121;121;121;121;
2021-06-22 04:03:42;2;124;124;124;124;124;124;124;124;124;124;
2021-06-22 04:03:42;3;43;43;43;43;43;43;43;43;43;43;
2021-06-22 04:03:42;4;121;121;121;121;121;121;121;121;121;121;
2021-06-22 04:03:42;5;2;2;2;2;2;2;2;2;2;2;
2021-06-22 04:03:42;ht;99;10.30
2021-06-22 04:03:42;v;4.09
2021-06-22 04:33:44;1;120;120;120;120;120;120;120;120;120;120;
2021-06-22 04:33:44;2;122;122;122;122;122;122;122;122;122;122;
2021-06-22 04:33:44;3;42;42;43;43;42;43;43;43;43;43;
2021-06-22 04:33:44;4;119;119;119;119;119;119;119;119;119;119;
2021-06-22 04:33:44;5;2;2;2;2;2;2;2;2;2;2;
2021-06-22 04:33:44;ht;99;10.40
2021-06-22 04:33:44;v;4.09
2021-06-22 05:03:40;1;119;119;119;119;119;119;119;119;119;119;
2021-06-22 05:03:40;2;120;120;120;120;120;120;120;120;120;120;
2021-06-22 05:03:40;3;43;43;43;43;43;43;43;43;43;43;
2021-06-22 05:03:40;4;122;122;123;123;122;122;123;123;123;123;
2021-06-22 05:03:40;5;124;124;124;124;124;123;123;123;123;123;
2021-06-22 05:03:40;ht;99;10.10
2021-06-22 05:03:40;v;4.08
2021-06-22 05:33:41;1;119;119;119;119;119;119;119;119;119;119;
2021-06-22 05:33:41;2;122;122;122;122;122;122;122;122;122;122;
2021-06-22 05:33:41;3;43;44;43;43;43;43;43;43;43;43;
2021-06-22 05:33:41;4;125;125;125;125;125;125;125;125;125;125;
2021-06-22 05:33:41;5;110;110;110;110;110;110;110;110;110;110;
2021-06-22 05:33:41;ht;99;10.00
2021-06-22 05:33:41;v;4.09
2021-06-22 06:03:42;1;120;120;120;120;120;120;120;120;120;120;
2021-06-22 06:03:42;2;123;123;122;123;123;123;123;123;122;123;
2021-06-22 06:03:42;3;43;43;43;43;43;43;43;43;43;44;
2021-06-22 06:03:42;4;124;124;124;124;124;124;124;124;124;124;
2021-06-22 06:03:42;5;126;126;126;126;126;126;126;126;126;126;
2021-06-22 06:03:42;ht;99;10.20
2021-06-22 06:03:42;v;4.09
2021-06-22 06:33:43;1;119;119;119;119;119;119;119;118;118;118;
2021-06-22 06:33:43;2;111;112;112;112;112;111;111;112;111;112;
2021-06-22 06:33:43;3;43;43;43;42;43;43;43;43;44;43;
2021-06-22 06:33:43;4;125;122;121;121;121;121;121;121;121;121;
2021-06-22 06:33:43;5;119;119;119;119;119;119;119;119;119;119;
2021-06-22 06:33:43;ht;99;9.90
2021-06-22 06:33:43;v;4.09
2021-06-22 07:03:40;1;128;128;128;128;128;128;128;128;128;128;
2021-06-22 07:03:40;2;115;115;115;115;115;115;115;115;115;115;
2021-06-22 07:03:40;3;43;43;42;43;43;42;42;43;42;43;
2021-06-22 07:03:40;4;132;124;123;122;121;122;122;122;122;122;
2021-06-22 07:03:40;5;119;119;119;119;119;119;119;119;119;119;
2021-06-22 07:03:40;ht;99;9.90
2021-06-22 07:03:40;v;4.08
2021-06-22 07:33:41;1;125;125;124;125;125;125;125;125;125;125;
2021-06-22 07:33:41;2;118;118;117;117;117;117;118;118;118;119;
2021-06-22 07:33:41;3;43;43;43;43;43;43;43;43;43;43;
2021-06-22 07:33:41;4;119;119;119;119;119;119;119;118;119;119;
2021-06-22 07:33:41;5;121;121;121;121;121;121;121;121;121;121;
2021-06-22 07:33:41;ht;99;9.70
2021-06-22 07:33:41;v;4.09
2021-06-22 08:03:42;1;119;119;119;118;119;119;119;119;119;119;
2021-06-22 08:03:42;2;113;114;113;114;114;113;113;113;113;113;
2021-06-22 08:03:42;3;42;43;43;43;43;43;43;42;43;43;
2021-06-22 08:03:42;4;116;117;117;117;117;117;117;117;116;117;
2021-06-22 08:03:42;5;111;111;111;111;111;111;111;111;111;111;
2021-06-22 08:03:42;ht;99;9.50
2021-06-22 08:03:42;v;4.09
2021-06-22 08:33:42;1;115;115;115;114;114;115;114;114;114;114;
2021-06-22 08:33:42;2;118;117;117;118;118;118;118;118;118;118;
2021-06-22 08:33:42;3;43;43;43;43;43;43;43;43;43;43;
2021-06-22 08:33:42;4;117;117;117;117;117;117;117;117;117;117;
2021-06-22 08:33:42;5;107;107;107;107;107;107;107;107;107;107;
2021-06-22 08:33:42;ht;99;9.20
2021-06-22 08:33:42;v;4.08
2021-06-22 09:03:43;1;117;117;117;117;117;117;117;117;117;117;
2021-06-22 09:03:43;2;117;117;117;116;117;124;118;117;117;117;
2021-06-22 09:03:43;3;44;44;44;44;44;44;44;44;44;44;
2021-06-22 09:03:43;4;121;121;121;121;121;121;121;121;121;121;
2021-06-22 09:03:43;5;111;111;111;111;111;111;111;111;111;111;
2021-06-22 09:03:43;ht;99;9.10
2021-06-22 09:03:43;v;4.08
2021-06-22 09:33:44;1;122;122;123;122;122;123;123;122;123;122;
2021-06-22 09:33:44;2;124;124;124;124;125;124;124;124;125;125;
2021-06-22 09:33:44;3;44;44;44;44;44;45;44;44;44;44;
2021-06-22 09:33:44;4;117;117;117;117;117;117;117;117;117;117;
2021-06-22 09:33:44;5;113;113;113;113;113;113;113;113;113;113;
2021-06-22 09:33:44;ht;99;9.30
2021-06-22 09:33:44;v;4.09
2021-06-22 10:03:40;1;117;116;117;117;117;116;117;117;117;117;
2021-06-22 10:03:40;2;116;116;116;116;116;116;116;116;116;116;
2021-06-22 10:03:40;3;44;43;44;44;44;44;44;43;45;44;
2021-06-22 10:03:40;4;122;122;122;122;122;122;122;122;121;122;
2021-06-22 10:03:40;5;111;111;111;111;111;111;111;111;111;111;
2021-06-22 10:03:40;ht;99;9.60
2021-06-22 10:03:40;v;4.09
2021-06-22 10:33:41;1;119;119;119;119;119;119;119;119;119;119;
2021-06-22 10:33:41;2;132;132;132;132;132;132;132;132;132;132;
2021-06-22 10:33:41;3;42;42;42;42;43;43;43;43;42;42;
2021-06-22 10:33:41;4;124;124;124;124;124;124;124;124;124;124;
2021-06-22 10:33:41;5;109;109;109;109;109;109;109;109;109;109;
2021-06-22 10:33:41;ht;99;10.10
2021-06-22 10:33:41;v;4.08
2021-06-22 11:03:43;1;115;115;115;115;115;116;115;115;115;115;
2021-06-22 11:03:43;2;114;114;122;115;114;114;114;114;114;114;
2021-06-22 11:03:43;3;38;38;38;38;38;38;38;38;38;37;
2021-06-22 11:03:43;4;115;115;115;115;115;115;115;115;115;115;
2021-06-22 11:03:43;5;113;113;113;113;113;113;113;113;113;113;
2021-06-22 11:03:43;ht;99;10.80
2021-06-22 11:03:43;v;4.09
2021-06-22 11:33:46;1;116;116;116;116;116;116;116;116;116;116;
2021-06-22 11:33:46;2;109;109;109;109;109;109;109;110;110;110;
2021-06-22 11:33:46;3;28;28;28;28;28;28;28;29;28;28;
2021-06-22 11:33:46;4;124;124;124;124;124;124;124;124;124;124;
2021-06-22 11:33:46;5;106;106;106;106;106;106;106;106;106;106;
2021-06-22 11:33:46;ht;99;13.40
2021-06-22 11:33:46;v;4.09
2021-06-22 12:03:46;1;117;116;117;117;117;117;117;117;117;117;
2021-06-22 12:03:46;2;121;121;121;121;121;121;121;121;121;121;
2021-06-22 12:03:46;3;23;23;23;22;22;22;22;23;23;23;
2021-06-22 12:03:46;4;118;118;118;118;118;118;118;118;118;118;
2021-06-22 12:03:46;5;104;103;104;104;104;104;104;103;104;104;
2021-06-22 12:03:46;ht;99;14.50
2021-06-22 12:03:46;v;4.09
2021-06-22 12:33:47;1;120;120;120;120;120;120;119;120;119;120;
2021-06-22 12:33:47;2;111;111;110;111;111;111;111;111;111;111;
2021-06-22 12:33:47;3;18;17;17;18;17;17;18;18;18;17;
2021-06-22 12:33:47;4;115;115;115;115;115;115;115;115;115;115;
2021-06-22 12:33:47;5;110;110;111;110;110;110;110;110;110;110;
2021-06-22 12:33:47;ht;99;15.70
2021-06-22 12:33:47;v;4.08
2021-06-22 13:03:49;1;118;118;118;118;118;118;118;118;118;118;
2021-06-22 13:03:49;2;111;111;111;110;110;111;111;111;110;111;
2021-06-22 13:03:49;3;13;13;13;13;13;13;13;12;13;13;
2021-06-22 13:03:49;4;121;121;121;121;121;121;121;121;121;121;
2021-06-22 13:03:49;5;120;120;120;120;120;120;120;120;120;120;
2021-06-22 13:03:49;ht;99;16.60
2021-06-22 13:03:49;v;4.09
2021-06-22 13:33:47;1;118;118;118;118;118;118;118;118;118;118;
2021-06-22 13:33:47;2;121;121;121;121;121;121;121;121;121;121;
2021-06-22 13:33:47;3;12;13;12;12;13;13;13;13;12;12;
2021-06-22 13:33:47;4;124;124;124;123;124;124;124;124;124;124;
2021-06-22 13:33:47;5;116;116;116;116;116;117;117;116;117;117;
2021-06-22 13:33:47;ht;99;17.40
2021-06-22 13:33:47;v;4.09
2021-06-22 14:03:50;1;124;124;124;124;124;124;124;124;124;124;
2021-06-22 14:03:50;2;116;116;116;117;116;116;117;117;116;124;
2021-06-22 14:03:50;3;18;18;18;18;18;18;18;18;18;18;
2021-06-22 14:03:50;4;121;121;121;121;121;121;121;121;121;121;
2021-06-22 14:03:50;5;105;106;105;106;105;106;106;106;105;106;
2021-06-22 14:03:50;ht;99;17.10
2021-06-22 14:03:50;v;4.09
2021-06-22 14:33:49;1;120;120;120;120;120;120;120;120;120;120;
2021-06-22 14:33:49;2;116;116;116;116;116;116;116;116;116;116;
2021-06-22 14:33:49;3;19;19;19;19;19;19;19;19;19;19;
2021-06-22 14:33:49;4;126;126;126;126;126;126;126;126;126;126;
2021-06-22 14:33:49;5;123;123;123;123;123;123;123;123;123;123;
2021-06-22 14:33:49;ht;99;18.70
2021-06-22 14:33:49;v;4.09
2021-06-22 15:03:49;1;117;117;116;117;117;117;117;117;117;116;
2021-06-22 15:03:49;2;109;108;109;109;108;109;109;109;109;109;
2021-06-22 15:03:49;3;20;21;21;21;21;21;21;21;20;21;
2021-06-22 15:03:49;4;124;124;124;125;124;124;125;124;125;124;
2021-06-22 15:03:49;5;116;116;116;116;116;116;116;116;116;116;
2021-06-22 15:03:49;ht;99;18.10
2021-06-22 15:03:49;v;4.09
2021-06-22 15:33:47;1;121;121;121;121;121;121;121;121;121;121;
2021-06-22 15:33:47;2;115;116;116;116;116;116;116;116;116;116;
2021-06-22 15:33:47;3;25;24;24;24;24;24;24;25;24;25;
2021-06-22 15:33:47;4;117;116;117;116;116;116;117;116;116;116;
2021-06-22 15:33:47;5;114;114;114;114;114;114;114;114;114;114;
2021-06-22 15:33:47;ht;99;17.30
2021-06-22 15:33:47;v;4.09
2021-06-22 16:03:46;1;116;116;116;116;116;116;116;116;116;116;
2021-06-22 16:03:46;2;118;118;118;118;118;118;118;118;118;118;
2021-06-22 16:03:46;3;31;31;31;31;31;31;31;31;31;31;
2021-06-22 16:03:46;4;119;119;119;119;119;119;119;119;119;119;
2021-06-22 16:03:46;5;108;108;108;108;108;108;108;108;108;108;
2021-06-22 16:03:46;ht;99;18.00
2021-06-22 16:03:46;v;4.09
2021-06-22 16:33:49;1;121;121;121;121;121;121;121;121;121;121;
2021-06-22 16:33:49;2;110;110;111;111;111;110;111;111;111;111;
2021-06-22 16:33:49;3;36;35;35;35;35;35;35;35;36;35;
2021-06-22 16:33:49;4;118;118;118;118;118;118;118;118;118;118;
2021-06-22 16:33:49;5;119;119;119;119;119;119;119;119;119;118;
2021-06-22 16:33:49;ht;99;17.40
2021-06-22 16:33:49;v;4.09
2021-06-22 17:03:47;1;121;121;121;121;121;121;121;121;121;121;
2021-06-22 17:03:47;2;112;112;112;112;112;112;112;112;112;112;
2021-06-22 17:03:47;3;37;37;37;37;37;37;37;37;37;37;
2021-06-22 17:03:47;4;117;117;117;117;117;117;117;117;117;117;
2021-06-22 17:03:47;5;113;113;113;113;113;113;113;113;113;113;
2021-06-22 17:03:47;ht;99;16.90
2021-06-22 17:03:47;v;4.09
2021-06-22 17:33:45;1;119;119;119;119;119;119;119;119;119;119;
2021-06-22 17:33:45;2;112;112;112;112;112;112;112;112;112;112;
2021-06-22 17:33:45;3;39;39;39;39;39;39;38;39;38;38;
2021-06-22 17:33:45;4;117;116;117;117;117;116;116;116;116;117;
2021-06-22 17:33:45;5;120;120;120;120;120;120;120;120;120;120;
2021-06-22 17:33:45;ht;99;15.90
2021-06-22 17:33:45;v;4.09
2021-06-22 18:03:46;1;118;118;118;118;118;118;118;118;118;118;
2021-06-22 18:03:46;2;113;113;113;113;113;113;113;113;113;113;
2021-06-22 18:03:46;3;40;40;40;40;40;40;40;40;40;40;
2021-06-22 18:03:46;4;118;118;118;118;118;118;118;118;118;118;
2021-06-22 18:03:46;5;112;112;111;111;111;111;111;111;111;111;
2021-06-22 18:03:46;ht;99;14.20
2021-06-22 18:03:46;v;4.09
2021-06-22 18:33:45;1;118;118;118;118;118;118;118;118;118;117;
2021-06-22 18:33:45;2;121;121;121;121;121;121;121;121;121;121;
2021-06-22 18:33:45;3;43;42;42;42;42;42;42;42;42;43;
2021-06-22 18:33:45;4;116;116;116;116;116;116;116;116;116;116;
2021-06-22 18:33:45;5;107;107;107;107;107;107;107;107;107;107;
2021-06-22 18:33:45;ht;99;12.80
2021-06-22 18:33:45;v;4.09
2021-06-22 19:03:43;1;116;116;116;116;116;116;116;116;116;116;
2021-06-22 19:03:43;2;121;121;121;121;121;121;121;121;121;121;
2021-06-22 19:03:43;3;44;44;44;43;44;44;44;44;43;44;
2021-06-22 19:03:43;4;121;121;121;121;122;121;122;122;122;122;
2021-06-22 19:03:43;5;118;118;117;117;117;118;118;118;118;118;
2021-06-22 19:03:43;ht;99;10.90
2021-06-22 19:03:43;v;4.08
2021-06-22 19:33:45;1;126;126;126;126;126;126;126;126;126;126;
2021-06-22 19:33:45;2;114;115;115;115;115;115;114;114;114;114;
2021-06-22 19:33:45;3;45;45;45;45;45;45;45;45;45;45;
2021-06-22 19:33:45;4;122;122;122;122;122;122;122;122;122;122;
2021-06-22 19:33:45;5;123;123;123;123;123;123;123;123;123;123;
2021-06-22 19:33:45;ht;99;10.30
2021-06-22 19:33:45;v;4.08
2021-06-22 20:03:42;1;117;117;117;116;117;116;117;117;117;118;
2021-06-22 20:03:42;2;114;121;116;115;114;114;114;114;114;114;
2021-06-22 20:03:42;3;47;47;47;47;47;47;47;47;47;47;
2021-06-22 20:03:42;4;115;115;115;115;115;115;115;115;115;115;
2021-06-22 20:03:42;5;121;121;121;121;121;121;121;121;121;121;
2021-06-22 20:03:42;ht;99;10.10
2021-06-22 20:03:42;v;4.08
2021-06-22 20:33:43;1;118;118;118;118;118;117;118;118;118;117;
2021-06-22 20:33:43;2;114;115;114;114;114;115;114;114;121;116;
2021-06-22 20:33:43;3;47;48;47;47;47;47;47;47;47;47;
2021-06-22 20:33:43;4;119;119;119;119;119;119;119;119;119;119;
2021-06-22 20:33:43;5;117;117;117;117;117;117;117;117;117;117;
2021-06-22 20:33:43;ht;99;8.60
2021-06-22 20:33:43;v;4.08
2021-06-22 21:03:43;1;126;126;126;126;126;126;126;127;127;126;
2021-06-22 21:03:43;2;114;114;114;114;114;115;114;115;115;115;
2021-06-22 21:03:43;3;49;49;49;49;49;49;49;49;49;49;
2021-06-22 21:03:43;4;120;119;120;119;119;119;119;119;119;120;
2021-06-22 21:03:43;5;116;116;116;116;116;116;116;116;116;116;
2021-06-22 21:03:43;ht;99;8.70
2021-06-22 21:03:43;v;4.08
2021-06-22 21:33:43;1;124;124;124;124;124;124;124;124;124;124;
2021-06-22 21:33:43;2;115;115;115;115;115;116;116;115;115;115;
2021-06-22 21:33:43;3;50;49;49;49;49;50;49;49;50;50;
2021-06-22 21:33:43;4;120;120;120;120;120;120;120;119;120;120;
2021-06-22 21:33:43;5;113;114;113;113;113;113;113;113;113;114;
2021-06-22 21:33:43;ht;99;10.80
2021-06-22 21:33:43;v;4.07
2021-06-22 22:03:40;1;121;121;121;120;121;121;121;120;121;121;
2021-06-22 22:03:40;2;117;117;117;117;117;117;117;117;117;117;
2021-06-22 22:03:40;3;49;49;49;49;49;49;49;49;49;49;
2021-06-22 22:03:40;4;126;126;126;126;126;126;126;126;126;126;
2021-06-22 22:03:40;5;117;117;117;117;117;117;117;117;117;117;
2021-06-22 22:03:40;ht;99;11.90
2021-06-22 22:03:40;v;4.08
2021-06-22 22:33:42;1;123;123;123;122;122;123;122;122;123;122;
2021-06-22 22:33:42;2;120;120;120;120;128;121;120;120;120;120;
2021-06-22 22:33:42;3;48;48;48;48;48;48;48;48;48;48;
2021-06-22 22:33:42;4;120;120;120;120;120;120;120;120;120;120;
2021-06-22 22:33:42;5;111;111;111;111;111;111;111;111;111;111;
2021-06-22 22:33:42;ht;99;12.60
2021-06-22 22:33:42;v;4.08
2021-06-22 23:03:45;1;117;116;116;117;117;117;117;117;123;118;
2021-06-22 23:03:45;2;120;119;119;119;119;119;119;119;119;119;
2021-06-22 23:03:45;3;47;47;47;47;47;47;47;47;47;47;
2021-06-22 23:03:45;4;116;116;116;116;116;116;116;116;116;116;
2021-06-22 23:03:45;5;115;115;115;115;115;116;115;116;116;115;
2021-06-22 23:03:45;ht;99;12.60
2021-06-22 23:03:45;v;4.08
2021-06-22 23:33:43;1;119;119;119;119;127;120;119;119;119;119;
2021-06-22 23:33:43;2;118;118;118;118;118;118;118;118;118;118;
2021-06-22 23:33:43;3;47;47;47;47;47;47;47;47;47;47;
2021-06-22 23:33:43;4;126;126;126;126;126;126;126;126;126;126;
2021-06-22 23:33:43;5;124;124;124;124;124;124;124;124;124;124;
2021-06-22 23:33:43;ht;99;12.50
2021-06-22 23:33:43;v;4.08
