#2021-05-28 16:39:40;4.12;156.61;92;21.10
2021-05-28 17:03:34;4.13;155.97;90;20.40
2021-05-28 17:34:32;4.13;155.32;89;20.00
2021-05-28 18:04:23;4.13;154.68;95;18.60
2021-05-28 18:34:22;4.12;154.68;95;17.50
2021-05-28 19:04:20;4.12;154.68;89;17.60
2021-05-28 19:34:23;4.12;153.55;89;16.30
2021-05-28 20:04:19;4.12;154.68;96;14.20
2021-05-28 20:34:19;4.12;152.58;99;13.70
2021-05-28 21:04:18;4.12;154.19;99;13.20
2021-05-28 21:34:17;4.12;154.19;99;12.60
2021-05-28 22:04:16;4.12;154.36;99;11.90
2021-05-28 22:34:18;4.12;154.36;99;11.70
2021-05-28 23:04:16;4.12;152.26;99;12.20
2021-05-28 23:34:19;4.12;153.87;97;13.00
