2022-01-17 00:03:51;1;124;124;124;123;124;124;123;123;124;124;
2022-01-17 00:03:51;2;125;125;125;125;125;125;125;125;124;125;
2022-01-17 00:03:51;3;23;24;23;23;24;24;24;23;24;24;
2022-01-17 00:03:51;4;122;122;122;122;122;122;122;122;122;122;
2022-01-17 00:03:51;5;126;126;126;126;126;126;126;126;126;126;
2022-01-17 00:03:51;ht;99;23.70
2022-01-17 00:03:51;v;4.17
2022-01-17 00:33:49;1;123;123;123;123;123;123;123;123;123;123;
2022-01-17 00:33:49;2;125;124;124;125;125;124;124;124;124;125;
2022-01-17 00:33:49;3;24;24;24;24;24;24;24;24;24;24;
2022-01-17 00:33:49;4;120;121;121;121;121;120;121;120;121;120;
2022-01-17 00:33:49;5;127;127;127;128;127;127;128;128;128;128;
2022-01-17 00:33:49;ht;99;23.80
2022-01-17 00:33:49;v;4.17
2022-01-17 01:03:52;1;126;126;126;126;126;126;126;126;126;126;
2022-01-17 01:03:52;2;125;125;125;125;125;125;125;125;125;125;
2022-01-17 01:03:52;3;24;23;24;23;23;23;23;23;23;24;
2022-01-17 01:03:52;4;1;1;1;2;1;2;1;1;2;1;
2022-01-17 01:03:52;5;124;125;125;124;124;124;125;124;124;124;
2022-01-17 01:03:52;ht;99;24.00
2022-01-17 01:03:52;v;4.17
2022-01-17 01:33:50;1;126;126;126;126;126;126;126;126;126;126;
2022-01-17 01:33:50;2;126;126;126;126;126;126;126;126;126;126;
2022-01-17 01:33:50;3;23;23;23;23;24;23;24;23;23;24;
2022-01-17 01:33:50;4;123;123;123;123;123;123;123;123;123;123;
2022-01-17 01:33:50;5;119;119;120;119;119;119;119;119;119;119;
2022-01-17 01:33:50;ht;99;25.40
2022-01-17 01:33:50;v;4.17
2022-01-17 02:03:53;1;116;116;116;116;116;116;116;116;116;116;
2022-01-17 02:03:53;2;125;124;124;124;124;124;124;124;124;124;
2022-01-17 02:03:53;3;24;24;24;23;24;23;24;23;24;23;
2022-01-17 02:03:53;4;121;121;122;121;121;121;121;121;121;121;
2022-01-17 02:03:53;5;127;127;127;127;127;127;127;127;127;127;
2022-01-17 02:03:53;ht;99;24.60
2022-01-17 02:03:53;v;4.17
2022-01-17 02:33:52;1;117;117;117;117;117;117;117;117;117;117;
2022-01-17 02:33:52;2;125;125;125;125;125;125;125;125;125;125;
2022-01-17 02:33:52;3;23;23;23;24;24;23;23;23;24;23;
2022-01-17 02:33:52;4;125;125;125;124;124;124;124;124;124;124;
2022-01-17 02:33:52;5;120;120;120;120;120;120;120;120;120;120;
2022-01-17 02:33:52;ht;99;25.20
2022-01-17 02:33:52;v;4.17
2022-01-17 03:03:51;1;123;123;123;123;123;123;123;123;123;123;
2022-01-17 03:03:51;2;124;124;124;124;124;124;124;124;124;124;
2022-01-17 03:03:51;3;24;24;24;24;23;23;23;24;23;23;
2022-01-17 03:03:51;4;125;125;125;125;125;125;125;124;124;124;
2022-01-17 03:03:51;5;1;1;1;1;1;1;1;1;1;1;
2022-01-17 03:03:51;ht;99;24.10
2022-01-17 03:03:51;v;4.16
2022-01-17 03:33:54;1;123;123;123;123;123;123;123;123;123;123;
2022-01-17 03:33:54;2;131;131;130;130;129;129;129;129;128;128;
2022-01-17 03:33:54;3;32;33;33;33;33;33;33;33;33;33;
2022-01-17 03:33:54;4;2;2;2;2;2;2;2;2;2;2;
2022-01-17 03:33:54;5;128;127;128;127;128;128;128;128;128;128;
2022-01-17 03:33:54;ht;99;22.10
2022-01-17 03:33:54;v;4.17
2022-01-17 04:03:52;1;125;125;125;125;125;125;125;125;125;125;
2022-01-17 04:03:52;2;122;122;122;122;122;122;122;122;122;122;
2022-01-17 04:03:52;3;32;32;32;32;32;31;32;32;32;31;
2022-01-17 04:03:52;4;125;125;125;125;125;125;125;125;125;125;
2022-01-17 04:03:52;5;124;124;124;125;124;124;125;125;125;125;
2022-01-17 04:03:52;ht;99;21.50
2022-01-17 04:03:52;v;4.17
2022-01-17 04:33:48;1;125;125;125;125;125;125;125;125;125;125;
2022-01-17 04:33:48;2;123;123;123;123;123;123;123;123;123;123;
2022-01-17 04:33:48;3;32;32;32;32;32;32;32;32;32;32;
2022-01-17 04:33:48;4;1;1;1;1;1;1;1;1;1;1;
2022-01-17 04:33:48;5;125;125;125;125;125;125;125;125;125;125;
2022-01-17 04:33:48;ht;99;21.70
2022-01-17 04:33:48;v;4.16
2022-01-17 05:03:49;1;122;122;122;122;122;122;122;122;122;122;
2022-01-17 05:03:49;2;122;121;122;121;121;122;121;122;122;122;
2022-01-17 05:03:49;3;118;118;118;118;119;119;119;119;119;119;
2022-01-17 05:03:49;4;1;2;2;1;1;1;1;1;1;1;
2022-01-17 05:03:49;5;126;126;126;126;126;126;126;126;126;126;
2022-01-17 05:03:49;ht;99;21.20
2022-01-17 05:03:49;v;4.16
2022-01-17 05:33:50;1;125;125;125;125;125;125;125;125;125;125;
2022-01-17 05:33:50;2;142;142;141;142;142;141;141;141;141;141;
2022-01-17 05:33:50;3;29;29;29;30;30;30;29;30;30;30;
2022-01-17 05:33:50;4;127;127;127;127;127;127;127;127;127;127;
2022-01-17 05:33:50;5;126;126;126;127;126;127;127;127;127;127;
2022-01-17 05:33:50;ht;99;20.80
2022-01-17 05:33:50;v;4.17
2022-01-17 06:03:50;1;126;126;126;126;126;126;126;126;126;126;
2022-01-17 06:03:50;2;118;118;118;118;118;118;118;118;118;118;
2022-01-17 06:03:50;3;30;30;30;30;29;30;30;30;30;29;
2022-01-17 06:03:50;4;126;126;126;126;126;126;126;126;126;126;
2022-01-17 06:03:50;5;122;121;121;121;121;121;122;121;122;121;
2022-01-17 06:03:50;ht;99;21.00
2022-01-17 06:03:50;v;4.16
2022-01-17 06:33:50;1;114;114;114;114;114;114;114;114;114;114;
2022-01-17 06:33:50;2;126;126;126;126;126;126;126;126;126;126;
2022-01-17 06:33:50;3;115;115;115;115;114;115;115;115;115;115;
2022-01-17 06:33:50;4;126;126;125;126;125;125;125;126;126;125;
2022-01-17 06:33:50;5;116;116;116;116;116;116;116;116;116;116;
2022-01-17 06:33:50;ht;99;22.00
2022-01-17 06:33:50;v;4.16
2022-01-17 07:03:50;1;119;118;118;119;118;118;118;118;118;118;
2022-01-17 07:03:50;2;134;134;134;134;134;135;134;134;135;135;
2022-01-17 07:03:50;3;136;136;136;136;135;136;136;136;135;136;
2022-01-17 07:03:50;4;127;127;127;127;128;128;127;128;128;128;
2022-01-17 07:03:50;5;2;2;2;2;2;2;2;2;2;2;
2022-01-17 07:03:50;ht;99;21.70
2022-01-17 07:03:50;v;4.16
2022-01-17 07:33:50;1;118;117;118;118;118;118;118;118;118;117;
2022-01-17 07:33:50;2;114;114;114;114;114;114;114;114;114;114;
2022-01-17 07:33:50;3;127;127;127;127;127;126;127;127;127;127;
2022-01-17 07:33:50;4;121;121;121;121;121;121;121;121;121;121;
2022-01-17 07:33:50;5;124;123;123;123;123;124;124;124;124;124;
2022-01-17 07:33:50;ht;99;21.10
2022-01-17 07:33:50;v;4.16
2022-01-17 08:03:50;1;113;113;113;113;113;114;114;113;113;113;
2022-01-17 08:03:50;2;126;126;126;126;126;126;126;126;126;126;
2022-01-17 08:03:50;3;124;124;124;124;124;124;125;125;125;125;
2022-01-17 08:03:50;4;121;121;121;121;121;121;121;121;121;121;
2022-01-17 08:03:50;5;123;123;123;124;124;124;124;124;123;124;
2022-01-17 08:03:50;ht;99;21.20
2022-01-17 08:03:50;v;4.16
2022-01-17 08:33:50;1;115;115;115;115;115;115;115;115;115;115;
2022-01-17 08:33:50;2;119;119;119;119;119;119;119;119;119;119;
2022-01-17 08:33:50;3;113;114;114;113;114;114;114;114;114;114;
2022-01-17 08:33:50;4;126;126;126;126;126;126;126;126;126;126;
2022-01-17 08:33:50;5;125;125;124;124;124;125;125;124;124;124;
2022-01-17 08:33:50;ht;99;21.10
2022-01-17 08:33:50;v;4.16
2022-01-17 09:03:50;1;117;117;117;117;117;117;117;117;117;117;
2022-01-17 09:03:50;2;118;118;118;118;118;118;118;118;118;118;
2022-01-17 09:03:50;3;126;126;126;126;126;126;126;126;126;126;
2022-01-17 09:03:50;4;120;120;120;120;120;120;120;120;120;120;
2022-01-17 09:03:50;5;126;126;126;126;126;126;126;126;126;126;
2022-01-17 09:03:50;ht;99;20.80
2022-01-17 09:03:50;v;4.16
2022-01-17 09:33:50;1;119;119;119;119;119;119;119;119;119;119;
2022-01-17 09:33:50;2;124;123;124;123;123;123;123;124;124;123;
2022-01-17 09:33:50;3;120;121;121;121;121;123;123;123;123;123;
2022-01-17 09:33:50;4;116;116;116;116;117;116;116;116;116;116;
2022-01-17 09:33:50;5;126;126;126;126;126;126;127;127;127;127;
2022-01-17 09:33:50;ht;99;21.00
2022-01-17 09:33:50;v;4.16
2022-01-17 10:03:51;1;127;127;127;127;127;127;127;127;127;127;
2022-01-17 10:03:51;2;118;118;118;118;118;118;118;118;118;118;
2022-01-17 10:03:51;3;30;30;30;30;30;30;30;30;30;30;
2022-01-17 10:03:51;4;112;112;112;112;112;112;112;112;112;111;
2022-01-17 10:03:51;5;124;124;124;124;124;124;124;124;124;124;
2022-01-17 10:03:51;ht;99;21.40
2022-01-17 10:03:51;v;4.16
2022-01-17 10:33:51;1;121;121;121;121;121;121;121;121;121;121;
2022-01-17 10:33:51;2;120;120;120;120;120;120;120;120;120;120;
2022-01-17 10:33:51;3;119;119;119;118;118;119;119;118;119;118;
2022-01-17 10:33:51;4;121;122;122;121;121;121;121;121;121;121;
2022-01-17 10:33:51;5;125;126;126;126;126;126;125;126;125;125;
2022-01-17 10:33:51;ht;99;21.50
2022-01-17 10:33:51;v;4.16
2022-01-17 11:03:51;1;126;126;126;126;126;126;126;126;126;126;
2022-01-17 11:03:51;2;116;116;116;116;116;116;116;116;116;116;
2022-01-17 11:03:51;3;39;39;39;39;39;39;39;39;39;39;
2022-01-17 11:03:51;4;116;116;116;116;116;117;116;116;117;116;
2022-01-17 11:03:51;5;126;126;126;126;126;126;126;126;126;126;
2022-01-17 11:03:51;ht;99;21.30
2022-01-17 11:03:51;v;4.16
2022-01-17 11:33:47;1;127;127;127;127;127;127;126;127;127;127;
2022-01-17 11:33:47;2;127;127;127;127;127;127;127;127;127;127;
2022-01-17 11:33:47;3;40;40;40;40;40;40;40;40;40;40;
2022-01-17 11:33:47;4;121;121;122;122;121;121;122;122;121;122;
2022-01-17 11:33:47;5;125;125;125;125;125;125;126;126;126;126;
2022-01-17 11:33:47;ht;99;21.60
2022-01-17 11:33:47;v;4.16
2022-01-17 12:03:49;1;118;118;118;118;118;118;118;118;118;118;
2022-01-17 12:03:49;2;120;120;120;120;120;120;120;120;120;120;
2022-01-17 12:03:49;3;32;32;32;32;32;32;32;32;32;32;
2022-01-17 12:03:49;4;120;120;119;120;120;120;119;119;120;120;
2022-01-17 12:03:49;5;120;120;120;120;120;120;120;120;120;120;
2022-01-17 12:03:49;ht;99;24.50
2022-01-17 12:03:49;v;4.16
2022-01-17 12:33:53;1;120;120;120;120;120;120;120;120;120;120;
2022-01-17 12:33:53;2;126;126;126;126;126;126;126;126;126;126;
2022-01-17 12:33:53;3;27;27;27;26;27;26;27;27;27;26;
2022-01-17 12:33:53;4;122;122;122;122;122;122;122;122;122;122;
2022-01-17 12:33:53;5;116;116;116;116;116;116;116;116;116;116;
2022-01-17 12:33:53;ht;99;24.90
2022-01-17 12:33:53;v;4.16
2022-01-17 13:03:52;1;123;123;123;123;123;123;123;123;123;123;
2022-01-17 13:03:52;2;113;113;113;113;113;113;113;114;114;114;
2022-01-17 13:03:52;3;27;27;27;27;27;27;27;27;27;27;
2022-01-17 13:03:52;4;122;122;121;122;122;122;122;122;122;122;
2022-01-17 13:03:52;5;121;121;121;121;121;121;121;122;122;122;
2022-01-17 13:03:52;ht;99;25.60
2022-01-17 13:03:52;v;4.16
2022-01-17 13:33:52;1;122;122;122;122;122;122;122;122;122;122;
2022-01-17 13:33:52;2;116;116;116;115;116;116;115;116;116;116;
2022-01-17 13:33:52;3;133;133;133;133;133;133;133;133;133;133;
2022-01-17 13:33:52;4;119;119;119;118;118;119;118;118;119;119;
2022-01-17 13:33:52;5;124;124;124;124;124;124;124;124;124;124;
2022-01-17 13:33:52;ht;99;25.10
2022-01-17 13:33:52;v;4.16
2022-01-17 14:03:52;1;117;117;117;117;117;117;117;117;117;117;
2022-01-17 14:03:52;2;118;118;118;118;118;118;118;118;118;118;
2022-01-17 14:03:52;3;35;35;35;35;35;35;35;35;35;35;
2022-01-17 14:03:52;4;123;124;124;124;123;123;123;124;124;124;
2022-01-17 14:03:52;5;121;121;121;121;121;121;121;122;121;121;
2022-01-17 14:03:52;ht;99;26.50
2022-01-17 14:03:52;v;4.16
2022-01-17 14:33:52;1;118;118;118;118;118;118;117;117;118;118;
2022-01-17 14:33:52;2;119;119;119;119;119;119;118;119;119;119;
2022-01-17 14:33:52;3;23;24;23;24;24;24;23;24;23;24;
2022-01-17 14:33:52;4;123;123;123;123;123;123;123;123;123;123;
2022-01-17 14:33:52;5;120;120;120;120;120;120;120;120;120;120;
2022-01-17 14:33:52;ht;99;23.30
2022-01-17 14:33:52;v;4.16
2022-01-17 15:03:51;1;123;122;122;122;122;122;122;123;122;122;
2022-01-17 15:03:51;2;130;130;130;130;130;130;130;130;131;131;
2022-01-17 15:03:51;3;32;32;32;32;31;32;32;32;32;32;
2022-01-17 15:03:51;4;115;115;116;116;115;116;115;115;115;116;
2022-01-17 15:03:51;5;1;1;1;1;1;2;2;2;2;2;
2022-01-17 15:03:51;ht;99;21.70
2022-01-17 15:03:51;v;4.16
2022-01-17 15:33:52;1;124;124;124;124;124;124;124;124;124;124;
2022-01-17 15:33:52;2;123;123;123;123;123;123;123;123;123;123;
2022-01-17 15:33:52;3;116;116;116;116;116;116;116;116;117;116;
2022-01-17 15:33:52;4;131;131;131;131;131;131;131;131;131;131;
2022-01-17 15:33:52;5;129;129;129;129;129;129;129;129;129;129;
2022-01-17 15:33:52;ht;99;21.30
2022-01-17 15:33:52;v;4.16
2022-01-17 16:03:48;1;123;124;123;123;123;123;123;123;123;123;
2022-01-17 16:03:48;2;121;121;121;121;121;121;121;121;121;121;
2022-01-17 16:03:48;3;122;122;122;121;122;122;122;122;121;122;
2022-01-17 16:03:48;4;121;121;121;121;120;121;121;121;121;120;
2022-01-17 16:03:48;5;122;122;122;122;122;122;122;122;122;121;
2022-01-17 16:03:48;ht;99;22.90
2022-01-17 16:03:48;v;4.16
2022-01-17 16:33:49;1;126;126;126;126;126;126;126;126;126;126;
2022-01-17 16:33:49;2;124;124;124;124;124;124;124;124;124;124;
2022-01-17 16:33:49;3;116;116;117;117;116;116;117;117;117;117;
2022-01-17 16:33:49;4;116;116;116;116;116;116;116;116;116;116;
2022-01-17 16:33:49;5;114;114;114;114;115;114;114;114;115;114;
2022-01-17 16:33:49;ht;99;23.10
2022-01-17 16:33:49;v;4.16
2022-01-17 17:03:50;1;118;118;118;118;118;118;118;118;118;117;
2022-01-17 17:03:50;2;125;125;125;125;125;125;125;125;125;125;
2022-01-17 17:03:50;3;25;25;25;25;25;25;25;25;25;25;
2022-01-17 17:03:50;4;124;124;124;124;124;124;124;124;124;124;
2022-01-17 17:03:50;5;123;123;122;123;123;122;123;123;123;123;
2022-01-17 17:03:50;ht;99;22.70
2022-01-17 17:03:50;v;4.16
2022-01-17 17:33:51;1;124;124;124;124;124;124;124;124;124;124;
2022-01-17 17:33:51;2;120;119;119;119;119;119;119;119;119;119;
2022-01-17 17:33:51;3;120;120;119;119;120;119;120;120;119;119;
2022-01-17 17:33:51;4;126;126;126;126;126;126;126;126;126;126;
2022-01-17 17:33:51;5;2;1;1;1;1;2;2;1;2;1;
2022-01-17 17:33:51;ht;99;23.00
2022-01-17 17:33:51;v;4.16
2022-01-17 18:03:52;1;118;117;117;117;117;117;117;117;117;117;
2022-01-17 18:03:52;2;121;121;121;121;121;121;121;121;121;121;
2022-01-17 18:03:52;3;119;119;119;119;119;119;119;119;119;119;
2022-01-17 18:03:52;4;119;120;119;119;119;120;120;119;120;119;
2022-01-17 18:03:52;5;122;122;121;121;121;122;122;121;121;122;
2022-01-17 18:03:52;ht;99;22.90
2022-01-17 18:03:52;v;4.16
2022-01-17 18:33:50;1;117;117;117;117;117;117;117;117;117;117;
2022-01-17 18:33:50;2;135;135;135;135;135;135;134;134;134;134;
2022-01-17 18:33:50;3;1;1;1;1;1;1;1;1;1;1;
2022-01-17 18:33:50;4;124;123;124;124;124;124;124;124;124;124;
2022-01-17 18:33:50;5;117;117;117;117;117;117;117;117;117;117;
2022-01-17 18:33:50;ht;99;23.40
2022-01-17 18:33:50;v;4.16
2022-01-17 19:03:52;1;122;122;122;122;122;122;122;122;122;122;
2022-01-17 19:03:52;2;121;121;121;121;121;121;121;121;121;121;
2022-01-17 19:03:52;3;129;129;129;130;129;129;129;129;129;129;
2022-01-17 19:03:52;4;125;124;124;125;125;124;124;125;124;125;
2022-01-17 19:03:52;5;1;1;1;1;1;1;1;1;1;1;
2022-01-17 19:03:52;ht;99;23.30
2022-01-17 19:03:52;v;4.16
2022-01-17 19:33:49;1;122;122;122;122;122;122;122;122;122;122;
2022-01-17 19:33:49;2;136;136;136;136;136;136;136;136;136;136;
2022-01-17 19:33:49;3;127;127;127;127;127;127;127;127;127;127;
2022-01-17 19:33:49;4;124;124;124;124;123;124;124;124;124;124;
2022-01-17 19:33:49;5;107;107;107;107;108;107;107;107;107;107;
2022-01-17 19:33:49;ht;99;22.90
2022-01-17 19:33:49;v;4.16
2022-01-17 20:03:50;1;122;122;122;122;122;122;122;122;122;122;
2022-01-17 20:03:50;2;138;137;137;137;136;136;135;135;134;134;
2022-01-17 20:03:50;3;126;126;126;126;126;126;126;126;126;126;
2022-01-17 20:03:50;4;119;119;119;119;119;119;119;119;119;119;
2022-01-17 20:03:50;5;111;112;112;112;112;112;112;112;112;112;
2022-01-17 20:03:50;ht;99;22.70
2022-01-17 20:03:50;v;4.16
2022-01-17 20:33:51;1;118;118;118;117;118;118;117;118;118;117;
2022-01-17 20:33:51;2;118;118;118;118;118;118;118;118;118;118;
2022-01-17 20:33:51;3;127;127;127;127;127;127;127;127;127;127;
2022-01-17 20:33:51;4;121;121;120;121;121;120;120;121;120;121;
2022-01-17 20:33:51;5;1;1;1;1;1;2;2;2;2;2;
2022-01-17 20:33:51;ht;99;22.60
2022-01-17 20:33:51;v;4.16
2022-01-17 21:03:52;1;118;118;118;118;118;118;118;118;118;118;
2022-01-17 21:03:52;2;116;116;116;116;116;116;116;116;116;116;
2022-01-17 21:03:52;3;127;127;127;127;127;127;127;127;127;127;
2022-01-17 21:03:52;4;121;121;121;121;121;121;121;121;121;121;
2022-01-17 21:03:52;5;1;1;1;1;2;1;1;1;1;1;
2022-01-17 21:03:52;ht;99;22.40
2022-01-17 21:03:52;v;4.16
2022-01-17 21:33:48;1;118;117;117;117;118;117;117;117;117;118;
2022-01-17 21:33:48;2;135;135;134;135;135;135;135;134;134;135;
2022-01-17 21:33:48;3;39;39;39;39;39;39;39;39;39;39;
2022-01-17 21:33:48;4;2;1;2;2;2;1;2;2;2;1;
2022-01-17 21:33:48;5;2;1;1;1;1;1;1;1;1;2;
2022-01-17 21:33:48;ht;99;22.60
2022-01-17 21:33:48;v;4.16
2022-01-17 22:03:48;1;126;125;126;126;126;126;126;126;126;126;
2022-01-17 22:03:48;2;136;137;137;137;137;137;137;137;137;137;
2022-01-17 22:03:48;3;39;39;39;39;39;39;39;39;39;39;
2022-01-17 22:03:48;4;141;141;141;141;141;141;141;141;141;141;
2022-01-17 22:03:48;5;1;1;1;1;1;2;2;2;2;2;
2022-01-17 22:03:48;ht;99;22.60
2022-01-17 22:03:48;v;4.16
2022-01-17 22:33:48;1;126;126;125;125;125;126;126;125;125;126;
2022-01-17 22:33:48;2;138;138;138;138;138;138;138;138;138;138;
2022-01-17 22:33:48;3;39;39;39;39;39;39;39;39;39;39;
2022-01-17 22:33:48;4;123;123;123;123;123;123;123;123;123;123;
2022-01-17 22:33:48;5;1;1;2;2;1;1;1;1;1;2;
2022-01-17 22:33:48;ht;99;22.50
2022-01-17 22:33:48;v;4.16
2022-01-17 23:03:49;1;125;125;124;125;124;124;125;124;124;124;
2022-01-17 23:03:49;2;136;136;136;135;136;135;136;136;136;136;
2022-01-17 23:03:49;3;39;39;39;39;39;39;39;39;39;39;
2022-01-17 23:03:49;4;119;119;119;119;119;119;119;118;119;119;
2022-01-17 23:03:49;5;110;110;110;110;110;110;110;111;110;110;
2022-01-17 23:03:49;ht;99;22.50
2022-01-17 23:03:49;v;4.15
2022-01-17 23:33:49;1;124;123;124;124;123;123;124;123;123;124;
2022-01-17 23:33:49;2;125;125;125;125;125;125;125;125;125;125;
2022-01-17 23:33:49;3;40;40;40;40;40;40;40;40;40;40;
2022-01-17 23:33:49;4;2;2;2;2;2;2;2;2;1;2;
2022-01-17 23:33:49;5;2;2;2;2;2;2;2;2;2;2;
2022-01-17 23:33:49;ht;99;22.50
2022-01-17 23:33:49;v;4.16
