#2022-01-31 13:02:53;1;122;121;121;121;120;120;120;120;120;120;
2022-01-31 13:02:53;2;98;98;98;98;97;97;97;97;97;96;
2022-01-31 13:02:53;3;27;27;27;27;27;27;27;27;27;27;
2022-01-31 13:02:53;4;93;93;94;93;93;92;92;92;92;91;
2022-01-31 13:02:53;5;74;75;75;75;75;75;75;75;76;76;
2022-01-31 13:02:53;ht;99;28.70
2022-01-31 13:02:53;v;2.81
#2022-01-31 14:41:57;1;134;135;135;134;134;134;135;135;135;135;
2022-01-31 14:41:57;2;111;112;112;112;112;112;112;112;112;112;
2022-01-31 14:41:57;3;77;77;77;77;77;77;77;78;78;77;
2022-01-31 14:41:57;4;102;102;102;102;102;102;102;101;102;102;
2022-01-31 14:41:57;5;85;87;86;86;86;86;86;87;86;85;
2022-01-31 14:41:57;ht;99;30.60
2022-01-31 14:41:57;v;2.86
#2022-01-31 15:25:00;1;155;155;155;155;155;155;155;155;156;156;
2022-01-31 15:25:00;2;117;118;117;117;118;117;117;117;116;117;
2022-01-31 15:25:00;3;85;85;85;85;85;85;84;84;84;85;
2022-01-31 15:25:00;4;98;97;97;97;96;97;96;96;97;97;
2022-01-31 15:25:00;5;88;87;88;88;87;87;87;87;87;87;
2022-01-31 15:25:00;ht;98;32.30
2022-01-31 15:25:00;v;2.99
