2022-01-08 00:00:40;3.68;108.60;85;20.30
2022-01-08 00:05:39;3.68;109.56;86;20.20
2022-01-08 00:10:42;3.68;109.89;84;19.70
2022-01-08 00:15:41;3.68;108.27;77;19.70
2022-01-08 00:20:40;3.68;108.27;75;19.40
2022-01-08 00:25:39;3.68;109.56;72;19.00
2022-01-08 00:30:42;3.68;109.56;64;18.70
2022-01-08 00:35:41;3.68;109.56;56;18.70
2022-01-08 00:40:39;3.68;110.37;50;18.40
2022-01-08 00:45:42;3.68;108.60;60;18.20
2022-01-08 00:50:41;3.68;108.60;91;18.80
2022-01-08 00:55:39;3.68;110.05;85;18.40
2022-01-08 01:00:43;3.68;108.27;76;18.10
2022-01-08 01:05:41;3.68;108.92;57;17.60
2022-01-08 01:10:39;3.68;110.05;47;17.40
2022-01-08 01:15:43;3.68;108.60;17;17.10
2022-01-08 01:20:41;3.68;109.89;2;17.40
2022-01-08 01:25:39;3.68;108.60;2;17.00
2022-01-08 01:30:42;3.68;108.92;2;17.00
2022-01-08 01:35:41;3.68;110.37;2;16.90
2022-01-08 01:40:39;3.68;110.05;2;17.00
2022-01-08 01:45:42;3.68;108.92;2;17.10
2022-01-08 01:50:40;3.68;108.92;2;17.10
2022-01-08 01:55:38;3.68;110.05;2;17.20
2022-01-08 02:00:41;3.68;108.92;2;17.20
2022-01-08 02:05:40;3.68;110.37;2;17.60
2022-01-08 02:10:43;3.68;110.37;2;17.80
2022-01-08 02:15:41;3.68;108.60;2;17.70
2022-01-08 02:20:39;3.68;108.60;2;17.70
2022-01-08 02:25:42;3.68;108.60;1;18.10
2022-01-08 02:30:41;3.68;110.37;18;17.90
2022-01-08 02:35:39;3.68;110.05;2;18.00
2022-01-08 02:40:42;3.68;108.92;2;17.80
2022-01-08 02:45:40;3.68;110.05;2;17.10
2022-01-08 02:50:39;3.68;108.92;2;17.20
2022-01-08 02:55:42;3.68;108.92;2;17.10
2022-01-08 03:00:40;3.68;108.92;2;16.90
2022-01-08 03:05:43;3.68;108.92;2;16.90
2022-01-08 03:10:41;3.67;108.92;2;17.20
2022-01-08 03:15:39;3.68;110.37;2;16.40
2022-01-08 03:20:42;3.68;110.37;2;16.70
2022-01-08 03:25:40;3.68;109.89;2;15.90
2022-01-08 03:30:38;3.68;110.37;2;15.80
2022-01-08 03:35:41;3.68;108.92;2;15.80
2022-01-08 03:40:39;3.68;108.27;2;15.80
2022-01-08 03:45:42;3.68;108.60;2;15.70
2022-01-08 03:50:40;3.68;108.92;2;15.70
2022-01-08 03:55:38;3.67;110.05;2;15.60
2022-01-08 04:00:41;3.68;108.92;2;15.60
2022-01-08 04:05:39;3.68;108.60;2;15.30
2022-01-08 04:10:42;3.68;108.92;2;15.10
2022-01-08 04:15:40;3.67;108.92;2;15.10
2022-01-08 04:20:38;3.68;108.60;2;14.90
2022-01-08 04:25:41;3.68;110.05;2;15.20
2022-01-08 04:30:39;3.68;110.37;2;15.00
2022-01-08 04:35:41;3.67;108.60;2;15.10
2022-01-08 04:40:39;3.67;108.92;2;15.20
2022-01-08 04:45:42;3.67;108.27;2;14.60
2022-01-08 04:50:40;3.67;108.60;2;14.70
2022-01-08 04:55:38;3.67;110.05;2;14.90
2022-01-08 05:00:40;3.68;109.56;2;14.60
2022-01-08 05:05:38;3.67;108.60;2;14.80
2022-01-08 05:10:41;3.67;108.27;2;14.60
2022-01-08 05:15:39;3.67;109.89;2;14.40
2022-01-08 05:20:42;3.67;108.60;2;14.70
2022-01-08 05:25:39;3.67;109.89;2;14.90
2022-01-08 05:30:42;3.67;109.89;2;14.50
2022-01-08 05:35:40;3.67;109.56;2;14.30
2022-01-08 05:40:38;3.67;108.60;2;14.40
2022-01-08 05:45:40;3.67;109.89;2;14.30
2022-01-08 05:50:38;3.67;109.89;2;14.50
2022-01-08 05:55:41;3.67;109.24;2;14.20
2022-01-08 06:00:39;3.67;108.60;2;14.00
2022-01-08 06:05:41;3.67;108.60;2;14.10
2022-01-08 06:10:39;3.67;107.95;2;14.20
2022-01-08 06:15:42;3.67;108.27;2;14.50
2022-01-08 06:20:40;3.67;109.56;2;14.50
2022-01-08 06:25:42;3.67;109.56;2;14.90
2022-01-08 06:30:40;3.67;109.56;2;15.30
2022-01-08 06:35:38;3.67;107.95;2;15.50
2022-01-08 06:40:40;3.67;107.95;2;15.40
2022-01-08 06:45:38;3.67;109.24;2;16.20
2022-01-08 06:50:41;3.67;108.92;2;16.30
2022-01-08 06:55:39;3.67;108.92;2;16.40
2022-01-08 07:00:42;3.67;107.63;2;17.30
2022-01-08 07:05:40;3.67;106.99;2;17.30
2022-01-08 07:10:42;3.67;107.63;2;18.10
2022-01-08 07:15:40;3.67;107.63;11;18.40
2022-01-08 07:20:38;3.67;107.31;81;19.30
2022-01-08 07:25:41;3.67;107.31;99;20.00
2022-01-08 07:30:39;3.67;109.24;99;20.40
2022-01-08 07:35:42;3.67;108.92;99;20.90
2022-01-08 07:40:41;3.67;108.92;99;21.30
2022-01-08 07:45:39;3.67;109.24;99;21.50
2022-01-08 07:50:42;3.67;107.31;99;21.70
2022-01-08 07:55:41;3.67;108.60;99;22.90
2022-01-08 08:00:39;3.67;108.60;97;23.90
2022-01-08 08:05:42;3.67;107.31;94;24.90
2022-01-08 08:10:41;3.67;107.31;91;26.30
2022-01-08 08:15:40;3.67;107.31;87;26.70
2022-01-08 08:20:39;3.67;107.31;85;27.80
2022-01-08 08:25:43;3.67;108.92;84;27.30
2022-01-08 08:30:42;3.67;108.27;84;27.90
2022-01-08 08:35:41;3.67;107.31;83;27.90
2022-01-08 08:40:41;3.67;108.60;81;28.20
2022-01-08 08:45:40;3.67;107.31;81;28.80
2022-01-08 08:50:40;3.67;107.31;80;29.50
2022-01-08 08:55:44;3.67;108.60;78;29.50
2022-01-08 09:00:39;3.67;108.60;77;29.60
2022-01-08 09:05:44;3.67;108.60;78;29.10
2022-01-08 09:10:44;3.67;107.31;80;29.10
2022-01-08 09:15:44;3.67;108.60;76;30.00
2022-01-08 09:20:44;3.67;107.31;74;31.00
2022-01-08 09:25:44;3.67;107.31;74;31.00
2022-01-08 09:30:39;3.67;107.63;74;31.70
2022-01-08 09:35:44;3.67;107.31;73;31.10
2022-01-08 09:40:40;3.67;107.31;73;31.00
2022-01-08 09:45:40;3.67;107.63;75;30.90
2022-01-08 09:50:41;3.67;107.63;70;32.10
2022-01-08 09:55:41;3.67;107.63;69;33.10
2022-01-08 10:00:42;3.67;108.92;70;32.90
2022-01-08 10:05:42;3.67;108.92;66;33.60
2022-01-08 10:10:43;3.67;109.24;65;34.70
2022-01-08 10:15:44;3.67;109.24;64;34.50
2022-01-08 10:20:44;3.67;109.56;63;35.70
2022-01-08 10:25:41;3.67;109.24;63;34.90
2022-01-08 10:30:42;3.67;107.95;66;33.50
2022-01-08 10:35:43;3.67;107.63;66;34.30
2022-01-08 10:40:44;3.67;109.89;65;33.90
2022-01-08 10:45:45;3.67;108.27;67;33.70
2022-01-08 10:50:41;3.67;108.27;66;33.20
2022-01-08 10:55:42;3.67;109.56;65;33.90
2022-01-08 11:00:44;3.67;109.56;63;34.70
2022-01-08 11:05:45;3.67;108.27;60;35.40
2022-01-08 11:10:42;3.67;107.95;61;35.10
2022-01-08 11:15:43;3.67;108.27;64;34.40
2022-01-08 11:20:44;3.67;109.56;60;35.90
2022-01-08 11:25:41;3.67;108.27;59;37.00
2022-01-08 11:30:43;3.67;108.27;57;37.10
2022-01-08 11:35:44;3.67;109.56;61;34.50
2022-01-08 11:40:41;3.67;109.89;60;34.70
2022-01-08 11:45:43;3.67;109.89;58;35.60
2022-01-08 11:50:44;3.67;108.60;59;35.70
2022-01-08 11:55:41;3.67;108.60;59;35.60
2022-01-08 12:00:43;3.67;108.60;58;37.00
2022-01-08 12:05:45;3.67;109.89;56;36.30
2022-01-08 12:10:42;3.67;109.56;56;34.80
2022-01-08 12:15:44;3.67;108.92;55;35.80
2022-01-08 12:20:41;3.67;108.60;56;35.70
2022-01-08 12:25:43;3.67;108.60;56;35.70
2022-01-08 12:30:45;3.67;108.60;56;36.70
2022-01-08 12:35:42;3.67;110.05;55;36.90
2022-01-08 12:40:44;3.67;108.27;55;36.50
2022-01-08 12:45:42;3.67;108.27;54;36.50
2022-01-08 12:50:44;3.66;108.27;54;36.60
2022-01-08 12:55:46;3.67;109.89;54;35.90
2022-01-08 13:00:43;3.66;110.05;55;36.30
2022-01-08 13:05:45;3.66;108.27;54;36.60
2022-01-08 13:10:42;3.66;110.05;54;36.00
2022-01-08 13:15:44;3.66;110.05;55;36.10
2022-01-08 13:20:42;3.66;110.05;53;37.60
2022-01-08 13:25:44;3.66;108.60;51;38.00
2022-01-08 13:30:46;3.66;110.05;53;36.80
2022-01-08 13:35:43;3.66;110.37;52;37.10
2022-01-08 13:40:45;3.66;108.92;53;36.70
2022-01-08 13:45:43;3.66;110.05;53;36.30
2022-01-08 13:50:45;3.66;110.05;54;36.90
2022-01-08 13:55:42;3.66;110.37;52;37.70
2022-01-08 14:00:44;3.66;110.05;52;36.50
2022-01-08 14:05:42;3.66;110.05;52;37.00
2022-01-08 14:10:44;3.66;110.05;51;38.30
2022-01-08 14:15:46;3.66;110.05;54;36.60
2022-01-08 14:20:44;3.66;108.92;52;37.20
2022-01-08 14:25:46;3.66;110.05;53;36.60
2022-01-08 14:30:43;3.66;110.05;54;37.00
2022-01-08 14:35:46;3.66;110.05;51;38.30
2022-01-08 14:40:43;3.66;109.24;50;38.60
2022-01-08 14:45:46;3.66;110.05;51;37.30
2022-01-08 14:50:43;3.66;110.05;49;37.60
2022-01-08 14:55:45;3.66;108.92;48;39.20
2022-01-08 15:00:43;3.66;108.92;51;38.10
2022-01-08 15:05:46;3.66;108.92;51;36.70
2022-01-08 15:10:43;3.66;110.69;51;37.10
2022-01-08 15:15:46;3.66;108.92;51;38.30
2022-01-08 15:20:43;3.66;109.24;48;37.40
2022-01-08 15:25:46;3.66;108.92;49;37.50
2022-01-08 15:30:44;3.66;108.92;50;37.30
2022-01-08 15:35:46;3.66;108.92;51;37.40
2022-01-08 15:40:44;3.66;110.37;51;37.20
2022-01-08 15:45:46;3.66;108.60;51;37.50
2022-01-08 15:50:44;3.66;110.37;50;37.10
2022-01-08 15:55:46;3.66;110.37;50;37.60
2022-01-08 16:00:44;3.66;108.60;52;37.00
2022-01-08 16:05:46;3.66;110.37;50;36.90
2022-01-08 16:10:43;3.66;110.37;50;36.90
2022-01-08 16:15:46;3.66;109.24;48;37.30
2022-01-08 16:20:43;3.66;110.37;49;37.30
2022-01-08 16:25:45;3.66;110.37;47;37.20
2022-01-08 16:30:43;3.66;108.92;48;38.20
2022-01-08 16:35:45;3.66;110.37;48;38.30
2022-01-08 16:40:43;3.66;109.24;49;37.10
2022-01-08 16:45:45;3.66;110.37;49;36.70
2022-01-08 16:50:42;3.66;108.60;49;37.50
2022-01-08 16:55:45;3.66;109.24;49;37.20
2022-01-08 17:00:42;3.66;109.89;50;36.50
2022-01-08 17:05:44;3.66;109.56;49;37.30
2022-01-08 17:10:41;3.66;109.56;48;38.30
2022-01-08 17:15:44;3.66;111.01;49;37.60
2022-01-08 17:20:46;3.66;111.01;50;36.90
2022-01-08 17:25:43;3.66;110.05;50;36.70
2022-01-08 17:30:45;3.66;111.01;51;35.80
2022-01-08 17:35:42;3.66;110.05;51;36.40
2022-01-08 17:40:44;3.66;111.34;51;36.30
2022-01-08 17:45:42;3.66;110.05;50;35.80
2022-01-08 17:50:43;3.66;111.34;50;36.30
2022-01-08 17:55:45;3.66;111.01;50;36.30
2022-01-08 18:00:42;3.66;110.05;50;35.90
2022-01-08 18:05:44;3.66;109.89;50;35.40
2022-01-08 18:10:41;3.66;111.34;52;35.40
2022-01-08 18:15:42;3.66;109.89;52;35.00
2022-01-08 18:20:44;3.66;111.34;52;34.90
2022-01-08 18:25:41;3.66;111.34;52;34.70
2022-01-08 18:30:42;3.66;109.89;54;34.60
2022-01-08 18:35:44;3.66;109.89;53;34.30
2022-01-08 18:40:41;3.66;110.05;53;34.50
2022-01-08 18:45:42;3.66;110.05;55;34.10
2022-01-08 18:50:43;3.66;111.34;54;33.50
2022-01-08 18:55:45;3.66;109.89;54;33.30
2022-01-08 19:00:41;3.66;111.34;56;33.30
2022-01-08 19:05:42;3.66;109.89;55;32.90
2022-01-08 19:10:44;3.66;111.01;56;33.10
2022-01-08 19:15:45;3.66;111.01;56;32.60
2022-01-08 19:20:41;3.66;111.01;58;32.40
2022-01-08 19:25:42;3.66;111.01;60;31.70
2022-01-08 19:30:43;3.66;111.01;60;31.30
2022-01-08 19:35:43;3.66;111.01;61;30.80
2022-01-08 19:40:44;3.66;110.69;63;30.40
2022-01-08 19:45:40;3.66;111.34;65;30.20
2022-01-08 19:50:41;3.66;110.05;66;29.50
2022-01-08 19:55:41;3.66;109.89;68;29.10
2022-01-08 20:00:41;3.66;110.69;70;28.60
2022-01-08 20:05:42;3.66;110.69;71;28.00
2022-01-08 20:10:42;3.66;110.69;72;27.60
2022-01-08 20:15:42;3.66;110.69;74;27.30
2022-01-08 20:20:42;3.66;110.69;75;26.90
2022-01-08 20:25:42;3.66;111.01;78;26.10
2022-01-08 20:30:42;3.66;110.69;80;25.40
2022-01-08 20:35:42;3.66;109.24;81;25.20
2022-01-08 20:40:41;3.66;109.24;82;25.30
2022-01-08 20:45:41;3.66;110.37;83;25.00
2022-01-08 20:50:41;3.66;108.92;82;25.00
2022-01-08 20:55:40;3.66;108.92;83;24.70
2022-01-08 21:00:40;3.66;110.37;84;24.50
2022-01-08 21:05:44;3.66;108.92;86;23.90
2022-01-08 21:10:43;3.66;109.24;86;24.20
2022-01-08 21:15:42;3.66;110.05;88;23.70
2022-01-08 21:20:42;3.66;108.92;89;23.50
2022-01-08 21:25:41;3.66;110.37;90;23.50
2022-01-08 21:30:40;3.66;108.60;90;23.20
2022-01-08 21:35:39;3.66;110.37;91;22.90
2022-01-08 21:40:43;3.66;108.92;91;22.70
2022-01-08 21:45:43;3.66;108.60;91;23.10
2022-01-08 21:50:42;3.66;108.60;90;23.00
2022-01-08 21:55:41;3.66;110.05;91;23.10
2022-01-08 22:00:40;3.66;110.37;91;22.80
2022-01-08 22:05:43;3.66;109.89;91;22.80
2022-01-08 22:10:42;3.66;110.05;92;22.70
2022-01-08 22:15:41;3.66;108.27;93;22.50
2022-01-08 22:20:40;3.66;109.89;95;22.00
2022-01-08 22:25:39;3.66;108.27;96;21.30
2022-01-08 22:30:43;3.66;108.60;97;21.50
2022-01-08 22:35:42;3.66;108.60;97;21.20
2022-01-08 22:40:41;3.66;108.27;97;20.80
2022-01-08 22:45:40;3.66;109.89;97;21.10
2022-01-08 22:50:43;3.66;108.27;97;21.10
2022-01-08 22:55:42;3.66;108.27;98;20.60
2022-01-08 23:00:41;3.66;109.89;98;20.80
2022-01-08 23:05:39;3.66;109.89;98;20.70
2022-01-08 23:10:43;3.66;109.56;97;20.70
2022-01-08 23:15:42;3.66;109.24;96;20.80
2022-01-08 23:20:40;3.66;108.27;96;21.00
2022-01-08 23:25:39;3.66;108.27;97;20.70
2022-01-08 23:30:42;3.66;109.56;97;20.40
2022-01-08 23:35:41;3.66;109.24;97;20.60
2022-01-08 23:40:40;3.66;108.27;97;20.90
2022-01-08 23:45:43;3.66;109.24;97;20.40
2022-01-08 23:50:42;3.66;109.24;98;20.30
2022-01-08 23:55:40;3.66;109.56;99;20.00
