2021-9-14 0:2:38;4.33;99;17.30;99;18.20;11;0.302;0.035;17.91;64.1;0.031;19.4511;11.233;19.563;12.536;21;20;20;20;21;20;20;20;20;20;328;328;328;328;328;328;328;328;328;328;336;336;335;335;335;336;335;336;335;335
2021-9-14 0:32:36;4.32;93;16.50;95;18.00;11;0.301;0.035;17.21;62.9;0.031;19.3731;11.200;19.456;12.631;20;21;20;20;21;21;21;20;20;20;328;328;328;328;328;328;328;328;328;328;336;336;336;336;336;335;335;336;336;336
2021-9-14 1:2:34;4.31;92;16.30;90;17.40;11;0.302;0.034;16.51;61.7;0.030;19.5031;10.803;19.559;12.310;20;20;21;21;20;21;21;21;20;21;328;328;328;328;328;328;328;328;328;328;336;336;336;336;336;336;336;336;336;336
2021-9-14 1:32:35;4.31;82;15.20;90;17.10;11;0.301;0.035;15.71;60.2;0.030;19.4231;10.770;19.446;12.425;20;20;20;21;20;20;21;21;20;20;328;328;328;328;328;328;328;328;328;328;336;336;336;336;336;336;336;336;336;336
2021-9-14 2:2:32;4.30;77;14.50;86;16.00;11;0.299;0.035;14.91;58.8;0.030;19.2431;10.644;19.232;12.441;21;21;20;20;20;20;20;20;20;20;328;328;329;328;328;328;328;328;328;328;336;336;336;336;336;337;336;337;336;337
2021-9-14 2:32:32;4.30;80;14.30;85;15.40;11;0.298;0.035;14.41;58.0;0.030;19.1751;10.617;19.143;12.509;20;20;20;20;20;21;20;21;20;20;329;329;329;329;329;329;328;329;329;329;337;337;337;337;337;337;337;337;337;337
2021-9-14 3:2:31;4.30;78;14.00;86;15.10;11;0.299;0.034;14.01;57.2;0.029;19.2341;10.423;19.184;12.367;20;20;20;21;20;20;20;20;20;20;329;329;329;329;329;329;329;329;329;329;337;337;337;337;337;337;337;337;337;337
2021-9-14 3:32:31;4.30;85;13.70;85;14.80;11;0.298;0.035;13.71;56.6;0.029;19.1701;10.398;19.106;12.410;20;20;21;20;20;20;21;20;20;20;329;329;330;329;329;329;329;329;329;329;337;337;337;337;337;337;337;337;337;337
2021-9-14 4:2:34;4.29;83;13.20;88;14.50;11;0.299;0.034;13.31;55.9;0.028;19.2281;10.208;19.146;12.267;20;20;20;20;20;20;20;20;20;20;329;329;329;329;329;329;329;329;330;329;337;337;337;337;337;337;337;337;337;338
2021-9-14 4:32:33;4.29;89;12.80;87;14.00;11;0.298;0.034;12.81;55.1;0.028;19.1611;10.183;19.061;12.332;20;20;20;20;20;20;20;20;20;20;329;330;329;329;329;329;330;329;329;330;337;338;338;338;338;337;338;338;338;338
2021-9-14 5:2:32;4.28;85;12.50;89;13.60;11;0.295;0.035;12.41;54.3;0.028;18.9301;10.251;18.815;12.499;20;20;20;20;20;20;20;20;20;20;329;329;330;330;330;329;330;329;330;330;338;338;338;338;338;338;338;338;338;338
2021-9-14 5:32:30;4.28;93;12.30;88;13.30;11;0.300;0.033;12.01;53.6;0.027;19.2731;9.810;19.142;12.032;20;20;20;20;20;20;20;20;20;20;330;330;330;330;330;330;330;330;330;330;338;338;338;338;338;338;338;338;338;338
2021-9-14 6:2:32;4.27;93;11.90;91;13.00;11;0.298;0.034;11.71;53.1;0.028;19.1431;9.967;18.996;12.306;20;20;20;20;20;20;20;20;20;20;330;330;330;330;330;330;330;330;330;330;338;338;338;338;338;338;338;338;338;338
2021-9-14 6:32:30;4.27;93;11.70;91;12.60;11;0.295;0.035;11.31;52.4;0.028;18.9171;10.036;18.759;12.462;20;20;20;20;20;20;20;20;20;20;330;330;329;330;329;329;329;330;329;329;338;338;338;338;338;338;338;339;338;338
2021-9-14 7:2:32;4.27;96;11.40;91;12.40;11;0.297;0.034;11.11;51.9;0.027;19.0461;9.674;18.875;12.071;20;20;20;20;20;20;20;20;20;20;330;330;329;330;329;330;330;330;330;330;339;338;338;339;338;339;338;339;339;339
2021-9-14 7:32:29;4.27;95;11.30;92;12.10;11;0.299;0.033;10.81;51.5;0.027;19.1971;9.581;19.014;12.011;20;20;20;20;20;20;20;20;20;20;330;329;330;330;330;330;330;329;330;330;339;339;338;338;339;338;339;339;339;339
2021-9-14 8:2:31;4.28;99;11.60;92;12.00;11;0.296;0.034;10.81;51.5;0.027;18.9931;9.655;18.818;12.070;21;20;20;20;20;20;20;20;20;20;331;331;331;331;331;331;331;331;331;331;339;339;339;339;339;339;339;339;339;339
2021-9-14 8:32:33;4.30;88;13.00;94;12.20;11;0.296;0.033;11.61;52.9;0.027;19.0271;9.668;18.895;11.869;20;20;20;20;20;20;21;20;21;20;332;332;332;332;333;332;332;332;332;332;337;337;337;337;337;337;337;337;337;337
2021-9-14 9:2:33;4.33;71;14.50;89;13.40;11;0.296;0.033;12.71;54.8;0.027;19.0011;9.862;18.921;11.852;21;21;20;21;21;20;21;20;20;20;333;333;334;333;333;333;334;333;334;334;336;335;335;336;335;335;336;336;336;336
2021-9-14 9:32:34;4.34;58;16.70;84;14.90;11;0.297;0.032;14.01;57.2;0.028;19.1041;9.901;19.090;11.585;20;20;21;20;21;20;20;20;21;21;332;333;333;332;333;332;333;332;333;333;334;334;334;334;334;335;334;335;334;334
2021-9-14 10:2:38;4.35;48;19.30;77;16.80;11;0.296;0.032;15.71;60.2;0.029;19.0251;10.290;19.088;11.689;22;22;22;22;22;22;22;22;22;22;331;331;331;332;332;332;332;332;332;332;334;334;334;334;334;334;334;334;334;334
2021-9-14 10:32:41;4.37;40;21.10;69;19.40;11;0.297;0.032;17.31;63.2;0.029;19.0641;10.521;19.203;11.617;23;23;23;23;23;23;23;23;23;23;331;331;331;332;331;332;331;332;331;331;334;335;334;334;334;334;335;334;334;335
2021-9-14 11:2:43;4.38;35;23.10;62;21.30;11;0.297;0.032;19.31;66.8;0.030;19.1081;10.759;19.333;11.523;23;24;23;23;23;23;23;23;23;23;332;332;332;332;332;332;332;332;332;332;335;335;335;335;335;335;335;335;335;335
2021-9-14 11:32:47;4.39;35;22.60;59;23.20;11;0.301;0.032;20.91;69.6;0.030;19.3681;10.920;19.666;11.421;24;23;24;23;23;23;23;23;23;23;332;331;332;331;332;331;331;331;331;331;336;336;336;336;336;336;336;336;336;336
2021-9-14 12:2:49;4.40;30;23.20;57;23.30;11;0.297;0.032;22.81;73.0;0.032;19.1071;11.445;19.496;11.595;24;24;24;24;24;24;24;24;24;24;331;331;331;331;331;330;331;331;331;331;337;337;337;337;337;337;337;337;337;337
2021-9-14 12:32:47;4.40;28;24.90;54;24.10;11;0.301;0.031;24.91;76.8;0.032;19.4201;11.403;19.911;11.215;24;24;24;24;24;24;24;24;24;24;330;330;330;331;330;330;330;330;331;330;338;339;339;338;339;339;339;338;339;338
2021-9-14 13:2:51;4.41;23;24.70;51;25.60;11;0.297;0.032;25.61;78.2;0.033;19.0901;11.920;19.605;11.604;24;24;24;24;24;24;24;24;24;24;329;330;329;330;330;330;329;330;330;330;340;339;340;339;339;339;339;339;339;340
2021-9-14 13:32:51;4.41;23;26.00;46;25.90;11;0.298;0.032;26.91;80.5;0.033;19.1441;11.945;19.725;11.403;24;24;24;24;24;24;24;24;24;24;330;330;330;329;329;330;329;329;330;330;340;340;340;340;340;340;340;340;340;340
2021-9-14 14:2:51;4.41;23;26.50;47;26.90;11;0.302;0.031;28.31;83.0;0.033;19.4341;11.888;20.079;11.166;25;24;25;24;25;25;24;25;25;24;330;330;330;330;330;330;329;330;330;329;340;340;340;340;340;340;340;340;340;340
2021-9-14 14:32:51;4.41;22;28.80;46;27.40;11;0.297;0.032;29.51;85.1;0.035;19.1031;12.430;19.790;11.497;25;25;25;25;25;25;25;25;25;25;330;331;330;330;330;331;331;330;331;330;341;341;341;341;341;341;340;341;341;341
2021-9-14 15:2:50;4.41;22;28.00;45;29.30;11;0.297;0.032;30.11;86.2;0.035;19.0351;12.656;19.755;11.590;25;25;25;25;25;25;25;25;25;25;332;332;332;332;332;332;332;332;332;332;340;340;341;341;340;340;341;341;340;341
2021-9-14 15:32:48;4.40;20;26.40;45;29.10;11;0.296;0.032;30.11;86.2;0.035;19.0271;12.652;19.736;11.619;25;25;25;25;25;25;25;25;25;25;332;332;331;332;332;332;332;332;332;332;340;340;340;340;340;340;340;340;340;340
2021-9-14 16:2:44;4.38;24;23.60;42;28.00;11;0.295;0.033;30.11;86.2;0.036;18.9111;12.857;19.595;11.875;25;25;25;25;25;25;25;25;25;25;331;331;331;332;331;332;332;331;331;332;340;339;339;340;340;339;339;340;340;339
2021-9-14 16:32:41;4.35;26;21.60;45;25.80;11;0.294;0.034;27.51;81.5;0.035;18.8231;12.547;19.347;12.152;21;21;21;21;21;21;21;21;21;21;329;329;329;329;329;329;329;329;329;329;338;338;338;338;338;338;338;338;338;338
2021-9-14 17:2:39;4.35;25;20.60;47;23.70;11;0.288;0.034;24.91;76.8;0.034;18.3651;12.208;18.757;12.294;21;21;21;21;21;21;21;21;21;21;328;328;328;328;328;328;328;329;328;328;338;338;338;338;338;338;338;338;338;338
2021-9-14 17:32:40;4.34;26;20.10;47;22.20;11;0.288;0.034;23.01;73.4;0.033;18.3881;11.723;18.704;12.119;21;21;21;21;21;21;21;21;21;21;330;329;329;329;330;329;329;329;329;329;339;338;339;339;338;338;339;338;339;339
2021-9-14 18:2:37;4.33;27;19.60;47;21.50;11;0.285;0.034;21.71;71.1;0.032;18.1471;11.554;18.404;12.180;21;21;21;21;21;21;21;21;21;21;330;330;330;330;330;330;330;330;330;330;339;339;339;339;339;339;339;339;339;339
2021-9-14 18:32:37;4.33;29;19.00;49;20.80;11;0.285;0.034;20.71;69.2;0.031;18.1061;11.297;18.322;12.086;21;21;21;21;21;21;21;21;21;21;331;331;331;331;331;331;331;331;331;331;339;340;339;339;339;340;339;339;340;339
2021-9-14 19:2:36;4.33;32;18.40;51;20.10;11;0.283;0.034;19.91;67.8;0.031;17.9391;11.166;18.120;12.091;21;21;21;21;21;21;21;21;21;21;331;331;331;331;332;331;332;332;332;332;340;340;340;340;340;340;340;340;340;340
2021-9-14 19:32:39;4.33;34;17.90;54;19.50;11;0.283;0.033;19.11;66.4;0.030;17.9531;10.943;18.104;11.992;21;21;21;21;21;21;21;21;21;21;333;332;332;332;332;333;332;332;332;332;340;340;340;340;340;340;340;340;340;340
2021-9-14 20:2:38;4.32;33;17.50;55;18.90;11;0.283;0.033;18.41;65.1;0.030;17.9691;10.725;18.092;11.880;21;21;21;21;21;21;21;21;21;21;333;332;333;332;332;333;333;332;332;333;340;340;340;340;340;340;340;340;340;340
2021-9-14 20:32:36;4.32;36;17.10;55;18.50;11;0.280;0.034;17.91;64.1;0.030;17.7271;10.786;17.824;12.063;21;21;21;21;21;21;21;21;21;21;332;333;332;332;332;332;332;332;332;332;340;340;341;340;340;340;341;340;340;340
2021-9-14 21:2:34;4.31;37;16.60;58;18.00;11;0.284;0.032;17.21;62.9;0.029;18.0451;10.321;18.118;11.663;21;21;21;21;21;21;21;21;21;21;332;332;332;332;332;332;332;332;332;332;341;340;341;341;340;341;341;341;341;340
2021-9-14 21:32:36;4.31;39;16.40;59;17.60;11;0.283;0.033;16.51;61.7;0.029;17.9821;10.294;18.034;11.729;21;21;21;21;21;21;21;21;21;21;332;332;332;332;332;333;333;332;333;332;341;341;341;341;341;341;341;341;341;341
2021-9-14 22:2:37;4.30;40;16.00;60;17.30;11;0.280;0.033;16.01;60.8;0.029;17.7501;10.356;17.781;11.898;21;21;21;21;21;21;21;21;21;21;333;333;333;333;332;333;333;333;333;333;341;341;341;341;341;341;341;341;341;341
2021-9-14 22:32:34;4.30;40;15.50;61;16.90;11;0.278;0.033;15.51;59.9;0.028;17.6001;10.239;17.612;11.860;21;21;21;21;21;21;21;20;21;21;333;333;333;333;333;333;333;333;333;333;341;341;341;341;341;342;342;341;341;341
2021-9-14 23:2:34;4.30;41;15.20;61;16.40;11;0.281;0.032;15.01;59.1;0.028;17.8331;9.967;17.825;11.639;21;21;21;21;21;21;21;21;21;21;333;333;333;333;333;333;333;333;333;333;341;342;342;342;342;341;341;342;342;342
2021-9-14 23:32:35;4.30;45;14.60;62;16.10;11;0.278;0.033;14.61;58.3;0.028;17.6081;10.030;17.584;11.794;21;21;21;21;21;21;21;21;21;21;334;333;333;333;333;333;333;333;333;334;342;342;342;342;342;342;342;342;342;342
