2021-8-8 0:2:39;4.33;83;20.30;87;20.90;11;0.243;0.030;20.51;68.9;0.028;14.9781;10.113;15.152;10.843;59;58;58;58;59;58;58;58;58;59;350;350;350;350;350;350;350;350;350;350;367;367;367;367;367;367;367;367;367;367
2021-8-8 0:32:40;4.33;88;20.00;88;20.90;11;0.242;0.030;20.11;68.2;0.028;14.9341;10.090;15.098;10.866;55;55;55;55;55;55;54;55;55;55;350;350;351;350;351;351;350;350;351;350;367;367;367;367;367;367;367;367;367;367
2021-8-8 1:2:40;4.33;91;19.70;89;20.60;11;0.242;0.030;19.71;67.5;0.028;14.8911;10.067;15.044;10.889;54;54;54;54;54;53;54;54;54;53;351;350;351;351;351;351;351;351;351;350;367;367;367;367;367;367;367;367;367;367
2021-8-8 1:32:40;4.33;92;19.60;90;20.30;11;0.240;0.030;19.51;67.1;0.028;14.7751;9.957;14.918;10.817;51;50;50;50;50;51;50;50;50;50;350;350;351;350;351;351;351;351;351;351;367;368;368;367;367;368;367;368;368;367
2021-8-8 2:2:39;4.33;93;19.60;90;20.20;11;0.241;0.030;19.11;66.4;0.027;14.8681;9.789;15.005;10.670;50;50;50;50;50;50;50;50;50;50;351;351;351;351;351;351;351;351;351;351;368;368;368;368;368;368;368;368;368;368
2021-8-8 2:32:39;4.33;99;19.20;91;20.10;11;0.241;0.030;18.91;66.1;0.027;14.8261;9.767;14.953;10.692;50;50;51;50;50;50;50;50;51;51;351;350;351;351;351;351;351;351;351;351;368;368;368;368;368;368;368;368;368;368
2021-8-8 3:2:39;4.32;95;19.40;93;19.80;11;0.238;0.030;18.81;65.8;0.027;14.6171;9.825;14.738;10.778;52;52;52;52;52;52;52;52;52;52;351;352;351;351;351;351;352;351;351;352;368;368;368;368;368;368;368;368;368;368
2021-8-8 3:32:38;4.32;99;19.10;92;20.00;11;0.240;0.030;18.61;65.4;0.027;14.7801;9.744;14.893;10.736;51;52;51;51;51;52;51;52;52;52;351;351;351;351;351;351;351;351;351;351;368;368;368;368;368;368;368;368;368;368
2021-8-8 4:2:37;4.32;99;18.80;93;19.60;11;0.237;0.030;18.41;65.1;0.027;14.5711;9.800;14.675;10.832;52;52;52;52;52;52;52;52;52;52;351;351;351;351;351;352;351;352;351;351;368;369;368;368;368;369;369;368;368;369
2021-8-8 4:32:36;4.32;99;18.70;94;19.40;11;0.238;0.030;18.01;64.5;0.027;14.6661;9.636;14.766;10.674;46;46;46;46;46;46;46;46;46;46;351;351;352;352;351;351;351;351;351;352;369;369;369;369;369;369;369;369;369;369
2021-8-8 5:2:35;4.32;99;18.70;95;19.20;11;0.236;0.030;18.21;64.8;0.027;14.4641;9.695;14.565;10.728;51;52;52;51;51;51;52;52;52;52;352;352;352;352;352;352;352;352;352;352;369;369;369;369;369;369;369;369;369;369
2021-8-8 5:32:39;4.32;99;18.90;95;19.20;11;0.238;0.030;18.21;64.8;0.027;14.6341;9.620;14.738;10.633;51;52;51;51;51;52;52;52;51;51;352;352;352;352;352;352;352;352;352;352;369;369;369;369;369;369;369;369;369;369
2021-8-8 6:2:38;4.32;99;18.50;94;19.40;11;0.238;0.030;18.01;64.5;0.027;14.6321;9.619;14.735;10.644;52;51;52;52;52;52;52;52;52;52;352;352;352;352;352;352;352;352;352;352;369;369;369;369;369;369;369;369;369;369
2021-8-8 6:32:38;4.31;99;18.50;96;19.00;11;0.235;0.030;18.01;64.5;0.027;14.4261;9.675;14.523;10.729;52;52;52;51;52;52;52;52;52;52;352;352;353;352;352;352;352;352;352;352;369;369;369;369;369;369;369;369;369;369
2021-8-8 7:2:37;4.31;99;18.10;97;19.00;11;0.235;0.030;18.01;64.5;0.027;14.4231;9.674;14.515;10.750;52;52;52;52;52;52;52;52;52;52;352;352;352;352;352;352;352;352;352;352;369;369;369;369;369;369;369;369;369;369
2021-8-8 7:32:35;4.31;99;18.00;99;18.70;11;0.236;0.029;17.91;64.1;0.026;14.5181;9.511;14.606;10.592;52;52;52;52;52;52;52;52;52;52;353;352;352;352;352;353;352;352;352;352;369;369;369;369;369;369;369;369;369;369
2021-8-8 8:2:38;4.31;99;18.20;99;18.60;11;0.234;0.030;17.71;63.8;0.027;14.3841;9.653;14.469;10.761;52;52;52;52;52;52;52;52;52;52;352;353;352;353;352;352;352;352;353;352;369;369;369;369;369;369;369;369;369;369
2021-8-8 8:32:37;4.31;99;17.40;99;18.70;11;0.239;0.029;17.51;63.5;0.026;14.6761;9.432;14.754;10.559;54;53;53;53;53;53;53;53;53;53;352;352;352;352;352;352;352;352;352;352;369;369;369;369;369;369;369;369;369;369
2021-8-8 9:2:35;4.31;99;18.00;99;18.00;11;0.240;0.029;17.31;63.2;0.026;14.7631;9.270;14.833;10.422;53;53;53;53;53;53;53;53;53;53;352;352;352;352;352;352;352;352;352;352;369;369;369;369;369;369;369;369;369;369
2021-8-8 9:32:38;4.32;99;19.20;99;18.60;11;0.236;0.029;17.71;63.8;0.026;14.4801;9.492;14.564;10.593;53;53;53;53;53;53;53;53;53;53;353;353;353;353;353;353;353;353;353;353;369;369;369;369;369;369;369;369;369;369
2021-8-8 10:2:38;4.33;96;20.70;99;19.80;11;0.236;0.029;18.41;65.1;0.026;14.5011;9.503;14.614;10.459;53;53;53;53;53;53;53;53;53;53;354;354;354;354;354;354;354;354;354;353;369;369;369;369;369;369;369;369;369;369
2021-8-8 10:32:38;4.34;94;21.50;91;21.30;11;0.237;0.029;18.91;66.1;0.026;14.5521;9.529;14.687;10.376;53;53;53;53;53;53;53;53;53;53;354;354;354;354;354;354;354;354;354;354;369;369;369;369;369;369;369;369;369;369
2021-8-8 11:2:40;4.35;79;23.40;90;22.10;11;0.236;0.029;20.31;68.5;0.027;14.4911;9.711;14.679;10.319;54;53;53;53;53;54;53;53;53;53;354;354;354;354;354;354;354;354;354;354;369;369;369;369;369;369;369;369;369;369
2021-8-8 11:32:43;4.35;77;23.20;85;23.90;11;0.239;0.028;20.91;69.6;0.027;14.7051;9.658;14.911;10.193;55;55;55;55;55;55;55;55;55;55;353;353;353;354;353;354;353;354;353;353;369;369;369;369;369;369;369;369;369;369
2021-8-8 12:2:39;4.37;72;24.50;84;23.80;11;0.239;0.028;22.41;72.3;0.027;14.6821;9.861;14.942;10.158;57;57;57;57;57;57;57;57;57;57;353;353;354;353;353;353;353;353;353;353;369;369;369;369;369;369;369;369;369;369
2021-8-8 12:32:41;4.38;61;26.60;82;25.00;11;0.238;0.028;24.21;75.5;0.028;14.6631;10.071;14.988;10.092;67;67;67;67;67;67;67;67;67;67;355;355;354;355;355;355;355;355;355;355;370;370;370;370;370;370;369;370;370;370
2021-8-8 13:2:47;4.40;56;27.80;77;27.00;11;0.241;0.028;25.41;77.7;0.028;14.8401;10.216;15.215;10.048;64;64;64;64;64;64;64;64;64;64;355;355;355;354;355;355;355;355;355;355;370;370;370;370;370;370;370;370;370;370
2021-8-8 13:32:51;4.40;52;28.00;73;28.20;11;0.239;0.028;26.71;80.0;0.029;14.7031;10.600;15.126;10.212;83;83;83;83;83;83;83;83;83;83;354;354;354;354;354;355;354;354;354;354;369;369;369;369;369;369;369;369;369;369
2021-8-8 14:2:49;4.39;52;27.50;70;28.60;11;0.238;0.029;27.21;81.0;0.030;14.6301;10.795;15.050;10.400;64;64;64;64;64;64;64;64;64;64;354;354;353;354;353;353;353;354;354;354;368;368;368;368;369;368;368;368;368;368
2021-8-8 14:32:46;4.40;47;29.50;71;28.10;11;0.242;0.028;28.31;83.0;0.030;14.8921;10.757;15.375;10.145;89;89;89;89;89;89;89;90;89;90;354;354;354;354;355;354;355;355;354;354;369;369;369;369;369;369;369;369;369;369
2021-8-8 15:2:50;4.40;50;28.10;66;29.90;11;0.242;0.028;29.21;84.6;0.030;14.9461;10.788;15.453;10.090;80;80;80;80;80;80;80;80;80;80;355;355;355;354;354;355;354;354;355;354;368;368;368;368;368;368;368;369;368;368
2021-8-8 15:32:49;4.40;54;27.50;69;28.60;11;0.242;0.028;30.41;86.8;0.031;14.9031;11.005;15.451;10.135;75;75;75;74;75;75;75;75;75;75;355;355;355;355;355;354;355;355;355;355;369;369;369;369;369;369;369;369;369;369
2021-8-8 16:2:48;4.38;61;24.80;72;27.90;11;0.242;0.029;29.81;85.6;0.031;14.9171;11.012;15.430;10.272;64;64;64;64;64;64;64;64;64;64;353;353;353;353;353;353;353;353;353;353;368;368;368;368;368;368;368;368;368;368
2021-8-8 16:32:47;4.38;69;23.90;78;25.40;11;0.240;0.029;28.01;82.5;0.030;14.7861;10.935;15.221;10.494;59;59;59;59;59;59;59;59;59;59;351;351;352;352;352;351;352;352;352;352;368;368;368;368;368;368;368;368;368;368
2021-8-8 17:2:45;4.37;84;22.40;82;24.50;11;0.241;0.029;27.21;81.0;0.030;14.8341;10.723;15.238;10.426;58;58;58;58;58;59;58;58;58;58;350;350;351;351;351;351;351;350;350;350;368;368;368;368;368;368;368;368;368;368
2021-8-8 17:32:40;4.35;98;19.90;88;22.90;11;0.238;0.029;25.61;78.2;0.029;14.6441;10.565;14.983;10.522;57;58;58;58;58;57;58;58;58;57;350;350;350;350;350;350;350;351;350;350;368;368;368;368;368;368;368;368;368;368
2021-8-8 18:2:38;4.35;99;19.00;92;20.40;11;0.240;0.029;24.21;75.5;0.028;14.7421;10.162;15.028;10.357;58;58;57;57;57;57;57;57;57;57;351;350;350;351;350;351;351;350;350;350;368;368;368;368;368;368;368;368;368;368
2021-8-8 18:32:39;4.33;99;17.40;99;19.60;11;0.232;0.030;22.61;72.6;0.028;14.2481;10.241;14.477;10.661;57;56;57;57;56;57;57;57;57;57;351;351;350;350;351;351;350;350;351;351;368;368;368;368;368;368;368;368;368;368
2021-8-8 19:2:38;4.33;99;16.80;99;17.90;11;0.232;0.029;21.51;70.7;0.028;14.1871;9.933;14.375;10.532;56;56;56;56;56;56;56;56;56;56;351;351;351;351;351;351;351;352;351;351;369;369;369;369;369;369;369;369;369;369
2021-8-8 19:32:37;4.33;99;15.90;99;17.20;11;0.232;0.029;20.31;68.5;0.027;14.1961;9.720;14.349;10.479;56;56;56;56;56;56;56;56;56;56;351;351;352;352;352;352;352;351;351;351;369;369;369;369;369;369;369;369;369;369
2021-8-8 20:2:34;4.32;99;15.20;99;16.30;11;0.229;0.029;19.11;66.4;0.027;14.0351;9.585;14.151;10.515;56;56;56;56;56;56;56;56;56;56;351;351;352;351;351;351;352;351;351;351;370;369;369;370;370;370;370;370;370;370
2021-8-8 20:32:35;4.31;99;14.60;97;15.50;11;0.227;0.029;18.21;64.8;0.026;13.8821;9.454;13.966;10.528;56;56;56;56;56;56;56;56;56;56;352;351;352;352;352;352;352;352;352;352;370;370;370;370;370;370;370;370;370;370
2021-8-8 21:2:36;4.31;99;14.00;96;15.10;11;0.225;0.029;17.31;63.2;0.026;13.7351;9.327;13.796;10.508;56;56;56;56;55;56;56;55;56;56;352;352;352;353;353;352;352;352;353;353;371;371;371;371;371;371;371;371;371;371
2021-8-8 21:32:36;4.30;99;13.50;95;14.40;11;0.229;0.028;16.71;62.0;0.025;14.0431;8.923;14.081;10.178;55;56;55;55;56;55;55;56;56;56;353;353;353;353;353;353;353;353;353;353;371;371;371;371;372;371;372;371;371;371
2021-8-8 22:2:31;4.30;99;13.20;97;13.90;11;0.226;0.029;16.01;60.8;0.025;13.8071;8.955;13.828;10.310;55;55;56;55;56;56;56;55;56;55;353;353;354;353;354;354;353;354;354;353;372;372;372;372;372;372;372;372;372;372
2021-8-8 22:32:31;4.30;99;12.50;97;13.60;11;0.224;0.029;15.41;59.6;0.025;13.6971;8.852;13.696;10.304;55;55;55;55;55;55;55;55;55;55;355;354;354;354;354;354;354;354;355;354;372;372;372;373;372;372;372;372;372;373
2021-8-8 23:2:34;4.30;99;12.10;99;12.90;11;0.222;0.029;14.41;58.0;0.024;13.5521;8.730;13.522;10.327;55;55;55;55;55;55;55;55;55;55;355;354;355;355;354;355;355;355;355;354;373;373;373;373;373;373;373;373;373;373
2021-8-8 23:32:33;4.29;99;11.70;99;12.40;11;0.223;0.028;13.71;56.6;0.024;13.6011;8.560;13.550;10.246;55;55;55;55;55;55;55;55;55;55;355;355;355;355;355;355;355;355;355;355;373;373;373;373;373;373;373;373;373;373
