2021-9-6 0:2:35;4.30;99;16.00;99;17.10;11;0.357;0.041;16.01;60.8;0.036;24.1761;12.812;24.225;14.689;20;21;21;21;21;21;21;20;20;21;320;320;320;320;319;320;320;319;320;319;325;325;325;325;325;325;325;325;325;325
2021-9-6 0:32:36;4.30;99;16.00;99;16.90;11;0.357;0.041;16.01;60.8;0.036;24.1731;12.811;24.218;14.703;21;21;21;21;21;21;20;21;21;21;320;320;319;320;320;320;320;319;319;320;325;325;325;325;325;325;325;325;325;325
2021-9-6 1:2:33;4.30;99;15.80;99;16.90;11;0.357;0.040;15.71;60.2;0.035;24.2221;12.574;24.258;14.475;21;20;20;20;21;21;21;20;20;21;319;320;320;319;319;320;319;319;320;319;325;325;325;325;325;325;325;325;325;325
2021-9-6 1:32:34;4.30;99;15.50;99;16.70;11;0.357;0.040;15.51;59.9;0.035;24.2061;12.568;24.225;14.542;21;21;20;21;21;20;21;21;20;21;319;320;320;319;320;320;319;320;319;319;325;325;325;325;325;325;325;325;325;325
2021-9-6 2:2:35;4.29;99;15.20;99;16.40;11;0.357;0.041;15.21;59.4;0.035;24.1901;12.562;24.192;14.610;20;21;20;20;21;21;20;21;20;21;320;319;320;319;320;320;319;320;319;320;325;325;325;325;325;325;325;325;325;325
2021-9-6 2:32:35;4.29;99;15.00;99;16.00;11;0.354;0.041;14.91;58.8;0.035;23.9041;12.655;23.890;14.792;21;21;21;21;20;20;21;21;21;21;319;319;319;319;319;320;320;319;320;319;325;325;325;325;325;325;325;325;325;325
2021-9-6 3:2:31;4.29;99;14.90;99;15.90;11;0.354;0.041;14.71;58.5;0.035;23.8981;12.653;23.877;14.819;21;20;21;21;21;21;21;20;21;21;320;319;320;320;320;320;320;320;320;320;325;325;326;325;325;325;325;325;325;326
2021-9-6 3:32:36;4.29;99;15.00;99;15.70;11;0.355;0.040;14.71;58.5;0.035;23.9581;12.423;23.937;14.549;21;20;20;21;20;21;21;21;21;21;320;320;320;320;319;320;320;320;320;320;325;325;326;326;326;325;325;325;325;326
2021-9-6 4:2:31;4.29;99;15.00;99;15.70;11;0.354;0.040;14.61;58.3;0.035;23.9551;12.421;23.931;14.562;21;20;20;21;20;20;21;20;21;21;320;320;320;320;320;320;320;320;320;320;325;326;325;325;326;325;325;326;325;325
2021-9-6 4:32:32;4.29;99;14.80;99;15.70;11;0.354;0.041;14.41;58.0;0.035;23.9511;12.420;23.925;14.576;21;21;20;21;21;21;21;21;21;21;320;320;320;320;320;320;320;320;320;320;325;325;326;325;325;325;325;325;325;325
2021-9-6 5:2:32;4.29;99;14.80;99;15.60;11;0.354;0.041;14.41;58.0;0.035;23.9481;12.419;23.918;14.589;21;21;20;21;21;21;20;20;21;20;320;320;320;320;320;320;320;320;320;320;325;326;325;325;325;325;325;325;325;325
2021-9-6 5:32:32;4.29;99;14.80;99;15.60;11;0.354;0.041;14.31;57.7;0.035;23.9421;12.417;23.906;14.616;21;21;21;20;21;20;21;20;20;21;320;319;320;320;319;320;319;320;320;320;325;325;326;326;325;326;325;325;326;325
2021-9-6 6:2:32;4.29;99;14.80;99;15.50;11;0.354;0.041;14.31;57.7;0.035;23.9391;12.416;23.900;14.629;21;21;21;20;20;21;21;20;21;20;320;320;320;320;320;320;320;320;320;320;325;325;325;325;325;325;325;325;325;325
2021-9-6 6:32:32;4.29;99;14.60;99;15.50;11;0.356;0.040;14.11;57.4;0.034;24.1201;12.289;24.071;14.523;21;21;21;21;20;20;20;20;21;20;319;320;320;320;320;320;320;320;320;320;325;325;326;325;325;325;325;325;325;325
2021-9-6 7:2:32;4.28;99;14.40;99;15.40;11;0.354;0.041;13.81;56.9;0.034;23.9181;12.408;23.856;14.722;21;20;20;20;20;20;20;21;20;20;320;320;320;320;320;320;320;320;320;319;325;325;325;325;325;325;325;326;325;325
2021-9-6 7:32:32;4.28;99;14.40;99;15.20;11;0.357;0.040;13.71;56.6;0.034;24.1571;12.056;24.089;14.333;20;20;20;20;20;21;20;21;20;20;320;319;320;320;320;320;319;320;320;320;325;326;326;325;326;326;326;325;326;325
2021-9-6 8:2:32;4.28;99;14.70;99;15.20;11;0.355;0.040;13.81;56.9;0.034;23.9781;12.182;23.920;14.439;21;21;21;21;21;20;21;21;20;21;319;320;320;320;320;320;320;320;320;320;326;326;325;326;325;326;326;326;326;326
2021-9-6 8:32:33;4.29;99;15.30;99;15.50;11;0.357;0.039;14.31;57.7;0.034;24.1911;12.068;24.157;14.190;21;21;21;21;21;20;20;21;21;20;320;320;320;320;320;320;320;320;320;320;326;326;326;326;325;326;326;325;326;326
2021-9-6 9:2:33;4.30;99;15.80;99;15.90;11;0.357;0.039;14.71;58.5;0.034;24.2091;12.074;24.195;14.112;21;20;20;21;21;20;21;21;20;21;320;320;320;320;320;321;320;320;320;320;325;325;326;326;326;326;326;326;326;326
2021-9-6 9:32:35;4.30;99;17.50;99;16.40;11;0.358;0.038;15.71;60.2;0.034;24.2801;12.097;24.339;13.828;21;21;21;20;21;20;21;21;21;21;321;321;321;322;321;321;321;321;322;321;325;325;326;325;326;325;325;325;326;326
2021-9-6 10:2:34;4.32;99;18.00;99;17.80;11;0.355;0.040;16.31;61.4;0.035;24.0121;12.694;24.108;14.346;21;21;21;21;21;21;21;21;21;20;321;321;321;321;321;321;321;321;321;321;325;325;325;325;325;325;325;325;325;325
2021-9-6 10:32:40;4.35;93;20.90;99;18.50;11;0.356;0.039;18.01;64.5;0.035;24.1101;12.730;24.309;13.966;21;21;21;21;21;21;20;21;21;21;320;321;320;320;321;321;320;320;320;321;325;325;325;325;325;325;325;325;325;325
2021-9-6 11:2:44;4.37;82;22.70;93;20.90;11;0.357;0.038;20.31;68.5;0.036;24.1791;13.014;24.513;13.751;21;21;21;22;21;21;21;21;21;21;321;321;321;321;321;321;322;321;321;321;326;325;325;325;325;325;326;326;326;326
2021-9-6 11:32:44;4.38;73;24.60;89;22.80;11;0.357;0.038;22.61;72.6;0.038;24.1901;13.550;24.669;13.778;21;21;21;21;21;21;21;21;21;21;321;322;321;322;321;321;322;322;321;321;326;326;326;326;326;326;326;326;326;326
2021-9-6 12:2:50;4.38;72;24.00;86;24.80;11;0.358;0.039;23.51;74.3;0.038;24.2291;13.839;24.737;13.969;26;26;26;26;26;26;26;26;26;26;320;321;320;321;320;321;321;320;320;321;326;325;325;325;325;326;325;325;325;325
2021-9-6 12:32:48;4.38;60;24.70;84;24.70;11;0.358;0.039;24.71;76.4;0.039;24.3101;14.151;24.894;14.023;21;21;21;21;21;21;21;21;21;21;321;320;320;321;320;320;320;320;321;320;326;326;326;326;326;326;326;326;326;326
2021-9-6 13:2:50;4.38;65;25.30;79;25.50;11;0.358;0.039;25.41;77.7;0.040;24.2761;14.422;24.900;14.149;22;23;22;23;23;23;23;23;23;23;320;320;320;320;320;320;320;320;320;320;325;326;326;325;326;326;325;326;325;325
2021-9-6 13:32:46;4.38;77;23.60;81;26.20;11;0.358;0.040;24.41;75.9;0.040;24.2791;14.422;24.821;14.435;24;23;23;24;23;23;23;23;23;23;319;320;320;319;319;319;320;319;319;319;324;324;324;324;324;324;324;324;324;324
2021-9-6 14:2:45;4.38;68;23.90;84;24.80;11;0.358;0.040;25.11;77.3;0.041;24.2461;14.700;24.833;14.549;24;24;24;24;24;24;24;23;24;24;320;319;319;319;319;320;319;319;320;319;324;324;324;324;325;324;324;324;324;325
2021-9-6 14:32:45;4.38;65;24.90;81;25.20;11;0.358;0.040;25.91;78.6;0.041;24.2971;14.722;24.937;14.388;30;30;31;30;30;31;30;30;30;30;320;320;320;320;320;320;320;320;320;319;325;325;325;325;325;325;325;325;325;325
2021-9-6 15:2:44;4.38;71;23.90;80;26.00;11;0.354;0.042;25.11;77.3;0.042;23.9351;15.100;24.509;14.963;34;34;34;34;34;34;34;34;34;34;320;319;319;319;319;319;319;320;320;319;324;324;324;324;324;324;324;324;324;324
2021-9-6 15:32:43;4.38;66;24.50;84;25.10;11;0.357;0.041;25.41;77.7;0.042;24.1751;14.966;24.770;14.775;21;21;21;21;21;21;20;21;21;21;320;320;319;320;319;319;320;320;320;320;324;324;324;324;324;324;324;324;324;324
2021-9-6 16:2:45;4.37;66;24.10;81;25.60;11;0.359;0.041;25.11;77.3;0.041;24.3291;14.735;24.918;14.584;21;21;21;21;21;21;21;21;21;21;320;319;320;320;320;319;320;319;320;320;324;324;324;324;324;324;324;324;324;324
2021-9-6 16:32:42;4.37;69;23.60;82;25.10;11;0.361;0.040;24.91;76.8;0.041;24.5141;14.580;25.072;14.557;21;21;21;21;21;21;21;21;21;21;319;319;319;319;319;319;319;319;319;319;324;323;324;323;324;324;324;324;324;324
2021-9-6 17:2:43;4.36;75;22.50;83;24.70;11;0.360;0.041;23.91;75.1;0.040;24.4501;14.553;24.944;14.762;21;21;21;21;21;21;21;21;21;21;318;319;319;318;319;318;319;318;319;318;323;323;323;323;323;323;323;323;323;323
2021-9-6 17:32:42;4.35;81;22.00;85;23.70;11;0.360;0.041;23.01;73.4;0.040;24.4731;14.275;24.916;14.671;21;21;21;21;21;21;21;21;21;21;317;317;318;318;318;318;317;317;318;318;323;323;323;323;323;323;323;323;323;323
2021-9-6 18:2:41;4.35;81;21.60;87;23.10;11;0.356;0.042;22.61;72.6;0.041;24.0661;14.622;24.471;15.151;21;21;21;21;21;21;21;21;21;21;318;318;318;317;317;318;318;317;318;318;323;323;323;323;323;323;323;323;323;323
2021-9-6 18:32:39;4.34;95;20.90;87;22.70;11;0.356;0.042;21.71;71.1;0.040;24.1011;14.347;24.463;15.040;21;21;21;21;21;21;21;21;21;21;318;319;318;318;318;318;318;318;318;318;323;323;323;323;323;323;323;323;323;323
2021-9-6 19:2:41;4.34;99;20.20;91;22.00;11;0.359;0.041;21.11;70.0;0.039;24.3531;13.946;24.685;14.752;21;21;21;21;21;21;21;21;21;21;318;319;319;318;318;319;318;318;318;319;323;323;323;323;323;323;323;323;323;323
2021-9-6 19:32:38;4.33;99;19.90;93;21.30;11;0.359;0.041;20.71;69.2;0.039;24.3201;13.933;24.619;14.872;21;21;21;21;21;21;21;21;21;21;318;318;318;319;318;319;319;319;319;319;323;323;323;323;323;323;323;323;323;323
2021-9-6 20:2:39;4.33;99;19.50;95;20.80;11;0.359;0.041;20.31;68.5;0.038;24.3651;13.675;24.640;14.694;21;21;21;21;21;21;21;21;21;21;319;319;319;319;319;319;319;319;320;319;323;323;323;323;323;323;323;323;323;323
2021-9-6 20:32:39;4.33;99;19.10;94;20.40;11;0.359;0.041;19.71;67.5;0.038;24.3411;13.666;24.592;14.782;21;21;21;21;21;21;21;21;21;21;319;319;319;319;319;319;319;319;319;319;323;323;323;323;323;323;323;323;323;323
2021-9-6 21:2:38;4.33;99;18.70;96;20.00;11;0.358;0.041;19.31;66.8;0.038;24.2411;13.628;24.472;14.821;21;21;21;21;21;21;21;21;21;21;319;319;319;319;320;319;319;319;319;319;323;324;323;323;323;323;323;324;323;323
2021-9-6 21:32:38;4.33;99;18.70;98;19.60;11;0.358;0.041;19.11;66.4;0.038;24.2301;13.623;24.448;14.865;21;21;21;20;21;21;21;21;21;21;320;320;319;320;320;320;319;320;319;319;323;323;324;323;324;324;324;324;323;324
2021-9-6 22:2:37;4.32;99;18.30;99;19.50;11;0.358;0.041;18.91;66.1;0.037;24.2851;13.375;24.493;14.642;21;21;21;21;21;21;21;21;21;21;320;320;320;320;319;320;320;319;320;319;323;323;324;323;323;324;324;323;324;324
2021-9-6 22:32:36;4.32;99;18.30;99;19.20;11;0.358;0.041;18.81;65.8;0.037;24.2741;13.371;24.470;14.684;21;21;21;21;21;21;21;21;20;20;320;320;319;320;320;320;319;319;319;320;323;324;323;323;324;323;323;323;323;323
2021-9-6 23:2:39;4.32;99;17.50;99;19.20;11;0.359;0.042;18.21;64.8;0.038;24.3331;13.662;24.496;15.149;21;21;21;21;21;21;21;20;21;21;317;317;317;317;317;318;317;317;317;317;321;321;321;321;321;321;321;321;321;321
2021-9-6 23:32:33;4.31;99;17.00;99;18.40;11;0.358;0.042;17.91;64.1;0.038;24.3111;13.653;24.452;15.236;21;21;21;20;21;21;21;21;21;21;317;317;317;318;318;317;317;318;317;317;322;322;322;322;322;322;322;322;322;322
