2021-9-18 0:2:37;4.33;75;19.10;79;20.40;11;0.219;0.026;20.11;68.2;0.024;13.3031;8.512;13.444;9.187;24;24;24;24;25;25;24;24;25;25;350;351;351;351;351;351;351;351;351;351;361;361;361;361;361;361;361;361;361;361
2021-9-18 0:32:37;4.32;78;18.70;84;20.00;11;0.216;0.026;19.51;67.1;0.024;13.1081;8.560;13.234;9.300;25;25;25;25;24;24;25;25;25;24;351;352;351;351;351;352;351;351;352;352;361;361;361;361;361;361;361;361;361;361
2021-9-18 1:2:36;4.32;84;18.40;84;19.70;11;0.214;0.026;19.11;66.4;0.024;13.0101;8.463;13.123;9.254;25;24;25;24;25;24;24;24;24;25;352;352;352;352;352;352;352;352;352;352;362;362;362;361;362;362;362;362;361;362
2021-9-18 1:32:35;4.31;94;18.30;86;19.30;11;0.215;0.025;18.81;65.8;0.023;13.0681;8.301;13.170;9.136;25;25;25;25;24;25;24;24;25;25;352;353;352;352;352;352;352;352;352;352;362;362;362;362;362;362;362;362;362;362
2021-9-18 2:2:38;4.31;99;18.00;89;19.10;11;0.215;0.025;18.41;65.1;0.023;13.0331;8.283;13.124;9.165;24;24;24;24;25;25;24;25;24;25;352;353;353;352;352;352;352;353;353;353;362;362;362;362;362;362;362;362;362;362
2021-9-18 2:32:36;4.31;99;17.80;91;18.90;11;0.212;0.026;18.01;64.5;0.023;12.8441;8.330;12.924;9.267;24;24;24;24;24;24;24;24;24;24;353;353;353;353;353;353;353;352;353;352;363;363;362;363;362;363;362;362;362;362
2021-9-18 3:2:35;4.30;99;16.90;93;18.60;11;0.215;0.025;17.71;63.8;0.023;13.0841;8.120;13.153;9.090;24;24;24;24;24;24;24;24;24;24;352;352;353;353;352;352;352;352;352;353;362;362;362;362;362;363;362;362;362;363
2021-9-18 3:32:37;4.30;99;16.50;94;17.90;11;0.214;0.025;17.21;62.9;0.022;12.9841;8.025;13.037;9.069;23;23;23;23;23;23;23;23;23;23;352;352;352;352;353;353;353;353;352;353;363;363;363;363;363;363;363;363;363;363
2021-9-18 4:2:34;4.30;99;16.40;96;17.50;11;0.213;0.025;16.71;62.0;0.022;12.9491;8.007;12.990;9.105;22;22;21;22;22;21;22;22;22;22;353;352;352;353;353;353;353;353;353;353;363;363;363;363;363;363;363;363;363;363
2021-9-18 4:32:35;4.30;99;16.10;99;17.30;11;0.210;0.026;16.31;61.4;0.022;12.7651;8.055;12.796;9.207;20;20;20;20;20;20;20;20;20;20;353;352;353;353;353;352;353;353;353;353;363;363;363;363;364;363;363;363;363;363
2021-9-18 5:2:36;4.30;99;16.00;99;17.00;11;0.211;0.025;16.01;60.8;0.022;12.8241;7.900;12.846;9.076;20;20;20;20;20;20;20;20;20;20;353;353;353;353;353;353;353;353;353;353;364;363;363;363;363;364;363;364;364;364
2021-9-18 5:32:37;4.30;99;15.70;99;16.80;11;0.213;0.025;15.81;60.5;0.022;12.9101;7.760;12.927;8.943;20;20;20;20;20;20;20;20;20;20;353;353;353;353;354;353;353;353;353;354;364;364;364;364;364;364;364;364;364;364
2021-9-18 6:2:34;4.30;99;15.60;99;16.50;11;0.212;0.025;15.51;59.9;0.022;12.8781;7.745;12.888;8.962;20;20;20;20;20;20;20;19;20;20;353;354;354;354;353;353;353;354;354;353;364;364;364;364;364;364;364;364;364;364
2021-9-18 6:32:35;4.29;99;15.30;99;16.40;11;0.213;0.025;15.41;59.6;0.021;12.9611;7.607;12.964;8.838;20;20;20;20;20;20;20;20;20;20;354;354;354;354;354;354;354;354;353;354;364;364;364;364;364;364;364;364;364;364
2021-9-18 7:2:35;4.29;99;15.20;99;16.20;11;0.213;0.025;15.01;59.1;0.021;12.9311;7.593;12.929;8.848;20;20;20;20;20;20;20;20;20;20;354;354;354;354;354;354;354;354;354;354;364;364;364;364;364;364;364;364;364;364
2021-9-18 7:32:31;4.29;99;14.90;99;16.10;11;0.210;0.025;14.91;58.8;0.021;12.7551;7.641;12.748;8.931;20;20;20;20;20;20;20;20;20;20;354;354;354;354;354;354;354;354;354;354;364;364;365;364;365;365;365;365;364;364
2021-9-18 8:2:36;4.30;99;15.70;99;15.70;11;0.210;0.025;15.01;59.1;0.021;12.7611;7.643;12.762;8.889;20;20;20;20;20;20;20;20;20;20;355;355;355;355;355;355;355;355;355;355;364;364;364;364;364;365;364;365;364;365
2021-9-18 8:32:38;4.33;99;18.50;99;16.30;11;0.211;0.024;16.21;61.1;0.021;12.7841;7.655;12.823;8.714;20;20;20;20;20;20;20;20;20;20;356;356;356;356;356;356;356;356;356;357;362;362;362;362;362;362;362;362;362;362
2021-9-18 9:2:38;4.33;99;21.30;99;18.60;11;0.210;0.024;17.71;63.8;0.022;12.7551;7.821;12.846;8.645;21;21;21;21;21;21;20;21;21;20;355;356;356;356;356;355;356;356;356;356;360;361;360;361;360;361;360;360;360;360
2021-9-18 9:32:41;4.35;90;23.10;96;21.20;11;0.213;0.024;19.51;67.1;0.022;12.9041;7.940;13.051;8.523;22;22;22;22;22;22;22;22;22;22;356;356;357;357;356;357;357;356;356;357;359;359;359;359;359;359;359;359;359;359
2021-9-18 10:2:40;4.36;99;20.90;90;23.10;11;0.214;0.024;19.91;67.8;0.022;13.0241;8.046;13.182;8.597;22;21;22;22;21;22;22;22;22;22;354;354;354;354;354;354;354;354;354;354;360;360;360;360;360;360;360;360;360;360
2021-9-18 10:32:44;4.35;99;20.70;95;21.70;11;0.214;0.024;20.51;68.9;0.023;12.9681;8.205;13.139;8.709;22;22;22;22;22;22;22;22;22;22;354;354;354;354;354;354;353;353;354;353;361;361;361;361;360;360;360;361;360;360
2021-9-18 11:2:38;4.35;99;20.40;93;21.70;11;0.216;0.024;20.51;68.9;0.023;13.1471;8.152;13.315;8.672;22;22;22;22;22;22;22;22;22;22;353;353;354;353;354;354;354;353;354;353;361;362;361;361;361;362;361;362;361;361
2021-9-18 11:32:40;4.35;99;20.40;95;21.40;11;0.213;0.025;20.91;69.6;0.023;12.9081;8.365;13.086;8.838;24;24;24;24;24;24;24;24;24;24;353;353;353;353;354;353;353;353;354;353;362;362;362;362;362;362;362;362;362;362
2021-9-18 12:2:39;4.37;96;23.00;95;21.40;11;0.216;0.024;22.11;71.9;0.023;13.1181;8.327;13.341;8.619;25;25;25;25;25;25;25;25;25;25;354;354;354;354;354;354;354;354;354;354;363;363;363;363;363;363;363;363;363;363
2021-9-18 12:32:45;4.38;64;27.20;92;23.30;11;0.216;0.023;25.11;77.3;0.024;13.1241;8.525;13.458;8.374;25;25;25;25;25;26;25;25;25;25;355;355;355;355;355;355;356;355;355;355;365;365;365;365;365;365;365;365;365;365
2021-9-18 13:2:49;4.41;56;29.60;81;26.90;11;0.217;0.023;27.51;81.5;0.024;13.1921;8.807;13.598;8.384;26;26;26;26;25;25;26;25;26;25;355;354;354;355;354;355;355;355;355;355;366;366;366;366;366;366;366;366;366;366
2021-9-18 13:32:52;4.41;52;30.40;77;29.50;11;0.216;0.023;29.51;85.1;0.025;13.1031;9.172;13.591;8.423;26;26;25;26;26;26;26;25;25;25;354;354;355;355;354;355;354;354;355;354;367;366;366;366;367;366;366;366;366;366
2021-9-18 14:2:56;4.41;46;32.00;73;30.70;11;0.216;0.023;32.11;89.7;0.026;13.1101;9.391;13.679;8.347;27;27;27;27;27;27;27;27;27;27;355;355;356;355;356;355;355;356;355;355;367;367;367;367;367;367;367;367;367;367
2021-9-18 14:32:56;4.42;42;33.30;68;32.40;11;0.218;0.023;33.81;92.9;0.027;13.2991;9.546;13.924;8.328;27;27;27;27;27;27;27;27;27;27;355;355;355;355;356;355;355;355;355;355;367;367;367;367;368;367;367;367;367;367
2021-9-18 15:2:56;4.41;38;33.50;65;33.90;11;0.221;0.023;34.91;94.9;0.027;13.4501;9.681;14.116;8.337;35;34;34;34;35;34;34;34;35;34;355;355;355;355;355;355;355;355;355;355;368;368;367;368;368;367;368;367;367;368
2021-9-18 15:32:55;4.41;39;32.30;60;34.60;11;0.223;0.023;35.71;96.3;0.027;13.5831;9.806;14.261;8.431;64;64;64;64;64;64;64;64;64;65;355;355;355;355;355;355;355;355;355;355;367;367;367;367;367;367;367;367;367;367
2021-9-18 16:2:51;4.40;46;28.50;61;33.90;11;0.216;0.025;34.91;94.9;0.028;13.1581;10.195;13.785;8.866;34;34;34;34;34;34;34;34;34;34;354;354;355;354;354;355;354;355;354;354;366;366;366;366;366;366;366;366;366;366
2021-9-18 16:32:44;4.38;50;26.30;66;30.60;11;0.215;0.025;33.11;91.6;0.028;13.0651;10.136;13.598;9.133;28;29;28;29;29;28;28;29;29;28;352;352;352;352;352;352;352;352;352;352;365;365;365;365;365;365;365;365;365;365
2021-9-18 17:2:46;4.37;54;25.30;69;28.30;11;0.213;0.025;30.11;86.2;0.027;12.9651;9.795;13.409;9.149;27;27;27;27;28;27;28;28;27;28;351;350;351;351;351;351;351;350;351;351;365;365;365;365;365;365;365;365;365;365
2021-9-18 17:32:43;4.36;58;24.70;73;27.00;11;0.212;0.025;28.61;83.5;0.026;12.8881;9.477;13.276;9.059;26;26;26;26;26;26;26;26;26;26;351;352;352;351;351;351;351;351;351;351;365;365;365;365;365;365;365;365;365;365
2021-9-18 18:2:43;4.35;63;24.00;76;26.10;11;0.214;0.025;27.21;81.0;0.025;13.0171;9.122;13.371;8.869;26;26;26;26;26;26;26;25;25;25;352;351;351;351;352;352;352;352;352;351;365;365;365;365;365;365;365;365;365;365
2021-9-18 18:32:43;4.35;70;23.50;79;25.40;11;0.212;0.025;26.21;79.1;0.025;12.8471;8.980;13.166;8.854;25;25;26;25;25;26;26;25;25;25;352;352;353;352;352;352;352;352;353;352;365;366;366;366;366;365;366;365;365;366
2021-9-18 19:2:42;4.35;77;22.80;82;24.70;11;0.210;0.025;25.41;77.7;0.025;12.7121;8.858;13.001;8.843;26;26;26;25;26;25;26;26;26;26;353;352;352;353;352;352;353;353;353;352;366;366;366;366;366;366;366;366;366;366
2021-9-18 19:32:40;4.34;88;22.30;84;24.00;11;0.210;0.024;24.71;76.4;0.024;12.7691;8.686;13.034;8.778;27;27;26;26;26;27;26;26;26;26;352;352;352;352;352;352;352;352;352;352;366;366;366;366;366;366;366;366;366;367
2021-9-18 20:2:42;4.34;94;21.70;87;23.40;11;0.209;0.024;23.71;74.7;0.024;12.6401;8.569;12.883;8.745;27;27;27;27;27;27;27;27;27;27;352;353;353;353;352;353;352;352;352;352;367;367;367;367;367;367;367;367;367;367
2021-9-18 20:32:39;4.33;99;20.90;89;22.80;11;0.209;0.024;23.01;73.4;0.023;12.6981;8.403;12.921;8.667;27;27;27;27;27;27;27;27;27;27;353;353;353;353;353;354;353;353;353;353;367;367;367;367;367;367;367;367;367;367
2021-9-18 21:2:36;4.33;99;20.30;92;22.10;11;0.206;0.024;22.41;72.3;0.023;12.4721;8.432;12.671;8.788;27;27;27;27;27;27;27;27;27;27;354;354;354;354;354;354;354;354;354;354;367;368;367;368;368;368;368;367;368;368
2021-9-18 21:32:41;4.33;99;19.90;96;21.40;11;0.208;0.024;21.71;71.1;0.023;12.6271;8.128;12.808;8.559;27;27;27;27;27;27;27;27;27;27;355;355;355;355;355;355;355;355;354;355;368;368;368;368;368;368;368;368;368;368
2021-9-18 22:2:36;4.33;99;19.70;98;20.90;11;0.203;0.024;21.11;70.0;0.023;12.2541;8.223;12.415;8.728;27;27;27;27;27;27;27;27;27;27;355;355;355;355;356;356;355;355;355;356;369;368;369;369;368;368;369;368;369;368
2021-9-18 22:32:40;4.33;99;19.90;96;20.70;11;0.210;0.023;20.71;69.2;0.022;12.7431;7.816;12.899;8.343;27;27;27;26;27;27;27;27;27;27;356;356;356;355;356;356;356;355;355;356;369;369;369;369;369;369;369;369;369;369
2021-9-18 23:2:40;4.32;99;19.70;94;20.70;11;0.203;0.024;20.31;68.5;0.022;12.2871;8.049;12.427;8.639;27;27;27;26;27;26;27;27;27;27;356;356;356;356;356;356;356;356;356;356;369;369;369;370;369;369;369;369;369;369
2021-9-18 23:32:40;4.32;99;19.00;94;20.50;11;0.204;0.024;19.91;67.8;0.022;12.3491;7.894;12.478;8.529;27;27;27;27;27;27;27;27;27;27;356;356;357;356;357;357;357;357;357;357;370;369;370;369;370;370;369;370;370;370
