2021-6-3 0:2:34;4.30;91;14.00;86;14.00;11;0.241;0.035;13.31;55.9;0.029;14.8201;10.524;14.763;12.609;251;244;243;243;242;242;242;241;241;241;290;290;290;290;290;290;290;290;290;290;110;102;101;100;99;99;99;99;99;99
2021-6-3 0:32:33;4.30;92;13.90;87;13.90;11;0.241;0.035;13.11;55.6;0.029;14.8181;10.522;14.757;12.632;258;252;251;250;250;249;249;249;249;248;290;290;290;291;290;290;290;290;290;290;117;110;108;107;107;106;106;106;106;106
2021-6-3 1:2:32;4.30;94;13.50;88;13.50;11;0.243;0.035;13.11;55.6;0.029;14.9911;10.438;14.924;12.568;260;253;252;252;251;251;251;250;251;250;290;290;290;290;290;290;290;290;290;290;109;100;99;98;98;98;98;97;98;98
2021-6-3 1:32:31;4.30;99;13.20;90;13.10;11;0.236;0.036;13.01;55.4;0.030;14.4851;10.751;14.418;12.957;245;239;238;237;237;236;236;236;236;236;290;290;290;290;290;290;290;290;290;290;81;72;70;69;69;69;69;69;69;69
2021-6-3 2:2:30;4.29;99;13.10;90;13.00;11;0.240;0.035;13.01;55.4;0.029;14.8101;10.518;14.740;12.689;247;240;239;239;238;238;238;237;237;237;290;290;290;290;290;290;290;290;290;290;75;65;63;63;63;62;62;62;62;62
2021-6-3 2:32:34;4.30;99;13.00;91;13.00;11;0.236;0.036;12.81;55.1;0.030;14.4811;10.748;14.409;12.992;237;230;229;228;228;227;227;227;227;227;290;290;290;290;290;290;290;290;290;290;103;93;92;92;92;92;92;92;92;92
2021-6-3 3:2:32;4.29;99;13.00;92;12.90;11;0.238;0.036;12.81;55.1;0.030;14.6621;10.666;14.587;12.905;238;231;230;230;230;229;229;229;228;228;290;290;290;290;290;290;290;289;290;290;108;97;96;96;96;96;96;96;96;96
2021-6-3 3:32:31;4.29;99;13.10;92;13.10;11;0.243;0.035;12.81;55.1;0.029;14.9861;10.435;14.911;12.613;247;240;239;239;238;238;238;237;237;237;290;290;290;290;290;290;290;290;290;290;110;100;99;99;98;98;98;97;97;97
2021-6-3 4:2:34;4.29;99;13.20;93;13.10;11;0.238;0.036;12.81;55.1;0.030;14.6621;10.666;14.587;12.905;233;225;224;224;223;223;223;223;222;222;289;290;290;290;289;290;290;289;290;289;111;101;100;99;100;100;100;100;100;100
2021-6-3 4:32:32;4.29;99;12.90;93;12.90;11;0.238;0.036;12.71;54.8;0.030;14.6611;10.665;14.584;12.917;234;227;226;225;224;224;224;224;224;223;289;289;290;289;289;289;289;289;289;289;108;98;97;97;97;97;97;97;97;97
2021-6-3 5:2:31;4.29;99;12.70;96;12.60;11;0.237;0.036;12.71;54.8;0.029;14.5881;10.575;14.512;12.808;222;215;214;213;213;213;212;212;212;212;289;289;289;289;289;289;289;289;289;289;109;99;98;98;98;98;98;98;97;97
2021-6-3 5:32:33;4.29;99;12.40;97;12.30;11;0.240;0.035;12.61;54.6;0.029;14.7641;10.492;14.681;12.744;217;209;208;207;207;207;207;206;206;206;289;289;289;289;289;289;289;289;289;289;97;86;85;85;85;86;86;86;86;86
2021-6-3 6:2:31;4.28;99;12.40;95;12.30;11;0.240;0.036;12.41;54.3;0.029;14.7601;10.489;14.671;12.778;220;212;211;211;210;210;210;210;209;209;290;289;290;289;290;290;289;290;290;290;101;91;90;90;90;90;90;90;90;90
2021-6-3 6:32:29;4.28;99;12.40;95;12.30;11;0.240;0.036;12.41;54.3;0.029;14.7581;10.488;14.668;12.789;214;206;206;205;205;204;204;204;203;203;289;289;289;289;290;290;290;290;290;290;93;82;82;82;82;82;82;82;82;82
2021-6-3 7:2:32;4.28;99;12.10;96;12.00;11;0.240;0.036;12.31;54.1;0.029;14.7551;10.487;14.662;12.812;207;199;198;198;198;197;197;197;196;196;289;289;289;289;289;289;289;290;289;289;96;85;85;85;85;85;85;85;86;86
2021-6-3 7:32:30;4.28;99;12.00;96;11.90;11;0.240;0.036;12.11;53.9;0.029;14.7541;10.486;14.659;12.823;206;198;197;197;196;196;196;195;195;195;289;289;290;289;289;289;289;289;289;289;99;88;87;87;87;87;87;87;87;87
2021-6-3 8:2:32;4.28;99;11.90;96;11.80;11;0.240;0.036;12.11;53.9;0.029;14.7531;10.485;14.656;12.835;207;199;198;197;197;197;197;196;196;196;289;289;290;290;290;289;289;290;290;290;96;85;85;85;85;84;84;84;84;84
2021-6-3 8:32:29;4.28;99;12.00;96;12.00;11;0.244;0.035;12.11;53.9;0.029;15.0691;10.255;14.970;12.553;207;198;197;197;196;196;196;196;195;195;289;289;289;289;289;289;290;289;289;289;95;83;83;83;83;83;83;83;83;83
2021-6-3 9:2:31;4.28;99;12.60;95;12.60;11;0.240;0.036;12.31;54.1;0.029;14.7571;10.488;14.665;12.800;217;209;208;208;207;207;207;206;206;206;289;289;289;289;289;289;290;290;290;290;94;83;82;82;82;82;82;82;82;82
2021-6-3 9:32:29;4.28;99;13.20;91;13.20;11;0.240;0.035;12.61;54.6;0.029;14.7641;10.492;14.681;12.744;237;230;230;229;228;228;228;228;228;228;290;290;290;290;290;290;290;290;290;290;101;90;90;90;90;90;90;90;90;90
2021-6-3 10:2:32;4.29;99;13.80;89;13.70;11;0.240;0.035;12.71;54.8;0.029;14.7691;10.495;14.694;12.698;246;238;238;237;236;236;236;236;236;236;289;289;289;289;289;289;289;289;289;289;85;73;73;72;73;72;72;72;73;73
2021-6-3 10:32:31;4.29;95;15.00;88;15.00;11;0.243;0.035;13.01;55.4;0.029;14.9941;10.440;14.931;12.546;254;247;246;246;245;245;245;245;244;244;289;289;289;289;289;289;289;289;289;289;83;71;71;71;71;70;70;70;70;70
2021-6-3 11:2:31;4.33;90;16.70;85;16.70;11;0.241;0.035;13.51;56.4;0.029;14.8291;10.529;14.783;12.541;272;265;265;264;264;263;263;263;263;263;289;289;289;289;289;289;289;289;289;289;74;62;62;62;62;61;62;62;62;62
2021-6-3 11:32:37;4.34;78;18.80;81;18.80;11;0.243;0.035;14.11;57.4;0.030;14.9581;10.650;14.935;12.535;286;280;279;279;278;278;278;278;278;278;288;288;288;288;288;289;288;288;288;289;67;54;54;54;54;54;54;54;54;54
2021-6-3 12:2:37;4.35;61;21.90;74;21.60;11;0.245;0.034;14.41;58.0;0.029;15.1101;10.503;15.099;12.289;309;304;303;303;302;302;302;302;301;301;289;288;288;289;289;289;288;288;288;289;64;52;52;52;51;51;52;51;51;52
2021-6-3 12:32:43;4.37;57;22.50;70;22.40;11;0.239;0.035;14.91;58.8;0.030;14.6871;10.919;14.692;12.673;315;310;309;309;309;308;308;308;308;307;288;288;288;288;288;288;288;288;288;288;61;49;49;49;48;49;49;49;48;48
2021-6-3 13:2:48;4.38;53;23.50;67;23.40;11;0.242;0.035;15.21;59.4;0.030;14.9191;10.863;14.936;12.532;337;332;332;331;331;331;330;330;330;330;288;288;288;288;288;288;288;288;288;288;75;64;63;63;63;63;63;63;63;63
2021-6-3 13:32:46;4.38;53;23.00;67;23.10;11;0.242;0.035;15.51;59.9;0.030;14.9271;10.868;14.955;12.473;360;356;355;355;354;354;354;354;354;353;294;293;294;293;293;293;294;294;293;294;82;73;71;71;70;70;70;70;70;70
2021-6-3 14:2:47;4.37;56;22.30;70;22.30;11;0.245;0.034;15.71;60.2;0.030;15.1541;10.810;15.191;12.356;404;401;401;400;400;400;400;399;399;399;287;287;287;287;287;287;287;287;287;287;89;77;77;77;77;77;77;77;77;77
2021-6-3 14:32:45;4.37;53;22.30;67;22.40;11;0.241;0.035;16.01;60.8;0.031;14.8291;11.052;14.873;12.580;454;452;451;451;451;451;451;450;450;450;286;286;286;286;286;286;286;286;286;286;36;30;28;26;25;25;24;24;23;23
2021-6-3 15:2:40;4.36;52;22.00;67;22.10;11;0.238;0.035;16.01;60.8;0.031;14.6441;11.138;14.692;12.652;492;491;490;490;490;490;490;490;489;490;285;285;285;285;285;285;285;285;285;285;55;51;50;50;49;49;49;49;49;48
2021-6-3 15:32:43;4.36;48;22.20;63;22.30;11;0.241;0.035;16.31;61.4;0.031;14.8781;11.081;14.938;12.523;536;536;535;535;535;535;535;535;535;535;289;289;289;289;289;289;289;289;289;289;110;108;107;107;107;106;106;106;106;106
2021-6-3 16:2:42;4.35;46;21.90;62;21.90;11;0.237;0.036;16.31;61.4;0.031;14.5351;11.322;14.594;12.794;548;548;548;547;547;547;547;547;547;547;285;285;285;285;285;285;285;285;285;285;151;149;149;149;149;148;148;148;148;148
2021-6-3 16:32:40;4.35;48;21.30;63;21.40;11;0.236;0.036;16.21;61.1;0.031;14.5291;11.317;14.579;12.843;543;542;542;542;542;542;542;542;542;541;285;285;285;285;284;285;285;284;285;285;85;82;82;81;81;81;81;80;80;80
2021-6-3 17:2:42;4.35;57;20.50;71;20.60;11;0.238;0.035;15.81;60.5;0.031;14.6361;11.133;14.674;12.712;534;533;532;532;532;532;532;532;532;532;284;284;284;284;284;284;284;284;284;284;62;58;57;57;56;56;56;56;56;55
2021-6-3 17:32:39;4.34;66;19.90;77;19.90;11;0.241;0.035;15.71;60.2;0.031;14.8171;11.045;14.847;12.663;479;477;477;477;476;477;476;476;476;476;284;284;284;284;284;284;284;284;284;284;52;48;47;46;46;45;45;45;44;44
2021-6-3 18:2:30;4.33;60;19.40;73;19.50;11;0.241;0.035;15.51;59.9;0.031;14.8131;11.042;14.836;12.699;496;494;494;494;493;494;494;493;493;493;285;285;285;285;285;285;285;285;285;285;55;50;50;49;48;48;47;47;47;46
2021-6-3 18:32:38;4.33;61;19.10;74;19.10;11;0.240;0.035;15.41;59.6;0.031;14.8061;11.038;14.822;12.746;498;496;496;496;496;496;496;496;495;495;285;285;285;285;285;285;285;285;285;285;56;51;50;50;49;48;48;47;47;47
2021-6-3 19:2:38;4.33;65;18.80;76;18.90;11;0.240;0.036;15.21;59.4;0.031;14.8031;11.036;14.814;12.770;482;480;480;479;479;479;479;479;479;479;285;285;285;285;285;285;285;285;285;285;60;56;55;54;53;53;53;52;52;51
2021-6-3 19:32:37;4.33;65;18.70;77;18.70;11;0.240;0.036;15.21;59.4;0.031;14.8031;11.036;14.814;12.770;464;462;462;461;461;461;461;461;461;461;285;285;285;285;285;285;285;285;285;285;47;43;42;41;40;39;39;38;38;38
2021-6-3 20:2:36;4.33;71;18.40;80;18.40;11;0.240;0.036;15.01;59.1;0.031;14.8001;11.034;14.807;12.794;446;443;443;443;443;442;442;442;442;442;286;286;286;286;286;286;286;286;286;286;46;42;40;39;38;38;37;37;36;36
2021-6-3 20:32:39;4.33;70;18.30;79;18.30;11;0.240;0.036;15.01;59.1;0.031;14.8001;11.034;14.807;12.794;444;441;441;441;441;440;440;440;440;440;286;286;286;286;286;286;286;286;286;286;47;42;41;39;39;38;38;37;37;37
2021-6-3 21:2:34;4.33;80;17.70;83;17.70;11;0.240;0.036;15.01;59.1;0.031;14.7981;11.033;14.804;12.805;414;410;410;410;409;409;409;409;409;409;286;286;286;286;286;286;286;286;286;286;56;50;49;48;47;46;46;45;45;44
2021-6-3 21:32:37;4.32;76;17.80;82;17.80;11;0.240;0.036;15.01;59.1;0.031;14.7981;11.033;14.804;12.805;409;405;405;404;404;404;404;403;404;403;286;286;286;286;286;286;286;286;286;286;56;51;49;48;48;47;47;46;46;45
2021-6-3 22:2:35;4.32;74;17.80;81;17.80;11;0.240;0.036;15.01;59.1;0.031;14.7981;11.033;14.804;12.805;417;414;414;414;414;413;413;413;413;413;292;292;292;292;292;292;292;292;292;292;55;49;48;47;46;46;45;45;44;44
2021-6-3 22:32:37;4.32;74;17.80;80;17.80;11;0.240;0.036;14.91;58.8;0.031;14.7971;11.032;14.800;12.817;427;424;424;424;423;423;423;423;422;422;291;291;290;291;291;290;290;291;291;290;50;45;44;43;42;42;41;41;40;40
2021-6-3 23:2:35;4.32;74;17.60;80;17.70;11;0.240;0.036;14.91;58.8;0.031;14.7971;11.032;14.800;12.817;430;427;427;427;426;426;426;426;426;426;286;286;286;286;286;286;286;286;286;286;50;45;44;43;42;42;41;40;40;40
2021-6-3 23:32:38;4.32;76;17.30;81;17.40;11;0.240;0.036;14.91;58.8;0.031;14.7951;11.031;14.796;12.829;418;414;414;414;413;414;413;413;413;413;286;286;286;286;286;286;286;286;286;286;49;43;42;41;40;39;39;38;38;37
