2021-06-17 00:03:32;3.65;18;6.40;4;1.60
2021-06-17 00:33:33;3.65;16;6.30;0;1.20
2021-06-17 01:03:30;3.65;9;6.20;0;1.10
2021-06-17 01:33:31;3.65;19;6.00;0;1.40
2021-06-17 02:03:32;3.65;15;5.90;0;1.40
2021-06-17 02:33:29;3.65;11;5.80;0;1.30
2021-06-17 03:03:30;3.65;32;5.70;0;1.20
2021-06-17 03:33:31;3.65;42;5.60;0;0.00
2021-06-17 04:03:32;3.65;32;5.60;0;0.00
2021-06-17 04:33:29;3.65;31;5.60;0;0.00
2021-06-17 05:03:30;3.65;36;5.60;0;0.00
2021-06-17 05:33:31;3.65;45;5.50;0;0.00
2021-06-17 06:03:32;3.65;47;5.30;0;0.00
2021-06-17 06:33:33;3.65;81;5.20;0;1.60
2021-06-17 07:03:29;3.65;84;5.20;0;0.00
2021-06-17 07:33:29;3.65;95;4.70;0;0.00
2021-06-17 08:03:30;3.65;99;4.10;0;0.00
2021-06-17 08:33:30;3.65;99;4.10;0;1.10
2021-06-17 09:03:30;3.65;55;6.00;0;0.00
2021-06-17 09:33:31;3.65;1;6.70;0;2.29
2021-06-17 10:03:33;3.65;1;7.40;0;1.60
2021-06-17 10:33:31;3.65;1;8.90;0;0.00
2021-06-17 11:03:35;3.65;1;11.10;0;0.00
2021-06-17 11:33:34;3.65;1;11.80;0;0.00
2021-06-17 12:03:34;3.65;1;12.70;0;0.00
2021-06-17 12:33:36;3.65;1;12.50;0;0.00
2021-06-17 13:03:39;3.64;1;14.10;0;0.00
2021-06-17 13:33:38;3.65;1;12.70;0;0.00
2021-06-17 14:03:35;3.65;1;11.20;0;0.00
2021-06-17 14:33:37;3.64;1;14.30;0;0.00
2021-06-17 15:03:36;3.64;1;11.50;0;0.00
2021-06-17 15:33:37;3.65;1;11.80;0;0.00
2021-06-17 16:03:34;3.65;1;11.60;0;0.00
2021-06-17 16:33:34;3.65;1;11.70;0;0.00
2021-06-17 17:03:35;3.65;1;10.90;0;0.00
2021-06-17 17:33:35;3.65;1;9.60;0;0.00
2021-06-17 18:03:34;3.65;1;9.50;0;0.00
2021-06-17 18:33:33;3.65;1;9.50;0;0.00
2021-06-17 19:03:31;3.64;1;9.30;0;0.00
2021-06-17 19:33:34;3.65;1;9.20;0;0.00
2021-06-17 20:03:33;3.65;1;8.80;0;0.00
2021-06-17 20:33:31;3.65;1;8.30;0;0.00
2021-06-17 21:03:33;3.65;1;7.20;0;0.00
2021-06-17 21:33:30;3.65;1;6.50;0;0.00
2021-06-17 22:03:31;3.64;1;5.80;0;0.00
2021-06-17 22:33:32;3.65;1;5.20;0;0.00
2021-06-17 23:03:31;3.64;1;4.50;0;0.00
2021-06-17 23:33:31;3.64;1;4.80;0;0.00
