2021-06-25 00:03:32;3.60;99;5.80;1;0.00
2021-06-25 00:33:33;3.60;99;6.00;0;0.00
2021-06-25 01:03:28;3.60;99;5.00;0;0.00
2021-06-25 01:33:28;3.60;99;4.70;0;0.00
2021-06-25 02:03:28;3.60;99;4.60;0;0.00
2021-06-25 02:33:28;3.60;99;4.30;0;0.00
2021-06-25 03:03:28;3.60;1;3.90;0;0.00
2021-06-25 03:33:32;3.60;1;2.70;0;0.00
2021-06-25 04:03:27;3.60;1;3.30;0;0.00
2021-06-25 04:33:31;3.60;1;2.50;0;0.00
2021-06-25 05:03:27;3.60;1;2.00;1;0.00
2021-06-25 05:33:30;3.60;1;2.00;1;0.00
2021-06-25 06:03:28;3.60;1;2.30;1;0.00
2021-06-25 06:33:27;3.60;1;1.30;1;0.00
2021-06-25 07:03:30;3.60;1;1.70;1;0.00
2021-06-25 07:33:29;3.60;1;1.60;1;0.00
2021-06-25 08:03:27;3.60;1;2.60;1;0.00
2021-06-25 08:33:31;3.60;1;3.20;1;0.00
2021-06-25 09:03:30;3.60;1;5.20;1;2.09
2021-06-25 09:33:31;3.60;1;6.80;1;3.38
2021-06-25 10:03:32;3.60;1;8.30;1;2.89
2021-06-25 10:33:34;3.60;1;9.70;1;2.09
2021-06-25 11:03:33;3.60;1;10.50;1;2.39
2021-06-25 11:33:33;3.60;60;12.30;1;2.89
2021-06-25 12:03:34;3.60;1;13.40;1;2.99
2021-06-25 12:33:35;3.60;1;14.30;1;3.78
2021-06-25 13:03:38;3.60;1;14.60;1;3.28
2021-06-25 13:33:36;3.60;1;15.30;1;2.69
