2021-06-19 00:04:18;4.10;165.31;99;8.60
2021-06-19 00:34:13;4.10;162.41;99;8.20
2021-06-19 01:04:14;4.10;161.93;99;8.10
2021-06-19 01:34:14;4.10;162.25;99;8.00
2021-06-19 02:04:14;4.10;162.25;99;8.30
2021-06-19 02:34:15;4.10;163.06;99;8.10
2021-06-19 03:04:15;4.10;164.67;99;7.80
2021-06-19 03:34:15;4.10;165.63;99;8.00
2021-06-19 04:04:15;4.10;162.73;99;7.70
2021-06-19 04:34:15;4.10;162.41;99;7.70
2021-06-19 05:04:15;4.10;162.73;99;7.30
2021-06-19 05:34:15;4.09;162.73;99;7.40
2021-06-19 06:04:14;4.09;164.35;99;7.20
2021-06-19 06:34:14;4.09;163.38;99;7.40
2021-06-19 07:04:14;4.09;164.99;99;7.50
2021-06-19 07:34:13;4.09;163.70;99;7.30
2021-06-19 08:04:13;4.09;164.99;99;6.90
2021-06-19 08:34:17;4.09;165.31;99;6.80
2021-06-19 09:04:12;4.09;162.25;99;7.80
2021-06-19 09:34:18;4.09;163.38;99;8.80
2021-06-19 10:04:15;4.10;162.25;99;10.70
2021-06-19 10:34:18;4.10;163.38;95;12.20
2021-06-19 11:04:18;4.10;163.70;92;12.20
2021-06-19 11:34:17;4.10;164.02;85;13.10
2021-06-19 12:04:18;4.10;163.38;81;14.10
2021-06-19 12:34:19;4.11;163.70;81;14.20
2021-06-19 13:04:21;4.11;164.35;79;14.80
2021-06-19 13:34:23;4.11;163.06;79;15.20
2021-06-19 14:04:20;4.11;163.38;79;15.30
2021-06-19 14:34:22;4.11;165.63;79;15.70
2021-06-19 15:04:19;4.11;164.67;78;15.00
2021-06-19 15:34:21;4.11;163.38;79;15.10
2021-06-19 16:04:18;4.11;163.38;82;14.80
2021-06-19 16:34:20;4.11;162.73;82;14.40
2021-06-19 17:04:21;4.11;163.38;82;14.60
2021-06-19 17:34:22;4.11;163.38;86;13.70
2021-06-19 18:04:18;4.11;163.70;93;12.00
2021-06-19 18:34:16;4.11;164.02;99;11.10
2021-06-19 19:04:18;4.11;164.02;99;8.80
2021-06-19 19:34:14;4.11;163.06;99;7.40
2021-06-19 20:04:13;4.11;162.41;99;6.50
2021-06-19 20:34:13;4.11;162.73;99;6.50
2021-06-19 21:04:16;4.10;162.73;99;6.10
2021-06-19 21:34:15;4.10;164.35;99;5.70
2021-06-19 22:04:13;4.10;163.06;99;5.60
2021-06-19 22:34:16;4.10;164.67;99;4.60
2021-06-19 23:04:13;4.10;163.70;99;4.40
2021-06-19 23:34:11;4.10;164.02;99;3.60
