2021-04-12 00:03:34;4.20;77;12.70;0;0.00
2021-04-12 00:33:35;4.20;67;12.00;0;0.00
2021-04-12 01:03:35;4.20;64;12.00;0;0.00
2021-04-12 01:33:35;4.20;63;11.90;0;0.00
2021-04-12 02:03:35;4.20;51;11.60;0;0.00
2021-04-12 02:33:35;4.20;45;12.00;0;0.00
2021-04-12 03:03:35;4.20;48;11.50;0;0.00
2021-04-12 03:33:35;4.19;56;10.80;0;0.00
2021-04-12 04:03:35;4.19;82;10.80;0;0.00
2021-04-12 04:33:34;4.19;66;10.70;0;0.00
2021-04-12 05:03:30;4.19;93;10.30;1;0.00
2021-04-12 05:33:34;4.19;99;10.50;1;0.00
2021-04-12 06:03:33;4.19;99;9.70;1;0.00
2021-04-12 06:33:32;4.19;99;10.20;1;0.00
2021-04-12 07:03:35;4.19;99;9.90;1;0.00
2021-04-12 07:33:34;4.19;99;9.70;1;0.00
2021-04-12 08:03:33;4.19;99;10.40;1;0.00
2021-04-12 08:33:32;4.20;43;13.30;1;0.00
2021-04-12 09:03:33;4.20;1;15.80;1;0.00
2021-04-12 09:33:37;4.21;1;18.50;1;0.00
2021-04-12 10:03:38;4.21;1;19.20;1;0.00
2021-04-12 10:33:42;4.21;1;21.60;1;0.00
2021-04-12 11:03:42;4.21;1;21.50;1;0.00
