2021-04-06 00:03:35;4.21;99;15.70;0;0.00
2021-04-06 00:33:38;4.21;99;16.00;0;0.00
2021-04-06 01:03:37;4.21;99;15.70;0;0.00
2021-04-06 01:33:35;4.21;99;14.70;0;0.00
2021-04-06 02:03:38;4.21;99;15.20;0;0.00
2021-04-06 02:33:36;4.21;99;14.80;0;0.00
2021-04-06 03:03:38;4.21;1;15.10;0;0.00
2021-04-06 03:33:36;4.21;1;14.90;0;0.00
2021-04-06 04:03:38;4.20;1;14.20;0;0.00
2021-04-06 04:33:36;4.20;1;14.40;0;0.00
2021-04-06 05:03:38;4.20;1;13.90;0;0.00
2021-04-06 05:33:35;4.20;1;13.50;0;0.00
2021-04-06 06:03:33;4.20;1;13.80;1;0.00
2021-04-06 06:33:35;4.20;1;13.90;1;0.00
2021-04-06 07:03:37;4.20;1;14.00;1;0.00
2021-04-06 07:33:34;4.20;1;14.00;1;0.00
2021-04-06 08:03:36;4.20;1;14.90;1;0.00
2021-04-06 08:33:35;4.21;1;16.30;1;0.00
2021-04-06 09:03:39;4.21;1;17.20;1;0.00
2021-04-06 09:33:39;4.21;1;19.40;1;2.00
2021-04-06 10:03:42;4.22;1;22.90;1;1.30
2021-04-06 10:33:42;4.22;1;25.20;1;1.20
2021-04-06 11:03:45;4.22;1;25.40;1;1.70
2021-04-06 11:33:44;4.22;1;26.80;1;2.09
2021-04-06 12:03:45;4.23;1;27.20;1;2.69
2021-04-06 12:33:46;4.23;1;28.60;1;3.28
2021-04-06 13:03:48;4.23;1;28.70;1;3.68
2021-04-06 13:33:50;4.23;1;27.90;1;2.39
2021-04-06 14:03:47;4.23;1;27.50;1;2.19
2021-04-06 14:33:49;4.24;1;29.30;1;1.80
2021-04-06 15:03:47;4.24;1;28.00;1;1.80
2021-04-06 15:33:48;4.24;1;29.10;1;2.49
2021-04-06 16:03:50;4.24;1;29.40;1;2.59
2021-04-06 16:33:47;4.24;1;28.30;1;2.00
2021-04-06 17:03:49;4.24;1;28.60;1;3.28
2021-04-06 17:33:45;4.24;1;28.40;1;3.08
2021-04-06 18:03:46;4.24;1;27.50;1;1.60
2021-04-06 18:33:46;4.24;1;26.00;1;0.00
2021-04-06 19:03:44;4.24;1;23.50;1;0.00
2021-04-06 19:33:44;4.24;1;22.60;1;0.00
2021-04-06 20:03:39;4.24;1;22.00;1;0.00
2021-04-06 20:33:42;4.23;5;20.70;1;0.00
2021-04-06 21:03:40;4.23;6;20.70;1;0.00
2021-04-06 21:33:42;4.23;26;19.80;1;0.00
2021-04-06 22:03:39;4.23;24;20.30;1;0.00
2021-04-06 22:33:40;4.23;61;19.40;1;0.00
2021-04-06 23:03:37;4.22;57;19.80;1;0.00
2021-04-06 23:33:38;4.22;87;18.20;1;0.00
