2021-04-08 00:03:41;4.23;99;20.60;0;0.00
2021-04-08 00:33:38;4.23;99;20.40;0;0.00
2021-04-08 01:03:40;4.23;99;20.10;0;0.00
2021-04-08 01:33:41;4.22;99;19.80;0;0.00
2021-04-08 02:03:38;4.22;99;19.70;0;0.00
2021-04-08 02:33:40;4.23;99;19.40;0;0.00
2021-04-08 03:03:41;4.22;99;19.20;0;0.00
2021-04-08 03:33:37;4.22;99;19.10;0;0.00
2021-04-08 04:03:38;4.22;1;19.20;0;0.00
2021-04-08 04:33:40;4.22;1;19.20;0;0.00
2021-04-08 05:03:41;4.22;1;18.60;0;0.00
2021-04-08 05:33:37;4.22;1;18.80;0;0.00
2021-04-08 06:03:37;4.22;1;18.80;0;0.00
2021-04-08 06:33:38;4.22;1;18.80;0;0.00
2021-04-08 07:03:39;4.22;99;19.20;0;1.10
2021-04-08 07:33:40;4.22;99;19.40;0;1.60
2021-04-08 08:03:41;4.22;99;19.90;0;1.70
2021-04-08 08:33:38;4.22;99;20.40;0;2.29
2021-04-08 09:03:41;4.22;59;22.30;0;2.49
2021-04-08 09:33:40;4.22;1;24.70;0;4.27
2021-04-08 10:03:42;4.23;1;26.70;0;2.69
2021-04-08 10:33:45;4.23;1;28.00;0;2.79
2021-04-08 11:03:46;4.23;1;29.80;0;4.87
2021-04-08 11:33:49;4.23;1;30.00;0;6.45
2021-04-08 12:03:48;4.24;1;31.50;0;4.17
2021-04-08 12:33:52;4.24;1;33.20;0;2.39
2021-04-08 13:03:49;4.24;1;31.90;0;1.70
2021-04-08 13:33:50;4.24;1;32.50;0;5.46
2021-04-08 14:03:52;4.24;1;33.80;0;4.17
2021-04-08 14:33:49;4.24;1;33.00;0;3.88
2021-04-08 15:03:51;4.25;1;33.80;0;1.90
2021-04-08 15:33:53;4.25;1;32.20;0;4.37
2021-04-08 16:03:49;4.25;1;31.70;0;2.19
2021-04-08 16:33:48;4.25;1;31.50;0;2.59
2021-04-08 17:03:48;4.25;1;31.20;0;1.10
2021-04-08 17:33:51;4.25;1;31.00;0;0.00
2021-04-08 18:03:49;4.25;1;29.80;0;0.00
2021-04-08 18:33:46;4.25;1;28.50;0;0.00
2021-04-08 19:03:46;4.25;1;27.60;0;0.00
2021-04-08 19:33:45;4.24;2;26.70;0;0.00
2021-04-08 20:03:43;4.24;2;26.40;0;0.00
2021-04-08 20:33:45;4.24;15;26.10;0;1.10
2021-04-08 21:03:43;4.24;30;25.70;0;0.00
2021-04-08 21:33:45;4.24;44;25.50;0;0.00
2021-04-08 22:03:42;4.24;34;25.50;0;0.00
2021-04-08 22:33:44;4.24;30;25.50;0;1.20
2021-04-08 23:03:45;4.24;76;24.70;0;0.00
2021-04-08 23:33:42;4.24;56;24.90;0;0.00
