;ENE;FEB;MAR;ABR;MAY;JUN;JUL;AGO;SEP;OCT;NOV;DIC
1;12.22;12.24;12.26;;;;;;12.01;11.98;12.01;12.06
2;;;;12.25;;12.1;12.03;11.98;;;;
3;;12.24;12.26;;12.17;;;;12.01;;12.01;12.06
4;12.22;;;;;12.1;;11.98;;11.98;;
5;;12.24;12.26;12.25;12.17;;12.03;;;;12.01;
6;12.22;;;;;;;11.98;11.98;11.98;;12.1
7;;;;12.17;12.17;12.1;12.03;;;;;
8;12.22;12.24;12.26;;;;;;11.98;11.97;12.01;12.1
9;;;;12.17;;12.1;12.03;11.98;;;;
10;;12.24;12.26;;12.14;;;;11.98;;12.01;12.1
11;12.23;;;;;12.1;;11.98;;11.97;;
12;;12.26;12.26;12.17;12.14;;12.03;;;;12.01;
13;12.23;;;;;;;11.98;11.99;11.97;;12.1
14;;;;12.2;12.14;12.05;12.03;;;;;
15;12.23;12.26;12.26;;;;;;11.99;11.97;12.01;12.1
16;;;;12.2;;12.05;12.02;11.98;;;;
17;;12.26;12.26;;12.14;;;;11.99;;12.01;12.1
18;12.24;;;;;12.05;;11.99;;11.97;;
19;;12.28;12.25;12.2;12.09;;12.01;;;;12.01;
20;12.24;;;;;;;11.99;11.97;11.97;;12.1
21;;;;12.2;12.09;12.05;12.01;;;;;
22;12.24;12.28;12.25;;;;;;11.97;11.97;12.04;12.11
23;;;;12.17;;12.05;12.01;11.99;;;;
24;;12.28;12.25;;12.09;;;;11.97;;12.04;12.11
25;12.23;;;;;12.05;;11.99;;11.98;;
26;;12.27;12.25;12.17;12.09;;12.01;;;;12.04;
27;12.23;;;;;;;11.99;11.98;11.98;;12.11
28;;;;12.17;12.1;12.03;12.01;;;;;
29;12.24;;12.24;;;;;;11.98;11.98;12.04;12.11
30;;;;12.17;;12.03;12.01;12.01;;;;
31;;;12.24;;12.1;;;;;;;12.11
