;ENE;FEB;MAR;ABR;MAY;JUN;JUL;AGO;SEP;OCT;NOV;DIC
1;12.17;;;;;9.66;;8.84;;8.59;;
2;;12.18;11.9;11.35;10.64;;9.15;;;;8.59;
3;12.17;;;;;;;8.84;8.68;8.59;;8.58
4;;;;11.35;10.41;9.66;9.15;;;;;
5;12.17;12.16;11.88;;;;;;8.68;8.58;8.6;8.61
6;;;;11.35;;9.66;9.15;8.84;;;;
7;;12.16;11.84;;10.35;;;;8.68;;8.58;8.61
8;12.19;;;;;9.57;;8.79;;8.6;;
9;;12.16;11.84;11.19;10.35;;9.05;;;;8.58;
10;12.19;;;;;;;8.79;8.68;8.56;;8.62
11;;;;11.19;10.35;9.57;9.05;;;;;
12;12.19;12.15;11.84;;;;;;8.65;8.56;8.49;8.62
13;;;;11.19;;9.57;9.05;8.75;;;;
14;;12.15;11.84;;10.1;;;;8.65;;8.43;8.61
15;12.19;;;;;9.44;;8.75;;8.61;;
16;;12.15;11.84;11.07;10.23;;8.89;;;;8.59;
17;12.19;;;;;;;8.75;8.65;8.62;;8.62
18;;;;11.07;10.23;9.44;8.89;;;;;
19;12.19;12.1;11.66;;;;;;8.65;8.58;8.59;8.62
20;;;;10.87;;9.44;8.89;8.68;;;;
21;;12.1;11.66;;9.93;;;;8.65;;8.59;8.64
22;12.18;;;;;9.44;;8.68;;8.63;;
23;;12.1;11.56;10.87;9.93;;8.89;;;;8.55;
24;12.18;;;;;;;8.68;8.58;8.59;;8.62
25;;;;10.87;9.78;9.34;8.88;;;;;
26;12.18;12.03;11.52;;;;;;8.58;8.59;8.6;8.65
27;;;;10.87;;9.34;8.74;8.68;;;;
28;;12.03;11.52;;9.78;;;;8.62;;8.59;8.67
29;12.18;;;;;9.34;;8.68;;8.59;;
30;;;11.5;10.64;9.78;;8.84;;;;8.6;
31;12.18;;;;;;;8.68;;8.59;;8.59
