;ENE;FEB;MAR;ABR;MAY;JUN;JUL;AGO;SEP;OCT;NOV;DIC
1;5.84 ;6.09 ;6.31 ;6.59 ;6.90 ;7.10 ;7.19 ;7.25 ;7.34 ;7.47 ;7.64 ;7.78 
2;5.86 ;6.09 ;6.33 ;6.59 ;6.92 ;7.11 ;7.19 ;7.27 ;7.34 ;7.48 ;7.64 ;7.77 
3;5.86 ;6.12 ;6.33 ;6.59 ;6.92 ;7.11 ;7.19 ;7.27 ;7.34 ;7.48 ;7.65 ;7.77 
4;5.88 ;6.12 ;6.33 ;6.61 ;6.93 ;7.11 ;7.19 ;7.27 ;7.35 ;7.49 ;7.65 ;7.78 
5;5.90 ;6.14 ;6.35 ;6.63 ;6.94 ;7.12 ;7.19 ;7.27 ;7.36 ;7.49 ;7.65 ;7.79 
6;5.91 ;6.14 ;6.36 ;6.65 ;6.94 ;7.14 ;7.19 ;7.28 ;7.36 ;7.50 ;7.66 ;7.80 
7;5.91 ;6.15 ;6.37 ;6.68 ;6.94 ;7.14 ;7.20 ;7.29 ;7.36 ;7.51 ;7.66 ;7.81 
8;5.93 ;6.15 ;6.38 ;6.69 ;6.96 ;7.14 ;7.20 ;7.28 ;7.36 ;7.51 ;7.66 ;7.82 
9;5.93 ;6.16 ;6.40 ;6.69 ;6.96 ;7.14 ;7.20 ;7.27 ;7.38 ;7.51 ;7.66 ;7.82 
10;5.95 ;6.17 ;6.41 ;6.70 ;6.96 ;7.14 ;7.20 ;7.27 ;7.40 ;7.51 ;7.66 ;7.83 
11;5.95 ;6.18 ;6.41 ;6.70 ;6.97 ;7.14 ;7.21 ;7.25 ;7.40 ;7.51 ;7.67 ;7.83 
12;5.96 ;6.19 ;6.43 ;6.72 ;7.00 ;7.13 ;7.21 ;7.25 ;7.40 ;7.52 ;7.68 ;7.82 
13;5.97 ;6.19 ;6.43 ;6.72 ;7.00 ;7.13 ;7.21 ;7.27 ;7.40 ;7.53 ;7.70 ;7.81 
14;5.97 ;6.19 ;6.45 ;6.73 ;7.00 ;7.13 ;7.21 ;7.27 ;7.41 ;7.53 ;7.70 ;7.80 
15;5.97 ;6.20 ;6.45 ;6.73 ;7.00 ;7.15 ;7.21 ;7.28 ;7.41 ;7.55 ;7.70 ;7.79 
16;5.99 ;6.20 ;6.46 ;6.74 ;7.00 ;7.16 ;7.22 ;7.28 ;7.41 ;7.57 ;7.70 ;7.77 
17;6.01 ;6.22 ;6.47 ;6.76 ;7.01 ;7.17 ;7.24 ;7.29 ;7.41 ;7.57 ;7.71 ;7.74 
18;6.01 ;6.23 ;6.48 ;6.77 ;7.02 ;7.16 ;7.24 ;7.30 ;7.41 ;7.57 ;7.71 ;7.72 
19;6.02 ;6.24 ;6.49 ;6.77 ;7.04 ;7.16 ;7.23 ;7.31 ;7.41 ;7.57 ;7.71 ;7.69 
20;6.03 ;6.24 ;6.50 ;6.78 ;7.06 ;7.15 ;7.23 ;7.31 ;7.42 ;7.57 ;7.71 ;7.68 
21;6.03 ;6.24 ;6.52 ;6.80 ;7.06 ;7.14 ;7.22 ;7.32 ;7.42 ;7.57 ;7.72 ;7.69 
22;6.04 ;6.24 ;6.52 ;6.82 ;7.07 ;7.14 ;7.22 ;7.32 ;7.42 ;7.58 ;7.73 ;7.67 
23;6.04 ;6.25 ;6.53 ;6.82 ;7.08 ;7.14 ;7.22 ;7.32 ;7.42 ;7.59 ;7.73 ;7.66 
24;6.04 ;6.27 ;6.54 ;6.84 ;7.08 ;7.14 ;7.22 ;7.32 ;7.42 ;7.59 ;7.74 ;7.64 
25;6.04 ;6.27 ;6.55 ;6.85 ;7.09 ;7.16 ;7.22 ;7.30 ;7.44 ;7.60 ;7.74 ;7.62 
26;6.05 ;6.28 ;6.57 ;6.86 ;7.09 ;7.18 ;7.22 ;7.30 ;7.45 ;7.60 ;7.76 ;7.62 
27;6.05 ;6.31 ;6.57 ;6.86 ;7.10 ;7.20 ;7.21 ;7.30 ;7.45 ;7.60 ;7.76 ;7.60 
28;6.05 ;6.31 ;6.58 ;6.87 ;7.10 ;7.20 ;7.21 ;7.30 ;7.45 ;7.61 ;7.76 ;7.60 
29;6.07 ;;6.58 ;6.87 ;7.10 ;7.20 ;7.21 ;7.32 ;7.46 ;7.62 ;7.76 ;7.59 
30;6.08 ;;6.59 ;6.89 ;7.10 ;7.20 ;7.23 ;7.32 ;7.46 ;7.63 ;7.76 ;7.58 
31;6.09 ;;6.59 ;;7.10 ;;7.23 ;7.33 ;;7.64 ;;7.58 
