;ENE;FEB;MAR;ABR;MAY;JUN;JUL;AGO;SEP;OCT;NOV;DIC
1;1.17;0.93;0.14;0.83;1.03;1.16;1.30;1.41;1.13;1.26;1.21;0.62
2;1.17;0.95;-0.01;0.84;1.03;1.16;1.32;1.43;1.15;1.13;1.23;0.71
3;1.21;0.90;-0.06;0.84;1.06;1.19;1.33;1.43;1.15;1.10;1.23;0.76
4;1.22;0.54;0.01;0.87;1.06;1.19;1.33;1.43;1.17;1.09;1.23;0.80
5;1.24;0.54;0.02;0.87;1.06;1.19;1.33;1.40;1.13;1.09;1.25;0.82
6;1.24;0.54;0.05;0.89;1.08;1.19;1.31;1.38;1.11;1.09;1.25;0.86
7;1.00;0.56;0.08;0.89;1.08;1.19;1.31;1.42;1.11;1.09;1.25;0.91
8;0.79;0.63;0.14;0.89;1.08;1.22;1.33;1.42;1.14;1.09;1.23;0.97
9;0.74;0.67;0.19;0.90;1.10;1.22;1.33;1.34;1.14;1.09;1.23;1.00
10;0.70;0.64;0.24;0.90;1.10;1.23;1.34;1.29;1.16;1.11;1.27;1.00
11;0.33;0.59;0.32;0.89;1.10;1.24;1.34;1.20;1.16;1.11;1.27;1.02
12;0.19;0.60;0.35;0.89;1.10;1.24;1.34;1.11;1.16;1.11;1.27;1.04
13;0.19;0.65;0.46;0.89;1.10;1.24;1.34;1.04;1.19;1.11;1.27;1.06
14;0.15;0.71;0.54;0.89;1.10;1.24;1.35;0.94;1.19;1.13;1.27;1.08
15;0.21;0.74;0.61;0.89;1.11;1.25;1.38;0.94;1.19;1.13;1.27;1.08
16;0.26;0.79;0.67;0.85;1.11;1.24;1.38;0.95;1.19;1.13;1.28;1.08
17;0.35;0.83;0.72;0.85;1.11;1.24;1.38;0.95;1.22;1.12;1.29;1.08
18;0.42;0.86;0.78;0.85;1.13;1.24;1.38;0.97;1.22;1.12;1.29;1.07
19;0.49;0.65;0.80;0.82;1.13;1.28;1.40;0.97;1.22;1.12;1.20;1.07
20;0.49;0.71;0.70;0.82;1.13;1.28;1.40;0.99;1.20;1.16;1.13;1.07
21;0.53;0.77;0.73;0.88;1.13;1.28;1.39;0.99;1.20;1.16;1.13;1.07
22;0.56;0.81;0.77;0.91;1.15;1.28;1.39;1.01;1.20;1.18;1.13;1.07
23;0.61;0.83;0.82;0.93;1.15;1.28;1.41;1.06;1.20;1.21;1.16;0.89
24;0.64;0.84;0.84;0.95;1.15;1.28;1.41;1.08;1.22;1.21;1.16;0.88
25;0.68;0.49;0.88;0.95;1.17;1.29;1.41;1.08;1.22;1.20;1.17;0.94
26;0.72;0.13;0.87;0.97;1.17;1.29;1.41;1.04;1.22;1.20;1.19;0.96
27;0.81;0.16;0.85;0.98;1.18;1.29;1.38;1.07;1.22;1.20;1.19;1.01
28;0.85;0.14;0.84;0.98;1.18;1.29;1.38;1.09;1.22;1.20;1.01;1.01
29;0.89;;0.82;1.01;1.16;1.29;1.41;1.09;1.22;1.20;0.73;1.03
30;0.91;;0.81;1.01;1.16;1.30;1.41;1.11;1.26;1.19;0.54;1.06
31;0.91;;0.83;;1.16;;1.41;1.11;;1.19;;1.06
