2021-09-15 00:00:38;4.11;147.91;99;4.10
2021-09-15 00:05:40;4.11;148.88;99;3.50
2021-09-15 00:10:41;4.11;149.20;99;3.90
2021-09-15 00:15:37;4.11;147.59;99;4.20
2021-09-15 00:20:39;4.11;147.59;99;4.50
2021-09-15 00:25:40;4.11;147.59;99;4.90
2021-09-15 00:30:37;4.11;147.59;99;4.40
2021-09-15 00:35:38;4.11;149.20;99;4.30
2021-09-15 00:40:39;4.11;147.27;99;4.10
2021-09-15 00:45:41;4.11;147.27;99;3.50
2021-09-15 00:50:37;4.11;147.59;99;3.10
2021-09-15 00:55:38;4.11;147.59;99;3.50
2021-09-15 01:00:40;4.11;147.59;99;4.20
2021-09-15 01:05:41;4.11;149.20;99;4.20
2021-09-15 01:10:38;4.11;148.88;99;4.20
2021-09-15 01:15:39;4.11;147.59;99;4.00
2021-09-15 01:20:40;4.11;148.88;99;3.70
2021-09-15 01:25:37;4.11;149.20;99;3.60
2021-09-15 01:30:38;4.11;147.91;99;4.00
2021-09-15 01:35:39;4.11;149.20;99;4.50
2021-09-15 01:40:40;4.11;149.20;99;4.70
2021-09-15 01:45:37;4.11;149.20;99;4.50
2021-09-15 01:50:38;4.11;149.20;99;4.60
2021-09-15 01:55:40;4.11;147.59;99;4.00
2021-09-15 02:00:41;4.11;147.91;99;4.10
2021-09-15 02:05:37;4.11;147.91;99;4.90
2021-09-15 02:10:39;4.11;149.52;98;5.30
2021-09-15 02:15:40;4.11;149.20;99;3.80
2021-09-15 02:20:37;4.11;147.59;99;2.30
2021-09-15 02:25:38;4.11;149.20;99;4.10
2021-09-15 02:30:39;4.11;147.59;98;4.60
2021-09-15 02:35:40;4.11;148.23;99;2.60
2021-09-15 02:40:37;4.11;149.52;99;2.60
2021-09-15 02:45:38;4.11;148.23;99;3.30
2021-09-15 02:50:39;4.11;148.23;99;3.20
2021-09-15 02:55:40;4.11;149.52;99;2.90
2021-09-15 03:00:37;4.11;149.52;99;2.20
2021-09-15 03:05:38;4.11;149.52;99;1.80
2021-09-15 03:10:39;4.11;148.23;99;2.00
2021-09-15 03:15:40;4.11;147.91;99;2.50
2021-09-15 03:20:37;4.11;149.52;99;3.30
2021-09-15 03:25:38;4.11;148.23;99;2.80
2021-09-15 03:30:39;4.11;149.52;99;2.50
2021-09-15 03:35:40;4.11;148.56;99;2.10
2021-09-15 03:40:36;4.11;148.23;99;2.40
2021-09-15 03:45:38;4.11;149.84;99;2.60
2021-09-15 03:50:39;4.11;148.56;99;2.40
2021-09-15 03:55:40;4.11;148.23;99;1.50
2021-09-15 04:00:41;4.11;148.23;99;1.80
2021-09-15 04:05:37;4.11;147.91;99;2.30
2021-09-15 04:10:38;4.11;149.52;99;1.80
2021-09-15 04:15:39;4.11;148.23;99;1.40
2021-09-15 04:20:40;4.10;148.23;99;1.40
2021-09-15 04:25:37;4.10;148.56;99;2.00
2021-09-15 04:30:38;4.11;148.23;99;2.60
2021-09-15 04:35:39;4.11;148.23;99;2.20
2021-09-15 04:40:40;4.11;148.56;99;2.40
2021-09-15 04:45:41;4.10;148.23;99;2.50
2021-09-15 04:50:37;4.10;148.56;99;2.50
2021-09-15 04:55:38;4.10;147.91;99;2.30
2021-09-15 05:00:39;4.10;148.23;99;2.80
2021-09-15 05:05:40;4.10;148.56;99;2.90
2021-09-15 05:10:37;4.10;149.84;99;2.90
2021-09-15 05:15:38;4.10;147.91;99;3.20
2021-09-15 05:20:39;4.10;149.52;99;2.80
2021-09-15 05:25:40;4.10;149.52;99;3.00
2021-09-15 05:30:36;4.10;148.23;99;3.10
2021-09-15 05:35:38;4.10;149.84;99;3.50
2021-09-15 05:40:39;4.10;148.23;99;3.50
2021-09-15 05:45:40;4.10;148.23;99;2.60
2021-09-15 05:50:41;4.10;148.23;99;2.50
2021-09-15 05:55:37;4.10;149.20;99;3.30
2021-09-15 06:00:38;4.10;149.84;99;3.20
2021-09-15 06:05:39;4.10;149.52;99;3.40
2021-09-15 06:10:41;4.10;149.84;99;3.40
2021-09-15 06:15:37;4.10;149.52;99;3.90
2021-09-15 06:20:38;4.10;149.52;99;4.20
2021-09-15 06:25:39;4.10;147.91;99;4.10
2021-09-15 06:30:40;4.10;149.52;99;4.40
2021-09-15 06:35:37;4.10;148.23;99;4.40
2021-09-15 06:40:38;4.10;147.59;99;5.10
2021-09-15 06:45:39;4.10;149.52;98;5.50
2021-09-15 06:50:40;4.10;149.20;99;4.70
2021-09-15 06:55:37;4.10;149.20;99;2.90
2021-09-15 07:00:38;4.10;149.20;99;3.10
2021-09-15 07:05:39;4.10;147.91;99;2.80
2021-09-15 07:10:40;4.10;149.20;99;2.80
2021-09-15 07:15:37;4.10;146.94;99;3.30
2021-09-15 07:20:38;4.10;148.88;99;3.00
2021-09-15 07:25:39;4.10;149.20;99;3.70
2021-09-15 07:30:41;4.10;149.20;99;4.30
2021-09-15 07:35:37;4.10;147.27;99;4.30
2021-09-15 07:40:39;4.10;146.62;99;4.10
2021-09-15 07:45:40;4.10;147.59;99;5.70
2021-09-15 07:50:37;4.10;148.56;97;6.10
2021-09-15 07:55:38;4.10;147.27;99;6.00
2021-09-15 08:00:40;4.10;146.94;99;5.90
2021-09-15 08:05:37;4.10;146.94;99;6.10
2021-09-15 08:10:39;4.11;146.94;99;7.30
2021-09-15 08:15:40;4.11;146.62;98;8.30
2021-09-15 08:20:38;4.10;148.56;94;9.10
2021-09-15 08:25:39;4.10;147.27;99;9.30
2021-09-15 08:30:41;4.11;148.23;99;9.30
2021-09-15 08:35:39;4.11;148.56;96;9.80
2021-09-15 08:40:41;4.11;148.56;90;10.70
2021-09-15 08:45:39;4.11;146.94;89;10.60
2021-09-15 08:50:41;4.11;148.23;90;10.60
2021-09-15 08:55:39;4.11;148.23;90;11.20
2021-09-15 09:00:41;4.11;146.62;89;11.30
2021-09-15 09:05:39;4.11;148.23;89;11.80
2021-09-15 09:10:41;4.11;147.27;86;12.50
2021-09-15 09:15:39;4.11;148.23;85;13.20
2021-09-15 09:20:41;4.11;146.94;85;13.40
2021-09-15 09:25:39;4.11;146.94;82;14.00
2021-09-15 09:30:42;4.11;147.27;82;13.90
2021-09-15 09:35:40;4.11;148.23;81;14.90
2021-09-15 09:40:38;4.11;147.91;75;16.00
2021-09-15 09:45:41;4.11;147.27;77;15.10
2021-09-15 09:50:39;4.11;148.23;75;15.90
2021-09-15 09:55:42;4.11;147.27;72;16.90
2021-09-15 10:00:41;4.11;148.56;68;17.70
2021-09-15 10:05:39;4.11;147.27;66;18.60
2021-09-15 10:10:43;4.11;146.94;63;19.60
2021-09-15 10:15:41;4.11;148.56;64;19.30
2021-09-15 10:20:40;4.11;148.88;62;19.40
2021-09-15 10:25:39;4.11;148.56;63;18.60
2021-09-15 10:30:42;4.11;148.56;61;19.00
2021-09-15 10:35:41;4.11;147.27;63;19.00
2021-09-15 10:40:40;4.11;148.56;62;19.20
2021-09-15 10:45:39;4.11;147.59;58;21.10
2021-09-15 10:50:42;4.11;148.56;54;20.80
2021-09-15 10:55:41;4.11;148.88;55;20.30
2021-09-15 11:00:40;4.11;147.27;55;19.60
2021-09-15 11:05:39;4.11;147.59;53;20.00
2021-09-15 11:10:43;4.11;148.88;58;19.20
2021-09-15 11:15:42;4.11;147.59;54;20.00
2021-09-15 11:20:41;4.12;147.59;53;19.70
2021-09-15 11:25:40;4.12;147.59;52;20.20
2021-09-15 11:30:43;4.12;148.88;53;20.70
2021-09-15 11:35:42;4.12;148.88;50;22.20
2021-09-15 11:40:41;4.12;147.59;51;20.50
2021-09-15 11:45:40;4.12;149.20;48;22.60
2021-09-15 11:50:39;4.12;148.88;47;23.00
2021-09-15 11:55:43;4.12;149.20;48;21.20
2021-09-15 12:00:42;4.12;147.59;49;21.60
2021-09-15 12:05:41;4.12;147.59;48;21.70
2021-09-15 12:10:41;4.12;147.59;46;22.20
2021-09-15 12:15:40;4.12;149.20;48;21.40
2021-09-15 12:20:39;4.12;149.52;49;22.00
2021-09-15 12:25:44;4.12;149.20;51;21.90
2021-09-15 12:30:43;4.12;147.91;48;23.00
2021-09-15 12:35:43;4.12;147.59;48;23.20
2021-09-15 12:40:42;4.12;147.91;47;23.80
2021-09-15 12:45:42;4.12;147.59;47;21.70
2021-09-15 12:50:41;4.12;147.59;47;21.60
2021-09-15 12:55:41;4.12;148.23;48;21.60
2021-09-15 13:00:40;4.12;147.59;49;21.80
2021-09-15 13:05:40;4.12;149.52;48;21.80
2021-09-15 13:10:44;4.12;147.91;46;22.70
2021-09-15 13:15:43;4.12;147.91;47;21.40
2021-09-15 13:20:43;4.12;149.52;46;22.90
2021-09-15 13:25:42;4.12;147.91;45;23.90
2021-09-15 13:30:42;4.12;149.84;48;22.40
2021-09-15 13:35:41;4.12;147.91;46;22.70
2021-09-15 13:40:41;4.12;149.84;46;22.60
2021-09-15 13:45:40;4.12;149.84;46;22.60
2021-09-15 13:50:40;4.12;149.84;45;24.00
2021-09-15 13:55:44;4.12;149.84;46;22.60
2021-09-15 14:00:43;4.12;148.23;46;21.70
2021-09-15 14:05:43;4.12;148.23;47;23.00
2021-09-15 14:10:42;4.12;148.88;46;23.00
2021-09-15 14:15:42;4.12;148.23;45;23.60
2021-09-15 14:20:41;4.12;148.23;40;22.80
2021-09-15 14:25:40;4.12;150.17;39;23.30
2021-09-15 14:30:40;4.12;148.23;40;22.20
2021-09-15 14:35:44;4.12;148.56;42;22.60
2021-09-15 14:40:39;4.13;150.17;41;22.40
2021-09-15 14:45:43;4.13;150.17;40;22.10
2021-09-15 14:50:42;4.12;148.88;40;23.80
2021-09-15 14:55:42;4.13;148.88;41;22.40
2021-09-15 15:00:41;4.13;148.88;40;23.10
2021-09-15 15:05:41;4.13;148.88;40;24.00
2021-09-15 15:10:40;4.13;150.33;39;25.10
2021-09-15 15:15:40;4.13;150.33;39;24.20
2021-09-15 15:20:44;4.13;149.20;38;24.60
2021-09-15 15:25:39;4.13;150.65;41;22.90
2021-09-15 15:30:43;4.13;150.65;42;22.20
2021-09-15 15:35:43;4.13;148.88;42;22.40
2021-09-15 15:40:42;4.13;149.20;42;22.60
2021-09-15 15:45:42;4.13;148.88;42;22.40
2021-09-15 15:50:41;4.13;149.20;41;22.60
2021-09-15 15:55:41;4.13;150.65;41;22.60
2021-09-15 16:00:40;4.13;150.65;41;23.60
2021-09-15 16:05:39;4.13;149.20;39;24.00
2021-09-15 16:10:44;4.13;148.88;41;23.00
2021-09-15 16:15:43;4.13;150.33;40;23.80
2021-09-15 16:20:43;4.13;148.88;41;23.10
2021-09-15 16:25:42;4.13;150.33;42;22.90
2021-09-15 16:30:42;4.13;148.88;42;22.00
2021-09-15 16:35:41;4.13;148.88;42;22.50
2021-09-15 16:40:41;4.13;148.88;42;22.40
2021-09-15 16:45:40;4.13;148.88;43;23.60
2021-09-15 16:50:40;4.13;149.20;42;22.50
2021-09-15 16:55:44;4.13;149.20;43;23.60
2021-09-15 17:00:43;4.13;150.33;45;23.30
2021-09-15 17:05:43;4.13;150.33;45;22.10
2021-09-15 17:10:42;4.13;150.33;46;22.30
2021-09-15 17:15:42;4.13;148.88;46;22.10
2021-09-15 17:20:41;4.13;148.88;45;22.30
2021-09-15 17:25:40;4.13;150.33;45;21.90
2021-09-15 17:30:40;4.13;150.33;45;22.10
2021-09-15 17:35:44;4.13;150.33;46;22.10
2021-09-15 17:40:43;4.13;150.33;45;22.00
2021-09-15 17:45:42;4.13;148.88;47;22.10
2021-09-15 17:50:41;4.13;148.56;46;21.50
2021-09-15 17:55:41;4.13;150.17;48;21.50
2021-09-15 18:00:40;4.13;150.17;49;21.00
2021-09-15 18:05:44;4.13;150.17;52;20.50
2021-09-15 18:10:43;4.13;148.56;55;20.50
2021-09-15 18:15:42;4.13;148.23;56;20.60
2021-09-15 18:20:41;4.13;148.23;56;20.30
2021-09-15 18:25:40;4.13;149.84;58;19.90
2021-09-15 18:30:43;4.13;148.23;60;19.20
2021-09-15 18:35:42;4.13;148.23;61;18.90
2021-09-15 18:40:41;4.13;149.84;65;18.10
2021-09-15 18:45:40;4.13;148.56;66;17.70
2021-09-15 18:50:39;4.13;149.84;68;17.00
2021-09-15 18:55:42;4.13;149.84;66;17.20
2021-09-15 19:00:40;4.13;148.56;65;17.20
2021-09-15 19:05:39;4.13;147.91;65;17.00
2021-09-15 19:10:42;4.13;148.56;67;16.60
2021-09-15 19:15:40;4.13;149.52;68;16.40
2021-09-15 19:20:39;4.13;149.52;69;16.10
2021-09-15 19:25:41;4.12;149.52;68;16.00
2021-09-15 19:30:40;4.12;148.23;68;16.20
2021-09-15 19:35:42;4.12;149.52;68;16.20
2021-09-15 19:40:41;4.12;147.91;69;15.90
2021-09-15 19:45:39;4.12;147.59;69;15.40
2021-09-15 19:50:41;4.12;147.91;70;15.30
2021-09-15 19:55:39;4.12;147.91;70;15.10
2021-09-15 20:00:42;4.12;149.20;72;14.20
2021-09-15 20:05:40;4.12;149.20;70;14.50
2021-09-15 20:10:38;4.12;149.20;70;14.80
2021-09-15 20:15:41;4.12;147.59;71;14.70
2021-09-15 20:20:39;4.12;149.20;72;14.40
2021-09-15 20:25:41;4.12;148.88;74;13.90
2021-09-15 20:30:39;4.12;148.88;75;13.50
2021-09-15 20:35:41;4.12;147.59;75;13.50
2021-09-15 20:40:39;4.12;147.59;75;13.20
2021-09-15 20:45:42;4.12;148.88;74;13.70
2021-09-15 20:50:39;4.12;147.91;74;13.90
2021-09-15 20:55:42;4.12;147.27;74;13.60
2021-09-15 21:00:40;4.12;147.59;74;13.70
2021-09-15 21:05:42;4.12;148.88;77;13.10
2021-09-15 21:10:40;4.12;148.88;79;12.50
2021-09-15 21:15:42;4.12;148.88;77;12.00
2021-09-15 21:20:40;4.12;148.88;82;11.20
2021-09-15 21:25:42;4.12;148.88;83;10.80
2021-09-15 21:30:39;4.12;148.88;85;10.20
2021-09-15 21:35:42;4.12;147.59;85;10.60
2021-09-15 21:40:39;4.12;147.27;85;10.90
2021-09-15 21:45:41;4.12;148.56;81;12.20
2021-09-15 21:50:38;4.12;148.56;81;12.00
2021-09-15 21:55:41;4.12;146.94;79;12.30
2021-09-15 22:00:38;4.12;147.27;80;12.10
2021-09-15 22:05:40;4.12;146.94;81;11.70
2021-09-15 22:10:37;4.12;146.94;82;11.20
2021-09-15 22:15:40;4.12;146.94;82;11.40
2021-09-15 22:20:42;4.12;146.62;79;12.10
2021-09-15 22:25:39;4.12;148.56;81;11.70
2021-09-15 22:30:41;4.12;148.56;83;10.80
2021-09-15 22:35:39;4.12;146.94;85;10.70
2021-09-15 22:40:41;4.12;148.56;83;11.20
2021-09-15 22:45:38;4.12;146.94;83;11.10
2021-09-15 22:50:40;4.12;148.56;93;8.90
2021-09-15 22:55:38;4.12;148.56;91;9.20
2021-09-15 23:00:40;4.12;146.94;91;9.30
2021-09-15 23:05:41;4.12;148.56;90;9.70
2021-09-15 23:10:39;4.12;146.94;88;10.10
2021-09-15 23:15:41;4.12;146.62;87;10.40
2021-09-15 23:20:38;4.12;148.23;87;10.30
2021-09-15 23:25:40;4.12;148.56;88;10.00
2021-09-15 23:30:37;4.12;147.27;88;9.60
2021-09-15 23:35:39;4.11;146.62;91;9.00
2021-09-15 23:40:41;4.12;147.91;93;8.50
2021-09-15 23:45:38;4.12;146.94;93;9.00
2021-09-15 23:50:40;4.11;146.30;94;8.30
2021-09-15 23:55:37;4.11;148.23;95;8.20
