#EQ1-NF;2021-09-05 15:42:37;4.12;150.33;99;18.90
2021-09-05 15:45:23;4.12;150.65;99;19.00
2021-09-05 15:50:45;4.12;151.94;99;18.90
2021-09-05 15:55:39;4.12;150.65;99;18.60
2021-09-05 16:00:42;4.12;150.65;99;18.70
2021-09-05 16:05:40;4.12;151.94;99;18.80
2021-09-05 16:10:39;4.12;151.94;99;18.70
2021-09-05 16:15:42;4.12;151.94;99;18.90
2021-09-05 16:20:41;4.12;150.33;99;18.70
2021-09-05 16:25:39;4.12;151.94;99;18.60
2021-09-05 16:30:42;4.12;150.17;99;18.60
2021-09-05 16:35:41;4.12;151.62;99;18.70
2021-09-05 16:40:39;4.12;151.94;99;18.50
2021-09-05 16:45:43;4.12;151.94;99;18.90
2021-09-05 16:50:41;4.12;150.65;99;18.90
2021-09-05 16:55:40;4.12;150.65;99;19.10
2021-09-05 17:00:43;4.12;150.65;99;19.20
2021-09-05 17:05:41;4.12;150.17;99;19.10
2021-09-05 17:10:40;4.12;151.94;99;18.80
2021-09-05 17:15:39;4.12;152.91;99;18.80
2021-09-05 17:20:42;4.12;152.91;99;18.60
2021-09-05 17:25:40;4.12;152.91;99;18.70
2021-09-05 17:30:39;4.12;150.97;99;18.70
2021-09-05 17:35:42;4.12;152.91;99;18.50
2021-09-05 17:40:41;4.12;152.58;99;18.30
2021-09-05 17:45:39;4.12;152.58;99;18.60
2021-09-05 17:50:42;4.12;150.97;99;18.40
2021-09-05 17:55:41;4.12;151.29;99;18.30
2021-09-05 18:00:39;4.12;150.97;99;18.40
2021-09-05 18:05:42;4.12;150.97;99;18.30
2021-09-05 18:10:41;4.12;150.97;99;18.00
2021-09-05 18:15:39;4.12;150.65;99;18.00
2021-09-05 18:20:42;4.12;150.65;99;18.00
2021-09-05 18:25:41;4.12;150.97;99;17.60
2021-09-05 18:30:39;4.12;152.26;99;17.70
2021-09-05 18:35:42;4.12;150.65;99;17.70
2021-09-05 18:40:40;4.12;152.26;99;17.40
2021-09-05 18:45:39;4.12;152.26;99;17.40
2021-09-05 18:50:42;4.12;152.26;99;17.50
2021-09-05 18:55:40;4.12;150.65;99;17.10
2021-09-05 19:00:43;4.12;152.26;99;17.30
2021-09-05 19:05:41;4.12;151.94;99;16.60
2021-09-05 19:10:39;4.12;150.33;99;16.50
2021-09-05 19:15:42;4.12;150.33;99;16.50
2021-09-05 19:20:40;4.12;151.94;99;16.40
2021-09-05 19:25:38;4.12;150.65;99;16.20
2021-09-05 19:30:41;4.12;150.17;99;15.60
2021-09-05 19:35:39;4.12;150.33;99;15.30
2021-09-05 19:40:42;4.12;151.94;99;15.40
2021-09-05 19:45:40;4.12;151.94;99;15.10
2021-09-05 19:50:38;4.12;151.94;96;14.80
2021-09-05 19:55:40;4.12;150.17;93;14.70
2021-09-05 20:00:38;4.12;150.17;93;14.40
2021-09-05 20:05:41;4.12;151.62;84;14.10
2021-09-05 20:10:39;4.12;150.33;84;14.40
2021-09-05 20:15:41;4.12;150.33;81;14.10
2021-09-05 20:20:39;4.12;151.62;71;13.50
2021-09-05 20:25:42;4.12;151.94;60;13.40
2021-09-05 20:30:39;4.12;151.62;61;13.50
2021-09-05 20:35:42;4.12;151.62;70;13.80
2021-09-05 20:40:39;4.12;150.33;68;13.80
2021-09-05 20:45:42;4.12;151.62;75;13.80
2021-09-05 20:50:40;4.12;151.62;68;13.90
2021-09-05 20:55:42;4.12;151.94;75;13.60
2021-09-05 21:00:40;4.12;150.33;60;13.70
2021-09-05 21:05:42;4.12;150.33;62;13.70
2021-09-05 21:10:40;4.12;151.94;56;13.40
2021-09-05 21:15:42;4.12;150.33;52;13.20
2021-09-05 21:20:40;4.12;150.17;43;12.90
2021-09-05 21:25:42;4.11;151.62;33;13.00
2021-09-05 21:30:40;4.12;150.17;30;12.70
2021-09-05 21:35:42;4.12;151.62;28;12.80
2021-09-05 21:40:39;4.11;150.33;31;13.10
2021-09-05 21:45:42;4.11;150.33;38;13.40
2021-09-05 21:50:39;4.12;151.94;40;13.50
2021-09-05 21:55:42;4.12;151.62;38;13.60
2021-09-05 22:00:39;4.11;150.17;38;13.80
2021-09-05 22:05:42;4.11;151.62;44;13.80
2021-09-05 22:10:39;4.11;151.62;53;13.90
2021-09-05 22:15:42;4.11;151.62;46;13.90
2021-09-05 22:20:39;4.11;151.62;51;14.30
2021-09-05 22:25:42;4.11;151.62;61;14.20
2021-09-05 22:30:39;4.11;151.62;64;14.40
2021-09-05 22:35:42;4.11;151.62;66;14.40
2021-09-05 22:40:40;4.11;151.62;72;14.40
2021-09-05 22:45:42;4.11;151.62;74;14.60
2021-09-05 22:50:40;4.11;149.84;77;14.70
2021-09-05 22:55:42;4.11;151.29;79;14.90
2021-09-05 23:00:40;4.11;149.84;80;14.70
2021-09-05 23:05:38;4.11;150.17;77;14.70
2021-09-05 23:10:40;4.11;151.29;71;14.70
2021-09-05 23:15:38;4.11;151.62;70;14.70
2021-09-05 23:20:41;4.11;150.33;65;14.60
2021-09-05 23:25:39;4.11;151.62;65;14.50
2021-09-05 23:30:41;4.11;151.62;59;14.50
2021-09-05 23:35:39;4.11;151.62;59;14.40
2021-09-05 23:40:41;4.11;151.62;53;14.20
2021-09-05 23:45:39;4.11;150.17;49;14.30
2021-09-05 23:50:42;4.11;149.84;44;14.20
2021-09-05 23:55:39;4.11;150.17;44;14.30
