2021-01-20 00:03:50;1;130;130;130;130;130;130;130;130;130;130;
2021-01-20 00:03:50;2;121;121;121;121;121;121;121;121;121;121;
2021-01-20 00:03:50;3;110;111;111;111;111;111;111;112;112;112;
2021-01-20 00:03:50;4;120;120;120;120;120;120;120;120;120;120;
2021-01-20 00:03:50;5;121;121;121;121;121;121;121;121;121;121;
2021-01-20 00:03:50;ht;99;20.00
2021-01-20 00:03:50;v;4.15
2021-01-20 00:33:48;1;127;127;127;126;126;127;127;127;127;127;
2021-01-20 00:33:48;2;118;118;118;126;119;118;118;118;118;118;
2021-01-20 00:33:48;3;64;65;66;67;68;69;70;71;72;72;
2021-01-20 00:33:48;4;118;118;118;118;118;118;118;118;118;118;
2021-01-20 00:33:48;5;122;122;122;122;122;122;122;122;122;122;
2021-01-20 00:33:48;ht;99;19.30
2021-01-20 00:33:48;v;4.15
2021-01-20 01:03:47;1;127;127;127;127;127;127;127;127;127;127;
2021-01-20 01:03:47;2;120;121;121;121;121;121;128;122;121;121;
2021-01-20 01:03:47;3;116;116;116;116;116;116;116;116;116;116;
2021-01-20 01:03:47;4;122;122;122;122;122;122;122;122;122;122;
2021-01-20 01:03:47;5;122;122;122;122;122;122;122;122;122;122;
2021-01-20 01:03:47;ht;99;19.10
2021-01-20 01:03:47;v;4.15
2021-01-20 01:33:50;1;127;127;127;127;127;127;127;127;127;127;
2021-01-20 01:33:50;2;118;118;118;118;118;126;118;118;118;118;
2021-01-20 01:33:50;3;81;82;82;83;83;83;84;84;85;85;
2021-01-20 01:33:50;4;123;123;123;123;123;123;123;123;123;123;
2021-01-20 01:33:50;5;121;121;122;122;122;121;122;122;122;122;
2021-01-20 01:33:50;ht;99;18.30
2021-01-20 01:33:50;v;4.15
2021-01-20 02:03:48;1;127;127;127;128;128;128;128;128;128;128;
2021-01-20 02:03:48;2;2;9;4;2;2;2;2;1;2;2;
2021-01-20 02:03:48;3;109;109;109;109;109;109;109;109;109;109;
2021-01-20 02:03:48;4;121;121;121;121;121;121;121;121;121;121;
2021-01-20 02:03:48;5;123;123;123;123;123;123;123;123;123;123;
2021-01-20 02:03:48;ht;99;17.10
2021-01-20 02:03:48;v;4.15
2021-01-20 02:33:45;1;127;127;127;127;127;127;127;127;127;127;
2021-01-20 02:33:45;2;118;118;118;119;118;118;118;119;118;126;
2021-01-20 02:33:45;3;104;104;104;104;104;104;104;104;104;105;
2021-01-20 02:33:45;4;122;122;122;122;122;122;122;122;122;122;
2021-01-20 02:33:45;5;123;123;123;123;123;123;123;123;123;123;
2021-01-20 02:33:45;ht;99;17.50
2021-01-20 02:33:45;v;4.15
2021-01-20 03:03:47;1;126;125;126;126;126;126;125;126;126;126;
2021-01-20 03:03:47;2;110;110;110;110;110;110;110;117;112;111;
2021-01-20 03:03:47;3;103;103;103;103;103;103;103;103;103;103;
2021-01-20 03:03:47;4;122;122;122;122;122;122;122;122;122;122;
2021-01-20 03:03:47;5;123;122;122;122;123;122;123;123;123;123;
2021-01-20 03:03:47;ht;99;17.40
2021-01-20 03:03:47;v;4.15
2021-01-20 03:33:49;1;127;127;127;126;127;127;127;127;127;127;
2021-01-20 03:33:49;2;1;1;2;1;1;1;1;1;1;1;
2021-01-20 03:33:49;3;100;100;100;100;100;100;100;100;100;100;
2021-01-20 03:33:49;4;121;121;121;121;121;121;121;121;121;121;
2021-01-20 03:33:49;5;124;124;124;124;124;124;124;124;124;124;
2021-01-20 03:33:49;ht;99;16.90
2021-01-20 03:33:49;v;4.14
2021-01-20 04:03:46;1;127;127;127;127;127;127;127;127;127;127;
2021-01-20 04:03:46;2;123;123;123;123;123;123;123;123;123;123;
2021-01-20 04:03:46;3;98;98;98;98;98;98;98;98;98;98;
2021-01-20 04:03:46;4;120;120;120;120;120;120;120;120;120;120;
2021-01-20 04:03:46;5;125;125;125;125;125;125;125;125;125;125;
2021-01-20 04:03:46;ht;99;17.20
2021-01-20 04:03:46;v;4.15
2021-01-20 04:33:47;1;127;127;127;127;127;127;127;127;127;127;
2021-01-20 04:33:47;2;122;122;122;122;129;122;122;122;122;122;
2021-01-20 04:33:47;3;98;98;98;98;98;98;98;98;98;98;
2021-01-20 04:33:47;4;126;126;126;126;126;126;127;127;127;127;
2021-01-20 04:33:47;5;127;127;127;127;127;127;127;127;127;127;
2021-01-20 04:33:47;ht;99;17.50
2021-01-20 04:33:47;v;4.14
2021-01-20 05:03:49;1;127;127;127;127;127;127;127;127;127;127;
2021-01-20 05:03:49;2;120;120;120;120;125;122;120;120;120;120;
2021-01-20 05:03:49;3;102;102;102;102;102;102;102;102;102;102;
2021-01-20 05:03:49;4;119;119;119;119;119;119;119;119;119;119;
2021-01-20 05:03:49;5;126;126;126;126;126;125;126;126;126;126;
2021-01-20 05:03:49;ht;99;17.10
2021-01-20 05:03:49;v;4.14
2021-01-20 05:33:46;1;127;127;127;127;127;127;127;127;127;127;
2021-01-20 05:33:46;2;128;128;128;128;128;128;129;129;128;128;
2021-01-20 05:33:46;3;100;99;99;100;100;100;100;99;100;99;
2021-01-20 05:33:46;4;133;133;133;133;133;133;133;133;133;133;
2021-01-20 05:33:46;5;127;127;127;127;127;127;127;127;127;127;
2021-01-20 05:33:46;ht;99;16.60
2021-01-20 05:33:46;v;4.14
2021-01-20 06:03:47;1;125;125;124;125;125;125;125;125;125;125;
2021-01-20 06:03:47;2;130;130;130;130;130;130;130;131;130;130;
2021-01-20 06:03:47;3;100;100;100;100;100;100;100;100;100;100;
2021-01-20 06:03:47;4;131;131;131;131;131;131;131;131;131;131;
2021-01-20 06:03:47;5;130;129;130;129;129;129;130;129;130;129;
2021-01-20 06:03:47;ht;99;15.60
2021-01-20 06:03:47;v;4.14
2021-01-20 06:33:48;1;127;127;127;127;127;127;127;127;127;128;
2021-01-20 06:33:48;2;121;120;120;121;121;121;121;121;120;127;
2021-01-20 06:33:48;3;100;100;100;100;100;100;100;100;99;93;
2021-01-20 06:33:48;4;119;119;119;119;119;119;119;119;119;119;
2021-01-20 06:33:48;5;129;129;129;129;129;129;129;129;129;129;
2021-01-20 06:33:48;ht;99;16.10
2021-01-20 06:33:48;v;4.14
2021-01-20 07:03:45;1;130;131;130;130;130;130;130;130;131;131;
2021-01-20 07:03:45;2;123;123;128;125;123;123;123;123;122;123;
2021-01-20 07:03:45;3;95;95;96;96;97;97;97;98;98;99;
2021-01-20 07:03:45;4;137;136;137;136;137;137;137;136;137;137;
2021-01-20 07:03:45;5;123;123;123;123;123;122;123;123;123;123;
2021-01-20 07:03:45;ht;99;19.00
2021-01-20 07:03:45;v;4.14
2021-01-20 07:33:47;1;126;126;126;126;126;126;126;126;126;126;
2021-01-20 07:33:47;2;110;110;110;110;110;110;110;110;110;110;
2021-01-20 07:33:47;3;129;129;128;128;129;129;129;128;129;129;
2021-01-20 07:33:47;4;119;118;119;118;118;118;119;118;119;119;
2021-01-20 07:33:47;5;121;122;121;121;121;121;121;121;121;121;
2021-01-20 07:33:47;ht;99;20.40
2021-01-20 07:33:47;v;4.14
2021-01-20 08:03:51;1;126;125;126;125;125;125;125;126;133;127;
2021-01-20 08:03:51;2;117;117;123;118;117;117;117;117;117;117;
2021-01-20 08:03:51;3;83;83;83;83;83;83;82;83;82;83;
2021-01-20 08:03:51;4;117;118;118;118;117;118;117;118;118;117;
2021-01-20 08:03:51;5;126;126;126;126;126;126;126;126;126;126;
2021-01-20 08:03:51;ht;99;22.30
2021-01-20 08:03:51;v;4.15
2021-01-20 08:33:52;1;126;126;126;125;126;126;126;125;126;126;
2021-01-20 08:33:52;2;122;122;122;122;122;122;122;122;122;122;
2021-01-20 08:33:52;3;130;130;130;130;130;130;130;130;130;130;
2021-01-20 08:33:52;4;122;122;122;122;122;122;122;122;122;122;
2021-01-20 08:33:52;5;120;121;121;121;121;121;121;121;121;121;
2021-01-20 08:33:52;ht;99;23.00
2021-01-20 08:33:52;v;4.15
2021-01-20 09:03:50;1;126;126;126;126;126;126;126;133;128;127;
2021-01-20 09:03:50;2;127;127;127;127;127;127;127;127;127;127;
2021-01-20 09:03:50;3;81;80;80;84;84;81;81;82;80;79;
2021-01-20 09:03:50;4;125;125;125;125;125;125;125;125;125;125;
2021-01-20 09:03:50;5;122;122;122;122;122;122;122;122;122;122;
2021-01-20 09:03:50;ht;99;24.80
2021-01-20 09:03:50;v;4.15
2021-01-20 09:33:55;1;124;124;123;124;124;124;124;124;124;124;
2021-01-20 09:33:55;2;127;126;127;127;127;126;127;127;127;127;
2021-01-20 09:33:55;3;48;48;48;48;48;48;48;48;48;48;
2021-01-20 09:33:55;4;116;116;116;116;116;116;116;116;116;115;
2021-01-20 09:33:55;5;121;121;121;121;121;121;121;121;121;121;
2021-01-20 09:33:55;ht;99;26.40
2021-01-20 09:33:55;v;4.15
2021-01-20 10:03:56;1;122;122;122;122;122;122;122;122;122;122;
2021-01-20 10:03:56;2;115;116;116;116;116;116;116;116;115;116;
2021-01-20 10:03:56;3;136;136;136;135;136;136;136;136;136;135;
2021-01-20 10:03:56;4;122;122;122;122;122;122;122;122;122;122;
2021-01-20 10:03:56;5;117;117;117;117;117;117;117;117;117;117;
2021-01-20 10:03:56;ht;99;27.80
2021-01-20 10:03:56;v;4.15
2021-01-20 10:33:53;1;125;125;125;125;125;125;125;125;133;126;
2021-01-20 10:33:53;2;118;117;117;117;117;117;117;117;117;117;
2021-01-20 10:33:53;3;118;115;115;112;112;110;110;107;105;106;
2021-01-20 10:33:53;4;119;119;119;119;119;119;119;119;119;119;
2021-01-20 10:33:53;5;121;120;121;120;120;121;121;121;120;121;
2021-01-20 10:33:53;ht;99;28.10
2021-01-20 10:33:53;v;4.15
2021-01-20 11:03:57;1;125;125;133;126;125;125;125;125;125;125;
2021-01-20 11:03:57;2;114;114;114;114;114;114;114;114;113;114;
2021-01-20 11:03:57;3;107;105;108;111;110;117;112;108;106;104;
2021-01-20 11:03:57;4;125;125;125;125;125;125;125;125;125;125;
2021-01-20 11:03:57;5;123;122;122;122;123;123;122;123;122;122;
2021-01-20 11:03:57;ht;97;28.90
2021-01-20 11:03:57;v;4.15
2021-01-20 11:33:56;1;125;124;125;125;125;125;132;126;125;125;
2021-01-20 11:33:56;2;114;114;114;114;114;114;114;114;114;114;
2021-01-20 11:33:56;3;110;112;113;114;115;116;117;118;119;120;
2021-01-20 11:33:56;4;118;118;118;118;118;118;118;118;118;118;
2021-01-20 11:33:56;5;124;124;124;124;124;124;124;124;124;124;
2021-01-20 11:33:56;ht;95;29.70
2021-01-20 11:33:56;v;4.16
2021-01-20 12:03:57;1;131;131;131;131;131;139;132;131;131;131;
2021-01-20 12:03:57;2;119;118;118;118;118;118;118;118;118;118;
2021-01-20 12:03:57;3;110;110;110;110;110;110;110;110;110;110;
2021-01-20 12:03:57;4;124;124;124;124;124;124;124;124;124;124;
2021-01-20 12:03:57;5;124;124;124;124;124;124;124;124;124;124;
2021-01-20 12:03:57;ht;94;29.60
2021-01-20 12:03:57;v;4.16
2021-01-20 12:33:57;1;126;126;126;126;126;126;126;126;126;134;
2021-01-20 12:33:57;2;128;128;128;128;128;128;128;128;128;128;
2021-01-20 12:33:57;3;96;96;96;96;96;96;96;96;96;96;
2021-01-20 12:33:57;4;117;118;117;118;118;117;117;118;117;117;
2021-01-20 12:33:57;5;124;125;125;125;125;125;124;125;124;125;
2021-01-20 12:33:57;ht;91;29.80
2021-01-20 12:33:57;v;4.16
2021-01-20 13:03:58;1;119;118;119;119;119;119;119;119;119;126;
2021-01-20 13:03:58;2;120;120;120;120;120;120;120;120;120;120;
2021-01-20 13:03:58;3;134;134;134;134;134;134;134;134;134;134;
2021-01-20 13:03:58;4;127;127;127;127;127;127;127;127;127;127;
2021-01-20 13:03:58;5;123;123;123;123;122;122;123;123;123;123;
2021-01-20 13:03:58;ht;91;30.10
2021-01-20 13:03:58;v;4.16
2021-01-20 13:33:59;1;122;121;122;122;121;121;121;122;121;121;
2021-01-20 13:33:59;2;120;120;120;120;120;120;120;120;120;120;
2021-01-20 13:33:59;3;89;89;89;89;89;89;88;88;88;88;
2021-01-20 13:33:59;4;125;125;125;125;125;125;125;125;125;125;
2021-01-20 13:33:59;5;123;123;123;123;123;123;123;123;123;123;
2021-01-20 13:33:59;ht;78;30.90
2021-01-20 13:33:59;v;4.16
2021-01-20 14:04:01;1;130;130;129;129;129;129;129;129;129;129;
2021-01-20 14:04:01;2;119;119;123;121;119;119;119;119;119;119;
2021-01-20 14:04:01;3;136;136;136;136;136;136;136;136;136;136;
2021-01-20 14:04:01;4;118;118;119;118;118;119;118;119;119;119;
2021-01-20 14:04:01;5;122;122;122;122;122;122;122;122;122;122;
2021-01-20 14:04:01;ht;72;31.50
2021-01-20 14:04:01;v;4.16
2021-01-20 14:33:58;1;122;122;122;122;122;122;122;121;121;121;
2021-01-20 14:33:58;2;117;117;117;117;117;117;117;117;117;117;
2021-01-20 14:33:58;3;96;96;96;96;96;96;96;96;96;96;
2021-01-20 14:33:58;4;115;115;115;116;115;115;116;115;116;115;
2021-01-20 14:33:58;5;123;122;123;123;123;123;123;123;123;123;
2021-01-20 14:33:58;ht;67;31.60
2021-01-20 14:33:58;v;4.16
2021-01-20 15:04:01;1;126;126;126;126;126;126;126;126;126;126;
2021-01-20 15:04:01;2;118;118;118;118;118;118;118;118;118;118;
2021-01-20 15:04:01;3;68;68;68;68;68;68;68;68;68;68;
2021-01-20 15:04:01;4;115;115;115;115;115;115;115;115;115;115;
2021-01-20 15:04:01;5;124;123;124;124;124;124;124;124;124;124;
2021-01-20 15:04:01;ht;63;31.40
2021-01-20 15:04:01;v;4.16
2021-01-20 15:33:59;1;136;135;135;135;135;135;143;138;136;136;
2021-01-20 15:33:59;2;113;113;112;112;112;113;113;113;113;113;
2021-01-20 15:33:59;3;134;134;135;135;135;136;136;136;136;136;
2021-01-20 15:33:59;4;122;122;122;122;122;122;122;122;122;122;
2021-01-20 15:33:59;5;123;123;123;123;123;123;123;123;123;123;
2021-01-20 15:33:59;ht;59;31.70
2021-01-20 15:33:59;v;4.16
2021-01-20 16:04:02;1;133;134;133;133;133;133;133;140;135;134;
2021-01-20 16:04:02;2;119;119;119;119;119;119;119;119;119;119;
2021-01-20 16:04:02;3;138;138;138;138;138;138;138;138;138;138;
2021-01-20 16:04:02;4;118;117;118;118;118;118;118;118;118;118;
2021-01-20 16:04:02;5;117;117;117;117;117;117;117;117;117;117;
2021-01-20 16:04:02;ht;56;31.90
2021-01-20 16:04:02;v;4.16
2021-01-20 16:34:00;1;1;1;1;1;1;1;1;1;1;1;
2021-01-20 16:34:00;2;119;119;119;119;119;119;119;119;119;119;
2021-01-20 16:34:00;3;86;86;86;86;86;86;86;86;86;86;
2021-01-20 16:34:00;4;117;117;117;117;117;117;117;117;117;117;
2021-01-20 16:34:00;5;121;122;121;121;121;121;121;121;121;121;
2021-01-20 16:34:00;ht;58;31.70
2021-01-20 16:34:00;v;4.16
2021-01-20 17:03:58;1;126;125;125;125;125;125;125;125;125;125;
2021-01-20 17:03:58;2;120;120;120;120;120;120;120;120;120;120;
2021-01-20 17:03:58;3;95;94;93;106;116;120;117;116;130;132;
2021-01-20 17:03:58;4;118;118;118;118;118;118;118;118;118;118;
2021-01-20 17:03:58;5;118;118;118;118;118;118;118;118;118;118;
2021-01-20 17:03:58;ht;61;31.90
2021-01-20 17:03:58;v;4.16
2021-01-20 17:34:01;1;128;128;128;128;128;129;128;128;128;128;
2021-01-20 17:34:01;2;120;120;120;119;120;120;120;120;120;120;
2021-01-20 17:34:01;3;137;137;137;137;137;137;137;137;137;137;
2021-01-20 17:34:01;4;120;120;120;120;120;120;120;120;120;120;
2021-01-20 17:34:01;5;119;119;119;119;119;119;119;119;119;119;
2021-01-20 17:34:01;ht;64;31.80
2021-01-20 17:34:01;v;4.16
2021-01-20 18:03:59;1;132;132;132;132;132;132;132;132;137;135;
2021-01-20 18:03:59;2;121;121;121;121;121;121;120;121;121;121;
2021-01-20 18:03:59;3;101;102;101;101;101;101;102;102;102;102;
2021-01-20 18:03:59;4;119;119;119;119;119;119;119;119;119;119;
2021-01-20 18:03:59;5;119;120;120;120;119;119;120;119;120;120;
2021-01-20 18:03:59;ht;58;31.30
2021-01-20 18:03:59;v;4.16
2021-01-20 18:34:01;1;127;127;127;127;127;127;127;130;131;128;
2021-01-20 18:34:01;2;123;124;123;124;124;123;124;123;124;124;
2021-01-20 18:34:01;3;78;78;77;77;77;76;76;76;75;75;
2021-01-20 18:34:01;4;120;120;120;120;120;120;120;120;120;120;
2021-01-20 18:34:01;5;120;121;121;121;121;121;121;121;120;120;
2021-01-20 18:34:01;ht;60;30.80
2021-01-20 18:34:01;v;4.16
2021-01-20 19:03:58;1;1;2;1;1;1;1;1;1;1;2;
2021-01-20 19:03:58;2;115;115;115;115;115;115;115;115;115;115;
2021-01-20 19:03:58;3;137;137;137;137;137;137;138;137;137;137;
2021-01-20 19:03:58;4;123;123;123;123;123;123;123;123;123;123;
2021-01-20 19:03:58;5;122;122;122;122;122;122;122;122;122;122;
2021-01-20 19:03:58;ht;69;29.90
2021-01-20 19:03:58;v;4.16
2021-01-20 19:33:59;1;138;137;136;136;136;136;136;136;136;136;
2021-01-20 19:33:59;2;123;130;124;123;123;123;123;123;123;123;
2021-01-20 19:33:59;3;50;50;50;50;50;50;50;50;50;49;
2021-01-20 19:33:59;4;123;123;123;122;123;123;123;123;123;123;
2021-01-20 19:33:59;5;125;125;125;125;125;125;125;125;125;125;
2021-01-20 19:33:59;ht;82;27.90
2021-01-20 19:33:59;v;4.16
2021-01-20 20:03:57;1;1;1;1;1;1;1;1;2;1;1;
2021-01-20 20:03:57;2;122;122;122;122;122;122;122;122;122;122;
2021-01-20 20:03:57;3;87;89;89;91;92;93;94;95;96;97;
2021-01-20 20:03:57;4;122;122;122;122;122;122;122;122;122;122;
2021-01-20 20:03:57;5;123;124;124;124;124;124;124;124;124;124;
2021-01-20 20:03:57;ht;89;25.70
2021-01-20 20:03:57;v;4.16
2021-01-20 20:33:53;1;125;125;125;125;125;125;125;125;125;125;
2021-01-20 20:33:53;2;129;129;129;130;130;129;129;129;129;129;
2021-01-20 20:33:53;3;127;126;126;126;126;126;127;126;126;126;
2021-01-20 20:33:53;4;122;122;122;122;122;123;122;122;122;123;
2021-01-20 20:33:53;5;120;120;120;120;120;120;120;120;120;120;
2021-01-20 20:33:53;ht;91;24.70
2021-01-20 20:33:53;v;4.16
2021-01-20 21:03:51;1;125;125;125;126;126;126;126;126;126;126;
2021-01-20 21:03:51;2;119;119;119;119;119;119;119;119;119;119;
2021-01-20 21:03:51;3;118;118;118;118;118;118;118;118;118;118;
2021-01-20 21:03:51;4;122;122;122;122;122;122;122;122;122;122;
2021-01-20 21:03:51;5;124;124;124;124;124;124;124;124;124;124;
2021-01-20 21:03:51;ht;97;23.30
2021-01-20 21:03:51;v;4.16
2021-01-20 21:33:49;1;124;124;124;124;124;124;124;131;125;124;
2021-01-20 21:33:49;2;122;122;122;122;122;122;122;122;122;121;
2021-01-20 21:33:49;3;124;124;124;124;124;124;124;124;124;124;
2021-01-20 21:33:49;4;124;124;124;124;124;124;124;124;124;124;
2021-01-20 21:33:49;5;124;124;124;124;124;124;124;124;124;124;
2021-01-20 21:33:49;ht;99;22.00
2021-01-20 21:33:49;v;4.16
2021-01-20 22:03:50;1;126;126;126;126;126;125;126;126;126;126;
2021-01-20 22:03:50;2;120;120;120;120;120;129;121;120;120;120;
2021-01-20 22:03:50;3;118;118;118;118;118;118;118;118;118;118;
2021-01-20 22:03:50;4;128;128;128;128;128;128;128;128;128;128;
2021-01-20 22:03:50;5;125;125;125;125;125;125;124;125;125;125;
2021-01-20 22:03:50;ht;99;21.60
2021-01-20 22:03:50;v;4.15
2021-01-20 22:33:50;1;127;127;127;127;127;127;127;127;127;127;
2021-01-20 22:33:50;2;119;120;120;120;119;119;120;120;120;120;
2021-01-20 22:33:50;3;223;223;223;223;223;223;223;223;224;224;
2021-01-20 22:33:50;4;125;125;125;125;125;125;125;125;125;125;
2021-01-20 22:33:50;5;125;125;125;125;125;125;125;125;125;125;
2021-01-20 22:33:50;ht;99;21.00
2021-01-20 22:33:50;v;4.16
2021-01-20 23:03:50;1;124;124;124;124;124;124;123;125;124;124;
2021-01-20 23:03:50;2;117;117;117;116;116;117;117;117;117;117;
2021-01-20 23:03:50;3;117;117;117;117;116;117;117;117;117;117;
2021-01-20 23:03:50;4;122;122;122;122;122;122;122;122;122;122;
2021-01-20 23:03:50;5;134;134;134;134;134;134;134;134;134;134;
2021-01-20 23:03:50;ht;99;21.30
2021-01-20 23:03:50;v;4.16
2021-01-20 23:33:50;1;126;126;126;126;126;126;126;126;126;126;
2021-01-20 23:33:50;2;123;123;123;130;124;123;123;123;123;123;
2021-01-20 23:33:50;3;118;118;118;118;118;118;118;118;118;118;
2021-01-20 23:33:50;4;125;125;125;125;125;125;125;125;125;125;
2021-01-20 23:33:50;5;129;128;129;129;129;129;129;129;129;129;
2021-01-20 23:33:50;ht;99;20.00
2021-01-20 23:33:50;v;4.15
