2021-06-11 00:03:43;1;115;115;115;115;115;115;115;115;115;115;
2021-06-11 00:03:43;2;116;116;116;116;116;116;116;116;116;116;
2021-06-11 00:03:43;3;34;34;34;34;34;34;34;34;34;34;
2021-06-11 00:03:43;4;122;122;122;122;122;122;122;122;122;122;
2021-06-11 00:03:43;5;122;122;122;122;122;122;122;122;122;122;
2021-06-11 00:03:43;ht;99;9.40
2021-06-11 00:03:43;v;4.10
2021-06-11 00:33:43;1;116;116;116;116;116;116;116;116;116;116;
2021-06-11 00:33:43;2;127;127;127;126;127;127;127;127;127;127;
2021-06-11 00:33:43;3;35;35;35;35;35;35;35;35;35;35;
2021-06-11 00:33:43;4;120;120;120;120;120;120;120;120;120;120;
2021-06-11 00:33:43;5;119;119;119;119;119;119;119;119;119;119;
2021-06-11 00:33:43;ht;99;8.80
2021-06-11 00:33:43;v;4.10
2021-06-11 01:03:39;1;117;117;117;117;117;117;117;116;117;117;
2021-06-11 01:03:39;2;127;127;127;127;127;127;127;127;127;127;
2021-06-11 01:03:39;3;36;36;36;36;36;36;36;36;36;36;
2021-06-11 01:03:39;4;120;120;120;120;120;120;120;120;120;120;
2021-06-11 01:03:39;5;118;118;118;117;118;118;118;118;118;118;
2021-06-11 01:03:39;ht;99;7.70
2021-06-11 01:03:39;v;4.10
2021-06-11 01:33:43;1;118;124;119;118;118;118;118;118;118;118;
2021-06-11 01:33:43;2;114;114;114;114;114;113;114;114;114;114;
2021-06-11 01:33:43;3;37;37;37;37;37;37;37;37;37;37;
2021-06-11 01:33:43;4;119;119;118;119;119;119;119;119;119;119;
2021-06-11 01:33:43;5;118;119;119;118;119;119;118;118;118;118;
2021-06-11 01:33:43;ht;99;7.40
2021-06-11 01:33:43;v;4.10
2021-06-11 02:03:43;1;118;118;118;123;119;118;118;118;118;118;
2021-06-11 02:03:43;2;125;125;125;125;125;125;125;125;125;125;
2021-06-11 02:03:43;3;38;38;38;38;38;38;38;38;38;38;
2021-06-11 02:03:43;4;119;119;119;119;119;119;119;119;119;119;
2021-06-11 02:03:43;5;122;122;122;122;122;122;122;122;122;122;
2021-06-11 02:03:43;ht;99;7.80
2021-06-11 02:03:43;v;4.10
2021-06-11 02:33:42;1;121;121;121;121;121;121;121;120;121;121;
2021-06-11 02:33:42;2;124;124;124;124;124;124;124;124;124;124;
2021-06-11 02:33:42;3;41;41;41;42;41;42;41;41;41;42;
2021-06-11 02:33:42;4;119;119;119;119;119;119;119;119;119;119;
2021-06-11 02:33:42;5;118;118;118;118;118;118;118;118;118;118;
2021-06-11 02:33:42;ht;99;7.00
2021-06-11 02:33:42;v;4.10
2021-06-11 03:03:41;1;138;132;131;131;131;131;131;131;131;130;
2021-06-11 03:03:41;2;126;126;126;126;126;126;126;126;125;126;
2021-06-11 03:03:41;3;43;43;43;43;43;43;43;43;43;43;
2021-06-11 03:03:41;4;119;118;119;118;119;119;119;119;119;118;
2021-06-11 03:03:41;5;117;117;117;117;117;118;118;118;117;117;
2021-06-11 03:03:41;ht;99;5.90
2021-06-11 03:03:41;v;4.10
2021-06-11 03:33:40;1;129;129;129;129;129;129;129;129;129;129;
2021-06-11 03:33:40;2;127;127;127;127;127;127;127;127;127;127;
2021-06-11 03:33:40;3;44;45;44;44;45;44;44;44;44;45;
2021-06-11 03:33:40;4;118;118;118;118;118;118;118;118;118;118;
2021-06-11 03:33:40;5;108;108;109;108;108;108;108;108;108;108;
2021-06-11 03:33:40;ht;99;6.20
2021-06-11 03:33:40;v;4.09
2021-06-11 04:03:38;1;132;132;132;132;132;132;131;131;132;131;
2021-06-11 04:03:38;2;121;121;121;121;121;121;121;121;121;121;
2021-06-11 04:03:38;3;45;45;45;45;45;44;45;45;45;45;
2021-06-11 04:03:38;4;117;117;117;117;117;117;117;117;117;117;
2021-06-11 04:03:38;5;110;110;110;110;110;110;110;110;110;110;
2021-06-11 04:03:38;ht;99;4.80
2021-06-11 04:03:38;v;4.10
2021-06-11 04:33:41;1;130;130;131;130;130;130;130;130;130;130;
2021-06-11 04:33:41;2;127;137;128;127;127;127;127;127;127;127;
2021-06-11 04:33:41;3;45;45;45;45;45;45;45;45;45;45;
2021-06-11 04:33:41;4;114;114;114;114;114;114;113;114;114;114;
2021-06-11 04:33:41;5;125;125;125;125;125;125;125;125;125;125;
2021-06-11 04:33:41;ht;99;5.50
2021-06-11 04:33:41;v;4.09
2021-06-11 05:03:39;1;132;131;132;131;131;131;131;131;132;131;
2021-06-11 05:03:39;2;1;1;1;1;1;8;10;2;2;2;
2021-06-11 05:03:39;3;45;45;45;45;45;45;45;45;45;45;
2021-06-11 05:03:39;4;115;115;115;115;115;115;115;115;115;115;
2021-06-11 05:03:39;5;112;112;112;112;111;112;112;112;112;112;
2021-06-11 05:03:39;ht;99;4.90
2021-06-11 05:03:39;v;4.09
2021-06-11 05:33:42;1;131;139;131;131;131;131;131;131;131;131;
2021-06-11 05:33:42;2;2;2;2;2;2;2;2;2;2;2;
2021-06-11 05:33:42;3;45;45;45;45;45;45;45;45;45;45;
2021-06-11 05:33:42;4;117;117;117;117;117;117;117;117;117;117;
2021-06-11 05:33:42;5;115;115;115;115;115;115;115;115;115;115;
2021-06-11 05:33:42;ht;99;4.50
2021-06-11 05:33:42;v;4.09
2021-06-11 06:03:39;1;124;124;124;124;124;124;124;124;124;124;
2021-06-11 06:03:39;2;111;110;111;111;110;111;110;111;111;110;
2021-06-11 06:03:39;3;44;44;45;44;45;44;44;45;45;44;
2021-06-11 06:03:39;4;116;116;116;116;116;116;116;116;116;116;
2021-06-11 06:03:39;5;114;114;114;114;114;114;114;114;114;114;
2021-06-11 06:03:39;ht;99;4.50
2021-06-11 06:03:39;v;4.09
2021-06-11 06:33:37;1;124;124;123;124;124;124;124;124;124;124;
2021-06-11 06:33:37;2;130;130;130;130;130;130;130;130;130;130;
2021-06-11 06:33:37;3;45;45;45;45;45;45;45;45;45;45;
2021-06-11 06:33:37;4;118;118;118;118;118;118;118;118;118;118;
2021-06-11 06:33:37;5;113;113;113;113;113;112;112;112;112;113;
2021-06-11 06:33:37;ht;99;4.90
2021-06-11 06:33:37;v;4.09
2021-06-11 07:03:39;1;128;128;128;128;128;128;128;128;128;128;
2021-06-11 07:03:39;2;1;9;2;2;2;1;1;1;1;1;
2021-06-11 07:03:39;3;45;45;44;45;44;44;44;44;44;45;
2021-06-11 07:03:39;4;106;105;105;105;105;105;105;105;105;105;
2021-06-11 07:03:39;5;113;113;114;113;113;114;114;114;114;113;
2021-06-11 07:03:39;ht;99;4.60
2021-06-11 07:03:39;v;4.09
2021-06-11 07:33:37;1;125;125;124;125;125;125;125;124;125;124;
2021-06-11 07:33:37;2;1;1;1;1;1;1;1;8;10;2;
2021-06-11 07:33:37;3;44;44;44;44;44;44;44;44;44;44;
2021-06-11 07:33:37;4;111;111;111;111;111;111;111;111;111;111;
2021-06-11 07:33:37;5;127;127;127;127;127;127;127;127;127;127;
2021-06-11 07:33:37;ht;99;4.20
2021-06-11 07:33:37;v;4.09
2021-06-11 08:03:39;1;124;124;123;124;123;123;123;123;124;123;
2021-06-11 08:03:39;2;1;1;1;1;1;9;2;2;2;1;
2021-06-11 08:03:39;3;45;45;45;45;45;45;45;45;45;45;
2021-06-11 08:03:39;4;115;115;115;115;115;115;115;115;115;115;
2021-06-11 08:03:39;5;127;126;127;127;127;127;127;127;127;127;
2021-06-11 08:03:39;ht;99;3.40
2021-06-11 08:03:39;v;4.09
2021-06-11 08:33:41;1;124;124;124;124;124;124;124;124;124;123;
2021-06-11 08:33:41;2;114;115;115;114;115;114;115;115;115;114;
2021-06-11 08:33:41;3;45;46;46;45;46;46;45;46;46;45;
2021-06-11 08:33:41;4;127;127;127;127;127;127;127;127;127;127;
2021-06-11 08:33:41;5;115;115;116;116;116;116;116;116;116;116;
2021-06-11 08:33:41;ht;99;4.90
2021-06-11 08:33:41;v;4.09
2021-06-11 09:03:39;1;119;119;119;119;119;119;119;119;119;119;
2021-06-11 09:03:39;2;123;123;123;123;123;123;123;123;123;123;
2021-06-11 09:03:39;3;45;45;45;46;45;46;46;46;45;46;
2021-06-11 09:03:39;4;114;114;114;114;114;114;114;114;114;114;
2021-06-11 09:03:39;5;118;118;118;118;118;118;118;118;118;118;
2021-06-11 09:03:39;ht;99;6.90
2021-06-11 09:03:39;v;4.10
2021-06-11 09:33:43;1;132;131;131;131;132;131;131;131;132;131;
2021-06-11 09:33:43;2;111;111;111;111;111;111;111;111;111;111;
2021-06-11 09:33:43;3;41;41;41;41;41;42;41;41;41;41;
2021-06-11 09:33:43;4;124;124;124;124;124;124;124;124;124;124;
2021-06-11 09:33:43;5;118;118;118;118;118;118;118;118;118;118;
2021-06-11 09:33:43;ht;99;10.00
2021-06-11 09:33:43;v;4.11
2021-06-11 10:03:41;1;121;121;121;121;121;121;121;121;121;121;
2021-06-11 10:03:41;2;127;127;127;127;127;126;127;127;127;127;
2021-06-11 10:03:41;3;36;36;36;36;36;36;36;36;36;36;
2021-06-11 10:03:41;4;124;124;124;124;124;124;124;124;124;124;
2021-06-11 10:03:41;5;111;111;111;111;111;111;111;111;111;111;
2021-06-11 10:03:41;ht;99;11.60
2021-06-11 10:03:41;v;4.11
2021-06-11 10:33:44;1;125;126;126;125;125;125;126;126;125;126;
2021-06-11 10:33:44;2;112;112;112;112;112;112;112;112;112;112;
2021-06-11 10:33:44;3;34;34;34;34;34;34;34;34;34;34;
2021-06-11 10:33:44;4;124;125;125;125;125;125;124;125;125;124;
2021-06-11 10:33:44;5;115;115;115;115;115;115;115;115;115;115;
2021-06-11 10:33:44;ht;99;12.20
2021-06-11 10:33:44;v;4.11
2021-06-11 11:03:43;1;127;127;127;127;127;127;127;127;127;127;
2021-06-11 11:03:43;2;114;114;114;114;114;114;114;114;114;114;
2021-06-11 11:03:43;3;33;33;33;33;33;33;33;33;33;33;
2021-06-11 11:03:43;4;125;125;125;125;125;125;125;125;125;125;
2021-06-11 11:03:43;5;113;113;113;113;113;113;113;113;113;113;
2021-06-11 11:03:43;ht;99;12.40
2021-06-11 11:03:43;v;4.11
2021-06-11 11:33:47;1;123;122;122;123;122;123;122;122;123;123;
2021-06-11 11:33:47;2;127;127;127;127;127;127;127;127;127;127;
2021-06-11 11:33:47;3;30;29;29;29;30;29;29;30;29;29;
2021-06-11 11:33:47;4;116;116;116;116;116;116;116;116;116;116;
2021-06-11 11:33:47;5;109;110;110;109;110;109;110;110;110;110;
2021-06-11 11:33:47;ht;99;14.60
2021-06-11 11:33:47;v;4.12
2021-06-11 12:03:48;1;115;115;115;115;115;115;115;114;115;115;
2021-06-11 12:03:48;2;115;115;115;115;115;114;115;115;115;115;
2021-06-11 12:03:48;3;27;27;27;27;27;27;27;27;27;27;
2021-06-11 12:03:48;4;121;121;121;121;121;121;121;121;121;121;
2021-06-11 12:03:48;5;121;121;121;121;121;121;121;121;121;121;
2021-06-11 12:03:48;ht;99;15.20
2021-06-11 12:03:48;v;4.11
2021-06-11 12:33:45;1;119;119;119;119;119;119;119;119;119;119;
2021-06-11 12:33:45;2;128;128;128;128;128;128;128;129;128;128;
2021-06-11 12:33:45;3;29;29;29;29;29;29;29;29;29;29;
2021-06-11 12:33:45;4;124;124;124;124;124;124;124;124;124;124;
2021-06-11 12:33:45;5;119;119;119;119;119;119;119;119;119;119;
2021-06-11 12:33:45;ht;99;16.10
2021-06-11 12:33:45;v;4.12
2021-06-11 13:03:49;1;117;117;117;117;117;117;117;117;117;117;
2021-06-11 13:03:49;2;123;123;123;123;122;122;122;123;122;122;
2021-06-11 13:03:49;3;30;30;30;30;30;30;30;30;30;30;
2021-06-11 13:03:49;4;111;111;112;111;111;112;112;112;111;112;
2021-06-11 13:03:49;5;116;116;116;116;116;116;116;116;116;116;
2021-06-11 13:03:49;ht;99;17.00
2021-06-11 13:03:49;v;4.12
2021-06-11 13:33:48;1;117;117;117;117;117;117;117;117;117;117;
2021-06-11 13:33:48;2;117;117;117;117;117;117;117;117;117;117;
2021-06-11 13:33:48;3;32;32;32;32;32;32;32;32;32;31;
2021-06-11 13:33:48;4;126;126;126;126;126;126;126;126;126;126;
2021-06-11 13:33:48;5;118;118;118;118;118;118;118;118;118;118;
2021-06-11 13:33:48;ht;93;17.50
2021-06-11 13:33:48;v;4.12
2021-06-11 14:03:47;1;116;116;116;116;116;116;116;116;116;116;
2021-06-11 14:03:47;2;115;115;114;115;115;115;115;115;115;115;
2021-06-11 14:03:47;3;33;33;33;33;33;33;33;33;33;33;
2021-06-11 14:03:47;4;119;119;119;119;119;119;119;119;119;119;
2021-06-11 14:03:47;5;123;123;123;123;123;123;123;123;123;123;
2021-06-11 14:03:47;ht;90;18.30
2021-06-11 14:03:47;v;4.12
2021-06-11 14:33:47;1;118;118;118;118;118;118;118;118;118;118;
2021-06-11 14:33:47;2;118;118;118;118;118;118;118;118;118;118;
2021-06-11 14:33:47;3;35;35;35;35;35;35;35;35;35;35;
2021-06-11 14:33:47;4;134;135;135;135;135;135;134;135;135;135;
2021-06-11 14:33:47;5;117;117;117;117;116;116;116;116;116;116;
2021-06-11 14:33:47;ht;90;18.80
2021-06-11 14:33:47;v;4.13
2021-06-11 15:03:48;1;119;119;119;119;119;119;119;119;119;119;
2021-06-11 15:03:48;2;113;113;113;113;113;113;113;113;113;113;
2021-06-11 15:03:48;3;36;37;36;36;36;36;36;37;37;36;
2021-06-11 15:03:48;4;120;120;120;120;120;120;120;120;120;120;
2021-06-11 15:03:48;5;114;114;114;114;114;114;114;114;114;114;
2021-06-11 15:03:48;ht;89;18.90
2021-06-11 15:03:48;v;4.13
2021-06-11 15:33:48;1;120;120;120;120;120;120;120;120;120;120;
2021-06-11 15:33:48;2;121;121;121;121;121;121;121;121;121;121;
2021-06-11 15:33:48;3;38;38;38;37;37;37;38;38;37;37;
2021-06-11 15:33:48;4;118;118;118;118;118;118;118;118;118;118;
2021-06-11 15:33:48;5;115;115;115;115;115;115;115;115;115;115;
2021-06-11 15:33:48;ht;91;19.30
2021-06-11 15:33:48;v;4.13
2021-06-11 16:03:49;1;118;118;118;118;118;118;118;118;118;118;
2021-06-11 16:03:49;2;110;110;110;110;110;110;110;110;110;110;
2021-06-11 16:03:49;3;39;39;39;39;39;39;39;39;39;39;
2021-06-11 16:03:49;4;121;121;121;121;121;121;121;121;121;121;
2021-06-11 16:03:49;5;112;112;112;112;112;112;112;112;112;112;
2021-06-11 16:03:49;ht;88;19.30
2021-06-11 16:03:49;v;4.13
2021-06-11 16:33:50;1;118;118;118;118;118;118;118;118;118;118;
2021-06-11 16:33:50;2;124;124;124;124;124;124;124;124;124;124;
2021-06-11 16:33:50;3;38;38;38;38;38;38;38;38;38;38;
2021-06-11 16:33:50;4;122;122;122;121;121;122;122;122;122;122;
2021-06-11 16:33:50;5;115;115;115;115;115;115;115;115;115;115;
2021-06-11 16:33:50;ht;91;19.50
2021-06-11 16:33:50;v;4.13
2021-06-11 17:03:50;1;125;125;125;125;125;125;125;125;125;125;
2021-06-11 17:03:50;2;119;119;119;119;119;119;119;119;119;119;
2021-06-11 17:03:50;3;37;37;37;37;37;37;37;38;37;37;
2021-06-11 17:03:50;4;126;126;126;126;126;126;126;126;126;126;
2021-06-11 17:03:50;5;126;126;126;126;126;126;126;126;126;126;
2021-06-11 17:03:50;ht;94;18.70
2021-06-11 17:03:50;v;4.13
2021-06-11 17:33:49;1;124;124;124;124;124;124;124;124;124;124;
2021-06-11 17:33:49;2;115;115;115;115;115;115;115;115;115;115;
2021-06-11 17:33:49;3;37;37;37;37;37;37;37;37;37;37;
2021-06-11 17:33:49;4;125;125;125;125;125;125;125;125;125;125;
2021-06-11 17:33:49;5;110;110;110;111;111;111;110;111;111;111;
2021-06-11 17:33:49;ht;96;17.80
2021-06-11 17:33:49;v;4.13
2021-06-11 18:03:47;1;120;120;120;120;120;120;120;120;120;120;
2021-06-11 18:03:47;2;132;132;132;132;131;132;132;132;132;132;
2021-06-11 18:03:47;3;39;39;39;39;39;39;39;39;39;39;
2021-06-11 18:03:47;4;129;129;129;129;129;129;129;129;128;129;
2021-06-11 18:03:47;5;113;113;113;113;113;113;113;113;113;113;
2021-06-11 18:03:47;ht;99;15.10
2021-06-11 18:03:47;v;4.12
2021-06-11 18:33:43;1;123;123;123;123;123;123;123;123;123;123;
2021-06-11 18:33:43;2;117;117;117;117;117;117;117;117;117;117;
2021-06-11 18:33:43;3;41;41;41;41;41;41;41;41;41;41;
2021-06-11 18:33:43;4;125;126;126;126;126;126;126;126;126;126;
2021-06-11 18:33:43;5;115;115;115;115;115;115;115;115;115;115;
2021-06-11 18:33:43;ht;99;13.20
2021-06-11 18:33:43;v;4.12
2021-06-11 19:03:47;1;117;117;117;117;117;117;117;117;117;117;
2021-06-11 19:03:47;2;105;104;105;105;105;104;105;104;104;105;
2021-06-11 19:03:47;3;44;44;44;44;44;44;44;44;44;43;
2021-06-11 19:03:47;4;133;133;133;133;133;133;134;133;133;133;
2021-06-11 19:03:47;5;113;113;113;113;113;113;113;113;113;113;
2021-06-11 19:03:47;ht;99;12.70
2021-06-11 19:03:47;v;4.12
2021-06-11 19:33:45;1;127;127;127;126;126;127;127;127;126;126;
2021-06-11 19:33:45;2;116;116;116;115;116;116;116;116;116;116;
2021-06-11 19:33:45;3;45;45;45;45;45;45;45;45;45;45;
2021-06-11 19:33:45;4;118;118;118;118;117;118;118;118;118;118;
2021-06-11 19:33:45;5;124;124;124;124;124;124;124;124;124;124;
2021-06-11 19:33:45;ht;99;11.60
2021-06-11 19:33:45;v;4.11
2021-06-11 20:03:42;1;131;130;130;130;130;130;130;130;130;131;
2021-06-11 20:03:42;2;113;113;113;113;113;113;113;113;113;113;
2021-06-11 20:03:42;3;47;47;47;47;47;47;47;47;47;47;
2021-06-11 20:03:42;4;128;128;128;127;128;128;128;128;128;128;
2021-06-11 20:03:42;5;115;115;115;115;115;115;115;115;115;115;
2021-06-11 20:03:42;ht;99;10.40
2021-06-11 20:03:42;v;4.11
2021-06-11 20:33:44;1;125;125;134;126;125;125;125;125;125;125;
2021-06-11 20:33:44;2;116;116;115;115;115;115;115;115;115;116;
2021-06-11 20:33:44;3;48;48;48;48;48;48;48;48;48;48;
2021-06-11 20:33:44;4;119;120;119;120;120;120;120;120;120;120;
2021-06-11 20:33:44;5;118;118;118;118;118;118;118;118;118;118;
2021-06-11 20:33:44;ht;99;11.20
2021-06-11 20:33:44;v;4.11
2021-06-11 21:03:41;1;121;120;120;120;120;120;120;120;120;120;
2021-06-11 21:03:41;2;126;125;125;126;125;125;126;126;126;126;
2021-06-11 21:03:41;3;48;48;48;48;48;48;48;48;48;48;
2021-06-11 21:03:41;4;119;119;119;119;119;119;119;119;119;119;
2021-06-11 21:03:41;5;125;125;125;125;125;125;125;125;125;125;
2021-06-11 21:03:41;ht;99;10.90
2021-06-11 21:03:41;v;4.11
2021-06-11 21:33:43;1;119;119;118;119;119;119;119;119;119;119;
2021-06-11 21:33:43;2;115;115;115;115;115;114;115;115;115;115;
2021-06-11 21:33:43;3;49;49;49;49;49;49;49;49;49;49;
2021-06-11 21:33:43;4;120;120;120;120;120;120;120;120;120;120;
2021-06-11 21:33:43;5;139;139;138;138;138;139;139;139;139;139;
2021-06-11 21:33:43;ht;99;10.20
2021-06-11 21:33:43;v;4.11
2021-06-11 22:03:44;1;126;123;121;120;120;120;120;120;120;120;
2021-06-11 22:03:44;2;115;116;115;116;115;116;115;116;116;115;
2021-06-11 22:03:44;3;49;49;49;49;49;49;49;49;49;49;
2021-06-11 22:03:44;4;132;132;133;133;133;133;132;132;133;133;
2021-06-11 22:03:44;5;122;122;122;122;122;122;122;122;122;122;
2021-06-11 22:03:44;ht;99;8.80
2021-06-11 22:03:44;v;4.11
2021-06-11 22:33:41;1;123;123;123;123;122;122;123;123;123;123;
2021-06-11 22:33:41;2;126;126;126;126;126;126;126;126;126;126;
2021-06-11 22:33:41;3;51;51;51;51;51;51;51;51;51;51;
2021-06-11 22:33:41;4;138;138;138;138;138;138;138;138;138;138;
2021-06-11 22:33:41;5;118;118;118;117;117;118;118;118;118;118;
2021-06-11 22:33:41;ht;99;11.30
2021-06-11 22:33:41;v;4.11
2021-06-11 23:03:42;1;133;132;132;132;132;132;132;132;132;132;
2021-06-11 23:03:42;2;117;117;117;117;117;117;117;117;117;117;
2021-06-11 23:03:42;3;49;49;49;49;49;49;49;49;49;49;
2021-06-11 23:03:42;4;118;118;118;118;118;118;118;118;118;118;
2021-06-11 23:03:42;5;117;117;117;116;116;116;116;117;117;116;
2021-06-11 23:03:42;ht;99;11.30
2021-06-11 23:03:42;v;4.11
2021-06-11 23:33:44;1;121;121;121;121;121;121;121;121;121;121;
2021-06-11 23:33:44;2;115;115;115;115;115;115;115;115;115;115;
2021-06-11 23:33:44;3;49;49;49;49;49;49;49;49;49;49;
2021-06-11 23:33:44;4;127;127;127;127;127;127;127;127;127;127;
2021-06-11 23:33:44;5;127;127;127;127;127;127;127;127;127;127;
2021-06-11 23:33:44;ht;99;11.50
2021-06-11 23:33:44;v;4.11
