#2021-06-04 11:50:32;1;121;121;121;121;121;121;121;121;121;121;
2021-06-04 11:50:32;2;122;122;122;122;122;122;122;122;122;122;
2021-06-04 11:50:32;3;47;47;47;47;47;47;47;47;47;47;
2021-06-04 11:50:32;4;115;115;115;115;115;115;115;115;115;115;
2021-06-04 11:50:32;5;116;116;116;116;116;116;116;116;116;116;
2021-06-04 11:50:32;ht;99;23.20
2021-06-04 11:50:32;v;4.07
2021-06-04 12:01:22;1;126;125;126;126;126;126;125;125;126;126;
2021-06-04 12:01:22;2;115;115;115;115;115;115;115;115;115;115;
2021-06-04 12:01:22;3;46;46;45;46;45;46;45;45;46;46;
2021-06-04 12:01:22;4;122;122;122;122;122;122;122;122;122;122;
2021-06-04 12:01:22;5;122;123;122;122;122;122;122;122;122;122;
2021-06-04 12:01:22;ht;99;23.40
2021-06-04 12:01:22;v;4.06
2021-06-04 12:34:16;1;120;120;120;120;120;120;120;120;120;120;
2021-06-04 12:34:16;2;122;122;122;122;122;122;122;122;122;122;
2021-06-04 12:34:16;3;45;46;45;45;46;45;45;46;45;46;
2021-06-04 12:34:16;4;123;123;123;123;123;123;123;123;123;123;
2021-06-04 12:34:16;5;114;114;113;114;114;114;114;114;114;114;
2021-06-04 12:34:16;ht;99;24.40
2021-06-04 12:34:16;v;4.06
2021-06-04 13:03:48;1;121;121;120;121;121;121;121;121;121;121;
2021-06-04 13:03:48;2;117;117;117;117;117;117;117;117;117;117;
2021-06-04 13:03:48;3;44;44;44;44;44;44;44;44;44;44;
2021-06-04 13:03:48;4;118;118;118;118;118;118;118;118;118;118;
2021-06-04 13:03:48;5;114;114;114;114;114;114;114;114;114;114;
2021-06-04 13:03:48;ht;99;25.70
2021-06-04 13:03:48;v;4.06
2021-06-04 13:33:53;1;117;117;117;117;117;117;117;117;117;117;
2021-06-04 13:33:53;2;114;114;114;114;114;114;114;114;114;114;
2021-06-04 13:33:53;3;42;42;42;42;42;42;42;42;42;42;
2021-06-04 13:33:53;4;122;123;122;122;122;122;123;123;122;122;
2021-06-04 13:33:53;5;115;115;115;115;115;115;115;115;115;115;
2021-06-04 13:33:53;ht;99;26.80
2021-06-04 13:33:53;v;4.06
2021-06-04 14:03:55;1;119;119;119;119;119;119;119;119;119;119;
2021-06-04 14:03:55;2;114;114;114;114;114;115;114;114;114;115;
2021-06-04 14:03:55;3;42;42;42;42;42;42;42;42;42;42;
2021-06-04 14:03:55;4;119;119;119;119;119;119;119;119;119;119;
2021-06-04 14:03:55;5;113;113;113;113;113;113;113;113;113;113;
2021-06-04 14:03:55;ht;99;26.30
2021-06-04 14:03:55;v;4.06
2021-06-04 14:33:57;1;116;116;116;116;116;116;116;116;115;116;
2021-06-04 14:33:57;2;118;118;118;118;118;118;118;118;118;118;
2021-06-04 14:33:57;3;43;43;43;43;43;43;43;43;43;43;
2021-06-04 14:33:57;4;119;118;119;119;119;119;119;119;118;119;
2021-06-04 14:33:57;5;116;115;115;116;116;116;115;116;116;116;
2021-06-04 14:33:57;ht;99;28.40
2021-06-04 14:33:57;v;4.06
2021-06-04 15:03:56;1;115;115;115;115;115;115;114;115;115;115;
2021-06-04 15:03:56;2;107;107;107;107;107;107;107;107;107;107;
2021-06-04 15:03:56;3;42;42;42;42;42;42;42;42;42;42;
2021-06-04 15:03:56;4;115;115;115;115;115;115;115;115;115;115;
2021-06-04 15:03:56;5;114;114;115;115;115;114;115;115;114;115;
2021-06-04 15:03:56;ht;99;29.40
2021-06-04 15:03:56;v;4.06
2021-06-04 15:33:55;1;118;118;118;117;118;117;117;118;117;118;
2021-06-04 15:33:55;2;113;113;113;113;113;113;113;113;113;113;
2021-06-04 15:33:55;3;41;41;41;41;41;41;41;41;41;41;
2021-06-04 15:33:55;4;116;116;116;115;116;115;116;116;115;116;
2021-06-04 15:33:55;5;2;2;2;2;2;2;1;2;2;2;
2021-06-04 15:33:55;ht;99;29.00
2021-06-04 15:33:55;v;4.06
2021-06-04 16:03:59;1;123;123;123;123;123;123;123;123;123;123;
2021-06-04 16:03:59;2;118;118;118;118;118;118;118;118;118;118;
2021-06-04 16:03:59;3;39;39;39;39;39;39;39;39;39;39;
2021-06-04 16:03:59;4;117;117;117;117;117;117;117;117;117;117;
2021-06-04 16:03:59;5;114;114;114;114;114;114;114;114;114;114;
2021-06-04 16:03:59;ht;99;28.70
2021-06-04 16:03:59;v;4.06
2021-06-04 16:33:58;1;123;123;123;122;123;123;122;123;122;122;
2021-06-04 16:33:58;2;118;118;118;118;118;118;118;118;118;118;
2021-06-04 16:33:58;3;39;39;39;39;39;39;39;39;39;39;
2021-06-04 16:33:58;4;119;118;119;118;118;118;118;119;119;118;
2021-06-04 16:33:58;5;114;115;115;115;115;114;115;115;114;115;
2021-06-04 16:33:58;ht;99;28.90
2021-06-04 16:33:58;v;4.05
2021-06-04 17:03:57;1;128;127;127;127;128;128;128;128;128;128;
2021-06-04 17:03:57;2;118;118;118;118;118;118;118;118;118;118;
2021-06-04 17:03:57;3;40;40;40;40;40;40;40;40;40;40;
2021-06-04 17:03:57;4;114;114;114;114;114;114;114;114;114;114;
2021-06-04 17:03:57;5;137;137;137;137;137;137;137;137;137;137;
2021-06-04 17:03:57;ht;99;28.00
2021-06-04 17:03:57;v;4.06
2021-06-04 17:33:53;1;122;122;122;122;122;122;122;122;122;123;
2021-06-04 17:33:53;2;115;115;115;115;114;115;115;115;115;115;
2021-06-04 17:33:53;3;41;42;41;41;41;41;41;41;41;41;
2021-06-04 17:33:53;4;110;110;110;110;110;110;110;110;110;110;
2021-06-04 17:33:53;5;122;122;122;122;122;122;122;122;122;122;
2021-06-04 17:33:53;ht;99;26.80
2021-06-04 17:33:53;v;4.06
2021-06-04 18:03:54;1;121;121;121;121;121;121;121;121;121;121;
2021-06-04 18:03:54;2;113;113;112;113;113;113;113;113;113;113;
2021-06-04 18:03:54;3;41;42;41;41;41;41;41;41;41;41;
2021-06-04 18:03:54;4;122;122;122;122;122;122;122;122;122;122;
2021-06-04 18:03:54;5;124;124;124;124;124;124;124;124;124;124;
2021-06-04 18:03:54;ht;99;25.40
2021-06-04 18:03:54;v;4.06
2021-06-04 18:33:52;1;126;126;126;126;126;126;126;126;126;126;
2021-06-04 18:33:52;2;115;115;115;115;115;115;115;115;115;114;
2021-06-04 18:33:52;3;41;41;41;41;41;41;41;41;41;41;
2021-06-04 18:33:52;4;128;128;128;128;128;128;128;128;128;128;
2021-06-04 18:33:52;5;127;127;127;127;127;127;127;127;127;127;
2021-06-04 18:33:52;ht;99;24.60
2021-06-04 18:33:52;v;4.05
2021-06-04 19:03:51;1;114;114;114;113;113;114;113;113;114;113;
2021-06-04 19:03:51;2;120;121;120;120;121;121;120;120;120;120;
2021-06-04 19:03:51;3;43;43;43;43;43;43;43;43;43;43;
2021-06-04 19:03:51;4;123;123;123;123;123;123;123;123;123;123;
2021-06-04 19:03:51;5;115;115;115;115;115;115;115;115;115;115;
2021-06-04 19:03:51;ht;99;24.90
2021-06-04 19:03:51;v;4.06
2021-06-04 19:33:53;1;120;120;120;120;120;120;120;120;120;120;
2021-06-04 19:33:53;2;121;121;121;121;121;121;121;121;121;121;
2021-06-04 19:33:53;3;42;42;42;42;42;42;42;42;42;42;
2021-06-04 19:33:53;4;114;115;115;115;115;115;115;115;115;115;
2021-06-04 19:33:53;5;117;117;117;117;117;117;117;117;117;117;
2021-06-04 19:33:53;ht;99;22.70
2021-06-04 19:33:53;v;4.06
2021-06-04 20:03:50;1;118;118;118;118;118;118;118;118;118;118;
2021-06-04 20:03:50;2;118;118;118;118;118;118;118;118;118;118;
2021-06-04 20:03:50;3;43;43;43;43;43;43;43;43;43;43;
2021-06-04 20:03:50;4;116;116;116;116;116;116;116;116;116;116;
2021-06-04 20:03:50;5;117;117;117;117;117;117;117;117;117;117;
2021-06-04 20:03:50;ht;99;22.70
2021-06-04 20:03:50;v;4.05
2021-06-04 20:33:51;1;119;119;119;119;119;119;119;119;119;119;
2021-06-04 20:33:51;2;115;116;116;116;116;116;116;116;116;116;
2021-06-04 20:33:51;3;44;44;44;44;44;44;44;44;44;44;
2021-06-04 20:33:51;4;118;118;117;118;118;118;118;118;118;118;
2021-06-04 20:33:51;5;121;121;121;121;121;121;121;121;121;121;
2021-06-04 20:33:51;ht;99;22.00
2021-06-04 20:33:51;v;4.05
2021-06-04 21:03:52;1;122;122;122;122;122;122;122;122;122;122;
2021-06-04 21:03:52;2;117;117;117;117;117;117;117;117;117;117;
2021-06-04 21:03:52;3;46;46;46;46;46;46;46;46;46;46;
2021-06-04 21:03:52;4;118;118;118;118;118;118;118;118;118;118;
2021-06-04 21:03:52;5;134;134;135;134;134;135;135;135;134;134;
2021-06-04 21:03:52;ht;99;22.50
2021-06-04 21:03:52;v;4.06
2021-06-04 21:33:48;1;123;123;123;123;123;123;123;123;123;123;
2021-06-04 21:33:48;2;123;123;123;123;123;123;123;123;123;123;
2021-06-04 21:33:48;3;44;44;44;44;44;44;44;44;44;44;
2021-06-04 21:33:48;4;121;121;121;121;121;121;121;121;121;121;
2021-06-04 21:33:48;5;132;132;132;133;133;133;133;133;133;133;
2021-06-04 21:33:48;ht;99;22.20
2021-06-04 21:33:48;v;4.06
2021-06-04 22:03:49;1;115;115;115;115;115;115;115;115;115;115;
2021-06-04 22:03:49;2;118;118;118;118;117;117;118;118;118;118;
2021-06-04 22:03:49;3;44;44;44;44;44;44;44;44;44;44;
2021-06-04 22:03:49;4;116;116;116;116;116;116;116;116;116;116;
2021-06-04 22:03:49;5;132;132;132;133;132;133;132;132;132;133;
2021-06-04 22:03:49;ht;99;22.20
2021-06-04 22:03:49;v;4.05
2021-06-04 22:33:50;1;121;121;121;121;121;121;121;121;121;121;
2021-06-04 22:33:50;2;116;116;116;116;116;116;116;116;116;116;
2021-06-04 22:33:50;3;43;43;43;43;43;43;44;43;43;43;
2021-06-04 22:33:50;4;115;115;115;115;115;115;115;115;115;115;
2021-06-04 22:33:50;5;117;117;117;117;117;117;117;117;117;117;
2021-06-04 22:33:50;ht;99;23.50
2021-06-04 22:33:50;v;4.06
2021-06-04 23:03:51;1;122;121;121;121;121;121;121;121;121;120;
2021-06-04 23:03:51;2;117;117;117;117;117;117;117;117;117;117;
2021-06-04 23:03:51;3;40;40;40;40;40;40;40;40;40;40;
2021-06-04 23:03:51;4;118;118;118;118;118;118;118;118;118;118;
2021-06-04 23:03:51;5;118;118;118;118;118;118;118;118;118;118;
2021-06-04 23:03:51;ht;99;22.00
2021-06-04 23:03:51;v;4.06
2021-06-04 23:33:48;1;123;123;123;123;123;123;123;123;123;123;
2021-06-04 23:33:48;2;117;117;117;117;117;117;117;117;117;117;
2021-06-04 23:33:48;3;40;40;40;40;40;40;40;40;40;40;
2021-06-04 23:33:48;4;115;115;115;115;115;115;115;115;115;115;
2021-06-04 23:33:48;5;113;113;113;114;113;114;114;114;114;114;
2021-06-04 23:33:48;ht;99;20.70
2021-06-04 23:33:48;v;4.06
