2021-10-11 00:00:42;4.12;138.89;92;16.10
2021-10-11 00:05:40;4.12;140.50;89;15.90
2021-10-11 00:10:43;4.12;140.50;84;15.80
2021-10-11 00:15:41;4.12;138.57;89;15.80
2021-10-11 00:20:39;4.12;138.89;88;15.60
2021-10-11 00:25:42;4.12;140.50;84;15.40
2021-10-11 00:30:40;4.12;140.82;78;15.50
2021-10-11 00:35:42;4.12;140.82;81;15.40
2021-10-11 00:40:40;4.12;139.21;79;15.30
2021-10-11 00:45:43;4.12;140.82;77;15.10
2021-10-11 00:50:41;4.12;140.82;73;15.00
2021-10-11 00:55:43;4.12;140.82;69;14.90
2021-10-11 01:00:41;4.12;140.82;66;14.70
2021-10-11 01:05:39;4.12;140.50;62;14.60
2021-10-11 01:10:42;4.12;138.89;56;14.70
2021-10-11 01:15:40;4.12;140.50;54;14.60
2021-10-11 01:20:42;4.12;140.50;49;14.50
2021-10-11 01:25:40;4.12;140.82;42;14.50
2021-10-11 01:30:43;4.12;141.47;37;14.50
2021-10-11 01:35:40;4.12;141.47;36;14.30
2021-10-11 01:40:43;4.12;141.47;28;14.30
2021-10-11 01:45:41;4.12;141.47;27;14.20
2021-10-11 01:50:43;4.12;141.79;19;14.20
2021-10-11 01:55:41;4.12;140.18;15;14.10
2021-10-11 02:00:39;4.12;141.79;10;14.00
2021-10-11 02:05:41;4.12;140.18;9;13.90
2021-10-11 02:10:39;4.12;141.79;4;13.80
2021-10-11 02:15:41;4.12;141.95;2;13.80
2021-10-11 02:20:39;4.12;141.95;2;13.80
2021-10-11 02:25:42;4.12;141.14;2;13.80
2021-10-11 02:30:39;4.12;140.82;2;13.70
2021-10-11 02:35:42;4.12;141.95;2;13.60
2021-10-11 02:40:39;4.12;141.95;2;13.70
2021-10-11 02:45:42;4.12;141.95;2;13.60
2021-10-11 02:50:40;4.12;141.95;2;13.60
2021-10-11 02:55:42;4.12;141.95;2;13.50
2021-10-11 03:00:40;4.12;141.95;2;13.50
2021-10-11 03:05:42;4.12;141.95;2;13.40
2021-10-11 03:10:40;4.12;141.79;2;13.30
2021-10-11 03:15:42;4.12;141.79;2;13.30
2021-10-11 03:20:40;4.12;141.79;2;13.20
2021-10-11 03:25:42;4.12;141.79;2;13.30
2021-10-11 03:30:40;4.12;141.79;2;13.30
2021-10-11 03:35:42;4.12;141.79;2;13.10
2021-10-11 03:40:40;4.12;140.50;2;13.00
2021-10-11 03:45:42;4.11;140.82;2;13.00
2021-10-11 03:50:40;4.11;140.50;2;12.90
2021-10-11 03:55:42;4.12;140.50;2;12.90
2021-10-11 04:00:40;4.12;140.50;2;12.80
2021-10-11 04:05:42;4.11;141.79;2;12.80
2021-10-11 04:10:40;4.11;141.79;2;12.60
2021-10-11 04:15:42;4.11;140.18;2;12.40
2021-10-11 04:20:39;4.11;141.79;2;12.00
2021-10-11 04:25:42;4.11;141.79;2;11.60
2021-10-11 04:30:39;4.11;141.79;2;11.40
2021-10-11 04:35:41;4.11;140.18;2;11.50
2021-10-11 04:40:39;4.11;139.85;2;11.70
2021-10-11 04:45:41;4.11;139.85;2;11.80
2021-10-11 04:50:39;4.11;139.53;2;11.80
2021-10-11 04:55:41;4.11;141.47;2;11.70
2021-10-11 05:00:43;4.11;141.47;2;11.80
2021-10-11 05:05:40;4.11;141.47;2;11.90
2021-10-11 05:10:43;4.11;141.47;2;12.00
2021-10-11 05:15:40;4.11;141.47;2;12.10
2021-10-11 05:20:42;4.11;139.85;2;12.00
2021-10-11 05:25:40;4.11;139.53;2;12.00
2021-10-11 05:30:42;4.11;139.85;2;12.00
2021-10-11 05:35:39;4.11;139.85;2;11.90
2021-10-11 05:40:42;4.11;139.53;2;11.90
2021-10-11 05:45:39;4.11;139.85;2;11.90
2021-10-11 05:50:41;4.11;139.53;2;11.80
2021-10-11 05:55:39;4.11;139.21;2;11.80
2021-10-11 06:00:41;4.11;141.14;2;11.70
2021-10-11 06:05:38;4.11;141.79;2;11.60
2021-10-11 06:10:41;4.11;139.85;2;11.60
2021-10-11 06:15:43;4.11;141.47;2;11.80
2021-10-11 06:20:40;4.11;139.85;2;12.00
2021-10-11 06:25:42;4.11;141.47;2;12.20
2021-10-11 06:30:40;4.11;141.14;2;12.30
2021-10-11 06:35:42;4.11;139.85;2;12.40
2021-10-11 06:40:40;4.11;139.85;2;12.40
2021-10-11 06:45:42;4.11;141.47;2;12.30
2021-10-11 06:50:39;4.11;139.53;2;12.30
2021-10-11 06:55:42;4.11;139.85;2;12.30
2021-10-11 07:00:39;4.11;139.21;2;12.40
2021-10-11 07:05:41;4.11;141.47;2;12.40
2021-10-11 07:10:39;4.11;139.53;2;12.50
2021-10-11 07:15:41;4.11;139.53;2;12.60
2021-10-11 07:20:39;4.11;141.47;2;12.90
2021-10-11 07:25:41;4.11;141.14;2;13.10
2021-10-11 07:30:39;4.11;139.85;2;13.20
2021-10-11 07:35:41;4.11;139.53;2;13.30
2021-10-11 07:40:39;4.11;139.85;2;13.40
2021-10-11 07:45:41;4.11;139.85;2;13.60
2021-10-11 07:50:39;4.11;141.47;2;13.80
2021-10-11 07:55:41;4.11;141.14;2;14.10
2021-10-11 08:00:39;4.12;141.47;2;14.20
2021-10-11 08:05:42;4.11;139.85;2;14.40
2021-10-11 08:10:40;4.11;139.85;2;14.80
2021-10-11 08:15:42;4.12;139.21;2;14.50
2021-10-11 08:20:40;4.12;141.47;2;14.80
2021-10-11 08:25:43;4.12;139.85;2;14.80
2021-10-11 08:30:41;4.12;141.47;2;14.90
2021-10-11 08:35:43;4.12;141.79;2;15.00
2021-10-11 08:40:41;4.12;139.53;2;15.50
2021-10-11 08:45:39;4.12;139.85;2;15.40
2021-10-11 08:50:42;4.12;139.53;2;15.40
2021-10-11 08:55:40;4.12;141.47;2;15.30
2021-10-11 09:00:43;4.12;139.53;2;15.50
2021-10-11 09:05:41;4.12;141.47;2;15.40
2021-10-11 09:10:39;4.12;141.47;2;15.60
2021-10-11 09:15:42;4.12;139.85;2;15.70
2021-10-11 09:20:40;4.12;139.53;2;16.80
2021-10-11 09:25:43;4.12;141.47;72;16.90
2021-10-11 09:30:41;4.12;141.47;85;16.90
2021-10-11 09:35:40;4.12;139.53;92;17.50
2021-10-11 09:40:43;4.12;141.79;99;18.20
2021-10-11 09:45:41;4.12;141.47;99;18.20
2021-10-11 09:50:40;4.12;141.47;99;18.60
2021-10-11 09:55:43;4.12;139.53;99;18.90
2021-10-11 10:00:42;4.12;139.53;99;19.20
2021-10-11 10:05:40;4.12;141.79;99;19.80
2021-10-11 10:10:44;4.12;139.85;99;19.60
2021-10-11 10:15:42;4.12;139.85;99;20.20
2021-10-11 10:20:41;4.12;139.85;99;20.10
2021-10-11 10:25:40;4.12;140.18;99;20.50
2021-10-11 10:30:39;4.12;139.85;99;20.50
2021-10-11 10:35:43;4.12;141.47;99;20.10
2021-10-11 10:40:41;4.12;141.79;99;20.60
2021-10-11 10:45:40;4.12;141.79;99;21.70
2021-10-11 10:50:44;4.12;141.79;99;20.80
2021-10-11 10:55:38;4.12;141.79;99;22.00
2021-10-11 11:00:42;4.12;140.18;99;21.30
2021-10-11 11:05:41;4.12;139.53;99;22.00
2021-10-11 11:10:40;4.12;141.79;99;22.10
2021-10-11 11:15:39;4.12;139.53;98;22.70
2021-10-11 11:20:43;4.12;140.18;99;22.20
2021-10-11 11:25:43;4.12;141.79;97;22.90
2021-10-11 11:30:42;4.12;141.47;96;22.80
2021-10-11 11:35:41;4.12;141.47;95;23.40
2021-10-11 11:40:40;4.12;139.53;93;24.20
2021-10-11 11:45:44;4.12;141.47;93;24.20
2021-10-11 11:50:39;4.12;139.85;91;24.20
2021-10-11 11:55:43;4.12;139.53;88;24.60
2021-10-11 12:00:42;4.12;141.79;86;25.20
2021-10-11 12:05:42;4.12;141.47;85;25.10
2021-10-11 12:10:41;4.12;141.47;86;24.90
2021-10-11 12:15:40;4.12;139.85;84;25.40
2021-10-11 12:20:45;4.12;139.53;83;24.50
2021-10-11 12:25:44;4.12;141.47;83;25.20
2021-10-11 12:30:44;4.13;141.47;81;25.10
2021-10-11 12:35:43;4.13;141.79;81;24.90
2021-10-11 12:40:42;4.13;141.47;81;25.50
2021-10-11 12:45:42;4.13;139.85;79;25.40
2021-10-11 12:50:41;4.13;139.85;78;26.10
2021-10-11 12:55:41;4.13;139.53;80;25.10
2021-10-11 13:00:41;4.13;141.79;77;26.10
2021-10-11 13:05:45;4.13;140.18;78;26.00
2021-10-11 13:10:44;4.13;141.79;77;26.40
2021-10-11 13:15:44;4.13;140.50;78;25.80
2021-10-11 13:20:44;4.13;141.79;76;26.20
2021-10-11 13:25:43;4.13;141.79;79;24.90
2021-10-11 13:30:43;4.13;139.85;76;25.90
2021-10-11 13:35:43;4.13;141.79;76;26.20
2021-10-11 13:40:42;4.13;141.79;77;25.30
2021-10-11 13:45:42;4.13;139.85;75;26.00
2021-10-11 13:50:42;4.13;140.18;77;25.50
2021-10-11 13:55:41;4.13;140.18;75;26.20
2021-10-11 14:00:41;4.13;141.79;73;27.00
2021-10-11 14:05:45;4.13;140.18;72;27.50
2021-10-11 14:10:40;4.13;141.79;73;27.20
2021-10-11 14:15:44;4.13;141.79;74;26.40
2021-10-11 14:20:44;4.13;141.79;72;26.20
2021-10-11 14:25:44;4.13;139.85;72;26.40
2021-10-11 14:30:44;4.13;140.18;73;27.20
2021-10-11 14:35:43;4.13;140.18;71;27.30
2021-10-11 14:40:43;4.13;140.50;72;26.30
2021-10-11 14:45:43;4.13;140.18;72;26.40
2021-10-11 14:50:42;4.13;141.79;71;27.10
2021-10-11 14:55:42;4.13;141.79;69;28.00
2021-10-11 15:00:42;4.13;141.79;70;27.90
2021-10-11 15:05:42;4.13;140.18;71;27.10
2021-10-11 15:10:41;4.13;141.79;74;26.00
2021-10-11 15:15:41;4.13;141.79;73;27.00
2021-10-11 15:20:41;4.13;141.79;72;26.60
2021-10-11 15:25:41;4.13;141.79;71;26.90
2021-10-11 15:30:45;4.13;140.50;73;26.20
2021-10-11 15:35:40;4.13;140.18;73;26.80
2021-10-11 15:40:45;4.13;141.95;70;27.60
2021-10-11 15:45:44;4.13;141.95;71;26.90
2021-10-11 15:50:44;4.13;141.95;71;27.10
2021-10-11 15:55:44;4.13;140.82;70;28.20
2021-10-11 16:00:44;4.13;140.82;69;28.10
2021-10-11 16:05:43;4.13;141.95;70;26.80
2021-10-11 16:10:43;4.13;140.82;70;27.00
2021-10-11 16:15:43;4.13;140.82;70;27.80
2021-10-11 16:20:43;4.13;141.95;70;27.20
2021-10-11 16:25:43;4.13;140.50;72;26.30
2021-10-11 16:30:43;4.13;142.27;72;26.90
2021-10-11 16:35:42;4.13;140.50;71;27.30
2021-10-11 16:40:42;4.13;141.14;71;27.30
2021-10-11 16:45:42;4.13;142.59;69;27.20
2021-10-11 16:50:42;4.13;141.79;70;27.00
2021-10-11 16:55:41;4.13;142.92;70;26.50
2021-10-11 17:00:41;4.13;143.24;70;26.60
2021-10-11 17:05:41;4.13;141.47;69;27.20
2021-10-11 17:10:45;4.13;141.79;70;26.70
2021-10-11 17:15:40;4.13;141.79;70;26.80
2021-10-11 17:20:45;4.13;141.79;69;26.60
2021-10-11 17:25:44;4.13;141.79;70;26.90
2021-10-11 17:30:44;4.13;143.24;72;26.20
2021-10-11 17:35:44;4.13;143.24;72;26.30
2021-10-11 17:40:43;4.13;141.79;71;26.60
2021-10-11 17:45:43;4.13;143.24;72;26.20
2021-10-11 17:50:42;4.13;142.92;73;26.20
2021-10-11 17:55:42;4.13;141.79;72;26.20
2021-10-11 18:00:42;4.13;141.47;73;25.90
2021-10-11 18:05:41;4.13;142.92;74;26.00
2021-10-11 18:10:41;4.13;142.92;73;25.80
2021-10-11 18:15:45;4.13;141.14;75;25.70
2021-10-11 18:20:44;4.13;142.59;75;25.50
2021-10-11 18:25:44;4.13;141.47;76;25.30
2021-10-11 18:30:43;4.13;142.59;77;25.10
2021-10-11 18:35:43;4.13;141.14;79;24.80
2021-10-11 18:40:42;4.13;142.59;79;24.50
2021-10-11 18:45:41;4.13;142.27;79;24.20
2021-10-11 18:50:41;4.13;141.14;80;23.80
2021-10-11 18:55:44;4.13;142.27;81;23.50
2021-10-11 19:00:44;4.13;141.95;83;22.90
2021-10-11 19:05:43;4.13;142.27;84;22.60
2021-10-11 19:10:42;4.13;141.14;85;22.20
2021-10-11 19:15:41;4.13;140.50;86;21.90
2021-10-11 19:20:44;4.13;140.50;87;21.40
2021-10-11 19:25:43;4.13;141.14;89;21.00
2021-10-11 19:30:42;4.13;140.50;90;20.50
2021-10-11 19:35:40;4.13;140.50;91;20.30
2021-10-11 19:40:43;4.13;140.82;92;19.90
2021-10-11 19:45:42;4.13;141.95;94;19.50
2021-10-11 19:50:40;4.13;140.82;94;19.20
2021-10-11 19:55:43;4.13;141.79;95;19.00
2021-10-11 20:00:41;4.13;141.95;95;18.90
2021-10-11 20:05:40;4.13;141.95;96;18.70
2021-10-11 20:10:43;4.13;141.95;96;18.70
2021-10-11 20:15:41;4.13;140.50;96;18.70
2021-10-11 20:20:44;4.13;140.18;95;19.00
2021-10-11 20:25:42;4.13;141.79;95;19.10
2021-10-11 20:30:40;4.13;140.50;95;19.00
2021-10-11 20:35:43;4.13;140.50;95;18.90
2021-10-11 20:40:41;4.13;141.79;95;18.90
2021-10-11 20:45:43;4.13;140.18;95;18.80
2021-10-11 20:50:41;4.13;141.79;96;18.50
2021-10-11 20:55:39;4.13;140.50;96;18.60
2021-10-11 21:00:42;4.13;141.79;95;18.80
2021-10-11 21:05:40;4.13;140.18;95;18.60
2021-10-11 21:10:43;4.13;141.79;96;18.50
2021-10-11 21:15:41;4.13;140.50;96;18.30
2021-10-11 21:20:43;4.13;141.79;97;17.90
2021-10-11 21:25:41;4.13;140.18;96;17.30
2021-10-11 21:30:39;4.13;141.79;99;17.50
2021-10-11 21:35:42;4.13;139.85;99;17.50
2021-10-11 21:40:40;4.13;140.18;98;17.70
2021-10-11 21:45:42;4.13;140.18;98;17.70
2021-10-11 21:50:40;4.13;141.79;99;16.30
2021-10-11 21:55:43;4.13;141.79;99;15.60
2021-10-11 22:00:41;4.13;140.18;99;15.40
2021-10-11 22:05:43;4.13;141.79;99;15.50
2021-10-11 22:10:41;4.13;140.18;99;15.00
2021-10-11 22:15:43;4.13;141.79;99;15.00
2021-10-11 22:20:41;4.13;139.85;99;14.90
2021-10-11 22:25:43;4.13;140.18;99;14.70
2021-10-11 22:30:41;4.13;141.79;99;15.80
2021-10-11 22:35:43;4.13;141.79;99;15.50
2021-10-11 22:40:40;4.13;141.79;99;15.00
2021-10-11 22:45:43;4.13;139.85;99;14.90
2021-10-11 22:50:40;4.13;141.79;99;14.20
2021-10-11 22:55:42;4.13;140.50;99;13.80
2021-10-11 23:00:40;4.13;139.85;99;13.70
2021-10-11 23:05:42;4.13;140.50;99;13.50
2021-10-11 23:10:40;4.13;141.79;99;13.10
2021-10-11 23:15:42;4.13;140.18;99;12.80
2021-10-11 23:20:39;4.13;140.18;99;12.80
2021-10-11 23:25:41;4.13;140.50;99;12.70
2021-10-11 23:30:38;4.13;140.18;99;12.90
2021-10-11 23:35:40;4.13;140.50;99;13.10
2021-10-11 23:40:42;4.13;141.79;99;13.40
2021-10-11 23:45:40;4.13;141.79;99;13.60
2021-10-11 23:50:42;4.13;141.95;99;13.40
2021-10-11 23:55:39;4.13;140.50;99;13.00
