2021-07-23 00:04:15;4.13;164.67;99;9.90
2021-07-23 00:34:16;4.12;163.70;99;9.90
2021-07-23 01:04:17;4.12;164.02;99;9.50
2021-07-23 01:34:17;4.12;165.63;99;9.80
2021-07-23 02:04:13;4.12;165.96;99;9.90
2021-07-23 02:34:14;4.12;164.67;99;8.70
2021-07-23 03:04:14;4.12;165.31;99;9.50
2021-07-23 03:34:14;4.12;163.38;99;9.00
2021-07-23 04:04:15;4.12;164.99;94;8.60
2021-07-23 04:34:15;4.12;165.63;91;8.20
2021-07-23 05:04:14;4.12;165.63;84;8.30
2021-07-23 05:34:14;4.12;164.67;61;7.70
2021-07-23 06:04:13;4.12;166.28;75;8.00
2021-07-23 06:34:13;4.12;166.44;84;8.10
2021-07-23 07:04:17;4.12;166.44;70;7.50
2021-07-23 07:34:12;4.12;164.67;75;7.90
2021-07-23 08:04:16;4.12;164.99;53;7.00
2021-07-23 08:34:15;4.12;163.38;84;8.70
2021-07-23 09:04:16;4.12;163.06;99;10.80
2021-07-23 09:34:18;4.12;162.73;99;14.10
2021-07-23 10:04:19;4.12;163.06;99;16.60
2021-07-23 10:34:21;4.12;164.67;91;20.00
2021-07-23 11:04:22;4.12;163.70;81;22.50
2021-07-23 11:34:25;4.13;164.67;74;23.90
2021-07-23 12:04:28;4.13;164.67;64;27.20
2021-07-23 12:34:30;4.13;166.76;64;27.10
2021-07-23 13:04:28;4.13;165.63;61;28.70
2021-07-23 13:34:33;4.13;165.31;56;29.70
2021-07-23 14:04:34;4.13;165.96;52;31.00
2021-07-23 14:34:31;4.13;164.99;52;31.60
2021-07-23 15:04:32;4.13;166.76;51;31.30
2021-07-23 15:34:35;4.13;167.41;51;31.10
2021-07-23 16:04:32;4.13;166.44;51;31.50
2021-07-23 16:34:34;4.13;164.67;54;30.90
2021-07-23 17:04:31;4.14;164.02;56;29.90
2021-07-23 17:34:31;4.14;165.96;62;28.30
2021-07-23 18:04:30;4.14;164.67;70;25.00
2021-07-23 18:34:26;4.14;166.76;82;21.90
2021-07-23 19:04:23;4.14;164.99;92;19.80
2021-07-23 19:34:24;4.13;165.31;98;18.70
2021-07-23 20:04:23;4.13;165.63;99;18.40
2021-07-23 20:34:21;4.13;166.76;99;18.20
2021-07-23 21:04:24;4.13;166.28;99;17.70
2021-07-23 21:34:21;4.13;165.31;99;16.50
2021-07-23 22:04:23;4.13;164.67;99;16.60
2021-07-23 22:34:20;4.13;163.38;99;15.70
2021-07-23 23:04:20;4.13;162.73;99;15.30
2021-07-23 23:34:20;4.13;163.06;99;14.20
