2021-07-18 00:04:14;4.11;162.41;97;3.80
2021-07-18 00:34:10;4.11;161.93;92;4.50
2021-07-18 01:04:12;4.11;160.96;94;3.80
2021-07-18 01:34:13;4.11;162.25;92;4.00
2021-07-18 02:04:14;4.11;160.96;92;4.00
2021-07-18 02:34:11;4.11;161.28;92;3.90
2021-07-18 03:04:12;4.11;163.06;94;3.40
2021-07-18 03:34:13;4.10;161.93;96;3.00
2021-07-18 04:04:09;4.10;164.02;99;2.20
2021-07-18 04:34:10;4.10;164.02;99;2.40
2021-07-18 05:04:10;4.10;163.38;99;1.70
2021-07-18 05:34:10;4.10;162.73;99;1.90
2021-07-18 06:04:10;4.10;160.96;99;1.60
2021-07-18 06:34:10;4.10;160.96;99;1.30
2021-07-18 07:04:10;4.10;162.41;99;0.90
2021-07-18 07:34:09;4.10;162.41;99;0.60
2021-07-18 08:04:09;4.10;162.73;99;0.40
2021-07-18 08:34:13;4.10;161.61;99;1.40
2021-07-18 09:04:13;4.10;161.61;99;2.50
2021-07-18 09:34:15;4.10;163.06;97;4.50
2021-07-18 10:04:13;4.10;161.61;96;6.10
2021-07-18 10:34:17;4.10;163.38;92;7.70
2021-07-18 11:04:18;4.10;162.25;91;9.00
2021-07-18 11:34:14;4.11;162.41;89;10.00
2021-07-18 12:04:16;4.11;163.38;85;11.30
2021-07-18 12:34:19;4.11;162.25;83;11.90
2021-07-18 13:04:18;4.11;162.41;82;12.40
2021-07-18 13:34:18;4.11;163.38;78;12.70
2021-07-18 14:04:18;4.11;162.41;77;13.30
2021-07-18 14:34:18;4.11;164.99;74;13.70
2021-07-18 15:04:19;4.11;165.31;73;13.80
2021-07-18 15:34:19;4.12;163.38;71;13.80
2021-07-18 16:04:20;4.12;163.38;69;14.30
2021-07-18 16:34:20;4.12;163.38;67;13.70
2021-07-18 17:04:21;4.12;162.41;70;13.80
2021-07-18 17:34:21;4.12;163.06;70;13.20
2021-07-18 18:04:21;4.12;164.67;77;11.40
2021-07-18 18:34:19;4.11;164.02;84;9.20
2021-07-18 19:04:15;4.11;162.73;94;6.50
2021-07-18 19:34:14;4.11;163.06;97;5.10
2021-07-18 20:04:12;4.11;161.93;99;5.00
2021-07-18 20:34:14;4.11;162.25;99;4.30
2021-07-18 21:04:11;4.11;163.38;99;4.60
2021-07-18 21:34:12;4.11;164.02;99;3.50
2021-07-18 22:04:13;4.11;164.35;99;3.30
2021-07-18 22:34:13;4.11;163.38;99;1.20
2021-07-18 23:04:13;4.11;164.99;99;0.10
2021-07-18 23:34:12;4.11;164.99;99;0.70
