2021-07-26 00:04:17;4.12;162.73;99;7.90
2021-07-26 00:34:12;4.12;164.02;81;6.60
2021-07-26 01:04:15;4.12;163.38;74;5.70
2021-07-26 01:34:14;4.12;161.61;82;5.60
2021-07-26 02:04:11;4.12;161.28;94;5.20
2021-07-26 02:34:14;4.12;161.28;99;6.30
2021-07-26 03:04:12;4.12;163.38;99;6.40
2021-07-26 03:34:15;4.12;164.02;99;7.40
2021-07-26 04:04:14;4.12;163.38;99;7.30
2021-07-26 04:34:13;4.12;165.31;99;6.80
2021-07-26 05:04:16;4.12;163.70;99;6.70
2021-07-26 05:34:15;4.12;165.31;99;6.50
2021-07-26 06:04:14;4.12;162.73;88;6.10
2021-07-26 06:34:12;4.12;163.70;77;5.60
2021-07-26 07:04:14;4.12;162.25;84;6.00
2021-07-26 07:34:13;4.11;162.73;67;6.90
2021-07-26 08:04:16;4.12;161.28;83;6.60
2021-07-26 08:34:15;4.11;162.25;87;5.80
2021-07-26 09:04:13;4.12;160.96;99;6.70
2021-07-26 09:34:13;4.12;160.96;99;7.60
2021-07-26 10:04:14;4.12;162.25;99;9.70
2021-07-26 10:34:16;4.12;162.41;99;11.00
2021-07-26 11:04:19;4.12;160.64;99;12.70
2021-07-26 11:34:18;4.12;160.96;86;14.10
2021-07-26 12:04:18;4.12;161.61;76;15.80
2021-07-26 12:34:20;4.12;163.06;74;16.50
2021-07-26 13:04:22;4.12;162.25;71;16.40
2021-07-26 13:34:21;4.12;162.41;69;16.80
2021-07-26 14:04:24;4.12;163.06;71;17.50
2021-07-26 14:34:23;4.13;162.73;68;17.90
2021-07-26 15:04:21;4.13;162.41;69;18.30
2021-07-26 15:34:21;4.13;161.93;66;18.80
2021-07-26 16:04:25;4.13;161.61;64;18.20
2021-07-26 16:34:24;4.13;160.96;65;18.10
2021-07-26 17:04:23;4.13;160.96;66;17.90
2021-07-26 17:34:22;4.13;160.64;67;17.10
2021-07-26 18:04:20;4.13;160.96;72;15.90
2021-07-26 18:34:22;4.13;160.96;78;13.90
2021-07-26 19:04:16;4.13;162.73;82;12.80
2021-07-26 19:34:20;4.13;163.06;82;12.50
2021-07-26 20:04:18;4.12;162.73;80;12.70
2021-07-26 20:34:16;4.12;160.00;82;11.90
2021-07-26 21:04:18;4.12;161.28;82;11.00
2021-07-26 21:34:16;4.12;159.35;82;11.10
2021-07-26 22:04:18;4.12;160.64;85;10.20
2021-07-26 22:34:14;4.12;159.35;87;9.00
2021-07-26 23:04:15;4.12;158.71;84;8.60
2021-07-26 23:34:15;4.12;159.03;83;8.10
