2021-07-27 00:04:14;4.12;160.00;84;7.30
2021-07-27 00:34:14;4.12;160.32;85;6.70
2021-07-27 01:04:12;4.12;158.71;90;5.30
2021-07-27 01:34:15;4.12;160.64;91;4.60
2021-07-27 02:04:12;4.12;159.67;93;4.10
2021-07-27 02:34:13;4.12;160.00;97;3.10
2021-07-27 03:04:09;4.12;161.61;94;3.50
2021-07-27 03:34:10;4.12;160.96;99;2.10
2021-07-27 04:04:10;4.11;161.28;99;1.40
2021-07-27 04:34:10;4.11;162.73;99;0.10
2021-07-27 05:04:09;4.11;161.93;99;-0.50
2021-07-27 05:34:08;4.11;160.96;99;-0.20
2021-07-27 06:04:12;4.11;161.93;99;-0.10
2021-07-27 06:34:10;4.11;161.61;99;-0.60
2021-07-27 07:04:09;4.11;161.61;99;-0.90
2021-07-27 07:34:12;4.11;160.96;99;-1.90
2021-07-27 08:04:10;4.11;160.64;99;-1.90
2021-07-27 08:34:08;4.11;160.96;99;-0.30
2021-07-27 09:04:12;4.11;161.28;96;2.40
2021-07-27 09:34:13;4.11;159.67;90;4.30
2021-07-27 10:04:11;4.11;159.67;82;6.00
2021-07-27 10:34:15;4.11;160.32;72;8.80
2021-07-27 11:04:16;4.11;160.32;70;9.90
2021-07-27 11:34:18;4.12;160.96;60;11.80
2021-07-27 12:04:17;4.12;162.41;55;13.20
2021-07-27 12:34:21;4.12;163.06;53;13.80
2021-07-27 13:04:21;4.12;160.96;54;13.60
2021-07-27 13:34:18;4.12;161.93;52;14.50
2021-07-27 14:04:19;4.12;161.93;51;14.80
2021-07-27 14:34:21;4.12;162.25;50;15.20
2021-07-27 15:04:22;4.12;162.41;49;15.10
2021-07-27 15:34:19;4.12;163.06;50;15.40
2021-07-27 16:04:20;4.12;163.70;49;15.50
2021-07-27 16:34:22;4.12;162.41;49;15.20
2021-07-27 17:04:19;4.12;162.25;49;14.90
2021-07-27 17:34:20;4.12;161.28;49;14.40
2021-07-27 18:04:21;4.12;160.64;52;13.30
2021-07-27 18:34:20;4.12;162.41;57;11.30
2021-07-27 19:04:18;4.12;162.25;60;10.30
2021-07-27 19:34:15;4.12;160.64;64;9.20
2021-07-27 20:04:15;4.12;162.25;69;8.50
2021-07-27 20:34:15;4.12;162.25;73;7.80
2021-07-27 21:04:15;4.12;161.28;77;6.90
2021-07-27 21:34:13;4.12;162.41;81;5.70
2021-07-27 22:04:11;4.12;162.73;86;4.50
2021-07-27 22:34:13;4.11;162.73;88;4.10
2021-07-27 23:04:10;4.11;161.61;90;3.80
2021-07-27 23:34:12;4.11;162.73;87;4.50
