2021-4-15 0:2:34;4.29;99;16.20;11;0.396;0.078;20.31;68.5;0.073;27.7851;26.335;28.117;28.172;275;275;275;275;275;275;275;275;274;274;848;848;848;848;848;848;848;848;848;848;313;313;313;313;313;313;313;313;313;313
2021-4-15 0:32:34;4.28;99;15.80;11;0.396;0.078;20.31;68.5;0.073;27.7851;26.335;28.117;28.172;274;274;274;274;274;274;274;274;274;274;848;848;848;848;848;848;848;848;848;848;329;329;329;329;329;329;329;329;329;329
2021-4-15 1:2:34;4.28;99;15.20;11;0.396;0.078;20.31;68.5;0.073;27.7851;26.335;28.117;28.172;274;274;273;273;273;274;274;274;273;273;848;848;848;848;848;848;848;848;848;848;326;326;326;326;326;326;326;326;326;326
2021-4-15 1:32:34;4.28;99;15.50;11;0.396;0.078;20.31;68.5;0.073;27.7851;26.335;28.117;28.172;273;273;273;273;273;273;273;273;273;273;848;848;848;848;848;848;848;848;848;848;303;303;303;303;303;303;303;303;303;303
2021-4-15 2:2:34;4.28;99;16.40;11;0.396;0.078;20.31;68.5;0.073;27.7851;26.335;28.117;28.172;274;274;273;274;274;274;274;273;273;273;848;848;848;848;848;848;848;848;848;848;320;320;320;320;320;320;320;320;320;320
2021-4-15 2:32:35;4.28;99;16.10;11;0.396;0.078;20.31;68.5;0.073;27.7851;26.335;28.117;28.172;272;272;272;272;272;272;272;272;272;272;848;848;848;848;848;848;848;848;848;848;315;315;315;315;315;315;315;315;315;315
2021-4-15 3:2:36;4.28;99;15.80;11;0.396;0.078;20.31;68.5;0.073;27.7851;26.335;28.117;28.172;299;299;299;299;299;299;299;299;299;299;848;849;848;848;848;848;848;849;848;848;303;303;303;303;303;303;303;303;303;303
2021-4-15 3:32:36;4.28;99;16.00;11;0.396;0.078;20.31;68.5;0.073;27.7851;26.335;28.117;28.172;299;299;299;299;299;299;299;299;299;299;849;849;849;849;849;849;849;849;849;849;308;307;307;307;307;307;307;308;308;308
2021-4-15 4:2:37;4.28;99;15.70;11;0.396;0.078;20.31;68.5;0.073;27.7851;26.335;28.117;28.172;300;300;300;300;300;300;300;300;300;300;848;849;848;848;849;849;848;849;849;848;305;305;305;305;305;305;305;305;305;305
2021-4-15 4:32:32;4.27;99;15.10;11;0.396;0.078;20.31;68.5;0.073;27.7851;26.335;28.117;28.172;300;300;300;300;300;300;300;300;300;300;849;849;849;849;849;849;849;849;849;849;303;303;303;303;303;303;303;303;303;303
2021-4-15 5:2:32;4.27;99;15.00;11;0.396;0.078;20.31;68.5;0.073;27.7851;26.335;28.117;28.172;300;300;300;300;300;300;300;300;300;300;849;849;850;850;850;850;850;850;850;850;300;300;300;300;300;300;300;300;300;300
2021-4-15 5:32:36;4.27;99;15.40;11;0.396;0.078;20.31;68.5;0.073;27.7851;26.335;28.117;28.172;301;301;301;300;300;301;301;301;300;301;850;850;850;850;850;850;850;850;850;850;297;297;297;297;297;297;297;297;297;297
2021-4-15 6:2:36;4.27;99;14.90;11;0.396;0.078;20.31;68.5;0.073;27.7851;26.335;28.117;28.172;301;301;301;301;301;301;301;301;301;301;850;851;851;850;851;851;851;851;851;851;290;289;289;289;289;289;289;289;289;289
2021-4-15 6:32:36;4.27;99;15.00;11;0.396;0.078;20.31;68.5;0.073;27.7851;26.335;28.117;28.172;301;301;301;301;301;301;301;301;301;301;851;851;851;851;851;851;851;851;851;851;304;304;304;304;304;304;304;304;304;304
2021-4-15 7:2:35;4.27;99;14.50;11;0.396;0.078;20.31;68.5;0.073;27.7851;26.335;28.117;28.172;302;301;301;301;301;301;301;301;301;301;851;852;852;852;852;852;852;852;852;852;294;294;294;294;294;294;293;294;294;294
2021-4-15 7:32:34;4.27;99;14.00;11;0.398;0.077;20.31;68.5;0.072;27.9851;25.875;28.319;27.681;301;301;301;301;301;301;301;301;301;301;851;851;851;851;851;851;851;851;851;851;292;291;291;291;291;291;291;291;291;291
2021-4-15 8:2:33;4.27;99;15.70;11;0.398;0.077;20.31;68.5;0.072;27.9851;25.875;28.319;27.681;302;302;302;302;302;302;302;302;302;302;852;852;852;852;852;852;852;852;852;852;297;297;297;297;297;297;297;297;297;297
2021-4-15 8:32:33;4.28;99;18.00;11;0.396;0.078;20.31;68.5;0.073;27.7851;26.335;28.117;28.172;304;304;304;304;304;304;304;304;304;304;852;852;852;852;852;852;852;852;852;852;304;304;303;303;303;303;303;303;304;303
2021-4-15 9:2:35;4.30;99;20.00;11;0.398;0.077;20.31;68.5;0.072;27.9851;25.875;28.319;27.681;304;304;304;304;304;304;304;304;304;304;852;852;852;852;852;852;852;852;852;852;305;305;304;304;304;305;305;305;305;304
2021-4-15 9:32:38;4.31;99;21.80;11;0.398;0.077;20.31;68.5;0.072;27.9851;25.875;28.319;27.681;304;304;304;304;304;304;304;304;304;304;852;852;852;852;852;852;852;852;852;852;303;303;303;303;303;303;303;303;303;303
2021-4-15 10:2:39;4.33;97;25.40;11;0.390;0.079;20.31;68.5;0.074;27.2471;26.483;27.573;28.331;306;306;306;306;306;306;306;306;306;306;852;852;852;852;852;852;852;852;852;852;308;307;307;308;307;307;307;308;307;308
2021-4-15 10:32:42;4.35;59;30.90;11;0.390;0.079;20.31;68.5;0.074;27.2471;26.483;27.573;28.331;307;307;307;307;307;307;307;307;307;307;851;851;851;851;852;852;852;852;852;852;308;308;308;308;308;308;308;308;308;308
2021-4-15 11:2:46;4.38;47;36.60;11;0.398;0.077;20.31;68.5;0.072;27.9851;25.875;28.319;27.681;309;309;309;309;309;309;309;309;309;309;850;851;851;851;851;851;851;851;851;851;324;324;324;324;324;324;324;324;324;324
2021-4-15 11:32:51;4.39;44;37.80;11;0.390;0.079;20.31;68.5;0.074;27.2471;26.483;27.573;28.331;309;309;309;309;309;309;309;309;309;309;849;849;850;850;850;850;850;850;850;850;302;302;302;302;302;302;302;302;302;302
2021-4-15 12:2:56;4.40;33;42.80;11;0.398;0.077;20.31;68.5;0.072;27.9851;25.875;28.319;27.681;308;308;308;308;308;308;308;308;308;308;849;849;849;849;849;849;849;849;849;849;303;303;303;303;303;303;303;303;303;303
2021-4-15 12:33:0;4.41;28;42.10;11;0.398;0.077;20.31;68.5;0.072;27.9851;25.875;28.319;27.681;309;309;309;309;309;309;309;309;309;309;848;849;848;848;849;849;848;848;848;848;294;293;293;293;293;293;293;293;293;293
2021-4-15 13:3:1;4.41;39;37.90;11;0.398;0.077;20.31;68.5;0.072;27.9851;25.875;28.319;27.681;309;309;309;309;309;309;308;309;308;309;848;849;849;849;849;849;849;849;849;849;304;304;304;304;304;304;304;304;304;304
2021-4-15 13:32:58;4.41;28;42.90;11;0.390;0.079;20.31;68.5;0.074;27.2471;26.483;27.573;28.331;309;309;309;309;309;309;309;309;309;309;848;848;848;848;848;848;848;848;848;848;313;313;313;313;313;313;313;313;313;313
2021-4-15 14:3:0;4.41;33;42.90;11;0.390;0.079;20.31;68.5;0.074;27.2471;26.483;27.573;28.331;309;309;309;309;309;309;309;309;309;309;847;848;848;848;848;848;848;848;848;848;298;298;298;298;298;298;298;298;298;298
2021-4-15 14:33:2;4.41;41;33.80;11;0.390;0.079;20.31;68.5;0.074;27.2471;26.483;27.573;28.331;310;310;310;310;310;310;310;310;310;310;847;847;848;848;847;848;847;848;847;848;308;308;308;308;308;308;308;308;308;308
2021-4-15 15:2:56;4.40;39;34.50;11;0.390;0.079;20.31;68.5;0.074;27.2471;26.483;27.573;28.331;311;311;311;311;311;311;311;311;311;311;847;847;847;847;847;847;847;847;847;847;296;296;296;296;296;296;296;296;296;296
2021-4-15 15:32:53;4.39;41;32.60;11;0.392;0.077;20.31;68.5;0.072;27.4571;26.023;27.785;27.839;312;311;312;311;312;312;312;312;312;312;847;847;847;847;847;847;847;847;847;847;310;310;310;310;310;310;310;310;310;310
2021-4-15 16:2:52;4.38;52;29.60;11;0.400;0.076;20.31;68.5;0.071;28.1751;25.423;28.511;27.197;311;311;311;311;311;310;311;311;311;311;847;847;847;847;847;847;847;847;847;847;294;294;294;293;293;294;294;293;293;293
2021-4-15 16:32:51;4.37;56;28.50;11;0.392;0.077;20.31;68.5;0.072;27.4571;26.023;27.785;27.839;311;311;311;311;311;311;311;311;311;311;847;847;847;847;847;847;847;847;847;847;303;302;302;302;302;302;302;302;302;302
2021-4-15 17:2:48;4.38;52;29.80;11;0.400;0.076;20.31;68.5;0.071;28.1751;25.423;28.511;27.197;312;312;312;312;312;312;312;312;312;312;846;846;846;846;846;846;846;846;846;846;303;302;302;302;302;302;302;302;302;302
2021-4-15 17:32:50;4.37;53;29.00;11;0.384;0.079;20.31;68.5;0.074;26.7071;26.630;27.026;28.488;311;311;311;311;311;311;311;311;311;311;846;846;846;846;846;846;846;846;846;846;307;307;307;307;307;307;307;307;307;307
2021-4-15 18:2:46;4.35;81;25.90;11;0.392;0.077;20.31;68.5;0.072;27.4571;26.023;27.785;27.839;308;308;308;308;308;308;308;308;308;308;846;846;846;846;846;846;846;846;846;846;310;310;310;310;310;310;310;310;310;310
2021-4-15 18:32:44;4.34;99;23.70;11;0.392;0.077;20.31;68.5;0.072;27.4571;26.023;27.785;27.839;306;306;306;306;306;306;306;306;306;306;845;845;845;845;845;845;845;845;845;845;294;293;293;294;294;293;294;293;294;293
2021-4-15 19:2:44;4.33;99;21.90;11;0.396;0.077;20.31;68.5;0.072;27.8531;25.781;28.186;27.579;305;305;305;305;305;305;305;305;305;305;846;846;846;846;846;846;846;846;846;846;309;309;309;309;309;309;309;309;309;309
2021-4-15 19:32:42;4.32;99;20.60;11;0.392;0.077;20.31;68.5;0.072;27.4571;26.023;27.785;27.839;302;302;302;302;302;302;302;302;302;302;845;845;845;845;845;845;845;845;845;845;300;300;300;300;300;300;300;300;300;300
2021-4-15 20:2:38;4.32;99;20.30;11;0.384;0.079;20.31;68.5;0.074;26.7071;26.630;27.026;28.488;302;302;302;302;302;302;302;302;302;302;845;845;845;845;845;845;845;845;846;845;308;308;308;308;308;308;308;308;308;308
2021-4-15 20:32:38;4.31;99;19.80;11;0.384;0.079;20.31;68.5;0.074;26.7071;26.630;27.026;28.488;296;296;296;296;296;296;296;296;296;296;846;846;846;846;846;846;846;846;846;846;304;304;303;304;304;304;303;304;304;304
2021-4-15 21:2:38;4.31;99;19.70;11;0.396;0.077;20.31;68.5;0.072;27.8531;25.781;28.186;27.579;288;288;288;288;288;288;288;288;288;288;847;847;847;847;847;847;847;847;847;847;301;301;301;301;301;301;301;301;301;301
2021-4-15 21:32:37;4.30;99;19.20;11;0.392;0.077;20.31;68.5;0.072;27.4571;26.023;27.785;27.839;292;291;292;292;292;292;291;292;292;291;847;847;847;847;847;847;847;847;847;847;295;295;295;295;295;294;294;295;295;295
2021-4-15 22:2:36;4.30;99;18.50;11;0.392;0.077;20.31;68.5;0.072;27.4571;26.023;27.785;27.839;291;291;291;291;291;291;291;291;291;291;847;847;847;847;847;847;847;847;847;847;302;302;302;302;302;302;302;302;302;302
2021-4-15 22:32:39;4.30;99;18.00;11;0.384;0.079;20.31;68.5;0.074;26.7071;26.630;27.026;28.488;291;291;291;291;291;291;291;291;291;291;847;848;847;848;847;848;848;848;848;848;302;302;302;302;302;302;302;302;302;302
2021-4-15 23:2:37;4.30;99;17.50;11;0.392;0.077;20.31;68.5;0.072;27.4571;26.023;27.785;27.839;293;293;293;293;293;293;293;293;293;293;848;848;848;848;848;848;848;848;848;848;302;302;302;302;302;302;302;302;302;302
2021-4-15 23:32:34;4.30;99;17.10;11;0.389;0.078;20.31;68.5;0.073;27.1191;26.385;27.443;28.226;294;294;293;293;294;294;294;293;294;293;848;848;848;848;848;848;848;848;848;848;321;320;320;320;320;320;320;320;320;320
