#HS;2021-4-12 11:15:56;4.38;39;32.60;11;0.403;0.080;20.51;68.9;0.075;28.5491;26.971;28.905;28.757;256;256;256;256;256;256;256;256;256;256;338;338;338;338;338;338;338;338;338;338;270;270;270;270;270;270;270;270;270;270
2021-4-12 11:31:28;4.37;40;31.10;11;0.401;0.081;20.51;68.9;0.076;28.3361;27.456;28.689;29.274;263;263;263;263;263;263;263;263;263;263;810;808;805;804;805;808;810;812;813;815;272;272;271;272;272;272;271;272;272;272
2021-4-12 12:2:58;4.38;38;31.80;11;0.401;0.081;20.51;68.9;0.076;28.3361;27.456;28.689;29.274;262;262;261;262;261;262;261;261;261;261;844;844;844;844;844;844;844;844;844;844;262;262;262;262;262;262;262;262;262;262
2021-4-12 12:32:47;4.38;41;30.50;11;0.403;0.080;20.51;68.9;0.075;28.5491;26.971;28.905;28.757;263;262;262;263;262;262;262;262;262;262;845;845;845;845;845;845;845;845;845;845;249;249;249;249;249;249;249;249;249;249
2021-4-12 13:2:51;4.38;40;30.80;11;0.403;0.080;20.51;68.9;0.075;28.5491;26.971;28.905;28.757;264;264;264;264;264;264;264;264;264;264;841;842;842;842;842;842;842;842;842;842;250;250;250;250;250;250;250;250;250;250
2021-4-12 13:32:50;4.38;42;30.80;11;0.403;0.080;20.51;68.9;0.075;28.5421;26.966;28.893;28.783;268;268;268;268;268;268;268;268;268;268;843;843;844;843;844;844;843;843;843;843;271;271;271;271;271;271;271;271;271;271
2021-4-12 14:2:49;4.38;40;30.50;11;0.403;0.080;20.51;68.9;0.075;28.5421;26.966;28.893;28.783;271;270;270;270;270;270;270;270;270;270;838;838;839;840;840;840;840;840;841;841;270;269;269;269;269;269;269;269;269;269
2021-4-12 14:32:48;4.38;38;31.20;11;0.403;0.080;20.51;68.9;0.075;28.5421;26.966;28.893;28.783;270;270;270;270;270;270;270;270;270;270;843;843;843;843;843;843;843;843;843;843;276;276;276;276;276;276;276;276;276;276
2021-4-12 15:2:51;4.38;41;29.90;11;0.417;0.076;20.51;68.9;0.071;29.8531;25.615;30.220;27.341;269;270;270;269;270;269;270;269;270;269;843;843;843;843;843;843;843;843;843;843;270;270;270;270;270;270;270;270;270;270
2021-4-12 15:32:49;4.38;35;30.90;11;0.408;0.079;20.51;68.9;0.074;28.9531;26.709;29.308;28.509;271;271;271;271;271;271;271;271;271;271;844;844;844;844;844;844;844;844;844;844;278;277;277;278;278;277;277;277;277;277
2021-4-12 16:2:47;4.38;39;30.40;11;0.395;0.082;20.51;68.9;0.077;27.7641;27.605;28.105;29.465;270;270;270;270;270;270;270;270;270;270;843;843;843;843;843;843;843;843;843;843;279;279;279;279;279;279;279;279;279;279
2021-4-12 16:32:50;4.37;44;28.50;11;0.400;0.081;20.51;68.9;0.076;28.1911;27.345;28.538;29.188;268;268;268;268;268;268;268;268;268;268;845;845;845;845;845;845;845;845;845;845;272;272;272;272;273;272;272;272;272;272
2021-4-12 17:2:47;4.37;41;28.30;11;0.408;0.079;20.51;68.9;0.074;28.9531;26.709;29.308;28.509;266;266;266;266;266;266;266;266;266;266;846;846;846;846;846;846;846;846;846;846;273;273;273;273;273;273;273;273;273;273
2021-4-12 17:32:46;4.35;50;26.00;11;0.409;0.078;20.51;68.9;0.073;29.1451;26.236;29.502;28.004;265;265;265;265;265;265;265;265;265;265;846;846;846;846;846;846;846;847;846;847;278;278;278;278;278;278;278;278;278;278
2021-4-12 18:2:43;4.34;74;22.80;11;0.395;0.082;20.51;68.9;0.077;27.7641;27.605;28.105;29.465;263;262;262;262;262;263;263;263;263;262;847;847;847;847;847;847;847;847;847;847;266;266;266;266;266;266;266;266;266;266
2021-4-12 18:32:41;4.32;99;20.10;11;0.400;0.081;20.51;68.9;0.076;28.1911;27.345;28.538;29.188;263;263;263;263;263;263;263;263;263;263;846;846;846;846;846;847;847;846;847;846;279;279;279;279;279;279;279;279;279;279
2021-4-12 19:2:37;4.30;99;16.80;11;0.409;0.078;20.51;68.9;0.073;29.1451;26.236;29.502;28.004;262;262;262;262;262;262;262;262;262;262;847;847;847;847;847;847;847;847;847;847;252;252;252;252;252;252;252;252;252;252
2021-4-12 19:32:35;4.29;99;15.20;11;0.402;0.080;20.51;68.9;0.075;28.4041;26.863;28.753;28.674;259;259;259;259;259;259;259;259;259;259;847;848;848;848;847;848;847;848;848;848;249;249;248;249;248;248;249;248;249;248
2021-4-12 20:2:36;4.28;99;14.40;11;0.402;0.080;20.51;68.9;0.075;28.4041;26.863;28.753;28.674;258;258;258;258;258;258;258;258;258;258;848;848;848;848;848;848;848;848;848;848;276;276;276;276;276;276;276;276;276;276
2021-4-12 20:32:36;4.27;99;14.00;11;0.409;0.078;20.51;68.9;0.073;29.1451;26.236;29.502;28.004;257;257;257;257;257;256;256;257;257;257;848;848;848;848;848;848;848;848;848;848;283;283;283;283;283;283;283;283;283;283
2021-4-12 21:2:35;4.27;99;13.30;11;0.402;0.080;20.51;68.9;0.075;28.4041;26.863;28.753;28.674;259;259;259;259;259;259;259;259;259;259;847;847;848;847;847;847;848;847;847;847;258;258;258;258;258;258;258;258;258;258
2021-4-12 21:32:33;4.27;99;13.00;11;0.402;0.080;20.51;68.9;0.075;28.4041;26.863;28.753;28.674;259;259;259;259;259;259;259;259;259;259;848;848;848;848;848;848;848;848;848;848;276;275;275;275;275;275;275;275;275;275
2021-4-12 22:2:31;4.27;99;12.60;11;0.409;0.078;20.51;68.9;0.073;29.1451;26.236;29.502;28.004;258;258;258;258;258;258;257;258;258;257;847;848;848;848;848;848;848;848;848;848;279;279;279;279;279;279;279;279;279;279
2021-4-12 22:32:33;4.26;99;11.90;11;0.402;0.080;20.51;68.9;0.075;28.4041;26.863;28.753;28.674;258;258;258;258;258;258;258;258;258;258;847;847;847;847;847;847;847;847;847;847;267;267;267;267;267;267;267;267;267;267
2021-4-12 23:2:30;4.26;99;11.90;11;0.402;0.080;20.51;68.9;0.075;28.4041;26.863;28.753;28.674;261;261;261;261;261;261;261;261;261;261;847;847;847;847;847;847;847;847;847;847;281;281;281;281;281;281;281;281;281;281
2021-4-12 23:32:31;4.25;99;11.50;11;0.402;0.080;20.51;68.9;0.075;28.4111;26.869;28.765;28.647;260;260;259;260;260;260;260;260;260;260;847;847;847;847;847;847;847;847;847;847;283;282;282;282;282;282;282;283;282;282
