2021-8-21 0:0:23;4.41;0;0.00;22;0.345;0.062;18.92;66.1;0.057;22.8362;20.459;23.049;22.275;44;0.345;0.064;19.14;66.4;0.059;22.8804;21.064;23.093;22.935
2021-8-21 0:5:22;4.41;0;0.00;22;0.345;0.062;19.12;66.4;0.057;22.8322;20.456;23.041;22.297;44;0.343;0.065;18.94;66.1;0.059;22.7124;21.378;22.921;23.301
2021-8-21 0:10:20;4.41;0;0.00;22;0.347;0.061;18.92;66.1;0.056;22.9752;20.175;23.190;21.966;44;0.343;0.065;19.14;66.4;0.059;22.7164;21.381;22.928;23.279
2021-8-21 0:15:23;4.40;0;0.00;22;0.334;0.064;19.12;66.4;0.058;22.0592;20.991;22.262;22.880;44;0.343;0.065;19.14;66.4;0.059;22.7164;21.381;22.928;23.279
2021-8-21 0:20:21;4.40;0;0.00;22;0.334;0.064;18.92;66.1;0.058;22.0592;20.991;22.262;22.880;44;0.345;0.064;18.94;66.1;0.059;22.8804;21.064;23.093;22.935
2021-8-21 0:25:20;4.40;0;0.00;22;0.345;0.062;19.12;66.4;0.057;22.8322;20.456;23.041;22.297;44;0.343;0.065;18.94;66.1;0.059;22.7164;21.381;22.928;23.279
2021-8-21 0:30:22;4.40;0;0.00;22;0.341;0.062;18.92;66.1;0.057;22.5622;20.605;22.769;22.459;44;0.343;0.065;19.14;66.4;0.059;22.7124;21.378;22.921;23.301
2021-8-21 0:35:21;4.40;0;0.00;22;0.328;0.065;19.12;66.4;0.060;21.6122;21.436;21.811;23.365;44;0.352;0.062;18.94;66.1;0.057;23.3254;20.590;23.543;22.418
2021-8-21 0:40:19;4.41;0;0.00;22;0.334;0.064;19.12;66.4;0.058;22.0632;20.994;22.269;22.858;44;0.336;0.066;18.94;66.1;0.061;22.1504;21.804;22.354;23.766
2021-8-21 0:45:22;4.40;0;0.00;22;0.334;0.064;18.92;66.1;0.058;22.0592;20.991;22.262;22.880;44;0.343;0.065;18.94;66.1;0.059;22.7124;21.378;22.921;23.301
2021-8-21 0:50:20;4.41;0;0.00;22;0.334;0.064;18.92;66.1;0.058;22.0592;20.991;22.262;22.880;44;0.343;0.065;18.94;66.1;0.059;22.7124;21.378;22.921;23.301
2021-8-21 0:55:23;4.40;0;0.00;22;0.334;0.064;18.92;66.1;0.058;22.0592;20.991;22.262;22.880;44;0.343;0.065;18.94;66.1;0.059;22.7124;21.378;22.921;23.301
2021-8-21 1:0:21;4.41;0;0.00;22;0.334;0.064;18.92;66.1;0.058;22.0592;20.991;22.262;22.880;44;0.343;0.065;18.94;66.1;0.059;22.7124;21.378;22.921;23.301
2021-8-21 1:5:20;4.40;0;0.00;22;0.339;0.063;18.92;66.1;0.058;22.4092;20.891;22.611;22.796;44;0.343;0.065;18.94;66.1;0.059;22.7124;21.378;22.921;23.301
2021-8-21 1:10:23;4.40;0;0.00;22;0.330;0.064;18.92;66.1;0.059;21.7782;21.142;21.978;23.045;44;0.343;0.065;18.94;66.1;0.059;22.7124;21.378;22.921;23.301
2021-8-21 1:15:21;4.41;0;0.00;22;0.345;0.062;18.92;66.1;0.057;22.8282;20.453;23.034;22.318;44;0.345;0.064;18.94;66.1;0.059;22.8724;21.059;23.078;22.978
2021-8-21 1:20:19;4.40;0;0.00;22;0.334;0.064;18.92;66.1;0.058;22.0592;20.991;22.262;22.880;44;0.343;0.065;18.94;66.1;0.059;22.7084;21.375;22.913;23.323
2021-8-21 1:25:22;4.40;0;0.00;22;0.345;0.062;18.92;66.1;0.057;22.8282;20.453;23.034;22.318;44;0.348;0.063;18.94;66.1;0.058;23.0334;20.749;23.244;22.616
2021-8-21 1:30:21;4.40;0;0.00;22;0.345;0.062;18.92;66.1;0.057;22.8282;20.453;23.034;22.318;44;0.343;0.065;18.94;66.1;0.059;22.7084;21.375;22.913;23.323
2021-8-21 1:35:19;4.40;0;0.00;22;0.334;0.064;18.92;66.1;0.058;22.0562;20.989;22.255;22.902;44;0.343;0.065;18.94;66.1;0.059;22.7084;21.375;22.913;23.323
2021-8-21 1:40:22;4.40;0;0.00;22;0.336;0.063;18.92;66.1;0.058;22.2102;20.700;22.411;22.587;44;0.343;0.065;18.94;66.1;0.059;22.7084;21.375;22.913;23.323
2021-8-21 1:45:20;4.40;0;0.00;22;0.328;0.065;18.92;66.1;0.060;21.6092;21.433;21.804;23.387;44;0.343;0.065;18.94;66.1;0.059;22.7054;21.372;22.906;23.345
2021-8-21 1:50:23;4.40;0;0.00;22;0.328;0.065;18.92;66.1;0.060;21.6092;21.433;21.804;23.387;44;0.345;0.064;18.94;66.1;0.059;22.8684;21.056;23.071;23.000
2021-8-21 1:55:21;4.40;0;0.00;22;0.328;0.065;18.92;66.1;0.060;21.6092;21.433;21.804;23.387;44;0.343;0.065;18.84;65.8;0.059;22.7054;21.372;22.906;23.345
2021-8-21 2:0:20;4.40;0;0.00;22;0.334;0.064;18.92;66.1;0.058;22.0562;20.989;22.255;22.902;44;0.343;0.065;18.84;65.8;0.059;22.7084;21.375;22.913;23.323
2021-8-21 2:5:22;4.41;0;0.00;22;0.336;0.063;18.92;66.1;0.058;22.2102;20.700;22.411;22.587;44;0.343;0.065;18.94;66.1;0.059;22.7054;21.372;22.906;23.345
2021-8-21 2:10:21;4.40;0;0.00;22;0.340;0.062;18.92;66.1;0.057;22.4792;20.548;22.678;22.446;44;0.343;0.065;18.94;66.1;0.059;22.7054;21.372;22.906;23.345
2021-8-21 2:15:19;4.40;0;0.00;22;0.334;0.064;18.92;66.1;0.058;22.0522;20.986;22.248;22.924;44;0.343;0.065;18.94;66.1;0.059;22.7054;21.372;22.906;23.345
2021-8-21 2:20:22;4.39;0;0.00;22;0.328;0.065;18.92;66.1;0.060;21.6052;21.430;21.797;23.409;44;0.343;0.065;18.94;66.1;0.059;22.7054;21.372;22.906;23.345
2021-8-21 2:25:20;4.40;0;0.00;22;0.336;0.063;18.82;65.8;0.058;22.2072;20.697;22.404;22.609;44;0.345;0.064;18.84;65.8;0.059;22.8684;21.056;23.071;23.000
2021-8-21 2:30:23;4.40;0;0.00;22;0.328;0.065;18.82;65.8;0.060;21.6052;21.430;21.797;23.409;44;0.345;0.064;18.94;66.1;0.059;22.8644;21.053;23.063;23.022
2021-8-21 2:35:21;4.40;0;0.00;22;0.344;0.062;18.92;66.1;0.057;22.8212;20.448;23.020;22.361;44;0.343;0.065;18.84;65.8;0.059;22.7014;21.369;22.898;23.368
2021-8-21 2:40:20;4.40;0;0.00;22;0.336;0.063;18.82;65.8;0.058;22.2072;20.697;22.404;22.609;44;0.343;0.065;18.84;65.8;0.059;22.7014;21.369;22.898;23.368
2021-8-21 2:45:22;4.40;0;0.00;22;0.336;0.063;18.82;65.8;0.058;22.2072;20.697;22.404;22.609;44;0.343;0.065;18.84;65.8;0.059;22.7014;21.369;22.898;23.368
2021-8-21 2:50:21;4.40;0;0.00;22;0.334;0.064;18.82;65.8;0.058;22.0492;20.983;22.241;22.946;44;0.345;0.064;18.84;65.8;0.059;22.8644;21.053;23.063;23.022
2021-8-21 2:55:19;4.40;0;0.00;22;0.340;0.062;18.82;65.8;0.057;22.4762;20.546;22.671;22.468;44;0.343;0.065;18.94;66.1;0.059;22.7054;21.372;22.906;23.345
2021-8-21 3:0:22;4.40;0;0.00;22;0.340;0.062;18.62;65.4;0.057;22.4762;20.546;22.671;22.468;44;0.343;0.065;18.94;66.1;0.059;22.7014;21.369;22.898;23.368
2021-8-21 3:5:20;4.40;0;0.00;22;0.336;0.063;18.82;65.8;0.058;22.2032;20.695;22.397;22.630;44;0.343;0.065;18.84;65.8;0.059;22.7014;21.369;22.898;23.368
2021-8-21 3:10:23;4.40;0;0.00;22;0.340;0.062;18.62;65.4;0.057;22.4762;20.546;22.671;22.468;44;0.343;0.065;18.84;65.8;0.059;22.7014;21.369;22.898;23.368
2021-8-21 3:15:21;4.40;0;0.00;22;0.336;0.063;18.62;65.4;0.058;22.2002;20.692;22.389;22.652;44;0.343;0.065;18.94;66.1;0.059;22.7014;21.369;22.898;23.368
2021-8-21 3:20:19;4.40;0;0.00;22;0.336;0.063;18.62;65.4;0.058;22.2002;20.692;22.389;22.652;44;0.337;0.065;18.64;65.4;0.060;22.3114;21.471;22.502;23.505
2021-8-21 3:25:22;4.40;0;0.00;22;0.336;0.063;18.82;65.8;0.058;22.2002;20.692;22.389;22.652;44;0.345;0.064;18.84;65.8;0.059;22.8644;21.053;23.063;23.022
2021-8-21 3:30:20;4.40;0;0.00;22;0.330;0.064;18.62;65.4;0.059;21.7602;21.129;21.943;23.155;44;0.345;0.064;18.94;66.1;0.059;22.8644;21.053;23.063;23.022
2021-8-21 3:35:23;4.40;0;0.00;22;0.336;0.063;18.62;65.4;0.058;22.1962;20.690;22.382;22.674;44;0.343;0.065;18.84;65.8;0.059;22.6974;21.366;22.891;23.390
2021-8-21 3:40:21;4.40;0;0.00;22;0.336;0.063;18.62;65.4;0.058;22.1962;20.690;22.382;22.674;44;0.343;0.065;18.84;65.8;0.059;22.7014;21.369;22.898;23.368
2021-8-21 3:45:20;4.40;0;0.00;22;0.336;0.063;18.62;65.4;0.058;22.1932;20.687;22.375;22.695;44;0.343;0.065;18.84;65.8;0.059;22.6974;21.366;22.891;23.390
2021-8-21 3:50:22;4.40;0;0.00;22;0.348;0.062;18.62;65.4;0.056;23.0722;20.290;23.259;22.283;44;0.345;0.064;18.84;65.8;0.059;22.8604;21.050;23.055;23.044
2021-8-21 3:55:20;4.40;0;0.00;22;0.350;0.061;18.62;65.4;0.056;23.2112;20.010;23.402;21.952;44;0.345;0.064;18.64;65.4;0.059;22.8604;21.050;23.055;23.044
2021-8-21 4:0:19;4.40;0;0.00;22;0.340;0.063;18.62;65.4;0.057;22.4692;20.541;22.657;22.511;44;0.345;0.064;18.84;65.8;0.059;22.8564;21.047;23.048;23.065
2021-8-21 4:5:21;4.40;0;0.00;22;0.343;0.062;18.62;65.4;0.057;22.7342;20.390;22.921;22.369;44;0.345;0.064;18.84;65.8;0.059;22.8564;21.047;23.048;23.065
2021-8-21 4:10:20;4.40;0;0.00;22;0.336;0.063;18.62;65.4;0.058;22.1932;20.687;22.375;22.695;44;0.345;0.064;18.64;65.4;0.059;22.8564;21.047;23.048;23.065
2021-8-21 4:15:22;4.40;0;0.00;22;0.336;0.063;18.62;65.4;0.058;22.1932;20.687;22.375;22.695;44;0.345;0.064;18.84;65.8;0.059;22.8564;21.047;23.048;23.065
2021-8-21 4:20:21;4.40;0;0.00;22;0.339;0.063;18.62;65.4;0.057;22.4652;20.538;22.650;22.532;44;0.343;0.065;18.84;65.8;0.059;22.6894;21.360;22.876;23.434
2021-8-21 4:25:19;4.40;0;0.00;22;0.336;0.063;18.62;65.4;0.058;22.1932;20.687;22.375;22.695;44;0.345;0.064;18.64;65.4;0.059;22.8564;21.047;23.048;23.065
2021-8-21 4:30:22;4.39;0;0.00;22;0.336;0.063;18.62;65.4;0.058;22.1932;20.687;22.375;22.695;44;0.345;0.064;18.84;65.8;0.059;22.8524;21.044;23.040;23.087
2021-8-21 4:35:20;4.40;0;0.00;22;0.336;0.063;18.62;65.4;0.058;22.1892;20.685;22.368;22.717;44;0.345;0.064;18.64;65.4;0.059;22.8524;21.044;23.040;23.087
2021-8-21 4:40:23;4.40;0;0.00;22;0.336;0.063;18.62;65.4;0.058;22.1892;20.685;22.368;22.717;44;0.347;0.063;18.64;65.4;0.058;23.0094;20.732;23.199;22.745
2021-8-21 4:45:21;4.40;0;0.00;22;0.339;0.063;18.62;65.4;0.057;22.4622;20.536;22.643;22.554;44;0.345;0.064;18.84;65.8;0.058;22.8484;21.041;23.033;23.109
2021-8-21 4:50:19;4.40;0;0.00;22;0.323;0.066;18.62;65.4;0.060;21.2212;21.510;21.389;23.649;44;0.345;0.064;18.64;65.4;0.058;22.8484;21.041;23.033;23.109
2021-8-21 4:55:22;4.40;0;0.00;22;0.336;0.063;18.42;65.1;0.058;22.1892;20.685;22.368;22.717;44;0.345;0.064;18.84;65.8;0.058;22.8484;21.041;23.033;23.109
2021-8-21 5:0:20;4.40;0;0.00;22;0.336;0.063;18.42;65.1;0.058;22.1892;20.685;22.368;22.717;44;0.345;0.064;18.64;65.4;0.058;22.8444;21.039;23.025;23.131
2021-8-21 5:5:23;4.40;0;0.00;22;0.341;0.063;18.62;65.4;0.057;22.5822;20.670;22.761;22.726;44;0.345;0.064;18.64;65.4;0.058;22.8444;21.039;23.025;23.131
2021-8-21 5:10:21;4.40;0;0.00;22;0.339;0.063;18.42;65.1;0.057;22.4582;20.533;22.636;22.575;44;0.345;0.064;18.84;65.8;0.058;22.8444;21.039;23.025;23.131
2021-8-21 5:15:20;4.40;0;0.00;22;0.339;0.063;18.42;65.1;0.057;22.4582;20.533;22.636;22.575;44;0.345;0.064;18.44;65.1;0.058;22.8444;21.039;23.025;23.131
2021-8-21 5:20:22;4.40;0;0.00;22;0.341;0.063;18.42;65.1;0.057;22.5822;20.670;22.761;22.726;44;0.351;0.063;18.44;65.1;0.057;23.2934;20.568;23.481;22.589
2021-8-21 5:25:20;4.40;0;0.00;22;0.336;0.063;18.42;65.1;0.057;22.1862;20.682;22.362;22.739;44;0.345;0.064;18.44;65.1;0.058;22.8484;21.041;23.033;23.109
2021-8-21 5:30:19;4.40;0;0.00;22;0.334;0.064;18.42;65.1;0.058;22.0312;20.970;22.206;23.056;44;0.345;0.064;18.84;65.8;0.058;22.8444;21.039;23.025;23.131
2021-8-21 5:35:21;4.40;0;0.00;22;0.339;0.063;18.42;65.1;0.057;22.4582;20.533;22.636;22.575;44;0.345;0.064;18.44;65.1;0.058;22.8444;21.039;23.025;23.131
2021-8-21 5:40:20;4.40;0;0.00;22;0.343;0.062;18.42;65.1;0.057;22.7272;20.385;22.907;22.412;44;0.345;0.064;18.44;65.1;0.058;22.8444;21.039;23.025;23.131
2021-8-21 5:45:22;4.40;0;0.00;22;0.339;0.063;18.42;65.1;0.057;22.4552;20.531;22.629;22.597;44;0.351;0.063;18.44;65.1;0.057;23.2894;20.565;23.473;22.610
2021-8-21 5:50:21;4.40;0;0.00;22;0.336;0.063;18.42;65.1;0.057;22.1862;20.682;22.362;22.739;44;0.347;0.063;18.44;65.1;0.058;23.0024;20.727;23.184;22.788
2021-8-21 5:55:19;4.40;0;0.00;22;0.343;0.062;18.42;65.1;0.057;22.7272;20.385;22.907;22.412;44;0.344;0.064;18.44;65.1;0.058;22.8414;21.036;23.018;23.153
2021-8-21 6:0:22;4.39;0;0.00;22;0.336;0.063;18.42;65.1;0.057;22.1822;20.679;22.355;22.760;44;0.344;0.064;18.44;65.1;0.058;22.8414;21.036;23.018;23.153
2021-8-21 6:5:20;4.39;0;0.00;22;0.336;0.063;18.42;65.1;0.057;22.1822;20.679;22.355;22.760;44;0.347;0.063;18.44;65.1;0.058;22.9984;20.724;23.176;22.809
2021-8-21 6:10:23;4.40;0;0.00;22;0.336;0.063;18.42;65.1;0.057;22.1822;20.679;22.355;22.760;44;0.337;0.066;18.44;65.1;0.060;22.2924;21.457;22.465;23.616
2021-8-21 6:15:21;4.40;0;0.00;22;0.336;0.063;18.42;65.1;0.057;22.1822;20.679;22.355;22.760;44;0.344;0.064;18.44;65.1;0.058;22.8414;21.036;23.018;23.153
2021-8-21 6:20:19;4.39;0;0.00;22;0.339;0.063;18.42;65.1;0.057;22.4552;20.531;22.629;22.597;44;0.344;0.064;18.24;64.8;0.058;22.8374;21.033;23.011;23.174
2021-8-21 6:25:22;4.40;0;0.00;22;0.336;0.063;18.42;65.1;0.057;22.1822;20.679;22.355;22.760;44;0.344;0.064;18.44;65.1;0.058;22.8374;21.033;23.011;23.174
2021-8-21 6:30:20;4.40;0;0.00;22;0.343;0.062;18.42;65.1;0.057;22.7192;20.380;22.892;22.455;44;0.344;0.064;18.44;65.1;0.058;22.8374;21.033;23.011;23.174
2021-8-21 6:35:23;4.40;0;0.00;22;0.336;0.063;18.42;65.1;0.057;22.1822;20.679;22.355;22.760;44;0.337;0.066;18.44;65.1;0.060;22.2884;21.454;22.458;23.638
2021-8-21 6:40:21;4.40;0;0.00;22;0.333;0.064;18.22;64.8;0.058;22.0242;20.965;22.192;23.099;44;0.350;0.063;18.24;64.8;0.057;23.2814;20.560;23.458;22.653
2021-8-21 6:45:19;4.40;0;0.00;22;0.335;0.063;18.42;65.1;0.057;22.1792;20.677;22.348;22.782;44;0.337;0.066;18.44;65.1;0.060;22.2844;21.451;22.451;23.660
2021-8-21 6:50:22;4.40;0;0.00;22;0.339;0.063;18.42;65.1;0.057;22.4482;20.526;22.615;22.640;44;0.344;0.064;18.24;64.8;0.058;22.8374;21.033;23.011;23.174
2021-8-21 6:55:20;4.40;0;0.00;22;0.339;0.063;18.42;65.1;0.057;22.4512;20.528;22.622;22.618;44;0.347;0.063;18.24;64.8;0.058;22.9944;20.721;23.169;22.831
2021-8-21 7:0:23;4.40;0;0.00;22;0.339;0.063;18.22;64.8;0.057;22.4512;20.528;22.622;22.618;44;0.350;0.063;18.24;64.8;0.057;23.2814;20.560;23.458;22.653
2021-8-21 7:5:21;4.40;0;0.00;22;0.343;0.062;18.22;64.8;0.057;22.7192;20.380;22.892;22.455;44;0.344;0.064;18.24;64.8;0.058;22.8334;21.030;23.003;23.196
2021-8-21 7:10:19;4.40;0;0.00;22;0.335;0.063;18.22;64.8;0.057;22.1752;20.674;22.341;22.804;44;0.337;0.066;18.24;64.8;0.060;22.2844;21.451;22.451;23.660
2021-8-21 7:15:22;4.39;0;0.00;22;0.339;0.063;18.22;64.8;0.057;22.4482;20.526;22.615;22.640;44;0.337;0.066;18.24;64.8;0.060;22.2844;21.451;22.451;23.660
2021-8-21 7:20:20;4.40;0;0.00;22;0.343;0.063;18.22;64.8;0.057;22.7122;20.375;22.878;22.497;44;0.337;0.066;18.24;64.8;0.060;22.2844;21.451;22.451;23.660
2021-8-21 7:25:23;4.40;0;0.00;22;0.339;0.063;18.22;64.8;0.057;22.4482;20.526;22.615;22.640;44;0.337;0.066;18.24;64.8;0.060;22.2844;21.451;22.451;23.660
2021-8-21 7:30:21;4.40;0;0.00;22;0.335;0.063;18.22;64.8;0.057;22.1752;20.674;22.341;22.804;44;0.344;0.064;18.24;64.8;0.058;22.8334;21.030;23.003;23.196
2021-8-21 7:35:20;4.40;0;0.00;22;0.322;0.066;18.22;64.8;0.060;21.2082;21.500;21.362;23.739;44;0.350;0.063;18.24;64.8;0.057;23.2734;20.554;23.443;22.695
2021-8-21 7:40:22;4.40;0;0.00;22;0.339;0.063;18.22;64.8;0.057;22.4442;20.523;22.608;22.661;44;0.337;0.066;18.24;64.8;0.060;22.2814;21.448;22.443;23.682
2021-8-21 7:45:20;4.40;0;0.00;22;0.339;0.063;18.22;64.8;0.057;22.4442;20.523;22.608;22.661;44;0.344;0.065;18.24;64.8;0.058;22.8294;21.027;22.996;23.218
2021-8-21 7:50:23;4.40;0;0.00;22;0.335;0.063;18.22;64.8;0.057;22.1722;20.672;22.334;22.825;44;0.337;0.066;18.24;64.8;0.060;22.2814;21.448;22.443;23.682
2021-8-21 7:55:21;4.40;0;0.00;22;0.339;0.063;18.22;64.8;0.057;22.4442;20.523;22.608;22.661;44;0.337;0.066;18.24;64.8;0.060;22.2774;21.445;22.436;23.704
2021-8-21 8:0:20;4.40;0;0.00;22;0.343;0.063;18.22;64.8;0.057;22.7122;20.375;22.878;22.497;44;0.344;0.065;18.24;64.8;0.058;22.8294;21.027;22.996;23.218
2021-8-21 8:5:22;4.40;0;0.00;22;0.335;0.063;18.22;64.8;0.057;22.1722;20.672;22.334;22.825;44;0.337;0.066;18.24;64.8;0.060;22.2774;21.445;22.436;23.704
2021-8-21 8:10:21;4.40;0;0.00;22;0.328;0.065;18.22;64.8;0.059;21.6632;21.056;21.821;23.250;44;0.344;0.065;18.24;64.8;0.058;22.8254;21.025;22.988;23.240
2021-8-21 8:15:19;4.39;0;0.00;22;0.335;0.064;18.02;64.5;0.057;22.1692;20.669;22.327;22.847;44;0.350;0.063;17.94;64.1;0.057;23.2734;20.554;23.443;22.695
2021-8-21 8:20:21;4.40;0;0.00;22;0.335;0.064;18.02;64.5;0.057;22.1692;20.669;22.327;22.847;44;0.350;0.063;18.04;64.5;0.057;23.2734;20.554;23.443;22.695
2021-8-21 8:25:20;4.40;0;0.00;22;0.328;0.065;18.02;64.5;0.059;21.6602;21.054;21.814;23.272;44;0.337;0.066;18.04;64.5;0.060;22.2774;21.445;22.436;23.704
2021-8-21 8:30:22;4.40;0;0.00;22;0.342;0.063;18.22;64.8;0.057;22.7092;20.373;22.871;22.519;44;0.337;0.066;18.04;64.5;0.060;22.2774;21.445;22.436;23.704
2021-8-21 8:35:21;4.40;0;0.00;22;0.335;0.064;18.02;64.5;0.057;22.1692;20.669;22.327;22.847;44;0.337;0.066;18.04;64.5;0.060;22.2774;21.445;22.436;23.704
2021-8-21 8:40:19;4.40;0;0.00;22;0.335;0.064;18.02;64.5;0.057;22.1692;20.669;22.327;22.847;44;0.337;0.066;18.04;64.5;0.060;22.2774;21.445;22.436;23.704
2021-8-21 8:45:21;4.40;0;0.00;22;0.335;0.064;18.02;64.5;0.057;22.1692;20.669;22.327;22.847;44;0.350;0.063;18.04;64.5;0.057;23.2734;20.554;23.443;22.695
2021-8-21 8:50:20;4.40;0;0.00;22;0.339;0.063;18.02;64.5;0.057;22.4412;20.521;22.601;22.683;44;0.337;0.066;18.04;64.5;0.060;22.2774;21.445;22.436;23.704
2021-8-21 8:55:22;4.40;0;0.00;22;0.335;0.064;18.02;64.5;0.057;22.1692;20.669;22.327;22.847;44;0.350;0.063;18.04;64.5;0.057;23.2734;20.554;23.443;22.695
2021-8-21 9:0:21;4.40;0;0.00;22;0.339;0.063;18.02;64.5;0.057;22.4412;20.521;22.601;22.683;44;0.346;0.064;17.94;64.1;0.058;22.9824;20.713;23.147;22.895
2021-8-21 9:5:19;4.40;0;0.00;22;0.339;0.063;18.02;64.5;0.057;22.4412;20.521;22.601;22.683;44;0.337;0.066;18.04;64.5;0.060;22.2734;21.442;22.429;23.727
2021-8-21 9:10:22;4.40;0;0.00;22;0.342;0.063;18.02;64.5;0.057;22.7092;20.373;22.871;22.519;44;0.346;0.064;17.94;64.1;0.058;22.9824;20.713;23.147;22.895
2021-8-21 9:15:20;4.40;0;0.00;22;0.339;0.063;18.02;64.5;0.057;22.4412;20.521;22.601;22.683;44;0.337;0.066;18.04;64.5;0.060;22.2734;21.442;22.429;23.727
2021-8-21 9:20:22;4.40;0;0.00;22;0.339;0.063;18.02;64.5;0.057;22.4412;20.521;22.601;22.683;44;0.346;0.064;18.04;64.5;0.058;22.9824;20.713;23.147;22.895
2021-8-21 9:25:21;4.40;0;0.00;22;0.340;0.064;18.22;64.8;0.057;22.5612;20.655;22.719;22.856;44;0.344;0.065;18.04;64.5;0.058;22.8254;21.025;22.988;23.240
2021-8-21 9:30:19;4.40;0;0.00;22;0.339;0.063;18.02;64.5;0.057;22.4412;20.521;22.601;22.683;44;0.337;0.066;18.04;64.5;0.060;22.2774;21.445;22.436;23.704
2021-8-21 9:35:22;4.40;0;0.00;22;0.335;0.064;18.02;64.5;0.057;22.1692;20.669;22.327;22.847;44;0.337;0.066;18.04;64.5;0.060;22.2774;21.445;22.436;23.704
2021-8-21 9:40:20;4.40;0;0.00;22;0.335;0.064;18.02;64.5;0.057;22.1692;20.669;22.327;22.847;44;0.337;0.066;18.04;64.5;0.060;22.2774;21.445;22.436;23.704
2021-8-21 9:45:23;4.39;0;0.00;22;0.339;0.063;18.02;64.5;0.057;22.4412;20.521;22.601;22.683;44;0.346;0.064;17.94;64.1;0.058;22.9864;20.716;23.154;22.874
2021-8-21 9:50:21;4.40;0;0.00;22;0.339;0.063;18.22;64.8;0.057;22.4412;20.521;22.601;22.683;44;0.337;0.066;18.04;64.5;0.060;22.2774;21.445;22.436;23.704
2021-8-21 9:55:19;4.40;0;0.00;22;0.342;0.063;18.02;64.5;0.057;22.7092;20.373;22.871;22.519;44;0.337;0.066;18.04;64.5;0.060;22.2774;21.445;22.436;23.704
2021-8-21 10:0:22;4.40;0;0.00;22;0.339;0.063;18.02;64.5;0.057;22.4412;20.521;22.601;22.683;44;0.337;0.066;18.04;64.5;0.060;22.2814;21.448;22.443;23.682
2021-8-21 10:5:20;4.40;0;0.00;22;0.335;0.063;18.02;64.5;0.057;22.1722;20.672;22.334;22.825;44;0.344;0.065;18.24;64.8;0.058;22.8294;21.027;22.996;23.218
2021-8-21 10:10:23;4.40;0;0.00;22;0.335;0.063;18.02;64.5;0.057;22.1722;20.672;22.334;22.825;44;0.337;0.066;18.24;64.8;0.060;22.2814;21.448;22.443;23.682
2021-8-21 10:15:21;4.40;0;0.00;22;0.339;0.063;18.22;64.8;0.057;22.4442;20.523;22.608;22.661;44;0.337;0.066;18.24;64.8;0.060;22.2814;21.448;22.443;23.682
2021-8-21 10:20:19;4.40;0;0.00;22;0.335;0.063;18.02;64.5;0.057;22.1722;20.672;22.334;22.825;44;0.337;0.066;18.24;64.8;0.060;22.2814;21.448;22.443;23.682
2021-8-21 10:25:22;4.40;0;0.00;22;0.339;0.063;18.02;64.5;0.057;22.4412;20.521;22.601;22.683;44;0.344;0.065;18.24;64.8;0.058;22.8294;21.027;22.996;23.218
2021-8-21 10:30:20;4.40;0;0.00;22;0.339;0.063;17.92;64.1;0.057;22.4342;20.516;22.587;22.726;44;0.344;0.065;18.04;64.5;0.058;22.8294;21.027;22.996;23.218
2021-8-21 10:35:23;4.40;0;0.00;22;0.339;0.063;17.92;64.1;0.057;22.4302;20.513;22.580;22.747;44;0.350;0.063;18.04;64.5;0.057;23.2734;20.554;23.443;22.695
2021-8-21 10:40:21;4.39;0;0.00;22;0.339;0.063;17.92;64.1;0.057;22.4302;20.513;22.580;22.747;44;0.346;0.064;18.04;64.5;0.058;22.9864;20.716;23.154;22.874
2021-8-21 10:45:19;4.40;0;0.00;22;0.338;0.063;17.92;64.1;0.057;22.4272;20.511;22.573;22.769;44;0.337;0.066;18.24;64.8;0.060;22.2774;21.445;22.436;23.704
2021-8-21 10:50:22;4.40;0;0.00;22;0.342;0.063;17.92;64.1;0.057;22.6952;20.363;22.843;22.604;44;0.337;0.066;18.04;64.5;0.060;22.2774;21.445;22.436;23.704
2021-8-21 10:55:20;4.40;0;0.00;22;0.338;0.063;17.72;63.8;0.057;22.4232;20.508;22.567;22.790;44;0.350;0.063;18.04;64.5;0.057;23.2734;20.554;23.443;22.695
2021-8-21 11:0:23;4.40;0;0.00;22;0.335;0.064;17.72;63.8;0.057;22.1482;20.654;22.286;22.977;44;0.344;0.065;17.94;64.1;0.058;22.8254;21.025;22.988;23.240
2021-8-21 11:5:21;4.40;0;0.00;22;0.342;0.063;17.72;63.8;0.057;22.6882;20.358;22.830;22.647;44;0.344;0.065;17.94;64.1;0.058;22.8254;21.025;22.988;23.240
2021-8-21 11:10:19;4.40;0;0.00;22;0.328;0.065;17.72;63.8;0.058;21.6402;21.038;21.775;23.404;44;0.337;0.066;18.04;64.5;0.060;22.2774;21.445;22.436;23.704
2021-8-21 11:15:22;4.40;0;0.00;22;0.338;0.063;17.72;63.8;0.057;22.4202;20.506;22.560;22.811;44;0.346;0.064;18.04;64.5;0.058;22.9864;20.716;23.154;22.874
2021-8-21 11:20:20;4.40;0;0.00;22;0.332;0.065;17.72;63.8;0.058;21.9202;20.889;22.056;23.237;44;0.346;0.064;18.04;64.5;0.058;22.9824;20.713;23.147;22.895
2021-8-21 11:25:23;4.39;0;0.00;22;0.338;0.063;17.72;63.8;0.057;22.4202;20.506;22.560;22.811;44;0.344;0.065;17.94;64.1;0.058;22.8254;21.025;22.988;23.240
2021-8-21 11:30:21;4.40;0;0.00;22;0.342;0.063;17.92;64.1;0.057;22.6852;20.356;22.823;22.668;44;0.346;0.064;17.94;64.1;0.058;22.9824;20.713;23.147;22.895
2021-8-21 11:35:19;4.40;0;0.00;22;0.342;0.063;17.72;63.8;0.057;22.6852;20.356;22.823;22.668;44;0.346;0.064;17.94;64.1;0.058;22.9824;20.713;23.147;22.895
2021-8-21 11:40:22;4.39;0;0.00;22;0.340;0.063;17.72;63.8;0.056;22.5642;20.223;22.705;22.497;44;0.337;0.066;17.94;64.1;0.060;22.2774;21.445;22.436;23.704
2021-8-21 11:45:20;4.39;0;0.00;22;0.340;0.063;17.72;63.8;0.056;22.5642;20.223;22.705;22.497;44;0.344;0.065;17.94;64.1;0.058;22.8254;21.025;22.988;23.240
2021-8-21 11:50:23;4.39;0;0.00;22;0.342;0.063;17.72;63.8;0.057;22.6852;20.356;22.823;22.668;44;0.344;0.065;18.04;64.5;0.058;22.8254;21.025;22.988;23.240
2021-8-21 11:55:21;4.39;0;0.00;22;0.332;0.065;17.72;63.8;0.058;21.9202;20.889;22.056;23.237;44;0.350;0.063;18.04;64.5;0.057;23.2694;20.552;23.436;22.717
2021-8-21 12:0:20;4.39;0;0.00;22;0.331;0.065;17.72;63.8;0.058;21.9162;20.886;22.050;23.259;44;0.346;0.064;17.94;64.1;0.058;22.9824;20.713;23.147;22.895
2021-8-21 12:5:22;4.39;0;0.00;22;0.331;0.065;17.52;63.5;0.058;21.9162;20.886;22.050;23.259;44;0.350;0.063;18.04;64.5;0.057;23.2694;20.552;23.436;22.717
2021-8-21 12:10:21;4.39;0;0.00;22;0.328;0.065;17.72;63.8;0.058;21.6402;21.038;21.775;23.404;44;0.337;0.066;18.04;64.5;0.060;22.2774;21.445;22.436;23.704
2021-8-21 12:15:19;4.39;0;0.00;22;0.330;0.064;17.72;63.8;0.058;21.7992;20.750;21.935;23.083;44;0.344;0.065;18.04;64.5;0.058;22.8254;21.025;22.988;23.240
2021-8-21 12:20:21;4.39;0;0.00;22;0.338;0.063;17.72;63.8;0.057;22.4232;20.508;22.567;22.790;44;0.346;0.064;18.04;64.5;0.058;22.9864;20.716;23.154;22.874
2021-8-21 12:25:20;4.39;0;0.00;22;0.344;0.062;17.72;63.8;0.056;22.8312;20.079;22.977;22.313;44;0.337;0.066;18.04;64.5;0.060;22.2774;21.445;22.436;23.704
2021-8-21 12:30:22;4.39;0;0.00;22;0.342;0.063;17.72;63.8;0.057;22.6952;20.363;22.843;22.604;44;0.337;0.066;18.04;64.5;0.060;22.2814;21.448;22.443;23.682
2021-8-21 12:35:21;4.39;0;0.00;22;0.328;0.065;17.92;64.1;0.059;21.6462;21.043;21.788;23.360;44;0.344;0.065;18.24;64.8;0.058;22.8294;21.027;22.996;23.218
2021-8-21 12:40:19;4.39;0;0.00;22;0.328;0.065;17.92;64.1;0.059;21.6462;21.043;21.788;23.360;44;0.337;0.066;18.04;64.5;0.060;22.2814;21.448;22.443;23.682
2021-8-21 12:45:22;4.39;0;0.00;22;0.332;0.064;17.92;64.1;0.058;21.9262;20.894;22.070;23.194;44;0.344;0.064;17.94;64.1;0.058;22.8334;21.030;23.003;23.196
2021-8-21 12:50:20;4.39;0;0.00;22;0.342;0.063;17.92;64.1;0.057;22.6982;20.365;22.850;22.583;44;0.344;0.064;18.24;64.8;0.058;22.8334;21.030;23.003;23.196
2021-8-21 12:55:23;4.39;0;0.00;22;0.328;0.065;17.92;64.1;0.059;21.6532;21.049;21.801;23.316;44;0.344;0.064;18.24;64.8;0.058;22.8334;21.030;23.003;23.196
2021-8-21 13:0:21;4.39;0;0.00;22;0.335;0.064;17.92;64.1;0.057;22.1622;20.664;22.313;22.890;44;0.346;0.064;18.04;64.5;0.058;22.9904;20.718;23.161;22.852
2021-8-21 13:5:20;4.39;0;0.00;22;0.335;0.064;18.02;64.5;0.057;22.1652;20.667;22.320;22.868;44;0.347;0.063;18.04;64.5;0.058;22.9944;20.721;23.169;22.831
2021-8-21 13:10:22;4.39;0;0.00;22;0.342;0.063;17.92;64.1;0.057;22.7022;20.368;22.857;22.561;44;0.337;0.066;18.04;64.5;0.060;22.2844;21.451;22.451;23.660
2021-8-21 13:15:21;4.39;0;0.00;22;0.342;0.063;18.02;64.5;0.057;22.7052;20.370;22.864;22.540;44;0.337;0.066;18.24;64.8;0.060;22.2844;21.451;22.451;23.660
2021-8-21 13:20:19;4.39;0;0.00;22;0.339;0.063;18.02;64.5;0.057;22.4372;20.518;22.594;22.704;44;0.350;0.063;18.24;64.8;0.057;23.2814;20.560;23.458;22.653
2021-8-21 13:25:22;4.39;0;0.00;22;0.326;0.066;17.92;64.1;0.059;21.4912;21.343;21.641;23.616;44;0.344;0.064;18.24;64.8;0.058;22.8374;21.033;23.011;23.174
2021-8-21 13:30:20;4.39;0;0.00;22;0.339;0.063;18.02;64.5;0.057;22.4372;20.518;22.594;22.704;44;0.344;0.064;18.24;64.8;0.058;22.8374;21.033;23.011;23.174
2021-8-21 13:35:23;4.39;0;0.00;22;0.339;0.063;18.02;64.5;0.057;22.4412;20.521;22.601;22.683;44;0.344;0.064;18.24;64.8;0.058;22.8374;21.033;23.011;23.174
2021-8-21 13:40:21;4.39;0;0.00;22;0.343;0.063;18.02;64.5;0.057;22.7122;20.375;22.878;22.497;44;0.344;0.064;18.24;64.8;0.058;22.8374;21.033;23.011;23.174
2021-8-21 13:45:20;4.39;0;0.00;22;0.343;0.063;18.22;64.8;0.057;22.7122;20.375;22.878;22.497;44;0.337;0.066;18.24;64.8;0.060;22.2924;21.457;22.465;23.616
2021-8-21 13:50:22;4.38;0;0.00;22;0.326;0.066;18.22;64.8;0.059;21.4982;21.348;21.655;23.572;44;0.345;0.064;18.24;64.8;0.058;22.8444;21.039;23.025;23.131
2021-8-21 13:55:21;4.39;0;0.00;22;0.337;0.064;18.22;64.8;0.058;22.2982;20.812;22.464;22.956;44;0.345;0.064;18.44;65.1;0.058;22.8444;21.039;23.025;23.131
2021-8-21 14:0:19;4.39;0;0.00;22;0.330;0.065;18.22;64.8;0.059;21.7432;21.116;21.909;23.265;44;0.347;0.063;18.44;65.1;0.058;23.0054;20.729;23.191;22.766
2021-8-21 14:5:22;4.39;0;0.00;22;0.339;0.063;18.42;65.1;0.057;22.4552;20.531;22.629;22.597;44;0.345;0.064;18.44;65.1;0.058;22.8484;21.041;23.033;23.109
2021-8-21 14:10:20;4.39;0;0.00;22;0.348;0.062;18.42;65.1;0.056;23.0652;20.285;23.244;22.326;44;0.337;0.066;18.64;65.4;0.060;22.3004;21.463;22.480;23.571
2021-8-21 14:15:23;4.39;0;0.00;22;0.336;0.063;18.42;65.1;0.057;22.1862;20.682;22.362;22.739;44;0.345;0.064;18.44;65.1;0.059;22.8564;21.047;23.048;23.065
2021-8-21 14:20:21;4.39;0;0.00;22;0.348;0.062;18.42;65.1;0.056;23.0692;20.287;23.251;22.305;44;0.343;0.065;18.84;65.8;0.059;22.6934;21.363;22.883;23.412
2021-8-21 14:25:20;4.39;0;0.00;22;0.339;0.063;18.42;65.1;0.057;22.4622;20.536;22.643;22.554;44;0.335;0.066;18.64;65.4;0.061;22.1314;21.789;22.317;23.878
2021-8-21 14:30:23;4.39;0;0.00;22;0.328;0.065;18.42;65.1;0.060;21.5912;21.419;21.769;23.499;44;0.343;0.065;18.84;65.8;0.059;22.6974;21.366;22.891;23.390
2021-8-21 14:35:21;4.39;0;0.00;22;0.334;0.064;18.62;65.4;0.058;22.0352;20.973;22.213;23.034;44;0.343;0.065;18.64;65.4;0.059;22.6974;21.366;22.891;23.390
2021-8-21 14:40:19;4.38;0;0.00;22;0.330;0.064;18.62;65.4;0.059;21.7572;21.126;21.936;23.177;44;0.343;0.065;18.64;65.4;0.059;22.7014;21.369;22.898;23.368
2021-8-21 14:45:22;4.39;0;0.00;22;0.334;0.064;18.62;65.4;0.058;22.0382;20.976;22.220;23.012;44;0.343;0.065;18.84;65.8;0.059;22.7014;21.369;22.898;23.368
2021-8-21 14:50:21;4.39;0;0.00;22;0.334;0.064;18.62;65.4;0.058;22.0382;20.976;22.220;23.012;44;0.343;0.065;18.84;65.8;0.059;22.7014;21.369;22.898;23.368
2021-8-21 14:55:19;4.38;0;0.00;22;0.328;0.065;18.62;65.4;0.060;21.5912;21.419;21.769;23.499;44;0.343;0.065;18.84;65.8;0.059;22.7014;21.369;22.898;23.368
2021-8-21 15:0:22;4.38;0;0.00;22;0.334;0.064;18.62;65.4;0.058;22.0422;20.978;22.227;22.990;44;0.343;0.065;18.84;65.8;0.059;22.7054;21.372;22.906;23.345
2021-8-21 15:5:20;4.38;0;0.00;22;0.344;0.062;18.82;65.8;0.057;22.8102;20.441;22.998;22.425;44;0.343;0.065;18.84;65.8;0.059;22.7054;21.372;22.906;23.345
2021-8-21 15:10:23;4.39;0;0.00;22;0.328;0.065;18.62;65.4;0.060;21.5952;21.422;21.776;23.476;44;0.343;0.065;18.84;65.8;0.059;22.7014;21.369;22.898;23.368
2021-8-21 15:15:21;4.39;0;0.00;22;0.328;0.065;18.62;65.4;0.060;21.5912;21.419;21.769;23.499;44;0.343;0.065;18.64;65.4;0.059;22.7054;21.372;22.906;23.345
2021-8-21 15:20:20;4.38;0;0.00;22;0.328;0.065;18.62;65.4;0.060;21.5952;21.422;21.776;23.476;44;0.343;0.065;18.84;65.8;0.059;22.7014;21.369;22.898;23.368
2021-8-21 15:25:22;4.39;0;0.00;22;0.334;0.064;18.62;65.4;0.058;22.0422;20.978;22.227;22.990;44;0.343;0.065;18.64;65.4;0.059;22.7054;21.372;22.906;23.345
2021-8-21 15:30:21;4.39;0;0.00;22;0.344;0.062;18.62;65.4;0.057;22.8142;20.443;23.005;22.404;44;0.343;0.065;18.84;65.8;0.059;22.7014;21.369;22.898;23.368
2021-8-21 15:35:19;4.38;0;0.00;22;0.334;0.064;18.62;65.4;0.058;22.0422;20.978;22.227;22.990;44;0.343;0.065;18.84;65.8;0.059;22.7084;21.375;22.913;23.323
2021-8-21 15:40:22;4.38;0;0.00;22;0.328;0.065;18.62;65.4;0.060;21.5952;21.422;21.776;23.476;44;0.343;0.065;18.84;65.8;0.059;22.7084;21.375;22.913;23.323
2021-8-21 15:45:20;4.38;0;0.00;22;0.334;0.064;18.62;65.4;0.058;22.0422;20.978;22.227;22.990;44;0.343;0.065;18.84;65.8;0.059;22.7084;21.375;22.913;23.323
2021-8-21 15:50:23;4.38;0;0.00;22;0.332;0.065;18.62;65.4;0.059;21.8822;21.270;22.065;23.310;44;0.343;0.065;18.94;66.1;0.059;22.7054;21.372;22.906;23.345
2021-8-21 15:55:21;4.38;0;0.00;22;0.332;0.065;18.62;65.4;0.059;21.8822;21.270;22.065;23.310;44;0.343;0.065;18.84;65.8;0.059;22.7084;21.375;22.913;23.323
2021-8-21 16:0:20;4.38;0;0.00;22;0.332;0.065;18.62;65.4;0.059;21.8822;21.270;22.065;23.310;44;0.341;0.066;18.94;66.1;0.060;22.5384;21.695;22.742;23.673
2021-8-21 16:5:22;4.38;0;0.00;22;0.328;0.065;18.62;65.4;0.060;21.5952;21.422;21.776;23.476;44;0.343;0.065;18.94;66.1;0.059;22.7084;21.375;22.913;23.323
2021-8-21 16:10:21;4.39;0;0.00;22;0.332;0.065;18.62;65.4;0.059;21.8822;21.270;22.065;23.310;44;0.343;0.065;18.84;65.8;0.059;22.7084;21.375;22.913;23.323
2021-8-21 16:15:19;4.38;0;0.00;22;0.328;0.065;18.62;65.4;0.060;21.5952;21.422;21.776;23.476;44;0.341;0.066;18.94;66.1;0.060;22.5384;21.695;22.742;23.673
2021-8-21 16:20:22;4.38;0;0.00;22;0.339;0.064;18.62;65.4;0.058;22.3982;20.883;22.590;22.861;44;0.341;0.066;18.94;66.1;0.060;22.5384;21.695;22.742;23.673
2021-8-21 16:25:20;4.38;0;0.00;22;0.339;0.064;18.62;65.4;0.058;22.3982;20.883;22.590;22.861;44;0.341;0.066;18.94;66.1;0.060;22.5384;21.695;22.742;23.673
2021-8-21 16:30:23;4.38;0;0.00;22;0.339;0.064;18.62;65.4;0.058;22.3982;20.883;22.590;22.861;44;0.355;0.063;18.94;66.1;0.058;23.5444;20.791;23.760;22.662
2021-8-21 16:35:21;4.38;0;0.00;22;0.339;0.064;18.62;65.4;0.058;22.3982;20.883;22.590;22.861;44;0.341;0.066;18.94;66.1;0.060;22.5384;21.695;22.742;23.673
2021-8-21 16:40:20;4.37;0;0.00;22;0.339;0.063;18.62;65.4;0.058;22.4022;20.886;22.597;22.839;44;0.341;0.066;18.94;66.1;0.060;22.5384;21.695;22.742;23.673
2021-8-21 16:45:23;4.38;0;0.00;22;0.339;0.064;18.62;65.4;0.058;22.3982;20.883;22.590;22.861;44;0.351;0.063;18.94;66.1;0.058;23.2544;20.955;23.467;22.841
2021-8-21 16:50:21;4.38;0;0.00;22;0.339;0.063;18.82;65.8;0.058;22.4022;20.886;22.597;22.839;44;0.337;0.066;18.94;66.1;0.061;22.2324;21.866;22.436;23.833
2021-8-21 16:55:19;4.38;0;0.00;22;0.339;0.063;18.82;65.8;0.058;22.4022;20.886;22.597;22.839;44;0.351;0.063;18.94;66.1;0.058;23.2544;20.955;23.467;22.841
2021-8-21 17:0:22;4.38;0;0.00;22;0.339;0.063;18.82;65.8;0.058;22.4022;20.886;22.597;22.839;44;0.343;0.065;18.94;66.1;0.059;22.7124;21.378;22.921;23.301
2021-8-21 17:5:21;4.38;0;0.00;22;0.339;0.063;18.62;65.4;0.058;22.4022;20.886;22.597;22.839;44;0.343;0.065;18.94;66.1;0.059;22.7124;21.378;22.921;23.301
2021-8-21 17:10:19;4.38;0;0.00;22;0.328;0.065;18.82;65.8;0.060;21.6022;21.428;21.790;23.432;44;0.341;0.066;18.94;66.1;0.060;22.5464;21.701;22.757;23.628
2021-8-21 17:15:22;4.37;0;0.00;22;0.339;0.064;18.82;65.8;0.058;22.3982;20.883;22.590;22.861;44;0.341;0.066;18.94;66.1;0.060;22.5424;21.698;22.749;23.650
2021-8-21 17:20:20;4.37;0;0.00;22;0.328;0.065;18.62;65.4;0.060;21.6022;21.428;21.790;23.432;44;0.355;0.063;18.94;66.1;0.058;23.5484;20.794;23.768;22.640
2021-8-21 17:25:23;4.38;0;0.00;22;0.328;0.065;18.62;65.4;0.060;21.6022;21.428;21.790;23.432;44;0.351;0.063;18.94;66.1;0.058;23.2584;20.958;23.475;22.819
2021-8-21 17:30:21;4.37;0;0.00;22;0.335;0.064;18.62;65.4;0.058;22.1242;21.037;22.316;23.005;44;0.337;0.066;18.94;66.1;0.061;22.2324;21.866;22.436;23.833
2021-8-21 17:35:20;4.37;0;0.00;22;0.339;0.064;18.62;65.4;0.058;22.3982;20.883;22.590;22.861;44;0.347;0.064;18.94;66.1;0.059;22.9604;21.120;23.170;23.020
2021-8-21 17:40:22;4.38;0;0.00;22;0.328;0.065;18.62;65.4;0.060;21.6022;21.428;21.790;23.432;44;0.341;0.066;18.94;66.1;0.060;22.5424;21.698;22.749;23.650
2021-8-21 17:45:21;4.37;0;0.00;22;0.339;0.063;18.82;65.8;0.058;22.4022;20.886;22.597;22.839;44;0.351;0.063;18.94;66.1;0.058;23.2584;20.958;23.475;22.819
2021-8-21 17:50:19;4.37;0;0.00;22;0.339;0.063;18.62;65.4;0.058;22.4022;20.886;22.597;22.839;44;0.341;0.066;18.94;66.1;0.060;22.5424;21.698;22.749;23.650
2021-8-21 17:55:22;4.37;0;0.00;22;0.339;0.063;18.82;65.8;0.058;22.4062;20.889;22.604;22.818;44;0.351;0.063;18.94;66.1;0.058;23.2584;20.958;23.475;22.819
2021-8-21 18:0:20;4.37;0;0.00;22;0.343;0.063;18.82;65.8;0.058;22.6802;20.738;22.881;22.653;44;0.351;0.063;18.94;66.1;0.058;23.2584;20.958;23.475;22.819
2021-8-21 18:5:23;4.37;0;0.00;22;0.339;0.063;18.82;65.8;0.058;22.4062;20.889;22.604;22.818;44;0.349;0.064;18.94;66.1;0.059;23.1004;21.274;23.316;23.163
2021-8-21 18:10:22;4.37;0;0.00;22;0.339;0.063;18.92;66.1;0.058;22.4092;20.891;22.611;22.796;44;0.351;0.063;18.94;66.1;0.058;23.2584;20.958;23.475;22.819
2021-8-21 18:15:20;4.38;0;0.00;22;0.328;0.065;18.82;65.8;0.060;21.6092;21.433;21.804;23.387;44;0.337;0.066;18.94;66.1;0.061;22.2364;21.869;22.444;23.811
2021-8-21 18:20:23;4.37;0;0.00;22;0.339;0.063;18.82;65.8;0.058;22.4092;20.891;22.611;22.796;44;0.349;0.064;18.94;66.1;0.059;23.1044;21.277;23.324;23.141
2021-8-21 18:25:21;4.37;0;0.00;22;0.339;0.063;18.82;65.8;0.058;22.4092;20.891;22.611;22.796;44;0.337;0.066;19.14;66.4;0.061;22.2364;21.869;22.444;23.811
2021-8-21 18:30:20;4.37;0;0.00;22;0.335;0.064;18.82;65.8;0.058;22.1312;21.042;22.330;22.961;44;0.341;0.066;19.14;66.4;0.060;22.5464;21.701;22.757;23.628
2021-8-21 18:35:22;4.37;0;0.00;22;0.337;0.064;18.92;66.1;0.059;22.2542;21.183;22.455;23.114;44;0.351;0.063;18.94;66.1;0.058;23.2584;20.958;23.475;22.819
2021-8-21 18:40:21;4.37;0;0.00;22;0.335;0.064;18.82;65.8;0.058;22.1312;21.042;22.330;22.961;44;0.337;0.066;18.94;66.1;0.061;22.2364;21.869;22.444;23.811
2021-8-21 18:45:19;4.37;0;0.00;22;0.335;0.064;18.92;66.1;0.058;22.1312;21.042;22.330;22.961;44;0.349;0.064;18.94;66.1;0.059;23.1044;21.277;23.324;23.141
2021-8-21 18:50:22;4.37;0;0.00;22;0.339;0.063;18.82;65.8;0.058;22.4062;20.889;22.604;22.818;44;0.337;0.066;18.94;66.1;0.061;22.2364;21.869;22.444;23.811
2021-8-21 18:55:50;4.37;0;0.00;22;0.339;0.063;18.82;65.8;0.058;22.4062;20.889;22.604;22.818;44;0.337;0.066;18.94;66.1;0.061;22.2364;21.869;22.444;23.811
2021-8-21 19:0:18;4.37;0;0.00;22;0.339;0.063;18.82;65.8;0.058;22.4062;20.889;22.604;22.818;44;0.341;0.066;19.14;66.4;0.060;22.5464;21.701;22.757;23.628
2021-8-21 19:5:21;4.37;0;0.00;22;0.339;0.063;18.82;65.8;0.058;22.4062;20.889;22.604;22.818;44;0.339;0.067;18.94;66.1;0.061;22.3694;22.026;22.578;23.981
2021-8-21 19:10:19;4.37;0;0.00;22;0.339;0.063;18.82;65.8;0.058;22.4062;20.889;22.604;22.818;44;0.337;0.066;18.94;66.1;0.061;22.2364;21.869;22.444;23.811
2021-8-21 19:15:22;4.37;0;0.00;22;0.337;0.064;18.82;65.8;0.059;22.2512;21.180;22.448;23.136;44;0.341;0.066;18.94;66.1;0.060;22.5424;21.698;22.749;23.650
2021-8-21 19:19:57;4.36;0;0.00;22;0.335;0.064;18.62;65.4;0.058;22.1272;21.040;22.323;22.983;44;0.342;0.066;18.94;66.1;0.061;22.6304;21.763;22.841;23.695
