2022-06-30 00:00:04;3.62;107.31
2022-06-30 00:01:05;3.62;107.31
2022-06-30 00:02:06;3.62;107.31
2022-06-30 00:03:02;3.62;107.31
2022-06-30 00:04:02;3.62;107.31
2022-06-30 00:05:03;3.62;107.31
2022-06-30 00:06:03;3.62;107.31
2022-06-30 00:07:04;3.62;107.31
2022-06-30 00:08:05;3.62;107.31
2022-06-30 00:09:05;3.62;107.31
2022-06-30 00:10:06;3.62;107.31
2022-06-30 00:11:02;3.62;107.31
2022-06-30 00:12:02;3.62;107.47
2022-06-30 00:13:03;3.62;107.31
2022-06-30 00:14:03;3.62;106.99
2022-06-30 00:15:04;3.62;107.31
2022-06-30 00:16:05;3.62;107.31
2022-06-30 00:17:05;3.62;107.31
2022-06-30 00:18:06;3.62;107.31
2022-06-30 00:19:02;3.62;107.31
2022-06-30 00:20:02;3.62;107.31
2022-06-30 00:21:03;3.62;107.31
2022-06-30 00:22:04;3.62;107.31
2022-06-30 00:23:04;3.62;107.31
2022-06-30 00:24:05;3.62;106.99
2022-06-30 00:25:05;3.62;107.31
2022-06-30 00:26:02;3.62;107.31
2022-06-30 00:27:02;3.62;107.31
2022-06-30 00:28:03;3.62;107.31
2022-06-30 00:29:03;3.62;107.31
2022-06-30 00:30:04;3.62;107.31
2022-06-30 00:31:04;3.62;107.31
2022-06-30 00:32:05;3.62;107.31
2022-06-30 00:33:05;3.62;107.31
2022-06-30 00:34:01;3.62;107.31
2022-06-30 00:35:02;3.62;107.31
2022-06-30 00:36:03;3.62;106.99
2022-06-30 00:37:03;3.62;107.31
2022-06-30 00:38:04;3.62;107.31
2022-06-30 00:39:04;3.62;107.31
2022-06-30 00:40:05;3.62;107.31
2022-06-30 00:41:05;3.62;106.99
2022-06-30 00:42:01;3.62;106.99
2022-06-30 00:43:02;3.62;107.47
2022-06-30 00:44:03;3.62;107.31
2022-06-30 00:45:03;3.62;107.47
2022-06-30 00:46:04;3.62;107.31
2022-06-30 00:47:04;3.62;107.31
2022-06-30 00:48:05;3.62;107.31
2022-06-30 00:49:05;3.62;106.99
2022-06-30 00:50:01;3.62;107.47
2022-06-30 00:51:02;3.62;107.31
2022-06-30 00:52:03;3.62;107.31
2022-06-30 00:53:03;3.62;106.99
2022-06-30 00:54:04;3.62;107.31
2022-06-30 00:55:04;3.62;107.31
2022-06-30 00:56:05;3.62;107.31
2022-06-30 00:57:05;3.62;107.31
2022-06-30 00:58:02;3.62;107.47
2022-06-30 00:59:02;3.62;107.47
2022-06-30 01:00:03;3.62;107.47
2022-06-30 01:01:03;3.62;107.79
2022-06-30 01:02:04;3.62;107.79
2022-06-30 01:03:04;3.62;107.79
2022-06-30 01:04:05;3.62;107.47
2022-06-30 01:05:06;3.62;107.47
2022-06-30 01:06:02;3.62;107.31
2022-06-30 01:07:02;3.62;107.79
2022-06-30 01:08:03;3.62;107.31
2022-06-30 01:09:03;3.62;107.47
2022-06-30 01:10:04;3.62;107.47
2022-06-30 01:11:05;3.62;107.47
2022-06-30 01:12:05;3.62;107.47
2022-06-30 01:13:06;3.62;107.47
2022-06-30 01:14:02;3.62;107.47
2022-06-30 01:15:02;3.62;107.31
2022-06-30 01:16:03;3.62;107.47
2022-06-30 01:17:04;3.62;107.47
2022-06-30 01:18:04;3.62;107.47
2022-06-30 01:19:05;3.62;107.47
2022-06-30 01:20:05;3.62;107.47
2022-06-30 01:21:02;3.62;107.79
2022-06-30 01:22:02;3.62;107.47
2022-06-30 01:23:03;3.62;107.47
2022-06-30 01:24:03;3.62;107.47
2022-06-30 01:25:04;3.62;107.79
2022-06-30 01:26:05;3.62;107.47
2022-06-30 01:27:05;3.62;107.47
2022-06-30 01:28:06;3.62;107.47
2022-06-30 01:29:02;3.62;107.47
2022-06-30 01:30:02;3.62;107.31
2022-06-30 01:31:03;3.62;107.47
2022-06-30 01:32:04;3.62;107.47
2022-06-30 01:33:04;3.62;107.47
2022-06-30 01:34:05;3.62;107.47
2022-06-30 01:35:05;3.62;107.31
2022-06-30 01:36:02;3.62;107.47
2022-06-30 01:37:02;3.62;107.47
2022-06-30 01:38:03;3.62;107.31
2022-06-30 01:39:03;3.62;107.31
2022-06-30 01:40:04;3.62;107.31
2022-06-30 01:41:04;3.62;107.31
2022-06-30 01:42:05;3.62;107.31
2022-06-30 01:43:06;3.62;107.31
2022-06-30 01:44:02;3.62;107.31
2022-06-30 01:45:02;3.62;107.31
2022-06-30 01:46:03;3.62;107.31
2022-06-30 01:47:04;3.62;106.99
2022-06-30 01:48:04;3.62;106.99
2022-06-30 01:49:05;3.62;107.31
2022-06-30 01:50:05;3.62;106.99
2022-06-30 01:51:02;3.62;107.31
2022-06-30 01:52:02;3.62;107.31
2022-06-30 01:53:03;3.62;107.31
2022-06-30 01:54:03;3.62;107.31
2022-06-30 01:55:04;3.62;107.31
2022-06-30 01:56:04;3.62;107.31
2022-06-30 01:57:05;3.62;107.31
2022-06-30 01:58:06;3.62;107.31
2022-06-30 01:59:02;3.62;107.31
2022-06-30 02:00:02;3.62;107.31
2022-06-30 02:01:03;3.62;107.31
2022-06-30 02:02:03;3.62;107.31
2022-06-30 02:03:04;3.62;107.31
2022-06-30 02:04:05;3.62;107.31
2022-06-30 02:05:05;3.62;107.31
2022-06-30 02:06:06;3.62;107.31
2022-06-30 02:07:02;3.62;107.31
2022-06-30 02:08:02;3.62;106.99
2022-06-30 02:09:03;3.62;107.31
2022-06-30 02:10:04;3.62;107.31
2022-06-30 02:11:04;3.62;107.31
2022-06-30 02:12:05;3.62;107.31
2022-06-30 02:13:05;3.62;107.31
2022-06-30 02:14:01;3.62;107.31
2022-06-30 02:15:02;3.62;107.31
2022-06-30 02:16:03;3.62;107.31
2022-06-30 02:17:03;3.62;107.31
2022-06-30 02:18:04;3.62;107.31
2022-06-30 02:19:04;3.62;107.31
2022-06-30 02:20:05;3.62;107.31
2022-06-30 02:21:05;3.62;107.31
2022-06-30 02:22:02;3.62;107.31
2022-06-30 02:23:02;3.62;107.31
2022-06-30 02:24:03;3.62;107.31
2022-06-30 02:25:03;3.62;107.47
2022-06-30 02:26:04;3.62;107.31
2022-06-30 02:27:05;3.62;107.31
2022-06-30 02:28:05;3.62;107.47
2022-06-30 02:29:06;3.62;107.47
2022-06-30 02:30:02;3.62;107.31
2022-06-30 02:31:02;3.62;107.31
2022-06-30 02:32:03;3.62;107.47
2022-06-30 02:33:04;3.62;107.31
2022-06-30 02:34:04;3.62;107.31
2022-06-30 02:35:05;3.62;107.31
2022-06-30 02:36:05;3.62;107.31
2022-06-30 02:37:01;3.62;106.99
2022-06-30 02:38:02;3.62;107.31
2022-06-30 02:39:03;3.62;107.31
2022-06-30 02:40:03;3.62;107.31
2022-06-30 02:41:04;3.62;107.31
2022-06-30 02:42:04;3.62;107.31
2022-06-30 02:43:05;3.62;107.31
2022-06-30 02:44:06;3.62;107.31
2022-06-30 02:45:02;3.62;107.31
2022-06-30 02:46:02;3.62;107.31
2022-06-30 02:47:03;3.62;107.31
2022-06-30 02:48:03;3.62;107.31
2022-06-30 02:49:04;3.62;107.31
2022-06-30 02:50:05;3.62;107.31
2022-06-30 02:51:05;3.62;107.31
2022-06-30 02:52:06;3.62;107.31
2022-06-30 02:53:02;3.62;107.31
2022-06-30 02:54:03;3.62;107.31
2022-06-30 02:55:03;3.62;107.31
2022-06-30 02:56:04;3.62;107.31
2022-06-30 02:57:04;3.62;107.31
2022-06-30 02:58:05;3.62;107.31
2022-06-30 02:59:05;3.62;107.31
2022-06-30 03:00:02;3.62;107.31
2022-06-30 03:01:02;3.62;107.31
2022-06-30 03:02:03;3.62;107.31
2022-06-30 03:03:03;3.62;107.31
2022-06-30 03:04:04;3.62;107.31
2022-06-30 03:05:04;3.62;106.99
2022-06-30 03:06:05;3.62;107.31
2022-06-30 03:07:05;3.62;107.31
2022-06-30 03:08:02;3.62;107.31
2022-06-30 03:09:02;3.62;107.47
2022-06-30 03:10:03;3.62;107.47
2022-06-30 03:11:03;3.62;107.47
2022-06-30 03:12:04;3.62;107.47
2022-06-30 03:13:05;3.62;107.47
2022-06-30 03:14:05;3.62;107.47
2022-06-30 03:15:06;3.62;107.47
2022-06-30 03:16:02;3.62;107.47
2022-06-30 03:17:02;3.61;107.47
2022-06-30 03:18:03;3.62;107.31
2022-06-30 03:19:03;3.62;107.47
2022-06-30 03:20:04;3.62;107.47
2022-06-30 03:21:04;3.62;107.47
2022-06-30 03:22:05;3.62;107.31
2022-06-30 03:23:06;3.62;107.47
2022-06-30 03:24:02;3.62;107.47
2022-06-30 03:25:02;3.62;107.47
2022-06-30 03:26:03;3.62;107.47
2022-06-30 03:27:03;3.62;107.47
2022-06-30 03:28:04;3.61;107.47
2022-06-30 03:29:04;3.62;107.31
2022-06-30 03:30:05;3.62;107.47
2022-06-30 03:31:06;3.62;107.47
2022-06-30 03:32:02;3.61;107.47
2022-06-30 03:33:02;3.62;107.47
2022-06-30 03:34:03;3.62;107.47
2022-06-30 03:35:03;3.62;107.31
2022-06-30 03:36:04;3.62;107.47
2022-06-30 03:37:04;3.62;107.47
2022-06-30 03:38:05;3.61;107.47
2022-06-30 03:39:05;3.62;107.47
2022-06-30 03:40:02;3.62;107.47
2022-06-30 03:41:02;3.61;107.47
2022-06-30 03:42:03;3.62;107.47
2022-06-30 03:43:03;3.62;107.47
2022-06-30 03:44:04;3.61;107.47
2022-06-30 03:45:04;3.62;107.47
2022-06-30 03:46:05;3.62;107.47
2022-06-30 03:47:05;3.61;107.47
2022-06-30 03:48:01;3.61;107.47
2022-06-30 03:49:02;3.61;107.47
2022-06-30 03:50:03;3.61;107.31
2022-06-30 03:51:03;3.62;107.47
2022-06-30 03:52:04;3.62;107.47
2022-06-30 03:53:04;3.61;107.47
2022-06-30 03:54:05;3.61;106.99
2022-06-30 03:55:05;3.61;107.47
2022-06-30 03:56:01;3.61;107.47
2022-06-30 03:57:02;3.62;107.47
2022-06-30 03:58:03;3.61;107.47
2022-06-30 03:59:03;3.61;107.47
2022-06-30 04:00:04;3.61;107.47
2022-06-30 04:01:04;3.61;107.47
2022-06-30 04:02:05;3.62;107.47
2022-06-30 04:03:05;3.61;107.31
2022-06-30 04:04:01;3.61;107.31
2022-06-30 04:05:02;3.61;107.47
2022-06-30 04:06:03;3.61;107.47
2022-06-30 04:07:03;3.61;107.31
2022-06-30 04:08:04;3.61;107.47
2022-06-30 04:09:04;3.61;107.47
2022-06-30 04:10:05;3.61;107.47
2022-06-30 04:11:05;3.61;107.47
2022-06-30 04:12:02;3.61;107.47
2022-06-30 04:13:02;3.61;107.47
2022-06-30 04:14:03;3.61;107.47
2022-06-30 04:15:03;3.61;107.47
2022-06-30 04:16:04;3.61;107.31
2022-06-30 04:17:04;3.61;107.47
2022-06-30 04:18:05;3.61;107.31
2022-06-30 04:19:06;3.61;107.31
2022-06-30 04:20:02;3.61;107.47
2022-06-30 04:21:02;3.61;107.31
2022-06-30 04:22:03;3.61;107.31
2022-06-30 04:23:04;3.61;107.31
2022-06-30 04:24:04;3.61;107.31
2022-06-30 04:25:05;3.61;106.99
2022-06-30 04:26:05;3.61;107.31
2022-06-30 04:27:06;3.61;106.99
2022-06-30 04:28:02;3.61;107.31
2022-06-30 04:29:02;3.61;107.31
2022-06-30 04:30:03;3.61;107.31
2022-06-30 04:31:04;3.61;107.31
2022-06-30 04:32:04;3.61;107.31
2022-06-30 04:33:05;3.61;107.31
2022-06-30 04:34:05;3.61;107.31
2022-06-30 04:35:06;3.61;107.31
2022-06-30 04:36:02;3.61;107.31
2022-06-30 04:37:03;3.61;107.31
2022-06-30 04:38:03;3.61;106.99
2022-06-30 04:39:04;3.61;107.31
2022-06-30 04:40:04;3.61;107.31
2022-06-30 04:41:05;3.61;107.31
2022-06-30 04:42:05;3.61;107.31
2022-06-30 04:43:02;3.61;107.31
2022-06-30 04:44:02;3.61;107.31
2022-06-30 04:45:03;3.61;107.31
2022-06-30 04:46:03;3.61;107.31
2022-06-30 04:47:04;3.61;106.99
2022-06-30 04:48:04;3.61;107.31
2022-06-30 04:49:05;3.61;107.31
2022-06-30 04:50:05;3.61;107.31
2022-06-30 04:51:01;3.61;107.31
2022-06-30 04:52:02;3.61;107.31
2022-06-30 04:53:03;3.61;107.31
2022-06-30 04:54:03;3.61;107.31
2022-06-30 04:55:04;3.61;107.31
2022-06-30 04:56:04;3.61;107.31
2022-06-30 04:57:05;3.61;107.31
2022-06-30 04:58:05;3.61;107.31
2022-06-30 04:59:02;3.61;107.31
2022-06-30 05:00:02;3.61;107.31
2022-06-30 05:01:03;3.61;107.31
2022-06-30 05:02:03;3.61;107.31
2022-06-30 05:03:04;3.61;107.31
2022-06-30 05:04:04;3.61;107.31
2022-06-30 05:05:05;3.61;107.31
2022-06-30 05:06:05;3.61;107.31
2022-06-30 05:07:02;3.61;107.31
2022-06-30 05:08:02;3.61;107.31
2022-06-30 05:09:03;3.61;106.99
2022-06-30 05:10:03;3.61;106.99
2022-06-30 05:11:04;3.61;107.31
2022-06-30 05:12:04;3.61;107.31
2022-06-30 05:13:05;3.61;107.31
2022-06-30 05:14:06;3.61;107.31
2022-06-30 05:15:02;3.61;107.31
2022-06-30 05:16:02;3.61;106.99
2022-06-30 05:17:03;3.61;106.99
2022-06-30 05:18:03;3.61;107.31
2022-06-30 05:19:04;3.61;107.47
2022-06-30 05:20:05;3.61;107.31
2022-06-30 05:21:05;3.61;107.31
2022-06-30 05:22:06;3.61;107.47
2022-06-30 05:23:02;3.61;107.31
2022-06-30 05:24:02;3.61;107.31
2022-06-30 05:25:03;3.61;106.99
2022-06-30 05:26:03;3.61;107.31
2022-06-30 05:27:04;3.61;107.47
2022-06-30 05:28:05;3.61;107.47
2022-06-30 05:29:05;3.61;107.47
2022-06-30 05:30:06;3.61;107.31
2022-06-30 05:31:02;3.61;106.99
2022-06-30 05:32:02;3.61;107.31
2022-06-30 05:33:03;3.61;107.31
2022-06-30 05:34:04;3.61;107.31
2022-06-30 05:35:04;3.61;107.31
2022-06-30 05:36:05;3.61;107.47
2022-06-30 05:37:05;3.61;107.47
2022-06-30 05:38:01;3.61;107.47
2022-06-30 05:39:02;3.61;107.31
2022-06-30 05:40:03;3.61;107.31
2022-06-30 05:41:03;3.61;107.31
2022-06-30 05:42:04;3.61;107.47
2022-06-30 05:43:04;3.61;107.47
2022-06-30 05:44:05;3.61;107.47
2022-06-30 05:45:06;3.61;107.31
2022-06-30 05:46:02;3.61;107.47
2022-06-30 05:47:02;3.61;107.47
2022-06-30 05:48:03;3.61;107.47
2022-06-30 05:49:03;3.61;107.47
2022-06-30 05:50:04;3.61;107.47
2022-06-30 05:51:05;3.61;107.47
2022-06-30 05:52:05;3.61;107.47
2022-06-30 05:53:01;3.61;107.31
2022-06-30 05:54:02;3.61;106.99
2022-06-30 05:55:03;3.61;107.47
2022-06-30 05:56:03;3.61;107.47
2022-06-30 05:57:04;3.61;107.47
2022-06-30 05:58:04;3.61;107.47
2022-06-30 05:59:05;3.61;107.47
2022-06-30 06:00:05;3.61;107.47
2022-06-30 06:01:02;3.61;107.47
2022-06-30 06:02:02;3.61;107.47
2022-06-30 06:03:03;3.61;107.47
2022-06-30 06:04:03;3.61;107.47
2022-06-30 06:05:04;3.61;107.47
2022-06-30 06:06:05;3.61;107.47
2022-06-30 06:07:05;3.61;107.31
2022-06-30 06:08:06;3.61;107.47
2022-06-30 06:09:02;3.61;106.99
2022-06-30 06:10:02;3.61;107.31
2022-06-30 06:11:03;3.61;107.31
2022-06-30 06:12:03;3.61;107.31
2022-06-30 06:13:04;3.61;107.47
2022-06-30 06:14:04;3.61;107.31
2022-06-30 06:15:05;3.61;107.31
2022-06-30 06:16:06;3.61;107.31
2022-06-30 06:17:02;3.61;107.31
2022-06-30 06:18:02;3.61;107.31
2022-06-30 06:19:03;3.61;107.31
2022-06-30 06:20:03;3.61;107.31
2022-06-30 06:21:04;3.61;107.31
2022-06-30 06:22:04;3.61;107.31
2022-06-30 06:23:05;3.61;107.31
2022-06-30 06:24:06;3.61;107.31
2022-06-30 06:25:02;3.61;107.31
2022-06-30 06:26:02;3.61;107.31
2022-06-30 06:27:03;3.61;107.31
2022-06-30 06:28:03;3.61;107.31
2022-06-30 06:29:04;3.61;107.47
2022-06-30 06:30:04;3.61;107.31
2022-06-30 06:31:05;3.61;107.31
2022-06-30 06:32:05;3.61;107.47
2022-06-30 06:33:02;3.61;107.47
2022-06-30 06:34:02;3.61;107.31
2022-06-30 06:35:03;3.61;107.47
2022-06-30 06:36:03;3.61;107.47
2022-06-30 06:37:04;3.61;107.47
2022-06-30 06:38:04;3.61;107.47
2022-06-30 06:39:05;3.61;107.47
2022-06-30 06:40:05;3.61;107.47
2022-06-30 06:41:02;3.61;107.47
2022-06-30 06:42:02;3.61;107.47
2022-06-30 06:43:03;3.61;107.47
2022-06-30 06:44:03;3.61;107.47
2022-06-30 06:45:04;3.61;107.31
2022-06-30 06:46:04;3.61;107.31
2022-06-30 06:47:05;3.61;107.47
2022-06-30 06:48:05;3.61;107.47
2022-06-30 06:49:02;3.61;107.47
2022-06-30 06:50:02;3.61;107.47
2022-06-30 06:51:03;3.61;107.47
2022-06-30 06:52:03;3.61;107.47
2022-06-30 06:53:04;3.61;107.47
2022-06-30 06:54:04;3.61;107.31
2022-06-30 06:55:05;3.61;107.47
2022-06-30 06:56:05;3.61;107.47
2022-06-30 06:57:02;3.61;107.47
2022-06-30 06:58:02;3.61;107.31
2022-06-30 06:59:03;3.61;107.47
2022-06-30 07:00:03;3.61;107.47
2022-06-30 07:01:04;3.61;107.47
2022-06-30 07:02:04;3.61;107.47
2022-06-30 07:03:05;3.61;107.31
2022-06-30 07:04:05;3.61;107.47
2022-06-30 07:05:02;3.61;107.47
2022-06-30 07:06:02;3.61;107.47
2022-06-30 07:07:03;3.61;107.47
2022-06-30 07:08:03;3.61;107.47
2022-06-30 07:09:04;3.61;107.47
2022-06-30 07:10:04;3.61;107.47
2022-06-30 07:11:05;3.61;107.31
2022-06-30 07:12:05;3.61;107.47
2022-06-30 07:13:02;3.61;106.99
2022-06-30 07:14:02;3.61;107.47
2022-06-30 07:15:03;3.61;107.31
2022-06-30 07:16:03;3.61;107.47
2022-06-30 07:17:04;3.61;107.47
2022-06-30 07:18:04;3.61;107.31
2022-06-30 07:19:05;3.61;107.47
2022-06-30 07:20:06;3.61;107.47
2022-06-30 07:21:02;3.61;107.47
2022-06-30 07:22:02;3.61;107.31
2022-06-30 07:23:03;3.61;107.31
2022-06-30 07:24:03;3.61;107.47
2022-06-30 07:25:04;3.61;107.31
2022-06-30 07:26:05;3.61;107.47
2022-06-30 07:27:05;3.61;107.31
2022-06-30 07:28:06;3.61;107.47
2022-06-30 07:29:02;3.61;107.31
2022-06-30 07:30:02;3.61;107.47
2022-06-30 07:31:03;3.61;107.31
2022-06-30 07:32:03;3.61;107.47
2022-06-30 07:33:04;3.61;107.47
2022-06-30 07:34:05;3.61;106.99
2022-06-30 07:35:05;3.61;106.99
2022-06-30 07:36:06;3.61;107.47
2022-06-30 07:37:02;3.61;107.47
2022-06-30 07:38:02;3.61;107.31
2022-06-30 07:39:03;3.61;107.31
2022-06-30 07:40:03;3.61;107.47
2022-06-30 07:41:04;3.61;107.47
2022-06-30 07:42:04;3.61;107.31
2022-06-30 07:43:05;3.61;107.31
2022-06-30 07:44:05;3.61;107.47
2022-06-30 07:45:01;3.61;107.47
2022-06-30 07:46:02;3.61;107.47
2022-06-30 07:47:03;3.61;107.31
2022-06-30 07:48:03;3.61;107.31
2022-06-30 07:49:04;3.61;107.31
2022-06-30 07:50:04;3.61;107.31
2022-06-30 07:51:05;3.61;107.31
2022-06-30 07:52:05;3.61;107.31
2022-06-30 07:53:06;3.61;107.31
2022-06-30 07:54:02;3.61;107.47
2022-06-30 07:55:02;3.61;107.31
2022-06-30 07:56:03;3.61;106.99
2022-06-30 07:57:03;3.61;107.31
2022-06-30 07:58:04;3.61;107.31
2022-06-30 07:59:05;3.61;107.31
2022-06-30 08:00:05;3.61;107.31
2022-06-30 08:01:06;3.61;107.31
2022-06-30 08:02:02;3.61;107.31
2022-06-30 08:03:02;3.61;107.31
2022-06-30 08:04:03;3.61;107.31
2022-06-30 08:05:03;3.61;107.47
2022-06-30 08:06:04;3.61;107.31
2022-06-30 08:07:04;3.61;107.31
2022-06-30 08:08:05;3.61;107.31
2022-06-30 08:09:05;3.61;107.31
2022-06-30 08:10:02;3.61;107.47
2022-06-30 08:11:02;3.61;107.31
2022-06-30 08:12:03;3.61;106.99
2022-06-30 08:13:03;3.61;107.47
2022-06-30 08:14:04;3.61;107.47
2022-06-30 08:15:04;3.61;107.47
2022-06-30 08:16:05;3.61;107.31
2022-06-30 08:17:05;3.61;107.31
2022-06-30 08:18:01;3.61;107.31
2022-06-30 08:19:02;3.61;106.99
2022-06-30 08:20:03;3.61;107.31
2022-06-30 08:21:03;3.61;107.47
2022-06-30 08:22:04;3.61;107.31
2022-06-30 08:23:04;3.61;107.31
2022-06-30 08:24:05;3.61;107.31
2022-06-30 08:25:05;3.61;107.31
2022-06-30 08:26:06;3.61;107.31
2022-06-30 08:27:02;3.61;107.47
2022-06-30 08:28:02;3.61;107.31
2022-06-30 08:29:03;3.61;107.31
2022-06-30 08:30:04;3.61;107.31
2022-06-30 08:31:04;3.61;107.47
2022-06-30 08:32:05;3.61;107.31
2022-06-30 08:33:05;3.61;106.99
2022-06-30 08:34:06;3.61;107.31
2022-06-30 08:35:02;3.61;107.47
2022-06-30 08:36:02;3.61;107.47
2022-06-30 08:37:03;3.61;106.99
2022-06-30 08:38:04;3.61;107.31
2022-06-30 08:39:04;3.60;106.99
2022-06-30 08:40:05;3.61;106.99
2022-06-30 08:41:05;3.61;106.99
2022-06-30 08:42:06;3.61;106.99
2022-06-30 08:43:02;3.60;107.31
2022-06-30 08:44:02;3.61;107.31
2022-06-30 08:45:03;3.61;106.66
2022-06-30 08:46:04;3.61;107.31
2022-06-30 08:47:04;3.61;107.31
2022-06-30 08:48:05;3.61;107.31
2022-06-30 08:49:05;3.61;107.31
2022-06-30 08:50:06;3.61;107.31
2022-06-30 08:51:02;3.60;107.31
2022-06-30 08:52:03;3.61;107.31
2022-06-30 08:53:03;3.60;107.31
2022-06-30 08:54:04;3.60;107.31
2022-06-30 08:55:04;3.60;107.31
2022-06-30 08:56:05;3.60;106.99
2022-06-30 08:57:05;3.61;107.31
2022-06-30 08:58:02;3.61;107.31
2022-06-30 08:59:02;3.61;106.66
2022-06-30 09:00:03;3.61;107.31
2022-06-30 09:01:03;3.60;107.31
2022-06-30 09:02:04;3.60;106.99
2022-06-30 09:03:04;3.60;106.99
2022-06-30 09:04:05;3.60;106.66
2022-06-30 09:05:05;3.61;106.99
2022-06-30 09:06:06;3.61;107.31
2022-06-30 09:07:02;3.60;107.31
2022-06-30 09:08:02;3.60;107.31
2022-06-30 09:09:03;3.60;106.99
2022-06-30 09:10:03;3.60;107.31
2022-06-30 09:11:04;3.61;107.31
2022-06-30 09:12:05;3.60;107.31
2022-06-30 09:13:05;3.60;107.31
2022-06-30 09:14:06;3.60;107.31
2022-06-30 09:15:02;3.60;106.99
2022-06-30 09:16:02;3.60;106.99
2022-06-30 09:17:03;3.61;107.31
2022-06-30 09:18:03;3.60;107.31
2022-06-30 09:19:04;3.60;107.31
2022-06-30 09:20:04;3.60;107.31
2022-06-30 09:21:05;3.60;106.99
2022-06-30 09:22:06;3.60;106.99
2022-06-30 09:23:02;3.60;107.31
2022-06-30 09:24:02;3.60;107.31
2022-06-30 09:25:03;3.60;107.31
2022-06-30 09:26:03;3.61;107.31
2022-06-30 09:27:04;3.60;107.31
2022-06-30 09:28:04;3.60;107.31
2022-06-30 09:29:05;3.60;107.31
2022-06-30 09:30:06;3.60;106.99
2022-06-30 09:31:02;3.60;107.31
2022-06-30 09:32:02;3.60;107.31
2022-06-30 09:33:03;3.60;107.31
2022-06-30 09:34:03;3.60;106.99
2022-06-30 09:35:04;3.60;107.31
2022-06-30 09:36:04;3.60;107.31
2022-06-30 09:37:05;3.60;107.31
2022-06-30 09:38:06;3.60;107.31
2022-06-30 09:39:02;3.60;107.31
2022-06-30 09:40:02;3.60;107.31
2022-06-30 09:41:03;3.60;107.31
2022-06-30 09:42:03;3.60;107.31
2022-06-30 09:43:04;3.60;107.47
2022-06-30 09:44:04;3.60;107.31
2022-06-30 09:45:05;3.60;107.31
2022-06-30 09:46:06;3.60;107.31
2022-06-30 09:47:02;3.60;107.47
2022-06-30 09:48:02;3.60;107.47
2022-06-30 09:49:03;3.60;107.47
2022-06-30 09:50:03;3.60;107.31
2022-06-30 09:51:04;3.60;107.47
2022-06-30 09:52:05;3.60;107.47
2022-06-30 09:53:05;3.60;107.47
2022-06-30 09:54:06;3.60;107.31
2022-06-30 09:55:02;3.60;107.47
2022-06-30 09:56:02;3.60;107.47
2022-06-30 09:57:03;3.60;107.47
2022-06-30 09:58:04;3.61;107.31
2022-06-30 09:59:04;3.60;107.31
2022-06-30 10:00:05;3.60;107.47
2022-06-30 10:01:05;3.60;107.31
2022-06-30 10:02:02;3.60;107.47
2022-06-30 10:03:02;3.60;107.47
2022-06-30 10:04:03;3.60;107.47
2022-06-30 10:05:03;3.60;107.47
2022-06-30 10:06:04;3.60;107.47
2022-06-30 10:07:05;3.60;107.47
2022-06-30 10:08:05;3.60;107.47
2022-06-30 10:09:06;3.60;107.47
2022-06-30 10:10:02;3.60;107.47
2022-06-30 10:11:02;3.60;107.47
2022-06-30 10:12:03;3.60;107.47
2022-06-30 10:13:04;3.60;107.47
2022-06-30 10:14:04;3.60;107.79
2022-06-30 10:15:05;3.60;107.79
2022-06-30 10:16:06;3.60;107.79
2022-06-30 10:17:02;3.60;107.79
2022-06-30 10:18:02;3.60;107.79
2022-06-30 10:19:03;3.60;107.47
2022-06-30 10:20:04;3.60;108.11
2022-06-30 10:21:04;3.60;107.79
2022-06-30 10:22:05;3.60;107.47
2022-06-30 10:23:06;3.60;108.11
2022-06-30 10:24:02;3.60;107.79
2022-06-30 10:25:02;3.60;107.79
2022-06-30 10:26:03;3.60;107.79
2022-06-30 10:27:03;3.60;107.79
2022-06-30 10:28:04;3.60;107.79
2022-06-30 10:29:05;3.60;107.79
2022-06-30 10:30:05;3.60;107.79
2022-06-30 10:31:06;3.60;107.79
2022-06-30 10:32:02;3.60;108.11
2022-06-30 10:33:02;3.60;108.11
2022-06-30 10:34:03;3.60;107.79
2022-06-30 10:35:04;3.60;108.11
2022-06-30 10:36:04;3.60;107.79
2022-06-30 10:37:05;3.60;108.11
2022-06-30 10:38:05;3.60;108.11
2022-06-30 10:39:02;3.60;108.11
2022-06-30 10:40:02;3.60;108.11
2022-06-30 10:41:03;3.60;108.11
2022-06-30 10:42:03;3.60;108.11
2022-06-30 10:43:04;3.60;108.11
2022-06-30 10:44:05;3.60;108.11
2022-06-30 10:45:05;3.60;108.11
2022-06-30 10:46:06;3.60;108.11
2022-06-30 10:47:02;3.60;108.27
2022-06-30 10:48:02;3.60;108.27
2022-06-30 10:49:03;3.60;107.79
2022-06-30 10:50:04;3.60;108.11
2022-06-30 10:51:04;3.60;108.27
2022-06-30 10:52:05;3.60;108.27
2022-06-30 10:53:06;3.60;108.11
2022-06-30 10:54:02;3.60;108.27
2022-06-30 10:55:02;3.60;108.11
2022-06-30 10:56:03;3.60;108.27
2022-06-30 10:57:04;3.60;108.27
2022-06-30 10:58:04;3.60;108.27
2022-06-30 10:59:05;3.60;108.27
2022-06-30 11:00:05;3.60;108.27
2022-06-30 11:01:02;3.60;108.27
2022-06-30 11:02:02;3.60;108.27
2022-06-30 11:03:03;3.60;108.27
2022-06-30 11:04:03;3.60;108.27
2022-06-30 11:05:04;3.60;108.60
2022-06-30 11:06:05;3.60;108.27
2022-06-30 11:07:05;3.60;108.60
2022-06-30 11:08:02;3.60;108.60
2022-06-30 11:09:02;3.60;108.27
2022-06-30 11:10:03;3.60;108.60
2022-06-30 11:11:04;3.60;108.60
2022-06-30 11:12:04;3.60;108.27
2022-06-30 11:13:05;3.60;108.60
2022-06-30 11:14:06;3.60;108.27
2022-06-30 11:15:02;3.60;108.27
2022-06-30 11:16:02;3.60;108.60
2022-06-30 11:17:03;3.60;108.60
2022-06-30 11:18:04;3.60;108.60
2022-06-30 11:19:05;3.60;108.60
2022-06-30 11:20:05;3.60;108.92
2022-06-30 11:21:06;3.60;108.92
2022-06-30 11:22:02;3.60;108.92
2022-06-30 11:23:03;3.60;108.92
2022-06-30 11:24:04;3.60;108.92
2022-06-30 11:25:04;3.60;108.60
2022-06-30 11:26:05;3.60;108.60
2022-06-30 11:27:06;3.60;108.27
2022-06-30 11:28:02;3.60;108.27
2022-06-30 11:29:03;3.60;108.60
2022-06-30 11:30:03;3.60;108.60
2022-06-30 11:31:04;3.60;108.60
2022-06-30 11:32:05;3.60;108.27
2022-06-30 11:33:06;3.60;108.60
2022-06-30 11:34:02;3.60;108.60
2022-06-30 11:35:03;3.60;108.60
2022-06-30 11:36:03;3.60;108.60
2022-06-30 11:37:04;3.60;108.60
2022-06-30 11:38:05;3.60;108.60
2022-06-30 11:39:06;3.60;108.27
2022-06-30 11:40:02;3.60;108.60
2022-06-30 11:41:03;3.60;108.60
2022-06-30 11:42:03;3.60;108.60
2022-06-30 11:43:04;3.60;108.60
2022-06-30 11:44:05;3.60;108.92
2022-06-30 11:45:06;3.60;108.60
2022-06-30 11:46:02;3.60;108.92
2022-06-30 11:47:03;3.60;108.60
2022-06-30 11:48:03;3.60;108.60
2022-06-30 11:49:04;3.60;108.60
2022-06-30 11:50:05;3.60;108.60
2022-06-30 11:51:06;3.60;108.92
2022-06-30 11:52:02;3.60;108.60
2022-06-30 11:53:03;3.60;108.60
2022-06-30 11:54:04;3.60;108.92
2022-06-30 11:55:05;3.60;108.27
2022-06-30 11:56:05;3.60;108.60
2022-06-30 11:57:06;3.60;108.27
2022-06-30 11:58:02;3.60;108.60
2022-06-30 11:59:03;3.60;108.60
2022-06-30 12:00:04;3.60;108.27
2022-06-30 12:01:05;3.60;108.27
2022-06-30 12:02:06;3.60;108.60
2022-06-30 12:03:02;3.60;108.92
2022-06-30 12:04:03;3.60;108.92
2022-06-30 12:05:03;3.60;108.92
2022-06-30 12:06:04;3.60;108.92
2022-06-30 12:07:05;3.60;109.08
2022-06-30 12:08:06;3.60;109.08
2022-06-30 12:09:02;3.60;109.08
2022-06-30 12:10:03;3.60;109.08
2022-06-30 12:11:04;3.60;109.08
2022-06-30 12:12:05;3.60;108.92
2022-06-30 12:13:06;3.60;108.92
2022-06-30 12:14:02;3.60;109.08
2022-06-30 12:15:03;3.60;108.92
2022-06-30 12:16:04;3.60;108.60
2022-06-30 12:17:05;3.60;109.08
2022-06-30 12:18:06;3.60;109.08
2022-06-30 12:19:02;3.60;108.92
2022-06-30 12:20:03;3.60;108.92
2022-06-30 12:21:04;3.60;108.92
2022-06-30 12:22:05;3.60;109.08
2022-06-30 12:23:06;3.60;108.92
2022-06-30 12:24:02;3.60;108.92
2022-06-30 12:25:03;3.60;108.60
2022-06-30 12:26:04;3.60;108.92
2022-06-30 12:27:05;3.60;108.92
2022-06-30 12:28:06;3.60;108.92
2022-06-30 12:29:02;3.60;108.60
2022-06-30 12:30:03;3.60;108.92
2022-06-30 12:31:04;3.60;108.92
2022-06-30 12:32:05;3.60;108.60
2022-06-30 12:33:06;3.60;108.60
2022-06-30 12:34:02;3.60;108.92
2022-06-30 12:35:03;3.59;108.92
2022-06-30 12:36:04;3.60;108.92
2022-06-30 12:37:05;3.60;108.60
2022-06-30 12:38:06;3.58;108.92
2022-06-30 12:39:03;3.60;108.92
2022-06-30 12:40:04;3.60;108.92
2022-06-30 12:41:04;3.60;108.92
2022-06-30 12:42:05;3.60;108.92
2022-06-30 12:43:02;3.58;108.92
2022-06-30 12:44:03;3.60;108.60
2022-06-30 12:45:04;3.59;108.92
2022-06-30 12:46:05;3.60;108.60
2022-06-30 12:47:06;3.60;108.92
2022-06-30 12:48:02;3.60;108.60
2022-06-30 12:49:03;3.60;108.60
2022-06-30 12:50:04;3.60;108.92
2022-06-30 12:51:05;3.59;108.92
2022-06-30 12:52:06;3.60;108.60
2022-06-30 12:53:03;3.60;109.08
2022-06-30 12:54:04;3.60;108.92
2022-06-30 12:55:05;3.58;108.92
2022-06-30 12:56:06;3.60;109.08
2022-06-30 12:57:02;3.60;109.08
2022-06-30 12:58:03;3.60;109.08
2022-06-30 12:59:04;3.60;109.08
2022-06-30 13:00:05;3.60;109.08
2022-06-30 13:01:06;3.60;109.40
2022-06-30 13:02:03;3.60;109.08
2022-06-30 13:03:04;3.60;109.08
2022-06-30 13:04:05;3.60;109.40
2022-06-30 13:05:06;3.60;109.08
2022-06-30 13:06:02;3.60;109.40
2022-06-30 13:07:03;3.60;108.92
2022-06-30 13:08:04;3.60;108.92
2022-06-30 13:09:05;3.60;108.92
2022-06-30 13:10:02;3.60;108.92
2022-06-30 13:11:03;3.59;108.92
2022-06-30 13:12:04;3.60;109.08
2022-06-30 13:13:05;3.60;108.92
2022-06-30 13:14:06;3.60;109.08
2022-06-30 13:15:03;3.59;108.92
2022-06-30 13:16:04;3.60;108.60
2022-06-30 13:17:05;3.60;108.92
2022-06-30 13:18:06;3.60;108.92
2022-06-30 13:19:02;3.60;109.08
2022-06-30 13:20:03;3.60;108.92
2022-06-30 13:21:04;3.60;108.60
2022-06-30 13:22:05;3.60;108.60
2022-06-30 13:23:02;3.60;108.92
2022-06-30 13:24:03;3.60;109.08
2022-06-30 13:25:04;3.60;108.92
2022-06-30 13:26:05;3.59;109.08
2022-06-30 13:27:06;3.60;108.60
2022-06-30 13:28:02;3.60;109.08
2022-06-30 13:29:03;3.60;108.92
2022-06-30 13:30:04;3.60;108.60
2022-06-30 13:31:05;3.60;108.92
2022-06-30 13:32:02;3.57;108.92
2022-06-30 13:33:03;3.60;109.08
2022-06-30 13:34:04;3.60;108.92
2022-06-30 13:35:05;3.59;109.08
2022-06-30 13:36:06;3.60;109.08
2022-06-30 13:37:03;3.60;109.08
2022-06-30 13:38:04;3.60;109.08
2022-06-30 13:39:05;3.60;109.08
2022-06-30 13:40:06;3.60;109.40
2022-06-30 13:41:02;3.59;109.40
2022-06-30 13:42:03;3.60;109.08
2022-06-30 13:43:04;3.60;109.08
2022-06-30 13:44:05;3.60;109.08
2022-06-30 13:45:02;3.60;109.40
2022-06-30 13:46:03;3.60;109.08
2022-06-30 13:47:04;3.60;109.08
2022-06-30 13:48:05;3.60;109.08
2022-06-30 13:49:06;3.60;109.08
2022-06-30 13:50:03;3.60;109.08
2022-06-30 13:51:04;3.60;108.92
2022-06-30 13:52:05;3.60;109.08
2022-06-30 13:53:06;3.60;109.08
2022-06-30 13:54:02;3.60;108.92
2022-06-30 13:55:03;3.60;109.40
2022-06-30 13:56:04;3.60;109.08
2022-06-30 13:57:05;3.60;109.08
2022-06-30 13:58:02;3.60;109.40
2022-06-30 13:59:03;3.60;109.40
2022-06-30 14:00:04;3.60;109.72
2022-06-30 14:01:05;3.60;109.40
2022-06-30 14:02:06;3.60;109.40
2022-06-30 14:03:03;3.60;109.40
2022-06-30 14:04:04;3.60;109.72
2022-06-30 14:05:05;3.59;109.40
2022-06-30 14:06:06;3.60;109.40
2022-06-30 14:07:02;3.59;109.40
2022-06-30 14:08:04;3.60;109.08
2022-06-30 14:09:05;3.59;109.40
2022-06-30 14:10:06;3.60;109.40
2022-06-30 14:11:02;3.60;109.40
2022-06-30 14:12:03;3.60;109.72
2022-06-30 14:13:04;3.60;109.72
2022-06-30 14:14:05;3.60;109.72
2022-06-30 14:15:02;3.60;109.72
2022-06-30 14:16:03;3.60;109.40
2022-06-30 14:17:04;3.58;109.40
2022-06-30 14:18:05;3.60;109.72
2022-06-30 14:19:06;3.60;109.40
2022-06-30 14:20:03;3.60;109.72
2022-06-30 14:21:04;3.60;109.72
2022-06-30 14:22:05;3.59;109.72
2022-06-30 14:23:06;3.60;109.72
2022-06-30 14:24:03;3.60;109.72
2022-06-30 14:25:04;3.60;109.72
2022-06-30 14:26:05;3.60;109.72
2022-06-30 14:27:06;3.60;109.40
2022-06-30 14:28:02;3.59;109.72
2022-06-30 14:29:04;3.60;109.72
2022-06-30 14:30:05;3.60;109.72
2022-06-30 14:31:06;3.60;109.72
2022-06-30 14:32:02;3.59;109.72
2022-06-30 14:33:03;3.60;109.72
2022-06-30 14:34:04;3.60;109.89
2022-06-30 14:35:05;3.60;109.72
2022-06-30 14:36:02;3.60;109.72
2022-06-30 14:37:03;3.60;109.72
2022-06-30 14:38:04;3.59;109.89
2022-06-30 14:39:05;3.60;109.72
2022-06-30 14:40:06;3.60;109.89
2022-06-30 14:41:03;3.60;109.08
2022-06-30 14:42:04;3.60;109.40
2022-06-30 14:43:05;3.60;109.40
2022-06-30 14:44:06;3.59;109.72
2022-06-30 14:45:03;3.60;109.89
2022-06-30 14:46:04;3.57;109.72
2022-06-30 14:47:05;3.60;109.89
2022-06-30 14:48:06;3.60;109.89
2022-06-30 14:49:02;3.60;109.89
2022-06-30 14:50:03;3.59;109.89
2022-06-30 14:51:04;3.60;109.89
2022-06-30 14:52:05;3.59;109.89
2022-06-30 14:53:02;3.60;109.89
2022-06-30 14:54:03;3.59;109.89
2022-06-30 14:55:04;3.60;109.72
2022-06-30 14:56:05;3.60;109.89
2022-06-30 14:57:02;3.60;109.89
2022-06-30 14:58:03;3.60;109.89
2022-06-30 14:59:04;3.60;109.89
2022-06-30 15:00:05;3.60;109.72
2022-06-30 15:01:06;3.60;109.72
2022-06-30 15:02:03;3.60;109.72
2022-06-30 15:03:04;3.60;109.72
2022-06-30 15:04:05;3.60;109.72
2022-06-30 15:05:06;3.60;109.89
2022-06-30 15:06:02;3.60;109.89
2022-06-30 15:07:03;3.60;109.89
2022-06-30 15:08:04;3.57;110.21
2022-06-30 15:09:05;3.60;109.89
2022-06-30 15:10:02;3.60;110.21
2022-06-30 15:11:03;3.60;109.89
2022-06-30 15:12:04;3.60;110.21
2022-06-30 15:13:05;3.60;109.89
2022-06-30 15:14:06;3.60;109.89
2022-06-30 15:15:03;3.60;109.89
2022-06-30 15:16:04;3.60;109.72
2022-06-30 15:17:05;3.60;109.89
2022-06-30 15:18:06;3.60;109.72
2022-06-30 15:19:02;3.60;109.89
2022-06-30 15:20:03;3.59;109.89
2022-06-30 15:21:04;3.60;109.89
2022-06-30 15:22:06;3.59;109.72
2022-06-30 15:23:02;3.59;109.72
2022-06-30 15:24:03;3.60;109.89
2022-06-30 15:25:04;3.60;110.21
2022-06-30 15:26:05;3.60;110.21
2022-06-30 15:27:06;3.60;109.89
2022-06-30 15:28:03;3.59;109.89
2022-06-30 15:29:04;3.60;110.21
2022-06-30 15:30:05;3.60;109.89
2022-06-30 15:31:06;3.59;110.21
2022-06-30 15:32:02;3.60;109.72
2022-06-30 15:33:03;3.60;109.72
2022-06-30 15:34:04;3.60;109.72
2022-06-30 15:35:05;3.59;109.72
2022-06-30 15:36:06;3.60;109.72
2022-06-30 15:37:02;3.60;109.72
2022-06-30 15:38:03;3.60;109.89
2022-06-30 15:39:04;3.60;109.72
2022-06-30 15:40:05;3.60;109.89
2022-06-30 15:41:06;3.60;109.89
2022-06-30 15:42:02;3.60;109.89
2022-06-30 15:43:03;3.60;110.21
2022-06-30 15:44:04;3.60;110.21
2022-06-30 15:45:05;3.60;110.21
2022-06-30 15:46:06;3.60;109.89
2022-06-30 15:47:03;3.60;109.89
2022-06-30 15:48:03;3.60;109.89
2022-06-30 15:49:04;3.60;109.89
2022-06-30 15:50:05;3.60;109.89
2022-06-30 15:51:06;3.60;109.89
2022-06-30 15:52:02;3.60;109.89
2022-06-30 15:53:03;3.60;109.89
2022-06-30 15:54:04;3.59;109.89
2022-06-30 15:55:05;3.60;109.89
2022-06-30 15:56:06;3.60;109.89
2022-06-30 15:57:02;3.60;109.89
2022-06-30 15:58:03;3.60;109.89
2022-06-30 15:59:04;3.60;109.72
2022-06-30 16:00:05;3.60;109.72
2022-06-30 16:01:06;3.60;109.72
2022-06-30 16:02:02;3.60;109.72
2022-06-30 16:03:03;3.60;109.72
2022-06-30 16:04:04;3.60;109.72
2022-06-30 16:05:05;3.60;109.72
2022-06-30 16:06:05;3.60;109.72
2022-06-30 16:07:02;3.60;109.72
2022-06-30 16:08:03;3.60;109.72
2022-06-30 16:09:03;3.60;109.72
2022-06-30 16:10:04;3.60;109.40
2022-06-30 16:11:05;3.59;109.72
2022-06-30 16:12:06;3.60;109.72
2022-06-30 16:13:02;3.59;109.72
2022-06-30 16:14:03;3.60;109.72
2022-06-30 16:15:04;3.60;109.72
2022-06-30 16:16:05;3.60;109.72
2022-06-30 16:17:05;3.60;109.72
2022-06-30 16:18:02;3.60;109.72
2022-06-30 16:19:03;3.60;109.72
2022-06-30 16:20:03;3.59;109.72
2022-06-30 16:21:04;3.60;109.72
2022-06-30 16:22:05;3.59;109.72
2022-06-30 16:23:06;3.60;109.72
2022-06-30 16:24:02;3.60;109.72
2022-06-30 16:25:03;3.59;109.72
2022-06-30 16:26:04;3.59;109.72
2022-06-30 16:27:05;3.60;109.72
2022-06-30 16:28:05;3.60;109.72
2022-06-30 16:29:02;3.59;109.40
2022-06-30 16:30:03;3.59;109.72
2022-06-30 16:31:03;3.60;109.72
2022-06-30 16:32:04;3.60;109.72
2022-06-30 16:33:05;3.59;109.89
2022-06-30 16:34:06;3.59;109.89
2022-06-30 16:35:02;3.60;109.72
2022-06-30 16:36:03;3.60;109.72
2022-06-30 16:37:04;3.59;109.89
2022-06-30 16:38:04;3.60;109.72
2022-06-30 16:39:05;3.59;109.89
2022-06-30 16:40:06;3.59;109.72
2022-06-30 16:41:02;3.59;109.72
2022-06-30 16:42:03;3.59;109.72
2022-06-30 16:43:04;3.59;109.72
2022-06-30 16:44:05;3.59;109.72
2022-06-30 16:45:05;3.59;109.72
2022-06-30 16:46:02;3.59;109.72
2022-06-30 16:47:02;3.59;109.72
2022-06-30 16:48:03;3.59;109.72
2022-06-30 16:49:04;3.59;109.72
2022-06-30 16:50:05;3.60;109.72
2022-06-30 16:51:05;3.59;109.72
2022-06-30 16:52:02;3.59;109.72
2022-06-30 16:53:03;3.59;109.89
2022-06-30 16:54:03;3.59;109.72
2022-06-30 16:55:04;3.59;109.72
2022-06-30 16:56:05;3.59;109.72
2022-06-30 16:57:06;3.59;109.72
2022-06-30 16:58:02;3.59;109.40
2022-06-30 16:59:03;3.59;109.40
2022-06-30 17:00:03;3.59;109.72
2022-06-30 17:01:04;3.60;109.72
2022-06-30 17:02:05;3.59;109.40
2022-06-30 17:03:06;3.59;109.72
2022-06-30 17:04:02;3.59;109.72
2022-06-30 17:05:03;3.59;109.40
2022-06-30 17:06:04;3.59;109.40
2022-06-30 17:07:04;3.59;109.40
2022-06-30 17:08:05;3.59;109.40
2022-06-30 17:09:06;3.59;109.40
2022-06-30 17:10:02;3.59;109.72
2022-06-30 17:11:03;3.59;109.40
2022-06-30 17:12:04;3.59;109.40
2022-06-30 17:13:04;3.59;109.40
2022-06-30 17:14:05;3.59;109.40
2022-06-30 17:15:06;3.59;109.40
2022-06-30 17:16:02;3.59;109.08
2022-06-30 17:17:03;3.59;109.08
2022-06-30 17:18:04;3.59;109.08
2022-06-30 17:19:05;3.59;109.08
2022-06-30 17:20:06;3.59;109.08
2022-06-30 17:21:02;3.59;109.40
2022-06-30 17:22:03;3.59;109.08
2022-06-30 17:23:03;3.59;109.40
2022-06-30 17:24:04;3.59;108.92
2022-06-30 17:25:05;3.59;108.92
2022-06-30 17:26:06;3.59;108.92
2022-06-30 17:27:02;3.59;108.92
2022-06-30 17:28:03;3.59;109.08
2022-06-30 17:29:03;3.59;108.92
2022-06-30 17:30:04;3.59;108.92
2022-06-30 17:31:05;3.59;108.92
2022-06-30 17:32:05;3.59;108.92
2022-06-30 17:33:02;3.59;109.08
2022-06-30 17:34:03;3.59;108.92
2022-06-30 17:35:03;3.59;108.92
2022-06-30 17:36:04;3.59;108.92
2022-06-30 17:37:05;3.59;108.92
2022-06-30 17:38:05;3.59;108.92
2022-06-30 17:39:02;3.59;108.92
2022-06-30 17:40:02;3.59;108.92
2022-06-30 17:41:03;3.59;108.92
2022-06-30 17:42:04;3.59;108.92
2022-06-30 17:43:05;3.59;108.92
2022-06-30 17:44:05;3.59;108.92
2022-06-30 17:45:02;3.59;108.92
2022-06-30 17:46:02;3.59;108.92
2022-06-30 17:47:03;3.59;108.92
2022-06-30 17:48:04;3.59;108.92
2022-06-30 17:49:05;3.59;108.92
2022-06-30 17:50:05;3.59;108.92
2022-06-30 17:51:02;3.59;108.92
2022-06-30 17:52:02;3.59;108.92
2022-06-30 17:53:03;3.59;108.92
2022-06-30 17:54:04;3.59;108.92
2022-06-30 17:55:05;3.59;108.92
2022-06-30 17:56:05;3.59;108.60
2022-06-30 17:57:02;3.59;108.92
2022-06-30 17:58:02;3.59;108.92
2022-06-30 17:59:03;3.59;108.92
2022-06-30 18:00:04;3.59;108.92
2022-06-30 18:01:05;3.59;108.92
2022-06-30 18:02:05;3.59;108.60
2022-06-30 18:03:06;3.59;108.92
2022-06-30 18:04:02;3.59;108.92
2022-06-30 18:05:03;3.59;108.60
2022-06-30 18:06:04;3.59;108.60
2022-06-30 18:07:04;3.59;108.92
2022-06-30 18:08:05;3.59;108.60
2022-06-30 18:09:06;3.59;108.60
2022-06-30 18:10:02;3.59;108.60
2022-06-30 18:11:03;3.59;108.60
2022-06-30 18:12:03;3.59;108.92
2022-06-30 18:13:04;3.59;108.60
2022-06-30 18:14:05;3.59;108.92
2022-06-30 18:15:06;3.59;108.60
2022-06-30 18:16:02;3.59;108.92
2022-06-30 18:17:03;3.59;108.92
2022-06-30 18:18:03;3.59;108.92
2022-06-30 18:19:04;3.59;108.92
2022-06-30 18:20:05;3.59;108.60
2022-06-30 18:21:05;3.59;108.92
2022-06-30 18:22:02;3.59;108.92
2022-06-30 18:23:02;3.59;108.60
2022-06-30 18:24:03;3.59;108.92
2022-06-30 18:25:04;3.59;108.92
2022-06-30 18:26:04;3.59;109.08
2022-06-30 18:27:05;3.59;108.92
2022-06-30 18:28:06;3.59;108.60
2022-06-30 18:29:02;3.59;108.60
2022-06-30 18:30:03;3.59;108.60
2022-06-30 18:31:03;3.59;108.92
2022-06-30 18:32:04;3.59;108.92
2022-06-30 18:33:05;3.59;108.92
2022-06-30 18:34:06;3.59;108.92
2022-06-30 18:35:02;3.59;108.92
2022-06-30 18:36:02;3.59;108.92
2022-06-30 18:37:03;3.59;108.92
2022-06-30 18:38:04;3.59;108.92
2022-06-30 18:39:05;3.59;108.60
2022-06-30 18:40:05;3.59;108.92
2022-06-30 18:41:06;3.59;108.60
2022-06-30 18:42:02;3.59;108.92
2022-06-30 18:43:03;3.59;108.60
2022-06-30 18:44:04;3.59;108.60
2022-06-30 18:45:04;3.59;108.60
2022-06-30 18:46:05;3.59;108.92
2022-06-30 18:47:06;3.59;108.60
2022-06-30 18:48:02;3.59;108.92
2022-06-30 18:49:03;3.59;108.92
2022-06-30 18:50:03;3.59;108.27
2022-06-30 18:51:04;3.59;108.27
2022-06-30 18:52:05;3.59;108.27
2022-06-30 18:53:05;3.59;108.27
2022-06-30 18:54:06;3.59;108.27
2022-06-30 18:55:02;3.59;108.27
2022-06-30 18:56:03;3.59;108.27
2022-06-30 18:57:03;3.59;108.27
2022-06-30 18:58:04;3.59;108.27
2022-06-30 18:59:05;3.59;108.27
2022-06-30 19:00:05;3.59;108.27
2022-06-30 19:01:02;3.59;108.27
2022-06-30 19:02:02;3.59;108.27
2022-06-30 19:03:03;3.59;108.27
2022-06-30 19:04:04;3.59;108.27
2022-06-30 19:05:04;3.59;108.60
2022-06-30 19:06:05;3.59;108.27
2022-06-30 19:07:06;3.59;108.27
2022-06-30 19:08:02;3.59;108.27
2022-06-30 19:09:02;3.59;108.27
2022-06-30 19:10:03;3.59;108.27
2022-06-30 19:11:04;3.59;108.27
2022-06-30 19:12:04;3.59;108.27
2022-06-30 19:13:05;3.59;108.27
2022-06-30 19:14:06;3.59;108.27
2022-06-30 19:15:02;3.59;108.27
2022-06-30 19:16:03;3.59;108.27
2022-06-30 19:17:03;3.59;108.60
2022-06-30 19:18:04;3.59;108.92
2022-06-30 19:19:05;3.59;108.92
2022-06-30 19:20:05;3.59;108.60
2022-06-30 19:21:02;3.59;108.60
2022-06-30 19:22:02;3.59;108.60
2022-06-30 19:23:03;3.59;108.60
2022-06-30 19:24:04;3.59;108.60
2022-06-30 19:25:04;3.59;108.92
2022-06-30 19:26:05;3.59;108.60
2022-06-30 19:27:06;3.59;108.92
2022-06-30 19:28:02;3.59;108.92
2022-06-30 19:29:03;3.59;108.60
2022-06-30 19:30:03;3.59;108.60
2022-06-30 19:31:04;3.59;108.92
2022-06-30 19:32:04;3.59;108.60
2022-06-30 19:33:05;3.59;108.92
2022-06-30 19:34:06;3.59;108.60
2022-06-30 19:35:02;3.59;108.60
2022-06-30 19:36:03;3.59;108.92
2022-06-30 19:37:03;3.59;108.60
2022-06-30 19:38:04;3.59;108.92
2022-06-30 19:39:05;3.59;108.92
2022-06-30 19:40:05;3.59;108.92
2022-06-30 19:41:06;3.59;108.92
2022-06-30 19:42:02;3.59;108.60
2022-06-30 19:43:03;3.59;108.60
2022-06-30 19:44:03;3.59;108.60
2022-06-30 19:45:04;3.59;108.60
2022-06-30 19:46:05;3.59;108.92
2022-06-30 19:47:05;3.59;108.92
2022-06-30 19:48:06;3.59;108.60
2022-06-30 19:49:02;3.59;108.60
2022-06-30 19:50:03;3.59;108.60
2022-06-30 19:51:03;3.59;108.92
2022-06-30 19:52:04;3.59;108.60
2022-06-30 19:53:05;3.59;108.60
2022-06-30 19:54:05;3.59;108.60
2022-06-30 19:55:02;3.59;108.92
2022-06-30 19:56:02;3.59;108.60
2022-06-30 19:57:03;3.59;108.60
2022-06-30 19:58:04;3.59;108.60
2022-06-30 19:59:04;3.59;108.60
2022-06-30 20:00:05;3.59;108.92
2022-06-30 20:01:05;3.59;108.60
2022-06-30 20:02:02;3.59;108.60
2022-06-30 20:03:02;3.59;108.60
2022-06-30 20:04:03;3.59;108.27
2022-06-30 20:05:04;3.59;108.27
2022-06-30 20:06:04;3.59;108.27
2022-06-30 20:07:05;3.59;108.27
2022-06-30 20:08:06;3.59;108.27
2022-06-30 20:09:02;3.59;108.27
2022-06-30 20:10:03;3.59;108.60
2022-06-30 20:11:03;3.59;108.60
2022-06-30 20:12:04;3.59;108.27
2022-06-30 20:13:04;3.59;108.27
2022-06-30 20:14:05;3.59;108.27
2022-06-30 20:15:06;3.59;108.27
2022-06-30 20:16:02;3.59;108.27
2022-06-30 20:17:02;3.59;108.27
2022-06-30 20:18:03;3.59;108.27
2022-06-30 20:19:04;3.59;108.27
2022-06-30 20:20:04;3.59;108.27
2022-06-30 20:21:05;3.59;108.60
2022-06-30 20:22:06;3.59;108.60
2022-06-30 20:23:02;3.59;108.60
2022-06-30 20:24:02;3.59;108.60
2022-06-30 20:25:03;3.59;108.60
2022-06-30 20:26:04;3.59;108.60
2022-06-30 20:27:04;3.59;108.60
2022-06-30 20:28:05;3.59;108.60
2022-06-30 20:29:05;3.59;108.60
2022-06-30 20:30:02;3.59;108.60
2022-06-30 20:31:02;3.59;108.60
2022-06-30 20:32:03;3.59;108.60
2022-06-30 20:33:04;3.59;108.60
2022-06-30 20:34:04;3.59;108.60
2022-06-30 20:35:05;3.59;108.60
2022-06-30 20:36:05;3.59;108.60
2022-06-30 20:37:02;3.59;108.60
2022-06-30 20:38:02;3.59;108.60
2022-06-30 20:39:03;3.59;108.60
2022-06-30 20:40:03;3.59;108.60
2022-06-30 20:41:04;3.59;108.60
2022-06-30 20:42:05;3.59;108.60
2022-06-30 20:43:05;3.59;108.60
2022-06-30 20:44:02;3.59;108.60
2022-06-30 20:45:02;3.59;108.60
2022-06-30 20:46:03;3.59;108.60
2022-06-30 20:47:03;3.59;108.60
2022-06-30 20:48:04;3.59;108.27
2022-06-30 20:49:05;3.59;108.60
2022-06-30 20:50:05;3.59;108.60
2022-06-30 20:51:02;3.59;108.60
2022-06-30 20:52:02;3.59;108.60
2022-06-30 20:53:03;3.59;108.27
2022-06-30 20:54:04;3.59;108.27
2022-06-30 20:55:04;3.59;108.60
2022-06-30 20:56:05;3.59;108.60
2022-06-30 20:57:05;3.59;108.27
2022-06-30 20:58:02;3.59;108.60
2022-06-30 20:59:02;3.59;108.60
2022-06-30 21:00:03;3.59;108.60
2022-06-30 21:01:03;3.59;108.60
2022-06-30 21:02:04;3.59;108.60
2022-06-30 21:03:05;3.59;108.60
2022-06-30 21:04:05;3.59;108.60
2022-06-30 21:05:02;3.59;108.60
2022-06-30 21:06:02;3.59;108.60
2022-06-30 21:07:03;3.59;108.60
2022-06-30 21:08:03;3.59;108.60
2022-06-30 21:09:04;3.59;108.60
2022-06-30 21:10:05;3.59;108.60
2022-06-30 21:11:05;3.59;108.60
2022-06-30 21:12:02;3.59;108.60
2022-06-30 21:13:02;3.59;108.60
2022-06-30 21:14:03;3.59;108.27
2022-06-30 21:15:03;3.59;108.60
2022-06-30 21:16:04;3.59;108.60
2022-06-30 21:17:05;3.59;108.60
2022-06-30 21:18:05;3.59;108.27
2022-06-30 21:19:02;3.59;108.60
2022-06-30 21:20:02;3.59;108.60
2022-06-30 21:21:03;3.59;108.27
2022-06-30 21:22:03;3.59;108.27
2022-06-30 21:23:04;3.59;108.27
2022-06-30 21:24:05;3.59;108.27
2022-06-30 21:25:05;3.58;108.11
2022-06-30 21:26:02;3.59;108.11
2022-06-30 21:27:02;3.59;108.11
2022-06-30 21:28:03;3.59;108.11
2022-06-30 21:29:03;3.59;108.11
2022-06-30 21:30:04;3.59;108.27
2022-06-30 21:31:05;3.59;108.11
2022-06-30 21:32:05;3.59;108.11
2022-06-30 21:33:02;3.59;108.27
2022-06-30 21:34:02;3.59;108.27
2022-06-30 21:35:03;3.59;108.27
2022-06-30 21:36:04;3.59;108.27
2022-06-30 21:37:04;3.59;108.60
2022-06-30 21:38:05;3.59;108.27
2022-06-30 21:39:05;3.59;108.27
2022-06-30 21:40:02;3.59;108.27
2022-06-30 21:41:02;3.59;108.27
2022-06-30 21:42:03;3.59;108.27
2022-06-30 21:43:04;3.59;108.27
2022-06-30 21:44:04;3.59;108.60
2022-06-30 21:45:05;3.58;108.60
2022-06-30 21:46:05;3.59;108.60
2022-06-30 21:47:02;3.59;108.27
2022-06-30 21:48:02;3.59;108.60
2022-06-30 21:49:03;3.59;108.27
2022-06-30 21:50:03;3.59;108.27
2022-06-30 21:51:04;3.59;108.60
2022-06-30 21:52:05;3.59;108.27
2022-06-30 21:53:05;3.59;108.27
2022-06-30 21:54:02;3.59;108.60
2022-06-30 21:55:02;3.59;108.27
2022-06-30 21:56:03;3.59;108.27
2022-06-30 21:57:03;3.59;108.60
2022-06-30 21:58:04;3.59;108.27
2022-06-30 21:59:05;3.58;108.60
2022-06-30 22:00:05;3.58;108.27
2022-06-30 22:01:06;3.59;108.27
2022-06-30 22:02:02;3.59;108.27
2022-06-30 22:03:03;3.58;108.60
2022-06-30 22:04:03;3.58;108.60
2022-06-30 22:05:04;3.58;108.60
2022-06-30 22:06:05;3.59;108.27
2022-06-30 22:07:05;3.59;108.27
2022-06-30 22:08:06;3.59;108.60
2022-06-30 22:09:02;3.58;108.60
2022-06-30 22:10:03;3.59;108.27
2022-06-30 22:11:03;3.59;108.27
2022-06-30 22:12:04;3.58;108.60
2022-06-30 22:13:05;3.58;108.27
2022-06-30 22:14:05;3.59;108.27
2022-06-30 22:15:06;3.58;108.27
2022-06-30 22:16:02;3.59;108.27
2022-06-30 22:17:03;3.58;108.27
2022-06-30 22:18:03;3.58;108.27
2022-06-30 22:19:04;3.59;108.27
2022-06-30 22:20:05;3.58;108.27
2022-06-30 22:21:05;3.58;108.60
2022-06-30 22:22:06;3.58;108.27
2022-06-30 22:23:02;3.58;108.27
2022-06-30 22:24:03;3.58;108.27
2022-06-30 22:25:03;3.58;108.27
2022-06-30 22:26:04;3.58;108.60
2022-06-30 22:27:05;3.58;108.27
2022-06-30 22:28:05;3.58;108.60
2022-06-30 22:29:06;3.58;108.60
2022-06-30 22:30:02;3.58;108.27
2022-06-30 22:31:03;3.58;108.60
2022-06-30 22:32:03;3.58;108.27
2022-06-30 22:33:04;3.58;108.27
2022-06-30 22:34:04;3.58;108.27
2022-06-30 22:35:05;3.58;108.60
2022-06-30 22:36:06;3.58;108.27
2022-06-30 22:37:02;3.58;108.27
2022-06-30 22:38:02;3.58;108.60
2022-06-30 22:39:03;3.58;108.27
2022-06-30 22:40:04;3.58;108.27
2022-06-30 22:41:04;3.58;108.60
2022-06-30 22:42:05;3.58;108.60
2022-06-30 22:43:06;3.58;108.27
2022-06-30 22:44:02;3.58;108.27
2022-06-30 22:45:02;3.58;108.27
2022-06-30 22:46:03;3.58;108.11
2022-06-30 22:47:04;3.59;108.27
2022-06-30 22:48:04;3.58;108.27
2022-06-30 22:49:05;3.58;108.60
2022-06-30 22:50:06;3.58;108.60
2022-06-30 22:51:02;3.58;108.27
2022-06-30 22:52:02;3.58;108.27
2022-06-30 22:53:03;3.58;108.60
2022-06-30 22:54:04;3.58;108.27
2022-06-30 22:55:04;3.58;108.27
2022-06-30 22:56:05;3.58;108.27
2022-06-30 22:57:05;3.58;108.60
2022-06-30 22:58:02;3.58;108.60
2022-06-30 22:59:02;3.58;108.60
2022-06-30 23:00:03;3.58;108.60
2022-06-30 23:01:04;3.58;108.60
2022-06-30 23:02:04;3.58;108.60
2022-06-30 23:03:05;3.58;108.60
2022-06-30 23:04:05;3.58;108.27
2022-06-30 23:05:02;3.58;108.60
2022-06-30 23:06:02;3.58;108.27
2022-06-30 23:07:03;3.58;108.27
2022-06-30 23:08:03;3.58;108.27
2022-06-30 23:09:04;3.58;108.27
2022-06-30 23:10:05;3.58;108.27
2022-06-30 23:11:05;3.58;108.27
2022-06-30 23:12:01;3.58;108.27
2022-06-30 23:13:02;3.58;108.11
2022-06-30 23:14:03;3.58;108.27
2022-06-30 23:15:03;3.58;108.11
2022-06-30 23:16:04;3.58;108.27
2022-06-30 23:17:05;3.58;108.27
2022-06-30 23:18:05;3.58;108.27
2022-06-30 23:19:06;3.58;108.27
2022-06-30 23:20:02;3.58;108.27
2022-06-30 23:21:03;3.58;108.27
2022-06-30 23:22:03;3.58;108.27
2022-06-30 23:23:04;3.58;108.27
2022-06-30 23:24:04;3.58;108.27
2022-06-30 23:25:05;3.58;108.27
2022-06-30 23:26:06;3.58;108.27
2022-06-30 23:27:02;3.58;108.27
2022-06-30 23:28:02;3.58;108.27
2022-06-30 23:29:03;3.58;108.27
2022-06-30 23:30:04;3.58;108.27
2022-06-30 23:31:04;3.58;108.27
2022-06-30 23:32:05;3.58;108.27
2022-06-30 23:33:06;3.58;108.27
2022-06-30 23:34:02;3.58;108.11
2022-06-30 23:35:02;3.58;108.27
2022-06-30 23:36:03;3.58;108.27
2022-06-30 23:37:04;3.58;108.27
2022-06-30 23:38:04;3.58;108.27
2022-06-30 23:39:05;3.58;108.27
2022-06-30 23:40:05;3.58;108.27
2022-06-30 23:41:02;3.58;108.27
2022-06-30 23:42:02;3.58;108.27
2022-06-30 23:43:03;3.58;108.27
2022-06-30 23:44:03;3.58;108.27
2022-06-30 23:45:04;3.58;108.27
2022-06-30 23:46:05;3.58;108.27
2022-06-30 23:47:05;3.58;108.27
2022-06-30 23:48:01;3.58;108.27
2022-06-30 23:49:02;3.58;108.27
2022-06-30 23:50:03;3.58;108.27
2022-06-30 23:51:03;3.58;108.27
2022-06-30 23:52:04;3.58;108.27
2022-06-30 23:53:05;3.58;108.27
2022-06-30 23:54:05;3.58;108.27
2022-06-30 23:55:02;3.58;108.27
2022-06-30 23:56:02;3.58;108.27
2022-06-30 23:57:03;3.58;108.11
2022-06-30 23:58:03;3.58;108.27
2022-06-30 23:59:04;3.58;108.11
