2022-06-23 00:00:05;4.06;106.99
2022-06-23 00:01:06;4.06;106.99
2022-06-23 00:02:02;4.06;106.99
2022-06-23 00:03:02;4.06;106.99
2022-06-23 00:04:03;4.06;106.66
2022-06-23 00:05:03;4.06;106.66
2022-06-23 00:06:04;4.06;106.99
2022-06-23 00:07:05;4.06;106.66
2022-06-23 00:08:05;4.06;106.99
2022-06-23 00:09:06;4.06;106.66
2022-06-23 00:10:02;4.06;106.99
2022-06-23 00:11:03;4.06;106.99
2022-06-23 00:12:03;4.06;106.66
2022-06-23 00:13:04;4.06;106.99
2022-06-23 00:14:05;4.06;106.99
2022-06-23 00:15:05;4.06;106.99
2022-06-23 00:16:06;4.06;106.99
2022-06-23 00:17:02;4.06;106.99
2022-06-23 00:18:02;4.06;106.99
2022-06-23 00:19:03;4.06;106.99
2022-06-23 00:20:04;4.06;106.99
2022-06-23 00:21:04;4.06;106.99
2022-06-23 00:22:05;4.06;106.99
2022-06-23 00:23:06;4.06;106.66
2022-06-23 00:24:02;4.06;106.99
2022-06-23 00:25:02;4.06;106.99
2022-06-23 00:26:03;4.06;106.99
2022-06-23 00:27:03;4.06;106.99
2022-06-23 00:28:04;4.06;106.99
2022-06-23 00:29:05;4.06;106.99
2022-06-23 00:30:05;4.06;106.99
2022-06-23 00:31:06;4.06;106.66
2022-06-23 00:32:02;4.06;106.99
2022-06-23 00:33:02;4.06;106.66
2022-06-23 00:34:03;4.06;106.99
2022-06-23 00:35:04;4.06;106.66
2022-06-23 00:36:04;4.06;106.99
2022-06-23 00:37:05;4.06;106.99
2022-06-23 00:38:05;4.06;106.99
2022-06-23 00:39:06;4.06;107.31
2022-06-23 00:40:02;4.06;106.99
2022-06-23 00:41:03;4.06;106.99
2022-06-23 00:42:03;4.06;106.99
2022-06-23 00:43:04;4.06;106.99
2022-06-23 00:44:04;4.06;106.99
2022-06-23 00:45:05;4.06;106.99
2022-06-23 00:46:05;4.06;106.99
2022-06-23 00:47:02;4.06;106.99
2022-06-23 00:48:02;4.06;106.99
2022-06-23 00:49:03;4.06;106.99
2022-06-23 00:50:03;4.06;106.99
2022-06-23 00:51:04;4.06;106.99
2022-06-23 00:52:04;4.06;106.99
2022-06-23 00:53:05;4.06;106.99
2022-06-23 00:54:06;4.05;106.99
2022-06-23 00:55:02;4.05;106.99
2022-06-23 00:56:02;4.06;106.99
2022-06-23 00:57:03;4.06;106.99
2022-06-23 00:58:04;4.05;106.99
2022-06-23 00:59:04;4.06;106.99
2022-06-23 01:00:05;4.06;106.99
2022-06-23 01:01:05;4.06;106.99
2022-06-23 01:02:06;4.06;106.99
2022-06-23 01:03:02;4.06;106.66
2022-06-23 01:04:03;4.06;106.99
2022-06-23 01:05:03;4.06;106.99
2022-06-23 01:06:04;4.06;106.99
2022-06-23 01:07:04;4.06;106.99
2022-06-23 01:08:05;4.06;106.99
2022-06-23 01:09:06;4.06;106.99
2022-06-23 01:10:02;4.05;106.66
2022-06-23 01:11:02;4.05;106.99
2022-06-23 01:12:03;4.05;106.99
2022-06-23 01:13:03;4.05;106.99
2022-06-23 01:14:04;4.06;106.99
2022-06-23 01:15:05;4.05;106.99
2022-06-23 01:16:05;4.05;106.99
2022-06-23 01:17:06;4.06;106.99
2022-06-23 01:18:02;4.05;106.99
2022-06-23 01:19:03;4.06;106.66
2022-06-23 01:20:03;4.05;106.99
2022-06-23 01:21:04;4.05;106.99
2022-06-23 01:22:04;4.05;106.99
2022-06-23 01:23:05;4.05;106.99
2022-06-23 01:24:06;4.05;106.99
2022-06-23 01:25:02;4.05;106.99
2022-06-23 01:26:02;4.05;106.66
2022-06-23 01:27:03;4.05;106.66
2022-06-23 01:28:03;4.05;106.99
2022-06-23 01:29:04;4.06;106.99
2022-06-23 01:30:05;4.06;106.99
2022-06-23 01:31:05;4.06;106.99
2022-06-23 01:32:06;4.05;106.99
2022-06-23 01:33:02;4.05;106.99
2022-06-23 01:34:03;4.05;106.99
2022-06-23 01:35:03;4.05;106.99
2022-06-23 01:36:04;4.05;106.66
2022-06-23 01:37:05;4.05;106.99
2022-06-23 01:38:05;4.05;106.99
2022-06-23 01:39:06;4.05;107.31
2022-06-23 01:40:02;4.05;106.99
2022-06-23 01:41:02;4.05;106.99
2022-06-23 01:42:03;4.05;106.66
2022-06-23 01:43:04;4.05;106.99
2022-06-23 01:44:04;4.05;106.99
2022-06-23 01:45:05;4.05;106.99
2022-06-23 01:46:05;4.05;106.99
2022-06-23 01:47:02;4.05;106.99
2022-06-23 01:48:02;4.05;106.99
2022-06-23 01:49:03;4.05;106.99
2022-06-23 01:50:03;4.05;106.66
2022-06-23 01:51:04;4.05;106.99
2022-06-23 01:52:04;4.05;106.66
2022-06-23 01:53:05;4.05;106.66
2022-06-23 01:54:06;4.05;106.99
2022-06-23 01:55:02;4.05;106.66
2022-06-23 01:56:03;4.05;106.99
2022-06-23 01:57:03;4.05;106.66
2022-06-23 01:58:04;4.05;106.99
2022-06-23 01:59:04;4.05;106.99
2022-06-23 02:00:05;4.05;106.66
2022-06-23 02:01:05;4.05;106.99
2022-06-23 02:02:01;4.05;106.99
2022-06-23 02:03:02;4.05;106.99
2022-06-23 02:04:03;4.05;106.99
2022-06-23 02:05:03;4.05;106.99
2022-06-23 02:06:04;4.05;106.66
2022-06-23 02:07:04;4.05;106.99
2022-06-23 02:08:05;4.05;106.99
2022-06-23 02:09:06;4.05;106.99
2022-06-23 02:10:02;4.05;106.66
2022-06-23 02:11:02;4.05;106.99
2022-06-23 02:12:03;4.05;106.99
2022-06-23 02:13:03;4.05;106.99
2022-06-23 02:14:04;4.05;106.99
2022-06-23 02:15:05;4.05;106.99
2022-06-23 02:16:05;4.05;106.99
2022-06-23 02:17:06;4.05;106.99
2022-06-23 02:18:02;4.05;106.99
2022-06-23 02:19:02;4.05;106.99
2022-06-23 02:20:03;4.05;106.99
2022-06-23 02:21:04;4.05;106.99
2022-06-23 02:22:04;4.05;106.66
2022-06-23 02:23:05;4.05;106.99
2022-06-23 02:24:05;4.05;106.99
2022-06-23 02:25:01;4.05;106.99
2022-06-23 02:26:02;4.05;106.99
2022-06-23 02:27:03;4.05;106.99
2022-06-23 02:28:03;4.05;106.99
2022-06-23 02:29:04;4.05;106.99
2022-06-23 02:30:04;4.05;106.99
2022-06-23 02:31:05;4.05;106.99
2022-06-23 02:32:06;4.05;106.66
2022-06-23 02:33:02;4.05;106.99
2022-06-23 02:34:02;4.05;106.66
2022-06-23 02:35:03;4.05;106.66
2022-06-23 02:36:03;4.05;106.99
2022-06-23 02:37:04;4.05;106.66
2022-06-23 02:38:05;4.05;106.99
2022-06-23 02:39:05;4.05;106.99
2022-06-23 02:40:01;4.05;106.99
2022-06-23 02:41:02;4.05;106.99
2022-06-23 02:42:03;4.05;106.99
2022-06-23 02:43:03;4.05;106.99
2022-06-23 02:44:04;4.05;106.99
2022-06-23 02:45:05;4.05;106.99
2022-06-23 02:46:05;4.05;106.99
2022-06-23 02:47:01;4.05;106.99
2022-06-23 02:48:02;4.05;106.99
2022-06-23 02:49:03;4.05;106.66
2022-06-23 02:50:03;4.05;106.99
2022-06-23 02:51:04;4.05;106.99
2022-06-23 02:52:05;4.05;106.99
2022-06-23 02:53:05;4.05;106.66
2022-06-23 02:54:01;4.05;106.99
2022-06-23 02:55:02;4.05;106.99
2022-06-23 02:56:03;4.05;107.31
2022-06-23 02:57:03;4.05;106.99
2022-06-23 02:58:04;4.05;106.99
2022-06-23 02:59:05;4.05;106.99
2022-06-23 03:00:05;4.05;106.66
2022-06-23 03:01:01;4.05;106.99
2022-06-23 03:02:02;4.05;106.66
2022-06-23 03:03:03;4.05;106.99
2022-06-23 03:04:04;4.05;106.99
2022-06-23 03:05:04;4.05;106.99
2022-06-23 03:06:05;4.05;106.99
2022-06-23 03:07:05;4.05;106.99
2022-06-23 03:08:02;4.05;106.99
2022-06-23 03:09:02;4.05;106.99
2022-06-23 03:10:03;4.05;106.99
2022-06-23 03:11:03;4.05;106.99
2022-06-23 03:12:04;4.05;106.99
2022-06-23 03:13:05;4.05;106.66
2022-06-23 03:14:05;4.05;106.99
2022-06-23 03:15:01;4.05;106.99
2022-06-23 03:16:02;4.05;106.66
2022-06-23 03:17:03;4.05;106.66
2022-06-23 03:18:03;4.05;106.99
2022-06-23 03:19:04;4.05;106.66
2022-06-23 03:20:05;4.05;106.66
2022-06-23 03:21:05;4.05;106.66
2022-06-23 03:22:06;4.05;106.66
2022-06-23 03:23:02;4.05;106.66
2022-06-23 03:24:03;4.05;106.66
2022-06-23 03:25:03;4.05;106.66
2022-06-23 03:26:04;4.05;106.66
2022-06-23 03:27:05;4.05;106.66
2022-06-23 03:28:05;4.05;106.66
2022-06-23 03:29:01;4.05;106.66
2022-06-23 03:30:02;4.05;106.50
2022-06-23 03:31:03;4.05;106.66
2022-06-23 03:32:03;4.05;106.66
2022-06-23 03:33:04;4.05;106.50
2022-06-23 03:34:04;4.05;106.66
2022-06-23 03:35:05;4.05;106.66
2022-06-23 03:36:06;4.05;106.66
2022-06-23 03:37:02;4.05;106.66
2022-06-23 03:38:02;4.05;106.66
2022-06-23 03:39:03;4.05;106.66
2022-06-23 03:40:04;4.05;106.66
2022-06-23 03:41:04;4.05;106.66
2022-06-23 03:42:05;4.05;106.66
2022-06-23 03:43:06;4.05;106.66
2022-06-23 03:44:02;4.05;106.66
2022-06-23 03:45:02;4.05;106.99
2022-06-23 03:46:03;4.05;106.66
2022-06-23 03:47:04;4.05;106.66
2022-06-23 03:48:04;4.05;106.66
2022-06-23 03:49:05;4.05;106.66
2022-06-23 03:50:05;4.05;106.50
2022-06-23 03:51:02;4.05;106.99
2022-06-23 03:52:02;4.05;106.50
2022-06-23 03:53:03;4.05;106.66
2022-06-23 03:54:03;4.05;106.66
2022-06-23 03:55:04;4.05;106.66
2022-06-23 03:56:05;4.05;106.50
2022-06-23 03:57:05;4.05;106.50
2022-06-23 03:58:01;4.05;106.99
2022-06-23 03:59:02;4.05;106.66
2022-06-23 04:00:03;4.05;106.66
2022-06-23 04:01:03;4.05;106.66
2022-06-23 04:02:04;4.05;106.66
2022-06-23 04:03:05;4.05;106.50
2022-06-23 04:04:05;4.05;106.66
2022-06-23 04:05:06;4.05;106.66
2022-06-23 04:06:02;4.05;106.50
2022-06-23 04:07:03;4.05;106.66
2022-06-23 04:08:03;4.05;106.66
2022-06-23 04:09:04;4.05;106.66
2022-06-23 04:10:05;4.05;106.66
2022-06-23 04:11:05;4.05;106.66
2022-06-23 04:12:06;4.05;106.50
2022-06-23 04:13:02;4.05;106.50
2022-06-23 04:14:03;4.05;106.66
2022-06-23 04:15:03;4.05;106.66
2022-06-23 04:16:04;4.05;106.66
2022-06-23 04:17:04;4.05;106.50
2022-06-23 04:18:05;4.05;106.66
2022-06-23 04:19:06;4.05;106.50
2022-06-23 04:20:02;4.05;106.66
2022-06-23 04:21:02;4.05;106.66
2022-06-23 04:22:03;4.05;106.66
2022-06-23 04:23:04;4.05;106.66
2022-06-23 04:24:04;4.05;106.99
2022-06-23 04:25:05;4.05;106.99
2022-06-23 04:26:06;4.05;107.31
2022-06-23 04:27:02;4.05;106.99
2022-06-23 04:28:02;4.05;106.99
2022-06-23 04:29:03;4.05;106.99
2022-06-23 04:30:04;4.05;106.66
2022-06-23 04:31:04;4.05;106.99
2022-06-23 04:32:05;4.05;106.99
2022-06-23 04:33:06;4.05;106.99
2022-06-23 04:34:02;4.05;106.99
2022-06-23 04:35:02;4.05;106.99
2022-06-23 04:36:03;4.05;106.99
2022-06-23 04:37:03;4.05;106.99
2022-06-23 04:38:04;4.05;106.66
2022-06-23 04:39:05;4.05;106.99
2022-06-23 04:40:05;4.05;107.31
2022-06-23 04:41:06;4.05;106.99
2022-06-23 04:42:02;4.05;106.99
2022-06-23 04:43:03;4.05;106.99
2022-06-23 04:44:03;4.05;106.66
2022-06-23 04:45:04;4.05;106.99
2022-06-23 04:46:04;4.05;106.99
2022-06-23 04:47:05;4.05;106.99
2022-06-23 04:48:06;4.05;106.99
2022-06-23 04:49:02;4.05;106.99
2022-06-23 04:50:02;4.05;106.99
2022-06-23 04:51:03;4.04;106.66
2022-06-23 04:52:04;4.05;106.99
2022-06-23 04:53:04;4.04;106.99
2022-06-23 04:54:05;4.05;106.66
2022-06-23 04:55:05;4.05;106.99
2022-06-23 04:56:02;4.05;106.99
2022-06-23 04:57:02;4.05;106.66
2022-06-23 04:58:03;4.04;106.99
2022-06-23 04:59:03;4.05;106.99
2022-06-23 05:00:04;4.05;106.66
2022-06-23 05:01:05;4.05;106.99
2022-06-23 05:02:05;4.05;106.66
2022-06-23 05:03:06;4.04;106.99
2022-06-23 05:04:02;4.05;106.99
2022-06-23 05:05:02;4.04;106.66
2022-06-23 05:06:03;4.05;106.99
2022-06-23 05:07:04;4.05;106.99
2022-06-23 05:08:04;4.05;106.99
2022-06-23 05:09:05;4.04;106.99
2022-06-23 05:10:05;4.04;106.99
2022-06-23 05:11:02;4.04;106.99
2022-06-23 05:12:02;4.04;106.99
2022-06-23 05:13:03;4.04;106.99
2022-06-23 05:14:03;4.04;106.99
2022-06-23 05:15:04;4.05;106.99
2022-06-23 05:16:05;4.05;106.99
2022-06-23 05:17:05;4.04;106.66
2022-06-23 05:18:06;4.04;106.99
2022-06-23 05:19:02;4.04;106.99
2022-06-23 05:20:03;4.04;106.99
2022-06-23 05:21:03;4.04;106.99
2022-06-23 05:22:04;4.04;106.66
2022-06-23 05:23:04;4.04;106.99
2022-06-23 05:24:05;4.04;106.99
2022-06-23 05:25:06;4.05;106.99
2022-06-23 05:26:02;4.05;106.99
2022-06-23 05:27:02;4.04;106.99
2022-06-23 05:28:03;4.04;106.99
2022-06-23 05:29:04;4.04;106.66
2022-06-23 05:30:04;4.04;106.99
2022-06-23 05:31:05;4.04;106.99
2022-06-23 05:32:05;4.04;106.66
2022-06-23 05:33:02;4.04;106.99
2022-06-23 05:34:02;4.04;106.99
2022-06-23 05:35:03;4.04;106.99
2022-06-23 05:36:03;4.04;106.99
2022-06-23 05:37:04;4.04;106.66
2022-06-23 05:38:05;4.04;106.66
2022-06-23 05:39:05;4.04;106.99
2022-06-23 05:40:06;4.04;106.66
2022-06-23 05:41:02;4.04;106.99
2022-06-23 05:42:03;4.04;106.99
2022-06-23 05:43:03;4.04;106.99
2022-06-23 05:44:04;4.04;106.99
2022-06-23 05:45:04;4.04;106.99
2022-06-23 05:46:05;4.04;106.99
2022-06-23 05:47:06;4.04;106.99
2022-06-23 05:48:02;4.04;106.99
2022-06-23 05:49:02;4.04;106.99
2022-06-23 05:50:03;4.04;106.99
2022-06-23 05:51:04;4.04;106.99
2022-06-23 05:52:04;4.04;106.99
2022-06-23 05:53:05;4.04;106.99
2022-06-23 05:54:06;4.04;106.99
2022-06-23 05:55:02;4.04;106.66
2022-06-23 05:56:02;4.04;106.99
2022-06-23 05:57:03;4.04;106.99
2022-06-23 05:58:04;4.04;106.99
2022-06-23 05:59:04;4.04;106.99
2022-06-23 06:00:05;4.04;106.66
2022-06-23 06:01:05;4.04;106.66
2022-06-23 06:02:02;4.04;106.66
2022-06-23 06:03:02;4.04;106.66
2022-06-23 06:04:03;4.04;106.99
2022-06-23 06:05:03;4.04;106.66
2022-06-23 06:06:04;4.04;106.99
2022-06-23 06:07:05;4.04;106.99
2022-06-23 06:08:05;4.04;106.66
2022-06-23 06:09:01;4.04;106.99
2022-06-23 06:10:02;4.04;106.99
2022-06-23 06:11:03;4.04;106.99
2022-06-23 06:12:03;4.04;106.99
2022-06-23 06:13:04;4.04;106.99
2022-06-23 06:14:04;4.04;106.99
2022-06-23 06:15:05;4.04;106.66
2022-06-23 06:16:06;4.04;106.99
2022-06-23 06:17:02;4.04;106.99
2022-06-23 06:18:02;4.04;106.99
2022-06-23 06:19:03;4.04;106.99
2022-06-23 06:20:04;4.04;106.66
2022-06-23 06:21:04;4.04;106.99
2022-06-23 06:22:05;4.04;106.99
2022-06-23 06:23:06;4.04;106.99
2022-06-23 06:24:02;4.04;106.66
2022-06-23 06:25:02;4.04;106.99
2022-06-23 06:26:03;4.04;106.99
2022-06-23 06:27:04;4.04;106.66
2022-06-23 06:28:04;4.04;106.99
2022-06-23 06:29:05;4.04;106.99
2022-06-23 06:30:05;4.04;106.99
2022-06-23 06:31:02;4.04;106.99
2022-06-23 06:32:02;4.04;106.66
2022-06-23 06:33:03;4.04;106.99
2022-06-23 06:34:03;4.04;106.99
2022-06-23 06:35:04;4.04;107.31
2022-06-23 06:36:04;4.04;106.99
2022-06-23 06:37:05;4.04;106.99
2022-06-23 06:38:06;4.04;106.66
2022-06-23 06:39:02;4.04;106.66
2022-06-23 06:40:02;4.04;106.99
2022-06-23 06:41:03;4.04;106.99
2022-06-23 06:42:04;4.04;106.99
2022-06-23 06:43:04;4.04;106.66
2022-06-23 06:44:05;4.04;106.99
2022-06-23 06:45:05;4.04;106.99
2022-06-23 06:46:01;4.04;106.66
2022-06-23 06:47:02;4.04;106.99
2022-06-23 06:48:03;4.04;106.99
2022-06-23 06:49:03;4.04;106.99
2022-06-23 06:50:04;4.04;106.66
2022-06-23 06:51:04;4.04;106.99
2022-06-23 06:52:05;4.04;106.99
2022-06-23 06:53:06;4.04;106.99
2022-06-23 06:54:02;4.04;106.99
2022-06-23 06:55:02;4.04;106.99
2022-06-23 06:56:03;4.04;106.66
2022-06-23 06:57:03;4.04;106.66
2022-06-23 06:58:04;4.04;106.66
2022-06-23 06:59:05;4.04;106.66
2022-06-23 07:00:05;4.04;106.66
2022-06-23 07:01:01;4.04;106.66
2022-06-23 07:02:02;4.04;106.66
2022-06-23 07:03:03;4.04;106.50
2022-06-23 07:04:03;4.04;106.50
2022-06-23 07:05:04;4.04;106.66
2022-06-23 07:06:04;4.04;106.50
2022-06-23 07:07:05;4.04;106.66
2022-06-23 07:08:05;4.04;106.50
2022-06-23 07:09:02;4.04;106.66
2022-06-23 07:10:02;4.04;106.66
2022-06-23 07:11:03;4.04;106.66
2022-06-23 07:12:03;4.04;106.66
2022-06-23 07:13:04;4.04;106.66
2022-06-23 07:14:05;4.04;106.99
2022-06-23 07:15:05;4.04;106.50
2022-06-23 07:16:01;4.04;106.99
2022-06-23 07:17:02;4.04;106.99
2022-06-23 07:18:03;4.04;106.99
2022-06-23 07:19:03;4.04;106.66
2022-06-23 07:20:04;4.04;106.99
2022-06-23 07:21:04;4.04;106.50
2022-06-23 07:22:05;4.04;106.50
2022-06-23 07:23:05;4.04;106.66
2022-06-23 07:24:01;4.04;106.99
2022-06-23 07:25:02;4.04;106.50
2022-06-23 07:26:03;4.04;106.50
2022-06-23 07:27:03;4.04;106.99
2022-06-23 07:28:04;4.04;106.66
2022-06-23 07:29:04;4.04;106.99
2022-06-23 07:30:05;4.04;106.99
2022-06-23 07:31:05;4.04;106.50
2022-06-23 07:32:01;4.04;106.66
2022-06-23 07:33:02;4.04;106.99
2022-06-23 07:34:03;4.04;106.99
2022-06-23 07:35:03;4.04;106.66
2022-06-23 07:36:04;4.04;106.66
2022-06-23 07:37:04;4.04;106.99
2022-06-23 07:38:05;4.04;106.66
2022-06-23 07:39:05;4.04;106.66
2022-06-23 07:40:02;4.04;106.66
2022-06-23 07:41:02;4.04;106.66
2022-06-23 07:42:03;4.04;106.66
2022-06-23 07:43:03;4.04;106.99
2022-06-23 07:44:04;4.04;106.66
2022-06-23 07:45:04;4.04;106.66
2022-06-23 07:46:05;4.04;106.66
2022-06-23 07:47:05;4.04;106.66
2022-06-23 07:48:02;4.04;106.50
2022-06-23 07:49:02;4.04;106.66
2022-06-23 07:50:03;4.04;106.50
2022-06-23 07:51:03;4.04;106.99
2022-06-23 07:52:04;4.04;106.99
2022-06-23 07:53:05;4.04;106.66
2022-06-23 07:54:05;4.04;106.66
2022-06-23 07:55:06;4.04;106.99
2022-06-23 07:56:02;4.04;106.66
2022-06-23 07:57:02;4.04;106.66
2022-06-23 07:58:03;4.04;106.66
2022-06-23 07:59:03;4.04;106.66
2022-06-23 08:00:04;4.04;106.66
2022-06-23 08:01:04;4.04;106.66
2022-06-23 08:02:05;4.04;106.66
2022-06-23 08:03:06;4.04;106.66
2022-06-23 08:04:02;4.04;106.66
2022-06-23 08:05:02;4.04;106.99
2022-06-23 08:06:03;4.04;106.66
2022-06-23 08:07:03;4.04;106.66
2022-06-23 08:08:04;4.04;106.50
2022-06-23 08:09:04;4.04;106.50
2022-06-23 08:10:05;4.04;106.99
2022-06-23 08:11:05;4.04;106.66
2022-06-23 08:12:02;4.04;106.66
2022-06-23 08:13:02;4.04;106.50
2022-06-23 08:14:03;4.04;106.99
2022-06-23 08:15:03;4.04;106.50
2022-06-23 08:16:04;4.04;106.66
2022-06-23 08:17:04;4.04;106.66
2022-06-23 08:18:05;4.04;106.50
2022-06-23 08:19:06;4.04;106.50
2022-06-23 08:20:02;4.04;106.50
2022-06-23 08:21:02;4.04;106.99
2022-06-23 08:22:03;4.04;106.50
2022-06-23 08:23:03;4.04;106.66
2022-06-23 08:24:04;4.04;106.66
2022-06-23 08:25:04;4.04;106.50
2022-06-23 08:26:05;4.04;106.50
2022-06-23 08:27:06;4.04;106.66
2022-06-23 08:28:02;4.04;106.66
2022-06-23 08:29:02;4.04;106.50
2022-06-23 08:30:03;4.04;106.66
2022-06-23 08:31:03;4.04;106.66
2022-06-23 08:32:04;4.04;106.50
2022-06-23 08:33:05;4.04;106.50
2022-06-23 08:34:05;4.04;106.66
2022-06-23 08:35:06;4.04;106.99
2022-06-23 08:36:02;4.04;106.99
2022-06-23 08:37:02;4.04;106.66
2022-06-23 08:38:03;4.04;106.66
2022-06-23 08:39:04;4.04;106.66
2022-06-23 08:40:04;4.04;106.66
2022-06-23 08:41:05;4.04;106.66
2022-06-23 08:42:06;4.04;106.66
2022-06-23 08:43:02;4.04;106.66
2022-06-23 08:44:02;4.04;106.99
2022-06-23 08:45:03;4.04;106.66
2022-06-23 08:46:03;4.04;106.50
2022-06-23 08:47:04;4.04;106.99
2022-06-23 08:48:05;4.04;106.66
2022-06-23 08:49:05;4.04;106.66
2022-06-23 08:50:06;4.04;106.50
2022-06-23 08:51:02;4.04;106.66
2022-06-23 08:52:02;4.04;106.66
2022-06-23 08:53:03;4.04;106.66
2022-06-23 08:54:04;4.04;106.99
2022-06-23 08:55:04;4.04;106.99
2022-06-23 08:56:05;4.04;106.66
2022-06-23 08:57:05;4.04;106.66
2022-06-23 08:58:01;4.04;106.66
2022-06-23 08:59:02;4.04;106.99
2022-06-23 09:00:03;4.04;106.50
2022-06-23 09:01:03;4.04;106.66
2022-06-23 09:02:04;4.04;106.66
2022-06-23 09:03:04;4.04;106.66
2022-06-23 09:04:05;4.04;106.99
2022-06-23 09:05:06;4.04;106.66
2022-06-23 09:06:02;4.04;106.66
2022-06-23 09:07:02;4.04;106.66
2022-06-23 09:08:03;4.04;106.99
2022-06-23 09:09:03;4.03;106.66
2022-06-23 09:10:04;4.04;106.99
2022-06-23 09:11:05;4.04;106.66
2022-06-23 09:12:05;4.04;106.99
2022-06-23 09:13:06;4.04;106.66
2022-06-23 09:14:02;4.04;106.66
2022-06-23 09:15:03;4.04;106.66
2022-06-23 09:16:03;4.04;106.66
2022-06-23 09:17:04;4.04;106.99
2022-06-23 09:18:04;4.04;106.66
2022-06-23 09:19:05;4.04;106.66
2022-06-23 09:20:05;4.04;106.99
2022-06-23 09:21:02;4.04;106.99
2022-06-23 09:22:02;4.04;106.66
2022-06-23 09:23:03;4.04;106.99
2022-06-23 09:24:04;4.04;106.66
2022-06-23 09:25:04;4.04;106.66
2022-06-23 09:26:05;4.04;106.50
2022-06-23 09:27:05;4.04;106.99
2022-06-23 09:28:01;4.04;106.66
2022-06-23 09:29:02;4.03;106.99
2022-06-23 09:30:03;4.04;106.99
2022-06-23 09:31:03;4.04;106.99
2022-06-23 09:32:04;4.03;106.99
2022-06-23 09:33:04;4.04;106.66
2022-06-23 09:34:05;4.04;106.50
2022-06-23 09:35:06;4.04;106.66
2022-06-23 09:36:02;4.04;106.99
2022-06-23 09:37:02;4.04;106.66
2022-06-23 09:38:03;4.04;106.66
2022-06-23 09:39:03;4.04;106.99
2022-06-23 09:40:04;4.03;106.66
2022-06-23 09:41:05;4.04;106.66
2022-06-23 09:42:05;4.04;106.99
2022-06-23 09:43:06;4.04;106.66
2022-06-23 09:44:02;4.04;106.66
2022-06-23 09:45:02;4.04;106.66
2022-06-23 09:46:03;4.03;106.99
2022-06-23 09:47:04;4.04;106.99
2022-06-23 09:48:04;4.04;106.50
2022-06-23 09:49:05;4.04;106.99
2022-06-23 09:50:05;4.04;106.99
2022-06-23 09:51:02;4.04;106.99
2022-06-23 09:52:02;4.04;106.99
2022-06-23 09:53:03;4.04;106.66
2022-06-23 09:54:03;4.04;106.66
2022-06-23 09:55:04;4.04;106.99
2022-06-23 09:56:05;4.04;106.66
2022-06-23 09:57:05;4.04;106.99
2022-06-23 09:58:06;4.04;106.99
2022-06-23 09:59:02;4.04;106.99
2022-06-23 10:00:03;4.04;106.99
2022-06-23 10:01:03;4.04;106.66
2022-06-23 10:02:04;4.04;106.99
2022-06-23 10:03:04;4.04;106.99
2022-06-23 10:04:05;4.04;106.66
2022-06-23 10:05:06;4.04;106.66
2022-06-23 10:06:02;4.04;106.50
2022-06-23 10:07:03;4.04;106.99
2022-06-23 10:08:03;4.04;106.99
2022-06-23 10:09:04;4.04;106.99
2022-06-23 10:10:05;4.04;106.99
2022-06-23 10:11:05;4.04;106.50
2022-06-23 10:12:06;4.04;106.99
2022-06-23 10:13:02;4.04;106.66
2022-06-23 10:14:03;4.04;106.99
2022-06-23 10:15:03;4.04;106.99
2022-06-23 10:16:04;4.04;106.50
2022-06-23 10:17:04;4.04;106.99
2022-06-23 10:18:05;4.04;106.66
2022-06-23 10:19:06;4.04;106.66
2022-06-23 10:20:02;4.04;106.99
2022-06-23 10:21:02;4.04;106.99
2022-06-23 10:22:03;4.04;106.66
2022-06-23 10:23:04;4.04;106.99
2022-06-23 10:24:04;4.04;106.66
2022-06-23 10:25:05;4.04;106.99
2022-06-23 10:26:06;4.04;106.99
2022-06-23 10:27:02;4.04;106.99
2022-06-23 10:28:02;4.04;106.66
2022-06-23 10:29:03;4.04;106.99
2022-06-23 10:30:04;4.04;106.99
2022-06-23 10:31:04;4.04;106.99
2022-06-23 10:32:05;4.04;106.99
2022-06-23 10:33:06;4.04;106.66
2022-06-23 10:34:02;4.04;106.99
2022-06-23 10:35:03;4.04;106.99
2022-06-23 10:36:03;4.04;106.99
2022-06-23 10:37:04;4.04;106.66
2022-06-23 10:38:05;4.04;106.99
2022-06-23 10:39:05;4.04;106.50
2022-06-23 10:40:06;4.04;106.99
2022-06-23 10:41:02;4.04;106.99
2022-06-23 10:42:03;4.04;106.99
2022-06-23 10:43:03;4.04;106.66
2022-06-23 10:44:04;4.04;106.99
2022-06-23 10:45:05;4.04;106.99
2022-06-23 10:46:05;4.04;106.99
2022-06-23 10:47:02;4.04;106.99
2022-06-23 10:48:02;4.04;106.99
2022-06-23 10:49:03;4.04;106.66
2022-06-23 10:50:04;4.04;106.66
2022-06-23 10:51:04;4.04;106.99
2022-06-23 10:52:05;4.04;106.99
2022-06-23 10:53:06;4.04;106.99
2022-06-23 10:54:02;4.04;106.99
2022-06-23 10:55:03;4.04;106.99
2022-06-23 10:56:03;4.04;106.66
2022-06-23 10:57:04;4.04;106.50
2022-06-23 10:58:05;4.04;106.99
2022-06-23 10:59:05;4.04;106.99
2022-06-23 11:00:01;4.04;106.99
2022-06-23 11:01:02;4.04;106.99
2022-06-23 11:02:03;4.04;106.99
2022-06-23 11:03:03;4.04;106.99
2022-06-23 11:04:04;4.04;106.99
2022-06-23 11:05:05;4.04;106.99
2022-06-23 11:06:06;4.04;106.99
2022-06-23 11:07:02;4.04;106.99
2022-06-23 11:08:02;4.04;106.99
2022-06-23 11:09:03;4.04;106.99
2022-06-23 11:10:04;4.04;106.66
2022-06-23 11:11:04;4.04;106.99
2022-06-23 11:12:05;4.04;106.99
2022-06-23 11:13:06;4.04;106.66
2022-06-23 11:14:02;4.04;106.99
2022-06-23 11:15:03;4.04;106.99
2022-06-23 11:16:03;4.04;106.99
2022-06-23 11:17:04;4.04;106.99
2022-06-23 11:18:05;4.04;106.99
2022-06-23 11:19:05;4.04;106.99
2022-06-23 11:20:02;4.04;106.99
2022-06-23 11:21:02;4.04;106.99
2022-06-23 11:22:03;4.04;106.99
2022-06-23 11:23:04;4.04;106.99
2022-06-23 11:24:04;4.04;106.99
2022-06-23 11:25:05;4.04;106.99
2022-06-23 11:26:06;4.04;106.99
2022-06-23 11:27:02;4.04;106.99
2022-06-23 11:28:03;4.04;106.99
2022-06-23 11:29:03;4.04;106.66
2022-06-23 11:30:04;4.04;106.99
2022-06-23 11:31:05;4.04;106.99
2022-06-23 11:32:06;4.04;106.66
2022-06-23 11:33:02;4.03;106.99
2022-06-23 11:34:03;4.04;106.99
2022-06-23 11:35:03;4.03;106.99
2022-06-23 11:36:04;4.04;106.99
2022-06-23 11:37:05;4.03;106.99
2022-06-23 11:38:05;4.03;106.66
2022-06-23 11:39:06;4.04;106.50
2022-06-23 11:40:02;4.04;106.66
2022-06-23 11:41:03;4.03;106.18
2022-06-23 11:42:03;4.03;106.66
2022-06-23 11:43:04;4.04;106.50
2022-06-23 11:44:05;4.04;106.66
2022-06-23 11:45:05;4.04;106.66
2022-06-23 11:46:06;4.04;106.66
2022-06-23 11:47:02;4.03;106.66
2022-06-23 11:48:03;4.03;106.66
2022-06-23 11:49:03;4.04;106.66
2022-06-23 11:50:04;4.03;106.66
2022-06-23 11:51:05;4.04;106.66
2022-06-23 11:52:05;4.03;106.99
2022-06-23 11:53:02;4.04;106.99
2022-06-23 11:54:02;4.04;106.99
2022-06-23 11:55:03;4.04;106.99
2022-06-23 11:56:04;4.04;106.99
2022-06-23 11:57:04;4.04;106.99
2022-06-23 11:58:05;4.03;106.66
2022-06-23 11:59:06;4.04;106.66
2022-06-23 12:00:02;4.03;107.31
2022-06-23 12:01:03;4.03;106.66
2022-06-23 12:02:03;4.03;106.99
2022-06-23 12:03:04;4.03;106.99
2022-06-23 12:04:05;4.03;106.66
2022-06-23 12:05:05;4.03;106.66
2022-06-23 12:06:02;4.03;106.99
2022-06-23 12:07:02;4.03;106.66
2022-06-23 12:08:03;4.03;106.66
2022-06-23 12:09:04;4.03;106.99
2022-06-23 12:10:04;4.03;106.66
2022-06-23 12:11:05;4.03;106.66
2022-06-23 12:12:06;4.03;106.99
2022-06-23 12:13:02;4.04;106.99
2022-06-23 12:14:03;4.03;106.66
2022-06-23 12:15:03;4.03;106.99
2022-06-23 12:16:04;4.04;106.99
2022-06-23 12:17:05;4.03;106.99
2022-06-23 12:18:06;4.03;106.99
2022-06-23 12:19:02;4.04;106.99
2022-06-23 12:20:03;4.04;106.99
2022-06-23 12:21:03;4.04;106.66
2022-06-23 12:22:04;4.04;106.66
2022-06-23 12:23:05;4.03;106.99
2022-06-23 12:24:06;4.04;106.99
2022-06-23 12:25:02;4.03;106.99
2022-06-23 12:26:02;4.03;106.99
2022-06-23 12:27:03;4.03;106.99
2022-06-23 12:28:04;4.03;106.99
2022-06-23 12:29:05;4.03;106.99
2022-06-23 12:30:05;4.04;106.99
2022-06-23 12:31:06;4.04;106.99
2022-06-23 12:32:02;4.03;106.99
2022-06-23 12:33:03;4.04;106.99
2022-06-23 12:34:04;4.03;106.99
2022-06-23 12:35:04;4.03;106.99
2022-06-23 12:36:05;4.04;106.99
2022-06-23 12:37:06;4.04;106.99
2022-06-23 12:38:02;4.03;106.99
2022-06-23 12:39:02;4.04;106.99
2022-06-23 12:40:03;4.04;106.99
2022-06-23 12:41:04;4.04;106.99
2022-06-23 12:42:05;4.03;106.99
2022-06-23 12:43:05;4.03;106.99
2022-06-23 12:44:06;4.03;106.99
2022-06-23 12:45:02;4.03;106.99
2022-06-23 12:46:03;4.03;106.99
2022-06-23 12:47:04;4.03;106.99
2022-06-23 12:48:04;4.04;106.99
2022-06-23 12:49:05;4.03;106.66
2022-06-23 12:50:06;4.03;106.99
2022-06-23 12:51:02;4.03;106.99
2022-06-23 12:52:03;4.03;106.99
2022-06-23 12:53:03;4.04;106.99
2022-06-23 12:54:04;4.03;106.66
2022-06-23 12:55:05;4.03;106.66
2022-06-23 12:56:06;4.03;106.66
2022-06-23 12:57:02;4.03;106.99
2022-06-23 12:58:02;4.03;106.99
2022-06-23 12:59:03;4.03;106.99
2022-06-23 13:00:04;4.03;106.99
2022-06-23 13:01:05;4.03;106.99
2022-06-23 13:02:05;4.03;106.99
2022-06-23 13:03:06;4.03;106.99
2022-06-23 13:04:02;4.03;106.99
2022-06-23 13:05:03;4.03;106.99
2022-06-23 13:06:03;4.03;106.99
2022-06-23 13:07:04;4.03;106.99
2022-06-23 13:08:05;4.03;106.99
2022-06-23 13:09:06;4.03;106.50
2022-06-23 13:10:02;4.03;106.66
2022-06-23 13:11:02;4.03;106.50
2022-06-23 13:12:03;4.03;106.66
2022-06-23 13:13:04;4.03;106.66
2022-06-23 13:14:05;4.03;106.66
2022-06-23 13:15:05;4.03;106.66
2022-06-23 13:16:06;4.03;106.50
2022-06-23 13:17:02;4.03;106.66
2022-06-23 13:18:03;4.03;106.66
2022-06-23 13:19:04;4.03;106.66
2022-06-23 13:20:04;4.03;106.66
2022-06-23 13:21:05;4.03;106.66
2022-06-23 13:22:06;4.03;106.66
2022-06-23 13:23:02;4.03;106.99
2022-06-23 13:24:03;4.03;106.66
2022-06-23 13:25:03;4.03;106.66
2022-06-23 13:26:04;4.03;106.66
2022-06-23 13:27:05;4.03;106.66
2022-06-23 13:28:06;4.03;106.66
2022-06-23 13:29:02;4.03;106.66
2022-06-23 13:30:03;4.03;106.99
2022-06-23 13:31:03;4.03;106.66
2022-06-23 13:32:04;4.03;106.99
2022-06-23 13:33:05;4.03;106.99
2022-06-23 13:34:05;4.04;106.99
2022-06-23 13:35:02;4.03;106.99
2022-06-23 13:36:02;4.03;106.99
2022-06-23 13:37:03;4.03;106.99
2022-06-23 13:38:04;4.03;106.99
2022-06-23 13:39:04;4.03;106.99
2022-06-23 13:40:05;4.03;107.31
2022-06-23 13:41:06;4.03;106.99
2022-06-23 13:42:02;4.03;106.99
2022-06-23 13:43:03;4.03;106.99
2022-06-23 13:44:04;4.03;106.99
2022-06-23 13:45:04;4.03;106.99
2022-06-23 13:46:05;4.03;106.99
2022-06-23 13:47:06;4.03;106.99
2022-06-23 13:48:02;4.03;106.99
2022-06-23 13:49:03;4.03;106.99
2022-06-23 13:50:03;4.03;106.99
2022-06-23 13:51:04;4.03;106.99
2022-06-23 13:52:05;4.03;106.99
2022-06-23 13:53:06;4.03;106.99
2022-06-23 13:54:02;4.03;106.99
2022-06-23 13:55:03;4.03;106.99
2022-06-23 13:56:03;4.03;107.31
2022-06-23 13:57:04;4.03;106.99
2022-06-23 13:58:05;4.03;106.99
2022-06-23 13:59:06;4.03;106.99
2022-06-23 14:00:02;4.01;106.66
2022-06-23 14:01:03;4.03;106.99
2022-06-23 14:02:03;4.03;106.99
2022-06-23 14:03:04;4.03;106.99
2022-06-23 14:04:05;4.03;106.99
2022-06-23 14:05:05;4.03;106.99
2022-06-23 14:06:02;4.03;106.99
2022-06-23 14:07:02;4.03;106.99
2022-06-23 14:08:03;4.03;106.99
2022-06-23 14:09:04;4.03;106.66
2022-06-23 14:10:05;4.03;106.66
2022-06-23 14:11:05;4.03;106.99
2022-06-23 14:12:06;4.03;107.31
2022-06-23 14:13:02;4.03;106.99
2022-06-23 14:14:03;4.03;107.31
2022-06-23 14:15:04;4.03;106.99
2022-06-23 14:16:04;4.03;106.99
2022-06-23 14:17:05;4.03;107.31
2022-06-23 14:18:06;4.03;106.99
2022-06-23 14:19:02;4.03;106.99
2022-06-23 14:20:03;4.03;107.31
2022-06-23 14:21:04;4.03;106.99
2022-06-23 14:22:04;4.03;107.31
2022-06-23 14:23:05;4.03;106.99
2022-06-23 14:24:06;4.03;106.99
2022-06-23 14:25:02;4.03;106.99
2022-06-23 14:26:03;4.03;106.99
2022-06-23 14:27:03;4.03;106.66
2022-06-23 14:28:04;4.03;107.31
2022-06-23 14:29:05;4.03;107.31
2022-06-23 14:30:05;4.03;107.31
2022-06-23 14:31:02;4.03;106.99
2022-06-23 14:32:02;4.03;106.99
2022-06-23 14:33:03;4.03;106.99
2022-06-23 14:34:04;4.03;106.66
2022-06-23 14:35:04;4.03;106.99
2022-06-23 14:36:05;4.03;106.99
2022-06-23 14:37:06;4.03;106.66
2022-06-23 14:38:02;4.03;106.66
2022-06-23 14:39:03;4.03;106.99
2022-06-23 14:40:03;4.03;106.66
2022-06-23 14:41:04;4.03;106.66
2022-06-23 14:42:05;4.03;106.99
2022-06-23 14:43:05;4.03;106.66
2022-06-23 14:44:02;4.03;106.66
2022-06-23 14:45:02;4.03;106.99
2022-06-23 14:46:03;4.03;106.66
2022-06-23 14:47:04;4.03;106.66
2022-06-23 14:48:04;4.03;106.66
2022-06-23 14:49:05;4.03;106.99
2022-06-23 14:50:06;4.03;106.66
2022-06-23 14:51:02;4.03;106.66
2022-06-23 14:52:03;4.03;106.99
2022-06-23 14:53:03;4.03;106.66
2022-06-23 14:54:04;4.03;106.66
2022-06-23 14:55:05;4.03;106.66
2022-06-23 14:56:05;4.03;106.66
2022-06-23 14:57:06;4.03;106.66
2022-06-23 14:58:02;4.03;106.66
2022-06-23 14:59:03;4.03;106.99
2022-06-23 15:00:04;4.03;106.99
2022-06-23 15:01:04;4.03;106.50
2022-06-23 15:02:05;4.03;106.99
2022-06-23 15:03:06;4.03;106.99
2022-06-23 15:04:02;4.03;106.99
2022-06-23 15:05:02;4.03;106.99
2022-06-23 15:06:03;4.03;106.99
2022-06-23 15:07:04;4.03;106.50
2022-06-23 15:08:04;4.03;106.99
2022-06-23 15:09:05;4.03;106.50
2022-06-23 15:10:06;4.03;106.99
2022-06-23 15:11:02;4.03;106.50
2022-06-23 15:12:03;4.03;106.99
2022-06-23 15:13:03;4.03;106.99
2022-06-23 15:14:04;4.03;106.50
2022-06-23 15:15:05;4.03;106.66
2022-06-23 15:16:05;4.03;106.99
2022-06-23 15:17:02;4.03;106.99
2022-06-23 15:18:02;4.03;106.99
2022-06-23 15:19:03;4.03;106.99
2022-06-23 15:20:04;4.03;106.99
2022-06-23 15:21:04;4.03;106.99
2022-06-23 15:22:05;4.03;106.66
2022-06-23 15:23:06;4.03;106.99
2022-06-23 15:24:02;4.03;106.99
2022-06-23 15:25:03;4.03;106.66
2022-06-23 15:26:03;4.03;106.99
2022-06-23 15:27:04;4.03;106.99
2022-06-23 15:28:05;4.03;106.99
2022-06-23 15:29:05;4.03;106.99
2022-06-23 15:30:02;4.03;106.66
2022-06-23 15:31:02;4.03;106.99
2022-06-23 15:32:03;4.03;106.66
2022-06-23 15:33:04;4.03;106.50
2022-06-23 15:34:04;4.03;106.99
2022-06-23 15:35:05;4.03;106.99
2022-06-23 15:36:06;4.03;106.66
2022-06-23 15:37:02;4.03;106.99
2022-06-23 15:38:02;4.03;106.99
2022-06-23 15:39:03;4.03;106.66
2022-06-23 15:40:04;4.03;106.50
2022-06-23 15:41:04;4.03;106.99
2022-06-23 15:42:05;4.03;106.99
2022-06-23 15:43:06;4.03;106.99
2022-06-23 15:44:02;4.03;106.99
2022-06-23 15:45:03;4.03;106.99
2022-06-23 15:46:03;4.03;106.66
2022-06-23 15:47:04;4.03;106.99
2022-06-23 15:48:05;4.03;106.99
2022-06-23 15:49:05;4.03;106.66
2022-06-23 15:50:06;4.03;106.99
2022-06-23 15:51:02;4.03;106.99
2022-06-23 15:52:03;4.03;106.99
2022-06-23 15:53:03;4.03;106.99
2022-06-23 15:54:04;4.03;106.99
2022-06-23 15:55:05;4.03;107.31
2022-06-23 15:56:05;4.03;106.99
2022-06-23 15:57:01;4.03;106.99
2022-06-23 15:58:02;4.03;106.99
2022-06-23 15:59:03;4.03;107.31
2022-06-23 16:00:03;4.03;107.31
2022-06-23 16:01:04;4.03;106.99
2022-06-23 16:02:05;4.03;107.31
2022-06-23 16:03:05;4.03;106.99
2022-06-23 16:04:02;4.03;107.31
2022-06-23 16:05:02;4.03;106.99
2022-06-23 16:06:03;4.03;106.99
2022-06-23 16:07:03;4.03;107.31
2022-06-23 16:08:04;4.03;106.99
2022-06-23 16:09:05;4.03;107.31
2022-06-23 16:10:05;4.03;107.31
2022-06-23 16:11:02;4.03;106.99
2022-06-23 16:12:02;4.03;106.99
2022-06-23 16:13:03;4.03;106.99
2022-06-23 16:14:04;4.03;106.99
2022-06-23 16:15:04;4.03;107.31
2022-06-23 16:16:05;4.03;106.99
2022-06-23 16:17:05;4.03;106.99
2022-06-23 16:18:02;4.03;107.31
2022-06-23 16:19:02;4.03;107.31
2022-06-23 16:20:03;4.03;107.31
2022-06-23 16:21:04;4.03;107.31
2022-06-23 16:22:04;4.03;107.31
2022-06-23 16:23:05;4.03;106.99
2022-06-23 16:24:06;4.03;106.99
2022-06-23 16:25:02;4.03;107.31
2022-06-23 16:26:02;4.03;106.66
2022-06-23 16:27:03;4.03;106.66
2022-06-23 16:28:04;4.03;106.99
2022-06-23 16:29:04;4.03;107.31
2022-06-23 16:30:05;4.03;106.66
2022-06-23 16:31:06;4.03;106.99
2022-06-23 16:32:02;4.03;106.99
2022-06-23 16:33:03;4.03;106.99
2022-06-23 16:34:03;4.03;107.31
2022-06-23 16:35:04;4.03;107.31
2022-06-23 16:36:05;4.03;106.66
2022-06-23 16:37:05;4.03;107.31
2022-06-23 16:38:06;4.03;107.31
2022-06-23 16:39:02;4.03;106.66
2022-06-23 16:40:03;4.03;106.99
2022-06-23 16:41:03;4.03;107.31
2022-06-23 16:42:04;4.03;106.99
2022-06-23 16:43:05;4.03;107.31
2022-06-23 16:44:05;4.03;106.99
2022-06-23 16:45:02;4.03;106.99
2022-06-23 16:46:02;4.03;107.31
2022-06-23 16:47:03;4.03;107.31
2022-06-23 16:48:04;4.03;107.31
2022-06-23 16:49:04;4.03;106.99
2022-06-23 16:50:05;4.03;106.99
2022-06-23 16:51:06;4.03;107.31
2022-06-23 16:52:02;4.02;107.31
2022-06-23 16:53:03;4.03;107.31
2022-06-23 16:54:03;4.03;106.99
2022-06-23 16:55:04;4.03;106.99
2022-06-23 16:56:05;4.03;107.31
2022-06-23 16:57:05;4.03;107.31
2022-06-23 16:58:06;4.03;107.31
2022-06-23 16:59:02;4.03;107.31
2022-06-23 17:00:03;4.03;107.31
2022-06-23 17:01:03;4.03;107.31
2022-06-23 17:02:04;4.03;106.66
2022-06-23 17:03:05;4.03;106.99
2022-06-23 17:04:05;4.03;106.99
2022-06-23 17:05:06;4.03;106.99
2022-06-23 17:06:02;4.03;106.99
2022-06-23 17:07:03;4.03;107.31
2022-06-23 17:08:03;4.03;106.99
2022-06-23 17:09:04;4.03;107.31
2022-06-23 17:10:05;4.03;107.31
2022-06-23 17:11:06;4.03;106.99
2022-06-23 17:12:02;4.03;107.31
2022-06-23 17:13:02;4.02;107.31
2022-06-23 17:14:03;4.02;107.31
2022-06-23 17:15:04;4.02;106.99
2022-06-23 17:16:04;4.02;107.31
2022-06-23 17:17:05;4.03;106.99
2022-06-23 17:18:05;4.03;107.31
2022-06-23 17:19:02;4.03;106.99
2022-06-23 17:20:02;4.03;107.31
2022-06-23 17:21:03;4.02;107.31
2022-06-23 17:22:04;4.02;107.31
2022-06-23 17:23:04;4.03;107.31
2022-06-23 17:24:05;4.02;107.31
2022-06-23 17:25:05;4.02;106.99
2022-06-23 17:26:02;4.03;107.31
2022-06-23 17:27:02;4.02;107.31
2022-06-23 17:28:03;4.03;106.99
2022-06-23 17:29:04;4.02;106.99
2022-06-23 17:30:04;4.02;106.99
2022-06-23 17:31:05;4.02;107.31
2022-06-23 17:32:05;4.02;106.99
2022-06-23 17:33:02;4.03;107.31
2022-06-23 17:34:02;4.03;107.31
2022-06-23 17:35:03;4.02;107.31
2022-06-23 17:36:04;4.03;106.99
2022-06-23 17:37:04;4.02;106.99
2022-06-23 17:38:05;4.02;107.31
2022-06-23 17:39:05;4.02;106.99
2022-06-23 17:40:02;4.02;106.99
2022-06-23 17:41:02;4.02;107.31
2022-06-23 17:42:03;4.02;106.99
2022-06-23 17:43:04;4.03;106.99
2022-06-23 17:44:04;4.02;106.99
2022-06-23 17:45:05;4.02;107.31
2022-06-23 17:46:05;4.02;107.31
2022-06-23 17:47:02;4.02;106.99
2022-06-23 17:48:02;4.02;106.99
2022-06-23 17:49:03;4.02;107.31
2022-06-23 17:50:04;4.02;106.99
2022-06-23 17:51:04;4.02;106.99
2022-06-23 17:52:05;4.02;106.99
2022-06-23 17:53:05;4.02;107.31
2022-06-23 17:54:02;4.02;107.31
2022-06-23 17:55:02;4.02;107.31
2022-06-23 17:56:03;4.02;107.31
2022-06-23 17:57:03;4.02;106.99
2022-06-23 17:58:04;4.02;107.31
2022-06-23 17:59:05;4.02;107.31
2022-06-23 18:00:05;4.02;106.66
2022-06-23 18:01:02;4.02;107.31
2022-06-23 18:02:02;4.02;107.31
2022-06-23 18:03:03;4.02;107.31
2022-06-23 18:04:03;4.02;106.99
2022-06-23 18:05:04;4.02;107.31
2022-06-23 18:06:05;4.02;107.31
2022-06-23 18:07:05;4.02;106.99
2022-06-23 18:08:02;4.02;107.31
2022-06-23 18:09:02;4.02;107.31
2022-06-23 18:10:03;4.02;107.31
2022-06-23 18:11:03;4.02;106.99
2022-06-23 18:12:04;4.02;107.31
2022-06-23 18:13:05;4.02;106.99
2022-06-23 18:14:05;4.02;106.99
2022-06-23 18:15:02;4.02;106.99
2022-06-23 18:16:02;4.02;107.31
2022-06-23 18:17:03;4.02;106.99
2022-06-23 18:18:04;4.02;107.31
2022-06-23 18:19:04;4.02;106.99
2022-06-23 18:20:05;4.02;106.99
2022-06-23 18:21:05;4.02;106.99
2022-06-23 18:22:02;4.02;106.99
2022-06-23 18:23:02;4.02;107.31
2022-06-23 18:24:03;4.02;107.31
2022-06-23 18:25:04;4.02;106.99
2022-06-23 18:26:04;4.02;106.99
2022-06-23 18:27:05;4.02;107.31
2022-06-23 18:28:06;4.02;106.99
2022-06-23 18:29:02;4.02;107.31
2022-06-23 18:30:02;4.02;107.31
2022-06-23 18:31:03;4.02;107.31
2022-06-23 18:32:04;4.02;107.31
2022-06-23 18:33:04;4.02;106.99
2022-06-23 18:34:05;4.02;106.99
2022-06-23 18:35:06;4.02;107.31
2022-06-23 18:36:02;4.02;106.99
2022-06-23 18:37:02;4.02;107.31
2022-06-23 18:38:03;4.02;106.66
2022-06-23 18:39:04;4.02;107.31
2022-06-23 18:40:04;4.02;107.31
2022-06-23 18:41:05;4.02;106.99
2022-06-23 18:42:05;4.02;106.99
2022-06-23 18:43:02;4.02;106.99
2022-06-23 18:44:02;4.02;106.99
2022-06-23 18:45:03;4.02;107.31
2022-06-23 18:46:03;4.02;106.99
2022-06-23 18:47:04;4.02;106.99
2022-06-23 18:48:05;4.02;107.31
2022-06-23 18:49:05;4.02;107.31
2022-06-23 18:50:01;4.02;106.99
2022-06-23 18:51:02;4.02;107.31
2022-06-23 18:52:03;4.02;106.99
2022-06-23 18:53:03;4.02;106.99
2022-06-23 18:54:04;4.02;107.31
2022-06-23 18:55:05;4.02;107.31
2022-06-23 18:56:05;4.02;106.66
2022-06-23 18:57:06;4.02;106.66
2022-06-23 18:58:02;4.02;107.31
2022-06-23 18:59:03;4.02;107.31
2022-06-23 19:00:03;4.02;107.31
2022-06-23 19:01:04;4.02;106.99
2022-06-23 19:02:04;4.02;106.99
2022-06-23 19:03:05;4.02;106.99
2022-06-23 19:04:06;4.02;106.99
2022-06-23 19:05:02;4.02;106.99
2022-06-23 19:06:02;4.02;106.99
2022-06-23 19:07:03;4.02;107.31
2022-06-23 19:08:04;4.02;106.99
2022-06-23 19:09:04;4.02;107.31
2022-06-23 19:10:05;4.02;106.99
2022-06-23 19:11:05;4.02;106.99
2022-06-23 19:12:02;4.02;107.31
2022-06-23 19:13:02;4.02;107.31
2022-06-23 19:14:03;4.02;106.99
2022-06-23 19:15:04;4.02;106.99
2022-06-23 19:16:04;4.02;107.31
2022-06-23 19:17:05;4.02;106.99
2022-06-23 19:18:05;4.02;106.99
2022-06-23 19:19:02;4.02;106.99
2022-06-23 19:20:02;4.02;107.31
2022-06-23 19:21:03;4.02;107.31
2022-06-23 19:22:03;4.02;106.99
2022-06-23 19:23:04;4.02;106.99
2022-06-23 19:24:05;4.02;107.31
2022-06-23 19:25:05;4.02;107.31
2022-06-23 19:26:01;4.02;106.99
2022-06-23 19:27:02;4.02;106.99
2022-06-23 19:28:03;4.02;106.99
2022-06-23 19:29:03;4.02;107.31
2022-06-23 19:30:04;4.02;107.31
2022-06-23 19:31:05;4.02;106.99
2022-06-23 19:32:05;4.02;106.66
2022-06-23 19:33:06;4.02;107.31
2022-06-23 19:34:02;4.02;107.31
2022-06-23 19:35:03;4.02;106.99
2022-06-23 19:36:03;4.02;107.31
2022-06-23 19:37:04;4.02;106.99
2022-06-23 19:38:05;4.02;107.31
2022-06-23 19:39:05;4.02;106.99
2022-06-23 19:40:06;4.02;107.31
2022-06-23 19:41:02;4.02;107.31
2022-06-23 19:42:03;4.02;107.31
2022-06-23 19:43:03;4.02;107.31
2022-06-23 19:44:04;4.02;107.31
2022-06-23 19:45:05;4.02;106.99
2022-06-23 19:46:05;4.02;107.31
2022-06-23 19:47:06;4.02;107.31
2022-06-23 19:48:02;4.02;107.31
2022-06-23 19:49:03;4.02;107.31
2022-06-23 19:50:03;4.02;106.99
2022-06-23 19:51:04;4.02;107.31
2022-06-23 19:52:05;4.02;107.31
2022-06-23 19:53:05;4.02;106.99
2022-06-23 19:54:02;4.02;107.31
2022-06-23 19:55:02;4.02;107.31
2022-06-23 19:56:03;4.02;106.99
2022-06-23 19:57:04;4.02;107.31
2022-06-23 19:58:04;4.02;107.31
2022-06-23 19:59:05;4.02;106.99
2022-06-23 20:00:06;4.02;107.31
2022-06-23 20:01:02;4.02;106.99
2022-06-23 20:02:02;4.02;107.31
2022-06-23 20:03:03;4.02;106.99
2022-06-23 20:04:04;4.02;107.31
2022-06-23 20:05:04;4.02;107.31
2022-06-23 20:06:05;4.02;106.99
2022-06-23 20:07:05;4.02;106.99
2022-06-23 20:08:01;4.02;106.99
2022-06-23 20:09:02;4.02;106.99
2022-06-23 20:10:03;4.02;106.99
2022-06-23 20:11:03;4.02;106.99
2022-06-23 20:12:04;4.02;106.99
2022-06-23 20:13:05;4.02;106.99
2022-06-23 20:14:05;4.02;106.99
2022-06-23 20:15:06;4.02;106.99
2022-06-23 20:16:02;4.02;106.99
2022-06-23 20:17:03;4.02;106.99
2022-06-23 20:18:03;4.02;107.31
2022-06-23 20:19:04;4.02;106.99
2022-06-23 20:20:04;4.02;106.99
2022-06-23 20:21:05;4.02;106.99
2022-06-23 20:22:06;4.02;106.99
2022-06-23 20:23:02;4.02;106.99
2022-06-23 20:24:02;4.02;106.99
2022-06-23 20:25:03;4.02;106.99
2022-06-23 20:26:04;4.02;106.99
2022-06-23 20:27:04;4.02;106.99
2022-06-23 20:28:05;4.02;106.99
2022-06-23 20:29:05;4.02;106.99
2022-06-23 20:30:02;4.02;106.99
2022-06-23 20:31:02;4.02;106.99
2022-06-23 20:32:03;4.02;106.99
2022-06-23 20:33:03;4.02;106.99
2022-06-23 20:34:04;4.02;106.99
2022-06-23 20:35:05;4.02;106.99
2022-06-23 20:36:05;4.02;106.99
2022-06-23 20:37:01;4.02;106.99
2022-06-23 20:38:02;4.02;106.99
2022-06-23 20:39:03;4.02;106.99
2022-06-23 20:40:03;4.02;106.99
2022-06-23 20:41:04;4.02;106.99
2022-06-23 20:42:05;4.02;106.99
2022-06-23 20:43:05;4.02;106.99
2022-06-23 20:44:06;4.02;106.66
2022-06-23 20:45:02;4.02;106.99
2022-06-23 20:46:03;4.02;106.99
2022-06-23 20:47:03;4.02;106.99
2022-06-23 20:48:04;4.01;106.99
2022-06-23 20:49:04;4.02;106.99
2022-06-23 20:50:05;4.02;106.99
2022-06-23 20:51:06;4.02;106.99
2022-06-23 20:52:02;4.02;106.99
2022-06-23 20:53:03;4.02;106.99
2022-06-23 20:54:03;4.02;106.99
2022-06-23 20:55:04;4.02;106.99
2022-06-23 20:56:04;4.02;106.99
2022-06-23 20:57:05;4.02;106.99
2022-06-23 20:58:06;4.01;106.99
2022-06-23 20:59:02;4.01;106.99
2022-06-23 21:00:03;4.02;106.99
2022-06-23 21:01:03;4.01;106.66
2022-06-23 21:02:04;4.02;106.99
2022-06-23 21:03:04;4.02;106.99
2022-06-23 21:04:05;4.01;106.66
2022-06-23 21:05:06;4.02;106.99
2022-06-23 21:06:02;4.02;106.99
2022-06-23 21:07:02;4.02;106.99
2022-06-23 21:08:03;4.01;106.99
2022-06-23 21:09:04;4.02;106.99
2022-06-23 21:10:04;4.01;106.99
2022-06-23 21:11:05;4.01;106.99
2022-06-23 21:12:06;4.02;106.66
2022-06-23 21:13:02;4.01;106.99
2022-06-23 21:14:03;4.02;106.99
2022-06-23 21:15:03;4.01;106.66
2022-06-23 21:16:04;4.01;106.99
2022-06-23 21:17:04;4.02;106.66
2022-06-23 21:18:05;4.02;106.99
2022-06-23 21:19:06;4.02;106.66
2022-06-23 21:20:02;4.01;106.66
2022-06-23 21:21:03;4.01;106.99
2022-06-23 21:22:03;4.01;106.99
2022-06-23 21:23:04;4.01;106.66
2022-06-23 21:24:05;4.01;106.99
2022-06-23 21:25:05;4.01;106.99
2022-06-23 21:26:01;4.01;106.66
2022-06-23 21:27:02;4.01;106.50
2022-06-23 21:28:03;4.01;106.99
2022-06-23 21:29:03;4.01;106.66
2022-06-23 21:30:04;4.01;106.99
2022-06-23 21:31:05;4.01;106.99
2022-06-23 21:32:05;4.01;106.99
2022-06-23 21:33:06;4.01;106.99
2022-06-23 21:34:02;4.01;106.50
2022-06-23 21:35:02;4.01;106.99
2022-06-23 21:36:03;4.01;106.66
2022-06-23 21:37:04;4.01;106.66
2022-06-23 21:38:04;4.01;106.99
2022-06-23 21:39:05;4.01;106.66
2022-06-23 21:40:06;4.01;106.99
2022-06-23 21:41:02;4.01;106.66
2022-06-23 21:42:02;4.01;106.50
2022-06-23 21:43:03;4.01;106.99
2022-06-23 21:44:04;4.01;106.66
2022-06-23 21:45:04;4.01;106.66
2022-06-23 21:46:05;4.01;106.66
2022-06-23 21:47:05;4.01;106.66
2022-06-23 21:48:02;4.01;106.66
2022-06-23 21:49:02;4.01;106.99
2022-06-23 21:50:03;4.01;106.66
2022-06-23 21:51:03;4.01;106.99
2022-06-23 21:52:04;4.01;106.99
2022-06-23 21:53:05;4.01;106.66
2022-06-23 21:54:05;4.01;106.99
2022-06-23 21:55:06;4.01;106.99
2022-06-23 21:56:02;4.01;106.66
2022-06-23 21:57:03;4.01;106.66
2022-06-23 21:58:03;4.01;106.66
2022-06-23 21:59:04;4.01;106.99
2022-06-23 22:00:05;4.01;106.66
2022-06-23 22:01:05;4.01;106.99
2022-06-23 22:02:06;4.01;106.66
2022-06-23 22:03:02;4.01;106.99
2022-06-23 22:04:03;4.01;106.99
2022-06-23 22:05:03;4.01;106.66
2022-06-23 22:06:04;4.01;106.66
2022-06-23 22:07:04;4.01;106.99
2022-06-23 22:08:05;4.01;106.66
2022-06-23 22:09:06;4.01;106.99
2022-06-23 22:10:02;4.01;106.66
2022-06-23 22:11:02;4.01;106.66
2022-06-23 22:12:03;4.01;106.99
2022-06-23 22:13:04;4.01;106.99
2022-06-23 22:14:04;4.01;106.66
2022-06-23 22:15:05;4.01;106.66
2022-06-23 22:16:06;4.01;106.66
2022-06-23 22:17:02;4.01;106.99
2022-06-23 22:18:02;4.01;106.66
2022-06-23 22:19:03;4.01;106.66
2022-06-23 22:20:04;4.01;106.99
2022-06-23 22:21:04;4.01;106.99
2022-06-23 22:22:05;4.01;106.99
2022-06-23 22:23:06;4.01;106.99
2022-06-23 22:24:02;4.01;106.99
2022-06-23 22:25:02;4.01;106.66
2022-06-23 22:26:03;4.01;106.99
2022-06-23 22:27:04;4.01;106.99
2022-06-23 22:28:04;4.01;106.99
2022-06-23 22:29:05;4.01;106.99
2022-06-23 22:30:05;4.01;106.99
2022-06-23 22:31:02;4.01;106.99
2022-06-23 22:32:02;4.01;106.99
2022-06-23 22:33:03;4.01;106.99
2022-06-23 22:34:04;4.01;106.66
2022-06-23 22:35:04;4.01;106.66
2022-06-23 22:36:05;4.01;106.66
2022-06-23 22:37:05;4.01;106.99
2022-06-23 22:38:02;4.01;106.99
2022-06-23 22:39:02;4.01;106.99
2022-06-23 22:40:03;4.01;106.99
2022-06-23 22:41:04;4.01;106.66
2022-06-23 22:42:04;4.01;106.99
2022-06-23 22:43:05;4.01;106.99
2022-06-23 22:44:06;4.01;106.99
2022-06-23 22:45:02;4.01;106.66
2022-06-23 22:46:02;4.01;106.99
2022-06-23 22:47:03;4.01;106.66
2022-06-23 22:48:04;4.01;106.99
2022-06-23 22:49:04;4.01;106.50
2022-06-23 22:50:05;4.01;106.66
2022-06-23 22:51:06;4.01;106.66
2022-06-23 22:52:02;4.01;106.99
2022-06-23 22:53:03;4.01;106.99
2022-06-23 22:54:03;4.01;106.99
2022-06-23 22:55:04;4.01;106.66
2022-06-23 22:56:04;4.01;106.66
2022-06-23 22:57:05;4.01;106.99
2022-06-23 22:58:06;4.01;106.99
2022-06-23 22:59:02;4.01;106.99
2022-06-23 23:00:02;4.01;106.99
2022-06-23 23:01:03;4.01;106.99
2022-06-23 23:02:04;4.01;106.99
2022-06-23 23:03:04;4.01;106.99
2022-06-23 23:04:05;4.01;106.66
2022-06-23 23:05:05;4.01;106.99
2022-06-23 23:06:02;4.01;106.66
2022-06-23 23:07:02;4.01;106.99
2022-06-23 23:08:03;4.01;106.50
2022-06-23 23:09:03;4.01;106.99
2022-06-23 23:10:04;4.01;106.99
2022-06-23 23:11:05;4.01;106.66
2022-06-23 23:12:05;4.01;106.66
2022-06-23 23:13:06;4.01;106.99
2022-06-23 23:14:02;4.01;106.99
2022-06-23 23:15:03;4.01;106.66
2022-06-23 23:16:03;4.01;106.99
2022-06-23 23:17:04;4.01;106.99
2022-06-23 23:18:04;4.01;106.66
2022-06-23 23:19:05;4.01;106.66
2022-06-23 23:20:06;4.01;106.66
2022-06-23 23:21:02;4.01;106.99
2022-06-23 23:22:02;4.01;106.99
2022-06-23 23:23:03;4.01;106.66
2022-06-23 23:24:04;4.01;106.99
2022-06-23 23:25:04;4.01;106.66
2022-06-23 23:26:05;4.01;106.66
2022-06-23 23:27:06;4.01;106.66
2022-06-23 23:28:02;4.01;106.99
2022-06-23 23:29:02;4.01;106.99
2022-06-23 23:30:03;4.01;106.66
2022-06-23 23:31:04;4.01;106.66
2022-06-23 23:32:04;4.01;106.66
2022-06-23 23:33:05;4.01;106.66
2022-06-23 23:34:05;4.01;106.99
2022-06-23 23:35:02;4.01;106.99
2022-06-23 23:36:02;4.01;106.99
2022-06-23 23:37:03;4.01;106.66
2022-06-23 23:38:03;4.01;106.99
2022-06-23 23:39:04;4.01;106.99
2022-06-23 23:40:05;4.01;106.66
2022-06-23 23:41:05;4.01;106.99
2022-06-23 23:42:06;4.01;106.66
2022-06-23 23:43:02;4.01;106.99
2022-06-23 23:44:03;4.01;106.66
2022-06-23 23:45:03;4.01;106.66
2022-06-23 23:46:04;4.01;106.66
2022-06-23 23:47:05;4.01;106.66
2022-06-23 23:48:05;4.01;106.99
2022-06-23 23:49:06;4.01;106.66
2022-06-23 23:50:02;4.01;106.99
2022-06-23 23:51:03;4.01;106.99
2022-06-23 23:52:03;4.01;106.99
2022-06-23 23:53:04;4.01;106.66
2022-06-23 23:54:04;4.01;106.66
2022-06-23 23:55:05;4.01;106.66
2022-06-23 23:56:06;4.01;106.99
2022-06-23 23:57:02;4.01;106.99
2022-06-23 23:58:03;4.01;106.99
2022-06-23 23:59:03;4.01;106.66
