#EQ7-NFv2;2022-06-19 q:21:14:40;4.12;1319.76
2022-06-19 q:21:14:55;4.12;9239.28
2022-06-19 q:21:15:05;4.12;9239.28
2022-06-19 q:21:16:02;4.12;9239.28
2022-06-19 q:21:17:03;4.12;9239.28
#EQ7-NFv2;2022-06-19 q:22:04:06;4.12;-1319.92
2022-06-19 q:22:05:03;4.12;9239.28
2022-06-19 q:22:06:04;4.12;9239.28
2022-06-19 q:22:07:05;4.12;9239.28
2022-06-19 q:22:08:06;4.09;9239.28
2022-06-19 q:22:09:03;4.11;9239.28
2022-06-19 q:22:10:04;4.11;9239.28
#EQ7-NFv2;2022-06-19 22:32:28;4.10;9239.28
2022-06-19 22:33:02;4.09;9239.28
2022-06-19 22:34:03;4.12;9239.28
2022-06-19 22:35:04;4.12;9239.28
2022-06-19 22:36:04;4.12;9239.28
2022-06-19 22:37:05;4.12;9239.28
2022-06-19 22:38:06;4.12;9239.28
2022-06-19 22:39:02;4.12;9239.28
2022-06-19 22:40:03;4.12;9239.28
2022-06-19 22:41:04;4.12;9239.28
2022-06-19 22:42:05;4.11;9239.28
2022-06-19 22:43:06;4.12;9239.28
2022-06-19 22:44:02;4.12;9239.28
2022-06-19 22:45:03;4.12;9239.28
#EQ7-NFv2;2022-06-19 22:52:10;4.11;4672.57
2022-06-19 22:53:01;4.12;105.37
2022-06-19 22:54:02;4.12;105.86
2022-06-19 22:55:03;4.12;105.70
2022-06-19 22:56:04;4.12;105.70
2022-06-19 22:57:04;4.12;105.70
2022-06-19 22:58:05;4.12;105.70
2022-06-19 22:59:06;4.12;105.37
2022-06-19 23:00:02;4.12;105.70
2022-06-19 23:01:03;4.12;105.70
2022-06-19 23:02:04;4.12;105.70
2022-06-19 23:03:04;4.12;105.70
2022-06-19 23:04:05;4.12;105.70
2022-06-19 23:05:06;4.12;105.37
2022-06-19 23:06:02;4.12;105.70
2022-06-19 23:07:03;4.12;105.70
2022-06-19 23:08:03;4.12;105.86
2022-06-19 23:09:04;4.12;105.86
2022-06-19 23:10:05;4.12;105.86
2022-06-19 23:11:06;4.12;105.86
2022-06-19 23:12:02;4.12;105.86
2022-06-19 23:13:03;4.11;105.70
2022-06-19 23:14:03;4.12;105.86
2022-06-19 23:15:04;4.12;105.86
2022-06-19 23:16:05;4.12;105.86
2022-06-19 23:17:05;4.12;105.70
2022-06-19 23:18:06;4.12;105.86
2022-06-19 23:19:02;4.11;105.37
2022-06-19 23:20:03;4.12;105.70
2022-06-19 23:21:03;4.11;105.86
2022-06-19 23:22:04;4.11;105.70
2022-06-19 23:23:05;4.11;105.86
2022-06-19 23:24:05;4.11;105.86
2022-06-19 23:25:02;4.11;105.86
2022-06-19 23:26:02;4.11;105.70
2022-06-19 23:27:03;4.11;105.70
2022-06-19 23:28:03;4.12;105.86
2022-06-19 23:29:04;4.11;105.70
2022-06-19 23:30:05;4.11;105.86
2022-06-19 23:31:05;4.11;105.86
2022-06-19 23:32:02;4.11;105.70
2022-06-19 23:33:02;4.11;105.86
2022-06-19 23:34:03;4.11;106.18
2022-06-19 23:35:03;4.11;105.86
2022-06-19 23:36:04;4.11;106.18
2022-06-19 23:37:05;4.11;106.18
2022-06-19 23:38:05;4.11;106.18
2022-06-19 23:39:06;4.11;106.18
2022-06-19 23:40:02;4.11;106.18
2022-06-19 23:41:03;4.11;105.86
2022-06-19 23:42:03;4.11;106.18
2022-06-19 23:43:04;4.11;105.86
2022-06-19 23:44:05;4.11;105.86
2022-06-19 23:45:05;4.11;106.18
2022-06-19 23:46:06;4.11;106.18
2022-06-19 23:47:02;4.11;105.86
2022-06-19 23:48:03;4.11;106.18
2022-06-19 23:49:03;4.11;106.18
2022-06-19 23:50:04;4.11;106.18
2022-06-19 23:51:05;4.11;106.18
2022-06-19 23:52:05;4.11;105.86
2022-06-19 23:53:02;4.11;106.18
2022-06-19 23:54:02;4.11;105.86
2022-06-19 23:55:03;4.11;106.18
2022-06-19 23:56:04;4.11;105.86
2022-06-19 23:57:04;4.11;105.86
2022-06-19 23:58:05;4.11;106.18
2022-06-19 23:59:06;4.11;106.18
