2021-12-22 00:00:41;3.93;125.84;99;23.00
2021-12-22 00:05:44;3.93;124.71;99;22.90
2021-12-22 00:10:43;3.93;124.39;99;22.90
2021-12-22 00:15:42;3.93;125.84;99;22.70
2021-12-22 00:20:41;3.93;124.39;99;22.60
2021-12-22 00:25:40;3.93;125.84;99;22.50
2021-12-22 00:30:43;3.93;123.74;99;22.50
2021-12-22 00:35:42;3.93;125.68;99;22.50
2021-12-22 00:40:41;3.93;125.84;99;22.50
2021-12-22 00:45:40;3.93;125.35;99;22.50
2021-12-22 00:50:43;3.93;125.68;99;22.70
2021-12-22 00:55:42;3.93;124.06;99;22.80
2021-12-22 01:00:41;3.93;124.39;99;22.70
2021-12-22 01:05:44;3.93;125.35;99;22.70
2021-12-22 01:10:43;3.93;125.68;99;22.80
2021-12-22 01:15:42;3.93;125.68;99;22.80
2021-12-22 01:20:41;3.93;124.39;99;22.70
2021-12-22 01:25:44;3.93;124.39;99;22.60
2021-12-22 01:30:43;3.93;124.39;99;22.70
2021-12-22 01:35:42;3.93;125.84;99;22.70
2021-12-22 01:40:41;3.93;125.68;99;22.70
2021-12-22 01:45:44;3.93;124.39;99;22.70
2021-12-22 01:50:43;3.93;124.39;99;22.80
2021-12-22 01:55:42;3.93;125.68;99;22.90
2021-12-22 02:00:40;3.93;124.39;99;23.00
2021-12-22 02:05:44;3.93;125.68;99;22.90
2021-12-22 02:10:43;3.93;124.71;99;22.80
2021-12-22 02:15:41;3.93;125.68;99;22.70
2021-12-22 02:20:40;3.93;124.39;99;22.90
2021-12-22 02:25:44;3.93;124.39;99;22.90
2021-12-22 02:30:43;3.93;124.39;99;22.90
2021-12-22 02:35:41;3.93;124.06;99;22.90
2021-12-22 02:40:40;3.93;124.39;99;22.90
2021-12-22 02:45:44;3.93;125.68;99;22.90
2021-12-22 02:50:43;3.93;125.68;99;22.80
2021-12-22 02:55:41;3.93;125.68;99;22.70
2021-12-22 03:00:40;3.93;125.68;99;22.60
2021-12-22 03:05:44;3.93;125.68;99;22.50
2021-12-22 03:10:42;3.93;125.84;99;22.50
2021-12-22 03:15:41;3.93;125.68;99;22.40
2021-12-22 03:20:40;3.93;124.39;99;22.30
2021-12-22 03:25:44;3.93;125.84;99;22.10
2021-12-22 03:30:42;3.93;125.68;99;22.00
2021-12-22 03:35:41;3.93;124.39;99;21.90
2021-12-22 03:40:40;3.93;125.84;99;22.00
2021-12-22 03:45:43;3.93;125.68;99;22.00
2021-12-22 03:50:42;3.93;124.39;99;22.00
2021-12-22 03:55:41;3.93;124.39;99;22.10
2021-12-22 04:00:44;3.93;124.06;99;22.20
2021-12-22 04:05:43;3.93;124.06;99;22.20
2021-12-22 04:10:42;3.93;125.35;99;22.30
2021-12-22 04:15:40;3.93;125.35;99;22.20
2021-12-22 04:20:44;3.93;123.74;99;22.30
2021-12-22 04:25:43;3.93;124.06;99;22.40
2021-12-22 04:30:41;3.93;125.35;99;22.30
2021-12-22 04:35:40;3.93;124.06;99;22.30
2021-12-22 04:40:44;3.93;123.74;99;22.20
2021-12-22 04:45:42;3.93;125.35;99;22.40
2021-12-22 04:50:41;3.93;123.74;99;22.30
2021-12-22 04:55:40;3.93;125.03;99;22.20
2021-12-22 05:00:43;3.93;125.03;99;22.20
2021-12-22 05:05:42;3.93;123.74;99;22.20
2021-12-22 05:10:41;3.93;125.35;99;22.20
2021-12-22 05:15:40;3.93;123.42;99;22.10
2021-12-22 05:20:43;3.93;123.42;99;22.00
2021-12-22 05:25:42;3.93;124.71;99;22.10
2021-12-22 05:30:41;3.93;123.42;99;22.10
2021-12-22 05:35:44;3.93;125.03;99;22.10
2021-12-22 05:40:43;3.93;123.42;99;22.10
2021-12-22 05:45:42;3.93;123.42;99;21.90
2021-12-22 05:50:41;3.93;123.42;99;21.90
2021-12-22 05:55:44;3.93;125.03;97;21.90
2021-12-22 06:00:43;3.93;123.42;97;21.80
2021-12-22 06:05:41;3.93;124.71;97;21.70
2021-12-22 06:10:40;3.93;123.74;97;21.60
2021-12-22 06:15:43;3.93;124.71;97;21.60
2021-12-22 06:20:42;3.93;125.03;97;21.50
2021-12-22 06:25:41;3.93;124.71;98;21.50
2021-12-22 06:30:44;3.93;123.42;98;21.50
2021-12-22 06:35:43;3.93;124.71;99;21.50
2021-12-22 06:40:42;3.93;124.71;99;21.60
2021-12-22 06:45:40;3.93;123.42;99;21.70
2021-12-22 06:50:44;3.93;123.10;99;21.80
2021-12-22 06:55:42;3.93;124.71;99;22.00
2021-12-22 07:00:41;3.93;125.03;99;22.10
2021-12-22 07:05:40;3.93;123.42;99;22.50
2021-12-22 07:10:43;3.93;123.10;99;22.90
2021-12-22 07:15:42;3.93;124.71;99;23.20
2021-12-22 07:20:40;3.93;124.71;99;23.50
2021-12-22 07:25:44;3.93;123.42;99;23.80
2021-12-22 07:30:43;3.93;123.10;99;23.70
2021-12-22 07:35:42;3.93;123.42;99;23.50
2021-12-22 07:40:40;3.93;124.71;99;23.70
2021-12-22 07:45:44;3.93;123.42;99;24.10
2021-12-22 07:50:43;3.93;123.10;99;24.20
2021-12-22 07:55:42;3.93;123.42;99;24.70
2021-12-22 08:00:41;3.93;124.71;99;25.00
2021-12-22 08:05:45;3.93;125.03;99;24.70
2021-12-22 08:10:44;3.93;124.71;99;24.70
2021-12-22 08:15:43;3.93;123.42;99;24.90
2021-12-22 08:20:42;3.93;124.71;99;25.50
2021-12-22 08:25:41;3.93;123.42;99;25.60
2021-12-22 08:30:40;3.93;124.39;99;25.80
2021-12-22 08:35:44;3.93;123.42;99;26.20
2021-12-22 08:40:43;3.93;124.71;99;26.10
2021-12-22 08:45:43;3.93;123.10;99;26.50
2021-12-22 08:50:42;3.93;123.10;98;26.80
2021-12-22 08:55:42;3.93;123.42;96;27.50
2021-12-22 09:00:41;3.93;124.39;95;27.80
2021-12-22 09:05:41;3.93;123.10;95;27.90
2021-12-22 09:10:45;3.93;123.10;93;28.90
2021-12-22 09:15:44;3.92;122.78;92;29.40
2021-12-22 09:20:44;3.93;124.39;92;29.40
2021-12-22 09:25:44;3.93;122.78;90;29.50
2021-12-22 09:30:44;3.92;124.71;90;29.90
2021-12-22 09:35:44;3.92;124.71;89;30.00
2021-12-22 09:40:44;3.92;124.71;89;30.50
2021-12-22 09:45:44;3.92;124.39;85;32.20
2021-12-22 09:50:44;3.92;124.39;80;34.10
2021-12-22 09:55:44;3.92;123.10;79;34.70
2021-12-22 10:00:44;3.92;124.71;79;34.60
2021-12-22 10:05:45;3.92;123.10;77;35.60
2021-12-22 10:10:41;3.92;124.71;77;36.30
2021-12-22 10:15:42;3.92;124.71;74;37.40
2021-12-22 10:20:43;3.92;123.10;75;36.30
2021-12-22 10:25:44;3.92;124.71;77;36.10
2021-12-22 10:30:45;3.92;124.39;77;36.50
2021-12-22 10:35:46;3.92;124.71;74;38.10
2021-12-22 10:40:42;3.92;123.10;73;37.30
2021-12-22 10:45:44;3.92;122.78;72;37.40
2021-12-22 10:50:45;3.92;123.10;72;36.90
2021-12-22 10:55:42;3.92;123.10;73;36.80
2021-12-22 11:00:43;3.92;122.78;73;37.20
2021-12-22 11:05:45;3.92;124.39;73;36.90
2021-12-22 11:10:42;3.92;123.10;69;38.30
2021-12-22 11:15:43;3.92;124.39;68;39.80
2021-12-22 11:20:45;3.92;123.42;63;40.80
2021-12-22 11:25:42;3.92;124.71;64;40.60
2021-12-22 11:30:44;3.92;124.39;64;39.90
2021-12-22 11:35:46;3.92;124.71;64;40.00
2021-12-22 11:40:43;3.92;124.39;62;39.60
2021-12-22 11:45:46;3.92;123.10;62;40.10
2021-12-22 11:50:43;3.92;124.39;62;40.40
2021-12-22 11:55:45;3.92;123.10;61;40.10
2021-12-22 12:00:43;3.92;122.78;59;40.40
2021-12-22 12:05:45;3.92;122.78;58;39.70
2021-12-22 12:10:47;3.92;122.78;62;39.90
2021-12-22 12:15:45;3.92;123.10;62;38.90
2021-12-22 12:20:47;3.92;123.10;63;38.60
2021-12-22 12:25:44;3.92;124.39;62;39.50
2021-12-22 12:30:46;3.92;124.39;60;38.60
2021-12-22 12:35:44;3.92;124.71;57;41.10
2021-12-22 12:40:46;3.92;123.42;53;43.90
2021-12-22 12:45:44;3.92;124.39;54;43.50
2021-12-22 12:50:46;3.92;123.10;54;42.90
2021-12-22 12:55:44;3.92;124.71;53;43.10
2021-12-22 13:00:47;3.92;123.10;54;43.10
2021-12-22 13:05:45;3.92;123.10;51;44.10
2021-12-22 13:10:44;3.92;123.42;49;44.80
2021-12-22 13:15:47;3.92;123.42;49;44.70
2021-12-22 13:20:45;3.92;123.10;50;43.60
2021-12-22 13:25:44;3.92;124.71;53;42.90
2021-12-22 13:30:47;3.92;123.10;50;42.60
2021-12-22 13:35:46;3.92;124.71;52;42.80
2021-12-22 13:40:44;3.92;124.71;53;42.40
2021-12-22 13:45:47;3.92;123.42;52;42.20
2021-12-22 13:50:46;3.92;123.10;52;42.60
2021-12-22 13:55:44;3.92;123.74;48;43.40
2021-12-22 14:00:47;3.92;123.10;50;43.00
2021-12-22 14:05:46;3.92;123.74;51;42.50
2021-12-22 14:10:44;3.92;123.10;53;42.40
2021-12-22 14:15:47;3.92;125.03;52;42.80
2021-12-22 14:20:46;3.92;124.71;50;43.10
2021-12-22 14:25:44;3.92;123.74;52;40.60
2021-12-22 14:30:47;3.92;125.03;50;42.30
2021-12-22 14:35:45;3.92;123.42;49;43.20
2021-12-22 14:40:44;3.92;123.74;51;42.40
2021-12-22 14:45:47;3.92;123.42;50;42.20
2021-12-22 14:50:45;3.92;123.42;51;41.70
2021-12-22 14:55:43;3.92;125.03;53;41.90
2021-12-22 15:00:46;3.91;123.74;51;41.30
2021-12-22 15:05:44;3.92;125.03;54;41.00
2021-12-22 15:10:47;3.92;123.42;53;41.20
2021-12-22 15:15:45;3.92;123.42;53;40.70
2021-12-22 15:20:44;3.92;123.74;52;41.30
2021-12-22 15:25:46;3.92;123.74;50;42.00
2021-12-22 15:30:44;3.92;125.03;50;42.60
2021-12-22 15:35:47;3.92;125.35;49;42.30
2021-12-22 15:40:45;3.91;123.74;52;42.00
2021-12-22 15:45:44;3.92;125.35;50;42.10
2021-12-22 15:50:47;3.92;125.35;49;42.80
2021-12-22 15:55:45;3.91;123.74;50;43.30
2021-12-22 16:00:48;3.92;123.74;50;42.50
2021-12-22 16:05:46;3.92;125.35;49;42.80
2021-12-22 16:10:44;3.92;125.35;48;43.40
2021-12-22 16:15:48;3.92;123.74;48;43.20
2021-12-22 16:20:46;3.92;125.35;48;42.90
2021-12-22 16:25:44;3.92;123.42;49;42.50
2021-12-22 16:30:47;3.91;125.35;49;41.90
2021-12-22 16:35:46;3.92;125.35;49;42.40
2021-12-22 16:40:44;3.91;125.35;49;42.40
2021-12-22 16:45:47;3.91;125.35;48;42.10
2021-12-22 16:50:45;3.91;123.42;49;42.20
2021-12-22 16:55:44;3.92;125.35;48;42.20
2021-12-22 17:00:46;3.92;125.35;48;42.70
2021-12-22 17:05:45;3.91;124.06;46;42.10
2021-12-22 17:10:48;3.92;125.35;49;41.00
2021-12-22 17:15:46;3.92;124.06;48;41.10
2021-12-22 17:20:44;3.92;123.74;48;41.50
2021-12-22 17:25:46;3.91;125.68;51;41.40
2021-12-22 17:30:44;3.91;125.35;52;41.30
2021-12-22 17:35:47;3.92;124.39;53;40.80
2021-12-22 17:40:45;3.91;124.06;55;39.70
2021-12-22 17:45:43;3.92;124.39;57;39.60
2021-12-22 17:50:45;3.92;125.35;56;39.50
2021-12-22 17:55:43;3.91;125.35;56;39.60
2021-12-22 18:00:46;3.92;123.74;57;39.00
2021-12-22 18:05:43;3.92;125.35;59;38.50
2021-12-22 18:10:46;3.92;123.74;59;38.30
2021-12-22 18:15:43;3.92;123.74;60;37.60
2021-12-22 18:20:46;3.92;125.03;60;37.50
2021-12-22 18:25:43;3.91;123.74;60;37.40
2021-12-22 18:30:45;3.91;125.03;61;37.10
2021-12-22 18:35:43;3.92;123.74;62;36.30
2021-12-22 18:40:44;3.91;125.03;62;36.10
2021-12-22 18:45:46;3.91;125.03;63;36.00
2021-12-22 18:50:43;3.92;125.03;63;35.70
2021-12-22 18:55:45;3.92;123.10;63;35.10
2021-12-22 19:00:42;3.92;124.71;65;34.50
2021-12-22 19:05:43;3.92;124.71;66;33.80
2021-12-22 19:10:45;3.92;125.03;68;33.20
2021-12-22 19:15:46;3.92;123.42;70;32.80
2021-12-22 19:20:42;3.92;124.71;71;32.30
2021-12-22 19:25:43;3.92;124.71;71;31.90
2021-12-22 19:30:44;3.92;123.10;72;31.60
2021-12-22 19:35:45;3.92;122.78;73;31.40
2021-12-22 19:40:41;3.92;124.39;74;31.10
2021-12-22 19:45:46;3.92;124.39;74;30.80
2021-12-22 19:50:42;3.92;124.39;75;30.60
2021-12-22 19:55:42;3.92;123.10;76;30.30
2021-12-22 20:00:43;3.92;124.71;77;30.10
2021-12-22 20:05:43;3.92;124.39;79;29.70
2021-12-22 20:10:43;3.92;123.10;79;29.50
2021-12-22 20:15:43;3.92;124.39;80;29.30
2021-12-22 20:20:44;3.92;122.78;81;29.20
2021-12-22 20:25:44;3.92;124.39;82;28.90
2021-12-22 20:30:44;3.92;123.10;83;28.70
2021-12-22 20:35:44;3.92;124.39;83;28.50
2021-12-22 20:40:44;3.92;124.39;84;28.30
2021-12-22 20:45:44;3.92;123.10;84;28.30
2021-12-22 20:50:43;3.92;122.78;84;28.10
2021-12-22 20:55:43;3.92;124.06;84;28.10
2021-12-22 21:00:43;3.92;123.10;84;28.00
2021-12-22 21:05:43;3.92;124.39;83;27.90
2021-12-22 21:10:42;3.92;124.39;84;27.70
2021-12-22 21:15:42;3.92;124.39;85;27.60
2021-12-22 21:20:42;3.92;124.71;85;27.50
2021-12-22 21:25:41;3.92;124.39;85;27.30
2021-12-22 21:30:41;3.92;124.71;85;27.20
2021-12-22 21:35:41;3.92;124.06;86;27.10
2021-12-22 21:40:45;3.92;124.06;86;26.90
2021-12-22 21:45:44;3.92;122.78;86;26.70
2021-12-22 21:50:44;3.92;124.06;87;26.50
2021-12-22 21:55:43;3.92;122.78;87;26.40
2021-12-22 22:00:43;3.92;124.06;87;26.30
2021-12-22 22:05:42;3.92;122.45;88;26.10
2021-12-22 22:10:42;3.92;122.78;89;25.90
2021-12-22 22:15:41;3.92;124.06;89;25.80
2021-12-22 22:20:40;3.92;123.74;89;25.60
2021-12-22 22:25:44;3.92;123.74;90;25.40
2021-12-22 22:30:44;3.92;123.74;91;25.10
2021-12-22 22:35:43;3.92;122.45;92;24.90
2021-12-22 22:40:42;3.92;124.06;93;24.70
2021-12-22 22:45:41;3.92;124.06;93;24.40
2021-12-22 22:50:41;3.92;124.06;95;24.10
2021-12-22 22:55:44;3.92;124.06;96;23.80
2021-12-22 23:00:44;3.92;123.74;97;23.50
2021-12-22 23:05:43;3.92;123.74;97;23.20
2021-12-22 23:10:42;3.92;123.74;98;23.00
2021-12-22 23:15:41;3.92;123.74;99;22.90
2021-12-22 23:20:44;3.92;122.45;99;22.80
2021-12-22 23:25:43;3.92;122.13;99;22.80
2021-12-22 23:30:42;3.92;122.45;99;22.70
2021-12-22 23:35:41;3.92;123.74;99;22.60
2021-12-22 23:40:40;3.92;122.45;99;22.50
2021-12-22 23:45:43;3.92;123.74;99;22.30
2021-12-22 23:50:42;3.92;124.06;99;22.10
2021-12-22 23:55:41;3.92;122.45;99;21.80
