2021-07-12 00:04:18;4.12;166.28;99;13.70
2021-07-12 00:34:18;4.12;166.28;99;13.50
2021-07-12 01:04:18;4.12;166.28;99;13.40
2021-07-12 01:34:18;4.11;164.99;99;13.60
2021-07-12 02:04:18;4.11;164.99;99;13.20
2021-07-12 02:34:18;4.11;166.76;95;12.90
2021-07-12 03:04:17;4.11;165.96;92;11.60
2021-07-12 03:34:20;4.11;166.44;98;11.00
2021-07-12 04:04:18;4.11;165.31;99;10.10
2021-07-12 04:34:15;4.11;166.28;91;10.20
2021-07-12 05:04:17;4.11;164.99;84;9.90
2021-07-12 05:34:19;4.11;165.31;79;10.20
2021-07-12 06:04:16;4.11;165.63;72;10.30
2021-07-12 06:34:17;4.11;167.41;68;10.60
2021-07-12 07:04:15;4.11;167.73;66;10.80
2021-07-12 07:34:17;4.11;167.89;65;10.70
2021-07-12 08:04:19;4.11;166.44;64;11.20
2021-07-12 08:34:17;4.11;164.67;63;12.00
2021-07-12 09:04:16;4.11;165.63;71;13.10
2021-07-12 09:34:20;4.11;163.70;99;14.80
2021-07-12 10:04:21;4.11;164.35;99;16.50
2021-07-12 10:34:23;4.11;164.02;99;19.10
2021-07-12 11:04:23;4.12;164.35;99;21.90
2021-07-12 11:34:25;4.12;166.76;93;23.20
2021-07-12 12:04:24;4.12;167.41;87;25.00
