#2021-06-25 13:50:32;4.11;166.44;98;17.50
2021-06-25 14:01:36;4.11;166.28;98;17.60
2021-06-25 14:34:52;4.11;165.31;95;18.50
2021-06-25 15:04:19;4.12;167.41;96;18.60
2021-06-25 15:34:23;4.12;167.73;95;18.70
2021-06-25 16:04:23;4.12;168.21;92;18.30
2021-06-25 16:34:22;4.12;165.31;92;18.30
2021-06-25 17:04:22;4.12;164.99;95;18.00
2021-06-25 17:34:20;4.12;164.67;97;17.10
2021-06-25 18:04:23;4.12;164.67;99;15.00
2021-06-25 18:34:20;4.12;166.44;99;12.80
2021-06-25 19:04:19;4.11;166.44;99;11.40
2021-06-25 19:34:17;4.11;166.76;99;10.80
2021-06-25 20:04:19;4.11;165.63;99;10.00
2021-06-25 20:34:16;4.11;167.41;99;10.10
2021-06-25 21:04:18;4.11;165.96;99;10.30
2021-06-25 21:34:14;4.11;165.63;85;9.00
2021-06-25 22:04:15;4.11;165.63;80;9.40
2021-06-25 22:34:16;4.11;165.31;78;8.80
2021-06-25 23:04:16;4.11;165.63;77;9.20
2021-06-25 23:34:17;4.11;165.96;75;9.30
