2020-12-20 00:03:38;4.23;76;16.20;21;0.00
2020-12-20 00:33:37;4.23;89;15.10;0;0.00
2020-12-20 01:03:40;4.23;85;15.10;0;0.00
2020-12-20 01:33:38;4.23;79;15.60;0;0.00
2020-12-20 02:03:36;4.23;84;14.80;0;0.00
2020-12-20 02:33:38;4.23;84;14.40;0;0.00
2020-12-20 03:03:35;4.23;83;14.40;0;0.00
2020-12-20 03:33:37;4.22;91;13.60;0;0.00
2020-12-20 04:03:38;4.22;86;13.70;0;0.00
2020-12-20 04:33:35;4.22;91;13.10;0;0.00
2020-12-20 05:03:36;4.22;96;12.60;0;0.00
2020-12-20 05:33:37;4.22;91;12.90;0;0.00
2020-12-20 06:03:34;4.22;90;13.00;0;1.10
2020-12-20 06:33:35;4.22;88;13.90;0;0.00
2020-12-20 07:03:36;4.22;69;16.60;0;0.00
2020-12-20 07:33:40;4.23;60;18.20;0;0.00
2020-12-20 08:03:41;4.23;58;19.30;0;0.00
2020-12-20 08:33:39;4.23;51;20.80;0;1.40
2020-12-20 09:03:43;4.23;50;21.90;0;0.00
2020-12-20 09:33:44;4.23;46;22.10;0;2.09
2020-12-20 10:03:45;4.23;43;23.40;0;1.20
2020-12-20 10:33:43;4.24;42;23.80;0;2.09
2020-12-20 11:03:45;4.24;38;24.70;0;2.29
2020-12-20 11:33:44;4.24;37;24.90;0;1.30
2020-12-20 12:03:48;4.24;34;25.40;0;1.10
2020-12-20 12:33:48;4.24;31;25.80;0;1.80
2020-12-20 13:03:48;4.24;31;26.20;0;1.80
2020-12-20 13:33:49;4.24;31;25.80;0;2.59
2020-12-20 14:03:49;4.24;33;26.30;0;1.60
2020-12-20 14:33:46;4.24;31;27.10;0;0.00
2020-12-20 15:03:47;4.24;31;27.70;0;1.40
2020-12-20 15:33:48;4.24;34;27.40;0;1.70
2020-12-20 16:03:50;4.24;36;28.00;0;0.00
2020-12-20 16:33:47;4.25;33;27.30;0;1.40
2020-12-20 17:03:48;4.25;28;27.20;0;0.00
2020-12-20 17:33:49;4.25;32;27.00;0;0.00
2020-12-20 18:03:45;4.25;32;26.80;0;1.30
2020-12-20 18:33:49;4.25;34;26.30;0;0.00
2020-12-20 19:03:48;4.25;35;25.80;0;0.00
2020-12-20 19:33:46;4.25;41;24.00;0;0.00
2020-12-20 20:03:42;4.25;51;20.90;0;0.00
2020-12-20 20:33:40;4.25;63;18.10;0;0.00
2020-12-20 21:03:41;4.24;62;17.10;0;0.00
2020-12-20 21:33:40;4.24;70;16.90;0;0.00
2020-12-20 22:03:39;4.23;67;16.60;0;0.00
2020-12-20 22:33:38;4.23;65;17.00;0;0.00
2020-12-20 23:03:37;4.24;59;17.30;0;0.00
2020-12-20 23:33:41;4.23;66;16.40;0;0.00
