2020-12-23 00:03:38;4.24;62;17.70;0;0.00
2020-12-23 00:33:38;4.24;73;16.00;0;0.00
2020-12-23 01:03:37;4.23;80;15.00;0;0.00
2020-12-23 01:33:35;4.23;84;14.40;0;0.00
2020-12-23 02:03:38;4.23;79;15.00;0;0.00
2020-12-23 02:33:36;4.23;77;15.00;0;0.00
2020-12-23 03:03:38;4.23;86;13.80;0;0.00
2020-12-23 03:33:36;4.23;92;12.80;0;0.00
2020-12-23 04:03:37;4.23;88;13.00;0;0.00
2020-12-23 04:33:34;4.22;88;13.20;0;0.00
2020-12-23 05:03:35;4.23;91;12.60;0;0.00
2020-12-23 05:33:36;4.23;87;12.40;0;0.00
2020-12-23 06:03:37;4.22;90;12.20;0;0.00
2020-12-23 06:33:33;4.23;92;12.30;0;0.00
2020-12-23 07:03:35;4.23;62;18.60;0;0.00
2020-12-23 07:33:39;4.23;64;20.20;0;0.00
2020-12-23 08:03:41;4.23;61;21.40;0;0.00
2020-12-23 08:33:44;4.24;52;23.20;0;0.00
2020-12-23 09:03:46;4.23;46;25.30;0;1.30
2020-12-23 09:33:44;4.24;41;26.90;0;1.30
2020-12-23 10:03:49;4.24;35;28.40;0;2.09
2020-12-23 10:33:46;4.24;30;28.90;0;2.49
2020-12-23 11:03:49;4.24;27;29.40;0;3.18
2020-12-23 11:33:52;4.24;23;30.00;0;1.20
2020-12-23 12:03:51;4.24;23;30.60;0;1.10
2020-12-23 12:33:51;4.24;23;30.80;0;2.69
2020-12-23 13:03:52;4.24;24;31.30;0;2.49
2020-12-23 13:33:53;4.25;22;31.30;0;2.19
2020-12-23 14:03:50;4.25;23;32.80;0;0.00
2020-12-23 14:33:52;4.25;25;32.60;0;0.00
2020-12-23 15:03:53;4.25;25;32.50;0;1.10
2020-12-23 15:33:51;4.25;23;32.50;0;0.00
2020-12-23 16:03:52;4.25;24;32.50;0;2.19
2020-12-23 16:33:54;4.25;25;32.90;0;1.30
2020-12-23 17:03:50;4.25;24;32.20;0;0.00
2020-12-23 17:33:51;4.26;27;31.80;0;1.10
2020-12-23 18:03:51;4.26;27;32.00;0;0.00
2020-12-23 18:33:50;4.26;28;30.60;0;1.50
2020-12-23 19:03:48;4.25;32;29.60;0;1.20
2020-12-23 19:33:50;4.25;41;27.50;0;0.00
2020-12-23 20:03:45;4.26;50;24.50;0;0.00
2020-12-23 20:33:46;4.25;51;23.40;0;0.00
2020-12-23 21:03:41;4.25;56;21.70;0;0.00
2020-12-23 21:33:44;4.25;65;19.90;0;0.00
2020-12-23 22:03:41;4.25;60;20.30;0;0.00
2020-12-23 22:33:42;4.24;61;19.90;0;0.00
2020-12-23 23:03:39;4.24;65;19.40;0;0.00
2020-12-23 23:33:39;4.24;67;18.90;0;0.00
