2020-12-15 00:03:40;4.21;96;15.80;0;0.00
2020-12-15 00:33:39;4.21;93;16.00;0;0.00
2020-12-15 01:03:38;4.20;97;15.40;0;1.50
2020-12-15 01:33:36;4.20;94;15.70;0;0.00
2020-12-15 02:03:35;4.21;96;15.30;0;1.30
2020-12-15 02:33:38;4.20;99;14.70;0;0.00
2020-12-15 03:03:36;4.20;96;15.10;0;1.60
2020-12-15 03:33:34;4.20;92;15.70;0;1.30
2020-12-15 04:03:38;4.20;92;15.90;0;1.30
2020-12-15 04:33:36;4.20;97;15.50;0;0.00
2020-12-15 05:03:35;4.20;97;15.80;0;0.00
2020-12-15 05:33:38;4.20;99;14.90;0;0.00
2020-12-15 06:03:36;4.20;99;14.30;0;0.00
2020-12-15 06:33:35;4.20;99;15.90;0;0.00
2020-12-15 07:03:38;4.20;85;18.10;0;0.00
2020-12-15 07:33:39;4.20;73;19.80;0;0.00
2020-12-15 08:03:41;4.21;68;22.10;0;0.00
2020-12-15 08:33:41;4.21;63;22.20;0;0.00
2020-12-15 09:03:42;4.21;65;22.20;0;1.10
2020-12-15 09:33:43;4.21;56;25.10;0;0.00
2020-12-15 10:03:46;4.22;59;25.10;0;0.00
2020-12-15 10:33:46;4.22;57;26.30;0;0.00
2020-12-15 11:03:46;4.22;53;26.60;0;2.19
2020-12-15 11:33:47;4.22;54;26.80;0;1.20
2020-12-15 12:03:48;4.22;48;29.90;0;0.00
2020-12-15 12:33:48;4.23;45;30.40;0;0.00
2020-12-15 13:03:53;4.23;52;31.40;0;0.00
2020-12-15 13:33:50;4.23;42;30.90;0;0.00
2020-12-15 14:03:51;4.23;38;31.40;0;0.00
2020-12-15 14:33:51;4.23;36;31.20;0;0.00
2020-12-15 15:03:52;4.23;39;31.20;0;0.00
2020-12-15 15:33:48;4.24;38;31.40;0;2.00
2020-12-15 16:03:54;4.24;44;30.10;0;0.00
2020-12-15 16:33:49;4.24;37;30.10;0;1.10
2020-12-15 17:03:52;4.24;42;30.40;0;0.00
2020-12-15 17:33:51;4.24;36;30.70;0;0.00
2020-12-15 18:03:49;4.24;35;29.60;0;1.10
2020-12-15 18:33:51;4.24;42;29.10;0;0.00
2020-12-15 19:03:47;4.25;44;28.40;0;0.00
2020-12-15 19:33:47;4.24;52;26.70;0;0.00
2020-12-15 20:03:46;4.24;68;23.80;0;0.00
2020-12-15 20:33:43;4.24;77;22.10;0;0.00
2020-12-15 21:03:42;4.24;78;21.60;0;0.00
2020-12-15 21:33:40;4.24;83;20.90;0;0.00
2020-12-15 22:03:43;4.24;87;20.60;0;0.00
2020-12-15 22:33:41;4.24;94;20.00;0;0.00
2020-12-15 23:03:42;4.24;94;19.90;0;0.00
2020-12-15 23:33:39;4.24;91;20.10;0;0.00
