2022-1-4 0:0:20;4.32;90;24.90;22;0.186;0.019;27.52;81.5;0.020;11.3392;7.097;11.657;6.864;44;0.248;0.037;25.94;78.6;0.037;15.3924;13.401;15.784;13.164
2022-1-4 0:5:23;4.31;89;24.60;22;0.185;0.019;27.52;81.5;0.020;11.2602;7.203;11.576;6.968;44;0.248;0.037;26.24;79.1;0.037;15.3944;13.403;15.789;13.149
2022-1-4 0:10:23;4.31;89;24.50;22;0.186;0.019;27.22;81.0;0.020;11.3392;7.097;11.657;6.864;44;0.250;0.036;26.24;79.1;0.037;15.5194;13.211;15.914;12.977
2022-1-4 0:15:22;4.31;89;24.40;22;0.182;0.019;27.22;81.0;0.020;11.1172;7.242;11.429;7.004;44;0.250;0.036;25.94;78.6;0.037;15.5214;13.213;15.920;12.962
2022-1-4 0:20:21;4.31;89;24.50;22;0.182;0.019;27.22;81.0;0.020;11.1172;7.242;11.429;7.004;44;0.248;0.037;25.94;78.6;0.037;15.3944;13.403;15.789;13.149
2022-1-4 0:25:20;4.31;88;24.20;22;0.186;0.019;27.22;81.0;0.020;11.3392;7.097;11.657;6.864;44;0.250;0.036;26.24;79.1;0.037;15.5214;13.213;15.920;12.962
2022-1-4 0:30:23;4.30;88;23.80;22;0.179;0.020;27.22;81.0;0.021;10.9092;7.397;11.215;7.155;44;0.250;0.036;25.94;78.6;0.037;15.5194;13.211;15.914;12.977
2022-1-4 0:35:22;4.30;88;23.80;22;0.182;0.019;27.22;81.0;0.020;11.1162;7.241;11.426;7.013;44;0.250;0.036;26.24;79.1;0.037;15.5194;13.211;15.914;12.977
2022-1-4 0:40:21;4.30;87;24.00;22;0.182;0.019;27.22;81.0;0.020;11.1162;7.241;11.426;7.013;44;0.250;0.036;26.24;79.1;0.037;15.5194;13.211;15.914;12.977
2022-1-4 0:45:20;4.30;86;23.90;22;0.182;0.019;27.22;81.0;0.020;11.1162;7.241;11.426;7.013;44;0.253;0.036;26.24;79.1;0.036;15.7194;13.120;16.120;12.887
2022-1-4 0:50:23;4.30;86;23.50;22;0.186;0.019;27.22;81.0;0.020;11.3622;7.145;11.678;6.920;44;0.250;0.036;25.94;78.6;0.037;15.5194;13.211;15.914;12.977
2022-1-4 0:55:22;4.30;84;23.00;22;0.184;0.019;27.22;81.0;0.020;11.2392;7.193;11.552;6.967;44;0.250;0.036;25.94;78.6;0.037;15.5194;13.211;15.914;12.977
2022-1-4 1:0:21;4.30;79;22.50;22;0.182;0.020;27.22;81.0;0.020;11.1152;7.240;11.422;7.021;44;0.250;0.036;25.94;78.6;0.037;15.5194;13.211;15.914;12.977
2022-1-4 1:5:19;4.30;77;22.50;22;0.186;0.019;27.22;81.0;0.020;11.3602;7.144;11.674;6.928;44;0.248;0.037;26.24;79.1;0.037;15.3924;13.401;15.784;13.164
2022-1-4 1:10:22;4.30;80;22.60;22;0.186;0.019;27.22;81.0;0.020;11.3602;7.144;11.674;6.928;44;0.250;0.036;25.94;78.6;0.037;15.5194;13.211;15.914;12.977
2022-1-4 1:15:21;4.30;81;22.70;22;0.182;0.020;27.22;81.0;0.020;11.1152;7.240;11.422;7.021;44;0.253;0.036;26.24;79.1;0.036;15.7194;13.120;16.120;12.887
2022-1-4 1:20:20;4.30;85;23.20;22;0.182;0.020;27.22;81.0;0.020;11.1152;7.240;11.422;7.021;44;0.248;0.037;25.94;78.6;0.037;15.3924;13.401;15.784;13.164
2022-1-4 1:25:23;4.30;84;23.10;22;0.186;0.019;27.22;81.0;0.020;11.3592;7.144;11.671;6.937;44;0.253;0.036;26.24;79.1;0.036;15.7174;13.118;16.114;12.902
2022-1-4 1:30:22;4.30;82;22.80;22;0.182;0.020;26.92;80.5;0.020;11.1152;7.240;11.422;7.021;44;0.250;0.036;26.24;79.1;0.037;15.5194;13.211;15.914;12.977
2022-1-4 1:35:20;4.30;83;22.90;22;0.182;0.020;26.92;80.5;0.020;11.1142;7.240;11.418;7.030;44;0.250;0.036;25.94;78.6;0.037;15.5194;13.211;15.914;12.977
2022-1-4 1:40:23;4.30;81;22.80;22;0.186;0.019;26.92;80.5;0.020;11.3602;7.144;11.674;6.928;44;0.248;0.037;25.94;78.6;0.037;15.3894;13.399;15.778;13.179
2022-1-4 1:45:22;4.30;78;22.60;22;0.183;0.019;26.92;80.5;0.020;11.1942;7.133;11.501;6.926;44;0.250;0.036;25.94;78.6;0.037;15.5194;13.211;15.914;12.977
2022-1-4 1:50:21;4.30;75;22.50;22;0.186;0.019;26.92;80.5;0.020;11.3582;7.143;11.667;6.945;44;0.248;0.037;25.94;78.6;0.037;15.3894;13.399;15.778;13.179
2022-1-4 1:55:20;4.30;74;22.40;22;0.186;0.019;26.92;80.5;0.020;11.3582;7.143;11.667;6.945;44;0.253;0.036;25.94;78.6;0.036;15.7194;13.120;16.120;12.887
2022-1-4 2:0:23;4.30;74;22.10;22;0.184;0.019;26.92;80.5;0.020;11.2362;7.191;11.541;6.992;44;0.250;0.036;25.94;78.6;0.037;15.5194;13.211;15.914;12.977
2022-1-4 2:5:21;4.30;64;21.70;22;0.188;0.019;26.92;80.5;0.020;11.4362;7.037;11.747;6.842;44;0.250;0.036;25.94;78.6;0.037;15.5164;13.209;15.908;12.992
2022-1-4 2:10:20;4.30;74;22.20;22;0.178;0.020;26.92;80.5;0.021;10.8872;7.385;11.185;7.171;44;0.250;0.036;25.94;78.6;0.037;15.5194;13.211;15.914;12.977
2022-1-4 2:15:23;4.30;72;22.10;22;0.180;0.020;26.92;80.5;0.020;10.9702;7.278;11.271;7.067;44;0.248;0.037;25.94;78.6;0.037;15.3894;13.399;15.778;13.179
2022-1-4 2:20:22;4.30;72;22.00;22;0.186;0.019;26.92;80.5;0.020;11.3162;7.085;11.626;6.880;44;0.250;0.036;25.94;78.6;0.037;15.5194;13.211;15.914;12.977
2022-1-4 2:25:20;4.30;73;22.10;22;0.182;0.020;26.92;80.5;0.020;11.0942;7.229;11.395;7.029;44;0.253;0.036;25.94;78.6;0.036;15.7194;13.120;16.120;12.887
2022-1-4 2:30:23;4.30;73;22.10;22;0.180;0.020;26.92;80.5;0.020;10.9692;7.277;11.268;7.075;44;0.253;0.036;25.94;78.6;0.036;15.7194;13.120;16.120;12.887
2022-1-4 2:35:22;4.30;74;22.10;22;0.178;0.020;26.92;80.5;0.021;10.8842;7.384;11.178;7.188;44;0.250;0.036;25.94;78.6;0.037;15.5164;13.209;15.908;12.992
2022-1-4 2:40:20;4.30;74;22.20;22;0.180;0.020;26.92;80.5;0.020;10.9682;7.276;11.264;7.084;44;0.250;0.036;25.94;78.6;0.037;15.5164;13.209;15.908;12.992
2022-1-4 2:45:23;4.30;73;22.00;22;0.187;0.019;26.92;80.5;0.020;11.4352;7.036;11.743;6.850;44;0.250;0.036;25.94;78.6;0.037;15.5164;13.209;15.908;12.992
2022-1-4 2:50:22;4.29;76;22.20;22;0.180;0.020;26.72;80.0;0.020;10.9682;7.276;11.264;7.084;44;0.250;0.036;25.94;78.6;0.037;15.5164;13.209;15.908;12.992
2022-1-4 2:55:20;4.29;69;21.80;22;0.180;0.020;26.72;80.0;0.020;10.9682;7.276;11.264;7.084;44;0.250;0.036;25.94;78.6;0.037;15.5164;13.209;15.908;12.992
2022-1-4 3:0:23;4.29;62;21.90;22;0.180;0.020;26.72;80.0;0.020;10.9682;7.276;11.264;7.084;44;0.253;0.036;25.94;78.6;0.036;15.7194;13.120;16.120;12.887
2022-1-4 3:5:22;4.29;66;22.10;22;0.184;0.019;26.72;80.0;0.020;11.2162;7.181;11.518;6.991;44;0.250;0.036;25.94;78.6;0.037;15.5164;13.209;15.908;12.992
2022-1-4 3:10:21;4.29;65;22.20;22;0.184;0.019;26.92;80.5;0.020;11.2142;7.180;11.514;6.999;44;0.250;0.036;25.94;78.6;0.037;15.5164;13.209;15.908;12.992
2022-1-4 3:15:19;4.30;66;22.40;22;0.182;0.020;26.72;80.0;0.020;11.0922;7.229;11.392;7.037;44;0.253;0.036;25.94;78.6;0.036;15.7174;13.118;16.114;12.902
2022-1-4 3:20:22;4.29;71;22.70;22;0.183;0.019;26.72;80.0;0.020;11.1732;7.122;11.474;6.934;44;0.250;0.036;25.94;78.6;0.037;15.5164;13.209;15.908;12.992
2022-1-4 3:25:21;4.29;74;22.90;22;0.187;0.019;26.92;80.5;0.020;11.4342;7.036;11.739;6.858;44;0.250;0.036;25.94;78.6;0.037;15.5164;13.209;15.908;12.992
2022-1-4 3:30:19;4.29;82;23.30;22;0.182;0.020;26.72;80.0;0.020;11.0922;7.229;11.392;7.037;44;0.250;0.036;25.94;78.6;0.037;15.5164;13.209;15.908;12.992
2022-1-4 3:35:22;4.29;86;23.70;22;0.185;0.019;26.72;80.0;0.020;11.2952;7.075;11.599;6.887;44;0.250;0.036;25.94;78.6;0.037;15.5164;13.209;15.908;12.992
2022-1-4 3:40:21;4.29;84;23.50;22;0.183;0.019;26.72;80.0;0.020;11.1732;7.122;11.474;6.934;44;0.250;0.036;25.94;78.6;0.037;15.5164;13.209;15.908;12.992
2022-1-4 3:45:20;4.29;86;23.70;22;0.189;0.019;26.72;80.0;0.019;11.5102;6.930;11.818;6.755;44;0.250;0.036;25.94;78.6;0.037;15.5164;13.209;15.908;12.992
2022-1-4 3:50:23;4.29;88;23.90;22;0.187;0.019;26.92;80.5;0.020;11.4342;7.036;11.739;6.858;44;0.250;0.036;25.94;78.6;0.037;15.5164;13.209;15.908;12.992
2022-1-4 3:55:22;4.29;88;24.00;22;0.184;0.019;26.72;80.0;0.020;11.2142;7.180;11.514;6.999;44;0.250;0.036;25.94;78.6;0.037;15.5164;13.209;15.908;12.992
2022-1-4 4:0:20;4.29;86;23.90;22;0.185;0.019;26.72;80.0;0.020;11.2942;7.074;11.596;6.896;44;0.250;0.036;25.94;78.6;0.037;15.5164;13.209;15.908;12.992
2022-1-4 4:5:23;4.29;81;23.80;22;0.185;0.019;26.72;80.0;0.020;11.2942;7.074;11.596;6.896;44;0.250;0.036;25.94;78.6;0.037;15.5164;13.209;15.908;12.992
2022-1-4 4:10:22;4.29;68;23.20;22;0.185;0.019;26.72;80.0;0.020;11.2942;7.074;11.596;6.896;44;0.250;0.036;25.94;78.6;0.037;15.5164;13.209;15.908;12.992
2022-1-4 4:15:21;4.29;76;23.30;22;0.186;0.019;26.72;80.0;0.020;11.3372;7.132;11.640;6.953;44;0.250;0.036;25.94;78.6;0.037;15.5164;13.209;15.908;12.992
2022-1-4 4:20:20;4.28;81;23.80;22;0.183;0.019;26.72;80.0;0.020;11.1722;7.121;11.471;6.942;44;0.250;0.036;25.94;78.6;0.037;15.5164;13.209;15.908;12.992
2022-1-4 4:25:23;4.29;82;23.90;22;0.183;0.019;26.72;80.0;0.020;11.1722;7.121;11.471;6.942;44;0.250;0.036;25.94;78.6;0.037;15.5164;13.209;15.908;12.992
2022-1-4 4:30:22;4.29;69;23.60;22;0.185;0.019;26.72;80.0;0.020;11.2942;7.074;11.596;6.896;44;0.253;0.036;25.94;78.6;0.036;15.7174;13.118;16.114;12.902
2022-1-4 4:35:21;4.29;15;22.80;22;0.185;0.019;26.72;80.0;0.020;11.2932;7.073;11.592;6.904;44;0.250;0.036;25.94;78.6;0.037;15.5164;13.209;15.908;12.992
2022-1-4 4:40:19;4.29;64;23.40;22;0.185;0.019;26.72;80.0;0.020;11.2912;7.073;11.589;6.912;44;0.244;0.037;25.94;78.6;0.037;15.1404;13.462;15.519;13.257
2022-1-4 4:45:22;4.29;2;22.20;22;0.189;0.019;26.72;80.0;0.019;11.5082;6.929;11.811;6.772;44;0.252;0.036;25.94;78.6;0.036;15.6374;13.019;16.029;12.821
2022-1-4 4:50:21;4.30;2;22.00;22;0.181;0.019;26.72;80.0;0.020;11.0472;7.168;11.337;7.005;44;0.250;0.036;25.94;78.6;0.037;15.5144;13.207;15.902;13.006
2022-1-4 4:55:20;4.29;2;21.90;22;0.185;0.019;26.72;80.0;0.020;11.2912;7.073;11.589;6.912;44;0.250;0.036;25.94;78.6;0.037;15.5144;13.207;15.902;13.006
2022-1-4 5:0:23;4.29;2;21.90;22;0.187;0.019;26.72;80.0;0.020;11.4302;7.034;11.728;6.883;44;0.250;0.036;25.94;78.6;0.037;15.5114;13.206;15.896;13.021
2022-1-4 5:5:22;4.30;2;22.00;22;0.185;0.019;26.42;79.5;0.020;11.2902;7.072;11.585;6.920;44;0.250;0.036;25.94;78.6;0.037;15.5114;13.206;15.896;13.021
2022-1-4 5:10:20;4.30;2;21.90;22;0.187;0.019;26.42;79.5;0.020;11.4102;7.024;11.705;6.882;44;0.250;0.036;25.94;78.6;0.037;15.5114;13.206;15.896;13.021
2022-1-4 5:15:23;4.30;2;22.00;22;0.186;0.019;26.42;79.5;0.019;11.3672;6.966;11.661;6.825;44;0.250;0.036;25.94;78.6;0.037;15.5114;13.206;15.896;13.021
2022-1-4 5:20:22;4.30;2;22.00;22;0.186;0.019;26.42;79.5;0.019;11.3662;6.965;11.657;6.833;44;0.251;0.036;25.44;77.7;0.036;15.6354;13.017;16.023;12.835
2022-1-4 5:25:20;4.30;2;22.10;22;0.182;0.019;26.22;79.1;0.020;11.1482;7.109;11.437;6.966;44;0.244;0.037;25.64;78.2;0.037;15.1354;13.458;15.508;13.287
2022-1-4 5:30:23;4.30;2;22.10;22;0.180;0.020;26.42;79.5;0.020;11.0252;7.156;11.308;7.020;44;0.254;0.035;25.64;78.2;0.036;15.8304;12.925;16.219;12.760
2022-1-4 5:35:22;4.30;2;21.50;22;0.183;0.019;26.22;79.1;0.020;11.1662;7.118;11.453;6.983;44;0.250;0.036;25.64;78.2;0.037;15.5094;13.204;15.891;13.036
2022-1-4 5:40:21;4.30;2;21.40;22;0.187;0.019;26.42;79.5;0.020;11.4072;7.023;11.698;6.898;44;0.276;0.040;25.64;78.2;0.041;17.4014;14.644;17.829;14.458
2022-1-4 5:45:19;4.30;2;21.20;22;0.184;0.019;26.22;79.1;0.019;11.2442;7.012;11.530;6.888;44;0.318;0.051;25.64;78.2;0.051;20.5364;18.502;21.037;18.290
2022-1-4 5:50:22;4.29;2;21.20;22;0.187;0.019;26.42;79.5;0.020;11.4062;7.022;11.694;6.906;44;0.329;0.055;25.44;77.7;0.056;21.3464;20.073;21.867;19.842
2022-1-4 5:55:21;4.29;2;21.20;22;0.187;0.019;26.42;79.5;0.020;11.4062;7.022;11.694;6.906;44;0.345;0.056;25.44;77.7;0.056;22.5054;20.230;23.049;20.023
2022-1-4 6:0:19;4.30;2;21.50;22;0.188;0.019;26.22;79.1;0.019;11.5022;6.926;11.792;6.812;44;0.346;0.058;25.64;78.2;0.059;22.5634;21.168;23.109;20.951
2022-1-4 6:5:22;4.29;2;21.70;22;0.180;0.020;26.22;79.1;0.020;11.0402;7.164;11.316;7.055;44;0.354;0.057;25.44;77.7;0.058;23.1864;20.805;23.747;20.592
2022-1-4 6:10:21;4.29;2;21.80;22;0.188;0.019;26.22;79.1;0.019;11.5012;6.925;11.789;6.820;44;0.364;0.056;25.44;77.7;0.057;23.8484;20.534;24.425;20.323
2022-1-4 6:15:19;4.29;2;21.80;22;0.188;0.019;25.92;78.6;0.019;11.5012;6.925;11.789;6.820;44;0.357;0.058;25.64;78.2;0.058;23.4054;21.010;23.967;20.820
2022-1-4 6:20:22;4.29;2;21.90;22;0.187;0.019;26.22;79.1;0.020;11.4242;7.031;11.710;6.924;44;0.364;0.056;25.64;78.2;0.057;23.8484;20.534;24.425;20.323
2022-1-4 6:25:20;4.29;2;21.90;22;0.183;0.020;25.92;78.6;0.020;11.1822;7.126;11.462;7.018;44;0.357;0.058;25.44;77.7;0.058;23.4054;21.010;23.967;20.820
2022-1-4 6:30:19;4.29;2;21.70;22;0.189;0.019;26.22;79.1;0.019;11.5622;6.992;11.849;6.894;44;0.357;0.058;25.44;77.7;0.058;23.4054;21.010;23.967;20.820
2022-1-4 6:35:22;4.29;2;21.70;22;0.183;0.020;25.92;78.6;0.020;11.1802;7.126;11.458;7.026;44;0.357;0.058;25.64;78.2;0.058;23.4004;21.006;23.956;20.843
2022-1-4 6:40:20;4.29;6;21.80;22;0.190;0.019;25.92;78.6;0.019;11.6362;6.886;11.923;6.798;44;0.357;0.058;25.44;77.7;0.058;23.4054;21.010;23.967;20.820
2022-1-4 6:45:23;4.29;2;21.60;22;0.186;0.019;25.92;78.6;0.019;11.3982;6.981;11.679;6.892;44;0.357;0.058;25.44;77.7;0.058;23.4054;21.010;23.967;20.820
2022-1-4 6:50:22;4.29;2;21.60;22;0.183;0.020;25.92;78.6;0.020;11.1792;7.125;11.454;7.034;44;0.357;0.058;25.44;77.7;0.058;23.4054;21.010;23.967;20.820
2022-1-4 6:55:20;4.29;3;21.90;22;0.185;0.019;25.92;78.6;0.020;11.3192;7.086;11.595;7.005;44;0.352;0.058;25.44;77.7;0.059;23.0244;21.117;23.576;20.927
2022-1-4 7:0:23;4.29;2;21.70;22;0.185;0.019;25.92;78.6;0.020;11.3202;7.087;11.599;6.997;44;0.354;0.057;25.44;77.7;0.058;23.1814;20.802;23.737;20.614
2022-1-4 7:5:22;4.29;2;21.70;22;0.186;0.019;25.62;78.2;0.019;11.3982;6.981;11.679;6.892;44;0.352;0.058;25.64;78.2;0.059;23.0194;21.113;23.566;20.949
2022-1-4 7:10:20;4.29;2;21.80;22;0.183;0.020;25.62;78.2;0.020;11.1782;7.124;11.451;7.042;44;0.358;0.057;25.64;78.2;0.057;23.4654;20.635;24.024;20.474
2022-1-4 7:15:23;4.28;2;21.80;22;0.185;0.019;25.62;78.2;0.020;11.3192;7.086;11.595;7.005;44;0.358;0.057;25.44;77.7;0.057;23.4654;20.635;24.024;20.474
2022-1-4 7:20:21;4.28;2;21.70;22;0.185;0.019;25.62;78.2;0.020;11.3192;7.086;11.595;7.005;44;0.358;0.057;25.44;77.7;0.057;23.4654;20.635;24.024;20.474
2022-1-4 7:25:20;4.28;2;21.70;22;0.185;0.019;25.92;78.6;0.020;11.3182;7.086;11.592;7.013;44;0.354;0.057;25.44;77.7;0.058;23.1764;20.798;23.727;20.636
2022-1-4 7:30:23;4.28;2;21.90;22;0.185;0.019;25.42;77.7;0.020;11.3192;7.086;11.595;7.005;44;0.358;0.057;25.44;77.7;0.057;23.4654;20.635;24.024;20.474
2022-1-4 7:35:21;4.28;2;22.00;22;0.185;0.019;25.62;78.2;0.020;11.3182;7.086;11.592;7.013;44;0.358;0.057;25.44;77.7;0.057;23.4654;20.635;24.024;20.474
2022-1-4 7:40:20;4.28;2;22.10;22;0.185;0.019;25.62;78.2;0.020;11.3192;7.086;11.595;7.005;44;0.358;0.057;25.44;77.7;0.057;23.4654;20.635;24.024;20.474
2022-1-4 7:45:22;4.28;2;22.10;22;0.185;0.019;25.62;78.2;0.020;11.3182;7.086;11.592;7.013;44;0.360;0.056;25.44;77.7;0.057;23.6114;20.325;24.173;20.166
2022-1-4 7:50:21;4.28;2;22.10;22;0.186;0.020;25.62;78.2;0.020;11.3602;7.144;11.632;7.079;44;0.360;0.056;25.44;77.7;0.057;23.6114;20.325;24.173;20.166
2022-1-4 7:55:19;4.28;2;22.20;22;0.185;0.019;25.62;78.2;0.020;11.3182;7.086;11.592;7.013;44;0.351;0.058;25.44;77.7;0.059;22.9354;21.055;23.480;20.891
2022-1-4 8:0:22;4.27;2;22.00;22;0.184;0.020;25.62;78.2;0.020;11.2382;7.192;11.507;7.127;44;0.360;0.056;25.44;77.7;0.057;23.6114;20.325;24.173;20.166
2022-1-4 8:5:21;4.27;2;22.00;22;0.189;0.019;25.62;78.2;0.019;11.5592;6.990;11.838;6.919;44;0.364;0.056;25.44;77.7;0.056;23.8914;20.163;24.459;20.006
2022-1-4 8:10:19;4.28;2;22.00;22;0.182;0.020;25.62;78.2;0.020;11.1152;7.240;11.384;7.166;44;0.364;0.056;25.44;77.7;0.056;23.8914;20.163;24.459;20.006
2022-1-4 8:15:22;4.27;2;22.00;22;0.182;0.020;25.62;78.2;0.020;11.1152;7.240;11.384;7.166;44;0.357;0.057;25.44;77.7;0.057;23.3804;20.578;23.936;20.418
2022-1-4 8:20:21;4.27;2;22.00;22;0.185;0.019;25.62;78.2;0.020;11.3182;7.086;11.592;7.013;44;0.359;0.056;25.44;77.7;0.056;23.5264;20.270;24.085;20.112
2022-1-4 8:25:19;4.27;2;22.00;22;0.184;0.020;25.62;78.2;0.020;11.2392;7.192;11.511;7.118;44;0.353;0.057;25.44;77.7;0.058;23.0874;20.737;23.631;20.602
2022-1-4 8:30:22;4.27;2;22.00;22;0.181;0.020;25.42;77.7;0.020;11.1142;7.239;11.381;7.174;44;0.355;0.056;25.44;77.7;0.057;23.2384;20.427;23.786;20.294
2022-1-4 8:35:21;4.27;2;22.00;22;0.184;0.020;25.62;78.2;0.020;11.2392;7.192;11.511;7.118;44;0.363;0.055;25.44;77.7;0.056;23.8054;20.109;24.371;19.953
2022-1-4 8:40:19;4.27;2;21.90;22;0.184;0.020;25.62;78.2;0.020;11.2382;7.192;11.507;7.127;44;0.355;0.056;25.44;77.7;0.057;23.2384;20.427;23.786;20.294
2022-1-4 8:45:22;4.27;2;22.00;22;0.184;0.020;25.62;78.2;0.020;11.2392;7.192;11.511;7.118;44;0.352;0.057;25.44;77.7;0.057;23.0034;20.681;23.545;20.545
2022-1-4 8:50:21;4.27;2;22.00;22;0.187;0.019;25.62;78.2;0.020;11.4572;7.047;11.732;6.983;44;0.348;0.058;25.14;77.3;0.058;22.7114;20.843;23.247;20.706
2022-1-4 8:55:19;4.27;2;22.00;22;0.181;0.020;25.62;78.2;0.020;11.1142;7.239;11.381;7.174;44;0.354;0.056;25.44;77.7;0.057;23.1544;20.372;23.700;20.239
2022-1-4 9:0:22;4.27;2;21.80;22;0.186;0.020;25.62;78.2;0.020;11.3782;7.153;11.649;7.097;44;0.354;0.056;25.44;77.7;0.057;23.1544;20.372;23.700;20.239
2022-1-4 9:5:21;4.27;2;21.90;22;0.187;0.019;25.42;77.7;0.020;11.4562;7.046;11.728;6.992;44;0.352;0.057;25.14;77.3;0.057;23.0034;20.681;23.545;20.545
2022-1-4 9:10:19;4.27;2;21.90;22;0.187;0.019;25.62;78.2;0.020;11.4562;7.046;11.728;6.992;44;0.352;0.057;25.44;77.7;0.057;23.0034;20.681;23.545;20.545
2022-1-4 9:15:22;4.27;2;22.00;22;0.187;0.019;25.62;78.2;0.020;11.4562;7.046;11.728;6.992;44;0.358;0.056;25.14;77.3;0.056;23.4364;20.212;23.988;20.080
2022-1-4 9:20:21;4.27;2;22.10;22;0.187;0.019;25.62;78.2;0.020;11.4572;7.047;11.732;6.983;44;0.354;0.056;25.14;77.3;0.057;23.1544;20.372;23.700;20.239
2022-1-4 9:25:19;4.27;2;22.40;22;0.181;0.020;25.62;78.2;0.020;11.1142;7.239;11.381;7.174;44;0.354;0.056;25.14;77.3;0.057;23.1544;20.372;23.700;20.239
2022-1-4 9:30:22;4.27;2;22.60;22;0.187;0.019;25.42;77.7;0.020;11.4572;7.047;11.732;6.983;44;0.354;0.056;25.14;77.3;0.057;23.1544;20.372;23.700;20.239
2022-1-4 9:35:21;4.27;2;22.90;22;0.187;0.019;25.62;78.2;0.020;11.4562;7.046;11.728;6.992;44;0.356;0.055;25.14;77.3;0.056;23.2994;20.067;23.848;19.936
2022-1-4 9:40:19;4.27;2;23.10;22;0.181;0.020;25.62;78.2;0.020;11.1142;7.239;11.381;7.174;44;0.356;0.055;25.44;77.7;0.056;23.2994;20.067;23.848;19.936
2022-1-4 9:45:22;4.27;2;23.20;22;0.186;0.020;25.62;78.2;0.020;11.3782;7.153;11.649;7.097;44;0.349;0.057;25.14;77.3;0.057;22.7854;20.477;23.322;20.343
2022-1-4 9:50:21;4.27;2;23.30;22;0.184;0.020;25.62;78.2;0.020;11.2362;7.191;11.504;7.135;44;0.349;0.057;25.14;77.3;0.057;22.7854;20.477;23.322;20.343
2022-1-4 9:55:20;4.27;2;23.40;22;0.184;0.020;25.62;78.2;0.020;11.2382;7.192;11.507;7.127;44;0.349;0.057;25.14;77.3;0.057;22.7854;20.477;23.322;20.343
2022-1-4 10:0:23;4.27;11;23.60;22;0.187;0.019;25.62;78.2;0.020;11.4562;7.046;11.728;6.992;44;0.355;0.055;25.44;77.7;0.056;23.2164;20.013;23.763;19.882
2022-1-4 10:5:21;4.27;46;23.90;22;0.187;0.019;25.62;78.2;0.020;11.4572;7.047;11.732;6.983;44;0.355;0.055;25.44;77.7;0.056;23.2214;20.017;23.773;19.861
2022-1-4 10:10:20;4.27;64;23.80;22;0.187;0.019;25.62;78.2;0.020;11.4572;7.047;11.732;6.983;44;0.349;0.057;25.14;77.3;0.057;22.7854;20.477;23.322;20.343
2022-1-4 10:15:23;4.27;68;23.90;22;0.187;0.019;25.62;78.2;0.020;11.4572;7.047;11.732;6.983;44;0.355;0.055;25.14;77.3;0.056;23.2164;20.013;23.763;19.882
2022-1-4 10:20:22;4.27;72;24.00;22;0.181;0.020;25.62;78.2;0.020;11.1142;7.239;11.381;7.174;44;0.341;0.058;25.64;78.2;0.058;22.2534;20.889;22.777;20.753
2022-1-4 10:25:21;4.27;68;24.10;22;0.184;0.020;25.62;78.2;0.020;11.2362;7.191;11.504;7.135;44;0.341;0.058;25.14;77.3;0.058;22.2534;20.889;22.777;20.753
2022-1-4 10:30:20;4.27;69;24.30;22;0.184;0.020;25.62;78.2;0.020;11.2362;7.191;11.504;7.135;44;0.357;0.054;25.14;77.3;0.055;23.3554;19.713;23.906;19.584
2022-1-4 10:35:23;4.27;77;24.60;22;0.184;0.020;25.62;78.2;0.020;11.2382;7.192;11.507;7.127;44;0.350;0.056;25.14;77.3;0.056;22.8544;20.117;23.393;19.986
2022-1-4 10:40:22;4.27;78;25.00;22;0.184;0.020;25.62;78.2;0.020;11.2382;7.192;11.507;7.127;44;0.357;0.054;25.44;77.7;0.055;23.3554;19.713;23.906;19.584
2022-1-4 10:45:21;4.28;86;25.60;22;0.187;0.019;25.62;78.2;0.020;11.4572;7.047;11.732;6.983;44;0.350;0.055;25.44;77.7;0.056;22.8594;20.121;23.402;19.964
2022-1-4 10:50:20;4.28;87;26.10;22;0.184;0.020;25.62;78.2;0.020;11.2392;7.192;11.511;7.118;44;0.350;0.055;25.44;77.7;0.056;22.8594;20.121;23.402;19.964
2022-1-4 10:55:23;4.29;89;26.80;22;0.184;0.020;25.62;78.2;0.020;11.2392;7.192;11.511;7.118;44;0.350;0.055;25.44;77.7;0.056;22.8594;20.121;23.402;19.964
2022-1-4 11:0:22;4.29;91;27.70;22;0.189;0.019;25.62;78.2;0.019;11.5782;7.000;11.858;6.928;44;0.336;0.058;25.44;77.7;0.058;21.8794;20.996;22.400;20.832
2022-1-4 11:5:21;4.31;91;28.00;22;0.184;0.020;25.62;78.2;0.020;11.2402;7.193;11.514;7.110;44;0.352;0.055;25.44;77.7;0.055;23.0034;19.820;23.551;19.666
2022-1-4 11:10:21;4.30;89;28.60;22;0.184;0.020;25.62;78.2;0.020;11.2392;7.192;11.511;7.118;44;0.352;0.055;25.44;77.7;0.055;23.0084;19.824;23.560;19.645
2022-1-4 11:15:20;4.31;91;28.50;22;0.184;0.020;25.62;78.2;0.020;11.2402;7.193;11.514;7.110;44;0.352;0.055;25.44;77.7;0.055;23.0084;19.824;23.560;19.645
2022-1-4 11:20:24;4.30;90;28.80;22;0.184;0.020;25.92;78.6;0.020;11.2402;7.193;11.514;7.110;44;0.345;0.056;25.44;77.7;0.056;22.5004;20.227;23.040;20.044
2022-1-4 11:25:24;4.31;88;26.50;22;0.184;0.020;25.62;78.2;0.020;11.2412;7.193;11.518;7.102;44;0.345;0.056;25.44;77.7;0.056;22.5004;20.227;23.040;20.044
2022-1-4 11:30:23;4.30;91;26.70;22;0.187;0.019;25.92;78.6;0.020;11.4592;7.048;11.739;6.967;44;0.345;0.056;25.44;77.7;0.056;22.5004;20.227;23.040;20.044
2022-1-4 11:35:23;4.31;91;27.10;22;0.187;0.019;25.92;78.6;0.020;11.4592;7.048;11.739;6.967;44;0.345;0.056;25.44;77.7;0.056;22.5004;20.227;23.040;20.044
2022-1-4 11:40:22;4.30;90;26.90;22;0.184;0.020;25.62;78.2;0.020;11.2412;7.193;11.518;7.102;44;0.345;0.056;25.44;77.7;0.056;22.5004;20.227;23.040;20.044
2022-1-4 11:45:22;4.30;90;26.80;22;0.184;0.020;25.62;78.2;0.020;11.2402;7.193;11.514;7.110;44;0.345;0.056;25.44;77.7;0.056;22.5004;20.227;23.040;20.044
2022-1-4 11:50:21;4.30;90;26.50;22;0.187;0.019;25.62;78.2;0.020;11.4602;7.049;11.743;6.959;44;0.347;0.055;25.44;77.7;0.055;22.6554;19.930;23.203;19.725
2022-1-4 11:55:21;4.30;89;26.30;22;0.187;0.019;25.92;78.6;0.020;11.4592;7.048;11.739;6.967;44;0.347;0.055;25.44;77.7;0.055;22.6554;19.930;23.203;19.725
2022-1-4 12:0:20;4.30;90;26.40;22;0.182;0.020;25.62;78.2;0.020;11.1182;7.241;11.391;7.149;44;0.351;0.054;25.44;77.7;0.055;22.9274;19.771;23.477;19.593
2022-1-4 12:5:24;4.30;89;26.60;22;0.184;0.020;25.92;78.6;0.020;11.2412;7.193;11.518;7.102;44;0.340;0.056;25.44;77.7;0.057;22.1394;20.332;22.675;20.124
2022-1-4 12:10:23;4.30;92;26.70;22;0.182;0.020;25.42;77.7;0.020;11.1162;7.241;11.388;7.157;44;0.355;0.054;25.64;78.2;0.055;23.2004;19.616;23.757;19.439
2022-1-4 12:15:22;4.30;91;26.90;22;0.187;0.019;25.92;78.6;0.020;11.4602;7.049;11.743;6.959;44;0.344;0.056;25.44;77.7;0.056;22.4244;20.176;22.967;19.969
2022-1-4 12:20:22;4.29;91;26.90;22;0.186;0.020;25.92;78.6;0.020;11.3812;7.155;11.659;7.072;44;0.340;0.056;25.64;78.2;0.057;22.1394;20.332;22.675;20.124
2022-1-4 12:25:21;4.29;91;27.00;22;0.187;0.019;25.62;78.2;0.020;11.4602;7.049;11.743;6.959;44;0.344;0.056;25.44;77.7;0.056;22.4244;20.176;22.967;19.969
2022-1-4 12:30:21;4.29;90;26.60;22;0.187;0.019;25.62;78.2;0.020;11.4602;7.049;11.743;6.959;44;0.350;0.054;25.64;78.2;0.055;22.8514;19.722;23.404;19.520
2022-1-4 12:35:20;4.29;91;26.80;22;0.186;0.020;25.92;78.6;0.020;11.3812;7.155;11.659;7.072;44;0.346;0.055;25.64;78.2;0.055;22.5744;19.877;23.121;19.673
2022-1-4 12:40:24;4.29;90;26.60;22;0.186;0.020;25.92;78.6;0.020;11.3812;7.155;11.659;7.072;44;0.344;0.056;25.44;77.7;0.056;22.4204;20.172;22.958;19.990
2022-1-4 12:45:23;4.29;86;26.40;22;0.186;0.020;25.92;78.6;0.020;11.3822;7.155;11.663;7.064;44;0.346;0.055;25.44;77.7;0.055;22.5744;19.877;23.121;19.673
2022-1-4 12:50:22;4.29;85;25.90;22;0.186;0.020;25.62;78.2;0.020;11.3822;7.155;11.663;7.064;44;0.346;0.055;25.64;78.2;0.055;22.5744;19.877;23.121;19.673
2022-1-4 12:55:21;4.29;81;25.40;22;0.186;0.020;25.62;78.2;0.020;11.3822;7.155;11.663;7.064;44;0.346;0.055;25.64;78.2;0.055;22.5744;19.877;23.121;19.673
2022-1-4 13:0:21;4.29;82;25.40;22;0.186;0.020;25.92;78.6;0.020;11.3812;7.155;11.659;7.072;44;0.348;0.054;25.44;77.7;0.054;22.7194;19.581;23.268;19.380
2022-1-4 13:5:20;4.29;84;25.50;22;0.187;0.019;25.62;78.2;0.020;11.4602;7.049;11.743;6.959;44;0.339;0.056;25.44;77.7;0.056;22.0604;20.277;22.594;20.069
2022-1-4 13:10:24;4.29;81;25.90;22;0.184;0.020;25.92;78.6;0.020;11.2602;7.203;11.537;7.111;44;0.348;0.054;25.44;77.7;0.054;22.7194;19.581;23.268;19.380
2022-1-4 13:15:23;4.29;89;26.40;22;0.186;0.020;25.62;78.2;0.020;11.3822;7.155;11.663;7.064;44;0.352;0.053;25.64;78.2;0.054;22.9904;19.428;23.546;19.228
2022-1-4 13:20:22;4.30;90;27.00;22;0.186;0.020;25.92;78.6;0.020;11.3812;7.155;11.659;7.072;44;0.352;0.053;25.44;77.7;0.054;22.9904;19.428;23.546;19.228
2022-1-4 13:25:21;4.31;90;27.10;22;0.186;0.020;25.92;78.6;0.020;11.3822;7.155;11.663;7.064;44;0.341;0.055;25.44;77.7;0.056;22.2154;19.978;22.753;19.773
2022-1-4 13:30:21;4.33;91;27.70;22;0.190;0.019;25.92;78.6;0.019;11.6002;7.010;11.886;6.921;44;0.341;0.055;25.64;78.2;0.056;22.2154;19.978;22.753;19.773
2022-1-4 13:35:20;4.32;90;28.10;22;0.186;0.020;25.92;78.6;0.020;11.3842;7.156;11.666;7.056;44;0.341;0.055;25.44;77.7;0.056;22.2154;19.978;22.753;19.773
2022-1-4 13:40:24;4.32;89;28.10;22;0.184;0.020;25.92;78.6;0.020;11.2612;7.204;11.541;7.103;44;0.345;0.055;25.44;77.7;0.055;22.4954;19.824;23.039;19.620
2022-1-4 13:45:24;4.33;89;28.40;22;0.190;0.019;25.92;78.6;0.019;11.6002;7.010;11.886;6.921;44;0.345;0.055;25.44;77.7;0.055;22.4954;19.824;23.039;19.620
2022-1-4 13:50:23;4.33;87;28.80;22;0.190;0.019;25.92;78.6;0.019;11.6012;7.011;11.889;6.913;44;0.347;0.054;25.64;78.2;0.054;22.6444;19.532;23.196;19.308
2022-1-4 13:55:23;4.33;88;28.50;22;0.184;0.020;25.92;78.6;0.020;11.2622;7.204;11.544;7.095;44;0.341;0.055;25.44;77.7;0.056;22.2154;19.978;22.753;19.773
2022-1-4 14:0:23;4.33;87;29.30;22;0.186;0.020;25.92;78.6;0.020;11.3842;7.156;11.666;7.056;44;0.334;0.056;25.44;77.7;0.057;21.6944;20.378;22.219;20.169
2022-1-4 14:5:23;4.33;86;29.50;22;0.186;0.020;25.92;78.6;0.020;11.3842;7.156;11.666;7.056;44;0.334;0.056;25.44;77.7;0.057;21.6944;20.378;22.219;20.169
2022-1-4 14:10:23;4.33;85;29.60;22;0.189;0.020;25.92;78.6;0.020;11.5242;7.117;11.811;7.018;44;0.347;0.054;25.64;78.2;0.054;22.6444;19.532;23.196;19.308
2022-1-4 14:15:22;4.34;86;30.00;22;0.190;0.019;25.92;78.6;0.019;11.6022;7.012;11.893;6.905;44;0.336;0.055;25.44;77.7;0.056;21.8594;20.082;22.393;19.851
2022-1-4 14:20:22;4.35;81;29.90;22;0.182;0.020;25.92;78.6;0.020;11.1392;7.252;11.418;7.142;44;0.340;0.055;25.44;77.7;0.055;22.1424;19.928;22.682;19.699
2022-1-4 14:25:23;4.35;84;29.80;22;0.190;0.019;25.92;78.6;0.019;11.6022;7.012;11.893;6.9`5;44;0.338;0.054;25.44;77.7;0.055;22.0144;19.785;22.551;19.558
2022-1-4 14:30:23;4.36;82;31.20;22;0.182;0.020;25.92;78.6;0.020;11.1402;7.253;11.421;7.134;44;0.340;0.055;25.44;77.7;0.055;22.1424;19.928;22.682;19.699
2022-1-4 14:35:23;4.35;85;31.10;22;0.18d;0.020;25.92;78.6;0.020;11.2632;7.205;11.548;7.086;44;0.342;0.054;25.64;78.2;0.055;22.2914;19.633;22.835;19.407
2022-1-4 14:40:23;4.36;84;30.40;22;0.181;0.020;26.22;79.1;0.020;11.0582;7.361;11.337;7.239;44;0.342;0.054;25.64;78.2;0.055;22.2964;19.636;22.845;19.386
2022-1-4 14:45:23;4.36;85;31.00;22;0.187;0.020;26.22;79.1;0.020;11.4052;7.167W11.693;7.049;44;0.335;0.055;25.44;77.7;0.056;21.7824;20.028;22.314;19.798
2022-1-4 14:50:23;4.36;82;31.90;22;0.187;0.020;26.22;79.1;0.020;11.4052;7.167;11.693;7.049;44;0.335;0.055;25.44;77.7;0.056;21.7874;20.031;22.323;19.776
2022-1-4 14:55:24;4.35;85;30.00;22;0.187;0.020;26.22;79.1;0.020;11.4062;7.167;11.697;7.040;44;0.337;0.054;25.44;77.7;0.055;21.9424;19.736;22.482;19.485
2022-1-4 15:0:24;4.36;84;31.40;22;0.185;0.020;26.22;79.1;0.020;11.2842;7.215;11.571;7.088;44;0.335;0.055;25.44;77.7;0.056;21.7824;20.028;22.314;19.798
2022-1-4 15:5:24;4.36;84;30.80;22;0.185;0.020;26.22;79.1;0.020;11.2842;7.215;11.571;7.088;44;0.337;0.054;25.64;78.2;0.055;21.9424;19.736;22.482;19.485
2022-1-4 15:10:25;4.37;84;30.50;22;0.189;0.019;26.22;79.1;0.020;11.5282;7.119;11.822;6.993;44;0.339;0.053;25.44;77.7;0.054;22.0904;19.444;22.634;19.197
2022-1-4 15:15:21;4.36;84;30.30;22;0.185;0.020;26.22;79.1;0.020;11.2842;7.215;11.571;7.088;44;0.343;0.053;25.64;78.2;0.054;22.3624;19.294;22.912;19.049
2022-1-4 15:20:21;4.36;83;31.30;22;0.b89;0.019;26.22;79.1;0.020;11.5282;7.119;11.822;6.993;44;0.337;0.054;25.44;77.7;0.055;21.9374;19.733;22.472;19.506
2022-1-4 15:25:21;4.36;81;32.00;22;0.c89;0.019;26.22;79.1;0.020;11.5282;7.119;11.822;6.99;44;0.347;0.053;25.64;78.2;0.053;22.6294;19.145;23.187;18.901
2022-1-4 15:30:21;4.36;83;31.60;22;0.189;0.019;26.22;79.1;0.020;11.5282;7.119;11.822;6.993;44;0.343;0.053;25.64;78.2;0.054;22.3624;19.294;22.912;19.049
2022-1-4 15:35:22;4.36;85;31.20;22;0.185;0.020;26.22;79.1;0.020;11.2852;7.21S)s*:;Z:s:Kj;44;0.336;0.054;25.64;78.2;0.055;21.8654;19.684;22.403;19.433
2022-1-4 15:40:22;4.36;83;31.80;22;0.181;0.020;26.22;79.1;0.020;11.0602;7.362;11.344;7.222;44;0.336;0.054;25.64;78.2;0.055;21.8654;19.684;22.403;19.433
2022-1-4 15:45:22;4.36;84;31.90;22;0.185;0.020;26.22;79.1;0.020;11.2852;7.216;11.575;7.079;44;0.336;0.054;25.64;78.2;0.055;21.8654;19.684;22.403;19.433
2022-1-4 15:50:23;4.36;84;32.00;22;0.185;0.020;26.22;79.1;0.020;11.2852;7.216;11.575;7.079;44;0.336;0.054;25.44;77.7;0.055;21.8654;19.684;22.403;19.433
2022-1-4 15:55:23;4.36;83;31.30;22;0.187;0.020;26.22;79.1;0.020;11.4082;7.168;11.700;7.032;44;0.336;0.054;25.44;77.7;0.055;21.8654;19.684;22.403;19.433
2022-1-4 16:0:24;4.36;84;31.40;22;0.189;0.019;26.22;79.1;0.020;11.5292;7.120;11.825;6.985;44;0.338;0.053;25.64;78.2;0.054;22.0144;19.393;22.556;19.146
2022-1-4 16:5:24;4.36;83;31.30;22;0.185;0.020;26.22;79.1;0.020;11.2852;7.216;11.575S7.079;44;0.342;0.053;25.64;78.2;0.053;22.2844;19.244;22.833;18.999
2022-1-4 16:10:24;4.37;82;31.70;22;0.187;0.020;26.42;79.5;0.0d0;11.4502;7.226;11.741;7.098;44;0.342;0.053;25.64;78.2;0.053;22.2844;19.244;22.833;18.999
2022-1-4 16:15:25;4.36;82;32.20;22;0.183;0.020;26.22;79.1;0.020;11.2042;7.324;11.492;7.185;44;0.331;0.054;25.64;78.2;0.055;21.5104;19.782;22.039;19.530
2022-1-4 16:20:21;4.36;81;31.20;22;0.185;0.020;26.22;79.1;0.020;11.2852;7.216;11.575;7.079;44;0.331;0.054;25.44;77.7;0.055;21.5104;19.782;22.039;19.530
2022-1-4 16:25:21;4.35;84;29.90;22;0.187;0.020;26.22;79.1;0.020;11.4512;7.227;11.745;7.090;44;0.331;0.054;25.44;77.7;0.055;21.5104;19.782;22.039;19.530
2022-1-4 16:30:21;4.34;85;29.70;22;0.191;0.019;26.22;79.1;0.020;11.6692;7.081;11.969;6.947;44;0.333;0.053;25.64;78.2;0.054;21.6644;19.492;22.197;19.243
2022-1-4 16:35:22;4.35;86;30.10;22;0.191;0.019;26.42;79.5;0.020;11.6682;7.081;11.965;6.955;44;0.337;0.053;25.64;78.2;0.054;21.9374;19.343;22.478;19.096
2022-1-4 16:40:22;4.35;86;29.90;22;0.183;0.020;26.22;79.1;0.020;11.2042;7.324;11.492;7.185;44;0.337;0.053;25.64;78.2;0.054;21.9374;19.343;22.478;19.096
2022-1-4 16:45:22;4.36;85;30.60;22;0.192;0.019;26.22;79.1;0.019;11.7452;6.975;12.046;6.842;44;0.339;0.052;25.64;78.2;0.053;22.0814;19.057;22.624;18.814
2022-1-4 16:50:22;4.36;85;30.90;22;0.183;0.020;26.22;79\1;0.020;11.2042;7.324;11.492;7.185;44;0.339;0.052;25.64;78.2;0.053;22.0814;19.057;22.624;18.814
2022-1-4 16:55:22;4.36;84;30.70;22;0.191;0.019;26.22;79.1;0.020;11.6692;7.081;11.969;6.947;44;0.330;0.054;25.44;77.7;0.055;21.4314;19.727;21.954;19.500
2022-1-4 17:0:22;4.36;84;31.10;22;0.189;0.019;26.22;79.1;0.020;11.5482;7.129;11.842;7.002;44;0.332;0.053;25.44;77.7;0.054;21.5894;19.441;22.120;19.193
2022-1-4 17:5:22;4.36;85;30.10;22;0.183;0.020;26.22;79.1;0.020;11.2042;7.324;11.492;7.185;44;0.330;0.054;25.64;78.2;0.055;21.4314;19.727;21.954;19.500
2022-1-4 17:10:23;4.36;85;30.90;22;0.180;0.020;26.42;79.5;0.021;10.9952;7.4Zs;;[:sJj;44;0.332;0.053;25.44;77.7;0.054;21.5844;19.437;22.111;19.214
2022-1-4 17:15:23;4.37;82;31.70;22;0.183;0.020;26.22;79.1;0.020;11.2032;7.323;11.488;7.193;44;0.332;0.053;25.44;77.7;0.054;21.5844;19.437;22.111;19.214
2022-1-4 17:20:23;4.36;82;31.10;22;0.187;0.020;26.22;79.1;0.020;11.4272;7.178;11.720;7.042;44;0.332;0.053;25.44;77.7;0.054;21.5844;19.437;22.111;19.214
2022-1-4 17:25:23;4.36;83;30.70;22;0.183;0.020;26.22;79.1;0.0d0;11.2042;7.324;11.492;7.185;44;0.334;0.053;25.44;77.7;0.053;21.7374;19.155;22.272;18.910
2022-1-4 17:30:23;4.37;82;31.40;22;0.181;0.020;26.22;79.1;0.020;11.0792;7.372;11.363;7.232;44;0.325;0.054;25.44;77.7;0.055;21.0754;19.824;21.590;19.596
2022-1-4 17:35:23;4.37;82;31.20;22;0.183;0.020;26.22;79.1;0.020;11.2042;7.324;11.492;7.185;44;0.334;0.053;25.44;77.7;0.053;21.7334;19.151;22.263;18.931
2022-1-4 17:40:24;4.36;83;30.60;22;0.187;0.020;26.22;79.1;0.020;11.4272;7.178;11.720;7.042;44;0.338;0.052;25.44;77.7;0.053;22.0004;19.005;22.537;18.786
2022-1-4 17:45:24;4.36;84;30.10;22;0.191;0.019;26.42;79.5;0.020;11.6682;7.081;11.965;6.955;44;0.328;0.054;25.44;77.7;0.054;21.2344;19.534;21.753;19.310
2022-1-4 17:50:24;4.36;85;30.40;22;0.187;0.020;26.22;79.1;0.020;11.4272;7.178;11.720;7.042;44;0.333;0.052;25.64;78.2;0.053;21.6584;19.102;22.187;18.882
2022-1-4 17:55:24;4.36;85;30.60;22;0.187;0.020;26.22;79.1;0.020;11.4282;7.178;11.724;7.033;44;0.333;0.052;25.64;78.2;0.053;21.6634;19.105;22.196;18.862
2022-1-4 18:0:24;4.36;83;30.80;22;0.187;0.020;26.22;79.1;0.020;11.4272;7.178;11.720;7.042;44;0.333;0.052;25.44;77.7;0.053;21.6584;19.102;22.187;18.882
2022-1-4 18:5:24;4.36;84;30.70;22;0.187;0.020;26.22;79.1;0.020;11.4272;7.178;11.720;7.042;44;0.328;0.054;25.44;77.7;0.054;21.2344;19.534;21.753;19.310
2022-1-4 18:10:24;4.36;85;30.70;22;0.186;0.020;26.22;79.1;0.020;11.3472;7.285;11.639;7.147;44;0.328;0.054;25.44;77.7;0.054;21.2344;19.534;21.753;19.310
2022-1-4 18:15:25;4.36;83;30.80;22;0.178;0.021;26.22;79.1;0.021;10.9092;7.589;11.189;7.445;44;0.333;0.052;25.64;78.2;0.053;21.6634;19.105;22.196;18.862
2022-1-4 18:20:20;4.36;85;29.70;22;0.186;0.020;26.22;79.1;0.020;11.3492;7.286;11.642;7.139;44;0.333;0.052;25.64;78.2;0.053;21.6634;19.105;22.196;18.862
2022-1-4 18:25:25;4.36;82;30.60;22;0.186;0.020;26.22;79.1;0.020;11.3492;7.286;11.642;7.139;44;0.335;0.052;25.44;77.7;0.052;21.8014;18.820;22.333;18.604
2022-1-4 18:30:20;4.36;81;30.20;22;0.186;0.020;26.22;79.1;0.020;11.3472;7.285;11.639;7.147;44;0.335;0.052;25.44;77.7;0.052;21.8014;18.820;22.333;18.604
2022-1-4 18:35:25;4.36;81;30.00;22;0.186;0.020;26.22;79.1;0.020;11.3492;7.286;11.642;7.139;44;0.329;0.053;25.44;77.7;0.053;21.3144;19.198;21.835;18.977
2022-1-4 18:40:21;4.36;80;30.10;22;0.186;0.020;26.22;79.1;0.020;11.3472;7.285;11.639;7.147;44;0.329;0.053;25.44;77.7;0.053;21.3144;19.198;21.835;18.977
2022-1-4 18:45:21;4.36;80;30.00;22;0.189;0.019;26.22;79.1;0.020;11.5682;7.139;11.865;7.004;44;0.329;0.053;25.44;77.7;0.053;21.3144;19.198;21.835;18.977
2022-1-4 18:50:21;4.35;78;29.70;22;0.186;0.020;26.22;79.1;0.020;11.3492;7.286;11.642;7.139;44;0.329;0.053;25.64;78.2;0.053;21.3144;19.198;21.835;18.977
2022-1-4 18:55:21;4.35;79;29.70;22;0.186;0.020;26.22;79.1;0.020;11.3492;7.286;11.642;7.139;44;0.329;0.053;25.44;77.7;0.053;21.3144;19.198;21.835;18.977
2022-1-4 19:0:20;4.35;77;29.60;22;0.184;0.020;26.22;79.1;0.020;11.2232;7.334;11.511;7.195;44;0.322;0.054;25.64;78.2;0.054;20.8104;19.579;21.318;19.353
2022-1-4 19:5:25;4.35;78;29.40;22;0.189;0.019;26.22;79.1;0.020;11.5682;7.139;11.865;7.004;44;0.332;0.052;25.44;77.7;0.053;21.5844;19.053;22.111;18.833
2022-1-4 19:10:20;4.35;78;29.20;22;0.189;0.019;26.22;79.1;0.020;11.5682;7.139;11.865;7.004;44;0.329;0.053;25.44;77.7;0.053;21.3144;19.198;21.835;18.977
2022-1-4 19:15:24;4.34;78;29.00;22;0.188;0.020;26.42;79.5;0.020;11.4892;7.246;11.781;7.118;44;0.334;0.052;25.64;78.2;0.052;21.7274;18.772;22.257;18.556
2022-1-4 19:20:24;4.34;79;28.80;22;0.186;0.020;26.22;79.1;0.020;11.3472;7.285;11.639;7.147;44;0.328;0.053;25.44;77.7;0.053;21.2424;19.148;21.760;18.928
2022-1-4 19:25:24;4.34;79;28.70;22;0.190;0.019;26.22;79.1;0.020;11.5692;7.140;11.869;6.995;44;0.340;0.050;25.64;78.2;0.051;22.1214;18.353;22.661;18.142
2022-1-4 19:30:24;4.33;79;28.40;22;0.189;0.019;26.42;79.5;0.020;11.5682;7.139;11.865;7.004;44;0.336;0.051;25.64;78.2;0.051;21.8654;18.495;22.398;18.282
2022-1-4 19:35:24;4.33;79;28.20;22;0.186;0.020;26.22;79.1;0.020;11.3472;7.285;11.639;7.147;44;0.330;0.052;25.64;78.2;0.052;21.3894;18.868;21.911;18.651
2022-1-4 19:40:23;4.33;80;27.90;22;0.188;0.020;26.42;79.5;0.020;11.4892;7.246;11.781;7.118;44;0.330;0.052;25.64;78.2;0.052;21.3894;18.868;21.911;18.651
2022-1-4 19:45:23;4.33;83;27.40;22;0.190;0.020;26.42;79.5;0.020;11.6122;7.198;11.910;7.061;44;0.331;0.052;25.44;77.7;0.053;21.5114;19.004;22.036;18.785
2022-1-4 19:50:23;4.33;84;27.10;22;0.189;0.019;26.22;79.1;0.020;11.5682;7.139;11.865;7.004;44;0.333;0.051;25.64;78.2;0.052;21.6534;18.724;22.182;18.509
2022-1-4 19:55:22;4.34;86;26.50;22;0.189;0.019;26.22;79.1;0.020;11.5682;7.139;11.865;7.004;44;0.340;0.050;25.64;78.2;0.051;22.1214;18.353;22.661;18.142
2022-1-4 20:0:22;4.33;87;26.10;22;0.187;0.020;26.22;79.1;0.020;11.4462;7.187;11.740;7.051;44;0.324;0.053;25.44;77.7;0.054;20.9694;19.293;21.480;19.071
2022-1-4 20:5:21;4.33;88;25.70;22;0.187;0.020;26.22;79.1;0.020;11.4462;7.187;11.740;7.051;44;0.333;0.051;25.44;77.7;0.052;21.6534;18.724;22.182;18.509
2022-1-4 20:10:20;4.33;88;25.50;22;0.188;0.020;26.42;79.5;0.020;11.4892;7.246;11.781;7.118;44;0.333;0.051;25.44;77.7;0.052;21.6534;18.724;22.182;18.509
2022-1-4 20:15:24;4.33;89;25.20;22;0.188;0.020;26.22;79.1;0.020;11.4902;7.247;11.785;7.109;44;0.324;0.053;25.44;77.7;0.054;20.9694;19.293;21.480;19.071
2022-1-4 20:20:23;4.33;91;24.70;22;0.190;0.020;26.42;79.5;0.020;11.6112;7.197;11.907;7.070;44;0.333;0.051;25.64;78.2;0.052;21.6534;18.724;22.182;18.509
2022-1-4 20:25:23;4.32;91;24.30;22;0.190;0.020;26.22;79.1;0.020;11.6112;7.197;11.907;7.070;44;0.317;0.054;25.44;77.7;0.055;20.4534;19.670;20.948;19.468
2022-1-4 20:30:22;4.32;92;23.90;22;0.186;0.020;26.22;79.1;0.020;11.3662;7.294;11.655;7.165;44;0.333;0.052;25.64;78.2;0.052;21.6494;18.721;22.173;18.529
2022-1-4 20:35:21;4.32;91;23.50;22;0.190;0.020;26.22;79.1;0.020;11.6112;7.197;11.907;7.070;44;0.333;0.052;25.44;77.7;0.052;21.6494;18.721;22.173;18.529
2022-1-4 20:40:20;4.32;91;23.00;22;0.188;0.020;26.22;79.1;0.020;11.4892;7.246;11.781;7.118;44;0.329;0.052;25.44;77.7;0.052;21.3854;18.865;21.902;18.671
2022-1-4 20:45:23;4.33;91;22.80;22;0.188;0.020;26.22;79.1;0.020;11.4882;7.245;11.778;7.126;44;0.333;0.052;25.64;78.2;0.052;21.6494;18.721;22.173;18.529
2022-1-4 20:50:22;4.31;91;22.90;22;0.188;0.020;26.22;79.1;0.020;11.4882;7.245;11.778;7.126;44;0.333;0.052;25.44;77.7;0.052;21.6494;18.721;22.173;18.529
2022-1-4 20:55:21;4.31;91;22.90;22;0.188;0.020;26.22;79.1;0.020;11.4892;7.246;11.781;7.118;44;0.333;0.052;25.44;77.7;0.052;21.6494;18.721;22.173;18.529
2022-1-4 21:0:20;4.31;91;22.80;22;0.186;0.020;26.22;79.1;0.020;11.3642;7.294;11.651;7.174;44;0.327;0.053;25.44;77.7;0.053;21.1654;19.096;21.677;18.900
2022-1-4 21:5:23;4.31;91;22.80;22;0.186;0.020;26.22;79.1;0.020;11.3642;7.294;11.651;7.174;44;0.327;0.053;25.44;77.7;0.053;21.1654;19.096;21.677;18.900
2022-1-4 21:10:22;4.31;91;22.80;22;0.186;0.020;25.92;78.6;0.020;11.3642;7.294;11.651;7.174;44;0.335;0.051;25.64;78.2;0.051;21.7874;18.445;22.314;18.256
2022-1-4 21:15:20;4.31;91;23.20;22;0.186;0.020;25.92;78.6;0.020;11.3642;7.294;11.651;7.174;44;0.326;0.053;25.44;77.7;0.053;21.1614;19.093;21.668;18.920
2022-1-4 21:20:23;4.31;91;23.30;22;0.186;0.020;25.92;78.6;0.020;11.3632;7.293;11.648;7.182;44;0.327;0.053;25.44;77.7;0.053;21.1654;19.096;21.677;18.900
2022-1-4 21:25:22;4.31;91;23.00;22;0.192;0.019;25.92;78.6;0.020;11.7052;7.098;11.998;6.990;44;0.326;0.053;25.64;78.2;0.053;21.1614;19.093;21.668;18.920
2022-1-4 21:30:21;4.31;92;23.20;22;0.186;0.020;25.92;78.6;0.020;11.3632;7.293;11.648;7.182;44;0.326;0.053;25.44;77.7;0.053;21.1614;19.093;21.668;18.920
2022-1-4 21:35:20;4.31;91;23.00;22;0.186;0.020;25.92;78.6;0.020;11.3632;7.293;11.648;7.182;44;0.328;0.052;25.44;77.7;0.052;21.3084;18.813;21.819;18.644
2022-1-4 21:40:23;4.30;92;22.80;22;0.188;0.020;25.92;78.6;0.020;11.4852;7.244;11.771;7.143;44;0.329;0.052;25.44;77.7;0.052;21.3124;18.816;21.828;18.623
2022-1-4 21:45:21;4.31;92;22.60;22;0.188;0.020;25.92;78.6;0.020;11.4852;7.244;11.771;7.143;44;0.328;0.052;25.44;77.7;0.052;21.3084;18.813;21.819;18.644
2022-1-4 21:50:20;4.30;91;22.30;22;0.186;0.020;25.92;78.6;0.020;11.3622;7.293;11.644;7.191;44;0.328;0.052;25.44;77.7;0.052;21.3084;18.813;21.819;18.644
2022-1-4 21:55:23;4.30;90;22.10;22;0.188;0.020;25.92;78.6;0.020;11.4852;7.244;11.771;7.143;44;0.328;0.052;25.44;77.7;0.052;21.3084;18.813;21.819;18.644
2022-1-4 22:0:21;4.30;90;22.10;22;0.188;0.020;25.92;78.6;0.020;11.4842;7.243;11.767;7.151;44;0.328;0.052;25.44;77.7;0.052;21.3084;18.813;21.819;18.644
2022-1-4 22:5:20;4.30;90;22.00;22;0.188;0.020;25.92;78.6;0.020;11.4842;7.243;11.767;7.151;44;0.330;0.051;25.44;77.7;0.052;21.4504;18.537;21.965;18.370
2022-1-4 22:10:23;4.30;91;22.10;22;0.186;0.020;25.92;78.6;0.020;11.3612;7.292;11.641;7.199;44;0.330;0.051;25.44;77.7;0.052;21.4504;18.537;21.965;18.370
2022-1-4 22:15:21;4.30;91;22.20;22;0.186;0.020;25.92;78.6;0.020;11.3612;7.292;11.641;7.199;44;0.328;0.052;25.44;77.7;0.052;21.3044;18.810;21.811;18.664
2022-1-4 22:20:20;4.30;91;22.10;22;0.188;0.020;25.92;78.6;0.020;11.4842;7.243;11.767;7.151;44;0.328;0.052;25.44;77.7;0.052;21.3044;18.810;21.811;18.664
2022-1-4 22:25:23;4.30;89;21.80;22;0.187;0.020;25.62;78.2;0.020;11.4042;7.351;11.685;7.258;44;0.322;0.053;25.44;77.7;0.053;20.8134;19.184;21.308;19.035
2022-1-4 22:30:21;4.30;87;21.70;22;0.188;0.020;25.62;78.2;0.020;11.4842;7.243;11.767;7.151;44;0.322;0.053;25.44;77.7;0.053;20.8094;19.181;21.300;19.055
2022-1-4 22:35:20;4.30;84;21.60;22;0.186;0.020;25.62;78.2;0.020;11.3612;7.292;11.641;7.199;44;0.334;0.051;25.64;78.2;0.051;21.7054;18.393;22.221;18.250
2022-1-4 22:40:23;4.30;84;21.40;22;0.191;0.020;25.92;78.6;0.020;11.7022;7.097;11.987;7.015;44;0.330;0.051;25.14;77.3;0.052;21.4424;18.532;21.947;18.410
2022-1-4 22:45:21;4.30;80;21.20;22;0.188;0.020;25.92;78.6;0.020;11.4832;7.243;11.763;7.160;44;0.324;0.052;25.14;77.3;0.053;20.9614;18.902;21.456;18.778
2022-1-4 22:50:20;4.30;73;21.00;22;0.186;0.020;25.62;78.2;0.020;11.3602;7.291;11.637;7.208;44;0.334;0.051;25.14;77.3;0.051;21.7004;18.390;22.212;18.270
2022-1-4 22:55:22;4.30;64;20.70;22;0.188;0.020;25.62;78.2;0.020;11.4832;7.243;11.763;7.160;44;0.324;0.052;25.14;77.3;0.053;20.9614;18.902;21.456;18.778
2022-1-4 23:0:21;4.30;40;20.20;22;0.188;0.020;25.62;78.2;0.020;11.4832;7.243;11.763;7.160;44;0.330;0.051;25.14;77.3;0.052;21.4424;18.532;21.947;18.410
2022-1-4 23:5:19;4.30;37;20.10;22;0.192;0.020;25.92;78.6;0.020;11.7452;7.155;12.029;7.081;44;0.324;0.052;25.14;77.3;0.053;20.9614;18.902;21.456;18.778
2022-1-4 23:10:22;4.30;31;20.00;22;0.188;0.020;25.62;78.2;0.020;11.4832;7.243;11.763;7.160;44;0.324;0.052;25.14;77.3;0.053;20.9614;18.902;21.456;18.778
2022-1-4 23:15:20;4.30;47;20.20;22;0.188;0.020;25.62;78.2;0.020;11.4822;7.242;11.760;7.168;44;0.324;0.052;25.14;77.3;0.053;20.9614;18.902;21.456;18.778
2022-1-4 23:20:23;4.30;50;20.20;22;0.191;0.020;25.92;78.6;0.020;11.7012;7.096;11.984;7.023;44;0.323;0.052;25.14;77.3;0.053;20.9574;18.899;21.447;18.798
2022-1-4 23:25:21;4.30;47;20.10;22;0.190;0.020;25.62;78.2;0.020;11.6042;7.194;11.885;7.120;44;0.323;0.052;25.14;77.3;0.053;20.9574;18.899;21.447;18.798
2022-1-4 23:30:20;4.30;54;20.20;22;0.188;0.020;25.62;78.2;0.020;11.4822;7.242;11.760;7.168;44;0.323;0.052;25.14;77.3;0.053;20.9574;18.899;21.447;18.798
2022-1-4 23:35:22;4.30;65;20.50;22;0.191;0.020;25.62;78.2;0.020;11.6992;7.095;11.980;7.031;44;0.323;0.052;25.14;77.3;0.053;20.9574;18.899;21.447;18.798
2022-1-4 23:40:21;4.30;65;20.50;22;0.188;0.020;25.62;78.2;0.020;11.4822;7.242;11.760;7.168;44;0.329;0.051;25.14;77.3;0.051;21.3664;18.482;21.865;18.384
2022-1-4 23:45:19;4.30;68;20.50;22;0.186;0.020;25.62;78.2;0.020;11.3592;7.291;11.634;7.216;44;0.329;0.051;25.14;77.3;0.051;21.3664;18.482;21.865;18.384
2022-1-4 23:50:22;4.30;67;20.50;22;0.186;0.020;25.62;78.2;0.020;11.3582;7.290;11.630;7.224;44;0.329;0.051;25.14;77.3;0.051;21.3664;18.482;21.865;18.384
2022-1-4 23:55:20;4.30;68;20.50;22;0.188;0.020;25.62;78.2;0.020;11.4812;7.242;11.756;7.176;44;0.323;0.052;25.14;77.3;0.053;20.9534;18.896;21.439;18.819
