2021-04-01 00:03:47;1;127;128;128;128;128;128;128;128;128;128;
2021-04-01 00:03:47;2;120;120;120;120;120;120;120;120;120;120;
2021-04-01 00:03:47;3;54;53;53;54;53;53;53;54;53;53;
2021-04-01 00:03:47;4;125;125;125;126;125;125;125;125;125;125;
2021-04-01 00:03:47;5;128;127;128;128;127;127;128;127;128;128;
2021-04-01 00:03:47;ht;99;16.30
2021-04-01 00:03:47;v;4.14
2021-04-01 00:33:43;1;124;124;131;124;124;124;124;124;124;124;
2021-04-01 00:33:43;2;122;122;122;122;131;123;123;122;122;122;
2021-04-01 00:33:43;3;54;54;54;54;54;54;54;53;54;54;
2021-04-01 00:33:43;4;125;125;125;126;125;125;126;126;126;126;
2021-04-01 00:33:43;5;107;107;107;107;107;107;107;107;107;107;
2021-04-01 00:33:43;ht;99;15.70
2021-04-01 00:33:43;v;4.14
2021-04-01 01:03:44;1;125;125;125;125;125;125;125;125;125;125;
2021-04-01 01:03:44;2;126;126;126;126;126;126;126;126;126;126;
2021-04-01 01:03:44;3;54;54;54;54;54;54;54;54;54;54;
2021-04-01 01:03:44;4;125;125;125;125;126;125;125;125;125;125;
2021-04-01 01:03:44;5;127;128;128;127;127;127;127;127;127;128;
2021-04-01 01:03:44;ht;99;15.70
2021-04-01 01:03:44;v;4.13
2021-04-01 01:33:44;1;127;127;127;127;127;127;127;127;127;127;
2021-04-01 01:33:44;2;127;127;127;127;127;127;127;127;127;127;
2021-04-01 01:33:44;3;54;54;54;54;54;54;54;54;54;54;
2021-04-01 01:33:44;4;124;124;125;125;124;124;124;124;124;124;
2021-04-01 01:33:44;5;128;128;129;129;128;128;129;129;128;128;
2021-04-01 01:33:44;ht;99;16.00
2021-04-01 01:33:44;v;4.13
2021-04-01 02:03:45;1;127;128;127;127;128;127;128;128;126;126;
2021-04-01 02:03:45;2;125;125;125;125;125;125;125;125;125;125;
2021-04-01 02:03:45;3;53;53;53;54;54;53;54;54;54;54;
2021-04-01 02:03:45;4;125;125;125;125;125;125;125;125;125;125;
2021-04-01 02:03:45;5;123;123;123;123;123;123;123;123;123;123;
2021-04-01 02:03:45;ht;99;16.00
2021-04-01 02:03:45;v;4.13
2021-04-01 02:33:46;1;128;128;128;128;128;128;128;128;128;128;
2021-04-01 02:33:46;2;124;124;124;124;124;124;124;124;124;124;
2021-04-01 02:33:46;3;54;54;54;54;54;54;54;54;54;54;
2021-04-01 02:33:46;4;124;124;124;124;124;124;124;124;124;124;
2021-04-01 02:33:46;5;1;1;1;1;1;1;2;2;2;2;
2021-04-01 02:33:46;ht;99;16.10
2021-04-01 02:33:46;v;4.14
2021-04-01 03:03:47;1;130;130;130;130;130;129;129;129;129;129;
2021-04-01 03:03:47;2;122;122;122;122;122;122;122;122;122;123;
2021-04-01 03:03:47;3;54;54;54;54;54;54;54;54;54;54;
2021-04-01 03:03:47;4;125;125;126;125;125;125;125;125;125;125;
2021-04-01 03:03:47;5;123;123;123;123;123;123;123;123;123;123;
2021-04-01 03:03:47;ht;99;16.00
2021-04-01 03:03:47;v;4.13
2021-04-01 03:33:47;1;130;130;130;130;130;130;130;130;129;129;
2021-04-01 03:33:47;2;124;124;124;124;124;124;124;124;124;124;
2021-04-01 03:33:47;3;54;54;54;54;54;54;54;54;54;54;
2021-04-01 03:33:47;4;125;125;125;125;125;125;125;125;125;125;
2021-04-01 03:33:47;5;1;1;1;2;1;1;2;1;1;2;
2021-04-01 03:33:47;ht;99;15.30
2021-04-01 03:33:47;v;4.13
2021-04-01 04:03:43;1;130;130;130;130;129;129;129;129;129;130;
2021-04-01 04:03:43;2;126;126;126;126;126;126;126;126;126;126;
2021-04-01 04:03:43;3;55;55;54;55;54;54;55;54;55;55;
2021-04-01 04:03:43;4;125;125;125;125;125;125;125;125;125;125;
2021-04-01 04:03:43;5;128;128;128;129;128;128;128;128;128;128;
2021-04-01 04:03:43;ht;99;14.60
2021-04-01 04:03:43;v;4.13
2021-04-01 04:33:47;1;128;127;127;127;127;127;127;127;127;127;
2021-04-01 04:33:47;2;127;127;127;127;127;127;126;127;126;126;
2021-04-01 04:33:47;3;55;55;55;55;55;55;55;55;55;55;
2021-04-01 04:33:47;4;125;125;125;125;125;125;125;125;125;125;
2021-04-01 04:33:47;5;1;1;1;1;1;1;1;1;1;1;
2021-04-01 04:33:47;ht;99;14.00
2021-04-01 04:33:47;v;4.13
2021-04-01 05:03:46;1;129;129;129;129;129;129;129;129;129;129;
2021-04-01 05:03:46;2;126;126;126;126;126;126;126;126;126;126;
2021-04-01 05:03:46;3;55;55;55;55;55;55;55;55;55;55;
2021-04-01 05:03:46;4;124;124;123;123;123;123;124;123;124;124;
2021-04-01 05:03:46;5;129;129;129;129;129;129;129;129;129;129;
2021-04-01 05:03:46;ht;99;13.80
2021-04-01 05:03:46;v;4.13
2021-04-01 05:33:45;1;128;128;128;128;128;128;128;128;128;128;
2021-04-01 05:33:45;2;126;126;126;127;126;126;127;127;126;127;
2021-04-01 05:33:45;3;55;55;55;55;55;55;55;55;56;55;
2021-04-01 05:33:45;4;125;125;125;125;126;125;125;126;125;134;
2021-04-01 05:33:45;5;2;2;2;2;2;2;2;2;2;2;
2021-04-01 05:33:45;ht;99;13.20
2021-04-01 05:33:45;v;4.13
2021-04-01 06:03:44;1;129;129;129;129;129;129;129;129;129;129;
2021-04-01 06:03:44;2;126;125;125;125;133;126;126;125;125;125;
2021-04-01 06:03:44;3;55;55;56;55;55;55;55;56;56;55;
2021-04-01 06:03:44;4;125;125;125;125;125;125;125;125;125;125;
2021-04-01 06:03:44;5;136;136;136;136;137;137;137;136;136;136;
2021-04-01 06:03:44;ht;99;12.80
2021-04-01 06:03:44;v;4.13
2021-04-01 06:33:43;1;130;129;129;129;129;129;129;130;130;130;
2021-04-01 06:33:43;2;127;127;127;127;127;127;127;127;127;127;
2021-04-01 06:33:43;3;56;56;56;56;56;56;56;56;56;56;
2021-04-01 06:33:43;4;125;125;125;125;125;125;125;125;125;125;
2021-04-01 06:33:43;5;1;1;1;1;2;1;1;1;1;1;
2021-04-01 06:33:43;ht;99;12.40
2021-04-01 06:33:43;v;4.13
2021-04-01 07:03:45;1;128;128;128;128;128;128;128;128;128;128;
2021-04-01 07:03:45;2;126;126;126;126;126;126;126;126;126;126;
2021-04-01 07:03:45;3;56;56;56;56;56;56;56;56;56;56;
2021-04-01 07:03:45;4;125;125;125;125;126;126;126;125;125;125;
2021-04-01 07:03:45;5;2;2;2;2;2;2;2;1;2;2;
2021-04-01 07:03:45;ht;99;12.50
2021-04-01 07:03:45;v;4.13
2021-04-01 07:33:44;1;128;128;128;128;128;128;128;128;128;129;
2021-04-01 07:33:44;2;127;127;127;127;127;127;127;127;127;127;
2021-04-01 07:33:44;3;56;56;56;56;56;56;56;56;56;56;
2021-04-01 07:33:44;4;124;124;124;124;124;124;124;124;124;124;
2021-04-01 07:33:44;5;130;130;131;131;131;131;131;131;131;131;
2021-04-01 07:33:44;ht;99;13.20
2021-04-01 07:33:44;v;4.13
2021-04-01 08:03:42;1;127;127;127;127;127;127;127;127;127;127;
2021-04-01 08:03:42;2;125;124;125;124;125;125;125;125;125;125;
2021-04-01 08:03:42;3;55;55;56;56;56;55;55;56;56;56;
2021-04-01 08:03:42;4;124;124;124;124;124;124;124;124;124;124;
2021-04-01 08:03:42;5;124;124;124;124;124;124;124;124;125;124;
2021-04-01 08:03:42;ht;99;15.10
2021-04-01 08:03:42;v;4.13
2021-04-01 08:33:47;1;128;128;127;128;127;127;127;127;127;127;
2021-04-01 08:33:47;2;124;124;124;124;124;124;123;123;124;124;
2021-04-01 08:33:47;3;52;52;52;52;52;52;52;52;52;52;
2021-04-01 08:33:47;4;124;124;124;124;124;124;124;124;124;124;
2021-04-01 08:33:47;5;123;123;123;123;123;123;122;123;123;123;
2021-04-01 08:33:47;ht;99;16.40
2021-04-01 08:33:47;v;4.13
2021-04-01 09:03:48;1;130;130;130;129;129;129;129;130;129;130;
2021-04-01 09:03:48;2;119;119;120;119;120;120;120;120;120;120;
2021-04-01 09:03:48;3;52;52;52;52;52;52;52;52;52;52;
2021-04-01 09:03:48;4;125;125;125;125;125;125;125;125;125;125;
2021-04-01 09:03:48;5;126;126;126;126;126;126;126;126;126;126;
2021-04-01 09:03:48;ht;99;18.50
2021-04-01 09:03:48;v;4.13
2021-04-01 09:33:46;1;128;128;128;128;128;128;128;128;128;128;
2021-04-01 09:33:46;2;125;125;125;125;125;125;125;125;125;125;
2021-04-01 09:33:46;3;51;51;51;51;51;51;51;51;51;51;
2021-04-01 09:33:46;4;124;125;125;125;124;124;125;125;125;125;
2021-04-01 09:33:46;5;122;122;122;122;122;122;122;122;122;122;
2021-04-01 09:33:46;ht;99;20.20
2021-04-01 09:33:46;v;4.14
2021-04-01 10:03:50;1;128;128;128;128;128;128;128;128;128;128;
2021-04-01 10:03:50;2;119;119;119;119;119;119;119;119;119;119;
2021-04-01 10:03:50;3;49;49;49;50;50;50;50;50;50;50;
2021-04-01 10:03:50;4;124;125;125;124;125;124;124;124;124;124;
2021-04-01 10:03:50;5;119;118;118;118;119;118;119;118;118;118;
2021-04-01 10:03:50;ht;99;21.40
2021-04-01 10:03:50;v;4.14
2021-04-01 10:33:51;1;124;124;124;124;124;124;124;124;124;124;
2021-04-01 10:33:51;2;121;121;121;121;121;122;122;122;122;122;
2021-04-01 10:33:51;3;49;49;49;49;49;49;49;49;49;49;
2021-04-01 10:33:51;4;121;121;121;132;123;122;121;121;121;121;
2021-04-01 10:33:51;5;123;130;124;123;123;123;123;123;123;123;
2021-04-01 10:33:51;ht;97;23.30
2021-04-01 10:33:51;v;4.14
2021-04-01 11:03:53;1;124;124;124;124;124;124;124;124;124;124;
2021-04-01 11:03:53;2;125;125;124;124;124;124;125;125;125;125;
2021-04-01 11:03:53;3;47;47;47;47;47;47;47;47;47;47;
2021-04-01 11:03:53;4;121;121;121;121;121;121;121;121;121;121;
2021-04-01 11:03:53;5;2;2;2;2;2;2;2;2;2;2;
2021-04-01 11:03:53;ht;93;23.80
2021-04-01 11:03:53;v;4.14
2021-04-01 11:33:51;1;127;127;127;127;127;127;127;127;126;127;
2021-04-01 11:33:51;2;123;123;123;123;123;123;123;123;123;123;
2021-04-01 11:33:51;3;47;47;47;47;47;47;47;47;47;47;
2021-04-01 11:33:51;4;122;122;122;122;123;122;122;122;122;122;
2021-04-01 11:33:51;5;1;1;1;1;1;1;1;1;1;1;
2021-04-01 11:33:51;ht;86;24.60
2021-04-01 11:33:51;v;4.14
2021-04-01 12:03:51;1;126;126;126;126;126;126;126;126;127;126;
2021-04-01 12:03:51;2;123;123;123;123;123;123;123;123;123;123;
2021-04-01 12:03:51;3;47;47;47;47;47;47;46;47;47;47;
2021-04-01 12:03:51;4;124;124;124;124;124;124;124;124;124;124;
2021-04-01 12:03:51;5;1;1;1;1;1;1;1;1;1;1;
2021-04-01 12:03:51;ht;84;24.80
2021-04-01 12:03:51;v;4.14
2021-04-01 12:33:56;1;121;121;120;120;120;121;120;121;121;120;
2021-04-01 12:33:56;2;124;123;124;124;123;124;123;123;124;124;
2021-04-01 12:33:56;3;47;47;47;47;47;47;47;47;47;47;
2021-04-01 12:33:56;4;122;122;123;122;123;123;123;123;132;126;
2021-04-01 12:33:56;5;122;122;122;122;122;122;122;122;122;122;
2021-04-01 12:33:56;ht;79;26.30
2021-04-01 12:33:56;v;4.14
2021-04-01 13:03:52;1;124;123;124;123;124;124;124;123;123;124;
2021-04-01 13:03:52;2;124;125;124;125;125;124;125;124;125;125;
2021-04-01 13:03:52;3;47;47;47;47;47;47;47;47;47;47;
2021-04-01 13:03:52;4;124;124;124;124;124;124;124;124;124;124;
2021-04-01 13:03:52;5;1;1;1;1;1;1;2;1;1;1;
2021-04-01 13:03:52;ht;80;24.70
2021-04-01 13:03:52;v;4.14
2021-04-01 13:33:52;1;126;126;126;125;126;125;126;126;125;126;
2021-04-01 13:33:52;2;123;123;123;123;123;122;122;123;123;123;
2021-04-01 13:33:52;3;45;45;45;45;45;45;45;46;45;45;
2021-04-01 13:33:52;4;124;124;124;124;124;124;124;124;124;124;
2021-04-01 13:33:52;5;1;1;1;1;1;1;1;1;1;1;
2021-04-01 13:33:52;ht;84;24.00
2021-04-01 13:33:52;v;4.14
2021-04-01 14:03:51;1;125;125;125;125;125;125;124;125;125;124;
2021-04-01 14:03:51;2;125;125;125;125;125;125;125;125;125;125;
2021-04-01 14:03:51;3;46;46;46;46;46;46;46;46;47;46;
2021-04-01 14:03:51;4;125;125;124;125;125;125;125;125;125;125;
2021-04-01 14:03:51;5;122;122;122;122;122;122;122;122;122;122;
2021-04-01 14:03:51;ht;79;24.50
2021-04-01 14:03:51;v;4.15
2021-04-01 14:33:52;1;125;125;126;125;126;126;125;125;125;125;
2021-04-01 14:33:52;2;121;121;121;121;121;120;121;121;121;121;
2021-04-01 14:33:52;3;45;45;45;45;45;45;45;45;45;45;
2021-04-01 14:33:52;4;123;123;123;123;123;123;123;123;123;123;
2021-04-01 14:33:52;5;1;1;1;1;1;1;1;1;1;1;
2021-04-01 14:33:52;ht;79;25.10
2021-04-01 14:33:52;v;4.15
2021-04-01 15:03:52;1;125;125;125;125;125;125;125;125;125;125;
2021-04-01 15:03:52;2;120;120;120;120;120;120;120;120;120;120;
2021-04-01 15:03:52;3;46;46;46;46;46;46;46;46;46;46;
2021-04-01 15:03:52;4;124;125;124;124;124;124;124;124;124;124;
2021-04-01 15:03:52;5;1;1;1;1;1;1;1;1;1;1;
2021-04-01 15:03:52;ht;82;24.50
2021-04-01 15:03:52;v;4.15
2021-04-01 15:33:53;1;121;121;121;121;121;121;121;121;121;121;
2021-04-01 15:33:53;2;124;124;124;124;124;124;124;124;124;124;
2021-04-01 15:33:53;3;44;44;44;44;44;44;44;44;44;44;
2021-04-01 15:33:53;4;124;124;124;124;124;124;124;124;124;124;
2021-04-01 15:33:53;5;125;124;124;125;124;124;124;124;124;124;
2021-04-01 15:33:53;ht;70;27.20
2021-04-01 15:33:53;v;4.15
2021-04-01 16:03:54;1;127;127;127;127;127;127;127;127;127;127;
2021-04-01 16:03:54;2;125;125;124;124;124;125;124;124;125;124;
2021-04-01 16:03:54;3;46;46;46;46;46;46;46;46;46;46;
2021-04-01 16:03:54;4;126;123;123;123;122;123;123;123;123;123;
2021-04-01 16:03:54;5;122;122;122;122;122;122;122;122;122;122;
2021-04-01 16:03:54;ht;74;26.30
2021-04-01 16:03:54;v;4.15
2021-04-01 16:33:55;1;130;130;130;129;130;130;130;130;130;130;
2021-04-01 16:33:55;2;124;124;123;124;124;124;124;124;124;124;
2021-04-01 16:33:55;3;44;44;44;44;44;44;44;44;44;44;
2021-04-01 16:33:55;4;123;124;123;123;123;123;124;123;123;123;
2021-04-01 16:33:55;5;1;1;1;1;1;1;1;1;1;1;
2021-04-01 16:33:55;ht;68;27.10
2021-04-01 16:33:55;v;4.15
2021-04-01 17:03:52;1;127;127;127;127;127;127;127;127;127;127;
2021-04-01 17:03:52;2;125;125;126;126;125;126;126;126;126;126;
2021-04-01 17:03:52;3;45;45;45;45;45;45;45;45;45;45;
2021-04-01 17:03:52;4;124;124;124;124;124;124;124;124;124;125;
2021-04-01 17:03:52;5;122;122;122;122;122;122;122;122;122;122;
2021-04-01 17:03:52;ht;74;25.60
2021-04-01 17:03:52;v;4.15
2021-04-01 17:33:52;1;127;127;127;127;127;126;126;127;127;127;
2021-04-01 17:33:52;2;120;120;119;122;122;122;122;122;122;122;
2021-04-01 17:33:52;3;44;44;44;44;44;44;44;44;44;45;
2021-04-01 17:33:52;4;124;124;124;124;124;124;124;124;124;124;
2021-04-01 17:33:52;5;121;121;121;121;121;121;121;121;121;121;
2021-04-01 17:33:52;ht;83;24.20
2021-04-01 17:33:52;v;4.15
2021-04-01 18:03:51;1;127;127;127;127;127;127;127;127;127;127;
2021-04-01 18:03:51;2;125;125;125;125;125;125;125;125;125;125;
2021-04-01 18:03:51;3;47;47;47;47;47;47;47;47;47;47;
2021-04-01 18:03:51;4;123;123;123;123;123;123;123;123;123;123;
2021-04-01 18:03:51;5;122;122;121;122;122;122;122;122;122;122;
2021-04-01 18:03:51;ht;81;24.50
2021-04-01 18:03:51;v;4.15
2021-04-01 18:33:50;1;129;129;129;129;129;129;129;129;129;129;
2021-04-01 18:33:50;2;124;125;124;125;125;125;125;125;125;125;
2021-04-01 18:33:50;3;47;47;47;47;47;47;47;47;47;47;
2021-04-01 18:33:50;4;123;123;123;123;123;123;123;123;123;123;
2021-04-01 18:33:50;5;128;128;128;128;128;128;128;128;128;128;
2021-04-01 18:33:50;ht;93;22.90
2021-04-01 18:33:50;v;4.15
2021-04-01 19:03:51;1;127;127;127;127;127;127;127;127;128;127;
2021-04-01 19:03:51;2;125;126;126;126;126;126;126;126;126;126;
2021-04-01 19:03:51;3;47;47;47;47;47;47;47;47;48;47;
2021-04-01 19:03:51;4;123;123;123;123;123;123;123;123;123;123;
2021-04-01 19:03:51;5;122;122;122;122;122;122;122;122;122;122;
2021-04-01 19:03:51;ht;98;20.50
2021-04-01 19:03:51;v;4.15
2021-04-01 19:33:46;1;129;128;129;128;128;128;129;128;128;128;
2021-04-01 19:33:46;2;121;121;122;122;122;121;122;121;122;121;
2021-04-01 19:33:46;3;49;49;49;49;49;50;50;50;50;49;
2021-04-01 19:33:46;4;122;122;122;122;122;122;122;122;122;122;
2021-04-01 19:33:46;5;121;121;121;121;121;121;122;121;121;121;
2021-04-01 19:33:46;ht;99;18.90
2021-04-01 19:33:46;v;4.15
2021-04-01 20:03:49;1;123;122;123;122;123;123;123;123;123;122;
2021-04-01 20:03:49;2;122;122;123;122;122;122;123;122;123;122;
2021-04-01 20:03:49;3;52;52;52;52;52;52;52;52;52;52;
2021-04-01 20:03:49;4;124;124;124;124;124;124;124;124;124;124;
2021-04-01 20:03:49;5;122;122;121;122;122;122;122;122;122;122;
2021-04-01 20:03:49;ht;99;18.10
2021-04-01 20:03:49;v;4.14
2021-04-01 20:33:46;1;126;126;125;125;125;125;125;125;125;126;
2021-04-01 20:33:46;2;122;122;122;122;122;122;122;122;122;122;
2021-04-01 20:33:46;3;52;53;52;52;52;52;52;52;52;53;
2021-04-01 20:33:46;4;134;125;124;124;123;123;123;123;123;123;
2021-04-01 20:33:46;5;116;116;115;116;116;116;116;116;116;116;
2021-04-01 20:33:46;ht;99;17.50
2021-04-01 20:33:46;v;4.14
2021-04-01 21:03:47;1;125;125;125;125;133;126;125;125;125;125;
2021-04-01 21:03:47;2;120;120;120;120;120;120;120;120;120;120;
2021-04-01 21:03:47;3;52;52;52;53;52;52;52;53;53;52;
2021-04-01 21:03:47;4;124;124;125;124;124;125;125;125;125;124;
2021-04-01 21:03:47;5;2;2;2;2;2;2;2;2;2;2;
2021-04-01 21:03:47;ht;99;17.30
2021-04-01 21:03:47;v;4.14
2021-04-01 21:33:44;1;128;128;128;128;128;127;127;127;127;128;
2021-04-01 21:33:44;2;126;126;126;126;126;126;126;126;126;126;
2021-04-01 21:33:44;3;53;52;53;53;53;53;53;53;53;53;
2021-04-01 21:33:44;4;125;125;125;125;125;125;125;125;125;125;
2021-04-01 21:33:44;5;1;1;2;1;1;1;1;2;1;1;
2021-04-01 21:33:44;ht;99;16.90
2021-04-01 21:33:44;v;4.14
2021-04-01 22:03:44;1;128;128;128;128;128;128;128;128;128;128;
2021-04-01 22:03:44;2;126;126;126;126;126;126;126;126;126;126;
2021-04-01 22:03:44;3;52;53;52;52;52;53;53;53;52;53;
2021-04-01 22:03:44;4;125;125;125;125;125;125;125;125;125;125;
2021-04-01 22:03:44;5;1;2;2;1;2;1;1;1;1;2;
2021-04-01 22:03:44;ht;99;15.70
2021-04-01 22:03:44;v;4.14
2021-04-01 22:33:45;1;128;128;127;128;128;128;128;128;128;128;
2021-04-01 22:33:45;2;125;125;125;125;125;125;125;125;125;125;
2021-04-01 22:33:45;3;53;53;54;53;54;53;53;53;53;53;
2021-04-01 22:33:45;4;125;126;125;125;125;125;125;125;125;125;
2021-04-01 22:33:45;5;135;135;135;135;135;135;135;135;135;135;
2021-04-01 22:33:45;ht;99;15.70
2021-04-01 22:33:45;v;4.14
2021-04-01 23:03:45;1;127;127;127;127;127;127;127;127;127;127;
2021-04-01 23:03:45;2;127;127;127;127;127;127;127;127;127;127;
2021-04-01 23:03:45;3;53;53;52;53;53;53;53;53;53;53;
2021-04-01 23:03:45;4;125;125;125;125;125;125;125;125;125;125;
2021-04-01 23:03:45;5;2;1;2;2;2;2;2;2;2;2;
2021-04-01 23:03:45;ht;99;15.10
2021-04-01 23:03:45;v;4.14
2021-04-01 23:33:45;1;128;128;128;128;127;128;128;128;128;128;
2021-04-01 23:33:45;2;124;124;124;124;124;124;124;124;124;124;
2021-04-01 23:33:45;3;53;53;53;53;53;53;53;53;53;53;
2021-04-01 23:33:45;4;125;125;125;125;125;125;125;125;125;125;
2021-04-01 23:33:45;5;2;2;2;2;2;1;1;1;1;2;
2021-04-01 23:33:45;ht;99;14.60
2021-04-01 23:33:45;v;4.13
