#EQ3t;v;h;t;p;a2021-02-12 10:38:38;4.23;34;28.80;0;0.00
2021-02-12 11:03:05;4.23;31;29.60;0;0.00
2021-02-12 11:33:59;4.23;30;29.10;0;0.00
2021-02-12 12:03:48;4.24;29;29.50;0;1.10
2021-02-12 12:33:52;4.24;24;30.30;0;0.00
2021-02-12 13:03:51;4.24;26;31.50;0;0.00
2021-02-12 13:33:52;4.24;29;28.20;0;0.00
2021-02-12 14:03:50;4.24;26;31.10;0;0.00
2021-02-12 14:33:50;4.24;22;32.40;0;0.00
2021-02-12 15:03:51;4.24;23;29.90;0;0.00
2021-02-12 15:33:52;4.24;24;32.20;0;0.00
2021-02-12 16:03:53;4.25;20;31.10;0;0.00
2021-02-12 16:33:50;4.25;20;30.20;0;0.00
2021-02-12 17:03:50;4.25;23;31.60;0;1.40
2021-02-12 17:33:50;4.25;28;30.50;0;0.00
2021-02-12 18:03:49;4.25;22;30.30;0;0.00
2021-02-12 18:33:51;4.25;22;31.10;0;0.00
2021-02-12 19:03:48;4.25;30;29.50;0;0.00
2021-02-12 19:33:48;4.24;44;25.20;0;0.00
2021-02-12 20:03:46;4.24;49;24.10;0;0.00
2021-02-12 20:33:41;4.24;56;22.60;0;0.00
2021-02-12 21:03:40;4.24;59;22.00;0;0.00
2021-02-12 21:33:43;4.23;59;21.80;0;0.00
2021-02-12 22:03:41;4.24;65;21.10;0;0.00
2021-02-12 22:33:39;4.23;71;20.40;0;0.00
2021-02-12 23:03:41;4.23;66;21.30;0;0.00
2021-02-12 23:33:43;4.23;73;20.20;0;0.00
