2020-12-21 00:09:07;4.08;116.01;99;14.00
2020-12-21 00:59:04;4.08;117.78;99;13.40
2020-12-21 01:01:10;4.08;117.46;99;13.30
2020-12-21 02:10:10;4.07;116.17;99;13.40
2020-12-21 02:57:34;4.06;117.78;99;12.40
2020-12-21 03:03:11;4.06;116.17;99;12.30
2020-12-21 04:07:22;4.05;116.81;99;11.70
2020-12-21 05:01:28;4.04;117.94;99;11.30
2020-12-21 06:09:48;4.03;118.26;99;11.60
2020-12-21 06:58:09;4.02;117.94;99;17.00
2020-12-21 07:02:29;4.02;116.49;99;17.10
2020-12-21 08:08:31;4.01;116.49;87;20.30
2020-12-21 09:00:02;4.00;117.94;69;23.00
2020-12-21 10:09:34;4.00;118.26;60;25.20
2020-12-21 10:58:35;4.00;117.14;63;27.60
2020-12-21 11:01:49;4.01;118.59;60;27.20
2020-12-21 12:07:58;4.02;117.94;58;28.80
2020-12-21 12:34:06;4.04;117.94;56;28.00
2020-12-21 13:04:37;4.06;116.81;55;29.60
2020-12-21 13:34:32;4.08;116.81;55;29.00
2020-12-21 14:04:36;4.10;117.14;55;29.60
2020-12-21 14:34:36;4.11;118.26;57;30.00
2020-12-21 15:04:37;4.11;118.26;56;31.00
2020-12-21 15:34:38;4.12;117.14;52;31.60
2020-12-21 16:04:35;4.12;118.26;48;30.10
2020-12-21 16:34:36;4.12;117.14;53;30.80
2020-12-21 17:04:37;4.13;118.59;49;29.30
2020-12-21 17:34:38;4.13;117.14;53;29.30
2020-12-21 18:04:33;4.13;118.59;57;29.50
2020-12-21 18:34:33;4.13;118.26;57;28.70
2020-12-21 19:04:32;4.13;118.26;64;27.90
2020-12-21 19:34:33;4.13;117.14;71;26.10
2020-12-21 20:04:28;4.13;116.81;89;22.30
2020-12-21 20:34:37;4.13;117.94;96;20.00
2020-12-21 21:32:03;4.12;118.59;95;19.20
2020-12-21 22:39:03;4.10;117.94;99;16.40
2020-12-21 23:29:12;4.10;117.78;99;15.60
2020-12-21 23:30:59;4.10;117.94;99;15.70
