2021-01-04 00:04:25;4.15;112.30;99;20.60
2021-01-04 00:34:26;4.15;112.30;98;20.60
2021-01-04 01:04:22;4.15;112.62;98;20.60
2021-01-04 01:34:24;4.15;112.95;99;20.10
2021-01-04 02:04:24;4.15;111.34;99;20.40
2021-01-04 02:34:25;4.15;111.34;99;19.40
2021-01-04 03:04:21;4.15;111.34;99;18.50
2021-01-04 03:34:25;4.15;111.34;99;18.70
2021-01-04 04:04:25;4.15;111.34;99;19.40
2021-01-04 04:34:24;4.14;112.95;99;19.60
2021-01-04 05:04:25;4.14;112.95;99;19.60
2021-01-04 05:34:25;4.14;112.62;99;19.40
2021-01-04 06:04:25;4.14;112.62;99;19.10
2021-01-04 06:34:25;4.14;112.30;99;18.90
2021-01-04 07:04:25;4.14;111.98;99;20.00
2021-01-04 07:34:25;4.14;110.37;95;21.80
2021-01-04 08:04:23;4.14;112.30;89;22.50
2021-01-04 08:34:26;4.14;111.98;73;25.80
2021-01-04 09:04:28;4.14;111.98;66;26.90
2021-01-04 09:34:31;4.14;110.69;63;27.80
2021-01-04 10:04:32;4.15;110.69;58;29.20
2021-01-04 10:34:33;4.15;112.30;59;30.20
2021-01-04 11:04:32;4.15;110.69;57;30.10
