2022-12-29 00:04:23;1;116;116;116;116;116;116;116;116;116;116;
2022-12-29 00:04:23;2;117;117;118;118;118;118;117;118;118;117;
2022-12-29 00:04:23;3;116;116;115;115;116;115;115;115;115;115;
2022-12-29 00:04:23;ht;0;nan
2022-12-29 00:04:23;v;4.00
2022-12-29 00:34:26;1;123;123;123;123;123;123;123;123;123;123;
2022-12-29 00:34:26;2;105;105;105;105;105;105;105;105;105;105;
2022-12-29 00:34:26;3;113;114;113;114;114;113;114;114;113;114;
2022-12-29 00:34:26;ht;0;nan
2022-12-29 00:34:26;v;4.00
2022-12-29 01:04:24;1;99;99;99;99;99;99;99;99;99;99;
2022-12-29 01:04:24;2;104;103;103;103;103;103;103;103;104;104;
2022-12-29 01:04:24;3;117;117;117;117;117;118;117;118;118;118;
2022-12-29 01:04:24;ht;0;nan
2022-12-29 01:04:24;v;4.00
2022-12-29 01:34:23;1;97;97;97;97;97;97;97;97;97;97;
2022-12-29 01:34:23;2;102;102;102;102;102;102;101;101;102;102;
2022-12-29 01:34:23;3;115;115;115;115;115;115;115;115;115;115;
2022-12-29 01:34:23;ht;0;nan
2022-12-29 01:34:23;v;4.00
2022-12-29 02:04:23;1;3;3;3;3;3;3;3;3;3;3;
2022-12-29 02:04:23;2;101;101;101;101;101;101;101;101;101;101;
2022-12-29 02:04:23;3;118;118;117;118;117;117;117;117;117;117;
2022-12-29 02:04:23;ht;0;nan
2022-12-29 02:04:23;v;4.00
2022-12-29 02:34:26;1;100;100;100;100;100;100;100;100;100;100;
2022-12-29 02:34:26;2;100;101;101;101;101;101;101;101;101;101;
2022-12-29 02:34:26;3;104;105;104;104;104;104;104;104;104;104;
2022-12-29 02:34:26;ht;0;nan
2022-12-29 02:34:26;v;4.00
2022-12-29 03:04:25;1;3;3;3;2;3;3;2;3;3;3;
2022-12-29 03:04:25;2;105;105;105;104;104;105;104;104;104;104;
2022-12-29 03:04:25;3;98;98;98;98;98;98;98;98;98;98;
2022-12-29 03:04:25;ht;0;nan
2022-12-29 03:04:25;v;4.00
2022-12-29 03:34:23;1;90;90;90;90;90;90;90;90;90;90;
2022-12-29 03:34:23;2;103;103;103;103;103;103;103;103;103;103;
2022-12-29 03:34:23;3;111;111;111;110;110;110;110;110;111;110;
2022-12-29 03:34:23;ht;0;nan
2022-12-29 03:34:23;v;4.00
2022-12-29 04:04:26;1;97;97;97;97;97;97;97;97;97;97;
2022-12-29 04:04:26;2;117;117;117;117;117;117;117;117;117;117;
2022-12-29 04:04:26;3;113;113;113;113;113;113;113;114;113;113;
2022-12-29 04:04:26;ht;0;nan
2022-12-29 04:04:26;v;4.00
2022-12-29 04:34:24;1;90;90;90;90;90;90;90;90;90;90;
2022-12-29 04:34:24;2;96;96;96;96;96;96;96;96;96;95;
2022-12-29 04:34:24;3;118;118;118;118;118;118;118;117;117;118;
2022-12-29 04:34:24;ht;0;nan
2022-12-29 04:34:24;v;4.00
2022-12-29 05:04:22;1;95;95;95;95;95;95;95;95;95;95;
2022-12-29 05:04:22;2;104;104;103;104;104;104;103;103;103;103;
2022-12-29 05:04:22;3;118;118;118;118;118;118;117;118;117;117;
2022-12-29 05:04:22;ht;0;nan
2022-12-29 05:04:22;v;4.00
2022-12-29 05:34:24;1;98;98;98;98;98;98;98;98;98;98;
2022-12-29 05:34:24;2;90;90;90;90;90;90;90;91;90;90;
2022-12-29 05:34:24;3;115;116;116;116;115;115;116;115;115;116;
2022-12-29 05:34:24;ht;0;nan
2022-12-29 05:34:24;v;4.00
2022-12-29 06:04:22;1;96;96;96;96;96;96;96;96;96;96;
2022-12-29 06:04:22;2;89;90;89;90;90;89;90;89;89;90;
2022-12-29 06:04:22;3;84;84;84;84;84;84;84;84;84;84;
2022-12-29 06:04:22;ht;0;nan
2022-12-29 06:04:22;v;4.00
2022-12-29 06:34:24;1;89;88;89;88;89;88;88;89;88;88;
2022-12-29 06:34:24;2;95;94;94;95;95;94;95;95;95;94;
2022-12-29 06:34:24;3;83;83;83;83;83;83;83;83;83;83;
2022-12-29 06:34:24;ht;0;nan
2022-12-29 06:34:24;v;4.00
2022-12-29 07:04:22;1;90;91;91;90;91;91;91;91;90;90;
2022-12-29 07:04:22;2;112;112;112;112;112;112;112;112;112;112;
2022-12-29 07:04:22;3;83;83;83;83;83;83;83;83;83;83;
2022-12-29 07:04:22;ht;0;nan
2022-12-29 07:04:22;v;3.99
2022-12-29 07:34:27;1;86;86;86;86;86;86;86;86;86;86;
2022-12-29 07:34:27;2;88;88;88;88;88;88;88;88;88;88;
2022-12-29 07:34:27;3;91;91;91;91;91;91;91;91;91;91;
2022-12-29 07:34:27;ht;0;nan
2022-12-29 07:34:27;v;4.00
2022-12-29 08:04:29;1;91;91;91;91;91;91;91;91;91;91;
2022-12-29 08:04:29;2;96;96;96;96;96;96;96;96;96;96;
2022-12-29 08:04:29;3;95;95;95;95;96;95;95;95;95;95;
2022-12-29 08:04:29;ht;0;nan
2022-12-29 08:04:29;v;3.99
2022-12-29 08:34:29;1;85;85;85;85;85;85;85;85;85;85;
2022-12-29 08:34:29;2;96;96;96;96;96;96;96;96;96;96;
2022-12-29 08:34:29;3;114;114;114;114;114;114;114;114;114;114;
2022-12-29 08:34:29;ht;0;nan
2022-12-29 08:34:29;v;3.99
2022-12-29 09:04:29;1;87;87;87;87;87;87;87;87;87;87;
2022-12-29 09:04:29;2;113;113;113;113;113;113;113;113;113;113;
2022-12-29 09:04:29;3;82;82;82;82;82;82;82;82;82;82;
2022-12-29 09:04:29;ht;0;nan
2022-12-29 09:04:29;v;3.99
2022-12-29 09:34:32;1;112;112;112;112;112;112;112;112;112;112;
2022-12-29 09:34:32;2;93;92;93;93;93;92;92;93;93;93;
2022-12-29 09:34:32;3;92;92;92;92;92;92;92;92;92;92;
2022-12-29 09:34:32;ht;0;nan
2022-12-29 09:34:32;v;3.99
2022-12-29 10:04:32;1;87;86;86;86;86;86;86;86;86;86;
2022-12-29 10:04:32;2;105;105;105;105;105;105;105;105;105;105;
2022-12-29 10:04:32;3;3;3;3;3;3;3;3;3;3;3;
2022-12-29 10:04:32;ht;0;nan
2022-12-29 10:04:32;v;3.99
2022-12-29 10:34:35;1;95;94;94;94;94;95;94;94;94;94;
2022-12-29 10:34:35;2;107;107;107;107;107;107;107;107;107;107;
2022-12-29 10:34:35;3;88;88;89;89;89;89;88;89;88;88;
2022-12-29 10:34:35;ht;0;nan
2022-12-29 10:34:35;v;3.99
2022-12-29 11:04:39;1;88;88;88;88;88;88;88;88;88;88;
2022-12-29 11:04:39;2;95;95;95;95;95;95;95;95;95;95;
2022-12-29 11:04:39;3;87;87;87;87;87;87;87;87;87;87;
2022-12-29 11:04:39;ht;0;nan
2022-12-29 11:04:39;v;3.99
2022-12-29 11:34:38;1;88;89;88;88;88;88;88;89;88;88;
2022-12-29 11:34:38;2;104;104;104;104;104;104;104;104;104;104;
2022-12-29 11:34:38;3;93;94;93;93;93;94;93;93;93;93;
2022-12-29 11:34:38;ht;0;nan
2022-12-29 11:34:38;v;3.98
2022-12-29 12:04:37;1;100;100;100;100;100;100;100;101;100;100;
2022-12-29 12:04:37;2;104;104;104;104;104;104;104;104;104;104;
2022-12-29 12:04:37;3;90;90;90;90;90;90;90;90;90;90;
2022-12-29 12:04:37;ht;0;nan
2022-12-29 12:04:37;v;3.99
2022-12-29 12:34:37;1;104;104;104;104;104;104;104;104;104;104;
2022-12-29 12:34:37;2;104;104;104;105;104;104;104;104;104;104;
2022-12-29 12:34:37;3;107;107;107;107;107;107;107;107;107;106;
2022-12-29 12:34:37;ht;0;nan
2022-12-29 12:34:37;v;3.98
2022-12-29 13:04:36;1;102;102;102;102;102;101;102;102;102;102;
2022-12-29 13:04:36;2;101;101;101;103;103;103;103;103;103;103;
2022-12-29 13:04:36;3;196;196;196;196;196;196;196;196;196;196;
2022-12-29 13:04:36;ht;0;nan
2022-12-29 13:04:36;v;3.99
2022-12-29 13:34:36;1;107;107;107;107;107;107;107;107;107;107;
2022-12-29 13:34:36;2;104;104;104;104;104;104;104;104;104;104;
2022-12-29 13:34:36;3;126;126;126;126;126;126;126;126;126;126;
2022-12-29 13:34:36;ht;0;nan
2022-12-29 13:34:36;v;3.98
2022-12-29 14:04:36;1;3;3;3;3;3;2;3;3;3;3;
2022-12-29 14:04:36;2;103;103;103;103;103;103;103;103;103;103;
2022-12-29 14:04:36;3;113;113;114;114;113;113;113;114;113;113;
2022-12-29 14:04:36;ht;0;nan
2022-12-29 14:04:36;v;3.98
2022-12-29 14:34:37;1;104;104;103;104;104;104;104;104;104;104;
2022-12-29 14:34:37;2;105;105;105;105;105;105;105;105;105;105;
2022-12-29 14:34:37;3;104;103;104;103;104;104;104;103;103;103;
2022-12-29 14:34:37;ht;0;nan
2022-12-29 14:34:37;v;3.98
2022-12-29 15:04:39;1;2;3;3;3;3;3;3;3;3;3;
2022-12-29 15:04:39;2;103;103;103;103;103;103;103;103;103;103;
2022-12-29 15:04:39;3;102;102;101;102;102;102;102;102;102;102;
2022-12-29 15:04:39;ht;0;nan
2022-12-29 15:04:39;v;3.98
2022-12-29 15:34:40;1;101;102;101;101;101;101;101;101;101;101;
2022-12-29 15:34:40;2;116;116;116;116;116;116;116;116;116;116;
2022-12-29 15:34:40;3;3;3;3;3;3;3;3;3;3;3;
2022-12-29 15:34:40;ht;0;nan
2022-12-29 15:34:40;v;3.98
2022-12-29 16:04:38;1;98;98;98;98;98;98;98;98;98;98;
2022-12-29 16:04:38;2;119;119;119;119;119;119;119;119;119;119;
2022-12-29 16:04:38;3;3;3;3;3;3;3;3;3;3;3;
2022-12-29 16:04:38;ht;0;nan
2022-12-29 16:04:38;v;3.98
2022-12-29 16:34:40;1;3;3;3;3;3;3;2;3;3;3;
2022-12-29 16:34:40;2;103;103;103;103;103;103;103;103;103;103;
2022-12-29 16:34:40;3;141;141;141;141;141;141;141;141;141;141;
2022-12-29 16:34:40;ht;0;nan
2022-12-29 16:34:40;v;3.98
2022-12-29 17:04:37;1;106;106;106;106;106;106;106;106;106;106;
2022-12-29 17:04:37;2;118;118;118;118;118;118;118;118;118;118;
2022-12-29 17:04:37;3;83;83;83;83;83;83;83;83;83;83;
2022-12-29 17:04:37;ht;0;nan
2022-12-29 17:04:37;v;3.98
2022-12-29 17:34:39;1;94;94;94;94;94;94;94;94;94;94;
2022-12-29 17:34:39;2;117;117;117;117;117;117;117;117;117;117;
2022-12-29 17:34:39;3;88;88;88;88;88;88;88;88;88;88;
2022-12-29 17:34:39;ht;0;nan
2022-12-29 17:34:39;v;3.98
2022-12-29 18:04:40;1;98;99;98;99;98;99;99;99;99;98;
2022-12-29 18:04:40;2;3;3;3;3;3;3;3;3;3;3;
2022-12-29 18:04:40;3;137;137;137;137;136;136;136;137;137;136;
2022-12-29 18:04:40;ht;0;nan
2022-12-29 18:04:40;v;3.98
2022-12-29 18:34:35;1;100;100;100;100;100;100;100;99;100;99;
2022-12-29 18:34:35;2;3;3;3;3;3;3;3;3;3;3;
2022-12-29 18:34:35;3;83;83;83;83;83;83;83;83;83;83;
2022-12-29 18:34:35;ht;0;nan
2022-12-29 18:34:35;v;3.99
2022-12-29 19:04:34;1;91;91;91;91;90;90;90;90;90;90;
2022-12-29 19:04:34;2;97;98;98;97;98;97;97;98;98;97;
2022-12-29 19:04:34;3;3;3;3;3;3;3;3;3;3;3;
2022-12-29 19:04:34;ht;0;nan
2022-12-29 19:04:34;v;3.98
2022-12-29 19:34:36;1;93;93;93;93;93;93;94;94;93;93;
2022-12-29 19:34:36;2;3;3;3;3;3;3;3;3;3;3;
2022-12-29 19:34:36;3;95;95;95;95;95;95;95;95;95;95;
2022-12-29 19:34:36;ht;0;nan
2022-12-29 19:34:36;v;3.98
2022-12-29 20:04:30;1;94;94;94;95;94;94;94;94;94;94;
2022-12-29 20:04:30;2;89;89;90;90;90;90;90;90;90;90;
2022-12-29 20:04:30;3;124;124;123;124;124;124;124;124;124;124;
2022-12-29 20:04:30;ht;0;nan
2022-12-29 20:04:30;v;3.98
2022-12-29 20:34:31;1;93;94;93;93;93;93;93;93;94;94;
2022-12-29 20:34:31;2;93;93;93;93;93;93;93;93;93;93;
2022-12-29 20:34:31;3;92;92;91;91;91;91;91;91;91;91;
2022-12-29 20:34:31;ht;0;nan
2022-12-29 20:34:31;v;3.99
2022-12-29 21:04:29;1;95;95;95;95;95;95;95;95;95;95;
2022-12-29 21:04:29;2;113;113;113;113;112;113;113;113;113;113;
2022-12-29 21:04:29;3;89;89;89;89;89;89;89;89;89;89;
2022-12-29 21:04:29;ht;0;nan
2022-12-29 21:04:29;v;3.99
2022-12-29 21:34:28;1;91;91;91;91;91;91;91;91;92;91;
2022-12-29 21:34:28;2;3;3;3;3;3;3;3;3;2;3;
2022-12-29 21:34:28;3;107;107;106;106;107;106;106;107;106;107;
2022-12-29 21:34:28;ht;0;nan
2022-12-29 21:34:28;v;3.99
2022-12-29 22:04:25;1;93;93;93;93;93;93;94;94;93;93;
2022-12-29 22:04:25;2;95;95;95;95;95;95;95;95;95;95;
2022-12-29 22:04:25;3;97;97;97;97;97;97;97;97;97;97;
2022-12-29 22:04:25;ht;0;nan
2022-12-29 22:04:25;v;3.99
2022-12-29 22:34:27;1;101;101;101;101;101;101;101;101;101;101;
2022-12-29 22:34:27;2;93;93;93;93;93;92;93;92;93;93;
2022-12-29 22:34:27;3;113;113;113;113;113;113;113;113;113;113;
2022-12-29 22:34:27;ht;0;nan
2022-12-29 22:34:27;v;3.99
2022-12-29 23:04:28;1;99;99;99;99;99;99;99;99;99;99;
2022-12-29 23:04:28;2;95;95;95;95;95;95;95;95;95;94;
2022-12-29 23:04:28;3;194;194;194;194;194;195;195;194;194;194;
2022-12-29 23:04:28;ht;0;nan
2022-12-29 23:04:28;v;3.99
2022-12-29 23:34:24;1;3;3;3;3;3;3;3;3;3;3;
2022-12-29 23:34:24;2;96;96;95;96;95;96;96;96;96;95;
2022-12-29 23:34:24;3;111;111;110;111;111;111;110;110;110;110;
2022-12-29 23:34:24;ht;0;nan
2022-12-29 23:34:24;v;3.99
