2022-12-10 00:04:26;1;106;105;106;105;105;105;105;105;106;105;
2022-12-10 00:04:26;2;107;106;107;106;106;106;106;106;106;106;
2022-12-10 00:04:26;3;120;120;121;120;120;120;120;120;120;120;
2022-12-10 00:04:26;ht;99;23.20
2022-12-10 00:04:26;v;4.23
2022-12-10 00:34:27;1;105;104;105;104;105;105;105;104;104;104;
2022-12-10 00:34:27;2;123;123;123;123;123;123;123;123;123;123;
2022-12-10 00:34:27;3;108;108;108;108;108;108;108;108;108;109;
2022-12-10 00:34:27;ht;99;23.30
2022-12-10 00:34:27;v;4.21
2022-12-10 01:04:29;1;107;107;107;107;107;107;107;107;107;107;
2022-12-10 01:04:29;2;99;99;99;99;99;100;99;100;99;100;
2022-12-10 01:04:29;3;108;108;108;108;108;107;108;107;108;108;
2022-12-10 01:04:29;ht;99;23.20
2022-12-10 01:04:29;v;4.23
2022-12-10 01:34:26;1;118;118;118;118;118;118;118;118;118;118;
2022-12-10 01:34:26;2;96;96;96;96;96;96;96;96;96;96;
2022-12-10 01:34:26;3;108;108;108;109;108;108;108;108;108;108;
2022-12-10 01:34:26;ht;99;23.20
2022-12-10 01:34:26;v;4.22
2022-12-10 02:04:27;1;108;108;108;108;107;108;107;107;107;107;
2022-12-10 02:04:27;2;114;113;113;113;113;114;113;114;113;113;
2022-12-10 02:04:27;3;112;112;112;113;113;112;112;112;112;112;
2022-12-10 02:04:27;ht;99;22.90
2022-12-10 02:04:27;v;4.23
2022-12-10 02:34:24;1;101;101;101;101;101;101;101;101;101;101;
2022-12-10 02:34:24;2;117;117;117;118;117;118;117;117;117;118;
2022-12-10 02:34:24;3;5;5;6;6;5;5;6;5;6;6;
2022-12-10 02:34:24;ht;99;23.00
2022-12-10 02:34:24;v;4.22
2022-12-10 03:04:26;1;107;107;107;107;108;107;108;107;107;106;
2022-12-10 03:04:26;2;108;108;108;108;108;109;108;108;108;108;
2022-12-10 03:04:26;3;125;125;125;125;125;125;125;125;125;125;
2022-12-10 03:04:26;ht;99;22.90
2022-12-10 03:04:26;v;4.23
2022-12-10 03:34:27;1;106;106;106;106;106;106;106;106;106;106;
2022-12-10 03:34:27;2;121;121;121;121;121;121;121;121;121;121;
2022-12-10 03:34:27;3;130;131;131;131;131;131;131;131;132;132;
2022-12-10 03:34:27;ht;99;22.80
2022-12-10 03:34:27;v;4.22
2022-12-10 04:04:28;1;80;80;80;80;80;80;80;80;80;80;
2022-12-10 04:04:28;2;119;119;119;119;119;118;118;119;118;119;
2022-12-10 04:04:28;3;80;79;79;80;80;79;80;79;80;79;
2022-12-10 04:04:28;ht;99;22.70
2022-12-10 04:04:28;v;4.23
2022-12-10 04:34:25;1;82;82;82;82;82;82;82;83;82;82;
2022-12-10 04:34:25;2;3;3;3;3;3;3;3;3;3;3;
2022-12-10 04:34:25;3;128;128;128;128;128;128;129;128;129;128;
2022-12-10 04:34:25;ht;99;22.60
2022-12-10 04:34:25;v;4.21
2022-12-10 05:04:26;1;80;81;81;80;81;80;81;80;81;81;
2022-12-10 05:04:26;2;115;115;115;115;115;115;115;115;115;115;
2022-12-10 05:04:26;3;105;105;105;105;105;105;105;104;105;105;
2022-12-10 05:04:26;ht;99;22.30
2022-12-10 05:04:26;v;4.22
2022-12-10 05:34:27;1;76;76;77;76;76;76;76;76;76;76;
2022-12-10 05:34:27;2;103;103;103;103;103;103;104;103;103;103;
2022-12-10 05:34:27;3;24;26;28;31;33;35;37;39;41;43;
2022-12-10 05:34:27;ht;99;21.80
2022-12-10 05:34:27;v;4.22
2022-12-10 06:04:27;1;107;108;108;108;108;108;108;108;108;108;
2022-12-10 06:04:27;2;3;3;2;3;3;3;3;3;3;3;
2022-12-10 06:04:27;3;71;71;71;71;71;71;71;71;71;71;
2022-12-10 06:04:27;ht;99;21.70
2022-12-10 06:04:27;v;4.21
2022-12-10 06:34:23;1;82;82;82;82;82;82;82;82;82;82;
2022-12-10 06:34:23;2;79;80;79;79;79;79;79;79;79;79;
2022-12-10 06:34:23;3;125;126;126;126;126;125;126;126;125;126;
2022-12-10 06:34:23;ht;99;21.60
2022-12-10 06:34:23;v;4.22
2022-12-10 07:04:24;1;80;81;81;81;81;81;81;81;81;81;
2022-12-10 07:04:24;2;96;95;95;95;96;95;96;95;95;96;
2022-12-10 07:04:24;3;118;118;118;118;117;117;117;117;118;118;
2022-12-10 07:04:24;ht;99;21.60
2022-12-10 07:04:24;v;4.21
2022-12-10 07:34:24;1;86;86;86;87;86;86;86;86;86;86;
2022-12-10 07:34:24;2;100;99;99;98;99;99;99;99;99;98;
2022-12-10 07:34:24;3;120;120;119;120;119;119;120;119;120;119;
2022-12-10 07:34:24;ht;99;21.50
2022-12-10 07:34:24;v;4.21
2022-12-10 08:04:25;1;85;85;85;85;85;85;85;85;85;85;
2022-12-10 08:04:25;2;107;107;107;107;107;107;107;107;107;107;
2022-12-10 08:04:25;3;4;4;4;4;4;5;5;4;4;4;
2022-12-10 08:04:25;ht;99;21.60
2022-12-10 08:04:25;v;4.21
2022-12-10 08:34:25;1;77;77;77;77;77;76;76;76;76;77;
2022-12-10 08:34:25;2;90;90;90;90;90;90;90;90;89;90;
2022-12-10 08:34:25;3;117;118;118;118;118;118;118;118;118;117;
2022-12-10 08:34:25;ht;99;21.70
2022-12-10 08:34:25;v;4.22
2022-12-10 09:04:26;1;75;75;75;75;75;75;75;75;75;75;
2022-12-10 09:04:26;2;93;93;93;93;93;93;93;93;92;93;
2022-12-10 09:04:26;3;68;68;68;68;69;68;68;68;68;69;
2022-12-10 09:04:26;ht;99;21.70
2022-12-10 09:04:26;v;4.21
2022-12-10 09:34:27;1;75;74;74;74;74;74;74;74;74;74;
2022-12-10 09:34:27;2;109;109;110;109;109;109;110;110;110;110;
2022-12-10 09:34:27;3;68;67;67;67;67;68;67;67;67;67;
2022-12-10 09:34:27;ht;99;22.40
2022-12-10 09:34:27;v;4.22
2022-12-10 10:04:29;1;92;92;92;93;93;92;92;92;92;93;
2022-12-10 10:04:29;2;106;106;106;106;106;106;106;105;106;106;
2022-12-10 10:04:29;3;81;81;81;81;80;81;80;80;81;81;
2022-12-10 10:04:29;ht;99;23.60
2022-12-10 10:04:29;v;4.21
2022-12-10 10:34:26;1;75;75;75;75;75;75;75;75;75;75;
2022-12-10 10:34:26;2;106;105;106;106;106;106;106;106;106;106;
2022-12-10 10:34:26;3;68;68;68;68;68;68;68;68;68;68;
2022-12-10 10:34:26;ht;99;24.70
2022-12-10 10:34:26;v;4.21
2022-12-10 11:04:30;1;71;71;71;71;71;71;71;71;71;71;
2022-12-10 11:04:30;2;102;102;102;102;102;102;102;102;102;103;
2022-12-10 11:04:30;3;106;106;106;106;106;106;106;106;106;106;
2022-12-10 11:04:30;ht;99;25.90
2022-12-10 11:04:30;v;4.23
2022-12-10 11:34:30;1;70;70;70;70;70;70;70;70;70;70;
2022-12-10 11:34:30;2;104;104;104;104;104;104;104;105;104;105;
2022-12-10 11:34:30;3;68;69;68;68;68;69;69;68;69;69;
2022-12-10 11:34:30;ht;99;27.20
2022-12-10 11:34:30;v;4.23
2022-12-10 12:04:32;1;89;89;89;89;89;89;89;89;89;89;
2022-12-10 12:04:32;2;101;102;102;102;102;102;102;102;102;102;
2022-12-10 12:04:32;3;72;72;72;72;72;72;72;72;72;72;
2022-12-10 12:04:32;ht;99;27.20
2022-12-10 12:04:32;v;4.22
2022-12-10 12:34:29;1;77;77;77;77;77;77;77;77;77;77;
2022-12-10 12:34:29;2;96;96;96;96;96;96;96;96;96;96;
2022-12-10 12:34:29;3;69;69;69;69;69;70;69;69;69;69;
2022-12-10 12:34:29;ht;99;27.80
2022-12-10 12:34:29;v;4.21
2022-12-10 13:04:32;1;85;85;85;85;85;85;85;86;85;85;
2022-12-10 13:04:32;2;100;100;99;100;100;99;100;100;99;100;
2022-12-10 13:04:32;3;75;75;75;75;75;75;75;75;75;75;
2022-12-10 13:04:32;ht;99;28.50
2022-12-10 13:04:32;v;4.22
2022-12-10 13:34:30;1;82;82;83;82;82;81;82;82;82;82;
2022-12-10 13:34:30;2;103;103;103;103;103;103;103;103;102;103;
2022-12-10 13:34:30;3;106;106;106;106;107;106;107;106;106;106;
2022-12-10 13:34:30;ht;99;29.30
2022-12-10 13:34:30;v;4.22
2022-12-10 14:04:34;1;71;71;71;70;71;71;71;71;71;71;
2022-12-10 14:04:34;2;81;81;81;81;80;81;81;81;81;81;
2022-12-10 14:04:34;3;72;73;72;72;72;72;72;72;72;72;
2022-12-10 14:04:34;ht;99;30.10
2022-12-10 14:04:34;v;4.22
2022-12-10 14:34:34;1;81;81;81;81;81;81;81;81;81;81;
2022-12-10 14:34:34;2;81;81;82;81;81;81;81;81;81;81;
2022-12-10 14:34:34;3;72;72;72;72;72;72;72;73;72;72;
2022-12-10 14:34:34;ht;99;29.80
2022-12-10 14:34:34;v;4.22
2022-12-10 15:04:34;1;83;83;83;83;83;83;83;83;83;83;
2022-12-10 15:04:34;2;99;99;99;98;99;98;98;98;98;99;
2022-12-10 15:04:34;3;113;113;113;112;112;111;111;111;111;110;
2022-12-10 15:04:34;ht;99;30.90
2022-12-10 15:04:34;v;4.23
2022-12-10 15:34:35;1;78;78;78;78;78;78;78;78;78;78;
2022-12-10 15:34:35;2;86;86;86;86;86;86;86;86;86;86;
2022-12-10 15:34:35;3;79;79;79;79;79;79;79;80;79;79;
2022-12-10 15:34:35;ht;99;31.90
2022-12-10 15:34:35;v;4.23
2022-12-10 16:04:37;1;77;77;77;77;77;77;77;77;77;77;
2022-12-10 16:04:37;2;105;105;105;105;105;105;105;105;105;105;
2022-12-10 16:04:37;3;117;118;117;117;118;118;118;118;118;118;
2022-12-10 16:04:37;ht;99;30.90
2022-12-10 16:04:37;v;4.23
2022-12-10 16:34:33;1;71;70;71;70;70;70;70;70;70;70;
2022-12-10 16:34:33;2;87;87;88;87;88;87;88;87;88;88;
2022-12-10 16:34:33;3;104;104;104;104;104;104;104;104;104;105;
2022-12-10 16:34:33;ht;99;32.70
2022-12-10 16:34:33;v;4.22
2022-12-10 17:04:35;1;72;72;71;71;71;71;71;71;71;71;
2022-12-10 17:04:35;2;90;90;91;91;91;90;91;90;90;90;
2022-12-10 17:04:35;3;110;111;110;110;111;110;111;111;111;110;
2022-12-10 17:04:35;ht;99;31.40
2022-12-10 17:04:35;v;4.23
2022-12-10 17:34:31;1;80;80;80;80;80;80;80;80;80;80;
2022-12-10 17:34:31;2;117;117;117;118;117;117;117;117;117;117;
2022-12-10 17:34:31;3;106;105;106;106;106;106;105;106;106;106;
2022-12-10 17:34:31;ht;99;31.50
2022-12-10 17:34:31;v;4.24
2022-12-10 18:04:33;1;77;77;77;77;77;77;77;77;77;77;
2022-12-10 18:04:33;2;102;102;102;102;102;102;101;102;102;102;
2022-12-10 18:04:33;3;3;3;3;3;3;3;3;3;2;3;
2022-12-10 18:04:33;ht;99;31.70
2022-12-10 18:04:33;v;4.24
2022-12-10 18:34:34;1;114;114;114;114;114;114;114;114;114;114;
2022-12-10 18:34:34;2;119;119;119;119;119;119;118;119;118;119;
2022-12-10 18:34:34;3;73;73;73;73;73;73;73;73;73;73;
2022-12-10 18:34:34;ht;99;31.90
2022-12-10 18:34:34;v;4.25
2022-12-10 19:04:35;1;85;85;85;85;85;85;85;85;85;86;
2022-12-10 19:04:35;2;106;107;106;106;107;106;107;106;107;107;
2022-12-10 19:04:35;3;105;105;105;105;105;105;105;105;105;105;
2022-12-10 19:04:35;ht;99;29.70
2022-12-10 19:04:35;v;4.24
2022-12-10 19:34:33;1;84;84;84;85;84;84;85;84;84;84;
2022-12-10 19:34:33;2;105;105;105;105;105;105;105;105;105;106;
2022-12-10 19:34:33;3;105;105;105;105;105;105;105;105;105;105;
2022-12-10 19:34:33;ht;99;27.60
2022-12-10 19:34:33;v;4.24
#EQ-B42022-12-10 20:04:35;1;83;83;83;83;83;83;83;83;83;83;
2022-12-10 20:04:35;1;83;83;83;83;83;83;83;83;83;83;
2022-12-10 20:04:35;2;102;102;102;102;102;102;102;102;101;102;
2022-12-10 20:04:35;3;106;106;106;106;106;106;106;106;106;106;
2022-12-10 20:04:35;ht;99;26.50
2022-12-10 20:04:35;v;4.23
2022-12-10 20:34:29;1;78;78;78;78;78;79;78;78;78;78;
2022-12-10 20:34:29;2;109;108;106;105;103;102;101;99;98;97;
2022-12-10 20:34:29;3;106;106;106;106;106;106;106;107;106;106;
2022-12-10 20:34:29;ht;99;25.80
2022-12-10 20:34:29;v;4.24
2022-12-10 21:04:28;1;82;82;82;82;82;82;82;82;82;82;
2022-12-10 21:04:28;2;91;91;92;92;92;92;92;92;92;92;
2022-12-10 21:04:28;3;84;84;84;84;84;84;84;84;84;84;
2022-12-10 21:04:28;ht;99;25.40
2022-12-10 21:04:28;v;4.24
2022-12-10 21:34:26;1;93;92;92;92;92;92;92;93;92;92;
2022-12-10 21:34:26;2;101;101;101;101;101;101;101;100;101;101;
2022-12-10 21:34:26;3;104;104;104;104;105;104;104;105;104;104;
2022-12-10 21:34:26;ht;99;25.10
2022-12-10 21:34:26;v;4.23
2022-12-10 22:04:29;1;83;83;83;83;83;83;83;83;83;83;
2022-12-10 22:04:29;2;103;103;104;103;103;104;103;103;103;104;
2022-12-10 22:04:29;3;103;104;103;104;103;104;104;104;103;103;
2022-12-10 22:04:29;ht;99;24.80
2022-12-10 22:04:29;v;4.23
2022-12-10 22:34:27;1;88;88;88;88;88;89;88;88;88;88;
2022-12-10 22:34:27;2;106;106;106;106;106;106;106;106;106;106;
2022-12-10 22:34:27;3;106;106;105;106;106;105;106;105;105;105;
2022-12-10 22:34:27;ht;99;24.50
2022-12-10 22:34:27;v;4.23
2022-12-10 23:04:29;1;97;97;97;97;96;97;97;96;96;97;
2022-12-10 23:04:29;2;106;106;106;106;106;106;106;106;106;106;
2022-12-10 23:04:29;3;106;106;106;105;106;105;105;105;106;106;
2022-12-10 23:04:29;ht;99;24.10
2022-12-10 23:04:29;v;4.23
2022-12-10 23:34:26;1;120;120;120;120;120;120;120;119;120;120;
2022-12-10 23:34:26;2;98;98;98;97;98;97;98;97;98;98;
2022-12-10 23:34:26;3;112;112;112;110;110;110;110;109;109;109;
2022-12-10 23:34:26;ht;99;24.10
2022-12-10 23:34:26;v;4.22
