2022-12-09 00:04:25;1;105;105;105;105;105;105;105;105;105;105;
2022-12-09 00:04:25;2;107;107;107;107;107;107;107;107;107;106;
2022-12-09 00:04:25;3;116;116;116;116;116;116;116;116;116;116;
2022-12-09 00:04:25;ht;99;22.80
2022-12-09 00:04:25;v;4.22
2022-12-09 00:34:27;1;102;102;103;103;103;102;103;103;103;103;
2022-12-09 00:34:27;2;107;107;107;107;107;107;107;107;107;107;
2022-12-09 00:34:27;3;119;119;119;118;118;118;119;118;118;118;
2022-12-09 00:34:27;ht;99;22.60
2022-12-09 00:34:27;v;4.21
2022-12-09 01:04:29;1;104;104;104;104;105;105;104;104;104;104;
2022-12-09 01:04:29;2;106;105;106;106;106;106;106;106;106;105;
2022-12-09 01:04:29;3;119;119;119;119;120;119;119;119;119;119;
2022-12-09 01:04:29;ht;99;22.70
2022-12-09 01:04:29;v;4.21
2022-12-09 01:34:26;1;3;2;2;3;2;3;3;3;2;3;
2022-12-09 01:34:26;2;107;107;106;107;107;107;107;107;107;107;
2022-12-09 01:34:26;3;119;120;119;119;119;119;119;119;120;119;
2022-12-09 01:34:26;ht;99;22.60
2022-12-09 01:34:26;v;4.21
2022-12-09 02:04:28;1;101;101;101;101;101;101;101;101;101;101;
2022-12-09 02:04:28;2;105;105;105;105;105;105;105;105;105;106;
2022-12-09 02:04:28;3;117;117;117;117;117;117;117;117;117;118;
2022-12-09 02:04:28;ht;99;22.30
2022-12-09 02:04:28;v;4.22
2022-12-09 02:34:25;1;103;103;103;104;104;104;103;104;104;103;
2022-12-09 02:34:25;2;106;106;106;105;106;106;106;106;106;106;
2022-12-09 02:34:25;3;120;119;119;119;119;120;119;119;119;119;
2022-12-09 02:34:25;ht;99;22.20
2022-12-09 02:34:25;v;4.19
2022-12-09 03:04:26;1;3;3;3;2;3;2;3;3;2;3;
2022-12-09 03:04:26;2;106;106;106;105;105;105;105;105;105;106;
2022-12-09 03:04:26;3;119;119;119;119;119;119;119;119;119;120;
2022-12-09 03:04:26;ht;99;22.10
2022-12-09 03:04:26;v;4.20
2022-12-09 03:34:27;1;88;88;87;87;88;88;88;88;88;88;
2022-12-09 03:34:27;2;105;105;105;105;105;105;105;105;105;105;
2022-12-09 03:34:27;3;114;114;115;115;115;114;115;114;115;115;
2022-12-09 03:34:27;ht;99;21.90
2022-12-09 03:34:27;v;4.20
2022-12-09 04:04:24;1;90;90;90;91;91;90;90;90;90;91;
2022-12-09 04:04:24;2;103;103;103;104;103;103;103;103;104;103;
2022-12-09 04:04:24;3;119;119;120;119;119;119;119;119;119;120;
2022-12-09 04:04:24;ht;99;21.70
2022-12-09 04:04:24;v;4.11
2022-12-09 04:34:24;1;94;93;94;94;93;93;93;93;94;94;
2022-12-09 04:34:24;2;107;106;107;107;107;107;107;107;106;107;
2022-12-09 04:34:24;3;121;120;120;121;120;121;120;120;120;120;
2022-12-09 04:34:24;ht;99;21.20
2022-12-09 04:34:24;v;4.19
2022-12-09 05:04:25;1;78;78;78;78;78;78;78;78;78;78;
2022-12-09 05:04:25;2;106;106;106;106;106;106;106;106;105;105;
2022-12-09 05:04:25;3;121;120;120;120;120;120;120;120;121;120;
2022-12-09 05:04:25;ht;99;21.40
2022-12-09 05:04:25;v;4.19
2022-12-09 05:34:26;1;107;107;107;107;106;107;107;107;106;107;
2022-12-09 05:34:26;2;106;106;105;106;106;106;106;106;106;106;
2022-12-09 05:34:26;3;119;119;120;119;119;119;119;120;119;119;
2022-12-09 05:34:26;ht;99;21.10
2022-12-09 05:34:26;v;4.20
2022-12-09 06:04:26;1;95;95;95;95;95;95;95;96;96;95;
2022-12-09 06:04:26;2;104;104;104;104;105;105;104;104;104;104;
2022-12-09 06:04:26;3;121;121;121;120;121;120;121;121;121;120;
2022-12-09 06:04:26;ht;99;21.40
2022-12-09 06:04:26;v;4.21
2022-12-09 06:34:28;1;87;86;86;86;87;86;86;86;86;86;
2022-12-09 06:34:28;2;83;82;82;83;83;82;82;83;82;83;
2022-12-09 06:34:28;3;113;114;114;113;114;114;113;113;113;113;
2022-12-09 06:34:28;ht;99;22.60
2022-12-09 06:34:28;v;4.21
2022-12-09 07:04:26;1;77;77;77;77;77;77;77;77;77;77;
2022-12-09 07:04:26;2;81;82;81;81;82;81;81;82;82;81;
2022-12-09 07:04:26;3;85;85;85;85;85;85;85;86;85;85;
2022-12-09 07:04:26;ht;99;24.30
2022-12-09 07:04:26;v;4.21
2022-12-09 07:34:30;1;82;82;82;82;82;82;83;82;82;82;
2022-12-09 07:34:30;2;90;90;90;90;90;90;90;90;90;90;
2022-12-09 07:34:30;3;107;106;106;107;107;107;106;107;107;107;
2022-12-09 07:34:30;ht;99;25.60
2022-12-09 07:34:30;v;4.20
2022-12-09 08:04:32;1;83;82;83;82;82;82;82;83;82;82;
2022-12-09 08:04:32;2;92;91;92;91;92;92;91;92;91;92;
2022-12-09 08:04:32;3;86;86;86;86;86;85;85;85;85;86;
2022-12-09 08:04:32;ht;99;27.50
2022-12-09 08:04:32;v;4.20
2022-12-09 08:34:28;1;81;81;81;81;81;81;81;81;81;81;
2022-12-09 08:34:28;2;92;92;92;92;92;93;92;92;92;92;
2022-12-09 08:34:28;3;4;5;7;8;10;13;16;20;24;28;
2022-12-09 08:34:28;ht;99;29.00
2022-12-09 08:34:28;v;4.21
2022-12-09 09:04:02;1;90;89;89;89;90;90;90;89;89;90;
2022-12-09 09:04:02;2;88;87;88;87;87;88;88;88;87;87;
2022-12-09 09:04:02;3;105;105;105;105;105;105;105;105;105;105;
2022-12-09 09:04:02;ht;99;30.20
2022-12-09 09:04:02;v;4.22
2022-12-09 09:34:10;1;86;86;86;86;86;86;86;86;87;87;
2022-12-09 09:34:10;2;93;93;93;93;93;93;93;93;93;93;
2022-12-09 09:34:10;3;100;100;100;100;99;99;99;100;99;99;
2022-12-09 09:34:10;ht;99;31.90
2022-12-09 09:34:10;v;4.22
2022-12-09 10:04:21;1;82;82;82;82;82;82;82;82;82;82;
2022-12-09 10:04:21;2;105;105;104;105;105;104;105;105;105;105;
2022-12-09 10:04:21;3;5;6;5;5;5;5;5;5;5;5;
2022-12-09 10:04:21;ht;99;32.80
2022-12-09 10:04:21;v;4.22
2022-12-09 10:34:38;1;76;77;76;77;76;76;77;76;76;76;
2022-12-09 10:34:38;2;97;97;97;97;97;97;97;97;98;97;
2022-12-09 10:34:38;3;106;106;106;107;106;106;107;106;106;107;
2022-12-09 10:34:38;ht;99;34.10
2022-12-09 10:34:38;v;4.22
2022-12-09 11:04:37;1;70;70;70;70;70;70;70;70;70;70;
2022-12-09 11:04:37;2;90;91;91;91;91;91;90;91;91;91;
2022-12-09 11:04:37;3;107;107;106;106;106;106;106;106;106;106;
2022-12-09 11:04:37;ht;99;34.80
2022-12-09 11:04:37;v;4.22
2022-12-09 11:34:37;1;94;94;94;94;94;95;94;94;95;93;
2022-12-09 11:34:37;2;97;97;97;97;97;97;97;97;97;97;
2022-12-09 11:34:37;3;105;105;105;105;105;106;105;105;105;105;
2022-12-09 11:34:37;ht;99;35.40
2022-12-09 11:34:37;v;4.22
2022-12-09 12:04:38;1;87;87;87;87;87;87;87;87;87;87;
2022-12-09 12:04:38;2;87;86;87;86;87;87;87;87;87;87;
2022-12-09 12:04:38;3;112;112;112;112;112;112;112;112;112;112;
2022-12-09 12:04:38;ht;97;36.30
2022-12-09 12:04:38;v;4.20
2022-12-09 12:34:39;1;90;91;91;91;91;90;90;90;91;90;
2022-12-09 12:34:39;2;3;3;2;3;3;3;2;3;3;3;
2022-12-09 12:34:39;3;113;113;113;113;113;113;113;112;113;113;
2022-12-09 12:34:39;ht;98;36.90
2022-12-09 12:34:39;v;4.21
2022-12-09 13:04:40;1;83;83;83;83;83;83;83;83;83;83;
2022-12-09 13:04:40;2;103;103;103;102;103;102;103;103;103;103;
2022-12-09 13:04:40;3;104;104;104;104;104;104;104;104;104;104;
2022-12-09 13:04:40;ht;95;37.50
2022-12-09 13:04:40;v;4.21
2022-12-09 13:34:37;1;87;87;88;87;87;87;87;87;87;87;
2022-12-09 13:34:37;2;93;94;94;94;93;94;94;94;93;93;
2022-12-09 13:34:37;3;114;114;115;115;114;115;115;115;115;114;
2022-12-09 13:34:37;ht;90;38.10
2022-12-09 13:34:37;v;4.21
2022-12-09 14:04:40;1;3;3;3;3;3;3;3;3;2;3;
2022-12-09 14:04:40;2;131;132;132;132;132;132;132;132;131;131;
2022-12-09 14:04:40;3;105;105;105;105;105;104;105;105;105;105;
2022-12-09 14:04:40;ht;94;38.60
2022-12-09 14:04:40;v;4.23
2022-12-09 14:34:39;1;3;3;3;2;3;3;3;3;3;3;
2022-12-09 14:34:39;2;85;84;84;85;85;85;85;85;84;85;
2022-12-09 14:34:39;3;105;105;104;105;104;105;105;105;105;104;
2022-12-09 14:34:39;ht;93;38.70
2022-12-09 14:34:39;v;4.22
2022-12-09 15:04:43;1;78;79;78;79;78;78;79;79;78;78;
2022-12-09 15:04:43;2;147;147;148;147;147;147;147;147;147;147;
2022-12-09 15:04:43;3;108;108;108;108;108;108;108;108;108;108;
2022-12-09 15:04:43;ht;89;40.20
2022-12-09 15:04:43;v;4.23
2022-12-09 15:34:42;1;74;74;74;75;74;74;75;75;74;74;
2022-12-09 15:34:42;2;92;92;92;92;92;92;92;92;92;92;
2022-12-09 15:34:42;3;104;103;104;104;104;104;104;104;104;104;
2022-12-09 15:34:42;ht;90;39.80
2022-12-09 15:34:42;v;4.23
2022-12-09 16:04:42;1;78;78;78;78;78;79;78;78;78;78;
2022-12-09 16:04:42;2;94;94;94;94;94;94;93;94;94;94;
2022-12-09 16:04:42;3;106;106;106;106;106;106;106;106;106;106;
2022-12-09 16:04:42;ht;77;40.90
2022-12-09 16:04:42;v;4.23
2022-12-09 16:34:43;1;74;73;73;73;73;73;73;73;73;73;
2022-12-09 16:34:43;2;91;91;91;91;91;91;91;91;91;91;
2022-12-09 16:34:43;3;106;106;107;107;106;107;107;106;106;106;
2022-12-09 16:34:43;ht;79;40.50
2022-12-09 16:34:43;v;4.23
2022-12-09 17:04:43;1;79;79;79;79;79;79;79;79;80;79;
2022-12-09 17:04:43;2;95;95;94;95;95;94;95;95;95;94;
2022-12-09 17:04:43;3;101;101;100;100;100;97;97;97;98;97;
2022-12-09 17:04:43;ht;79;38.70
2022-12-09 17:04:43;v;4.23
2022-12-09 17:34:41;1;88;88;88;88;88;88;88;88;88;88;
2022-12-09 17:34:41;2;94;94;94;94;93;94;94;93;94;94;
2022-12-09 17:34:41;3;104;103;103;103;103;102;102;102;103;102;
2022-12-09 17:34:41;ht;84;38.70
2022-12-09 17:34:41;v;4.23
2022-12-09 18:04:39;1;76;76;76;76;76;76;76;76;76;75;
2022-12-09 18:04:39;2;3;3;3;3;3;2;3;2;3;3;
2022-12-09 18:04:39;3;95;95;95;95;95;94;94;94;94;94;
2022-12-09 18:04:39;ht;89;37.40
2022-12-09 18:04:39;v;4.23
2022-12-09 18:34:39;1;77;77;77;77;77;77;77;77;77;77;
2022-12-09 18:34:39;2;85;86;86;85;86;85;85;85;85;85;
2022-12-09 18:34:39;3;76;77;77;76;77;77;77;77;77;77;
2022-12-09 18:34:39;ht;95;35.90
2022-12-09 18:34:39;v;4.19
2022-12-09 19:04:34;1;94;94;94;94;94;94;95;94;95;95;
2022-12-09 19:04:34;2;82;82;82;82;82;82;82;82;82;82;
2022-12-09 19:04:34;3;116;116;116;116;116;116;116;116;116;116;
2022-12-09 19:04:34;ht;99;34.80
2022-12-09 19:04:34;v;4.22
2022-12-09 19:34:36;1;73;74;73;73;73;73;73;73;73;73;
2022-12-09 19:34:36;2;92;91;91;91;91;91;91;90;90;90;
2022-12-09 19:34:36;3;119;119;119;119;119;119;119;119;119;118;
2022-12-09 19:34:36;ht;99;34.90
2022-12-09 19:34:36;v;4.23
2022-12-09 20:04:34;1;81;81;82;81;81;81;81;81;81;81;
2022-12-09 20:04:34;2;85;86;85;85;85;86;86;86;86;86;
2022-12-09 20:04:34;3;74;73;74;73;74;74;74;74;73;74;
2022-12-09 20:04:34;ht;99;34.40
2022-12-09 20:04:34;v;4.22
2022-12-09 20:34:36;1;76;77;76;77;76;76;76;76;76;76;
2022-12-09 20:34:36;2;119;119;119;119;119;119;119;118;119;119;
2022-12-09 20:34:36;3;6;6;6;6;6;6;6;6;7;6;
2022-12-09 20:34:36;ht;99;34.10
2022-12-09 20:34:36;v;4.23
2022-12-09 21:04:32;1;89;90;89;89;89;89;89;89;89;90;
2022-12-09 21:04:32;2;101;101;101;100;101;100;100;101;101;101;
2022-12-09 21:04:32;3;80;79;79;80;80;80;80;80;80;79;
2022-12-09 21:04:32;ht;99;33.60
2022-12-09 21:04:32;v;4.21
2022-12-09 21:34:33;1;105;105;105;105;105;105;105;105;105;105;
2022-12-09 21:34:33;2;97;97;96;97;97;97;97;97;97;97;
2022-12-09 21:34:33;3;112;112;112;113;116;116;117;116;117;116;
2022-12-09 21:34:33;ht;99;33.60
2022-12-09 21:34:33;v;4.22
2022-12-09 22:04:34;1;151;151;151;151;151;151;151;151;151;151;
2022-12-09 22:04:34;2;105;105;105;105;105;105;105;105;105;105;
2022-12-09 22:04:34;3;119;118;119;119;119;119;118;118;118;118;
2022-12-09 22:04:34;ht;99;32.70
2022-12-09 22:04:34;v;4.21
2022-12-09 22:34:33;1;88;89;88;89;88;88;88;88;88;88;
2022-12-09 22:34:33;2;100;100;100;100;100;99;100;100;99;100;
2022-12-09 22:34:33;3;117;117;117;117;118;117;117;117;117;117;
2022-12-09 22:34:33;ht;99;25.00
2022-12-09 22:34:33;v;4.20
2022-12-09 23:04:27;1;87;87;87;87;87;87;88;87;87;87;
2022-12-09 23:04:27;2;106;106;106;106;106;107;106;106;106;106;
2022-12-09 23:04:27;3;5;4;4;5;5;5;5;4;5;5;
2022-12-09 23:04:27;ht;99;23.70
2022-12-09 23:04:27;v;4.20
2022-12-09 23:34:29;1;3;3;3;3;3;3;3;3;3;2;
2022-12-09 23:34:29;2;94;94;93;94;94;93;94;94;94;93;
2022-12-09 23:34:29;3;107;107;107;107;107;107;107;107;107;107;
2022-12-09 23:34:29;ht;99;23.30
2022-12-09 23:34:29;v;4.22
