2022-11-22 00:04:21;1;113;113;113;113;113;113;113;113;113;113;
2022-11-22 00:04:21;2;108;108;108;108;108;108;108;108;108;108;
2022-11-22 00:04:21;3;115;115;115;115;115;115;115;115;116;115;
2022-11-22 00:04:21;ht;99;12.80
2022-11-22 00:04:21;v;4.20
2022-11-22 00:34:21;1;100;100;100;100;100;100;100;100;100;100;
2022-11-22 00:34:21;2;110;110;110;110;110;110;110;110;110;110;
2022-11-22 00:34:21;3;112;112;113;112;113;112;112;112;112;112;
2022-11-22 00:34:21;ht;99;12.50
2022-11-22 00:34:21;v;4.18
2022-11-22 01:04:21;1;115;115;115;115;115;115;114;114;114;114;
2022-11-22 01:04:21;2;106;106;106;106;105;105;106;106;106;106;
2022-11-22 01:04:21;3;115;115;116;115;115;115;115;115;115;116;
2022-11-22 01:04:21;ht;99;11.60
2022-11-22 01:04:21;v;4.21
2022-11-22 01:34:21;1;95;95;95;95;95;95;95;95;95;95;
2022-11-22 01:34:21;2;108;108;108;108;108;108;108;108;108;108;
2022-11-22 01:34:21;3;119;119;119;119;119;119;118;119;119;119;
2022-11-22 01:34:21;ht;99;11.30
2022-11-22 01:34:21;v;4.19
2022-11-22 02:04:20;1;83;83;83;83;83;83;83;83;83;83;
2022-11-22 02:04:20;2;106;106;106;106;106;106;106;106;106;106;
2022-11-22 02:04:20;3;120;120;120;120;120;120;120;120;120;120;
2022-11-22 02:04:20;ht;99;11.30
2022-11-22 02:04:20;v;4.20
2022-11-22 02:34:20;1;100;100;100;100;100;100;100;100;100;100;
2022-11-22 02:34:20;2;110;110;110;110;110;110;110;110;110;110;
2022-11-22 02:34:20;3;121;121;121;121;121;121;121;121;121;121;
2022-11-22 02:34:20;ht;99;10.70
2022-11-22 02:34:20;v;4.19
2022-11-22 03:04:19;1;97;97;97;97;97;97;98;98;98;98;
2022-11-22 03:04:19;2;107;107;107;107;107;107;107;107;107;107;
2022-11-22 03:04:19;3;120;120;120;120;120;120;120;120;119;120;
2022-11-22 03:04:19;ht;99;10.50
2022-11-22 03:04:19;v;4.20
2022-11-22 03:34:22;1;92;92;92;92;92;92;92;92;92;92;
2022-11-22 03:34:22;2;106;106;106;106;106;106;106;106;106;106;
2022-11-22 03:34:22;3;119;119;119;119;119;118;119;119;119;119;
2022-11-22 03:34:22;ht;99;10.40
2022-11-22 03:34:22;v;4.19
2022-11-22 04:04:21;1;73;73;73;73;73;73;73;73;73;73;
2022-11-22 04:04:21;2;108;107;107;107;107;107;107;107;107;107;
2022-11-22 04:04:21;3;120;120;120;120;120;120;120;120;120;120;
2022-11-22 04:04:21;ht;99;9.90
2022-11-22 04:04:21;v;4.20
2022-11-22 04:34:20;1;70;70;70;70;70;70;70;70;70;70;
2022-11-22 04:34:20;2;105;106;106;106;106;105;106;106;106;106;
2022-11-22 04:34:20;3;119;119;119;119;119;119;119;119;119;119;
2022-11-22 04:34:20;ht;99;9.70
2022-11-22 04:34:20;v;4.18
2022-11-22 05:04:19;1;114;114;114;113;114;114;113;113;113;113;
2022-11-22 05:04:19;2;106;106;105;105;105;105;105;105;105;105;
2022-11-22 05:04:19;3;119;119;119;119;119;119;119;120;119;120;
2022-11-22 05:04:19;ht;99;9.80
2022-11-22 05:04:19;v;4.19
2022-11-22 05:34:22;1;105;105;105;105;105;105;105;105;105;105;
2022-11-22 05:34:22;2;106;106;106;106;106;105;106;106;106;106;
2022-11-22 05:34:22;3;119;119;119;119;119;119;119;119;119;119;
2022-11-22 05:34:22;ht;99;9.20
2022-11-22 05:34:22;v;4.18
2022-11-22 06:04:20;1;109;109;108;108;108;109;109;108;108;109;
2022-11-22 06:04:20;2;107;107;106;107;107;107;107;108;108;108;
2022-11-22 06:04:20;3;208;209;209;210;210;211;211;211;211;212;
2022-11-22 06:04:20;ht;99;8.80
2022-11-22 06:04:20;v;4.18
2022-11-22 06:34:19;1;108;108;108;108;108;108;108;108;108;108;
2022-11-22 06:34:19;2;104;105;105;105;105;105;105;105;105;105;
2022-11-22 06:34:19;3;102;102;102;102;102;102;102;102;102;102;
2022-11-22 06:34:19;ht;99;10.70
2022-11-22 06:34:19;v;4.17
2022-11-22 07:04:24;1;101;101;101;101;101;101;101;101;101;101;
2022-11-22 07:04:24;2;108;108;108;108;108;108;110;110;110;110;
2022-11-22 07:04:24;3;101;101;101;101;101;101;101;101;101;101;
2022-11-22 07:04:24;ht;99;12.70
2022-11-22 07:04:24;v;4.16
2022-11-22 07:34:21;1;100;100;101;101;100;101;100;100;100;100;
2022-11-22 07:34:21;2;100;100;100;100;100;100;100;100;100;100;
2022-11-22 07:34:21;3;104;104;103;103;103;103;103;103;103;103;
2022-11-22 07:34:21;ht;99;14.90
2022-11-22 07:34:21;v;4.20
2022-11-22 08:04:25;1;103;103;103;103;102;103;103;103;103;103;
2022-11-22 08:04:25;2;108;108;108;108;108;108;108;108;108;108;
2022-11-22 08:04:25;3;103;103;103;103;103;103;103;103;103;103;
2022-11-22 08:04:25;ht;99;16.90
2022-11-22 08:04:25;v;4.20
2022-11-22 08:34:26;1;101;101;102;101;101;101;102;102;102;101;
2022-11-22 08:34:26;2;110;109;110;109;109;110;109;109;110;109;
2022-11-22 08:34:26;3;118;118;118;117;117;117;117;116;116;116;
2022-11-22 08:34:26;ht;99;19.10
2022-11-22 08:34:26;v;4.22
2022-11-22 09:04:29;1;97;96;96;96;97;96;97;96;97;97;
2022-11-22 09:04:29;2;107;107;107;107;107;107;107;107;107;107;
2022-11-22 09:04:29;3;147;146;146;147;147;147;147;147;146;146;
2022-11-22 09:04:29;ht;99;19.70
2022-11-22 09:04:29;v;4.22
2022-11-22 09:34:27;1;115;115;115;115;115;115;115;115;115;115;
2022-11-22 09:34:27;2;108;108;108;108;108;108;108;108;108;108;
2022-11-22 09:34:27;3;133;133;133;133;132;132;132;132;132;133;
2022-11-22 09:34:27;ht;99;21.20
2022-11-22 09:34:27;v;4.20
2022-11-22 10:04:31;1;102;102;102;102;102;102;102;102;102;102;
2022-11-22 10:04:31;2;88;88;88;88;88;87;88;87;88;88;
2022-11-22 10:04:31;3;128;128;128;128;128;128;128;128;128;128;
2022-11-22 10:04:31;ht;99;21.90
2022-11-22 10:04:31;v;4.20
2022-11-22 10:34:30;1;110;110;109;110;109;109;110;110;110;109;
2022-11-22 10:34:30;2;104;104;104;104;104;104;104;104;104;104;
2022-11-22 10:34:30;3;123;123;123;123;123;123;123;123;123;123;
2022-11-22 10:34:30;ht;93;22.70
2022-11-22 10:34:30;v;4.20
2022-11-22 11:04:30;1;105;105;105;105;105;105;105;105;105;105;
2022-11-22 11:04:30;2;117;117;117;117;117;117;117;117;117;117;
2022-11-22 11:04:30;3;216;219;219;219;219;219;219;219;219;219;
2022-11-22 11:04:30;ht;85;22.90
2022-11-22 11:04:30;v;4.20
2022-11-22 11:34:31;1;98;98;98;98;99;99;99;99;99;99;
2022-11-22 11:34:31;2;114;114;114;114;114;114;114;114;114;114;
2022-11-22 11:34:31;3;147;147;147;147;147;146;146;145;145;144;
2022-11-22 11:34:31;ht;72;24.50
2022-11-22 11:34:31;v;4.21
2022-11-22 12:04:32;1;102;102;102;102;102;102;102;102;102;101;
2022-11-22 12:04:32;2;105;105;105;105;105;105;105;105;105;105;
2022-11-22 12:04:32;3;176;176;176;177;176;177;177;177;177;177;
2022-11-22 12:04:32;ht;72;24.20
2022-11-22 12:04:32;v;4.21
2022-11-22 12:34:29;1;106;107;107;107;107;107;107;106;107;107;
2022-11-22 12:34:29;2;107;107;107;107;107;107;107;107;107;107;
2022-11-22 12:34:29;3;210;211;211;211;211;211;211;211;211;211;
2022-11-22 12:34:29;ht;57;25.10
2022-11-22 12:34:29;v;4.22
2022-11-22 13:04:30;1;99;99;99;99;98;98;98;99;98;98;
2022-11-22 13:04:30;2;106;106;106;106;106;106;106;106;106;106;
2022-11-22 13:04:30;3;120;120;120;120;120;120;120;120;120;120;
2022-11-22 13:04:30;ht;57;25.40
2022-11-22 13:04:30;v;4.21
2022-11-22 13:34:32;1;106;106;106;106;106;106;106;106;106;106;
2022-11-22 13:34:32;2;124;124;124;124;124;124;124;124;124;124;
2022-11-22 13:34:32;3;106;106;106;106;106;107;106;106;106;106;
2022-11-22 13:34:32;ht;53;25.30
2022-11-22 13:34:32;v;4.20
2022-11-22 14:04:30;1;102;102;102;102;102;102;102;102;102;102;
2022-11-22 14:04:30;2;101;101;101;101;101;101;101;101;101;101;
2022-11-22 14:04:30;3;98;98;98;98;98;98;98;98;98;98;
2022-11-22 14:04:30;ht;50;26.20
2022-11-22 14:04:30;v;4.21
2022-11-22 14:34:34;1;108;107;108;108;108;108;108;108;108;107;
2022-11-22 14:34:34;2;100;99;99;100;99;99;100;100;99;100;
2022-11-22 14:34:34;3;103;104;104;104;104;104;104;103;104;104;
2022-11-22 14:34:34;ht;44;26.20
2022-11-22 14:34:34;v;4.20
2022-11-22 15:04:33;1;107;107;107;107;107;107;107;107;107;107;
2022-11-22 15:04:33;2;103;103;103;103;103;102;103;103;103;103;
2022-11-22 15:04:33;3;114;114;113;113;113;112;112;112;111;111;
2022-11-22 15:04:33;ht;41;27.60
2022-11-22 15:04:33;v;4.21
2022-11-22 15:34:32;1;102;102;103;102;102;102;102;102;102;102;
2022-11-22 15:34:32;2;101;101;101;101;101;101;101;100;101;101;
2022-11-22 15:34:32;3;115;116;116;116;116;116;116;116;116;116;
2022-11-22 15:34:32;ht;43;27.70
2022-11-22 15:34:32;v;4.22
2022-11-22 16:04:32;1;98;98;98;98;98;98;98;97;98;98;
2022-11-22 16:04:32;2;104;104;104;104;104;104;104;104;104;104;
2022-11-22 16:04:32;3;108;107;107;107;107;107;107;107;107;107;
2022-11-22 16:04:32;ht;38;27.50
2022-11-22 16:04:32;v;4.22
2022-11-22 16:34:31;1;98;98;97;98;97;97;97;97;98;97;
2022-11-22 16:34:31;2;3;3;3;3;3;3;3;3;3;3;
2022-11-22 16:34:31;3;117;117;117;118;118;118;118;119;119;119;
2022-11-22 16:34:31;ht;37;28.20
2022-11-22 16:34:31;v;4.22
2022-11-22 17:04:31;1;106;106;106;106;106;106;106;106;106;106;
2022-11-22 17:04:31;2;97;97;96;97;96;96;97;97;97;97;
2022-11-22 17:04:31;3;195;195;195;195;195;195;195;195;195;195;
2022-11-22 17:04:31;ht;37;28.00
2022-11-22 17:04:31;v;4.22
2022-11-22 17:34:35;1;103;103;103;102;103;102;103;102;102;102;
2022-11-22 17:34:35;2;83;83;83;83;83;83;83;83;83;83;
2022-11-22 17:34:35;3;165;165;165;165;165;165;165;165;165;165;
2022-11-22 17:34:35;ht;33;28.70
2022-11-22 17:34:35;v;4.24
2022-11-22 18:04:30;1;95;94;94;94;94;94;94;94;95;95;
2022-11-22 18:04:30;2;3;3;3;3;3;3;3;3;3;3;
2022-11-22 18:04:30;3;101;101;101;100;100;100;100;100;100;100;
2022-11-22 18:04:30;ht;44;26.40
2022-11-22 18:04:30;v;4.22
2022-11-22 18:34:33;1;3;3;3;3;3;2;3;3;3;3;
2022-11-22 18:34:33;2;3;3;3;3;3;3;3;3;3;3;
2022-11-22 18:34:33;3;101;101;101;101;101;101;101;101;101;101;
2022-11-22 18:34:33;ht;46;25.90
2022-11-22 18:34:33;v;4.22
2022-11-22 19:04:30;1;95;95;95;95;95;95;95;95;95;95;
2022-11-22 19:04:30;2;3;3;3;3;3;3;3;3;3;3;
2022-11-22 19:04:30;3;104;104;104;104;104;104;104;104;104;104;
2022-11-22 19:04:30;ht;50;24.50
2022-11-22 19:04:30;v;4.22
2022-11-22 19:34:30;1;107;107;107;107;107;107;107;107;107;107;
2022-11-22 19:34:30;2;104;104;104;104;104;104;104;104;104;104;
2022-11-22 19:34:30;3;103;103;103;103;103;103;103;103;103;103;
2022-11-22 19:34:30;ht;62;21.90
2022-11-22 19:34:30;v;4.22
2022-11-22 20:04:27;1;103;103;103;103;103;103;103;103;103;103;
2022-11-22 20:04:27;2;98;99;98;99;99;99;99;99;98;99;
2022-11-22 20:04:27;3;117;117;117;117;117;117;117;117;118;117;
2022-11-22 20:04:27;ht;74;20.10
2022-11-22 20:04:27;v;4.20
2022-11-22 20:34:27;1;105;105;105;105;105;105;105;105;105;105;
2022-11-22 20:34:27;2;103;103;103;103;103;103;103;103;103;103;
2022-11-22 20:34:27;3;3;3;3;3;83;84;86;88;89;91;
2022-11-22 20:34:27;ht;94;18.00
2022-11-22 20:34:27;v;4.21
2022-11-22 21:04:22;1;103;103;103;103;103;103;103;103;103;103;
2022-11-22 21:04:22;2;117;117;117;117;117;117;117;117;117;117;
2022-11-22 21:04:22;3;103;103;103;103;102;103;103;102;102;102;
2022-11-22 21:04:22;ht;99;17.30
2022-11-22 21:04:22;v;4.21
2022-11-22 21:34:25;1;105;105;105;105;105;105;105;105;105;105;
2022-11-22 21:34:25;2;125;125;125;125;125;125;125;125;125;125;
2022-11-22 21:34:25;3;3;3;3;2;3;3;3;3;3;3;
2022-11-22 21:34:25;ht;99;16.90
2022-11-22 21:34:25;v;4.21
2022-11-22 22:04:22;1;107;107;107;107;107;107;107;107;107;107;
2022-11-22 22:04:22;2;3;3;3;3;3;3;3;3;3;3;
2022-11-22 22:04:22;3;170;170;170;170;170;170;170;170;170;170;
2022-11-22 22:04:22;ht;99;15.90
2022-11-22 22:04:22;v;4.21
2022-11-22 22:34:24;1;108;108;108;108;108;108;108;108;108;108;
2022-11-22 22:34:24;2;119;119;119;119;119;119;119;119;119;119;
2022-11-22 22:34:24;3;107;106;106;106;106;107;106;106;106;106;
2022-11-22 22:34:24;ht;99;14.80
2022-11-22 22:34:24;v;4.21
2022-11-22 23:04:21;1;109;109;109;109;109;109;109;109;109;109;
2022-11-22 23:04:21;2;3;3;3;3;3;3;3;3;3;3;
2022-11-22 23:04:21;3;110;110;110;110;110;110;110;110;110;110;
2022-11-22 23:04:21;ht;99;15.00
2022-11-22 23:04:21;v;4.20
2022-11-22 23:34:23;1;109;109;109;109;109;109;109;109;109;109;
2022-11-22 23:34:23;2;3;3;3;3;3;3;2;3;3;3;
2022-11-22 23:34:23;3;115;115;115;114;115;114;114;115;115;114;
2022-11-22 23:34:23;ht;99;13.90
2022-11-22 23:34:23;v;4.20
