2022-11-13 00:04:24;1;79;79;79;79;79;79;79;79;79;79;
2022-11-13 00:04:24;2;95;95;95;95;95;95;95;95;95;95;
2022-11-13 00:04:24;3;122;122;122;122;122;122;122;122;122;122;
2022-11-13 00:04:24;ht;99;16.20
2022-11-13 00:04:24;v;4.19
2022-11-13 00:34:21;1;85;85;85;85;85;85;85;85;85;85;
2022-11-13 00:34:21;2;97;97;97;97;97;97;97;97;97;97;
2022-11-13 00:34:21;3;73;74;73;73;74;73;73;73;73;73;
2022-11-13 00:34:21;ht;99;16.10
2022-11-13 00:34:21;v;4.18
2022-11-13 01:04:23;1;85;85;85;85;85;85;85;85;85;85;
2022-11-13 01:04:23;2;83;83;83;83;83;83;83;83;83;83;
2022-11-13 01:04:23;3;76;76;76;76;76;76;76;76;76;76;
2022-11-13 01:04:23;ht;99;16.30
2022-11-13 01:04:23;v;4.19
2022-11-13 01:34:25;1;84;84;84;84;84;84;84;84;84;84;
2022-11-13 01:34:25;2;78;78;79;78;78;79;78;78;79;79;
2022-11-13 01:34:25;3;78;78;78;78;78;78;78;78;78;78;
2022-11-13 01:34:25;ht;99;16.60
2022-11-13 01:34:25;v;4.18
2022-11-13 02:04:23;1;78;78;78;78;78;78;78;78;78;78;
2022-11-13 02:04:23;2;115;115;115;115;115;115;115;115;115;115;
2022-11-13 02:04:23;3;78;78;78;78;78;78;78;78;78;78;
2022-11-13 02:04:23;ht;99;17.00
2022-11-13 02:04:23;v;4.18
2022-11-13 02:34:25;1;77;77;77;77;77;77;77;77;77;77;
2022-11-13 02:34:25;2;85;85;84;84;85;85;84;84;85;84;
2022-11-13 02:34:25;3;82;82;82;82;82;82;82;82;82;82;
2022-11-13 02:34:25;ht;99;17.50
2022-11-13 02:34:25;v;4.17
2022-11-13 03:04:24;1;82;82;82;82;82;82;82;82;82;82;
2022-11-13 03:04:24;2;82;82;83;83;82;83;82;82;83;82;
2022-11-13 03:04:24;3;85;85;86;86;86;86;86;86;86;87;
2022-11-13 03:04:24;ht;99;17.80
2022-11-13 03:04:24;v;4.17
2022-11-13 03:34:22;1;80;80;80;80;80;80;80;80;80;80;
2022-11-13 03:34:22;2;74;74;75;74;75;74;75;74;74;74;
2022-11-13 03:34:22;3;79;79;79;79;79;79;79;79;79;79;
2022-11-13 03:34:22;ht;99;17.80
2022-11-13 03:34:22;v;4.17
2022-11-13 04:04:25;1;85;85;85;85;85;85;85;85;85;85;
2022-11-13 04:04:25;2;76;76;76;77;76;76;76;76;76;76;
2022-11-13 04:04:25;3;80;80;80;80;80;80;80;80;80;80;
2022-11-13 04:04:25;ht;99;17.80
2022-11-13 04:04:25;v;4.17
2022-11-13 04:34:24;1;79;79;79;79;79;79;79;79;79;79;
2022-11-13 04:34:24;2;82;82;82;82;82;82;82;82;82;82;
2022-11-13 04:34:24;3;78;78;78;78;78;78;78;78;78;78;
2022-11-13 04:34:24;ht;99;17.40
2022-11-13 04:34:24;v;4.19
2022-11-13 05:04:22;1;76;75;76;75;75;75;75;75;75;75;
2022-11-13 05:04:22;2;76;76;77;76;76;77;76;76;76;76;
2022-11-13 05:04:22;3;5;5;5;5;5;5;5;5;5;5;
2022-11-13 05:04:22;ht;99;17.70
2022-11-13 05:04:22;v;4.17
2022-11-13 05:34:25;1;85;85;85;85;85;85;85;85;85;85;
2022-11-13 05:34:25;2;80;79;80;80;79;79;80;80;79;79;
2022-11-13 05:34:25;3;91;91;91;91;91;91;91;91;91;91;
2022-11-13 05:34:25;ht;99;17.30
2022-11-13 05:34:25;v;4.17
2022-11-13 06:04:23;1;76;76;76;76;76;76;76;76;76;76;
2022-11-13 06:04:23;2;99;100;100;99;99;100;100;100;100;100;
2022-11-13 06:04:23;3;82;82;83;82;82;82;82;83;83;83;
2022-11-13 06:04:23;ht;99;17.20
2022-11-13 06:04:23;v;4.17
2022-11-13 06:34:26;1;82;82;82;82;82;82;82;82;82;82;
2022-11-13 06:34:26;2;76;76;76;76;76;76;76;76;76;76;
2022-11-13 06:34:26;3;5;5;5;6;5;5;6;5;5;5;
2022-11-13 06:34:26;ht;99;17.30
2022-11-13 06:34:26;v;4.18
2022-11-13 07:04:24;1;72;71;72;72;72;72;72;72;72;72;
2022-11-13 07:04:24;2;81;81;81;81;81;81;81;81;81;81;
2022-11-13 07:04:24;3;77;77;77;77;77;77;77;77;77;77;
2022-11-13 07:04:24;ht;99;17.10
2022-11-13 07:04:24;v;4.17
2022-11-13 07:34:22;1;76;75;75;75;75;75;75;75;75;75;
2022-11-13 07:34:22;2;74;74;74;74;74;74;74;74;74;74;
2022-11-13 07:34:22;3;79;79;79;79;79;79;79;79;79;79;
2022-11-13 07:34:22;ht;99;17.40
2022-11-13 07:34:22;v;4.17
2022-11-13 08:04:25;1;74;74;74;74;74;74;74;74;74;74;
2022-11-13 08:04:25;2;3;3;3;3;3;3;3;3;3;3;
2022-11-13 08:04:25;3;78;78;78;78;78;78;78;78;78;78;
2022-11-13 08:04:25;ht;99;17.30
2022-11-13 08:04:25;v;4.19
2022-11-13 08:34:23;1;75;75;75;75;75;75;75;75;75;75;
2022-11-13 08:34:23;2;81;81;81;81;81;81;81;81;81;81;
2022-11-13 08:34:23;3;78;78;78;78;78;78;78;78;78;78;
2022-11-13 08:34:23;ht;99;17.40
2022-11-13 08:34:23;v;4.17
2022-11-13 09:04:26;1;76;76;76;76;76;76;76;76;76;76;
2022-11-13 09:04:26;2;72;72;73;73;72;72;72;72;72;72;
2022-11-13 09:04:26;3;84;84;84;84;84;84;84;84;84;84;
2022-11-13 09:04:26;ht;99;17.50
2022-11-13 09:04:26;v;4.17
2022-11-13 09:34:24;1;69;69;69;69;69;69;69;69;69;69;
2022-11-13 09:34:24;2;108;108;108;108;108;108;108;108;108;108;
2022-11-13 09:34:24;3;8;8;8;8;8;8;8;8;8;8;
2022-11-13 09:34:24;ht;99;18.00
2022-11-13 09:34:24;v;4.18
2022-11-13 10:04:23;1;70;70;70;70;70;70;70;70;70;70;
2022-11-13 10:04:23;2;82;83;83;82;83;83;83;82;83;82;
2022-11-13 10:04:23;3;75;76;76;75;76;76;75;75;75;75;
2022-11-13 10:04:23;ht;99;17.90
2022-11-13 10:04:23;v;4.18
2022-11-13 10:34:27;1;74;74;74;74;74;74;74;74;74;74;
2022-11-13 10:34:27;2;77;77;77;77;77;77;77;77;77;77;
2022-11-13 10:34:27;3;79;79;79;79;79;79;79;79;79;79;
2022-11-13 10:34:27;ht;99;18.70
2022-11-13 10:34:27;v;4.20
2022-11-13 11:04:26;1;81;81;81;81;81;81;81;81;81;81;
2022-11-13 11:04:26;2;86;86;86;86;86;86;86;86;86;86;
2022-11-13 11:04:26;3;82;82;82;82;82;82;82;82;82;82;
2022-11-13 11:04:26;ht;99;19.20
2022-11-13 11:04:26;v;4.20
2022-11-13 11:34:26;1;66;66;66;66;66;66;66;66;67;66;
2022-11-13 11:34:26;2;75;76;75;76;75;76;76;75;76;76;
2022-11-13 11:34:26;3;72;72;72;73;72;73;72;72;72;72;
2022-11-13 11:34:26;ht;99;19.50
2022-11-13 11:34:26;v;4.19
2022-11-13 12:04:27;1;73;73;73;73;73;73;73;73;73;73;
2022-11-13 12:04:27;2;76;76;76;76;76;76;76;76;76;76;
2022-11-13 12:04:27;3;83;83;83;83;83;84;84;84;84;84;
2022-11-13 12:04:27;ht;99;20.10
2022-11-13 12:04:27;v;4.20
2022-11-13 12:34:27;1;78;78;78;78;78;78;78;78;78;78;
2022-11-13 12:34:27;2;77;77;77;77;77;77;77;77;77;77;
2022-11-13 12:34:27;3;86;86;86;86;86;86;86;86;86;86;
2022-11-13 12:34:27;ht;99;20.40
2022-11-13 12:34:27;v;4.21
2022-11-13 13:04:24;1;76;76;76;76;76;76;76;76;76;76;
2022-11-13 13:04:24;2;90;90;90;90;90;90;90;90;90;90;
2022-11-13 13:04:24;3;80;80;80;80;80;80;80;80;80;80;
2022-11-13 13:04:24;ht;99;21.60
2022-11-13 13:04:24;v;4.20
2022-11-13 13:34:27;1;71;71;71;71;71;71;71;71;71;71;
2022-11-13 13:34:27;2;79;78;79;78;79;79;79;79;79;79;
2022-11-13 13:34:27;3;75;75;75;75;75;75;75;75;75;75;
2022-11-13 13:34:27;ht;99;22.70
2022-11-13 13:34:27;v;4.21
2022-11-13 14:04:29;1;68;69;68;68;68;68;68;68;68;68;
2022-11-13 14:04:29;2;87;87;87;86;86;87;87;87;87;86;
2022-11-13 14:04:29;3;74;74;74;74;74;74;74;74;74;74;
2022-11-13 14:04:29;ht;99;22.20
2022-11-13 14:04:29;v;4.21
2022-11-13 14:34:27;1;71;71;71;71;71;71;71;71;71;71;
2022-11-13 14:34:27;2;73;74;73;74;73;73;73;73;74;74;
2022-11-13 14:34:27;3;81;81;81;81;81;81;81;81;81;81;
2022-11-13 14:34:27;ht;99;22.00
2022-11-13 14:34:27;v;4.20
2022-11-13 15:04:30;1;71;71;71;71;71;71;71;71;71;71;
2022-11-13 15:04:30;2;76;76;76;76;76;76;76;76;75;76;
2022-11-13 15:04:30;3;73;73;74;73;74;73;74;74;73;74;
2022-11-13 15:04:30;ht;99;22.00
2022-11-13 15:04:30;v;4.20
2022-11-13 15:34:27;1;77;77;77;77;77;77;77;77;77;77;
2022-11-13 15:34:27;2;84;84;83;84;84;84;84;84;84;84;
2022-11-13 15:34:27;3;76;76;76;76;76;76;76;76;76;76;
2022-11-13 15:34:27;ht;99;22.00
2022-11-13 15:34:27;v;4.21
2022-11-13 16:04:29;1;66;66;66;66;66;66;66;66;66;66;
2022-11-13 16:04:29;2;73;73;73;73;73;73;73;73;73;73;
2022-11-13 16:04:29;3;87;87;87;87;87;87;87;87;87;87;
2022-11-13 16:04:29;ht;99;22.70
2022-11-13 16:04:29;v;4.22
2022-11-13 16:34:28;1;72;72;72;72;72;72;72;72;72;72;
2022-11-13 16:34:28;2;69;68;68;68;68;68;68;68;68;68;
2022-11-13 16:34:28;3;76;76;76;77;77;77;77;78;78;78;
2022-11-13 16:34:28;ht;99;21.90
2022-11-13 16:34:28;v;4.21
2022-11-13 17:04:27;1;73;73;73;73;73;73;74;73;73;73;
2022-11-13 17:04:27;2;80;79;79;79;79;79;79;79;79;79;
2022-11-13 17:04:27;3;78;78;78;78;78;78;78;78;78;78;
2022-11-13 17:04:27;ht;99;22.40
2022-11-13 17:04:27;v;4.21
2022-11-13 17:34:29;1;78;78;78;78;78;78;78;78;78;78;
2022-11-13 17:34:29;2;83;83;83;83;83;83;83;83;83;83;
2022-11-13 17:34:29;3;73;73;73;73;72;72;72;73;73;73;
2022-11-13 17:34:29;ht;99;21.60
2022-11-13 17:34:29;v;4.20
2022-11-13 18:04:27;1;78;78;78;79;78;79;79;79;78;79;
2022-11-13 18:04:27;2;78;78;78;78;78;78;78;78;78;78;
2022-11-13 18:04:27;3;73;73;73;74;74;74;74;74;75;75;
2022-11-13 18:04:27;ht;99;21.80
2022-11-13 18:04:27;v;4.19
2022-11-13 18:34:29;1;82;82;82;82;82;82;82;82;82;82;
2022-11-13 18:34:29;2;75;75;75;75;75;75;75;75;75;75;
2022-11-13 18:34:29;3;77;77;77;77;77;77;77;77;77;77;
2022-11-13 18:34:29;ht;99;21.40
2022-11-13 18:34:29;v;4.19
2022-11-13 19:04:26;1;69;69;69;69;69;69;69;69;69;69;
2022-11-13 19:04:26;2;79;79;79;79;79;79;79;80;79;79;
2022-11-13 19:04:26;3;111;111;111;111;111;111;111;111;111;111;
2022-11-13 19:04:26;ht;99;20.80
2022-11-13 19:04:26;v;4.20
2022-11-13 19:34:27;1;79;79;79;79;79;79;79;79;79;79;
2022-11-13 19:34:27;2;74;74;74;74;74;74;74;74;74;74;
2022-11-13 19:34:27;3;83;83;83;83;83;83;83;83;83;83;
2022-11-13 19:34:27;ht;99;19.60
2022-11-13 19:34:27;v;4.20
2022-11-13 20:04:27;1;68;68;68;68;68;68;68;68;68;68;
2022-11-13 20:04:27;2;84;84;84;84;84;84;84;84;84;84;
2022-11-13 20:04:27;3;83;83;83;82;82;82;82;82;82;81;
2022-11-13 20:04:27;ht;99;18.80
2022-11-13 20:04:27;v;4.20
2022-11-13 20:34:26;1;83;83;82;83;83;83;83;83;83;83;
2022-11-13 20:34:26;2;80;80;80;80;80;81;80;81;81;81;
2022-11-13 20:34:26;3;79;79;79;79;79;79;79;79;79;79;
2022-11-13 20:34:26;ht;99;18.10
2022-11-13 20:34:26;v;4.21
2022-11-13 21:04:24;1;77;77;77;77;77;77;77;78;77;77;
2022-11-13 21:04:24;2;83;83;84;83;84;83;83;84;84;84;
2022-11-13 21:04:24;3;84;84;84;84;84;84;84;84;84;84;
2022-11-13 21:04:24;ht;99;17.60
2022-11-13 21:04:24;v;4.19
2022-11-13 21:34:22;1;78;78;78;78;78;78;79;79;78;78;
2022-11-13 21:34:22;2;83;82;82;82;83;83;82;82;82;82;
2022-11-13 21:34:22;3;83;81;81;81;82;81;81;81;81;81;
2022-11-13 21:34:22;ht;99;17.10
2022-11-13 21:34:22;v;4.20
2022-11-13 22:04:25;1;84;84;84;84;84;84;84;84;84;84;
2022-11-13 22:04:25;2;77;76;77;77;76;76;77;77;77;77;
2022-11-13 22:04:25;3;86;86;86;86;86;86;86;86;86;86;
2022-11-13 22:04:25;ht;99;16.80
2022-11-13 22:04:25;v;4.20
2022-11-13 22:34:22;1;82;82;82;82;82;82;82;82;82;82;
2022-11-13 22:34:22;2;90;89;89;90;89;89;89;90;89;89;
2022-11-13 22:34:22;3;83;83;83;83;83;83;83;83;83;82;
2022-11-13 22:34:22;ht;99;16.80
2022-11-13 22:34:22;v;4.20
2022-11-13 23:04:25;1;99;99;99;99;99;99;99;99;99;99;
2022-11-13 23:04:25;2;71;71;71;71;71;71;71;71;71;71;
2022-11-13 23:04:25;3;79;79;79;79;79;79;79;79;79;79;
2022-11-13 23:04:25;ht;99;16.20
2022-11-13 23:04:25;v;4.20
2022-11-13 23:34:22;1;80;80;80;80;80;80;80;80;80;80;
2022-11-13 23:34:22;2;80;80;80;80;80;80;80;80;80;80;
2022-11-13 23:34:22;3;79;79;79;79;78;78;78;79;79;79;
2022-11-13 23:34:22;ht;99;15.80
2022-11-13 23:34:22;v;4.19
