2023-12-13 00:04:28;1;144;144;144;144;144;144;144;144;144;144;
2023-12-13 00:04:28;2;104;104;105;104;105;104;105;105;105;104;
2023-12-13 00:04:28;3;102;102;102;103;103;102;102;103;102;103;
2023-12-13 00:04:28;ht;92;28.80
2023-12-13 00:04:28;v;4.24
2023-12-13 00:34:29;1;3;3;3;3;3;3;3;3;3;3;
2023-12-13 00:34:29;2;106;106;106;107;106;106;106;106;106;106;
2023-12-13 00:34:29;3;106;106;106;106;106;106;106;106;106;106;
2023-12-13 00:34:29;ht;91;29.10
2023-12-13 00:34:29;v;4.24
2023-12-13 01:04:30;1;119;119;119;119;119;119;119;119;119;119;
2023-12-13 01:04:30;2;2;2;3;2;3;2;2;3;2;3;
2023-12-13 01:04:30;3;99;99;99;99;99;99;99;99;99;99;
2023-12-13 01:04:30;ht;92;28.80
2023-12-13 01:04:30;v;4.24
2023-12-13 01:34:32;1;130;130;130;129;130;130;130;130;130;130;
2023-12-13 01:34:32;2;100;100;100;100;100;100;100;100;100;100;
2023-12-13 01:34:32;3;104;104;104;104;104;104;104;104;104;104;
2023-12-13 01:34:32;ht;93;28.50
2023-12-13 01:34:32;v;4.23
2023-12-13 02:04:28;1;161;161;161;161;161;161;161;161;161;161;
2023-12-13 02:04:28;2;104;104;104;105;104;104;104;104;104;104;
2023-12-13 02:04:28;3;106;106;106;106;106;106;106;106;106;106;
2023-12-13 02:04:28;ht;94;28.20
2023-12-13 02:04:28;v;4.24
2023-12-13 02:34:28;1;3;3;3;2;3;3;3;3;3;3;
2023-12-13 02:34:28;2;106;106;105;106;106;106;105;105;105;105;
2023-12-13 02:34:28;3;106;106;106;106;106;106;106;106;106;106;
2023-12-13 02:34:28;ht;95;28.20
2023-12-13 02:34:28;v;4.23
2023-12-13 03:04:29;1;161;161;161;161;161;161;161;161;161;161;
2023-12-13 03:04:29;2;105;105;105;104;104;104;104;104;104;104;
2023-12-13 03:04:29;3;102;102;102;102;102;102;102;102;102;102;
2023-12-13 03:04:29;ht;95;28.30
2023-12-13 03:04:29;v;4.24
2023-12-13 03:34:30;1;198;198;198;198;198;198;198;198;198;198;
2023-12-13 03:34:30;2;87;87;87;87;87;87;87;87;87;87;
2023-12-13 03:34:30;3;106;106;106;106;106;106;106;106;106;106;
2023-12-13 03:34:30;ht;96;28.20
2023-12-13 03:34:30;v;4.23
2023-12-13 04:04:30;1;154;154;154;154;154;154;154;154;154;154;
2023-12-13 04:04:30;2;101;102;101;102;102;102;102;102;102;102;
2023-12-13 04:04:30;3;105;105;105;105;105;105;105;105;105;105;
2023-12-13 04:04:30;ht;97;27.60
2023-12-13 04:04:30;v;4.24
2023-12-13 04:34:30;1;153;153;153;153;153;153;153;153;153;153;
2023-12-13 04:34:30;2;101;102;102;101;102;102;102;101;102;102;
2023-12-13 04:34:30;3;105;105;105;105;105;105;105;105;105;105;
2023-12-13 04:34:30;ht;97;27.40
2023-12-13 04:34:30;v;4.23
2023-12-13 05:04:30;1;3;3;3;3;3;3;3;3;3;3;
2023-12-13 05:04:30;2;89;89;89;89;89;90;89;89;89;89;
2023-12-13 05:04:30;3;116;116;116;116;116;116;116;116;116;116;
2023-12-13 05:04:30;ht;96;23.60
2023-12-13 05:04:30;v;4.24
2023-12-13 05:34:29;1;116;116;116;116;116;116;116;116;116;116;
2023-12-13 05:34:29;2;93;93;92;92;93;93;93;93;92;93;
2023-12-13 05:34:29;3;98;98;99;98;98;98;98;98;98;98;
2023-12-13 05:34:29;ht;97;21.90
2023-12-13 05:34:29;v;4.23
2023-12-13 06:04:25;1;87;88;87;87;88;88;87;87;87;87;
2023-12-13 06:04:25;2;95;95;94;95;94;94;94;94;94;95;
2023-12-13 06:04:25;3;100;100;99;99;100;99;100;100;100;100;
2023-12-13 06:04:25;ht;95;20.90
2023-12-13 06:04:25;v;4.24
2023-12-13 06:34:25;1;103;103;103;103;103;103;103;103;103;103;
2023-12-13 06:34:25;2;84;84;84;84;84;84;84;84;84;84;
2023-12-13 06:34:25;3;3;3;3;3;3;3;3;3;3;3;
2023-12-13 06:34:25;ht;86;20.50
2023-12-13 06:34:25;v;4.24
2023-12-13 07:04:24;1;120;120;120;120;120;120;120;120;120;120;
2023-12-13 07:04:24;2;102;103;103;103;102;103;103;103;102;103;
2023-12-13 07:04:24;3;78;78;78;78;78;78;78;78;78;79;
2023-12-13 07:04:24;ht;87;20.70
2023-12-13 07:04:24;v;4.24
2023-12-13 07:34:24;1;117;117;117;117;117;117;117;117;117;117;
2023-12-13 07:34:24;2;109;109;109;109;109;109;109;109;109;109;
2023-12-13 07:34:24;3;104;104;104;104;104;104;104;104;104;104;
2023-12-13 07:34:24;ht;87;20.50
2023-12-13 07:34:24;v;4.23
2023-12-13 08:04:24;1;106;106;105;106;106;106;106;105;106;106;
2023-12-13 08:04:24;2;86;86;86;86;86;86;86;86;86;86;
2023-12-13 08:04:24;3;111;111;111;111;111;110;111;111;111;111;
2023-12-13 08:04:24;ht;88;20.70
2023-12-13 08:04:24;v;4.23
2023-12-13 08:34:23;1;89;89;89;89;89;89;89;89;89;89;
2023-12-13 08:34:23;2;86;86;86;86;87;86;86;87;86;86;
2023-12-13 08:34:23;3;88;88;88;88;88;88;88;88;88;88;
2023-12-13 08:34:23;ht;87;20.90
2023-12-13 08:34:23;v;4.23
2023-12-13 09:04:23;1;2;2;3;2;2;2;2;2;2;2;
2023-12-13 09:04:23;2;93;93;93;93;93;93;93;93;93;93;
2023-12-13 09:04:23;3;107;107;107;107;107;107;107;107;107;107;
2023-12-13 09:04:23;ht;88;20.90
2023-12-13 09:04:23;v;4.23
2023-12-13 09:34:23;1;87;87;87;87;87;87;87;87;87;87;
2023-12-13 09:34:23;2;93;93;93;93;93;93;93;93;93;93;
2023-12-13 09:34:23;3;101;101;100;101;100;100;101;100;100;101;
2023-12-13 09:34:23;ht;88;20.70
2023-12-13 09:34:23;v;4.24
2023-12-13 10:04:28;1;128;128;128;128;128;128;128;128;128;128;
2023-12-13 10:04:28;2;106;106;107;106;106;106;106;106;106;106;
2023-12-13 10:04:28;3;105;104;105;105;105;105;105;105;105;105;
2023-12-13 10:04:28;ht;87;20.80
2023-12-13 10:04:28;v;4.23
2023-12-13 10:34:23;1;133;133;134;133;134;133;133;134;133;133;
2023-12-13 10:34:23;2;97;97;97;97;97;97;97;97;97;97;
2023-12-13 10:34:23;3;104;104;104;104;104;104;104;104;104;104;
2023-12-13 10:34:23;ht;88;20.70
2023-12-13 10:34:23;v;4.24
2023-12-13 11:04:27;1;96;96;96;96;96;96;96;96;96;96;
2023-12-13 11:04:27;2;100;100;100;100;100;100;100;100;100;100;
2023-12-13 11:04:27;3;103;103;103;103;103;103;103;103;103;103;
2023-12-13 11:04:27;ht;87;20.50
2023-12-13 11:04:27;v;4.23
2023-12-13 11:34:27;1;2;2;3;2;2;2;2;2;2;2;
2023-12-13 11:34:27;2;101;101;101;102;101;101;101;101;101;101;
2023-12-13 11:34:27;3;102;102;101;102;102;102;102;101;101;102;
2023-12-13 11:34:27;ht;86;20.60
2023-12-13 11:34:27;v;4.24
2023-12-13 12:04:26;1;103;103;104;103;103;103;103;103;103;103;
2023-12-13 12:04:26;2;97;97;97;97;97;97;97;97;97;97;
2023-12-13 12:04:26;3;102;102;103;102;103;103;102;103;102;103;
2023-12-13 12:04:26;ht;85;20.80
2023-12-13 12:04:26;v;4.23
2023-12-13 12:34:26;1;2;2;2;2;2;2;2;2;2;2;
2023-12-13 12:34:26;2;105;105;105;105;105;105;105;105;105;105;
2023-12-13 12:34:26;3;101;102;102;101;102;101;102;102;102;102;
2023-12-13 12:34:26;ht;84;20.80
2023-12-13 12:34:26;v;4.24
2023-12-13 13:04:27;1;137;137;136;136;137;137;137;136;137;137;
2023-12-13 13:04:27;2;93;93;93;93;93;93;93;93;93;93;
2023-12-13 13:04:27;3;106;106;107;106;107;106;107;106;106;107;
2023-12-13 13:04:27;ht;83;21.00
2023-12-13 13:04:27;v;4.23
2023-12-13 13:34:27;1;207;207;206;206;207;207;207;207;207;207;
2023-12-13 13:34:27;2;87;87;87;87;87;87;87;87;87;87;
2023-12-13 13:34:27;3;124;124;124;124;124;124;124;124;124;124;
2023-12-13 13:34:27;ht;81;21.30
2023-12-13 13:34:27;v;4.24
2023-12-13 14:04:27;1;2;2;2;2;2;3;2;3;2;2;
2023-12-13 14:04:27;2;101;101;102;101;101;101;101;101;101;101;
2023-12-13 14:04:27;3;104;104;103;104;104;104;104;104;104;104;
2023-12-13 14:04:27;ht;78;21.60
2023-12-13 14:04:27;v;4.23
2023-12-13 14:34:23;1;120;120;120;120;120;120;120;120;120;120;
2023-12-13 14:34:23;2;102;102;102;103;102;102;103;102;102;102;
2023-12-13 14:34:23;3;89;89;89;89;89;89;89;89;89;89;
2023-12-13 14:34:23;ht;76;21.20
2023-12-13 14:34:23;v;4.24
2023-12-13 15:04:24;1;122;122;122;122;122;122;122;122;122;122;
2023-12-13 15:04:24;2;85;85;85;85;85;85;85;85;85;85;
2023-12-13 15:04:24;3;124;124;124;124;124;124;124;124;124;124;
2023-12-13 15:04:24;ht;77;21.40
2023-12-13 15:04:24;v;4.23
2023-12-13 15:34:25;1;86;86;86;86;86;86;86;86;86;86;
2023-12-13 15:34:25;2;107;107;107;107;107;107;107;107;107;107;
2023-12-13 15:34:25;3;120;120;120;120;120;120;120;120;120;120;
2023-12-13 15:34:25;ht;73;21.90
2023-12-13 15:34:25;v;4.23
2023-12-13 16:04:27;1;169;169;169;169;169;169;169;169;169;169;
2023-12-13 16:04:27;2;88;88;88;88;88;88;88;88;88;88;
2023-12-13 16:04:27;3;99;99;99;99;100;99;99;99;100;100;
2023-12-13 16:04:27;ht;71;22.00
2023-12-13 16:04:27;v;4.24
2023-12-13 16:34:29;1;119;119;119;118;119;119;119;119;119;119;
2023-12-13 16:34:29;2;91;91;91;91;91;91;91;91;91;91;
2023-12-13 16:34:29;3;82;82;82;82;82;82;82;82;82;82;
2023-12-13 16:34:29;ht;74;22.30
2023-12-13 16:34:29;v;4.23
2023-12-13 17:04:26;1;117;117;117;117;117;117;117;117;117;117;
2023-12-13 17:04:26;2;93;93;93;93;93;93;93;93;93;93;
2023-12-13 17:04:26;3;93;93;93;93;93;93;93;93;93;93;
2023-12-13 17:04:26;ht;85;23.30
2023-12-13 17:04:26;v;4.24
2023-12-13 17:34:30;1;123;123;123;123;123;123;123;123;123;123;
2023-12-13 17:34:30;2;86;86;87;87;86;86;86;87;86;86;
2023-12-13 17:34:30;3;106;106;106;105;106;106;106;106;106;105;
2023-12-13 17:34:30;ht;91;23.10
2023-12-13 17:34:30;v;4.23
2023-12-13 18:04:29;1;2;2;3;2;2;3;2;3;2;2;
2023-12-13 18:04:29;2;78;79;79;79;79;79;79;79;79;79;
2023-12-13 18:04:29;3;95;96;95;96;96;95;96;96;96;96;
2023-12-13 18:04:29;ht;97;23.60
2023-12-13 18:04:29;v;4.24
2023-12-13 18:34:28;1;100;100;100;100;100;100;100;101;100;100;
2023-12-13 18:34:28;2;85;85;85;85;85;85;85;85;85;85;
2023-12-13 18:34:28;3;84;84;84;84;84;84;84;84;84;84;
2023-12-13 18:34:28;ht;97;23.80
2023-12-13 18:34:28;v;4.23
2023-12-13 19:04:28;1;94;93;93;93;93;93;93;93;93;93;
2023-12-13 19:04:28;2;83;83;83;83;83;83;83;83;83;83;
2023-12-13 19:04:28;3;84;84;84;84;84;84;84;84;84;84;
2023-12-13 19:04:28;ht;91;23.20
2023-12-13 19:04:28;v;4.24
2023-12-13 19:34:26;1;3;2;2;2;3;2;2;2;2;3;
2023-12-13 19:34:26;2;84;84;84;84;84;84;84;84;84;84;
2023-12-13 19:34:26;3;102;103;103;103;102;103;102;102;102;103;
2023-12-13 19:34:26;ht;97;23.60
2023-12-13 19:34:26;v;4.24
2023-12-13 20:04:29;1;138;138;137;138;138;138;138;138;137;138;
2023-12-13 20:04:29;2;112;112;112;112;112;112;112;112;111;112;
2023-12-13 20:04:29;3;105;105;105;105;106;105;106;105;106;106;
2023-12-13 20:04:29;ht;80;21.80
2023-12-13 20:04:29;v;4.24
2023-12-13 20:34:24;1;85;85;85;85;85;85;85;85;85;85;
2023-12-13 20:34:24;2;87;87;87;87;87;87;87;87;87;87;
2023-12-13 20:34:24;3;105;105;104;105;105;105;105;105;105;105;
2023-12-13 20:34:24;ht;75;21.00
2023-12-13 20:34:24;v;4.24
2023-12-13 21:04:24;1;115;115;115;115;115;115;115;115;115;115;
2023-12-13 21:04:24;2;91;91;91;91;91;91;91;91;91;91;
2023-12-13 21:04:24;3;107;107;107;107;107;107;107;107;107;107;
2023-12-13 21:04:24;ht;75;21.10
2023-12-13 21:04:24;v;4.24
2023-12-13 21:34:24;1;112;112;112;111;112;111;111;111;112;111;
2023-12-13 21:34:24;2;103;103;103;103;103;103;103;103;103;103;
2023-12-13 21:34:24;3;89;89;89;89;89;89;89;89;89;89;
2023-12-13 21:34:24;ht;72;21.60
2023-12-13 21:34:24;v;4.24
2023-12-13 22:04:24;1;119;119;119;119;119;119;119;119;119;119;
2023-12-13 22:04:24;2;88;88;88;88;88;88;88;88;88;88;
2023-12-13 22:04:24;3;92;92;92;93;92;92;92;92;92;92;
2023-12-13 22:04:24;ht;72;21.20
2023-12-13 22:04:24;v;4.23
2023-12-13 22:34:23;1;107;107;107;107;107;107;107;106;107;107;
2023-12-13 22:34:23;2;104;104;104;104;104;104;104;104;104;104;
2023-12-13 22:34:23;3;89;89;89;89;89;89;89;89;89;89;
2023-12-13 22:34:23;ht;74;20.50
2023-12-13 22:34:23;v;4.24
2023-12-13 23:04:27;1;120;120;120;120;120;120;120;120;120;120;
2023-12-13 23:04:27;2;88;88;88;88;88;88;88;88;88;88;
2023-12-13 23:04:27;3;92;92;92;92;92;93;92;92;92;92;
2023-12-13 23:04:27;ht;76;20.30
2023-12-13 23:04:27;v;4.23
2023-12-13 23:34:26;1;122;122;122;122;122;122;122;122;122;122;
2023-12-13 23:34:26;2;93;93;93;93;93;93;93;93;93;93;
2023-12-13 23:34:26;3;87;87;87;87;87;87;87;87;87;87;
2023-12-13 23:34:26;ht;77;20.10
2023-12-13 23:34:26;v;4.24
