2023-02-26 00:04:26;1;108;108;108;108;108;108;108;108;108;108;
2023-02-26 00:04:26;2;103;103;103;103;104;103;104;103;103;104;
2023-02-26 00:04:26;3;107;107;107;107;107;107;107;107;107;107;
2023-02-26 00:04:26;ht;99;21.60
2023-02-26 00:04:26;v;4.27
2023-02-26 00:34:27;1;108;108;108;108;108;108;108;108;108;108;
2023-02-26 00:34:27;2;104;104;104;104;104;104;104;104;104;104;
2023-02-26 00:34:27;3;108;108;108;107;108;108;108;107;107;108;
2023-02-26 00:34:27;ht;99;21.30
2023-02-26 00:34:27;v;4.26
2023-02-26 01:04:27;1;109;108;108;108;108;109;108;108;108;108;
2023-02-26 01:04:27;2;104;104;105;104;104;104;104;104;104;104;
2023-02-26 01:04:27;3;108;107;108;108;107;107;108;107;108;108;
2023-02-26 01:04:27;ht;99;21.70
2023-02-26 01:04:27;v;4.27
2023-02-26 01:34:23;1;109;109;109;109;109;109;109;109;109;109;
2023-02-26 01:34:23;2;108;108;108;108;108;108;108;107;107;108;
2023-02-26 01:34:23;3;107;107;107;107;107;107;107;108;107;107;
2023-02-26 01:34:23;ht;99;20.90
2023-02-26 01:34:23;v;4.26
2023-02-26 02:04:28;1;107;107;107;107;107;107;107;107;107;107;
2023-02-26 02:04:28;2;106;107;106;106;106;106;107;106;106;106;
2023-02-26 02:04:28;3;108;108;108;108;108;108;108;108;108;108;
2023-02-26 02:04:28;ht;99;21.10
2023-02-26 02:04:28;v;4.27
2023-02-26 02:34:24;1;107;107;107;107;107;107;107;107;107;107;
2023-02-26 02:34:24;2;107;107;107;107;107;106;106;106;106;106;
2023-02-26 02:34:24;3;107;107;108;108;107;108;107;107;108;107;
2023-02-26 02:34:24;ht;99;20.30
2023-02-26 02:34:24;v;4.26
2023-02-26 03:04:25;1;106;106;106;105;105;106;105;106;105;105;
2023-02-26 03:04:25;2;104;104;104;104;104;104;104;104;104;104;
2023-02-26 03:04:25;3;106;107;106;106;106;106;106;106;107;106;
2023-02-26 03:04:25;ht;99;20.60
2023-02-26 03:04:25;v;4.27
2023-02-26 03:34:25;1;103;103;103;103;103;103;103;103;103;104;
2023-02-26 03:34:25;2;108;108;108;107;108;108;108;107;107;107;
2023-02-26 03:34:25;3;114;114;113;114;113;113;113;113;113;112;
2023-02-26 03:34:25;ht;99;20.50
2023-02-26 03:34:25;v;4.26
2023-02-26 04:04:25;1;109;109;108;108;108;109;109;108;108;109;
2023-02-26 04:04:25;2;107;107;107;107;107;107;107;106;107;106;
2023-02-26 04:04:25;3;105;105;105;105;105;105;105;105;105;105;
2023-02-26 04:04:25;ht;99;20.30
2023-02-26 04:04:25;v;4.27
2023-02-26 04:34:25;1;105;105;104;105;105;105;105;105;105;105;
2023-02-26 04:34:25;2;108;108;108;108;108;107;108;107;107;108;
2023-02-26 04:34:25;3;106;107;106;106;106;106;106;106;106;106;
2023-02-26 04:34:25;ht;99;19.70
2023-02-26 04:34:25;v;4.26
2023-02-26 05:04:25;1;107;107;107;106;106;106;106;106;106;106;
2023-02-26 05:04:25;2;107;107;107;107;107;107;107;107;108;107;
2023-02-26 05:04:25;3;119;119;119;119;119;119;119;119;119;118;
2023-02-26 05:04:25;ht;99;19.80
2023-02-26 05:04:25;v;4.27
2023-02-26 05:34:25;1;109;109;109;109;109;109;109;108;109;108;
2023-02-26 05:34:25;2;100;100;101;101;100;101;100;101;100;100;
2023-02-26 05:34:25;3;113;114;114;113;114;113;114;113;114;114;
2023-02-26 05:34:25;ht;99;19.60
2023-02-26 05:34:25;v;4.26
2023-02-26 06:04:24;1;105;105;105;105;104;104;104;104;104;104;
2023-02-26 06:04:24;2;101;101;101;101;101;101;101;101;101;101;
2023-02-26 06:04:24;3;113;113;114;113;114;113;114;113;113;113;
2023-02-26 06:04:24;ht;99;19.70
2023-02-26 06:04:24;v;4.26
2023-02-26 06:34:24;1;105;105;105;105;105;105;105;105;105;105;
2023-02-26 06:34:24;2;100;101;101;101;101;101;101;100;101;100;
2023-02-26 06:34:24;3;97;97;97;97;97;97;97;97;97;97;
2023-02-26 06:34:24;ht;99;18.80
2023-02-26 06:34:24;v;4.26
2023-02-26 07:04:23;1;106;106;106;106;106;106;106;106;104;104;
2023-02-26 07:04:23;2;108;108;108;108;108;108;109;108;109;109;
2023-02-26 07:04:23;3;105;105;105;105;106;106;106;105;105;106;
2023-02-26 07:04:23;ht;99;18.90
2023-02-26 07:04:23;v;4.26
2023-02-26 07:34:23;1;107;107;107;107;107;107;107;107;107;107;
2023-02-26 07:34:23;2;106;106;106;106;105;106;106;105;106;106;
2023-02-26 07:34:23;3;106;106;106;106;106;106;106;106;106;106;
2023-02-26 07:34:23;ht;99;20.60
2023-02-26 07:34:23;v;4.26
2023-02-26 08:04:29;1;104;104;104;104;104;104;104;104;104;104;
2023-02-26 08:04:29;2;104;105;105;104;104;105;105;105;104;105;
2023-02-26 08:04:29;3;114;114;114;114;114;114;114;114;114;114;
2023-02-26 08:04:29;ht;99;22.50
2023-02-26 08:04:29;v;4.26
2023-02-26 08:34:28;1;106;106;106;106;106;106;106;106;106;106;
2023-02-26 08:34:28;2;105;105;105;105;105;105;105;105;105;105;
2023-02-26 08:34:28;3;115;115;115;115;114;115;115;115;115;115;
2023-02-26 08:34:28;ht;99;24.70
2023-02-26 08:34:28;v;4.26
2023-02-26 09:04:28;1;108;108;107;107;108;108;107;108;107;107;
2023-02-26 09:04:28;2;103;103;103;103;103;103;103;103;103;103;
2023-02-26 09:04:28;3;114;114;115;114;115;115;115;114;115;115;
2023-02-26 09:04:28;ht;99;25.70
2023-02-26 09:04:28;v;4.26
2023-02-26 09:34:30;1;105;105;105;105;105;105;105;105;105;105;
2023-02-26 09:34:30;2;105;104;105;105;105;104;105;104;105;104;
2023-02-26 09:34:30;3;103;104;103;104;103;103;103;103;103;103;
2023-02-26 09:34:30;ht;99;27.60
2023-02-26 09:34:30;v;4.26
2023-02-26 10:04:33;1;102;102;102;102;102;102;101;101;101;101;
2023-02-26 10:04:33;2;99;99;99;99;99;99;99;99;99;99;
2023-02-26 10:04:33;3;97;97;97;97;97;97;97;97;97;97;
2023-02-26 10:04:33;ht;99;29.10
2023-02-26 10:04:33;v;4.26
2023-02-26 10:34:32;1;107;107;107;107;107;107;106;106;106;106;
2023-02-26 10:34:32;2;100;100;100;100;100;100;100;101;101;101;
2023-02-26 10:34:32;3;102;102;102;102;102;102;102;102;102;102;
2023-02-26 10:34:32;ht;99;29.70
2023-02-26 10:34:32;v;4.26
2023-02-26 11:04:32;1;100;100;100;100;100;101;101;101;101;101;
2023-02-26 11:04:32;2;98;98;98;98;98;98;98;98;98;98;
2023-02-26 11:04:32;3;103;103;103;103;103;103;103;103;103;103;
2023-02-26 11:04:32;ht;99;29.60
2023-02-26 11:04:32;v;4.26
2023-02-26 11:34:33;1;103;103;103;103;103;103;103;103;103;103;
2023-02-26 11:34:33;2;98;98;98;97;98;97;98;98;97;97;
2023-02-26 11:34:33;3;102;102;102;102;102;102;102;102;103;102;
2023-02-26 11:34:33;ht;99;31.10
2023-02-26 11:34:33;v;4.26
2023-02-26 12:04:35;1;102;102;102;102;101;101;101;101;101;101;
2023-02-26 12:04:35;2;104;104;104;104;104;104;103;103;103;103;
2023-02-26 12:04:35;3;102;102;102;102;102;102;102;102;102;102;
2023-02-26 12:04:35;ht;99;30.60
2023-02-26 12:04:35;v;4.26
2023-02-26 12:34:37;1;106;106;106;106;106;106;106;105;105;106;
2023-02-26 12:34:37;2;106;106;106;106;106;106;105;105;105;105;
2023-02-26 12:34:37;3;102;102;102;102;102;103;102;103;102;102;
2023-02-26 12:34:37;ht;99;31.30
2023-02-26 12:34:37;v;4.26
2023-02-26 13:04:33;1;94;94;94;94;94;94;94;94;93;94;
2023-02-26 13:04:33;2;105;105;105;105;105;105;105;105;105;105;
2023-02-26 13:04:33;3;95;94;94;94;94;94;94;94;95;94;
2023-02-26 13:04:33;ht;99;31.20
2023-02-26 13:04:33;v;4.26
2023-02-26 13:34:35;1;113;112;112;112;111;111;111;111;110;110;
2023-02-26 13:34:35;2;101;100;100;100;100;100;100;99;99;99;
2023-02-26 13:34:35;3;101;101;101;100;101;101;101;101;101;101;
2023-02-26 13:34:35;ht;97;32.60
2023-02-26 13:34:35;v;4.26
2023-02-26 14:04:38;1;100;100;100;100;100;100;100;100;100;100;
2023-02-26 14:04:38;2;106;106;106;106;106;106;106;106;106;106;
2023-02-26 14:04:38;3;106;106;106;106;105;106;106;106;105;105;
2023-02-26 14:04:38;ht;91;33.30
2023-02-26 14:04:38;v;4.26
2023-02-26 14:34:38;1;99;99;99;99;99;99;99;99;99;99;
2023-02-26 14:34:38;2;106;106;106;106;106;106;106;106;106;106;
2023-02-26 14:34:38;3;106;106;106;106;106;106;106;106;106;106;
2023-02-26 14:34:38;ht;88;34.10
2023-02-26 14:34:38;v;4.26
2023-02-26 15:04:38;1;100;99;100;100;100;100;100;100;100;101;
2023-02-26 15:04:38;2;104;104;104;104;104;104;104;104;104;104;
2023-02-26 15:04:38;3;106;105;106;106;106;106;105;106;106;106;
2023-02-26 15:04:38;ht;81;34.20
2023-02-26 15:04:38;v;4.26
2023-02-26 15:34:39;1;112;112;112;112;112;112;111;112;111;111;
2023-02-26 15:34:39;2;99;99;99;99;99;98;98;98;98;98;
2023-02-26 15:34:39;3;114;114;114;113;114;114;114;114;114;114;
2023-02-26 15:34:39;ht;78;35.00
2023-02-26 15:34:39;v;4.26
2023-02-26 16:04:40;1;97;97;97;97;97;97;97;97;96;97;
2023-02-26 16:04:40;2;101;101;101;101;101;100;100;100;100;100;
2023-02-26 16:04:40;3;114;114;114;114;114;114;114;114;114;114;
2023-02-26 16:04:40;ht;72;33.60
2023-02-26 16:04:40;v;4.26
2023-02-26 16:34:35;1;99;100;99;99;100;99;99;99;99;99;
2023-02-26 16:34:35;2;106;106;106;106;106;106;106;106;106;105;
2023-02-26 16:34:35;3;114;114;114;114;115;114;114;114;114;114;
2023-02-26 16:34:35;ht;63;34.90
2023-02-26 16:34:35;v;4.26
2023-02-26 17:04:36;1;100;100;100;99;99;99;99;99;99;99;
2023-02-26 17:04:36;2;105;105;105;105;105;105;105;105;105;105;
2023-02-26 17:04:36;3;116;116;116;116;116;116;116;116;116;116;
2023-02-26 17:04:36;ht;63;34.60
2023-02-26 17:04:36;v;4.26
2023-02-26 17:34:36;1;106;106;106;105;106;106;106;106;106;106;
2023-02-26 17:34:36;2;105;105;105;105;105;105;105;105;105;105;
2023-02-26 17:34:36;3;118;118;118;118;118;118;118;118;118;118;
2023-02-26 17:34:36;ht;65;33.30
2023-02-26 17:34:36;v;4.26
2023-02-26 18:04:34;1;105;105;105;105;105;105;105;105;105;105;
2023-02-26 18:04:34;2;104;104;104;104;104;104;104;104;104;104;
2023-02-26 18:04:34;3;118;118;118;118;118;118;118;118;118;118;
2023-02-26 18:04:34;ht;62;33.70
2023-02-26 18:04:34;v;4.27
2023-02-26 18:34:38;1;106;106;106;106;106;106;106;106;106;106;
2023-02-26 18:34:38;2;103;103;102;103;102;103;103;103;103;103;
2023-02-26 18:34:38;3;98;98;98;98;98;98;98;98;98;98;
2023-02-26 18:34:38;ht;72;31.80
2023-02-26 18:34:38;v;4.27
2023-02-26 19:04:34;1;107;107;107;107;107;107;107;107;107;106;
2023-02-26 19:04:34;2;106;106;106;106;106;105;106;106;106;105;
2023-02-26 19:04:34;3;92;92;92;92;92;92;92;92;92;92;
2023-02-26 19:04:34;ht;76;30.70
2023-02-26 19:04:34;v;4.27
2023-02-26 19:34:34;1;103;103;103;103;103;103;103;103;103;103;
2023-02-26 19:34:34;2;105;105;105;105;105;105;105;105;105;105;
2023-02-26 19:34:34;3;171;171;172;172;173;173;174;174;175;175;
2023-02-26 19:34:34;ht;90;28.30
2023-02-26 19:34:34;v;4.27
2023-02-26 20:04:31;1;101;101;101;101;101;101;101;101;101;101;
2023-02-26 20:04:31;2;104;105;105;104;104;104;104;104;104;104;
2023-02-26 20:04:31;3;112;112;112;112;112;112;112;112;112;112;
2023-02-26 20:04:31;ht;95;26.50
2023-02-26 20:04:31;v;4.27
2023-02-26 20:34:27;1;105;105;104;105;105;104;104;104;105;104;
2023-02-26 20:34:27;2;103;103;103;103;103;103;103;103;103;102;
2023-02-26 20:34:27;3;110;110;110;110;110;110;110;110;110;110;
2023-02-26 20:34:27;ht;98;25.50
2023-02-26 20:34:27;v;4.27
2023-02-26 21:04:30;1;108;108;108;108;108;108;108;108;108;108;
2023-02-26 21:04:30;2;108;108;108;108;108;108;108;108;108;108;
2023-02-26 21:04:30;3;117;117;117;117;117;117;117;117;117;117;
2023-02-26 21:04:30;ht;99;24.70
2023-02-26 21:04:30;v;4.27
2023-02-26 21:34:29;1;104;104;104;104;104;104;104;104;104;104;
2023-02-26 21:34:29;2;106;105;105;105;105;106;105;105;105;105;
2023-02-26 21:34:29;3;118;118;118;118;118;118;118;118;118;118;
2023-02-26 21:34:29;ht;99;24.00
2023-02-26 21:34:29;v;4.27
2023-02-26 22:04:27;1;106;106;106;106;106;106;105;105;106;106;
2023-02-26 22:04:27;2;108;108;108;108;108;108;108;107;108;107;
2023-02-26 22:04:27;3;114;114;114;114;113;114;114;114;114;114;
2023-02-26 22:04:27;ht;99;23.50
2023-02-26 22:04:27;v;4.27
2023-02-26 22:34:29;1;105;105;105;105;105;105;104;105;104;105;
2023-02-26 22:34:29;2;105;106;105;106;106;105;105;106;106;105;
2023-02-26 22:34:29;3;97;97;97;97;97;97;97;97;97;97;
2023-02-26 22:34:29;ht;99;23.80
2023-02-26 22:34:29;v;4.27
2023-02-26 23:04:27;1;104;104;105;105;105;105;105;105;105;105;
2023-02-26 23:04:27;2;106;106;106;105;105;106;105;105;105;105;
2023-02-26 23:04:27;3;107;108;108;107;108;108;108;107;108;107;
2023-02-26 23:04:27;ht;99;23.30
2023-02-26 23:04:27;v;4.27
2023-02-26 23:34:29;1;109;109;109;109;109;108;108;108;108;108;
2023-02-26 23:34:29;2;106;107;106;107;106;106;106;106;106;106;
2023-02-26 23:34:29;3;112;112;112;112;112;112;112;112;112;112;
2023-02-26 23:34:29;ht;99;21.40
2023-02-26 23:34:29;v;4.27
