2023-01-20 00:04:32;1;103;102;102;102;102;102;101;102;103;102;
2023-01-20 00:04:32;2;102;101;101;101;101;101;101;101;101;101;
2023-01-20 00:04:32;3;153;155;153;153;154;153;153;154;154;154;
2023-01-20 00:04:32;ht;0;nan
2023-01-20 00:04:32;v;3.74
2023-01-20 00:34:29;1;105;105;105;105;105;105;105;105;105;106;
2023-01-20 00:34:29;2;119;119;119;119;119;119;119;118;119;119;
2023-01-20 00:34:29;3;201;200;200;200;200;200;200;200;200;200;
2023-01-20 00:34:29;ht;0;nan
2023-01-20 00:34:29;v;3.74
2023-01-20 01:04:30;1;108;108;108;108;107;108;108;108;108;108;
2023-01-20 01:04:30;2;3;3;3;3;3;3;3;3;3;2;
2023-01-20 01:04:30;3;231;232;233;233;234;235;236;236;237;238;
2023-01-20 01:04:30;ht;0;nan
2023-01-20 01:04:30;v;3.74
2023-01-20 01:34:31;1;103;103;103;103;103;103;103;103;103;103;
2023-01-20 01:34:31;2;133;133;133;132;133;133;133;133;133;133;
2023-01-20 01:34:31;3;125;125;124;125;125;125;125;124;124;124;
2023-01-20 01:34:31;ht;0;nan
2023-01-20 01:34:31;v;3.74
2023-01-20 02:04:26;1;108;108;109;108;108;108;108;108;108;108;
2023-01-20 02:04:26;2;120;120;120;121;121;121;120;121;120;121;
2023-01-20 02:04:26;3;127;128;128;128;127;127;127;127;128;129;
2023-01-20 02:04:26;ht;0;nan
2023-01-20 02:04:26;v;3.74
2023-01-20 02:34:30;1;106;105;106;106;106;106;106;105;105;105;
2023-01-20 02:34:30;2;100;99;100;100;100;99;100;100;100;100;
2023-01-20 02:34:30;3;198;199;200;201;201;203;203;204;205;206;
2023-01-20 02:34:30;ht;0;nan
2023-01-20 02:34:30;v;3.74
2023-01-20 03:04:29;1;104;104;104;104;103;103;104;104;104;103;
2023-01-20 03:04:29;2;113;113;113;114;113;113;113;113;113;114;
2023-01-20 03:04:29;3;113;113;114;113;113;113;113;113;113;114;
2023-01-20 03:04:29;ht;0;nan
2023-01-20 03:04:29;v;3.74
2023-01-20 03:34:28;1;99;99;98;98;98;98;99;98;99;99;
2023-01-20 03:34:28;2;86;87;86;86;86;86;87;87;86;87;
2023-01-20 03:34:28;3;101;102;102;102;102;103;102;101;101;102;
2023-01-20 03:34:28;ht;0;nan
2023-01-20 03:34:28;v;3.74
2023-01-20 04:04:27;1;95;95;95;95;95;95;95;96;95;95;
2023-01-20 04:04:27;2;92;92;92;92;92;91;91;91;91;91;
2023-01-20 04:04:27;3;106;107;106;107;106;106;106;106;106;106;
2023-01-20 04:04:27;ht;0;nan
2023-01-20 04:04:27;v;3.74
2023-01-20 04:34:30;1;79;78;78;78;78;78;78;78;78;78;
2023-01-20 04:34:30;2;140;140;140;140;140;140;140;140;140;140;
2023-01-20 04:34:30;3;107;106;107;107;106;107;106;106;107;106;
2023-01-20 04:34:30;ht;0;nan
2023-01-20 04:34:30;v;3.74
2023-01-20 05:04:28;1;96;96;96;96;96;96;96;96;96;96;
2023-01-20 05:04:28;2;115;114;115;115;115;114;115;115;114;115;
2023-01-20 05:04:28;3;100;100;100;100;101;100;100;100;101;100;
2023-01-20 05:04:28;ht;0;nan
2023-01-20 05:04:28;v;3.74
2023-01-20 05:34:26;1;93;93;93;93;93;93;94;93;93;94;
2023-01-20 05:34:26;2;112;113;113;113;113;113;113;113;113;113;
2023-01-20 05:34:26;3;3;2;3;3;3;3;3;2;3;3;
2023-01-20 05:34:26;ht;0;nan
2023-01-20 05:34:26;v;3.74
2023-01-20 06:04:29;1;91;91;91;91;90;90;91;91;90;90;
2023-01-20 06:04:29;2;87;87;86;86;86;86;86;86;86;87;
2023-01-20 06:04:29;3;91;91;91;91;91;90;90;90;90;90;
2023-01-20 06:04:29;ht;0;nan
2023-01-20 06:04:29;v;3.74
2023-01-20 06:34:27;1;91;92;92;92;91;92;91;91;92;91;
2023-01-20 06:34:27;2;3;3;2;3;3;3;3;3;3;3;
2023-01-20 06:34:27;3;3;3;2;3;3;3;3;3;4;4;
2023-01-20 06:34:27;ht;0;nan
2023-01-20 06:34:27;v;3.74
2023-01-20 07:04:30;1;92;91;91;91;92;92;91;92;91;91;
2023-01-20 07:04:30;2;3;3;3;3;3;3;3;3;2;3;
2023-01-20 07:04:30;3;3;5;6;8;10;13;17;21;24;27;
2023-01-20 07:04:30;ht;0;nan
2023-01-20 07:04:30;v;3.74
2023-01-20 07:34:30;1;90;90;90;90;91;90;90;90;90;90;
2023-01-20 07:34:30;2;121;122;121;121;122;121;122;121;121;121;
2023-01-20 07:34:30;3;94;93;93;93;93;93;93;93;93;93;
2023-01-20 07:34:30;ht;0;nan
2023-01-20 07:34:30;v;3.74
2023-01-20 08:04:31;1;95;95;95;95;95;95;95;95;95;94;
2023-01-20 08:04:31;2;117;117;117;117;117;117;117;117;117;117;
2023-01-20 08:04:31;3;3;3;3;3;3;3;3;3;3;3;
2023-01-20 08:04:31;ht;0;nan
2023-01-20 08:04:31;v;3.74
2023-01-20 08:34:30;1;98;98;99;98;98;98;98;99;98;98;
2023-01-20 08:34:30;2;90;89;90;90;90;89;90;90;90;89;
2023-01-20 08:34:30;3;2;3;2;2;3;3;2;2;3;3;
2023-01-20 08:34:30;ht;0;nan
2023-01-20 08:34:30;v;3.73
2023-01-20 09:04:35;1;104;104;104;104;104;104;104;104;104;104;
2023-01-20 09:04:35;2;120;119;120;120;120;120;120;120;119;120;
2023-01-20 09:04:35;3;119;119;118;118;118;119;118;118;119;118;
2023-01-20 09:04:35;ht;0;nan
2023-01-20 09:04:35;v;3.73
2023-01-20 09:34:36;1;102;102;102;102;102;102;102;102;102;102;
2023-01-20 09:34:36;2;92;92;92;92;91;91;92;91;91;91;
2023-01-20 09:34:36;3;3;3;3;3;2;3;3;3;2;3;
2023-01-20 09:34:36;ht;0;nan
2023-01-20 09:34:36;v;3.73
2023-01-20 10:04:35;1;105;105;105;105;104;105;105;104;105;104;
2023-01-20 10:04:35;2;3;3;3;3;3;3;3;3;3;3;
2023-01-20 10:04:35;3;103;104;104;103;103;103;103;103;104;103;
2023-01-20 10:04:35;ht;0;nan
2023-01-20 10:04:35;v;3.73
2023-01-20 10:34:39;1;3;3;3;3;3;3;3;2;3;2;
2023-01-20 10:34:39;2;2;3;3;3;3;3;3;3;3;3;
2023-01-20 10:34:39;3;155;155;155;155;155;154;155;155;155;155;
2023-01-20 10:34:39;ht;0;nan
2023-01-20 10:34:39;v;3.73
2023-01-20 11:04:39;1;103;104;104;103;103;103;103;103;103;103;
2023-01-20 11:04:39;2;104;104;104;104;104;104;104;105;104;105;
2023-01-20 11:04:39;3;113;113;113;113;113;113;113;113;113;113;
2023-01-20 11:04:39;ht;0;nan
2023-01-20 11:04:39;v;3.73
2023-01-20 11:34:36;1;104;103;104;104;103;104;104;104;104;103;
2023-01-20 11:34:36;2;3;2;3;3;3;3;3;3;3;3;
2023-01-20 11:34:36;3;102;103;103;102;103;102;103;102;104;103;
2023-01-20 11:34:36;ht;0;nan
2023-01-20 11:34:36;v;3.73
2023-01-20 12:04:39;1;103;103;103;103;103;104;104;103;103;103;
2023-01-20 12:04:39;2;103;102;103;102;102;102;103;103;102;102;
2023-01-20 12:04:39;3;100;99;99;99;99;99;100;99;99;99;
2023-01-20 12:04:39;ht;0;nan
2023-01-20 12:04:39;v;3.73
2023-01-20 12:34:42;1;105;105;105;105;105;106;104;105;104;105;
2023-01-20 12:34:42;2;2;3;3;2;3;3;3;3;3;3;
2023-01-20 12:34:42;3;102;103;102;103;103;103;102;102;103;102;
2023-01-20 12:34:42;ht;0;nan
2023-01-20 12:34:42;v;3.73
2023-01-20 13:04:41;1;104;104;105;103;104;104;103;104;104;103;
2023-01-20 13:04:41;2;128;128;128;128;129;129;128;128;128;129;
2023-01-20 13:04:41;3;132;133;132;132;132;132;132;133;132;133;
2023-01-20 13:04:41;ht;0;nan
2023-01-20 13:04:41;v;3.73
2023-01-20 13:34:41;1;115;115;115;115;115;114;115;114;114;115;
2023-01-20 13:34:41;2;103;102;102;102;103;102;103;103;102;102;
2023-01-20 13:34:41;3;3;3;3;3;2;3;3;3;3;3;
2023-01-20 13:34:41;ht;0;nan
2023-01-20 13:34:41;v;3.73
2023-01-20 14:04:41;1;103;103;104;104;104;104;104;104;104;103;
2023-01-20 14:04:41;2;3;3;3;3;3;3;3;3;3;3;
2023-01-20 14:04:41;3;102;102;102;103;103;102;102;102;102;103;
2023-01-20 14:04:41;ht;0;nan
2023-01-20 14:04:41;v;3.73
2023-01-20 14:34:42;1;103;103;103;103;103;103;103;103;103;103;
2023-01-20 14:34:42;2;119;119;119;119;119;118;119;119;119;119;
2023-01-20 14:34:42;3;101;100;101;100;101;100;100;100;100;100;
2023-01-20 14:34:42;ht;0;nan
2023-01-20 14:34:42;v;3.73
2023-01-20 15:04:44;1;104;104;104;104;104;104;104;104;104;104;
2023-01-20 15:04:44;2;95;95;94;95;95;95;94;94;94;95;
2023-01-20 15:04:44;3;3;4;3;3;3;3;3;3;3;3;
2023-01-20 15:04:44;ht;0;nan
2023-01-20 15:04:44;v;3.72
2023-01-20 15:34:41;1;105;105;105;105;105;104;105;105;105;105;
2023-01-20 15:34:41;2;104;104;104;104;104;104;104;104;104;104;
2023-01-20 15:34:41;3;103;102;102;103;102;102;102;102;102;103;
2023-01-20 15:34:41;ht;0;nan
2023-01-20 15:34:41;v;3.72
2023-01-20 16:04:44;1;104;104;104;104;104;104;104;104;104;104;
2023-01-20 16:04:44;2;102;103;102;103;102;103;103;103;102;102;
2023-01-20 16:04:44;3;101;101;101;101;100;101;102;101;101;101;
2023-01-20 16:04:44;ht;0;nan
2023-01-20 16:04:44;v;3.73
2023-01-20 16:34:42;1;104;104;103;104;103;104;104;103;104;103;
2023-01-20 16:34:42;2;2;3;3;3;3;3;3;3;3;3;
2023-01-20 16:34:42;3;162;162;162;162;162;162;162;162;162;162;
2023-01-20 16:34:42;ht;0;nan
2023-01-20 16:34:42;v;3.72
2023-01-20 17:04:43;1;104;104;104;104;103;104;104;104;103;104;
2023-01-20 17:04:43;2;116;116;116;116;115;116;116;116;116;116;
2023-01-20 17:04:43;3;118;118;117;117;118;118;118;118;118;118;
2023-01-20 17:04:43;ht;0;nan
2023-01-20 17:04:43;v;3.72
2023-01-20 17:34:40;1;104;104;104;104;104;104;104;103;104;103;
2023-01-20 17:34:40;2;104;104;104;104;104;104;104;104;103;104;
2023-01-20 17:34:40;3;146;146;146;146;145;146;146;146;146;145;
2023-01-20 17:34:40;ht;0;nan
2023-01-20 17:34:40;v;3.73
2023-01-20 18:04:39;1;104;104;103;104;104;104;104;104;104;104;
2023-01-20 18:04:39;2;102;102;102;102;102;101;102;102;101;101;
2023-01-20 18:04:39;3;145;144;144;144;144;144;144;144;144;144;
2023-01-20 18:04:39;ht;0;nan
2023-01-20 18:04:39;v;3.72
2023-01-20 18:34:38;1;103;103;102;103;103;103;103;103;102;103;
2023-01-20 18:34:38;2;113;113;113;112;111;111;111;110;110;110;
2023-01-20 18:34:38;3;3;3;3;2;2;2;3;3;2;3;
2023-01-20 18:34:38;ht;0;nan
2023-01-20 18:34:38;v;3.73
2023-01-20 19:04:39;1;101;102;102;102;101;102;102;102;102;102;
2023-01-20 19:04:39;2;3;3;3;3;3;3;3;3;3;3;
2023-01-20 19:04:39;3;115;115;114;114;114;114;114;115;114;114;
2023-01-20 19:04:39;ht;0;nan
2023-01-20 19:04:39;v;3.72
2023-01-20 19:34:35;1;105;105;104;105;104;105;105;105;105;104;
2023-01-20 19:34:35;2;3;3;3;3;2;3;3;3;3;3;
2023-01-20 19:34:35;3;115;115;115;115;115;115;116;115;115;115;
2023-01-20 19:34:35;ht;0;nan
2023-01-20 19:34:35;v;3.73
2023-01-20 20:04:34;1;104;104;103;103;104;103;103;103;103;103;
2023-01-20 20:04:34;2;101;101;101;100;100;100;100;101;101;101;
2023-01-20 20:04:34;3;115;116;116;116;116;116;115;115;116;116;
2023-01-20 20:04:34;ht;0;nan
2023-01-20 20:04:34;v;3.73
2023-01-20 20:34:36;1;104;104;104;104;104;103;104;104;104;103;
2023-01-20 20:34:36;2;3;2;3;3;2;3;3;2;3;3;
2023-01-20 20:34:36;3;3;3;3;2;3;3;3;2;3;3;
2023-01-20 20:34:36;ht;0;nan
2023-01-20 20:34:36;v;3.73
2023-01-20 21:04:30;1;104;104;103;104;104;103;104;103;104;103;
2023-01-20 21:04:30;2;3;3;3;3;4;3;3;3;3;3;
2023-01-20 21:04:30;3;99;99;99;99;99;99;99;99;99;99;
2023-01-20 21:04:30;ht;0;nan
2023-01-20 21:04:30;v;3.73
2023-01-20 21:34:32;1;100;100;100;101;101;100;101;101;100;101;
2023-01-20 21:34:32;2;3;3;3;3;3;3;3;2;3;3;
2023-01-20 21:34:32;3;3;3;3;3;3;3;3;3;2;3;
2023-01-20 21:34:32;ht;0;nan
2023-01-20 21:34:32;v;3.73
2023-01-20 22:04:30;1;106;106;106;106;106;106;106;106;106;107;
2023-01-20 22:04:30;2;3;3;3;3;3;3;3;3;4;3;
2023-01-20 22:04:30;3;3;3;3;3;3;3;3;3;2;3;
2023-01-20 22:04:30;ht;0;nan
2023-01-20 22:04:30;v;3.73
2023-01-20 22:34:30;1;107;107;108;108;107;107;108;108;108;107;
2023-01-20 22:34:30;2;123;123;123;123;123;123;123;123;123;123;
2023-01-20 22:34:30;3;111;111;112;111;111;112;111;111;111;111;
2023-01-20 22:34:30;ht;0;nan
2023-01-20 22:34:30;v;3.73
2023-01-20 23:04:30;1;108;107;107;107;107;107;107;107;107;107;
2023-01-20 23:04:30;2;96;96;96;96;97;96;96;97;96;96;
2023-01-20 23:04:30;3;109;109;109;109;109;108;108;109;109;109;
2023-01-20 23:04:30;ht;0;nan
2023-01-20 23:04:30;v;3.73
2023-01-20 23:34:30;1;106;106;106;107;106;106;106;106;106;106;
2023-01-20 23:34:30;2;3;3;3;3;3;3;3;3;3;3;
2023-01-20 23:34:30;3;113;113;114;112;112;112;112;112;112;112;
2023-01-20 23:34:30;ht;0;nan
2023-01-20 23:34:30;v;3.73
