2023-06-03 00:04:22;1;105;105;105;105;105;106;105;105;105;106;
2023-06-03 00:04:22;2;112;112;112;112;112;112;112;111;112;112;
2023-06-03 00:04:22;3;107;106;107;107;106;106;106;107;106;107;
2023-06-03 00:04:22;ht;99;19.20
2023-06-03 00:04:22;v;4.25
2023-06-03 00:34:24;1;107;108;108;108;107;108;108;108;108;108;
2023-06-03 00:34:24;2;118;118;118;118;118;118;118;118;118;118;
2023-06-03 00:34:24;3;108;108;108;108;108;108;108;108;108;108;
2023-06-03 00:34:24;ht;99;19.10
2023-06-03 00:34:24;v;4.25
2023-06-03 01:04:21;1;108;108;107;108;108;108;108;108;108;108;
2023-06-03 01:04:21;2;113;113;114;113;114;114;114;113;114;114;
2023-06-03 01:04:21;3;108;107;108;107;108;107;108;107;107;108;
2023-06-03 01:04:21;ht;99;18.60
2023-06-03 01:04:21;v;4.25
2023-06-03 01:34:23;1;106;107;106;106;106;106;106;106;106;106;
2023-06-03 01:34:23;2;117;117;117;117;117;117;117;117;117;117;
2023-06-03 01:34:23;3;108;108;108;108;108;108;108;108;108;108;
2023-06-03 01:34:23;ht;99;18.90
2023-06-03 01:34:23;v;4.24
2023-06-03 02:04:25;1;106;106;106;107;106;106;106;106;106;106;
2023-06-03 02:04:25;2;116;115;116;116;115;116;116;116;115;115;
2023-06-03 02:04:25;3;108;107;108;108;107;108;108;107;108;107;
2023-06-03 02:04:25;ht;99;18.00
2023-06-03 02:04:25;v;4.25
2023-06-03 02:34:21;1;108;108;108;108;108;108;107;108;108;108;
2023-06-03 02:34:21;2;117;117;117;117;117;117;117;117;117;117;
2023-06-03 02:34:21;3;108;108;108;108;108;108;108;108;107;108;
2023-06-03 02:34:21;ht;99;17.40
2023-06-03 02:34:21;v;4.25
2023-06-03 03:04:22;1;103;102;103;102;102;102;103;103;103;103;
2023-06-03 03:04:22;2;117;117;117;117;117;117;117;117;117;117;
2023-06-03 03:04:22;3;107;107;108;107;107;108;108;107;107;107;
2023-06-03 03:04:22;ht;99;16.70
2023-06-03 03:04:22;v;4.25
2023-06-03 03:34:22;1;107;107;107;107;107;107;107;107;107;107;
2023-06-03 03:34:22;2;92;92;92;92;93;92;93;92;92;93;
2023-06-03 03:34:22;3;108;108;108;108;108;108;108;108;108;108;
2023-06-03 03:34:22;ht;99;17.30
2023-06-03 03:34:22;v;4.25
2023-06-03 04:04:23;1;108;108;108;108;108;108;108;108;108;107;
2023-06-03 04:04:23;2;92;92;92;91;91;92;91;92;91;91;
2023-06-03 04:04:23;3;108;107;108;108;108;107;108;108;108;107;
2023-06-03 04:04:23;ht;99;16.40
2023-06-03 04:04:23;v;4.25
2023-06-03 04:34:23;1;105;105;105;105;105;105;105;104;104;105;
2023-06-03 04:34:23;2;93;93;93;93;93;93;93;93;93;93;
2023-06-03 04:34:23;3;105;105;105;105;105;105;105;105;105;105;
2023-06-03 04:34:23;ht;99;16.10
2023-06-03 04:34:23;v;4.24
2023-06-03 05:04:22;1;106;106;106;106;105;106;106;105;106;106;
2023-06-03 05:04:22;2;129;129;129;129;130;129;130;130;131;131;
2023-06-03 05:04:22;3;102;101;101;102;101;102;102;101;102;101;
2023-06-03 05:04:22;ht;99;15.70
2023-06-03 05:04:22;v;4.25
2023-06-03 05:34:22;1;109;109;109;109;109;109;109;109;109;109;
2023-06-03 05:34:22;2;116;116;116;116;116;116;116;116;116;116;
2023-06-03 05:34:22;3;96;95;96;96;96;95;96;96;96;96;
2023-06-03 05:34:22;ht;99;14.70
2023-06-03 05:34:22;v;4.24
2023-06-03 06:04:21;1;110;110;110;110;110;110;110;110;109;110;
2023-06-03 06:04:21;2;94;94;94;94;94;94;93;94;94;94;
2023-06-03 06:04:21;3;3;3;3;3;3;3;3;3;3;3;
2023-06-03 06:04:21;ht;99;14.60
2023-06-03 06:04:21;v;4.24
2023-06-03 06:34:20;1;110;110;110;110;111;110;110;110;110;110;
2023-06-03 06:34:20;2;114;114;114;114;114;114;114;114;114;114;
2023-06-03 06:34:20;3;96;95;95;95;95;96;96;95;96;95;
2023-06-03 06:34:20;ht;99;15.20
2023-06-03 06:34:20;v;4.24
2023-06-03 07:04:19;1;109;109;109;109;109;109;109;109;109;109;
2023-06-03 07:04:19;2;116;116;116;116;116;117;117;116;116;116;
2023-06-03 07:04:19;3;98;98;98;98;98;98;98;98;98;97;
2023-06-03 07:04:19;ht;99;14.60
2023-06-03 07:04:19;v;4.24
2023-06-03 07:34:22;1;104;104;104;104;104;104;103;105;104;104;
2023-06-03 07:34:22;2;88;87;87;87;87;88;88;87;87;88;
2023-06-03 07:34:22;3;98;98;97;97;98;97;98;97;97;97;
2023-06-03 07:34:22;ht;99;13.90
2023-06-03 07:34:22;v;4.24
2023-06-03 08:04:21;1;106;106;106;106;106;106;106;106;106;106;
2023-06-03 08:04:21;2;104;104;104;104;104;104;104;104;104;104;
2023-06-03 08:04:21;3;98;99;99;98;98;98;98;98;98;98;
2023-06-03 08:04:21;ht;99;13.80
2023-06-03 08:04:21;v;4.24
2023-06-03 08:34:19;1;110;110;109;109;110;109;110;110;109;110;
2023-06-03 08:34:19;2;94;94;94;94;94;94;93;93;93;93;
2023-06-03 08:34:19;3;92;92;93;92;92;92;93;93;92;92;
2023-06-03 08:34:19;ht;99;15.10
2023-06-03 08:34:19;v;4.24
2023-06-03 09:04:19;1;102;102;102;102;102;102;102;101;102;102;
2023-06-03 09:04:19;2;110;110;110;110;110;110;110;110;109;110;
2023-06-03 09:04:19;3;93;94;94;93;93;93;93;93;93;93;
2023-06-03 09:04:19;ht;99;16.60
2023-06-03 09:04:19;v;4.24
2023-06-03 09:34:24;1;108;108;108;108;108;108;108;108;108;108;
2023-06-03 09:34:24;2;98;98;98;98;98;98;99;98;98;99;
2023-06-03 09:34:24;3;3;3;3;3;3;3;3;2;3;3;
2023-06-03 09:34:24;ht;99;17.60
2023-06-03 09:34:24;v;4.24
2023-06-03 10:04:21;1;107;107;107;107;107;107;107;107;107;107;
2023-06-03 10:04:21;2;101;101;101;101;101;101;101;101;101;102;
2023-06-03 10:04:21;3;107;107;107;107;107;107;107;107;107;107;
2023-06-03 10:04:21;ht;99;19.00
2023-06-03 10:04:21;v;4.24
2023-06-03 10:34:23;1;108;108;107;108;108;108;108;108;108;107;
2023-06-03 10:34:23;2;101;101;101;100;101;101;101;101;100;101;
2023-06-03 10:34:23;3;99;99;99;99;99;99;99;100;99;99;
2023-06-03 10:34:23;ht;99;21.40
2023-06-03 10:34:23;v;4.24
2023-06-03 11:04:27;1;108;108;108;108;108;108;108;107;108;108;
2023-06-03 11:04:27;2;103;104;104;104;104;104;104;104;104;104;
2023-06-03 11:04:27;3;107;107;107;107;107;107;107;107;107;107;
2023-06-03 11:04:27;ht;99;23.20
2023-06-03 11:04:27;v;4.24
2023-06-03 11:34:28;1;108;108;108;108;107;107;108;108;108;107;
2023-06-03 11:34:28;2;101;101;100;101;100;101;101;100;101;101;
2023-06-03 11:34:28;3;92;92;93;93;92;92;92;93;92;92;
2023-06-03 11:34:28;ht;99;24.60
2023-06-03 11:34:28;v;4.25
2023-06-03 12:04:26;1;105;104;105;104;105;105;105;104;105;105;
2023-06-03 12:04:26;2;91;91;91;91;91;90;91;91;91;91;
2023-06-03 12:04:26;3;104;104;105;104;103;104;104;104;104;104;
2023-06-03 12:04:26;ht;99;24.50
2023-06-03 12:04:26;v;4.24
2023-06-03 12:34:28;1;106;106;106;106;106;106;106;106;106;106;
2023-06-03 12:34:28;2;101;101;102;101;101;101;102;102;101;101;
2023-06-03 12:34:28;3;106;105;106;106;106;105;105;106;105;105;
2023-06-03 12:34:28;ht;99;24.50
2023-06-03 12:34:28;v;4.25
2023-06-03 13:04:27;1;102;102;101;102;101;102;101;102;102;102;
2023-06-03 13:04:27;2;106;106;105;106;106;106;106;106;106;106;
2023-06-03 13:04:27;3;97;97;97;98;97;97;97;97;97;97;
2023-06-03 13:04:27;ht;99;24.70
2023-06-03 13:04:27;v;4.25
2023-06-03 13:34:30;1;103;103;103;103;103;103;104;103;104;104;
2023-06-03 13:34:30;2;106;107;106;106;107;107;106;106;107;107;
2023-06-03 13:34:30;3;103;103;103;103;103;103;103;103;103;103;
2023-06-03 13:34:30;ht;99;26.50
2023-06-03 13:34:30;v;4.25
2023-06-03 14:04:30;1;107;107;107;107;107;108;107;107;107;107;
2023-06-03 14:04:30;2;107;106;108;107;107;107;107;107;106;107;
2023-06-03 14:04:30;3;107;107;107;107;107;107;107;107;107;107;
2023-06-03 14:04:30;ht;99;27.60
2023-06-03 14:04:30;v;4.25
2023-06-03 14:34:31;1;106;106;106;106;106;106;105;106;105;106;
2023-06-03 14:34:31;2;117;117;117;117;117;117;117;117;117;117;
2023-06-03 14:34:31;3;119;120;119;120;119;120;119;120;120;119;
2023-06-03 14:34:31;ht;99;25.80
2023-06-03 14:34:31;v;4.25
2023-06-03 15:04:31;1;104;104;104;104;104;104;104;104;104;104;
2023-06-03 15:04:31;2;105;105;105;105;105;105;105;105;105;105;
2023-06-03 15:04:31;3;101;101;101;101;101;101;101;101;101;100;
2023-06-03 15:04:31;ht;99;26.30
2023-06-03 15:04:31;v;4.25
2023-06-03 15:34:30;1;100;100;99;100;100;100;100;100;99;99;
2023-06-03 15:34:30;2;98;98;98;97;98;97;98;98;98;97;
2023-06-03 15:34:30;3;90;90;90;90;90;91;90;91;90;90;
2023-06-03 15:34:30;ht;99;25.10
2023-06-03 15:34:30;v;4.26
2023-06-03 16:04:29;1;107;107;107;107;106;107;107;107;107;106;
2023-06-03 16:04:29;2;104;104;104;104;104;104;104;104;104;104;
2023-06-03 16:04:29;3;100;100;100;100;100;100;100;100;101;100;
2023-06-03 16:04:29;ht;99;25.00
2023-06-03 16:04:29;v;4.25
2023-06-03 16:34:27;1;93;93;93;94;94;93;94;93;93;94;
2023-06-03 16:34:27;2;107;107;107;107;106;107;107;106;106;107;
2023-06-03 16:34:27;3;107;107;107;106;106;107;107;107;107;107;
2023-06-03 16:34:27;ht;99;24.00
2023-06-03 16:34:27;v;4.26
2023-06-03 17:04:25;1;107;107;107;107;107;107;107;107;107;107;
2023-06-03 17:04:25;2;105;105;105;105;105;105;105;105;106;106;
2023-06-03 17:04:25;3;125;125;125;125;125;125;125;125;125;125;
2023-06-03 17:04:25;ht;99;23.40
2023-06-03 17:04:25;v;4.25
2023-06-03 17:34:26;1;107;107;107;107;107;107;107;107;107;107;
2023-06-03 17:34:26;2;106;106;106;106;106;105;105;105;105;105;
2023-06-03 17:34:26;3;126;127;127;127;127;127;127;127;127;127;
2023-06-03 17:34:26;ht;99;22.20
2023-06-03 17:34:26;v;4.26
2023-06-03 18:04:26;1;108;108;108;108;108;108;108;108;108;108;
2023-06-03 18:04:26;2;111;111;111;111;112;111;111;111;111;113;
2023-06-03 18:04:26;3;104;104;105;105;105;105;105;104;105;105;
2023-06-03 18:04:26;ht;99;20.90
2023-06-03 18:04:26;v;4.26
2023-06-03 18:34:25;1;108;108;108;108;108;108;108;108;107;108;
2023-06-03 18:34:25;2;103;103;103;103;103;103;102;102;103;102;
2023-06-03 18:34:25;3;104;103;103;103;105;103;103;104;103;103;
2023-06-03 18:34:25;ht;99;20.10
2023-06-03 18:34:25;v;4.25
2023-06-03 19:04:23;1;109;109;109;109;109;109;109;109;109;109;
2023-06-03 19:04:23;2;3;3;3;3;3;3;3;3;3;3;
2023-06-03 19:04:23;3;108;107;108;107;107;108;107;107;108;108;
2023-06-03 19:04:23;ht;99;19.40
2023-06-03 19:04:23;v;4.26
2023-06-03 19:34:25;1;109;109;109;109;109;109;109;109;109;109;
2023-06-03 19:34:25;2;106;106;106;106;106;106;106;106;106;106;
2023-06-03 19:34:25;3;123;122;123;123;122;123;123;123;123;123;
2023-06-03 19:34:25;ht;99;19.20
2023-06-03 19:34:25;v;4.26
2023-06-03 20:04:23;1;107;107;107;106;107;107;107;107;106;107;
2023-06-03 20:04:23;2;105;105;105;106;105;105;105;105;105;105;
2023-06-03 20:04:23;3;106;107;107;106;107;107;107;107;106;107;
2023-06-03 20:04:23;ht;99;19.50
2023-06-03 20:04:23;v;4.26
2023-06-03 20:34:24;1;103;102;103;103;102;103;103;103;103;102;
2023-06-03 20:34:24;2;107;107;107;107;107;107;107;107;107;107;
2023-06-03 20:34:24;3;105;105;105;105;106;105;105;105;105;106;
2023-06-03 20:34:24;ht;99;19.30
2023-06-03 20:34:24;v;4.25
2023-06-03 21:04:22;1;108;108;107;108;108;108;107;108;108;109;
2023-06-03 21:04:22;2;107;108;107;108;108;108;108;108;108;108;
2023-06-03 21:04:22;3;102;103;102;103;103;102;102;102;102;103;
2023-06-03 21:04:22;ht;99;19.00
2023-06-03 21:04:22;v;4.25
2023-06-03 21:34:24;1;107;107;107;107;107;107;107;107;107;107;
2023-06-03 21:34:24;2;93;93;93;93;93;93;93;93;93;93;
2023-06-03 21:34:24;3;102;102;102;102;102;102;102;102;102;102;
2023-06-03 21:34:24;ht;99;18.80
2023-06-03 21:34:24;v;4.25
2023-06-03 22:04:21;1;106;106;106;106;106;106;106;106;106;106;
2023-06-03 22:04:21;2;92;92;91;92;92;92;92;92;92;92;
2023-06-03 22:04:21;3;107;107;107;106;107;107;107;106;106;107;
2023-06-03 22:04:21;ht;99;18.90
2023-06-03 22:04:21;v;4.25
2023-06-03 22:34:23;1;109;109;109;109;109;109;109;109;109;109;
2023-06-03 22:34:23;2;92;92;92;92;92;92;92;92;92;92;
2023-06-03 22:34:23;3;108;108;108;107;107;107;108;107;108;108;
2023-06-03 22:34:23;ht;99;19.00
2023-06-03 22:34:23;v;4.25
2023-06-03 23:04:25;1;108;108;108;108;108;108;108;107;107;108;
2023-06-03 23:04:25;2;59;59;59;58;59;59;59;58;59;58;
2023-06-03 23:04:25;3;106;106;106;106;106;106;106;106;106;107;
2023-06-03 23:04:25;ht;99;18.90
2023-06-03 23:04:25;v;4.25
2023-06-03 23:34:22;1;105;105;105;105;105;105;105;105;105;105;
2023-06-03 23:34:22;2;73;74;74;73;74;73;74;74;73;73;
2023-06-03 23:34:22;3;109;108;107;108;108;107;108;107;108;108;
2023-06-03 23:34:22;ht;99;18.80
2023-06-03 23:34:22;v;4.25
