2023-11-27 00:04:23;1;117;117;117;117;117;117;117;117;117;117;
2023-11-27 00:04:23;2;69;69;69;69;69;69;69;69;69;69;
2023-11-27 00:04:23;3;82;82;82;82;82;82;82;82;82;82;
2023-11-27 00:04:23;ht;94;21.40
2023-11-27 00:04:23;v;4.23
2023-11-27 00:34:27;1;78;78;78;78;78;78;78;78;78;78;
2023-11-27 00:34:27;2;75;75;75;75;75;75;75;75;75;75;
2023-11-27 00:34:27;3;79;85;80;79;79;79;79;79;79;79;
2023-11-27 00:34:27;ht;97;20.60
2023-11-27 00:34:27;v;4.22
2023-11-27 01:04:26;1;67;67;67;67;67;67;67;67;67;67;
2023-11-27 01:04:26;2;76;76;76;76;76;77;76;76;76;76;
2023-11-27 01:04:26;3;2;2;2;2;2;2;3;3;2;2;
2023-11-27 01:04:26;ht;97;20.20
2023-11-27 01:04:26;v;4.19
2023-11-27 01:34:24;1;68;68;68;68;68;68;68;68;68;68;
2023-11-27 01:34:24;2;65;65;65;65;65;65;65;65;65;65;
2023-11-27 01:34:24;3;81;81;81;81;82;81;81;81;81;81;
2023-11-27 01:34:24;ht;97;19.50
2023-11-27 01:34:24;v;4.18
2023-11-27 02:04:22;1;76;76;76;76;76;76;76;76;76;76;
2023-11-27 02:04:22;2;75;75;75;75;75;75;75;75;75;75;
2023-11-27 02:04:22;3;83;84;84;84;84;83;83;84;83;84;
2023-11-27 02:04:22;ht;97;19.50
2023-11-27 02:04:22;v;4.22
2023-11-27 02:34:25;1;75;75;75;75;75;75;75;75;75;75;
2023-11-27 02:34:25;2;68;68;68;68;68;68;68;68;68;68;
2023-11-27 02:34:25;3;85;85;85;85;85;85;85;85;85;87;
2023-11-27 02:34:25;ht;97;19.60
2023-11-27 02:34:25;v;4.20
2023-11-27 03:04:23;1;64;64;64;64;64;64;64;64;64;64;
2023-11-27 03:04:23;2;73;73;73;73;73;73;73;73;73;73;
2023-11-27 03:04:23;3;84;84;84;84;85;85;84;91;86;85;
2023-11-27 03:04:23;ht;97;19.50
2023-11-27 03:04:23;v;4.22
2023-11-27 03:34:26;1;82;82;82;82;82;82;82;82;82;82;
2023-11-27 03:34:26;2;72;72;72;72;72;72;72;72;72;72;
2023-11-27 03:34:26;3;82;89;83;83;82;82;82;82;82;82;
2023-11-27 03:34:26;ht;97;19.30
2023-11-27 03:34:26;v;4.20
2023-11-27 04:04:24;1;83;83;83;83;83;83;83;83;83;83;
2023-11-27 04:04:24;2;78;78;78;78;78;78;79;78;78;78;
2023-11-27 04:04:24;3;80;80;80;80;80;80;80;80;80;80;
2023-11-27 04:04:24;ht;97;19.50
2023-11-27 04:04:24;v;4.20
2023-11-27 04:34:22;1;74;74;74;74;74;74;74;75;75;74;
2023-11-27 04:34:22;2;58;58;58;58;58;58;58;58;58;58;
2023-11-27 04:34:22;3;82;82;83;88;83;83;83;82;82;82;
2023-11-27 04:34:22;ht;97;19.30
2023-11-27 04:34:22;v;4.22
2023-11-27 05:04:25;1;71;71;71;71;71;71;71;71;71;71;
2023-11-27 05:04:25;2;65;65;65;65;65;65;65;65;65;65;
2023-11-27 05:04:25;3;81;81;81;81;81;81;81;81;88;82;
2023-11-27 05:04:25;ht;97;19.60
2023-11-27 05:04:25;v;4.21
2023-11-27 05:34:23;1;83;83;83;83;83;83;83;83;83;83;
2023-11-27 05:34:23;2;65;65;65;65;65;65;65;65;65;65;
2023-11-27 05:34:23;3;77;71;70;70;70;70;70;70;70;70;
2023-11-27 05:34:23;ht;97;19.00
2023-11-27 05:34:23;v;4.20
2023-11-27 06:04:25;1;57;57;57;57;57;57;57;57;57;57;
2023-11-27 06:04:25;2;62;62;62;61;62;61;62;62;61;62;
2023-11-27 06:04:25;3;78;78;78;78;78;78;77;78;78;78;
2023-11-27 06:04:25;ht;97;19.40
2023-11-27 06:04:25;v;4.14
2023-11-27 06:34:24;1;58;58;58;58;58;58;58;58;58;58;
2023-11-27 06:34:24;2;59;59;59;59;59;59;59;59;59;59;
2023-11-27 06:34:24;3;80;80;80;80;80;80;80;80;85;82;
2023-11-27 06:34:24;ht;97;22.10
2023-11-27 06:34:24;v;4.23
2023-11-27 07:04:26;1;65;65;65;65;65;65;65;65;65;65;
2023-11-27 07:04:26;2;54;54;54;54;54;54;54;54;54;54;
2023-11-27 07:04:26;3;61;61;62;61;61;61;61;61;61;66;
2023-11-27 07:04:26;ht;96;24.20
2023-11-27 07:04:26;v;4.22
2023-11-27 07:34:32;1;61;61;61;61;61;61;61;61;61;61;
2023-11-27 07:34:32;2;57;57;57;57;57;57;57;57;57;57;
2023-11-27 07:34:32;3;55;55;55;55;58;61;56;55;55;55;
2023-11-27 07:34:32;ht;89;25.60
2023-11-27 07:34:32;v;4.22
2023-11-27 08:04:29;1;64;62;62;62;62;62;62;62;62;62;
2023-11-27 08:04:29;2;60;60;60;60;60;60;63;61;61;60;
2023-11-27 08:04:29;3;55;55;55;55;55;55;55;55;55;55;
2023-11-27 08:04:29;ht;89;26.50
2023-11-27 08:04:29;v;4.22
2023-11-27 08:34:34;1;57;57;57;57;57;57;57;57;61;65;
2023-11-27 08:34:34;2;55;55;55;55;55;55;55;55;55;55;
2023-11-27 08:34:34;3;53;54;53;60;55;54;54;54;54;54;
2023-11-27 08:34:34;ht;83;27.90
2023-11-27 08:34:34;v;4.22
2023-11-27 09:04:35;1;64;64;64;64;64;64;64;64;64;64;
2023-11-27 09:04:35;2;56;56;56;56;56;59;57;56;57;56;
2023-11-27 09:04:35;3;59;59;59;59;59;59;59;59;59;59;
2023-11-27 09:04:35;ht;82;28.10
2023-11-27 09:04:35;v;4.22
2023-11-27 09:34:37;1;55;55;55;55;55;55;55;55;55;55;
2023-11-27 09:34:37;2;58;59;58;59;59;59;59;59;60;60;
2023-11-27 09:34:37;3;63;63;63;63;63;69;64;63;63;63;
2023-11-27 09:34:37;ht;79;29.50
2023-11-27 09:34:37;v;4.19
2023-11-27 10:04:36;1;54;54;54;54;54;54;54;54;54;54;
2023-11-27 10:04:36;2;57;57;57;57;57;57;57;57;57;60;
2023-11-27 10:04:36;3;54;52;50;50;50;50;50;50;50;50;
2023-11-27 10:04:36;ht;81;29.60
2023-11-27 10:04:36;v;4.21
2023-11-27 10:34:36;1;60;60;60;60;60;60;60;60;60;60;
2023-11-27 10:34:36;2;56;56;56;56;56;56;57;58;57;57;
2023-11-27 10:34:36;3;57;57;57;57;57;57;57;57;63;58;
2023-11-27 10:34:36;ht;77;30.50
2023-11-27 10:34:36;v;4.22
2023-11-27 11:04:38;1;70;70;70;70;70;70;70;70;70;70;
2023-11-27 11:04:38;2;56;57;56;56;57;56;56;56;56;60;
2023-11-27 11:04:38;3;51;51;51;51;51;56;54;52;51;51;
2023-11-27 11:04:38;ht;75;31.30
2023-11-27 11:04:38;v;4.20
2023-11-27 11:34:40;1;58;58;58;58;58;58;58;58;58;58;
2023-11-27 11:34:40;2;58;58;58;58;58;58;58;58;58;58;
2023-11-27 11:34:40;3;62;62;62;69;63;62;62;62;62;62;
2023-11-27 11:34:40;ht;78;31.40
2023-11-27 11:34:40;v;4.17
2023-11-27 12:04:37;1;59;59;59;59;59;59;59;59;59;59;
2023-11-27 12:04:37;2;60;60;60;63;61;61;60;60;60;60;
2023-11-27 12:04:37;3;51;57;52;52;51;51;51;51;51;51;
2023-11-27 12:04:37;ht;72;31.80
2023-11-27 12:04:37;v;4.19
2023-11-27 12:34:38;1;62;62;62;62;62;62;63;62;62;62;
2023-11-27 12:34:38;2;58;58;58;58;57;58;57;57;58;58;
2023-11-27 12:34:38;3;57;57;57;57;57;57;57;57;57;57;
2023-11-27 12:34:38;ht;72;32.50
2023-11-27 12:34:38;v;4.21
2023-11-27 13:04:40;1;65;65;65;65;65;65;65;72;67;66;
2023-11-27 13:04:40;2;47;47;47;47;47;47;47;47;47;47;
2023-11-27 13:04:40;3;57;63;58;57;57;57;57;57;57;57;
2023-11-27 13:04:40;ht;77;30.90
2023-11-27 13:04:40;v;4.20
2023-11-27 13:34:36;1;66;66;66;66;66;66;66;66;66;66;
2023-11-27 13:34:36;2;47;47;47;47;47;47;50;48;48;47;
2023-11-27 13:34:36;3;57;57;57;57;57;57;57;57;57;57;
2023-11-27 13:34:36;ht;73;32.50
2023-11-27 13:34:36;v;4.21
2023-11-27 14:04:35;1;61;61;61;61;61;61;61;61;67;64;
2023-11-27 14:04:35;2;55;55;55;55;55;55;55;57;57;56;
2023-11-27 14:04:35;3;52;52;52;52;52;52;52;52;52;52;
2023-11-27 14:04:35;ht;75;32.70
2023-11-27 14:04:35;v;4.23
2023-11-27 14:34:40;1;70;70;70;70;70;70;70;70;70;76;
2023-11-27 14:34:40;2;67;66;68;70;67;67;67;67;67;66;
2023-11-27 14:34:40;3;58;58;58;58;58;58;58;58;58;58;
2023-11-27 14:34:40;ht;70;32.70
2023-11-27 14:34:40;v;4.23
2023-11-27 15:04:36;1;68;67;68;68;68;68;68;68;67;75;
2023-11-27 15:04:36;2;48;48;48;48;48;48;50;50;49;48;
2023-11-27 15:04:36;3;52;52;52;52;52;52;52;52;52;52;
2023-11-27 15:04:36;ht;72;31.60
2023-11-27 15:04:36;v;4.23
2023-11-27 15:34:35;1;3;2;2;3;2;2;3;3;2;2;
2023-11-27 15:34:35;2;53;56;54;53;53;53;53;53;53;53;
2023-11-27 15:34:35;3;56;55;54;54;54;54;54;54;54;54;
2023-11-27 15:34:35;ht;69;32.30
2023-11-27 15:34:35;v;4.23
2023-11-27 16:04:39;1;3;3;2;3;2;3;2;2;3;3;
2023-11-27 16:04:39;2;57;57;58;57;57;57;57;57;57;57;
2023-11-27 16:04:39;3;54;54;54;54;54;54;54;54;54;54;
2023-11-27 16:04:39;ht;70;32.20
2023-11-27 16:04:39;v;4.23
2023-11-27 16:34:35;1;74;74;74;74;74;74;74;74;81;75;
2023-11-27 16:34:35;2;61;60;59;59;59;60;59;59;59;59;
2023-11-27 16:34:35;3;61;61;61;61;61;61;61;61;61;61;
2023-11-27 16:34:35;ht;66;32.00
2023-11-27 16:34:35;v;4.23
2023-11-27 17:04:39;1;2;3;3;3;2;2;2;3;2;3;
2023-11-27 17:04:39;2;60;61;61;61;61;61;61;61;63;62;
2023-11-27 17:04:39;3;75;75;75;75;75;75;75;75;75;75;
2023-11-27 17:04:39;ht;68;32.00
2023-11-27 17:04:39;v;4.24
2023-11-27 17:34:37;1;55;55;55;55;55;55;55;55;55;55;
2023-11-27 17:34:37;2;67;71;69;68;68;68;68;68;68;68;
2023-11-27 17:34:37;3;59;59;59;59;59;59;59;60;59;59;
2023-11-27 17:34:37;ht;71;30.80
2023-11-27 17:34:37;v;4.23
2023-11-27 18:04:35;1;55;55;55;55;55;55;55;59;63;56;
2023-11-27 18:04:35;2;62;62;62;62;63;64;63;63;62;62;
2023-11-27 18:04:35;3;69;69;69;69;69;69;69;69;69;69;
2023-11-27 18:04:35;ht;74;31.00
2023-11-27 18:04:35;v;4.23
2023-11-27 18:34:33;1;61;60;57;56;56;56;56;56;56;56;
2023-11-27 18:34:33;2;65;65;65;65;65;65;65;65;65;65;
2023-11-27 18:34:33;3;9;4;3;3;3;3;3;3;2;3;
2023-11-27 18:34:33;ht;73;30.40
2023-11-27 18:34:33;v;4.23
2023-11-27 19:04:34;1;57;57;57;57;57;63;59;57;57;57;
2023-11-27 19:04:34;2;55;58;57;56;56;56;56;55;56;56;
2023-11-27 19:04:34;3;56;56;56;56;56;56;56;56;56;56;
2023-11-27 19:04:34;ht;76;29.60
2023-11-27 19:04:34;v;4.23
2023-11-27 19:34:33;1;71;71;71;77;73;72;71;71;71;71;
2023-11-27 19:34:33;2;60;60;60;60;60;60;60;60;60;60;
2023-11-27 19:34:33;3;56;56;56;56;56;56;56;56;56;56;
2023-11-27 19:34:33;ht;84;27.40
2023-11-27 19:34:33;v;4.24
2023-11-27 20:04:28;1;59;59;59;59;59;59;59;66;61;60;
2023-11-27 20:04:28;2;67;69;69;68;68;68;67;67;67;67;
2023-11-27 20:04:28;3;70;70;70;70;70;70;70;70;70;70;
2023-11-27 20:04:28;ht;85;27.00
2023-11-27 20:04:28;v;4.22
2023-11-27 20:34:28;1;83;83;83;83;83;88;90;84;83;83;
2023-11-27 20:34:28;2;88;88;88;90;89;88;88;88;88;88;
2023-11-27 20:34:28;3;72;72;72;72;72;72;72;72;72;72;
2023-11-27 20:34:28;ht;91;26.40
2023-11-27 20:34:28;v;4.23
2023-11-27 21:04:26;1;72;67;66;65;65;65;65;65;65;66;
2023-11-27 21:04:26;2;66;66;66;66;66;66;66;66;66;66;
2023-11-27 21:04:26;3;66;66;66;66;66;66;66;66;66;66;
2023-11-27 21:04:26;ht;93;25.90
2023-11-27 21:04:26;v;4.23
2023-11-27 21:34:30;1;68;72;76;69;69;68;68;68;68;68;
2023-11-27 21:34:30;2;69;67;66;66;66;66;66;66;66;66;
2023-11-27 21:34:30;3;73;73;73;73;73;73;73;73;73;73;
2023-11-27 21:34:30;ht;92;25.70
2023-11-27 21:34:30;v;4.24
2023-11-27 22:04:28;1;130;129;129;129;129;129;129;129;129;129;
2023-11-27 22:04:28;2;67;67;67;67;67;67;67;68;67;67;
2023-11-27 22:04:28;3;82;82;82;82;82;82;82;82;82;82;
2023-11-27 22:04:28;ht;97;24.60
2023-11-27 22:04:28;v;4.23
2023-11-27 22:34:26;1;62;62;68;64;63;62;62;62;62;62;
2023-11-27 22:34:26;2;67;68;68;71;68;68;68;67;68;67;
2023-11-27 22:34:26;3;88;88;88;88;88;88;88;88;88;88;
2023-11-27 22:34:26;ht;97;24.40
2023-11-27 22:34:26;v;4.23
2023-11-27 23:04:27;1;64;64;64;64;64;64;64;64;64;64;
2023-11-27 23:04:27;2;68;68;68;68;68;68;68;68;68;68;
2023-11-27 23:04:27;3;62;62;62;62;62;62;62;62;62;62;
2023-11-27 23:04:27;ht;97;23.90
2023-11-27 23:04:27;v;4.24
2023-11-27 23:34:24;1;68;67;67;74;69;68;67;67;67;67;
2023-11-27 23:34:24;2;77;77;77;77;77;77;77;77;77;77;
2023-11-27 23:34:24;3;69;69;69;69;69;69;69;69;69;69;
2023-11-27 23:34:24;ht;97;23.10
2023-11-27 23:34:24;v;4.23
