2023-12-29 00:04:24;1;88;88;88;88;88;88;88;88;88;88;
2023-12-29 00:04:24;2;87;87;87;87;87;87;87;87;87;87;
2023-12-29 00:04:24;3;82;82;82;82;82;82;82;82;82;82;
2023-12-29 00:04:24;ht;80;21.10
2023-12-29 00:04:24;v;4.22
2023-12-29 00:34:23;1;92;92;92;92;92;92;92;92;92;92;
2023-12-29 00:34:23;2;85;85;85;85;85;85;85;85;85;85;
2023-12-29 00:34:23;3;99;99;99;99;99;99;99;99;99;99;
2023-12-29 00:34:23;ht;54;20.80
2023-12-29 00:34:23;v;4.21
2023-12-29 01:04:27;1;62;63;63;63;62;62;62;62;62;62;
2023-12-29 01:04:27;2;84;84;84;84;84;84;84;84;84;84;
2023-12-29 01:04:27;3;68;68;68;68;68;68;68;68;68;68;
2023-12-29 01:04:27;ht;47;20.80
2023-12-29 01:04:27;v;4.22
2023-12-29 01:34:26;1;107;107;107;107;107;107;107;107;107;107;
2023-12-29 01:34:26;2;89;89;89;89;89;89;89;89;89;89;
2023-12-29 01:34:26;3;71;71;71;71;71;71;71;71;71;71;
2023-12-29 01:34:26;ht;47;21.00
2023-12-29 01:34:26;v;4.20
2023-12-29 02:04:25;1;65;65;65;65;66;65;65;65;65;65;
2023-12-29 02:04:25;2;80;81;81;81;81;80;81;80;80;81;
2023-12-29 02:04:25;3;85;85;85;85;85;85;85;85;85;85;
2023-12-29 02:04:25;ht;45;21.10
2023-12-29 02:04:25;v;4.20
2023-12-29 02:34:25;1;3;3;3;3;3;3;2;3;2;3;
2023-12-29 02:34:25;2;80;80;80;80;80;80;80;80;80;80;
2023-12-29 02:34:25;3;90;90;90;90;90;91;91;90;90;90;
2023-12-29 02:34:25;ht;43;20.90
2023-12-29 02:34:25;v;4.20
2023-12-29 03:04:24;1;119;119;119;119;119;119;119;119;119;119;
2023-12-29 03:04:24;2;80;80;80;80;80;80;80;80;80;80;
2023-12-29 03:04:24;3;84;84;84;85;84;84;85;84;84;85;
2023-12-29 03:04:24;ht;42;21.10
2023-12-29 03:04:24;v;4.21
2023-12-29 03:34:24;1;61;61;61;61;61;61;61;61;61;61;
2023-12-29 03:34:24;2;83;83;83;83;83;82;82;83;83;83;
2023-12-29 03:34:24;3;80;80;80;80;80;80;80;80;80;80;
2023-12-29 03:34:24;ht;50;20.90
2023-12-29 03:34:24;v;4.20
2023-12-29 04:04:23;1;66;66;66;66;66;66;66;66;66;66;
2023-12-29 04:04:23;2;85;85;85;85;85;85;85;85;85;85;
2023-12-29 04:04:23;3;90;90;90;90;90;90;90;90;90;90;
2023-12-29 04:04:23;ht;50;20.60
2023-12-29 04:04:23;v;4.20
2023-12-29 04:34:27;1;91;92;92;92;91;91;92;91;92;91;
2023-12-29 04:34:27;2;79;79;79;79;79;79;79;80;79;79;
2023-12-29 04:34:27;3;82;82;82;82;82;82;82;82;82;82;
2023-12-29 04:34:27;ht;45;20.30
2023-12-29 04:34:27;v;4.21
2023-12-29 05:04:26;1;88;88;87;87;87;87;87;87;88;87;
2023-12-29 05:04:26;2;79;79;78;79;79;79;79;79;79;79;
2023-12-29 05:04:26;3;76;76;76;76;76;76;76;76;76;76;
2023-12-29 05:04:26;ht;48;20.40
2023-12-29 05:04:26;v;4.19
2023-12-29 05:34:25;1;73;73;73;73;72;72;73;72;72;72;
2023-12-29 05:34:25;2;80;80;80;80;80;80;80;80;80;80;
2023-12-29 05:34:25;3;117;117;117;117;117;117;117;117;117;117;
2023-12-29 05:34:25;ht;44;20.20
2023-12-29 05:34:25;v;4.21
2023-12-29 06:04:24;1;3;2;3;3;3;3;2;3;3;3;
2023-12-29 06:04:24;2;78;78;78;78;78;78;78;78;78;78;
2023-12-29 06:04:24;3;78;79;79;78;78;78;78;78;78;78;
2023-12-29 06:04:24;ht;44;20.00
2023-12-29 06:04:24;v;4.20
2023-12-29 06:34:22;1;68;68;68;68;68;68;68;68;68;68;
2023-12-29 06:34:22;2;82;82;82;82;82;82;82;82;82;82;
2023-12-29 06:34:22;3;69;69;69;69;69;69;69;69;69;69;
2023-12-29 06:34:22;ht;43;20.40
2023-12-29 06:34:22;v;4.21
2023-12-29 07:04:26;1;60;60;60;60;60;60;60;60;60;60;
2023-12-29 07:04:26;2;80;80;80;80;80;80;80;80;80;80;
2023-12-29 07:04:26;3;65;65;65;65;65;65;65;65;65;65;
2023-12-29 07:04:26;ht;47;20.90
2023-12-29 07:04:26;v;4.20
2023-12-29 07:34:26;1;61;61;61;61;61;61;61;61;61;61;
2023-12-29 07:34:26;2;78;78;78;78;78;78;78;78;78;78;
2023-12-29 07:34:26;3;84;83;83;83;83;83;83;83;83;84;
2023-12-29 07:34:26;ht;89;23.20
2023-12-29 07:34:26;v;4.22
2023-12-29 08:04:30;1;66;66;66;66;66;66;66;66;66;66;
2023-12-29 08:04:30;2;88;88;88;88;88;88;88;88;88;88;
2023-12-29 08:04:30;3;75;75;75;75;75;75;75;75;75;75;
2023-12-29 08:04:30;ht;95;25.40
2023-12-29 08:04:30;v;4.23
2023-12-29 08:34:33;1;141;141;141;141;141;141;140;141;141;141;
2023-12-29 08:34:33;2;85;85;85;85;85;85;85;85;85;85;
2023-12-29 08:34:33;3;87;88;87;87;87;87;87;87;87;87;
2023-12-29 08:34:33;ht;93;26.80
2023-12-29 08:34:33;v;4.23
2023-12-29 09:04:34;1;70;70;70;70;70;70;70;70;70;70;
2023-12-29 09:04:34;2;83;83;83;83;83;83;83;83;83;83;
2023-12-29 09:04:34;3;69;69;69;69;69;69;69;69;69;69;
2023-12-29 09:04:34;ht;91;28.00
2023-12-29 09:04:34;v;4.24
2023-12-29 09:34:37;1;104;104;104;104;104;104;104;104;104;104;
2023-12-29 09:34:37;2;79;79;78;78;78;78;79;79;78;79;
2023-12-29 09:34:37;3;82;82;82;82;82;82;82;82;82;82;
2023-12-29 09:34:37;ht;89;28.70
2023-12-29 09:34:37;v;4.23
2023-12-29 10:04:37;1;60;60;60;60;60;60;60;60;60;60;
2023-12-29 10:04:37;2;88;88;88;88;88;88;88;88;88;88;
2023-12-29 10:04:37;3;64;64;64;64;64;64;64;64;64;64;
2023-12-29 10:04:37;ht;88;29.60
2023-12-29 10:04:37;v;4.23
2023-12-29 10:34:39;1;87;87;87;87;87;87;87;87;87;87;
2023-12-29 10:34:39;2;73;73;73;73;73;73;73;73;73;73;
2023-12-29 10:34:39;3;78;78;78;78;78;78;78;78;78;78;
2023-12-29 10:34:39;ht;83;32.10
2023-12-29 10:34:39;v;4.23
2023-12-29 11:04:43;1;63;63;63;63;63;63;63;63;63;63;
2023-12-29 11:04:43;2;82;82;82;82;82;82;82;82;82;82;
2023-12-29 11:04:43;3;78;78;78;78;78;78;78;78;78;78;
2023-12-29 11:04:43;ht;78;31.80
2023-12-29 11:04:43;v;4.23
2023-12-29 11:34:44;1;65;65;66;66;66;65;65;66;66;66;
2023-12-29 11:34:44;2;90;90;90;90;90;90;90;90;90;90;
2023-12-29 11:34:44;3;79;79;79;79;79;79;79;79;79;79;
2023-12-29 11:34:44;ht;72;32.80
2023-12-29 11:34:44;v;4.23
2023-12-29 12:04:41;1;62;62;62;62;62;62;62;62;62;62;
2023-12-29 12:04:41;2;69;69;68;69;69;68;69;69;68;69;
2023-12-29 12:04:41;3;84;84;84;84;84;84;84;84;84;85;
2023-12-29 12:04:41;ht;72;32.30
2023-12-29 12:04:41;v;4.23
2023-12-29 12:34:42;1;62;62;63;62;62;62;62;62;62;62;
2023-12-29 12:34:42;2;69;69;69;69;69;69;69;69;69;69;
2023-12-29 12:34:42;3;69;69;69;69;69;69;69;69;69;69;
2023-12-29 12:34:42;ht;77;32.80
2023-12-29 12:34:42;v;4.24
2023-12-29 13:04:42;1;63;63;63;63;63;63;63;63;63;63;
2023-12-29 13:04:42;2;74;74;74;74;74;74;74;74;74;74;
2023-12-29 13:04:42;3;73;73;73;73;73;73;73;73;73;73;
2023-12-29 13:04:42;ht;78;32.50
2023-12-29 13:04:42;v;4.23
2023-12-29 13:34:41;1;63;63;63;63;63;63;63;63;63;63;
2023-12-29 13:34:41;2;77;77;77;77;77;77;78;77;77;77;
2023-12-29 13:34:41;3;71;70;70;70;70;70;70;70;70;70;
2023-12-29 13:34:41;ht;77;33.20
2023-12-29 13:34:41;v;4.24
2023-12-29 14:04:39;1;74;74;74;74;75;74;74;74;74;74;
2023-12-29 14:04:39;2;80;80;80;80;80;80;80;80;80;80;
2023-12-29 14:04:39;3;83;82;82;82;82;82;83;82;82;82;
2023-12-29 14:04:39;ht;79;33.20
2023-12-29 14:04:39;v;4.24
2023-12-29 14:34:41;1;2;3;3;3;3;3;3;2;3;3;
2023-12-29 14:34:41;2;90;90;90;90;90;90;90;90;90;90;
2023-12-29 14:34:41;3;74;75;74;74;74;74;75;74;75;75;
2023-12-29 14:34:41;ht;76;33.40
2023-12-29 14:34:41;v;4.24
2023-12-29 15:04:39;1;82;82;82;82;82;82;82;82;82;82;
2023-12-29 15:04:39;2;79;79;79;79;79;79;79;79;79;79;
2023-12-29 15:04:39;3;81;81;81;81;81;81;81;81;81;81;
2023-12-29 15:04:39;ht;72;33.50
2023-12-29 15:04:39;v;4.24
2023-12-29 15:34:40;1;65;65;65;65;65;65;65;65;65;65;
2023-12-29 15:34:40;2;80;80;80;80;80;80;80;80;80;80;
2023-12-29 15:34:40;3;67;67;67;67;67;67;67;67;67;67;
2023-12-29 15:34:40;ht;69;34.00
2023-12-29 15:34:40;v;4.24
2023-12-29 16:04:36;1;59;59;59;59;59;59;59;59;59;59;
2023-12-29 16:04:36;2;83;83;83;83;83;83;83;83;83;83;
2023-12-29 16:04:36;3;3;3;3;3;3;3;3;3;3;3;
2023-12-29 16:04:36;ht;69;34.20
2023-12-29 16:04:36;v;4.24
2023-12-29 16:34:38;1;3;3;3;3;3;3;3;3;3;3;
2023-12-29 16:34:38;2;82;82;82;82;82;82;82;82;82;82;
2023-12-29 16:34:38;3;65;65;65;65;65;65;65;65;65;65;
2023-12-29 16:34:38;ht;67;34.00
2023-12-29 16:34:38;v;4.24
2023-12-29 17:04:40;1;3;3;3;3;3;3;3;3;3;3;
2023-12-29 17:04:40;2;79;79;78;79;79;79;79;79;79;79;
2023-12-29 17:04:40;3;78;78;78;78;78;78;78;78;78;78;
2023-12-29 17:04:40;ht;58;33.60
2023-12-29 17:04:40;v;4.24
2023-12-29 17:34:37;1;3;3;4;3;3;3;3;3;3;3;
2023-12-29 17:34:37;2;74;74;74;74;74;74;74;74;74;74;
2023-12-29 17:34:37;3;3;3;3;3;3;3;2;3;3;3;
2023-12-29 17:34:37;ht;58;33.00
2023-12-29 17:34:37;v;4.24
2023-12-29 18:04:37;1;86;85;85;85;85;86;85;85;85;85;
2023-12-29 18:04:37;2;79;79;79;79;79;79;79;79;79;79;
2023-12-29 18:04:37;3;66;66;66;66;66;66;66;66;66;66;
2023-12-29 18:04:37;ht;60;32.10
2023-12-29 18:04:37;v;4.24
2023-12-29 18:34:36;1;91;90;90;90;90;90;90;91;90;90;
2023-12-29 18:34:36;2;81;81;81;81;81;81;81;81;81;81;
2023-12-29 18:34:36;3;75;75;75;75;75;75;75;75;75;75;
2023-12-29 18:34:36;ht;66;31.60
2023-12-29 18:34:36;v;4.24
2023-12-29 19:04:34;1;77;77;77;77;77;77;77;77;77;77;
2023-12-29 19:04:34;2;92;92;92;92;92;92;92;92;92;92;
2023-12-29 19:04:34;3;69;69;69;69;70;69;69;69;69;69;
2023-12-29 19:04:34;ht;79;30.10
2023-12-29 19:04:34;v;4.24
2023-12-29 19:34:34;1;113;113;114;114;113;114;114;114;113;114;
2023-12-29 19:34:34;2;76;76;76;76;76;76;76;76;76;76;
2023-12-29 19:34:34;3;82;82;82;82;82;82;82;82;82;82;
2023-12-29 19:34:34;ht;85;25.90
2023-12-29 19:34:34;v;4.25
2023-12-29 20:04:28;1;69;69;69;69;69;69;69;69;69;69;
2023-12-29 20:04:28;2;76;76;76;76;76;76;76;76;76;76;
2023-12-29 20:04:28;3;75;75;75;75;75;75;75;75;75;75;
2023-12-29 20:04:28;ht;83;23.10
2023-12-29 20:04:28;v;4.24
2023-12-29 20:34:25;1;3;3;2;3;3;2;2;2;3;3;
2023-12-29 20:34:25;2;83;83;83;83;83;83;83;83;83;83;
2023-12-29 20:34:25;3;64;64;64;64;64;64;64;64;64;64;
2023-12-29 20:34:25;ht;89;22.10
2023-12-29 20:34:25;v;4.25
2023-12-29 21:04:25;1;71;71;71;71;71;71;71;71;71;71;
2023-12-29 21:04:25;2;86;87;86;87;86;87;87;87;87;87;
2023-12-29 21:04:25;3;80;80;80;80;80;80;80;80;80;80;
2023-12-29 21:04:25;ht;92;23.60
2023-12-29 21:04:25;v;4.23
2023-12-29 21:34:25;1;113;113;113;113;113;113;113;113;113;113;
2023-12-29 21:34:25;2;92;92;92;92;92;92;92;92;92;92;
2023-12-29 21:34:25;3;80;80;80;80;80;80;80;80;80;80;
2023-12-29 21:34:25;ht;95;22.70
2023-12-29 21:34:25;v;4.24
2023-12-29 22:04:25;1;59;59;59;59;59;59;59;59;59;59;
2023-12-29 22:04:25;2;82;82;82;82;82;82;82;82;82;82;
2023-12-29 22:04:25;3;85;84;85;85;85;85;85;85;85;84;
2023-12-29 22:04:25;ht;83;23.30
2023-12-29 22:04:25;v;4.23
2023-12-29 22:34:26;1;80;80;80;80;80;80;80;80;80;80;
2023-12-29 22:34:26;2;84;84;84;84;84;84;84;84;85;84;
2023-12-29 22:34:26;3;82;82;82;82;82;82;82;82;82;82;
2023-12-29 22:34:26;ht;92;23.30
2023-12-29 22:34:26;v;4.23
2023-12-29 23:04:27;1;106;106;106;106;106;106;106;106;106;106;
2023-12-29 23:04:27;2;82;81;82;82;82;82;81;81;81;81;
2023-12-29 23:04:27;3;85;84;84;85;85;84;84;84;84;85;
2023-12-29 23:04:27;ht;95;22.80
2023-12-29 23:04:27;v;4.24
2023-12-29 23:34:28;1;61;61;61;61;61;61;61;61;61;61;
2023-12-29 23:34:28;2;78;78;78;78;78;78;78;78;78;78;
2023-12-29 23:34:28;3;83;83;83;83;83;83;83;83;83;83;
2023-12-29 23:34:28;ht;93;21.80
2023-12-29 23:34:28;v;4.23
