2023-02-10 00:04:26;1;106;106;106;107;106;106;106;106;106;106;
2023-02-10 00:04:26;2;106;106;106;106;106;106;107;106;106;106;
2023-02-10 00:04:26;3;106;106;106;106;106;106;106;106;106;106;
2023-02-10 00:04:26;ht;99;23.30
2023-02-10 00:04:26;v;4.26
2023-02-10 00:34:29;1;108;108;108;108;108;107;108;108;108;108;
2023-02-10 00:34:29;2;108;108;108;108;108;108;108;108;108;107;
2023-02-10 00:34:29;3;107;107;107;107;106;106;107;106;106;106;
2023-02-10 00:34:29;ht;99;22.20
2023-02-10 00:34:29;v;4.26
2023-02-10 01:04:26;1;108;108;108;108;108;108;108;108;107;108;
2023-02-10 01:04:26;2;105;105;106;106;105;105;105;105;105;106;
2023-02-10 01:04:26;3;106;106;106;106;106;106;106;106;106;106;
2023-02-10 01:04:26;ht;99;22.10
2023-02-10 01:04:26;v;4.27
2023-02-10 01:34:28;1;107;107;107;107;106;106;107;106;107;106;
2023-02-10 01:34:28;2;105;105;106;105;106;106;105;105;105;106;
2023-02-10 01:34:28;3;106;105;106;105;106;106;105;106;105;106;
2023-02-10 01:34:28;ht;99;21.80
2023-02-10 01:34:28;v;4.26
2023-02-10 02:04:25;1;108;107;107;108;108;107;108;107;108;109;
2023-02-10 02:04:25;2;107;107;108;108;107;107;108;108;108;108;
2023-02-10 02:04:25;3;106;106;106;107;106;106;106;107;106;106;
2023-02-10 02:04:25;ht;99;21.40
2023-02-10 02:04:25;v;4.26
2023-02-10 02:34:27;1;108;107;108;108;108;108;108;108;108;108;
2023-02-10 02:34:27;2;107;107;107;107;107;107;107;107;107;107;
2023-02-10 02:34:27;3;107;106;106;106;106;107;106;106;106;107;
2023-02-10 02:34:27;ht;99;21.00
2023-02-10 02:34:27;v;4.26
2023-02-10 03:04:28;1;107;107;107;107;107;107;107;106;107;106;
2023-02-10 03:04:28;2;106;107;107;106;106;107;107;107;106;107;
2023-02-10 03:04:28;3;106;106;105;106;106;106;105;106;105;105;
2023-02-10 03:04:28;ht;99;21.00
2023-02-10 03:04:28;v;4.26
2023-02-10 03:34:24;1;107;107;107;106;107;107;107;107;107;107;
2023-02-10 03:34:24;2;107;107;107;107;107;107;107;107;107;107;
2023-02-10 03:34:24;3;105;105;105;105;105;105;105;105;105;105;
2023-02-10 03:34:24;ht;99;20.50
2023-02-10 03:34:24;v;4.26
2023-02-10 04:04:25;1;106;106;106;106;106;106;106;106;106;106;
2023-02-10 04:04:25;2;109;108;107;107;107;108;108;107;107;108;
2023-02-10 04:04:25;3;107;107;107;107;107;107;107;107;107;107;
2023-02-10 04:04:25;ht;99;20.10
2023-02-10 04:04:25;v;4.26
2023-02-10 04:34:25;1;101;101;101;101;101;102;101;101;101;101;
2023-02-10 04:34:25;2;106;106;106;106;106;106;106;106;106;106;
2023-02-10 04:34:25;3;118;118;118;118;117;117;118;118;118;117;
2023-02-10 04:34:25;ht;99;19.40
2023-02-10 04:34:25;v;4.26
2023-02-10 05:04:25;1;101;100;100;100;101;101;100;100;101;100;
2023-02-10 05:04:25;2;104;104;104;104;104;104;104;104;104;105;
2023-02-10 05:04:25;3;112;112;112;112;112;112;112;112;112;112;
2023-02-10 05:04:25;ht;99;19.30
2023-02-10 05:04:25;v;4.26
2023-02-10 05:34:25;1;105;104;105;105;105;104;105;104;105;105;
2023-02-10 05:34:25;2;108;108;108;108;108;108;108;108;108;108;
2023-02-10 05:34:25;3;107;107;107;107;107;108;107;107;107;107;
2023-02-10 05:34:25;ht;99;19.40
2023-02-10 05:34:25;v;4.26
2023-02-10 06:04:25;1;107;107;107;107;108;108;108;108;108;108;
2023-02-10 06:04:25;2;104;104;104;104;104;104;104;104;104;104;
2023-02-10 06:04:25;3;108;107;107;107;107;107;107;107;107;107;
2023-02-10 06:04:25;ht;99;19.00
2023-02-10 06:04:25;v;4.26
2023-02-10 06:34:25;1;98;98;98;99;98;98;98;98;98;98;
2023-02-10 06:34:25;2;98;98;99;98;98;99;98;99;98;99;
2023-02-10 06:34:25;3;107;107;107;107;108;107;108;107;107;107;
2023-02-10 06:34:25;ht;99;18.80
2023-02-10 06:34:25;v;4.26
2023-02-10 07:04:24;1;100;101;101;101;100;101;101;101;101;101;
2023-02-10 07:04:24;2;107;107;107;107;106;106;106;106;106;106;
2023-02-10 07:04:24;3;108;108;107;108;108;107;107;107;107;107;
2023-02-10 07:04:24;ht;99;19.60
2023-02-10 07:04:24;v;4.26
2023-02-10 07:34:25;1;103;103;103;102;103;103;103;103;102;103;
2023-02-10 07:34:25;2;104;104;104;104;103;104;104;104;104;104;
2023-02-10 07:34:25;3;106;106;106;106;106;106;106;106;106;106;
2023-02-10 07:34:25;ht;99;21.90
2023-02-10 07:34:25;v;4.26
2023-02-10 08:04:28;1;105;105;105;105;106;105;105;105;105;105;
2023-02-10 08:04:28;2;106;106;106;106;106;106;106;106;107;106;
2023-02-10 08:04:28;3;103;104;104;103;104;103;103;104;103;103;
2023-02-10 08:04:28;ht;99;23.50
2023-02-10 08:04:28;v;4.26
2023-02-10 08:34:28;1;102;101;101;101;101;101;101;101;101;102;
2023-02-10 08:34:28;2;103;102;103;103;103;103;102;103;103;103;
2023-02-10 08:34:28;3;109;109;109;110;110;110;111;111;110;111;
2023-02-10 08:34:28;ht;99;25.10
2023-02-10 08:34:28;v;4.25
2023-02-10 09:04:31;1;93;94;94;94;94;94;94;94;94;94;
2023-02-10 09:04:31;2;103;104;103;103;103;103;103;103;103;103;
2023-02-10 09:04:31;3;90;90;90;91;90;90;90;90;90;90;
2023-02-10 09:04:31;ht;99;27.10
2023-02-10 09:04:31;v;4.26
2023-02-10 09:34:35;1;98;98;97;98;97;97;97;97;98;97;
2023-02-10 09:34:35;2;105;105;105;105;105;105;104;105;105;105;
2023-02-10 09:34:35;3;110;110;110;111;110;110;110;111;110;110;
2023-02-10 09:34:35;ht;99;29.80
2023-02-10 09:34:35;v;4.25
2023-02-10 10:04:36;1;97;97;97;97;97;97;97;97;97;97;
2023-02-10 10:04:36;2;102;103;103;103;103;102;103;103;103;103;
2023-02-10 10:04:36;3;164;164;164;164;164;164;164;164;164;164;
2023-02-10 10:04:36;ht;99;31.30
2023-02-10 10:04:36;v;4.26
2023-02-10 10:34:35;1;101;102;102;102;102;102;102;102;102;102;
2023-02-10 10:34:35;2;102;103;103;103;103;102;103;103;103;103;
2023-02-10 10:34:35;3;105;105;105;105;105;105;105;105;104;105;
2023-02-10 10:34:35;ht;98;33.60
2023-02-10 10:34:35;v;4.25
2023-02-10 11:04:40;1;107;107;107;107;107;106;107;106;107;107;
2023-02-10 11:04:40;2;102;102;102;102;102;102;102;102;101;101;
2023-02-10 11:04:40;3;104;104;104;105;104;104;104;104;104;104;
2023-02-10 11:04:40;ht;92;34.20
2023-02-10 11:04:40;v;4.26
2023-02-10 11:34:36;1;104;104;103;104;104;104;104;104;104;104;
2023-02-10 11:34:36;2;103;103;103;103;103;103;103;104;103;103;
2023-02-10 11:34:36;3;105;105;105;104;105;105;105;104;105;105;
2023-02-10 11:34:36;ht;86;34.50
2023-02-10 11:34:36;v;4.25
2023-02-10 12:04:37;1;106;106;106;107;106;106;106;106;107;106;
2023-02-10 12:04:37;2;103;102;103;102;103;103;103;103;103;103;
2023-02-10 12:04:37;3;104;104;105;105;105;105;104;104;104;104;
2023-02-10 12:04:37;ht;85;34.60
2023-02-10 12:04:37;v;4.25
2023-02-10 12:34:39;1;106;106;106;106;107;106;106;106;106;106;
2023-02-10 12:34:39;2;101;101;101;101;101;101;101;101;101;101;
2023-02-10 12:34:39;3;106;105;105;105;105;105;105;105;105;105;
2023-02-10 12:34:39;ht;81;35.30
2023-02-10 12:34:39;v;4.26
2023-02-10 13:04:42;1;106;106;106;106;106;106;106;106;106;106;
2023-02-10 13:04:42;2;104;104;104;104;104;104;104;104;104;104;
2023-02-10 13:04:42;3;102;102;102;102;102;102;102;102;102;102;
2023-02-10 13:04:42;ht;76;35.70
2023-02-10 13:04:42;v;4.26
2023-02-10 13:34:40;1;106;106;106;106;106;105;106;106;106;106;
2023-02-10 13:34:40;2;104;104;104;105;103;104;103;104;104;104;
2023-02-10 13:34:40;3;105;105;105;106;106;105;106;106;105;105;
2023-02-10 13:34:40;ht;61;36.40
2023-02-10 13:34:40;v;4.26
2023-02-10 14:04:39;1;104;105;105;105;104;105;105;105;105;105;
2023-02-10 14:04:39;2;103;103;103;102;102;102;102;103;103;103;
2023-02-10 14:04:39;3;138;138;137;138;137;138;137;138;137;137;
2023-02-10 14:04:39;ht;61;36.60
2023-02-10 14:04:39;v;4.26
2023-02-10 14:34:43;1;142;142;142;142;142;142;142;142;142;142;
2023-02-10 14:34:43;2;103;103;103;103;103;103;103;103;103;104;
2023-02-10 14:34:43;3;171;171;171;171;171;171;171;171;171;171;
2023-02-10 14:34:43;ht;55;38.20
2023-02-10 14:34:43;v;4.26
2023-02-10 15:04:40;1;107;107;107;107;107;107;107;107;107;107;
2023-02-10 15:04:40;2;103;103;103;102;103;103;103;102;103;102;
2023-02-10 15:04:40;3;101;100;100;100;100;100;100;100;100;100;
2023-02-10 15:04:40;ht;56;38.40
2023-02-10 15:04:40;v;4.26
2023-02-10 15:34:41;1;105;105;105;105;104;105;105;105;105;105;
2023-02-10 15:34:41;2;104;104;104;104;104;104;104;104;103;104;
2023-02-10 15:34:41;3;104;103;104;104;103;104;104;104;104;103;
2023-02-10 15:34:41;ht;54;37.80
2023-02-10 15:34:41;v;4.26
2023-02-10 16:04:42;1;105;105;105;105;105;105;105;105;105;105;
2023-02-10 16:04:42;2;101;101;101;101;101;101;101;101;101;101;
2023-02-10 16:04:42;3;104;104;104;104;105;104;104;104;104;104;
2023-02-10 16:04:42;ht;49;39.10
2023-02-10 16:04:42;v;4.26
2023-02-10 16:34:43;1;113;112;113;112;113;113;112;113;112;113;
2023-02-10 16:34:43;2;102;102;102;102;102;102;102;102;102;102;
2023-02-10 16:34:43;3;103;103;103;103;103;103;103;103;103;103;
2023-02-10 16:34:43;ht;54;35.80
2023-02-10 16:34:43;v;4.26
2023-02-10 17:04:41;1;3;3;3;3;3;3;3;3;3;3;
2023-02-10 17:04:41;2;101;101;100;101;100;100;100;100;101;100;
2023-02-10 17:04:41;3;105;105;104;104;105;104;104;104;105;104;
2023-02-10 17:04:41;ht;55;36.60
2023-02-10 17:04:41;v;4.26
2023-02-10 17:34:40;1;72;72;72;72;72;72;72;72;72;72;
2023-02-10 17:34:40;2;102;102;102;102;102;102;102;101;101;101;
2023-02-10 17:34:40;3;105;105;105;105;105;105;105;105;104;104;
2023-02-10 17:34:40;ht;51;38.00
2023-02-10 17:34:40;v;4.26
2023-02-10 18:04:38;1;96;96;96;97;96;96;96;96;96;96;
2023-02-10 18:04:38;2;102;102;102;102;101;101;101;102;101;101;
2023-02-10 18:04:38;3;128;129;128;129;128;129;129;128;128;129;
2023-02-10 18:04:38;ht;50;36.50
2023-02-10 18:04:38;v;4.26
2023-02-10 18:34:41;1;108;108;107;108;107;108;108;107;108;107;
2023-02-10 18:34:41;2;105;105;105;106;105;105;105;105;105;105;
2023-02-10 18:34:41;3;173;173;173;172;173;173;173;173;173;173;
2023-02-10 18:34:41;ht;48;36.70
2023-02-10 18:34:41;v;4.26
2023-02-10 19:04:38;1;109;109;109;109;109;109;109;109;109;109;
2023-02-10 19:04:38;2;102;102;102;102;102;101;102;102;102;101;
2023-02-10 19:04:38;3;178;178;178;178;178;178;178;178;178;178;
2023-02-10 19:04:38;ht;55;35.30
2023-02-10 19:04:38;v;4.26
2023-02-10 19:34:39;1;101;101;101;101;102;101;101;101;101;101;
2023-02-10 19:34:39;2;106;106;106;106;106;106;106;106;106;106;
2023-02-10 19:34:39;3;174;174;174;174;174;174;174;174;174;174;
2023-02-10 19:34:39;ht;62;33.00
2023-02-10 19:34:39;v;4.26
2023-02-10 20:04:36;1;96;96;96;96;97;96;96;96;96;96;
2023-02-10 20:04:36;2;101;100;101;101;101;100;101;101;101;101;
2023-02-10 20:04:36;3;179;180;180;180;179;180;180;180;180;180;
2023-02-10 20:04:36;ht;71;30.90
2023-02-10 20:04:36;v;4.26
2023-02-10 20:34:31;1;148;147;147;148;147;148;148;148;148;147;
2023-02-10 20:34:31;2;106;106;106;106;106;106;106;106;106;106;
2023-02-10 20:34:31;3;156;156;156;157;156;156;156;156;156;156;
2023-02-10 20:34:31;ht;79;29.30
2023-02-10 20:34:31;v;4.27
2023-02-10 21:04:34;1;100;99;99;99;100;99;100;100;100;99;
2023-02-10 21:04:34;2;103;104;104;104;104;104;103;104;103;104;
2023-02-10 21:04:34;3;118;119;118;118;119;119;119;118;119;120;
2023-02-10 21:04:34;ht;83;28.50
2023-02-10 21:04:34;v;4.27
2023-02-10 21:34:31;1;104;104;103;104;104;103;104;104;103;104;
2023-02-10 21:34:31;2;101;101;101;101;101;101;101;101;101;102;
2023-02-10 21:34:31;3;142;143;143;142;142;142;142;143;143;142;
2023-02-10 21:34:31;ht;83;28.10
2023-02-10 21:34:31;v;4.26
2023-02-10 22:04:32;1;146;147;146;146;146;146;146;146;145;146;
2023-02-10 22:04:32;2;107;107;107;107;107;107;107;107;107;107;
2023-02-10 22:04:32;3;106;106;106;108;106;106;107;107;107;106;
2023-02-10 22:04:32;ht;90;27.20
2023-02-10 22:04:32;v;4.27
2023-02-10 22:34:27;1;104;104;104;104;104;104;104;104;104;104;
2023-02-10 22:34:27;2;105;105;105;105;105;105;105;105;105;105;
2023-02-10 22:34:27;3;104;103;103;104;103;104;103;103;103;103;
2023-02-10 22:34:27;ht;96;25.80
2023-02-10 22:34:27;v;4.26
2023-02-10 23:04:27;1;112;112;112;112;112;112;113;112;112;112;
2023-02-10 23:04:27;2;107;107;107;107;107;107;107;107;106;107;
2023-02-10 23:04:27;3;104;105;105;104;104;105;104;105;105;105;
2023-02-10 23:04:27;ht;99;25.30
2023-02-10 23:04:27;v;4.27
2023-02-10 23:34:31;1;161;161;161;161;161;161;161;160;161;160;
2023-02-10 23:34:31;2;106;107;107;107;107;106;107;108;107;107;
2023-02-10 23:34:31;3;106;106;106;106;105;105;105;105;105;106;
2023-02-10 23:34:31;ht;98;26.10
2023-02-10 23:34:31;v;4.27
