2023-04-10 00:04:20;1;79;79;79;79;79;79;79;79;79;79;
2023-04-10 00:04:20;2;104;104;104;104;104;104;104;104;104;104;
2023-04-10 00:04:20;3;79;78;78;78;78;78;78;79;78;78;
2023-04-10 00:04:20;ht;99;16.10
2023-04-10 00:04:20;v;4.27
2023-04-10 00:34:20;1;83;83;83;83;83;83;83;83;83;83;
2023-04-10 00:34:20;2;80;80;80;80;80;80;80;80;80;80;
2023-04-10 00:34:20;3;81;81;81;81;81;81;81;81;81;81;
2023-04-10 00:34:20;ht;99;15.40
2023-04-10 00:34:20;v;4.26
2023-04-10 01:04:20;1;88;88;88;88;88;88;88;88;88;88;
2023-04-10 01:04:20;2;87;87;87;87;87;87;87;87;87;87;
2023-04-10 01:04:20;3;78;78;78;78;78;78;78;78;78;78;
2023-04-10 01:04:20;ht;99;15.30
2023-04-10 01:04:20;v;4.26
2023-04-10 01:34:20;1;89;89;89;89;89;89;89;89;89;89;
2023-04-10 01:34:20;2;81;81;81;81;81;81;81;81;81;81;
2023-04-10 01:34:20;3;80;80;80;80;80;80;80;80;80;80;
2023-04-10 01:34:20;ht;99;15.10
2023-04-10 01:34:20;v;4.26
2023-04-10 02:04:19;1;78;78;78;78;78;78;78;78;78;78;
2023-04-10 02:04:19;2;127;127;127;127;127;127;127;127;127;127;
2023-04-10 02:04:19;3;82;82;82;82;82;82;82;82;82;82;
2023-04-10 02:04:19;ht;99;14.50
2023-04-10 02:04:19;v;4.26
2023-04-10 02:34:19;1;77;77;77;76;76;76;76;76;76;76;
2023-04-10 02:34:19;2;85;85;85;85;85;85;85;85;85;85;
2023-04-10 02:34:19;3;3;2;2;2;2;2;2;2;2;2;
2023-04-10 02:34:19;ht;99;14.00
2023-04-10 02:34:19;v;4.26
2023-04-10 03:04:22;1;77;77;76;77;76;76;76;76;76;76;
2023-04-10 03:04:22;2;93;93;93;93;93;93;93;93;93;93;
2023-04-10 03:04:22;3;82;82;82;82;82;82;82;82;82;82;
2023-04-10 03:04:22;ht;99;14.40
2023-04-10 03:04:22;v;4.26
2023-04-10 03:34:21;1;81;81;81;81;81;81;81;81;81;81;
2023-04-10 03:34:21;2;93;93;93;93;93;93;93;93;93;93;
2023-04-10 03:34:21;3;93;93;93;93;93;93;93;93;93;93;
2023-04-10 03:34:21;ht;99;14.10
2023-04-10 03:34:21;v;4.26
2023-04-10 04:04:20;1;95;95;95;95;95;95;95;95;95;95;
2023-04-10 04:04:20;2;94;95;94;94;94;94;94;94;94;94;
2023-04-10 04:04:20;3;113;113;113;114;114;113;114;113;114;113;
2023-04-10 04:04:20;ht;99;12.80
2023-04-10 04:04:20;v;4.26
2023-04-10 04:34:18;1;78;78;78;78;78;78;78;78;78;78;
2023-04-10 04:34:18;2;81;81;81;81;81;81;81;81;81;81;
2023-04-10 04:34:18;3;94;94;94;94;94;94;94;94;94;94;
2023-04-10 04:34:18;ht;99;12.60
2023-04-10 04:34:18;v;4.26
2023-04-10 05:04:21;1;77;77;77;77;77;77;77;77;77;77;
2023-04-10 05:04:21;2;80;80;80;80;80;80;80;80;80;80;
2023-04-10 05:04:21;3;81;81;81;81;81;81;81;81;81;81;
2023-04-10 05:04:21;ht;99;12.80
2023-04-10 05:04:21;v;4.26
2023-04-10 05:34:20;1;79;79;79;79;79;79;79;79;79;79;
2023-04-10 05:34:20;2;82;82;82;82;82;82;82;82;82;82;
2023-04-10 05:34:20;3;77;77;77;77;77;77;77;77;77;77;
2023-04-10 05:34:20;ht;99;13.30
2023-04-10 05:34:20;v;4.26
2023-04-10 06:04:18;1;83;83;83;83;83;83;83;83;83;83;
2023-04-10 06:04:18;2;80;80;80;80;80;80;80;80;80;80;
2023-04-10 06:04:18;3;84;84;84;84;84;84;84;84;84;84;
2023-04-10 06:04:18;ht;99;12.50
2023-04-10 06:04:18;v;4.26
2023-04-10 06:34:21;1;82;82;82;82;82;82;82;82;82;82;
2023-04-10 06:34:21;2;87;87;87;87;87;87;87;87;87;87;
2023-04-10 06:34:21;3;83;83;83;83;83;83;83;83;83;83;
2023-04-10 06:34:21;ht;99;12.60
2023-04-10 06:34:21;v;4.26
2023-04-10 07:04:19;1;76;76;76;76;76;76;76;76;76;76;
2023-04-10 07:04:19;2;89;89;89;89;89;89;89;89;89;89;
2023-04-10 07:04:19;3;75;75;75;75;75;75;75;75;75;75;
2023-04-10 07:04:19;ht;99;12.10
2023-04-10 07:04:19;v;4.26
2023-04-10 07:34:22;1;81;81;81;81;81;81;81;81;81;81;
2023-04-10 07:34:22;2;85;84;85;85;85;85;85;85;85;85;
2023-04-10 07:34:22;3;80;80;80;80;80;80;80;80;80;80;
2023-04-10 07:34:22;ht;99;12.80
2023-04-10 07:34:22;v;4.26
2023-04-10 08:04:21;1;81;81;81;81;81;81;81;81;81;81;
2023-04-10 08:04:21;2;87;87;87;87;87;87;87;87;87;87;
2023-04-10 08:04:21;3;88;88;88;88;88;88;88;88;88;88;
2023-04-10 08:04:21;ht;99;18.20
2023-04-10 08:04:21;v;4.26
2023-04-10 08:34:22;1;82;82;82;82;82;82;82;82;82;82;
2023-04-10 08:34:22;2;74;74;74;74;74;74;74;74;74;74;
2023-04-10 08:34:22;3;77;77;77;77;77;77;77;77;77;77;
2023-04-10 08:34:22;ht;99;20.40
2023-04-10 08:34:22;v;4.26
2023-04-10 09:04:25;1;75;75;75;75;75;75;75;75;75;75;
2023-04-10 09:04:25;2;78;78;78;78;78;78;78;78;78;78;
2023-04-10 09:04:25;3;81;81;81;81;81;81;81;81;81;81;
2023-04-10 09:04:25;ht;99;21.10
2023-04-10 09:04:25;v;4.26
2023-04-10 09:34:26;1;74;74;74;74;74;74;74;74;74;74;
2023-04-10 09:34:26;2;85;85;85;85;85;85;85;85;85;85;
2023-04-10 09:34:26;3;76;76;76;76;76;76;76;76;76;76;
2023-04-10 09:34:26;ht;99;22.60
2023-04-10 09:34:26;v;4.26
2023-04-10 10:04:28;1;82;82;82;82;82;82;82;82;82;82;
2023-04-10 10:04:28;2;76;76;76;76;76;76;76;76;76;76;
2023-04-10 10:04:28;3;84;84;84;84;84;84;84;84;84;84;
2023-04-10 10:04:28;ht;99;24.40
2023-04-10 10:04:28;v;4.26
2023-04-10 10:34:26;1;78;78;78;78;78;78;78;78;78;78;
2023-04-10 10:34:26;2;78;78;78;78;78;78;78;78;78;78;
2023-04-10 10:34:26;3;77;77;77;77;77;77;77;77;77;77;
2023-04-10 10:34:26;ht;99;25.20
2023-04-10 10:34:26;v;4.26
2023-04-10 11:04:30;1;79;79;79;79;79;79;79;79;79;79;
2023-04-10 11:04:30;2;78;78;78;78;78;78;78;78;78;78;
2023-04-10 11:04:30;3;78;78;78;78;78;78;78;78;78;78;
2023-04-10 11:04:30;ht;99;26.20
2023-04-10 11:04:30;v;4.26
2023-04-10 11:34:30;1;82;82;82;82;82;82;82;82;82;82;
2023-04-10 11:34:30;2;82;81;82;82;82;82;82;82;82;82;
2023-04-10 11:34:30;3;83;83;83;83;83;82;83;83;82;83;
2023-04-10 11:34:30;ht;99;26.40
2023-04-10 11:34:30;v;4.26
2023-04-10 12:04:31;1;82;82;82;82;82;81;82;82;82;82;
2023-04-10 12:04:31;2;78;78;78;78;78;78;78;78;78;78;
2023-04-10 12:04:31;3;75;75;75;75;75;75;75;75;75;75;
2023-04-10 12:04:31;ht;99;27.10
2023-04-10 12:04:31;v;4.26
2023-04-10 12:34:32;1;82;83;83;82;82;82;83;83;83;82;
2023-04-10 12:34:32;2;92;92;92;92;92;92;92;92;92;92;
2023-04-10 12:34:32;3;77;77;77;77;77;77;77;77;77;77;
2023-04-10 12:34:32;ht;99;28.40
2023-04-10 12:34:32;v;4.26
2023-04-10 13:04:29;1;76;76;76;76;76;76;76;76;76;76;
2023-04-10 13:04:29;2;81;81;81;81;81;81;81;81;81;81;
2023-04-10 13:04:29;3;74;74;74;74;74;74;74;74;74;74;
2023-04-10 13:04:29;ht;99;28.20
2023-04-10 13:04:29;v;4.26
2023-04-10 13:34:32;1;78;78;78;78;78;78;78;78;78;78;
2023-04-10 13:34:32;2;77;77;77;77;77;77;77;77;77;77;
2023-04-10 13:34:32;3;76;76;76;76;76;76;76;76;76;76;
2023-04-10 13:34:32;ht;99;28.60
2023-04-10 13:34:32;v;4.26
2023-04-10 14:04:30;1;76;76;76;76;76;76;76;76;76;76;
2023-04-10 14:04:30;2;78;79;78;78;79;79;79;79;78;79;
2023-04-10 14:04:30;3;78;78;78;78;78;78;78;78;78;78;
2023-04-10 14:04:30;ht;99;29.50
2023-04-10 14:04:30;v;4.26
2023-04-10 14:34:33;1;76;76;76;76;76;76;76;76;76;76;
2023-04-10 14:34:33;2;81;81;81;81;81;81;81;81;81;81;
2023-04-10 14:34:33;3;78;79;79;79;79;79;79;79;79;79;
2023-04-10 14:34:33;ht;99;28.60
2023-04-10 14:34:33;v;4.26
2023-04-10 15:04:32;1;75;75;75;75;75;75;75;75;75;75;
2023-04-10 15:04:32;2;74;74;74;74;74;74;74;74;74;74;
2023-04-10 15:04:32;3;75;75;75;75;75;75;75;75;75;75;
2023-04-10 15:04:32;ht;99;28.40
2023-04-10 15:04:32;v;4.26
2023-04-10 15:34:31;1;77;77;77;77;77;77;77;77;77;77;
2023-04-10 15:34:31;2;76;76;76;76;76;76;76;76;76;76;
2023-04-10 15:34:31;3;77;77;77;77;77;77;77;77;77;77;
2023-04-10 15:34:31;ht;99;29.80
2023-04-10 15:34:31;v;4.26
2023-04-10 16:04:33;1;74;74;74;74;74;74;74;74;74;74;
2023-04-10 16:04:33;2;77;77;76;76;77;76;77;77;77;77;
2023-04-10 16:04:33;3;78;78;78;78;78;78;78;78;78;78;
2023-04-10 16:04:33;ht;99;27.90
2023-04-10 16:04:33;v;4.27
2023-04-10 16:34:30;1;75;75;75;75;75;75;75;75;75;75;
2023-04-10 16:34:30;2;85;85;85;85;85;85;85;85;85;85;
2023-04-10 16:34:30;3;77;77;77;77;77;77;77;77;77;77;
2023-04-10 16:34:30;ht;99;28.50
2023-04-10 16:34:30;v;4.26
2023-04-10 17:04:32;1;79;79;79;80;79;80;79;79;79;79;
2023-04-10 17:04:32;2;83;83;83;83;83;83;83;83;83;83;
2023-04-10 17:04:32;3;78;78;78;78;78;78;78;78;78;78;
2023-04-10 17:04:32;ht;99;27.10
2023-04-10 17:04:32;v;4.26
2023-04-10 17:34:29;1;75;75;75;75;75;75;75;75;75;75;
2023-04-10 17:34:29;2;78;78;78;78;78;78;78;78;78;78;
2023-04-10 17:34:29;3;79;79;79;79;79;79;79;79;79;79;
2023-04-10 17:34:29;ht;99;26.10
2023-04-10 17:34:29;v;4.26
2023-04-10 18:04:29;1;79;79;79;79;79;79;79;79;79;79;
2023-04-10 18:04:29;2;3;3;3;3;3;3;3;3;3;3;
2023-04-10 18:04:29;3;76;76;76;76;76;76;76;76;76;77;
2023-04-10 18:04:29;ht;99;24.70
2023-04-10 18:04:29;v;4.26
2023-04-10 18:34:27;1;74;74;74;74;74;74;74;74;74;74;
2023-04-10 18:34:27;2;74;74;74;74;74;74;74;74;74;74;
2023-04-10 18:34:27;3;76;76;76;76;76;76;76;76;76;76;
2023-04-10 18:34:27;ht;99;22.50
2023-04-10 18:34:27;v;4.27
2023-04-10 19:04:23;1;78;78;78;78;78;78;78;78;78;78;
2023-04-10 19:04:23;2;79;79;79;78;79;78;78;79;79;79;
2023-04-10 19:04:23;3;112;112;112;112;112;112;112;112;112;112;
2023-04-10 19:04:23;ht;99;21.30
2023-04-10 19:04:23;v;4.27
2023-04-10 19:34:23;1;77;77;77;77;77;77;77;77;77;77;
2023-04-10 19:34:23;2;80;80;80;80;80;80;80;80;80;80;
2023-04-10 19:34:23;3;90;90;90;90;90;90;90;90;90;90;
2023-04-10 19:34:23;ht;99;20.10
2023-04-10 19:34:23;v;4.27
2023-04-10 20:04:26;1;76;76;76;76;76;76;76;76;76;76;
2023-04-10 20:04:26;2;89;89;89;89;89;89;89;89;89;89;
2023-04-10 20:04:26;3;76;76;76;76;76;76;76;76;76;76;
2023-04-10 20:04:26;ht;99;19.20
2023-04-10 20:04:26;v;4.27
2023-04-10 20:34:24;1;90;90;90;90;90;90;90;90;90;90;
2023-04-10 20:34:24;2;82;82;82;82;82;82;82;82;82;82;
2023-04-10 20:34:24;3;76;76;76;76;76;76;76;76;76;76;
2023-04-10 20:34:24;ht;99;18.90
2023-04-10 20:34:24;v;4.27
2023-04-10 21:04:21;1;85;85;85;85;85;85;85;85;85;85;
2023-04-10 21:04:21;2;89;89;89;89;89;89;89;89;89;89;
2023-04-10 21:04:21;3;77;77;77;77;77;77;77;77;77;77;
2023-04-10 21:04:21;ht;99;18.40
2023-04-10 21:04:21;v;4.27
2023-04-10 21:34:23;1;75;75;75;75;75;75;75;75;75;75;
2023-04-10 21:34:23;2;84;84;84;84;84;84;84;84;84;84;
2023-04-10 21:34:23;3;80;80;80;80;80;80;80;80;80;80;
2023-04-10 21:34:23;ht;99;17.60
2023-04-10 21:34:23;v;4.27
2023-04-10 22:04:24;1;86;86;86;86;86;86;86;86;86;86;
2023-04-10 22:04:24;2;79;79;79;79;79;79;79;79;79;79;
2023-04-10 22:04:24;3;89;89;89;89;89;89;89;89;89;89;
2023-04-10 22:04:24;ht;99;17.30
2023-04-10 22:04:24;v;4.26
2023-04-10 22:34:20;1;84;83;83;83;83;83;83;83;83;83;
2023-04-10 22:34:20;2;82;82;82;82;82;82;82;82;82;82;
2023-04-10 22:34:20;3;75;75;75;75;75;75;75;75;75;75;
2023-04-10 22:34:20;ht;99;17.20
2023-04-10 22:34:20;v;4.27
2023-04-10 23:04:21;1;81;81;81;81;81;81;81;81;81;81;
2023-04-10 23:04:21;2;82;82;82;82;82;82;82;82;82;82;
2023-04-10 23:04:21;3;79;79;79;79;79;79;79;79;79;79;
2023-04-10 23:04:21;ht;99;17.00
2023-04-10 23:04:21;v;4.26
2023-04-10 23:34:22;1;79;79;79;79;79;79;79;79;79;79;
2023-04-10 23:34:22;2;80;80;80;80;80;80;80;80;80;80;
2023-04-10 23:34:22;3;88;88;88;88;88;88;88;88;88;88;
2023-04-10 23:34:22;ht;99;16.60
2023-04-10 23:34:22;v;4.26
