2023-11-21 00:04:25;1;87;88;88;87;88;87;87;87;87;87;
2023-11-21 00:04:25;2;74;74;74;74;74;74;74;74;74;74;
2023-11-21 00:04:25;3;83;83;83;83;83;83;83;83;83;83;
2023-11-21 00:04:25;ht;97;23.50
2023-11-21 00:04:25;v;4.24
2023-11-21 00:34:27;1;86;86;86;86;86;86;86;86;86;86;
2023-11-21 00:34:27;2;75;78;77;76;75;75;75;75;75;75;
2023-11-21 00:34:27;3;81;81;81;81;81;81;81;81;81;81;
2023-11-21 00:34:27;ht;97;24.10
2023-11-21 00:34:27;v;4.23
2023-11-21 01:04:29;1;83;83;83;83;83;83;83;83;83;90;
2023-11-21 01:04:29;2;80;80;80;80;80;80;80;80;80;79;
2023-11-21 01:04:29;3;85;85;85;85;85;85;85;85;85;85;
2023-11-21 01:04:29;ht;97;23.20
2023-11-21 01:04:29;v;4.24
2023-11-21 01:34:26;1;86;86;86;86;86;86;93;87;86;86;
2023-11-21 01:34:26;2;77;77;77;76;80;77;77;76;77;76;
2023-11-21 01:34:26;3;83;82;82;82;82;82;82;82;82;82;
2023-11-21 01:34:26;ht;97;22.50
2023-11-21 01:34:26;v;4.23
2023-11-21 02:04:26;1;88;88;88;88;88;88;94;90;89;89;
2023-11-21 02:04:26;2;82;82;82;82;82;82;82;85;83;82;
2023-11-21 02:04:26;3;2;3;3;3;3;3;3;3;3;2;
2023-11-21 02:04:26;ht;97;21.80
2023-11-21 02:04:26;v;4.23
2023-11-21 02:34:27;1;89;89;89;89;90;89;96;91;90;90;
2023-11-21 02:34:27;2;86;84;83;83;83;83;83;83;83;83;
2023-11-21 02:34:27;3;2;2;2;9;4;3;3;3;3;3;
2023-11-21 02:34:27;ht;97;21.70
2023-11-21 02:34:27;v;4.23
2023-11-21 03:04:27;1;87;87;87;87;87;87;93;89;88;88;
2023-11-21 03:04:27;2;77;77;77;77;79;79;78;77;77;77;
2023-11-21 03:04:27;3;75;75;75;75;75;75;75;75;75;75;
2023-11-21 03:04:27;ht;97;22.20
2023-11-21 03:04:27;v;4.23
2023-11-21 03:34:27;1;79;85;81;80;80;79;80;79;79;79;
2023-11-21 03:34:27;2;80;80;80;83;81;81;80;80;80;80;
2023-11-21 03:34:27;3;92;92;92;91;92;92;92;92;92;92;
2023-11-21 03:34:27;ht;97;21.80
2023-11-21 03:34:27;v;4.23
2023-11-21 04:04:23;1;97;97;97;97;97;97;103;99;98;98;
2023-11-21 04:04:23;2;79;79;79;82;81;80;80;79;79;79;
2023-11-21 04:04:23;3;118;118;118;118;118;118;118;118;118;118;
2023-11-21 04:04:23;ht;97;21.50
2023-11-21 04:04:23;v;4.23
2023-11-21 04:34:27;1;121;114;114;114;114;114;114;114;114;114;
2023-11-21 04:34:27;2;77;77;77;77;77;77;77;77;77;77;
2023-11-21 04:34:27;3;74;74;74;74;74;74;74;74;74;74;
2023-11-21 04:34:27;ht;97;21.20
2023-11-21 04:34:27;v;4.23
2023-11-21 05:04:23;1;82;82;82;82;82;82;82;82;82;82;
2023-11-21 05:04:23;2;78;78;77;76;76;76;76;76;76;76;
2023-11-21 05:04:23;3;67;67;67;67;67;67;67;67;67;67;
2023-11-21 05:04:23;ht;97;20.90
2023-11-21 05:04:23;v;4.23
2023-11-21 05:34:27;1;71;71;71;78;72;71;71;71;71;71;
2023-11-21 05:34:27;2;87;87;89;88;88;87;87;87;87;87;
2023-11-21 05:34:27;3;75;75;75;75;75;75;75;76;75;75;
2023-11-21 05:34:27;ht;97;21.30
2023-11-21 05:34:27;v;4.23
2023-11-21 06:04:27;1;3;2;2;2;3;6;10;3;3;3;
2023-11-21 06:04:27;2;66;66;68;67;66;66;66;66;66;66;
2023-11-21 06:04:27;3;75;75;75;75;75;75;75;75;75;75;
2023-11-21 06:04:27;ht;97;21.70
2023-11-21 06:04:27;v;4.23
2023-11-21 06:34:28;1;70;70;70;70;77;71;70;70;70;70;
2023-11-21 06:34:28;2;77;77;78;79;78;78;77;77;77;77;
2023-11-21 06:34:28;3;67;67;67;67;67;67;67;67;67;67;
2023-11-21 06:34:28;ht;97;23.30
2023-11-21 06:34:28;v;4.23
2023-11-21 07:04:26;1;75;74;73;73;73;73;73;73;73;73;
2023-11-21 07:04:26;2;68;70;69;69;68;68;68;68;68;68;
2023-11-21 07:04:26;3;64;64;64;64;64;64;64;64;64;64;
2023-11-21 07:04:26;ht;97;24.80
2023-11-21 07:04:26;v;4.23
2023-11-21 07:34:31;1;64;64;64;64;64;64;64;64;71;66;
2023-11-21 07:34:31;2;66;66;65;65;65;64;65;64;64;64;
2023-11-21 07:34:31;3;63;63;63;63;63;63;63;63;63;63;
2023-11-21 07:34:31;ht;97;26.50
2023-11-21 07:34:31;v;4.23
2023-11-21 08:04:33;1;71;72;71;71;71;71;71;71;71;71;
2023-11-21 08:04:33;2;68;67;67;68;67;67;68;68;67;67;
2023-11-21 08:04:33;3;70;70;70;70;70;70;70;70;70;70;
2023-11-21 08:04:33;ht;97;27.80
2023-11-21 08:04:33;v;4.23
2023-11-21 08:34:33;1;69;69;73;77;70;69;69;69;69;69;
2023-11-21 08:34:33;2;78;78;78;78;79;79;78;78;78;78;
2023-11-21 08:34:33;3;65;65;65;65;65;65;65;65;65;65;
2023-11-21 08:34:33;ht;97;28.90
2023-11-21 08:34:33;v;4.21
2023-11-21 09:04:35;1;68;75;69;69;68;68;68;68;68;68;
2023-11-21 09:04:35;2;66;65;65;65;65;66;65;65;65;65;
2023-11-21 09:04:35;3;74;74;74;74;74;74;74;74;74;74;
2023-11-21 09:04:35;ht;94;29.80
2023-11-21 09:04:35;v;4.19
2023-11-21 09:34:34;1;84;92;86;85;85;85;85;85;85;85;
2023-11-21 09:34:34;2;67;67;67;67;67;67;67;67;67;67;
2023-11-21 09:34:34;3;62;62;62;62;62;62;62;62;63;62;
2023-11-21 09:34:34;ht;91;30.60
2023-11-21 09:34:34;v;4.19
2023-11-21 10:04:39;1;64;64;70;66;65;65;64;64;64;64;
2023-11-21 10:04:39;2;73;72;72;72;72;72;72;72;72;72;
2023-11-21 10:04:39;3;70;70;70;70;70;70;70;70;70;71;
2023-11-21 10:04:39;ht;90;31.70
2023-11-21 10:04:39;v;4.21
2023-11-21 10:34:37;1;72;72;73;73;72;72;72;72;72;72;
2023-11-21 10:34:37;2;71;71;71;71;71;71;71;71;71;71;
2023-11-21 10:34:37;3;63;63;63;63;63;63;63;63;63;63;
2023-11-21 10:34:37;ht;86;32.70
2023-11-21 10:34:37;v;4.20
2023-11-21 11:04:41;1;68;68;68;68;68;68;68;68;68;68;
2023-11-21 11:04:41;2;70;70;70;70;70;70;70;70;70;70;
2023-11-21 11:04:41;3;75;76;75;75;75;75;75;75;75;75;
2023-11-21 11:04:41;ht;84;34.10
2023-11-21 11:04:41;v;4.21
2023-11-21 11:34:40;1;70;70;69;69;69;69;69;69;69;69;
2023-11-21 11:34:40;2;69;69;69;69;69;69;69;69;69;69;
2023-11-21 11:34:40;3;68;68;68;68;68;68;68;68;68;68;
2023-11-21 11:34:40;ht;81;33.40
2023-11-21 11:34:40;v;4.21
2023-11-21 12:04:38;1;63;63;63;63;63;63;64;63;63;63;
2023-11-21 12:04:38;2;77;77;79;79;78;77;77;77;77;77;
2023-11-21 12:04:38;3;69;69;69;69;69;69;69;69;69;69;
2023-11-21 12:04:38;ht;80;34.20
2023-11-21 12:04:38;v;4.22
2023-11-21 12:34:40;1;3;2;3;3;3;3;3;3;3;3;
2023-11-21 12:34:40;2;63;63;63;63;63;63;63;63;63;63;
2023-11-21 12:34:40;3;70;70;70;70;70;70;70;70;70;70;
2023-11-21 12:34:40;ht;79;34.50
2023-11-21 12:34:40;v;4.23
2023-11-21 13:04:36;1;65;69;69;66;65;65;65;65;65;66;
2023-11-21 13:04:36;2;69;69;69;68;69;69;69;69;68;69;
2023-11-21 13:04:36;3;66;66;66;66;66;66;66;66;66;66;
2023-11-21 13:04:36;ht;91;31.70
2023-11-21 13:04:36;v;4.22
2023-11-21 13:34:34;1;70;69;69;69;69;69;69;69;69;69;
2023-11-21 13:34:34;2;64;64;64;64;64;64;64;64;64;64;
2023-11-21 13:34:34;3;65;65;65;65;66;65;65;65;65;65;
2023-11-21 13:34:34;ht;89;32.30
2023-11-21 13:34:34;v;4.23
2023-11-21 14:04:36;1;69;69;69;69;69;69;69;69;69;69;
2023-11-21 14:04:36;2;65;65;65;65;65;65;65;65;65;65;
2023-11-21 14:04:36;3;61;61;61;61;61;61;61;61;61;61;
2023-11-21 14:04:36;ht;93;31.10
2023-11-21 14:04:36;v;4.22
2023-11-21 14:34:32;1;73;73;72;72;72;72;72;72;72;72;
2023-11-21 14:34:32;2;65;65;65;65;65;65;65;65;65;65;
2023-11-21 14:34:32;3;64;64;64;64;64;64;64;64;64;64;
2023-11-21 14:34:32;ht;93;30.70
2023-11-21 14:34:32;v;4.23
2023-11-21 15:04:30;1;66;66;66;66;66;66;66;66;66;66;
2023-11-21 15:04:30;2;63;63;63;63;63;63;63;63;63;63;
2023-11-21 15:04:30;3;62;62;62;62;62;62;62;62;62;62;
2023-11-21 15:04:30;ht;97;29.80
2023-11-21 15:04:30;v;4.23
2023-11-21 15:34:33;1;65;64;64;64;64;64;64;64;64;64;
2023-11-21 15:34:33;2;77;77;77;77;77;77;77;77;77;77;
2023-11-21 15:34:33;3;69;69;69;69;69;69;69;69;69;69;
2023-11-21 15:34:33;ht;97;26.70
2023-11-21 15:34:33;v;4.23
2023-11-21 16:04:28;1;67;67;67;67;67;67;67;67;67;67;
2023-11-21 16:04:28;2;66;66;66;66;67;66;66;66;66;66;
2023-11-21 16:04:28;3;64;64;64;64;64;64;64;64;64;64;
2023-11-21 16:04:28;ht;97;22.90
2023-11-21 16:04:28;v;4.24
2023-11-21 16:34:26;1;65;65;65;65;65;65;65;65;65;65;
2023-11-21 16:34:26;2;74;74;74;74;74;74;74;74;74;74;
2023-11-21 16:34:26;3;72;72;72;72;72;72;72;72;72;72;
2023-11-21 16:34:26;ht;97;23.80
2023-11-21 16:34:26;v;4.24
2023-11-21 17:04:28;1;78;78;78;78;78;78;78;78;79;78;
2023-11-21 17:04:28;2;73;72;73;73;72;72;73;73;73;73;
2023-11-21 17:04:28;3;71;71;71;71;71;71;71;71;71;71;
2023-11-21 17:04:28;ht;97;23.90
2023-11-21 17:04:28;v;4.24
2023-11-21 17:34:25;1;63;63;63;63;63;63;63;63;63;63;
2023-11-21 17:34:25;2;70;70;70;70;70;70;70;70;70;70;
2023-11-21 17:34:25;3;68;68;68;68;68;68;68;68;68;68;
2023-11-21 17:34:25;ht;97;23.40
2023-11-21 17:34:25;v;4.23
2023-11-21 18:04:27;1;84;84;84;84;84;84;84;85;84;84;
2023-11-21 18:04:27;2;73;73;73;73;73;73;73;73;73;73;
2023-11-21 18:04:27;3;73;73;73;73;73;73;73;73;73;73;
2023-11-21 18:04:27;ht;97;23.30
2023-11-21 18:04:27;v;4.24
2023-11-21 18:34:28;1;72;73;72;72;72;72;72;72;72;72;
2023-11-21 18:34:28;2;76;75;75;76;75;76;76;75;76;76;
2023-11-21 18:34:28;3;78;78;78;78;78;78;78;78;78;78;
2023-11-21 18:34:28;ht;97;22.40
2023-11-21 18:34:28;v;4.23
2023-11-21 19:04:25;1;78;78;77;77;77;77;77;77;77;78;
2023-11-21 19:04:25;2;91;91;91;91;91;91;91;91;91;91;
2023-11-21 19:04:25;3;85;85;85;85;85;85;85;85;85;85;
2023-11-21 19:04:25;ht;97;21.90
2023-11-21 19:04:25;v;4.24
2023-11-21 19:34:25;1;80;80;80;80;80;80;80;80;80;80;
2023-11-21 19:34:25;2;84;84;84;84;84;84;84;84;84;84;
2023-11-21 19:34:25;3;79;79;79;79;79;79;79;79;79;79;
2023-11-21 19:34:25;ht;97;21.60
2023-11-21 19:34:25;v;4.24
2023-11-21 20:04:25;1;82;82;81;81;81;81;81;81;81;81;
2023-11-21 20:04:25;2;77;77;76;76;77;76;76;77;76;76;
2023-11-21 20:04:25;3;78;78;78;78;78;78;78;78;78;78;
2023-11-21 20:04:25;ht;97;19.50
2023-11-21 20:04:25;v;4.23
2023-11-21 20:34:24;1;69;69;69;69;69;69;69;69;69;69;
2023-11-21 20:34:24;2;75;75;75;75;75;75;75;75;75;75;
2023-11-21 20:34:24;3;86;86;86;86;86;86;86;86;86;86;
2023-11-21 20:34:24;ht;97;19.20
2023-11-21 20:34:24;v;4.24
2023-11-21 21:04:22;1;3;3;3;3;3;3;3;3;3;3;
2023-11-21 21:04:22;2;78;78;78;78;78;78;78;78;78;78;
2023-11-21 21:04:22;3;82;82;82;82;82;82;82;82;82;82;
2023-11-21 21:04:22;ht;97;18.70
2023-11-21 21:04:22;v;4.23
2023-11-21 21:34:25;1;73;73;73;73;73;73;73;73;73;73;
2023-11-21 21:34:25;2;81;81;81;81;81;81;81;81;81;81;
2023-11-21 21:34:25;3;81;81;81;81;81;81;81;81;81;81;
2023-11-21 21:34:25;ht;97;18.30
2023-11-21 21:34:25;v;4.24
2023-11-21 22:04:23;1;76;76;76;76;76;76;76;76;76;76;
2023-11-21 22:04:23;2;81;81;81;81;81;81;81;81;81;81;
2023-11-21 22:04:23;3;75;74;75;75;75;74;75;75;75;75;
2023-11-21 22:04:23;ht;97;18.30
2023-11-21 22:04:23;v;4.23
2023-11-21 22:34:21;1;83;82;83;82;82;82;82;83;82;82;
2023-11-21 22:34:21;2;83;83;83;83;82;83;83;83;83;83;
2023-11-21 22:34:21;3;2;2;2;2;2;2;2;2;2;2;
2023-11-21 22:34:21;ht;97;17.90
2023-11-21 22:34:21;v;4.23
2023-11-21 23:04:24;1;109;109;109;109;109;109;109;109;109;109;
2023-11-21 23:04:24;2;68;68;68;68;68;68;68;68;68;68;
2023-11-21 23:04:24;3;67;67;67;67;67;67;67;67;67;67;
2023-11-21 23:04:24;ht;97;17.90
2023-11-21 23:04:24;v;4.23
2023-11-21 23:34:22;1;80;80;80;80;80;80;80;80;80;80;
2023-11-21 23:34:22;2;76;76;76;76;76;76;76;76;76;76;
2023-11-21 23:34:22;3;85;85;85;85;85;85;85;85;85;85;
2023-11-21 23:34:22;ht;97;18.30
2023-11-21 23:34:22;v;4.22
