2023-12-03 00:04:27;1;73;73;72;73;72;72;72;73;72;73;
2023-12-03 00:04:27;2;74;74;74;74;74;74;74;74;74;74;
2023-12-03 00:04:27;3;79;79;79;78;79;79;78;78;79;78;
2023-12-03 00:04:27;ht;94;21.10
2023-12-03 00:04:27;v;4.22
2023-12-03 00:34:26;1;66;66;66;66;66;66;66;66;66;66;
2023-12-03 00:34:26;2;82;82;82;82;82;82;82;82;82;82;
2023-12-03 00:34:26;3;68;68;68;68;68;68;68;68;68;68;
2023-12-03 00:34:26;ht;94;21.60
2023-12-03 00:34:26;v;4.21
2023-12-03 01:04:25;1;3;2;2;3;3;3;3;3;2;2;
2023-12-03 01:04:25;2;84;84;84;84;84;84;84;84;84;84;
2023-12-03 01:04:25;3;71;71;71;71;71;71;71;71;71;71;
2023-12-03 01:04:25;ht;94;21.10
2023-12-03 01:04:25;v;4.22
2023-12-03 01:34:24;1;198;198;198;198;198;198;198;198;198;198;
2023-12-03 01:34:24;2;84;84;84;84;84;84;84;84;84;84;
2023-12-03 01:34:24;3;3;3;3;3;3;3;3;3;3;3;
2023-12-03 01:34:24;ht;94;21.00
2023-12-03 01:34:24;v;4.21
2023-12-03 02:04:24;1;124;124;124;124;124;124;124;124;124;124;
2023-12-03 02:04:24;2;74;74;74;74;74;74;74;74;74;74;
2023-12-03 02:04:24;3;3;3;3;3;3;3;3;3;3;3;
2023-12-03 02:04:24;ht;94;20.90
2023-12-03 02:04:24;v;4.22
2023-12-03 02:34:23;1;68;68;68;68;68;68;68;68;68;68;
2023-12-03 02:34:23;2;75;75;75;75;75;75;75;75;75;75;
2023-12-03 02:34:23;3;70;70;70;70;70;70;70;70;70;70;
2023-12-03 02:34:23;ht;94;21.20
2023-12-03 02:34:23;v;4.20
2023-12-03 03:04:27;1;75;75;75;75;75;75;75;75;75;75;
2023-12-03 03:04:27;2;74;74;74;74;74;74;74;74;74;74;
2023-12-03 03:04:27;3;76;76;76;76;76;76;76;76;76;76;
2023-12-03 03:04:27;ht;93;21.40
2023-12-03 03:04:27;v;4.21
2023-12-03 03:34:26;1;82;82;83;83;82;82;82;82;82;83;
2023-12-03 03:34:26;2;77;77;77;77;77;77;77;77;77;77;
2023-12-03 03:34:26;3;88;87;88;88;88;88;88;88;87;87;
2023-12-03 03:34:26;ht;92;21.60
2023-12-03 03:34:26;v;4.20
2023-12-03 04:04:26;1;91;91;91;91;99;92;92;91;91;92;
2023-12-03 04:04:26;2;73;73;73;73;73;74;73;73;73;73;
2023-12-03 04:04:26;3;82;82;82;82;82;82;82;82;82;82;
2023-12-03 04:04:26;ht;91;21.60
2023-12-03 04:04:26;v;4.20
2023-12-03 04:34:25;1;88;88;88;88;93;91;89;89;89;89;
2023-12-03 04:34:25;2;73;73;73;73;73;73;73;73;73;73;
2023-12-03 04:34:25;3;80;80;80;80;80;80;80;80;80;80;
2023-12-03 04:34:25;ht;94;21.90
2023-12-03 04:34:25;v;4.21
2023-12-03 05:04:25;1;75;75;75;75;75;75;75;75;75;75;
2023-12-03 05:04:25;2;75;75;75;75;74;75;75;75;75;75;
2023-12-03 05:04:25;3;62;62;62;62;62;62;62;62;62;62;
2023-12-03 05:04:25;ht;93;21.80
2023-12-03 05:04:25;v;4.20
2023-12-03 05:34:25;1;75;75;75;75;75;75;75;75;75;75;
2023-12-03 05:34:25;2;82;82;83;82;82;83;82;83;83;83;
2023-12-03 05:34:25;3;65;65;65;65;65;65;65;65;65;65;
2023-12-03 05:34:25;ht;97;20.20
2023-12-03 05:34:25;v;4.21
2023-12-03 06:04:24;1;76;76;76;76;76;76;76;76;76;76;
2023-12-03 06:04:24;2;75;74;74;74;74;74;74;74;74;74;
2023-12-03 06:04:24;3;83;83;83;83;83;83;83;83;83;83;
2023-12-03 06:04:24;ht;97;19.60
2023-12-03 06:04:24;v;4.21
2023-12-03 06:34:22;1;67;67;67;67;67;67;67;67;67;67;
2023-12-03 06:34:22;2;73;73;73;73;73;73;73;73;73;73;
2023-12-03 06:34:22;3;66;66;66;66;66;66;66;66;66;66;
2023-12-03 06:34:22;ht;97;19.90
2023-12-03 06:34:22;v;4.22
2023-12-03 07:04:25;1;70;70;70;70;70;70;70;70;70;70;
2023-12-03 07:04:25;2;73;73;74;73;73;73;73;73;73;73;
2023-12-03 07:04:25;3;78;78;78;77;78;78;78;77;78;78;
2023-12-03 07:04:25;ht;97;19.90
2023-12-03 07:04:25;v;4.21
2023-12-03 07:34:24;1;74;74;74;74;74;74;74;74;74;74;
2023-12-03 07:34:24;2;75;75;75;75;75;75;75;75;75;75;
2023-12-03 07:34:24;3;71;71;71;71;71;71;71;71;71;71;
2023-12-03 07:34:24;ht;97;19.80
2023-12-03 07:34:24;v;4.21
2023-12-03 08:04:23;1;79;79;80;79;79;79;79;79;79;80;
2023-12-03 08:04:23;2;74;74;74;74;74;74;74;74;74;74;
2023-12-03 08:04:23;3;72;72;72;72;72;72;73;72;72;72;
2023-12-03 08:04:23;ht;97;19.30
2023-12-03 08:04:23;v;4.22
2023-12-03 08:34:22;1;68;68;69;68;68;69;69;76;69;69;
2023-12-03 08:34:22;2;78;77;77;77;78;78;78;78;77;77;
2023-12-03 08:34:22;3;71;71;71;71;71;71;71;71;71;71;
2023-12-03 08:34:22;ht;97;19.30
2023-12-03 08:34:22;v;4.21
2023-12-03 09:04:26;1;67;67;67;67;67;67;67;67;67;67;
2023-12-03 09:04:26;2;74;74;74;74;74;74;74;74;74;74;
2023-12-03 09:04:26;3;3;2;3;3;3;2;3;3;3;3;
2023-12-03 09:04:26;ht;97;19.00
2023-12-03 09:04:26;v;4.22
2023-12-03 09:34:25;1;83;82;82;82;82;82;82;82;82;82;
2023-12-03 09:34:25;2;77;77;79;78;78;77;77;77;77;77;
2023-12-03 09:34:25;3;69;69;69;69;69;69;69;69;69;69;
2023-12-03 09:34:25;ht;97;18.30
2023-12-03 09:34:25;v;4.20
2023-12-03 10:04:23;1;67;67;67;67;67;67;67;73;69;68;
2023-12-03 10:04:23;2;76;75;76;75;75;76;76;76;76;76;
2023-12-03 10:04:23;3;75;75;75;75;75;75;75;75;75;75;
2023-12-03 10:04:23;ht;97;18.10
2023-12-03 10:04:23;v;4.22
2023-12-03 10:34:25;1;65;65;65;65;73;66;65;65;65;65;
2023-12-03 10:34:25;2;77;76;76;76;76;76;76;76;76;76;
2023-12-03 10:34:25;3;64;65;65;64;65;65;64;65;65;65;
2023-12-03 10:34:25;ht;97;18.30
2023-12-03 10:34:25;v;4.21
2023-12-03 11:04:24;1;75;75;75;75;75;82;76;75;75;75;
2023-12-03 11:04:24;2;78;77;77;77;77;77;77;77;77;77;
2023-12-03 11:04:24;3;72;72;72;72;72;72;72;72;72;72;
2023-12-03 11:04:24;ht;97;18.50
2023-12-03 11:04:24;v;4.21
2023-12-03 11:34:22;1;65;65;65;65;65;65;65;65;65;65;
2023-12-03 11:34:22;2;68;67;67;67;67;67;67;67;67;67;
2023-12-03 11:34:22;3;72;72;72;72;72;72;72;72;72;72;
2023-12-03 11:34:22;ht;97;18.50
2023-12-03 11:34:22;v;4.22
2023-12-03 12:04:25;1;70;70;70;70;70;70;70;70;70;70;
2023-12-03 12:04:25;2;74;74;74;74;73;74;73;74;74;73;
2023-12-03 12:04:25;3;66;66;66;66;66;66;66;66;66;66;
2023-12-03 12:04:25;ht;97;19.00
2023-12-03 12:04:25;v;4.21
2023-12-03 12:34:23;1;65;65;65;65;65;65;65;65;66;65;
2023-12-03 12:34:23;2;79;79;79;79;79;79;79;79;80;79;
2023-12-03 12:34:23;3;65;65;65;65;65;65;65;65;65;65;
2023-12-03 12:34:23;ht;97;18.30
2023-12-03 12:34:23;v;4.22
2023-12-03 13:04:21;1;89;88;88;87;87;87;87;87;87;88;
2023-12-03 13:04:21;2;76;76;76;76;76;76;76;76;76;76;
2023-12-03 13:04:21;3;75;75;75;75;75;75;75;75;75;75;
2023-12-03 13:04:21;ht;97;17.30
2023-12-03 13:04:21;v;4.20
2023-12-03 13:34:23;1;74;74;74;74;79;76;75;74;74;74;
2023-12-03 13:34:23;2;80;80;80;80;80;80;80;80;80;80;
2023-12-03 13:34:23;3;78;77;77;76;76;76;76;76;76;76;
2023-12-03 13:34:23;ht;97;18.00
2023-12-03 13:34:23;v;4.22
2023-12-03 14:04:26;1;67;67;67;67;67;67;67;67;67;67;
2023-12-03 14:04:26;2;78;79;79;79;78;79;79;79;79;79;
2023-12-03 14:04:26;3;73;73;73;73;73;73;73;73;73;73;
2023-12-03 14:04:26;ht;97;19.90
2023-12-03 14:04:26;v;4.22
2023-12-03 14:34:27;1;3;3;3;3;3;3;3;3;2;3;
2023-12-03 14:34:27;2;77;77;77;77;77;77;77;77;77;77;
2023-12-03 14:34:27;3;73;73;73;73;73;73;73;73;73;73;
2023-12-03 14:34:27;ht;94;21.00
2023-12-03 14:34:27;v;4.22
2023-12-03 15:04:24;1;77;77;77;77;77;77;77;77;77;77;
2023-12-03 15:04:24;2;79;79;79;79;79;79;79;79;79;79;
2023-12-03 15:04:24;3;68;68;68;67;68;67;68;67;67;67;
2023-12-03 15:04:24;ht;88;21.00
2023-12-03 15:04:24;v;4.22
2023-12-03 15:34:26;1;66;66;66;66;66;66;66;66;66;66;
2023-12-03 15:34:26;2;80;81;80;81;81;81;80;81;81;81;
2023-12-03 15:34:26;3;67;67;67;68;67;68;67;67;67;67;
2023-12-03 15:34:26;ht;85;20.80
2023-12-03 15:34:26;v;4.22
2023-12-03 16:04:27;1;67;67;67;67;67;67;67;67;67;67;
2023-12-03 16:04:27;2;76;76;76;76;76;76;76;76;76;76;
2023-12-03 16:04:27;3;66;66;66;66;66;66;66;66;66;66;
2023-12-03 16:04:27;ht;94;20.30
2023-12-03 16:04:27;v;4.23
2023-12-03 16:34:27;1;75;75;75;75;75;75;75;75;75;75;
2023-12-03 16:34:27;2;76;76;75;75;75;75;75;75;75;75;
2023-12-03 16:34:27;3;64;64;64;64;64;64;64;64;64;64;
2023-12-03 16:34:27;ht;97;20.10
2023-12-03 16:34:27;v;4.22
2023-12-03 17:04:27;1;69;69;70;69;69;69;69;69;70;69;
2023-12-03 17:04:27;2;75;75;75;75;75;75;75;75;75;75;
2023-12-03 17:04:27;3;64;65;64;64;65;64;64;64;64;64;
2023-12-03 17:04:27;ht;96;20.50
2023-12-03 17:04:27;v;4.23
2023-12-03 17:34:27;1;66;66;66;66;66;66;66;66;66;66;
2023-12-03 17:34:27;2;76;76;76;76;76;76;76;76;76;76;
2023-12-03 17:34:27;3;60;60;60;60;60;60;60;60;60;60;
2023-12-03 17:34:27;ht;97;20.30
2023-12-03 17:34:27;v;4.22
2023-12-03 18:04:27;1;71;71;71;71;71;71;71;71;71;71;
2023-12-03 18:04:27;2;73;73;73;73;73;73;73;73;73;73;
2023-12-03 18:04:27;3;67;67;67;68;67;67;67;67;67;67;
2023-12-03 18:04:27;ht;97;20.10
2023-12-03 18:04:27;v;4.23
2023-12-03 18:34:26;1;64;64;64;64;64;64;64;64;64;64;
2023-12-03 18:34:26;2;72;72;72;72;72;72;72;72;72;72;
2023-12-03 18:34:26;3;69;69;69;69;69;69;69;69;69;69;
2023-12-03 18:34:26;ht;97;19.50
2023-12-03 18:34:26;v;4.22
2023-12-03 19:04:25;1;2;2;2;3;3;2;2;2;2;2;
2023-12-03 19:04:25;2;80;80;80;80;80;80;80;80;80;80;
2023-12-03 19:04:25;3;63;63;63;63;63;63;63;63;63;63;
2023-12-03 19:04:25;ht;97;19.40
2023-12-03 19:04:25;v;4.22
2023-12-03 19:34:24;1;75;74;74;74;74;74;74;75;74;74;
2023-12-03 19:34:24;2;78;78;78;78;78;78;78;78;78;78;
2023-12-03 19:34:24;3;80;80;80;80;80;80;80;80;80;80;
2023-12-03 19:34:24;ht;97;19.50
2023-12-03 19:34:24;v;4.23
2023-12-03 20:04:22;1;75;74;74;74;74;74;74;74;74;74;
2023-12-03 20:04:22;2;82;82;82;82;82;82;82;82;82;82;
2023-12-03 20:04:22;3;83;83;83;83;83;83;83;83;83;83;
2023-12-03 20:04:22;ht;97;19.40
2023-12-03 20:04:22;v;4.22
2023-12-03 20:34:25;1;70;70;70;70;71;70;70;70;70;70;
2023-12-03 20:34:25;2;75;75;75;75;75;75;75;75;75;75;
2023-12-03 20:34:25;3;84;84;84;84;84;84;84;84;84;84;
2023-12-03 20:34:25;ht;97;19.30
2023-12-03 20:34:25;v;4.23
2023-12-03 21:04:23;1;81;81;80;80;80;80;80;80;80;80;
2023-12-03 21:04:23;2;79;79;79;79;79;79;79;79;79;79;
2023-12-03 21:04:23;3;84;84;84;84;84;84;84;84;84;84;
2023-12-03 21:04:23;ht;97;19.10
2023-12-03 21:04:23;v;4.22
2023-12-03 21:34:22;1;3;9;4;3;4;3;3;3;2;3;
2023-12-03 21:34:22;2;81;81;81;81;81;81;81;81;81;81;
2023-12-03 21:34:22;3;77;77;77;77;77;77;77;77;77;77;
2023-12-03 21:34:22;ht;96;18.90
2023-12-03 21:34:22;v;4.23
2023-12-03 22:04:24;1;3;3;3;2;2;2;3;2;3;2;
2023-12-03 22:04:24;2;75;75;74;74;75;74;74;74;74;74;
2023-12-03 22:04:24;3;72;72;72;72;72;72;72;72;72;72;
2023-12-03 22:04:24;ht;94;18.60
2023-12-03 22:04:24;v;4.22
2023-12-03 22:34:22;1;80;80;80;80;80;80;80;80;80;80;
2023-12-03 22:34:22;2;78;78;78;78;78;78;78;78;78;78;
2023-12-03 22:34:22;3;81;81;81;82;81;81;81;81;81;81;
2023-12-03 22:34:22;ht;94;18.30
2023-12-03 22:34:22;v;4.22
2023-12-03 23:04:24;1;74;74;74;74;74;74;74;75;74;74;
2023-12-03 23:04:24;2;78;77;77;78;78;78;78;78;78;77;
2023-12-03 23:04:24;3;74;74;74;74;74;74;74;74;74;74;
2023-12-03 23:04:24;ht;88;18.30
2023-12-03 23:04:24;v;4.23
2023-12-03 23:34:22;1;81;81;81;81;81;81;81;81;81;81;
2023-12-03 23:34:22;2;84;84;84;84;84;84;84;84;84;84;
2023-12-03 23:34:22;3;76;76;76;76;76;76;76;76;76;76;
2023-12-03 23:34:22;ht;88;17.70
2023-12-03 23:34:22;v;4.22
