2023-05-20 00:04:23;1;103;103;103;103;103;103;103;103;103;103;
2023-05-20 00:04:23;2;108;108;108;108;108;108;108;108;108;108;
2023-05-20 00:04:23;3;75;75;75;75;75;75;75;75;75;75;
2023-05-20 00:04:23;ht;99;17.50
2023-05-20 00:04:23;v;4.25
2023-05-20 00:34:24;1;98;98;98;98;98;98;98;98;98;98;
2023-05-20 00:34:24;2;72;72;72;72;72;72;72;72;72;72;
2023-05-20 00:34:24;3;83;83;83;83;83;83;83;83;83;83;
2023-05-20 00:34:24;ht;99;17.40
2023-05-20 00:34:24;v;4.24
2023-05-20 01:04:21;1;102;102;102;102;102;102;102;102;102;102;
2023-05-20 01:04:21;2;2;2;2;2;3;2;2;2;2;3;
2023-05-20 01:04:21;3;88;88;88;88;88;88;88;89;88;88;
2023-05-20 01:04:21;ht;99;17.00
2023-05-20 01:04:21;v;4.25
2023-05-20 01:34:21;1;98;98;98;98;98;98;98;98;98;98;
2023-05-20 01:34:21;2;84;84;84;84;84;84;84;84;84;84;
2023-05-20 01:34:21;3;123;123;123;123;123;123;123;123;123;123;
2023-05-20 01:34:21;ht;99;15.80
2023-05-20 01:34:21;v;4.24
2023-05-20 02:04:22;1;104;104;104;104;105;105;104;104;104;104;
2023-05-20 02:04:22;2;107;107;108;107;107;108;108;108;108;108;
2023-05-20 02:04:22;3;2;2;2;2;3;2;2;2;2;2;
2023-05-20 02:04:22;ht;99;15.20
2023-05-20 02:04:22;v;4.24
2023-05-20 02:34:21;1;107;107;107;106;106;106;106;106;107;107;
2023-05-20 02:34:21;2;106;106;106;106;106;106;106;106;106;106;
2023-05-20 02:34:21;3;2;3;2;2;2;2;2;2;2;2;
2023-05-20 02:34:21;ht;99;14.80
2023-05-20 02:34:21;v;4.24
2023-05-20 03:04:21;1;89;89;89;89;89;89;89;89;89;89;
2023-05-20 03:04:21;2;107;107;107;107;107;107;107;107;107;107;
2023-05-20 03:04:21;3;76;76;76;76;76;76;76;76;76;76;
2023-05-20 03:04:21;ht;99;14.30
2023-05-20 03:04:21;v;4.24
2023-05-20 03:34:20;1;111;110;110;110;110;110;110;110;110;111;
2023-05-20 03:34:20;2;102;102;102;102;102;102;102;102;102;102;
2023-05-20 03:34:20;3;82;82;82;82;82;82;82;82;82;82;
2023-05-20 03:34:20;ht;99;14.30
2023-05-20 03:34:20;v;4.24
2023-05-20 04:04:19;1;83;83;83;83;83;83;83;83;83;83;
2023-05-20 04:04:19;2;107;107;108;107;107;108;107;107;107;107;
2023-05-20 04:04:19;3;90;90;90;90;90;90;90;90;90;90;
2023-05-20 04:04:19;ht;99;14.30
2023-05-20 04:04:19;v;4.24
2023-05-20 04:34:23;1;83;83;83;83;83;83;83;83;83;83;
2023-05-20 04:34:23;2;98;98;98;98;98;98;98;98;98;98;
2023-05-20 04:34:23;3;2;2;2;2;2;2;2;2;2;2;
2023-05-20 04:34:23;ht;99;14.10
2023-05-20 04:34:23;v;4.24
2023-05-20 05:04:22;1;107;107;107;107;107;107;107;107;107;107;
2023-05-20 05:04:22;2;104;104;104;104;104;104;104;104;104;104;
2023-05-20 05:04:22;3;104;104;104;104;104;104;104;104;104;104;
2023-05-20 05:04:22;ht;99;14.20
2023-05-20 05:04:22;v;4.24
2023-05-20 05:34:20;1;107;107;107;107;107;107;107;107;107;108;
2023-05-20 05:34:20;2;84;84;84;84;84;84;84;84;84;84;
2023-05-20 05:34:20;3;76;76;76;76;76;76;76;76;76;76;
2023-05-20 05:34:20;ht;99;14.00
2023-05-20 05:34:20;v;4.24
2023-05-20 06:04:19;1;89;89;88;89;89;89;88;88;89;89;
2023-05-20 06:04:19;2;82;82;82;82;82;82;82;82;82;82;
2023-05-20 06:04:19;3;82;82;82;82;82;82;82;82;82;82;
2023-05-20 06:04:19;ht;99;14.00
2023-05-20 06:04:19;v;4.24
2023-05-20 06:34:18;1;98;98;98;98;98;98;98;98;98;98;
2023-05-20 06:34:18;2;71;71;71;71;71;71;71;71;71;71;
2023-05-20 06:34:18;3;97;97;97;97;97;97;97;97;97;97;
2023-05-20 06:34:18;ht;99;13.70
2023-05-20 06:34:18;v;4.24
2023-05-20 07:04:21;1;87;87;87;87;87;87;87;87;87;87;
2023-05-20 07:04:21;2;3;2;2;2;3;2;2;3;2;2;
2023-05-20 07:04:21;3;81;81;81;81;81;81;81;81;82;81;
2023-05-20 07:04:21;ht;99;13.70
2023-05-20 07:04:21;v;4.24
2023-05-20 07:34:20;1;101;101;101;101;101;101;101;101;101;101;
2023-05-20 07:34:20;2;77;77;77;77;77;77;77;77;77;77;
2023-05-20 07:34:20;3;76;76;76;76;76;76;76;76;76;76;
2023-05-20 07:34:20;ht;99;13.90
2023-05-20 07:34:20;v;4.24
2023-05-20 08:04:19;1;84;84;84;84;84;84;84;84;84;84;
2023-05-20 08:04:19;2;109;108;108;109;108;108;109;109;109;108;
2023-05-20 08:04:19;3;86;86;86;86;86;86;86;86;86;86;
2023-05-20 08:04:19;ht;99;14.10
2023-05-20 08:04:19;v;4.24
2023-05-20 08:34:23;1;81;81;81;81;81;81;81;81;81;81;
2023-05-20 08:34:23;2;86;86;86;86;86;86;86;86;86;86;
2023-05-20 08:34:23;3;83;83;83;83;83;83;83;83;83;83;
2023-05-20 08:34:23;ht;99;14.20
2023-05-20 08:34:23;v;4.24
2023-05-20 09:04:22;1;88;88;87;88;87;87;87;87;87;87;
2023-05-20 09:04:22;2;2;2;2;2;2;3;2;3;2;2;
2023-05-20 09:04:22;3;81;81;81;81;81;81;81;81;81;81;
2023-05-20 09:04:22;ht;99;13.90
2023-05-20 09:04:22;v;4.24
2023-05-20 09:34:21;1;87;87;87;87;87;87;87;87;87;87;
2023-05-20 09:34:21;2;77;77;77;77;77;77;77;77;77;77;
2023-05-20 09:34:21;3;86;86;86;86;86;86;86;86;86;86;
2023-05-20 09:34:21;ht;99;13.30
2023-05-20 09:34:21;v;4.24
2023-05-20 10:04:19;1;86;86;86;86;86;86;86;86;86;86;
2023-05-20 10:04:19;2;80;80;80;80;80;80;80;80;80;80;
2023-05-20 10:04:19;3;81;81;81;81;81;81;81;81;81;81;
2023-05-20 10:04:19;ht;99;13.30
2023-05-20 10:04:19;v;4.24
2023-05-20 10:34:18;1;88;88;88;88;88;88;88;88;88;88;
2023-05-20 10:34:18;2;73;73;73;73;73;73;73;73;73;73;
2023-05-20 10:34:18;3;115;115;116;116;116;115;115;116;116;115;
2023-05-20 10:34:18;ht;99;13.50
2023-05-20 10:34:18;v;4.24
2023-05-20 11:04:22;1;83;82;82;82;82;83;83;83;83;83;
2023-05-20 11:04:22;2;2;2;2;3;2;2;2;3;2;3;
2023-05-20 11:04:22;3;91;91;91;91;91;91;91;91;91;91;
2023-05-20 11:04:22;ht;99;14.10
2023-05-20 11:04:22;v;4.24
2023-05-20 11:34:21;1;85;85;85;85;85;85;85;85;85;85;
2023-05-20 11:34:21;2;77;77;77;77;77;77;77;77;77;77;
2023-05-20 11:34:21;3;82;82;82;82;82;82;82;82;82;82;
2023-05-20 11:34:21;ht;99;14.30
2023-05-20 11:34:21;v;4.24
2023-05-20 12:04:21;1;89;89;89;89;89;89;89;89;89;89;
2023-05-20 12:04:21;2;81;81;81;81;81;81;81;81;81;81;
2023-05-20 12:04:21;3;79;79;79;79;79;79;79;79;79;79;
2023-05-20 12:04:21;ht;99;14.40
2023-05-20 12:04:21;v;4.24
2023-05-20 12:34:20;1;88;88;88;88;88;88;88;88;88;88;
2023-05-20 12:34:20;2;79;79;79;79;79;79;79;79;79;79;
2023-05-20 12:34:20;3;82;82;82;82;82;82;82;82;82;82;
2023-05-20 12:34:20;ht;99;14.40
2023-05-20 12:34:20;v;4.24
2023-05-20 13:04:19;1;86;86;86;86;86;86;86;86;86;86;
2023-05-20 13:04:19;2;83;83;83;83;83;83;83;83;83;83;
2023-05-20 13:04:19;3;79;79;79;79;79;79;79;79;79;79;
2023-05-20 13:04:19;ht;99;14.10
2023-05-20 13:04:19;v;4.24
2023-05-20 13:34:19;1;86;86;86;86;86;86;86;86;86;86;
2023-05-20 13:34:19;2;88;88;88;88;88;88;88;88;88;88;
2023-05-20 13:34:19;3;84;84;84;84;84;84;84;84;84;84;
2023-05-20 13:34:19;ht;99;14.00
2023-05-20 13:34:19;v;4.25
2023-05-20 14:04:22;1;80;80;80;80;80;80;80;80;80;80;
2023-05-20 14:04:22;2;81;81;81;81;81;81;81;81;81;81;
2023-05-20 14:04:22;3;109;110;110;109;109;109;110;109;109;109;
2023-05-20 14:04:22;ht;99;14.20
2023-05-20 14:04:22;v;4.24
2023-05-20 14:34:21;1;85;85;85;85;85;85;85;85;85;85;
2023-05-20 14:34:21;2;85;84;85;85;85;85;85;85;85;85;
2023-05-20 14:34:21;3;87;87;87;87;87;87;87;87;87;87;
2023-05-20 14:34:21;ht;99;14.20
2023-05-20 14:34:21;v;4.25
2023-05-20 15:04:21;1;83;83;83;82;82;82;82;83;82;82;
2023-05-20 15:04:21;2;72;72;72;72;72;72;72;72;72;72;
2023-05-20 15:04:21;3;80;80;80;80;80;80;80;80;80;80;
2023-05-20 15:04:21;ht;99;14.20
2023-05-20 15:04:21;v;4.24
2023-05-20 15:34:20;1;84;84;84;84;85;84;84;84;84;84;
2023-05-20 15:34:20;2;78;78;78;78;78;78;78;78;78;78;
2023-05-20 15:34:20;3;84;84;84;84;84;84;84;84;84;84;
2023-05-20 15:34:20;ht;99;14.30
2023-05-20 15:34:20;v;4.24
2023-05-20 16:04:19;1;82;82;82;82;82;82;82;82;82;82;
2023-05-20 16:04:19;2;81;82;82;82;82;82;82;82;82;81;
2023-05-20 16:04:19;3;88;88;88;88;88;88;88;88;88;88;
2023-05-20 16:04:19;ht;99;14.40
2023-05-20 16:04:19;v;4.24
2023-05-20 16:34:18;1;83;83;83;83;83;83;83;83;83;83;
2023-05-20 16:34:18;2;85;85;85;85;85;85;85;85;85;85;
2023-05-20 16:34:18;3;83;83;83;83;83;83;83;83;83;83;
2023-05-20 16:34:18;ht;99;14.40
2023-05-20 16:34:18;v;4.24
2023-05-20 17:04:22;1;86;86;86;86;86;86;86;86;86;86;
2023-05-20 17:04:22;2;85;85;85;86;85;86;85;85;85;86;
2023-05-20 17:04:22;3;89;89;89;89;89;89;89;89;89;89;
2023-05-20 17:04:22;ht;99;14.40
2023-05-20 17:04:22;v;4.24
2023-05-20 17:34:21;1;89;89;89;89;89;89;89;89;89;89;
2023-05-20 17:34:21;2;80;80;80;80;80;80;80;80;80;80;
2023-05-20 17:34:21;3;76;76;76;76;76;76;76;76;76;76;
2023-05-20 17:34:21;ht;99;14.50
2023-05-20 17:34:21;v;4.24
2023-05-20 18:04:20;1;81;81;81;81;81;81;81;81;81;81;
2023-05-20 18:04:20;2;83;83;83;83;83;83;82;83;83;83;
2023-05-20 18:04:20;3;94;94;94;94;94;94;94;94;94;94;
2023-05-20 18:04:20;ht;99;14.50
2023-05-20 18:04:20;v;4.24
2023-05-20 18:34:20;1;99;99;99;99;99;99;99;99;99;99;
2023-05-20 18:34:20;2;83;83;83;83;83;83;83;83;83;83;
2023-05-20 18:34:20;3;101;102;101;101;101;101;101;101;101;101;
2023-05-20 18:34:20;ht;99;14.60
2023-05-20 18:34:20;v;4.24
2023-05-20 19:04:19;1;105;105;105;105;105;105;105;105;105;105;
2023-05-20 19:04:19;2;85;85;85;85;85;85;85;85;85;85;
2023-05-20 19:04:19;3;90;91;91;91;91;91;91;91;91;91;
2023-05-20 19:04:19;ht;99;14.60
2023-05-20 19:04:19;v;4.24
2023-05-20 19:34:23;1;94;94;94;94;94;94;94;94;94;94;
2023-05-20 19:34:23;2;89;89;89;89;89;89;89;89;89;89;
2023-05-20 19:34:23;3;85;85;85;85;85;85;85;85;85;85;
2023-05-20 19:34:23;ht;99;14.70
2023-05-20 19:34:23;v;4.24
2023-05-20 20:04:22;1;82;82;82;82;82;82;82;82;82;82;
2023-05-20 20:04:22;2;111;111;111;111;111;111;112;111;111;112;
2023-05-20 20:04:22;3;90;90;90;90;90;90;90;90;90;90;
2023-05-20 20:04:22;ht;99;14.80
2023-05-20 20:04:22;v;4.24
2023-05-20 20:34:21;1;105;105;106;105;105;105;105;105;105;106;
2023-05-20 20:34:21;2;108;108;107;108;108;108;108;108;108;108;
2023-05-20 20:34:21;3;88;88;88;88;88;88;88;88;88;88;
2023-05-20 20:34:21;ht;99;14.90
2023-05-20 20:34:21;v;4.24
2023-05-20 21:04:20;1;105;105;105;105;105;105;105;105;105;105;
2023-05-20 21:04:20;2;93;93;93;93;93;93;93;93;93;93;
2023-05-20 21:04:20;3;122;122;122;122;122;121;122;122;122;122;
2023-05-20 21:04:20;ht;99;15.00
2023-05-20 21:04:20;v;4.24
2023-05-20 21:34:20;1;99;99;99;99;99;99;99;99;99;99;
2023-05-20 21:34:20;2;92;92;92;92;92;92;92;92;92;92;
2023-05-20 21:34:20;3;91;91;91;91;91;91;91;91;91;91;
2023-05-20 21:34:20;ht;99;15.10
2023-05-20 21:34:20;v;4.24
2023-05-20 22:04:19;1;107;107;107;107;107;108;107;107;107;107;
2023-05-20 22:04:19;2;92;92;92;92;92;92;92;92;92;92;
2023-05-20 22:04:19;3;87;87;87;87;87;87;87;87;87;87;
2023-05-20 22:04:19;ht;99;15.10
2023-05-20 22:04:19;v;4.24
2023-05-20 22:34:19;1;80;80;80;80;80;80;80;80;80;80;
2023-05-20 22:34:19;2;109;109;109;109;109;108;109;108;109;108;
2023-05-20 22:34:19;3;91;91;91;91;91;91;91;91;91;91;
2023-05-20 22:34:19;ht;99;15.10
2023-05-20 22:34:19;v;4.24
2023-05-20 23:04:23;1;103;103;103;103;103;103;103;103;103;103;
2023-05-20 23:04:23;2;80;80;80;80;80;80;80;80;80;80;
2023-05-20 23:04:23;3;92;92;92;92;92;92;92;92;92;92;
2023-05-20 23:04:23;ht;99;15.10
2023-05-20 23:04:23;v;4.24
2023-05-20 23:34:22;1;2;3;3;3;2;2;3;2;2;2;
2023-05-20 23:34:22;2;118;118;118;118;118;118;118;118;118;118;
2023-05-20 23:34:22;3;2;2;2;2;2;2;2;2;2;2;
2023-05-20 23:34:22;ht;99;15.30
2023-05-20 23:34:22;v;4.24
