2023-10-18 00:04:21;1;162;162;162;162;162;162;162;162;162;162;
2023-10-18 00:04:21;2;99;99;99;99;99;99;99;99;99;99;
2023-10-18 00:04:21;3;106;106;106;106;106;106;106;106;106;106;
2023-10-18 00:04:21;ht;55;16.10
2023-10-18 00:04:21;v;4.24
2023-10-18 00:34:23;1;173;173;173;173;173;172;172;173;173;173;
2023-10-18 00:34:23;2;102;102;102;102;102;102;102;102;102;102;
2023-10-18 00:34:23;3;118;118;118;118;118;118;118;118;118;118;
2023-10-18 00:34:23;ht;57;16.00
2023-10-18 00:34:23;v;4.24
2023-10-18 01:04:24;1;144;144;144;144;144;144;144;144;144;144;
2023-10-18 01:04:24;2;102;102;102;102;102;102;102;102;102;102;
2023-10-18 01:04:24;3;104;104;105;104;104;105;104;104;104;104;
2023-10-18 01:04:24;ht;55;16.30
2023-10-18 01:04:24;v;4.24
2023-10-18 01:34:21;1;107;108;108;108;108;108;107;108;108;107;
2023-10-18 01:34:21;2;102;102;102;102;102;102;102;102;102;102;
2023-10-18 01:34:21;3;106;105;106;106;105;106;105;105;105;105;
2023-10-18 01:34:21;ht;56;15.70
2023-10-18 01:34:21;v;4.24
2023-10-18 02:04:22;1;109;109;109;109;109;109;109;109;108;108;
2023-10-18 02:04:22;2;103;103;103;103;103;103;103;103;103;103;
2023-10-18 02:04:22;3;102;102;102;102;101;102;101;101;101;101;
2023-10-18 02:04:22;ht;59;15.30
2023-10-18 02:04:22;v;4.24
2023-10-18 02:34:23;1;3;2;2;2;2;2;2;2;3;2;
2023-10-18 02:34:23;2;101;101;101;101;101;101;101;101;101;101;
2023-10-18 02:34:23;3;120;120;120;120;120;120;120;120;120;120;
2023-10-18 02:34:23;ht;62;14.70
2023-10-18 02:34:23;v;4.23
2023-10-18 03:04:23;1;108;107;107;107;108;108;107;108;107;108;
2023-10-18 03:04:23;2;99;99;99;99;99;99;99;99;99;99;
2023-10-18 03:04:23;3;96;96;96;96;96;96;96;96;96;96;
2023-10-18 03:04:23;ht;65;13.80
2023-10-18 03:04:23;v;4.24
2023-10-18 03:34:19;1;108;108;108;108;108;108;108;108;108;108;
2023-10-18 03:34:19;2;99;99;99;99;99;99;99;99;99;99;
2023-10-18 03:34:19;3;102;102;102;102;102;102;102;102;102;102;
2023-10-18 03:34:19;ht;67;13.40
2023-10-18 03:34:19;v;4.23
2023-10-18 04:04:23;1;108;107;107;108;107;107;107;107;107;107;
2023-10-18 04:04:23;2;99;100;99;100;99;99;99;100;99;100;
2023-10-18 04:04:23;3;101;101;101;101;101;101;101;101;101;101;
2023-10-18 04:04:23;ht;68;13.50
2023-10-18 04:04:23;v;4.24
2023-10-18 04:34:23;1;106;107;107;107;107;107;107;107;107;107;
2023-10-18 04:34:23;2;100;100;100;100;100;100;100;100;100;100;
2023-10-18 04:34:23;3;107;107;107;107;107;107;107;107;107;107;
2023-10-18 04:34:23;ht;70;13.50
2023-10-18 04:34:23;v;4.23
2023-10-18 05:04:23;1;106;106;106;106;106;106;106;106;106;106;
2023-10-18 05:04:23;2;103;103;103;103;103;103;103;103;103;103;
2023-10-18 05:04:23;3;108;109;108;109;109;108;109;108;108;109;
2023-10-18 05:04:23;ht;72;13.30
2023-10-18 05:04:23;v;4.24
2023-10-18 05:34:23;1;106;106;106;106;106;107;106;107;106;106;
2023-10-18 05:34:23;2;97;97;97;97;97;97;97;97;97;97;
2023-10-18 05:34:23;3;104;105;104;104;105;104;104;105;105;105;
2023-10-18 05:34:23;ht;74;12.80
2023-10-18 05:34:23;v;4.23
2023-10-18 06:04:22;1;106;106;106;106;107;106;107;106;106;107;
2023-10-18 06:04:22;2;95;95;95;95;95;95;95;95;95;95;
2023-10-18 06:04:22;3;105;104;104;104;105;105;105;104;104;105;
2023-10-18 06:04:22;ht;77;12.40
2023-10-18 06:04:22;v;4.24
2023-10-18 06:34:21;1;2;2;2;2;2;2;2;2;2;2;
2023-10-18 06:34:21;2;92;92;92;92;92;92;92;92;92;92;
2023-10-18 06:34:21;3;110;110;110;110;109;110;110;110;110;110;
2023-10-18 06:34:21;ht;79;12.10
2023-10-18 06:34:21;v;4.23
2023-10-18 07:04:20;1;102;102;102;102;102;102;102;102;102;102;
2023-10-18 07:04:20;2;102;102;102;102;102;102;102;102;102;102;
2023-10-18 07:04:20;3;97;97;97;98;97;97;97;97;97;97;
2023-10-18 07:04:20;ht;80;12.10
2023-10-18 07:04:20;v;4.23
2023-10-18 07:34:19;1;89;89;89;89;89;89;89;89;89;89;
2023-10-18 07:34:19;2;94;94;94;94;94;94;94;94;94;94;
2023-10-18 07:34:19;3;92;92;93;92;92;92;92;92;92;92;
2023-10-18 07:34:19;ht;80;12.50
2023-10-18 07:34:19;v;4.23
2023-10-18 08:04:19;1;2;2;2;2;2;2;2;2;2;2;
2023-10-18 08:04:19;2;96;96;96;96;96;96;96;96;96;96;
2023-10-18 08:04:19;3;93;93;93;93;93;93;93;93;93;93;
2023-10-18 08:04:19;ht;78;13.00
2023-10-18 08:04:19;v;4.23
2023-10-18 08:34:20;1;2;2;2;2;2;2;2;2;2;2;
2023-10-18 08:34:20;2;105;105;105;105;105;105;105;105;105;105;
2023-10-18 08:34:20;3;96;96;96;96;96;96;96;96;96;96;
2023-10-18 08:34:20;ht;79;13.20
2023-10-18 08:34:20;v;4.23
2023-10-18 09:04:21;1;91;91;91;91;91;91;91;91;91;91;
2023-10-18 09:04:21;2;95;95;96;96;95;95;96;95;95;95;
2023-10-18 09:04:21;3;89;89;89;89;89;89;89;89;89;89;
2023-10-18 09:04:21;ht;75;14.50
2023-10-18 09:04:21;v;4.23
2023-10-18 09:34:22;1;96;96;96;96;96;97;96;96;96;96;
2023-10-18 09:34:22;2;92;92;92;92;92;92;92;92;92;92;
2023-10-18 09:34:22;3;90;90;90;90;90;90;90;90;90;91;
2023-10-18 09:34:22;ht;75;14.70
2023-10-18 09:34:22;v;4.24
2023-10-18 10:04:24;1;108;108;108;108;108;107;108;107;107;108;
2023-10-18 10:04:24;2;93;93;93;93;94;94;94;93;94;94;
2023-10-18 10:04:24;3;90;90;90;90;90;90;90;90;90;90;
2023-10-18 10:04:24;ht;71;15.90
2023-10-18 10:04:24;v;4.23
2023-10-18 10:34:22;1;108;108;107;108;108;108;108;108;107;108;
2023-10-18 10:34:22;2;85;85;85;85;85;85;85;85;85;85;
2023-10-18 10:34:22;3;100;100;100;100;100;100;100;100;100;100;
2023-10-18 10:34:22;ht;70;16.10
2023-10-18 10:34:22;v;4.24
2023-10-18 11:04:25;1;103;104;103;103;104;103;103;103;103;103;
2023-10-18 11:04:25;2;95;95;95;95;95;95;95;95;95;95;
2023-10-18 11:04:25;3;86;86;86;86;86;86;86;86;86;86;
2023-10-18 11:04:25;ht;68;17.40
2023-10-18 11:04:25;v;4.23
2023-10-18 11:34:24;1;106;106;106;107;106;106;106;106;106;106;
2023-10-18 11:34:24;2;96;96;96;96;96;96;96;96;96;96;
2023-10-18 11:34:24;3;86;86;86;86;86;86;86;86;87;86;
2023-10-18 11:34:24;ht;67;17.50
2023-10-18 11:34:24;v;4.24
2023-10-18 12:04:24;1;2;2;3;3;2;2;2;2;2;2;
2023-10-18 12:04:24;2;99;99;99;99;99;98;99;99;99;99;
2023-10-18 12:04:24;3;105;105;105;105;104;105;105;105;105;105;
2023-10-18 12:04:24;ht;65;18.30
2023-10-18 12:04:24;v;4.23
2023-10-18 12:34:25;1;120;120;120;120;120;120;120;120;120;120;
2023-10-18 12:34:25;2;95;95;95;95;95;95;95;95;95;95;
2023-10-18 12:34:25;3;2;2;2;2;3;2;2;2;2;2;
2023-10-18 12:34:25;ht;61;19.50
2023-10-18 12:34:25;v;4.24
2023-10-18 13:04:27;1;3;2;2;2;2;2;2;2;2;2;
2023-10-18 13:04:27;2;2;2;2;2;2;2;2;2;2;2;
2023-10-18 13:04:27;3;97;98;97;97;97;97;98;97;97;98;
2023-10-18 13:04:27;ht;57;21.40
2023-10-18 13:04:27;v;4.23
2023-10-18 13:34:26;1;90;90;90;90;90;90;90;90;90;90;
2023-10-18 13:34:26;2;96;97;97;96;97;96;97;97;96;97;
2023-10-18 13:34:26;3;92;92;92;93;92;92;92;92;92;92;
2023-10-18 13:34:26;ht;57;22.00
2023-10-18 13:34:26;v;4.23
2023-10-18 14:04:31;1;116;116;116;116;116;116;116;116;116;116;
2023-10-18 14:04:31;2;94;94;94;94;94;94;94;94;94;94;
2023-10-18 14:04:31;3;3;3;2;2;2;2;3;2;2;2;
2023-10-18 14:04:31;ht;51;23.60
2023-10-18 14:04:31;v;4.24
2023-10-18 14:34:31;1;3;2;3;2;2;2;2;3;2;2;
2023-10-18 14:34:31;2;97;98;97;97;97;97;97;97;97;97;
2023-10-18 14:34:31;3;97;97;97;97;97;97;97;97;97;97;
2023-10-18 14:34:31;ht;50;23.70
2023-10-18 14:34:31;v;4.23
2023-10-18 15:04:27;1;109;109;109;109;109;108;109;109;109;109;
2023-10-18 15:04:27;2;93;93;93;93;93;93;93;93;92;93;
2023-10-18 15:04:27;3;92;92;93;92;93;92;93;92;92;92;
2023-10-18 15:04:27;ht;50;23.50
2023-10-18 15:04:27;v;4.24
2023-10-18 15:34:28;1;96;96;95;95;95;96;96;95;96;95;
2023-10-18 15:34:28;2;94;94;94;94;94;94;94;94;94;94;
2023-10-18 15:34:28;3;92;92;92;92;92;92;92;92;92;92;
2023-10-18 15:34:28;ht;49;23.20
2023-10-18 15:34:28;v;4.23
2023-10-18 16:04:28;1;99;99;99;99;99;99;99;99;99;99;
2023-10-18 16:04:28;2;2;2;2;2;2;2;2;2;2;2;
2023-10-18 16:04:28;3;89;89;89;89;89;89;89;89;89;89;
2023-10-18 16:04:28;ht;49;22.90
2023-10-18 16:04:28;v;4.24
2023-10-18 16:34:28;1;98;98;98;98;98;98;98;98;98;98;
2023-10-18 16:34:28;2;103;103;103;103;103;103;103;103;103;104;
2023-10-18 16:34:28;3;88;88;88;88;88;88;88;88;88;88;
2023-10-18 16:34:28;ht;49;22.30
2023-10-18 16:34:28;v;4.23
2023-10-18 17:04:26;1;119;119;119;119;119;119;119;119;119;119;
2023-10-18 17:04:26;2;98;97;97;97;97;97;97;97;98;97;
2023-10-18 17:04:26;3;89;89;89;89;89;89;89;89;89;89;
2023-10-18 17:04:26;ht;45;22.00
2023-10-18 17:04:26;v;4.23
2023-10-18 17:34:28;1;103;103;103;104;104;103;103;103;103;104;
2023-10-18 17:34:28;2;83;83;83;83;83;83;83;83;83;83;
2023-10-18 17:34:28;3;89;89;89;89;89;89;89;89;89;89;
2023-10-18 17:34:28;ht;46;22.30
2023-10-18 17:34:28;v;4.24
2023-10-18 18:04:26;1;100;100;100;99;99;99;99;100;99;99;
2023-10-18 18:04:26;2;94;94;94;94;94;94;94;94;94;94;
2023-10-18 18:04:26;3;95;95;95;95;95;95;95;95;95;95;
2023-10-18 18:04:26;ht;48;21.50
2023-10-18 18:04:26;v;4.23
2023-10-18 18:34:27;1;105;105;105;105;104;105;105;104;105;105;
2023-10-18 18:34:27;2;94;94;94;94;94;94;94;94;94;94;
2023-10-18 18:34:27;3;98;99;98;98;98;99;99;99;99;99;
2023-10-18 18:34:27;ht;44;21.20
2023-10-18 18:34:27;v;4.24
2023-10-18 19:04:27;1;101;101;101;101;101;101;101;101;101;101;
2023-10-18 19:04:27;2;116;116;116;116;117;116;116;116;116;116;
2023-10-18 19:04:27;3;94;94;94;94;94;94;94;94;94;94;
2023-10-18 19:04:27;ht;43;20.80
2023-10-18 19:04:27;v;4.24
2023-10-18 19:34:23;1;101;101;101;101;101;101;101;101;101;102;
2023-10-18 19:34:23;2;88;88;88;88;88;88;88;88;88;88;
2023-10-18 19:34:23;3;96;96;96;96;96;96;96;96;96;96;
2023-10-18 19:34:23;ht;44;20.30
2023-10-18 19:34:23;v;4.24
2023-10-18 20:04:27;1;123;123;123;123;123;123;123;123;123;123;
2023-10-18 20:04:27;2;110;110;110;110;110;110;110;110;110;110;
2023-10-18 20:04:27;3;87;87;87;87;87;87;87;87;87;87;
2023-10-18 20:04:27;ht;42;20.20
2023-10-18 20:04:27;v;4.24
2023-10-18 20:34:26;1;126;126;126;126;126;126;126;126;126;126;
2023-10-18 20:34:26;2;110;110;110;110;111;110;110;111;111;110;
2023-10-18 20:34:26;3;117;117;117;117;117;117;117;117;117;117;
2023-10-18 20:34:26;ht;45;20.10
2023-10-18 20:34:26;v;4.24
2023-10-18 21:04:26;1;108;108;108;108;108;108;108;108;108;108;
2023-10-18 21:04:26;2;105;105;105;105;105;105;105;105;105;105;
2023-10-18 21:04:26;3;91;91;91;91;91;91;91;91;91;91;
2023-10-18 21:04:26;ht;55;19.90
2023-10-18 21:04:26;v;4.24
2023-10-18 21:34:25;1;103;103;103;102;102;103;102;102;102;102;
2023-10-18 21:34:25;2;2;2;2;2;2;2;2;2;2;3;
2023-10-18 21:34:25;3;104;104;104;104;104;104;103;104;104;104;
2023-10-18 21:34:25;ht;56;19.50
2023-10-18 21:34:25;v;4.24
2023-10-18 22:04:24;1;106;107;106;106;107;106;107;106;106;107;
2023-10-18 22:04:24;2;2;2;3;2;2;2;2;2;2;2;
2023-10-18 22:04:24;3;106;107;106;107;106;107;107;107;107;106;
2023-10-18 22:04:24;ht;56;19.10
2023-10-18 22:04:24;v;4.23
2023-10-18 22:34:23;1;107;107;107;107;107;107;107;107;107;107;
2023-10-18 22:34:23;2;2;2;2;2;2;2;2;2;2;2;
2023-10-18 22:34:23;3;2;2;2;2;2;2;2;2;2;3;
2023-10-18 22:34:23;ht;57;19.00
2023-10-18 22:34:23;v;4.23
2023-10-18 23:04:26;1;107;107;106;107;106;106;106;107;107;106;
2023-10-18 23:04:26;2;107;107;107;108;107;107;107;107;108;107;
2023-10-18 23:04:26;3;2;2;2;2;2;2;2;2;2;2;
2023-10-18 23:04:26;ht;57;18.70
2023-10-18 23:04:26;v;4.24
2023-10-18 23:34:24;1;107;107;107;107;107;107;107;107;106;107;
2023-10-18 23:34:24;2;106;107;106;107;107;106;107;107;106;107;
2023-10-18 23:34:24;3;2;2;2;2;2;2;2;2;2;2;
2023-10-18 23:34:24;ht;60;18.10
2023-10-18 23:34:24;v;4.23
