2023-06-16 00:04:13;1;100;100;100;100;100;100;100;100;100;100;
2023-06-16 00:04:13;2;102;102;102;102;102;102;102;102;102;102;
2023-06-16 00:04:13;3;102;102;102;102;102;103;102;102;102;102;
2023-06-16 00:04:13;ht;99;3.50
2023-06-16 00:04:13;v;4.25
2023-06-16 00:34:15;1;99;99;99;99;99;99;99;99;99;99;
2023-06-16 00:34:15;2;108;108;108;108;108;108;107;108;108;108;
2023-06-16 00:34:15;3;26;30;34;38;41;45;48;51;54;56;
2023-06-16 00:34:15;ht;99;3.30
2023-06-16 00:34:15;v;4.25
2023-06-16 01:04:17;1;88;89;88;89;89;89;89;89;89;89;
2023-06-16 01:04:17;2;103;103;104;104;103;103;104;103;103;103;
2023-06-16 01:04:17;3;117;117;116;117;116;117;116;116;117;116;
2023-06-16 01:04:17;ht;99;3.50
2023-06-16 01:04:17;v;4.25
2023-06-16 01:34:14;1;96;96;96;96;96;96;96;96;96;96;
2023-06-16 01:34:14;2;98;98;98;98;98;98;98;97;97;97;
2023-06-16 01:34:14;3;111;111;110;111;110;110;111;110;110;111;
2023-06-16 01:34:14;ht;99;3.20
2023-06-16 01:34:14;v;4.25
2023-06-16 02:04:16;1;97;96;96;96;96;96;97;97;96;96;
2023-06-16 02:04:16;2;99;99;99;99;99;99;99;99;99;99;
2023-06-16 02:04:16;3;111;110;111;111;111;111;111;110;110;110;
2023-06-16 02:04:16;ht;99;3.40
2023-06-16 02:04:16;v;4.25
2023-06-16 02:34:13;1;98;97;98;97;97;98;97;97;97;97;
2023-06-16 02:34:13;2;95;95;95;95;95;95;96;95;95;95;
2023-06-16 02:34:13;3;106;106;106;106;106;106;106;106;106;106;
2023-06-16 02:34:13;ht;99;3.10
2023-06-16 02:34:13;v;4.24
2023-06-16 03:04:14;1;97;97;97;97;97;97;97;97;97;97;
2023-06-16 03:04:14;2;120;120;120;120;120;120;120;120;120;120;
2023-06-16 03:04:14;3;110;111;110;110;111;110;110;110;111;110;
2023-06-16 03:04:14;ht;99;3.40
2023-06-16 03:04:14;v;4.24
2023-06-16 03:34:16;1;94;93;93;93;93;93;93;93;93;93;
2023-06-16 03:34:16;2;94;94;94;94;94;94;94;94;94;93;
2023-06-16 03:34:16;3;102;103;102;102;102;102;103;102;102;102;
2023-06-16 03:34:16;ht;99;3.00
2023-06-16 03:34:16;v;4.24
2023-06-16 04:04:13;1;96;96;96;96;96;96;96;96;96;96;
2023-06-16 04:04:13;2;105;105;105;105;105;105;105;105;105;105;
2023-06-16 04:04:13;3;110;110;109;109;109;109;109;110;109;109;
2023-06-16 04:04:13;ht;99;3.20
2023-06-16 04:04:13;v;4.24
2023-06-16 04:34:14;1;106;106;106;106;106;106;106;106;106;106;
2023-06-16 04:34:14;2;116;116;116;116;116;116;116;116;116;116;
2023-06-16 04:34:14;3;111;110;111;111;111;111;111;111;111;111;
2023-06-16 04:34:14;ht;99;4.80
2023-06-16 04:34:14;v;4.24
2023-06-16 05:04:17;1;108;108;108;108;108;108;107;108;108;108;
2023-06-16 05:04:17;2;100;100;100;100;99;100;100;100;100;99;
2023-06-16 05:04:17;3;109;109;108;109;109;109;109;109;109;109;
2023-06-16 05:04:17;ht;99;7.00
2023-06-16 05:04:17;v;4.24
2023-06-16 05:34:16;1;86;86;86;86;86;86;86;86;86;86;
2023-06-16 05:34:16;2;100;100;100;100;100;100;100;100;100;101;
2023-06-16 05:34:16;3;102;102;102;102;102;102;102;102;102;103;
2023-06-16 05:34:16;ht;99;7.20
2023-06-16 05:34:16;v;4.24
2023-06-16 06:04:15;1;95;95;95;95;95;95;95;95;95;95;
2023-06-16 06:04:15;2;122;122;121;122;122;122;122;122;122;122;
2023-06-16 06:04:15;3;109;110;109;110;109;110;109;110;110;109;
2023-06-16 06:04:15;ht;99;7.50
2023-06-16 06:04:15;v;4.24
2023-06-16 06:34:19;1;98;98;97;97;98;98;98;97;97;98;
2023-06-16 06:34:19;2;120;120;120;120;120;120;120;120;120;120;
2023-06-16 06:34:19;3;109;110;109;110;110;110;110;110;110;110;
2023-06-16 06:34:19;ht;99;7.80
2023-06-16 06:34:19;v;4.24
2023-06-16 07:04:19;1;95;94;94;94;94;94;94;94;94;94;
2023-06-16 07:04:19;2;116;116;116;116;116;116;116;116;116;116;
2023-06-16 07:04:19;3;109;109;110;110;110;110;110;109;109;110;
2023-06-16 07:04:19;ht;99;8.30
2023-06-16 07:04:19;v;4.24
2023-06-16 07:34:19;1;97;97;97;97;97;97;97;97;97;97;
2023-06-16 07:34:19;2;89;89;89;89;88;88;89;89;89;89;
2023-06-16 07:34:19;3;110;110;110;109;110;110;110;110;110;110;
2023-06-16 07:34:19;ht;99;8.60
2023-06-16 07:34:19;v;4.24
2023-06-16 08:04:19;1;95;95;95;95;95;95;95;95;95;95;
2023-06-16 08:04:19;2;94;94;94;94;94;94;94;94;94;94;
2023-06-16 08:04:19;3;104;105;105;104;104;105;105;104;104;104;
2023-06-16 08:04:19;ht;99;9.30
2023-06-16 08:04:19;v;4.24
2023-06-16 08:34:19;1;96;95;95;95;95;95;95;95;95;95;
2023-06-16 08:34:19;2;89;89;89;89;89;89;89;89;89;89;
2023-06-16 08:34:19;3;99;99;99;99;99;99;99;99;99;99;
2023-06-16 08:34:19;ht;99;9.70
2023-06-16 08:34:19;v;4.24
2023-06-16 09:04:15;1;95;94;95;94;94;94;94;95;95;94;
2023-06-16 09:04:15;2;112;112;112;112;112;112;112;112;111;112;
2023-06-16 09:04:15;3;108;108;108;108;108;108;108;108;108;108;
2023-06-16 09:04:15;ht;99;9.90
2023-06-16 09:04:15;v;4.24
2023-06-16 09:34:16;1;98;98;98;97;97;97;98;98;97;98;
2023-06-16 09:34:16;2;92;92;92;92;92;92;92;92;92;92;
2023-06-16 09:34:16;3;106;106;106;106;107;107;106;106;106;106;
2023-06-16 09:34:16;ht;99;10.80
2023-06-16 09:34:16;v;4.24
2023-06-16 10:04:18;1;96;96;96;96;95;96;96;96;96;96;
2023-06-16 10:04:18;2;94;94;94;94;94;94;94;94;94;94;
2023-06-16 10:04:18;3;109;109;109;109;109;109;109;109;109;109;
2023-06-16 10:04:18;ht;99;12.20
2023-06-16 10:04:18;v;4.24
2023-06-16 10:34:21;1;94;94;93;93;93;93;93;93;93;94;
2023-06-16 10:34:21;2;110;110;110;110;110;110;110;110;110;110;
2023-06-16 10:34:21;3;109;110;109;109;109;110;109;109;110;110;
2023-06-16 10:34:21;ht;99;12.60
2023-06-16 10:34:21;v;4.24
2023-06-16 11:04:19;1;93;93;93;93;93;93;93;93;93;93;
2023-06-16 11:04:19;2;93;93;93;92;93;93;93;93;93;93;
2023-06-16 11:04:19;3;114;114;114;114;114;114;114;114;114;114;
2023-06-16 11:04:19;ht;99;12.90
2023-06-16 11:04:19;v;4.24
2023-06-16 11:34:22;1;95;95;95;95;95;95;95;95;95;95;
2023-06-16 11:34:22;2;94;94;94;94;94;94;94;94;94;94;
2023-06-16 11:34:22;3;92;92;92;92;92;92;92;92;92;92;
2023-06-16 11:34:22;ht;99;13.70
2023-06-16 11:34:22;v;4.24
2023-06-16 12:04:21;1;95;95;95;95;95;95;95;95;95;95;
2023-06-16 12:04:21;2;94;94;94;94;94;94;94;94;94;94;
2023-06-16 12:04:21;3;95;95;95;95;95;95;95;95;95;95;
2023-06-16 12:04:21;ht;99;14.50
2023-06-16 12:04:21;v;4.24
2023-06-16 12:34:21;1;107;107;107;107;107;107;107;107;107;107;
2023-06-16 12:34:21;2;93;93;93;92;93;93;93;93;93;93;
2023-06-16 12:34:21;3;92;92;91;92;91;92;92;91;91;91;
2023-06-16 12:34:21;ht;99;15.50
2023-06-16 12:34:21;v;4.24
2023-06-16 13:04:21;1;110;110;110;110;110;110;110;110;110;110;
2023-06-16 13:04:21;2;92;92;92;92;93;93;93;93;93;93;
2023-06-16 13:04:21;3;90;90;90;90;90;90;90;90;90;90;
2023-06-16 13:04:21;ht;99;16.20
2023-06-16 13:04:21;v;4.24
2023-06-16 13:34:22;1;93;93;93;93;92;93;93;93;93;93;
2023-06-16 13:34:22;2;98;98;98;98;98;98;98;98;98;98;
2023-06-16 13:34:22;3;90;90;90;90;90;90;90;90;90;90;
2023-06-16 13:34:22;ht;99;16.70
2023-06-16 13:34:22;v;4.24
2023-06-16 14:04:23;1;95;95;95;95;95;95;95;95;93;93;
2023-06-16 14:04:23;2;96;96;96;97;96;96;96;96;96;96;
2023-06-16 14:04:23;3;91;91;91;91;91;91;91;91;91;91;
2023-06-16 14:04:23;ht;99;17.10
2023-06-16 14:04:23;v;4.25
2023-06-16 14:34:25;1;101;101;101;101;101;101;101;101;101;101;
2023-06-16 14:34:25;2;86;86;85;85;85;84;84;84;84;83;
2023-06-16 14:34:25;3;92;92;92;92;92;92;92;92;92;92;
2023-06-16 14:34:25;ht;99;18.50
2023-06-16 14:34:25;v;4.25
2023-06-16 15:04:22;1;94;94;94;94;94;94;94;94;94;94;
2023-06-16 15:04:22;2;90;90;90;90;90;90;90;90;89;89;
2023-06-16 15:04:22;3;88;88;88;88;88;88;88;88;88;88;
2023-06-16 15:04:22;ht;99;17.80
2023-06-16 15:04:22;v;4.25
2023-06-16 15:34:24;1;95;95;95;95;95;95;95;95;95;95;
2023-06-16 15:34:24;2;103;103;103;103;103;103;103;103;103;103;
2023-06-16 15:34:24;3;90;90;90;91;90;90;90;90;90;91;
2023-06-16 15:34:24;ht;99;17.60
2023-06-16 15:34:24;v;4.25
2023-06-16 16:04:21;1;110;110;110;110;110;110;110;110;110;110;
2023-06-16 16:04:21;2;103;104;104;104;104;104;104;104;105;105;
2023-06-16 16:04:21;3;89;89;89;89;89;89;89;89;89;89;
2023-06-16 16:04:21;ht;99;17.90
2023-06-16 16:04:21;v;4.25
2023-06-16 16:34:23;1;102;102;102;102;102;102;102;102;102;102;
2023-06-16 16:34:23;2;98;98;98;97;97;97;96;96;95;95;
2023-06-16 16:34:23;3;93;93;93;94;93;93;93;93;94;93;
2023-06-16 16:34:23;ht;99;18.00
2023-06-16 16:34:23;v;4.25
2023-06-16 17:04:24;1;101;101;101;101;101;100;101;101;100;101;
2023-06-16 17:04:24;2;108;108;108;108;108;108;108;108;108;108;
2023-06-16 17:04:24;3;94;94;94;94;94;94;94;94;94;94;
2023-06-16 17:04:24;ht;99;18.50
2023-06-16 17:04:24;v;4.25
2023-06-16 17:34:21;1;101;101;101;101;101;101;101;100;101;100;
2023-06-16 17:34:21;2;90;90;90;90;89;89;90;90;90;89;
2023-06-16 17:34:21;3;89;89;89;89;89;89;89;89;89;89;
2023-06-16 17:34:21;ht;99;16.40
2023-06-16 17:34:21;v;4.25
2023-06-16 18:04:22;1;104;104;104;104;104;104;104;104;104;104;
2023-06-16 18:04:22;2;91;91;91;91;92;92;92;92;92;92;
2023-06-16 18:04:22;3;94;95;94;94;95;94;94;94;95;94;
2023-06-16 18:04:22;ht;99;15.10
2023-06-16 18:04:22;v;4.25
2023-06-16 18:34:21;1;96;96;96;96;96;96;96;96;96;96;
2023-06-16 18:34:21;2;91;91;91;91;91;91;91;91;91;91;
2023-06-16 18:34:21;3;90;90;90;90;90;90;90;90;90;90;
2023-06-16 18:34:21;ht;99;13.50
2023-06-16 18:34:21;v;4.25
2023-06-16 19:04:20;1;93;93;94;93;93;93;93;94;94;93;
2023-06-16 19:04:20;2;119;119;119;119;119;119;119;118;119;119;
2023-06-16 19:04:20;3;90;90;90;90;90;90;90;90;90;90;
2023-06-16 19:04:20;ht;99;13.00
2023-06-16 19:04:20;v;4.25
2023-06-16 19:34:18;1;105;105;105;105;105;105;105;105;107;107;
2023-06-16 19:34:18;2;134;134;134;134;134;134;134;134;134;134;
2023-06-16 19:34:18;3;97;97;97;97;97;97;97;97;97;97;
2023-06-16 19:34:18;ht;99;12.60
2023-06-16 19:34:18;v;4.25
2023-06-16 20:04:20;1;109;109;109;109;109;109;109;109;109;109;
2023-06-16 20:04:20;2;124;124;124;124;124;124;124;124;124;124;
2023-06-16 20:04:20;3;101;101;100;101;101;101;101;101;101;101;
2023-06-16 20:04:20;ht;99;12.00
2023-06-16 20:04:20;v;4.25
2023-06-16 20:34:17;1;106;106;106;106;106;106;106;106;106;106;
2023-06-16 20:34:17;2;122;122;122;122;122;121;122;122;122;122;
2023-06-16 20:34:17;3;95;95;95;95;95;95;95;95;95;95;
2023-06-16 20:34:17;ht;99;10.60
2023-06-16 20:34:17;v;4.25
2023-06-16 21:04:18;1;101;101;101;101;101;101;101;101;101;101;
2023-06-16 21:04:18;2;114;114;114;114;114;114;114;114;114;115;
2023-06-16 21:04:18;3;95;95;95;95;95;95;95;95;95;95;
2023-06-16 21:04:18;ht;99;11.50
2023-06-16 21:04:18;v;4.25
2023-06-16 21:34:18;1;105;105;105;105;105;105;105;105;105;105;
2023-06-16 21:34:18;2;110;110;109;109;109;109;110;109;110;109;
2023-06-16 21:34:18;3;94;94;94;94;94;94;94;94;94;94;
2023-06-16 21:34:18;ht;99;9.70
2023-06-16 21:34:18;v;4.25
2023-06-16 22:04:18;1;102;101;102;101;102;102;102;102;102;102;
2023-06-16 22:04:18;2;110;110;110;110;110;110;110;110;110;110;
2023-06-16 22:04:18;3;107;107;107;106;107;107;107;107;107;107;
2023-06-16 22:04:18;ht;99;9.30
2023-06-16 22:04:18;v;4.25
2023-06-16 22:34:18;1;103;103;103;103;103;103;103;103;103;103;
2023-06-16 22:34:18;2;93;93;93;93;93;93;93;93;92;91;
2023-06-16 22:34:18;3;105;105;105;105;105;106;105;105;105;105;
2023-06-16 22:34:18;ht;99;8.30
2023-06-16 22:34:18;v;4.25
2023-06-16 23:04:18;1;100;100;100;100;100;100;100;100;100;100;
2023-06-16 23:04:18;2;91;91;91;91;91;91;91;91;91;91;
2023-06-16 23:04:18;3;107;107;107;107;106;107;107;107;106;107;
2023-06-16 23:04:18;ht;99;7.40
2023-06-16 23:04:18;v;4.25
2023-06-16 23:34:17;1;103;103;103;102;103;102;103;102;103;103;
2023-06-16 23:34:17;2;90;90;90;90;90;90;90;90;90;90;
2023-06-16 23:34:17;3;106;106;106;105;106;106;106;105;105;105;
2023-06-16 23:34:17;ht;99;8.60
2023-06-16 23:34:17;v;4.25
