2023-05-26 00:04:24;1;80;80;80;80;80;80;80;80;80;80;
2023-05-26 00:04:24;2;108;108;108;108;108;108;108;108;108;108;
2023-05-26 00:04:24;3;107;107;107;107;107;107;107;107;107;107;
2023-05-26 00:04:24;ht;99;21.50
2023-05-26 00:04:24;v;4.25
2023-05-26 00:34:23;1;81;81;81;81;81;81;81;81;81;81;
2023-05-26 00:34:23;2;106;106;106;107;106;107;106;107;106;106;
2023-05-26 00:34:23;3;105;106;105;106;106;106;106;106;106;106;
2023-05-26 00:34:23;ht;99;21.30
2023-05-26 00:34:23;v;4.24
2023-05-26 01:04:26;1;83;83;83;83;83;83;83;83;83;83;
2023-05-26 01:04:26;2;107;107;107;107;107;107;107;107;107;107;
2023-05-26 01:04:26;3;107;107;107;107;107;107;107;107;107;107;
2023-05-26 01:04:26;ht;99;21.20
2023-05-26 01:04:26;v;4.25
2023-05-26 01:34:25;1;87;87;87;87;87;87;87;87;87;87;
2023-05-26 01:34:25;2;75;75;75;75;75;75;75;75;75;75;
2023-05-26 01:34:25;3;108;108;107;108;108;107;108;108;108;107;
2023-05-26 01:34:25;ht;99;21.40
2023-05-26 01:34:25;v;4.24
2023-05-26 02:04:25;1;104;104;104;104;104;104;104;104;104;104;
2023-05-26 02:04:25;2;99;99;99;99;99;99;99;99;99;99;
2023-05-26 02:04:25;3;109;109;109;109;109;109;109;109;109;109;
2023-05-26 02:04:25;ht;99;21.40
2023-05-26 02:04:25;v;4.25
2023-05-26 02:34:24;1;93;93;93;93;93;93;93;93;93;93;
2023-05-26 02:34:24;2;104;103;103;104;104;103;103;103;103;104;
2023-05-26 02:34:24;3;119;119;119;119;119;119;119;119;119;119;
2023-05-26 02:34:24;ht;99;21.00
2023-05-26 02:34:24;v;4.24
2023-05-26 03:04:22;1;90;90;90;90;90;90;90;90;90;90;
2023-05-26 03:04:22;2;102;102;102;102;103;103;102;103;103;103;
2023-05-26 03:04:22;3;80;80;80;80;80;80;80;80;80;80;
2023-05-26 03:04:22;ht;99;21.00
2023-05-26 03:04:22;v;4.24
2023-05-26 03:34:26;1;91;91;91;91;91;91;91;91;91;91;
2023-05-26 03:34:26;2;104;104;104;104;104;104;104;104;104;104;
2023-05-26 03:34:26;3;106;105;106;105;106;105;106;106;106;106;
2023-05-26 03:34:26;ht;99;21.20
2023-05-26 03:34:26;v;4.24
2023-05-26 04:04:24;1;95;95;95;95;95;95;95;95;95;95;
2023-05-26 04:04:24;2;87;87;87;87;87;87;87;87;87;87;
2023-05-26 04:04:24;3;119;119;119;119;119;119;119;119;119;119;
2023-05-26 04:04:24;ht;99;21.10
2023-05-26 04:04:24;v;4.24
2023-05-26 04:34:23;1;94;94;94;94;94;94;94;94;94;94;
2023-05-26 04:34:23;2;79;79;79;79;79;79;79;79;79;79;
2023-05-26 04:34:23;3;2;3;2;2;2;2;2;3;2;2;
2023-05-26 04:34:23;ht;99;21.30
2023-05-26 04:34:23;v;4.24
2023-05-26 05:04:22;1;97;97;97;97;97;97;97;97;97;97;
2023-05-26 05:04:22;2;108;108;108;108;108;108;108;108;108;108;
2023-05-26 05:04:22;3;87;87;87;87;87;87;87;87;87;87;
2023-05-26 05:04:22;ht;99;21.10
2023-05-26 05:04:22;v;4.24
2023-05-26 05:34:26;1;104;104;104;104;104;104;104;104;104;104;
2023-05-26 05:34:26;2;108;108;108;108;107;108;107;108;108;108;
2023-05-26 05:34:26;3;78;78;78;78;78;78;78;78;78;78;
2023-05-26 05:34:26;ht;99;20.60
2023-05-26 05:34:26;v;4.24
2023-05-26 06:04:25;1;101;101;101;101;101;101;101;101;101;101;
2023-05-26 06:04:25;2;83;83;83;83;83;83;83;83;83;83;
2023-05-26 06:04:25;3;106;106;107;107;106;107;107;107;107;107;
2023-05-26 06:04:25;ht;99;20.00
2023-05-26 06:04:25;v;4.24
2023-05-26 06:34:23;1;92;92;92;92;92;92;92;92;92;92;
2023-05-26 06:34:23;2;122;122;122;122;122;122;122;122;122;122;
2023-05-26 06:34:23;3;131;131;131;131;131;132;131;131;131;131;
2023-05-26 06:34:23;ht;99;19.50
2023-05-26 06:34:23;v;4.24
2023-05-26 07:04:25;1;74;74;74;74;74;74;74;74;74;74;
2023-05-26 07:04:25;2;78;78;78;78;78;78;78;78;78;78;
2023-05-26 07:04:25;3;77;77;77;77;77;77;77;77;77;77;
2023-05-26 07:04:25;ht;99;19.30
2023-05-26 07:04:25;v;4.24
2023-05-26 07:34:23;1;71;71;71;71;71;71;71;71;71;71;
2023-05-26 07:34:23;2;76;76;76;76;76;76;76;76;76;76;
2023-05-26 07:34:23;3;101;101;101;101;101;100;101;101;100;101;
2023-05-26 07:34:23;ht;99;19.40
2023-05-26 07:34:23;v;4.24
2023-05-26 08:04:25;1;86;86;86;86;86;86;86;86;86;86;
2023-05-26 08:04:25;2;85;85;85;85;85;85;85;85;85;85;
2023-05-26 08:04:25;3;79;79;79;79;79;79;79;79;79;79;
2023-05-26 08:04:25;ht;99;19.60
2023-05-26 08:04:25;v;4.24
2023-05-26 08:34:23;1;82;82;82;82;82;82;82;82;82;82;
2023-05-26 08:34:23;2;2;2;2;2;3;3;3;3;3;3;
2023-05-26 08:34:23;3;75;75;75;75;75;75;75;75;75;75;
2023-05-26 08:34:23;ht;99;19.70
2023-05-26 08:34:23;v;4.24
2023-05-26 09:04:26;1;85;85;85;85;85;85;85;85;85;85;
2023-05-26 09:04:26;2;88;88;88;88;88;88;88;88;88;88;
2023-05-26 09:04:26;3;79;79;79;79;79;79;79;79;79;79;
2023-05-26 09:04:26;ht;99;22.50
2023-05-26 09:04:26;v;4.24
2023-05-26 09:34:26;1;91;91;91;91;91;91;91;91;91;91;
2023-05-26 09:34:26;2;79;79;79;79;79;79;79;79;79;79;
2023-05-26 09:34:26;3;78;78;78;78;78;78;78;78;78;78;
2023-05-26 09:34:26;ht;99;21.20
2023-05-26 09:34:26;v;4.24
2023-05-26 10:04:25;1;84;84;84;84;84;84;84;84;84;84;
2023-05-26 10:04:25;2;80;80;80;80;80;80;80;80;80;80;
2023-05-26 10:04:25;3;95;95;95;95;95;95;95;95;95;95;
2023-05-26 10:04:25;ht;99;21.30
2023-05-26 10:04:25;v;4.24
2023-05-26 10:34:25;1;110;109;109;109;109;109;110;110;109;110;
2023-05-26 10:34:25;2;86;86;86;87;86;86;86;87;86;86;
2023-05-26 10:34:25;3;92;92;92;92;92;92;92;92;92;92;
2023-05-26 10:34:25;ht;99;22.10
2023-05-26 10:34:25;v;4.24
2023-05-26 11:04:25;1;85;85;85;85;85;85;85;85;85;85;
2023-05-26 11:04:25;2;79;79;79;79;79;79;79;79;79;79;
2023-05-26 11:04:25;3;77;78;78;78;78;78;78;77;78;78;
2023-05-26 11:04:25;ht;99;22.60
2023-05-26 11:04:25;v;4.24
2023-05-26 11:34:27;1;85;85;85;85;85;85;85;85;85;85;
2023-05-26 11:34:27;2;113;113;113;113;113;113;113;113;114;113;
2023-05-26 11:34:27;3;84;84;84;84;84;84;84;84;84;84;
2023-05-26 11:34:27;ht;99;21.90
2023-05-26 11:34:27;v;4.24
2023-05-26 12:04:27;1;83;83;83;83;83;83;83;83;83;83;
2023-05-26 12:04:27;2;82;81;81;81;81;82;81;81;81;81;
2023-05-26 12:04:27;3;80;80;80;80;80;80;80;80;80;80;
2023-05-26 12:04:27;ht;99;21.40
2023-05-26 12:04:27;v;4.25
2023-05-26 12:34:27;1;92;92;92;92;92;92;92;92;92;92;
2023-05-26 12:34:27;2;80;80;80;80;80;80;80;80;80;80;
2023-05-26 12:34:27;3;75;75;74;75;75;75;75;75;75;75;
2023-05-26 12:34:27;ht;99;21.00
2023-05-26 12:34:27;v;4.25
2023-05-26 13:04:26;1;79;79;79;79;79;79;79;79;79;79;
2023-05-26 13:04:26;2;85;85;85;85;85;85;85;85;85;85;
2023-05-26 13:04:26;3;79;79;79;79;79;79;79;79;79;79;
2023-05-26 13:04:26;ht;99;21.60
2023-05-26 13:04:26;v;4.25
2023-05-26 13:34:27;1;83;83;83;83;83;83;83;83;83;83;
2023-05-26 13:34:27;2;80;80;80;80;80;80;80;80;80;80;
2023-05-26 13:34:27;3;81;81;81;81;81;81;81;81;81;81;
2023-05-26 13:34:27;ht;99;23.20
2023-05-26 13:34:27;v;4.25
2023-05-26 14:04:29;1;85;85;85;85;85;85;85;85;85;85;
2023-05-26 14:04:29;2;81;81;81;81;81;81;80;81;81;81;
2023-05-26 14:04:29;3;85;85;85;85;85;85;85;85;85;85;
2023-05-26 14:04:29;ht;99;23.30
2023-05-26 14:04:29;v;4.25
2023-05-26 14:34:26;1;78;78;78;78;78;77;78;78;78;78;
2023-05-26 14:34:26;2;84;84;84;84;84;84;84;84;84;84;
2023-05-26 14:34:26;3;76;76;76;76;76;76;76;76;76;76;
2023-05-26 14:34:26;ht;99;23.60
2023-05-26 14:34:26;v;4.25
2023-05-26 15:04:28;1;77;76;76;76;77;76;76;76;76;76;
2023-05-26 15:04:28;2;83;83;83;83;83;83;83;83;83;83;
2023-05-26 15:04:28;3;84;84;84;84;84;84;84;84;84;84;
2023-05-26 15:04:28;ht;99;23.80
2023-05-26 15:04:28;v;4.25
2023-05-26 15:34:26;1;85;85;85;85;85;85;85;85;85;85;
2023-05-26 15:34:26;2;82;82;83;82;83;82;82;82;82;82;
2023-05-26 15:34:26;3;82;82;82;82;82;82;82;82;82;82;
2023-05-26 15:34:26;ht;99;23.10
2023-05-26 15:34:26;v;4.25
2023-05-26 16:04:27;1;85;85;85;85;85;85;85;85;85;85;
2023-05-26 16:04:27;2;81;81;81;81;81;81;81;81;81;81;
2023-05-26 16:04:27;3;79;79;79;79;79;79;79;79;79;79;
2023-05-26 16:04:27;ht;99;22.70
2023-05-26 16:04:27;v;4.25
2023-05-26 16:34:24;1;89;89;89;89;89;89;89;89;89;89;
2023-05-26 16:34:24;2;97;97;97;97;97;97;98;98;98;98;
2023-05-26 16:34:24;3;84;84;84;84;84;84;84;84;84;84;
2023-05-26 16:34:24;ht;99;21.90
2023-05-26 16:34:24;v;4.25
2023-05-26 17:04:25;1;82;82;82;82;82;82;82;82;82;82;
2023-05-26 17:04:25;2;77;77;77;77;77;77;77;77;77;77;
2023-05-26 17:04:25;3;2;2;2;2;2;3;2;2;2;2;
2023-05-26 17:04:25;ht;99;21.30
2023-05-26 17:04:25;v;4.25
2023-05-26 17:34:24;1;79;79;79;79;79;79;79;79;79;79;
2023-05-26 17:34:24;2;92;92;92;92;92;92;92;92;92;92;
2023-05-26 17:34:24;3;86;86;86;86;86;86;86;86;86;86;
2023-05-26 17:34:24;ht;99;20.30
2023-05-26 17:34:24;v;4.26
2023-05-26 18:04:23;1;76;76;76;76;76;76;76;76;76;76;
2023-05-26 18:04:23;2;85;85;85;85;85;85;85;85;85;85;
2023-05-26 18:04:23;3;79;78;79;79;79;79;78;79;79;78;
2023-05-26 18:04:23;ht;99;19.00
2023-05-26 18:04:23;v;4.25
2023-05-26 18:34:21;1;73;73;73;73;73;73;73;73;73;73;
2023-05-26 18:34:21;2;87;87;87;87;87;87;87;87;87;87;
2023-05-26 18:34:21;3;84;84;84;84;84;84;84;84;84;84;
2023-05-26 18:34:21;ht;99;18.10
2023-05-26 18:34:21;v;4.25
2023-05-26 19:04:22;1;81;81;81;81;81;81;81;81;81;81;
2023-05-26 19:04:22;2;89;89;89;89;89;89;89;89;89;89;
2023-05-26 19:04:22;3;81;81;81;82;82;82;81;81;82;81;
2023-05-26 19:04:22;ht;99;17.80
2023-05-26 19:04:22;v;4.26
2023-05-26 19:34:23;1;86;86;86;86;86;86;86;86;86;86;
2023-05-26 19:34:23;2;85;85;85;85;85;85;85;85;85;85;
2023-05-26 19:34:23;3;84;84;84;84;84;84;84;84;84;84;
2023-05-26 19:34:23;ht;99;17.50
2023-05-26 19:34:23;v;4.25
2023-05-26 20:04:20;1;78;77;77;78;77;78;77;77;78;77;
2023-05-26 20:04:20;2;127;127;127;127;127;127;127;127;127;127;
2023-05-26 20:04:20;3;113;113;113;113;113;113;113;113;113;113;
2023-05-26 20:04:20;ht;99;16.90
2023-05-26 20:04:20;v;4.25
2023-05-26 20:34:20;1;101;101;101;101;101;102;101;101;101;101;
2023-05-26 20:34:20;2;83;83;83;83;83;83;83;83;83;83;
2023-05-26 20:34:20;3;82;82;82;82;82;82;82;82;82;82;
2023-05-26 20:34:20;ht;99;16.30
2023-05-26 20:34:20;v;4.25
2023-05-26 21:04:20;1;110;110;110;110;110;109;110;109;109;109;
2023-05-26 21:04:20;2;109;109;109;109;109;108;109;109;109;109;
2023-05-26 21:04:20;3;108;108;108;108;108;108;108;108;108;108;
2023-05-26 21:04:20;ht;99;16.20
2023-05-26 21:04:20;v;4.26
2023-05-26 21:34:20;1;103;103;103;103;103;103;103;103;103;103;
2023-05-26 21:34:20;2;87;87;87;87;87;87;87;87;87;87;
2023-05-26 21:34:20;3;80;80;80;80;80;80;80;80;80;80;
2023-05-26 21:34:20;ht;99;15.90
2023-05-26 21:34:20;v;4.25
2023-05-26 22:04:20;1;102;102;102;102;103;102;102;102;102;102;
2023-05-26 22:04:20;2;124;124;124;124;124;124;124;124;124;124;
2023-05-26 22:04:20;3;90;90;90;90;90;91;90;90;90;90;
2023-05-26 22:04:20;ht;99;15.80
2023-05-26 22:04:20;v;4.25
2023-05-26 22:34:20;1;80;80;80;80;80;80;80;80;80;80;
2023-05-26 22:34:20;2;3;2;2;2;2;2;2;2;2;2;
2023-05-26 22:34:20;3;81;81;81;81;81;81;81;81;81;81;
2023-05-26 22:34:20;ht;99;15.70
2023-05-26 22:34:20;v;4.25
2023-05-26 23:04:19;1;87;87;87;87;87;87;87;87;87;87;
2023-05-26 23:04:19;2;77;77;77;77;77;77;77;77;77;77;
2023-05-26 23:04:19;3;117;116;116;117;116;117;117;117;116;117;
2023-05-26 23:04:19;ht;99;15.30
2023-05-26 23:04:19;v;4.25
2023-05-26 23:34:19;1;83;82;82;83;82;82;82;82;82;82;
2023-05-26 23:34:19;2;80;80;80;80;80;80;80;80;80;80;
2023-05-26 23:34:19;3;109;109;110;109;109;109;109;109;109;109;
2023-05-26 23:34:19;ht;99;14.70
2023-05-26 23:34:19;v;4.25
