2023-09-14 00:04:15;1;120;120;120;120;120;120;120;120;120;120;
2023-09-14 00:04:15;2;93;93;93;93;93;93;93;93;93;93;
2023-09-14 00:04:15;3;124;124;123;124;124;124;124;124;124;124;
2023-09-14 00:04:15;ht;80;6.90
2023-09-14 00:04:15;v;4.23
2023-09-14 00:34:18;1;124;124;124;124;124;124;124;124;124;124;
2023-09-14 00:34:18;2;95;95;95;95;95;95;95;95;95;95;
2023-09-14 00:34:18;3;132;132;132;132;132;132;132;132;132;132;
2023-09-14 00:34:18;ht;82;6.80
2023-09-14 00:34:18;v;4.23
2023-09-14 01:04:17;1;93;93;93;93;93;93;93;93;93;93;
2023-09-14 01:04:17;2;110;111;110;110;110;110;110;110;110;110;
2023-09-14 01:04:17;3;114;114;114;114;114;113;114;114;113;114;
2023-09-14 01:04:17;ht;91;4.00
2023-09-14 01:04:17;v;4.23
2023-09-14 01:34:15;1;115;115;114;114;115;114;115;115;114;115;
2023-09-14 01:34:15;2;95;95;95;95;95;95;95;95;95;95;
2023-09-14 01:34:15;3;96;96;96;96;96;96;96;96;96;96;
2023-09-14 01:34:15;ht;93;3.60
2023-09-14 01:34:15;v;4.22
2023-09-14 02:04:13;1;121;121;121;121;121;121;121;121;121;121;
2023-09-14 02:04:13;2;95;95;95;95;95;95;95;95;95;95;
2023-09-14 02:04:13;3;2;2;2;2;2;2;2;2;2;2;
2023-09-14 02:04:13;ht;90;5.00
2023-09-14 02:04:13;v;4.23
2023-09-14 02:34:16;1;88;88;88;88;88;88;88;88;88;88;
2023-09-14 02:34:16;2;95;95;95;95;95;95;95;95;95;95;
2023-09-14 02:34:16;3;102;102;102;102;102;102;102;102;102;102;
2023-09-14 02:34:16;ht;90;4.80
2023-09-14 02:34:16;v;4.22
2023-09-14 03:04:15;1;93;93;93;93;93;92;93;93;93;92;
2023-09-14 03:04:15;2;95;95;95;95;95;95;95;95;95;95;
2023-09-14 03:04:15;3;87;87;87;87;87;87;87;87;87;87;
2023-09-14 03:04:15;ht;91;4.70
2023-09-14 03:04:15;v;4.23
2023-09-14 03:34:17;1;91;91;91;91;91;91;91;91;91;91;
2023-09-14 03:34:17;2;101;101;101;101;101;101;101;101;101;101;
2023-09-14 03:34:17;3;117;117;117;117;117;117;117;117;117;117;
2023-09-14 03:34:17;ht;91;4.70
2023-09-14 03:34:17;v;4.22
2023-09-14 04:04:15;1;94;94;94;94;94;94;94;94;94;94;
2023-09-14 04:04:15;2;67;67;67;66;67;67;67;66;67;67;
2023-09-14 04:04:15;3;107;107;108;107;107;107;107;107;107;107;
2023-09-14 04:04:15;ht;93;4.10
2023-09-14 04:04:15;v;4.23
2023-09-14 04:34:13;1;91;91;91;91;91;91;91;91;91;91;
2023-09-14 04:34:13;2;100;100;100;100;100;100;100;100;100;100;
2023-09-14 04:34:13;3;157;157;157;157;157;157;157;157;157;157;
2023-09-14 04:34:13;ht;92;4.60
2023-09-14 04:34:13;v;4.22
2023-09-14 05:04:16;1;89;89;89;89;89;89;89;89;89;89;
2023-09-14 05:04:16;2;90;90;90;90;90;90;90;90;90;90;
2023-09-14 05:04:16;3;162;162;162;162;162;162;162;162;162;162;
2023-09-14 05:04:16;ht;89;5.20
2023-09-14 05:04:16;v;4.22
2023-09-14 05:34:15;1;92;92;92;92;92;92;92;92;92;92;
2023-09-14 05:34:15;2;94;94;94;94;94;94;94;94;94;94;
2023-09-14 05:34:15;3;136;136;136;136;135;135;135;135;135;135;
2023-09-14 05:34:15;ht;89;5.60
2023-09-14 05:34:15;v;4.22
2023-09-14 06:04:18;1;115;115;115;115;115;115;115;115;115;115;
2023-09-14 06:04:18;2;90;90;90;90;90;90;90;90;90;90;
2023-09-14 06:04:18;3;99;99;100;100;100;100;101;101;101;102;
2023-09-14 06:04:18;ht;83;7.30
2023-09-14 06:04:18;v;4.22
2023-09-14 06:34:18;1;86;87;86;86;86;86;86;86;86;86;
2023-09-14 06:34:18;2;92;92;92;92;92;92;92;92;92;92;
2023-09-14 06:34:18;3;3;3;3;3;3;3;3;3;3;3;
2023-09-14 06:34:18;ht;87;6.00
2023-09-14 06:34:18;v;4.22
2023-09-14 07:04:17;1;87;87;87;87;87;87;87;86;87;87;
2023-09-14 07:04:17;2;115;115;115;115;115;115;115;116;115;116;
2023-09-14 07:04:17;3;90;91;90;90;90;90;90;90;90;91;
2023-09-14 07:04:17;ht;87;6.10
2023-09-14 07:04:17;v;4.22
2023-09-14 07:34:16;1;121;121;121;121;121;121;121;121;121;121;
2023-09-14 07:34:16;2;107;108;107;107;107;107;107;108;107;107;
2023-09-14 07:34:16;3;92;92;92;92;92;92;92;93;93;92;
2023-09-14 07:34:16;ht;85;6.90
2023-09-14 07:34:16;v;4.23
2023-09-14 08:04:18;1;86;86;86;86;86;86;86;86;86;86;
2023-09-14 08:04:18;2;92;92;92;92;92;92;92;92;92;92;
2023-09-14 08:04:18;3;95;95;95;95;95;95;95;95;95;96;
2023-09-14 08:04:18;ht;76;10.00
2023-09-14 08:04:18;v;4.21
2023-09-14 08:34:21;1;85;85;85;85;85;85;85;85;85;85;
2023-09-14 08:34:21;2;93;93;93;93;93;93;93;93;93;93;
2023-09-14 08:34:21;3;88;88;93;95;89;89;89;89;89;89;
2023-09-14 08:34:21;ht;68;12.80
2023-09-14 08:34:21;v;4.23
2023-09-14 09:04:22;1;86;86;86;86;86;86;86;86;86;86;
2023-09-14 09:04:22;2;90;90;90;90;90;90;90;90;90;90;
2023-09-14 09:04:22;3;116;116;116;116;116;116;116;116;121;117;
2023-09-14 09:04:22;ht;63;14.60
2023-09-14 09:04:22;v;4.22
2023-09-14 09:34:25;1;88;88;88;88;88;88;88;88;88;88;
2023-09-14 09:34:25;2;89;89;89;89;89;89;89;89;89;89;
2023-09-14 09:34:25;3;97;97;98;97;98;97;97;98;97;97;
2023-09-14 09:34:25;ht;60;16.60
2023-09-14 09:34:25;v;4.22
2023-09-14 10:04:25;1;87;87;87;87;87;87;87;87;87;87;
2023-09-14 10:04:25;2;88;88;88;88;88;88;88;88;88;88;
2023-09-14 10:04:25;3;104;103;103;103;103;103;103;103;104;103;
2023-09-14 10:04:25;ht;56;17.80
2023-09-14 10:04:25;v;4.22
2023-09-14 10:34:26;1;91;91;91;91;91;91;91;91;91;91;
2023-09-14 10:34:26;2;89;89;89;89;89;90;90;89;89;90;
2023-09-14 10:34:26;3;100;100;100;100;100;100;100;100;100;100;
2023-09-14 10:34:26;ht;53;19.00
2023-09-14 10:34:26;v;4.22
2023-09-14 11:04:28;1;84;84;84;84;84;84;84;84;84;84;
2023-09-14 11:04:28;2;84;84;85;84;84;84;84;84;84;84;
2023-09-14 11:04:28;3;95;95;101;96;96;95;95;95;95;95;
2023-09-14 11:04:28;ht;50;19.70
2023-09-14 11:04:28;v;4.23
2023-09-14 11:34:26;1;84;84;84;84;84;84;84;84;84;85;
2023-09-14 11:34:26;2;118;118;118;118;119;118;118;118;118;118;
2023-09-14 11:34:26;3;94;94;94;94;94;94;94;94;94;94;
2023-09-14 11:34:26;ht;45;21.10
2023-09-14 11:34:26;v;4.22
2023-09-14 12:04:29;1;85;85;85;85;86;85;85;85;85;85;
2023-09-14 12:04:29;2;98;98;98;98;98;98;98;98;98;100;
2023-09-14 12:04:29;3;95;100;95;95;95;95;95;95;95;95;
2023-09-14 12:04:29;ht;39;21.70
2023-09-14 12:04:29;v;4.23
2023-09-14 12:34:29;1;89;89;89;89;89;89;90;90;89;89;
2023-09-14 12:34:29;2;90;90;90;90;91;90;90;90;90;90;
2023-09-14 12:34:29;3;98;97;97;97;97;97;97;97;97;97;
2023-09-14 12:34:29;ht;42;22.40
2023-09-14 12:34:29;v;4.19
2023-09-14 13:04:28;1;87;88;87;87;87;88;87;87;88;87;
2023-09-14 13:04:28;2;96;96;96;96;96;96;96;96;96;96;
2023-09-14 13:04:28;3;92;93;93;93;93;93;93;93;93;93;
2023-09-14 13:04:28;ht;36;22.80
2023-09-14 13:04:28;v;4.23
2023-09-14 13:34:27;1;101;100;100;101;100;100;101;100;100;108;
2023-09-14 13:34:27;2;101;101;101;101;101;101;101;101;101;101;
2023-09-14 13:34:27;3;91;91;91;91;92;92;92;96;93;92;
2023-09-14 13:34:27;ht;35;23.10
2023-09-14 13:34:27;v;4.23
2023-09-14 14:04:26;1;90;90;90;90;90;90;90;90;90;90;
2023-09-14 14:04:26;2;95;95;95;95;95;95;95;95;95;95;
2023-09-14 14:04:26;3;92;92;92;92;92;92;92;92;92;92;
2023-09-14 14:04:26;ht;35;24.50
2023-09-14 14:04:26;v;4.24
2023-09-14 14:34:29;1;91;91;91;91;91;91;91;91;91;91;
2023-09-14 14:34:29;2;103;103;103;103;103;103;103;103;103;103;
2023-09-14 14:34:29;3;89;88;89;89;89;88;88;88;94;90;
2023-09-14 14:34:29;ht;33;24.20
2023-09-14 14:34:29;v;4.23
2023-09-14 15:04:29;1;84;84;84;84;84;84;84;84;84;84;
2023-09-14 15:04:29;2;106;107;106;107;107;106;107;107;107;107;
2023-09-14 15:04:29;3;88;88;88;88;88;88;88;88;88;88;
2023-09-14 15:04:29;ht;32;25.20
2023-09-14 15:04:29;v;4.23
2023-09-14 15:34:29;1;85;86;86;85;85;85;85;85;85;85;
2023-09-14 15:34:29;2;94;94;94;94;94;94;94;94;94;94;
2023-09-14 15:34:29;3;106;106;106;106;106;106;106;106;112;106;
2023-09-14 15:34:29;ht;29;24.90
2023-09-14 15:34:29;v;4.23
2023-09-14 16:04:30;1;3;3;3;2;2;2;3;2;3;3;
2023-09-14 16:04:30;2;93;93;93;93;93;93;93;93;93;93;
2023-09-14 16:04:30;3;3;3;2;3;3;3;3;3;3;3;
2023-09-14 16:04:30;ht;31;25.20
2023-09-14 16:04:30;v;4.23
2023-09-14 16:34:31;1;90;91;90;90;91;91;91;91;91;91;
2023-09-14 16:34:31;2;98;98;97;98;98;100;99;98;98;98;
2023-09-14 16:34:31;3;107;101;100;100;100;100;100;100;100;100;
2023-09-14 16:34:31;ht;29;25.40
2023-09-14 16:34:31;v;4.24
2023-09-14 17:04:31;1;84;84;84;84;84;84;84;84;84;84;
2023-09-14 17:04:31;2;90;90;90;90;90;90;90;90;90;90;
2023-09-14 17:04:31;3;94;94;94;93;94;94;94;98;96;94;
2023-09-14 17:04:31;ht;30;24.60
2023-09-14 17:04:31;v;4.23
2023-09-14 17:34:26;1;85;85;85;85;85;85;85;85;85;85;
2023-09-14 17:34:26;2;97;97;97;97;97;97;97;97;97;97;
2023-09-14 17:34:26;3;3;3;7;9;3;3;3;3;3;3;
2023-09-14 17:34:26;ht;32;24.70
2023-09-14 17:34:26;v;4.24
2023-09-14 18:04:30;1;3;2;3;3;2;3;3;3;3;2;
2023-09-14 18:04:30;2;90;90;90;90;90;90;90;90;90;90;
2023-09-14 18:04:30;3;98;98;104;98;98;98;98;97;97;98;
2023-09-14 18:04:30;ht;32;23.70
2023-09-14 18:04:30;v;4.24
2023-09-14 18:34:28;1;96;96;96;96;96;96;96;96;96;96;
2023-09-14 18:34:28;2;88;88;88;88;88;88;88;88;88;88;
2023-09-14 18:34:28;3;94;93;100;94;94;94;94;94;93;94;
2023-09-14 18:34:28;ht;36;21.20
2023-09-14 18:34:28;v;4.24
2023-09-14 19:04:23;1;90;90;90;90;90;90;90;90;90;90;
2023-09-14 19:04:23;2;98;98;98;99;99;98;98;98;98;98;
2023-09-14 19:04:23;3;93;94;94;96;100;94;94;94;94;94;
2023-09-14 19:04:23;ht;43;17.80
2023-09-14 19:04:23;v;4.24
2023-09-14 19:34:24;1;90;90;90;90;90;90;90;90;90;90;
2023-09-14 19:34:24;2;96;96;96;96;96;96;96;96;96;96;
2023-09-14 19:34:24;3;94;94;94;93;94;94;99;94;94;94;
2023-09-14 19:34:24;ht;50;15.50
2023-09-14 19:34:24;v;4.24
2023-09-14 20:04:20;1;115;115;115;115;115;115;115;115;115;115;
2023-09-14 20:04:20;2;87;87;87;88;87;87;87;87;89;88;
2023-09-14 20:04:20;3;100;99;100;99;100;99;99;100;100;100;
2023-09-14 20:04:20;ht;52;14.90
2023-09-14 20:04:20;v;4.24
2023-09-14 20:34:20;1;85;85;85;85;85;93;86;86;85;85;
2023-09-14 20:34:20;2;101;101;101;101;101;101;101;101;101;101;
2023-09-14 20:34:20;3;127;126;126;126;126;125;126;126;125;125;
2023-09-14 20:34:20;ht;51;14.90
2023-09-14 20:34:20;v;4.24
2023-09-14 21:04:19;1;116;116;116;116;116;116;116;116;116;115;
2023-09-14 21:04:19;2;104;104;104;104;107;105;104;104;104;104;
2023-09-14 21:04:19;3;123;123;123;123;123;123;123;123;123;123;
2023-09-14 21:04:19;ht;50;15.40
2023-09-14 21:04:19;v;4.24
2023-09-14 21:34:23;1;3;2;2;2;2;2;2;2;2;3;
2023-09-14 21:34:23;2;95;95;95;95;95;95;95;95;95;95;
2023-09-14 21:34:23;3;2;2;3;3;3;2;2;2;2;2;
2023-09-14 21:34:23;ht;54;14.30
2023-09-14 21:34:23;v;4.23
2023-09-14 22:04:18;1;2;2;2;2;2;2;2;2;2;2;
2023-09-14 22:04:18;2;107;107;107;106;107;107;107;106;106;107;
2023-09-14 22:04:18;3;118;118;118;118;118;118;118;118;118;118;
2023-09-14 22:04:18;ht;56;14.90
2023-09-14 22:04:18;v;4.24
2023-09-14 22:34:22;1;120;120;120;120;120;120;120;120;120;120;
2023-09-14 22:34:22;2;104;103;103;103;103;104;106;105;104;104;
2023-09-14 22:34:22;3;112;106;106;106;106;106;106;106;106;106;
2023-09-14 22:34:22;ht;59;15.00
2023-09-14 22:34:22;v;4.23
2023-09-14 23:04:22;1;2;3;2;2;3;2;2;2;2;2;
2023-09-14 23:04:22;2;103;103;103;103;104;103;104;103;107;104;
2023-09-14 23:04:22;3;97;97;97;97;103;98;97;97;97;97;
2023-09-14 23:04:22;ht;60;15.10
2023-09-14 23:04:22;v;4.24
2023-09-14 23:34:22;1;102;102;102;103;102;103;102;102;103;102;
2023-09-14 23:34:22;2;106;106;106;106;106;105;105;106;106;108;
2023-09-14 23:34:22;3;105;105;105;110;106;105;105;105;105;105;
2023-09-14 23:34:22;ht;61;15.00
2023-09-14 23:34:22;v;4.23
