2023-02-20 00:04:21;1;109;108;108;108;108;108;108;108;108;109;
2023-02-20 00:04:21;2;105;105;105;104;105;105;105;105;105;105;
2023-02-20 00:04:21;3;109;109;109;109;109;109;108;108;109;109;
2023-02-20 00:04:21;ht;76;15.10
2023-02-20 00:04:21;v;4.26
2023-02-20 00:34:23;1;103;103;102;102;102;102;102;102;102;103;
2023-02-20 00:34:23;2;106;106;106;106;106;106;106;106;106;106;
2023-02-20 00:34:23;3;108;108;108;108;108;108;108;108;108;108;
2023-02-20 00:34:23;ht;73;15.20
2023-02-20 00:34:23;v;4.26
2023-02-20 01:04:24;1;108;108;108;108;108;108;108;108;108;108;
2023-02-20 01:04:24;2;105;105;105;104;105;104;105;105;105;105;
2023-02-20 01:04:24;3;109;109;109;109;109;109;109;109;109;109;
2023-02-20 01:04:24;ht;84;14.10
2023-02-20 01:04:24;v;4.27
2023-02-20 01:34:19;1;107;107;107;108;107;107;107;107;107;107;
2023-02-20 01:34:19;2;108;108;108;108;108;108;108;108;108;108;
2023-02-20 01:34:19;3;108;107;107;107;108;108;108;107;108;108;
2023-02-20 01:34:19;ht;93;13.00
2023-02-20 01:34:19;v;4.26
2023-02-20 02:04:19;1;103;103;103;102;102;103;102;102;102;102;
2023-02-20 02:04:19;2;107;108;107;107;108;107;108;107;107;107;
2023-02-20 02:04:19;3;106;106;106;106;106;106;106;106;106;106;
2023-02-20 02:04:19;ht;93;12.80
2023-02-20 02:04:19;v;4.27
2023-02-20 02:34:23;1;105;105;105;105;105;105;105;105;105;105;
2023-02-20 02:34:23;2;107;107;107;107;107;107;107;107;107;107;
2023-02-20 02:34:23;3;108;108;108;108;108;108;108;108;108;108;
2023-02-20 02:34:23;ht;94;12.10
2023-02-20 02:34:23;v;4.26
2023-02-20 03:04:18;1;102;102;102;102;102;102;102;102;102;102;
2023-02-20 03:04:18;2;108;108;108;108;108;108;108;108;108;108;
2023-02-20 03:04:18;3;108;108;108;109;108;108;108;108;108;108;
2023-02-20 03:04:18;ht;99;10.70
2023-02-20 03:04:18;v;4.27
2023-02-20 03:34:22;1;106;106;106;106;106;106;106;106;105;106;
2023-02-20 03:34:22;2;108;108;108;108;108;108;108;108;108;108;
2023-02-20 03:34:22;3;110;110;110;110;110;109;110;109;110;110;
2023-02-20 03:34:22;ht;99;10.60
2023-02-20 03:34:22;v;4.26
2023-02-20 04:04:20;1;107;107;107;107;107;107;107;107;107;107;
2023-02-20 04:04:20;2;105;105;105;105;105;105;105;105;105;105;
2023-02-20 04:04:20;3;107;106;107;106;106;106;107;107;106;107;
2023-02-20 04:04:20;ht;99;10.20
2023-02-20 04:04:20;v;4.26
2023-02-20 04:34:19;1;110;110;110;110;110;110;110;110;110;110;
2023-02-20 04:34:19;2;106;106;106;106;106;105;105;105;105;105;
2023-02-20 04:34:19;3;108;108;108;108;108;107;108;107;107;107;
2023-02-20 04:34:19;ht;99;10.30
2023-02-20 04:34:19;v;4.26
2023-02-20 05:04:22;1;120;120;120;119;119;119;119;119;119;119;
2023-02-20 05:04:22;2;104;104;104;104;104;104;103;104;103;103;
2023-02-20 05:04:22;3;106;106;106;107;106;106;106;106;107;107;
2023-02-20 05:04:22;ht;99;10.30
2023-02-20 05:04:22;v;4.27
2023-02-20 05:34:20;1;110;110;110;110;110;110;110;110;110;110;
2023-02-20 05:34:20;2;108;108;108;108;108;108;108;108;108;108;
2023-02-20 05:34:20;3;108;107;108;107;107;107;107;107;108;107;
2023-02-20 05:34:20;ht;99;9.50
2023-02-20 05:34:20;v;4.26
2023-02-20 06:04:18;1;109;109;109;109;108;108;108;108;108;108;
2023-02-20 06:04:18;2;108;108;107;108;108;108;108;107;108;108;
2023-02-20 06:04:18;3;100;100;100;100;100;100;100;100;100;100;
2023-02-20 06:04:18;ht;99;10.70
2023-02-20 06:04:18;v;4.26
2023-02-20 06:34:21;1;117;117;117;117;117;117;117;117;117;117;
2023-02-20 06:34:21;2;109;109;109;108;108;108;108;108;108;109;
2023-02-20 06:34:21;3;95;95;95;95;95;95;95;95;95;95;
2023-02-20 06:34:21;ht;99;9.70
2023-02-20 06:34:21;v;4.26
2023-02-20 07:04:19;1;106;106;106;106;106;106;105;106;106;105;
2023-02-20 07:04:19;2;109;110;109;109;109;109;109;109;109;110;
2023-02-20 07:04:19;3;101;101;101;101;101;101;101;101;101;101;
2023-02-20 07:04:19;ht;99;11.30
2023-02-20 07:04:19;v;4.26
2023-02-20 07:34:19;1;103;104;104;104;104;103;103;104;103;103;
2023-02-20 07:34:19;2;108;108;108;108;108;108;108;108;108;108;
2023-02-20 07:34:19;3;119;119;119;119;119;118;119;119;119;119;
2023-02-20 07:34:19;ht;99;15.70
2023-02-20 07:34:19;v;4.26
2023-02-20 08:04:26;1;99;99;99;99;99;99;99;99;98;98;
2023-02-20 08:04:26;2;104;104;104;104;104;104;104;104;104;104;
2023-02-20 08:04:26;3;92;92;92;92;92;92;92;92;92;92;
2023-02-20 08:04:26;ht;99;17.00
2023-02-20 08:04:26;v;4.26
2023-02-20 08:34:25;1;99;99;99;99;99;99;99;99;99;99;
2023-02-20 08:34:25;2;104;104;104;104;104;104;104;104;104;104;
2023-02-20 08:34:25;3;94;94;94;94;94;94;94;94;94;94;
2023-02-20 08:34:25;ht;98;19.40
2023-02-20 08:34:25;v;4.26
2023-02-20 09:04:26;1;105;105;105;104;104;103;103;103;102;102;
2023-02-20 09:04:26;2;105;105;105;105;105;105;105;104;105;104;
2023-02-20 09:04:26;3;3;2;3;3;2;3;2;2;3;2;
2023-02-20 09:04:26;ht;93;21.40
2023-02-20 09:04:26;v;4.26
2023-02-20 09:34:29;1;98;98;98;98;98;98;98;98;98;98;
2023-02-20 09:34:29;2;104;104;104;104;104;104;104;104;103;104;
2023-02-20 09:34:29;3;94;94;94;94;94;94;94;94;94;94;
2023-02-20 09:34:29;ht;81;24.20
2023-02-20 09:34:29;v;4.26
2023-02-20 10:04:29;1;108;107;108;108;108;108;108;107;106;106;
2023-02-20 10:04:29;2;103;103;103;103;103;103;103;103;103;103;
2023-02-20 10:04:29;3;102;101;102;101;101;101;101;101;101;101;
2023-02-20 10:04:29;ht;61;26.20
2023-02-20 10:04:29;v;4.26
2023-02-20 10:34:31;1;115;115;115;115;115;115;115;115;115;115;
2023-02-20 10:34:31;2;103;103;103;103;103;103;103;103;103;103;
2023-02-20 10:34:31;3;102;102;103;102;102;102;102;103;102;102;
2023-02-20 10:34:31;ht;48;28.10
2023-02-20 10:34:31;v;4.25
2023-02-20 11:04:34;1;110;110;110;110;110;110;110;110;110;110;
2023-02-20 11:04:34;2;105;105;105;105;105;105;105;105;105;105;
2023-02-20 11:04:34;3;106;106;106;105;105;105;105;105;105;105;
2023-02-20 11:04:34;ht;40;28.30
2023-02-20 11:04:34;v;4.25
2023-02-20 11:34:34;1;108;108;108;108;108;108;108;108;108;108;
2023-02-20 11:34:34;2;106;106;106;106;106;106;106;106;106;106;
2023-02-20 11:34:34;3;103;103;103;103;103;103;103;103;103;103;
2023-02-20 11:34:34;ht;39;29.20
2023-02-20 11:34:34;v;4.25
2023-02-20 12:04:35;1;105;105;105;105;105;105;105;105;105;105;
2023-02-20 12:04:35;2;105;105;104;105;104;104;104;104;104;104;
2023-02-20 12:04:35;3;105;105;106;106;105;105;105;105;105;105;
2023-02-20 12:04:35;ht;38;30.20
2023-02-20 12:04:35;v;4.25
2023-02-20 12:34:36;1;107;107;107;107;107;107;107;107;107;107;
2023-02-20 12:34:36;2;105;105;105;105;105;105;105;105;105;105;
2023-02-20 12:34:36;3;107;106;106;106;106;107;106;107;106;107;
2023-02-20 12:34:36;ht;35;29.90
2023-02-20 12:34:36;v;4.26
2023-02-20 13:04:33;1;113;113;113;113;112;113;113;113;113;112;
2023-02-20 13:04:33;2;103;103;103;104;104;104;104;104;104;104;
2023-02-20 13:04:33;3;104;105;105;104;104;105;105;104;104;105;
2023-02-20 13:04:33;ht;35;30.80
2023-02-20 13:04:33;v;4.26
2023-02-20 13:34:35;1;105;105;105;105;105;105;106;106;106;106;
2023-02-20 13:34:35;2;105;105;105;105;105;105;105;105;105;105;
2023-02-20 13:34:35;3;105;105;105;105;105;105;105;105;105;105;
2023-02-20 13:34:35;ht;33;31.40
2023-02-20 13:34:35;v;4.26
2023-02-20 14:04:38;1;107;107;107;107;107;107;107;107;107;107;
2023-02-20 14:04:38;2;106;106;106;106;106;106;106;106;106;106;
2023-02-20 14:04:38;3;106;105;106;105;105;105;106;105;106;105;
2023-02-20 14:04:38;ht;32;31.60
2023-02-20 14:04:38;v;4.26
2023-02-20 14:34:36;1;107;107;107;107;107;107;107;107;107;107;
2023-02-20 14:34:36;2;106;106;106;106;106;106;106;106;106;106;
2023-02-20 14:34:36;3;106;106;106;106;106;105;106;106;106;105;
2023-02-20 14:34:36;ht;33;32.50
2023-02-20 14:34:36;v;4.26
2023-02-20 15:04:36;1;105;105;105;105;105;105;105;105;105;105;
2023-02-20 15:04:36;2;106;106;106;106;106;106;106;106;106;106;
2023-02-20 15:04:36;3;104;104;104;103;103;103;103;104;103;104;
2023-02-20 15:04:36;ht;31;32.00
2023-02-20 15:04:36;v;4.26
2023-02-20 15:34:35;1;108;108;108;108;108;108;108;108;108;108;
2023-02-20 15:34:35;2;106;106;106;106;106;106;106;106;106;106;
2023-02-20 15:34:35;3;105;105;105;105;105;105;105;105;105;105;
2023-02-20 15:34:35;ht;33;32.50
2023-02-20 15:34:35;v;4.26
2023-02-20 16:04:39;1;107;107;107;107;107;107;107;107;107;107;
2023-02-20 16:04:39;2;105;105;105;105;105;105;105;105;105;105;
2023-02-20 16:04:39;3;101;101;101;101;101;101;101;101;101;101;
2023-02-20 16:04:39;ht;33;32.60
2023-02-20 16:04:39;v;4.26
2023-02-20 16:34:34;1;105;105;105;105;105;105;105;104;104;104;
2023-02-20 16:34:34;2;104;104;104;103;104;104;104;103;104;103;
2023-02-20 16:34:34;3;106;105;106;106;106;105;106;106;105;105;
2023-02-20 16:34:34;ht;35;31.80
2023-02-20 16:34:34;v;4.26
2023-02-20 17:04:37;1;3;3;3;3;3;3;3;3;3;3;
2023-02-20 17:04:37;2;106;106;106;106;106;106;106;106;106;106;
2023-02-20 17:04:37;3;145;145;145;145;145;145;145;145;145;145;
2023-02-20 17:04:37;ht;36;32.60
2023-02-20 17:04:37;v;4.26
2023-02-20 17:34:35;1;109;109;109;109;109;109;109;109;109;109;
2023-02-20 17:34:35;2;106;106;106;106;106;106;106;106;106;106;
2023-02-20 17:34:35;3;102;102;102;102;102;102;102;102;102;102;
2023-02-20 17:34:35;ht;37;31.40
2023-02-20 17:34:35;v;4.26
2023-02-20 18:04:37;1;105;105;105;105;105;105;105;105;105;105;
2023-02-20 18:04:37;2;105;105;105;105;105;105;105;105;105;105;
2023-02-20 18:04:37;3;147;147;147;147;147;147;147;147;147;147;
2023-02-20 18:04:37;ht;39;31.10
2023-02-20 18:04:37;v;4.26
2023-02-20 18:34:34;1;107;107;107;107;107;107;107;107;106;107;
2023-02-20 18:34:34;2;106;106;106;106;106;106;106;106;106;106;
2023-02-20 18:34:34;3;155;155;155;155;155;155;155;155;155;155;
2023-02-20 18:34:34;ht;40;30.40
2023-02-20 18:34:34;v;4.26
2023-02-20 19:04:35;1;106;106;106;106;105;106;105;105;106;105;
2023-02-20 19:04:35;2;106;106;106;106;106;106;106;106;106;105;
2023-02-20 19:04:35;3;101;101;101;101;101;101;101;101;101;101;
2023-02-20 19:04:35;ht;42;28.70
2023-02-20 19:04:35;v;4.27
2023-02-20 19:34:33;1;105;105;105;105;105;105;105;105;106;105;
2023-02-20 19:34:33;2;106;106;106;106;106;106;106;106;106;106;
2023-02-20 19:34:33;3;103;102;103;103;102;102;102;102;102;102;
2023-02-20 19:34:33;ht;46;26.90
2023-02-20 19:34:33;v;4.26
2023-02-20 20:04:29;1;105;105;105;105;105;105;105;105;104;105;
2023-02-20 20:04:29;2;106;106;106;106;106;106;106;106;106;106;
2023-02-20 20:04:29;3;115;115;115;115;115;115;114;115;115;115;
2023-02-20 20:04:29;ht;52;24.20
2023-02-20 20:04:29;v;4.27
2023-02-20 20:34:28;1;3;3;3;2;3;3;3;3;3;3;
2023-02-20 20:34:28;2;103;103;103;103;103;103;103;103;103;103;
2023-02-20 20:34:28;3;115;115;115;115;115;114;115;115;114;115;
2023-02-20 20:34:28;ht;56;22.40
2023-02-20 20:34:28;v;4.27
2023-02-20 21:04:25;1;106;106;106;106;106;106;106;105;105;104;
2023-02-20 21:04:25;2;103;103;103;102;103;102;102;102;102;103;
2023-02-20 21:04:25;3;112;112;112;112;112;112;112;112;113;112;
2023-02-20 21:04:25;ht;57;21.80
2023-02-20 21:04:25;v;4.27
2023-02-20 21:34:26;1;108;108;108;108;108;108;108;108;108;108;
2023-02-20 21:34:26;2;105;104;105;105;105;105;105;104;104;104;
2023-02-20 21:34:26;3;106;106;106;105;105;105;106;106;106;105;
2023-02-20 21:34:26;ht;58;21.40
2023-02-20 21:34:26;v;4.27
2023-02-20 22:04:27;1;109;109;109;109;109;109;109;109;109;109;
2023-02-20 22:04:27;2;106;106;106;106;106;106;106;106;106;106;
2023-02-20 22:04:27;3;106;106;106;106;106;106;106;106;106;106;
2023-02-20 22:04:27;ht;59;21.30
2023-02-20 22:04:27;v;4.27
2023-02-20 22:34:28;1;109;109;109;109;109;109;109;109;109;109;
2023-02-20 22:34:28;2;107;107;107;107;106;106;107;107;106;106;
2023-02-20 22:34:28;3;106;105;105;106;105;105;105;105;105;105;
2023-02-20 22:34:28;ht;66;20.40
2023-02-20 22:34:28;v;4.27
2023-02-20 23:04:23;1;109;109;109;109;109;109;109;109;109;109;
2023-02-20 23:04:23;2;108;108;108;108;108;108;108;108;108;108;
2023-02-20 23:04:23;3;107;106;106;106;106;106;106;106;107;106;
2023-02-20 23:04:23;ht;70;19.90
2023-02-20 23:04:23;v;4.27
2023-02-20 23:34:23;1;108;108;108;108;108;108;108;108;108;108;
2023-02-20 23:34:23;2;104;104;104;104;104;104;104;104;104;104;
2023-02-20 23:34:23;3;108;108;108;109;108;108;108;108;108;109;
2023-02-20 23:34:23;ht;76;19.00
2023-02-20 23:34:23;v;4.27
