2023-11-02 00:04:19;1;142;142;142;142;142;142;142;142;142;142;
2023-11-02 00:04:19;2;99;99;99;99;99;99;99;99;99;99;
2023-11-02 00:04:19;3;126;126;126;126;126;126;126;126;126;126;
2023-11-02 00:04:19;ht;97;14.90
2023-11-02 00:04:19;v;4.22
2023-11-02 00:34:20;1;140;140;140;140;140;140;140;140;140;140;
2023-11-02 00:34:20;2;96;96;96;96;96;96;96;96;96;96;
2023-11-02 00:34:20;3;121;121;121;121;121;121;121;121;125;122;
2023-11-02 00:34:20;ht;97;14.90
2023-11-02 00:34:20;v;4.21
2023-11-02 01:04:20;1;118;117;118;118;118;118;117;118;118;118;
2023-11-02 01:04:20;2;97;97;97;99;98;97;97;97;97;97;
2023-11-02 01:04:20;3;120;114;114;114;114;114;114;114;114;114;
2023-11-02 01:04:20;ht;97;14.80
2023-11-02 01:04:20;v;4.22
2023-11-02 01:34:21;1;117;118;117;117;117;118;117;118;117;118;
2023-11-02 01:34:21;2;100;100;100;103;101;101;101;100;100;100;
2023-11-02 01:34:21;3;115;115;115;115;120;116;115;115;115;115;
2023-11-02 01:34:21;ht;97;14.80
2023-11-02 01:34:21;v;4.21
2023-11-02 02:04:21;1;123;123;123;123;123;123;123;123;123;123;
2023-11-02 02:04:21;2;98;98;100;99;99;98;98;98;98;98;
2023-11-02 02:04:21;3;126;126;126;126;126;126;126;126;126;126;
2023-11-02 02:04:21;ht;97;14.80
2023-11-02 02:04:21;v;4.22
2023-11-02 02:34:22;1;109;109;108;108;109;108;115;109;109;109;
2023-11-02 02:34:22;2;93;93;93;93;93;93;96;94;93;93;
2023-11-02 02:34:22;3;95;95;95;95;95;96;101;96;96;96;
2023-11-02 02:34:22;ht;97;14.80
2023-11-02 02:34:22;v;4.21
2023-11-02 03:04:22;1;116;115;115;116;116;115;115;122;117;116;
2023-11-02 03:04:22;2;100;100;100;100;100;100;100;100;100;100;
2023-11-02 03:04:22;3;90;90;91;91;90;90;90;90;90;90;
2023-11-02 03:04:22;ht;97;14.90
2023-11-02 03:04:22;v;4.22
2023-11-02 03:34:22;1;116;116;121;117;116;116;116;116;116;116;
2023-11-02 03:34:22;2;96;96;97;96;96;96;99;97;97;97;
2023-11-02 03:34:22;3;119;119;119;119;119;119;119;119;119;119;
2023-11-02 03:34:22;ht;97;14.90
2023-11-02 03:34:22;v;4.21
2023-11-02 04:04:23;1;114;118;116;114;114;114;114;114;114;114;
2023-11-02 04:04:23;2;99;99;99;99;99;99;99;99;99;99;
2023-11-02 04:04:23;3;111;111;111;111;111;111;111;111;111;111;
2023-11-02 04:04:23;ht;97;15.00
2023-11-02 04:04:23;v;4.22
2023-11-02 04:34:23;1;100;101;100;100;106;102;101;101;100;100;
2023-11-02 04:34:23;2;103;103;103;103;103;103;103;103;103;103;
2023-11-02 04:34:23;3;97;97;103;98;98;98;98;97;97;98;
2023-11-02 04:34:23;ht;97;14.90
2023-11-02 04:34:23;v;4.21
2023-11-02 05:04:19;1;122;122;122;121;129;122;122;122;122;122;
2023-11-02 05:04:19;2;105;105;105;105;105;105;108;106;106;106;
2023-11-02 05:04:19;3;91;91;90;90;91;91;91;91;90;90;
2023-11-02 05:04:19;ht;97;14.90
2023-11-02 05:04:19;v;4.22
2023-11-02 05:34:24;1;127;127;127;127;134;128;127;127;127;127;
2023-11-02 05:34:24;2;107;107;106;107;110;107;107;107;107;107;
2023-11-02 05:34:24;3;117;117;117;117;117;117;117;117;117;117;
2023-11-02 05:34:24;ht;97;15.10
2023-11-02 05:34:24;v;4.21
2023-11-02 06:04:20;1;115;114;114;114;115;114;115;115;114;114;
2023-11-02 06:04:20;2;95;94;94;94;94;94;94;94;94;94;
2023-11-02 06:04:20;3;94;94;94;94;94;94;94;94;94;94;
2023-11-02 06:04:20;ht;97;15.00
2023-11-02 06:04:20;v;4.22
2023-11-02 06:34:21;1;105;105;105;105;105;105;104;105;111;106;
2023-11-02 06:34:21;2;97;97;97;97;97;100;98;98;98;97;
2023-11-02 06:34:21;3;117;117;117;117;117;117;117;117;117;117;
2023-11-02 06:34:21;ht;97;14.90
2023-11-02 06:34:21;v;4.21
2023-11-02 07:04:21;1;129;129;129;129;129;129;129;129;129;134;
2023-11-02 07:04:21;2;105;105;105;105;105;105;105;105;105;108;
2023-11-02 07:04:21;3;118;118;118;118;118;118;118;118;118;118;
2023-11-02 07:04:21;ht;97;15.10
2023-11-02 07:04:21;v;4.21
2023-11-02 07:34:22;1;103;102;103;103;108;103;103;103;103;103;
2023-11-02 07:34:22;2;106;107;107;106;106;106;106;107;107;107;
2023-11-02 07:34:22;3;2;2;3;3;2;3;3;3;2;8;
2023-11-02 07:34:22;ht;97;15.20
2023-11-02 07:34:22;v;4.21
2023-11-02 08:04:23;1;101;94;94;94;94;94;94;93;94;94;
2023-11-02 08:04:23;2;92;92;92;92;92;92;94;93;93;92;
2023-11-02 08:04:23;3;90;96;91;90;90;90;90;90;90;90;
2023-11-02 08:04:23;ht;97;15.40
2023-11-02 08:04:23;v;4.21
2023-11-02 08:34:23;1;95;95;95;95;95;101;97;95;95;95;
2023-11-02 08:34:23;2;97;97;97;97;98;97;97;97;97;97;
2023-11-02 08:34:23;3;87;88;88;88;87;87;88;87;88;88;
2023-11-02 08:34:23;ht;97;15.10
2023-11-02 08:34:23;v;4.20
2023-11-02 09:04:19;1;102;102;108;103;103;103;103;102;103;102;
2023-11-02 09:04:19;2;106;106;106;106;105;108;107;106;106;106;
2023-11-02 09:04:19;3;87;87;88;87;87;88;87;87;87;87;
2023-11-02 09:04:19;ht;97;15.10
2023-11-02 09:04:19;v;4.20
2023-11-02 09:34:24;1;130;131;130;130;131;130;131;131;131;131;
2023-11-02 09:34:24;2;108;108;108;108;108;108;108;108;108;108;
2023-11-02 09:34:24;3;110;110;110;110;110;110;110;110;110;110;
2023-11-02 09:34:24;ht;97;15.00
2023-11-02 09:34:24;v;4.21
2023-11-02 10:04:20;1;94;94;94;95;95;95;95;95;94;94;
2023-11-02 10:04:20;2;93;93;93;93;93;93;93;93;93;93;
2023-11-02 10:04:20;3;97;97;97;98;103;99;98;98;98;98;
2023-11-02 10:04:20;ht;97;15.20
2023-11-02 10:04:20;v;4.20
2023-11-02 10:34:21;1;86;86;86;86;86;86;86;86;86;86;
2023-11-02 10:34:21;2;92;92;92;92;92;92;92;92;92;92;
2023-11-02 10:34:21;3;90;90;90;90;90;90;90;90;90;90;
2023-11-02 10:34:21;ht;97;15.30
2023-11-02 10:34:21;v;4.21
2023-11-02 11:04:22;1;4;4;4;4;4;4;4;4;4;4;
2023-11-02 11:04:22;2;93;93;93;93;93;96;94;94;93;94;
2023-11-02 11:04:22;3;86;85;85;85;85;85;85;85;85;85;
2023-11-02 11:04:22;ht;97;14.90
2023-11-02 11:04:22;v;4.20
2023-11-02 11:34:23;1;96;96;96;96;96;95;96;96;96;95;
2023-11-02 11:34:23;2;92;92;92;92;92;92;92;92;92;92;
2023-11-02 11:34:23;3;95;96;96;95;95;96;96;96;96;96;
2023-11-02 11:34:23;ht;97;14.90
2023-11-02 11:34:23;v;4.21
2023-11-02 12:04:24;1;94;93;93;93;92;92;92;93;92;92;
2023-11-02 12:04:24;2;94;96;95;95;94;94;94;94;94;94;
2023-11-02 12:04:24;3;3;3;3;3;3;2;3;3;3;2;
2023-11-02 12:04:24;ht;97;15.00
2023-11-02 12:04:24;v;4.21
2023-11-02 12:34:20;1;93;93;92;93;93;93;93;96;100;94;
2023-11-02 12:34:20;2;98;97;97;97;97;97;97;97;97;97;
2023-11-02 12:34:20;3;91;91;91;92;92;92;92;92;92;92;
2023-11-02 12:34:20;ht;97;13.90
2023-11-02 12:34:20;v;4.21
2023-11-02 13:04:20;1;87;87;87;87;87;87;87;88;88;88;
2023-11-02 13:04:20;2;97;97;97;97;97;97;97;97;97;97;
2023-11-02 13:04:20;3;123;123;123;123;123;123;123;123;123;123;
2023-11-02 13:04:20;ht;97;14.20
2023-11-02 13:04:20;v;4.21
2023-11-02 13:34:20;1;85;85;85;85;93;86;86;86;86;86;
2023-11-02 13:34:20;2;95;94;95;94;94;94;94;95;94;94;
2023-11-02 13:34:20;3;93;93;93;93;93;93;93;93;92;93;
2023-11-02 13:34:20;ht;97;14.40
2023-11-02 13:34:20;v;4.21
2023-11-02 14:04:21;1;87;86;86;86;86;87;86;86;87;86;
2023-11-02 14:04:21;2;98;98;98;98;98;98;98;98;98;98;
2023-11-02 14:04:21;3;92;92;92;92;92;92;92;92;92;92;
2023-11-02 14:04:21;ht;97;14.40
2023-11-02 14:04:21;v;4.22
2023-11-02 14:34:21;1;86;86;86;86;86;86;86;87;86;87;
2023-11-02 14:34:21;2;94;94;94;94;94;94;94;94;94;94;
2023-11-02 14:34:21;3;96;96;96;96;96;96;96;96;96;96;
2023-11-02 14:34:21;ht;97;14.60
2023-11-02 14:34:21;v;4.21
2023-11-02 15:04:22;1;98;93;92;92;92;91;92;92;92;92;
2023-11-02 15:04:22;2;95;95;94;94;94;94;94;94;94;94;
2023-11-02 15:04:22;3;89;89;89;90;89;90;89;89;89;89;
2023-11-02 15:04:22;ht;97;15.10
2023-11-02 15:04:22;v;4.22
2023-11-02 15:34:23;1;90;90;90;90;90;90;90;90;90;90;
2023-11-02 15:34:23;2;91;92;91;91;91;91;91;91;91;91;
2023-11-02 15:34:23;3;112;112;112;112;112;112;112;112;112;112;
2023-11-02 15:34:23;ht;97;15.50
2023-11-02 15:34:23;v;4.21
2023-11-02 16:04:24;1;96;96;96;96;96;96;96;96;96;96;
2023-11-02 16:04:24;2;92;92;92;92;93;92;92;92;92;92;
2023-11-02 16:04:24;3;90;90;90;90;90;89;90;90;89;90;
2023-11-02 16:04:24;ht;97;15.90
2023-11-02 16:04:24;v;4.22
2023-11-02 16:34:21;1;95;95;94;95;95;95;95;94;95;95;
2023-11-02 16:34:21;2;99;97;97;96;96;96;96;96;96;96;
2023-11-02 16:34:21;3;90;90;89;90;89;89;89;90;89;90;
2023-11-02 16:34:21;ht;97;15.70
2023-11-02 16:34:21;v;4.21
2023-11-02 17:04:22;1;98;90;90;90;90;90;89;90;90;89;
2023-11-02 17:04:22;2;94;95;94;94;94;94;94;94;94;94;
2023-11-02 17:04:22;3;90;89;89;89;90;90;89;89;89;90;
2023-11-02 17:04:22;ht;97;15.70
2023-11-02 17:04:22;v;4.21
2023-11-02 17:34:24;1;100;100;100;100;100;100;100;100;100;100;
2023-11-02 17:34:24;2;95;95;95;95;95;95;95;95;95;95;
2023-11-02 17:34:24;3;89;89;89;89;89;89;89;89;90;89;
2023-11-02 17:34:24;ht;97;14.70
2023-11-02 17:34:24;v;4.22
2023-11-02 18:04:20;1;98;97;97;98;98;97;98;98;97;98;
2023-11-02 18:04:20;2;94;96;96;95;95;95;95;94;94;94;
2023-11-02 18:04:20;3;91;92;91;91;91;91;92;92;91;92;
2023-11-02 18:04:20;ht;97;14.20
2023-11-02 18:04:20;v;4.21
2023-11-02 18:34:20;1;102;102;102;103;102;103;103;103;102;103;
2023-11-02 18:34:20;2;95;95;95;95;95;95;95;95;95;95;
2023-11-02 18:34:20;3;91;91;91;91;91;91;91;91;91;91;
2023-11-02 18:34:20;ht;97;13.70
2023-11-02 18:34:20;v;4.22
2023-11-02 19:04:20;1;95;95;96;95;104;96;96;96;96;95;
2023-11-02 19:04:20;2;98;98;98;98;98;98;98;98;98;98;
2023-11-02 19:04:20;3;95;95;95;96;95;95;96;96;96;95;
2023-11-02 19:04:20;ht;97;13.40
2023-11-02 19:04:20;v;4.21
2023-11-02 19:34:19;1;123;123;123;123;123;123;123;123;123;123;
2023-11-02 19:34:19;2;101;101;101;101;101;101;101;101;101;101;
2023-11-02 19:34:19;3;103;103;103;103;103;102;103;103;103;103;
2023-11-02 19:34:19;ht;97;12.60
2023-11-02 19:34:19;v;4.22
2023-11-02 20:04:22;1;105;105;105;105;105;105;105;105;105;105;
2023-11-02 20:04:22;2;98;98;98;97;98;98;98;98;98;98;
2023-11-02 20:04:22;3;106;106;106;106;106;106;106;106;106;106;
2023-11-02 20:04:22;ht;97;12.10
2023-11-02 20:04:22;v;4.21
2023-11-02 20:34:21;1;108;109;109;109;108;109;109;109;109;109;
2023-11-02 20:34:21;2;96;96;96;96;96;96;96;96;96;96;
2023-11-02 20:34:21;3;108;108;108;108;108;108;108;108;108;108;
2023-11-02 20:34:21;ht;97;11.40
2023-11-02 20:34:21;v;4.22
2023-11-02 21:04:19;1;108;108;108;108;108;108;108;108;108;108;
2023-11-02 21:04:19;2;101;101;101;101;101;101;101;101;101;101;
2023-11-02 21:04:19;3;109;110;110;110;110;109;110;110;109;110;
2023-11-02 21:04:19;ht;97;11.00
2023-11-02 21:04:19;v;4.21
2023-11-02 21:34:22;1;9;4;3;3;3;3;3;3;3;3;
2023-11-02 21:34:22;2;111;111;111;111;111;111;111;111;111;111;
2023-11-02 21:34:22;3;93;93;93;93;93;93;93;93;93;93;
2023-11-02 21:34:22;ht;97;10.40
2023-11-02 21:34:22;v;4.22
2023-11-02 22:04:19;1;101;101;101;101;101;101;101;101;101;101;
2023-11-02 22:04:19;2;105;105;105;106;105;105;105;106;105;106;
2023-11-02 22:04:19;3;107;107;107;107;107;107;107;107;107;107;
2023-11-02 22:04:19;ht;97;10.00
2023-11-02 22:04:19;v;4.21
2023-11-02 22:34:21;1;102;102;102;102;102;102;102;102;102;102;
2023-11-02 22:34:21;2;98;98;98;98;98;98;98;98;98;98;
2023-11-02 22:34:21;3;101;101;101;101;101;101;101;101;101;101;
2023-11-02 22:34:21;ht;97;9.80
2023-11-02 22:34:21;v;4.21
2023-11-02 23:04:18;1;104;104;104;104;104;104;104;104;104;104;
2023-11-02 23:04:18;2;103;103;103;103;103;103;103;103;103;103;
2023-11-02 23:04:18;3;105;105;105;105;104;105;105;104;105;104;
2023-11-02 23:04:18;ht;97;9.60
2023-11-02 23:04:18;v;4.21
2023-11-02 23:34:20;1;99;100;100;100;100;99;100;100;100;99;
2023-11-02 23:34:20;2;115;115;115;115;115;115;115;115;115;115;
2023-11-02 23:34:20;3;109;108;109;109;108;109;108;109;109;109;
2023-11-02 23:34:20;ht;97;9.40
2023-11-02 23:34:20;v;4.21
