2023-10-06 00:04:21;1;126;126;126;126;126;126;126;126;126;126;
2023-10-06 00:04:21;2;100;100;100;100;100;100;100;100;100;100;
2023-10-06 00:04:21;3;94;94;94;94;95;94;94;94;94;94;
2023-10-06 00:04:21;ht;71;13.00
2023-10-06 00:04:21;v;4.24
2023-10-06 00:34:20;1;126;125;126;125;125;125;125;125;125;125;
2023-10-06 00:34:20;2;105;105;105;105;105;106;105;105;105;105;
2023-10-06 00:34:20;3;103;103;103;103;103;103;103;103;103;103;
2023-10-06 00:34:20;ht;73;12.60
2023-10-06 00:34:20;v;4.24
2023-10-06 01:04:18;1;123;123;123;123;123;123;123;123;123;123;
2023-10-06 01:04:18;2;105;105;105;106;105;105;105;105;105;105;
2023-10-06 01:04:18;3;95;95;95;95;95;95;95;95;96;95;
2023-10-06 01:04:18;ht;77;11.40
2023-10-06 01:04:18;v;4.24
2023-10-06 01:34:21;1;124;124;124;124;124;124;124;124;124;124;
2023-10-06 01:34:21;2;109;109;109;109;109;109;109;109;109;109;
2023-10-06 01:34:21;3;106;106;106;107;107;106;107;106;107;106;
2023-10-06 01:34:21;ht;79;11.20
2023-10-06 01:34:21;v;4.23
2023-10-06 02:04:19;1;124;124;124;124;124;124;124;124;124;124;
2023-10-06 02:04:19;2;111;111;111;111;111;111;111;111;111;111;
2023-10-06 02:04:19;3;115;115;115;114;115;115;114;115;115;115;
2023-10-06 02:04:19;ht;80;10.90
2023-10-06 02:04:19;v;4.24
2023-10-06 02:34:21;1;98;98;98;98;98;98;98;98;98;98;
2023-10-06 02:34:21;2;96;96;96;96;96;96;96;96;96;96;
2023-10-06 02:34:21;3;105;106;105;106;105;105;105;105;106;105;
2023-10-06 02:34:21;ht;82;10.10
2023-10-06 02:34:21;v;4.23
2023-10-06 03:04:18;1;2;2;2;2;2;2;2;2;2;2;
2023-10-06 03:04:18;2;108;109;109;109;109;109;109;108;109;109;
2023-10-06 03:04:18;3;104;104;104;104;104;104;104;104;104;104;
2023-10-06 03:04:18;ht;82;10.20
2023-10-06 03:04:18;v;4.23
2023-10-06 03:34:20;1;118;118;118;118;118;118;118;118;118;118;
2023-10-06 03:34:20;2;111;111;111;111;111;111;111;111;111;111;
2023-10-06 03:34:20;3;96;96;96;96;96;96;96;96;96;96;
2023-10-06 03:34:20;ht;83;10.10
2023-10-06 03:34:20;v;4.22
2023-10-06 04:04:17;1;90;90;90;90;90;90;90;90;90;90;
2023-10-06 04:04:17;2;111;111;111;111;111;111;111;111;111;111;
2023-10-06 04:04:17;3;106;107;107;106;107;107;106;106;106;106;
2023-10-06 04:04:17;ht;88;9.10
2023-10-06 04:04:17;v;4.23
2023-10-06 04:34:19;1;87;87;87;87;87;87;87;87;87;87;
2023-10-06 04:34:19;2;100;100;100;100;100;100;100;100;100;100;
2023-10-06 04:34:19;3;97;97;97;97;97;97;97;97;97;97;
2023-10-06 04:34:19;ht;89;8.70
2023-10-06 04:34:19;v;4.22
2023-10-06 05:04:20;1;87;87;87;87;87;87;87;87;87;87;
2023-10-06 05:04:20;2;105;105;105;105;105;105;105;105;105;105;
2023-10-06 05:04:20;3;93;93;93;93;93;93;93;93;93;93;
2023-10-06 05:04:20;ht;90;8.60
2023-10-06 05:04:20;v;4.22
2023-10-06 05:34:16;1;88;88;87;87;88;88;88;88;88;88;
2023-10-06 05:34:16;2;99;99;99;99;99;99;99;99;99;99;
2023-10-06 05:34:16;3;94;94;94;94;94;94;94;94;94;94;
2023-10-06 05:34:16;ht;90;9.10
2023-10-06 05:34:16;v;4.22
2023-10-06 06:04:17;1;124;124;124;124;124;124;124;124;124;124;
2023-10-06 06:04:17;2;98;98;98;98;98;98;98;98;98;98;
2023-10-06 06:04:17;3;94;94;94;94;94;94;94;94;94;94;
2023-10-06 06:04:17;ht;92;8.00
2023-10-06 06:04:17;v;4.22
2023-10-06 06:34:18;1;121;121;121;121;121;121;121;121;121;121;
2023-10-06 06:34:18;2;98;98;98;98;98;98;98;98;98;98;
2023-10-06 06:34:18;3;95;96;96;95;95;96;96;95;96;95;
2023-10-06 06:34:18;ht;96;6.90
2023-10-06 06:34:18;v;4.21
2023-10-06 07:04:19;1;90;90;90;90;90;90;90;90;90;90;
2023-10-06 07:04:19;2;93;93;93;93;93;93;93;93;93;93;
2023-10-06 07:04:19;3;94;94;94;94;94;94;94;94;94;94;
2023-10-06 07:04:19;ht;88;9.70
2023-10-06 07:04:19;v;4.23
2023-10-06 07:34:23;1;84;84;84;84;84;84;84;84;84;84;
2023-10-06 07:34:23;2;108;107;108;108;108;108;107;107;107;108;
2023-10-06 07:34:23;3;85;85;85;85;85;85;85;85;85;85;
2023-10-06 07:34:23;ht;78;13.20
2023-10-06 07:34:23;v;4.24
2023-10-06 08:04:25;1;85;85;85;85;85;85;85;85;85;85;
2023-10-06 08:04:25;2;107;107;107;107;107;107;107;107;107;107;
2023-10-06 08:04:25;3;85;85;85;85;85;85;85;85;85;85;
2023-10-06 08:04:25;ht;72;15.80
2023-10-06 08:04:25;v;4.23
2023-10-06 08:34:25;1;87;87;87;87;87;87;87;87;87;87;
2023-10-06 08:34:25;2;96;96;96;96;96;96;96;96;96;96;
2023-10-06 08:34:25;3;86;86;86;86;86;86;86;86;86;86;
2023-10-06 08:34:25;ht;61;19.00
2023-10-06 08:34:25;v;4.24
2023-10-06 09:04:27;1;114;114;114;114;114;114;114;114;114;114;
2023-10-06 09:04:27;2;100;100;99;100;100;100;100;100;100;100;
2023-10-06 09:04:27;3;91;91;91;91;91;91;91;91;91;91;
2023-10-06 09:04:27;ht;55;20.80
2023-10-06 09:04:27;v;4.23
2023-10-06 09:34:28;1;82;82;82;82;82;82;82;82;82;82;
2023-10-06 09:34:28;2;93;93;93;93;93;93;93;93;93;93;
2023-10-06 09:34:28;3;90;90;90;90;91;90;90;90;90;90;
2023-10-06 09:34:28;ht;50;23.40
2023-10-06 09:34:28;v;4.22
2023-10-06 10:04:30;1;2;2;3;2;2;3;2;3;3;2;
2023-10-06 10:04:30;2;108;108;108;109;108;108;109;108;108;108;
2023-10-06 10:04:30;3;90;90;90;90;90;90;90;90;90;90;
2023-10-06 10:04:30;ht;47;24.70
2023-10-06 10:04:30;v;4.20
2023-10-06 10:34:35;1;2;2;2;2;2;2;2;2;2;3;
2023-10-06 10:34:35;2;88;88;88;88;88;88;88;88;88;88;
2023-10-06 10:34:35;3;88;88;88;88;88;88;88;88;88;88;
2023-10-06 10:34:35;ht;45;26.20
2023-10-06 10:34:35;v;4.21
2023-10-06 11:04:37;1;2;2;2;2;2;2;2;2;2;2;
2023-10-06 11:04:37;2;104;104;104;104;104;104;104;104;104;104;
2023-10-06 11:04:37;3;89;89;89;89;89;89;89;89;89;89;
2023-10-06 11:04:37;ht;41;27.40
2023-10-06 11:04:37;v;4.20
2023-10-06 11:34:35;1;105;105;105;106;105;105;105;105;105;105;
2023-10-06 11:34:35;2;103;103;103;103;103;103;103;103;103;103;
2023-10-06 11:34:35;3;2;3;2;2;2;2;2;2;2;3;
2023-10-06 11:34:35;ht;37;27.70
2023-10-06 11:34:35;v;4.22
2023-10-06 12:04:35;1;87;87;88;88;88;88;87;87;87;87;
2023-10-06 12:04:35;2;101;101;101;101;101;101;101;101;100;101;
2023-10-06 12:04:35;3;2;2;3;2;2;2;2;2;2;2;
2023-10-06 12:04:35;ht;34;29.40
2023-10-06 12:04:35;v;4.22
2023-10-06 12:34:35;1;3;2;2;3;2;2;2;2;2;2;
2023-10-06 12:34:35;2;99;99;99;99;99;99;99;99;99;99;
2023-10-06 12:34:35;3;95;95;95;95;95;95;95;95;95;95;
2023-10-06 12:34:35;ht;31;28.90
2023-10-06 12:34:35;v;4.22
2023-10-06 13:04:37;1;125;125;125;125;125;125;125;125;125;125;
2023-10-06 13:04:37;2;94;94;94;94;94;94;94;94;94;94;
2023-10-06 13:04:37;3;91;91;91;91;91;91;92;91;91;91;
2023-10-06 13:04:37;ht;31;29.30
2023-10-06 13:04:37;v;4.23
2023-10-06 13:34:34;1;2;3;2;2;2;3;3;2;2;2;
2023-10-06 13:34:34;2;95;95;95;95;95;95;95;95;95;95;
2023-10-06 13:34:34;3;104;104;104;104;104;104;103;104;104;104;
2023-10-06 13:34:34;ht;29;29.80
2023-10-06 13:34:34;v;4.22
2023-10-06 14:04:36;1;92;92;92;92;92;92;92;92;92;92;
2023-10-06 14:04:36;2;99;99;99;99;99;99;99;99;99;99;
2023-10-06 14:04:36;3;118;118;118;118;119;119;119;118;118;119;
2023-10-06 14:04:36;ht;27;31.30
2023-10-06 14:04:36;v;4.23
2023-10-06 14:34:33;1;91;91;91;91;91;91;91;91;91;91;
2023-10-06 14:34:33;2;103;103;103;103;103;103;103;103;103;103;
2023-10-06 14:34:33;3;97;97;97;97;97;97;97;97;97;97;
2023-10-06 14:34:33;ht;29;30.50
2023-10-06 14:34:33;v;4.22
2023-10-06 15:04:36;1;84;84;84;84;84;84;84;84;84;84;
2023-10-06 15:04:36;2;99;99;99;99;99;99;99;99;99;99;
2023-10-06 15:04:36;3;88;88;88;88;89;88;88;89;88;88;
2023-10-06 15:04:36;ht;29;30.70
2023-10-06 15:04:36;v;4.23
2023-10-06 15:34:34;1;3;3;2;2;2;2;2;3;2;3;
2023-10-06 15:34:34;2;100;100;100;100;100;100;100;100;100;100;
2023-10-06 15:34:34;3;89;89;89;89;89;89;89;89;89;89;
2023-10-06 15:34:34;ht;29;31.30
2023-10-06 15:34:34;v;4.22
2023-10-06 16:04:37;1;83;83;83;83;83;83;83;83;83;83;
2023-10-06 16:04:37;2;91;91;91;91;91;91;91;91;91;91;
2023-10-06 16:04:37;3;2;2;3;2;2;3;2;2;3;2;
2023-10-06 16:04:37;ht;28;30.90
2023-10-06 16:04:37;v;4.22
2023-10-06 16:34:36;1;88;88;88;88;88;88;88;88;88;88;
2023-10-06 16:34:36;2;95;95;95;95;95;95;95;95;94;95;
2023-10-06 16:34:36;3;108;108;108;108;108;108;108;108;108;108;
2023-10-06 16:34:36;ht;28;30.70
2023-10-06 16:34:36;v;4.23
2023-10-06 17:04:33;1;86;86;86;86;86;86;86;86;86;86;
2023-10-06 17:04:33;2;94;94;94;94;94;94;94;94;94;94;
2023-10-06 17:04:33;3;84;84;84;84;84;84;84;84;84;84;
2023-10-06 17:04:33;ht;29;31.30
2023-10-06 17:04:33;v;4.23
2023-10-06 17:34:35;1;2;3;2;3;3;2;2;3;3;2;
2023-10-06 17:34:35;2;101;101;101;101;102;101;101;101;101;102;
2023-10-06 17:34:35;3;90;89;89;89;89;89;89;90;89;89;
2023-10-06 17:34:35;ht;28;30.00
2023-10-06 17:34:35;v;4.23
2023-10-06 18:04:35;1;85;85;85;85;85;85;85;85;85;85;
2023-10-06 18:04:35;2;90;90;90;90;90;90;90;90;90;90;
2023-10-06 18:04:35;3;89;89;89;89;89;90;89;89;89;89;
2023-10-06 18:04:35;ht;45;27.10
2023-10-06 18:04:35;v;4.24
2023-10-06 18:34:32;1;2;2;2;3;3;2;2;2;3;2;
2023-10-06 18:34:32;2;91;91;91;91;91;91;91;91;91;91;
2023-10-06 18:34:32;3;87;87;87;87;87;87;87;87;87;87;
2023-10-06 18:34:32;ht;48;25.70
2023-10-06 18:34:32;v;4.25
2023-10-06 19:04:27;1;83;83;83;83;83;83;83;83;83;83;
2023-10-06 19:04:27;2;98;98;98;98;98;98;98;98;98;98;
2023-10-06 19:04:27;3;2;3;2;2;2;3;2;2;2;3;
2023-10-06 19:04:27;ht;48;24.20
2023-10-06 19:04:27;v;4.24
2023-10-06 19:34:30;1;89;89;89;89;89;89;89;89;89;89;
2023-10-06 19:34:30;2;88;88;88;88;88;88;88;88;88;88;
2023-10-06 19:34:30;3;91;91;91;91;91;92;91;91;91;91;
2023-10-06 19:34:30;ht;46;23.50
2023-10-06 19:34:30;v;4.24
2023-10-06 20:04:27;1;85;85;85;85;85;85;85;85;85;85;
2023-10-06 20:04:27;2;96;96;96;96;96;96;96;96;96;96;
2023-10-06 20:04:27;3;89;89;89;89;89;89;89;89;89;89;
2023-10-06 20:04:27;ht;48;22.70
2023-10-06 20:04:27;v;4.25
2023-10-06 20:34:28;1;100;100;101;100;100;100;100;101;100;100;
2023-10-06 20:34:28;2;100;100;100;100;100;100;100;100;100;100;
2023-10-06 20:34:28;3;2;2;3;3;2;2;2;3;2;3;
2023-10-06 20:34:28;ht;50;22.40
2023-10-06 20:34:28;v;4.24
2023-10-06 21:04:24;1;151;150;150;150;151;151;151;150;151;151;
2023-10-06 21:04:24;2;109;109;109;109;109;109;109;109;109;110;
2023-10-06 21:04:24;3;3;2;2;2;2;2;2;2;2;2;
2023-10-06 21:04:24;ht;50;20.20
2023-10-06 21:04:24;v;4.25
2023-10-06 21:34:23;1;2;2;2;2;2;2;2;3;2;3;
2023-10-06 21:34:23;2;2;2;2;2;2;2;2;2;2;2;
2023-10-06 21:34:23;3;115;115;115;115;115;115;115;115;115;115;
2023-10-06 21:34:23;ht;55;19.00
2023-10-06 21:34:23;v;4.24
2023-10-06 22:04:22;1;136;136;136;136;136;135;136;136;136;136;
2023-10-06 22:04:22;2;106;106;106;106;106;106;106;106;107;107;
2023-10-06 22:04:22;3;109;108;109;109;109;109;109;109;109;109;
2023-10-06 22:04:22;ht;55;18.50
2023-10-06 22:04:22;v;4.25
2023-10-06 22:34:25;1;103;102;102;102;102;102;103;103;102;102;
2023-10-06 22:34:25;2;2;2;2;2;2;2;2;2;2;2;
2023-10-06 22:34:25;3;115;115;115;115;115;115;115;115;115;115;
2023-10-06 22:34:25;ht;59;17.80
2023-10-06 22:34:25;v;4.24
2023-10-06 23:04:23;1;108;108;107;108;108;108;108;108;108;108;
2023-10-06 23:04:23;2;78;78;78;78;78;78;78;78;78;78;
2023-10-06 23:04:23;3;120;120;120;120;120;120;120;120;120;120;
2023-10-06 23:04:23;ht;61;17.10
2023-10-06 23:04:23;v;4.25
2023-10-06 23:34:25;1;106;106;106;106;106;106;106;106;106;105;
2023-10-06 23:34:25;2;2;2;2;2;2;2;2;2;2;2;
2023-10-06 23:34:25;3;117;117;117;117;117;117;117;117;117;117;
2023-10-06 23:34:25;ht;63;16.50
2023-10-06 23:34:25;v;4.24
