2023-04-21 00:04:18;1;109;109;109;109;109;109;109;109;109;109;
2023-04-21 00:04:18;2;109;109;109;109;109;109;109;109;109;109;
2023-04-21 00:04:18;3;113;112;113;112;112;112;112;112;112;112;
2023-04-21 00:04:18;ht;99;9.00
2023-04-21 00:04:18;v;4.26
2023-04-21 00:34:19;1;109;109;109;109;109;109;109;109;109;109;
2023-04-21 00:34:19;2;108;108;108;108;108;108;108;108;108;108;
2023-04-21 00:34:19;3;110;110;110;110;110;110;110;110;110;110;
2023-04-21 00:34:19;ht;99;8.90
2023-04-21 00:34:19;v;4.26
2023-04-21 01:04:19;1;109;109;109;109;109;109;109;109;109;109;
2023-04-21 01:04:19;2;111;112;112;112;111;112;112;112;111;111;
2023-04-21 01:04:19;3;110;110;111;110;111;110;111;111;111;111;
2023-04-21 01:04:19;ht;99;8.20
2023-04-21 01:04:19;v;4.26
2023-04-21 01:34:15;1;109;109;109;109;109;109;109;109;109;109;
2023-04-21 01:34:15;2;109;109;109;109;109;109;110;109;109;109;
2023-04-21 01:34:15;3;193;193;193;193;193;193;193;193;193;193;
2023-04-21 01:34:15;ht;99;8.20
2023-04-21 01:34:15;v;4.26
2023-04-21 02:04:20;1;107;107;107;107;107;107;107;107;107;107;
2023-04-21 02:04:20;2;109;109;109;109;109;109;109;109;109;109;
2023-04-21 02:04:20;3;182;182;182;182;182;182;182;182;182;182;
2023-04-21 02:04:20;ht;99;8.50
2023-04-21 02:04:20;v;4.26
2023-04-21 02:34:16;1;108;108;108;108;108;108;108;108;108;108;
2023-04-21 02:34:16;2;108;108;108;108;108;109;108;108;108;108;
2023-04-21 02:34:16;3;155;156;155;156;156;156;155;155;156;156;
2023-04-21 02:34:16;ht;99;7.80
2023-04-21 02:34:16;v;4.26
2023-04-21 03:04:16;1;107;107;107;107;107;107;107;107;107;107;
2023-04-21 03:04:16;2;107;107;107;108;107;108;107;108;107;107;
2023-04-21 03:04:16;3;183;183;183;183;183;183;183;183;183;183;
2023-04-21 03:04:16;ht;99;7.90
2023-04-21 03:04:16;v;4.26
2023-04-21 03:34:17;1;108;108;108;108;108;108;108;108;108;108;
2023-04-21 03:34:17;2;107;107;107;107;107;107;107;107;107;107;
2023-04-21 03:34:17;3;185;185;185;185;185;185;185;185;185;185;
2023-04-21 03:34:17;ht;99;7.30
2023-04-21 03:34:17;v;4.26
2023-04-21 04:04:16;1;106;106;106;106;106;106;106;106;106;106;
2023-04-21 04:04:16;2;105;104;104;104;105;104;104;104;105;104;
2023-04-21 04:04:16;3;114;115;115;114;115;114;115;114;114;114;
2023-04-21 04:04:16;ht;99;6.90
2023-04-21 04:04:16;v;4.26
2023-04-21 04:34:16;1;108;108;108;108;108;108;108;108;108;108;
2023-04-21 04:34:16;2;107;107;107;107;107;107;107;107;107;108;
2023-04-21 04:34:16;3;167;167;167;166;167;167;167;167;167;167;
2023-04-21 04:34:16;ht;99;7.00
2023-04-21 04:34:16;v;4.26
2023-04-21 05:04:16;1;106;106;106;106;106;106;106;106;106;106;
2023-04-21 05:04:16;2;107;106;106;106;106;106;106;106;106;106;
2023-04-21 05:04:16;3;137;137;137;137;137;137;137;137;137;137;
2023-04-21 05:04:16;ht;99;7.60
2023-04-21 05:04:16;v;4.26
2023-04-21 05:34:16;1;107;107;107;107;107;107;107;107;107;107;
2023-04-21 05:34:16;2;108;108;108;108;108;108;109;109;109;108;
2023-04-21 05:34:16;3;111;111;110;111;110;111;111;110;110;111;
2023-04-21 05:34:16;ht;99;6.90
2023-04-21 05:34:16;v;4.25
2023-04-21 06:04:16;1;102;102;102;102;102;102;102;102;102;102;
2023-04-21 06:04:16;2;110;110;109;110;109;110;109;109;109;109;
2023-04-21 06:04:16;3;115;115;115;115;115;115;115;116;115;115;
2023-04-21 06:04:16;ht;99;6.40
2023-04-21 06:04:16;v;4.25
2023-04-21 06:34:15;1;106;106;106;106;106;106;106;106;106;106;
2023-04-21 06:34:15;2;109;110;109;109;109;110;109;110;110;109;
2023-04-21 06:34:15;3;114;114;113;114;113;113;113;113;113;113;
2023-04-21 06:34:15;ht;99;6.40
2023-04-21 06:34:15;v;4.25
2023-04-21 07:04:15;1;105;105;105;105;105;105;105;105;105;105;
2023-04-21 07:04:15;2;107;108;107;107;107;107;107;107;108;107;
2023-04-21 07:04:15;3;136;136;136;136;136;136;136;136;136;136;
2023-04-21 07:04:15;ht;99;6.60
2023-04-21 07:04:15;v;4.25
2023-04-21 07:34:19;1;105;105;105;105;105;105;105;105;105;105;
2023-04-21 07:34:19;2;109;109;110;110;109;109;110;110;109;109;
2023-04-21 07:34:19;3;110;110;110;110;110;110;110;110;110;110;
2023-04-21 07:34:19;ht;99;6.10
2023-04-21 07:34:19;v;4.25
2023-04-21 08:04:19;1;104;104;105;104;105;104;104;105;104;105;
2023-04-21 08:04:19;2;109;109;109;109;109;109;109;109;109;109;
2023-04-21 08:04:19;3;110;110;111;110;110;111;110;110;111;110;
2023-04-21 08:04:19;ht;99;8.10
2023-04-21 08:04:19;v;4.26
2023-04-21 08:34:19;1;108;108;108;108;108;108;108;108;108;108;
2023-04-21 08:34:19;2;107;107;107;107;107;107;107;107;107;107;
2023-04-21 08:34:19;3;112;112;112;112;112;112;112;112;112;112;
2023-04-21 08:34:19;ht;99;10.40
2023-04-21 08:34:19;v;4.25
2023-04-21 09:04:17;1;107;107;107;107;107;107;107;107;107;107;
2023-04-21 09:04:17;2;107;107;107;107;108;107;107;107;107;107;
2023-04-21 09:04:17;3;107;107;107;107;107;107;107;107;107;107;
2023-04-21 09:04:17;ht;99;12.80
2023-04-21 09:04:17;v;4.26
2023-04-21 09:34:21;1;106;106;106;106;106;106;106;106;106;106;
2023-04-21 09:34:21;2;105;104;105;105;104;104;105;104;105;104;
2023-04-21 09:34:21;3;160;160;161;160;161;161;161;161;161;161;
2023-04-21 09:34:21;ht;99;15.40
2023-04-21 09:34:21;v;4.25
2023-04-21 10:04:22;1;108;108;108;108;108;108;108;108;108;108;
2023-04-21 10:04:22;2;108;108;108;108;108;108;107;107;108;108;
2023-04-21 10:04:22;3;106;106;106;106;106;105;106;105;105;105;
2023-04-21 10:04:22;ht;99;17.10
2023-04-21 10:04:22;v;4.26
2023-04-21 10:34:24;1;109;108;109;109;108;109;108;108;109;108;
2023-04-21 10:34:24;2;108;108;108;108;108;108;108;108;108;107;
2023-04-21 10:34:24;3;109;108;108;109;109;109;108;109;109;109;
2023-04-21 10:34:24;ht;99;17.60
2023-04-21 10:34:24;v;4.25
2023-04-21 11:04:22;1;108;107;108;108;107;108;107;107;108;107;
2023-04-21 11:04:22;2;107;107;108;107;108;108;108;108;108;108;
2023-04-21 11:04:22;3;109;109;109;109;109;109;109;109;109;109;
2023-04-21 11:04:22;ht;99;19.00
2023-04-21 11:04:22;v;4.25
2023-04-21 11:34:26;1;108;108;107;107;107;107;107;108;107;107;
2023-04-21 11:34:26;2;110;110;110;110;110;110;109;109;109;109;
2023-04-21 11:34:26;3;113;113;113;113;113;113;113;113;113;113;
2023-04-21 11:34:26;ht;99;20.00
2023-04-21 11:34:26;v;4.25
2023-04-21 12:04:25;1;108;107;107;108;107;107;108;108;107;108;
2023-04-21 12:04:25;2;108;108;107;107;108;108;107;108;108;108;
2023-04-21 12:04:25;3;112;112;112;112;112;112;112;112;112;112;
2023-04-21 12:04:25;ht;99;20.70
2023-04-21 12:04:25;v;4.26
2023-04-21 12:34:25;1;105;106;106;105;105;105;105;105;105;105;
2023-04-21 12:34:25;2;107;108;108;108;108;108;108;107;108;108;
2023-04-21 12:34:25;3;108;107;107;107;107;107;107;108;107;108;
2023-04-21 12:34:25;ht;99;20.30
2023-04-21 12:34:25;v;4.25
2023-04-21 13:04:25;1;106;106;105;105;105;105;106;106;105;105;
2023-04-21 13:04:25;2;106;106;106;106;106;106;106;106;106;106;
2023-04-21 13:04:25;3;111;111;111;111;111;111;111;111;111;111;
2023-04-21 13:04:25;ht;99;21.90
2023-04-21 13:04:25;v;4.26
2023-04-21 13:34:26;1;103;103;103;103;103;103;103;103;103;103;
2023-04-21 13:34:26;2;107;107;106;106;107;107;107;107;107;107;
2023-04-21 13:34:26;3;123;123;123;123;123;123;123;123;123;123;
2023-04-21 13:34:26;ht;99;22.00
2023-04-21 13:34:26;v;4.25
2023-04-21 14:04:28;1;106;107;106;106;106;106;106;107;106;106;
2023-04-21 14:04:28;2;108;108;108;108;108;108;108;108;108;108;
2023-04-21 14:04:28;3;171;171;171;171;171;171;171;171;171;171;
2023-04-21 14:04:28;ht;99;23.00
2023-04-21 14:04:28;v;4.26
2023-04-21 14:34:26;1;107;107;108;107;107;107;107;107;107;107;
2023-04-21 14:34:26;2;104;104;105;104;105;104;105;105;104;105;
2023-04-21 14:34:26;3;121;121;121;121;121;121;121;121;121;121;
2023-04-21 14:34:26;ht;99;23.00
2023-04-21 14:34:26;v;4.25
2023-04-21 15:04:29;1;3;3;2;3;3;2;2;2;3;2;
2023-04-21 15:04:29;2;105;105;105;105;104;105;104;105;105;105;
2023-04-21 15:04:29;3;117;117;117;117;117;117;117;117;117;117;
2023-04-21 15:04:29;ht;99;23.40
2023-04-21 15:04:29;v;4.26
2023-04-21 15:34:27;1;106;106;106;106;106;106;106;106;106;106;
2023-04-21 15:34:27;2;106;106;106;106;106;106;106;106;106;106;
2023-04-21 15:34:27;3;110;110;110;110;110;110;110;110;110;110;
2023-04-21 15:34:27;ht;99;23.70
2023-04-21 15:34:27;v;4.26
2023-04-21 16:04:30;1;107;107;107;107;107;107;107;107;107;107;
2023-04-21 16:04:30;2;105;106;105;106;106;105;106;105;105;105;
2023-04-21 16:04:30;3;115;115;115;115;115;115;115;115;115;115;
2023-04-21 16:04:30;ht;98;23.50
2023-04-21 16:04:30;v;4.26
2023-04-21 16:34:29;1;107;107;108;108;108;108;107;108;107;107;
2023-04-21 16:34:29;2;104;105;105;104;105;104;104;105;105;104;
2023-04-21 16:34:29;3;144;144;144;144;143;144;144;144;144;144;
2023-04-21 16:34:29;ht;94;23.30
2023-04-21 16:34:29;v;4.26
2023-04-21 17:04:27;1;107;107;107;107;107;107;107;107;107;107;
2023-04-21 17:04:27;2;106;106;106;106;106;106;106;106;106;106;
2023-04-21 17:04:27;3;118;118;118;118;118;118;118;118;118;118;
2023-04-21 17:04:27;ht;98;22.00
2023-04-21 17:04:27;v;4.26
2023-04-21 17:34:29;1;111;111;111;110;111;111;111;111;111;111;
2023-04-21 17:34:29;2;104;104;104;104;104;104;104;104;104;103;
2023-04-21 17:34:29;3;117;117;117;117;117;117;117;117;117;117;
2023-04-21 17:34:29;ht;98;21.10
2023-04-21 17:34:29;v;4.26
2023-04-21 18:04:25;1;99;99;99;99;99;99;99;99;99;99;
2023-04-21 18:04:25;2;108;108;108;108;108;108;108;108;107;108;
2023-04-21 18:04:25;3;119;119;118;119;119;119;119;119;119;119;
2023-04-21 18:04:25;ht;99;18.80
2023-04-21 18:04:25;v;4.26
2023-04-21 18:34:23;1;110;110;110;110;109;110;109;109;109;109;
2023-04-21 18:34:23;2;104;104;105;104;104;104;105;105;105;105;
2023-04-21 18:34:23;3;109;109;109;109;109;109;109;109;109;109;
2023-04-21 18:34:23;ht;99;17.30
2023-04-21 18:34:23;v;4.26
2023-04-21 19:04:20;1;114;114;114;114;114;114;114;114;114;114;
2023-04-21 19:04:20;2;108;108;108;108;108;108;108;108;108;108;
2023-04-21 19:04:20;3;108;108;108;108;108;108;108;108;108;108;
2023-04-21 19:04:20;ht;99;16.00
2023-04-21 19:04:20;v;4.26
2023-04-21 19:34:21;1;106;106;106;106;106;106;106;107;106;107;
2023-04-21 19:34:21;2;106;105;106;106;105;105;105;106;105;105;
2023-04-21 19:34:21;3;105;106;105;105;105;105;106;105;105;105;
2023-04-21 19:34:21;ht;99;15.70
2023-04-21 19:34:21;v;4.26
2023-04-21 20:04:21;1;101;101;101;101;101;101;101;101;101;101;
2023-04-21 20:04:21;2;106;107;107;106;106;106;107;106;107;107;
2023-04-21 20:04:21;3;106;106;106;106;106;106;106;106;106;106;
2023-04-21 20:04:21;ht;99;14.90
2023-04-21 20:04:21;v;4.26
2023-04-21 20:34:21;1;105;106;105;106;105;106;105;105;105;105;
2023-04-21 20:34:21;2;107;108;108;108;108;107;108;107;108;108;
2023-04-21 20:34:21;3;106;106;106;106;106;106;106;106;106;106;
2023-04-21 20:34:21;ht;99;14.70
2023-04-21 20:34:21;v;4.26
2023-04-21 21:04:21;1;106;106;106;106;107;106;106;106;106;106;
2023-04-21 21:04:21;2;107;108;107;107;108;107;108;108;107;107;
2023-04-21 21:04:21;3;101;101;101;101;101;101;102;101;101;101;
2023-04-21 21:04:21;ht;99;14.40
2023-04-21 21:04:21;v;4.26
2023-04-21 21:34:20;1;102;102;102;102;102;102;102;102;102;102;
2023-04-21 21:34:20;2;109;108;108;109;108;108;108;108;108;108;
2023-04-21 21:34:20;3;106;106;106;106;106;106;107;106;106;106;
2023-04-21 21:34:20;ht;99;13.50
2023-04-21 21:34:20;v;4.26
2023-04-21 22:04:19;1;100;100;100;100;100;100;100;100;100;100;
2023-04-21 22:04:19;2;108;108;108;108;108;108;108;108;108;108;
2023-04-21 22:04:19;3;125;125;125;126;125;125;126;125;126;126;
2023-04-21 22:04:19;ht;99;13.50
2023-04-21 22:04:19;v;4.26
2023-04-21 22:34:18;1;93;93;93;93;93;93;93;93;93;93;
2023-04-21 22:34:18;2;108;108;108;108;108;108;108;108;108;108;
2023-04-21 22:34:18;3;116;115;115;115;116;116;116;115;115;115;
2023-04-21 22:34:18;ht;99;13.30
2023-04-21 22:34:18;v;4.26
2023-04-21 23:04:22;1;110;110;110;110;110;110;110;110;110;110;
2023-04-21 23:04:22;2;108;108;108;108;108;108;108;108;108;108;
2023-04-21 23:04:22;3;112;112;112;112;112;112;112;112;112;112;
2023-04-21 23:04:22;ht;99;12.40
2023-04-21 23:04:22;v;4.26
2023-04-21 23:34:20;1;107;107;107;107;107;107;107;108;107;107;
2023-04-21 23:34:20;2;109;108;109;109;108;109;109;109;109;109;
2023-04-21 23:34:20;3;111;111;111;111;111;111;111;111;111;111;
2023-04-21 23:34:20;ht;99;12.50
2023-04-21 23:34:20;v;4.26
