2023-05-16 00:04:21;1;107;107;107;107;108;108;108;108;108;108;
2023-05-16 00:04:21;2;106;106;106;105;105;105;105;105;105;105;
2023-05-16 00:04:21;3;115;115;115;115;115;115;115;115;114;114;
2023-05-16 00:04:21;ht;99;14.30
2023-05-16 00:04:21;v;4.26
2023-05-16 00:34:20;1;109;109;109;109;109;109;109;109;109;109;
2023-05-16 00:34:20;2;100;100;100;100;100;100;100;100;100;100;
2023-05-16 00:34:20;3;104;104;104;104;104;104;104;104;104;104;
2023-05-16 00:34:20;ht;99;13.00
2023-05-16 00:34:20;v;4.26
2023-05-16 01:04:18;1;108;108;108;108;108;108;108;108;108;108;
2023-05-16 01:04:18;2;108;109;108;108;108;109;109;109;109;109;
2023-05-16 01:04:18;3;117;117;117;117;117;117;117;117;117;117;
2023-05-16 01:04:18;ht;99;14.10
2023-05-16 01:04:18;v;4.26
2023-05-16 01:34:21;1;106;105;105;105;106;105;105;105;105;106;
2023-05-16 01:34:21;2;106;106;106;106;106;106;106;106;106;106;
2023-05-16 01:34:21;3;80;80;80;80;80;80;80;80;80;80;
2023-05-16 01:34:21;ht;99;14.90
2023-05-16 01:34:21;v;4.26
2023-05-16 02:04:20;1;103;103;103;103;103;103;103;103;103;103;
2023-05-16 02:04:20;2;105;106;105;106;105;106;106;105;105;105;
2023-05-16 02:04:20;3;81;81;81;81;81;81;81;81;81;81;
2023-05-16 02:04:20;ht;99;14.40
2023-05-16 02:04:20;v;4.26
2023-05-16 02:34:19;1;92;92;92;92;92;92;92;92;92;92;
2023-05-16 02:34:19;2;107;107;107;106;106;106;106;106;106;106;
2023-05-16 02:34:19;3;121;121;120;121;121;121;121;120;121;120;
2023-05-16 02:34:19;ht;99;13.70
2023-05-16 02:34:19;v;4.26
2023-05-16 03:04:22;1;108;107;107;107;107;107;107;107;107;107;
2023-05-16 03:04:22;2;107;107;107;107;107;107;107;108;107;107;
2023-05-16 03:04:22;3;102;102;102;102;102;102;102;102;102;102;
2023-05-16 03:04:22;ht;99;13.30
2023-05-16 03:04:22;v;4.26
2023-05-16 03:34:20;1;105;105;105;105;105;106;105;105;105;105;
2023-05-16 03:34:20;2;108;107;107;107;107;107;107;107;107;107;
2023-05-16 03:34:20;3;80;80;80;80;80;80;80;80;80;80;
2023-05-16 03:34:20;ht;99;12.20
2023-05-16 03:34:20;v;4.26
2023-05-16 04:04:18;1;93;93;93;93;93;93;93;93;93;93;
2023-05-16 04:04:18;2;108;109;108;108;108;108;108;108;109;109;
2023-05-16 04:04:18;3;81;81;81;81;81;81;81;81;81;81;
2023-05-16 04:04:18;ht;99;11.40
2023-05-16 04:04:18;v;4.26
2023-05-16 04:34:20;1;107;107;107;107;107;107;107;107;107;107;
2023-05-16 04:34:20;2;98;98;98;98;98;98;98;98;98;98;
2023-05-16 04:34:20;3;87;87;87;87;87;87;87;87;87;87;
2023-05-16 04:34:20;ht;99;11.80
2023-05-16 04:34:20;v;4.25
2023-05-16 05:04:17;1;106;106;106;106;106;106;106;106;106;106;
2023-05-16 05:04:17;2;107;107;107;107;107;107;107;107;107;107;
2023-05-16 05:04:17;3;86;86;86;86;86;86;86;86;86;86;
2023-05-16 05:04:17;ht;99;11.20
2023-05-16 05:04:17;v;4.26
2023-05-16 05:34:19;1;106;106;106;106;106;106;106;106;106;106;
2023-05-16 05:34:19;2;108;108;108;108;109;109;108;109;108;108;
2023-05-16 05:34:19;3;81;81;81;81;81;81;81;81;81;81;
2023-05-16 05:34:19;ht;99;10.70
2023-05-16 05:34:19;v;4.25
2023-05-16 06:04:20;1;114;114;115;114;114;114;114;114;114;114;
2023-05-16 06:04:20;2;100;100;100;100;100;100;100;100;100;100;
2023-05-16 06:04:20;3;117;117;117;117;117;117;117;117;117;117;
2023-05-16 06:04:20;ht;99;9.80
2023-05-16 06:04:20;v;4.25
2023-05-16 06:34:16;1;87;87;87;87;87;87;87;87;87;87;
2023-05-16 06:34:16;2;103;103;103;103;103;103;103;104;103;103;
2023-05-16 06:34:16;3;79;79;79;79;79;79;79;79;79;79;
2023-05-16 06:34:16;ht;99;10.60
2023-05-16 06:34:16;v;4.25
2023-05-16 07:04:17;1;89;89;89;89;89;89;89;89;89;89;
2023-05-16 07:04:17;2;109;109;109;109;109;109;109;109;109;109;
2023-05-16 07:04:17;3;84;84;84;84;84;84;84;84;84;84;
2023-05-16 07:04:17;ht;99;11.00
2023-05-16 07:04:17;v;4.25
2023-05-16 07:34:19;1;108;108;108;108;108;108;108;108;108;108;
2023-05-16 07:34:19;2;81;81;81;81;81;81;81;81;81;81;
2023-05-16 07:34:19;3;79;79;80;79;79;80;79;79;80;80;
2023-05-16 07:34:19;ht;99;10.10
2023-05-16 07:34:19;v;4.25
2023-05-16 08:04:20;1;101;101;100;101;101;101;100;101;101;100;
2023-05-16 08:04:20;2;83;82;83;83;83;82;83;82;83;82;
2023-05-16 08:04:20;3;85;85;85;85;85;85;85;85;85;85;
2023-05-16 08:04:20;ht;99;10.70
2023-05-16 08:04:20;v;4.25
2023-05-16 08:34:17;1;80;80;80;80;80;80;80;80;80;80;
2023-05-16 08:34:17;2;85;85;85;85;85;85;85;85;85;85;
2023-05-16 08:34:17;3;83;83;83;83;83;83;83;83;83;83;
2023-05-16 08:34:17;ht;99;12.40
2023-05-16 08:34:17;v;4.25
2023-05-16 09:04:20;1;89;89;89;89;89;89;89;89;89;89;
2023-05-16 09:04:20;2;83;83;83;83;83;83;83;83;83;83;
2023-05-16 09:04:20;3;84;84;84;84;84;84;84;84;84;84;
2023-05-16 09:04:20;ht;99;14.60
2023-05-16 09:04:20;v;4.25
2023-05-16 09:34:20;1;84;84;84;84;84;84;84;84;84;84;
2023-05-16 09:34:20;2;83;83;83;83;83;83;83;83;83;83;
2023-05-16 09:34:20;3;121;121;121;121;121;121;120;121;120;121;
2023-05-16 09:34:20;ht;99;16.80
2023-05-16 09:34:20;v;4.26
2023-05-16 10:04:21;1;86;86;86;86;86;86;86;86;86;86;
2023-05-16 10:04:21;2;91;91;91;91;91;91;91;91;91;91;
2023-05-16 10:04:21;3;92;92;92;92;92;92;92;92;92;92;
2023-05-16 10:04:21;ht;99;19.00
2023-05-16 10:04:21;v;4.25
2023-05-16 10:34:24;1;92;92;92;92;92;92;92;92;92;92;
2023-05-16 10:34:24;2;85;85;85;85;85;85;85;85;85;85;
2023-05-16 10:34:24;3;88;88;88;88;88;88;88;88;88;88;
2023-05-16 10:34:24;ht;99;20.80
2023-05-16 10:34:24;v;4.25
2023-05-16 11:04:24;1;85;85;85;85;85;85;85;85;85;85;
2023-05-16 11:04:24;2;79;79;79;79;79;79;79;79;79;79;
2023-05-16 11:04:24;3;84;84;84;84;84;84;84;84;84;84;
2023-05-16 11:04:24;ht;99;21.60
2023-05-16 11:04:24;v;4.25
2023-05-16 11:34:24;1;91;91;91;91;91;91;91;91;91;91;
2023-05-16 11:34:24;2;91;92;91;91;92;91;91;91;91;91;
2023-05-16 11:34:24;3;77;77;77;77;77;77;77;77;77;77;
2023-05-16 11:34:24;ht;99;22.80
2023-05-16 11:34:24;v;4.25
2023-05-16 12:04:26;1;86;86;86;86;86;86;86;86;86;86;
2023-05-16 12:04:26;2;95;95;95;95;95;95;95;95;95;95;
2023-05-16 12:04:26;3;79;79;79;79;79;79;79;79;79;79;
2023-05-16 12:04:26;ht;99;24.40
2023-05-16 12:04:26;v;4.25
2023-05-16 12:34:28;1;90;90;90;90;90;90;90;90;90;90;
2023-05-16 12:34:28;2;81;81;81;81;81;81;81;81;81;81;
2023-05-16 12:34:28;3;84;84;84;84;84;84;84;84;84;84;
2023-05-16 12:34:28;ht;99;24.90
2023-05-16 12:34:28;v;4.25
2023-05-16 13:04:26;1;89;89;89;90;89;89;89;89;89;89;
2023-05-16 13:04:26;2;85;85;85;85;85;85;85;85;85;85;
2023-05-16 13:04:26;3;88;88;88;88;88;88;88;88;88;88;
2023-05-16 13:04:26;ht;99;25.70
2023-05-16 13:04:26;v;4.26
2023-05-16 13:34:30;1;89;89;89;89;89;89;89;89;89;89;
2023-05-16 13:34:30;2;106;106;106;106;107;106;106;106;107;106;
2023-05-16 13:34:30;3;88;88;88;88;88;88;88;88;88;88;
2023-05-16 13:34:30;ht;99;26.20
2023-05-16 13:34:30;v;4.25
2023-05-16 14:04:29;1;93;93;93;93;93;93;93;93;93;93;
2023-05-16 14:04:29;2;105;105;105;105;105;105;104;105;105;105;
2023-05-16 14:04:29;3;85;85;85;85;85;85;85;85;85;85;
2023-05-16 14:04:29;ht;99;26.90
2023-05-16 14:04:29;v;4.26
2023-05-16 14:34:29;1;91;91;91;91;91;91;91;91;91;91;
2023-05-16 14:34:29;2;106;106;106;106;106;106;106;106;106;106;
2023-05-16 14:34:29;3;80;80;80;80;80;80;80;80;80;80;
2023-05-16 14:34:29;ht;99;26.80
2023-05-16 14:34:29;v;4.26
2023-05-16 15:04:29;1;92;92;92;92;92;92;92;92;92;92;
2023-05-16 15:04:29;2;87;87;87;87;87;87;87;87;87;87;
2023-05-16 15:04:29;3;82;82;82;82;82;82;82;82;82;82;
2023-05-16 15:04:29;ht;97;26.80
2023-05-16 15:04:29;v;4.26
2023-05-16 15:34:29;1;90;90;90;90;90;90;90;90;90;90;
2023-05-16 15:34:29;2;90;90;90;90;90;90;90;90;90;90;
2023-05-16 15:34:29;3;95;96;95;95;95;95;95;96;96;95;
2023-05-16 15:34:29;ht;94;27.00
2023-05-16 15:34:29;v;4.26
2023-05-16 16:04:29;1;93;92;93;93;93;93;93;93;93;93;
2023-05-16 16:04:29;2;106;107;107;107;107;107;107;106;107;106;
2023-05-16 16:04:29;3;84;84;84;84;84;84;84;84;84;84;
2023-05-16 16:04:29;ht;91;27.00
2023-05-16 16:04:29;v;4.26
2023-05-16 16:34:29;1;98;98;97;98;98;98;98;97;98;98;
2023-05-16 16:34:29;2;107;107;107;107;107;107;107;107;107;106;
2023-05-16 16:34:29;3;82;82;82;82;82;82;82;82;82;82;
2023-05-16 16:34:29;ht;90;26.60
2023-05-16 16:34:29;v;4.26
2023-05-16 17:04:29;1;86;86;86;86;86;86;86;86;86;86;
2023-05-16 17:04:29;2;89;89;89;89;89;89;89;89;89;89;
2023-05-16 17:04:29;3;82;82;82;82;82;82;82;82;82;82;
2023-05-16 17:04:29;ht;91;25.60
2023-05-16 17:04:29;v;4.26
2023-05-16 17:34:27;1;88;88;88;88;88;88;88;88;88;88;
2023-05-16 17:34:27;2;86;86;86;86;86;86;86;86;86;86;
2023-05-16 17:34:27;3;86;86;86;86;86;86;86;86;86;86;
2023-05-16 17:34:27;ht;95;23.80
2023-05-16 17:34:27;v;4.26
2023-05-16 18:04:28;1;90;90;90;90;90;90;90;90;90;90;
2023-05-16 18:04:28;2;81;81;81;81;81;81;81;81;81;81;
2023-05-16 18:04:28;3;81;81;81;81;81;81;81;81;81;81;
2023-05-16 18:04:28;ht;99;19.80
2023-05-16 18:04:28;v;4.26
2023-05-16 18:34:22;1;90;90;90;90;90;90;90;90;90;90;
2023-05-16 18:34:22;2;88;88;88;88;88;88;88;88;88;88;
2023-05-16 18:34:22;3;88;88;88;88;88;88;88;88;88;88;
2023-05-16 18:34:22;ht;99;17.10
2023-05-16 18:34:22;v;4.26
2023-05-16 19:04:23;1;85;85;85;85;85;85;85;85;85;85;
2023-05-16 19:04:23;2;86;86;86;86;86;86;86;86;86;86;
2023-05-16 19:04:23;3;93;93;93;93;93;93;93;93;93;93;
2023-05-16 19:04:23;ht;99;17.10
2023-05-16 19:04:23;v;4.26
2023-05-16 19:34:23;1;88;88;88;88;88;88;88;88;88;88;
2023-05-16 19:34:23;2;85;85;85;85;85;85;85;85;85;85;
2023-05-16 19:34:23;3;89;89;89;89;89;89;89;89;89;89;
2023-05-16 19:34:23;ht;99;17.30
2023-05-16 19:34:23;v;4.26
2023-05-16 20:04:19;1;90;90;90;90;90;90;90;90;90;90;
2023-05-16 20:04:19;2;87;87;87;87;87;87;87;87;87;87;
2023-05-16 20:04:19;3;81;81;81;81;81;81;81;81;81;81;
2023-05-16 20:04:19;ht;99;16.60
2023-05-16 20:04:19;v;4.26
2023-05-16 20:34:24;1;97;97;97;97;97;97;97;97;97;97;
2023-05-16 20:34:24;2;99;99;99;99;99;99;99;99;99;99;
2023-05-16 20:34:24;3;87;87;87;87;87;87;87;87;87;87;
2023-05-16 20:34:24;ht;99;17.00
2023-05-16 20:34:24;v;4.26
2023-05-16 21:04:20;1;108;108;107;107;107;107;107;107;108;108;
2023-05-16 21:04:20;2;107;107;108;107;107;107;107;108;107;107;
2023-05-16 21:04:20;3;93;93;93;93;93;93;93;93;93;93;
2023-05-16 21:04:20;ht;99;18.30
2023-05-16 21:04:20;v;4.26
2023-05-16 21:34:21;1;108;108;108;108;108;108;108;108;108;108;
2023-05-16 21:34:21;2;108;108;108;107;107;108;107;107;108;108;
2023-05-16 21:34:21;3;91;92;91;91;91;91;91;91;91;91;
2023-05-16 21:34:21;ht;99;18.90
2023-05-16 21:34:21;v;4.26
2023-05-16 22:04:23;1;100;100;100;100;100;101;101;100;100;100;
2023-05-16 22:04:23;2;107;107;107;107;107;107;107;107;107;107;
2023-05-16 22:04:23;3;81;81;81;81;81;81;81;81;81;81;
2023-05-16 22:04:23;ht;99;18.80
2023-05-16 22:04:23;v;4.26
2023-05-16 22:34:24;1;105;105;105;105;105;105;105;105;105;105;
2023-05-16 22:34:24;2;104;104;104;104;104;104;104;104;104;104;
2023-05-16 22:34:24;3;81;81;81;81;81;81;81;81;81;81;
2023-05-16 22:34:24;ht;99;18.10
2023-05-16 22:34:24;v;4.26
2023-05-16 23:04:21;1;104;102;102;102;102;102;102;102;102;102;
2023-05-16 23:04:21;2;100;100;100;100;100;100;100;101;100;100;
2023-05-16 23:04:21;3;79;79;79;79;79;79;79;79;79;79;
2023-05-16 23:04:21;ht;99;17.50
2023-05-16 23:04:21;v;4.26
2023-05-16 23:34:22;1;103;103;103;103;103;103;103;103;103;103;
2023-05-16 23:34:22;2;98;99;98;98;98;98;98;98;98;98;
2023-05-16 23:34:22;3;92;92;92;92;92;92;92;92;92;92;
2023-05-16 23:34:22;ht;99;14.90
2023-05-16 23:34:22;v;4.26
