2023-12-25 00:04:29;1;3;3;3;2;3;3;3;3;2;3;
2023-12-25 00:04:29;2;60;60;60;60;60;60;60;60;60;60;
2023-12-25 00:04:29;3;59;59;59;59;59;59;59;59;59;59;
2023-12-25 00:04:29;ht;92;24.20
2023-12-25 00:04:29;v;4.24
2023-12-25 00:34:26;1;3;3;3;3;3;3;3;3;2;2;
2023-12-25 00:34:26;2;83;83;83;83;83;83;83;83;83;83;
2023-12-25 00:34:26;3;80;80;80;80;80;80;80;80;80;80;
2023-12-25 00:34:26;ht;70;21.90
2023-12-25 00:34:26;v;4.23
2023-12-25 01:04:26;1;3;3;3;3;3;2;3;3;3;3;
2023-12-25 01:04:26;2;83;83;83;83;83;83;83;84;83;83;
2023-12-25 01:04:26;3;79;79;79;79;79;79;79;79;79;79;
2023-12-25 01:04:26;ht;41;21.50
2023-12-25 01:04:26;v;4.24
2023-12-25 01:34:26;1;76;77;77;77;77;77;77;77;77;77;
2023-12-25 01:34:26;2;80;80;80;80;80;80;80;80;80;80;
2023-12-25 01:34:26;3;75;75;75;75;75;76;76;75;75;75;
2023-12-25 01:34:26;ht;37;21.70
2023-12-25 01:34:26;v;4.23
2023-12-25 02:04:26;1;76;76;76;76;76;76;76;76;76;76;
2023-12-25 02:04:26;2;98;99;98;99;98;98;98;98;98;98;
2023-12-25 02:04:26;3;77;77;77;77;77;77;77;77;77;77;
2023-12-25 02:04:26;ht;43;21.90
2023-12-25 02:04:26;v;4.24
2023-12-25 02:34:27;1;74;74;74;74;74;74;74;74;74;73;
2023-12-25 02:34:27;2;77;77;77;77;77;77;77;77;77;77;
2023-12-25 02:34:27;3;83;83;83;83;83;83;83;83;83;83;
2023-12-25 02:34:27;ht;44;22.40
2023-12-25 02:34:27;v;4.23
2023-12-25 03:04:27;1;115;115;115;115;115;115;115;115;115;115;
2023-12-25 03:04:27;2;85;85;85;85;85;85;85;85;85;85;
2023-12-25 03:04:27;3;75;75;75;75;75;75;75;75;75;75;
2023-12-25 03:04:27;ht;44;22.10
2023-12-25 03:04:27;v;4.23
2023-12-25 03:34:27;1;161;161;161;161;161;161;161;161;161;161;
2023-12-25 03:34:27;2;79;79;79;79;79;79;79;79;79;79;
2023-12-25 03:34:27;3;75;75;75;75;75;75;75;75;75;75;
2023-12-25 03:34:27;ht;45;21.90
2023-12-25 03:34:27;v;4.23
2023-12-25 04:04:27;1;96;97;96;97;97;97;96;96;96;96;
2023-12-25 04:04:27;2;80;80;80;80;80;80;80;80;80;80;
2023-12-25 04:04:27;3;76;76;76;76;76;76;76;76;76;76;
2023-12-25 04:04:27;ht;44;22.00
2023-12-25 04:04:27;v;4.23
2023-12-25 04:34:27;1;3;3;3;3;3;3;3;3;2;3;
2023-12-25 04:34:27;2;80;80;80;80;80;80;80;80;80;80;
2023-12-25 04:34:27;3;79;79;79;79;79;79;79;79;79;79;
2023-12-25 04:34:27;ht;43;21.60
2023-12-25 04:34:27;v;4.24
2023-12-25 05:04:27;1;72;72;72;72;72;72;72;72;72;72;
2023-12-25 05:04:27;2;76;76;76;76;76;76;76;76;76;76;
2023-12-25 05:04:27;3;3;3;3;3;3;3;3;3;3;3;
2023-12-25 05:04:27;ht;41;21.40
2023-12-25 05:04:27;v;4.23
2023-12-25 05:34:26;1;145;145;145;145;145;145;145;145;145;145;
2023-12-25 05:34:26;2;86;86;86;86;86;86;86;86;86;86;
2023-12-25 05:34:26;3;86;86;86;86;86;86;86;86;86;86;
2023-12-25 05:34:26;ht;39;21.00
2023-12-25 05:34:26;v;4.23
2023-12-25 06:04:26;1;97;98;98;97;97;97;97;97;98;97;
2023-12-25 06:04:26;2;3;3;2;2;2;3;3;2;2;2;
2023-12-25 06:04:26;3;77;77;77;77;77;77;77;77;77;77;
2023-12-25 06:04:26;ht;34;20.70
2023-12-25 06:04:26;v;4.23
2023-12-25 06:34:25;1;77;77;77;77;77;77;77;77;77;77;
2023-12-25 06:34:25;2;87;87;87;87;87;87;87;87;87;87;
2023-12-25 06:34:25;3;74;74;74;74;74;74;74;74;74;74;
2023-12-25 06:34:25;ht;48;21.30
2023-12-25 06:34:25;v;4.23
2023-12-25 07:04:27;1;72;72;72;72;72;72;72;72;72;72;
2023-12-25 07:04:27;2;82;82;81;81;81;82;82;81;82;82;
2023-12-25 07:04:27;3;77;77;77;78;77;77;77;77;77;77;
2023-12-25 07:04:27;ht;79;22.40
2023-12-25 07:04:27;v;4.23
2023-12-25 07:34:30;1;72;72;72;73;72;72;72;72;72;72;
2023-12-25 07:34:30;2;79;79;79;79;79;79;79;79;79;79;
2023-12-25 07:34:30;3;78;78;78;78;78;78;78;78;78;78;
2023-12-25 07:34:30;ht;88;23.40
2023-12-25 07:34:30;v;4.23
2023-12-25 08:04:29;1;70;70;70;70;70;71;70;70;71;71;
2023-12-25 08:04:29;2;82;82;82;82;82;82;82;82;82;82;
2023-12-25 08:04:29;3;68;68;68;68;68;68;68;68;68;69;
2023-12-25 08:04:29;ht;97;24.00
2023-12-25 08:04:29;v;4.24
2023-12-25 08:34:30;1;3;2;3;3;3;3;3;3;3;3;
2023-12-25 08:34:30;2;79;79;79;79;79;79;79;79;79;79;
2023-12-25 08:34:30;3;65;65;65;65;65;65;65;65;66;65;
2023-12-25 08:34:30;ht;97;25.10
2023-12-25 08:34:30;v;4.23
2023-12-25 09:04:33;1;3;3;3;3;3;3;3;2;3;3;
2023-12-25 09:04:33;2;86;86;86;86;86;86;86;86;86;86;
2023-12-25 09:04:33;3;69;70;69;69;69;69;69;69;69;69;
2023-12-25 09:04:33;ht;96;26.50
2023-12-25 09:04:33;v;4.24
2023-12-25 09:34:33;1;85;86;85;85;85;85;86;86;85;86;
2023-12-25 09:34:33;2;87;87;87;87;87;87;87;87;87;87;
2023-12-25 09:34:33;3;70;70;70;70;70;70;70;70;71;70;
2023-12-25 09:34:33;ht;93;27.30
2023-12-25 09:34:33;v;4.23
2023-12-25 10:04:34;1;76;76;76;76;76;76;76;76;76;76;
2023-12-25 10:04:34;2;79;79;79;79;79;79;79;79;79;79;
2023-12-25 10:04:34;3;75;75;75;75;75;75;75;75;75;75;
2023-12-25 10:04:34;ht;92;27.00
2023-12-25 10:04:34;v;4.24
2023-12-25 10:34:35;1;67;67;67;67;67;67;67;67;67;67;
2023-12-25 10:34:35;2;78;78;78;78;78;78;78;78;78;78;
2023-12-25 10:34:35;3;71;71;71;71;71;71;71;71;71;71;
2023-12-25 10:34:35;ht;88;27.60
2023-12-25 10:34:35;v;4.23
2023-12-25 11:04:36;1;67;67;67;67;67;67;67;67;67;67;
2023-12-25 11:04:36;2;81;81;81;81;81;81;81;81;81;81;
2023-12-25 11:04:36;3;70;70;70;70;70;70;70;70;70;70;
2023-12-25 11:04:36;ht;82;28.10
2023-12-25 11:04:36;v;4.23
2023-12-25 11:34:33;1;68;68;68;68;68;68;68;68;68;68;
2023-12-25 11:34:33;2;82;82;82;82;82;82;82;82;82;82;
2023-12-25 11:34:33;3;75;75;75;75;75;75;75;75;75;75;
2023-12-25 11:34:33;ht;83;28.50
2023-12-25 11:34:33;v;4.24
2023-12-25 12:04:35;1;71;71;71;71;71;72;71;72;72;71;
2023-12-25 12:04:35;2;77;77;77;77;77;77;77;77;77;77;
2023-12-25 12:04:35;3;70;70;70;70;70;70;70;70;70;70;
2023-12-25 12:04:35;ht;81;28.70
2023-12-25 12:04:35;v;4.23
2023-12-25 12:34:33;1;3;3;3;3;3;3;3;3;3;3;
2023-12-25 12:34:33;2;73;73;73;73;73;73;73;73;73;73;
2023-12-25 12:34:33;3;65;65;65;65;65;65;65;65;65;65;
2023-12-25 12:34:33;ht;80;29.00
2023-12-25 12:34:33;v;4.24
2023-12-25 13:04:34;1;3;3;3;3;3;3;3;3;3;3;
2023-12-25 13:04:34;2;76;76;76;76;76;76;76;76;76;76;
2023-12-25 13:04:34;3;68;68;68;68;68;68;68;68;68;68;
2023-12-25 13:04:34;ht;75;29.70
2023-12-25 13:04:34;v;4.24
2023-12-25 13:34:36;1;80;80;80;80;80;80;80;80;80;80;
2023-12-25 13:34:36;2;74;74;74;74;74;74;74;74;74;74;
2023-12-25 13:34:36;3;73;72;72;73;73;72;72;72;72;72;
2023-12-25 13:34:36;ht;79;30.00
2023-12-25 13:34:36;v;4.24
2023-12-25 14:04:34;1;120;120;120;120;120;120;120;120;120;120;
2023-12-25 14:04:34;2;82;82;82;82;82;82;82;82;82;82;
2023-12-25 14:04:34;3;67;67;67;67;67;67;67;67;67;67;
2023-12-25 14:04:34;ht;72;30.00
2023-12-25 14:04:34;v;4.24
2023-12-25 14:34:35;1;67;67;67;67;67;67;67;67;67;67;
2023-12-25 14:34:35;2;83;84;83;83;83;83;83;83;83;83;
2023-12-25 14:34:35;3;66;66;66;66;66;66;67;66;66;67;
2023-12-25 14:34:35;ht;75;29.50
2023-12-25 14:34:35;v;4.24
2023-12-25 15:04:32;1;68;68;68;68;68;68;68;68;68;68;
2023-12-25 15:04:32;2;76;76;76;76;76;76;76;76;76;76;
2023-12-25 15:04:32;3;69;69;69;69;69;69;69;69;69;69;
2023-12-25 15:04:32;ht;80;29.70
2023-12-25 15:04:32;v;4.24
2023-12-25 15:34:35;1;74;74;74;74;74;74;74;74;74;74;
2023-12-25 15:34:35;2;85;85;85;85;85;85;85;85;85;85;
2023-12-25 15:34:35;3;74;74;75;74;74;74;74;74;75;74;
2023-12-25 15:34:35;ht;78;29.00
2023-12-25 15:34:35;v;4.24
2023-12-25 16:04:35;1;72;72;72;72;72;72;72;72;72;72;
2023-12-25 16:04:35;2;79;79;79;79;79;79;79;79;79;79;
2023-12-25 16:04:35;3;75;75;75;75;75;75;75;75;75;75;
2023-12-25 16:04:35;ht;71;29.40
2023-12-25 16:04:35;v;4.24
2023-12-25 16:34:36;1;3;3;3;3;3;3;3;3;3;3;
2023-12-25 16:34:36;2;79;79;79;79;79;79;79;79;79;78;
2023-12-25 16:34:36;3;71;71;71;71;71;71;71;71;71;71;
2023-12-25 16:34:36;ht;72;29.40
2023-12-25 16:34:36;v;4.24
2023-12-25 17:04:33;1;81;81;81;81;81;81;81;81;81;81;
2023-12-25 17:04:33;2;74;74;74;74;74;74;74;74;74;74;
2023-12-25 17:04:33;3;73;72;72;73;72;72;72;73;72;72;
2023-12-25 17:04:33;ht;73;29.40
2023-12-25 17:04:33;v;4.24
2023-12-25 17:34:35;1;3;3;3;3;2;3;3;3;3;3;
2023-12-25 17:34:35;2;74;74;74;74;74;74;74;74;74;74;
2023-12-25 17:34:35;3;71;70;70;71;71;70;70;71;70;70;
2023-12-25 17:34:35;ht;74;29.10
2023-12-25 17:34:35;v;4.24
2023-12-25 18:04:36;1;91;91;91;91;90;91;91;90;90;91;
2023-12-25 18:04:36;2;79;79;79;79;79;79;79;79;79;79;
2023-12-25 18:04:36;3;73;73;73;73;73;73;73;73;73;73;
2023-12-25 18:04:36;ht;72;28.60
2023-12-25 18:04:36;v;4.24
2023-12-25 18:34:31;1;81;81;81;81;81;81;81;82;82;81;
2023-12-25 18:34:31;2;79;79;79;79;79;79;79;79;79;79;
2023-12-25 18:34:31;3;69;69;69;70;69;69;69;69;70;70;
2023-12-25 18:34:31;ht;74;28.30
2023-12-25 18:34:31;v;4.25
2023-12-25 19:04:30;1;3;3;3;3;3;3;3;3;3;3;
2023-12-25 19:04:30;2;70;70;70;70;70;70;70;70;70;70;
2023-12-25 19:04:30;3;71;71;71;71;71;71;71;71;71;71;
2023-12-25 19:04:30;ht;79;27.30
2023-12-25 19:04:30;v;4.24
2023-12-25 19:34:33;1;3;3;3;3;2;3;3;3;3;3;
2023-12-25 19:34:33;2;83;83;83;83;83;83;83;83;83;83;
2023-12-25 19:34:33;3;68;68;68;68;68;68;68;68;68;68;
2023-12-25 19:34:33;ht;84;25.60
2023-12-25 19:34:33;v;4.25
2023-12-25 20:04:28;1;65;65;65;65;65;65;65;65;65;65;
2023-12-25 20:04:28;2;78;78;78;79;78;78;78;78;78;78;
2023-12-25 20:04:28;3;82;82;82;82;82;82;82;82;82;82;
2023-12-25 20:04:28;ht;95;22.80
2023-12-25 20:04:28;v;4.24
2023-12-25 20:34:24;1;124;124;124;124;124;124;124;124;124;124;
2023-12-25 20:34:24;2;82;82;82;82;82;82;82;82;82;82;
2023-12-25 20:34:24;3;68;68;68;68;68;68;68;68;68;68;
2023-12-25 20:34:24;ht;90;21.40
2023-12-25 20:34:24;v;4.24
2023-12-25 21:04:23;1;88;87;87;88;87;87;88;88;88;87;
2023-12-25 21:04:23;2;75;75;75;75;75;75;75;75;75;75;
2023-12-25 21:04:23;3;70;70;70;70;70;70;70;70;70;70;
2023-12-25 21:04:23;ht;91;20.80
2023-12-25 21:04:23;v;4.22
2023-12-25 21:34:26;1;3;3;3;3;2;3;3;3;3;3;
2023-12-25 21:34:26;2;83;83;83;83;83;83;83;83;83;83;
2023-12-25 21:34:26;3;72;72;72;72;72;72;72;72;72;72;
2023-12-25 21:34:26;ht;92;20.40
2023-12-25 21:34:26;v;4.21
2023-12-25 22:04:25;1;128;128;128;128;128;128;128;128;128;128;
2023-12-25 22:04:25;2;72;72;72;72;72;72;72;72;72;72;
2023-12-25 22:04:25;3;117;117;117;117;117;117;117;117;117;117;
2023-12-25 22:04:25;ht;96;20.30
2023-12-25 22:04:25;v;4.23
2023-12-25 22:34:22;1;105;105;105;105;105;105;105;105;105;105;
2023-12-25 22:34:22;2;77;77;77;77;77;77;77;77;77;77;
2023-12-25 22:34:22;3;75;74;74;74;74;75;74;74;74;75;
2023-12-25 22:34:22;ht;90;19.70
2023-12-25 22:34:22;v;4.22
2023-12-25 23:04:25;1;70;70;70;70;70;70;70;70;70;70;
2023-12-25 23:04:25;2;78;78;78;78;77;78;78;78;78;78;
2023-12-25 23:04:25;3;71;71;71;71;71;71;71;71;71;71;
2023-12-25 23:04:25;ht;85;19.10
2023-12-25 23:04:25;v;4.23
2023-12-25 23:34:22;1;68;68;68;68;68;68;68;68;68;68;
2023-12-25 23:34:22;2;77;77;77;77;77;77;77;77;77;77;
2023-12-25 23:34:22;3;69;69;69;69;69;69;69;69;69;69;
2023-12-25 23:34:22;ht;82;18.70
2023-12-25 23:34:22;v;4.23
