2023-11-04 00:04:19;1;117;117;117;117;117;117;117;117;117;117;
2023-11-04 00:04:19;2;108;108;108;108;108;109;109;109;108;109;
2023-11-04 00:04:19;3;97;97;97;97;97;97;97;97;98;98;
2023-11-04 00:04:19;ht;97;9.80
2023-11-04 00:04:19;v;4.21
2023-11-04 00:34:20;1;117;117;117;117;117;117;117;117;117;117;
2023-11-04 00:34:20;2;108;108;108;108;108;108;108;108;108;108;
2023-11-04 00:34:20;3;97;97;97;97;97;97;97;97;97;97;
2023-11-04 00:34:20;ht;97;10.50
2023-11-04 00:34:20;v;4.20
2023-11-04 01:04:17;1;99;99;100;99;99;99;99;99;99;99;
2023-11-04 01:04:17;2;108;108;108;108;108;108;108;108;108;108;
2023-11-04 01:04:17;3;97;97;97;97;97;97;97;97;97;97;
2023-11-04 01:04:17;ht;97;9.70
2023-11-04 01:04:17;v;4.21
2023-11-04 01:34:18;1;117;117;117;117;117;117;117;117;117;117;
2023-11-04 01:34:18;2;105;105;105;105;105;105;105;105;105;105;
2023-11-04 01:34:18;3;92;92;92;92;92;92;92;92;92;92;
2023-11-04 01:34:18;ht;97;9.90
2023-11-04 01:34:18;v;4.21
2023-11-04 02:04:19;1;118;118;118;118;118;118;118;118;118;118;
2023-11-04 02:04:19;2;106;106;106;106;106;106;106;106;106;106;
2023-11-04 02:04:19;3;101;102;101;102;101;101;101;102;101;102;
2023-11-04 02:04:19;ht;97;9.10
2023-11-04 02:04:19;v;4.21
2023-11-04 02:34:20;1;114;114;114;114;114;114;114;114;114;114;
2023-11-04 02:34:20;2;102;101;102;102;102;102;102;102;102;102;
2023-11-04 02:34:20;3;98;98;99;99;98;98;98;98;98;99;
2023-11-04 02:34:20;ht;97;8.80
2023-11-04 02:34:20;v;4.20
2023-11-04 03:04:16;1;103;103;103;103;103;103;103;103;103;103;
2023-11-04 03:04:16;2;109;109;109;109;110;109;109;109;109;109;
2023-11-04 03:04:16;3;99;99;99;99;99;99;99;100;99;99;
2023-11-04 03:04:16;ht;97;9.20
2023-11-04 03:04:16;v;4.21
2023-11-04 03:34:17;1;110;110;110;110;110;110;110;110;110;110;
2023-11-04 03:34:17;2;106;106;106;106;106;106;106;106;106;106;
2023-11-04 03:34:17;3;90;90;91;90;90;90;91;90;90;90;
2023-11-04 03:34:17;ht;97;8.50
2023-11-04 03:34:17;v;4.19
2023-11-04 04:04:18;1;110;110;110;110;110;110;110;110;110;110;
2023-11-04 04:04:18;2;108;108;108;108;108;108;109;109;109;108;
2023-11-04 04:04:18;3;100;100;100;100;100;100;99;100;100;100;
2023-11-04 04:04:18;ht;97;8.00
2023-11-04 04:04:18;v;4.21
2023-11-04 04:34:18;1;110;110;110;110;110;110;110;110;110;110;
2023-11-04 04:34:18;2;104;104;104;104;104;104;104;104;104;104;
2023-11-04 04:34:18;3;96;96;96;96;96;96;96;96;96;96;
2023-11-04 04:34:18;ht;97;7.90
2023-11-04 04:34:18;v;4.20
2023-11-04 05:04:18;1;114;114;114;114;114;114;114;114;114;114;
2023-11-04 05:04:18;2;92;92;92;92;92;92;92;92;92;92;
2023-11-04 05:04:18;3;93;93;94;93;93;93;93;93;93;93;
2023-11-04 05:04:18;ht;97;7.90
2023-11-04 05:04:18;v;4.21
2023-11-04 05:34:19;1;95;95;95;95;95;95;95;95;95;95;
2023-11-04 05:34:19;2;106;106;106;106;106;106;106;106;106;106;
2023-11-04 05:34:19;3;93;94;93;94;93;93;94;94;94;94;
2023-11-04 05:34:19;ht;97;8.60
2023-11-04 05:34:19;v;4.20
2023-11-04 06:04:20;1;97;97;97;97;97;96;97;97;96;97;
2023-11-04 06:04:20;2;91;91;91;91;91;91;91;91;91;91;
2023-11-04 06:04:20;3;91;90;90;90;90;90;90;90;90;90;
2023-11-04 06:04:20;ht;97;8.30
2023-11-04 06:04:20;v;4.21
2023-11-04 06:34:16;1;118;118;118;118;118;118;118;118;118;118;
2023-11-04 06:34:16;2;105;104;105;104;105;105;105;105;104;104;
2023-11-04 06:34:16;3;98;98;98;98;98;98;98;98;98;98;
2023-11-04 06:34:16;ht;97;9.70
2023-11-04 06:34:16;v;4.21
2023-11-04 07:04:19;1;119;118;119;119;118;119;119;119;119;119;
2023-11-04 07:04:19;2;97;97;97;97;97;97;97;97;97;97;
2023-11-04 07:04:19;3;83;83;83;83;83;83;83;83;83;83;
2023-11-04 07:04:19;ht;97;12.00
2023-11-04 07:04:19;v;4.21
2023-11-04 07:34:25;1;119;119;119;119;119;119;119;119;119;119;
2023-11-04 07:34:25;2;104;103;103;103;104;103;103;103;104;103;
2023-11-04 07:34:25;3;123;123;123;123;123;123;123;123;123;123;
2023-11-04 07:34:25;ht;94;14.20
2023-11-04 07:34:25;v;4.20
2023-11-04 08:04:23;1;112;112;112;112;112;112;112;112;112;112;
2023-11-04 08:04:23;2;94;94;94;94;94;94;94;94;94;94;
2023-11-04 08:04:23;3;117;117;117;117;117;117;117;117;117;117;
2023-11-04 08:04:23;ht;90;15.90
2023-11-04 08:04:23;v;4.21
2023-11-04 08:34:27;1;120;120;120;120;120;120;120;120;120;120;
2023-11-04 08:34:27;2;97;97;98;97;97;97;97;97;97;97;
2023-11-04 08:34:27;3;93;93;93;93;93;93;93;92;93;93;
2023-11-04 08:34:27;ht;85;18.20
2023-11-04 08:34:27;v;4.21
2023-11-04 09:04:25;1;116;116;116;116;116;116;116;116;116;116;
2023-11-04 09:04:25;2;100;100;100;99;99;99;99;99;100;99;
2023-11-04 09:04:25;3;108;108;108;108;108;108;108;108;108;108;
2023-11-04 09:04:25;ht;80;19.30
2023-11-04 09:04:25;v;4.21
2023-11-04 09:34:29;1;117;117;117;117;117;117;117;117;117;117;
2023-11-04 09:34:29;2;91;91;91;91;91;91;92;91;91;91;
2023-11-04 09:34:29;3;90;91;90;90;91;91;91;91;90;90;
2023-11-04 09:34:29;ht;75;20.80
2023-11-04 09:34:29;v;4.21
2023-11-04 10:04:30;1;120;120;120;120;120;120;120;120;120;120;
2023-11-04 10:04:30;2;90;91;90;90;90;91;90;91;90;90;
2023-11-04 10:04:30;3;95;96;96;96;96;96;96;95;96;96;
2023-11-04 10:04:30;ht;62;22.50
2023-11-04 10:04:30;v;4.21
2023-11-04 10:34:33;1;99;99;99;99;99;99;99;99;99;99;
2023-11-04 10:34:33;2;95;94;94;94;95;94;94;94;94;94;
2023-11-04 10:34:33;3;96;97;97;97;97;97;97;97;97;97;
2023-11-04 10:34:33;ht;60;22.50
2023-11-04 10:34:33;v;4.22
2023-11-04 11:04:33;1;106;106;106;106;106;106;106;106;106;106;
2023-11-04 11:04:33;2;87;87;87;87;87;87;87;87;87;87;
2023-11-04 11:04:33;3;89;90;90;90;90;90;90;90;90;90;
2023-11-04 11:04:33;ht;53;23.30
2023-11-04 11:04:33;v;4.22
2023-11-04 11:34:33;1;3;3;3;2;3;3;3;3;3;3;
2023-11-04 11:34:33;2;89;89;89;89;89;89;89;89;89;89;
2023-11-04 11:34:33;3;89;89;90;89;89;90;89;90;90;90;
2023-11-04 11:34:33;ht;56;23.50
2023-11-04 11:34:33;v;4.22
2023-11-04 12:04:31;1;105;105;105;105;105;105;105;105;105;105;
2023-11-04 12:04:31;2;90;90;90;90;90;90;90;90;90;90;
2023-11-04 12:04:31;3;88;89;89;89;88;89;89;88;88;89;
2023-11-04 12:04:31;ht;51;23.90
2023-11-04 12:04:31;v;4.22
2023-11-04 12:34:29;1;102;102;102;101;102;102;102;102;102;102;
2023-11-04 12:34:29;2;102;101;102;101;101;102;102;102;101;101;
2023-11-04 12:34:29;3;118;118;118;118;118;118;118;118;118;118;
2023-11-04 12:34:29;ht;52;24.00
2023-11-04 12:34:29;v;4.22
2023-11-04 13:04:32;1;96;97;97;97;96;97;97;97;96;96;
2023-11-04 13:04:32;2;87;87;87;87;87;87;87;87;87;87;
2023-11-04 13:04:32;3;95;95;95;95;95;95;95;95;95;95;
2023-11-04 13:04:32;ht;50;24.90
2023-11-04 13:04:32;v;4.22
2023-11-04 13:34:30;1;94;94;94;93;94;93;94;94;94;94;
2023-11-04 13:34:30;2;90;90;91;90;90;90;90;90;90;90;
2023-11-04 13:34:30;3;89;88;88;89;89;88;88;88;89;89;
2023-11-04 13:34:30;ht;48;24.70
2023-11-04 13:34:30;v;4.22
2023-11-04 14:04:32;1;102;102;102;102;102;102;102;102;102;102;
2023-11-04 14:04:32;2;95;95;95;95;95;95;95;95;95;95;
2023-11-04 14:04:32;3;92;92;92;92;92;92;91;92;92;92;
2023-11-04 14:04:32;ht;54;25.20
2023-11-04 14:04:32;v;4.23
2023-11-04 14:34:30;1;121;121;121;121;121;121;121;121;121;121;
2023-11-04 14:34:30;2;90;89;89;89;89;89;89;89;89;89;
2023-11-04 14:34:30;3;90;90;90;90;90;90;90;90;90;90;
2023-11-04 14:34:30;ht;57;25.70
2023-11-04 14:34:30;v;4.22
2023-11-04 15:04:33;1;3;2;3;3;3;3;3;3;3;3;
2023-11-04 15:04:33;2;93;93;93;93;93;93;93;93;93;93;
2023-11-04 15:04:33;3;94;94;94;94;94;94;94;94;94;94;
2023-11-04 15:04:33;ht;47;25.50
2023-11-04 15:04:33;v;4.23
2023-11-04 15:34:31;1;89;89;88;89;89;89;89;88;89;88;
2023-11-04 15:34:31;2;92;92;92;92;92;92;92;92;92;92;
2023-11-04 15:34:31;3;89;88;88;88;88;88;88;88;88;88;
2023-11-04 15:34:31;ht;51;25.80
2023-11-04 15:34:31;v;4.22
2023-11-04 16:04:30;1;119;119;119;119;119;119;119;119;119;119;
2023-11-04 16:04:30;2;93;93;93;93;93;93;93;93;93;93;
2023-11-04 16:04:30;3;90;90;89;90;89;90;89;90;90;89;
2023-11-04 16:04:30;ht;49;25.80
2023-11-04 16:04:30;v;4.23
2023-11-04 16:34:33;1;119;119;119;119;119;119;119;119;119;119;
2023-11-04 16:34:33;2;95;95;95;95;95;95;95;95;95;95;
2023-11-04 16:34:33;3;97;97;97;96;96;97;97;97;97;97;
2023-11-04 16:34:33;ht;47;25.80
2023-11-04 16:34:33;v;4.22
2023-11-04 17:04:31;1;127;127;127;127;127;127;127;127;127;127;
2023-11-04 17:04:31;2;88;88;88;88;88;88;88;88;88;88;
2023-11-04 17:04:31;3;87;86;86;86;87;86;86;86;86;86;
2023-11-04 17:04:31;ht;48;25.00
2023-11-04 17:04:31;v;4.23
2023-11-04 17:34:33;1;121;121;121;121;121;121;121;121;121;121;
2023-11-04 17:34:33;2;93;93;93;93;93;93;93;93;93;93;
2023-11-04 17:34:33;3;92;92;92;92;92;92;92;92;92;91;
2023-11-04 17:34:33;ht;51;24.70
2023-11-04 17:34:33;v;4.22
2023-11-04 18:04:30;1;120;120;120;120;120;120;120;120;120;120;
2023-11-04 18:04:30;2;96;96;96;96;96;96;96;96;96;96;
2023-11-04 18:04:30;3;93;92;92;93;93;93;92;92;93;93;
2023-11-04 18:04:30;ht;52;24.00
2023-11-04 18:04:30;v;4.23
2023-11-04 18:34:30;1;86;86;86;86;86;86;86;86;86;86;
2023-11-04 18:34:30;2;103;103;103;103;103;103;103;103;103;103;
2023-11-04 18:34:30;3;92;92;92;92;92;92;92;92;92;92;
2023-11-04 18:34:30;ht;53;23.00
2023-11-04 18:34:30;v;4.23
2023-11-04 19:04:29;1;115;115;115;115;115;115;115;115;115;115;
2023-11-04 19:04:29;2;89;89;89;89;89;89;89;89;89;89;
2023-11-04 19:04:29;3;94;95;95;95;95;94;95;94;95;95;
2023-11-04 19:04:29;ht;61;21.30
2023-11-04 19:04:29;v;4.23
2023-11-04 19:34:25;1;114;114;113;114;114;114;114;114;114;114;
2023-11-04 19:34:25;2;93;93;93;93;93;93;93;93;93;93;
2023-11-04 19:34:25;3;88;88;88;88;88;88;88;88;88;88;
2023-11-04 19:34:25;ht;70;19.00
2023-11-04 19:34:25;v;4.24
2023-11-04 20:04:23;1;101;101;101;101;100;100;101;100;101;101;
2023-11-04 20:04:23;2;90;91;91;91;90;90;90;90;90;90;
2023-11-04 20:04:23;3;118;118;118;118;118;118;118;118;118;118;
2023-11-04 20:04:23;ht;79;17.30
2023-11-04 20:04:23;v;4.24
2023-11-04 20:34:24;1;106;106;106;106;106;106;106;106;106;106;
2023-11-04 20:34:24;2;96;96;96;96;96;96;96;96;96;96;
2023-11-04 20:34:24;3;104;104;104;104;104;104;104;104;104;104;
2023-11-04 20:34:24;ht;88;15.80
2023-11-04 20:34:24;v;4.24
2023-11-04 21:04:20;1;114;114;114;114;114;114;114;114;114;114;
2023-11-04 21:04:20;2;92;91;91;91;91;91;91;91;91;91;
2023-11-04 21:04:20;3;93;92;92;92;92;92;93;92;93;93;
2023-11-04 21:04:20;ht;91;15.50
2023-11-04 21:04:20;v;4.24
2023-11-04 21:34:19;1;106;106;106;106;106;106;106;106;106;106;
2023-11-04 21:34:19;2;97;97;97;97;97;97;97;97;97;97;
2023-11-04 21:34:19;3;90;90;90;90;90;89;89;90;89;90;
2023-11-04 21:34:19;ht;89;15.60
2023-11-04 21:34:19;v;4.24
2023-11-04 22:04:19;1;106;107;107;106;106;107;107;107;106;106;
2023-11-04 22:04:19;2;97;97;97;96;96;96;95;95;95;95;
2023-11-04 22:04:19;3;94;94;94;93;94;94;94;94;94;93;
2023-11-04 22:04:19;ht;93;14.30
2023-11-04 22:04:19;v;4.24
2023-11-04 22:34:18;1;106;106;106;106;106;106;106;106;106;106;
2023-11-04 22:34:18;2;95;95;95;95;95;95;95;95;95;95;
2023-11-04 22:34:18;3;105;105;104;104;104;104;105;105;104;104;
2023-11-04 22:34:18;ht;95;13.90
2023-11-04 22:34:18;v;4.24
2023-11-04 23:04:22;1;107;107;107;107;107;107;107;107;107;107;
2023-11-04 23:04:22;2;93;93;93;93;93;93;93;93;93;93;
2023-11-04 23:04:22;3;107;108;108;108;108;108;107;108;107;108;
2023-11-04 23:04:22;ht;95;13.60
2023-11-04 23:04:22;v;4.23
2023-11-04 23:34:20;1;106;106;106;106;106;106;106;106;106;106;
2023-11-04 23:34:20;2;92;92;92;92;92;92;92;92;92;92;
2023-11-04 23:34:20;3;123;123;123;123;123;123;123;123;123;123;
2023-11-04 23:34:20;ht;97;12.60
2023-11-04 23:34:20;v;4.24
