2023-09-21 00:04:21;1;102;102;102;102;102;102;102;102;102;102;
2023-09-21 00:04:21;2;110;110;110;110;110;110;110;110;110;109;
2023-09-21 00:04:21;3;111;111;111;111;111;111;111;111;111;111;
2023-09-21 00:04:21;ht;97;17.10
2023-09-21 00:04:21;v;4.23
2023-09-21 00:34:22;1;108;108;108;108;108;108;108;108;108;108;
2023-09-21 00:34:22;2;109;109;109;109;109;109;109;109;109;109;
2023-09-21 00:34:22;3;102;102;102;102;102;102;102;102;102;102;
2023-09-21 00:34:22;ht;97;17.00
2023-09-21 00:34:22;v;4.23
2023-09-21 01:04:24;1;108;108;108;108;108;108;108;108;108;108;
2023-09-21 01:04:24;2;109;109;109;109;108;109;109;109;109;109;
2023-09-21 01:04:24;3;99;98;98;99;98;99;99;99;98;98;
2023-09-21 01:04:24;ht;97;16.90
2023-09-21 01:04:24;v;4.23
2023-09-21 01:34:20;1;111;105;104;104;104;104;104;104;104;104;
2023-09-21 01:34:20;2;108;109;110;110;109;109;109;109;108;109;
2023-09-21 01:34:20;3;5;10;3;3;3;3;3;2;2;3;
2023-09-21 01:34:20;ht;97;16.90
2023-09-21 01:34:20;v;4.23
2023-09-21 02:04:21;1;100;100;107;102;101;99;101;101;100;101;
2023-09-21 02:04:21;2;109;109;109;108;109;109;109;109;108;108;
2023-09-21 02:04:21;3;2;2;3;2;2;3;3;2;3;2;
2023-09-21 02:04:21;ht;97;16.80
2023-09-21 02:04:21;v;4.23
2023-09-21 02:34:22;1;138;138;138;138;138;138;138;138;138;138;
2023-09-21 02:34:22;2;109;109;109;109;109;108;109;109;109;109;
2023-09-21 02:34:22;3;7;9;3;3;2;3;3;2;3;3;
2023-09-21 02:34:22;ht;97;16.90
2023-09-21 02:34:22;v;4.23
2023-09-21 03:04:24;1;98;98;98;98;98;98;98;98;98;98;
2023-09-21 03:04:24;2;109;112;111;110;110;110;110;110;110;110;
2023-09-21 03:04:24;3;3;3;2;2;3;3;2;3;2;3;
2023-09-21 03:04:24;ht;97;16.90
2023-09-21 03:04:24;v;4.23
2023-09-21 03:34:20;1;98;97;98;97;97;98;98;98;98;98;
2023-09-21 03:34:20;2;106;106;106;109;108;107;107;107;107;107;
2023-09-21 03:34:20;3;111;111;111;111;111;111;111;111;111;111;
2023-09-21 03:34:20;ht;97;16.70
2023-09-21 03:34:20;v;4.23
2023-09-21 04:04:21;1;127;127;127;133;128;127;127;127;127;127;
2023-09-21 04:04:21;2;108;108;108;111;109;109;108;108;108;108;
2023-09-21 04:04:21;3;91;91;90;91;90;91;90;90;90;91;
2023-09-21 04:04:21;ht;97;16.60
2023-09-21 04:04:21;v;4.23
2023-09-21 04:34:22;1;127;126;126;126;126;126;126;126;126;126;
2023-09-21 04:34:22;2;95;95;95;95;95;95;95;95;95;95;
2023-09-21 04:34:22;3;93;93;92;93;93;92;93;92;93;93;
2023-09-21 04:34:22;ht;97;16.50
2023-09-21 04:34:22;v;4.23
2023-09-21 05:04:23;1;126;126;126;126;126;126;126;126;126;126;
2023-09-21 05:04:23;2;97;96;96;95;95;95;95;95;95;95;
2023-09-21 05:04:23;3;116;116;116;116;116;116;116;116;116;116;
2023-09-21 05:04:23;ht;97;16.60
2023-09-21 05:04:23;v;4.23
2023-09-21 05:34:24;1;127;127;127;127;127;127;127;127;127;127;
2023-09-21 05:34:24;2;102;102;103;102;102;102;102;102;102;102;
2023-09-21 05:34:24;3;113;113;113;113;113;113;113;113;113;113;
2023-09-21 05:34:24;ht;97;16.70
2023-09-21 05:34:24;v;4.23
2023-09-21 06:04:20;1;2;3;3;3;9;4;3;3;3;3;
2023-09-21 06:04:20;2;91;91;91;91;91;91;91;91;91;91;
2023-09-21 06:04:20;3;101;100;101;100;101;100;101;100;101;100;
2023-09-21 06:04:20;ht;97;16.60
2023-09-21 06:04:20;v;4.23
2023-09-21 06:34:21;1;3;2;3;3;3;9;5;3;3;3;
2023-09-21 06:34:21;2;90;90;90;90;90;90;90;90;90;90;
2023-09-21 06:34:21;3;109;109;109;109;109;109;109;109;109;109;
2023-09-21 06:34:21;ht;97;16.40
2023-09-21 06:34:21;v;4.23
2023-09-21 07:04:22;1;85;85;85;85;85;85;85;85;85;85;
2023-09-21 07:04:22;2;89;89;89;89;89;89;89;89;89;89;
2023-09-21 07:04:22;3;92;92;92;92;92;92;92;91;92;92;
2023-09-21 07:04:22;ht;97;16.40
2023-09-21 07:04:22;v;4.23
2023-09-21 07:34:23;1;86;85;85;85;85;84;84;84;84;84;
2023-09-21 07:34:23;2;96;96;96;96;96;96;96;96;96;96;
2023-09-21 07:34:23;3;96;97;97;97;97;96;97;96;96;96;
2023-09-21 07:34:23;ht;97;16.30
2023-09-21 07:34:23;v;4.23
2023-09-21 08:04:24;1;84;84;83;83;83;83;83;83;83;83;
2023-09-21 08:04:24;2;98;98;98;98;98;98;98;98;98;98;
2023-09-21 08:04:24;3;89;88;88;89;89;88;88;88;88;89;
2023-09-21 08:04:24;ht;97;16.40
2023-09-21 08:04:24;v;4.22
2023-09-21 08:34:21;1;88;95;90;89;89;88;88;88;88;88;
2023-09-21 08:34:21;2;95;98;96;96;96;95;95;95;95;95;
2023-09-21 08:34:21;3;88;87;88;87;87;88;88;88;87;87;
2023-09-21 08:34:21;ht;97;16.50
2023-09-21 08:34:21;v;4.23
2023-09-21 09:04:22;1;85;85;85;84;85;84;85;85;84;84;
2023-09-21 09:04:22;2;95;95;95;95;95;95;95;95;95;95;
2023-09-21 09:04:22;3;89;89;89;89;90;90;89;90;89;90;
2023-09-21 09:04:22;ht;97;17.00
2023-09-21 09:04:22;v;4.23
2023-09-21 09:34:25;1;108;108;108;108;108;108;108;108;108;108;
2023-09-21 09:34:25;2;97;97;97;97;97;97;97;97;97;97;
2023-09-21 09:34:25;3;111;111;111;111;111;111;111;111;111;111;
2023-09-21 09:34:25;ht;97;17.10
2023-09-21 09:34:25;v;4.23
2023-09-21 10:04:23;1;83;84;84;83;83;83;83;83;83;83;
2023-09-21 10:04:23;2;96;96;96;96;96;96;96;96;97;96;
2023-09-21 10:04:23;3;117;117;117;117;117;117;117;117;117;117;
2023-09-21 10:04:23;ht;97;18.50
2023-09-21 10:04:23;v;4.22
2023-09-21 10:34:28;1;83;83;83;84;84;83;84;83;83;83;
2023-09-21 10:34:28;2;95;95;95;95;95;95;95;95;95;95;
2023-09-21 10:34:28;3;96;96;96;96;96;96;96;96;96;96;
2023-09-21 10:34:28;ht;93;20.00
2023-09-21 10:34:28;v;4.23
2023-09-21 11:04:28;1;89;89;89;89;89;89;89;89;89;89;
2023-09-21 11:04:28;2;89;89;89;89;89;89;89;89;89;89;
2023-09-21 11:04:28;3;90;91;90;90;90;90;90;91;90;91;
2023-09-21 11:04:28;ht;86;22.00
2023-09-21 11:04:28;v;4.23
2023-09-21 11:34:29;1;85;85;85;85;85;85;85;85;85;85;
2023-09-21 11:34:29;2;87;87;87;87;87;87;87;87;87;87;
2023-09-21 11:34:29;3;86;85;85;85;85;85;86;86;85;85;
2023-09-21 11:34:29;ht;81;23.00
2023-09-21 11:34:29;v;4.22
2023-09-21 12:04:31;1;85;85;85;85;85;93;86;86;85;85;
2023-09-21 12:04:31;2;88;88;88;88;88;88;88;88;88;88;
2023-09-21 12:04:31;3;96;96;96;96;96;96;96;96;96;96;
2023-09-21 12:04:31;ht;73;25.60
2023-09-21 12:04:31;v;4.23
2023-09-21 12:34:35;1;85;85;84;84;85;84;84;84;85;85;
2023-09-21 12:34:35;2;95;92;91;91;92;92;91;91;91;91;
2023-09-21 12:34:35;3;92;91;91;91;92;91;92;91;92;91;
2023-09-21 12:34:35;ht;70;26.70
2023-09-21 12:34:35;v;4.23
2023-09-21 13:04:34;1;83;83;83;91;84;84;84;84;83;83;
2023-09-21 13:04:34;2;91;91;91;91;94;92;92;91;91;91;
2023-09-21 13:04:34;3;88;88;89;88;89;88;88;88;88;88;
2023-09-21 13:04:34;ht;69;27.10
2023-09-21 13:04:34;v;4.23
2023-09-21 13:34:32;1;90;90;90;90;90;89;90;90;90;89;
2023-09-21 13:34:32;2;103;102;102;102;102;102;102;103;102;102;
2023-09-21 13:34:32;3;91;91;92;92;91;91;92;91;92;92;
2023-09-21 13:34:32;ht;67;27.60
2023-09-21 13:34:32;v;4.23
2023-09-21 14:04:29;1;83;83;83;91;84;84;83;83;83;83;
2023-09-21 14:04:29;2;100;100;99;99;99;99;99;99;99;99;
2023-09-21 14:04:29;3;95;95;95;95;95;95;95;95;95;95;
2023-09-21 14:04:29;ht;65;27.50
2023-09-21 14:04:29;v;4.23
2023-09-21 14:34:32;1;86;84;84;83;83;83;84;84;83;83;
2023-09-21 14:34:32;2;93;92;92;92;92;92;93;93;92;93;
2023-09-21 14:34:32;3;89;90;90;90;89;89;90;89;89;89;
2023-09-21 14:34:32;ht;64;28.40
2023-09-21 14:34:32;v;4.23
2023-09-21 15:04:31;1;82;82;82;82;82;87;90;83;83;83;
2023-09-21 15:04:31;2;96;94;93;93;93;93;93;93;93;93;
2023-09-21 15:04:31;3;99;99;99;99;99;99;99;99;99;99;
2023-09-21 15:04:31;ht;62;29.00
2023-09-21 15:04:31;v;4.23
2023-09-21 15:34:36;1;83;83;83;83;83;83;83;83;83;83;
2023-09-21 15:34:36;2;100;101;100;100;101;100;100;100;100;100;
2023-09-21 15:34:36;3;3;3;3;3;3;3;3;3;3;2;
2023-09-21 15:34:36;ht;62;29.20
2023-09-21 15:34:36;v;4.24
2023-09-21 16:04:31;1;121;121;121;121;121;121;121;121;121;121;
2023-09-21 16:04:31;2;93;93;93;93;93;93;93;93;93;93;
2023-09-21 16:04:31;3;90;90;89;90;90;90;90;90;90;90;
2023-09-21 16:04:31;ht;61;29.10
2023-09-21 16:04:31;v;4.23
2023-09-21 16:34:36;1;2;2;2;2;2;2;2;3;3;2;
2023-09-21 16:34:36;2;97;97;98;97;97;97;97;97;97;97;
2023-09-21 16:34:36;3;88;89;88;89;89;88;89;88;89;89;
2023-09-21 16:34:36;ht;66;27.80
2023-09-21 16:34:36;v;4.24
2023-09-21 17:04:29;1;89;90;90;89;90;90;90;90;90;90;
2023-09-21 17:04:29;2;91;91;90;91;90;91;90;90;90;90;
2023-09-21 17:04:29;3;88;88;88;88;88;89;88;89;88;89;
2023-09-21 17:04:29;ht;65;27.90
2023-09-21 17:04:29;v;4.24
2023-09-21 17:34:31;1;92;92;92;91;92;92;92;92;91;92;
2023-09-21 17:34:31;2;102;102;102;102;102;102;102;102;102;102;
2023-09-21 17:34:31;3;99;100;100;99;99;99;99;99;99;100;
2023-09-21 17:34:31;ht;66;27.50
2023-09-21 17:34:31;v;4.24
2023-09-21 18:04:28;1;85;84;84;84;84;84;84;84;84;83;
2023-09-21 18:04:28;2;90;90;90;90;90;90;90;90;90;90;
2023-09-21 18:04:28;3;120;120;120;120;120;120;120;120;120;120;
2023-09-21 18:04:28;ht;69;26.90
2023-09-21 18:04:28;v;4.24
2023-09-21 18:34:28;1;84;84;84;84;84;84;84;84;84;84;
2023-09-21 18:34:28;2;93;93;94;93;93;93;93;93;93;93;
2023-09-21 18:34:28;3;94;94;94;94;94;93;94;94;94;94;
2023-09-21 18:34:28;ht;73;25.20
2023-09-21 18:34:28;v;4.24
2023-09-21 19:04:26;1;83;83;83;83;83;84;83;82;83;84;
2023-09-21 19:04:26;2;93;93;93;93;93;93;93;93;93;94;
2023-09-21 19:04:26;3;91;92;91;91;91;91;92;91;91;92;
2023-09-21 19:04:26;ht;77;23.50
2023-09-21 19:04:26;v;4.24
2023-09-21 19:34:26;1;94;89;88;88;87;87;88;87;87;87;
2023-09-21 19:34:26;2;89;89;89;88;88;88;88;88;88;88;
2023-09-21 19:34:26;3;104;103;104;104;104;104;104;104;104;104;
2023-09-21 19:34:26;ht;81;22.20
2023-09-21 19:34:26;v;4.24
2023-09-21 20:04:26;1;91;91;91;91;91;91;91;91;91;91;
2023-09-21 20:04:26;2;105;104;105;105;105;105;105;105;105;105;
2023-09-21 20:04:26;3;102;102;102;102;102;102;102;102;102;102;
2023-09-21 20:04:26;ht;85;20.80
2023-09-21 20:04:26;v;4.24
2023-09-21 20:34:24;1;94;94;94;94;94;94;94;94;94;94;
2023-09-21 20:34:24;2;95;95;95;95;95;95;95;95;95;95;
2023-09-21 20:34:24;3;98;98;98;98;98;98;98;98;97;98;
2023-09-21 20:34:24;ht;87;20.40
2023-09-21 20:34:24;v;4.24
2023-09-21 21:04:22;1;92;92;92;92;92;92;92;93;92;92;
2023-09-21 21:04:22;2;108;108;108;108;108;108;108;108;108;108;
2023-09-21 21:04:22;3;93;94;93;93;93;93;93;93;93;93;
2023-09-21 21:04:22;ht;91;20.40
2023-09-21 21:04:22;v;4.24
2023-09-21 21:34:25;1;2;2;2;2;2;2;2;2;2;2;
2023-09-21 21:34:25;2;107;107;107;107;107;107;107;107;107;107;
2023-09-21 21:34:25;3;100;100;99;99;99;100;99;99;100;99;
2023-09-21 21:34:25;ht;93;20.20
2023-09-21 21:34:25;v;4.24
2023-09-21 22:04:23;1;108;108;108;108;108;108;108;108;108;108;
2023-09-21 22:04:23;2;107;108;108;107;108;108;108;108;107;108;
2023-09-21 22:04:23;3;93;93;93;93;93;92;93;93;93;92;
2023-09-21 22:04:23;ht;95;19.60
2023-09-21 22:04:23;v;4.24
2023-09-21 22:34:21;1;109;109;109;109;109;109;109;109;109;109;
2023-09-21 22:34:21;2;108;108;108;108;107;108;108;108;108;108;
2023-09-21 22:34:21;3;96;96;96;96;96;96;96;95;96;96;
2023-09-21 22:34:21;ht;97;19.10
2023-09-21 22:34:21;v;4.24
2023-09-21 23:04:24;1;105;105;105;105;105;105;105;105;105;105;
2023-09-21 23:04:24;2;106;106;106;106;106;106;106;106;106;106;
2023-09-21 23:04:24;3;104;104;104;104;104;104;104;104;104;104;
2023-09-21 23:04:24;ht;97;18.50
2023-09-21 23:04:24;v;4.24
2023-09-21 23:34:21;1;102;102;102;102;102;102;102;102;102;101;
2023-09-21 23:34:21;2;109;109;109;108;109;109;109;109;109;109;
2023-09-21 23:34:21;3;100;100;100;100;100;100;100;100;100;100;
2023-09-21 23:34:21;ht;97;18.40
2023-09-21 23:34:21;v;4.24
