2023-01-26 00:04:24;1;107;107;107;107;107;107;107;107;108;107;
2023-01-26 00:04:24;2;105;105;106;105;105;105;105;105;105;105;
2023-01-26 00:04:24;3;105;105;105;105;105;105;105;105;105;105;
2023-01-26 00:04:24;ht;0;nan
2023-01-26 00:04:24;v;3.70
2023-01-26 00:34:24;1;108;109;109;109;109;108;109;108;108;108;
2023-01-26 00:34:24;2;94;94;95;95;94;95;94;94;94;94;
2023-01-26 00:34:24;3;105;105;105;105;105;105;105;105;105;105;
2023-01-26 00:34:24;ht;0;nan
2023-01-26 00:34:24;v;3.69
2023-01-26 01:04:24;1;108;108;108;108;108;108;108;108;108;108;
2023-01-26 01:04:24;2;102;102;102;102;102;102;104;102;102;102;
2023-01-26 01:04:24;3;106;107;106;106;106;106;106;106;106;106;
2023-01-26 01:04:24;ht;0;nan
2023-01-26 01:04:24;v;3.70
2023-01-26 01:34:23;1;109;109;109;109;109;109;109;109;109;109;
2023-01-26 01:34:23;2;101;100;101;101;100;101;100;101;100;101;
2023-01-26 01:34:23;3;106;106;106;106;106;106;107;107;106;106;
2023-01-26 01:34:23;ht;0;nan
2023-01-26 01:34:23;v;3.69
2023-01-26 02:04:27;1;109;109;109;108;108;109;108;108;108;108;
2023-01-26 02:04:27;2;98;98;98;98;99;98;98;97;98;98;
2023-01-26 02:04:27;3;107;106;106;106;106;106;106;106;106;106;
2023-01-26 02:04:27;ht;0;nan
2023-01-26 02:04:27;v;3.70
2023-01-26 02:34:26;1;108;108;107;108;108;108;108;108;107;107;
2023-01-26 02:34:26;2;103;103;103;103;103;103;103;103;103;103;
2023-01-26 02:34:26;3;106;106;106;106;106;106;106;106;106;106;
2023-01-26 02:34:26;ht;0;nan
2023-01-26 02:34:26;v;3.69
2023-01-26 03:04:25;1;108;109;109;109;108;109;108;109;109;108;
2023-01-26 03:04:25;2;105;106;105;106;105;106;105;105;105;105;
2023-01-26 03:04:25;3;105;105;105;105;105;105;105;105;105;106;
2023-01-26 03:04:25;ht;0;nan
2023-01-26 03:04:25;v;3.70
2023-01-26 03:34:24;1;108;108;107;108;108;108;108;108;108;108;
2023-01-26 03:34:24;2;105;106;106;105;106;106;105;105;105;105;
2023-01-26 03:34:24;3;105;105;105;106;105;105;105;105;106;105;
2023-01-26 03:34:24;ht;0;nan
2023-01-26 03:34:24;v;3.69
2023-01-26 04:04:24;1;107;107;106;107;106;107;106;107;106;106;
2023-01-26 04:04:24;2;104;103;103;103;103;103;103;103;103;103;
2023-01-26 04:04:24;3;106;106;106;106;106;106;106;105;106;106;
2023-01-26 04:04:24;ht;0;nan
2023-01-26 04:04:24;v;3.69
2023-01-26 04:34:23;1;105;105;106;105;105;106;105;105;105;106;
2023-01-26 04:34:23;2;102;103;102;102;103;103;103;103;103;103;
2023-01-26 04:34:23;3;106;106;107;107;106;106;106;106;106;106;
2023-01-26 04:34:23;ht;0;nan
2023-01-26 04:34:23;v;3.69
2023-01-26 05:04:27;1;106;105;106;105;105;106;106;106;106;105;
2023-01-26 05:04:27;2;106;106;106;108;106;107;106;107;106;106;
2023-01-26 05:04:27;3;107;107;108;107;108;107;107;108;108;107;
2023-01-26 05:04:27;ht;0;nan
2023-01-26 05:04:27;v;3.69
2023-01-26 05:34:26;1;106;106;107;107;106;107;107;107;107;106;
2023-01-26 05:34:26;2;106;106;107;107;106;107;108;106;107;106;
2023-01-26 05:34:26;3;107;107;107;107;108;107;107;107;107;107;
2023-01-26 05:34:26;ht;0;nan
2023-01-26 05:34:26;v;3.69
2023-01-26 06:04:24;1;103;104;104;104;105;104;103;104;103;104;
2023-01-26 06:04:24;2;107;106;107;106;106;106;106;107;106;106;
2023-01-26 06:04:24;3;105;105;105;105;105;105;105;105;105;105;
2023-01-26 06:04:24;ht;0;nan
2023-01-26 06:04:24;v;3.69
2023-01-26 06:34:23;1;107;107;107;107;107;106;107;106;107;107;
2023-01-26 06:34:23;2;119;119;119;119;119;119;119;119;119;119;
2023-01-26 06:34:23;3;103;103;103;103;103;103;103;103;103;103;
2023-01-26 06:34:23;ht;0;nan
2023-01-26 06:34:23;v;3.69
2023-01-26 07:04:26;1;105;105;105;105;105;104;105;105;104;104;
2023-01-26 07:04:26;2;85;85;85;85;85;85;85;85;85;85;
2023-01-26 07:04:26;3;106;106;106;106;106;106;106;106;107;106;
2023-01-26 07:04:26;ht;0;nan
2023-01-26 07:04:26;v;3.69
2023-01-26 07:34:27;1;108;108;107;108;108;107;108;108;108;107;
2023-01-26 07:34:27;2;120;120;121;121;121;120;121;120;120;121;
2023-01-26 07:34:27;3;96;96;96;96;96;96;96;96;96;96;
2023-01-26 07:34:27;ht;0;nan
2023-01-26 07:34:27;v;3.69
2023-01-26 08:04:29;1;104;103;104;103;104;104;103;104;103;103;
2023-01-26 08:04:29;2;106;105;106;105;105;105;105;106;106;105;
2023-01-26 08:04:29;3;110;110;111;110;110;110;110;111;111;110;
2023-01-26 08:04:29;ht;0;nan
2023-01-26 08:04:29;v;3.69
2023-01-26 08:34:29;1;104;104;103;103;104;103;104;104;104;103;
2023-01-26 08:34:29;2;115;115;115;114;115;114;114;115;114;114;
2023-01-26 08:34:29;3;122;122;122;121;122;121;122;122;122;122;
2023-01-26 08:34:29;ht;0;nan
2023-01-26 08:34:29;v;3.69
2023-01-26 09:04:31;1;105;104;104;104;104;104;104;104;104;104;
2023-01-26 09:04:31;2;87;87;87;87;87;88;87;87;87;87;
2023-01-26 09:04:31;3;105;105;104;105;105;106;105;105;105;105;
2023-01-26 09:04:31;ht;0;nan
2023-01-26 09:04:31;v;3.69
2023-01-26 09:34:33;1;105;106;106;106;106;106;105;106;105;106;
2023-01-26 09:34:33;2;90;90;90;90;90;90;90;90;90;91;
2023-01-26 09:34:33;3;173;173;173;173;173;173;173;173;173;173;
2023-01-26 09:34:33;ht;0;nan
2023-01-26 09:34:33;v;3.69
2023-01-26 10:04:32;1;103;103;103;104;104;104;104;104;104;104;
2023-01-26 10:04:32;2;99;100;99;99;99;99;99;100;99;99;
2023-01-26 10:04:32;3;115;115;115;115;115;115;117;116;116;115;
2023-01-26 10:04:32;ht;0;nan
2023-01-26 10:04:32;v;3.69
2023-01-26 10:34:33;1;105;105;106;105;105;105;106;105;105;105;
2023-01-26 10:34:33;2;115;114;115;114;115;115;114;114;115;114;
2023-01-26 10:34:33;3;112;112;112;112;112;112;112;112;112;112;
2023-01-26 10:34:33;ht;0;nan
2023-01-26 10:34:33;v;3.69
2023-01-26 11:04:34;1;102;102;102;102;102;102;102;103;102;102;
2023-01-26 11:04:34;2;3;3;4;3;3;3;3;3;3;5;
2023-01-26 11:04:34;3;105;105;105;105;105;105;105;105;105;105;
2023-01-26 11:04:34;ht;0;nan
2023-01-26 11:04:34;v;3.69
2023-01-26 11:34:36;1;103;104;104;103;104;105;103;103;103;103;
2023-01-26 11:34:36;2;3;4;3;3;4;3;4;3;3;3;
2023-01-26 11:34:36;3;103;103;103;103;103;103;103;103;103;103;
2023-01-26 11:34:36;ht;0;nan
2023-01-26 11:34:36;v;3.68
2023-01-26 12:04:34;1;105;105;106;105;105;105;105;105;105;105;
2023-01-26 12:04:34;2;3;3;2;3;3;3;6;7;11;15;
2023-01-26 12:04:34;3;102;102;103;102;102;102;102;102;102;102;
2023-01-26 12:04:34;ht;0;nan
2023-01-26 12:04:34;v;3.69
2023-01-26 12:34:38;1;105;104;104;104;104;104;104;104;104;104;
2023-01-26 12:34:38;2;113;113;113;113;113;113;113;113;113;113;
2023-01-26 12:34:38;3;115;115;115;114;114;114;114;114;115;115;
2023-01-26 12:34:38;ht;0;nan
2023-01-26 12:34:38;v;3.69
2023-01-26 13:04:37;1;106;105;106;105;105;105;105;105;105;106;
2023-01-26 13:04:37;2;103;103;103;103;103;104;103;104;103;104;
2023-01-26 13:04:37;3;116;116;116;117;117;117;117;116;117;116;
2023-01-26 13:04:37;ht;0;nan
2023-01-26 13:04:37;v;3.68
2023-01-26 13:34:36;1;104;105;104;104;104;104;105;105;105;104;
2023-01-26 13:34:36;2;119;118;118;118;119;118;119;118;118;118;
2023-01-26 13:34:36;3;101;100;101;101;101;101;101;101;101;101;
2023-01-26 13:34:36;ht;0;nan
2023-01-26 13:34:36;v;3.69
2023-01-26 14:04:37;1;104;104;104;104;104;104;104;104;104;104;
2023-01-26 14:04:37;2;3;3;3;3;3;3;3;3;3;3;
2023-01-26 14:04:37;3;3;3;3;3;3;3;3;3;3;3;
2023-01-26 14:04:37;ht;0;nan
2023-01-26 14:04:37;v;3.68
2023-01-26 14:34:38;1;104;104;104;104;104;104;104;104;104;104;
2023-01-26 14:34:38;2;2;3;3;3;3;3;3;3;3;2;
2023-01-26 14:34:38;3;102;102;102;103;102;102;102;102;102;102;
2023-01-26 14:34:38;ht;0;nan
2023-01-26 14:34:38;v;3.68
2023-01-26 15:04:40;1;105;105;105;105;104;105;104;104;104;105;
2023-01-26 15:04:40;2;101;101;102;101;102;101;102;101;101;101;
2023-01-26 15:04:40;3;99;99;99;99;99;99;99;99;99;99;
2023-01-26 15:04:40;ht;0;nan
2023-01-26 15:04:40;v;3.68
2023-01-26 15:34:38;1;105;104;104;105;104;104;104;104;104;104;
2023-01-26 15:34:38;2;112;112;112;112;112;112;112;112;112;112;
2023-01-26 15:34:38;3;101;101;101;102;101;101;101;101;101;101;
2023-01-26 15:34:38;ht;0;nan
2023-01-26 15:34:38;v;3.68
2023-01-26 16:04:41;1;105;104;104;104;104;104;104;104;104;105;
2023-01-26 16:04:41;2;114;114;114;115;114;115;114;115;114;114;
2023-01-26 16:04:41;3;101;101;101;101;101;101;101;102;101;101;
2023-01-26 16:04:41;ht;0;nan
2023-01-26 16:04:41;v;3.68
2023-01-26 16:34:39;1;104;104;104;104;104;104;104;104;104;104;
2023-01-26 16:34:39;2;111;112;112;113;111;113;112;112;112;113;
2023-01-26 16:34:39;3;3;2;3;3;3;3;3;3;3;3;
2023-01-26 16:34:39;ht;0;nan
2023-01-26 16:34:39;v;3.69
2023-01-26 17:04:41;1;104;104;104;104;105;104;104;104;104;104;
2023-01-26 17:04:41;2;100;100;100;99;99;100;100;99;99;99;
2023-01-26 17:04:41;3;102;102;102;102;102;102;103;102;102;103;
2023-01-26 17:04:41;ht;0;nan
2023-01-26 17:04:41;v;3.69
2023-01-26 17:34:39;1;104;104;105;104;104;104;104;104;104;104;
2023-01-26 17:34:39;2;99;100;99;99;100;99;100;99;99;99;
2023-01-26 17:34:39;3;104;104;104;104;104;105;104;104;105;105;
2023-01-26 17:34:39;ht;0;nan
2023-01-26 17:34:39;v;3.69
2023-01-26 18:04:36;1;105;105;104;104;104;104;104;104;104;104;
2023-01-26 18:04:36;2;96;97;96;96;96;96;96;96;96;96;
2023-01-26 18:04:36;3;101;101;100;101;101;101;101;101;101;101;
2023-01-26 18:04:36;ht;0;nan
2023-01-26 18:04:36;v;3.68
2023-01-26 18:34:38;1;105;105;105;105;105;105;104;105;105;105;
2023-01-26 18:34:38;2;90;90;91;91;90;90;90;90;90;90;
2023-01-26 18:34:38;3;105;104;105;105;105;104;104;104;105;104;
2023-01-26 18:34:38;ht;0;nan
2023-01-26 18:34:38;v;3.68
2023-01-26 19:04:39;1;104;105;104;104;104;104;104;104;104;104;
2023-01-26 19:04:39;2;97;97;97;97;98;97;97;97;97;97;
2023-01-26 19:04:39;3;101;102;101;101;101;101;101;101;101;101;
2023-01-26 19:04:39;ht;0;nan
2023-01-26 19:04:39;v;3.68
2023-01-26 19:34:38;1;105;104;104;105;105;105;104;105;104;105;
2023-01-26 19:34:38;2;102;103;103;103;103;103;103;103;103;103;
2023-01-26 19:34:38;3;103;104;103;103;103;104;103;104;104;103;
2023-01-26 19:34:38;ht;0;nan
2023-01-26 19:34:38;v;3.68
2023-01-26 20:04:35;1;105;106;105;105;105;105;105;105;105;106;
2023-01-26 20:04:35;2;96;97;96;96;96;96;96;97;96;96;
2023-01-26 20:04:35;3;107;107;107;107;107;107;107;107;107;107;
2023-01-26 20:04:35;ht;0;nan
2023-01-26 20:04:35;v;3.69
2023-01-26 20:34:34;1;104;103;104;103;103;103;103;103;103;103;
2023-01-26 20:34:34;2;101;101;100;101;101;101;101;101;101;101;
2023-01-26 20:34:34;3;113;113;113;113;113;112;113;112;112;112;
2023-01-26 20:34:34;ht;0;nan
2023-01-26 20:34:34;v;3.69
2023-01-26 21:04:32;1;103;103;103;103;103;103;103;103;103;103;
2023-01-26 21:04:32;2;92;92;92;92;92;92;93;92;92;92;
2023-01-26 21:04:32;3;116;115;116;116;115;116;116;116;116;115;
2023-01-26 21:04:32;ht;0;nan
2023-01-26 21:04:32;v;3.69
2023-01-26 21:34:29;1;106;105;105;105;105;105;105;105;105;105;
2023-01-26 21:34:29;2;102;101;102;102;101;102;101;101;101;101;
2023-01-26 21:34:29;3;119;119;118;119;119;119;119;119;119;119;
2023-01-26 21:34:29;ht;0;nan
2023-01-26 21:34:29;v;3.69
2023-01-26 22:04:30;1;104;103;104;103;103;103;103;103;103;103;
2023-01-26 22:04:30;2;101;102;101;101;102;101;101;101;101;101;
2023-01-26 22:04:30;3;120;121;120;120;120;120;120;120;120;120;
2023-01-26 22:04:30;ht;0;nan
2023-01-26 22:04:30;v;3.69
2023-01-26 22:34:31;1;106;106;106;106;106;106;105;105;105;105;
2023-01-26 22:34:31;2;98;99;98;98;98;98;98;98;98;98;
2023-01-26 22:34:31;3;120;120;120;120;120;120;120;120;120;120;
2023-01-26 22:34:31;ht;0;nan
2023-01-26 22:34:31;v;3.69
2023-01-26 23:04:31;1;106;107;106;106;106;106;106;106;105;105;
2023-01-26 23:04:31;2;3;3;3;3;3;3;3;2;3;3;
2023-01-26 23:04:31;3;123;123;125;124;123;124;124;123;124;123;
2023-01-26 23:04:31;ht;0;nan
2023-01-26 23:04:31;v;3.69
2023-01-26 23:34:31;1;107;107;106;106;107;107;106;106;107;106;
2023-01-26 23:34:31;2;105;105;104;104;105;104;104;104;104;105;
2023-01-26 23:34:31;3;124;124;124;124;124;124;124;123;124;124;
2023-01-26 23:34:31;ht;0;nan
2023-01-26 23:34:31;v;3.69
