2023-06-06 00:04:22;1;105;106;106;106;106;106;106;106;106;106;
2023-06-06 00:04:22;2;121;121;121;121;121;121;121;121;121;121;
2023-06-06 00:04:22;3;108;108;108;108;108;107;108;108;114;109;
2023-06-06 00:04:22;ht;99;16.20
2023-06-06 00:04:22;v;4.24
2023-06-06 00:34:22;1;107;107;107;107;107;107;107;106;107;107;
2023-06-06 00:34:22;2;112;112;112;112;112;112;112;112;112;112;
2023-06-06 00:34:22;3;106;106;106;105;105;105;105;105;105;105;
2023-06-06 00:34:22;ht;99;16.20
2023-06-06 00:34:22;v;4.24
2023-06-06 01:04:22;1;107;107;107;107;107;107;107;107;107;107;
2023-06-06 01:04:22;2;127;127;127;127;127;127;127;127;127;127;
2023-06-06 01:04:22;3;107;107;107;107;107;107;107;107;107;107;
2023-06-06 01:04:22;ht;99;16.20
2023-06-06 01:04:22;v;4.25
2023-06-06 01:34:22;1;108;108;108;108;108;108;108;108;108;108;
2023-06-06 01:34:22;2;119;119;119;119;119;119;119;119;119;119;
2023-06-06 01:34:22;3;108;108;109;108;108;108;108;108;108;108;
2023-06-06 01:34:22;ht;99;16.00
2023-06-06 01:34:22;v;4.24
2023-06-06 02:04:22;1;110;110;110;110;110;110;110;110;110;110;
2023-06-06 02:04:22;2;123;123;123;123;123;123;123;123;123;123;
2023-06-06 02:04:22;3;107;107;107;107;107;107;107;107;107;107;
2023-06-06 02:04:22;ht;99;16.00
2023-06-06 02:04:22;v;4.25
2023-06-06 02:34:22;1;107;107;107;107;107;107;107;107;107;107;
2023-06-06 02:34:22;2;129;129;129;129;129;129;129;129;129;129;
2023-06-06 02:34:22;3;105;105;105;105;105;105;105;105;105;105;
2023-06-06 02:34:22;ht;99;16.00
2023-06-06 02:34:22;v;4.24
2023-06-06 03:04:22;1;103;103;103;103;103;103;103;103;103;103;
2023-06-06 03:04:22;2;133;133;132;132;132;133;132;133;132;132;
2023-06-06 03:04:22;3;108;108;108;108;107;108;107;107;107;107;
2023-06-06 03:04:22;ht;99;16.20
2023-06-06 03:04:22;v;4.25
2023-06-06 03:34:22;1;107;107;107;107;107;107;107;107;107;107;
2023-06-06 03:34:22;2;128;127;128;128;128;128;128;128;128;128;
2023-06-06 03:34:22;3;107;107;107;107;107;106;107;107;107;107;
2023-06-06 03:34:22;ht;99;16.50
2023-06-06 03:34:22;v;4.24
2023-06-06 04:04:22;1;107;107;107;107;106;107;107;107;106;107;
2023-06-06 04:04:22;2;131;131;131;131;131;131;131;131;131;131;
2023-06-06 04:04:22;3;108;107;107;108;108;107;107;108;108;108;
2023-06-06 04:04:22;ht;99;16.70
2023-06-06 04:04:22;v;4.25
2023-06-06 04:34:22;1;109;109;109;109;109;109;109;109;109;109;
2023-06-06 04:34:22;2;76;75;75;76;76;75;76;75;76;75;
2023-06-06 04:34:22;3;106;106;106;106;106;105;106;106;106;105;
2023-06-06 04:34:22;ht;99;16.80
2023-06-06 04:34:22;v;4.24
2023-06-06 05:04:23;1;109;109;109;109;109;108;108;108;108;108;
2023-06-06 05:04:23;2;79;79;79;79;79;79;79;79;79;79;
2023-06-06 05:04:23;3;105;105;105;106;106;106;105;105;106;105;
2023-06-06 05:04:23;ht;99;17.00
2023-06-06 05:04:23;v;4.25
2023-06-06 05:34:23;1;108;108;108;108;108;108;108;108;108;108;
2023-06-06 05:34:23;2;111;111;111;111;111;111;111;111;111;111;
2023-06-06 05:34:23;3;108;108;108;108;108;108;108;108;108;108;
2023-06-06 05:34:23;ht;99;17.10
2023-06-06 05:34:23;v;4.24
2023-06-06 06:04:19;1;104;104;104;104;104;104;104;104;104;104;
2023-06-06 06:04:19;2;119;119;119;119;119;119;119;119;119;119;
2023-06-06 06:04:19;3;108;107;107;107;107;107;107;108;108;107;
2023-06-06 06:04:19;ht;99;17.20
2023-06-06 06:04:19;v;4.25
2023-06-06 06:34:20;1;107;107;107;107;107;107;107;107;107;107;
2023-06-06 06:34:20;2;120;120;120;120;120;120;120;120;120;120;
2023-06-06 06:34:20;3;108;108;108;108;108;108;108;108;108;108;
2023-06-06 06:34:20;ht;99;17.50
2023-06-06 06:34:20;v;4.24
2023-06-06 07:04:21;1;108;108;108;108;108;108;108;108;108;108;
2023-06-06 07:04:21;2;107;107;107;107;107;107;107;107;107;107;
2023-06-06 07:04:21;3;103;102;103;102;103;102;102;103;103;103;
2023-06-06 07:04:21;ht;99;17.80
2023-06-06 07:04:21;v;4.24
2023-06-06 07:34:22;1;102;102;102;102;102;102;102;102;102;102;
2023-06-06 07:34:22;2;95;95;95;95;95;95;95;95;95;95;
2023-06-06 07:34:22;3;106;106;106;106;106;106;106;106;106;106;
2023-06-06 07:34:22;ht;99;17.90
2023-06-06 07:34:22;v;4.24
2023-06-06 08:04:23;1;107;107;107;107;107;107;107;107;107;107;
2023-06-06 08:04:23;2;118;117;117;117;117;117;117;117;117;117;
2023-06-06 08:04:23;3;97;97;97;97;97;97;97;97;97;97;
2023-06-06 08:04:23;ht;99;18.00
2023-06-06 08:04:23;v;4.24
2023-06-06 08:34:24;1;106;106;106;106;106;106;106;106;106;106;
2023-06-06 08:34:24;2;90;90;90;90;90;90;90;90;90;90;
2023-06-06 08:34:24;3;96;95;95;95;95;95;95;95;95;95;
2023-06-06 08:34:24;ht;99;18.10
2023-06-06 08:34:24;v;4.24
2023-06-06 09:04:21;1;103;103;103;103;103;103;103;103;103;103;
2023-06-06 09:04:21;2;96;96;96;96;96;96;96;96;96;96;
2023-06-06 09:04:21;3;104;104;104;104;105;105;104;105;105;105;
2023-06-06 09:04:21;ht;99;18.30
2023-06-06 09:04:21;v;4.24
2023-06-06 09:34:22;1;109;109;109;109;109;109;109;109;109;109;
2023-06-06 09:34:22;2;100;100;100;100;100;100;100;100;100;100;
2023-06-06 09:34:22;3;106;106;106;105;105;105;105;105;105;105;
2023-06-06 09:34:22;ht;99;18.60
2023-06-06 09:34:22;v;4.24
2023-06-06 10:04:24;1;107;107;107;107;107;107;107;107;107;107;
2023-06-06 10:04:24;2;95;95;95;95;95;95;95;95;95;95;
2023-06-06 10:04:24;3;105;105;105;105;105;105;105;105;105;105;
2023-06-06 10:04:24;ht;99;19.30
2023-06-06 10:04:24;v;4.24
2023-06-06 10:34:22;1;107;107;107;107;107;107;107;107;107;107;
2023-06-06 10:34:22;2;99;99;99;99;99;99;99;99;99;99;
2023-06-06 10:34:22;3;181;181;181;181;181;181;181;181;181;181;
2023-06-06 10:34:22;ht;99;19.90
2023-06-06 10:34:22;v;4.24
2023-06-06 11:04:25;1;107;106;106;107;107;106;106;106;106;106;
2023-06-06 11:04:25;2;92;92;92;92;92;92;92;92;92;92;
2023-06-06 11:04:25;3;96;96;96;96;96;97;97;97;97;97;
2023-06-06 11:04:25;ht;99;20.00
2023-06-06 11:04:25;v;4.24
2023-06-06 11:34:23;1;108;108;108;108;108;108;108;108;108;108;
2023-06-06 11:34:23;2;90;90;90;90;90;90;90;90;90;90;
2023-06-06 11:34:23;3;91;92;91;91;91;91;91;91;91;91;
2023-06-06 11:34:23;ht;99;20.10
2023-06-06 11:34:23;v;4.24
2023-06-06 12:04:22;1;108;108;108;108;108;108;108;108;108;108;
2023-06-06 12:04:22;2;105;105;105;105;105;105;105;105;105;105;
2023-06-06 12:04:22;3;92;92;92;92;92;92;92;92;92;92;
2023-06-06 12:04:22;ht;99;20.60
2023-06-06 12:04:22;v;4.24
2023-06-06 12:34:26;1;107;107;107;107;107;107;107;107;107;107;
2023-06-06 12:34:26;2;90;90;90;90;90;90;90;90;90;90;
2023-06-06 12:34:26;3;91;90;90;90;90;90;91;91;90;91;
2023-06-06 12:34:26;ht;99;21.40
2023-06-06 12:34:26;v;4.24
2023-06-06 13:04:25;1;107;107;107;107;107;107;107;107;107;107;
2023-06-06 13:04:25;2;116;116;116;116;116;116;116;116;116;116;
2023-06-06 13:04:25;3;91;91;91;91;91;91;91;91;91;91;
2023-06-06 13:04:25;ht;99;21.90
2023-06-06 13:04:25;v;4.24
2023-06-06 13:34:25;1;104;103;103;103;103;103;103;103;103;103;
2023-06-06 13:34:25;2;92;92;92;92;92;92;92;92;92;92;
2023-06-06 13:34:25;3;91;91;91;91;91;91;91;91;91;91;
2023-06-06 13:34:25;ht;99;22.40
2023-06-06 13:34:25;v;4.25
2023-06-06 14:04:25;1;106;106;106;106;106;106;106;106;106;106;
2023-06-06 14:04:25;2;101;101;101;101;101;101;101;101;101;101;
2023-06-06 14:04:25;3;104;104;104;104;104;104;104;104;104;104;
2023-06-06 14:04:25;ht;99;22.80
2023-06-06 14:04:25;v;4.25
2023-06-06 14:34:26;1;106;106;106;106;106;106;106;106;106;106;
2023-06-06 14:34:26;2;101;100;100;100;99;99;99;99;98;98;
2023-06-06 14:34:26;3;92;91;91;91;91;92;91;91;91;91;
2023-06-06 14:34:26;ht;99;23.00
2023-06-06 14:34:26;v;4.25
2023-06-06 15:04:26;1;106;106;106;106;106;106;106;106;106;106;
2023-06-06 15:04:26;2;97;97;97;97;97;97;97;97;97;97;
2023-06-06 15:04:26;3;91;92;92;92;92;92;92;92;92;92;
2023-06-06 15:04:26;ht;99;22.70
2023-06-06 15:04:26;v;4.25
2023-06-06 15:34:27;1;107;106;107;106;106;106;106;106;106;106;
2023-06-06 15:34:27;2;108;108;108;108;108;108;108;108;108;108;
2023-06-06 15:34:27;3;101;101;101;101;101;101;101;101;101;101;
2023-06-06 15:34:27;ht;99;22.90
2023-06-06 15:34:27;v;4.25
2023-06-06 16:04:28;1;108;108;108;108;108;108;108;108;108;108;
2023-06-06 16:04:28;2;105;105;105;105;105;105;105;105;105;105;
2023-06-06 16:04:28;3;105;105;105;105;105;105;105;105;105;105;
2023-06-06 16:04:28;ht;99;22.90
2023-06-06 16:04:28;v;4.25
2023-06-06 16:34:24;1;93;93;93;92;93;93;93;93;93;92;
2023-06-06 16:34:24;2;102;102;101;101;101;101;101;101;102;101;
2023-06-06 16:34:24;3;98;98;98;98;98;98;98;98;98;98;
2023-06-06 16:34:24;ht;99;23.00
2023-06-06 16:34:24;v;4.25
2023-06-06 17:04:24;1;109;109;109;109;109;109;109;109;109;109;
2023-06-06 17:04:24;2;105;105;105;105;105;105;105;105;105;105;
2023-06-06 17:04:24;3;91;90;90;91;90;90;90;90;90;90;
2023-06-06 17:04:24;ht;99;22.20
2023-06-06 17:04:24;v;4.25
2023-06-06 17:34:24;1;108;108;108;108;108;108;108;108;108;108;
2023-06-06 17:34:24;2;102;102;102;102;102;104;104;105;104;105;
2023-06-06 17:34:24;3;101;101;101;101;101;101;102;102;101;102;
2023-06-06 17:34:24;ht;99;21.50
2023-06-06 17:34:24;v;4.25
2023-06-06 18:04:23;1;109;109;109;109;109;109;109;109;109;109;
2023-06-06 18:04:23;2;115;115;115;115;115;115;115;115;115;115;
2023-06-06 18:04:23;3;97;97;97;97;97;97;97;97;97;97;
2023-06-06 18:04:23;ht;99;20.20
2023-06-06 18:04:23;v;4.25
2023-06-06 18:34:25;1;99;98;99;99;98;99;99;98;99;99;
2023-06-06 18:34:25;2;115;115;115;115;115;115;115;115;115;115;
2023-06-06 18:34:25;3;116;116;116;116;116;116;116;116;116;116;
2023-06-06 18:34:25;ht;99;19.30
2023-06-06 18:34:25;v;4.25
2023-06-06 19:04:23;1;102;102;102;102;102;102;102;102;102;102;
2023-06-06 19:04:23;2;121;121;121;121;121;121;121;121;121;121;
2023-06-06 19:04:23;3;109;109;109;109;109;109;109;109;108;109;
2023-06-06 19:04:23;ht;99;19.20
2023-06-06 19:04:23;v;4.25
2023-06-06 19:34:25;1;108;108;108;108;108;108;108;108;108;108;
2023-06-06 19:34:25;2;115;115;115;115;115;115;115;115;115;115;
2023-06-06 19:34:25;3;107;107;106;106;106;106;106;106;106;107;
2023-06-06 19:34:25;ht;99;19.60
2023-06-06 19:34:25;v;4.25
2023-06-06 20:04:22;1;105;105;104;105;104;105;105;105;105;105;
2023-06-06 20:04:22;2;109;109;109;109;109;109;109;109;109;109;
2023-06-06 20:04:22;3;107;107;107;106;107;107;107;107;107;106;
2023-06-06 20:04:22;ht;99;19.00
2023-06-06 20:04:22;v;4.25
2023-06-06 20:34:24;1;108;108;108;108;108;108;108;108;108;108;
2023-06-06 20:34:24;2;106;106;106;106;106;106;106;106;106;106;
2023-06-06 20:34:24;3;104;103;103;104;103;104;103;104;104;103;
2023-06-06 20:34:24;ht;99;17.40
2023-06-06 20:34:24;v;4.25
2023-06-06 21:04:20;1;106;106;106;106;106;106;106;106;106;106;
2023-06-06 21:04:20;2;105;105;105;105;105;105;105;105;105;105;
2023-06-06 21:04:20;3;98;98;98;98;98;98;98;98;99;98;
2023-06-06 21:04:20;ht;99;17.70
2023-06-06 21:04:20;v;4.25
2023-06-06 21:34:21;1;108;108;108;108;109;108;108;108;108;108;
2023-06-06 21:34:21;2;3;3;3;3;3;3;3;3;3;3;
2023-06-06 21:34:21;3;107;107;107;106;107;107;107;107;107;107;
2023-06-06 21:34:21;ht;99;18.20
2023-06-06 21:34:21;v;4.25
2023-06-06 22:04:22;1;108;108;108;108;108;108;108;108;108;108;
2023-06-06 22:04:22;2;97;97;97;97;97;97;97;97;97;97;
2023-06-06 22:04:22;3;103;104;104;104;103;104;104;104;103;103;
2023-06-06 22:04:22;ht;99;18.50
2023-06-06 22:04:22;v;4.25
2023-06-06 22:34:23;1;103;103;103;103;103;103;103;103;103;103;
2023-06-06 22:34:23;2;98;98;98;98;98;98;98;98;98;98;
2023-06-06 22:34:23;3;108;108;108;108;108;108;108;108;107;108;
2023-06-06 22:34:23;ht;99;18.50
2023-06-06 22:34:23;v;4.25
2023-06-06 23:04:20;1;107;107;107;107;107;107;107;107;107;107;
2023-06-06 23:04:20;2;123;123;123;123;123;123;123;123;123;123;
2023-06-06 23:04:20;3;104;104;104;104;104;104;104;104;104;104;
2023-06-06 23:04:20;ht;99;18.50
2023-06-06 23:04:20;v;4.25
2023-06-06 23:34:21;1;106;106;106;106;106;106;106;106;106;106;
2023-06-06 23:34:21;2;104;104;104;104;104;104;104;104;104;104;
2023-06-06 23:34:21;3;107;107;107;107;107;107;107;107;107;107;
2023-06-06 23:34:21;ht;99;18.40
2023-06-06 23:34:21;v;4.25
