2024-02-24 00:04:26;1;84;84;83;83;84;84;83;83;83;83;
2024-02-24 00:04:26;2;103;104;104;103;103;103;103;103;103;104;
2024-02-24 00:04:26;3;66;66;66;66;66;66;67;67;67;68;
2024-02-24 00:04:26;ht;60;19.90
2024-02-24 00:04:26;v;4.23
2024-02-24 00:34:25;1;117;117;117;117;117;117;117;117;117;117;
2024-02-24 00:34:25;2;113;113;113;113;112;113;113;112;113;113;
2024-02-24 00:34:25;3;3;3;3;3;3;3;3;3;3;3;
2024-02-24 00:34:25;ht;60;19.90
2024-02-24 00:34:25;v;4.22
2024-02-24 01:04:24;1;122;122;122;122;122;122;122;122;122;122;
2024-02-24 01:04:24;2;105;105;105;106;105;106;106;105;106;106;
2024-02-24 01:04:24;3;3;2;3;3;2;3;2;3;3;3;
2024-02-24 01:04:24;ht;59;19.60
2024-02-24 01:04:24;v;4.23
2024-02-24 01:34:22;1;114;114;114;114;114;114;114;114;114;114;
2024-02-24 01:34:22;2;100;100;100;100;101;100;101;100;100;100;
2024-02-24 01:34:22;3;3;3;3;3;3;3;3;3;3;3;
2024-02-24 01:34:22;ht;63;19.40
2024-02-24 01:34:22;v;4.22
2024-02-24 02:04:25;1;117;117;117;117;117;117;117;117;117;117;
2024-02-24 02:04:25;2;105;105;105;105;105;105;105;105;105;105;
2024-02-24 02:04:25;3;67;67;67;67;68;67;67;67;67;67;
2024-02-24 02:04:25;ht;63;19.20
2024-02-24 02:04:25;v;4.23
2024-02-24 02:34:23;1;118;118;118;118;118;118;118;118;118;118;
2024-02-24 02:34:23;2;102;102;103;102;103;103;102;102;102;103;
2024-02-24 02:34:23;3;90;89;89;89;89;89;89;90;90;89;
2024-02-24 02:34:23;ht;61;19.10
2024-02-24 02:34:23;v;4.22
2024-02-24 03:04:26;1;166;167;167;167;166;167;166;167;167;166;
2024-02-24 03:04:26;2;99;99;99;99;99;99;99;99;99;99;
2024-02-24 03:04:26;3;64;64;64;64;64;64;64;64;64;64;
2024-02-24 03:04:26;ht;61;18.90
2024-02-24 03:04:26;v;4.22
2024-02-24 03:34:24;1;91;92;91;91;91;91;92;91;92;91;
2024-02-24 03:34:24;2;102;102;102;102;102;103;102;102;102;103;
2024-02-24 03:34:24;3;100;100;100;100;100;100;100;100;100;100;
2024-02-24 03:34:24;ht;57;18.90
2024-02-24 03:34:24;v;4.22
2024-02-24 04:04:22;1;109;109;109;109;109;109;109;109;109;109;
2024-02-24 04:04:22;2;103;103;103;103;103;103;103;103;103;103;
2024-02-24 04:04:22;3;74;74;74;74;74;74;74;74;74;74;
2024-02-24 04:04:22;ht;56;18.70
2024-02-24 04:04:22;v;4.22
2024-02-24 04:34:24;1;114;114;114;114;114;114;114;114;114;114;
2024-02-24 04:34:24;2;101;101;101;101;101;101;101;101;101;101;
2024-02-24 04:34:24;3;74;74;74;74;74;74;74;74;74;74;
2024-02-24 04:34:24;ht;56;18.70
2024-02-24 04:34:24;v;4.21
2024-02-24 05:04:22;1;112;112;112;112;112;112;112;112;112;112;
2024-02-24 05:04:22;2;105;105;105;106;106;106;106;105;105;105;
2024-02-24 05:04:22;3;75;75;75;75;75;75;75;75;75;75;
2024-02-24 05:04:22;ht;56;18.60
2024-02-24 05:04:22;v;4.22
2024-02-24 05:34:24;1;69;69;69;69;69;69;69;69;69;69;
2024-02-24 05:34:24;2;106;106;105;106;106;106;105;105;105;105;
2024-02-24 05:34:24;3;71;71;71;71;71;71;71;71;71;71;
2024-02-24 05:34:24;ht;56;18.60
2024-02-24 05:34:24;v;4.21
2024-02-24 06:04:22;1;74;74;74;74;74;74;74;74;74;74;
2024-02-24 06:04:22;2;106;105;105;106;106;105;105;105;106;106;
2024-02-24 06:04:22;3;72;72;72;72;72;72;72;72;72;72;
2024-02-24 06:04:22;ht;56;18.60
2024-02-24 06:04:22;v;4.22
2024-02-24 06:34:24;1;69;69;69;69;69;69;69;69;69;69;
2024-02-24 06:34:24;2;100;100;100;100;100;100;100;100;100;100;
2024-02-24 06:34:24;3;73;73;73;74;73;73;73;74;73;73;
2024-02-24 06:34:24;ht;56;18.40
2024-02-24 06:34:24;v;4.21
2024-02-24 07:04:22;1;77;77;77;77;77;77;77;77;77;77;
2024-02-24 07:04:22;2;101;102;101;102;102;101;101;102;101;101;
2024-02-24 07:04:22;3;74;73;73;73;73;73;73;73;74;73;
2024-02-24 07:04:22;ht;58;18.60
2024-02-24 07:04:22;v;4.21
2024-02-24 07:34:24;1;70;70;70;70;70;70;71;70;70;70;
2024-02-24 07:34:24;2;96;96;96;96;96;96;96;96;96;96;
2024-02-24 07:34:24;3;75;75;75;75;75;75;76;75;75;75;
2024-02-24 07:34:24;ht;56;18.80
2024-02-24 07:34:24;v;4.22
2024-02-24 08:04:24;1;77;77;78;77;77;77;77;77;77;77;
2024-02-24 08:04:24;2;78;78;78;78;78;78;78;78;78;78;
2024-02-24 08:04:24;3;67;67;67;67;67;67;67;67;67;67;
2024-02-24 08:04:24;ht;93;21.20
2024-02-24 08:04:24;v;4.22
2024-02-24 08:34:26;1;76;75;76;76;76;76;76;75;75;75;
2024-02-24 08:34:26;2;104;105;105;104;105;105;104;105;105;105;
2024-02-24 08:34:26;3;68;68;68;68;68;68;68;68;68;68;
2024-02-24 08:34:26;ht;85;21.30
2024-02-24 08:34:26;v;4.22
2024-02-24 09:04:28;1;72;73;73;73;72;72;72;72;73;72;
2024-02-24 09:04:28;2;83;83;83;83;83;83;83;83;83;83;
2024-02-24 09:04:28;3;73;73;73;73;73;73;73;73;73;74;
2024-02-24 09:04:28;ht;94;22.30
2024-02-24 09:04:28;v;4.22
2024-02-24 09:34:28;1;70;69;69;69;69;69;69;69;69;70;
2024-02-24 09:34:28;2;76;76;76;76;76;76;76;76;76;76;
2024-02-24 09:34:28;3;70;70;70;70;70;70;70;70;70;70;
2024-02-24 09:34:28;ht;97;23.30
2024-02-24 09:34:28;v;4.22
2024-02-24 10:04:29;1;82;81;81;81;81;82;82;82;82;82;
2024-02-24 10:04:29;2;92;92;92;93;92;92;92;92;92;92;
2024-02-24 10:04:29;3;67;67;67;68;68;67;67;67;67;67;
2024-02-24 10:04:29;ht;97;24.80
2024-02-24 10:04:29;v;4.22
2024-02-24 10:34:32;1;125;125;125;125;125;125;125;125;125;125;
2024-02-24 10:34:32;2;101;102;102;102;102;102;102;102;102;102;
2024-02-24 10:34:32;3;68;68;68;68;68;68;68;68;68;68;
2024-02-24 10:34:32;ht;97;25.40
2024-02-24 10:34:32;v;4.22
2024-02-24 11:04:29;1;71;70;71;70;71;70;70;70;71;71;
2024-02-24 11:04:29;2;3;3;3;3;3;3;3;3;3;3;
2024-02-24 11:04:29;3;72;72;72;72;73;72;72;72;72;72;
2024-02-24 11:04:29;ht;95;27.00
2024-02-24 11:04:29;v;4.22
2024-02-24 11:34:32;1;70;70;69;70;70;69;69;69;70;69;
2024-02-24 11:34:32;2;68;68;68;69;68;69;69;69;68;68;
2024-02-24 11:34:32;3;72;72;72;72;72;72;72;72;72;72;
2024-02-24 11:34:32;ht;95;26.60
2024-02-24 11:34:32;v;4.22
2024-02-24 12:04:30;1;69;69;69;68;69;68;68;69;68;68;
2024-02-24 12:04:30;2;71;71;71;71;71;71;71;71;71;71;
2024-02-24 12:04:30;3;67;66;66;66;66;66;66;67;66;66;
2024-02-24 12:04:30;ht;93;27.50
2024-02-24 12:04:30;v;4.22
2024-02-24 12:34:34;1;67;67;68;67;67;67;67;67;67;68;
2024-02-24 12:34:34;2;77;77;77;77;77;77;77;77;77;77;
2024-02-24 12:34:34;3;67;68;67;68;67;67;67;68;67;67;
2024-02-24 12:34:34;ht;95;27.00
2024-02-24 12:34:34;v;4.22
2024-02-24 13:04:31;1;73;73;73;73;73;73;73;73;73;73;
2024-02-24 13:04:31;2;3;3;2;3;2;3;3;3;3;3;
2024-02-24 13:04:31;3;67;68;67;68;67;68;67;67;67;68;
2024-02-24 13:04:31;ht;95;27.30
2024-02-24 13:04:31;v;4.23
2024-02-24 13:34:33;1;67;67;67;67;67;67;67;67;67;67;
2024-02-24 13:34:33;2;101;101;101;101;102;101;101;102;102;101;
2024-02-24 13:34:33;3;72;72;72;72;72;72;72;72;72;72;
2024-02-24 13:34:33;ht;94;27.40
2024-02-24 13:34:33;v;4.22
2024-02-24 14:04:30;1;71;71;71;71;71;71;71;71;71;71;
2024-02-24 14:04:30;2;99;99;99;99;99;99;99;99;99;99;
2024-02-24 14:04:30;3;69;68;68;69;68;68;68;68;68;68;
2024-02-24 14:04:30;ht;97;27.00
2024-02-24 14:04:30;v;4.23
2024-02-24 14:34:31;1;68;67;67;67;67;68;68;67;67;67;
2024-02-24 14:34:31;2;99;99;99;99;99;99;99;99;100;100;
2024-02-24 14:34:31;3;73;73;73;74;73;73;73;74;73;73;
2024-02-24 14:34:31;ht;97;26.30
2024-02-24 14:34:31;v;4.23
2024-02-24 15:04:31;1;67;67;67;67;67;67;67;67;67;67;
2024-02-24 15:04:31;2;74;74;74;74;74;74;74;74;74;74;
2024-02-24 15:04:31;3;66;66;67;66;66;66;66;67;66;66;
2024-02-24 15:04:31;ht;97;26.30
2024-02-24 15:04:31;v;4.23
2024-02-24 15:34:30;1;67;68;67;67;67;67;67;68;67;67;
2024-02-24 15:34:30;2;73;73;73;73;73;73;73;73;73;73;
2024-02-24 15:34:30;3;71;71;72;71;71;71;71;71;71;71;
2024-02-24 15:34:30;ht;97;26.00
2024-02-24 15:34:30;v;4.23
2024-02-24 16:04:29;1;66;66;66;66;67;66;66;66;66;66;
2024-02-24 16:04:29;2;104;105;104;105;105;105;105;105;105;105;
2024-02-24 16:04:29;3;75;75;76;76;75;75;75;75;75;75;
2024-02-24 16:04:29;ht;96;25.40
2024-02-24 16:04:29;v;4.23
2024-02-24 16:34:27;1;70;69;69;69;70;69;69;69;70;69;
2024-02-24 16:34:27;2;101;102;101;101;102;101;101;101;101;101;
2024-02-24 16:34:27;3;67;66;67;67;66;66;67;66;66;66;
2024-02-24 16:34:27;ht;94;26.30
2024-02-24 16:34:27;v;4.23
2024-02-24 17:04:31;1;82;82;82;82;82;82;82;82;82;82;
2024-02-24 17:04:31;2;83;83;83;83;83;83;83;83;83;83;
2024-02-24 17:04:31;3;71;71;71;71;71;71;71;71;71;71;
2024-02-24 17:04:31;ht;97;25.70
2024-02-24 17:04:31;v;4.23
2024-02-24 17:34:30;1;68;68;68;68;68;68;68;68;68;68;
2024-02-24 17:34:30;2;75;75;75;75;75;75;75;75;75;75;
2024-02-24 17:34:30;3;89;89;90;90;89;90;90;90;90;89;
2024-02-24 17:34:30;ht;97;25.50
2024-02-24 17:34:30;v;4.23
2024-02-24 18:04:28;1;83;83;83;83;83;83;83;83;83;83;
2024-02-24 18:04:28;2;100;100;100;100;100;100;100;100;100;100;
2024-02-24 18:04:28;3;70;70;70;70;70;70;70;70;70;70;
2024-02-24 18:04:28;ht;90;24.70
2024-02-24 18:04:28;v;4.21
2024-02-24 18:34:26;1;74;74;74;74;74;73;74;74;74;74;
2024-02-24 18:34:26;2;2;2;2;2;2;2;2;3;2;2;
2024-02-24 18:34:26;3;70;70;70;70;70;70;70;70;70;70;
2024-02-24 18:34:26;ht;87;24.30
2024-02-24 18:34:26;v;4.19
2024-02-24 19:04:28;1;67;67;67;67;67;67;67;67;67;67;
2024-02-24 19:04:28;2;105;105;105;105;105;105;105;105;105;105;
2024-02-24 19:04:28;3;76;76;76;76;76;76;76;76;76;76;
2024-02-24 19:04:28;ht;71;23.80
2024-02-24 19:04:28;v;4.23
2024-02-24 19:34:24;1;69;69;69;69;69;69;69;69;69;69;
2024-02-24 19:34:24;2;103;103;103;103;103;103;103;103;103;103;
2024-02-24 19:34:24;3;70;70;70;70;70;70;70;70;70;70;
2024-02-24 19:34:24;ht;74;23.30
2024-02-24 19:34:24;v;4.23
2024-02-24 20:04:25;1;67;68;67;67;67;67;67;67;67;67;
2024-02-24 20:04:25;2;103;103;103;103;103;103;103;103;103;103;
2024-02-24 20:04:25;3;72;72;79;74;73;72;72;72;72;72;
2024-02-24 20:04:25;ht;76;23.20
2024-02-24 20:04:25;v;4.23
2024-02-24 20:34:26;1;71;71;71;71;71;71;71;71;71;71;
2024-02-24 20:34:26;2;103;103;103;103;103;103;103;103;103;103;
2024-02-24 20:34:26;3;73;73;73;73;73;73;73;72;73;73;
2024-02-24 20:34:26;ht;70;23.00
2024-02-24 20:34:26;v;4.23
2024-02-24 21:04:27;1;67;67;67;67;67;67;67;67;67;67;
2024-02-24 21:04:27;2;105;105;105;105;105;105;105;105;105;105;
2024-02-24 21:04:27;3;79;79;79;79;79;79;79;80;79;80;
2024-02-24 21:04:27;ht;65;23.00
2024-02-24 21:04:27;v;4.23
2024-02-24 21:34:28;1;68;68;68;68;68;68;68;68;68;68;
2024-02-24 21:34:28;2;102;102;102;102;102;102;102;102;102;102;
2024-02-24 21:34:28;3;105;105;105;105;105;105;105;105;105;105;
2024-02-24 21:34:28;ht;63;23.00
2024-02-24 21:34:28;v;4.23
2024-02-24 22:04:24;1;67;67;67;67;67;67;67;67;67;67;
2024-02-24 22:04:24;2;105;105;105;105;105;105;105;105;105;105;
2024-02-24 22:04:24;3;73;73;73;73;73;73;73;73;73;73;
2024-02-24 22:04:24;ht;57;22.80
2024-02-24 22:04:24;v;4.22
2024-02-24 22:34:24;1;133;133;133;133;133;133;133;132;133;132;
2024-02-24 22:34:24;2;102;102;102;102;102;102;102;102;102;102;
2024-02-24 22:34:24;3;66;66;66;66;66;66;66;66;71;68;
2024-02-24 22:34:24;ht;55;22.60
2024-02-24 22:34:24;v;4.22
2024-02-24 23:04:25;1;68;67;68;67;68;68;68;68;68;68;
2024-02-24 23:04:25;2;101;101;101;101;101;101;101;101;101;101;
2024-02-24 23:04:25;3;73;74;79;75;74;73;73;73;73;73;
2024-02-24 23:04:25;ht;56;22.70
2024-02-24 23:04:25;v;4.23
2024-02-24 23:34:25;1;67;67;67;67;67;67;67;67;67;67;
2024-02-24 23:34:25;2;100;100;100;100;100;100;100;100;100;100;
2024-02-24 23:34:25;3;116;116;116;116;116;116;116;116;116;116;
2024-02-24 23:34:25;ht;56;22.70
2024-02-24 23:34:25;v;4.21
