2024-06-12 00:04:20;1;105;105;105;105;105;104;105;105;104;104;
2024-06-12 00:04:20;2;99;99;99;99;99;99;98;98;98;98;
2024-06-12 00:04:20;3;91;91;91;91;91;91;91;91;91;91;
2024-06-12 00:04:20;ht;24;14.50
2024-06-12 00:04:20;v;4.23
2024-06-12 00:34:19;1;99;99;100;99;99;100;99;99;99;99;
2024-06-12 00:34:19;2;104;103;104;104;103;104;104;104;103;104;
2024-06-12 00:34:19;3;93;92;92;92;93;93;93;93;93;92;
2024-06-12 00:34:19;ht;25;15.00
2024-06-12 00:34:19;v;4.22
2024-06-12 01:04:19;1;100;100;100;100;99;100;101;99;99;99;
2024-06-12 01:04:19;2;103;104;103;103;104;103;103;103;103;103;
2024-06-12 01:04:19;3;115;115;115;115;115;115;116;115;116;116;
2024-06-12 01:04:19;ht;24;14.80
2024-06-12 01:04:19;v;4.23
2024-06-12 01:34:23;1;99;100;99;100;99;99;100;100;99;100;
2024-06-12 01:34:23;2;110;110;110;110;110;110;110;110;110;110;
2024-06-12 01:34:23;3;3;3;3;3;3;3;3;3;3;3;
2024-06-12 01:34:23;ht;24;15.40
2024-06-12 01:34:23;v;4.22
2024-06-12 02:04:19;1;111;111;111;111;111;111;111;111;111;111;
2024-06-12 02:04:19;2;100;100;100;101;101;102;102;103;103;104;
2024-06-12 02:04:19;3;117;118;118;118;118;118;118;118;118;118;
2024-06-12 02:04:19;ht;24;15.30
2024-06-12 02:04:19;v;4.23
2024-06-12 02:34:23;1;111;111;111;111;111;111;111;111;111;111;
2024-06-12 02:34:23;2;110;110;110;110;110;110;110;110;110;110;
2024-06-12 02:34:23;3;91;91;92;92;93;93;94;95;95;96;
2024-06-12 02:34:23;ht;24;15.00
2024-06-12 02:34:23;v;4.22
2024-06-12 03:04:23;1;98;98;98;98;98;98;98;98;98;98;
2024-06-12 03:04:23;2;98;98;98;98;98;98;99;98;98;98;
2024-06-12 03:04:23;3;3;3;3;3;2;3;3;3;3;3;
2024-06-12 03:04:23;ht;23;14.40
2024-06-12 03:04:23;v;4.22
2024-06-12 03:34:22;1;98;98;97;98;98;97;97;97;98;98;
2024-06-12 03:34:22;2;98;98;97;98;97;98;98;97;98;97;
2024-06-12 03:34:22;3;3;3;3;3;3;3;3;3;3;3;
2024-06-12 03:34:22;ht;24;14.60
2024-06-12 03:34:22;v;4.22
2024-06-12 04:04:22;1;100;100;100;100;100;100;100;100;100;100;
2024-06-12 04:04:22;2;99;99;99;99;99;99;99;100;99;99;
2024-06-12 04:04:22;3;3;3;3;3;3;3;3;3;3;3;
2024-06-12 04:04:22;ht;24;14.90
2024-06-12 04:04:22;v;4.23
2024-06-12 04:34:21;1;100;100;100;100;100;100;99;100;100;100;
2024-06-12 04:34:21;2;98;98;98;98;98;98;98;98;98;98;
2024-06-12 04:34:21;3;104;103;103;101;100;99;98;98;97;96;
2024-06-12 04:34:21;ht;25;15.20
2024-06-12 04:34:21;v;4.22
2024-06-12 05:04:21;1;101;101;101;101;101;101;101;101;101;101;
2024-06-12 05:04:21;2;98;99;98;98;98;98;98;98;98;98;
2024-06-12 05:04:21;3;91;91;91;91;91;91;91;91;91;91;
2024-06-12 05:04:21;ht;26;15.10
2024-06-12 05:04:21;v;4.22
2024-06-12 05:34:21;1;101;101;101;101;100;101;101;100;100;100;
2024-06-12 05:34:21;2;96;96;96;96;96;96;96;96;96;96;
2024-06-12 05:34:21;3;127;127;127;127;127;127;127;127;127;127;
2024-06-12 05:34:21;ht;26;15.20
2024-06-12 05:34:21;v;4.22
2024-06-12 06:04:21;1;108;108;108;108;108;108;108;108;108;108;
2024-06-12 06:04:21;2;97;97;97;97;97;97;97;97;97;97;
2024-06-12 06:04:21;3;117;117;117;117;117;117;117;117;117;117;
2024-06-12 06:04:21;ht;27;15.70
2024-06-12 06:04:21;v;4.22
2024-06-12 06:34:21;1;94;94;92;92;92;92;92;92;92;92;
2024-06-12 06:34:21;2;97;97;97;97;97;97;97;97;97;97;
2024-06-12 06:34:21;3;90;90;90;90;90;90;90;90;90;90;
2024-06-12 06:34:21;ht;28;16.20
2024-06-12 06:34:21;v;4.22
2024-06-12 07:04:22;1;93;93;92;92;92;92;93;92;93;92;
2024-06-12 07:04:22;2;101;101;101;101;102;101;101;101;101;101;
2024-06-12 07:04:22;3;81;81;81;81;81;81;81;81;81;81;
2024-06-12 07:04:22;ht;28;16.60
2024-06-12 07:04:22;v;4.22
2024-06-12 07:34:23;1;93;93;93;93;93;92;93;92;93;93;
2024-06-12 07:34:23;2;98;98;99;98;98;98;98;98;98;98;
2024-06-12 07:34:23;3;89;90;90;90;91;91;92;92;92;92;
2024-06-12 07:34:23;ht;29;17.00
2024-06-12 07:34:23;v;4.22
2024-06-12 08:04:24;1;99;99;99;98;98;98;99;98;98;98;
2024-06-12 08:04:24;2;100;100;100;100;100;100;100;100;100;100;
2024-06-12 08:04:24;3;89;89;89;89;89;89;89;90;89;89;
2024-06-12 08:04:24;ht;28;17.30
2024-06-12 08:04:24;v;4.22
2024-06-12 08:34:20;1;90;90;89;90;90;90;89;90;89;89;
2024-06-12 08:34:20;2;95;95;95;96;95;95;95;95;95;95;
2024-06-12 08:34:20;3;87;88;88;87;87;87;87;87;87;87;
2024-06-12 08:34:20;ht;28;17.60
2024-06-12 08:34:20;v;4.22
2024-06-12 09:04:22;1;94;94;94;94;94;94;94;94;93;94;
2024-06-12 09:04:22;2;96;96;96;96;96;96;96;96;96;96;
2024-06-12 09:04:22;3;114;114;114;114;114;114;114;114;114;114;
2024-06-12 09:04:22;ht;25;18.60
2024-06-12 09:04:22;v;4.21
2024-06-12 09:34:25;1;91;90;91;91;91;91;90;90;90;91;
2024-06-12 09:34:25;2;96;96;96;96;96;96;96;96;96;96;
2024-06-12 09:34:25;3;88;88;89;88;89;88;89;88;88;88;
2024-06-12 09:34:25;ht;22;19.30
2024-06-12 09:34:25;v;4.22
2024-06-12 10:04:24;1;91;91;91;91;91;91;91;91;91;91;
2024-06-12 10:04:24;2;94;95;94;94;94;94;94;94;94;94;
2024-06-12 10:04:24;3;88;87;88;88;88;88;88;88;88;88;
2024-06-12 10:04:24;ht;13;20.80
2024-06-12 10:04:24;v;4.22
2024-06-12 10:34:25;1;90;90;90;90;90;90;90;90;90;90;
2024-06-12 10:34:25;2;100;100;100;100;100;100;100;100;100;100;
2024-06-12 10:34:25;3;86;86;86;86;86;86;86;86;86;86;
2024-06-12 10:34:25;ht;92;22.80
2024-06-12 10:34:25;v;4.22
2024-06-12 11:04:28;1;90;90;90;90;90;90;90;90;90;90;
2024-06-12 11:04:28;2;102;102;102;102;102;102;102;102;102;102;
2024-06-12 11:04:28;3;93;94;94;93;93;94;93;93;94;94;
2024-06-12 11:04:28;ht;97;24.10
2024-06-12 11:04:28;v;4.22
2024-06-12 11:34:27;1;91;91;91;90;91;91;91;91;90;90;
2024-06-12 11:34:27;2;105;105;105;105;105;105;105;105;105;105;
2024-06-12 11:34:27;3;93;93;93;93;93;93;93;93;93;93;
2024-06-12 11:34:27;ht;97;25.10
2024-06-12 11:34:27;v;4.22
2024-06-12 12:04:32;1;91;91;91;91;91;90;91;91;91;91;
2024-06-12 12:04:32;2;106;106;106;106;106;106;105;106;106;106;
2024-06-12 12:04:32;3;111;111;111;111;111;111;111;111;111;111;
2024-06-12 12:04:32;ht;97;26.90
2024-06-12 12:04:32;v;4.22
2024-06-12 12:34:29;1;91;91;91;91;90;91;90;90;90;90;
2024-06-12 12:34:29;2;101;101;101;101;101;101;101;101;101;101;
2024-06-12 12:34:29;3;87;87;87;87;87;87;87;87;87;87;
2024-06-12 12:34:29;ht;94;28.40
2024-06-12 12:34:29;v;4.22
2024-06-12 13:04:32;1;90;90;90;90;90;90;90;90;90;90;
2024-06-12 13:04:32;2;103;103;103;103;103;103;103;103;103;103;
2024-06-12 13:04:32;3;89;89;89;89;89;89;89;89;89;89;
2024-06-12 13:04:32;ht;92;28.40
2024-06-12 13:04:32;v;4.23
2024-06-12 13:34:30;1;92;91;91;91;91;91;92;92;91;91;
2024-06-12 13:34:30;2;103;103;103;103;103;103;103;103;103;103;
2024-06-12 13:34:30;3;89;89;89;89;90;89;89;90;89;90;
2024-06-12 13:34:30;ht;88;29.80
2024-06-12 13:34:30;v;4.22
2024-06-12 14:04:33;1;96;96;96;96;96;96;96;96;96;96;
2024-06-12 14:04:33;2;105;106;105;105;105;105;105;105;105;105;
2024-06-12 14:04:33;3;95;95;95;95;95;95;96;95;95;95;
2024-06-12 14:04:33;ht;86;29.50
2024-06-12 14:04:33;v;4.23
2024-06-12 14:34:31;1;93;94;93;93;93;93;93;93;93;93;
2024-06-12 14:34:31;2;102;102;102;102;102;102;102;102;102;102;
2024-06-12 14:34:31;3;2;3;2;2;3;2;3;3;2;2;
2024-06-12 14:34:31;ht;84;30.70
2024-06-12 14:34:31;v;4.22
2024-06-12 15:04:30;1;118;118;118;118;118;118;118;118;118;118;
2024-06-12 15:04:30;2;104;104;104;104;104;104;104;104;104;104;
2024-06-12 15:04:30;3;104;104;103;104;104;103;103;104;103;104;
2024-06-12 15:04:30;ht;85;30.40
2024-06-12 15:04:30;v;4.23
2024-06-12 15:34:34;1;91;91;91;91;91;91;91;91;91;91;
2024-06-12 15:34:34;2;105;104;105;105;105;105;105;105;105;105;
2024-06-12 15:34:34;3;115;115;115;115;115;115;115;115;115;115;
2024-06-12 15:34:34;ht;83;30.60
2024-06-12 15:34:34;v;4.22
2024-06-12 16:04:34;1;102;102;102;102;102;101;102;102;102;102;
2024-06-12 16:04:34;2;100;99;99;99;99;99;99;99;99;99;
2024-06-12 16:04:34;3;114;114;114;114;114;114;114;114;114;114;
2024-06-12 16:04:34;ht;84;30.30
2024-06-12 16:04:34;v;4.23
2024-06-12 16:34:33;1;96;96;96;96;95;96;96;96;96;96;
2024-06-12 16:34:33;2;101;101;101;101;101;101;101;101;101;101;
2024-06-12 16:34:33;3;3;3;3;3;3;3;3;3;3;3;
2024-06-12 16:34:33;ht;86;29.70
2024-06-12 16:34:33;v;4.22
2024-06-12 17:04:31;1;96;96;96;96;96;96;96;96;96;96;
2024-06-12 17:04:31;2;93;93;93;93;93;93;93;93;93;93;
2024-06-12 17:04:31;3;86;86;86;87;86;86;86;86;86;86;
2024-06-12 17:04:31;ht;89;29.10
2024-06-12 17:04:31;v;4.23
2024-06-12 17:34:29;1;99;99;99;99;99;99;99;99;99;100;
2024-06-12 17:34:29;2;96;96;96;96;96;96;96;96;96;96;
2024-06-12 17:34:29;3;91;91;91;91;91;91;91;91;91;91;
2024-06-12 17:34:29;ht;95;27.40
2024-06-12 17:34:29;v;4.23
2024-06-12 18:04:29;1;104;104;104;104;104;104;104;104;104;104;
2024-06-12 18:04:29;2;94;94;94;94;94;94;94;94;94;94;
2024-06-12 18:04:29;3;111;111;111;111;111;111;111;111;111;111;
2024-06-12 18:04:29;ht;97;25.40
2024-06-12 18:04:29;v;4.23
2024-06-12 18:34:26;1;109;109;109;109;109;109;108;109;109;108;
2024-06-12 18:34:26;2;97;97;97;97;97;97;97;97;97;97;
2024-06-12 18:34:26;3;3;3;2;3;3;3;3;3;3;3;
2024-06-12 18:34:26;ht;97;24.80
2024-06-12 18:34:26;v;4.23
2024-06-12 19:04:28;1;114;114;114;114;114;114;114;114;114;114;
2024-06-12 19:04:28;2;100;100;100;100;100;100;100;101;100;100;
2024-06-12 19:04:28;3;100;100;100;100;100;100;100;100;100;100;
2024-06-12 19:04:28;ht;97;25.00
2024-06-12 19:04:28;v;4.23
2024-06-12 19:34:25;1;115;116;116;115;115;116;116;116;115;115;
2024-06-12 19:34:25;2;98;98;98;98;98;98;98;98;98;98;
2024-06-12 19:34:25;3;95;95;95;95;95;95;95;95;95;95;
2024-06-12 19:34:25;ht;97;25.10
2024-06-12 19:34:25;v;4.23
2024-06-12 20:04:26;1;120;120;120;120;120;120;120;120;120;120;
2024-06-12 20:04:26;2;99;99;99;99;99;99;99;99;99;99;
2024-06-12 20:04:26;3;102;102;102;102;102;102;102;102;102;102;
2024-06-12 20:04:26;ht;97;24.60
2024-06-12 20:04:26;v;4.23
2024-06-12 20:34:28;1;92;92;92;92;93;92;92;92;92;92;
2024-06-12 20:34:28;2;102;103;103;102;102;102;102;102;102;102;
2024-06-12 20:34:28;3;105;105;105;105;105;105;105;105;105;105;
2024-06-12 20:34:28;ht;97;24.60
2024-06-12 20:34:28;v;4.23
2024-06-12 21:04:24;1;93;93;93;93;93;92;93;92;92;92;
2024-06-12 21:04:24;2;102;102;102;102;102;102;102;103;102;102;
2024-06-12 21:04:24;3;105;105;105;105;105;105;105;105;105;105;
2024-06-12 21:04:24;ht;97;24.40
2024-06-12 21:04:24;v;4.23
2024-06-12 21:34:25;1;94;94;94;94;94;94;94;94;94;94;
2024-06-12 21:34:25;2;101;101;101;101;101;101;101;101;101;101;
2024-06-12 21:34:25;3;105;105;105;105;105;105;105;105;105;105;
2024-06-12 21:34:25;ht;97;23.50
2024-06-12 21:34:25;v;4.23
2024-06-12 22:04:26;1;122;122;122;122;122;122;122;122;122;122;
2024-06-12 22:04:26;2;105;105;105;105;105;105;105;105;105;105;
2024-06-12 22:04:26;3;110;110;110;110;110;110;110;110;110;110;
2024-06-12 22:04:26;ht;97;22.90
2024-06-12 22:04:26;v;4.23
2024-06-12 22:34:26;1;98;98;98;98;98;98;98;98;98;98;
2024-06-12 22:34:26;2;103;103;103;103;103;103;103;103;103;105;
2024-06-12 22:34:26;3;105;105;105;105;105;105;105;109;107;105;
2024-06-12 22:34:26;ht;97;22.90
2024-06-12 22:34:26;v;4.23
2024-06-12 23:04:26;1;128;128;128;128;128;128;128;128;128;128;
2024-06-12 23:04:26;2;102;102;101;102;102;101;101;101;101;102;
2024-06-12 23:04:26;3;120;120;120;120;120;120;120;120;120;120;
2024-06-12 23:04:26;ht;97;23.00
2024-06-12 23:04:26;v;4.23
2024-06-12 23:34:27;1;102;102;102;102;102;102;101;102;102;101;
2024-06-12 23:34:27;2;99;99;99;99;99;99;99;99;99;99;
2024-06-12 23:34:27;3;97;98;98;98;98;98;98;98;98;98;
2024-06-12 23:34:27;ht;97;24.00
2024-06-12 23:34:27;v;4.23
