2024-01-29 00:04:23;1;86;86;86;86;86;86;86;86;86;86;
2024-01-29 00:04:23;2;71;71;71;71;71;71;71;71;71;71;
2024-01-29 00:04:23;3;66;65;65;65;65;65;65;65;65;65;
2024-01-29 00:04:23;ht;97;19.10
2024-01-29 00:04:23;v;4.25
2024-01-29 00:34:21;1;92;92;92;92;92;92;91;92;92;92;
2024-01-29 00:34:21;2;64;64;64;64;64;64;64;64;64;64;
2024-01-29 00:34:21;3;77;77;77;77;77;77;77;77;77;77;
2024-01-29 00:34:21;ht;85;17.90
2024-01-29 00:34:21;v;4.24
2024-01-29 01:04:23;1;91;91;91;91;91;91;91;91;91;91;
2024-01-29 01:04:23;2;62;62;62;62;62;62;62;62;62;62;
2024-01-29 01:04:23;3;105;105;105;105;105;105;105;105;105;105;
2024-01-29 01:04:23;ht;81;17.70
2024-01-29 01:04:23;v;4.25
2024-01-29 01:34:21;1;78;78;78;78;78;78;78;78;78;78;
2024-01-29 01:34:21;2;103;103;104;103;103;103;103;103;103;104;
2024-01-29 01:34:21;3;103;103;103;103;103;103;103;103;103;103;
2024-01-29 01:34:21;ht;73;17.60
2024-01-29 01:34:21;v;4.24
2024-01-29 02:04:23;1;125;125;125;125;125;125;125;125;125;125;
2024-01-29 02:04:23;2;99;99;99;99;99;99;99;99;99;99;
2024-01-29 02:04:23;3;103;103;103;104;103;103;103;104;103;103;
2024-01-29 02:04:23;ht;67;17.70
2024-01-29 02:04:23;v;4.25
2024-01-29 02:34:25;1;126;126;126;126;126;126;126;126;127;126;
2024-01-29 02:34:25;2;105;105;105;106;105;105;106;106;105;105;
2024-01-29 02:34:25;3;101;101;101;101;101;101;101;101;101;100;
2024-01-29 02:34:25;ht;72;18.20
2024-01-29 02:34:25;v;4.24
2024-01-29 03:04:22;1;67;67;67;67;67;67;67;67;67;67;
2024-01-29 03:04:22;2;105;105;105;105;105;105;105;105;105;105;
2024-01-29 03:04:22;3;107;107;107;107;107;107;107;107;107;107;
2024-01-29 03:04:22;ht;84;18.50
2024-01-29 03:04:22;v;4.25
2024-01-29 03:34:25;1;66;66;66;66;66;66;66;66;66;66;
2024-01-29 03:34:25;2;65;65;65;65;65;65;65;65;65;65;
2024-01-29 03:34:25;3;68;68;68;68;68;68;68;68;68;68;
2024-01-29 03:34:25;ht;68;18.00
2024-01-29 03:34:25;v;4.24
2024-01-29 04:04:22;1;3;3;3;2;3;3;2;3;3;3;
2024-01-29 04:04:22;2;99;99;99;99;99;99;99;99;99;99;
2024-01-29 04:04:22;3;67;67;67;67;67;67;67;67;67;67;
2024-01-29 04:04:22;ht;63;17.10
2024-01-29 04:04:22;v;4.24
2024-01-29 04:34:24;1;65;65;65;65;65;65;65;65;65;65;
2024-01-29 04:34:24;2;65;65;65;65;65;65;65;65;65;65;
2024-01-29 04:34:24;3;103;103;103;103;103;103;103;103;103;103;
2024-01-29 04:34:24;ht;61;16.30
2024-01-29 04:34:24;v;4.24
2024-01-29 05:04:20;1;67;67;67;67;67;67;67;67;67;67;
2024-01-29 05:04:20;2;64;64;64;64;64;64;64;64;64;64;
2024-01-29 05:04:20;3;75;74;74;74;74;75;74;74;74;74;
2024-01-29 05:04:20;ht;62;16.70
2024-01-29 05:04:20;v;4.24
2024-01-29 05:34:22;1;78;78;78;78;78;78;78;78;78;78;
2024-01-29 05:34:22;2;62;62;62;62;62;62;62;62;62;62;
2024-01-29 05:34:22;3;3;3;3;3;2;3;3;3;3;3;
2024-01-29 05:34:22;ht;59;16.30
2024-01-29 05:34:22;v;4.24
2024-01-29 06:04:23;1;59;59;59;59;59;59;59;59;59;59;
2024-01-29 06:04:23;2;76;76;76;76;76;76;76;76;76;76;
2024-01-29 06:04:23;3;75;75;75;75;75;75;75;75;75;75;
2024-01-29 06:04:23;ht;78;17.50
2024-01-29 06:04:23;v;4.24
2024-01-29 06:34:24;1;56;56;56;56;56;56;56;56;56;56;
2024-01-29 06:34:24;2;65;65;65;65;65;65;65;65;65;65;
2024-01-29 06:34:24;3;55;55;55;55;55;55;55;55;55;55;
2024-01-29 06:34:24;ht;64;16.90
2024-01-29 06:34:24;v;4.24
2024-01-29 07:04:22;1;56;56;56;56;56;56;56;56;56;56;
2024-01-29 07:04:22;2;63;63;63;63;63;63;63;63;63;63;
2024-01-29 07:04:22;3;54;54;54;54;54;54;54;54;54;54;
2024-01-29 07:04:22;ht;97;20.80
2024-01-29 07:04:22;v;4.24
2024-01-29 07:34:28;1;56;56;56;56;56;56;56;56;56;56;
2024-01-29 07:34:28;2;64;64;64;64;64;64;64;64;64;64;
2024-01-29 07:34:28;3;61;61;61;61;61;61;61;62;61;62;
2024-01-29 07:34:28;ht;97;24.00
2024-01-29 07:34:28;v;4.24
2024-01-29 08:04:29;1;67;67;67;67;67;67;67;67;66;67;
2024-01-29 08:04:29;2;66;66;66;66;65;65;66;66;65;65;
2024-01-29 08:04:29;3;53;53;53;53;53;53;53;53;53;53;
2024-01-29 08:04:29;ht;97;25.70
2024-01-29 08:04:29;v;4.23
2024-01-29 08:34:34;1;61;61;61;61;61;61;61;62;61;61;
2024-01-29 08:34:34;2;68;68;68;68;68;68;68;68;68;68;
2024-01-29 08:34:34;3;52;52;52;52;52;52;52;52;52;52;
2024-01-29 08:34:34;ht;93;27.80
2024-01-29 08:34:34;v;4.23
2024-01-29 09:04:36;1;55;55;55;55;55;55;55;55;55;55;
2024-01-29 09:04:36;2;60;60;60;60;60;60;60;60;60;60;
2024-01-29 09:04:36;3;64;64;64;64;64;64;64;64;64;64;
2024-01-29 09:04:36;ht;91;27.90
2024-01-29 09:04:36;v;4.23
2024-01-29 09:34:34;1;57;57;57;57;57;57;57;57;57;58;
2024-01-29 09:34:34;2;64;64;64;64;64;64;64;64;64;64;
2024-01-29 09:34:34;3;67;67;67;67;67;67;67;67;67;67;
2024-01-29 09:34:34;ht;84;29.10
2024-01-29 09:34:34;v;4.23
2024-01-29 10:04:39;1;66;66;66;66;66;66;66;66;66;66;
2024-01-29 10:04:39;2;63;63;63;63;63;63;63;63;63;63;
2024-01-29 10:04:39;3;66;66;66;66;66;66;66;66;66;66;
2024-01-29 10:04:39;ht;83;28.50
2024-01-29 10:04:39;v;4.23
2024-01-29 10:34:34;1;58;58;58;58;58;58;58;58;58;58;
2024-01-29 10:34:34;2;66;66;66;66;66;66;66;66;66;66;
2024-01-29 10:34:34;3;60;60;59;59;59;59;59;59;59;60;
2024-01-29 10:34:34;ht;79;31.00
2024-01-29 10:34:34;v;4.23
2024-01-29 11:04:41;1;69;69;69;69;69;69;69;69;69;69;
2024-01-29 11:04:41;2;74;74;74;74;74;74;74;74;74;74;
2024-01-29 11:04:41;3;59;60;59;59;59;59;59;59;59;59;
2024-01-29 11:04:41;ht;69;31.30
2024-01-29 11:04:41;v;4.23
2024-01-29 11:34:41;1;69;69;69;69;69;69;69;69;69;69;
2024-01-29 11:34:41;2;64;64;64;64;64;64;64;64;64;64;
2024-01-29 11:34:41;3;58;58;58;58;58;59;58;58;58;58;
2024-01-29 11:34:41;ht;65;31.60
2024-01-29 11:34:41;v;4.23
2024-01-29 12:04:39;1;58;58;58;58;58;58;58;58;58;58;
2024-01-29 12:04:39;2;60;60;60;60;60;60;60;60;60;60;
2024-01-29 12:04:39;3;59;59;59;59;59;60;60;59;59;59;
2024-01-29 12:04:39;ht;67;32.80
2024-01-29 12:04:39;v;4.24
2024-01-29 12:34:39;1;64;64;64;64;64;64;64;64;64;64;
2024-01-29 12:34:39;2;59;59;59;59;59;59;59;59;59;59;
2024-01-29 12:34:39;3;66;66;66;66;66;66;66;66;66;66;
2024-01-29 12:34:39;ht;66;33.30
2024-01-29 12:34:39;v;4.23
2024-01-29 13:04:40;1;61;61;61;61;61;61;61;61;61;61;
2024-01-29 13:04:40;2;61;61;61;61;61;61;61;61;61;61;
2024-01-29 13:04:40;3;61;62;61;61;61;62;61;61;61;61;
2024-01-29 13:04:40;ht;62;33.90
2024-01-29 13:04:40;v;4.23
2024-01-29 13:34:40;1;57;57;58;57;57;57;58;57;57;57;
2024-01-29 13:34:40;2;72;73;72;72;73;72;73;73;73;72;
2024-01-29 13:34:40;3;59;59;59;59;59;59;59;59;59;59;
2024-01-29 13:34:40;ht;56;34.00
2024-01-29 13:34:40;v;4.24
2024-01-29 14:04:40;1;62;62;62;62;62;62;62;62;63;62;
2024-01-29 14:04:40;2;68;68;68;68;68;68;68;68;68;68;
2024-01-29 14:04:40;3;87;87;87;87;87;87;87;87;87;87;
2024-01-29 14:04:40;ht;61;35.10
2024-01-29 14:04:40;v;4.23
2024-01-29 14:34:41;1;62;62;62;62;62;62;62;62;62;62;
2024-01-29 14:34:41;2;65;65;65;65;65;65;65;65;65;65;
2024-01-29 14:34:41;3;59;59;59;59;60;59;60;59;59;60;
2024-01-29 14:34:41;ht;60;35.00
2024-01-29 14:34:41;v;4.24
2024-01-29 15:04:43;1;64;64;64;64;64;64;64;64;64;64;
2024-01-29 15:04:43;2;69;69;69;69;69;69;69;69;69;69;
2024-01-29 15:04:43;3;75;75;75;76;76;75;75;75;75;75;
2024-01-29 15:04:43;ht;59;35.00
2024-01-29 15:04:43;v;4.23
2024-01-29 15:34:43;1;55;55;55;55;55;55;55;55;55;55;
2024-01-29 15:34:43;2;70;70;70;70;70;70;70;70;70;70;
2024-01-29 15:34:43;3;58;58;58;58;59;58;58;58;58;58;
2024-01-29 15:34:43;ht;57;35.40
2024-01-29 15:34:43;v;4.24
2024-01-29 16:04:40;1;3;3;3;3;3;3;3;3;3;3;
2024-01-29 16:04:40;2;72;72;72;72;72;72;72;72;72;71;
2024-01-29 16:04:40;3;57;57;57;57;57;57;57;57;57;57;
2024-01-29 16:04:40;ht;52;36.30
2024-01-29 16:04:40;v;4.23
2024-01-29 16:34:43;1;55;55;55;55;55;55;55;55;55;55;
2024-01-29 16:34:43;2;59;59;59;59;59;59;59;59;59;59;
2024-01-29 16:34:43;3;60;60;60;60;60;60;60;60;60;60;
2024-01-29 16:34:43;ht;54;35.00
2024-01-29 16:34:43;v;4.23
2024-01-29 17:04:45;1;56;56;56;56;56;56;56;56;56;56;
2024-01-29 17:04:45;2;62;62;62;62;62;62;62;62;62;62;
2024-01-29 17:04:45;3;64;63;63;63;63;63;63;63;63;63;
2024-01-29 17:04:45;ht;63;34.40
2024-01-29 17:04:45;v;4.24
2024-01-29 17:34:41;1;66;67;66;66;66;66;66;66;66;66;
2024-01-29 17:34:41;2;69;69;69;69;69;69;69;69;69;69;
2024-01-29 17:34:41;3;58;58;58;58;58;58;58;58;58;58;
2024-01-29 17:34:41;ht;61;34.30
2024-01-29 17:34:41;v;4.23
2024-01-29 18:04:41;1;73;73;73;73;73;73;73;73;73;73;
2024-01-29 18:04:41;2;65;65;65;66;65;65;65;65;65;65;
2024-01-29 18:04:41;3;71;71;71;71;71;71;71;71;71;71;
2024-01-29 18:04:41;ht;64;34.50
2024-01-29 18:04:41;v;4.24
2024-01-29 18:34:39;1;63;64;63;63;63;64;63;64;63;63;
2024-01-29 18:34:39;2;67;67;67;67;67;67;67;67;67;67;
2024-01-29 18:34:39;3;49;49;49;49;49;49;49;49;49;49;
2024-01-29 18:34:39;ht;65;33.30
2024-01-29 18:34:39;v;4.23
2024-01-29 19:04:38;1;70;70;70;70;70;70;70;70;70;70;
2024-01-29 19:04:38;2;73;73;73;73;73;73;73;73;73;73;
2024-01-29 19:04:38;3;55;55;55;55;55;55;55;56;55;56;
2024-01-29 19:04:38;ht;73;31.10
2024-01-29 19:04:38;v;4.24
2024-01-29 19:34:35;1;68;68;68;68;68;68;68;68;68;68;
2024-01-29 19:34:35;2;73;74;74;74;74;74;74;74;74;74;
2024-01-29 19:34:35;3;52;52;52;52;52;52;52;52;52;52;
2024-01-29 19:34:35;ht;76;29.20
2024-01-29 19:34:35;v;4.24
2024-01-29 20:04:33;1;58;58;58;58;58;58;58;59;58;58;
2024-01-29 20:04:33;2;56;56;56;56;56;56;56;56;56;56;
2024-01-29 20:04:33;3;55;55;55;55;55;55;55;55;56;55;
2024-01-29 20:04:33;ht;83;27.40
2024-01-29 20:04:33;v;4.24
2024-01-29 20:34:28;1;66;66;66;66;66;66;66;66;66;66;
2024-01-29 20:34:28;2;64;64;64;64;64;64;64;64;64;64;
2024-01-29 20:34:28;3;59;59;58;58;58;59;58;58;58;58;
2024-01-29 20:34:28;ht;85;26.50
2024-01-29 20:34:28;v;4.25
2024-01-29 21:04:27;1;58;58;58;58;58;58;58;58;58;58;
2024-01-29 21:04:27;2;67;67;67;67;67;67;67;67;67;67;
2024-01-29 21:04:27;3;55;55;55;55;55;55;55;55;55;55;
2024-01-29 21:04:27;ht;93;24.70
2024-01-29 21:04:27;v;4.24
2024-01-29 21:34:29;1;70;70;70;70;70;70;70;70;70;70;
2024-01-29 21:34:29;2;60;60;60;60;60;60;60;60;60;60;
2024-01-29 21:34:29;3;70;70;70;70;70;70;70;70;70;70;
2024-01-29 21:34:29;ht;95;24.20
2024-01-29 21:34:29;v;4.25
2024-01-29 22:04:26;1;3;3;3;3;3;3;3;3;3;3;
2024-01-29 22:04:26;2;104;104;103;104;104;104;104;104;104;103;
2024-01-29 22:04:26;3;104;104;104;104;104;104;104;104;104;104;
2024-01-29 22:04:26;ht;97;23.40
2024-01-29 22:04:26;v;4.24
2024-01-29 22:34:28;1;82;82;82;82;82;82;82;82;82;82;
2024-01-29 22:34:28;2;70;70;70;70;70;70;70;70;70;70;
2024-01-29 22:34:28;3;53;53;53;53;53;53;53;53;53;53;
2024-01-29 22:34:28;ht;97;22.20
2024-01-29 22:34:28;v;4.25
2024-01-29 23:04:23;1;70;70;70;70;70;70;70;70;70;70;
2024-01-29 23:04:23;2;69;69;69;68;69;69;69;69;69;69;
2024-01-29 23:04:23;3;53;53;53;53;53;53;53;53;53;53;
2024-01-29 23:04:23;ht;97;21.50
2024-01-29 23:04:23;v;4.25
2024-01-29 23:34:28;1;70;70;70;70;70;70;70;70;70;70;
2024-01-29 23:34:28;2;77;77;77;77;77;77;77;77;77;77;
2024-01-29 23:34:28;3;2;3;3;3;3;3;3;3;3;3;
2024-01-29 23:34:28;ht;97;22.10
2024-01-29 23:34:28;v;4.25
