2024-02-11 00:04:24;1;116;116;116;116;116;116;116;116;116;116;
2024-02-11 00:04:24;2;105;105;104;104;105;104;104;104;104;105;
2024-02-11 00:04:24;3;105;105;105;105;105;105;105;105;105;105;
2024-02-11 00:04:24;ht;55;23.10
2024-02-11 00:04:24;v;4.24
2024-02-11 00:34:24;1;149;149;149;149;149;149;149;149;149;149;
2024-02-11 00:34:24;2;104;104;104;104;104;104;105;104;105;105;
2024-02-11 00:34:24;3;105;105;105;105;105;105;105;105;105;105;
2024-02-11 00:34:24;ht;55;22.50
2024-02-11 00:34:24;v;4.24
2024-02-11 01:04:24;1;119;119;119;119;119;119;119;119;119;119;
2024-02-11 01:04:24;2;104;104;104;104;104;104;104;104;104;104;
2024-02-11 01:04:24;3;105;105;105;105;105;105;105;105;105;105;
2024-02-11 01:04:24;ht;54;22.40
2024-02-11 01:04:24;v;4.24
2024-02-11 01:34:25;1;117;117;117;117;117;117;117;117;117;117;
2024-02-11 01:34:25;2;104;104;104;104;104;104;104;104;104;104;
2024-02-11 01:34:25;3;104;104;104;104;104;104;104;104;104;104;
2024-02-11 01:34:25;ht;54;22.20
2024-02-11 01:34:25;v;4.24
2024-02-11 02:04:25;1;116;116;116;116;116;116;116;116;116;116;
2024-02-11 02:04:25;2;102;102;102;102;102;102;102;102;102;102;
2024-02-11 02:04:25;3;102;102;102;102;102;102;102;102;102;102;
2024-02-11 02:04:25;ht;55;22.10
2024-02-11 02:04:25;v;4.24
2024-02-11 02:34:25;1;169;169;169;169;169;169;169;169;169;169;
2024-02-11 02:34:25;2;105;104;104;104;104;104;105;104;104;104;
2024-02-11 02:34:25;3;105;105;105;105;105;105;105;105;105;105;
2024-02-11 02:34:25;ht;56;21.60
2024-02-11 02:34:25;v;4.24
2024-02-11 03:04:25;1;209;209;209;209;209;209;209;209;209;209;
2024-02-11 03:04:25;2;104;104;104;104;104;104;104;104;104;104;
2024-02-11 03:04:25;3;104;104;104;104;104;104;104;104;104;104;
2024-02-11 03:04:25;ht;58;21.90
2024-02-11 03:04:25;v;4.24
2024-02-11 03:34:25;1;126;126;126;126;126;126;126;126;126;126;
2024-02-11 03:34:25;2;104;104;104;105;104;104;104;104;104;104;
2024-02-11 03:34:25;3;103;103;103;103;103;103;103;103;103;103;
2024-02-11 03:34:25;ht;59;21.70
2024-02-11 03:34:25;v;4.24
2024-02-11 04:04:25;1;154;155;155;154;154;155;155;154;154;155;
2024-02-11 04:04:25;2;104;104;104;104;104;104;104;104;104;105;
2024-02-11 04:04:25;3;105;105;105;105;105;105;105;105;105;105;
2024-02-11 04:04:25;ht;60;22.00
2024-02-11 04:04:25;v;4.24
2024-02-11 04:34:24;1;143;143;143;143;143;143;143;143;143;143;
2024-02-11 04:34:24;2;105;105;105;105;105;105;105;105;105;105;
2024-02-11 04:34:24;3;105;105;105;105;105;105;105;105;105;105;
2024-02-11 04:34:24;ht;62;21.60
2024-02-11 04:34:24;v;4.23
2024-02-11 05:04:24;1;185;185;185;185;185;185;185;185;185;185;
2024-02-11 05:04:24;2;104;104;104;104;104;104;104;104;104;104;
2024-02-11 05:04:24;3;105;105;105;105;105;105;105;105;105;105;
2024-02-11 05:04:24;ht;65;22.50
2024-02-11 05:04:24;v;4.24
2024-02-11 05:34:24;1;157;157;157;157;157;157;157;157;157;157;
2024-02-11 05:34:24;2;104;104;104;104;104;105;104;104;104;104;
2024-02-11 05:34:24;3;105;105;105;105;105;105;105;105;105;105;
2024-02-11 05:34:24;ht;63;21.80
2024-02-11 05:34:24;v;4.23
2024-02-11 06:04:24;1;160;160;160;160;160;160;160;160;160;160;
2024-02-11 06:04:24;2;104;104;104;104;104;104;104;104;104;104;
2024-02-11 06:04:24;3;105;105;105;105;105;105;105;105;105;105;
2024-02-11 06:04:24;ht;66;22.30
2024-02-11 06:04:24;v;4.24
2024-02-11 06:34:25;1;159;158;158;159;159;159;159;159;159;159;
2024-02-11 06:34:25;2;104;104;104;104;104;104;104;104;104;104;
2024-02-11 06:34:25;3;105;105;105;105;105;105;105;105;105;105;
2024-02-11 06:34:25;ht;66;22.50
2024-02-11 06:34:25;v;4.23
2024-02-11 07:04:26;1;163;163;163;163;163;163;163;163;163;163;
2024-02-11 07:04:26;2;105;105;105;104;104;104;105;105;104;105;
2024-02-11 07:04:26;3;105;105;105;105;105;105;105;105;105;105;
2024-02-11 07:04:26;ht;66;23.20
2024-02-11 07:04:26;v;4.24
2024-02-11 07:34:27;1;171;171;171;171;171;171;171;171;171;171;
2024-02-11 07:34:27;2;102;103;103;103;103;103;102;102;103;103;
2024-02-11 07:34:27;3;104;104;104;104;104;104;104;104;104;104;
2024-02-11 07:34:27;ht;60;24.90
2024-02-11 07:34:27;v;4.23
2024-02-11 08:04:32;1;167;167;167;167;167;167;167;167;167;167;
2024-02-11 08:04:32;2;102;103;103;103;103;102;102;103;103;102;
2024-02-11 08:04:32;3;104;104;104;104;104;104;104;104;104;104;
2024-02-11 08:04:32;ht;97;26.90
2024-02-11 08:04:32;v;4.24
2024-02-11 08:34:31;1;110;110;110;110;110;111;110;110;111;111;
2024-02-11 08:34:31;2;100;100;101;100;100;100;100;101;100;100;
2024-02-11 08:34:31;3;105;105;105;105;105;105;105;105;105;105;
2024-02-11 08:34:31;ht;97;29.10
2024-02-11 08:34:31;v;4.23
2024-02-11 09:04:38;1;164;164;164;164;164;165;164;164;164;164;
2024-02-11 09:04:38;2;102;102;102;102;102;102;102;102;102;102;
2024-02-11 09:04:38;3;104;104;104;104;104;104;104;104;104;104;
2024-02-11 09:04:38;ht;95;30.20
2024-02-11 09:04:38;v;4.23
2024-02-11 09:34:38;1;3;3;3;3;3;3;3;3;3;3;
2024-02-11 09:34:38;2;102;102;102;102;102;102;102;102;102;102;
2024-02-11 09:34:38;3;102;102;102;102;102;102;102;102;102;102;
2024-02-11 09:34:38;ht;96;30.40
2024-02-11 09:34:38;v;4.22
2024-02-11 10:04:39;1;158;158;158;158;158;158;158;158;158;158;
2024-02-11 10:04:39;2;103;102;102;102;102;102;102;102;102;102;
2024-02-11 10:04:39;3;104;104;104;104;104;104;104;104;104;104;
2024-02-11 10:04:39;ht;87;32.10
2024-02-11 10:04:39;v;4.23
2024-02-11 10:34:42;1;164;164;164;164;164;164;164;164;164;164;
2024-02-11 10:34:42;2;102;102;102;102;102;102;102;102;102;102;
2024-02-11 10:34:42;3;103;103;103;103;103;103;103;103;103;103;
2024-02-11 10:34:42;ht;84;32.80
2024-02-11 10:34:42;v;4.22
2024-02-11 11:04:43;1;3;3;3;3;3;3;3;3;3;3;
2024-02-11 11:04:43;2;103;103;103;103;103;103;103;103;103;103;
2024-02-11 11:04:43;3;98;98;98;98;98;98;98;98;98;98;
2024-02-11 11:04:43;ht;78;34.50
2024-02-11 11:04:43;v;4.22
2024-02-11 11:34:46;1;3;3;3;3;3;3;3;3;3;3;
2024-02-11 11:34:46;2;103;103;103;103;103;103;103;103;103;103;
2024-02-11 11:34:46;3;115;115;115;115;115;115;115;115;115;115;
2024-02-11 11:34:46;ht;75;36.20
2024-02-11 11:34:46;v;4.21
2024-02-11 12:04:48;1;182;182;182;182;182;182;182;183;182;182;
2024-02-11 12:04:48;2;103;103;103;103;103;103;103;103;103;103;
2024-02-11 12:04:48;3;105;105;105;105;105;105;105;105;105;105;
2024-02-11 12:04:48;ht;74;36.30
2024-02-11 12:04:48;v;4.21
2024-02-11 12:34:45;1;116;116;116;116;116;116;116;116;116;116;
2024-02-11 12:34:45;2;102;102;102;102;102;102;102;102;102;102;
2024-02-11 12:34:45;3;99;99;99;99;99;99;99;99;99;99;
2024-02-11 12:34:45;ht;77;36.30
2024-02-11 12:34:45;v;4.21
2024-02-11 13:04:43;1;88;89;88;88;88;88;89;88;89;88;
2024-02-11 13:04:43;2;105;105;104;104;104;105;104;104;104;104;
2024-02-11 13:04:43;3;103;103;103;103;103;103;103;103;103;103;
2024-02-11 13:04:43;ht;65;37.40
2024-02-11 13:04:43;v;4.22
2024-02-11 13:34:46;1;101;101;101;101;101;101;101;101;101;101;
2024-02-11 13:34:46;2;101;101;101;101;101;101;101;101;101;101;
2024-02-11 13:34:46;3;109;109;109;109;109;109;109;109;109;109;
2024-02-11 13:34:46;ht;69;37.60
2024-02-11 13:34:46;v;4.22
2024-02-11 14:04:46;1;101;101;101;101;101;101;101;101;101;100;
2024-02-11 14:04:46;2;102;102;102;102;102;102;102;102;102;102;
2024-02-11 14:04:46;3;102;102;102;102;102;102;102;102;102;102;
2024-02-11 14:04:46;ht;66;37.80
2024-02-11 14:04:46;v;4.22
2024-02-11 14:34:44;1;3;3;3;3;3;3;3;3;3;3;
2024-02-11 14:34:44;2;102;102;102;102;102;102;102;102;102;102;
2024-02-11 14:34:44;3;103;103;103;103;103;103;103;103;103;103;
2024-02-11 14:34:44;ht;73;36.30
2024-02-11 14:34:44;v;4.22
2024-02-11 15:04:41;1;3;3;3;3;3;3;3;3;3;3;
2024-02-11 15:04:41;2;102;103;103;102;102;103;103;103;103;103;
2024-02-11 15:04:41;3;100;100;100;100;100;99;100;100;100;100;
2024-02-11 15:04:41;ht;67;38.00
2024-02-11 15:04:41;v;4.23
2024-02-11 15:34:45;1;116;115;115;115;116;116;116;115;116;115;
2024-02-11 15:34:45;2;103;103;103;103;103;103;103;103;103;103;
2024-02-11 15:34:45;3;102;102;102;102;102;102;102;102;102;102;
2024-02-11 15:34:45;ht;65;39.30
2024-02-11 15:34:45;v;4.22
2024-02-11 16:04:45;1;117;117;117;117;117;117;117;117;117;117;
2024-02-11 16:04:45;2;102;102;102;102;101;102;102;102;102;102;
2024-02-11 16:04:45;3;102;102;102;102;102;102;102;102;102;102;
2024-02-11 16:04:45;ht;66;38.80
2024-02-11 16:04:45;v;4.22
2024-02-11 16:34:42;1;3;3;3;3;3;3;3;3;3;3;
2024-02-11 16:34:42;2;103;102;103;103;103;103;103;103;103;103;
2024-02-11 16:34:42;3;3;3;3;3;3;3;3;3;3;3;
2024-02-11 16:34:42;ht;76;33.70
2024-02-11 16:34:42;v;4.23
2024-02-11 17:04:39;1;116;116;116;116;116;116;116;116;116;116;
2024-02-11 17:04:39;2;101;101;101;101;101;101;101;101;101;101;
2024-02-11 17:04:39;3;108;108;108;108;108;108;108;108;108;108;
2024-02-11 17:04:39;ht;68;36.90
2024-02-11 17:04:39;v;4.23
2024-02-11 17:34:43;1;3;3;3;3;3;3;3;3;3;3;
2024-02-11 17:34:43;2;102;102;102;102;102;102;102;101;102;102;
2024-02-11 17:34:43;3;105;105;105;105;105;105;105;105;105;105;
2024-02-11 17:34:43;ht;69;36.70
2024-02-11 17:34:43;v;4.24
2024-02-11 18:04:43;1;3;3;3;3;3;3;3;3;3;3;
2024-02-11 18:04:43;2;103;103;103;103;103;103;103;103;103;103;
2024-02-11 18:04:43;3;3;3;3;3;3;3;3;3;3;3;
2024-02-11 18:04:43;ht;67;37.60
2024-02-11 18:04:43;v;4.23
2024-02-11 18:34:42;1;111;111;111;111;111;111;111;111;111;111;
2024-02-11 18:34:42;2;103;103;103;103;103;103;103;103;103;103;
2024-02-11 18:34:42;3;3;3;3;3;3;3;3;3;2;3;
2024-02-11 18:34:42;ht;73;35.30
2024-02-11 18:34:42;v;4.24
2024-02-11 19:04:38;1;101;101;101;101;101;101;101;101;101;101;
2024-02-11 19:04:38;2;103;103;103;103;103;103;103;103;103;103;
2024-02-11 19:04:38;3;103;103;103;103;103;103;103;103;103;103;
2024-02-11 19:04:38;ht;77;33.80
2024-02-11 19:04:38;v;4.23
2024-02-11 19:34:36;1;3;3;3;3;3;3;3;3;3;3;
2024-02-11 19:34:36;2;104;104;104;104;104;104;104;104;104;104;
2024-02-11 19:34:36;3;106;106;106;106;106;106;106;106;106;106;
2024-02-11 19:34:36;ht;85;32.00
2024-02-11 19:34:36;v;4.24
2024-02-11 20:04:31;1;121;121;121;121;121;121;121;121;121;121;
2024-02-11 20:04:31;2;103;102;102;102;102;103;102;102;102;102;
2024-02-11 20:04:31;3;101;101;101;101;101;101;101;101;101;101;
2024-02-11 20:04:31;ht;89;30.70
2024-02-11 20:04:31;v;4.23
2024-02-11 20:34:29;1;104;104;104;104;104;104;104;104;104;104;
2024-02-11 20:34:29;2;103;103;103;104;104;103;103;103;103;103;
2024-02-11 20:34:29;3;101;101;101;101;101;101;101;101;101;101;
2024-02-11 20:34:29;ht;94;29.40
2024-02-11 20:34:29;v;4.24
2024-02-11 21:04:30;1;104;104;104;104;104;104;104;104;104;104;
2024-02-11 21:04:30;2;103;103;103;104;103;103;103;103;103;103;
2024-02-11 21:04:30;3;104;104;104;104;104;104;104;104;104;104;
2024-02-11 21:04:30;ht;97;28.10
2024-02-11 21:04:30;v;4.24
2024-02-11 21:34:30;1;129;129;129;129;129;129;129;129;129;129;
2024-02-11 21:34:30;2;102;102;102;102;102;102;102;102;102;102;
2024-02-11 21:34:30;3;101;101;101;101;101;101;101;101;101;101;
2024-02-11 21:34:30;ht;97;27.70
2024-02-11 21:34:30;v;4.24
2024-02-11 22:04:30;1;166;166;166;166;166;166;166;166;166;166;
2024-02-11 22:04:30;2;102;102;102;102;102;102;102;102;102;102;
2024-02-11 22:04:30;3;104;104;104;104;104;104;104;104;104;104;
2024-02-11 22:04:30;ht;97;27.40
2024-02-11 22:04:30;v;4.24
2024-02-11 22:34:29;1;3;3;3;3;3;3;3;3;3;3;
2024-02-11 22:34:29;2;103;103;103;103;103;103;103;103;103;103;
2024-02-11 22:34:29;3;103;103;103;103;103;103;103;103;103;103;
2024-02-11 22:34:29;ht;95;27.00
2024-02-11 22:34:29;v;4.24
2024-02-11 23:04:28;1;3;3;3;3;3;3;3;3;3;3;
2024-02-11 23:04:28;2;103;103;103;103;103;103;103;103;103;103;
2024-02-11 23:04:28;3;104;104;104;104;104;104;104;104;104;104;
2024-02-11 23:04:28;ht;93;26.90
2024-02-11 23:04:28;v;4.24
2024-02-11 23:34:27;1;110;110;110;110;110;110;110;110;110;110;
2024-02-11 23:34:27;2;103;103;103;103;103;103;103;103;103;103;
2024-02-11 23:34:27;3;104;104;104;104;104;104;104;104;104;104;
2024-02-11 23:34:27;ht;85;26.50
2024-02-11 23:34:27;v;4.25
