2024-07-03 00:04:19;1;104;104;104;104;104;104;104;104;104;104;
2024-07-03 00:04:19;2;113;113;113;113;113;113;113;113;113;113;
2024-07-03 00:04:19;3;82;82;82;82;82;82;82;82;82;82;
2024-07-03 00:04:19;ht;97;6.60
2024-07-03 00:04:19;v;4.22
2024-07-03 00:34:18;1;101;101;102;102;102;101;102;101;101;102;
2024-07-03 00:34:18;2;105;105;105;105;106;105;105;105;106;105;
2024-07-03 00:34:18;3;84;83;83;83;83;83;83;83;83;83;
2024-07-03 00:34:18;ht;97;6.90
2024-07-03 00:34:18;v;4.21
2024-07-03 01:04:17;1;99;99;99;99;99;99;99;99;99;99;
2024-07-03 01:04:17;2;103;103;103;103;103;103;103;103;103;103;
2024-07-03 01:04:17;3;82;82;82;82;82;82;82;82;82;82;
2024-07-03 01:04:17;ht;97;7.60
2024-07-03 01:04:17;v;4.22
2024-07-03 01:34:16;1;90;97;91;91;90;90;90;90;90;90;
2024-07-03 01:34:16;2;97;97;97;97;97;97;101;98;98;97;
2024-07-03 01:34:16;3;121;121;121;121;121;121;121;121;121;121;
2024-07-03 01:34:16;ht;97;7.60
2024-07-03 01:34:16;v;4.21
2024-07-03 02:04:16;1;92;92;92;92;92;93;92;92;92;92;
2024-07-03 02:04:16;2;104;104;104;104;104;104;104;104;104;104;
2024-07-03 02:04:16;3;88;88;88;88;88;88;88;88;88;88;
2024-07-03 02:04:16;ht;97;5.30
2024-07-03 02:04:16;v;4.22
2024-07-03 02:34:14;1;116;116;116;116;116;116;116;116;116;116;
2024-07-03 02:34:14;2;84;84;84;84;84;84;84;84;84;84;
2024-07-03 02:34:14;3;88;88;88;88;88;88;88;88;88;88;
2024-07-03 02:34:14;ht;97;5.00
2024-07-03 02:34:14;v;4.21
2024-07-03 03:04:18;1;96;97;97;98;99;100;100;102;103;104;
2024-07-03 03:04:18;2;98;98;98;98;98;98;98;98;98;98;
2024-07-03 03:04:18;3;104;105;105;106;107;108;108;109;110;110;
2024-07-03 03:04:18;ht;97;5.70
2024-07-03 03:04:18;v;4.22
2024-07-03 03:34:17;1;122;122;122;122;122;122;122;122;122;122;
2024-07-03 03:34:17;2;106;106;107;106;106;106;106;106;106;106;
2024-07-03 03:34:17;3;119;119;119;119;119;119;119;119;119;119;
2024-07-03 03:34:17;ht;97;5.70
2024-07-03 03:34:17;v;4.21
2024-07-03 04:04:15;1;95;95;95;95;95;95;95;95;95;95;
2024-07-03 04:04:15;2;104;104;104;104;104;104;104;104;104;104;
2024-07-03 04:04:15;3;113;113;113;113;113;113;113;113;113;113;
2024-07-03 04:04:15;ht;93;4.10
2024-07-03 04:04:15;v;4.22
2024-07-03 04:34:13;1;92;92;92;92;92;92;92;92;92;92;
2024-07-03 04:34:13;2;99;99;99;99;99;99;99;99;99;99;
2024-07-03 04:34:13;3;83;83;83;83;83;83;83;83;83;83;
2024-07-03 04:34:13;ht;93;3.90
2024-07-03 04:34:13;v;4.21
2024-07-03 05:04:16;1;91;91;91;91;91;91;91;91;91;91;
2024-07-03 05:04:16;2;85;85;85;85;85;85;85;85;85;85;
2024-07-03 05:04:16;3;82;82;82;82;82;82;82;82;82;82;
2024-07-03 05:04:16;ht;79;4.30
2024-07-03 05:04:16;v;4.22
2024-07-03 05:34:15;1;87;87;87;87;87;87;87;87;87;87;
2024-07-03 05:34:15;2;96;96;96;96;97;97;97;97;97;97;
2024-07-03 05:34:15;3;83;83;83;83;83;83;83;83;83;83;
2024-07-03 05:34:15;ht;76;3.90
2024-07-03 05:34:15;v;4.21
2024-07-03 06:04:18;1;121;121;121;121;120;120;120;120;120;119;
2024-07-03 06:04:18;2;88;88;88;88;88;88;88;88;88;88;
2024-07-03 06:04:18;3;3;3;3;2;3;3;3;3;3;3;
2024-07-03 06:04:18;ht;69;5.30
2024-07-03 06:04:18;v;4.21
2024-07-03 06:34:16;1;108;108;108;108;108;108;108;108;108;108;
2024-07-03 06:34:16;2;115;115;115;115;114;115;114;114;115;115;
2024-07-03 06:34:16;3;91;91;91;91;91;91;91;91;91;90;
2024-07-03 06:34:16;ht;78;5.90
2024-07-03 06:34:16;v;4.22
2024-07-03 07:04:16;1;85;85;85;85;85;85;85;85;85;85;
2024-07-03 07:04:16;2;103;103;103;103;103;103;103;103;103;103;
2024-07-03 07:04:16;3;85;85;85;85;86;85;85;85;85;85;
2024-07-03 07:04:16;ht;97;6.70
2024-07-03 07:04:16;v;4.21
2024-07-03 07:34:15;1;84;84;84;84;84;84;84;84;84;84;
2024-07-03 07:34:15;2;94;94;94;94;94;94;94;94;94;94;
2024-07-03 07:34:15;3;3;3;3;3;3;3;3;3;3;3;
2024-07-03 07:34:15;ht;97;7.40
2024-07-03 07:34:15;v;4.22
2024-07-03 08:04:15;1;115;115;115;115;115;115;115;115;115;115;
2024-07-03 08:04:15;2;91;91;92;92;92;93;94;95;95;96;
2024-07-03 08:04:15;3;100;99;99;99;99;99;99;99;99;99;
2024-07-03 08:04:15;ht;97;7.20
2024-07-03 08:04:15;v;4.21
2024-07-03 08:34:20;1;99;99;99;99;98;99;99;99;99;99;
2024-07-03 08:34:20;2;103;103;103;103;103;103;103;103;103;103;
2024-07-03 08:34:20;3;85;85;86;85;85;85;85;85;85;85;
2024-07-03 08:34:20;ht;97;7.90
2024-07-03 08:34:20;v;4.22
2024-07-03 09:04:16;1;3;3;3;3;3;2;3;3;3;3;
2024-07-03 09:04:16;2;79;78;78;78;78;78;78;78;78;78;
2024-07-03 09:04:16;3;90;90;90;90;90;91;90;90;90;90;
2024-07-03 09:04:16;ht;97;9.60
2024-07-03 09:04:16;v;4.22
2024-07-03 09:34:20;1;98;98;98;98;98;98;98;98;98;98;
2024-07-03 09:34:20;2;94;94;94;94;94;94;94;94;94;94;
2024-07-03 09:34:20;3;98;98;98;98;98;98;98;98;98;98;
2024-07-03 09:34:20;ht;96;11.20
2024-07-03 09:34:20;v;4.22
2024-07-03 10:04:20;1;113;112;113;112;112;112;113;112;113;113;
2024-07-03 10:04:20;2;106;106;106;106;106;106;106;106;106;106;
2024-07-03 10:04:20;3;83;83;83;83;83;83;83;83;83;83;
2024-07-03 10:04:20;ht;86;12.60
2024-07-03 10:04:20;v;4.21
2024-07-03 10:34:21;1;95;94;94;94;94;94;94;94;94;94;
2024-07-03 10:34:21;2;108;108;108;108;108;108;109;108;108;108;
2024-07-03 10:34:21;3;81;81;81;81;81;81;81;81;81;81;
2024-07-03 10:34:21;ht;78;14.20
2024-07-03 10:34:21;v;4.21
2024-07-03 11:04:23;1;117;116;117;116;116;116;116;116;116;116;
2024-07-03 11:04:23;2;91;91;91;91;91;91;91;91;91;91;
2024-07-03 11:04:23;3;100;100;100;100;100;100;101;100;100;100;
2024-07-03 11:04:23;ht;71;15.20
2024-07-03 11:04:23;v;4.22
2024-07-03 11:34:22;1;92;92;92;92;92;92;92;92;92;92;
2024-07-03 11:34:22;2;85;85;85;85;85;85;85;85;85;85;
2024-07-03 11:34:22;3;81;81;81;81;81;81;81;81;81;81;
2024-07-03 11:34:22;ht;67;16.40
2024-07-03 11:34:22;v;4.21
2024-07-03 12:04:26;1;91;91;91;91;91;91;91;91;91;91;
2024-07-03 12:04:26;2;99;99;99;99;99;99;99;99;99;99;
2024-07-03 12:04:26;3;98;98;98;98;98;98;98;98;98;98;
2024-07-03 12:04:26;ht;63;17.70
2024-07-03 12:04:26;v;4.22
2024-07-03 12:34:26;1;119;119;119;119;119;119;119;119;119;119;
2024-07-03 12:34:26;2;99;99;99;99;99;99;99;99;99;99;
2024-07-03 12:34:26;3;92;92;92;92;92;93;92;92;92;92;
2024-07-03 12:34:26;ht;58;18.60
2024-07-03 12:34:26;v;4.22
2024-07-03 13:04:27;1;85;85;85;85;85;85;85;85;85;85;
2024-07-03 13:04:27;2;105;105;106;105;105;105;106;105;105;105;
2024-07-03 13:04:27;3;105;105;105;105;104;104;105;104;104;104;
2024-07-03 13:04:27;ht;57;19.10
2024-07-03 13:04:27;v;4.22
2024-07-03 13:34:27;1;76;77;78;78;79;79;80;80;81;81;
2024-07-03 13:34:27;2;92;93;92;92;93;93;92;92;93;92;
2024-07-03 13:34:27;3;89;89;89;89;89;89;89;89;89;89;
2024-07-03 13:34:27;ht;55;19.70
2024-07-03 13:34:27;v;4.21
2024-07-03 14:04:23;1;104;105;105;104;104;105;104;105;104;105;
2024-07-03 14:04:23;2;84;84;84;84;84;84;84;84;84;84;
2024-07-03 14:04:23;3;81;81;81;81;81;81;81;81;81;81;
2024-07-03 14:04:23;ht;53;20.30
2024-07-03 14:04:23;v;4.22
2024-07-03 14:34:28;1;2;2;2;2;3;2;3;2;2;3;
2024-07-03 14:34:28;2;84;84;85;84;84;84;84;84;84;84;
2024-07-03 14:34:28;3;85;85;85;85;85;85;85;85;85;85;
2024-07-03 14:34:28;ht;50;20.60
2024-07-03 14:34:28;v;4.21
2024-07-03 15:04:24;1;117;117;117;117;117;117;117;117;117;117;
2024-07-03 15:04:24;2;92;92;92;92;92;92;92;92;92;92;
2024-07-03 15:04:24;3;3;3;3;3;3;3;3;3;3;3;
2024-07-03 15:04:24;ht;49;21.00
2024-07-03 15:04:24;v;4.21
2024-07-03 15:34:26;1;111;111;111;111;111;111;111;111;111;111;
2024-07-03 15:34:26;2;87;87;87;87;87;87;87;87;87;87;
2024-07-03 15:34:26;3;86;86;85;86;85;86;86;85;85;85;
2024-07-03 15:34:26;ht;49;20.60
2024-07-03 15:34:26;v;4.22
2024-07-03 16:04:27;1;108;108;108;108;108;108;107;108;108;108;
2024-07-03 16:04:27;2;97;97;97;97;97;97;97;97;97;97;
2024-07-03 16:04:27;3;102;102;102;102;102;102;102;102;102;102;
2024-07-03 16:04:27;ht;49;20.20
2024-07-03 16:04:27;v;4.22
2024-07-03 16:34:28;1;114;114;114;114;114;114;114;114;115;114;
2024-07-03 16:34:28;2;94;94;94;94;94;94;94;94;94;94;
2024-07-03 16:34:28;3;84;84;84;84;84;85;84;84;84;84;
2024-07-03 16:34:28;ht;54;19.40
2024-07-03 16:34:28;v;4.23
2024-07-03 17:04:23;1;107;107;107;107;107;107;107;107;107;107;
2024-07-03 17:04:23;2;90;90;90;90;90;90;90;90;90;90;
2024-07-03 17:04:23;3;86;87;87;86;86;86;86;86;87;87;
2024-07-03 17:04:23;ht;59;18.00
2024-07-03 17:04:23;v;4.22
2024-07-03 17:34:26;1;90;90;90;90;90;90;90;90;90;90;
2024-07-03 17:34:26;2;98;98;98;98;98;98;98;98;98;98;
2024-07-03 17:34:26;3;81;81;81;81;81;81;81;81;81;81;
2024-07-03 17:34:26;ht;69;16.30
2024-07-03 17:34:26;v;4.23
2024-07-03 18:04:23;1;114;114;114;114;114;114;114;114;114;114;
2024-07-03 18:04:23;2;103;103;103;103;103;103;103;103;103;103;
2024-07-03 18:04:23;3;81;81;81;81;81;81;81;81;81;81;
2024-07-03 18:04:23;ht;78;13.90
2024-07-03 18:04:23;v;4.22
2024-07-03 18:34:22;1;110;109;109;109;110;109;109;109;109;109;
2024-07-03 18:34:22;2;102;102;103;102;102;102;102;102;102;102;
2024-07-03 18:34:22;3;86;86;86;86;86;86;86;86;86;86;
2024-07-03 18:34:22;ht;82;12.20
2024-07-03 18:34:22;v;4.22
2024-07-03 19:04:20;1;72;72;72;72;72;72;72;72;72;72;
2024-07-03 19:04:20;2;102;102;102;102;102;102;102;102;102;102;
2024-07-03 19:04:20;3;82;82;82;82;82;82;82;82;82;82;
2024-07-03 19:04:20;ht;84;11.20
2024-07-03 19:04:20;v;4.22
2024-07-03 19:34:17;1;104;104;104;104;104;104;104;104;104;103;
2024-07-03 19:34:17;2;95;95;95;95;95;95;95;95;95;95;
2024-07-03 19:34:17;3;115;115;115;115;115;115;115;114;115;115;
2024-07-03 19:34:17;ht;86;10.10
2024-07-03 19:34:17;v;4.22
2024-07-03 20:04:19;1;104;104;103;103;103;104;104;103;103;103;
2024-07-03 20:04:19;2;92;92;92;92;92;92;92;92;92;92;
2024-07-03 20:04:19;3;103;103;103;103;103;103;103;103;103;103;
2024-07-03 20:04:19;ht;88;9.80
2024-07-03 20:04:19;v;4.22
2024-07-03 20:34:20;1;75;75;74;75;75;75;75;74;74;74;
2024-07-03 20:34:20;2;95;96;96;96;96;96;96;95;96;96;
2024-07-03 20:34:20;3;98;98;98;98;98;98;98;98;98;98;
2024-07-03 20:34:20;ht;89;10.20
2024-07-03 20:34:20;v;4.22
2024-07-03 21:04:17;1;122;122;122;122;122;122;122;122;121;121;
2024-07-03 21:04:17;2;85;85;84;84;85;85;85;85;85;85;
2024-07-03 21:04:17;3;102;102;102;102;102;102;102;102;102;102;
2024-07-03 21:04:17;ht;90;10.30
2024-07-03 21:04:17;v;4.22
2024-07-03 21:34:19;1;116;116;116;116;116;116;116;116;116;116;
2024-07-03 21:34:19;2;94;94;94;94;94;94;94;94;94;94;
2024-07-03 21:34:19;3;82;82;82;82;82;82;82;82;82;82;
2024-07-03 21:34:19;ht;93;9.70
2024-07-03 21:34:19;v;4.22
2024-07-03 22:04:20;1;116;116;116;116;116;115;116;116;116;116;
2024-07-03 22:04:20;2;90;90;90;90;90;90;90;90;90;90;
2024-07-03 22:04:20;3;95;95;95;95;95;95;95;95;95;95;
2024-07-03 22:04:20;ht;97;8.70
2024-07-03 22:04:20;v;4.22
2024-07-03 22:34:16;1;118;118;123;119;118;118;118;118;118;118;
2024-07-03 22:34:16;2;76;76;76;79;77;76;76;76;76;76;
2024-07-03 22:34:16;3;105;104;105;105;105;105;105;105;105;105;
2024-07-03 22:34:16;ht;97;7.40
2024-07-03 22:34:16;v;4.21
2024-07-03 23:04:16;1;117;117;117;117;117;117;117;117;117;117;
2024-07-03 23:04:16;2;105;106;105;105;105;106;105;105;105;105;
2024-07-03 23:04:16;3;105;105;105;105;105;105;105;105;105;105;
2024-07-03 23:04:16;ht;97;6.10
2024-07-03 23:04:16;v;4.22
2024-07-03 23:34:15;1;121;121;121;122;121;121;122;121;121;121;
2024-07-03 23:34:15;2;83;83;83;83;83;83;83;83;83;83;
2024-07-03 23:34:15;3;105;105;105;105;105;105;105;105;105;105;
2024-07-03 23:34:15;ht;97;5.60
2024-07-03 23:34:15;v;4.22
