2024-02-19 00:04:26;1;118;118;118;118;118;118;118;119;118;118;
2024-02-19 00:04:26;2;100;100;100;100;100;100;100;100;100;100;
2024-02-19 00:04:26;3;109;109;109;109;109;109;109;109;109;109;
2024-02-19 00:04:26;ht;79;22.00
2024-02-19 00:04:26;v;4.25
2024-02-19 00:34:26;1;119;119;119;119;119;119;119;119;119;119;
2024-02-19 00:34:26;2;105;104;105;105;105;104;104;104;104;105;
2024-02-19 00:34:26;3;111;111;110;110;110;110;110;110;110;110;
2024-02-19 00:34:26;ht;65;21.10
2024-02-19 00:34:26;v;4.24
2024-02-19 01:04:26;1;3;3;2;2;3;3;9;4;3;3;
2024-02-19 01:04:26;2;105;104;104;104;105;105;105;105;105;105;
2024-02-19 01:04:26;3;118;118;118;118;118;118;118;118;118;118;
2024-02-19 01:04:26;ht;60;20.80
2024-02-19 01:04:26;v;4.25
2024-02-19 01:34:25;1;126;126;126;126;126;126;126;126;126;126;
2024-02-19 01:34:25;2;105;104;105;105;105;108;106;105;105;105;
2024-02-19 01:34:25;3;94;94;94;94;94;94;94;94;94;94;
2024-02-19 01:34:25;ht;57;20.50
2024-02-19 01:34:25;v;4.24
2024-02-19 02:04:25;1;113;113;113;113;113;113;113;113;113;113;
2024-02-19 02:04:25;2;105;104;105;105;105;104;104;105;104;104;
2024-02-19 02:04:25;3;93;93;93;93;93;93;93;94;93;93;
2024-02-19 02:04:25;ht;57;20.20
2024-02-19 02:04:25;v;4.24
2024-02-19 02:34:23;1;117;118;118;118;124;119;118;118;118;118;
2024-02-19 02:34:23;2;103;102;102;102;102;102;102;102;102;102;
2024-02-19 02:34:23;3;98;98;98;98;98;99;98;98;98;98;
2024-02-19 02:34:23;ht;57;20.10
2024-02-19 02:34:23;v;4.24
2024-02-19 03:04:22;1;163;163;163;163;163;163;170;164;163;163;
2024-02-19 03:04:22;2;104;104;104;104;104;104;104;104;104;104;
2024-02-19 03:04:22;3;104;104;104;104;104;104;104;104;104;104;
2024-02-19 03:04:22;ht;57;19.90
2024-02-19 03:04:22;v;4.24
2024-02-19 03:34:26;1;113;113;113;113;113;113;113;113;113;113;
2024-02-19 03:34:26;2;104;102;102;102;101;102;101;101;101;101;
2024-02-19 03:34:26;3;86;86;86;86;86;86;86;86;86;86;
2024-02-19 03:34:26;ht;57;19.70
2024-02-19 03:34:26;v;4.24
2024-02-19 04:04:24;1;2;2;2;2;3;2;2;3;2;2;
2024-02-19 04:04:24;2;101;101;101;101;101;101;101;101;101;101;
2024-02-19 04:04:24;3;105;106;105;106;105;105;106;105;106;106;
2024-02-19 04:04:24;ht;58;19.30
2024-02-19 04:04:24;v;4.24
2024-02-19 04:34:23;1;113;113;113;113;113;113;117;115;113;113;
2024-02-19 04:34:23;2;104;103;104;103;103;103;103;106;104;104;
2024-02-19 04:34:23;3;105;105;105;105;105;105;105;105;105;105;
2024-02-19 04:34:23;ht;59;19.20
2024-02-19 04:34:23;v;4.24
2024-02-19 05:04:25;1;172;172;174;174;172;172;172;172;172;172;
2024-02-19 05:04:25;2;105;108;107;106;106;105;105;105;105;106;
2024-02-19 05:04:25;3;100;100;100;100;100;101;101;100;100;100;
2024-02-19 05:04:25;ht;60;18.90
2024-02-19 05:04:25;v;4.24
2024-02-19 05:34:24;1;101;101;102;101;101;101;101;101;101;101;
2024-02-19 05:34:24;2;108;106;106;106;105;105;105;105;105;105;
2024-02-19 05:34:24;3;87;87;87;87;87;87;87;87;88;87;
2024-02-19 05:34:24;ht;57;19.30
2024-02-19 05:34:24;v;4.23
2024-02-19 06:04:22;1;102;102;102;102;102;102;102;102;102;102;
2024-02-19 06:04:22;2;82;82;83;82;83;83;82;82;82;84;
2024-02-19 06:04:22;3;111;111;111;111;111;111;111;111;111;111;
2024-02-19 06:04:22;ht;57;19.20
2024-02-19 06:04:22;v;4.24
2024-02-19 06:34:25;1;98;98;98;98;98;98;98;98;98;99;
2024-02-19 06:34:25;2;101;101;101;100;100;100;100;100;100;100;
2024-02-19 06:34:25;3;85;85;85;85;85;85;85;85;85;85;
2024-02-19 06:34:25;ht;56;19.10
2024-02-19 06:34:25;v;4.23
2024-02-19 07:04:23;1;2;3;2;2;2;3;2;3;3;2;
2024-02-19 07:04:23;2;105;105;106;109;106;106;105;106;105;105;
2024-02-19 07:04:23;3;87;87;87;87;87;87;87;87;87;87;
2024-02-19 07:04:23;ht;63;19.50
2024-02-19 07:04:23;v;4.24
2024-02-19 07:34:27;1;131;123;123;123;123;123;123;123;123;123;
2024-02-19 07:34:27;2;100;100;101;101;100;100;100;100;100;100;
2024-02-19 07:34:27;3;101;102;102;102;102;102;101;101;102;102;
2024-02-19 07:34:27;ht;95;21.50
2024-02-19 07:34:27;v;4.23
2024-02-19 08:04:25;1;79;79;79;79;79;79;79;79;79;86;
2024-02-19 08:04:25;2;2;3;3;2;3;3;2;2;2;2;
2024-02-19 08:04:25;3;91;92;92;92;92;92;92;92;91;92;
2024-02-19 08:04:25;ht;97;23.10
2024-02-19 08:04:25;v;4.24
2024-02-19 08:34:30;1;97;97;102;99;97;97;97;97;97;97;
2024-02-19 08:34:30;2;100;99;99;98;98;98;98;98;98;98;
2024-02-19 08:34:30;3;91;90;91;90;91;90;90;90;91;90;
2024-02-19 08:34:30;ht;97;24.60
2024-02-19 08:34:30;v;4.23
2024-02-19 09:04:32;1;100;100;100;100;100;108;101;101;101;100;
2024-02-19 09:04:32;2;98;97;97;97;98;97;97;97;97;97;
2024-02-19 09:04:32;3;86;86;86;86;86;86;86;86;86;86;
2024-02-19 09:04:32;ht;97;26.30
2024-02-19 09:04:32;v;4.23
2024-02-19 09:34:32;1;83;83;83;83;83;83;84;83;83;83;
2024-02-19 09:34:32;2;103;103;103;103;103;103;103;103;103;103;
2024-02-19 09:34:32;3;101;100;100;100;100;101;100;100;101;100;
2024-02-19 09:34:32;ht;97;27.00
2024-02-19 09:34:32;v;4.24
2024-02-19 10:04:33;1;102;102;102;102;105;106;103;102;102;102;
2024-02-19 10:04:33;2;80;80;80;80;80;80;80;80;80;80;
2024-02-19 10:04:33;3;91;91;91;91;91;91;91;91;91;91;
2024-02-19 10:04:33;ht;92;28.00
2024-02-19 10:04:33;v;4.23
2024-02-19 10:34:35;1;94;94;94;99;97;95;94;94;94;94;
2024-02-19 10:34:35;2;102;102;102;102;102;102;102;102;102;102;
2024-02-19 10:34:35;3;92;93;92;93;93;93;93;93;93;92;
2024-02-19 10:34:35;ht;91;28.80
2024-02-19 10:34:35;v;4.23
2024-02-19 11:04:32;1;105;104;105;105;104;104;104;104;105;104;
2024-02-19 11:04:32;2;2;2;3;3;2;5;4;3;3;3;
2024-02-19 11:04:32;3;98;98;98;98;98;98;98;98;98;98;
2024-02-19 11:04:32;ht;91;28.80
2024-02-19 11:04:32;v;4.23
2024-02-19 11:34:35;1;103;103;103;103;103;103;103;103;103;103;
2024-02-19 11:34:35;2;102;102;102;102;102;102;102;102;102;103;
2024-02-19 11:34:35;3;94;94;95;95;95;95;95;95;95;94;
2024-02-19 11:34:35;ht;84;30.20
2024-02-19 11:34:35;v;4.24
2024-02-19 12:04:38;1;101;101;101;101;109;102;102;102;102;101;
2024-02-19 12:04:38;2;102;102;102;102;102;102;102;102;102;102;
2024-02-19 12:04:38;3;91;91;91;91;91;91;91;91;91;91;
2024-02-19 12:04:38;ht;87;29.20
2024-02-19 12:04:38;v;4.23
2024-02-19 12:34:37;1;99;99;99;98;99;99;99;99;99;99;
2024-02-19 12:34:37;2;89;88;88;88;88;88;88;88;88;88;
2024-02-19 12:34:37;3;98;98;98;98;98;98;98;97;98;97;
2024-02-19 12:34:37;ht;81;29.80
2024-02-19 12:34:37;v;4.24
2024-02-19 13:04:36;1;3;3;3;3;2;2;3;3;3;3;
2024-02-19 13:04:36;2;76;75;75;75;75;76;75;75;75;75;
2024-02-19 13:04:36;3;103;103;103;103;103;103;103;104;103;104;
2024-02-19 13:04:36;ht;74;31.20
2024-02-19 13:04:36;v;4.23
2024-02-19 13:34:36;1;87;94;88;87;87;87;87;87;87;87;
2024-02-19 13:34:36;2;98;98;98;98;97;98;98;98;97;97;
2024-02-19 13:34:36;3;76;76;76;76;76;76;76;76;76;76;
2024-02-19 13:34:36;ht;74;31.30
2024-02-19 13:34:36;v;4.23
2024-02-19 14:04:35;1;98;94;93;93;93;92;92;93;92;92;
2024-02-19 14:04:35;2;98;97;96;96;96;96;97;96;96;96;
2024-02-19 14:04:35;3;79;79;79;79;79;79;79;79;79;79;
2024-02-19 14:04:35;ht;76;30.90
2024-02-19 14:04:35;v;4.24
2024-02-19 14:34:38;1;106;101;100;100;99;99;99;100;100;99;
2024-02-19 14:34:38;2;102;100;100;99;99;99;99;99;99;99;
2024-02-19 14:34:38;3;100;100;100;100;100;100;100;100;100;100;
2024-02-19 14:34:38;ht;68;32.00
2024-02-19 14:34:38;v;4.24
2024-02-19 15:04:37;1;99;99;99;99;99;99;99;99;99;99;
2024-02-19 15:04:37;2;103;104;103;103;103;103;103;103;104;104;
2024-02-19 15:04:37;3;83;83;83;83;83;83;83;83;83;83;
2024-02-19 15:04:37;ht;69;32.50
2024-02-19 15:04:37;v;4.24
2024-02-19 15:34:37;1;95;95;96;95;95;95;95;95;95;95;
2024-02-19 15:34:37;2;99;99;99;99;99;99;99;99;99;100;
2024-02-19 15:34:37;3;84;84;85;84;84;85;84;85;85;84;
2024-02-19 15:34:37;ht;70;32.50
2024-02-19 15:34:37;v;4.24
2024-02-19 16:04:37;1;97;98;98;98;98;98;97;97;98;97;
2024-02-19 16:04:37;2;103;103;103;103;103;104;103;104;103;104;
2024-02-19 16:04:37;3;82;82;82;82;82;82;82;82;82;82;
2024-02-19 16:04:37;ht;73;32.80
2024-02-19 16:04:37;v;4.24
2024-02-19 16:34:37;1;96;96;97;97;96;97;96;96;97;96;
2024-02-19 16:34:37;2;99;99;99;99;99;99;99;99;99;99;
2024-02-19 16:34:37;3;88;89;88;89;88;89;88;89;88;88;
2024-02-19 16:34:37;ht;73;32.30
2024-02-19 16:34:37;v;4.24
2024-02-19 17:04:36;1;98;98;98;98;106;100;99;99;99;99;
2024-02-19 17:04:36;2;105;106;105;105;106;106;106;106;105;106;
2024-02-19 17:04:36;3;104;104;103;104;104;104;104;104;103;104;
2024-02-19 17:04:36;ht;70;32.20
2024-02-19 17:04:36;v;4.24
2024-02-19 17:34:35;1;2;3;6;10;4;4;3;3;3;3;
2024-02-19 17:34:35;2;100;100;101;100;101;100;100;100;100;101;
2024-02-19 17:34:35;3;104;104;104;104;103;103;104;103;103;104;
2024-02-19 17:34:35;ht;66;32.00
2024-02-19 17:34:35;v;4.24
2024-02-19 18:04:34;1;86;86;86;86;84;86;86;86;86;85;
2024-02-19 18:04:34;2;104;104;103;103;103;103;103;103;103;103;
2024-02-19 18:04:34;3;83;83;83;83;83;83;83;84;83;84;
2024-02-19 18:04:34;ht;69;31.00
2024-02-19 18:04:34;v;4.24
2024-02-19 18:34:36;1;90;90;90;90;90;90;89;89;90;90;
2024-02-19 18:34:36;2;103;103;103;103;103;103;103;103;103;103;
2024-02-19 18:34:36;3;87;87;87;87;87;87;87;87;87;87;
2024-02-19 18:34:36;ht;71;30.40
2024-02-19 18:34:36;v;4.24
2024-02-19 19:04:32;1;2;2;3;3;8;10;4;3;3;3;
2024-02-19 19:04:32;2;96;96;96;96;96;96;96;96;96;96;
2024-02-19 19:04:32;3;84;84;84;84;84;84;84;85;84;84;
2024-02-19 19:04:32;ht;77;29.20
2024-02-19 19:04:32;v;4.24
2024-02-19 19:34:30;1;94;94;94;94;93;93;94;93;94;94;
2024-02-19 19:34:30;2;104;104;104;104;104;104;104;104;104;104;
2024-02-19 19:34:30;3;100;101;100;101;101;101;100;100;101;101;
2024-02-19 19:34:30;ht;83;27.40
2024-02-19 19:34:30;v;4.24
2024-02-19 20:04:31;1;74;74;74;74;74;74;74;74;74;74;
2024-02-19 20:04:31;2;97;97;97;97;97;97;97;97;97;97;
2024-02-19 20:04:31;3;119;119;119;119;119;119;119;119;119;119;
2024-02-19 20:04:31;ht;94;24.50
2024-02-19 20:04:31;v;4.24
2024-02-19 20:34:28;1;92;92;92;92;91;91;91;91;91;91;
2024-02-19 20:34:28;2;104;104;104;104;104;104;104;104;104;104;
2024-02-19 20:34:28;3;87;87;87;87;87;87;87;87;87;87;
2024-02-19 20:34:28;ht;97;23.10
2024-02-19 20:34:28;v;4.25
2024-02-19 21:04:24;1;78;77;78;77;77;77;77;77;77;77;
2024-02-19 21:04:24;2;101;101;101;101;101;101;102;101;101;101;
2024-02-19 21:04:24;3;92;92;91;92;92;92;92;91;92;91;
2024-02-19 21:04:24;ht;97;23.10
2024-02-19 21:04:24;v;4.24
2024-02-19 21:34:25;1;85;84;84;84;84;84;84;84;84;84;
2024-02-19 21:34:25;2;103;103;103;103;103;103;103;103;103;103;
2024-02-19 21:34:25;3;92;92;92;92;92;92;92;91;92;92;
2024-02-19 21:34:25;ht;97;22.60
2024-02-19 21:34:25;v;4.25
2024-02-19 22:04:25;1;3;3;3;3;3;2;2;2;2;2;
2024-02-19 22:04:25;2;104;105;104;105;105;104;104;105;104;105;
2024-02-19 22:04:25;3;93;92;92;92;92;92;92;92;92;92;
2024-02-19 22:04:25;ht;97;22.20
2024-02-19 22:04:25;v;4.24
2024-02-19 22:34:25;1;108;108;107;107;107;108;107;107;107;108;
2024-02-19 22:34:25;2;104;104;104;104;104;104;104;104;105;105;
2024-02-19 22:34:25;3;97;96;97;96;96;97;96;96;96;97;
2024-02-19 22:34:25;ht;91;21.80
2024-02-19 22:34:25;v;4.25
2024-02-19 23:04:25;1;83;83;83;83;83;83;83;83;83;83;
2024-02-19 23:04:25;2;104;104;105;104;105;104;105;105;105;104;
2024-02-19 23:04:25;3;119;119;119;119;119;119;119;119;119;119;
2024-02-19 23:04:25;ht;84;21.60
2024-02-19 23:04:25;v;4.24
2024-02-19 23:34:25;1;83;83;83;83;83;83;83;83;83;83;
2024-02-19 23:34:25;2;104;104;104;104;104;104;104;105;104;104;
2024-02-19 23:34:25;3;119;119;119;119;119;119;119;119;119;119;
2024-02-19 23:34:25;ht;88;21.90
2024-02-19 23:34:25;v;4.24
