2024-07-13 00:04:13;1;98;98;98;98;98;98;98;98;98;98;
2024-07-13 00:04:13;2;111;111;111;111;111;111;111;111;111;111;
2024-07-13 00:04:13;3;116;116;116;116;116;116;116;116;116;116;
2024-07-13 00:04:13;ht;97;0.40
2024-07-13 00:04:13;v;4.22
2024-07-13 00:34:14;1;105;105;105;105;105;105;105;105;105;105;
2024-07-13 00:34:14;2;104;104;104;104;104;104;104;104;104;104;
2024-07-13 00:34:14;3;111;111;111;111;111;111;111;111;111;111;
2024-07-13 00:34:14;ht;97;-1.50
2024-07-13 00:34:14;v;4.22
2024-07-13 01:04:14;1;105;105;105;105;105;105;105;105;105;104;
2024-07-13 01:04:14;2;112;112;112;112;112;112;112;112;112;112;
2024-07-13 01:04:14;3;121;121;121;121;121;121;121;121;121;121;
2024-07-13 01:04:14;ht;97;-0.10
2024-07-13 01:04:14;v;4.22
2024-07-13 01:34:15;1;97;97;97;97;97;97;97;97;97;97;
2024-07-13 01:34:15;2;104;104;105;104;105;104;105;105;105;104;
2024-07-13 01:34:15;3;119;118;118;118;118;118;118;118;118;118;
2024-07-13 01:34:15;ht;97;1.20
2024-07-13 01:34:15;v;4.21
2024-07-13 02:04:16;1;107;107;106;106;107;107;107;107;107;107;
2024-07-13 02:04:16;2;108;108;109;108;108;108;108;108;108;108;
2024-07-13 02:04:16;3;89;89;89;89;89;89;89;89;89;89;
2024-07-13 02:04:16;ht;97;0.50
2024-07-13 02:04:16;v;4.22
2024-07-13 02:34:11;1;100;100;100;100;100;100;100;100;100;100;
2024-07-13 02:34:11;2;108;109;109;108;108;108;109;108;108;109;
2024-07-13 02:34:11;3;119;119;119;119;119;119;119;119;119;119;
2024-07-13 02:34:11;ht;97;-1.10
2024-07-13 02:34:11;v;4.21
2024-07-13 03:04:12;1;107;107;107;107;107;107;106;106;107;107;
2024-07-13 03:04:12;2;108;108;108;108;108;108;107;108;108;108;
2024-07-13 03:04:12;3;121;121;121;121;121;121;121;121;121;121;
2024-07-13 03:04:12;ht;97;-0.40
2024-07-13 03:04:12;v;4.22
2024-07-13 03:34:12;1;107;107;107;106;107;106;106;106;106;107;
2024-07-13 03:34:12;2;109;109;109;109;109;109;109;109;109;109;
2024-07-13 03:34:12;3;114;114;114;114;114;114;114;114;114;114;
2024-07-13 03:34:12;ht;97;-0.70
2024-07-13 03:34:12;v;4.21
2024-07-13 04:04:12;1;105;106;106;105;106;106;105;105;105;106;
2024-07-13 04:04:12;2;110;109;110;109;110;109;110;109;110;110;
2024-07-13 04:04:12;3;115;115;115;115;115;115;115;115;115;115;
2024-07-13 04:04:12;ht;97;0.10
2024-07-13 04:04:12;v;4.22
2024-07-13 04:34:12;1;108;108;108;107;108;108;108;108;107;108;
2024-07-13 04:34:12;2;96;96;96;96;96;96;96;96;96;96;
2024-07-13 04:34:12;3;116;115;116;116;116;116;116;116;116;116;
2024-07-13 04:34:12;ht;97;-2.50
2024-07-13 04:34:12;v;4.21
2024-07-13 05:04:12;1;111;111;111;111;111;111;111;111;111;111;
2024-07-13 05:04:12;2;105;105;105;105;105;105;105;105;105;105;
2024-07-13 05:04:12;3;118;118;118;118;118;118;118;118;118;118;
2024-07-13 05:04:12;ht;97;-3.40
2024-07-13 05:04:12;v;4.22
2024-07-13 05:34:12;1;121;120;120;121;120;120;120;121;120;120;
2024-07-13 05:34:12;2;99;99;99;99;99;99;98;99;98;99;
2024-07-13 05:34:12;3;113;114;113;113;113;113;113;113;113;113;
2024-07-13 05:34:12;ht;97;-3.90
2024-07-13 05:34:12;v;4.21
2024-07-13 06:04:11;1;121;121;121;120;121;121;120;121;121;120;
2024-07-13 06:04:11;2;92;92;92;92;92;92;92;92;92;92;
2024-07-13 06:04:11;3;113;113;113;113;113;113;113;113;113;113;
2024-07-13 06:04:11;ht;97;-4.00
2024-07-13 06:04:11;v;4.21
2024-07-13 06:34:15;1;101;100;101;100;100;100;100;100;101;101;
2024-07-13 06:34:15;2;91;90;91;91;90;90;90;90;90;90;
2024-07-13 06:34:15;3;116;116;116;116;116;116;116;116;116;116;
2024-07-13 06:34:15;ht;97;-4.50
2024-07-13 06:34:15;v;4.20
2024-07-13 07:04:14;1;116;115;115;116;115;115;115;115;115;115;
2024-07-13 07:04:14;2;95;95;95;95;95;95;95;95;95;95;
2024-07-13 07:04:14;3;111;111;111;111;111;111;112;111;111;111;
2024-07-13 07:04:14;ht;97;-4.30
2024-07-13 07:04:14;v;4.21
2024-07-13 07:34:13;1;99;99;99;99;99;99;99;99;98;99;
2024-07-13 07:34:13;2;91;91;91;91;91;91;91;94;92;92;
2024-07-13 07:34:13;3;114;114;114;114;114;114;114;114;114;114;
2024-07-13 07:34:13;ht;97;-4.20
2024-07-13 07:34:13;v;4.20
2024-07-13 08:04:12;1;121;120;121;121;121;121;120;121;120;121;
2024-07-13 08:04:12;2;106;105;105;105;105;105;108;106;106;106;
2024-07-13 08:04:12;3;115;115;115;115;115;115;115;115;115;115;
2024-07-13 08:04:12;ht;97;-4.10
2024-07-13 08:04:12;v;4.21
2024-07-13 08:34:11;1;94;94;94;94;94;94;94;94;94;94;
2024-07-13 08:34:11;2;98;98;98;98;98;98;98;98;98;98;
2024-07-13 08:34:11;3;104;104;104;104;105;104;104;111;105;105;
2024-07-13 08:34:11;ht;97;-2.40
2024-07-13 08:34:11;v;4.21
2024-07-13 09:04:13;1;94;94;94;94;94;94;94;94;94;94;
2024-07-13 09:04:13;2;106;106;106;106;106;106;106;106;106;106;
2024-07-13 09:04:13;3;114;114;114;114;114;114;114;114;114;114;
2024-07-13 09:04:13;ht;97;1.40
2024-07-13 09:04:13;v;4.21
2024-07-13 09:34:18;1;107;107;107;107;107;107;107;107;107;107;
2024-07-13 09:34:18;2;105;104;104;104;104;104;105;104;104;104;
2024-07-13 09:34:18;3;122;122;122;122;122;122;122;122;122;122;
2024-07-13 09:34:18;ht;97;3.40
2024-07-13 09:34:18;v;4.21
2024-07-13 10:04:19;1;103;103;103;103;103;103;103;103;103;103;
2024-07-13 10:04:19;2;106;106;106;106;107;106;106;107;107;106;
2024-07-13 10:04:19;3;93;93;93;92;92;93;92;92;92;92;
2024-07-13 10:04:19;ht;96;6.30
2024-07-13 10:04:19;v;4.22
2024-07-13 10:34:19;1;99;99;99;98;99;99;98;98;99;99;
2024-07-13 10:34:19;2;106;106;106;106;106;106;106;106;106;106;
2024-07-13 10:34:19;3;104;104;104;104;104;104;104;104;104;104;
2024-07-13 10:34:19;ht;86;9.90
2024-07-13 10:34:19;v;4.21
2024-07-13 11:04:26;1;124;124;124;124;124;124;124;124;124;124;
2024-07-13 11:04:26;2;105;105;105;105;105;105;105;105;105;105;
2024-07-13 11:04:26;3;90;90;90;90;90;90;90;90;90;90;
2024-07-13 11:04:26;ht;77;11.80
2024-07-13 11:04:26;v;4.21
2024-07-13 11:34:24;1;101;101;101;101;101;101;101;101;101;101;
2024-07-13 11:34:24;2;107;107;107;107;107;107;107;107;107;106;
2024-07-13 11:34:24;3;3;3;3;3;3;3;3;3;3;3;
2024-07-13 11:34:24;ht;74;12.10
2024-07-13 11:34:24;v;4.21
2024-07-13 12:04:22;1;101;100;101;101;101;100;100;101;101;100;
2024-07-13 12:04:22;2;102;102;102;102;102;102;102;102;102;102;
2024-07-13 12:04:22;3;102;102;102;102;102;102;102;102;101;102;
2024-07-13 12:04:22;ht;70;13.30
2024-07-13 12:04:22;v;4.21
2024-07-13 12:34:24;1;96;95;95;96;96;96;96;96;96;96;
2024-07-13 12:34:24;2;100;100;100;100;100;100;100;100;100;100;
2024-07-13 12:34:24;3;86;85;85;85;85;85;85;85;85;85;
2024-07-13 12:34:24;ht;69;13.60
2024-07-13 12:34:24;v;4.22
2024-07-13 13:04:23;1;123;123;123;123;123;123;123;123;122;123;
2024-07-13 13:04:23;2;103;104;103;104;103;104;104;104;104;104;
2024-07-13 13:04:23;3;106;106;106;106;106;106;106;107;107;107;
2024-07-13 13:04:23;ht;66;13.90
2024-07-13 13:04:23;v;4.21
2024-07-13 13:34:26;1;123;123;123;124;123;123;123;123;123;123;
2024-07-13 13:34:26;2;100;100;100;100;100;100;100;99;100;99;
2024-07-13 13:34:26;3;107;107;107;107;107;107;107;107;107;107;
2024-07-13 13:34:26;ht;62;15.60
2024-07-13 13:34:26;v;4.22
2024-07-13 14:04:24;1;94;94;94;94;94;94;94;94;94;93;
2024-07-13 14:04:24;2;105;105;105;105;105;105;105;104;105;105;
2024-07-13 14:04:24;3;103;104;104;104;104;104;103;104;104;103;
2024-07-13 14:04:24;ht;59;14.30
2024-07-13 14:04:24;v;4.21
2024-07-13 14:34:22;1;94;94;94;94;94;94;94;94;94;94;
2024-07-13 14:34:22;2;110;109;109;109;110;110;109;110;109;109;
2024-07-13 14:34:22;3;81;81;81;81;81;81;81;81;81;81;
2024-07-13 14:34:22;ht;60;14.70
2024-07-13 14:34:22;v;4.22
2024-07-13 15:04:25;1;3;3;3;3;3;3;3;3;3;3;
2024-07-13 15:04:25;2;93;94;93;94;94;93;94;94;94;95;
2024-07-13 15:04:25;3;100;100;101;101;102;102;102;103;103;103;
2024-07-13 15:04:25;ht;63;14.50
2024-07-13 15:04:25;v;4.22
2024-07-13 15:34:23;1;118;118;118;118;118;118;118;118;118;118;
2024-07-13 15:34:23;2;103;103;103;103;103;103;103;103;103;103;
2024-07-13 15:34:23;3;126;125;126;125;125;125;125;125;125;125;
2024-07-13 15:34:23;ht;61;15.60
2024-07-13 15:34:23;v;4.22
2024-07-13 16:04:26;1;108;108;108;108;108;108;108;108;108;108;
2024-07-13 16:04:26;2;98;98;98;98;98;98;98;98;98;98;
2024-07-13 16:04:26;3;110;110;110;110;110;110;110;110;110;110;
2024-07-13 16:04:26;ht;60;14.90
2024-07-13 16:04:26;v;4.22
2024-07-13 16:34:24;1;3;3;3;3;3;3;3;3;3;3;
2024-07-13 16:34:24;2;106;106;106;106;106;106;106;106;106;106;
2024-07-13 16:34:24;3;87;87;87;87;87;87;87;86;87;87;
2024-07-13 16:34:24;ht;62;14.70
2024-07-13 16:34:24;v;4.22
2024-07-13 17:04:22;1;99;99;99;99;99;99;99;99;99;99;
2024-07-13 17:04:22;2;101;101;101;101;101;101;101;101;101;101;
2024-07-13 17:04:22;3;88;88;88;88;88;88;88;88;88;88;
2024-07-13 17:04:22;ht;63;14.30
2024-07-13 17:04:22;v;4.22
2024-07-13 17:34:24;1;94;94;94;94;94;94;95;95;95;95;
2024-07-13 17:34:24;2;107;106;106;106;107;106;106;106;106;106;
2024-07-13 17:34:24;3;116;116;116;116;116;116;116;116;115;116;
2024-07-13 17:34:24;ht;65;13.20
2024-07-13 17:34:24;v;4.23
2024-07-13 18:04:19;1;118;118;118;118;118;118;118;118;119;118;
2024-07-13 18:04:19;2;101;102;102;101;101;102;102;102;102;102;
2024-07-13 18:04:19;3;86;86;86;86;86;86;86;86;86;86;
2024-07-13 18:04:19;ht;74;10.40
2024-07-13 18:04:19;v;4.22
2024-07-13 18:34:21;1;117;117;117;116;117;117;117;117;116;117;
2024-07-13 18:34:21;2;96;96;96;96;96;96;96;96;96;96;
2024-07-13 18:34:21;3;111;111;111;110;111;110;111;111;111;111;
2024-07-13 18:34:21;ht;82;8.20
2024-07-13 18:34:21;v;4.23
2024-07-13 19:04:16;1;115;114;114;114;115;115;115;114;114;115;
2024-07-13 19:04:16;2;106;106;106;106;106;106;106;107;106;106;
2024-07-13 19:04:16;3;100;100;100;100;100;100;100;100;100;100;
2024-07-13 19:04:16;ht;84;8.00
2024-07-13 19:04:16;v;4.22
2024-07-13 19:34:16;1;115;114;114;114;114;114;114;114;114;114;
2024-07-13 19:34:16;2;90;90;90;90;90;90;90;90;90;90;
2024-07-13 19:34:16;3;100;100;101;101;100;101;101;100;101;100;
2024-07-13 19:34:16;ht;87;6.90
2024-07-13 19:34:16;v;4.23
2024-07-13 20:04:15;1;114;114;114;114;114;113;114;114;114;114;
2024-07-13 20:04:15;2;107;107;107;107;107;107;107;107;107;107;
2024-07-13 20:04:15;3;102;101;101;101;101;101;101;101;101;101;
2024-07-13 20:04:15;ht;93;5.80
2024-07-13 20:04:15;v;4.22
2024-07-13 20:34:18;1;99;98;99;99;98;98;99;99;99;99;
2024-07-13 20:34:18;2;91;91;91;91;91;91;91;91;91;91;
2024-07-13 20:34:18;3;107;107;107;107;107;107;107;107;107;107;
2024-07-13 20:34:18;ht;94;5.80
2024-07-13 20:34:18;v;4.22
2024-07-13 21:04:16;1;113;113;113;113;113;113;113;113;113;113;
2024-07-13 21:04:16;2;89;89;89;89;89;89;89;89;89;89;
2024-07-13 21:04:16;3;109;109;109;109;109;109;109;109;109;109;
2024-07-13 21:04:16;ht;97;4.30
2024-07-13 21:04:16;v;4.23
2024-07-13 21:34:14;1;102;102;102;102;102;102;102;102;102;102;
2024-07-13 21:34:14;2;102;102;103;103;103;102;102;102;102;102;
2024-07-13 21:34:14;3;109;110;110;109;109;110;110;109;109;109;
2024-07-13 21:34:14;ht;97;2.10
2024-07-13 21:34:14;v;4.22
2024-07-13 22:04:16;1;108;108;108;108;108;108;108;108;108;108;
2024-07-13 22:04:16;2;100;100;100;100;100;100;100;100;100;100;
2024-07-13 22:04:16;3;89;89;89;89;89;89;89;89;89;89;
2024-07-13 22:04:16;ht;97;3.70
2024-07-13 22:04:16;v;4.23
2024-07-13 22:34:13;1;97;97;97;97;97;97;97;97;97;97;
2024-07-13 22:34:13;2;107;107;107;107;107;107;107;107;107;107;
2024-07-13 22:34:13;3;109;109;109;109;109;109;109;110;109;109;
2024-07-13 22:34:13;ht;97;3.40
2024-07-13 22:34:13;v;4.22
2024-07-13 23:04:15;1;128;128;128;128;128;128;128;128;128;128;
2024-07-13 23:04:15;2;104;104;104;104;104;104;104;104;104;104;
2024-07-13 23:04:15;3;83;83;83;83;83;83;83;83;83;83;
2024-07-13 23:04:15;ht;97;0.60
2024-07-13 23:04:15;v;4.23
2024-07-13 23:34:12;1;111;111;111;111;111;111;111;111;117;112;
2024-07-13 23:34:12;2;102;102;101;101;102;101;101;102;101;102;
2024-07-13 23:34:12;3;118;118;118;118;118;118;118;118;118;118;
2024-07-13 23:34:12;ht;97;-0.10
2024-07-13 23:34:12;v;4.22
