2024-02-25 00:04:26;1;69;69;70;69;69;69;69;69;69;69;
2024-02-25 00:04:26;2;100;102;101;101;100;100;100;100;100;100;
2024-02-25 00:04:26;3;73;73;73;73;73;73;73;73;73;73;
2024-02-25 00:04:26;ht;73;22.90
2024-02-25 00:04:26;v;4.23
2024-02-25 00:34:26;1;116;116;116;116;116;116;116;116;116;116;
2024-02-25 00:34:26;2;102;102;102;102;102;102;102;102;102;102;
2024-02-25 00:34:26;3;73;73;73;73;73;73;73;73;73;73;
2024-02-25 00:34:26;ht;74;22.60
2024-02-25 00:34:26;v;4.22
2024-02-25 01:04:26;1;73;73;73;73;73;74;73;73;73;73;
2024-02-25 01:04:26;2;102;102;102;102;102;102;102;102;102;102;
2024-02-25 01:04:26;3;70;70;70;70;70;70;70;70;70;70;
2024-02-25 01:04:26;ht;74;22.50
2024-02-25 01:04:26;v;4.23
2024-02-25 01:34:27;1;82;82;82;82;82;82;82;82;82;82;
2024-02-25 01:34:27;2;94;94;95;94;94;94;94;94;94;94;
2024-02-25 01:34:27;3;116;116;116;116;116;116;116;116;116;116;
2024-02-25 01:34:27;ht;72;22.40
2024-02-25 01:34:27;v;4.22
2024-02-25 02:04:27;1;67;67;67;67;67;67;67;67;67;67;
2024-02-25 02:04:27;2;102;102;102;102;102;102;102;102;102;102;
2024-02-25 02:04:27;3;82;82;82;82;82;82;82;82;82;82;
2024-02-25 02:04:27;ht;63;22.10
2024-02-25 02:04:27;v;4.23
2024-02-25 02:34:27;1;67;67;67;67;67;67;67;67;67;67;
2024-02-25 02:34:27;2;103;103;103;103;103;103;103;103;103;103;
2024-02-25 02:34:27;3;68;68;68;68;68;68;68;68;68;68;
2024-02-25 02:34:27;ht;77;22.10
2024-02-25 02:34:27;v;4.22
2024-02-25 03:04:23;1;74;74;74;74;74;74;74;74;74;74;
2024-02-25 03:04:23;2;84;83;83;84;84;84;84;84;84;83;
2024-02-25 03:04:23;3;103;102;103;103;103;103;103;103;103;103;
2024-02-25 03:04:23;ht;78;22.00
2024-02-25 03:04:23;v;4.23
2024-02-25 03:34:28;1;124;124;124;124;124;124;124;124;124;124;
2024-02-25 03:34:28;2;102;102;102;102;102;103;102;102;102;102;
2024-02-25 03:34:28;3;73;73;73;73;73;74;74;73;73;73;
2024-02-25 03:34:28;ht;85;22.10
2024-02-25 03:34:28;v;4.22
2024-02-25 04:04:23;1;3;3;3;3;3;3;3;3;3;3;
2024-02-25 04:04:23;2;3;3;3;2;2;3;3;3;3;2;
2024-02-25 04:04:23;3;72;72;72;72;72;72;72;72;72;72;
2024-02-25 04:04:23;ht;74;21.90
2024-02-25 04:04:23;v;4.23
2024-02-25 04:34:28;1;77;78;78;77;78;78;78;78;77;77;
2024-02-25 04:34:28;2;3;3;3;3;3;3;3;3;3;3;
2024-02-25 04:34:28;3;3;3;3;3;3;3;3;3;3;3;
2024-02-25 04:34:28;ht;66;21.80
2024-02-25 04:34:28;v;4.22
2024-02-25 05:04:23;1;86;86;86;86;86;86;86;86;86;86;
2024-02-25 05:04:23;2;2;3;2;3;2;3;2;2;2;2;
2024-02-25 05:04:23;3;72;72;72;72;72;72;72;72;72;72;
2024-02-25 05:04:23;ht;67;21.70
2024-02-25 05:04:23;v;4.22
2024-02-25 05:34:28;1;119;119;119;119;119;119;119;119;119;119;
2024-02-25 05:34:28;2;106;106;106;106;106;106;106;106;106;106;
2024-02-25 05:34:28;3;62;62;62;62;62;62;62;62;62;62;
2024-02-25 05:34:28;ht;65;21.60
2024-02-25 05:34:28;v;4.23
2024-02-25 06:04:23;1;3;3;2;3;3;2;2;2;2;3;
2024-02-25 06:04:23;2;70;70;70;70;70;70;70;70;70;70;
2024-02-25 06:04:23;3;83;83;83;83;83;83;83;83;83;83;
2024-02-25 06:04:23;ht;62;21.60
2024-02-25 06:04:23;v;4.22
2024-02-25 06:34:27;1;74;74;74;74;74;74;74;74;74;74;
2024-02-25 06:34:27;2;103;103;103;103;103;103;103;103;103;103;
2024-02-25 06:34:27;3;79;79;79;79;79;79;79;79;79;79;
2024-02-25 06:34:27;ht;57;21.50
2024-02-25 06:34:27;v;4.22
2024-02-25 07:04:22;1;75;75;75;74;74;75;74;75;75;74;
2024-02-25 07:04:22;2;74;74;74;74;74;74;74;74;74;74;
2024-02-25 07:04:22;3;104;103;104;104;104;104;104;103;103;104;
2024-02-25 07:04:22;ht;56;21.40
2024-02-25 07:04:22;v;4.22
2024-02-25 07:34:26;1;66;65;66;66;65;66;65;65;65;65;
2024-02-25 07:34:26;2;103;103;103;102;102;102;102;102;102;102;
2024-02-25 07:34:26;3;67;67;67;67;67;67;67;67;67;67;
2024-02-25 07:34:26;ht;58;21.30
2024-02-25 07:34:26;v;4.22
2024-02-25 08:04:26;1;74;74;74;74;74;74;74;74;74;74;
2024-02-25 08:04:26;2;96;96;96;96;96;96;96;96;96;96;
2024-02-25 08:04:26;3;67;67;67;67;67;67;67;67;67;67;
2024-02-25 08:04:26;ht;63;21.20
2024-02-25 08:04:26;v;4.22
2024-02-25 08:34:26;1;82;82;82;82;83;83;83;83;83;83;
2024-02-25 08:34:26;2;77;77;77;77;77;77;77;77;77;77;
2024-02-25 08:34:26;3;68;68;68;68;68;68;68;68;69;68;
2024-02-25 08:34:26;ht;65;21.20
2024-02-25 08:34:26;v;4.22
2024-02-25 09:04:25;1;66;66;66;66;66;66;66;66;66;66;
2024-02-25 09:04:25;2;74;74;74;74;74;74;74;74;74;74;
2024-02-25 09:04:25;3;71;71;71;71;71;71;71;71;71;71;
2024-02-25 09:04:25;ht;67;21.20
2024-02-25 09:04:25;v;4.22
2024-02-25 09:34:25;1;66;66;66;66;66;66;66;66;66;66;
2024-02-25 09:34:25;2;80;80;80;80;80;80;80;80;80;80;
2024-02-25 09:34:25;3;78;77;78;78;78;78;78;78;78;78;
2024-02-25 09:34:25;ht;66;21.30
2024-02-25 09:34:25;v;4.22
2024-02-25 10:04:24;1;67;67;67;67;67;67;67;67;67;67;
2024-02-25 10:04:24;2;77;77;77;77;77;77;77;77;77;77;
2024-02-25 10:04:24;3;127;127;127;127;127;127;127;127;127;127;
2024-02-25 10:04:24;ht;66;21.30
2024-02-25 10:04:24;v;4.22
2024-02-25 10:34:24;1;79;79;79;79;79;79;79;79;79;79;
2024-02-25 10:34:24;2;65;65;65;65;65;65;65;65;65;65;
2024-02-25 10:34:24;3;70;70;70;70;70;70;70;70;70;70;
2024-02-25 10:34:24;ht;66;21.30
2024-02-25 10:34:24;v;4.22
2024-02-25 11:04:24;1;79;79;79;79;79;79;79;79;79;79;
2024-02-25 11:04:24;2;75;75;75;74;75;75;75;75;74;74;
2024-02-25 11:04:24;3;69;69;69;69;69;69;69;69;69;69;
2024-02-25 11:04:24;ht;65;21.30
2024-02-25 11:04:24;v;4.22
2024-02-25 11:34:24;1;112;112;112;112;112;112;112;112;112;112;
2024-02-25 11:34:24;2;76;76;76;76;76;76;76;77;76;76;
2024-02-25 11:34:24;3;73;73;73;73;73;73;73;73;73;73;
2024-02-25 11:34:24;ht;65;21.30
2024-02-25 11:34:24;v;4.22
2024-02-25 12:04:24;1;70;70;70;70;70;70;70;70;70;70;
2024-02-25 12:04:24;2;76;76;76;76;76;76;76;76;76;76;
2024-02-25 12:04:24;3;68;68;68;68;68;68;68;68;68;68;
2024-02-25 12:04:24;ht;66;21.30
2024-02-25 12:04:24;v;4.22
2024-02-25 12:34:24;1;66;66;66;66;66;66;66;66;66;66;
2024-02-25 12:34:24;2;67;67;67;67;67;67;67;67;67;67;
2024-02-25 12:34:24;3;71;72;71;72;71;71;72;72;72;71;
2024-02-25 12:34:24;ht;53;21.80
2024-02-25 12:34:24;v;4.22
2024-02-25 13:04:24;1;82;82;82;82;82;82;82;82;82;82;
2024-02-25 13:04:24;2;104;104;104;104;104;104;104;104;104;104;
2024-02-25 13:04:24;3;69;69;69;69;69;69;69;69;69;69;
2024-02-25 13:04:24;ht;52;22.00
2024-02-25 13:04:24;v;4.22
2024-02-25 13:34:25;1;71;71;71;71;71;71;71;71;71;71;
2024-02-25 13:34:25;2;97;97;97;97;97;97;97;97;97;97;
2024-02-25 13:34:25;3;72;72;72;72;72;72;72;72;72;72;
2024-02-25 13:34:25;ht;53;21.60
2024-02-25 13:34:25;v;4.22
2024-02-25 14:04:25;1;68;68;68;68;68;68;68;68;68;68;
2024-02-25 14:04:25;2;69;69;69;69;69;69;69;69;69;69;
2024-02-25 14:04:25;3;74;73;73;73;73;73;73;73;73;73;
2024-02-25 14:04:25;ht;63;21.30
2024-02-25 14:04:25;v;4.22
2024-02-25 14:34:25;1;79;79;79;79;79;79;79;79;79;79;
2024-02-25 14:34:25;2;98;98;98;98;98;98;98;98;98;98;
2024-02-25 14:34:25;3;69;69;69;69;69;69;69;69;69;68;
2024-02-25 14:34:25;ht;72;21.30
2024-02-25 14:34:25;v;4.22
2024-02-25 15:04:24;1;67;67;67;67;67;67;67;67;67;67;
2024-02-25 15:04:24;2;95;94;94;94;94;94;94;94;94;94;
2024-02-25 15:04:24;3;82;82;82;82;82;82;82;82;82;82;
2024-02-25 15:04:24;ht;71;21.40
2024-02-25 15:04:24;v;4.22
2024-02-25 15:34:24;1;66;66;66;66;66;66;66;66;66;66;
2024-02-25 15:34:24;2;101;101;101;101;101;101;101;101;101;101;
2024-02-25 15:34:24;3;101;101;102;102;102;101;101;102;101;101;
2024-02-25 15:34:24;ht;70;21.60
2024-02-25 15:34:24;v;4.22
2024-02-25 16:04:24;1;80;80;80;80;80;80;80;80;80;80;
2024-02-25 16:04:24;2;89;89;89;89;89;89;89;89;89;89;
2024-02-25 16:04:24;3;70;70;70;70;70;70;70;70;70;70;
2024-02-25 16:04:24;ht;65;21.90
2024-02-25 16:04:24;v;4.22
2024-02-25 16:34:25;1;76;76;76;76;76;76;76;76;76;76;
2024-02-25 16:34:25;2;76;76;77;76;76;76;76;76;76;76;
2024-02-25 16:34:25;3;71;71;71;71;71;71;71;71;71;71;
2024-02-25 16:34:25;ht;48;22.60
2024-02-25 16:34:25;v;4.22
2024-02-25 17:04:26;1;70;70;70;70;70;70;70;70;70;70;
2024-02-25 17:04:26;2;76;76;76;76;76;75;75;75;75;75;
2024-02-25 17:04:26;3;70;70;70;70;70;70;70;70;70;70;
2024-02-25 17:04:26;ht;49;22.80
2024-02-25 17:04:26;v;4.22
2024-02-25 17:34:28;1;85;85;86;86;85;85;85;85;85;85;
2024-02-25 17:34:28;2;87;86;87;87;87;87;87;87;87;87;
2024-02-25 17:34:28;3;67;67;67;67;67;67;67;67;67;67;
2024-02-25 17:34:28;ht;63;22.80
2024-02-25 17:34:28;v;4.22
2024-02-25 18:04:25;1;71;72;71;71;71;71;71;71;71;71;
2024-02-25 18:04:25;2;77;77;77;77;77;77;77;77;77;77;
2024-02-25 18:04:25;3;66;66;66;66;66;66;66;66;66;66;
2024-02-25 18:04:25;ht;68;22.60
2024-02-25 18:04:25;v;4.23
2024-02-25 18:34:26;1;67;67;67;67;67;67;67;67;67;67;
2024-02-25 18:34:26;2;75;75;75;75;75;75;75;75;75;75;
2024-02-25 18:34:26;3;75;75;75;75;75;75;75;75;75;75;
2024-02-25 18:34:26;ht;77;22.30
2024-02-25 18:34:26;v;4.22
2024-02-25 19:04:27;1;67;67;67;67;67;67;67;67;67;67;
2024-02-25 19:04:27;2;99;100;99;100;99;100;100;99;100;100;
2024-02-25 19:04:27;3;60;60;60;60;60;60;60;60;60;60;
2024-02-25 19:04:27;ht;62;21.90
2024-02-25 19:04:27;v;4.23
2024-02-25 19:34:27;1;80;80;79;79;79;79;79;79;79;80;
2024-02-25 19:34:27;2;73;73;73;73;73;73;73;73;73;73;
2024-02-25 19:34:27;3;3;3;3;3;3;3;3;3;3;3;
2024-02-25 19:34:27;ht;61;21.80
2024-02-25 19:34:27;v;4.22
2024-02-25 20:04:27;1;73;73;73;73;73;73;73;73;73;73;
2024-02-25 20:04:27;2;71;71;71;71;71;71;71;71;71;71;
2024-02-25 20:04:27;3;61;61;61;61;61;61;62;61;61;61;
2024-02-25 20:04:27;ht;55;21.80
2024-02-25 20:04:27;v;4.22
2024-02-25 20:34:27;1;4;3;3;3;3;3;3;3;3;3;
2024-02-25 20:34:27;2;68;68;68;68;68;68;68;68;68;68;
2024-02-25 20:34:27;3;66;66;66;66;66;66;66;66;66;66;
2024-02-25 20:34:27;ht;54;21.90
2024-02-25 20:34:27;v;4.22
2024-02-25 21:04:23;1;3;8;10;3;4;3;3;3;3;3;
2024-02-25 21:04:23;2;77;77;77;77;77;77;77;77;77;77;
2024-02-25 21:04:23;3;70;70;70;70;71;70;70;70;70;70;
2024-02-25 21:04:23;ht;63;21.90
2024-02-25 21:04:23;v;4.22
2024-02-25 21:34:27;1;77;77;77;77;77;77;77;77;77;77;
2024-02-25 21:34:27;2;104;104;104;104;105;104;104;104;104;104;
2024-02-25 21:34:27;3;79;79;79;79;79;79;79;79;79;79;
2024-02-25 21:34:27;ht;63;21.90
2024-02-25 21:34:27;v;4.22
2024-02-25 22:04:23;1;71;70;70;70;70;70;70;70;70;70;
2024-02-25 22:04:23;2;86;86;86;86;86;86;86;86;86;86;
2024-02-25 22:04:23;3;70;70;70;70;70;70;70;70;70;70;
2024-02-25 22:04:23;ht;59;21.90
2024-02-25 22:04:23;v;4.22
2024-02-25 22:34:27;1;66;66;66;66;66;66;66;66;66;66;
2024-02-25 22:34:27;2;3;3;2;3;2;2;3;3;3;3;
2024-02-25 22:34:27;3;74;74;74;74;74;74;74;74;74;74;
2024-02-25 22:34:27;ht;61;21.90
2024-02-25 22:34:27;v;4.22
2024-02-25 23:04:23;1;67;67;66;66;66;66;66;66;66;66;
2024-02-25 23:04:23;2;103;104;104;103;103;104;104;103;103;104;
2024-02-25 23:04:23;3;69;69;69;69;69;69;69;69;69;69;
2024-02-25 23:04:23;ht;58;21.90
2024-02-25 23:04:23;v;4.22
2024-02-25 23:34:27;1;3;3;3;3;3;3;3;2;3;3;
2024-02-25 23:34:27;2;66;66;66;66;66;66;66;66;66;66;
2024-02-25 23:34:27;3;97;96;97;97;97;96;97;97;97;96;
2024-02-25 23:34:27;ht;57;21.90
2024-02-25 23:34:27;v;4.22
