2024-04-30 00:04:23;1;101;101;101;101;101;101;101;101;101;101;
2024-04-30 00:04:23;2;110;110;110;110;110;110;110;110;110;110;
2024-04-30 00:04:23;3;104;104;104;104;104;104;104;104;104;105;
2024-04-30 00:04:23;ht;91;20.80
2024-04-30 00:04:23;v;4.22
2024-04-30 00:34:22;1;144;144;144;144;144;144;144;144;144;144;
2024-04-30 00:34:22;2;103;103;102;102;102;103;103;102;103;102;
2024-04-30 00:34:22;3;105;105;105;105;105;105;105;105;105;105;
2024-04-30 00:34:22;ht;85;20.70
2024-04-30 00:34:22;v;4.22
2024-04-30 01:04:26;1;105;105;105;105;105;105;105;105;105;105;
2024-04-30 01:04:26;2;104;104;104;104;104;104;104;104;105;105;
2024-04-30 01:04:26;3;100;100;100;100;100;100;100;100;100;100;
2024-04-30 01:04:26;ht;71;20.10
2024-04-30 01:04:26;v;4.22
2024-04-30 01:34:24;1;106;106;106;106;106;106;106;106;106;106;
2024-04-30 01:34:24;2;110;110;110;110;110;111;110;110;110;110;
2024-04-30 01:34:24;3;106;106;106;106;106;106;106;106;106;106;
2024-04-30 01:34:24;ht;65;19.10
2024-04-30 01:34:24;v;4.22
2024-04-30 02:04:22;1;157;157;157;157;157;157;157;157;157;157;
2024-04-30 02:04:22;2;99;99;99;99;99;99;99;99;99;99;
2024-04-30 02:04:22;3;101;101;101;101;101;101;101;101;101;101;
2024-04-30 02:04:22;ht;61;19.50
2024-04-30 02:04:22;v;4.22
2024-04-30 02:34:24;1;106;106;106;106;106;106;106;106;106;106;
2024-04-30 02:34:24;2;111;112;112;112;112;112;111;112;112;112;
2024-04-30 02:34:24;3;98;98;98;98;97;98;98;97;98;98;
2024-04-30 02:34:24;ht;60;20.00
2024-04-30 02:34:24;v;4.22
2024-04-30 03:04:22;1;96;96;96;96;96;96;96;96;96;96;
2024-04-30 03:04:22;2;110;110;110;110;110;110;110;110;110;110;
2024-04-30 03:04:22;3;105;105;105;105;105;105;105;105;105;105;
2024-04-30 03:04:22;ht;60;20.10
2024-04-30 03:04:22;v;4.22
2024-04-30 03:34:25;1;113;113;113;113;113;113;113;113;113;113;
2024-04-30 03:34:25;2;107;107;107;107;107;107;107;107;107;107;
2024-04-30 03:34:25;3;99;99;99;99;99;99;99;99;99;99;
2024-04-30 03:34:25;ht;63;20.00
2024-04-30 03:34:25;v;4.22
2024-04-30 04:04:24;1;105;105;105;105;105;105;105;105;105;105;
2024-04-30 04:04:24;2;110;110;110;110;110;109;110;110;110;109;
2024-04-30 04:04:24;3;104;104;104;104;104;104;104;104;104;104;
2024-04-30 04:04:24;ht;65;20.10
2024-04-30 04:04:24;v;4.22
2024-04-30 04:34:22;1;105;105;105;105;105;105;105;105;105;105;
2024-04-30 04:34:22;2;104;104;104;104;104;104;104;104;104;104;
2024-04-30 04:34:22;3;101;101;101;101;100;101;101;101;101;101;
2024-04-30 04:34:22;ht;66;19.90
2024-04-30 04:34:22;v;4.21
2024-04-30 05:04:25;1;105;105;105;105;105;105;105;105;105;105;
2024-04-30 05:04:25;2;111;111;111;111;111;111;111;111;111;111;
2024-04-30 05:04:25;3;96;96;96;96;96;96;96;96;96;96;
2024-04-30 05:04:25;ht;68;19.70
2024-04-30 05:04:25;v;4.22
2024-04-30 05:34:23;1;105;105;105;105;105;105;105;105;105;105;
2024-04-30 05:34:23;2;111;111;111;111;111;111;111;111;111;111;
2024-04-30 05:34:23;3;100;100;100;99;100;100;100;99;100;100;
2024-04-30 05:34:23;ht;69;19.50
2024-04-30 05:34:23;v;4.22
2024-04-30 06:04:21;1;106;106;106;106;106;106;106;106;106;106;
2024-04-30 06:04:21;2;110;110;110;110;110;110;110;110;110;110;
2024-04-30 06:04:21;3;96;96;96;96;96;96;96;96;95;96;
2024-04-30 06:04:21;ht;70;19.50
2024-04-30 06:04:21;v;4.22
2024-04-30 06:34:24;1;105;105;105;105;105;105;105;105;105;105;
2024-04-30 06:34:24;2;112;112;111;111;111;111;111;111;111;111;
2024-04-30 06:34:24;3;102;102;102;102;102;102;102;102;102;102;
2024-04-30 06:34:24;ht;71;19.50
2024-04-30 06:34:24;v;4.21
2024-04-30 07:04:22;1;105;105;105;105;105;105;105;105;105;105;
2024-04-30 07:04:22;2;102;102;102;102;102;103;102;103;103;103;
2024-04-30 07:04:22;3;101;101;101;101;101;101;100;101;101;101;
2024-04-30 07:04:22;ht;71;19.40
2024-04-30 07:04:22;v;4.22
2024-04-30 07:34:25;1;103;103;103;103;103;103;103;103;103;103;
2024-04-30 07:34:25;2;106;106;105;106;106;106;106;106;106;106;
2024-04-30 07:34:25;3;104;104;104;104;104;104;104;104;104;104;
2024-04-30 07:34:25;ht;72;19.30
2024-04-30 07:34:25;v;4.21
2024-04-30 08:04:23;1;105;105;105;105;105;105;105;105;105;105;
2024-04-30 08:04:23;2;98;98;98;99;98;98;98;98;98;98;
2024-04-30 08:04:23;3;104;104;104;104;104;104;104;104;104;104;
2024-04-30 08:04:23;ht;72;19.40
2024-04-30 08:04:23;v;4.22
2024-04-30 08:34:25;1;100;100;100;100;100;100;100;100;100;100;
2024-04-30 08:34:25;2;102;102;102;102;102;102;102;102;102;102;
2024-04-30 08:34:25;3;99;99;98;99;99;99;99;99;99;99;
2024-04-30 08:34:25;ht;72;19.50
2024-04-30 08:34:25;v;4.21
2024-04-30 09:04:24;1;105;105;105;105;105;105;105;105;105;105;
2024-04-30 09:04:24;2;101;101;101;101;101;101;101;101;102;101;
2024-04-30 09:04:24;3;86;85;86;85;86;85;86;86;86;86;
2024-04-30 09:04:24;ht;72;19.70
2024-04-30 09:04:24;v;4.22
2024-04-30 09:34:22;1;105;105;105;105;105;105;105;105;105;105;
2024-04-30 09:34:22;2;103;103;103;103;103;103;103;103;103;103;
2024-04-30 09:34:22;3;84;84;84;84;84;84;84;84;84;84;
2024-04-30 09:34:22;ht;72;19.90
2024-04-30 09:34:22;v;4.21
2024-04-30 10:04:26;1;105;105;105;105;105;105;105;105;105;105;
2024-04-30 10:04:26;2;102;102;102;102;102;103;102;102;102;103;
2024-04-30 10:04:26;3;85;85;86;86;86;86;86;86;86;86;
2024-04-30 10:04:26;ht;71;20.20
2024-04-30 10:04:26;v;4.22
2024-04-30 10:34:25;1;104;104;104;104;104;104;104;104;104;104;
2024-04-30 10:34:25;2;107;107;107;107;107;107;107;107;107;107;
2024-04-30 10:34:25;3;85;85;85;85;85;85;84;85;85;85;
2024-04-30 10:34:25;ht;70;20.40
2024-04-30 10:34:25;v;4.21
2024-04-30 11:04:25;1;106;106;106;106;106;106;106;106;106;106;
2024-04-30 11:04:25;2;102;101;101;102;102;101;102;101;102;102;
2024-04-30 11:04:25;3;103;103;103;103;103;103;103;103;103;103;
2024-04-30 11:04:25;ht;65;20.80
2024-04-30 11:04:25;v;4.22
2024-04-30 11:34:25;1;86;86;87;86;86;87;87;87;86;87;
2024-04-30 11:34:25;2;108;109;108;109;109;109;108;108;108;108;
2024-04-30 11:34:25;3;104;104;104;104;104;104;104;104;104;104;
2024-04-30 11:34:25;ht;55;21.30
2024-04-30 11:34:25;v;4.22
2024-04-30 12:04:26;1;106;106;106;106;106;106;106;106;106;106;
2024-04-30 12:04:26;2;104;103;103;104;103;104;104;104;104;104;
2024-04-30 12:04:26;3;79;79;79;79;79;78;78;79;79;79;
2024-04-30 12:04:26;ht;60;22.20
2024-04-30 12:04:26;v;4.22
2024-04-30 12:34:28;1;77;77;77;76;76;77;77;77;77;76;
2024-04-30 12:34:28;2;104;104;104;104;104;104;104;104;104;104;
2024-04-30 12:34:28;3;81;81;81;81;81;81;81;81;81;81;
2024-04-30 12:34:28;ht;97;23.00
2024-04-30 12:34:28;v;4.22
2024-04-30 13:04:27;1;100;100;100;100;100;100;100;100;100;100;
2024-04-30 13:04:27;2;108;108;108;108;108;108;108;108;108;108;
2024-04-30 13:04:27;3;83;83;83;82;83;83;83;83;82;82;
2024-04-30 13:04:27;ht;97;23.60
2024-04-30 13:04:27;v;4.22
2024-04-30 13:34:30;1;104;104;104;104;104;104;104;104;104;104;
2024-04-30 13:34:30;2;104;104;104;104;104;104;104;103;104;104;
2024-04-30 13:34:30;3;85;85;85;85;85;85;85;85;85;85;
2024-04-30 13:34:30;ht;97;23.70
2024-04-30 13:34:30;v;4.22
2024-04-30 14:04:28;1;101;101;101;101;101;101;101;101;101;101;
2024-04-30 14:04:28;2;99;99;99;99;99;99;99;100;99;99;
2024-04-30 14:04:28;3;88;88;88;88;88;88;88;88;88;88;
2024-04-30 14:04:28;ht;97;23.80
2024-04-30 14:04:28;v;4.22
2024-04-30 14:34:25;1;102;102;102;102;102;102;102;102;102;102;
2024-04-30 14:34:25;2;92;92;92;93;92;93;93;93;92;93;
2024-04-30 14:34:25;3;102;102;102;102;102;102;102;102;102;102;
2024-04-30 14:34:25;ht;97;23.70
2024-04-30 14:34:25;v;4.22
2024-04-30 15:04:28;1;96;96;96;96;96;96;95;96;95;96;
2024-04-30 15:04:28;2;105;105;105;105;105;105;105;105;105;105;
2024-04-30 15:04:28;3;98;97;98;97;97;98;98;98;98;98;
2024-04-30 15:04:28;ht;97;23.50
2024-04-30 15:04:28;v;4.22
2024-04-30 15:34:25;1;102;102;102;102;102;102;102;102;102;102;
2024-04-30 15:34:25;2;91;91;91;91;92;91;92;91;91;92;
2024-04-30 15:34:25;3;86;86;86;86;86;86;86;86;86;85;
2024-04-30 15:34:25;ht;97;24.00
2024-04-30 15:34:25;v;4.22
2024-04-30 16:04:28;1;96;96;96;96;96;96;96;96;96;96;
2024-04-30 16:04:28;2;102;102;102;101;102;102;102;102;102;102;
2024-04-30 16:04:28;3;87;87;86;87;87;87;87;87;87;87;
2024-04-30 16:04:28;ht;97;24.70
2024-04-30 16:04:28;v;4.22
2024-04-30 16:34:27;1;75;75;75;75;75;76;75;75;75;75;
2024-04-30 16:34:27;2;98;98;98;98;98;98;98;99;99;98;
2024-04-30 16:34:27;3;88;88;88;88;87;88;88;88;88;88;
2024-04-30 16:34:27;ht;97;24.50
2024-04-30 16:34:27;v;4.23
2024-04-30 17:04:30;1;138;138;138;138;138;138;138;138;138;138;
2024-04-30 17:04:30;2;104;105;105;104;105;105;105;105;105;105;
2024-04-30 17:04:30;3;91;91;91;91;91;91;91;91;91;91;
2024-04-30 17:04:30;ht;97;25.70
2024-04-30 17:04:30;v;4.22
2024-04-30 17:34:30;1;79;79;79;79;79;79;80;79;79;80;
2024-04-30 17:34:30;2;102;102;103;103;103;102;102;103;103;102;
2024-04-30 17:34:30;3;100;100;100;100;100;100;100;100;100;100;
2024-04-30 17:34:30;ht;97;25.80
2024-04-30 17:34:30;v;4.22
2024-04-30 18:04:30;1;82;82;81;81;82;81;82;82;82;82;
2024-04-30 18:04:30;2;98;98;98;98;98;98;98;98;98;98;
2024-04-30 18:04:30;3;105;105;105;105;105;105;105;105;105;105;
2024-04-30 18:04:30;ht;97;23.90
2024-04-30 18:04:30;v;4.22
2024-04-30 18:34:27;1;99;99;99;99;99;99;99;99;99;99;
2024-04-30 18:34:27;2;107;107;107;106;107;107;106;106;107;107;
2024-04-30 18:34:27;3;96;96;96;96;96;96;96;96;96;96;
2024-04-30 18:34:27;ht;83;21.80
2024-04-30 18:34:27;v;4.23
2024-04-30 19:04:26;1;105;105;105;105;105;105;105;105;105;105;
2024-04-30 19:04:26;2;106;106;106;106;106;106;106;106;106;106;
2024-04-30 19:04:26;3;104;104;104;104;104;104;104;104;104;104;
2024-04-30 19:04:26;ht;72;21.60
2024-04-30 19:04:26;v;4.22
2024-04-30 19:34:26;1;104;104;104;104;104;104;104;104;104;104;
2024-04-30 19:34:26;2;102;102;101;101;101;102;101;102;101;102;
2024-04-30 19:34:26;3;103;103;103;103;103;103;103;103;103;103;
2024-04-30 19:34:26;ht;85;21.10
2024-04-30 19:34:26;v;4.23
2024-04-30 20:04:24;1;106;106;106;106;106;106;106;106;106;106;
2024-04-30 20:04:24;2;104;104;105;104;104;104;105;104;105;104;
2024-04-30 20:04:24;3;95;95;95;95;95;95;95;95;95;95;
2024-04-30 20:04:24;ht;75;20.20
2024-04-30 20:04:24;v;4.22
2024-04-30 20:34:22;1;121;121;121;121;121;121;121;121;121;121;
2024-04-30 20:34:22;2;103;103;103;103;103;103;103;103;103;103;
2024-04-30 20:34:22;3;96;96;96;96;96;96;96;96;96;96;
2024-04-30 20:34:22;ht;65;20.00
2024-04-30 20:34:22;v;4.22
2024-04-30 21:04:25;1;105;105;105;105;105;105;105;105;105;105;
2024-04-30 21:04:25;2;106;106;106;106;106;106;106;106;106;106;
2024-04-30 21:04:25;3;85;84;84;85;84;84;84;84;84;84;
2024-04-30 21:04:25;ht;91;20.50
2024-04-30 21:04:25;v;4.22
2024-04-30 21:34:23;1;163;163;163;163;163;163;163;163;163;163;
2024-04-30 21:34:23;2;104;104;104;104;104;104;104;104;104;104;
2024-04-30 21:34:23;3;92;93;93;92;92;93;93;92;93;92;
2024-04-30 21:34:23;ht;97;20.70
2024-04-30 21:34:23;v;4.22
2024-04-30 22:04:26;1;160;160;160;160;160;160;160;160;160;160;
2024-04-30 22:04:26;2;94;93;94;93;93;93;94;93;93;93;
2024-04-30 22:04:26;3;86;87;87;87;87;86;86;87;87;86;
2024-04-30 22:04:26;ht;83;20.10
2024-04-30 22:04:26;v;4.23
2024-04-30 22:34:24;1;100;100;100;100;100;100;100;100;100;100;
2024-04-30 22:34:24;2;102;102;102;102;102;103;102;102;102;102;
2024-04-30 22:34:24;3;86;86;86;86;86;87;86;86;86;86;
2024-04-30 22:34:24;ht;82;20.20
2024-04-30 22:34:24;v;4.22
2024-04-30 23:04:22;1;105;105;105;105;105;105;105;105;105;105;
2024-04-30 23:04:22;2;106;106;106;106;106;106;106;106;106;106;
2024-04-30 23:04:22;3;83;83;83;83;83;83;83;83;83;83;
2024-04-30 23:04:22;ht;70;20.20
2024-04-30 23:04:22;v;4.23
2024-04-30 23:34:25;1;105;105;105;105;105;105;105;105;105;105;
2024-04-30 23:34:25;2;106;106;106;106;106;106;106;106;106;106;
2024-04-30 23:34:25;3;86;86;86;86;86;86;86;86;86;86;
2024-04-30 23:34:25;ht;75;20.40
2024-04-30 23:34:25;v;4.22
