2024-02-14 00:04:21;1;111;111;110;110;110;110;110;110;110;110;
2024-02-14 00:04:21;2;103;103;103;103;103;103;103;103;103;103;
2024-02-14 00:04:21;3;108;107;107;107;108;107;107;107;107;107;
2024-02-14 00:04:21;ht;88;13.30
2024-02-14 00:04:21;v;4.24
2024-02-14 00:34:20;1;109;110;109;109;109;109;109;110;109;109;
2024-02-14 00:34:20;2;104;105;104;104;104;104;104;104;104;104;
2024-02-14 00:34:20;3;106;105;105;105;105;105;105;105;105;105;
2024-02-14 00:34:20;ht;76;13.00
2024-02-14 00:34:20;v;4.23
2024-02-14 01:04:18;1;109;109;109;109;109;109;109;109;109;109;
2024-02-14 01:04:18;2;106;106;106;106;106;106;106;106;106;106;
2024-02-14 01:04:18;3;107;107;107;107;107;107;107;107;107;107;
2024-02-14 01:04:18;ht;68;12.80
2024-02-14 01:04:18;v;4.23
2024-02-14 01:34:21;1;109;109;108;108;108;108;108;108;108;108;
2024-02-14 01:34:21;2;105;105;105;105;105;105;105;105;105;105;
2024-02-14 01:34:21;3;106;107;106;106;106;106;106;106;106;106;
2024-02-14 01:34:21;ht;71;12.80
2024-02-14 01:34:21;v;4.23
2024-02-14 02:04:19;1;108;108;108;108;108;108;108;108;108;108;
2024-02-14 02:04:19;2;106;106;106;106;106;106;106;106;106;106;
2024-02-14 02:04:19;3;109;109;109;109;110;109;110;109;110;109;
2024-02-14 02:04:19;ht;69;12.90
2024-02-14 02:04:19;v;4.23
2024-02-14 02:34:18;1;107;107;107;107;107;107;107;107;107;107;
2024-02-14 02:34:18;2;106;106;106;106;106;106;106;106;106;106;
2024-02-14 02:34:18;3;3;3;3;3;3;2;2;3;3;3;
2024-02-14 02:34:18;ht;68;13.00
2024-02-14 02:34:18;v;4.23
2024-02-14 03:04:21;1;107;107;107;107;107;108;107;108;107;107;
2024-02-14 03:04:21;2;104;104;104;104;104;104;104;104;104;104;
2024-02-14 03:04:21;3;106;106;106;106;106;106;106;106;106;106;
2024-02-14 03:04:21;ht;66;13.00
2024-02-14 03:04:21;v;4.23
2024-02-14 03:34:19;1;107;107;107;107;107;107;107;107;107;107;
2024-02-14 03:34:19;2;105;105;105;105;105;105;105;105;105;105;
2024-02-14 03:34:19;3;108;108;108;108;108;108;108;107;107;107;
2024-02-14 03:34:19;ht;66;13.00
2024-02-14 03:34:19;v;4.23
2024-02-14 04:04:18;1;107;107;107;108;107;107;107;107;107;107;
2024-02-14 04:04:18;2;104;104;104;104;104;104;104;104;104;104;
2024-02-14 04:04:18;3;70;70;70;70;70;70;70;70;70;70;
2024-02-14 04:04:18;ht;64;12.70
2024-02-14 04:04:18;v;4.23
2024-02-14 04:34:21;1;106;106;106;106;106;106;106;106;106;106;
2024-02-14 04:34:21;2;105;105;105;105;105;105;105;105;105;105;
2024-02-14 04:34:21;3;3;3;3;3;2;2;2;2;3;2;
2024-02-14 04:34:21;ht;64;12.90
2024-02-14 04:34:21;v;4.23
2024-02-14 05:04:19;1;106;106;106;106;106;106;106;106;106;106;
2024-02-14 05:04:19;2;106;106;106;106;106;106;106;106;106;106;
2024-02-14 05:04:19;3;106;106;106;106;106;106;106;106;106;106;
2024-02-14 05:04:19;ht;63;12.60
2024-02-14 05:04:19;v;4.23
2024-02-14 05:34:22;1;106;106;106;106;106;106;106;106;106;106;
2024-02-14 05:34:22;2;104;104;104;104;104;104;104;104;104;104;
2024-02-14 05:34:22;3;106;106;106;106;106;106;106;106;106;106;
2024-02-14 05:34:22;ht;63;12.80
2024-02-14 05:34:22;v;4.23
2024-02-14 06:04:20;1;105;105;105;105;105;105;105;105;105;105;
2024-02-14 06:04:20;2;98;98;98;98;98;98;98;98;98;98;
2024-02-14 06:04:20;3;103;104;104;103;104;103;103;103;103;103;
2024-02-14 06:04:20;ht;65;13.20
2024-02-14 06:04:20;v;4.23
2024-02-14 06:34:19;1;108;108;107;107;108;108;107;107;108;107;
2024-02-14 06:34:19;2;101;101;101;101;101;101;101;101;101;101;
2024-02-14 06:34:19;3;110;110;110;110;110;110;110;110;110;110;
2024-02-14 06:34:19;ht;64;13.30
2024-02-14 06:34:19;v;4.22
2024-02-14 07:04:22;1;113;114;113;114;114;114;114;113;114;114;
2024-02-14 07:04:22;2;104;104;104;104;104;104;104;104;104;104;
2024-02-14 07:04:22;3;102;102;102;102;102;102;102;102;102;102;
2024-02-14 07:04:22;ht;93;14.60
2024-02-14 07:04:22;v;4.23
2024-02-14 07:34:23;1;118;118;118;118;118;118;118;118;118;118;
2024-02-14 07:34:23;2;106;106;106;105;106;106;106;106;106;106;
2024-02-14 07:34:23;3;103;104;103;103;104;104;103;103;104;104;
2024-02-14 07:34:23;ht;97;16.90
2024-02-14 07:34:23;v;4.23
2024-02-14 08:04:26;1;106;105;106;106;106;106;105;105;105;106;
2024-02-14 08:04:26;2;104;104;104;104;104;104;105;104;104;104;
2024-02-14 08:04:26;3;110;110;110;110;110;110;110;110;110;110;
2024-02-14 08:04:26;ht;97;18.30
2024-02-14 08:04:26;v;4.23
2024-02-14 08:34:27;1;106;106;106;106;106;106;106;106;106;106;
2024-02-14 08:34:27;2;104;104;104;104;104;104;104;104;104;104;
2024-02-14 08:34:27;3;105;105;105;105;105;105;105;105;105;105;
2024-02-14 08:34:27;ht;97;19.50
2024-02-14 08:34:27;v;4.23
2024-02-14 09:04:29;1;107;107;107;106;106;107;106;106;106;107;
2024-02-14 09:04:29;2;102;102;102;102;102;102;102;102;102;102;
2024-02-14 09:04:29;3;105;105;105;105;105;105;105;105;105;105;
2024-02-14 09:04:29;ht;97;20.50
2024-02-14 09:04:29;v;4.23
2024-02-14 09:34:29;1;116;116;116;116;116;115;116;115;116;116;
2024-02-14 09:34:29;2;102;103;102;102;102;102;103;102;103;102;
2024-02-14 09:34:29;3;3;3;3;3;3;3;2;3;3;3;
2024-02-14 09:34:29;ht;94;21.60
2024-02-14 09:34:29;v;4.23
2024-02-14 10:04:30;1;106;106;106;106;106;106;106;106;106;106;
2024-02-14 10:04:30;2;102;102;102;102;102;102;102;102;102;102;
2024-02-14 10:04:30;3;111;111;111;111;111;111;111;111;111;111;
2024-02-14 10:04:30;ht;89;22.70
2024-02-14 10:04:30;v;4.23
2024-02-14 10:34:32;1;105;105;105;105;105;104;105;105;105;105;
2024-02-14 10:34:32;2;104;103;103;103;103;103;103;104;103;103;
2024-02-14 10:34:32;3;104;104;104;104;104;104;104;104;104;104;
2024-02-14 10:34:32;ht;86;23.40
2024-02-14 10:34:32;v;4.23
2024-02-14 11:04:31;1;3;3;3;3;2;3;3;3;3;3;
2024-02-14 11:04:31;2;103;103;103;103;103;104;103;103;103;103;
2024-02-14 11:04:31;3;104;104;104;104;104;104;104;104;104;104;
2024-02-14 11:04:31;ht;83;24.50
2024-02-14 11:04:31;v;4.23
2024-02-14 11:34:34;1;99;98;98;98;98;98;98;98;98;98;
2024-02-14 11:34:34;2;102;103;102;102;103;102;103;102;102;103;
2024-02-14 11:34:34;3;104;104;104;104;104;104;104;104;104;104;
2024-02-14 11:34:34;ht;77;24.40
2024-02-14 11:34:34;v;4.23
2024-02-14 12:04:34;1;97;96;97;96;96;96;97;96;96;97;
2024-02-14 12:04:34;2;103;103;103;103;103;103;103;103;103;103;
2024-02-14 12:04:34;3;104;104;103;104;104;104;104;104;104;104;
2024-02-14 12:04:34;ht;79;25.20
2024-02-14 12:04:34;v;4.23
2024-02-14 12:34:35;1;104;104;104;103;104;104;104;104;104;104;
2024-02-14 12:34:35;2;103;103;103;103;103;103;103;103;103;104;
2024-02-14 12:34:35;3;103;103;103;103;103;103;103;103;102;103;
2024-02-14 12:34:35;ht;72;26.30
2024-02-14 12:34:35;v;4.23
2024-02-14 13:04:35;1;105;105;105;105;105;105;105;105;105;105;
2024-02-14 13:04:35;2;102;102;102;102;102;102;102;102;102;102;
2024-02-14 13:04:35;3;104;104;104;104;104;104;104;104;104;104;
2024-02-14 13:04:35;ht;75;26.70
2024-02-14 13:04:35;v;4.24
2024-02-14 13:34:34;1;96;96;96;96;96;96;95;96;96;96;
2024-02-14 13:34:34;2;103;104;104;104;103;103;103;103;103;103;
2024-02-14 13:34:34;3;103;103;103;103;103;103;103;103;103;103;
2024-02-14 13:34:34;ht;74;26.70
2024-02-14 13:34:34;v;4.23
2024-02-14 14:04:34;1;100;100;100;100;100;100;100;100;100;100;
2024-02-14 14:04:34;2;103;103;103;103;103;103;103;103;103;103;
2024-02-14 14:04:34;3;3;3;3;3;3;3;2;3;3;3;
2024-02-14 14:04:34;ht;70;26.70
2024-02-14 14:04:34;v;4.24
2024-02-14 14:34:34;1;3;3;3;3;3;3;3;3;3;3;
2024-02-14 14:34:34;2;104;104;104;104;104;104;104;104;104;104;
2024-02-14 14:34:34;3;96;96;96;96;97;96;97;97;96;97;
2024-02-14 14:34:34;ht;68;27.40
2024-02-14 14:34:34;v;4.23
2024-02-14 15:04:35;1;103;103;103;103;103;103;103;103;103;103;
2024-02-14 15:04:35;2;101;101;101;101;101;101;101;101;101;101;
2024-02-14 15:04:35;3;102;103;103;103;103;103;102;103;103;103;
2024-02-14 15:04:35;ht;67;27.60
2024-02-14 15:04:35;v;4.23
2024-02-14 15:34:35;1;3;3;3;3;3;3;3;3;2;3;
2024-02-14 15:34:35;2;103;103;104;104;103;103;103;103;103;103;
2024-02-14 15:34:35;3;90;89;89;90;90;89;90;90;90;90;
2024-02-14 15:34:35;ht;70;27.70
2024-02-14 15:34:35;v;4.24
2024-02-14 16:04:32;1;101;101;101;101;101;101;101;101;101;100;
2024-02-14 16:04:32;2;104;103;104;103;103;104;103;104;103;103;
2024-02-14 16:04:32;3;100;101;101;100;100;101;100;101;101;100;
2024-02-14 16:04:32;ht;68;28.00
2024-02-14 16:04:32;v;4.23
2024-02-14 16:34:33;1;100;100;100;100;100;100;100;100;101;100;
2024-02-14 16:34:33;2;104;103;104;104;103;103;103;104;104;103;
2024-02-14 16:34:33;3;96;97;97;96;96;97;96;96;97;96;
2024-02-14 16:34:33;ht;70;27.80
2024-02-14 16:34:33;v;4.24
2024-02-14 17:04:33;1;104;104;105;104;104;104;104;105;104;104;
2024-02-14 17:04:33;2;103;103;103;103;103;103;103;103;104;103;
2024-02-14 17:04:33;3;103;103;103;103;103;103;103;103;103;103;
2024-02-14 17:04:33;ht;69;28.30
2024-02-14 17:04:33;v;4.23
2024-02-14 17:34:33;1;104;104;104;104;104;104;104;104;104;104;
2024-02-14 17:34:33;2;104;103;104;103;103;103;104;103;103;103;
2024-02-14 17:34:33;3;104;104;104;104;104;104;104;104;104;104;
2024-02-14 17:34:33;ht;73;27.50
2024-02-14 17:34:33;v;4.24
2024-02-14 18:04:33;1;109;109;109;109;109;109;109;109;109;108;
2024-02-14 18:04:33;2;104;104;103;103;104;104;104;103;103;103;
2024-02-14 18:04:33;3;104;104;104;104;104;104;104;104;104;104;
2024-02-14 18:04:33;ht;73;26.80
2024-02-14 18:04:33;v;4.24
2024-02-14 18:34:31;1;110;110;110;110;110;110;110;110;109;110;
2024-02-14 18:34:31;2;103;103;103;103;103;103;103;103;103;103;
2024-02-14 18:34:31;3;98;98;97;97;98;98;98;98;98;98;
2024-02-14 18:34:31;ht;73;26.00
2024-02-14 18:34:31;v;4.24
2024-02-14 19:04:28;1;105;105;105;105;105;105;105;105;105;105;
2024-02-14 19:04:28;2;104;104;104;104;104;104;104;104;104;104;
2024-02-14 19:04:28;3;2;3;3;2;2;3;3;3;3;3;
2024-02-14 19:04:28;ht;80;25.20
2024-02-14 19:04:28;v;4.23
2024-02-14 19:34:28;1;3;3;3;3;2;3;3;2;3;2;
2024-02-14 19:34:28;2;104;105;104;105;105;105;105;105;105;105;
2024-02-14 19:34:28;3;3;3;3;3;3;2;3;3;2;3;
2024-02-14 19:34:28;ht;88;22.60
2024-02-14 19:34:28;v;4.24
2024-02-14 20:04:25;1;106;106;106;106;106;106;106;106;106;106;
2024-02-14 20:04:25;2;103;103;103;103;103;104;104;103;103;103;
2024-02-14 20:04:25;3;104;104;104;104;104;104;104;104;104;104;
2024-02-14 20:04:25;ht;97;20.40
2024-02-14 20:04:25;v;4.24
2024-02-14 20:34:24;1;108;108;108;108;108;108;108;108;108;108;
2024-02-14 20:34:24;2;102;102;102;102;102;102;102;102;102;102;
2024-02-14 20:34:24;3;118;118;119;118;118;118;118;118;118;118;
2024-02-14 20:34:24;ht;97;19.50
2024-02-14 20:34:24;v;4.24
2024-02-14 21:04:21;1;114;114;114;114;114;114;114;114;114;114;
2024-02-14 21:04:21;2;106;106;105;105;105;105;105;106;105;105;
2024-02-14 21:04:21;3;103;102;103;103;103;103;103;103;103;103;
2024-02-14 21:04:21;ht;97;19.10
2024-02-14 21:04:21;v;4.24
2024-02-14 21:34:23;1;107;107;107;107;107;107;107;107;107;107;
2024-02-14 21:34:23;2;106;105;106;105;105;105;105;105;105;106;
2024-02-14 21:34:23;3;3;3;3;3;3;3;2;2;3;3;
2024-02-14 21:34:23;ht;97;17.90
2024-02-14 21:34:23;v;4.24
2024-02-14 22:04:24;1;110;110;110;110;110;110;110;110;110;110;
2024-02-14 22:04:24;2;104;104;104;104;104;104;104;104;104;104;
2024-02-14 22:04:24;3;97;97;97;97;97;97;97;97;97;98;
2024-02-14 22:04:24;ht;83;17.20
2024-02-14 22:04:24;v;4.24
2024-02-14 22:34:20;1;110;110;110;110;110;110;110;110;110;110;
2024-02-14 22:34:20;2;105;105;105;105;105;105;105;106;105;105;
2024-02-14 22:34:20;3;91;90;90;90;90;90;91;90;90;90;
2024-02-14 22:34:20;ht;96;17.40
2024-02-14 22:34:20;v;4.24
2024-02-14 23:04:21;1;136;136;137;136;136;136;136;137;136;137;
2024-02-14 23:04:21;2;105;105;105;105;105;105;106;105;106;106;
2024-02-14 23:04:21;3;88;89;88;88;88;88;88;88;89;88;
2024-02-14 23:04:21;ht;97;17.70
2024-02-14 23:04:21;v;4.24
2024-02-14 23:34:22;1;173;173;173;173;173;173;173;173;173;173;
2024-02-14 23:34:22;2;105;105;105;105;105;105;105;105;105;105;
2024-02-14 23:34:22;3;62;62;62;62;62;62;62;62;62;62;
2024-02-14 23:34:22;ht;88;16.80
2024-02-14 23:34:22;v;4.24
