2024-06-09 00:04:27;1;120;120;120;120;120;120;120;120;120;120;
2024-06-09 00:04:27;2;101;101;101;101;101;101;101;101;101;101;
2024-06-09 00:04:27;3;100;100;100;100;100;100;100;100;100;100;
2024-06-09 00:04:27;ht;97;22.30
2024-06-09 00:04:27;v;4.23
2024-06-09 00:34:26;1;114;114;114;114;114;114;114;114;114;114;
2024-06-09 00:34:26;2;105;104;104;105;105;105;105;105;105;105;
2024-06-09 00:34:26;3;104;104;104;104;104;104;104;104;104;104;
2024-06-09 00:34:26;ht;97;22.10
2024-06-09 00:34:26;v;4.22
2024-06-09 01:04:26;1;136;136;136;136;136;136;136;136;136;136;
2024-06-09 01:04:26;2;100;100;100;101;101;100;101;101;101;101;
2024-06-09 01:04:26;3;101;101;101;101;101;101;101;101;101;101;
2024-06-09 01:04:26;ht;97;22.30
2024-06-09 01:04:26;v;4.23
2024-06-09 01:34:26;1;95;95;95;95;95;95;95;95;95;95;
2024-06-09 01:34:26;2;103;103;103;103;103;103;103;103;103;103;
2024-06-09 01:34:26;3;104;104;104;104;104;103;104;104;104;104;
2024-06-09 01:34:26;ht;97;22.60
2024-06-09 01:34:26;v;4.22
2024-06-09 02:04:26;1;3;2;2;2;2;3;3;2;2;2;
2024-06-09 02:04:26;2;105;105;105;105;106;105;105;105;105;105;
2024-06-09 02:04:26;3;104;104;104;104;104;104;104;103;104;104;
2024-06-09 02:04:26;ht;97;22.50
2024-06-09 02:04:26;v;4.23
2024-06-09 02:34:26;1;100;100;100;100;100;100;100;100;99;100;
2024-06-09 02:34:26;2;101;102;101;101;101;101;101;101;101;101;
2024-06-09 02:34:26;3;117;117;117;117;117;117;117;117;117;117;
2024-06-09 02:34:26;ht;97;22.60
2024-06-09 02:34:26;v;4.22
2024-06-09 03:04:26;1;100;100;100;100;100;99;100;99;100;100;
2024-06-09 03:04:26;2;100;100;100;100;100;100;100;100;100;100;
2024-06-09 03:04:26;3;112;112;112;112;112;112;112;112;112;112;
2024-06-09 03:04:26;ht;97;22.10
2024-06-09 03:04:26;v;4.23
2024-06-09 03:34:25;1;135;135;135;135;135;135;135;135;135;135;
2024-06-09 03:34:25;2;99;99;99;99;99;99;99;99;99;100;
2024-06-09 03:34:25;3;102;102;102;102;102;102;102;102;102;102;
2024-06-09 03:34:25;ht;97;21.80
2024-06-09 03:34:25;v;4.22
2024-06-09 04:04:25;1;134;134;133;133;133;133;134;134;134;133;
2024-06-09 04:04:25;2;100;101;100;100;100;100;100;100;101;100;
2024-06-09 04:04:25;3;104;104;104;104;104;104;104;104;104;104;
2024-06-09 04:04:25;ht;97;21.50
2024-06-09 04:04:25;v;4.23
2024-06-09 04:34:24;1;152;152;152;152;152;152;152;152;152;152;
2024-06-09 04:34:24;2;101;102;101;101;101;102;101;101;101;101;
2024-06-09 04:34:24;3;101;101;101;101;101;101;101;100;100;101;
2024-06-09 04:34:24;ht;97;21.40
2024-06-09 04:34:24;v;4.22
2024-06-09 05:04:23;1;3;3;3;3;3;3;3;3;3;2;
2024-06-09 05:04:23;2;102;103;102;103;102;102;102;103;103;102;
2024-06-09 05:04:23;3;99;100;100;99;100;100;100;100;100;100;
2024-06-09 05:04:23;ht;97;20.90
2024-06-09 05:04:23;v;4.23
2024-06-09 05:34:22;1;99;99;99;99;99;99;99;99;99;99;
2024-06-09 05:34:22;2;102;102;102;102;102;103;103;102;102;103;
2024-06-09 05:34:22;3;103;103;103;103;103;103;103;103;103;103;
2024-06-09 05:34:22;ht;97;20.70
2024-06-09 05:34:22;v;4.22
2024-06-09 06:04:25;1;99;99;99;98;99;99;99;99;99;99;
2024-06-09 06:04:25;2;107;107;107;107;107;107;107;107;107;107;
2024-06-09 06:04:25;3;105;105;105;105;105;105;105;105;105;105;
2024-06-09 06:04:25;ht;97;20.40
2024-06-09 06:04:25;v;4.22
2024-06-09 06:34:24;1;100;99;100;100;99;100;99;100;99;99;
2024-06-09 06:34:24;2;107;107;107;107;107;107;106;107;107;107;
2024-06-09 06:34:24;3;104;104;104;104;104;104;104;104;104;104;
2024-06-09 06:34:24;ht;97;20.30
2024-06-09 06:34:24;v;4.22
2024-06-09 07:04:22;1;99;99;99;99;99;99;99;99;99;99;
2024-06-09 07:04:22;2;103;103;103;103;103;103;103;103;103;103;
2024-06-09 07:04:22;3;102;102;102;102;102;102;102;102;102;102;
2024-06-09 07:04:22;ht;97;19.80
2024-06-09 07:04:22;v;4.22
2024-06-09 07:34:25;1;114;114;114;114;114;114;114;114;114;114;
2024-06-09 07:34:25;2;103;103;103;103;104;103;103;103;103;103;
2024-06-09 07:34:25;3;103;103;103;103;103;103;103;103;103;103;
2024-06-09 07:34:25;ht;97;19.20
2024-06-09 07:34:25;v;4.22
2024-06-09 08:04:22;1;100;100;101;100;100;100;100;101;100;100;
2024-06-09 08:04:22;2;98;98;98;98;98;98;98;98;98;98;
2024-06-09 08:04:22;3;102;102;103;102;102;102;102;102;102;102;
2024-06-09 08:04:22;ht;93;19.00
2024-06-09 08:04:22;v;4.22
2024-06-09 08:34:24;1;105;105;104;105;105;104;105;105;104;105;
2024-06-09 08:34:24;2;103;102;102;102;102;103;102;103;103;102;
2024-06-09 08:34:24;3;96;97;97;97;97;97;96;97;97;97;
2024-06-09 08:34:24;ht;93;19.00
2024-06-09 08:34:24;v;4.22
2024-06-09 09:04:22;1;98;97;97;97;98;98;97;97;98;97;
2024-06-09 09:04:22;2;102;102;102;102;102;102;102;102;102;102;
2024-06-09 09:04:22;3;94;94;94;94;94;94;94;94;94;94;
2024-06-09 09:04:22;ht;87;19.10
2024-06-09 09:04:22;v;4.22
2024-06-09 09:34:25;1;92;92;92;91;92;91;91;91;91;92;
2024-06-09 09:34:25;2;105;105;105;105;105;106;105;105;105;105;
2024-06-09 09:34:25;3;102;102;102;102;102;102;102;102;102;102;
2024-06-09 09:34:25;ht;97;20.00
2024-06-09 09:34:25;v;4.22
2024-06-09 10:04:24;1;98;98;98;98;98;98;98;98;98;98;
2024-06-09 10:04:24;2;105;105;105;105;105;105;105;105;105;105;
2024-06-09 10:04:24;3;89;89;89;89;89;88;89;89;89;89;
2024-06-09 10:04:24;ht;97;20.50
2024-06-09 10:04:24;v;4.23
2024-06-09 10:34:24;1;178;178;178;178;178;178;178;178;178;178;
2024-06-09 10:34:24;2;104;104;104;104;104;104;105;104;104;104;
2024-06-09 10:34:24;3;94;94;94;95;95;95;95;94;94;94;
2024-06-09 10:34:24;ht;97;21.20
2024-06-09 10:34:24;v;4.22
2024-06-09 11:04:25;1;121;121;121;121;121;121;121;121;121;121;
2024-06-09 11:04:25;2;102;102;102;102;102;102;101;102;102;102;
2024-06-09 11:04:25;3;101;101;102;102;101;102;102;102;101;102;
2024-06-09 11:04:25;ht;97;22.10
2024-06-09 11:04:25;v;4.22
2024-06-09 11:34:26;1;91;90;91;90;91;91;91;91;90;90;
2024-06-09 11:34:26;2;105;106;106;105;105;106;106;105;106;106;
2024-06-09 11:34:26;3;118;118;118;118;118;118;118;118;118;118;
2024-06-09 11:34:26;ht;97;22.90
2024-06-09 11:34:26;v;4.22
2024-06-09 12:04:29;1;3;3;3;3;3;3;3;3;2;3;
2024-06-09 12:04:29;2;97;97;97;97;97;97;97;97;97;97;
2024-06-09 12:04:29;3;95;95;95;94;94;95;95;95;95;95;
2024-06-09 12:04:29;ht;97;23.50
2024-06-09 12:04:29;v;4.22
2024-06-09 12:34:27;1;90;90;89;89;90;90;90;90;90;90;
2024-06-09 12:34:27;2;98;98;98;98;98;98;98;98;98;98;
2024-06-09 12:34:27;3;96;97;96;97;96;97;96;97;97;97;
2024-06-09 12:34:27;ht;97;24.10
2024-06-09 12:34:27;v;4.23
2024-06-09 13:04:30;1;91;91;91;91;90;90;90;90;90;90;
2024-06-09 13:04:30;2;105;106;105;105;105;105;105;105;106;105;
2024-06-09 13:04:30;3;100;100;100;100;100;100;100;100;100;100;
2024-06-09 13:04:30;ht;96;24.90
2024-06-09 13:04:30;v;4.20
2024-06-09 13:34:29;1;89;89;89;89;89;90;89;90;89;89;
2024-06-09 13:34:29;2;96;96;96;96;96;96;96;96;96;96;
2024-06-09 13:34:29;3;103;103;103;103;103;103;103;103;103;103;
2024-06-09 13:34:29;ht;93;25.60
2024-06-09 13:34:29;v;4.23
2024-06-09 14:04:29;1;91;91;92;91;91;91;91;91;91;91;
2024-06-09 14:04:29;2;96;96;96;96;96;96;96;96;96;96;
2024-06-09 14:04:29;3;92;92;92;92;92;92;92;92;92;92;
2024-06-09 14:04:29;ht;94;25.20
2024-06-09 14:04:29;v;4.23
2024-06-09 14:34:29;1;93;92;93;92;93;92;92;92;92;92;
2024-06-09 14:34:29;2;95;95;95;95;95;95;95;95;95;95;
2024-06-09 14:34:29;3;102;102;102;102;102;102;102;102;102;102;
2024-06-09 14:34:29;ht;90;26.20
2024-06-09 14:34:29;v;4.23
2024-06-09 15:04:29;1;91;91;91;92;91;91;91;91;91;91;
2024-06-09 15:04:29;2;99;99;99;99;100;99;99;99;99;100;
2024-06-09 15:04:29;3;99;99;99;99;99;99;100;99;100;99;
2024-06-09 15:04:29;ht;88;26.40
2024-06-09 15:04:29;v;4.23
2024-06-09 15:34:29;1;93;92;92;92;92;92;93;93;92;92;
2024-06-09 15:34:29;2;100;100;100;100;100;100;100;100;100;100;
2024-06-09 15:34:29;3;98;98;98;98;98;98;98;98;98;98;
2024-06-09 15:34:29;ht;90;26.30
2024-06-09 15:34:29;v;4.23
2024-06-09 16:04:29;1;114;114;114;114;114;114;114;114;114;114;
2024-06-09 16:04:29;2;96;96;96;96;96;96;96;96;96;96;
2024-06-09 16:04:29;3;102;102;102;102;102;102;102;102;102;102;
2024-06-09 16:04:29;ht;91;25.80
2024-06-09 16:04:29;v;4.23
2024-06-09 16:34:28;1;115;115;115;115;115;115;115;115;114;115;
2024-06-09 16:34:28;2;96;96;96;96;96;96;96;96;96;96;
2024-06-09 16:34:28;3;114;114;114;114;114;114;114;114;114;114;
2024-06-09 16:34:28;ht;92;25.30
2024-06-09 16:34:28;v;4.22
2024-06-09 17:04:26;1;102;102;102;102;102;102;102;102;102;102;
2024-06-09 17:04:26;2;96;96;96;96;96;96;96;96;96;96;
2024-06-09 17:04:26;3;100;100;100;100;100;100;100;100;100;100;
2024-06-09 17:04:26;ht;97;22.60
2024-06-09 17:04:26;v;4.23
2024-06-09 17:34:27;1;94;94;94;94;94;94;94;94;94;94;
2024-06-09 17:34:27;2;96;96;96;96;96;96;96;96;96;96;
2024-06-09 17:34:27;3;103;103;103;103;103;103;103;103;103;103;
2024-06-09 17:34:27;ht;97;21.80
2024-06-09 17:34:27;v;4.23
2024-06-09 18:04:22;1;102;101;101;102;101;101;101;101;102;101;
2024-06-09 18:04:22;2;96;96;96;96;96;96;96;96;96;96;
2024-06-09 18:04:22;3;94;94;94;94;94;94;94;94;94;95;
2024-06-09 18:04:22;ht;97;20.50
2024-06-09 18:04:22;v;4.23
2024-06-09 18:34:26;1;103;103;103;103;103;103;103;103;103;103;
2024-06-09 18:34:26;2;95;95;95;95;95;95;95;95;95;95;
2024-06-09 18:34:26;3;105;105;105;105;105;105;105;105;105;105;
2024-06-09 18:34:26;ht;97;18.90
2024-06-09 18:34:26;v;4.23
2024-06-09 19:04:23;1;98;98;98;98;98;98;98;98;98;98;
2024-06-09 19:04:23;2;96;96;96;96;96;96;96;96;96;96;
2024-06-09 19:04:23;3;103;103;103;103;103;103;103;103;103;103;
2024-06-09 19:04:23;ht;97;19.10
2024-06-09 19:04:23;v;4.23
2024-06-09 19:34:25;1;118;118;118;118;118;118;118;118;118;118;
2024-06-09 19:34:25;2;95;94;94;94;94;94;94;94;94;94;
2024-06-09 19:34:25;3;97;97;97;96;97;97;97;97;97;97;
2024-06-09 19:34:25;ht;97;18.20
2024-06-09 19:34:25;v;4.23
2024-06-09 20:04:22;1;93;94;93;94;94;94;94;94;93;94;
2024-06-09 20:04:22;2;98;98;98;98;99;98;98;98;98;98;
2024-06-09 20:04:22;3;121;121;121;120;121;121;120;121;121;120;
2024-06-09 20:04:22;ht;97;17.70
2024-06-09 20:04:22;v;4.23
2024-06-09 20:34:23;1;107;107;107;107;107;107;107;107;107;107;
2024-06-09 20:34:23;2;99;99;99;99;99;99;99;99;99;99;
2024-06-09 20:34:23;3;118;117;117;118;118;117;117;117;118;118;
2024-06-09 20:34:23;ht;97;17.40
2024-06-09 20:34:23;v;4.23
2024-06-09 21:04:24;1;101;101;101;100;101;100;100;101;100;101;
2024-06-09 21:04:24;2;96;96;96;96;96;96;96;96;96;96;
2024-06-09 21:04:24;3;113;113;113;113;113;113;113;113;113;113;
2024-06-09 21:04:24;ht;95;16.70
2024-06-09 21:04:24;v;4.23
2024-06-09 21:34:20;1;98;98;98;98;98;98;98;98;98;98;
2024-06-09 21:34:20;2;96;96;96;96;96;96;96;96;96;96;
2024-06-09 21:34:20;3;120;120;120;120;120;120;120;120;120;120;
2024-06-09 21:34:20;ht;95;16.20
2024-06-09 21:34:20;v;4.23
2024-06-09 22:04:20;1;95;95;95;95;96;95;95;95;95;95;
2024-06-09 22:04:20;2;97;97;97;97;97;97;97;97;97;97;
2024-06-09 22:04:20;3;93;93;93;93;93;93;93;93;92;93;
2024-06-09 22:04:20;ht;90;15.80
2024-06-09 22:04:20;v;4.23
2024-06-09 22:34:20;1;93;93;93;93;94;93;94;94;93;93;
2024-06-09 22:34:20;2;97;97;97;97;97;97;97;97;97;97;
2024-06-09 22:34:20;3;91;92;92;91;91;91;91;91;92;92;
2024-06-09 22:34:20;ht;78;14.90
2024-06-09 22:34:20;v;4.22
2024-06-09 23:04:19;1;95;94;95;95;95;94;94;94;94;94;
2024-06-09 23:04:19;2;97;97;97;97;97;97;97;97;97;97;
2024-06-09 23:04:19;3;92;91;92;92;91;92;92;92;92;91;
2024-06-09 23:04:19;ht;48;13.90
2024-06-09 23:04:19;v;4.22
2024-06-09 23:34:22;1;94;94;94;94;94;95;94;94;94;94;
2024-06-09 23:34:22;2;98;98;98;98;98;98;98;98;98;98;
2024-06-09 23:34:22;3;120;120;120;120;120;120;120;120;120;120;
2024-06-09 23:34:22;ht;49;14.10
2024-06-09 23:34:22;v;4.23
