2024-07-05 00:04:16;1;73;73;73;73;73;73;73;73;73;73;
2024-07-05 00:04:16;2;100;99;99;100;100;99;99;100;99;99;
2024-07-05 00:04:16;3;97;97;97;97;97;97;97;97;97;97;
2024-07-05 00:04:16;ht;94;9.20
2024-07-05 00:04:16;v;4.22
2024-07-05 00:34:17;1;74;74;74;74;74;74;74;74;74;74;
2024-07-05 00:34:17;2;102;102;102;102;102;102;102;102;102;102;
2024-07-05 00:34:17;3;99;99;99;99;99;99;99;99;99;99;
2024-07-05 00:34:17;ht;97;8.40
2024-07-05 00:34:17;v;4.21
2024-07-05 01:04:18;1;117;117;117;117;117;117;117;117;117;117;
2024-07-05 01:04:18;2;99;99;99;99;99;99;99;99;99;99;
2024-07-05 01:04:18;3;101;101;101;101;101;101;102;101;101;101;
2024-07-05 01:04:18;ht;96;8.60
2024-07-05 01:04:18;v;4.22
2024-07-05 01:34:18;1;74;74;74;74;74;74;74;74;74;74;
2024-07-05 01:34:18;2;97;97;97;98;97;97;97;97;97;97;
2024-07-05 01:34:18;3;102;102;102;102;102;102;102;102;102;102;
2024-07-05 01:34:18;ht;97;8.40
2024-07-05 01:34:18;v;4.22
2024-07-05 02:04:19;1;2;2;2;2;2;2;2;3;2;2;
2024-07-05 02:04:19;2;97;97;97;97;97;97;97;97;97;97;
2024-07-05 02:04:19;3;105;105;104;105;105;105;104;104;105;105;
2024-07-05 02:04:19;ht;97;8.20
2024-07-05 02:04:19;v;4.22
2024-07-05 02:34:20;1;76;76;76;76;76;76;76;76;76;76;
2024-07-05 02:34:20;2;103;103;103;103;103;103;103;103;103;103;
2024-07-05 02:34:20;3;102;102;101;101;101;102;101;102;102;101;
2024-07-05 02:34:20;ht;96;8.00
2024-07-05 02:34:20;v;4.21
2024-07-05 03:04:16;1;77;77;77;77;77;76;77;77;77;77;
2024-07-05 03:04:16;2;2;2;2;2;2;2;2;2;2;2;
2024-07-05 03:04:16;3;102;102;102;102;102;102;102;102;102;102;
2024-07-05 03:04:16;ht;88;8.40
2024-07-05 03:04:16;v;4.22
2024-07-05 03:34:16;1;73;73;73;73;73;73;73;73;73;73;
2024-07-05 03:34:16;2;102;102;102;102;102;102;102;102;102;102;
2024-07-05 03:34:16;3;102;102;102;102;103;102;102;102;103;103;
2024-07-05 03:34:16;ht;85;8.40
2024-07-05 03:34:16;v;4.21
2024-07-05 04:04:17;1;96;96;96;96;96;96;96;96;96;96;
2024-07-05 04:04:17;2;97;97;97;97;97;97;97;97;97;97;
2024-07-05 04:04:17;3;103;103;103;103;103;103;103;103;103;103;
2024-07-05 04:04:17;ht;89;7.70
2024-07-05 04:04:17;v;4.22
2024-07-05 04:34:17;1;102;102;102;102;102;102;102;102;102;102;
2024-07-05 04:34:17;2;2;2;2;2;2;2;2;2;2;3;
2024-07-05 04:34:17;3;93;94;93;93;93;93;94;93;100;94;
2024-07-05 04:34:17;ht;91;7.00
2024-07-05 04:34:17;v;4.21
2024-07-05 05:04:17;1;81;81;86;82;82;81;81;81;81;81;
2024-07-05 05:04:17;2;102;103;102;102;102;105;103;103;102;102;
2024-07-05 05:04:17;3;102;101;102;102;102;101;102;102;101;102;
2024-07-05 05:04:17;ht;90;6.70
2024-07-05 05:04:17;v;4.21
2024-07-05 05:34:17;1;86;86;86;86;85;86;86;85;86;86;
2024-07-05 05:34:17;2;103;103;103;103;103;103;103;103;103;103;
2024-07-05 05:34:17;3;107;106;107;107;107;107;107;107;107;107;
2024-07-05 05:34:17;ht;87;6.40
2024-07-05 05:34:17;v;4.21
2024-07-05 06:04:17;1;85;85;85;85;85;85;85;85;85;85;
2024-07-05 06:04:17;2;101;101;101;101;101;101;101;101;101;101;
2024-07-05 06:04:17;3;113;112;113;113;113;113;113;112;113;113;
2024-07-05 06:04:17;ht;84;6.40
2024-07-05 06:04:17;v;4.21
2024-07-05 06:34:16;1;108;107;107;108;107;107;107;107;108;107;
2024-07-05 06:34:16;2;106;106;106;106;106;106;106;106;106;106;
2024-07-05 06:34:16;3;104;104;104;104;104;104;104;104;104;104;
2024-07-05 06:34:16;ht;84;6.30
2024-07-05 06:34:16;v;4.21
2024-07-05 07:04:16;1;3;3;2;3;3;3;3;3;3;3;
2024-07-05 07:04:16;2;92;92;92;92;92;92;91;92;92;92;
2024-07-05 07:04:16;3;87;87;87;87;87;87;87;87;87;87;
2024-07-05 07:04:16;ht;85;5.90
2024-07-05 07:04:16;v;4.21
2024-07-05 07:34:15;1;109;108;108;108;109;108;108;108;109;108;
2024-07-05 07:34:15;2;87;87;87;87;87;87;87;87;87;87;
2024-07-05 07:34:15;3;84;84;84;84;85;84;84;84;84;84;
2024-07-05 07:34:15;ht;84;5.90
2024-07-05 07:34:15;v;4.21
2024-07-05 08:04:15;1;74;74;74;74;74;74;74;74;74;74;
2024-07-05 08:04:15;2;93;93;93;93;93;93;93;93;93;93;
2024-07-05 08:04:15;3;109;109;109;109;109;108;109;109;109;109;
2024-07-05 08:04:15;ht;86;5.70
2024-07-05 08:04:15;v;4.21
2024-07-05 08:34:19;1;77;77;77;77;77;77;77;77;77;77;
2024-07-05 08:34:19;2;106;106;106;106;106;106;106;106;106;106;
2024-07-05 08:34:19;3;103;103;103;102;103;103;103;103;102;103;
2024-07-05 08:34:19;ht;85;5.80
2024-07-05 08:34:19;v;4.21
2024-07-05 09:04:18;1;73;73;73;73;73;73;73;73;73;73;
2024-07-05 09:04:18;2;84;84;84;84;84;84;84;84;84;84;
2024-07-05 09:04:18;3;82;82;82;82;83;82;82;82;82;88;
2024-07-05 09:04:18;ht;82;6.50
2024-07-05 09:04:18;v;4.21
2024-07-05 09:34:18;1;73;73;73;73;73;73;73;73;73;73;
2024-07-05 09:34:18;2;87;87;87;87;87;88;88;87;88;87;
2024-07-05 09:34:18;3;2;2;2;3;2;3;2;2;3;3;
2024-07-05 09:34:18;ht;82;7.10
2024-07-05 09:34:18;v;4.22
2024-07-05 10:04:19;1;72;72;72;72;72;72;72;72;72;72;
2024-07-05 10:04:19;2;2;2;2;2;2;2;3;2;2;2;
2024-07-05 10:04:19;3;108;109;108;108;108;109;108;109;108;109;
2024-07-05 10:04:19;ht;80;7.90
2024-07-05 10:04:19;v;4.21
2024-07-05 10:34:16;1;74;74;74;74;74;74;74;74;74;74;
2024-07-05 10:34:16;2;2;3;3;3;3;3;3;2;3;3;
2024-07-05 10:34:16;3;109;109;109;109;109;109;109;109;109;109;
2024-07-05 10:34:16;ht;78;9.00
2024-07-05 10:34:16;v;4.21
2024-07-05 11:04:18;1;98;98;98;98;98;98;98;98;98;98;
2024-07-05 11:04:18;2;99;99;99;99;99;100;99;99;99;99;
2024-07-05 11:04:18;3;99;99;99;99;99;99;98;99;99;99;
2024-07-05 11:04:18;ht;68;10.70
2024-07-05 11:04:18;v;4.22
2024-07-05 11:34:23;1;90;90;89;89;90;89;89;89;89;89;
2024-07-05 11:34:23;2;101;102;101;102;101;101;102;102;101;102;
2024-07-05 11:34:23;3;98;99;99;98;99;99;99;99;99;99;
2024-07-05 11:34:23;ht;57;13.40
2024-07-05 11:34:23;v;4.21
2024-07-05 12:04:24;1;94;94;94;94;94;94;94;94;94;94;
2024-07-05 12:04:24;2;2;2;2;3;3;3;3;2;3;2;
2024-07-05 12:04:24;3;69;70;69;69;69;69;69;69;69;69;
2024-07-05 12:04:24;ht;60;13.60
2024-07-05 12:04:24;v;4.22
2024-07-05 12:34:22;1;93;93;93;94;94;93;93;93;94;94;
2024-07-05 12:34:22;2;81;81;81;81;81;81;81;81;81;81;
2024-07-05 12:34:22;3;85;86;85;85;86;86;85;85;85;86;
2024-07-05 12:34:22;ht;48;14.60
2024-07-05 12:34:22;v;4.21
2024-07-05 13:04:24;1;119;119;119;119;119;119;119;119;119;119;
2024-07-05 13:04:24;2;3;3;3;3;3;3;3;2;3;3;
2024-07-05 13:04:24;3;115;115;115;115;115;115;115;115;115;115;
2024-07-05 13:04:24;ht;48;14.50
2024-07-05 13:04:24;v;4.22
2024-07-05 13:34:22;1;96;96;96;96;96;96;95;96;95;95;
2024-07-05 13:34:22;2;3;2;3;3;2;3;3;3;2;3;
2024-07-05 13:34:22;3;118;118;118;118;118;118;118;118;118;118;
2024-07-05 13:34:22;ht;46;15.10
2024-07-05 13:34:22;v;4.21
2024-07-05 14:04:24;1;3;3;3;3;3;2;3;3;3;3;
2024-07-05 14:04:24;2;88;88;88;88;88;88;88;88;88;88;
2024-07-05 14:04:24;3;119;119;119;119;119;119;119;119;119;119;
2024-07-05 14:04:24;ht;42;15.70
2024-07-05 14:04:24;v;4.21
2024-07-05 14:34:22;1;100;100;99;100;100;100;99;99;100;99;
2024-07-05 14:34:22;2;88;89;89;88;89;89;89;88;89;88;
2024-07-05 14:34:22;3;100;100;100;100;100;100;100;100;100;100;
2024-07-05 14:34:22;ht;40;15.70
2024-07-05 14:34:22;v;4.21
2024-07-05 15:04:24;1;105;105;105;105;105;105;105;105;105;105;
2024-07-05 15:04:24;2;101;101;101;101;102;102;101;101;102;102;
2024-07-05 15:04:24;3;3;3;3;3;3;3;3;3;3;3;
2024-07-05 15:04:24;ht;40;15.50
2024-07-05 15:04:24;v;4.21
2024-07-05 15:34:22;1;95;95;95;95;95;95;95;95;95;95;
2024-07-05 15:34:22;2;3;3;3;2;3;3;3;2;3;3;
2024-07-05 15:34:22;3;3;3;3;2;3;3;3;3;3;3;
2024-07-05 15:34:22;ht;42;16.20
2024-07-05 15:34:22;v;4.22
2024-07-05 16:04:25;1;90;89;90;90;90;90;90;90;90;90;
2024-07-05 16:04:25;2;81;81;81;81;81;81;81;82;81;81;
2024-07-05 16:04:25;3;96;96;96;96;96;96;95;95;95;96;
2024-07-05 16:04:25;ht;43;15.90
2024-07-05 16:04:25;v;4.21
2024-07-05 16:34:23;1;88;87;88;88;88;87;88;87;87;88;
2024-07-05 16:34:23;2;103;103;103;104;103;103;103;103;103;104;
2024-07-05 16:34:23;3;85;85;86;86;86;85;85;86;86;85;
2024-07-05 16:34:23;ht;41;15.30
2024-07-05 16:34:23;v;4.22
2024-07-05 17:04:25;1;95;95;95;95;94;95;94;95;95;95;
2024-07-05 17:04:25;2;80;80;80;80;80;80;80;80;80;80;
2024-07-05 17:04:25;3;112;112;112;112;112;112;112;112;112;112;
2024-07-05 17:04:25;ht;43;14.50
2024-07-05 17:04:25;v;4.22
2024-07-05 17:34:22;1;3;3;3;3;2;3;3;3;3;3;
2024-07-05 17:34:22;2;82;82;82;81;82;82;82;82;81;82;
2024-07-05 17:34:22;3;3;3;3;3;3;3;3;3;3;3;
2024-07-05 17:34:22;ht;48;13.30
2024-07-05 17:34:22;v;4.22
2024-07-05 18:04:22;1;77;77;77;77;77;77;77;77;77;77;
2024-07-05 18:04:22;2;106;106;106;106;106;106;106;106;106;106;
2024-07-05 18:04:22;3;98;97;97;97;98;97;98;97;97;98;
2024-07-05 18:04:22;ht;58;9.70
2024-07-05 18:04:22;v;4.22
2024-07-05 18:34:19;1;91;91;91;91;91;91;91;91;91;91;
2024-07-05 18:34:19;2;84;84;84;84;84;84;84;84;84;84;
2024-07-05 18:34:19;3;105;106;105;105;106;105;106;106;106;105;
2024-07-05 18:34:19;ht;65;7.60
2024-07-05 18:34:19;v;4.22
2024-07-05 19:04:19;1;91;91;91;91;91;91;91;91;91;91;
2024-07-05 19:04:19;2;87;87;87;87;87;87;87;87;87;87;
2024-07-05 19:04:19;3;105;105;105;105;105;106;106;105;106;106;
2024-07-05 19:04:19;ht;66;6.90
2024-07-05 19:04:19;v;4.23
2024-07-05 19:34:18;1;75;75;75;75;75;75;75;75;75;75;
2024-07-05 19:34:18;2;103;103;103;103;103;103;103;103;103;103;
2024-07-05 19:34:18;3;100;100;100;100;100;100;100;100;100;100;
2024-07-05 19:34:18;ht;70;6.40
2024-07-05 19:34:18;v;4.22
2024-07-05 20:04:16;1;74;74;74;74;74;74;74;74;74;74;
2024-07-05 20:04:16;2;100;100;100;100;100;100;100;100;100;100;
2024-07-05 20:04:16;3;103;103;103;103;103;103;103;103;104;103;
2024-07-05 20:04:16;ht;69;6.40
2024-07-05 20:04:16;v;4.22
2024-07-05 20:34:14;1;111;111;111;111;111;111;111;111;111;111;
2024-07-05 20:34:14;2;102;102;102;102;102;102;102;102;102;102;
2024-07-05 20:34:14;3;104;103;103;103;103;103;103;103;103;103;
2024-07-05 20:34:14;ht;73;5.00
2024-07-05 20:34:14;v;4.22
2024-07-05 21:04:17;1;114;114;114;114;114;114;114;114;114;114;
2024-07-05 21:04:17;2;102;102;101;100;100;99;99;99;98;98;
2024-07-05 21:04:17;3;103;103;102;102;102;101;101;101;100;100;
2024-07-05 21:04:17;ht;76;4.30
2024-07-05 21:04:17;v;4.22
2024-07-05 21:34:14;1;118;117;118;117;117;118;118;117;117;117;
2024-07-05 21:34:14;2;85;85;85;85;85;85;85;85;85;85;
2024-07-05 21:34:14;3;101;101;102;101;101;101;101;101;101;101;
2024-07-05 21:34:14;ht;95;0.00
2024-07-05 21:34:14;v;4.22
2024-07-05 22:04:16;1;122;122;122;122;122;122;122;122;122;122;
2024-07-05 22:04:16;2;104;104;104;104;104;104;104;104;104;104;
2024-07-05 22:04:16;3;99;99;99;99;100;99;99;99;99;99;
2024-07-05 22:04:16;ht;91;1.10
2024-07-05 22:04:16;v;4.22
2024-07-05 22:34:12;1;121;120;121;121;120;121;121;120;121;121;
2024-07-05 22:34:12;2;104;104;104;104;104;104;104;104;104;104;
2024-07-05 22:34:12;3;2;2;2;2;2;2;2;2;2;2;
2024-07-05 22:34:12;ht;90;1.20
2024-07-05 22:34:12;v;4.22
2024-07-05 23:04:13;1;110;110;110;110;110;110;110;110;110;111;
2024-07-05 23:04:13;2;98;97;98;97;98;98;98;98;98;98;
2024-07-05 23:04:13;3;83;83;83;83;83;83;83;83;83;83;
2024-07-05 23:04:13;ht;96;-0.10
2024-07-05 23:04:13;v;4.22
2024-07-05 23:34:14;1;116;116;116;115;116;116;116;115;115;116;
2024-07-05 23:34:14;2;2;2;2;2;2;2;2;2;2;2;
2024-07-05 23:34:14;3;101;101;101;101;102;101;101;101;101;101;
2024-07-05 23:34:14;ht;97;-0.80
2024-07-05 23:34:14;v;4.21
