2024-05-30 00:04:20;1;99;99;100;100;100;100;100;99;100;100;
2024-05-30 00:04:20;2;114;114;114;114;114;114;114;114;114;114;
2024-05-30 00:04:20;3;124;124;124;124;124;124;124;124;123;124;
2024-05-30 00:04:20;ht;32;9.10
2024-05-30 00:04:20;v;4.22
2024-05-30 00:34:16;1;101;100;100;100;101;100;101;100;101;101;
2024-05-30 00:34:16;2;112;112;112;112;112;112;112;112;112;112;
2024-05-30 00:34:16;3;126;125;125;126;125;125;125;125;126;125;
2024-05-30 00:34:16;ht;32;8.80
2024-05-30 00:34:16;v;4.21
2024-05-30 01:04:16;1;116;116;116;116;116;116;116;116;116;116;
2024-05-30 01:04:16;2;105;105;105;105;105;105;105;105;105;106;
2024-05-30 01:04:16;3;106;106;106;106;106;106;106;106;106;106;
2024-05-30 01:04:16;ht;32;8.40
2024-05-30 01:04:16;v;4.21
2024-05-30 01:34:16;1;115;115;115;115;115;115;115;115;115;115;
2024-05-30 01:34:16;2;98;98;98;98;98;98;98;98;98;98;
2024-05-30 01:34:16;3;105;105;105;105;105;105;105;105;105;105;
2024-05-30 01:34:16;ht;33;7.00
2024-05-30 01:34:16;v;4.21
2024-05-30 02:04:16;1;101;100;100;100;100;100;100;100;100;100;
2024-05-30 02:04:16;2;99;99;99;99;99;99;99;99;99;99;
2024-05-30 02:04:16;3;105;105;105;105;105;105;105;105;105;105;
2024-05-30 02:04:16;ht;34;6.00
2024-05-30 02:04:16;v;4.21
2024-05-30 02:34:15;1;119;119;119;119;119;119;119;119;119;119;
2024-05-30 02:34:15;2;103;103;103;103;103;103;103;103;103;103;
2024-05-30 02:34:15;3;103;103;103;103;103;103;103;103;103;103;
2024-05-30 02:34:15;ht;35;6.10
2024-05-30 02:34:15;v;4.20
2024-05-30 03:04:19;1;114;115;115;114;114;114;115;115;115;115;
2024-05-30 03:04:19;2;102;102;102;102;102;102;102;102;102;102;
2024-05-30 03:04:19;3;103;103;102;103;103;102;103;103;103;103;
2024-05-30 03:04:19;ht;36;6.30
2024-05-30 03:04:19;v;4.21
2024-05-30 03:34:18;1;114;113;113;114;113;114;113;113;113;113;
2024-05-30 03:34:18;2;102;102;102;102;102;102;102;102;102;102;
2024-05-30 03:34:18;3;103;103;103;103;103;103;103;103;103;103;
2024-05-30 03:34:18;ht;37;6.10
2024-05-30 03:34:18;v;4.20
2024-05-30 04:04:17;1;113;113;113;113;113;113;113;113;113;113;
2024-05-30 04:04:17;2;102;102;102;102;102;102;102;102;102;102;
2024-05-30 04:04:17;3;103;103;103;103;103;103;103;103;103;103;
2024-05-30 04:04:17;ht;38;6.00
2024-05-30 04:04:17;v;4.21
2024-05-30 04:34:16;1;111;110;110;110;110;110;110;110;110;110;
2024-05-30 04:34:16;2;104;105;105;105;105;104;104;105;105;105;
2024-05-30 04:34:16;3;101;101;100;101;101;101;101;101;101;100;
2024-05-30 04:34:16;ht;39;5.40
2024-05-30 04:34:16;v;4.20
2024-05-30 05:04:14;1;112;112;112;112;112;112;112;112;112;112;
2024-05-30 05:04:14;2;106;106;106;106;106;106;106;106;106;106;
2024-05-30 05:04:14;3;102;102;102;101;102;102;102;102;102;102;
2024-05-30 05:04:14;ht;39;4.70
2024-05-30 05:04:14;v;4.21
2024-05-30 05:34:17;1;104;104;104;104;104;104;104;104;104;104;
2024-05-30 05:34:17;2;105;105;105;105;105;105;105;105;105;105;
2024-05-30 05:34:17;3;104;104;104;104;104;104;104;104;104;104;
2024-05-30 05:34:17;ht;40;4.40
2024-05-30 05:34:17;v;4.20
2024-05-30 06:04:15;1;98;98;98;98;99;98;98;99;98;99;
2024-05-30 06:04:15;2;107;107;107;107;107;107;107;107;107;108;
2024-05-30 06:04:15;3;104;103;103;104;104;104;103;104;104;103;
2024-05-30 06:04:15;ht;40;4.00
2024-05-30 06:04:15;v;4.21
2024-05-30 06:34:14;1;100;100;100;99;100;100;100;100;99;99;
2024-05-30 06:34:14;2;107;108;107;108;107;108;107;108;108;108;
2024-05-30 06:34:14;3;100;101;101;101;100;101;101;100;101;100;
2024-05-30 06:34:14;ht;40;4.10
2024-05-30 06:34:14;v;4.20
2024-05-30 07:04:16;1;102;103;103;103;102;103;103;102;103;103;
2024-05-30 07:04:16;2;109;109;108;108;108;108;109;108;109;109;
2024-05-30 07:04:16;3;98;98;97;98;97;98;98;98;98;98;
2024-05-30 07:04:16;ht;41;4.70
2024-05-30 07:04:16;v;4.21
2024-05-30 07:34:14;1;141;141;141;141;141;141;141;141;141;141;
2024-05-30 07:34:14;2;100;100;100;100;100;100;100;100;100;100;
2024-05-30 07:34:14;3;97;96;96;96;96;96;96;96;96;96;
2024-05-30 07:34:14;ht;41;3.90
2024-05-30 07:34:14;v;4.20
2024-05-30 08:04:17;1;130;129;130;130;130;129;130;129;129;130;
2024-05-30 08:04:17;2;103;103;103;103;103;103;104;104;103;103;
2024-05-30 08:04:17;3;100;100;100;99;100;99;100;100;100;99;
2024-05-30 08:04:17;ht;41;4.50
2024-05-30 08:04:17;v;4.21
2024-05-30 08:34:16;1;104;104;104;104;104;104;104;104;104;104;
2024-05-30 08:34:16;2;99;99;99;99;99;99;99;99;99;99;
2024-05-30 08:34:16;3;110;110;110;110;110;110;110;110;110;110;
2024-05-30 08:34:16;ht;39;6.30
2024-05-30 08:34:16;v;4.20
2024-05-30 09:04:16;1;101;101;101;101;101;101;101;101;101;101;
2024-05-30 09:04:16;2;106;106;106;107;106;106;106;106;106;106;
2024-05-30 09:04:16;3;91;92;91;92;91;91;91;91;91;91;
2024-05-30 09:04:16;ht;32;8.30
2024-05-30 09:04:16;v;4.21
2024-05-30 09:34:19;1;94;94;94;94;94;94;94;94;94;94;
2024-05-30 09:34:19;2;95;95;95;95;95;95;95;95;95;95;
2024-05-30 09:34:19;3;104;104;104;104;104;104;104;104;104;104;
2024-05-30 09:34:19;ht;38;10.80
2024-05-30 09:34:19;v;4.20
2024-05-30 10:04:19;1;99;99;99;99;99;99;99;99;99;99;
2024-05-30 10:04:19;2;93;93;93;93;93;93;93;93;93;93;
2024-05-30 10:04:19;3;101;101;101;101;101;101;101;101;101;101;
2024-05-30 10:04:19;ht;91;12.80
2024-05-30 10:04:19;v;4.21
2024-05-30 10:34:21;1;112;112;111;112;112;112;112;111;112;111;
2024-05-30 10:34:21;2;103;103;103;103;103;103;103;103;103;103;
2024-05-30 10:34:21;3;104;104;103;104;104;104;104;103;104;104;
2024-05-30 10:34:21;ht;97;14.30
2024-05-30 10:34:21;v;4.21
2024-05-30 11:04:23;1;110;110;110;109;110;110;110;110;110;110;
2024-05-30 11:04:23;2;108;108;108;108;108;108;108;108;108;108;
2024-05-30 11:04:23;3;102;101;102;101;101;101;101;102;101;101;
2024-05-30 11:04:23;ht;97;15.00
2024-05-30 11:04:23;v;4.21
2024-05-30 11:34:26;1;115;116;116;116;116;116;116;116;116;116;
2024-05-30 11:34:26;2;111;111;110;110;110;110;110;110;110;111;
2024-05-30 11:34:26;3;101;101;101;101;101;101;101;101;101;101;
2024-05-30 11:34:26;ht;97;16.00
2024-05-30 11:34:26;v;4.21
2024-05-30 12:04:25;1;93;93;93;93;93;93;93;93;93;93;
2024-05-30 12:04:25;2;100;100;100;100;100;100;100;100;100;100;
2024-05-30 12:04:25;3;104;105;104;105;105;105;105;105;105;105;
2024-05-30 12:04:25;ht;97;15.40
2024-05-30 12:04:25;v;4.21
2024-05-30 12:34:23;1;105;105;105;105;105;105;105;105;105;105;
2024-05-30 12:34:23;2;94;94;94;94;94;94;94;94;94;94;
2024-05-30 12:34:23;3;103;104;104;104;103;104;103;103;104;104;
2024-05-30 12:34:23;ht;97;17.10
2024-05-30 12:34:23;v;4.21
2024-05-30 13:04:23;1;134;134;135;134;135;134;135;134;134;135;
2024-05-30 13:04:23;2;105;104;104;104;104;104;104;104;104;104;
2024-05-30 13:04:23;3;103;103;104;103;103;103;103;104;103;103;
2024-05-30 13:04:23;ht;97;17.60
2024-05-30 13:04:23;v;4.21
2024-05-30 13:34:23;1;117;117;116;117;117;117;117;116;117;117;
2024-05-30 13:34:23;2;93;93;93;93;93;93;93;93;93;93;
2024-05-30 13:34:23;3;100;100;100;100;100;100;100;100;100;100;
2024-05-30 13:34:23;ht;97;18.90
2024-05-30 13:34:23;v;4.21
2024-05-30 14:04:23;1;101;101;101;101;101;101;101;101;101;101;
2024-05-30 14:04:23;2;97;97;97;97;97;97;97;97;97;97;
2024-05-30 14:04:23;3;100;99;99;99;99;99;100;100;99;100;
2024-05-30 14:04:23;ht;92;19.70
2024-05-30 14:04:23;v;4.16
2024-05-30 14:34:24;1;3;3;3;3;3;3;3;3;3;3;
2024-05-30 14:34:24;2;98;98;98;99;99;99;99;98;99;98;
2024-05-30 14:34:24;3;103;103;103;103;103;103;103;103;103;103;
2024-05-30 14:34:24;ht;95;18.80
2024-05-30 14:34:24;v;4.21
2024-05-30 15:04:25;1;93;93;92;92;92;93;93;93;92;93;
2024-05-30 15:04:25;2;89;89;89;90;90;90;90;89;89;89;
2024-05-30 15:04:25;3;103;103;103;103;103;103;103;103;103;103;
2024-05-30 15:04:25;ht;89;19.60
2024-05-30 15:04:25;v;4.20
2024-05-30 15:34:26;1;90;90;90;90;90;90;90;90;90;90;
2024-05-30 15:34:26;2;97;97;97;97;97;97;97;97;97;97;
2024-05-30 15:34:26;3;98;98;98;98;98;98;98;98;98;98;
2024-05-30 15:34:26;ht;87;19.60
2024-05-30 15:34:26;v;4.21
2024-05-30 16:04:27;1;160;160;160;160;160;160;160;160;160;160;
2024-05-30 16:04:27;2;98;99;98;99;98;98;98;99;99;99;
2024-05-30 16:04:27;3;101;101;101;101;101;101;101;101;101;101;
2024-05-30 16:04:27;ht;89;19.90
2024-05-30 16:04:27;v;4.20
2024-05-30 16:34:24;1;96;96;96;96;96;96;96;96;96;96;
2024-05-30 16:34:24;2;103;103;103;103;103;103;103;103;103;103;
2024-05-30 16:34:24;3;105;105;105;104;105;105;105;105;104;105;
2024-05-30 16:34:24;ht;88;19.40
2024-05-30 16:34:24;v;4.21
2024-05-30 17:04:24;1;103;103;104;104;103;103;104;103;103;103;
2024-05-30 17:04:24;2;108;107;108;108;108;108;108;108;107;107;
2024-05-30 17:04:24;3;104;104;104;104;104;104;104;104;104;104;
2024-05-30 17:04:24;ht;92;18.40
2024-05-30 17:04:24;v;4.21
2024-05-30 17:34:24;1;96;96;96;96;96;96;96;96;96;96;
2024-05-30 17:34:24;2;112;112;112;112;112;112;112;112;112;112;
2024-05-30 17:34:24;3;111;111;111;110;111;111;111;110;110;110;
2024-05-30 17:34:24;ht;97;16.60
2024-05-30 17:34:24;v;4.22
2024-05-30 18:04:21;1;96;96;96;96;96;96;95;96;95;96;
2024-05-30 18:04:21;2;102;102;102;103;102;102;102;102;102;102;
2024-05-30 18:04:21;3;111;111;111;111;111;111;111;111;111;111;
2024-05-30 18:04:21;ht;97;14.10
2024-05-30 18:04:21;v;4.22
2024-05-30 18:34:20;1;105;105;105;105;105;105;105;105;105;105;
2024-05-30 18:34:20;2;102;102;102;102;102;102;102;102;102;102;
2024-05-30 18:34:20;3;109;109;109;109;109;109;109;109;109;109;
2024-05-30 18:34:20;ht;97;12.60
2024-05-30 18:34:20;v;4.22
2024-05-30 19:04:18;1;115;115;115;115;115;115;115;115;115;115;
2024-05-30 19:04:18;2;103;103;103;103;103;103;103;103;103;103;
2024-05-30 19:04:18;3;109;109;109;109;109;109;109;109;109;109;
2024-05-30 19:04:18;ht;93;11.60
2024-05-30 19:04:18;v;4.22
2024-05-30 19:34:20;1;94;94;94;94;93;94;93;94;94;94;
2024-05-30 19:34:20;2;102;102;103;102;102;102;102;102;102;102;
2024-05-30 19:34:20;3;96;97;97;96;96;96;97;97;97;98;
2024-05-30 19:34:20;ht;77;10.90
2024-05-30 19:34:20;v;4.22
2024-05-30 20:04:17;1;117;117;117;117;117;117;117;117;117;117;
2024-05-30 20:04:17;2;105;105;105;105;105;105;105;105;105;105;
2024-05-30 20:04:17;3;101;101;101;101;101;101;101;101;101;101;
2024-05-30 20:04:17;ht;71;10.40
2024-05-30 20:04:17;v;4.21
2024-05-30 20:34:18;1;114;114;114;114;114;114;114;114;114;114;
2024-05-30 20:34:18;2;103;103;103;103;103;103;103;103;103;103;
2024-05-30 20:34:18;3;107;108;108;108;108;108;108;107;108;108;
2024-05-30 20:34:18;ht;68;9.60
2024-05-30 20:34:18;v;4.22
2024-05-30 21:04:19;1;103;103;103;103;103;103;103;103;102;103;
2024-05-30 21:04:19;2;102;102;102;102;102;102;102;102;102;102;
2024-05-30 21:04:19;3;102;102;102;102;102;102;102;102;102;102;
2024-05-30 21:04:19;ht;63;8.70
2024-05-30 21:04:19;v;4.21
2024-05-30 21:34:19;1;109;109;109;109;109;109;109;109;109;109;
2024-05-30 21:34:19;2;100;100;100;100;100;100;100;100;100;100;
2024-05-30 21:34:19;3;104;104;104;104;104;104;104;104;104;104;
2024-05-30 21:34:19;ht;52;8.00
2024-05-30 21:34:19;v;4.22
2024-05-30 22:04:15;1;108;108;108;108;108;108;108;108;108;108;
2024-05-30 22:04:15;2;99;99;99;99;99;99;99;99;99;99;
2024-05-30 22:04:15;3;107;107;107;107;107;107;107;107;107;107;
2024-05-30 22:04:15;ht;42;8.10
2024-05-30 22:04:15;v;4.21
2024-05-30 22:34:19;1;170;170;170;170;170;170;170;170;170;170;
2024-05-30 22:34:19;2;102;102;102;102;102;102;102;102;102;102;
2024-05-30 22:34:19;3;106;106;106;106;106;106;105;106;106;105;
2024-05-30 22:34:19;ht;38;7.30
2024-05-30 22:34:19;v;4.22
2024-05-30 23:04:14;1;178;178;178;178;178;178;178;178;178;178;
2024-05-30 23:04:14;2;98;98;98;98;98;98;98;98;98;98;
2024-05-30 23:04:14;3;103;103;103;103;103;103;103;103;103;103;
2024-05-30 23:04:14;ht;36;7.10
2024-05-30 23:04:14;v;4.21
2024-05-30 23:34:19;1;127;127;127;127;127;127;127;127;127;127;
2024-05-30 23:34:19;2;102;102;102;102;102;102;102;102;102;102;
2024-05-30 23:34:19;3;102;102;102;102;103;103;103;103;103;103;
2024-05-30 23:34:19;ht;32;7.10
2024-05-30 23:34:19;v;4.22
