2024-04-10 00:04:22;1;105;105;105;105;105;105;105;105;105;105;
2024-04-10 00:04:22;2;105;105;105;104;105;105;104;105;105;105;
2024-04-10 00:04:22;3;100;99;100;100;100;99;100;100;100;100;
2024-04-10 00:04:22;ht;96;19.90
2024-04-10 00:04:22;v;4.23
2024-04-10 00:34:24;1;106;106;105;106;106;105;106;105;106;106;
2024-04-10 00:34:24;2;102;102;102;102;102;102;102;102;102;102;
2024-04-10 00:34:24;3;105;105;105;105;105;105;105;105;105;105;
2024-04-10 00:34:24;ht;80;19.10
2024-04-10 00:34:24;v;4.23
2024-04-10 01:04:22;1;105;105;105;105;105;105;105;105;105;105;
2024-04-10 01:04:22;2;97;97;97;97;97;97;97;97;97;97;
2024-04-10 01:04:22;3;104;104;104;104;104;104;104;104;104;104;
2024-04-10 01:04:22;ht;75;19.50
2024-04-10 01:04:22;v;4.23
2024-04-10 01:34:25;1;106;106;106;106;106;106;106;106;106;106;
2024-04-10 01:34:25;2;102;102;102;102;102;102;102;102;102;102;
2024-04-10 01:34:25;3;92;92;92;92;92;92;92;92;92;92;
2024-04-10 01:34:25;ht;71;19.60
2024-04-10 01:34:25;v;4.23
2024-04-10 02:04:23;1;105;105;105;105;105;105;105;105;105;105;
2024-04-10 02:04:23;2;104;104;104;104;104;104;104;104;104;104;
2024-04-10 02:04:23;3;98;98;99;98;99;99;98;98;99;99;
2024-04-10 02:04:23;ht;69;19.80
2024-04-10 02:04:23;v;4.23
2024-04-10 02:34:25;1;105;105;105;105;105;105;105;105;105;105;
2024-04-10 02:34:25;2;102;102;102;103;103;103;103;102;103;102;
2024-04-10 02:34:25;3;104;104;104;104;104;104;104;104;104;104;
2024-04-10 02:34:25;ht;86;19.80
2024-04-10 02:34:25;v;4.23
2024-04-10 03:04:24;1;99;99;98;98;98;99;98;99;98;99;
2024-04-10 03:04:24;2;105;105;105;105;105;105;105;105;105;105;
2024-04-10 03:04:24;3;104;104;104;104;104;104;104;104;104;104;
2024-04-10 03:04:24;ht;85;19.70
2024-04-10 03:04:24;v;4.23
2024-04-10 03:34:22;1;105;105;105;105;105;105;105;105;105;105;
2024-04-10 03:34:22;2;103;103;103;103;103;103;103;103;103;103;
2024-04-10 03:34:22;3;103;103;103;103;103;103;103;103;103;103;
2024-04-10 03:34:22;ht;76;19.60
2024-04-10 03:34:22;v;4.23
2024-04-10 04:04:24;1;106;106;106;106;106;106;106;106;106;106;
2024-04-10 04:04:24;2;93;93;93;93;93;93;93;93;94;93;
2024-04-10 04:04:24;3;103;103;103;103;103;103;103;103;103;103;
2024-04-10 04:04:24;ht;74;19.40
2024-04-10 04:04:24;v;4.23
2024-04-10 04:34:22;1;104;104;104;104;104;104;104;104;104;104;
2024-04-10 04:34:22;2;92;91;91;91;91;91;91;91;91;91;
2024-04-10 04:34:22;3;105;105;105;105;105;105;105;105;105;105;
2024-04-10 04:34:22;ht;67;19.00
2024-04-10 04:34:22;v;4.23
2024-04-10 05:04:24;1;102;102;102;102;102;102;102;102;102;102;
2024-04-10 05:04:24;2;104;103;104;104;104;104;104;104;104;104;
2024-04-10 05:04:24;3;94;94;94;93;94;94;94;93;94;94;
2024-04-10 05:04:24;ht;72;19.00
2024-04-10 05:04:24;v;4.23
2024-04-10 05:34:22;1;102;102;102;102;102;102;101;102;101;102;
2024-04-10 05:34:22;2;100;100;100;100;100;100;100;100;100;101;
2024-04-10 05:34:22;3;102;102;102;102;102;102;102;102;102;102;
2024-04-10 05:34:22;ht;69;18.90
2024-04-10 05:34:22;v;4.23
2024-04-10 06:04:24;1;103;104;104;104;104;104;104;104;104;104;
2024-04-10 06:04:24;2;101;100;100;100;100;100;100;100;100;101;
2024-04-10 06:04:24;3;108;108;108;108;108;108;108;108;108;108;
2024-04-10 06:04:24;ht;80;18.80
2024-04-10 06:04:24;v;4.23
2024-04-10 06:34:22;1;104;104;104;104;104;104;104;104;104;104;
2024-04-10 06:34:22;2;90;90;90;90;90;90;90;91;90;90;
2024-04-10 06:34:22;3;100;100;100;100;100;100;99;99;99;100;
2024-04-10 06:34:22;ht;86;19.00
2024-04-10 06:34:22;v;4.23
2024-04-10 07:04:24;1;105;105;105;105;105;105;105;105;105;105;
2024-04-10 07:04:24;2;92;91;91;91;91;91;91;92;91;92;
2024-04-10 07:04:24;3;100;100;100;100;100;100;100;100;100;100;
2024-04-10 07:04:24;ht;81;19.00
2024-04-10 07:04:24;v;4.23
2024-04-10 07:34:22;1;94;94;93;94;94;94;93;94;93;93;
2024-04-10 07:34:22;2;98;98;98;98;98;98;98;98;98;98;
2024-04-10 07:34:22;3;91;92;91;91;91;92;92;92;92;91;
2024-04-10 07:34:22;ht;78;18.90
2024-04-10 07:34:22;v;4.23
2024-04-10 08:04:24;1;103;103;102;102;102;102;103;103;102;102;
2024-04-10 08:04:24;2;91;91;91;91;91;91;91;91;91;91;
2024-04-10 08:04:24;3;95;95;95;95;95;95;95;95;95;95;
2024-04-10 08:04:24;ht;77;19.10
2024-04-10 08:04:24;v;4.23
2024-04-10 08:34:22;1;95;95;95;95;95;95;95;95;95;95;
2024-04-10 08:34:22;2;89;89;89;89;89;89;89;89;89;89;
2024-04-10 08:34:22;3;92;92;92;92;93;92;92;92;92;92;
2024-04-10 08:34:22;ht;89;19.60
2024-04-10 08:34:22;v;4.23
2024-04-10 09:04:26;1;101;101;101;101;101;101;101;101;101;101;
2024-04-10 09:04:26;2;88;88;88;88;88;88;88;88;88;88;
2024-04-10 09:04:26;3;89;89;89;89;89;89;89;89;89;89;
2024-04-10 09:04:26;ht;93;19.90
2024-04-10 09:04:26;v;4.22
2024-04-10 09:34:24;1;97;96;97;96;96;96;96;96;96;96;
2024-04-10 09:34:24;2;92;91;91;91;92;91;92;92;92;91;
2024-04-10 09:34:24;3;89;89;89;89;89;89;89;89;89;89;
2024-04-10 09:34:24;ht;97;20.20
2024-04-10 09:34:24;v;4.23
2024-04-10 10:04:24;1;99;99;99;99;99;99;99;99;99;99;
2024-04-10 10:04:24;2;90;90;89;90;90;89;89;90;90;89;
2024-04-10 10:04:24;3;91;91;91;91;91;91;91;91;91;91;
2024-04-10 10:04:24;ht;97;21.70
2024-04-10 10:04:24;v;4.23
2024-04-10 10:34:25;1;101;101;101;101;101;101;101;101;101;101;
2024-04-10 10:34:25;2;91;90;90;90;90;90;90;91;91;90;
2024-04-10 10:34:25;3;86;86;85;85;85;85;85;85;85;85;
2024-04-10 10:34:25;ht;97;21.20
2024-04-10 10:34:25;v;4.23
2024-04-10 11:04:26;1;106;106;106;106;106;106;106;106;106;106;
2024-04-10 11:04:26;2;89;89;89;89;89;89;89;89;89;89;
2024-04-10 11:04:26;3;93;93;93;92;93;93;93;93;93;93;
2024-04-10 11:04:26;ht;97;21.10
2024-04-10 11:04:26;v;4.23
2024-04-10 11:34:27;1;106;106;106;106;106;106;106;106;106;106;
2024-04-10 11:34:27;2;91;91;91;91;91;91;91;91;91;91;
2024-04-10 11:34:27;3;104;104;104;104;104;104;104;104;104;104;
2024-04-10 11:34:27;ht;97;21.20
2024-04-10 11:34:27;v;4.23
2024-04-10 12:04:27;1;108;108;108;108;108;108;108;108;108;108;
2024-04-10 12:04:27;2;91;91;91;91;91;90;90;91;91;91;
2024-04-10 12:04:27;3;109;109;109;109;110;110;110;109;109;110;
2024-04-10 12:04:27;ht;97;21.00
2024-04-10 12:04:27;v;4.23
2024-04-10 12:34:27;1;103;103;103;103;103;103;103;103;103;103;
2024-04-10 12:34:27;2;85;85;85;85;85;85;85;85;85;85;
2024-04-10 12:34:27;3;94;94;94;94;94;94;94;94;94;94;
2024-04-10 12:34:27;ht;97;20.70
2024-04-10 12:34:27;v;4.23
2024-04-10 13:04:26;1;89;89;89;89;89;89;89;89;89;89;
2024-04-10 13:04:26;2;88;88;88;88;88;88;88;88;88;88;
2024-04-10 13:04:26;3;89;89;89;89;89;89;89;89;89;89;
2024-04-10 13:04:26;ht;97;20.30
2024-04-10 13:04:26;v;4.23
2024-04-10 13:34:25;1;91;91;91;91;91;91;91;91;91;91;
2024-04-10 13:34:25;2;89;89;89;89;89;89;89;89;89;89;
2024-04-10 13:34:25;3;88;88;88;88;88;88;88;89;88;88;
2024-04-10 13:34:25;ht;97;19.80
2024-04-10 13:34:25;v;4.23
2024-04-10 14:04:25;1;93;92;92;92;92;91;92;92;92;91;
2024-04-10 14:04:25;2;97;97;97;97;97;97;97;97;97;97;
2024-04-10 14:04:25;3;90;90;90;90;90;91;91;90;90;90;
2024-04-10 14:04:25;ht;97;19.80
2024-04-10 14:04:25;v;4.23
2024-04-10 14:34:23;1;92;91;91;91;91;91;91;92;91;91;
2024-04-10 14:34:23;2;91;91;91;91;91;91;91;91;91;91;
2024-04-10 14:34:23;3;91;91;92;91;92;91;91;91;91;91;
2024-04-10 14:34:23;ht;97;19.10
2024-04-10 14:34:23;v;4.23
2024-04-10 15:04:22;1;101;101;101;102;101;101;101;101;101;101;
2024-04-10 15:04:22;2;89;89;89;89;89;89;89;89;89;89;
2024-04-10 15:04:22;3;89;90;90;89;89;89;89;89;90;90;
2024-04-10 15:04:22;ht;97;18.10
2024-04-10 15:04:22;v;4.24
2024-04-10 15:34:24;1;105;105;105;105;105;105;105;105;105;105;
2024-04-10 15:34:24;2;87;87;87;87;87;87;87;87;87;87;
2024-04-10 15:34:24;3;92;92;93;92;92;92;92;92;92;92;
2024-04-10 15:34:24;ht;97;17.90
2024-04-10 15:34:24;v;4.23
2024-04-10 16:04:22;1;121;121;121;121;121;121;121;121;121;121;
2024-04-10 16:04:22;2;92;92;92;92;92;92;92;92;92;92;
2024-04-10 16:04:22;3;101;101;101;101;101;101;101;101;101;101;
2024-04-10 16:04:22;ht;97;18.30
2024-04-10 16:04:22;v;4.24
2024-04-10 16:34:24;1;102;102;102;102;102;102;102;102;102;102;
2024-04-10 16:34:24;2;90;90;90;90;90;90;90;90;90;90;
2024-04-10 16:34:24;3;91;90;91;91;90;91;91;90;91;91;
2024-04-10 16:34:24;ht;97;17.50
2024-04-10 16:34:24;v;4.23
2024-04-10 17:04:21;1;106;106;106;106;106;106;106;106;106;106;
2024-04-10 17:04:21;2;88;88;88;88;88;89;88;88;88;88;
2024-04-10 17:04:21;3;86;86;86;86;86;86;86;86;86;86;
2024-04-10 17:04:21;ht;93;17.10
2024-04-10 17:04:21;v;4.23
2024-04-10 17:34:22;1;93;92;93;93;92;92;92;92;93;93;
2024-04-10 17:34:22;2;104;104;104;104;104;104;104;104;104;104;
2024-04-10 17:34:22;3;89;90;90;90;90;90;90;90;90;90;
2024-04-10 17:34:22;ht;80;16.60
2024-04-10 17:34:22;v;4.23
2024-04-10 18:04:23;1;101;101;101;101;101;101;101;101;101;101;
2024-04-10 18:04:23;2;107;107;107;107;107;106;107;107;107;107;
2024-04-10 18:04:23;3;104;104;104;104;104;104;104;104;104;104;
2024-04-10 18:04:23;ht;97;16.60
2024-04-10 18:04:23;v;4.23
2024-04-10 18:34:20;1;106;106;106;106;106;106;106;106;106;106;
2024-04-10 18:34:20;2;90;90;90;90;90;90;90;90;90;90;
2024-04-10 18:34:20;3;103;103;103;103;103;103;103;103;103;103;
2024-04-10 18:34:20;ht;97;16.20
2024-04-10 18:34:20;v;4.23
2024-04-10 19:04:20;1;106;106;106;106;106;106;106;106;106;106;
2024-04-10 19:04:20;2;91;90;90;90;90;90;90;90;90;91;
2024-04-10 19:04:20;3;106;106;106;106;106;106;106;106;106;106;
2024-04-10 19:04:20;ht;97;16.00
2024-04-10 19:04:20;v;4.23
2024-04-10 19:34:20;1;104;104;104;104;104;104;104;104;104;104;
2024-04-10 19:34:20;2;107;106;107;107;106;107;107;107;107;106;
2024-04-10 19:34:20;3;90;91;90;90;91;91;91;91;91;90;
2024-04-10 19:34:20;ht;97;15.50
2024-04-10 19:34:20;v;4.23
2024-04-10 20:04:20;1;92;93;93;93;92;92;93;92;93;92;
2024-04-10 20:04:20;2;106;106;107;107;106;107;106;106;106;107;
2024-04-10 20:04:20;3;95;96;95;95;95;95;95;95;95;96;
2024-04-10 20:04:20;ht;97;15.30
2024-04-10 20:04:20;v;4.23
2024-04-10 20:34:20;1;106;106;106;106;106;106;106;106;106;106;
2024-04-10 20:34:20;2;107;108;108;107;108;107;107;107;108;107;
2024-04-10 20:34:20;3;96;96;96;96;96;96;96;96;96;96;
2024-04-10 20:34:20;ht;97;15.80
2024-04-10 20:34:20;v;4.23
2024-04-10 21:04:20;1;110;110;110;110;110;110;110;110;110;110;
2024-04-10 21:04:20;2;105;105;104;105;105;104;105;105;105;104;
2024-04-10 21:04:20;3;102;102;102;102;102;102;102;102;102;102;
2024-04-10 21:04:20;ht;97;15.80
2024-04-10 21:04:20;v;4.23
2024-04-10 21:34:20;1;105;105;105;105;105;105;105;105;105;105;
2024-04-10 21:34:20;2;99;100;99;99;99;99;99;99;99;99;
2024-04-10 21:34:20;3;104;104;104;103;104;104;104;104;104;104;
2024-04-10 21:34:20;ht;97;15.90
2024-04-10 21:34:20;v;4.23
2024-04-10 22:04:20;1;105;105;105;105;105;105;105;105;105;105;
2024-04-10 22:04:20;2;99;99;99;99;99;99;99;99;99;99;
2024-04-10 22:04:20;3;101;100;101;101;101;101;101;101;101;100;
2024-04-10 22:04:20;ht;97;15.70
2024-04-10 22:04:20;v;4.23
2024-04-10 22:34:20;1;106;106;106;106;106;106;106;106;106;106;
2024-04-10 22:34:20;2;105;105;105;105;105;105;105;105;105;105;
2024-04-10 22:34:20;3;94;94;94;94;93;94;94;94;94;94;
2024-04-10 22:34:20;ht;97;15.50
2024-04-10 22:34:20;v;4.23
2024-04-10 23:04:20;1;98;97;98;98;98;97;98;98;98;97;
2024-04-10 23:04:20;2;98;98;98;98;98;98;98;98;99;98;
2024-04-10 23:04:20;3;98;98;98;98;98;97;98;98;98;98;
2024-04-10 23:04:20;ht;97;15.00
2024-04-10 23:04:20;v;4.23
2024-04-10 23:34:19;1;107;107;107;107;107;107;107;107;107;107;
2024-04-10 23:34:19;2;102;102;102;102;102;102;102;101;102;102;
2024-04-10 23:34:19;3;93;92;92;92;93;93;93;92;93;93;
2024-04-10 23:34:19;ht;97;14.70
2024-04-10 23:34:19;v;4.23
