2024-01-10 00:04:25;1;104;104;104;103;104;104;104;104;104;104;
2024-01-10 00:04:25;2;99;99;99;100;100;100;100;100;100;100;
2024-01-10 00:04:25;3;104;104;104;104;104;104;103;104;104;104;
2024-01-10 00:04:25;ht;52;23.20
2024-01-10 00:04:25;v;4.24
2024-01-10 00:34:26;1;104;104;104;104;104;104;104;104;104;104;
2024-01-10 00:34:26;2;101;101;101;101;101;101;101;101;101;101;
2024-01-10 00:34:26;3;104;104;104;104;104;104;104;104;104;104;
2024-01-10 00:34:26;ht;52;22.90
2024-01-10 00:34:26;v;4.24
2024-01-10 01:04:27;1;105;105;105;105;105;105;105;105;105;105;
2024-01-10 01:04:27;2;102;102;102;102;102;102;102;102;102;102;
2024-01-10 01:04:27;3;104;104;104;103;103;103;104;103;104;104;
2024-01-10 01:04:27;ht;52;22.60
2024-01-10 01:04:27;v;4.24
2024-01-10 01:34:27;1;103;103;103;103;103;103;103;103;103;103;
2024-01-10 01:34:27;2;104;105;104;104;105;104;104;105;104;104;
2024-01-10 01:34:27;3;102;102;102;102;102;102;102;102;102;102;
2024-01-10 01:34:27;ht;53;22.50
2024-01-10 01:34:27;v;4.24
2024-01-10 02:04:27;1;104;104;104;104;104;104;104;104;104;104;
2024-01-10 02:04:27;2;102;102;102;102;102;102;102;102;102;102;
2024-01-10 02:04:27;3;104;104;104;104;104;104;104;104;104;104;
2024-01-10 02:04:27;ht;54;22.50
2024-01-10 02:04:27;v;4.24
2024-01-10 02:34:23;1;102;102;102;102;102;102;102;102;102;102;
2024-01-10 02:34:23;2;102;102;102;102;102;102;102;102;102;102;
2024-01-10 02:34:23;3;104;104;104;104;104;104;104;104;104;104;
2024-01-10 02:34:23;ht;54;22.70
2024-01-10 02:34:23;v;4.24
2024-01-10 03:04:28;1;104;104;104;104;104;104;104;104;104;103;
2024-01-10 03:04:28;2;104;104;104;104;104;104;104;104;104;104;
2024-01-10 03:04:28;3;104;104;104;104;104;104;104;104;104;104;
2024-01-10 03:04:28;ht;51;23.00
2024-01-10 03:04:28;v;4.24
2024-01-10 03:34:25;1;100;100;100;100;101;100;100;100;101;101;
2024-01-10 03:34:25;2;102;102;102;102;102;102;102;102;102;102;
2024-01-10 03:34:25;3;104;104;104;104;104;104;104;104;104;104;
2024-01-10 03:34:25;ht;49;23.30
2024-01-10 03:34:25;v;4.24
2024-01-10 04:04:26;1;139;139;139;139;139;139;139;139;139;139;
2024-01-10 04:04:26;2;103;103;103;103;103;103;103;103;103;103;
2024-01-10 04:04:26;3;98;98;98;98;98;98;98;98;98;98;
2024-01-10 04:04:26;ht;46;23.10
2024-01-10 04:04:26;v;4.24
2024-01-10 04:34:27;1;104;104;104;104;104;104;104;104;104;104;
2024-01-10 04:34:27;2;102;102;102;102;103;102;103;102;102;102;
2024-01-10 04:34:27;3;103;103;103;103;103;103;103;103;103;103;
2024-01-10 04:34:27;ht;41;23.20
2024-01-10 04:34:27;v;4.24
2024-01-10 05:04:27;1;137;137;137;137;137;137;137;137;137;137;
2024-01-10 05:04:27;2;102;102;102;102;102;103;103;102;102;103;
2024-01-10 05:04:27;3;102;102;102;101;102;102;102;102;102;102;
2024-01-10 05:04:27;ht;45;23.10
2024-01-10 05:04:27;v;4.24
2024-01-10 05:34:24;1;96;96;96;96;96;96;96;96;96;96;
2024-01-10 05:34:24;2;101;101;101;101;101;101;101;101;101;101;
2024-01-10 05:34:24;3;104;104;104;103;104;104;104;104;104;104;
2024-01-10 05:34:24;ht;42;23.30
2024-01-10 05:34:24;v;4.23
2024-01-10 06:04:25;1;101;101;101;101;101;101;101;101;101;101;
2024-01-10 06:04:25;2;100;100;100;100;100;100;100;100;100;100;
2024-01-10 06:04:25;3;100;101;100;101;101;101;100;101;100;100;
2024-01-10 06:04:25;ht;40;23.70
2024-01-10 06:04:25;v;4.24
2024-01-10 06:34:26;1;99;99;100;100;100;100;100;100;100;99;
2024-01-10 06:34:26;2;102;102;102;102;102;102;102;102;102;103;
2024-01-10 06:34:26;3;101;101;101;101;100;101;101;101;101;101;
2024-01-10 06:34:26;ht;44;23.60
2024-01-10 06:34:26;v;4.23
2024-01-10 07:04:27;1;99;98;98;99;98;98;99;98;99;99;
2024-01-10 07:04:27;2;101;101;101;101;101;101;101;101;101;101;
2024-01-10 07:04:27;3;101;101;101;101;101;101;101;101;101;101;
2024-01-10 07:04:27;ht;45;23.50
2024-01-10 07:04:27;v;4.24
2024-01-10 07:34:28;1;83;84;83;83;83;84;83;84;83;83;
2024-01-10 07:34:28;2;98;98;98;98;98;98;98;98;98;98;
2024-01-10 07:34:28;3;100;100;100;99;100;99;100;100;99;100;
2024-01-10 07:34:28;ht;48;23.30
2024-01-10 07:34:28;v;4.23
2024-01-10 08:04:25;1;90;89;89;90;89;89;89;89;89;89;
2024-01-10 08:04:25;2;103;103;103;103;103;103;103;103;103;103;
2024-01-10 08:04:25;3;100;100;100;100;100;100;100;100;100;100;
2024-01-10 08:04:25;ht;52;23.50
2024-01-10 08:04:25;v;4.24
2024-01-10 08:34:26;1;105;105;105;105;105;105;105;105;105;105;
2024-01-10 08:34:26;2;105;105;105;105;105;104;104;104;104;104;
2024-01-10 08:34:26;3;104;104;104;104;104;104;104;104;104;104;
2024-01-10 08:34:26;ht;54;23.70
2024-01-10 08:34:26;v;4.23
2024-01-10 09:04:28;1;105;105;105;105;105;105;105;105;105;105;
2024-01-10 09:04:28;2;101;101;101;101;101;101;101;101;101;101;
2024-01-10 09:04:28;3;102;102;102;102;102;102;102;102;102;102;
2024-01-10 09:04:28;ht;41;23.50
2024-01-10 09:04:28;v;4.24
2024-01-10 09:34:24;1;105;105;105;105;105;105;105;105;105;105;
2024-01-10 09:34:24;2;103;103;103;103;103;103;103;103;103;103;
2024-01-10 09:34:24;3;104;104;104;104;104;104;104;104;104;104;
2024-01-10 09:34:24;ht;40;23.50
2024-01-10 09:34:24;v;4.23
2024-01-10 10:04:26;1;117;117;117;117;117;117;117;117;117;117;
2024-01-10 10:04:26;2;101;100;101;101;100;101;101;101;101;100;
2024-01-10 10:04:26;3;103;103;103;103;103;103;103;103;103;103;
2024-01-10 10:04:26;ht;43;23.20
2024-01-10 10:04:26;v;4.24
2024-01-10 10:34:27;1;102;102;102;102;102;102;102;103;102;103;
2024-01-10 10:34:27;2;97;97;97;97;97;97;97;97;97;97;
2024-01-10 10:34:27;3;103;103;103;103;103;103;103;103;103;102;
2024-01-10 10:34:27;ht;43;23.20
2024-01-10 10:34:27;v;4.23
2024-01-10 11:04:24;1;105;105;105;105;105;105;105;105;105;105;
2024-01-10 11:04:24;2;87;87;87;87;87;87;87;87;87;87;
2024-01-10 11:04:24;3;102;102;102;102;102;102;102;102;102;102;
2024-01-10 11:04:24;ht;52;23.20
2024-01-10 11:04:24;v;4.24
2024-01-10 11:34:26;1;106;106;106;106;106;106;106;106;106;106;
2024-01-10 11:34:26;2;80;80;80;80;80;80;80;80;80;80;
2024-01-10 11:34:26;3;103;103;103;103;103;103;103;103;103;103;
2024-01-10 11:34:26;ht;60;23.90
2024-01-10 11:34:26;v;4.24
2024-01-10 12:04:29;1;85;84;85;84;84;84;84;84;85;84;
2024-01-10 12:04:29;2;101;101;101;101;101;101;101;101;101;101;
2024-01-10 12:04:29;3;101;101;101;101;101;101;101;101;102;101;
2024-01-10 12:04:29;ht;69;23.40
2024-01-10 12:04:29;v;4.24
2024-01-10 12:34:27;1;99;99;99;99;99;99;99;99;99;99;
2024-01-10 12:34:27;2;103;103;103;103;104;103;103;104;103;103;
2024-01-10 12:34:27;3;104;104;104;104;104;104;104;104;104;104;
2024-01-10 12:34:27;ht;89;24.40
2024-01-10 12:34:27;v;4.23
2024-01-10 13:04:31;1;104;104;104;104;104;104;104;104;104;104;
2024-01-10 13:04:31;2;92;92;92;92;93;92;92;92;92;92;
2024-01-10 13:04:31;3;102;102;101;102;102;102;102;101;101;101;
2024-01-10 13:04:31;ht;91;24.00
2024-01-10 13:04:31;v;4.24
2024-01-10 13:34:30;1;88;88;88;88;88;88;88;88;88;88;
2024-01-10 13:34:30;2;105;104;104;105;104;105;104;104;104;105;
2024-01-10 13:34:30;3;104;104;104;104;104;104;104;104;104;104;
2024-01-10 13:34:30;ht;93;24.20
2024-01-10 13:34:30;v;4.24
2024-01-10 14:04:29;1;100;100;100;100;100;100;100;100;100;100;
2024-01-10 14:04:29;2;101;101;101;101;101;101;102;101;101;101;
2024-01-10 14:04:29;3;104;104;104;104;104;104;104;104;104;104;
2024-01-10 14:04:29;ht;97;25.00
2024-01-10 14:04:29;v;4.24
2024-01-10 14:34:29;1;101;101;101;101;101;101;101;101;101;100;
2024-01-10 14:34:29;2;98;98;98;98;98;98;98;98;98;98;
2024-01-10 14:34:29;3;104;104;104;104;104;104;104;104;104;104;
2024-01-10 14:34:29;ht;97;25.60
2024-01-10 14:34:29;v;4.23
2024-01-10 15:04:32;1;104;104;104;104;104;104;104;104;104;104;
2024-01-10 15:04:32;2;98;98;98;98;98;98;98;98;98;98;
2024-01-10 15:04:32;3;103;103;103;102;103;103;103;103;103;103;
2024-01-10 15:04:32;ht;97;27.30
2024-01-10 15:04:32;v;4.23
2024-01-10 15:34:32;1;97;97;98;98;98;97;97;98;98;97;
2024-01-10 15:34:32;2;100;100;100;100;100;100;100;100;100;100;
2024-01-10 15:34:32;3;103;103;103;103;103;103;103;103;103;103;
2024-01-10 15:34:32;ht;96;27.40
2024-01-10 15:34:32;v;4.23
2024-01-10 16:04:33;1;104;104;104;104;104;104;103;104;104;104;
2024-01-10 16:04:33;2;104;104;104;104;103;103;104;103;104;104;
2024-01-10 16:04:33;3;104;104;104;104;104;104;104;104;104;104;
2024-01-10 16:04:33;ht;95;27.30
2024-01-10 16:04:33;v;4.23
2024-01-10 16:34:35;1;102;102;102;102;102;102;102;102;102;102;
2024-01-10 16:34:35;2;99;98;98;98;98;98;98;98;98;98;
2024-01-10 16:34:35;3;102;103;102;103;103;103;102;103;103;103;
2024-01-10 16:34:35;ht;95;28.20
2024-01-10 16:34:35;v;4.24
2024-01-10 17:04:36;1;103;103;103;103;103;103;103;103;103;103;
2024-01-10 17:04:36;2;102;103;102;103;102;102;103;103;102;103;
2024-01-10 17:04:36;3;102;102;101;101;102;102;102;102;102;102;
2024-01-10 17:04:36;ht;95;27.90
2024-01-10 17:04:36;v;4.24
2024-01-10 17:34:31;1;104;104;104;104;104;104;104;104;104;104;
2024-01-10 17:34:31;2;102;101;102;102;101;102;101;102;101;102;
2024-01-10 17:34:31;3;101;101;101;101;101;101;101;101;101;101;
2024-01-10 17:34:31;ht;93;27.50
2024-01-10 17:34:31;v;4.24
2024-01-10 18:04:36;1;102;103;103;103;103;103;102;103;103;103;
2024-01-10 18:04:36;2;99;99;99;99;99;99;99;99;99;99;
2024-01-10 18:04:36;3;100;100;100;100;100;100;100;100;100;100;
2024-01-10 18:04:36;ht;91;27.90
2024-01-10 18:04:36;v;4.23
2024-01-10 18:34:32;1;104;104;104;104;104;104;104;104;104;104;
2024-01-10 18:34:32;2;96;96;96;96;96;96;97;97;96;96;
2024-01-10 18:34:32;3;101;101;101;101;101;101;101;101;101;101;
2024-01-10 18:34:32;ht;94;27.90
2024-01-10 18:34:32;v;4.24
2024-01-10 19:04:33;1;105;105;105;105;105;105;105;105;105;105;
2024-01-10 19:04:33;2;95;95;95;95;95;95;95;95;95;95;
2024-01-10 19:04:33;3;97;97;97;97;97;97;97;97;97;97;
2024-01-10 19:04:33;ht;93;27.50
2024-01-10 19:04:33;v;4.23
2024-01-10 19:34:32;1;84;84;84;84;84;84;84;85;84;84;
2024-01-10 19:34:32;2;98;98;98;99;98;98;98;98;98;98;
2024-01-10 19:34:32;3;101;101;101;101;101;101;101;101;101;101;
2024-01-10 19:34:32;ht;97;25.90
2024-01-10 19:34:32;v;4.24
2024-01-10 20:04:29;1;101;101;101;101;101;101;101;101;101;101;
2024-01-10 20:04:29;2;103;103;103;103;103;103;103;103;103;103;
2024-01-10 20:04:29;3;98;98;98;98;98;98;98;98;98;98;
2024-01-10 20:04:29;ht;89;24.20
2024-01-10 20:04:29;v;4.24
2024-01-10 20:34:27;1;105;105;105;105;105;105;105;105;105;105;
2024-01-10 20:34:27;2;97;97;97;97;97;97;97;97;97;97;
2024-01-10 20:34:27;3;96;96;95;96;96;95;95;96;96;95;
2024-01-10 20:34:27;ht;55;22.30
2024-01-10 20:34:27;v;4.24
2024-01-10 21:04:27;1;100;99;100;100;100;100;100;100;100;100;
2024-01-10 21:04:27;2;99;99;99;99;99;99;99;99;99;99;
2024-01-10 21:04:27;3;100;100;100;100;100;100;100;100;100;100;
2024-01-10 21:04:27;ht;50;21.50
2024-01-10 21:04:27;v;4.24
2024-01-10 21:34:27;1;104;104;104;104;104;104;104;104;104;104;
2024-01-10 21:34:27;2;104;104;104;104;104;104;104;104;104;104;
2024-01-10 21:34:27;3;103;104;103;103;104;103;103;103;103;103;
2024-01-10 21:34:27;ht;47;21.40
2024-01-10 21:34:27;v;4.24
2024-01-10 22:04:26;1;104;104;104;104;104;104;104;104;104;104;
2024-01-10 22:04:26;2;92;93;92;92;92;92;92;92;92;92;
2024-01-10 22:04:26;3;100;100;100;100;100;100;100;100;100;100;
2024-01-10 22:04:26;ht;50;21.00
2024-01-10 22:04:26;v;4.24
2024-01-10 22:34:25;1;110;110;111;110;110;110;110;110;110;110;
2024-01-10 22:34:25;2;91;92;91;91;91;91;91;92;91;91;
2024-01-10 22:34:25;3;99;99;99;99;99;99;99;99;99;99;
2024-01-10 22:34:25;ht;51;20.60
2024-01-10 22:34:25;v;4.24
2024-01-10 23:04:24;1;160;160;160;160;160;160;160;160;160;160;
2024-01-10 23:04:24;2;89;89;89;89;89;89;89;89;89;89;
2024-01-10 23:04:24;3;98;99;99;99;99;99;99;99;99;99;
2024-01-10 23:04:24;ht;50;20.90
2024-01-10 23:04:24;v;4.24
2024-01-10 23:34:22;1;134;134;134;134;134;134;134;134;134;134;
2024-01-10 23:34:22;2;84;84;84;84;84;84;84;84;84;84;
2024-01-10 23:34:22;3;102;102;102;102;102;102;102;102;102;102;
2024-01-10 23:34:22;ht;48;20.80
2024-01-10 23:34:22;v;4.24
