2024-05-19 00:04:15;1;92;92;92;92;92;92;92;92;92;92;
2024-05-19 00:04:15;2;105;105;105;105;105;105;105;105;105;105;
2024-05-19 00:04:15;3;112;113;112;113;112;112;112;112;113;112;
2024-05-19 00:04:15;ht;82;3.70
2024-05-19 00:04:15;v;4.22
2024-05-19 00:34:18;1;92;93;92;92;92;92;93;93;92;92;
2024-05-19 00:34:18;2;106;105;105;106;106;106;105;106;106;106;
2024-05-19 00:34:18;3;111;111;111;111;111;111;111;111;111;111;
2024-05-19 00:34:18;ht;81;4.20
2024-05-19 00:34:18;v;4.21
2024-05-19 01:04:15;1;107;107;107;107;107;107;106;107;107;107;
2024-05-19 01:04:15;2;106;106;106;106;106;106;106;106;106;106;
2024-05-19 01:04:15;3;116;116;116;116;116;115;116;116;116;116;
2024-05-19 01:04:15;ht;80;4.80
2024-05-19 01:04:15;v;4.22
2024-05-19 01:34:13;1;121;121;121;121;121;121;121;121;121;121;
2024-05-19 01:34:13;2;100;100;100;100;99;99;100;99;100;100;
2024-05-19 01:34:13;3;116;116;116;116;116;116;117;117;116;116;
2024-05-19 01:34:13;ht;80;4.00
2024-05-19 01:34:13;v;4.21
2024-05-19 02:04:16;1;113;113;113;113;113;113;113;113;113;113;
2024-05-19 02:04:16;2;104;104;104;104;105;104;104;104;104;104;
2024-05-19 02:04:16;3;105;105;105;105;105;105;105;105;105;105;
2024-05-19 02:04:16;ht;80;4.10
2024-05-19 02:04:16;v;4.22
2024-05-19 02:34:13;1;112;112;112;112;112;112;112;112;112;112;
2024-05-19 02:34:13;2;105;105;105;105;105;105;105;105;105;105;
2024-05-19 02:34:13;3;114;113;114;114;114;114;114;114;114;114;
2024-05-19 02:34:13;ht;80;4.40
2024-05-19 02:34:13;v;4.21
2024-05-19 03:04:16;1;122;122;122;122;122;122;122;122;122;122;
2024-05-19 03:04:16;2;86;86;86;86;86;86;86;86;86;86;
2024-05-19 03:04:16;3;117;117;117;117;117;117;117;117;117;117;
2024-05-19 03:04:16;ht;81;2.00
2024-05-19 03:04:16;v;4.22
2024-05-19 03:34:13;1;114;114;114;114;114;114;114;114;114;114;
2024-05-19 03:34:13;2;100;100;100;100;100;100;100;100;100;100;
2024-05-19 03:34:13;3;157;157;157;157;157;157;157;157;157;157;
2024-05-19 03:34:13;ht;82;1.90
2024-05-19 03:34:13;v;4.21
2024-05-19 04:04:15;1;111;111;111;111;111;111;111;111;111;111;
2024-05-19 04:04:15;2;105;105;106;105;105;105;106;105;105;105;
2024-05-19 04:04:15;3;82;81;82;81;81;82;82;82;82;81;
2024-05-19 04:04:15;ht;83;2.30
2024-05-19 04:04:15;v;4.22
2024-05-19 04:34:16;1;109;109;109;108;109;109;109;109;108;109;
2024-05-19 04:34:16;2;83;83;83;83;83;83;83;83;83;83;
2024-05-19 04:34:16;3;148;148;148;148;148;148;148;148;148;148;
2024-05-19 04:34:16;ht;83;2.00
2024-05-19 04:34:16;v;4.21
2024-05-19 05:04:13;1;110;110;110;110;110;109;110;110;110;110;
2024-05-19 05:04:13;2;104;104;105;104;104;104;105;104;104;104;
2024-05-19 05:04:13;3;107;107;107;107;107;107;108;108;108;107;
2024-05-19 05:04:13;ht;83;2.00
2024-05-19 05:04:13;v;4.22
2024-05-19 05:34:15;1;112;112;112;112;112;112;112;112;112;112;
2024-05-19 05:34:15;2;105;105;105;105;105;105;105;105;106;105;
2024-05-19 05:34:15;3;82;82;82;82;82;82;82;82;82;82;
2024-05-19 05:34:15;ht;84;1.90
2024-05-19 05:34:15;v;4.21
2024-05-19 06:04:16;1;96;96;96;96;96;96;96;96;97;96;
2024-05-19 06:04:16;2;105;105;105;105;105;105;105;105;105;106;
2024-05-19 06:04:16;3;99;99;99;99;99;99;99;99;99;99;
2024-05-19 06:04:16;ht;84;1.50
2024-05-19 06:04:16;v;4.22
2024-05-19 06:34:13;1;100;100;99;99;100;100;100;100;99;100;
2024-05-19 06:34:13;2;103;103;103;103;103;103;103;103;103;103;
2024-05-19 06:34:13;3;76;76;76;76;76;76;76;76;76;77;
2024-05-19 06:34:13;ht;84;1.30
2024-05-19 06:34:13;v;4.21
2024-05-19 07:04:14;1;99;98;98;98;98;98;98;98;98;98;
2024-05-19 07:04:14;2;104;104;104;104;104;104;104;104;104;104;
2024-05-19 07:04:14;3;122;122;122;122;122;122;122;122;122;122;
2024-05-19 07:04:14;ht;85;1.30
2024-05-19 07:04:14;v;4.21
2024-05-19 07:34:15;1;98;98;98;98;98;98;98;98;98;98;
2024-05-19 07:34:15;2;106;106;106;106;106;106;106;106;106;106;
2024-05-19 07:34:15;3;74;74;74;74;74;74;74;74;74;74;
2024-05-19 07:34:15;ht;85;1.30
2024-05-19 07:34:15;v;4.21
2024-05-19 08:04:16;1;113;112;113;112;113;113;113;113;112;112;
2024-05-19 08:04:16;2;107;107;107;107;107;107;107;107;107;107;
2024-05-19 08:04:16;3;75;75;75;75;75;75;75;75;75;75;
2024-05-19 08:04:16;ht;85;1.50
2024-05-19 08:04:16;v;4.21
2024-05-19 08:34:13;1;151;151;151;151;151;151;151;151;151;151;
2024-05-19 08:34:13;2;107;107;107;107;107;107;107;107;107;107;
2024-05-19 08:34:13;3;90;90;90;90;90;90;90;91;91;90;
2024-05-19 08:34:13;ht;81;2.90
2024-05-19 08:34:13;v;4.21
2024-05-19 09:04:17;1;120;120;121;120;120;120;120;120;120;120;
2024-05-19 09:04:17;2;106;106;106;107;106;107;106;106;106;106;
2024-05-19 09:04:17;3;111;111;111;111;111;111;111;111;111;111;
2024-05-19 09:04:17;ht;78;5.70
2024-05-19 09:04:17;v;4.22
2024-05-19 09:34:18;1;124;124;124;124;124;124;124;124;124;124;
2024-05-19 09:34:18;2;104;104;104;104;104;104;104;104;104;104;
2024-05-19 09:34:18;3;123;123;123;123;123;123;123;123;123;123;
2024-05-19 09:34:18;ht;74;9.30
2024-05-19 09:34:18;v;4.21
2024-05-19 10:04:24;1;119;119;119;119;119;119;119;119;119;119;
2024-05-19 10:04:24;2;101;101;101;101;101;101;101;101;101;101;
2024-05-19 10:04:24;3;113;113;113;113;113;113;113;113;113;113;
2024-05-19 10:04:24;ht;97;11.30
2024-05-19 10:04:24;v;4.21
2024-05-19 10:34:21;1;128;128;128;128;128;128;128;128;128;128;
2024-05-19 10:34:21;2;100;100;100;100;100;100;100;100;100;100;
2024-05-19 10:34:21;3;95;95;95;95;95;95;95;95;95;95;
2024-05-19 10:34:21;ht;97;13.60
2024-05-19 10:34:21;v;4.21
2024-05-19 11:04:25;1;117;117;117;117;117;117;116;117;117;117;
2024-05-19 11:04:25;2;98;98;98;98;98;98;98;98;98;98;
2024-05-19 11:04:25;3;124;124;124;124;124;124;124;124;124;124;
2024-05-19 11:04:25;ht;97;14.80
2024-05-19 11:04:25;v;4.21
2024-05-19 11:34:24;1;125;125;125;125;125;125;125;125;125;125;
2024-05-19 11:34:24;2;99;99;99;99;99;99;99;99;99;99;
2024-05-19 11:34:24;3;103;103;103;103;103;103;103;103;103;103;
2024-05-19 11:34:24;ht;94;15.50
2024-05-19 11:34:24;v;4.21
2024-05-19 12:04:25;1;114;115;114;115;115;114;115;114;115;114;
2024-05-19 12:04:25;2;99;99;99;99;99;99;99;99;99;99;
2024-05-19 12:04:25;3;103;103;104;103;103;104;103;104;103;103;
2024-05-19 12:04:25;ht;84;17.10
2024-05-19 12:04:25;v;4.21
2024-05-19 12:34:26;1;113;113;114;113;113;113;113;114;113;113;
2024-05-19 12:34:26;2;104;104;104;104;104;104;104;104;104;104;
2024-05-19 12:34:26;3;95;95;95;95;95;95;95;95;95;95;
2024-05-19 12:34:26;ht;82;17.40
2024-05-19 12:34:26;v;4.22
2024-05-19 13:04:27;1;116;116;116;116;116;116;116;116;116;116;
2024-05-19 13:04:27;2;100;100;100;100;100;100;100;100;100;101;
2024-05-19 13:04:27;3;120;120;120;120;120;120;120;120;120;120;
2024-05-19 13:04:27;ht;80;17.30
2024-05-19 13:04:27;v;4.21
2024-05-19 13:34:27;1;90;90;89;90;89;89;90;90;89;89;
2024-05-19 13:34:27;2;103;104;103;103;104;103;104;103;103;104;
2024-05-19 13:34:27;3;101;100;101;101;100;101;101;101;101;101;
2024-05-19 13:34:27;ht;80;19.00
2024-05-19 13:34:27;v;4.22
2024-05-19 14:04:27;1;106;106;106;106;105;106;106;106;106;106;
2024-05-19 14:04:27;2;103;103;103;103;103;103;103;103;104;103;
2024-05-19 14:04:27;3;102;102;102;102;102;102;102;102;102;102;
2024-05-19 14:04:27;ht;74;19.90
2024-05-19 14:04:27;v;4.21
2024-05-19 14:34:23;1;104;104;103;103;104;103;104;103;104;104;
2024-05-19 14:34:23;2;104;104;104;104;104;104;104;104;104;104;
2024-05-19 14:34:23;3;103;103;103;102;103;102;103;103;102;103;
2024-05-19 14:34:23;ht;70;20.50
2024-05-19 14:34:23;v;4.22
2024-05-19 15:04:28;1;2;2;2;2;3;2;3;2;2;3;
2024-05-19 15:04:28;2;104;104;104;104;104;104;104;104;104;104;
2024-05-19 15:04:28;3;123;123;123;123;123;123;123;123;123;123;
2024-05-19 15:04:28;ht;69;18.90
2024-05-19 15:04:28;v;4.21
2024-05-19 15:34:25;1;93;93;93;93;93;93;93;93;93;93;
2024-05-19 15:34:25;2;106;106;106;106;106;106;106;109;107;107;
2024-05-19 15:34:25;3;105;105;105;105;105;105;105;105;105;105;
2024-05-19 15:34:25;ht;68;20.20
2024-05-19 15:34:25;v;4.22
2024-05-19 16:04:28;1;108;108;108;108;108;108;108;108;108;108;
2024-05-19 16:04:28;2;104;105;104;104;104;104;104;104;104;104;
2024-05-19 16:04:28;3;120;120;120;120;120;120;120;120;120;120;
2024-05-19 16:04:28;ht;69;20.10
2024-05-19 16:04:28;v;4.21
2024-05-19 16:34:25;1;107;107;107;107;107;107;107;107;107;107;
2024-05-19 16:34:25;2;102;102;102;102;102;102;102;102;102;102;
2024-05-19 16:34:25;3;119;119;119;119;119;119;119;119;119;119;
2024-05-19 16:34:25;ht;76;18.00
2024-05-19 16:34:25;v;4.22
2024-05-19 17:04:26;1;172;171;171;172;172;172;172;172;172;172;
2024-05-19 17:04:26;2;102;102;102;102;102;102;102;102;102;102;
2024-05-19 17:04:26;3;114;114;114;114;114;114;114;114;114;114;
2024-05-19 17:04:26;ht;78;17.20
2024-05-19 17:04:26;v;4.22
2024-05-19 17:34:26;1;102;102;102;102;102;102;102;102;101;102;
2024-05-19 17:34:26;2;102;102;102;103;102;102;102;102;102;102;
2024-05-19 17:34:26;3;97;98;97;97;97;98;98;97;97;98;
2024-05-19 17:34:26;ht;88;15.60
2024-05-19 17:34:26;v;4.22
2024-05-19 18:04:24;1;115;115;115;115;115;115;115;115;115;115;
2024-05-19 18:04:24;2;105;105;105;105;104;105;105;105;105;105;
2024-05-19 18:04:24;3;118;119;119;119;118;118;118;118;119;119;
2024-05-19 18:04:24;ht;97;12.60
2024-05-19 18:04:24;v;4.22
2024-05-19 18:34:18;1;180;180;180;180;180;180;180;180;180;180;
2024-05-19 18:34:18;2;106;106;106;106;106;106;106;106;105;105;
2024-05-19 18:34:18;3;101;102;103;104;105;106;107;108;108;109;
2024-05-19 18:34:18;ht;97;10.40
2024-05-19 18:34:18;v;4.23
2024-05-19 19:04:19;1;120;120;120;120;120;120;120;120;120;120;
2024-05-19 19:04:19;2;102;102;102;102;102;102;102;102;102;102;
2024-05-19 19:04:19;3;113;114;113;114;114;114;114;113;113;113;
2024-05-19 19:04:19;ht;97;8.90
2024-05-19 19:04:19;v;4.22
2024-05-19 19:34:19;1;105;105;105;105;105;105;105;105;105;105;
2024-05-19 19:34:19;2;98;98;98;98;99;98;99;99;99;99;
2024-05-19 19:34:19;3;126;126;126;126;126;126;126;126;126;126;
2024-05-19 19:34:19;ht;97;8.80
2024-05-19 19:34:19;v;4.23
2024-05-19 20:04:15;1;117;117;117;117;117;117;117;118;118;118;
2024-05-19 20:04:15;2;102;102;102;102;102;102;102;102;102;102;
2024-05-19 20:04:15;3;100;99;99;100;99;99;99;99;100;100;
2024-05-19 20:04:15;ht;97;8.40
2024-05-19 20:04:15;v;4.22
2024-05-19 20:34:20;1;107;107;107;107;107;107;107;107;106;107;
2024-05-19 20:34:20;2;104;104;104;104;104;104;104;104;104;104;
2024-05-19 20:34:20;3;95;96;95;95;95;95;95;95;95;95;
2024-05-19 20:34:20;ht;97;7.50
2024-05-19 20:34:20;v;4.22
2024-05-19 21:04:15;1;106;106;106;106;106;106;106;106;106;106;
2024-05-19 21:04:15;2;105;105;105;105;105;106;106;106;106;106;
2024-05-19 21:04:15;3;3;3;3;3;3;3;3;3;3;3;
2024-05-19 21:04:15;ht;97;7.40
2024-05-19 21:04:15;v;4.22
2024-05-19 21:34:19;1;106;106;106;106;106;106;106;106;106;105;
2024-05-19 21:34:19;2;107;107;107;107;107;107;107;107;107;107;
2024-05-19 21:34:19;3;96;96;96;95;96;95;95;95;95;95;
2024-05-19 21:34:19;ht;97;7.00
2024-05-19 21:34:19;v;4.22
2024-05-19 22:04:18;1;106;106;106;106;106;105;105;106;105;105;
2024-05-19 22:04:18;2;104;104;105;105;104;104;104;104;104;104;
2024-05-19 22:04:18;3;101;102;102;101;101;101;101;102;101;101;
2024-05-19 22:04:18;ht;97;6.60
2024-05-19 22:04:18;v;4.22
2024-05-19 22:34:17;1;108;108;108;108;108;108;107;107;107;108;
2024-05-19 22:34:17;2;104;104;104;105;105;105;105;105;105;105;
2024-05-19 22:34:17;3;85;84;84;84;84;84;84;84;84;84;
2024-05-19 22:34:17;ht;97;6.20
2024-05-19 22:34:17;v;4.22
2024-05-19 23:04:16;1;110;110;110;110;110;110;110;110;110;110;
2024-05-19 23:04:16;2;107;106;106;107;106;107;106;106;106;106;
2024-05-19 23:04:16;3;93;93;93;93;93;93;93;93;93;93;
2024-05-19 23:04:16;ht;97;6.30
2024-05-19 23:04:16;v;4.22
2024-05-19 23:34:15;1;110;110;110;110;109;110;110;110;110;110;
2024-05-19 23:34:15;2;107;107;106;106;106;106;106;106;106;106;
2024-05-19 23:34:15;3;98;97;95;95;93;93;92;91;90;89;
2024-05-19 23:34:15;ht;97;6.50
2024-05-19 23:34:15;v;4.22
