2020-12-20 00:33:02;4.08;118.26;99;14.60
2020-12-20 01:37:34;4.07;118.91;99;15.20
2020-12-20 02:31:14;4.07;118.91;99;14.00
2020-12-20 03:40:05;4.06;119.23;99;12.80
2020-12-20 04:27:48;4.05;118.91;99;13.10
2020-12-20 04:32:56;4.05;117.14;99;13.20
2020-12-20 05:37:47;4.04;117.14;99;11.80
2020-12-20 06:30:56;4.03;118.26;99;13.90
2020-12-20 07:40:37;4.02;116.49;94;18.40
2020-12-20 08:27:08;4.01;116.17;82;20.60
2020-12-20 08:33:53;4.01;116.17;79;21.10
2020-12-20 09:36:31;4.00;116.17;68;22.90
2020-12-20 10:32:54;4.00;117.78;67;24.20
2020-12-20 11:37:59;4.00;116.17;60;25.10
2020-12-20 12:28:54;4.03;117.78;58;25.80
2020-12-20 12:30:42;4.04;117.46;59;25.60
2020-12-20 13:07:37;4.07;117.78;62;26.20
2020-12-20 13:33:56;4.08;116.49;59;26.40
2020-12-20 14:04:39;4.10;117.94;58;26.90
2020-12-20 14:34:31;4.10;117.46;59;26.90
2020-12-20 15:04:33;4.11;117.94;58;27.60
2020-12-20 15:34:35;4.11;117.78;58;27.50
2020-12-20 16:04:32;4.12;116.81;56;27.20
2020-12-20 16:34:34;4.12;117.78;56;28.20
2020-12-20 17:04:31;4.12;118.26;56;27.90
2020-12-20 17:34:33;4.12;117.14;53;27.40
2020-12-20 18:04:30;4.13;117.94;53;26.50
2020-12-20 18:34:31;4.13;116.81;54;26.90
2020-12-20 19:04:31;4.13;118.26;57;25.10
2020-12-20 19:34:29;4.13;117.94;66;23.50
2020-12-20 20:05:43;4.13;116.49;93;19.60
2020-12-20 21:03:28;4.11;116.81;99;16.50
2020-12-20 22:07:04;4.10;117.78;99;15.20
2020-12-20 23:02:01;4.09;117.78;99;13.90
