2020-12-03 00:04:19;4.12;119.88;99;17.20
2020-12-03 00:34:21;4.12;117.94;99;16.90
2020-12-03 01:04:19;4.12;120.20;99;16.30
2020-12-03 01:34:21;4.12;120.20;99;16.30
2020-12-03 02:04:23;4.11;120.20;99;15.70
2020-12-03 02:34:20;4.11;118.59;99;15.90
2020-12-03 03:04:21;4.11;120.20;99;15.60
2020-12-03 03:34:18;4.11;120.20;99;15.80
2020-12-03 04:04:19;4.11;118.59;99;15.60
2020-12-03 04:34:21;4.11;118.59;99;15.80
2020-12-03 05:04:22;4.11;118.26;99;16.40
2020-12-03 05:34:20;4.11;120.20;99;16.40
2020-12-03 06:04:22;4.11;117.94;99;16.70
2020-12-03 06:34:19;4.11;119.88;99;17.00
2020-12-03 07:04:22;4.11;117.94;99;18.10
2020-12-03 07:34:21;4.11;117.94;99;19.90
2020-12-03 08:04:22;4.11;119.88;99;22.40
2020-12-03 08:34:25;4.12;118.26;91;23.00
2020-12-03 09:04:25;4.12;119.55;86;24.70
2020-12-03 09:34:27;4.12;119.88;85;25.00
2020-12-03 10:04:29;4.12;117.94;77;26.80
2020-12-03 10:34:29;4.12;118.26;79;27.30
2020-12-03 11:04:34;4.12;119.88;73;27.20
2020-12-03 11:34:30;4.12;118.26;69;30.00
2020-12-03 12:04:32;4.13;118.59;72;28.20
2020-12-03 12:34:35;4.13;118.59;71;28.30
2020-12-03 13:04:35;4.13;119.88;69;28.90
2020-12-03 13:34:34;4.13;120.20;66;30.20
2020-12-03 14:04:35;4.13;119.88;60;30.70
2020-12-03 14:34:36;4.13;118.91;60;29.50
2020-12-03 15:04:37;4.13;118.91;51;31.70
2020-12-03 15:34:38;4.13;120.20;64;31.00
2020-12-03 16:04:35;4.13;120.52;61;30.00
2020-12-03 16:34:37;4.13;118.91;63;30.00
2020-12-03 17:04:38;4.13;120.52;63;30.50
2020-12-03 17:34:35;4.14;120.20;62;30.20
2020-12-03 18:04:35;4.14;118.91;62;29.00
2020-12-03 18:34:34;4.14;118.91;64;29.20
2020-12-03 19:04:32;4.14;120.20;71;27.40
2020-12-03 19:34:33;4.14;118.59;81;24.70
2020-12-03 20:04:30;4.14;118.91;95;22.20
2020-12-03 20:34:24;4.13;118.59;99;21.20
2020-12-03 21:04:26;4.13;120.20;99;20.20
2020-12-03 21:34:22;4.13;118.26;99;19.40
2020-12-03 22:04:22;4.13;117.94;99;19.40
2020-12-03 22:34:22;4.13;117.94;99;20.00
2020-12-03 23:04:23;4.13;118.91;85;20.60
2020-12-03 23:34:23;4.13;117.46;76;19.40
