2021-02-22 00:04:26;4.15;127.77;99;23.80
2021-02-22 00:34:25;4.15;126.48;99;23.50
2021-02-22 01:04:25;4.15;126.16;99;23.30
2021-02-22 01:34:24;4.15;127.77;99;23.30
2021-02-22 02:04:27;4.15;127.77;99;22.30
2021-02-22 02:34:26;4.14;128.09;99;22.80
2021-02-22 03:04:24;4.14;126.16;99;22.40
2021-02-22 03:34:27;4.14;126.48;99;22.40
2021-02-22 04:04:25;4.14;126.48;99;21.80
2021-02-22 04:34:23;4.14;127.77;99;21.00
2021-02-22 05:04:24;4.14;126.16;99;20.90
2021-02-22 05:34:21;4.14;127.77;99;20.00
2021-02-22 06:04:21;4.14;127.77;99;20.00
2021-02-22 06:34:22;4.14;127.77;99;19.70
2021-02-22 07:04:22;4.14;125.84;99;19.80
2021-02-22 07:34:23;4.14;127.45;99;23.60
2021-02-22 08:04:27;4.14;125.84;96;26.40
2021-02-22 08:34:29;4.14;127.45;94;27.00
2021-02-22 09:04:29;4.14;125.68;87;28.60
2021-02-22 09:34:30;4.14;125.68;84;29.20
2021-02-22 10:04:31;4.14;126.80;79;29.80
2021-02-22 10:34:34;4.14;127.13;75;32.00
2021-02-22 11:04:34;4.14;125.68;71;32.30
2021-02-22 11:34:35;4.15;127.45;68;33.70
2021-02-22 12:04:37;4.15;127.45;70;33.10
2021-02-22 12:34:35;4.15;127.77;68;33.90
2021-02-22 13:04:38;4.15;125.84;66;34.80
2021-02-22 13:34:38;4.15;127.45;63;35.60
2021-02-22 14:04:37;4.15;127.77;74;33.40
2021-02-22 14:34:36;4.15;127.77;66;34.50
2021-02-22 15:04:40;4.15;127.77;65;35.40
2021-02-22 15:34:37;4.15;126.16;60;37.00
2021-02-22 16:04:39;4.15;128.09;61;37.00
2021-02-22 16:34:41;4.16;126.16;70;34.50
2021-02-22 17:04:37;4.16;128.42;63;35.80
2021-02-22 17:34:37;4.16;126.48;69;35.00
2021-02-22 18:04:37;4.16;126.16;73;34.20
2021-02-22 18:34:35;4.16;126.48;74;34.10
2021-02-22 19:04:37;4.16;126.16;81;32.40
2021-02-22 19:34:32;4.16;127.45;84;31.20
2021-02-22 20:04:35;4.16;127.77;87;29.60
2021-02-22 20:34:31;4.16;125.68;92;28.60
2021-02-22 21:04:31;4.16;127.45;97;27.20
2021-02-22 21:34:29;4.16;125.35;99;26.90
2021-02-22 22:04:26;4.15;127.13;99;26.90
2021-02-22 22:34:29;4.15;125.68;99;26.40
2021-02-22 23:04:26;4.15;125.68;99;25.80
2021-02-22 23:34:27;4.15;127.13;99;24.90
