2021-03-01 00:04:23;4.15;124.39;99;21.80
2021-03-01 00:34:25;4.15;122.78;99;22.00
2021-03-01 01:04:27;4.15;124.06;99;21.20
2021-03-01 01:34:23;4.14;122.13;99;20.20
2021-03-01 02:04:24;4.14;124.06;99;21.20
2021-03-01 02:34:25;4.14;124.06;99;20.70
2021-03-01 03:04:21;4.14;123.74;99;19.90
2021-03-01 03:34:22;4.14;123.42;99;20.60
2021-03-01 04:04:23;4.14;121.65;99;21.70
2021-03-01 04:34:24;4.14;121.81;99;21.60
2021-03-01 05:04:26;4.14;123.42;99;20.90
2021-03-01 05:34:23;4.14;123.10;99;21.40
2021-03-01 06:04:24;4.14;121.81;99;21.40
2021-03-01 06:34:26;4.14;123.10;99;20.60
2021-03-01 07:04:22;4.14;123.10;99;19.80
2021-03-01 07:34:23;4.14;123.10;99;22.00
2021-03-01 08:04:26;4.14;123.10;99;25.10
2021-03-01 08:34:27;4.14;121.49;99;25.50
2021-03-01 09:04:29;4.14;123.10;99;25.70
2021-03-01 09:34:31;4.14;121.49;98;26.40
2021-03-01 10:04:30;4.14;123.42;92;28.00
2021-03-01 10:34:31;4.14;123.42;87;29.90
2021-03-01 11:04:33;4.14;121.65;87;30.50
2021-03-01 11:34:32;4.14;123.42;82;30.90
2021-03-01 12:04:37;4.14;122.13;82;31.60
2021-03-01 12:34:33;4.14;122.13;75;34.00
2021-03-01 13:04:35;4.15;123.74;81;32.20
2021-03-01 13:34:37;4.15;124.06;75;32.80
2021-03-01 14:04:35;4.15;122.13;71;32.90
2021-03-01 14:34:37;4.15;122.13;68;33.30
2021-03-01 15:04:35;4.15;124.39;70;33.20
2021-03-01 15:34:37;4.15;122.45;63;34.30
2021-03-01 16:04:35;4.15;124.39;61;33.50
2021-03-01 16:34:37;4.15;124.39;66;32.30
2021-03-01 17:04:38;4.15;122.78;57;32.90
2021-03-01 17:34:35;4.15;122.78;52;33.20
2021-03-01 18:04:36;4.15;122.45;56;32.40
2021-03-01 18:34:37;4.15;124.06;63;31.20
2021-03-01 19:04:35;4.15;122.13;72;28.90
2021-03-01 19:34:31;4.15;122.45;75;28.10
2021-03-01 20:04:29;4.15;124.39;84;26.30
2021-03-01 20:34:26;4.15;122.13;96;24.30
2021-03-01 21:04:26;4.15;121.81;99;23.10
2021-03-01 21:34:25;4.15;121.65;99;22.80
2021-03-01 22:04:27;4.15;123.74;99;21.70
2021-03-01 22:34:25;4.15;122.13;99;22.00
2021-03-01 23:04:27;4.15;121.65;99;22.80
2021-03-01 23:34:24;4.15;123.42;99;22.20
