2021-10-04 00:00:37;4.12;141.95;99;4.00
2021-10-04 00:05:38;4.12;141.95;99;4.30
2021-10-04 00:10:39;4.12;141.95;99;4.60
2021-10-04 00:15:40;4.12;143.56;99;5.10
2021-10-04 00:20:41;4.12;143.24;99;5.10
2021-10-04 00:25:38;4.12;143.88;99;5.10
2021-10-04 00:30:39;4.12;141.95;99;4.60
2021-10-04 00:35:40;4.12;142.27;99;4.10
2021-10-04 00:40:41;4.12;143.24;99;4.10
2021-10-04 00:45:42;4.12;143.24;99;4.20
2021-10-04 00:50:38;4.12;143.24;99;4.20
2021-10-04 00:55:39;4.12;141.95;99;3.90
2021-10-04 01:00:40;4.12;141.79;99;3.60
2021-10-04 01:05:41;4.12;141.95;99;3.60
2021-10-04 01:10:42;4.12;142.27;99;3.90
2021-10-04 01:15:38;4.12;143.56;99;4.00
2021-10-04 01:20:39;4.12;141.95;99;4.60
2021-10-04 01:25:40;4.12;143.56;99;4.90
2021-10-04 01:30:41;4.12;141.79;99;4.00
2021-10-04 01:35:42;4.12;142.27;99;2.90
2021-10-04 01:40:38;4.12;142.27;99;2.70
2021-10-04 01:45:39;4.11;143.56;99;2.90
2021-10-04 01:50:40;4.12;142.27;99;3.30
2021-10-04 01:55:41;4.12;143.56;99;4.50
2021-10-04 02:00:41;4.11;143.88;99;5.10
2021-10-04 02:05:38;4.11;143.56;99;5.70
2021-10-04 02:10:39;4.11;142.27;99;6.20
2021-10-04 02:15:40;4.11;143.88;99;4.20
2021-10-04 02:20:41;4.11;143.88;99;2.90
2021-10-04 02:25:42;4.11;142.59;99;2.70
2021-10-04 02:30:38;4.11;142.59;99;2.80
2021-10-04 02:35:39;4.11;142.59;99;2.80
2021-10-04 02:40:40;4.11;143.88;99;2.50
2021-10-04 02:45:40;4.11;144.21;99;2.50
2021-10-04 02:50:41;4.11;142.59;99;3.60
2021-10-04 02:55:37;4.11;142.59;99;2.70
2021-10-04 03:00:38;4.11;143.88;99;2.10
2021-10-04 03:05:39;4.11;143.88;99;2.40
2021-10-04 03:10:40;4.11;143.88;99;3.00
2021-10-04 03:15:41;4.11;143.88;99;2.90
2021-10-04 03:20:42;4.11;142.59;99;2.60
2021-10-04 03:25:38;4.11;142.59;99;3.50
2021-10-04 03:30:39;4.11;143.88;99;3.10
2021-10-04 03:35:39;4.11;142.59;99;2.10
2021-10-04 03:40:40;4.11;142.92;99;1.90
2021-10-04 03:45:41;4.11;143.88;99;2.00
2021-10-04 03:50:37;4.11;142.59;99;2.10
2021-10-04 03:55:38;4.11;142.59;99;1.90
2021-10-04 04:00:39;4.11;144.21;99;2.40
2021-10-04 04:05:39;4.11;143.88;99;2.80
2021-10-04 04:10:40;4.11;144.21;99;2.10
2021-10-04 04:15:41;4.11;143.88;99;1.60
2021-10-04 04:20:42;4.11;142.92;99;1.70
2021-10-04 04:25:38;4.11;142.92;99;1.90
2021-10-04 04:30:38;4.11;142.59;99;1.90
2021-10-04 04:35:39;4.11;142.92;99;1.80
2021-10-04 04:40:40;4.11;144.21;99;1.70
2021-10-04 04:45:41;4.11;142.59;99;2.00
2021-10-04 04:50:41;4.11;142.59;99;1.90
2021-10-04 04:55:37;4.11;142.59;99;2.00
2021-10-04 05:00:38;4.11;142.59;99;1.90
2021-10-04 05:05:39;4.11;143.88;99;1.90
2021-10-04 05:10:39;4.11;144.21;99;1.80
2021-10-04 05:15:40;4.11;143.88;99;1.80
2021-10-04 05:20:41;4.11;142.59;99;1.70
2021-10-04 05:25:42;4.11;143.88;99;1.70
2021-10-04 05:30:38;4.11;142.27;99;1.70
2021-10-04 05:35:38;4.11;142.27;99;1.50
2021-10-04 05:40:39;4.11;143.56;99;1.50
2021-10-04 05:45:40;4.11;143.88;99;2.00
2021-10-04 05:50:40;4.11;143.56;99;2.00
2021-10-04 05:55:41;4.11;142.27;99;1.90
2021-10-04 06:00:37;4.11;142.27;99;2.00
2021-10-04 06:05:38;4.11;142.27;99;2.10
2021-10-04 06:10:38;4.11;143.88;99;1.80
2021-10-04 06:15:39;4.11;143.88;99;1.90
2021-10-04 06:20:40;4.11;143.56;99;1.90
2021-10-04 06:25:40;4.11;143.56;99;1.90
2021-10-04 06:30:41;4.11;143.56;99;1.80
2021-10-04 06:35:37;4.11;141.95;99;1.30
2021-10-04 06:40:38;4.11;142.27;99;1.10
2021-10-04 06:45:39;4.11;142.27;99;1.60
2021-10-04 06:50:39;4.11;142.27;99;2.30
2021-10-04 06:55:40;4.11;141.95;99;3.20
2021-10-04 07:00:41;4.11;141.95;99;3.70
2021-10-04 07:05:41;4.11;141.95;99;4.30
2021-10-04 07:10:38;4.11;141.95;99;5.00
2021-10-04 07:15:39;4.11;143.24;99;4.90
2021-10-04 07:20:40;4.11;141.79;99;5.10
2021-10-04 07:25:41;4.11;142.27;99;5.60
2021-10-04 07:30:42;4.11;141.95;99;6.40
2021-10-04 07:35:39;4.11;141.95;99;6.60
2021-10-04 07:40:40;4.11;143.24;99;6.70
2021-10-04 07:45:41;4.11;141.47;99;6.90
2021-10-04 07:50:38;4.11;142.92;99;7.30
2021-10-04 07:55:40;4.11;141.79;99;8.10
2021-10-04 08:00:41;4.11;141.95;99;8.90
2021-10-04 08:05:38;4.11;142.92;97;10.50
2021-10-04 08:10:40;4.11;141.79;93;10.90
2021-10-04 08:15:42;4.11;141.79;98;10.00
2021-10-04 08:20:39;4.11;142.92;91;11.70
2021-10-04 08:25:41;4.11;142.92;91;11.80
2021-10-04 08:30:39;4.11;142.59;87;12.90
2021-10-04 08:35:41;4.11;141.79;87;13.10
2021-10-04 08:40:43;4.11;141.79;87;13.50
2021-10-04 08:45:40;4.11;142.92;84;14.00
2021-10-04 08:50:43;4.11;142.92;83;14.80
2021-10-04 08:55:40;4.11;143.24;78;15.10
2021-10-04 09:00:43;4.11;143.24;77;16.60
2021-10-04 09:05:41;4.11;142.92;74;17.20
2021-10-04 09:10:43;4.11;141.79;76;16.70
2021-10-04 09:15:42;4.12;142.59;72;17.90
2021-10-04 09:20:40;4.12;142.92;77;16.20
2021-10-04 09:25:43;4.12;142.92;73;17.00
2021-10-04 09:30:41;4.12;141.47;71;18.10
2021-10-04 09:35:39;4.12;142.92;68;18.30
2021-10-04 09:40:42;4.12;141.47;65;19.70
2021-10-04 09:45:41;4.12;142.92;64;20.40
2021-10-04 09:50:44;4.12;142.92;61;20.70
2021-10-04 09:55:43;4.12;141.95;64;19.80
2021-10-04 10:00:41;4.12;142.92;63;19.00
2021-10-04 10:05:40;4.12;141.79;63;19.90
2021-10-04 10:10:43;4.12;142.92;62;20.00
2021-10-04 10:15:42;4.12;141.14;63;19.70
2021-10-04 10:20:41;4.12;141.79;61;20.50
2021-10-04 10:25:44;4.12;142.92;60;20.30
2021-10-04 10:30:43;4.12;141.79;61;19.70
2021-10-04 10:35:42;4.12;142.92;60;20.90
2021-10-04 10:40:40;4.12;142.92;60;20.80
2021-10-04 10:45:44;4.12;142.92;57;21.90
2021-10-04 10:50:42;4.12;142.92;59;21.10
2021-10-04 10:55:41;4.12;141.14;57;21.60
2021-10-04 11:00:40;4.12;141.79;55;22.70
2021-10-04 11:05:44;4.12;142.92;55;21.80
2021-10-04 11:10:43;4.12;141.79;55;21.70
2021-10-04 11:15:42;4.12;141.47;55;21.10
2021-10-04 11:20:41;4.12;142.92;54;22.20
2021-10-04 11:25:44;4.12;141.95;53;21.80
2021-10-04 11:30:43;4.12;142.92;53;22.90
2021-10-04 11:35:42;4.12;142.92;53;21.80
2021-10-04 11:40:41;4.12;141.47;52;21.80
2021-10-04 11:45:40;4.12;141.95;53;22.70
2021-10-04 11:50:44;4.12;143.24;52;23.50
2021-10-04 11:55:43;4.12;141.79;49;24.50
2021-10-04 12:00:42;4.12;141.47;49;23.90
2021-10-04 12:05:41;4.12;143.24;52;22.40
2021-10-04 12:10:41;4.12;142.92;51;22.40
2021-10-04 12:15:45;4.12;143.24;51;23.50
2021-10-04 12:20:44;4.12;141.79;49;22.80
2021-10-04 12:25:43;4.12;143.24;50;22.40
2021-10-04 12:30:43;4.12;142.27;49;23.40
2021-10-04 12:35:42;4.12;143.56;49;23.00
2021-10-04 12:40:41;4.12;143.56;46;25.00
2021-10-04 12:45:41;4.12;142.27;47;24.00
2021-10-04 12:50:45;4.12;142.27;49;22.40
2021-10-04 12:55:40;4.12;143.56;47;23.30
2021-10-04 13:00:44;4.12;141.95;48;23.70
2021-10-04 13:05:43;4.13;143.56;49;23.00
2021-10-04 13:10:43;4.13;143.88;48;24.40
2021-10-04 13:15:42;4.13;143.56;45;25.80
2021-10-04 13:20:42;4.13;143.88;45;24.60
2021-10-04 13:25:41;4.13;144.21;44;25.10
2021-10-04 13:30:41;4.13;142.59;45;25.00
2021-10-04 13:35:45;4.13;143.24;44;24.00
2021-10-04 13:40:44;4.13;143.24;44;24.40
2021-10-04 13:45:44;4.13;144.85;44;24.20
2021-10-04 13:50:43;4.13;143.56;45;23.50
2021-10-04 13:55:42;4.13;143.88;44;24.10
2021-10-04 14:00:42;4.13;143.24;45;24.40
2021-10-04 14:05:41;4.13;143.88;44;24.70
2021-10-04 14:10:41;4.13;143.56;44;25.40
2021-10-04 14:15:45;4.13;145.49;43;26.00
2021-10-04 14:20:44;4.13;145.17;43;25.50
2021-10-04 14:25:44;4.13;145.49;43;25.20
2021-10-04 14:30:43;4.13;145.49;44;25.70
2021-10-04 14:35:43;4.13;145.49;44;24.90
2021-10-04 14:40:42;4.13;145.17;44;24.30
2021-10-04 14:45:41;4.13;143.56;43;25.20
2021-10-04 14:50:41;4.13;143.56;43;26.00
2021-10-04 14:55:45;4.13;143.56;46;23.60
2021-10-04 15:00:40;4.13;143.88;46;24.10
2021-10-04 15:05:44;4.13;143.56;46;24.70
2021-10-04 15:10:43;4.13;144.21;45;25.00
2021-10-04 15:15:43;4.13;145.17;45;24.40
2021-10-04 15:20:42;4.13;145.49;46;23.60
2021-10-04 15:25:42;4.13;143.56;45;24.30
2021-10-04 15:30:41;4.13;145.17;46;23.80
2021-10-04 15:35:40;4.13;143.88;44;25.10
2021-10-04 15:40:45;4.13;144.21;43;26.70
2021-10-04 15:45:44;4.13;145.49;43;26.50
2021-10-04 15:50:44;4.13;144.21;45;25.10
2021-10-04 15:55:43;4.13;143.88;44;25.40
2021-10-04 16:00:43;4.13;144.21;44;25.90
2021-10-04 16:05:42;4.13;145.17;45;25.70
2021-10-04 16:10:42;4.13;145.17;45;25.00
2021-10-04 16:15:41;4.13;145.17;44;25.90
2021-10-04 16:20:41;4.13;143.88;45;25.10
2021-10-04 16:25:45;4.13;145.17;44;25.60
2021-10-04 16:30:40;4.13;143.88;45;24.30
2021-10-04 16:35:44;4.13;145.17;44;25.40
2021-10-04 16:40:44;4.13;144.21;43;26.40
2021-10-04 16:45:43;4.13;144.53;45;25.60
2021-10-04 16:50:43;4.13;143.88;45;25.20
2021-10-04 16:55:43;4.13;145.49;46;24.70
2021-10-04 17:00:42;4.13;145.82;46;24.70
2021-10-04 17:05:42;4.13;145.49;46;24.10
2021-10-04 17:10:41;4.13;145.49;45;24.70
2021-10-04 17:15:41;4.13;145.82;46;24.50
2021-10-04 17:20:45;4.13;144.53;45;24.90
2021-10-04 17:25:40;4.13;145.49;45;25.60
2021-10-04 17:30:44;4.13;144.53;44;25.90
2021-10-04 17:35:44;4.13;145.49;44;26.00
2021-10-04 17:40:43;4.13;144.21;46;25.90
2021-10-04 17:45:43;4.13;144.21;45;24.60
2021-10-04 17:50:42;4.13;145.82;44;25.00
2021-10-04 17:55:42;4.13;145.82;45;25.00
2021-10-04 18:00:41;4.13;144.53;45;25.10
2021-10-04 18:05:41;4.13;144.85;45;24.90
2021-10-04 18:10:40;4.13;144.53;47;24.60
2021-10-04 18:15:44;4.13;144.85;46;24.70
2021-10-04 18:20:44;4.13;144.53;46;24.90
2021-10-04 18:25:43;4.13;144.53;47;24.40
2021-10-04 18:30:42;4.13;144.85;48;23.90
2021-10-04 18:35:42;4.13;145.98;50;23.00
2021-10-04 18:40:41;4.13;145.82;51;22.90
2021-10-04 18:45:45;4.13;144.85;52;22.30
2021-10-04 18:50:44;4.13;145.82;53;21.70
2021-10-04 18:55:43;4.13;144.53;55;20.80
2021-10-04 19:00:41;4.13;144.21;57;19.80
2021-10-04 19:05:40;4.13;144.21;58;19.70
2021-10-04 19:10:43;4.13;145.49;59;19.20
2021-10-04 19:15:42;4.13;145.82;60;18.50
2021-10-04 19:20:40;4.13;144.21;61;18.20
2021-10-04 19:25:43;4.13;145.82;63;17.60
2021-10-04 19:30:42;4.13;144.21;66;16.90
2021-10-04 19:35:40;4.13;145.49;67;16.60
2021-10-04 19:40:43;4.13;144.21;67;16.10
2021-10-04 19:45:41;4.13;145.49;67;15.70
2021-10-04 19:50:43;4.13;145.49;68;15.50
2021-10-04 19:55:41;4.13;145.49;68;15.40
2021-10-04 20:00:39;4.13;145.49;69;15.30
2021-10-04 20:05:41;4.13;145.17;69;15.40
2021-10-04 20:10:39;4.13;145.49;69;15.30
2021-10-04 20:15:41;4.13;143.56;70;15.10
2021-10-04 20:20:39;4.13;145.17;70;15.10
2021-10-04 20:25:41;4.13;144.85;71;14.60
2021-10-04 20:30:39;4.13;145.17;72;14.30
2021-10-04 20:35:41;4.13;144.85;72;14.20
2021-10-04 20:40:39;4.13;144.53;72;14.10
2021-10-04 20:45:41;4.13;144.85;73;13.60
2021-10-04 20:50:38;4.13;143.88;72;14.60
2021-10-04 20:55:41;4.13;143.24;73;14.40
2021-10-04 21:00:43;4.13;143.24;74;13.90
2021-10-04 21:05:40;4.13;143.24;75;13.30
2021-10-04 21:10:42;4.13;143.24;76;12.70
2021-10-04 21:15:40;4.13;144.53;78;12.40
2021-10-04 21:20:42;4.13;143.24;78;12.60
2021-10-04 21:25:39;4.13;144.53;78;12.80
2021-10-04 21:30:41;4.13;144.21;78;12.70
2021-10-04 21:35:39;4.13;142.92;79;12.40
2021-10-04 21:40:41;4.13;142.92;80;12.40
2021-10-04 21:45:42;4.13;142.92;79;12.70
2021-10-04 21:50:40;4.13;144.21;80;12.40
2021-10-04 21:55:42;4.13;142.59;80;12.40
2021-10-04 22:00:39;4.13;143.88;81;12.20
2021-10-04 22:05:41;4.13;142.92;81;12.10
2021-10-04 22:10:43;4.13;143.88;82;11.90
2021-10-04 22:15:40;4.13;143.88;82;11.80
2021-10-04 22:20:42;4.13;143.88;83;11.40
2021-10-04 22:25:39;4.13;143.88;84;11.10
2021-10-04 22:30:41;4.13;142.27;85;10.90
2021-10-04 22:35:43;4.13;143.88;85;11.00
2021-10-04 22:40:40;4.13;142.59;86;10.60
2021-10-04 22:45:42;4.13;142.27;87;10.60
2021-10-04 22:50:39;4.13;141.95;87;10.30
2021-10-04 22:55:40;4.13;143.56;89;10.30
2021-10-04 23:00:42;4.13;143.56;89;10.30
2021-10-04 23:05:39;4.13;142.27;89;10.30
2021-10-04 23:10:41;4.13;142.27;89;10.10
2021-10-04 23:15:42;4.13;142.27;90;9.90
2021-10-04 23:20:39;4.13;141.95;90;10.30
2021-10-04 23:25:41;4.13;141.95;88;11.00
2021-10-04 23:30:38;4.13;143.24;89;10.70
2021-10-04 23:35:40;4.13;141.79;91;10.10
2021-10-04 23:40:41;4.13;143.24;91;10.10
2021-10-04 23:45:38;4.12;142.27;90;10.40
2021-10-04 23:50:40;4.12;142.27;90;10.30
2021-10-04 23:55:42;4.12;142.27;91;10.20
