2021-02-13 00:04:21;4.14;129.38;99;20.10
2021-02-13 00:34:21;4.14;129.38;99;19.30
2021-02-13 01:04:21;4.14;129.06;99;19.20
2021-02-13 01:34:21;4.14;127.45;99;18.40
2021-02-13 02:04:25;4.14;129.38;99;18.50
2021-02-13 02:34:24;4.14;127.77;99;17.80
2021-02-13 03:04:22;4.14;127.77;99;17.60
2021-02-13 03:34:21;4.14;128.09;99;17.50
2021-02-13 04:04:24;4.14;129.87;99;17.30
2021-02-13 04:34:22;4.13;129.87;99;17.30
2021-02-13 05:04:20;4.13;128.42;99;16.90
2021-02-13 05:34:22;4.13;128.42;99;16.90
2021-02-13 06:04:20;4.13;129.87;99;16.50
2021-02-13 06:34:23;4.13;128.09;99;16.40
2021-02-13 07:04:20;4.13;129.70;99;17.20
2021-02-13 07:34:23;4.13;127.77;99;19.50
2021-02-13 08:04:24;4.13;129.38;99;21.30
2021-02-13 08:34:27;4.13;129.70;99;23.20
2021-02-13 09:04:29;4.13;129.38;99;25.30
2021-02-13 09:34:33;4.14;129.70;92;27.20
2021-02-13 10:04:33;4.14;127.45;91;27.70
2021-02-13 10:34:31;4.14;129.38;84;29.30
2021-02-13 11:04:34;4.14;129.38;77;30.40
2021-02-13 11:34:33;4.14;129.38;68;32.40
2021-02-13 12:04:38;4.14;129.70;71;32.60
2021-02-13 12:34:34;4.14;127.77;73;30.20
2021-02-13 13:04:34;4.14;128.09;70;33.30
2021-02-13 13:34:36;4.14;128.42;71;31.30
2021-02-13 14:04:36;4.14;128.42;68;31.80
2021-02-13 14:34:37;4.14;128.74;78;29.80
2021-02-13 15:04:36;4.14;128.74;72;32.50
2021-02-13 15:34:36;4.15;130.19;80;30.40
2021-02-13 16:04:34;4.15;129.06;82;28.50
2021-02-13 16:34:31;4.15;129.38;70;31.50
2021-02-13 17:04:35;4.15;129.38;72;31.50
2021-02-13 17:34:37;4.15;129.70;69;33.00
2021-02-13 18:04:34;4.15;129.70;71;31.20
2021-02-13 18:34:35;4.15;131.15;69;30.80
2021-02-13 19:04:33;4.15;129.70;75;30.40
2021-02-13 19:34:31;4.15;129.38;88;25.90
2021-02-13 20:04:30;4.15;130.19;97;23.80
2021-02-13 20:34:26;4.15;129.06;99;22.50
2021-02-13 21:04:24;4.15;128.74;99;22.20
2021-02-13 21:34:27;4.15;128.74;99;21.20
2021-02-13 22:04:24;4.15;130.19;99;20.50
2021-02-13 22:34:25;4.14;130.19;99;20.30
2021-02-13 23:04:25;4.14;129.87;99;20.20
2021-02-13 23:34:21;4.14;128.42;99;19.30
