2021-02-26 00:04:20;4.15;123.10;99;17.80
2021-02-26 00:34:19;4.15;123.10;99;17.20
2021-02-26 01:04:21;4.15;123.10;99;17.90
2021-02-26 01:34:19;4.14;123.10;99;17.20
2021-02-26 02:04:22;4.14;123.42;99;16.10
2021-02-26 02:34:18;4.14;125.03;99;15.00
2021-02-26 03:04:20;4.14;124.06;99;14.40
2021-02-26 03:34:20;4.14;125.68;99;14.70
2021-02-26 04:04:21;4.14;125.35;99;14.20
2021-02-26 04:34:21;4.14;124.06;99;14.30
2021-02-26 05:04:21;4.14;124.06;99;14.80
2021-02-26 05:34:21;4.14;123.74;99;13.50
2021-02-26 06:04:17;4.14;124.71;99;13.50
2021-02-26 06:34:16;4.14;123.10;99;13.20
2021-02-26 07:04:21;4.14;124.71;99;14.50
2021-02-26 07:34:21;4.14;122.78;99;18.00
2021-02-26 08:04:20;4.14;124.06;99;20.00
2021-02-26 08:34:27;4.14;124.06;99;22.30
2021-02-26 09:04:26;4.14;122.13;93;24.40
2021-02-26 09:34:28;4.14;121.81;81;27.30
2021-02-26 10:04:31;4.14;123.74;74;28.80
2021-02-26 10:34:32;4.14;124.71;74;29.50
2021-02-26 11:04:34;4.14;124.39;71;29.80
#2021-02-26 11:28:41;4.14;124.71;68;30.80
2021-02-26 11:30:16;4.14;122.78;68;30.50
2021-02-26 12:05:22;4.14;124.71;66;29.90
2021-02-26 12:34:23;4.14;125.03;55;31.50
2021-02-26 13:04:36;4.14;123.10;61;31.80
2021-02-26 13:34:36;4.14;125.35;61;31.10
2021-02-26 14:04:36;4.15;125.68;59;31.80
2021-02-26 14:34:36;4.15;123.74;56;32.10
2021-02-26 15:04:36;4.15;125.68;56;32.40
2021-02-26 15:34:37;4.15;125.84;54;33.10
2021-02-26 16:04:38;4.15;124.06;58;32.80
2021-02-26 16:34:34;4.15;124.06;56;32.60
2021-02-26 17:04:35;4.15;124.06;57;32.60
2021-02-26 17:34:36;4.15;125.68;54;31.70
2021-02-26 18:04:36;4.15;125.84;57;31.50
2021-02-26 18:34:35;4.15;125.68;62;30.60
2021-02-26 19:04:34;4.15;123.74;67;28.90
2021-02-26 19:34:30;4.15;123.74;77;26.50
2021-02-26 20:04:28;4.15;123.74;86;23.70
2021-02-26 20:34:28;4.15;124.71;91;22.80
2021-02-26 21:04:26;4.15;122.45;99;20.80
2021-02-26 21:34:22;4.15;122.45;98;21.30
2021-02-26 22:04:23;4.15;122.45;99;18.80
2021-02-26 22:34:22;4.15;122.13;99;19.00
2021-02-26 23:04:21;4.15;122.13;99;17.80
2021-02-26 23:34:24;4.14;123.74;99;18.60