2021-09-25 00:00:39;4.12;146.94;99;11.50
2021-09-25 00:05:41;4.12;146.62;99;11.10
2021-09-25 00:10:39;4.12;145.82;99;11.60
2021-09-25 00:15:41;4.12;145.82;99;11.30
2021-09-25 00:20:39;4.12;146.62;99;12.00
2021-09-25 00:25:41;4.12;145.82;99;12.10
2021-09-25 00:30:38;4.12;145.17;99;11.20
2021-09-25 00:35:41;4.12;145.49;99;11.30
2021-09-25 00:40:38;4.12;145.82;99;12.20
2021-09-25 00:45:40;4.12;145.82;99;12.50
2021-09-25 00:50:38;4.12;145.17;99;12.40
2021-09-25 00:55:40;4.12;146.62;99;12.30
2021-09-25 01:00:38;4.12;146.30;99;12.00
2021-09-25 01:05:40;4.12;146.30;99;12.10
2021-09-25 01:10:42;4.12;146.30;99;11.70
2021-09-25 01:15:40;4.12;145.49;99;12.10
2021-09-25 01:20:42;4.12;146.30;99;11.60
2021-09-25 01:25:39;4.12;145.49;99;11.10
2021-09-25 01:30:42;4.12;145.17;93;10.90
2021-09-25 01:35:39;4.12;145.17;99;11.20
2021-09-25 01:40:41;4.12;145.17;99;11.50
2021-09-25 01:45:39;4.12;145.49;99;11.40
2021-09-25 01:50:41;4.12;144.85;95;10.40
2021-09-25 01:55:38;4.12;145.98;92;9.90
2021-09-25 02:00:41;4.12;146.30;77;9.40
2021-09-25 02:05:38;4.12;146.30;71;9.30
2021-09-25 02:10:40;4.12;146.30;59;9.20
2021-09-25 02:15:37;4.12;145.49;59;9.20
2021-09-25 02:20:39;4.12;146.30;59;9.50
2021-09-25 02:25:41;4.12;145.82;63;9.40
2021-09-25 02:30:39;4.12;145.98;57;9.50
2021-09-25 02:35:41;4.11;145.49;62;9.20
2021-09-25 02:40:38;4.12;146.62;62;8.80
2021-09-25 02:45:40;4.11;146.62;48;9.20
2021-09-25 02:50:42;4.11;146.62;46;9.20
2021-09-25 02:55:39;4.11;145.82;59;9.00
2021-09-25 03:00:41;4.11;146.62;50;9.00
2021-09-25 03:05:38;4.11;145.82;36;9.00
2021-09-25 03:10:40;4.11;146.62;46;9.80
2021-09-25 03:15:37;4.11;145.82;64;10.00
2021-09-25 03:20:39;4.11;145.82;67;9.60
2021-09-25 03:25:41;4.11;146.62;73;8.90
2021-09-25 03:30:38;4.11;146.62;64;8.80
2021-09-25 03:35:40;4.11;145.49;40;9.10
2021-09-25 03:40:38;4.11;146.62;41;9.80
2021-09-25 03:45:39;4.11;146.62;49;9.60
2021-09-25 03:50:41;4.11;145.82;47;9.20
2021-09-25 03:55:39;4.11;145.49;21;9.20
2021-09-25 04:00:40;4.11;145.82;41;9.20
2021-09-25 04:05:38;4.11;145.82;44;9.50
2021-09-25 04:10:40;4.11;145.49;26;9.60
2021-09-25 04:15:41;4.11;146.94;34;9.20
2021-09-25 04:20:39;4.11;145.98;18;9.50
2021-09-25 04:25:41;4.11;147.27;38;9.50
2021-09-25 04:30:38;4.11;147.59;19;9.30
2021-09-25 04:35:40;4.11;147.59;25;9.00
2021-09-25 04:40:42;4.11;145.98;14;8.90
2021-09-25 04:45:39;4.11;146.62;14;8.70
2021-09-25 04:50:41;4.11;148.23;9;7.90
2021-09-25 04:55:38;4.11;147.91;2;9.10
2021-09-25 05:00:40;4.11;146.94;2;9.40
2021-09-25 05:05:37;4.11;148.23;8;8.50
2021-09-25 05:10:39;4.11;148.23;2;8.80
2021-09-25 05:15:41;4.11;146.62;2;8.70
2021-09-25 05:20:38;4.11;146.62;2;8.60
2021-09-25 05:25:40;4.11;147.91;2;9.10
2021-09-25 05:30:37;4.11;147.91;2;9.00
2021-09-25 05:35:39;4.11;147.91;2;9.00
2021-09-25 05:40:41;4.11;146.62;2;9.00
2021-09-25 05:45:38;4.11;146.62;2;9.00
2021-09-25 05:50:40;4.11;147.91;2;9.30
2021-09-25 05:55:42;4.11;147.91;2;9.10
2021-09-25 06:00:39;4.11;146.94;2;9.20
2021-09-25 06:05:41;4.11;146.62;2;9.50
2021-09-25 06:10:38;4.11;147.59;2;9.20
2021-09-25 06:15:40;4.11;147.59;2;9.40
2021-09-25 06:20:37;4.11;146.30;1;9.10
2021-09-25 06:25:39;4.11;146.62;2;9.20
2021-09-25 06:30:41;4.11;146.62;3;9.30
2021-09-25 06:35:38;4.11;147.59;2;9.20
2021-09-25 06:40:40;4.11;147.59;2;9.50
2021-09-25 06:45:37;4.11;147.91;1;9.30
2021-09-25 06:50:39;4.11;147.59;2;9.40
2021-09-25 06:55:41;4.11;146.62;5;9.60
2021-09-25 07:00:38;4.11;147.27;15;9.60
2021-09-25 07:05:40;4.11;145.98;34;9.90
2021-09-25 07:10:38;4.11;146.30;47;10.10
2021-09-25 07:15:40;4.11;147.27;57;10.30
2021-09-25 07:20:42;4.11;146.30;68;10.50
2021-09-25 07:25:39;4.11;147.27;69;10.60
2021-09-25 07:30:41;4.11;147.27;79;10.90
2021-09-25 07:35:39;4.11;147.27;82;11.40
2021-09-25 07:40:41;4.11;147.27;79;11.20
2021-09-25 07:45:38;4.11;147.27;82;11.70
2021-09-25 07:50:41;4.11;147.59;90;12.00
2021-09-25 07:55:38;4.11;147.27;93;12.40
2021-09-25 08:00:41;4.11;146.30;93;12.60
2021-09-25 08:05:38;4.11;147.27;99;13.00
2021-09-25 08:10:41;4.11;147.27;99;13.30
2021-09-25 08:15:39;4.11;147.27;99;13.90
2021-09-25 08:20:41;4.11;145.98;99;14.40
2021-09-25 08:25:39;4.11;145.82;99;14.90
2021-09-25 08:30:42;4.11;147.27;99;15.20
2021-09-25 08:35:40;4.11;147.27;99;15.40
2021-09-25 08:40:43;4.11;145.98;99;15.90
2021-09-25 08:45:41;4.11;147.27;99;16.00
2021-09-25 08:50:39;4.11;147.27;99;16.60
2021-09-25 08:55:42;4.11;147.27;99;17.30
2021-09-25 09:00:40;4.12;147.27;99;17.20
2021-09-25 09:05:39;4.11;145.98;99;18.30
2021-09-25 09:10:42;4.12;145.98;99;17.80
2021-09-25 09:15:41;4.12;147.27;99;17.80
2021-09-25 09:20:39;4.12;147.27;99;17.90
2021-09-25 09:25:43;4.12;147.27;99;18.80
2021-09-25 09:30:41;4.12;147.59;92;20.10
2021-09-25 09:35:40;4.12;147.27;91;20.20
2021-09-25 09:40:43;4.12;146.30;89;20.80
2021-09-25 09:45:42;4.12;146.30;89;20.60
2021-09-25 09:50:41;4.12;147.59;87;21.30
2021-09-25 09:55:40;4.12;146.30;87;21.50
2021-09-25 10:00:44;4.12;147.59;86;21.40
2021-09-25 10:05:43;4.12;146.62;85;21.90
2021-09-25 10:10:42;4.12;147.59;84;21.90
2021-09-25 10:15:41;4.12;147.59;84;21.60
2021-09-25 10:20:40;4.12;147.59;86;21.70
2021-09-25 10:25:39;4.12;147.91;84;21.90
2021-09-25 10:30:43;4.12;146.30;83;21.70
2021-09-25 10:35:42;4.12;147.91;84;22.00
2021-09-25 10:40:42;4.12;146.30;83;22.30
2021-09-25 10:45:41;4.12;146.62;81;23.20
2021-09-25 10:50:40;4.12;146.62;81;22.80
2021-09-25 10:55:44;4.12;146.94;78;24.00
2021-09-25 11:00:43;4.12;147.91;77;24.20
2021-09-25 11:05:42;4.12;147.91;78;24.00
2021-09-25 11:10:42;4.12;146.62;76;24.30
2021-09-25 11:15:41;4.12;146.94;80;22.90
2021-09-25 11:20:41;4.12;148.23;78;23.70
2021-09-25 11:25:40;4.12;148.23;76;24.30
2021-09-25 11:30:39;4.12;146.94;74;24.20
2021-09-25 11:35:44;4.12;148.56;75;24.30
2021-09-25 11:40:43;4.12;146.94;76;23.50
2021-09-25 11:45:42;4.12;148.23;73;24.70
2021-09-25 11:50:42;4.12;148.23;72;24.90
2021-09-25 11:55:42;4.12;148.56;73;24.10
2021-09-25 12:00:41;4.12;147.27;75;23.90
2021-09-25 12:05:41;4.12;146.94;72;24.80
2021-09-25 12:10:40;4.12;146.94;72;24.60
2021-09-25 12:15:40;4.12;148.56;69;25.60
2021-09-25 12:20:40;4.12;146.94;69;25.20
2021-09-25 12:25:40;4.12;147.27;68;26.70
2021-09-25 12:30:44;4.12;147.27;68;25.90
2021-09-25 12:35:39;4.12;147.27;68;25.30
2021-09-25 12:40:44;4.12;147.27;68;26.00
2021-09-25 12:45:39;4.13;147.59;66;26.20
2021-09-25 12:50:44;4.13;147.27;66;25.20
2021-09-25 12:55:44;4.13;148.88;68;26.00
2021-09-25 13:00:44;4.13;147.27;66;26.10
2021-09-25 13:05:44;4.13;148.88;66;26.70
2021-09-25 13:10:43;4.13;147.27;67;25.90
2021-09-25 13:15:43;4.13;147.59;67;26.90
2021-09-25 13:20:43;4.13;147.59;63;27.80
2021-09-25 13:25:43;4.13;148.88;66;26.40
2021-09-25 13:30:43;4.13;147.59;66;26.10
2021-09-25 13:35:43;4.13;148.88;65;26.50
2021-09-25 13:40:43;4.13;149.20;62;28.10
2021-09-25 13:45:43;4.13;147.27;64;26.90
2021-09-25 13:50:43;4.13;147.59;62;27.70
2021-09-25 13:55:43;4.13;147.91;64;26.30
2021-09-25 14:00:43;4.13;149.84;60;27.20
2021-09-25 14:05:43;4.13;148.23;63;27.10
2021-09-25 14:10:43;4.13;148.23;61;28.10
2021-09-25 14:15:43;4.13;148.88;58;28.00
2021-09-25 14:20:43;4.13;150.33;56;28.60
2021-09-25 14:25:43;4.13;150.33;57;28.00
2021-09-25 14:30:43;4.13;149.20;58;28.80
2021-09-25 14:35:44;4.13;149.52;57;27.90
2021-09-25 14:40:44;4.13;149.20;54;29.20
2021-09-25 14:45:44;4.13;149.20;57;27.80
2021-09-25 14:50:44;4.13;150.65;59;27.40
2021-09-25 14:55:39;4.13;150.33;56;28.70
2021-09-25 15:00:44;4.13;150.65;57;27.60
2021-09-25 15:05:40;4.13;148.88;54;29.00
2021-09-25 15:10:45;4.13;149.20;57;28.50
2021-09-25 15:15:40;4.13;149.20;54;29.00
2021-09-25 15:20:40;4.13;150.65;58;28.10
2021-09-25 15:25:41;4.13;150.65;57;28.80
2021-09-25 15:30:41;4.13;150.65;57;27.40
2021-09-25 15:35:41;4.13;150.65;58;28.10
2021-09-25 15:40:41;4.13;150.65;58;27.90
2021-09-25 15:45:41;4.13;150.97;57;28.30
2021-09-25 15:50:42;4.13;149.20;58;27.70
2021-09-25 15:55:42;4.13;149.20;58;28.10
2021-09-25 16:00:42;4.13;150.65;59;28.10
2021-09-25 16:05:42;4.13;149.20;57;28.60
2021-09-25 16:10:42;4.13;149.52;57;28.30
2021-09-25 16:15:43;4.13;149.20;59;27.00
2021-09-25 16:20:43;4.13;150.65;57;28.00
2021-09-25 16:25:43;4.13;150.65;57;28.30
2021-09-25 16:30:43;4.13;149.20;60;27.00
2021-09-25 16:35:43;4.13;149.84;56;28.50
2021-09-25 16:40:43;4.13;149.20;58;28.00
2021-09-25 16:45:44;4.13;150.97;56;28.20
2021-09-25 16:50:44;4.13;149.52;57;27.60
2021-09-25 16:55:44;4.13;149.20;57;27.50
2021-09-25 17:00:44;4.13;149.20;58;27.60
2021-09-25 17:05:39;4.13;150.97;59;27.80
2021-09-25 17:10:44;4.13;149.20;56;27.90
2021-09-25 17:15:40;4.13;149.20;57;27.80
2021-09-25 17:20:44;4.13;150.65;58;27.60
2021-09-25 17:25:40;4.13;149.52;58;27.40
2021-09-25 17:30:45;4.13;150.97;58;27.30
2021-09-25 17:35:40;4.13;149.52;59;27.10
2021-09-25 17:40:45;4.13;150.97;59;26.70
2021-09-25 17:45:40;4.13;150.97;59;26.70
2021-09-25 17:50:40;4.13;150.97;59;26.60
2021-09-25 17:55:45;4.13;149.52;61;26.20
2021-09-25 18:00:40;4.13;149.52;62;25.90
2021-09-25 18:05:44;4.13;150.33;61;26.20
2021-09-25 18:10:40;4.13;148.88;62;26.00
2021-09-25 18:15:44;4.13;150.33;63;25.80
2021-09-25 18:20:39;4.13;150.65;63;25.60
2021-09-25 18:25:44;4.13;149.20;64;25.30
2021-09-25 18:30:44;4.13;148.88;65;25.00
2021-09-25 18:35:43;4.13;148.88;65;24.80
2021-09-25 18:40:43;4.13;150.33;67;24.20
2021-09-25 18:45:43;4.13;148.88;68;23.90
2021-09-25 18:50:42;4.13;150.33;71;23.20
2021-09-25 18:55:42;4.13;150.33;73;22.70
2021-09-25 19:00:41;4.13;150.17;74;22.40
2021-09-25 19:05:40;4.13;150.33;75;22.00
2021-09-25 19:10:40;4.13;150.33;77;21.30
2021-09-25 19:15:43;4.13;148.88;78;21.10
2021-09-25 19:20:42;4.13;150.17;79;21.00
2021-09-25 19:25:41;4.13;148.88;80;20.40
2021-09-25 19:30:40;4.13;148.56;82;20.20
2021-09-25 19:35:39;4.13;150.17;83;20.00
2021-09-25 19:40:43;4.13;148.88;84;19.70
2021-09-25 19:45:41;4.13;148.88;84;19.50
2021-09-25 19:50:40;4.13;148.88;85;19.40
2021-09-25 19:55:39;4.13;148.56;85;19.30
2021-09-25 20:00:42;4.13;150.17;86;18.90
2021-09-25 20:05:41;4.13;150.17;87;18.50
2021-09-25 20:10:39;4.13;150.17;88;18.60
2021-09-25 20:15:42;4.13;149.84;88;18.80
2021-09-25 20:20:41;4.13;147.91;87;18.90
2021-09-25 20:25:39;4.13;147.91;87;18.80
2021-09-25 20:30:43;4.13;149.84;89;18.40
2021-09-25 20:35:41;4.13;149.84;90;18.10
2021-09-25 20:40:39;4.13;149.52;91;18.20
2021-09-25 20:45:43;4.13;149.52;91;18.10
2021-09-25 20:50:41;4.13;147.91;91;18.00
2021-09-25 20:55:39;4.13;149.52;91;18.00
2021-09-25 21:00:42;4.13;147.91;91;18.00
2021-09-25 21:05:41;4.13;147.59;92;18.00
2021-09-25 21:10:39;4.13;147.91;93;17.70
2021-09-25 21:15:42;4.13;149.20;93;18.20
2021-09-25 21:20:40;4.13;147.91;93;17.70
2021-09-25 21:25:39;4.13;147.59;93;17.80
2021-09-25 21:30:42;4.13;147.91;94;17.40
2021-09-25 21:35:40;4.13;147.59;95;17.10
2021-09-25 21:40:38;4.13;147.59;95;16.80
2021-09-25 21:45:41;4.13;147.27;94;17.30
2021-09-25 21:50:39;4.13;147.27;94;17.30
2021-09-25 21:55:42;4.13;148.88;96;17.00
2021-09-25 22:00:41;4.13;147.27;96;16.70
2021-09-25 22:05:39;4.13;148.56;96;16.50
2021-09-25 22:10:42;4.13;146.94;98;16.20
2021-09-25 22:15:40;4.13;148.56;98;15.90
2021-09-25 22:20:38;4.13;146.94;98;16.00
2021-09-25 22:25:41;4.13;148.23;98;16.10
2021-09-25 22:30:39;4.13;148.23;99;15.50
2021-09-25 22:35:42;4.13;146.94;99;15.20
2021-09-25 22:40:40;4.13;146.30;99;15.60
2021-09-25 22:45:43;4.13;147.91;99;15.80
2021-09-25 22:50:41;4.13;148.88;99;15.30
2021-09-25 22:55:39;4.13;148.56;99;15.50
2021-09-25 23:00:41;4.13;148.23;99;15.60
2021-09-25 23:05:39;4.13;149.20;99;14.60
2021-09-25 23:10:42;4.13;149.20;99;14.30
2021-09-25 23:15:40;4.13;149.20;99;14.10
2021-09-25 23:20:42;4.13;149.20;99;14.10
2021-09-25 23:25:40;4.12;149.52;99;14.50
2021-09-25 23:30:38;4.12;148.23;99;13.70
2021-09-25 23:35:41;4.12;149.52;99;13.40
2021-09-25 23:40:39;4.12;149.52;99;13.70
2021-09-25 23:45:41;4.12;148.23;99;13.90
2021-09-25 23:50:39;4.12;148.23;99;13.50
2021-09-25 23:55:41;4.12;149.52;99;13.10
