2021-06-05 00:04:25;4.13;159.35;99;21.00
2021-06-05 00:34:21;4.13;157.90;99;19.60
2021-06-05 01:04:22;4.13;159.35;99;18.80
2021-06-05 01:34:21;4.13;158.38;99;18.50
2021-06-05 02:04:21;4.13;160.32;99;17.70
2021-06-05 02:34:19;4.13;160.64;99;17.30
2021-06-05 03:04:22;4.13;159.35;99;17.00
2021-06-05 03:34:20;4.13;160.00;99;17.00
2021-06-05 04:04:18;4.13;159.03;99;16.00
2021-06-05 04:34:21;4.13;160.00;99;16.60
2021-06-05 05:04:18;4.13;160.00;99;15.80
2021-06-05 05:34:20;4.13;160.00;1;15.60
2021-06-05 06:04:22;4.13;160.32;90;15.80
2021-06-05 06:34:18;4.12;160.00;89;16.00
2021-06-05 07:04:20;4.12;160.00;89;16.00
2021-06-05 07:34:18;4.12;157.90;88;16.20
2021-06-05 08:04:20;4.12;157.90;87;16.10
2021-06-05 08:34:22;4.12;158.38;88;16.40
2021-06-05 09:04:19;4.12;158.22;94;16.30
2021-06-05 09:34:21;4.12;159.03;96;16.10
2021-06-05 10:04:18;4.12;156.93;99;15.20
2021-06-05 10:34:20;4.12;157.90;99;15.00
2021-06-05 11:04:21;4.12;155.00;99;14.70
2021-06-05 11:34:17;4.12;156.29;99;15.00
2021-06-05 12:04:18;4.12;156.61;99;14.80
2021-06-05 12:34:19;4.12;156.29;99;15.20
2021-06-05 13:04:20;4.12;157.26;99;16.10
2021-06-05 13:34:18;4.12;159.67;99;16.50
2021-06-05 14:04:21;4.13;159.67;99;17.20
2021-06-05 14:34:20;4.13;159.35;99;18.40
2021-06-05 15:04:24;4.13;156.93;99;18.90
2021-06-05 15:34:19;4.13;157.90;89;18.10
2021-06-05 16:04:24;4.13;157.58;87;18.70
2021-06-05 16:34:23;4.13;155.64;85;18.30
2021-06-05 17:04:23;4.13;155.97;87;18.10
2021-06-05 17:34:22;4.13;157.58;91;16.80
2021-06-05 18:04:20;4.13;157.26;95;15.70
2021-06-05 18:34:17;4.13;157.26;99;14.30
2021-06-05 19:04:18;4.13;157.26;99;14.20
2021-06-05 19:34:18;4.13;157.26;99;13.40
2021-06-05 20:04:17;4.13;157.26;99;13.20
2021-06-05 20:34:16;4.12;157.58;99;12.50
2021-06-05 21:04:19;4.12;155.97;99;12.20
2021-06-05 21:34:18;4.12;157.58;99;12.10
2021-06-05 22:04:16;4.12;157.90;99;10.90
2021-06-05 22:34:18;4.12;156.61;99;10.60
2021-06-05 23:04:15;4.12;157.58;99;9.90
2021-06-05 23:34:16;4.12;155.97;99;8.40
