2021-02-09 00:04:26;4.15;124.71;99;21.40
2021-02-09 00:34:24;4.15;126.48;99;21.00
2021-02-09 01:04:22;4.15;126.16;99;20.80
2021-02-09 01:34:23;4.15;125.03;99;20.30
2021-02-09 02:04:25;4.15;125.03;99;20.10
2021-02-09 02:34:21;4.15;126.80;99;19.60
2021-02-09 03:04:22;4.15;126.48;99;19.70
2021-02-09 03:34:22;4.14;126.48;99;19.30
2021-02-09 04:04:23;4.14;124.71;99;19.00
2021-02-09 04:34:23;4.14;125.03;99;18.80
2021-02-09 05:04:23;4.14;126.48;99;18.80
2021-02-09 05:34:22;4.14;125.03;99;18.90
2021-02-09 06:04:22;4.14;126.48;99;18.90
2021-02-09 06:34:22;4.14;124.71;99;18.70
2021-02-09 07:04:22;4.14;126.16;99;18.90
2021-02-09 07:34:22;4.14;125.84;99;19.60
2021-02-09 08:04:23;4.14;125.84;99;19.90
2021-02-09 08:34:24;4.14;124.39;99;20.30
2021-02-09 09:04:26;4.14;125.84;99;20.60
2021-02-09 09:34:23;4.14;124.39;99;21.00
2021-02-09 10:04:26;4.14;124.39;99;21.90
2021-02-09 10:34:24;4.14;124.71;99;23.20
2021-02-09 11:04:25;4.14;126.16;97;24.80
2021-02-09 11:34:27;4.14;126.16;94;25.20
2021-02-09 12:04:30;4.14;124.71;92;25.70
2021-02-09 12:34:29;4.14;126.16;88;26.30
2021-02-09 13:04:29;4.15;126.48;86;26.90
2021-02-09 13:34:29;4.15;124.71;82;27.20
2021-02-09 14:04:29;4.15;125.03;78;27.50
2021-02-09 14:34:30;4.15;126.80;78;26.90
2021-02-09 15:04:31;4.15;125.35;79;26.70
2021-02-09 15:34:31;4.15;125.35;72;27.80
2021-02-09 16:04:32;4.15;125.68;68;28.60
2021-02-09 16:34:32;4.15;127.13;76;26.30
2021-02-09 17:04:27;4.15;125.68;80;26.50
2021-02-09 17:34:32;4.15;125.68;75;27.10
2021-02-09 18:04:31;4.15;125.84;76;27.20
2021-02-09 18:34:30;4.15;125.84;80;26.00
2021-02-09 19:04:29;4.15;125.68;85;25.10
2021-02-09 19:34:25;4.15;125.68;91;24.10
2021-02-09 20:04:26;4.15;125.35;94;23.30
2021-02-09 20:34:25;4.15;125.35;99;22.20
2021-02-09 21:04:23;4.15;125.35;99;21.30
2021-02-09 21:34:25;4.15;126.80;99;21.10
2021-02-09 22:04:22;4.15;125.35;99;20.90
2021-02-09 22:34:23;4.15;125.35;99;20.70
2021-02-09 23:04:24;4.14;125.35;99;20.20
2021-02-09 23:34:21;4.14;125.03;99;19.60
