2021-09-02 00:00:41;4.13;152.26;64;19.20
2021-09-02 00:05:40;4.13;150.97;64;19.10
2021-09-02 00:10:43;4.13;152.26;65;19.10
2021-09-02 00:15:42;4.13;150.65;66;19.00
2021-09-02 00:20:41;4.13;150.65;67;19.20
2021-09-02 00:25:39;4.13;150.65;69;19.40
2021-09-02 00:30:43;4.13;151.62;68;19.10
2021-09-02 00:35:42;4.13;153.23;68;19.10
2021-09-02 00:40:40;4.13;153.23;71;19.30
2021-09-02 00:45:39;4.13;151.62;71;19.20
2021-09-02 00:50:43;4.13;153.23;73;19.50
2021-09-02 00:55:41;4.13;153.23;74;19.40
2021-09-02 01:00:40;4.13;153.23;79;19.80
2021-09-02 01:05:39;4.13;151.94;83;20.10
2021-09-02 01:10:42;4.13;153.23;86;20.20
2021-09-02 01:15:41;4.13;153.23;88;19.90
2021-09-02 01:20:40;4.13;153.23;96;20.40
2021-09-02 01:25:39;4.13;153.23;94;20.10
2021-09-02 01:30:42;4.13;152.91;91;20.00
2021-09-02 01:35:41;4.13;151.29;88;20.20
2021-09-02 01:40:40;4.13;151.29;86;19.80
2021-09-02 01:45:39;4.13;151.94;85;19.80
2021-09-02 01:50:42;4.13;152.91;79;19.60
2021-09-02 01:55:41;4.13;152.91;76;19.40
2021-09-02 02:00:40;4.13;150.97;75;19.40
2021-09-02 02:05:39;4.13;152.58;74;19.60
2021-09-02 02:10:42;4.13;152.58;79;19.60
2021-09-02 02:15:41;4.13;152.58;84;19.80
2021-09-02 02:20:40;4.13;152.58;84;19.70
2021-09-02 02:25:43;4.13;151.29;82;19.80
2021-09-02 02:30:42;4.13;152.26;75;19.50
2021-09-02 02:35:41;4.13;152.26;38;18.80
2021-09-02 02:40:40;4.13;152.26;2;18.90
2021-09-02 02:45:43;4.13;150.65;3;18.70
2021-09-02 02:50:42;4.13;150.65;2;18.80
2021-09-02 02:55:41;4.13;151.94;2;18.70
2021-09-02 03:00:39;4.13;150.65;2;18.50
2021-09-02 03:05:43;4.13;150.65;2;18.40
2021-09-02 03:10:41;4.13;151.94;2;18.70
2021-09-02 03:15:40;4.13;150.65;2;18.50
2021-09-02 03:20:39;4.13;150.65;2;18.50
2021-09-02 03:25:42;4.13;150.65;2;18.20
2021-09-02 03:30:41;4.13;152.26;2;18.20
2021-09-02 03:35:39;4.13;152.91;2;18.20
2021-09-02 03:40:43;4.13;151.62;2;18.30
2021-09-02 03:45:41;4.13;150.97;2;18.20
2021-09-02 03:50:40;4.13;151.29;2;18.20
2021-09-02 03:55:43;4.13;151.29;2;18.20
2021-09-02 04:00:42;4.13;152.91;2;18.50
2021-09-02 04:05:40;4.13;152.58;2;18.60
2021-09-02 04:10:39;4.13;152.58;2;18.70
2021-09-02 04:15:42;4.13;152.58;2;18.50
2021-09-02 04:20:41;4.13;150.97;2;18.40
2021-09-02 04:25:39;4.13;150.97;2;18.00
2021-09-02 04:30:43;4.13;151.94;2;18.00
2021-09-02 04:35:41;4.13;152.58;2;18.00
2021-09-02 04:40:40;4.13;152.58;2;18.30
2021-09-02 04:45:43;4.13;150.97;2;18.10
2021-09-02 04:50:42;4.13;151.29;2;18.00
2021-09-02 04:55:40;4.13;150.97;2;18.30
2021-09-02 05:00:39;4.13;150.97;2;18.10
2021-09-02 05:05:42;4.13;150.65;2;18.00
2021-09-02 05:10:40;4.13;151.29;2;18.20
2021-09-02 05:15:39;4.13;150.97;2;18.00
2021-09-02 05:20:42;4.13;150.97;2;18.50
2021-09-02 05:25:41;4.13;152.26;2;18.20
2021-09-02 05:30:39;4.13;151.29;2;18.50
2021-09-02 05:35:42;4.13;150.97;2;17.60
2021-09-02 05:40:41;4.13;152.26;2;17.90
2021-09-02 05:45:39;4.12;150.65;2;17.80
2021-09-02 05:50:43;4.12;150.97;2;17.90
2021-09-02 05:55:41;4.12;152.58;2;17.70
2021-09-02 06:00:40;4.12;150.97;2;17.80
2021-09-02 06:05:43;4.12;152.26;2;17.80
2021-09-02 06:10:41;4.12;152.26;2;17.50
2021-09-02 06:15:40;4.12;152.26;2;17.70
2021-09-02 06:20:43;4.12;150.97;2;17.60
2021-09-02 06:25:42;4.12;152.58;2;17.60
2021-09-02 06:30:40;4.12;152.58;2;17.70
2021-09-02 06:35:39;4.12;152.58;2;17.50
2021-09-02 06:40:42;4.12;150.97;2;17.50
2021-09-02 06:45:40;4.12;152.58;2;17.40
2021-09-02 06:50:39;4.12;150.97;2;17.70
2021-09-02 06:55:42;4.12;150.65;2;17.60
2021-09-02 07:00:40;4.12;150.97;2;17.50
2021-09-02 07:05:39;4.12;150.65;2;17.40
2021-09-02 07:10:42;4.12;150.97;2;17.70
2021-09-02 07:15:40;4.12;150.65;2;17.80
2021-09-02 07:20:39;4.12;150.97;2;17.70
2021-09-02 07:25:42;4.12;150.97;2;17.80
2021-09-02 07:30:41;4.12;150.65;2;17.70
2021-09-02 07:35:39;4.12;152.26;2;17.80
2021-09-02 07:40:42;4.12;151.94;2;17.50
2021-09-02 07:45:41;4.12;152.26;2;17.30
2021-09-02 07:50:39;4.12;152.26;2;17.40
2021-09-02 07:55:42;4.12;150.97;2;17.40
2021-09-02 08:00:41;4.12;150.65;2;17.50
2021-09-02 08:05:39;4.12;152.26;2;17.40
2021-09-02 08:10:42;4.12;152.58;2;17.20
2021-09-02 08:15:41;4.12;150.65;2;17.10
2021-09-02 08:20:39;4.12;150.65;2;17.40
2021-09-02 08:25:42;4.12;152.26;2;17.50
2021-09-02 08:30:41;4.12;152.58;2;17.50
2021-09-02 08:35:39;4.12;152.91;2;17.80
2021-09-02 08:40:42;4.12;151.62;2;17.50
2021-09-02 08:45:41;4.12;151.29;2;17.50
2021-09-02 08:50:39;4.12;153.23;2;17.60
2021-09-02 08:55:42;4.12;151.29;2;17.90
2021-09-02 09:00:41;4.12;151.62;2;17.80
2021-09-02 09:05:39;4.12;152.26;2;17.70
2021-09-02 09:10:43;4.12;153.23;2;18.10
2021-09-02 09:15:41;4.12;151.94;2;18.20
2021-09-02 09:20:40;4.12;151.94;2;18.10
2021-09-02 09:25:43;4.12;153.23;2;18.40
2021-09-02 09:30:41;4.13;151.62;2;18.40
2021-09-02 09:35:40;4.13;152.91;2;18.60
2021-09-02 09:40:39;4.13;152.91;2;18.50
2021-09-02 09:45:42;4.13;150.97;4;18.60
2021-09-02 09:50:41;4.13;150.97;21;18.70
2021-09-02 09:55:39;4.13;151.29;37;18.90
2021-09-02 10:00:43;4.13;152.58;32;19.20
2021-09-02 10:05:41;4.13;151.29;17;19.20
2021-09-02 10:10:40;4.13;152.58;48;19.20
2021-09-02 10:15:43;4.13;150.97;25;19.30
2021-09-02 10:20:42;4.13;152.58;48;19.80
2021-09-02 10:25:41;4.13;150.97;62;19.80
2021-09-02 10:30:40;4.13;150.97;69;20.00
2021-09-02 10:35:43;4.13;152.26;75;19.50
2021-09-02 10:40:42;4.13;150.97;74;19.80
2021-09-02 10:45:41;4.13;150.65;51;19.50
2021-09-02 10:50:40;4.12;150.97;39;19.30
2021-09-02 10:55:43;4.13;152.58;2;18.90
2021-09-02 11:00:42;4.13;152.26;12;19.20
2021-09-02 11:05:41;4.13;151.94;2;19.50
2021-09-02 11:10:40;4.13;150.65;38;19.50
2021-09-02 11:15:43;4.13;150.65;29;19.30
2021-09-02 11:20:42;4.13;151.94;37;19.70
2021-09-02 11:25:41;4.13;151.29;63;20.00
2021-09-02 11:30:40;4.13;152.58;81;20.00
2021-09-02 11:35:43;4.13;151.29;99;21.80
2021-09-02 11:40:42;4.13;152.58;99;21.00
2021-09-02 11:45:41;4.13;152.58;87;20.30
2021-09-02 11:50:40;4.13;150.97;74;20.70
2021-09-02 11:55:39;4.13;150.97;94;20.60
2021-09-02 12:00:43;4.13;152.58;68;20.40
2021-09-02 12:05:42;4.13;152.58;66;19.90
2021-09-02 12:10:41;4.13;151.29;23;19.50
2021-09-02 12:15:40;4.13;152.58;19;19.60
2021-09-02 12:20:44;4.13;152.58;60;19.80
2021-09-02 12:25:42;4.13;150.65;35;19.90
2021-09-02 12:30:41;4.13;152.58;55;19.70
2021-09-02 12:35:40;4.13;152.26;24;19.40
2021-09-02 12:40:39;4.13;150.97;25;19.20
2021-09-02 12:45:43;4.13;152.58;50;19.30
2021-09-02 12:50:42;4.13;152.58;51;19.60
2021-09-02 12:55:41;4.13;151.29;19;19.40
2021-09-02 13:00:40;4.13;152.58;43;19.30
2021-09-02 13:05:43;4.13;150.97;25;19.10
2021-09-02 13:10:42;4.13;151.29;37;19.10
2021-09-02 13:15:41;4.13;150.65;42;19.20
2021-09-02 13:20:40;4.13;152.26;45;19.30
2021-09-02 13:25:43;4.13;150.65;49;19.20
2021-09-02 13:30:42;4.13;152.58;68;19.30
2021-09-02 13:35:41;4.13;150.97;47;19.50
2021-09-02 13:40:40;4.13;152.58;50;19.40
2021-09-02 13:45:39;4.13;150.65;66;19.40
2021-09-02 13:50:42;4.13;150.65;72;19.50
2021-09-02 13:55:41;4.13;152.26;67;20.00
2021-09-02 14:00:40;4.13;150.97;76;19.90
2021-09-02 14:05:39;4.13;150.65;60;19.80
2021-09-02 14:10:42;4.13;152.26;81;19.60
2021-09-02 14:15:41;4.13;152.58;49;19.80
2021-09-02 14:20:40;4.13;150.97;76;19.70
2021-09-02 14:25:39;4.13;150.65;76;19.60
2021-09-02 14:30:43;4.13;150.97;76;19.80
2021-09-02 14:35:42;4.13;152.58;78;19.60
2021-09-02 14:40:40;4.13;150.97;60;19.50
2021-09-02 14:45:39;4.13;152.26;62;19.50
2021-09-02 14:50:43;4.13;151.29;67;19.60
2021-09-02 14:55:42;4.13;152.58;64;19.60
2021-09-02 15:00:41;4.13;150.65;68;19.90
2021-09-02 15:05:39;4.13;150.97;77;20.00
2021-09-02 15:10:43;4.13;152.58;74;19.70
2021-09-02 15:15:42;4.13;150.97;74;19.80
2021-09-02 15:20:41;4.13;152.26;90;19.90
2021-09-02 15:25:40;4.13;150.97;63;20.20
2021-09-02 15:30:43;4.13;150.65;72;19.90
2021-09-02 15:35:42;4.13;152.26;75;20.20
2021-09-02 15:40:41;4.13;150.65;88;20.00
2021-09-02 15:45:40;4.13;152.26;88;20.00
2021-09-02 15:50:39;4.13;152.26;80;19.80
2021-09-02 15:55:43;4.13;150.65;69;19.90
2021-09-02 16:00:42;4.13;150.97;71;19.80
2021-09-02 16:05:41;4.13;151.94;85;19.80
2021-09-02 16:10:40;4.13;150.65;86;19.80
2021-09-02 16:15:43;4.13;150.65;82;20.00
2021-09-02 16:20:42;4.13;152.26;80;19.90
2021-09-02 16:25:41;4.13;151.94;87;20.30
2021-09-02 16:30:40;4.13;151.94;87;20.40
2021-09-02 16:35:39;4.13;150.65;96;20.10
2021-09-02 16:40:43;4.13;150.65;96;20.80
2021-09-02 16:45:42;4.13;150.65;90;20.30
2021-09-02 16:50:41;4.13;151.94;91;20.00
2021-09-02 16:55:40;4.13;150.65;87;19.90
2021-09-02 17:00:43;4.13;150.65;88;19.60
2021-09-02 17:05:42;4.13;150.65;72;19.60
2021-09-02 17:10:41;4.13;150.65;86;19.70
2021-09-02 17:15:40;4.13;150.33;83;19.50
2021-09-02 17:20:39;4.13;151.94;68;19.50
2021-09-02 17:25:42;4.13;150.33;74;19.50
2021-09-02 17:30:41;4.13;151.94;88;19.40
2021-09-02 17:35:40;4.13;150.33;75;19.50
2021-09-02 17:40:39;4.13;150.33;80;19.30
2021-09-02 17:45:43;4.13;150.33;72;19.50
2021-09-02 17:50:41;4.13;151.94;76;19.30
2021-09-02 17:55:40;4.13;151.94;75;19.20
2021-09-02 18:00:39;4.13;150.65;78;19.10
2021-09-02 18:05:42;4.13;150.65;72;18.90
2021-09-02 18:10:41;4.13;151.94;63;19.00
2021-09-02 18:15:40;4.13;150.65;62;19.10
2021-09-02 18:20:43;4.13;150.65;66;19.10
2021-09-02 18:25:42;4.13;151.94;61;18.90
2021-09-02 18:30:41;4.13;150.65;52;18.90
2021-09-02 18:35:39;4.13;151.62;54;18.70
2021-09-02 18:40:43;4.13;151.62;65;18.70
2021-09-02 18:45:41;4.13;150.65;55;18.70
2021-09-02 18:50:40;4.13;150.17;62;18.70
2021-09-02 18:55:39;4.13;150.65;51;18.40
2021-09-02 19:00:42;4.13;151.29;51;18.50
2021-09-02 19:05:41;4.13;151.29;45;18.50
2021-09-02 19:10:39;4.13;151.29;47;18.50
2021-09-02 19:15:43;4.13;150.17;2;18.00
2021-09-02 19:20:41;4.13;150.33;2;17.90
2021-09-02 19:25:40;4.13;151.29;2;17.90
2021-09-02 19:30:43;4.13;151.29;2;18.00
2021-09-02 19:35:42;4.13;151.29;2;17.90
2021-09-02 19:40:40;4.13;151.62;10;18.00
2021-09-02 19:45:39;4.13;150.33;2;17.50
2021-09-02 19:50:42;4.13;151.29;2;17.70
2021-09-02 19:55:40;4.13;150.17;2;17.60
2021-09-02 20:00:39;4.13;150.17;2;17.10
2021-09-02 20:05:42;4.13;150.33;2;17.10
2021-09-02 20:10:41;4.13;151.29;2;16.90
2021-09-02 20:15:39;4.13;150.33;2;16.90
2021-09-02 20:20:42;4.13;150.33;2;17.10
2021-09-02 20:25:41;4.13;151.29;2;17.10
2021-09-02 20:30:39;4.13;150.97;2;16.70
2021-09-02 20:35:42;4.13;150.33;2;16.70
2021-09-02 20:40:41;4.13;150.97;2;16.70
2021-09-02 20:45:39;4.13;150.97;2;16.60
2021-09-02 20:50:42;4.13;150.17;2;16.20
2021-09-02 20:55:40;4.13;150.97;2;16.30
2021-09-02 21:00:39;4.13;150.97;2;16.30
2021-09-02 21:05:42;4.13;149.84;2;16.20
2021-09-02 21:10:40;4.13;150.97;2;16.20
2021-09-02 21:15:38;4.13;150.17;2;16.20
2021-09-02 21:20:41;4.13;149.84;2;16.20
2021-09-02 21:25:40;4.13;150.97;2;16.10
2021-09-02 21:30:43;4.13;150.97;2;16.10
2021-09-02 21:35:41;4.13;149.84;2;16.20
2021-09-02 21:40:39;4.13;149.52;2;16.20
2021-09-02 21:45:42;4.13;149.52;2;16.10
2021-09-02 21:50:40;4.13;149.84;2;15.80
2021-09-02 21:55:39;4.13;150.65;2;15.90
2021-09-02 22:00:42;4.13;150.65;2;15.90
2021-09-02 22:05:40;4.13;149.52;2;16.10
2021-09-02 22:10:43;4.12;150.97;2;15.80
2021-09-02 22:15:41;4.13;149.84;2;15.80
2021-09-02 22:20:39;4.12;149.20;2;15.80
2021-09-02 22:25:42;4.12;149.84;2;15.80
2021-09-02 22:30:40;4.12;150.65;2;15.80
2021-09-02 22:35:39;4.12;150.65;2;15.90
2021-09-02 22:40:42;4.12;150.65;2;15.70
2021-09-02 22:45:40;4.12;150.65;2;15.70
2021-09-02 22:50:43;4.12;150.65;2;15.90
2021-09-02 22:55:41;4.12;149.52;2;15.80
2021-09-02 23:00:39;4.12;149.84;2;15.90
2021-09-02 23:05:42;4.12;149.84;2;15.60
2021-09-02 23:10:40;4.12;150.65;2;15.90
2021-09-02 23:15:39;4.12;150.65;2;15.80
2021-09-02 23:20:41;4.12;150.65;2;15.70
2021-09-02 23:25:40;4.12;149.52;2;15.80
2021-09-02 23:30:43;4.12;150.65;2;15.70
2021-09-02 23:35:41;4.12;150.65;2;15.80
2021-09-02 23:40:39;4.12;149.84;2;15.50
2021-09-02 23:45:42;4.12;149.20;2;15.40
2021-09-02 23:50:40;4.12;150.65;2;15.40
2021-09-02 23:55:38;4.12;149.84;2;15.50
