2021-07-21 00:04:13;4.11;165.31;99;7.90
2021-07-21 00:34:12;4.11;163.38;99;7.60
2021-07-21 01:04:16;4.11;164.35;99;7.30
2021-07-21 01:34:15;4.11;164.99;99;6.70
2021-07-21 02:04:14;4.11;165.31;99;6.20
2021-07-21 02:34:12;4.11;164.35;99;5.40
2021-07-21 03:04:14;4.11;164.67;99;4.90
2021-07-21 03:34:11;4.11;166.76;99;3.50
2021-07-21 04:04:13;4.11;164.67;99;3.70
2021-07-21 04:34:14;4.11;164.67;99;2.10
2021-07-21 05:04:09;4.11;164.99;92;1.30
2021-07-21 05:34:09;4.11;164.35;84;1.00
2021-07-21 06:04:13;4.11;165.63;74;1.10
2021-07-21 06:34:12;4.11;164.67;71;0.80
2021-07-21 07:04:11;4.11;166.28;73;0.70
2021-07-21 07:34:11;4.11;166.28;65;0.90
2021-07-21 08:04:10;4.11;164.67;69;1.00
2021-07-21 08:34:09;4.11;162.41;99;3.60
2021-07-21 09:04:10;4.11;162.41;99;7.60
2021-07-21 09:34:14;4.11;164.35;99;9.20
2021-07-21 10:04:15;4.11;164.02;98;11.00
2021-07-21 10:34:18;4.11;164.35;90;13.30
2021-07-21 11:04:18;4.11;164.35;84;14.60
2021-07-21 11:34:19;4.12;164.99;80;16.00
2021-07-21 12:04:21;4.12;165.63;71;18.00
2021-07-21 12:34:24;4.12;164.67;66;20.10
2021-07-21 13:04:25;4.12;164.99;62;21.20
2021-07-21 13:34:22;4.12;163.38;60;21.80
2021-07-21 14:04:25;4.12;165.31;58;22.00
2021-07-21 14:34:27;4.12;164.35;56;22.20
2021-07-21 15:04:25;4.12;164.99;56;22.40
2021-07-21 15:34:27;4.13;165.31;58;22.70
2021-07-21 16:04:25;4.13;165.63;55;21.60
2021-07-21 16:34:27;4.13;165.31;58;20.50
2021-07-21 17:04:23;4.13;164.99;63;20.00
2021-07-21 17:34:24;4.13;164.35;67;19.10
2021-07-21 18:04:23;4.13;163.06;76;16.50
2021-07-21 18:34:21;4.13;164.99;83;14.50
2021-07-21 19:04:21;4.12;163.70;87;12.70
2021-07-21 19:34:20;4.12;164.99;91;11.80
2021-07-21 20:04:17;4.12;163.70;96;11.20
2021-07-21 20:34:14;4.12;165.63;99;10.40
2021-07-21 21:04:15;4.12;164.35;99;8.70
2021-07-21 21:34:16;4.12;164.67;99;9.00
2021-07-21 22:04:16;4.12;166.28;99;9.00
2021-07-21 22:34:16;4.12;163.38;99;8.00
2021-07-21 23:04:15;4.12;162.41;99;7.80
2021-07-21 23:34:14;4.12;161.93;99;6.50
