2021-09-14 00:00:39;4.13;148.23;95;16.50
2021-09-14 00:05:42;4.13;149.84;95;16.20
2021-09-14 00:10:40;4.13;149.52;95;16.20
2021-09-14 00:15:42;4.13;149.52;95;16.20
2021-09-14 00:20:41;4.13;147.91;96;15.80
2021-09-14 00:25:39;4.13;148.23;96;16.00
2021-09-14 00:30:42;4.13;149.52;97;15.90
2021-09-14 00:35:40;4.13;149.52;98;15.70
2021-09-14 00:40:42;4.13;149.84;98;15.70
2021-09-14 00:45:40;4.13;149.52;95;15.30
2021-09-14 00:50:38;4.13;149.52;94;14.50
2021-09-14 00:55:41;4.13;149.52;92;14.30
2021-09-14 01:00:39;4.13;149.52;91;13.80
2021-09-14 01:05:42;4.13;147.91;91;13.80
2021-09-14 01:10:40;4.13;149.52;90;13.70
2021-09-14 01:15:42;4.13;149.52;89;13.50
2021-09-14 01:20:40;4.13;149.52;89;13.30
2021-09-14 01:25:38;4.12;149.20;89;13.40
2021-09-14 01:30:40;4.12;149.52;87;13.70
2021-09-14 01:35:38;4.12;149.20;88;13.50
2021-09-14 01:40:41;4.12;147.91;87;13.50
2021-09-14 01:45:38;4.12;147.91;88;13.50
2021-09-14 01:50:41;4.12;149.52;88;13.40
2021-09-14 01:55:38;4.12;149.52;89;13.40
2021-09-14 02:00:41;4.12;149.52;89;13.50
2021-09-14 02:05:39;4.12;149.84;90;13.70
2021-09-14 02:10:41;4.12;148.23;90;13.40
2021-09-14 02:15:39;4.12;147.91;91;13.40
2021-09-14 02:20:41;4.12;149.20;92;13.30
2021-09-14 02:25:39;4.12;149.20;92;13.00
2021-09-14 02:30:41;4.12;149.52;92;12.90
2021-09-14 02:35:39;4.12;149.52;91;12.80
2021-09-14 02:40:41;4.12;147.91;91;12.80
2021-09-14 02:45:39;4.12;149.84;91;12.80
2021-09-14 02:50:41;4.12;148.23;92;12.60
2021-09-14 02:55:39;4.12;148.56;91;12.50
2021-09-14 03:00:41;4.12;147.91;91;12.40
2021-09-14 03:05:39;4.12;148.23;92;12.10
2021-09-14 03:10:41;4.12;149.52;92;12.40
2021-09-14 03:15:39;4.12;149.84;92;12.40
2021-09-14 03:20:41;4.12;148.56;92;12.10
2021-09-14 03:25:39;4.12;149.84;92;12.10
2021-09-14 03:30:41;4.12;148.23;92;12.20
2021-09-14 03:35:39;4.12;149.84;91;12.30
2021-09-14 03:40:41;4.12;148.56;91;12.10
2021-09-14 03:45:38;4.12;148.56;91;12.10
2021-09-14 03:50:41;4.12;149.84;91;12.00
2021-09-14 03:55:38;4.12;149.84;92;11.90
2021-09-14 04:00:40;4.12;148.23;92;11.80
2021-09-14 04:05:38;4.12;148.23;92;11.60
2021-09-14 04:10:40;4.12;148.23;92;11.90
2021-09-14 04:15:38;4.12;148.56;93;11.60
2021-09-14 04:20:40;4.12;149.84;92;11.70
2021-09-14 04:25:37;4.12;149.84;92;11.60
2021-09-14 04:30:40;4.12;148.23;93;11.40
2021-09-14 04:35:42;4.12;148.23;93;11.60
2021-09-14 04:40:39;4.12;149.84;94;11.30
2021-09-14 04:45:41;4.12;149.84;94;11.30
2021-09-14 04:50:39;4.12;148.56;94;11.60
2021-09-14 04:55:41;4.12;148.56;94;11.30
2021-09-14 05:00:39;4.12;149.84;94;11.50
2021-09-14 05:05:41;4.12;149.84;95;11.00
2021-09-14 05:10:38;4.12;149.84;95;10.80
2021-09-14 05:15:40;4.12;148.23;95;11.10
2021-09-14 05:20:38;4.12;149.84;96;10.90
2021-09-14 05:25:40;4.12;149.52;96;11.10
2021-09-14 05:30:42;4.12;147.91;96;11.10
2021-09-14 05:35:39;4.12;148.23;97;10.20
2021-09-14 05:40:41;4.12;149.52;97;10.40
2021-09-14 05:45:39;4.12;147.91;97;10.40
2021-09-14 05:50:41;4.12;149.84;97;10.40
2021-09-14 05:55:38;4.12;148.23;97;10.50
2021-09-14 06:00:40;4.12;149.20;98;10.50
2021-09-14 06:05:38;4.12;149.20;98;10.50
2021-09-14 06:10:40;4.12;149.20;99;10.20
2021-09-14 06:15:42;4.12;149.20;99;10.30
2021-09-14 06:20:39;4.12;149.20;99;10.00
2021-09-14 06:25:41;4.12;149.20;99;10.00
2021-09-14 06:30:38;4.12;147.59;99;9.80
2021-09-14 06:35:40;4.12;147.91;99;9.80
2021-09-14 06:40:38;4.12;148.23;99;9.90
2021-09-14 06:45:39;4.12;149.20;99;9.70
2021-09-14 06:50:41;4.12;147.91;99;9.70
2021-09-14 06:55:39;4.12;147.91;99;9.40
2021-09-14 07:00:41;4.12;147.59;99;9.20
2021-09-14 07:05:38;4.12;147.91;99;9.10
2021-09-14 07:10:40;4.12;147.59;99;9.40
2021-09-14 07:15:42;4.12;147.59;99;9.00
2021-09-14 07:20:39;4.11;149.20;99;8.90
2021-09-14 07:25:41;4.11;148.88;99;9.10
2021-09-14 07:30:38;4.11;147.59;99;9.20
2021-09-14 07:35:40;4.11;148.88;99;9.50
2021-09-14 07:40:37;4.11;148.88;99;9.60
2021-09-14 07:45:39;4.11;147.59;99;10.10
2021-09-14 07:50:41;4.11;148.88;99;10.10
2021-09-14 07:55:39;4.11;147.27;99;10.10
2021-09-14 08:00:41;4.12;147.59;99;10.30
2021-09-14 08:05:38;4.12;147.27;99;10.70
2021-09-14 08:10:40;4.12;148.88;99;11.10
2021-09-14 08:15:38;4.12;148.88;99;11.20
2021-09-14 08:20:40;4.12;148.88;99;11.10
2021-09-14 08:25:42;4.12;147.27;99;11.50
2021-09-14 08:30:40;4.12;146.94;98;11.40
2021-09-14 08:35:42;4.12;148.56;98;11.50
2021-09-14 08:40:39;4.12;147.27;98;11.00
2021-09-14 08:45:42;4.12;148.56;97;11.50
2021-09-14 08:50:40;4.12;148.56;97;11.90
2021-09-14 08:55:42;4.12;148.56;95;12.20
2021-09-14 09:00:40;4.12;147.27;93;12.20
2021-09-14 09:05:42;4.12;146.94;91;12.70
2021-09-14 09:10:40;4.12;146.94;89;13.00
2021-09-14 09:15:42;4.12;146.94;88;13.00
2021-09-14 09:20:40;4.12;148.56;87;13.70
2021-09-14 09:25:38;4.12;148.56;86;13.50
2021-09-14 09:30:40;4.12;148.23;84;13.90
2021-09-14 09:35:38;4.12;146.94;83;14.20
2021-09-14 09:40:41;4.12;147.27;81;14.80
2021-09-14 09:45:39;4.12;148.56;81;14.70
2021-09-14 09:50:42;4.12;146.94;81;15.20
2021-09-14 09:55:40;4.12;148.56;80;14.90
2021-09-14 10:00:43;4.12;147.27;77;15.70
2021-09-14 10:05:41;4.12;148.23;77;15.80
2021-09-14 10:10:39;4.12;147.27;75;16.30
2021-09-14 10:15:42;4.12;147.27;75;16.10
2021-09-14 10:20:40;4.12;146.94;72;16.10
2021-09-14 10:25:38;4.12;148.56;73;15.90
2021-09-14 10:30:41;4.12;148.23;71;16.50
2021-09-14 10:35:40;4.12;146.94;70;16.30
2021-09-14 10:40:43;4.12;147.27;69;16.50
2021-09-14 10:45:41;4.12;148.56;68;17.20
2021-09-14 10:50:39;4.12;148.56;68;16.80
2021-09-14 10:55:43;4.12;148.56;68;17.00
2021-09-14 11:00:41;4.12;147.59;67;17.40
2021-09-14 11:05:39;4.12;147.27;66;16.90
2021-09-14 11:10:43;4.12;147.27;66;17.20
2021-09-14 11:15:41;4.12;148.88;66;17.00
2021-09-14 11:20:39;4.12;148.88;65;17.70
2021-09-14 11:25:42;4.12;148.88;65;18.00
2021-09-14 11:30:41;4.12;148.88;62;18.10
2021-09-14 11:35:39;4.12;147.59;63;18.50
2021-09-14 11:40:42;4.12;147.59;59;18.50
2021-09-14 11:45:41;4.12;147.59;60;18.50
2021-09-14 11:50:40;4.12;149.20;57;19.50
2021-09-14 11:55:43;4.12;147.59;58;19.10
2021-09-14 12:00:42;4.12;148.88;56;19.30
2021-09-14 12:05:40;4.12;149.20;56;18.80
2021-09-14 12:10:39;4.12;147.59;54;19.80
2021-09-14 12:15:43;4.12;147.59;54;19.30
2021-09-14 12:20:41;4.12;149.20;52;19.80
2021-09-14 12:25:40;4.12;147.59;52;19.60
2021-09-14 12:30:39;4.12;147.59;52;19.60
2021-09-14 12:35:43;4.12;147.91;53;20.20
2021-09-14 12:40:41;4.12;148.23;49;19.80
2021-09-14 12:45:40;4.12;147.91;49;19.90
2021-09-14 12:50:39;4.12;149.52;47;20.00
2021-09-14 12:55:43;4.12;147.91;48;19.80
2021-09-14 13:00:42;4.12;149.52;48;20.00
2021-09-14 13:05:41;4.12;149.52;49;19.40
2021-09-14 13:10:40;4.13;147.91;50;19.90
2021-09-14 13:15:43;4.12;149.84;49;20.10
2021-09-14 13:20:42;4.12;149.52;48;20.00
2021-09-14 13:25:41;4.13;149.52;47;20.10
2021-09-14 13:30:40;4.13;149.52;47;20.10
2021-09-14 13:35:39;4.13;147.91;48;19.90
2021-09-14 13:40:42;4.13;149.84;47;20.90
2021-09-14 13:45:41;4.13;147.91;47;21.30
2021-09-14 13:50:40;4.13;148.23;46;21.10
2021-09-14 13:55:39;4.13;150.17;47;20.00
2021-09-14 14:00:43;4.13;149.84;50;20.60
2021-09-14 14:05:42;4.13;148.56;49;21.10
2021-09-14 14:10:41;4.13;148.56;51;19.50
2021-09-14 14:15:40;4.13;150.17;50;20.40
2021-09-14 14:20:43;4.13;150.33;51;21.00
2021-09-14 14:25:42;4.13;150.17;47;21.20
2021-09-14 14:30:41;4.13;150.33;47;21.20
2021-09-14 14:35:40;4.13;150.33;47;21.00
2021-09-14 14:40:39;4.13;150.33;46;21.20
2021-09-14 14:45:43;4.13;149.20;47;21.20
2021-09-14 14:50:42;4.13;148.88;45;21.20
2021-09-14 14:55:41;4.13;149.52;46;21.50
2021-09-14 15:00:40;4.13;149.20;46;21.60
2021-09-14 15:05:44;4.13;150.65;46;21.10
2021-09-14 15:10:43;4.13;150.65;46;21.70
2021-09-14 15:15:42;4.13;149.52;47;21.60
2021-09-14 15:20:41;4.13;150.65;48;21.90
2021-09-14 15:25:40;4.13;149.20;46;21.50
2021-09-14 15:30:43;4.13;150.65;46;22.00
2021-09-14 15:35:42;4.13;148.88;45;21.90
2021-09-14 15:40:41;4.13;150.65;45;21.60
2021-09-14 15:45:41;4.13;150.65;48;21.90
2021-09-14 15:50:40;4.13;150.65;46;21.80
2021-09-14 15:55:43;4.13;150.65;45;21.40
2021-09-14 16:00:42;4.13;149.20;45;22.10
2021-09-14 16:05:42;4.13;149.20;46;21.80
2021-09-14 16:10:41;4.13;150.33;43;21.50
2021-09-14 16:15:40;4.13;149.20;42;21.40
2021-09-14 16:20:43;4.13;149.20;43;21.30
2021-09-14 16:25:43;4.13;148.88;43;21.30
2021-09-14 16:30:42;4.13;148.88;43;21.10
2021-09-14 16:35:41;4.13;150.65;42;21.30
2021-09-14 16:40:40;4.13;149.52;42;21.40
2021-09-14 16:45:44;4.13;150.33;42;21.50
2021-09-14 16:50:43;4.13;150.33;42;21.40
2021-09-14 16:55:42;4.13;150.33;43;21.10
2021-09-14 17:00:41;4.13;150.65;42;21.60
2021-09-14 17:05:40;4.13;150.33;42;21.20
2021-09-14 17:10:43;4.13;149.52;42;21.40
2021-09-14 17:15:42;4.13;150.33;42;20.90
2021-09-14 17:20:42;4.13;150.65;42;20.80
2021-09-14 17:25:41;4.13;150.65;43;20.90
2021-09-14 17:30:40;4.13;148.88;42;20.50
2021-09-14 17:35:43;4.13;149.20;42;20.20
2021-09-14 17:40:42;4.13;150.33;43;20.00
2021-09-14 17:45:41;4.13;150.33;43;20.30
2021-09-14 17:50:40;4.13;148.88;43;20.20
2021-09-14 17:55:39;4.13;148.88;44;20.30
2021-09-14 18:00:43;4.13;150.33;44;20.00
2021-09-14 18:05:41;4.13;150.17;45;19.60
2021-09-14 18:10:40;4.13;150.33;45;19.80
2021-09-14 18:15:39;4.13;150.17;46;19.30
2021-09-14 18:20:43;4.13;148.56;47;19.10
2021-09-14 18:25:41;4.13;150.17;48;19.20
2021-09-14 18:30:40;4.13;150.17;49;19.00
2021-09-14 18:35:39;4.13;150.17;51;18.50
2021-09-14 18:40:42;4.13;148.88;52;17.90
2021-09-14 18:45:41;4.13;148.23;54;17.70
2021-09-14 18:50:39;4.13;149.84;55;17.00
2021-09-14 18:55:42;4.13;149.84;56;16.40
2021-09-14 19:00:41;4.13;148.56;58;15.70
2021-09-14 19:05:39;4.13;148.56;60;15.20
2021-09-14 19:10:42;4.13;148.56;62;14.80
2021-09-14 19:15:40;4.13;148.23;63;14.50
2021-09-14 19:20:38;4.13;149.84;64;14.50
2021-09-14 19:25:41;4.13;148.56;66;13.70
2021-09-14 19:30:39;4.13;148.56;69;13.20
2021-09-14 19:35:41;4.13;147.91;70;12.70
2021-09-14 19:40:39;4.12;149.52;70;12.70
2021-09-14 19:45:42;4.12;149.84;70;12.50
2021-09-14 19:50:39;4.12;149.84;70;12.70
2021-09-14 19:55:42;4.12;149.84;71;12.20
2021-09-14 20:00:39;4.12;149.84;72;12.20
2021-09-14 20:05:42;4.12;147.91;72;12.20
2021-09-14 20:10:39;4.12;148.56;73;12.00
2021-09-14 20:15:42;4.12;148.23;73;12.00
2021-09-14 20:20:39;4.12;149.52;73;11.60
2021-09-14 20:25:41;4.12;149.52;73;11.80
2021-09-14 20:30:39;4.12;149.84;73;11.80
2021-09-14 20:35:41;4.12;148.23;73;11.80
2021-09-14 20:40:38;4.12;147.91;72;11.90
2021-09-14 20:45:41;4.12;149.52;73;11.60
2021-09-14 20:50:38;4.12;149.52;75;11.10
2021-09-14 20:55:40;4.12;148.23;75;11.10
2021-09-14 21:00:38;4.12;149.52;76;10.60
2021-09-14 21:05:40;4.12;148.56;77;10.60
2021-09-14 21:10:42;4.12;149.52;78;10.00
2021-09-14 21:15:39;4.12;149.52;79;10.40
2021-09-14 21:20:41;4.12;149.52;80;10.10
2021-09-14 21:25:38;4.12;149.52;81;9.90
2021-09-14 21:30:40;4.12;148.23;80;10.10
2021-09-14 21:35:38;4.12;149.52;80;9.80
2021-09-14 21:40:39;4.12;147.91;81;9.90
2021-09-14 21:45:41;4.12;149.52;81;9.50
2021-09-14 21:50:39;4.12;149.52;84;8.90
2021-09-14 21:55:40;4.12;148.23;82;8.80
2021-09-14 22:00:38;4.12;149.20;83;8.80
2021-09-14 22:05:40;4.12;147.91;84;8.30
2021-09-14 22:10:41;4.12;149.20;84;8.50
2021-09-14 22:15:38;4.12;149.20;84;8.60
2021-09-14 22:20:40;4.12;147.27;83;8.70
2021-09-14 22:25:37;4.12;149.20;84;8.50
2021-09-14 22:30:39;4.12;147.91;85;8.10
2021-09-14 22:35:41;4.12;147.59;86;7.90
2021-09-14 22:40:38;4.12;147.59;96;5.60
2021-09-14 22:45:40;4.12;147.27;99;5.20
2021-09-14 22:50:41;4.12;149.20;99;5.00
2021-09-14 22:55:38;4.12;148.88;99;5.10
2021-09-14 23:00:40;4.12;147.59;99;4.50
2021-09-14 23:05:41;4.12;147.27;99;4.70
2021-09-14 23:10:38;4.12;147.27;98;5.70
2021-09-14 23:15:40;4.11;147.27;97;5.70
2021-09-14 23:20:41;4.12;147.27;99;5.10
2021-09-14 23:25:38;4.11;147.27;99;4.80
2021-09-14 23:30:39;4.11;148.88;99;4.30
2021-09-14 23:35:41;4.11;148.88;99;4.60
2021-09-14 23:40:37;4.11;148.88;99;4.70
2021-09-14 23:45:39;4.11;147.91;99;4.10
2021-09-14 23:50:40;4.11;148.88;99;4.60
2021-09-14 23:55:37;4.11;149.20;99;4.30
