2021-09-28 00:00:43;4.13;145.82;99;19.10
2021-09-28 00:05:41;4.13;144.53;99;19.00
2021-09-28 00:10:40;4.13;145.49;99;18.80
2021-09-28 00:15:43;4.13;144.53;99;18.70
2021-09-28 00:20:42;4.13;144.53;99;18.60
2021-09-28 00:25:40;4.13;145.49;99;18.50
2021-09-28 00:30:39;4.13;145.49;99;18.20
2021-09-28 00:35:42;4.13;144.21;99;18.40
2021-09-28 00:40:40;4.13;144.21;99;18.00
2021-09-28 00:45:39;4.13;145.49;99;18.00
2021-09-28 00:50:42;4.13;144.21;99;17.80
2021-09-28 00:55:40;4.13;144.21;98;17.80
2021-09-28 01:00:39;4.13;145.49;91;17.50
2021-09-28 01:05:42;4.13;144.53;92;17.10
2021-09-28 01:10:40;4.13;144.21;92;17.40
2021-09-28 01:15:39;4.13;143.88;93;17.00
2021-09-28 01:20:42;4.13;144.21;92;17.40
2021-09-28 01:25:40;4.13;145.49;92;17.20
2021-09-28 01:30:38;4.13;144.21;94;17.20
2021-09-28 01:35:41;4.13;143.88;95;17.10
2021-09-28 01:40:40;4.13;145.17;95;17.10
2021-09-28 01:45:43;4.13;145.17;93;17.00
2021-09-28 01:50:41;4.13;144.21;93;17.10
2021-09-28 01:55:39;4.13;144.21;93;17.00
2021-09-28 02:00:42;4.13;144.53;93;16.70
2021-09-28 02:05:41;4.13;145.17;93;16.70
2021-09-28 02:10:39;4.13;145.49;92;16.60
2021-09-28 02:15:42;4.13;144.53;86;16.50
2021-09-28 02:20:40;4.13;144.53;82;16.30
2021-09-28 02:25:38;4.13;145.82;78;16.40
2021-09-28 02:30:41;4.13;144.85;79;16.50
2021-09-28 02:35:40;4.13;144.21;80;16.70
2021-09-28 02:40:43;4.13;143.56;78;16.30
2021-09-28 02:45:41;4.13;144.53;75;16.30
2021-09-28 02:50:39;4.13;145.17;33;15.90
2021-09-28 02:55:42;4.13;144.85;22;15.80
2021-09-28 03:00:40;4.13;144.85;16;15.70
2021-09-28 03:05:38;4.13;145.82;14;15.70
2021-09-28 03:10:41;4.13;145.82;7;15.60
2021-09-28 03:15:39;4.13;145.49;5;15.90
2021-09-28 03:20:42;4.13;144.53;5;15.80
2021-09-28 03:25:40;4.13;145.98;4;15.40
2021-09-28 03:30:38;4.13;145.49;2;15.40
2021-09-28 03:35:41;4.13;144.21;2;15.40
2021-09-28 03:40:39;4.13;145.17;2;15.60
2021-09-28 03:45:42;4.13;145.82;2;15.40
2021-09-28 03:50:40;4.13;144.53;2;15.30
2021-09-28 03:55:43;4.13;145.17;2;15.30
2021-09-28 04:00:41;4.13;145.98;2;15.40
2021-09-28 04:05:39;4.13;146.62;2;15.50
2021-09-28 04:10:41;4.13;146.62;2;15.50
2021-09-28 04:15:39;4.13;145.17;2;15.50
2021-09-28 04:20:42;4.13;145.17;2;15.50
2021-09-28 04:25:40;4.13;145.49;2;15.40
2021-09-28 04:30:38;4.13;145.98;2;15.20
2021-09-28 04:35:41;4.13;145.17;2;15.40
2021-09-28 04:40:39;4.12;145.17;2;15.40
2021-09-28 04:45:42;4.13;145.98;2;15.80
2021-09-28 04:50:40;4.12;146.30;2;15.70
2021-09-28 04:55:43;4.12;145.98;2;15.70
2021-09-28 05:00:41;4.12;145.98;2;15.50
2021-09-28 05:05:39;4.13;145.17;2;15.50
2021-09-28 05:10:41;4.12;145.98;2;15.70
2021-09-28 05:15:39;4.12;145.98;2;15.60
2021-09-28 05:20:42;4.12;144.85;2;15.80
2021-09-28 05:25:40;4.12;145.49;2;15.50
2021-09-28 05:30:38;4.12;145.49;2;15.50
2021-09-28 05:35:41;4.12;145.17;2;15.60
2021-09-28 05:40:39;4.12;146.30;2;15.80
2021-09-28 05:45:42;4.12;145.98;2;15.80
2021-09-28 05:50:40;4.12;145.17;2;15.60
2021-09-28 05:55:38;4.12;145.17;2;15.50
2021-09-28 06:00:41;4.12;145.98;2;15.60
2021-09-28 06:05:39;4.12;145.49;2;15.80
2021-09-28 06:10:42;4.12;145.98;2;15.50
2021-09-28 06:15:40;4.12;145.17;2;15.70
2021-09-28 06:20:42;4.12;145.98;2;15.60
2021-09-28 06:25:41;4.12;144.85;2;15.70
2021-09-28 06:30:39;4.12;145.49;2;15.70
2021-09-28 06:35:41;4.12;145.17;2;15.70
2021-09-28 06:40:39;4.12;145.17;2;15.70
2021-09-28 06:45:42;4.12;145.82;2;15.60
2021-09-28 06:50:40;4.12;144.53;2;15.60
2021-09-28 06:55:38;4.12;144.85;2;15.50
2021-09-28 07:00:41;4.12;145.82;2;15.70
2021-09-28 07:05:39;4.12;145.17;6;15.70
2021-09-28 07:10:42;4.12;145.98;7;15.70
2021-09-28 07:15:40;4.12;145.98;1;15.70
2021-09-28 07:20:38;4.12;144.53;1;15.60
2021-09-28 07:25:41;4.12;144.21;3;15.80
2021-09-28 07:30:39;4.12;144.53;10;15.60
2021-09-28 07:35:42;4.12;144.53;10;15.70
2021-09-28 07:40:40;4.12;143.88;11;15.80
2021-09-28 07:45:43;4.12;144.53;2;15.70
2021-09-28 07:50:41;4.12;144.21;2;15.60
2021-09-28 07:55:39;4.12;145.49;2;15.80
2021-09-28 08:00:42;4.12;144.21;2;15.00
2021-09-28 08:05:40;4.12;144.21;2;14.50
2021-09-28 08:10:42;4.12;144.21;2;14.40
2021-09-28 08:15:40;4.12;145.17;2;14.40
2021-09-28 08:20:38;4.12;144.21;2;14.30
2021-09-28 08:25:41;4.12;145.17;2;14.20
2021-09-28 08:30:39;4.12;145.17;2;14.30
2021-09-28 08:35:42;4.12;143.56;2;14.50
2021-09-28 08:40:40;4.12;145.17;2;14.20
2021-09-28 08:45:42;4.12;144.21;2;14.20
2021-09-28 08:50:40;4.12;144.21;2;14.10
2021-09-28 08:55:38;4.12;143.88;2;14.60
2021-09-28 09:00:41;4.12;144.21;2;14.90
2021-09-28 09:05:39;4.12;143.88;2;14.30
2021-09-28 09:10:41;4.12;144.85;2;14.30
2021-09-28 09:15:39;4.12;145.17;2;14.40
2021-09-28 09:20:42;4.12;144.21;2;14.70
2021-09-28 09:25:40;4.12;145.17;2;14.60
2021-09-28 09:30:42;4.12;143.88;2;14.60
2021-09-28 09:35:40;4.12;144.85;2;14.90
2021-09-28 09:40:38;4.12;145.17;2;14.40
2021-09-28 09:45:41;4.12;144.85;2;14.60
2021-09-28 09:50:39;4.12;143.88;2;14.80
2021-09-28 09:55:41;4.12;143.56;2;15.00
2021-09-28 10:00:39;4.12;144.21;2;15.30
2021-09-28 10:05:42;4.12;143.88;2;15.10
2021-09-28 10:10:40;4.12;144.85;2;15.10
2021-09-28 10:15:38;4.12;144.85;2;15.00
2021-09-28 10:20:41;4.12;143.88;2;15.10
2021-09-28 10:25:39;4.12;144.85;2;15.20
2021-09-28 10:30:42;4.12;143.88;2;14.90
2021-09-28 10:35:40;4.12;144.85;2;15.00
2021-09-28 10:40:42;4.12;144.85;2;14.80
2021-09-28 10:45:40;4.12;144.53;2;14.70
2021-09-28 10:50:38;4.12;144.85;2;14.50
2021-09-28 10:55:41;4.12;144.85;2;14.50
2021-09-28 11:00:39;4.12;144.85;2;14.60
2021-09-28 11:05:42;4.12;143.24;2;14.60
2021-09-28 11:10:40;4.12;144.85;2;14.80
2021-09-28 11:15:42;4.12;144.53;2;14.60
2021-09-28 11:20:40;4.12;144.53;2;14.60
2021-09-28 11:25:38;4.12;144.53;2;14.60
2021-09-28 11:30:41;4.12;144.53;2;14.50
2021-09-28 11:35:39;4.12;144.53;2;14.50
2021-09-28 11:40:42;4.12;144.53;2;14.60
2021-09-28 11:45:40;4.12;144.53;2;14.80
2021-09-28 11:50:42;4.12;144.53;2;15.00
2021-09-28 11:55:40;4.12;144.53;2;15.10
2021-09-28 12:00:38;4.12;144.53;2;14.90
2021-09-28 12:05:41;4.12;143.24;2;15.30
2021-09-28 12:10:39;4.12;144.53;2;15.40
2021-09-28 12:15:42;4.12;144.53;2;15.40
2021-09-28 12:20:40;4.12;144.53;2;15.90
2021-09-28 12:25:38;4.12;144.53;2;16.00
2021-09-28 12:30:41;4.12;144.53;27;16.10
2021-09-28 12:35:39;4.12;144.53;25;16.10
2021-09-28 12:40:42;4.12;144.53;14;16.60
2021-09-28 12:45:40;4.12;143.56;55;16.40
2021-09-28 12:50:38;4.12;144.53;47;16.70
2021-09-28 12:55:41;4.12;145.17;34;17.30
2021-09-28 13:00:40;4.12;144.53;54;17.00
2021-09-28 13:05:43;4.12;144.85;81;17.00
2021-09-28 13:10:41;4.12;144.85;68;17.30
2021-09-28 13:15:39;4.12;145.98;91;17.90
2021-09-28 13:20:42;4.12;144.85;92;17.70
2021-09-28 13:25:41;4.13;146.30;95;18.40
2021-09-28 13:30:39;4.12;145.17;81;18.30
2021-09-28 13:35:42;4.12;146.30;99;18.20
2021-09-28 13:40:41;4.13;146.30;95;18.40
2021-09-28 13:45:39;4.13;145.17;99;18.30
2021-09-28 13:50:43;4.13;145.49;99;18.60
2021-09-28 13:55:41;4.13;145.17;99;19.40
2021-09-28 14:00:40;4.13;145.82;99;19.00
2021-09-28 14:05:43;4.13;146.62;99;19.20
2021-09-28 14:10:42;4.13;146.62;99;19.60
2021-09-28 14:15:40;4.13;145.49;99;20.20
2021-09-28 14:20:39;4.13;145.82;99;21.30
2021-09-28 14:25:43;4.13;146.62;99;21.10
2021-09-28 14:30:42;4.13;145.82;99;20.70
2021-09-28 14:35:40;4.13;145.49;99;21.30
2021-09-28 14:40:39;4.13;146.94;99;21.50
2021-09-28 14:45:43;4.13;145.82;99;21.90
2021-09-28 14:50:42;4.13;146.94;99;21.20
2021-09-28 14:55:41;4.13;145.98;99;21.60
2021-09-28 15:00:40;4.13;145.49;99;21.50
2021-09-28 15:05:39;4.13;145.98;99;21.70
2021-09-28 15:10:43;4.13;146.94;99;21.40
2021-09-28 15:15:42;4.13;146.94;99;21.10
2021-09-28 15:20:41;4.13;145.82;99;21.80
2021-09-28 15:25:41;4.13;145.49;99;21.60
2021-09-28 15:30:40;4.13;145.98;99;21.40
2021-09-28 15:35:43;4.13;146.94;99;22.30
2021-09-28 15:40:43;4.13;145.49;99;21.10
2021-09-28 15:45:42;4.13;145.82;99;20.80
2021-09-28 15:50:41;4.13;146.94;99;21.30
2021-09-28 15:55:40;4.13;146.94;99;21.10
2021-09-28 16:00:39;4.13;145.98;99;21.20
2021-09-28 16:05:43;4.13;145.98;99;21.60
2021-09-28 16:10:42;4.13;145.82;99;21.30
2021-09-28 16:15:41;4.13;145.82;99;21.90
2021-09-28 16:20:40;4.13;146.94;99;21.60
2021-09-28 16:25:40;4.13;147.27;99;21.80
2021-09-28 16:30:43;4.13;145.98;99;21.50
2021-09-28 16:35:43;4.13;145.82;99;21.10
2021-09-28 16:40:42;4.13;145.98;99;21.30
2021-09-28 16:45:41;4.13;147.27;99;21.30
2021-09-28 16:50:40;4.13;145.98;99;21.60
2021-09-28 16:55:39;4.13;145.98;99;21.40
2021-09-28 17:00:43;4.13;145.98;99;21.80
2021-09-28 17:05:42;4.13;147.59;99;21.60
2021-09-28 17:10:41;4.13;147.59;99;21.60
2021-09-28 17:15:40;4.13;147.27;99;21.50
2021-09-28 17:20:39;4.13;146.30;99;21.70
2021-09-28 17:25:43;4.13;145.98;99;21.80
2021-09-28 17:30:42;4.13;147.91;99;21.70
2021-09-28 17:35:41;4.13;145.98;99;22.00
2021-09-28 17:40:41;4.13;147.91;99;21.90
2021-09-28 17:45:40;4.13;145.98;99;22.20
2021-09-28 17:50:44;4.13;146.30;99;22.20
2021-09-28 17:55:43;4.13;147.91;99;22.20
2021-09-28 18:00:42;4.13;145.98;99;22.30
2021-09-28 18:05:41;4.13;145.98;99;22.20
2021-09-28 18:10:40;4.13;147.91;99;22.10
2021-09-28 18:15:39;4.13;147.91;99;22.00
2021-09-28 18:20:43;4.13;146.62;99;22.10
2021-09-28 18:25:42;4.13;147.59;99;21.90
2021-09-28 18:30:41;4.13;146.62;99;21.80
2021-09-28 18:35:40;4.13;146.30;99;21.70
2021-09-28 18:40:39;4.13;146.62;99;21.50
2021-09-28 18:45:43;4.13;145.98;99;21.50
2021-09-28 18:50:42;4.13;146.30;99;21.70
2021-09-28 18:55:41;4.13;146.62;99;21.10
2021-09-28 19:00:40;4.13;145.98;99;21.00
2021-09-28 19:05:39;4.13;147.27;99;20.90
2021-09-28 19:10:42;4.13;145.82;99;20.60
2021-09-28 19:15:41;4.13;146.94;99;20.30
2021-09-28 19:20:40;4.13;146.94;99;20.10
2021-09-28 19:25:39;4.13;146.94;99;20.00
2021-09-28 19:30:42;4.13;146.62;99;19.60
2021-09-28 19:35:41;4.13;147.27;99;19.50
2021-09-28 19:40:40;4.13;145.49;99;19.40
2021-09-28 19:45:43;4.13;145.82;99;19.30
2021-09-28 19:50:41;4.13;145.82;99;18.90
2021-09-28 19:55:40;4.13;145.17;99;19.00
2021-09-28 20:00:39;4.13;146.62;99;18.90
2021-09-28 20:05:42;4.13;145.17;99;18.70
2021-09-28 20:10:40;4.13;145.17;99;18.90
2021-09-28 20:15:39;4.13;145.17;99;18.50
2021-09-28 20:20:42;4.13;145.17;99;18.40
2021-09-28 20:25:40;4.13;145.49;99;18.10
2021-09-28 20:30:39;4.13;145.17;99;18.00
2021-09-28 20:35:42;4.13;145.98;99;17.70
2021-09-28 20:40:40;4.13;145.98;99;17.60
2021-09-28 20:45:39;4.13;145.98;99;17.60
2021-09-28 20:50:42;4.13;145.98;99;17.40
2021-09-28 20:55:40;4.13;145.98;99;17.50
2021-09-28 21:00:38;4.12;145.17;99;17.30
2021-09-28 21:05:41;4.13;145.17;99;17.40
2021-09-28 21:10:40;4.12;144.53;99;17.30
2021-09-28 21:15:43;4.12;144.53;99;17.10
2021-09-28 21:20:41;4.12;145.82;99;17.10
2021-09-28 21:25:39;4.12;144.85;99;16.70
2021-09-28 21:30:42;4.13;144.85;99;17.00
2021-09-28 21:35:40;4.12;145.82;99;16.90
2021-09-28 21:40:38;4.12;144.85;99;17.30
2021-09-28 21:45:41;4.12;144.21;99;17.10
2021-09-28 21:50:39;4.12;144.53;99;17.10
2021-09-28 21:55:42;4.12;144.21;99;17.00
2021-09-28 22:00:41;4.12;144.85;99;16.90
2021-09-28 22:05:39;4.12;145.82;99;16.70
2021-09-28 22:10:42;4.12;145.49;97;16.50
2021-09-28 22:15:40;4.12;145.49;94;16.40
2021-09-28 22:20:43;4.12;144.21;89;16.30
2021-09-28 22:25:41;4.12;145.82;90;16.10
2021-09-28 22:30:39;4.12;144.21;87;16.00
2021-09-28 22:35:42;4.12;144.21;88;16.10
2021-09-28 22:40:40;4.12;145.82;86;15.80
2021-09-28 22:45:42;4.12;144.53;84;15.90
2021-09-28 22:50:40;4.12;145.49;83;15.80
2021-09-28 22:55:38;4.12;145.49;81;15.70
2021-09-28 23:00:41;4.12;144.53;76;15.50
2021-09-28 23:05:39;4.12;145.49;80;15.90
2021-09-28 23:10:42;4.12;144.53;88;15.90
2021-09-28 23:15:40;4.12;144.21;84;15.80
2021-09-28 23:20:38;4.12;145.49;85;15.70
2021-09-28 23:25:41;4.12;145.49;86;16.00
2021-09-28 23:30:39;4.12;144.85;82;15.50
2021-09-28 23:35:41;4.12;145.49;75;15.70
2021-09-28 23:40:39;4.12;145.49;73;15.60
2021-09-28 23:45:42;4.12;144.53;70;15.10
2021-09-28 23:50:40;4.12;144.53;66;14.90
2021-09-28 23:55:38;4.12;143.88;62;14.80
