2022-01-30 00:00:39;3.17;99.57;2;18.90
2022-01-30 00:05:42;3.17;98.28;2;18.70
2022-01-30 00:10:41;3.17;99.25;2;18.90
2022-01-30 00:15:39;3.17;97.96;2;18.30
2022-01-30 00:20:42;3.17;97.96;2;18.30
2022-01-30 00:25:40;3.17;99.25;2;17.80
2022-01-30 00:30:38;3.17;98.28;2;18.20
2022-01-30 00:35:41;3.17;99.25;2;18.60
2022-01-30 00:40:40;3.17;99.25;2;18.40
2022-01-30 00:45:43;3.17;97.96;2;17.90
2022-01-30 00:50:41;3.16;99.57;2;18.00
2022-01-30 00:55:39;3.16;99.25;2;18.00
2022-01-30 01:00:42;3.16;99.57;2;18.00
2022-01-30 01:05:40;3.16;97.64;2;17.80
2022-01-30 01:10:39;3.16;97.96;2;17.60
2022-01-30 01:15:42;3.16;97.96;2;17.60
2022-01-30 01:20:40;3.16;99.25;2;17.60
2022-01-30 01:25:43;3.16;97.96;2;17.60
2022-01-30 01:30:41;3.16;97.64;2;17.40
2022-01-30 01:35:39;3.16;97.64;2;17.60
2022-01-30 01:40:42;3.16;97.96;2;17.70
2022-01-30 01:45:40;3.16;98.28;2;17.60
2022-01-30 01:50:38;3.16;98.93;2;17.80
2022-01-30 01:55:41;3.16;97.96;2;17.50
2022-01-30 02:00:39;3.16;99.25;2;17.80
2022-01-30 02:05:42;3.16;99.25;2;17.80
2022-01-30 02:10:40;3.16;99.25;2;17.30
2022-01-30 02:15:38;3.16;99.25;2;17.20
2022-01-30 02:20:41;3.16;97.96;2;16.80
2022-01-30 02:25:39;3.15;97.96;2;16.60
2022-01-30 02:30:42;3.15;98.28;2;16.80
2022-01-30 02:35:40;3.15;99.57;2;16.40
2022-01-30 02:40:38;3.15;99.25;2;16.50
2022-01-30 02:45:41;3.15;99.25;2;16.60
2022-01-30 02:50:39;3.15;99.25;2;16.50
2022-01-30 02:55:42;3.15;99.25;2;16.60
2022-01-30 03:00:40;3.15;98.93;2;16.50
2022-01-30 03:05:38;3.15;99.25;2;16.50
2022-01-30 03:10:41;3.15;99.25;2;16.30
2022-01-30 03:15:39;3.15;98.93;2;16.20
2022-01-30 03:20:42;3.15;97.96;2;16.20
2022-01-30 03:25:40;3.14;99.25;2;16.40
2022-01-30 03:30:42;3.15;99.25;2;15.90
2022-01-30 03:35:40;3.14;99.25;2;15.80
2022-01-30 03:40:38;3.15;97.64;2;15.90
2022-01-30 03:45:41;3.15;97.96;2;16.00
2022-01-30 03:50:39;3.15;98.93;2;15.50
2022-01-30 03:55:42;3.15;97.64;2;15.50
2022-01-30 04:00:40;3.14;99.57;2;15.40
2022-01-30 04:05:42;3.14;99.57;2;15.30
2022-01-30 04:10:40;3.14;99.57;2;15.60
2022-01-30 04:15:38;3.14;98.28;2;15.50
2022-01-30 04:20:41;3.14;98.28;2;15.20
2022-01-30 04:25:39;3.13;99.90;2;15.60
2022-01-30 04:30:41;3.14;98.28;2;15.50
2022-01-30 04:35:39;3.13;98.28;2;15.30
2022-01-30 04:40:42;3.13;98.28;2;15.20
2022-01-30 04:45:40;3.12;98.28;2;15.40
2022-01-30 04:50:42;3.13;99.90;2;15.20
2022-01-30 04:55:40;3.12;98.28;2;15.50
2022-01-30 05:00:38;3.12;98.28;2;15.70
2022-01-30 05:05:40;3.13;99.90;2;15.60
2022-01-30 05:10:38;3.12;99.90;2;15.40
2022-01-30 05:15:41;3.12;99.57;2;15.60
2022-01-30 05:20:39;3.11;98.61;2;15.60
2022-01-30 05:25:41;3.13;98.61;2;15.50
2022-01-30 05:30:39;3.07;98.61;2;15.30
2022-01-30 05:35:42;3.11;99.90;2;15.10
2022-01-30 05:40:39;3.10;99.57;2;15.20
2022-01-30 05:45:42;3.10;99.90;2;15.00
2022-01-30 05:50:40;3.09;98.28;2;14.60
2022-01-30 05:55:42;3.03;99.57;2;14.80
2022-01-30 06:00:40;3.12;99.90;2;14.70
2022-01-30 06:05:38;3.12;98.61;2;14.80
2022-01-30 06:10:40;3.11;98.61;2;14.60
2022-01-30 06:15:38;3.12;98.61;2;14.40
2022-01-30 06:20:41;3.12;98.61;2;14.10
2022-01-30 06:25:38;3.10;98.61;2;14.90
2022-01-30 06:30:41;3.08;98.61;2;14.90
2022-01-30 06:35:39;3.02;98.61;2;14.80
2022-01-30 06:40:41;3.13;99.57;2;14.90
2022-01-30 06:45:39;3.14;99.57;2;14.80
2022-01-30 06:50:41;3.14;99.90;2;14.80
2022-01-30 06:55:39;3.14;98.61;2;15.00
2022-01-30 07:00:42;3.13;98.28;2;15.50
2022-01-30 07:05:39;3.13;99.57;2;16.20
2022-01-30 07:10:42;3.13;99.57;2;16.40
2022-01-30 07:15:40;3.14;98.28;2;17.20
2022-01-30 07:20:42;3.13;99.57;2;17.60
2022-01-30 07:25:40;3.13;98.28;2;19.10
2022-01-30 07:30:38;3.13;98.28;2;20.00
2022-01-30 07:35:41;3.12;99.57;2;20.80
2022-01-30 07:40:39;3.11;98.28;2;21.20
2022-01-30 07:45:42;3.12;98.28;97;21.30
2022-01-30 07:50:40;3.09;99.25;99;21.50
2022-01-30 07:55:38;3.10;97.96;99;22.20
2022-01-30 08:00:41;3.11;97.96;99;22.90
2022-01-30 08:05:40;3.11;97.96;99;23.90
2022-01-30 08:10:43;3.10;99.57;99;24.50
2022-01-30 08:15:41;3.09;98.28;99;25.50
2022-01-30 08:20:40;3.08;99.25;99;26.70
2022-01-30 08:25:39;3.01;98.28;99;27.00
2022-01-30 08:30:42;3.11;97.96;99;26.50
2022-01-30 08:35:41;3.11;97.96;99;26.30
2022-01-30 08:40:40;3.11;97.96;98;27.00
2022-01-30 08:45:43;3.11;99.25;99;26.10
2022-01-30 08:50:42;3.11;99.25;99;25.80
2022-01-30 08:55:41;3.11;99.25;99;25.80
2022-01-30 09:00:40;3.11;97.64;99;26.80
2022-01-30 09:05:39;3.10;99.25;97;28.10
2022-01-30 09:10:43;3.10;97.96;91;29.10
2022-01-30 09:15:43;3.10;97.96;88;30.20
2022-01-30 09:20:42;3.11;97.96;86;31.90
2022-01-30 09:25:41;3.11;97.64;81;32.50
2022-01-30 09:30:41;3.11;99.25;83;31.00
2022-01-30 09:35:40;3.11;98.93;81;32.70
2022-01-30 09:40:40;3.11;97.96;80;32.50
2022-01-30 09:45:40;3.11;99.25;82;32.70
2022-01-30 09:50:40;3.10;99.25;82;33.70
2022-01-30 09:55:40;3.10;97.96;77;35.20
2022-01-30 10:00:40;3.10;97.96;74;35.90
2022-01-30 10:05:40;3.10;97.64;70;37.10
2022-01-30 10:10:41;3.10;98.93;70;37.30
2022-01-30 10:15:41;3.09;98.93;70;37.60
2022-01-30 10:20:42;3.09;97.64;69;37.70
2022-01-30 10:25:42;3.09;97.64;69;37.40
2022-01-30 10:30:43;3.08;98.93;66;37.60
2022-01-30 10:35:44;3.08;97.64;65;38.20
2022-01-30 10:40:40;3.08;97.64;65;38.20
2022-01-30 10:45:41;3.08;98.93;64;38.20
2022-01-30 10:50:42;3.08;98.93;65;38.00
2022-01-30 10:55:43;3.08;97.64;65;38.30
2022-01-30 11:00:45;3.08;98.93;64;38.00
2022-01-30 11:05:41;3.07;98.93;63;39.10
2022-01-30 11:10:42;3.07;98.93;64;39.40
2022-01-30 11:15:44;3.08;97.64;60;39.30
2022-01-30 11:20:45;3.09;97.64;60;38.60
2022-01-30 11:25:42;3.09;97.64;62;38.70
2022-01-30 11:30:44;3.09;97.64;60;39.30
2022-01-30 11:35:45;3.09;98.93;59;39.40
2022-01-30 11:40:42;3.08;97.64;56;40.00
2022-01-30 11:45:44;3.08;97.64;57;40.10
2022-01-30 11:50:41;3.07;97.48;60;37.40
2022-01-30 11:55:43;3.07;97.96;60;37.90
2022-01-30 12:00:45;3.07;99.25;60;39.00
2022-01-30 12:05:42;3.07;99.25;55;39.50
2022-01-30 12:10:44;3.06;99.25;57;39.40
2022-01-30 12:15:45;3.06;99.25;56;39.70
2022-01-30 12:20:43;3.05;98.28;55;40.00
2022-01-30 12:25:45;3.01;99.57;60;38.90
2022-01-30 12:30:42;3.08;99.57;54;39.50
2022-01-30 12:35:44;3.08;98.28;61;38.50
2022-01-30 12:40:46;3.08;99.90;57;40.00
2022-01-30 12:45:43;3.08;99.90;55;39.10
2022-01-30 12:50:45;3.08;99.90;59;37.20
2022-01-30 12:55:43;3.08;98.61;55;37.40
2022-01-30 13:00:45;3.08;98.61;60;37.30
2022-01-30 13:05:42;3.07;99.90;57;39.40
2022-01-30 13:10:44;3.08;100.22;53;38.70
2022-01-30 13:15:42;3.09;100.22;54;39.50
2022-01-30 13:20:44;3.08;98.93;55;39.50
2022-01-30 13:25:46;3.08;98.93;56;39.70
2022-01-30 13:30:43;3.08;100.54;54;40.40
2022-01-30 13:35:45;3.08;100.54;55;39.30
2022-01-30 13:40:43;3.07;98.93;55;40.30
2022-01-30 13:45:45;3.07;100.22;56;39.60
2022-01-30 13:50:42;3.07;100.54;53;39.30
2022-01-30 13:55:45;3.07;98.93;58;39.10
2022-01-30 14:00:42;3.07;98.93;59;39.90
2022-01-30 14:05:44;3.07;100.54;57;39.40
2022-01-30 14:10:42;3.06;100.54;57;39.10
2022-01-30 14:15:44;3.05;100.54;54;39.80
2022-01-30 14:20:46;3.04;98.93;55;39.00
2022-01-30 14:25:44;2.98;99.25;54;38.80
2022-01-30 14:30:46;3.06;100.54;57;39.10
2022-01-30 14:35:43;3.04;99.25;58;38.30
2022-01-30 14:40:46;3.07;100.54;56;40.30
2022-01-30 14:45:43;3.07;99.25;53;38.90
2022-01-30 14:50:46;3.08;99.25;53;37.80
2022-01-30 14:55:43;3.09;100.54;59;38.00
2022-01-30 15:00:46;3.09;99.25;60;40.20
2022-01-30 15:05:43;3.09;99.25;55;40.70
2022-01-30 15:10:46;3.10;99.25;57;40.30
2022-01-30 15:15:43;3.10;98.93;56;40.90
2022-01-30 15:20:46;3.09;98.93;55;41.50
2022-01-30 15:25:43;3.09;100.54;57;42.40
2022-01-30 15:30:46;3.10;100.54;49;42.60
2022-01-30 15:35:43;3.09;100.54;54;41.90
2022-01-30 15:40:46;3.09;100.22;55;41.70
2022-01-30 15:45:44;3.09;100.54;49;42.20
2022-01-30 15:50:46;3.09;99.25;53;42.60
2022-01-30 15:55:44;3.09;99.25;52;42.90
2022-01-30 16:00:42;3.09;99.25;50;42.10
2022-01-30 16:05:44;3.09;98.93;55;42.20
2022-01-30 16:10:42;3.09;98.93;53;42.80
2022-01-30 16:15:44;3.09;100.54;53;42.50
2022-01-30 16:20:42;3.09;98.93;53;42.50
2022-01-30 16:25:44;3.09;100.54;50;42.80
2022-01-30 16:30:42;3.09;100.22;52;42.60
2022-01-30 16:35:44;3.09;100.54;51;42.70
2022-01-30 16:40:42;3.09;100.22;53;42.60
2022-01-30 16:45:44;3.09;100.54;48;42.40
2022-01-30 16:50:42;3.09;100.22;51;42.40
2022-01-30 16:55:44;3.09;98.93;47;42.40
2022-01-30 17:00:42;3.09;98.61;48;42.50
2022-01-30 17:05:44;3.09;99.90;49;41.50
2022-01-30 17:10:41;3.09;99.90;49;41.40
2022-01-30 17:15:43;3.09;99.90;49;41.10
2022-01-30 17:20:45;3.09;98.61;49;41.10
2022-01-30 17:25:43;3.09;99.90;51;40.50
2022-01-30 17:30:45;3.09;100.54;52;41.10
2022-01-30 17:35:42;3.09;100.54;50;41.40
2022-01-30 17:40:43;3.09;98.93;50;41.40
2022-01-30 17:45:45;3.09;100.54;51;40.20
2022-01-30 17:50:42;3.09;99.25;59;39.40
2022-01-30 17:55:44;3.09;99.25;57;38.00
2022-01-30 18:00:45;3.09;99.25;58;36.90
2022-01-30 18:05:42;3.09;99.25;60;36.30
2022-01-30 18:10:43;3.09;99.57;61;36.40
2022-01-30 18:15:44;3.09;100.86;58;36.80
2022-01-30 18:20:41;3.09;99.57;61;37.70
2022-01-30 18:25:42;3.09;99.57;61;37.50
2022-01-30 18:30:43;3.09;100.86;59;36.90
2022-01-30 18:35:44;3.09;99.57;63;36.20
2022-01-30 18:40:41;3.09;100.86;65;35.20
2022-01-30 18:45:41;3.09;100.86;61;34.20
2022-01-30 18:50:42;3.09;100.86;66;33.30
2022-01-30 18:55:43;3.09;100.86;66;32.70
2022-01-30 19:00:44;3.09;99.57;68;32.80
2022-01-30 19:05:40;3.09;99.25;65;32.50
2022-01-30 19:10:41;3.09;100.86;67;32.20
2022-01-30 19:15:41;3.09;100.86;73;31.90
2022-01-30 19:20:42;3.09;99.57;71;31.40
2022-01-30 19:25:42;3.09;100.86;74;31.20
2022-01-30 19:30:42;3.09;99.25;79;30.90
2022-01-30 19:35:43;3.09;100.54;82;30.30
2022-01-30 19:40:43;3.09;99.25;83;29.70
2022-01-30 19:45:43;3.09;100.54;88;29.40
2022-01-30 19:50:44;3.09;99.25;87;28.20
2022-01-30 19:55:44;3.09;98.93;97;27.50
2022-01-30 20:00:44;3.09;100.86;92;26.90
2022-01-30 20:05:44;3.09;100.86;99;26.30
2022-01-30 20:10:44;3.09;100.86;99;25.60
2022-01-30 20:15:43;3.09;100.86;99;24.90
2022-01-30 20:20:43;3.08;99.25;99;24.20
2022-01-30 20:25:43;3.08;100.54;99;23.50
2022-01-30 20:30:42;3.08;99.25;99;23.10
2022-01-30 20:35:42;3.08;99.25;99;22.50
2022-01-30 20:40:41;3.08;99.25;99;22.20
2022-01-30 20:45:40;3.08;100.54;99;22.40
2022-01-30 20:50:40;3.08;100.54;99;22.10
2022-01-30 20:55:44;3.08;98.93;97;21.80
2022-01-30 21:00:43;3.08;100.54;97;21.60
2022-01-30 21:05:42;3.08;100.54;73;21.60
2022-01-30 21:10:41;3.09;98.93;52;21.00
2022-01-30 21:15:40;3.08;100.54;80;21.10
2022-01-30 21:20:39;3.08;98.93;2;21.30
2022-01-30 21:25:43;3.08;98.61;2;21.20
2022-01-30 21:30:42;3.08;98.61;10;21.30
2022-01-30 21:35:40;3.08;98.61;16;21.10
2022-01-30 21:40:39;3.08;98.61;17;21.00
2022-01-30 21:45:43;3.08;100.22;2;21.10
2022-01-30 21:50:42;3.08;100.22;95;21.50
2022-01-30 21:55:41;3.08;99.90;92;21.40
2022-01-30 22:00:39;3.08;99.90;41;21.00
2022-01-30 22:05:43;3.08;98.93;3;20.80
2022-01-30 22:10:42;3.08;98.28;2;20.50
2022-01-30 22:15:40;3.08;98.61;2;20.60
2022-01-30 22:20:39;3.08;99.57;2;19.70
2022-01-30 22:25:42;3.08;99.57;2;19.90
2022-01-30 22:30:41;3.08;99.90;2;19.70
2022-01-30 22:35:40;3.08;99.57;2;20.20
2022-01-30 22:40:43;3.08;98.28;2;20.00
2022-01-30 22:45:42;3.07;99.25;2;19.50
2022-01-30 22:50:40;3.08;98.28;2;19.60
2022-01-30 22:55:39;3.07;98.28;2;19.40
2022-01-30 23:00:42;3.07;99.25;2;19.50
2022-01-30 23:05:41;3.07;99.25;2;19.50
2022-01-30 23:10:39;3.07;99.25;2;19.40
2022-01-30 23:15:42;3.07;97.96;2;19.30
2022-01-30 23:20:41;3.07;98.28;2;19.10
2022-01-30 23:25:39;3.07;97.64;2;18.90
2022-01-30 23:30:42;3.07;99.25;2;18.80
2022-01-30 23:35:41;3.07;97.64;2;18.60
2022-01-30 23:40:39;3.07;97.96;2;19.30
2022-01-30 23:45:43;3.07;99.25;2;18.70
2022-01-30 23:50:41;3.07;99.25;2;18.90
2022-01-30 23:55:39;3.07;97.96;2;18.60
