2022-01-07 00:00:41;3.69;111.01;2;14.40
2022-01-07 00:05:39;3.69;111.34;2;14.40
2022-01-07 00:10:41;3.69;111.34;2;14.70
2022-01-07 00:15:39;3.69;109.89;2;14.10
2022-01-07 00:20:42;3.69;111.34;2;14.30
2022-01-07 00:25:40;3.69;110.05;2;13.90
2022-01-07 00:30:42;3.69;111.34;2;14.10
2022-01-07 00:35:40;3.69;109.89;2;14.10
2022-01-07 00:40:38;3.69;109.89;2;14.10
2022-01-07 00:45:41;3.69;109.89;2;13.80
2022-01-07 00:50:38;3.69;110.05;2;13.70
2022-01-07 00:55:41;3.69;111.34;2;14.00
2022-01-07 01:00:39;3.69;110.05;2;13.70
2022-01-07 01:05:41;3.69;109.89;2;13.80
2022-01-07 01:10:39;3.69;111.34;2;13.30
2022-01-07 01:15:41;3.69;109.89;2;14.20
2022-01-07 01:20:39;3.69;109.89;2;13.60
2022-01-07 01:25:42;3.69;109.89;2;13.70
2022-01-07 01:30:39;3.69;111.01;2;13.50
2022-01-07 01:35:42;3.69;109.89;2;13.20
2022-01-07 01:40:40;3.69;111.01;2;13.10
2022-01-07 01:45:42;3.69;109.89;2;13.20
2022-01-07 01:50:40;3.69;110.05;2;13.10
2022-01-07 01:55:42;3.69;111.34;2;13.20
2022-01-07 02:00:40;3.69;109.89;2;12.70
2022-01-07 02:05:38;3.69;109.89;2;12.90
2022-01-07 02:10:40;3.69;109.89;2;13.00
2022-01-07 02:15:38;3.69;111.34;2;13.10
2022-01-07 02:20:40;3.69;110.05;2;13.10
2022-01-07 02:25:38;3.69;111.01;2;12.70
2022-01-07 02:30:40;3.69;110.05;2;12.80
2022-01-07 02:35:38;3.69;111.34;2;12.60
2022-01-07 02:40:40;3.69;110.69;2;12.80
2022-01-07 02:45:38;3.69;109.89;2;12.70
2022-01-07 02:50:40;3.69;109.89;2;12.80
2022-01-07 02:55:38;3.69;111.34;2;12.80
2022-01-07 03:00:40;3.69;111.01;2;12.60
2022-01-07 03:05:38;3.69;109.89;2;12.90
2022-01-07 03:10:40;3.69;109.56;2;12.50
2022-01-07 03:15:38;3.69;110.69;2;12.70
2022-01-07 03:20:40;3.69;110.69;2;12.40
2022-01-07 03:25:38;3.69;109.89;2;12.70
2022-01-07 03:30:40;3.69;111.01;2;12.50
2022-01-07 03:35:38;3.69;109.56;2;12.40
2022-01-07 03:40:40;3.69;111.01;2;12.80
2022-01-07 03:45:38;3.69;110.69;2;12.70
2022-01-07 03:50:40;3.69;109.56;2;12.60
2022-01-07 03:55:38;3.69;109.56;2;12.40
2022-01-07 04:00:40;3.69;109.56;2;12.40
2022-01-07 04:05:42;3.69;111.01;2;12.70
2022-01-07 04:10:40;3.69;109.56;2;12.60
2022-01-07 04:15:42;3.69;110.69;2;12.20
2022-01-07 04:20:40;3.69;110.37;2;12.40
2022-01-07 04:25:42;3.69;111.01;2;12.40
2022-01-07 04:30:40;3.69;110.37;2;12.20
2022-01-07 04:35:42;3.69;109.56;2;12.50
2022-01-07 04:40:39;3.69;111.01;2;12.70
2022-01-07 04:45:42;3.69;110.37;2;12.30
2022-01-07 04:50:39;3.69;109.24;2;12.10
2022-01-07 04:55:41;3.69;109.89;2;12.40
2022-01-07 05:00:39;3.69;109.56;2;12.10
2022-01-07 05:05:41;3.69;109.56;2;12.20
2022-01-07 05:10:39;3.69;110.69;2;12.30
2022-01-07 05:15:41;3.69;109.89;2;13.10
2022-01-07 05:20:39;3.69;109.89;2;12.90
2022-01-07 05:25:41;3.69;111.01;2;12.80
2022-01-07 05:30:39;3.69;111.01;2;13.30
2022-01-07 05:35:41;3.69;111.01;2;13.70
2022-01-07 05:40:38;3.69;109.89;2;13.40
2022-01-07 05:45:41;3.69;109.56;2;13.30
2022-01-07 05:50:38;3.69;110.37;2;13.50
2022-01-07 05:55:41;3.69;110.69;2;13.40
2022-01-07 06:00:38;3.69;109.89;2;13.30
2022-01-07 06:05:41;3.69;109.56;2;13.50
2022-01-07 06:10:38;3.69;111.01;2;13.60
2022-01-07 06:15:41;3.69;110.69;2;13.50
2022-01-07 06:20:38;3.69;109.56;2;13.10
2022-01-07 06:25:41;3.69;111.01;2;13.40
2022-01-07 06:30:38;3.69;110.37;2;13.50
2022-01-07 06:35:41;3.69;110.69;2;13.90
2022-01-07 06:40:38;3.69;109.56;2;14.00
2022-01-07 06:45:41;3.69;109.24;2;14.20
2022-01-07 06:50:38;3.69;109.56;2;14.80
2022-01-07 06:55:41;3.69;111.01;2;15.20
2022-01-07 07:00:39;3.69;109.56;2;15.40
2022-01-07 07:05:41;3.69;109.24;2;15.90
2022-01-07 07:10:39;3.69;109.24;2;16.40
2022-01-07 07:15:41;3.69;108.92;2;17.50
2022-01-07 07:20:39;3.69;110.69;2;17.70
2022-01-07 07:25:42;3.69;108.92;32;18.00
2022-01-07 07:30:40;3.69;109.24;72;18.60
2022-01-07 07:35:38;3.69;110.37;99;19.30
2022-01-07 07:40:41;3.69;109.24;97;19.70
2022-01-07 07:45:39;3.69;110.69;99;19.60
2022-01-07 07:50:42;3.69;109.24;99;20.70
2022-01-07 07:55:40;3.69;110.37;99;21.60
2022-01-07 08:00:38;3.69;110.69;99;22.60
2022-01-07 08:05:41;3.69;108.92;98;23.90
2022-01-07 08:10:40;3.69;108.92;96;24.80
2022-01-07 08:15:43;3.69;110.05;93;25.10
2022-01-07 08:20:42;3.69;108.92;92;25.80
2022-01-07 08:25:40;3.69;108.92;90;25.80
2022-01-07 08:30:39;3.69;109.24;89;26.20
2022-01-07 08:35:43;3.69;108.92;86;27.20
2022-01-07 08:40:42;3.69;108.92;86;27.10
2022-01-07 08:45:41;3.69;108.92;85;27.60
2022-01-07 08:50:41;3.68;110.69;83;27.90
2022-01-07 08:55:40;3.68;110.37;82;28.40
2022-01-07 09:00:39;3.69;110.37;81;28.80
2022-01-07 09:05:44;3.68;108.92;80;29.00
2022-01-07 09:10:43;3.68;110.69;79;29.50
2022-01-07 09:15:43;3.68;110.69;79;29.70
2022-01-07 09:20:43;3.68;110.69;77;30.30
2022-01-07 09:25:43;3.68;108.92;77;30.70
2022-01-07 09:30:43;3.68;108.92;75;31.10
2022-01-07 09:35:43;3.68;108.92;74;32.00
2022-01-07 09:40:43;3.68;108.92;72;31.90
2022-01-07 09:45:44;3.68;110.05;73;31.60
2022-01-07 09:50:44;3.68;108.92;72;32.20
2022-01-07 09:55:40;3.68;110.05;70;32.60
2022-01-07 10:00:45;3.68;110.05;72;32.90
2022-01-07 10:05:41;3.68;108.60;69;33.50
2022-01-07 10:10:41;3.68;110.05;68;33.60
2022-01-07 10:15:42;3.68;108.92;68;34.30
2022-01-07 10:20:43;3.68;108.92;67;34.70
2022-01-07 10:25:44;3.68;110.05;66;33.60
2022-01-07 10:30:45;3.68;108.60;66;33.50
2022-01-07 10:35:41;3.68;108.60;66;34.10
2022-01-07 10:40:42;3.68;110.05;65;34.60
2022-01-07 10:45:43;3.68;108.60;64;34.70
2022-01-07 10:50:44;3.68;108.92;65;34.80
2022-01-07 10:55:41;3.68;108.60;64;34.70
2022-01-07 11:00:42;3.68;110.05;66;34.70
2022-01-07 11:05:43;3.68;108.27;61;35.00
2022-01-07 11:10:44;3.68;110.05;64;34.60
2022-01-07 11:15:41;3.68;108.27;63;35.70
2022-01-07 11:20:42;3.68;110.05;61;37.00
2022-01-07 11:25:44;3.68;110.37;59;37.40
2022-01-07 11:30:45;3.68;108.92;59;36.40
2022-01-07 11:35:42;3.68;108.60;60;36.00
2022-01-07 11:40:44;3.68;108.60;57;37.50
2022-01-07 11:45:45;3.68;108.60;58;37.30
2022-01-07 11:50:42;3.68;108.60;55;37.90
2022-01-07 11:55:44;3.68;110.37;56;37.80
2022-01-07 12:00:41;3.68;110.05;56;38.30
2022-01-07 12:05:43;3.68;110.05;56;39.00
2022-01-07 12:10:45;3.68;110.37;55;38.20
2022-01-07 12:15:42;3.68;108.92;56;38.40
2022-01-07 12:20:45;3.68;110.05;55;38.40
2022-01-07 12:25:42;3.68;110.05;56;37.40
2022-01-07 12:30:44;3.68;110.37;57;38.20
2022-01-07 12:35:41;3.68;110.37;52;38.40
2022-01-07 12:40:44;3.68;110.37;53;38.90
2022-01-07 12:45:46;3.68;108.60;51;39.60
2022-01-07 12:50:43;3.68;110.37;51;39.90
2022-01-07 12:55:46;3.68;108.92;53;39.40
2022-01-07 13:00:43;3.68;110.37;53;39.40
2022-01-07 13:05:46;3.68;108.92;53;39.80
2022-01-07 13:10:44;3.68;108.60;51;39.80
2022-01-07 13:15:46;3.68;110.37;51;39.60
2022-01-07 13:20:44;3.68;109.56;51;39.60
2022-01-07 13:25:46;3.68;109.24;50;40.20
2022-01-07 13:30:44;3.68;109.56;51;39.90
2022-01-07 13:35:42;3.68;109.56;51;40.70
2022-01-07 13:40:45;3.68;109.24;49;41.30
2022-01-07 13:45:42;3.68;110.69;47;41.60
2022-01-07 13:50:45;3.68;110.69;50;40.40
2022-01-07 13:55:43;3.68;109.24;52;40.10
2022-01-07 14:00:46;3.68;109.24;51;40.60
2022-01-07 14:05:44;3.68;110.69;49;39.80
2022-01-07 14:10:42;3.68;110.37;49;40.50
2022-01-07 14:15:45;3.68;110.69;47;41.30
2022-01-07 14:20:43;3.68;111.01;50;41.00
2022-01-07 14:25:46;3.68;110.69;47;41.40
2022-01-07 14:30:44;3.68;109.24;46;41.30
2022-01-07 14:35:42;3.68;110.69;48;40.40
2022-01-07 14:40:45;3.68;109.56;46;40.70
2022-01-07 14:45:43;3.68;109.89;47;41.40
2022-01-07 14:50:46;3.68;111.34;46;41.00
2022-01-07 14:55:45;3.68;109.56;45;40.80
2022-01-07 15:00:43;3.68;109.89;46;41.40
2022-01-07 15:05:46;3.68;111.34;46;41.10
2022-01-07 15:10:44;3.68;110.05;47;40.80
2022-01-07 15:15:42;3.68;109.89;47;41.30
2022-01-07 15:20:45;3.68;111.34;48;41.10
2022-01-07 15:25:44;3.68;111.34;47;41.70
2022-01-07 15:30:47;3.68;110.37;46;41.50
2022-01-07 15:35:45;3.68;110.05;46;41.40
2022-01-07 15:40:43;3.68;111.34;45;41.40
2022-01-07 15:45:47;3.68;111.66;46;41.30
2022-01-07 15:50:45;3.68;111.66;46;41.50
2022-01-07 15:55:43;3.68;111.66;47;41.80
2022-01-07 16:00:46;3.68;110.37;47;41.80
2022-01-07 16:05:45;3.68;110.69;43;41.80
2022-01-07 16:10:43;3.68;111.66;46;40.40
2022-01-07 16:15:46;3.68;110.05;47;40.90
2022-01-07 16:20:44;3.68;110.37;49;40.70
2022-01-07 16:25:43;3.68;110.69;47;41.40
2022-01-07 16:30:46;3.68;111.66;46;41.40
2022-01-07 16:35:44;3.68;111.66;48;40.90
2022-01-07 16:40:42;3.68;110.37;47;40.70
2022-01-07 16:45:45;3.68;110.69;46;41.30
2022-01-07 16:50:43;3.68;111.98;46;40.10
2022-01-07 16:55:46;3.68;111.98;49;39.30
2022-01-07 17:00:44;3.68;110.69;47;39.80
2022-01-07 17:05:42;3.68;110.37;48;40.20
2022-01-07 17:10:45;3.68;111.98;50;39.10
2022-01-07 17:15:43;3.68;110.37;47;39.60
2022-01-07 17:20:46;3.68;110.05;48;39.10
2022-01-07 17:25:43;3.68;111.98;49;39.20
2022-01-07 17:30:46;3.68;111.66;49;38.90
2022-01-07 17:35:44;3.68;111.66;49;38.80
2022-01-07 17:40:46;3.68;111.66;51;38.60
2022-01-07 17:45:44;3.68;110.37;53;37.10
2022-01-07 17:50:42;3.68;111.66;50;37.50
2022-01-07 17:55:44;3.68;111.66;52;37.60
2022-01-07 18:00:42;3.68;111.66;51;37.50
2022-01-07 18:05:44;3.68;110.37;49;37.80
2022-01-07 18:10:46;3.68;111.34;51;37.60
2022-01-07 18:15:43;3.68;111.66;52;35.80
2022-01-07 18:20:45;3.68;110.37;56;34.60
2022-01-07 18:25:42;3.68;110.05;58;33.90
2022-01-07 18:30:44;3.68;111.66;56;34.30
2022-01-07 18:35:45;3.68;110.05;58;34.20
2022-01-07 18:40:42;3.68;110.05;58;34.50
2022-01-07 18:45:43;3.68;110.37;57;34.70
2022-01-07 18:50:45;3.68;110.05;59;33.90
2022-01-07 18:55:41;3.68;111.34;60;33.00
2022-01-07 19:00:43;3.68;111.34;61;32.70
2022-01-07 19:05:44;3.68;110.05;60;33.60
2022-01-07 19:10:45;3.68;110.05;59;34.20
2022-01-07 19:15:41;3.68;111.01;58;34.80
2022-01-07 19:20:42;3.68;110.05;60;34.00
2022-01-07 19:25:43;3.68;111.34;60;33.20
2022-01-07 19:30:44;3.68;110.05;63;32.60
2022-01-07 19:35:40;3.68;111.34;64;31.90
2022-01-07 19:40:41;3.68;109.89;66;31.10
2022-01-07 19:45:42;3.68;111.01;67;30.60
2022-01-07 19:50:43;3.68;111.01;70;30.00
2022-01-07 19:55:43;3.68;109.56;73;28.90
2022-01-07 20:00:44;3.68;109.56;74;28.40
2022-01-07 20:05:44;3.68;109.56;77;27.90
2022-01-07 20:10:40;3.68;109.56;80;27.00
2022-01-07 20:15:44;3.68;109.56;83;26.40
2022-01-07 20:20:40;3.68;110.69;86;26.20
2022-01-07 20:25:45;3.68;110.69;89;25.50
2022-01-07 20:30:40;3.68;110.69;92;24.70
2022-01-07 20:35:44;3.68;109.56;92;24.30
2022-01-07 20:40:39;3.68;109.56;94;24.00
2022-01-07 20:45:44;3.68;109.56;95;23.90
2022-01-07 20:50:43;3.68;109.24;95;23.70
2022-01-07 20:55:43;3.68;110.69;96;23.70
2022-01-07 21:00:42;3.68;110.69;96;23.90
2022-01-07 21:05:42;3.68;110.37;95;23.70
2022-01-07 21:10:41;3.68;108.92;95;24.00
2022-01-07 21:15:41;3.68;108.92;93;24.30
2022-01-07 21:20:40;3.68;110.37;94;24.10
2022-01-07 21:25:39;3.68;108.92;95;23.90
2022-01-07 21:30:43;3.68;108.92;95;23.90
2022-01-07 21:35:43;3.68;108.60;95;24.10
2022-01-07 21:40:42;3.68;110.05;95;23.90
2022-01-07 21:45:41;3.68;110.37;95;24.10
2022-01-07 21:50:41;3.68;110.05;95;24.00
2022-01-07 21:55:40;3.68;109.89;95;24.20
2022-01-07 22:00:44;3.68;108.60;94;24.30
2022-01-07 22:05:43;3.68;108.27;93;24.50
2022-01-07 22:10:42;3.68;108.60;94;24.30
2022-01-07 22:15:42;3.68;108.27;95;23.90
2022-01-07 22:20:41;3.68;108.60;95;23.70
2022-01-07 22:25:40;3.68;108.27;96;23.80
2022-01-07 22:30:39;3.68;109.56;97;23.50
2022-01-07 22:35:43;3.68;109.56;98;22.80
2022-01-07 22:40:42;3.68;109.56;99;22.80
2022-01-07 22:45:41;3.68;108.60;99;22.50
2022-01-07 22:50:41;3.68;109.56;99;22.50
2022-01-07 22:55:40;3.68;108.27;99;22.00
2022-01-07 23:00:43;3.68;108.27;99;22.20
2022-01-07 23:05:42;3.68;107.95;99;22.10
2022-01-07 23:10:42;3.68;107.95;99;21.90
2022-01-07 23:15:41;3.68;108.27;99;21.90
2022-01-07 23:20:40;3.68;107.95;99;21.80
2022-01-07 23:25:43;3.68;109.24;99;21.70
2022-01-07 23:30:42;3.68;109.56;99;21.40
2022-01-07 23:35:41;3.68;109.56;99;21.10
2022-01-07 23:40:40;3.68;108.27;97;20.80
2022-01-07 23:45:39;3.68;108.92;96;20.50
2022-01-07 23:50:43;3.68;109.56;91;20.40
2022-01-07 23:55:41;3.68;108.92;87;20.00
