2022-03-06 00:06:35;3.70;85.07;2;21.80
2022-03-06 00:14:48;3.70;86.20;2;21.90
2022-03-06 00:15:09;3.70;85.07;2;21.60
2022-03-06 00:26:47;3.70;85.07;2;21.70
2022-03-06 00:34:30;3.70;84.75;2;22.20
2022-03-06 00:35:30;3.70;86.20;2;21.90
2022-03-06 00:46:20;3.70;85.88;2;21.70
2022-03-06 00:55:11;3.70;85.88;2;21.60
2022-03-06 01:06:50;3.70;86.20;2;21.60
2022-03-06 01:14:23;3.70;85.07;2;21.30
2022-03-06 01:15:42;3.70;85.07;2;21.30
2022-03-06 01:26:02;3.70;86.52;2;21.40
2022-03-06 01:35:33;3.69;85.07;2;21.60
2022-03-06 01:46:13;3.69;86.52;2;21.70
2022-03-06 01:55:14;3.69;85.88;2;21.60
2022-03-06 02:06:43;3.69;86.20;2;21.70
2022-03-06 02:14:36;3.69;86.20;2;21.80
2022-03-06 02:15:26;3.69;85.07;2;21.80
2022-03-06 02:26:25;3.69;86.20;2;22.00
2022-03-06 02:34:57;3.69;86.52;2;21.90
2022-03-06 02:35:08;3.68;85.07;2;21.80
2022-03-06 02:46:47;3.68;86.20;2;21.80
2022-03-06 02:54:29;3.68;85.88;2;21.80
2022-03-06 02:55:29;3.68;85.88;2;21.90
2022-03-06 03:06:19;3.68;85.07;2;21.80
2022-03-06 03:15:11;3.68;86.52;2;22.00
2022-03-06 03:26:49;3.68;85.40;2;21.70
2022-03-06 03:34:22;3.68;85.07;2;21.70
2022-03-06 03:35:42;3.68;85.56;2;21.40
2022-03-06 03:46:02;3.68;86.52;2;21.50
2022-03-06 03:55:33;3.67;86.52;2;21.70
2022-03-06 04:06:12;3.67;85.40;2;21.40
2022-03-06 04:15:14;3.67;85.40;2;21.50
2022-03-06 04:26:43;3.67;85.56;2;21.60
2022-03-06 04:34:35;3.67;85.40;2;21.60
2022-03-06 04:35:25;3.67;86.52;2;21.60
2022-03-06 04:46:25;3.67;86.20;2;21.60
2022-03-06 04:54:57;3.67;85.40;10;21.60
2022-03-06 04:55:08;3.66;86.85;8;21.80
2022-03-06 05:06:56;3.67;86.52;2;21.50
2022-03-06 05:14:09;3.66;86.85;9;21.60
2022-03-06 05:15:58;3.66;85.40;2;21.50
2022-03-06 05:25:39;3.66;85.40;2;21.50
2022-03-06 05:36:09;3.66;85.40;2;21.60
2022-03-06 05:45:20;3.66;86.85;2;21.60
2022-03-06 05:56:29;3.66;85.56;2;21.60
2022-03-06 06:04:51;3.66;85.40;2;21.60
2022-03-06 06:05:02;3.65;85.40;2;21.70
2022-03-06 06:17:01;3.66;86.85;2;22.00
2022-03-06 06:24:04;3.65;86.52;2;22.00
2022-03-06 06:26:03;3.65;86.20;2;21.70
2022-03-06 06:35:34;3.65;85.40;2;21.90
2022-03-06 06:46:14;3.65;85.56;2;21.70
2022-03-06 06:55:15;3.65;86.85;2;21.70
2022-03-06 07:06:44;3.65;85.56;2;21.90
2022-03-06 07:14:27;3.65;86.85;2;21.80
2022-03-06 07:15:37;3.65;85.40;2;21.70
2022-03-06 07:26:06;3.64;85.40;2;21.90
2022-03-06 07:35:28;3.64;85.40;2;21.80
2022-03-06 07:46:27;3.64;85.40;2;21.80
2022-03-06 07:54:59;3.64;85.56;2;22.00
2022-03-06 08:07:07;3.64;86.52;2;22.00
2022-03-06 08:14:01;3.64;85.40;7;22.00
2022-03-06 08:16:10;3.64;86.52;14;22.00
2022-03-06 08:25:21;3.63;86.52;7;22.30
2022-03-06 08:36:30;3.63;87.17;41;22.00
2022-03-06 08:44:52;3.63;87.17;44;22.30
2022-03-06 08:45:03;3.63;85.40;44;22.40
2022-03-06 08:57:02;3.63;86.85;82;22.80
2022-03-06 09:04:06;3.63;86.85;99;22.90
2022-03-06 09:06:05;3.63;86.85;99;23.10
2022-03-06 09:15:26;3.63;85.88;99;23.10
2022-03-06 09:26:26;3.63;86.85;99;24.00
2022-03-06 09:34:58;3.63;85.88;99;24.10
2022-03-06 09:47:07;3.63;85.88;99;23.80
2022-03-06 09:54:01;3.63;85.88;99;23.90
2022-03-06 09:56:10;3.63;85.56;99;23.60
2022-03-06 10:05:22;3.62;86.20;99;23.50
2022-03-06 10:16:31;3.62;87.17;99;23.90
2022-03-06 10:24:54;3.62;87.17;99;24.30
2022-03-06 10:25:05;3.62;87.17;99;24.40
2022-03-06 10:36:54;3.62;86.20;99;25.20
2022-03-06 10:44:17;3.62;85.88;99;25.50
2022-03-06 10:45:47;3.62;85.56;99;25.80
2022-03-06 10:55:58;3.63;86.52;99;25.90
2022-03-06 11:05:40;3.62;85.88;99;25.80
2022-03-06 11:16:11;3.63;87.49;99;27.10
2022-03-06 11:25:23;3.63;87.49;99;27.10
2022-03-06 11:36:33;3.63;87.81;99;26.60
2022-03-06 11:44:47;3.63;86.52;99;27.40
2022-03-06 11:45:08;3.63;88.13;99;27.40
2022-03-06 11:56:58;3.63;87.81;99;27.20
2022-03-06 12:04:12;3.63;87.81;99;27.80
2022-03-06 12:05:51;3.63;86.52;99;27.80
2022-03-06 12:15:53;3.64;86.52;99;28.60
2022-03-06 12:25:45;3.64;87.81;99;29.60
2022-03-06 12:35:57;3.64;86.20;99;28.90
2022-03-06 12:45:40;3.64;86.52;99;27.80
2022-03-06 12:56:11;3.64;87.81;99;27.50
2022-03-06 13:05:24;3.63;86.52;99;27.30
2022-03-06 13:16:25;3.64;88.13;99;28.10
2022-03-06 13:24:58;3.64;86.52;99;28.60
2022-03-06 13:37:08;3.64;87.17;99;28.10
2022-03-06 13:43:53;3.64;88.46;99;28.50
2022-03-06 13:46:22;3.64;87.17;99;28.60
2022-03-06 13:55:05;3.64;88.46;99;28.90
2022-03-06 14:06:56;3.64;88.46;99;29.90
2022-03-06 14:14:20;3.65;88.78;99;30.20
2022-03-06 14:15:40;3.65;86.85;99;30.20
2022-03-06 14:26:02;3.65;87.49;99;29.80
2022-03-06 14:35:35;3.66;87.17;99;31.10
2022-03-06 14:46:17;3.66;87.49;99;30.10
2022-03-06 14:55:11;3.67;89.10;99;31.50
2022-03-06 15:06:52;3.67;87.81;99;30.60
2022-03-06 15:14:17;3.68;89.42;99;31.20
2022-03-06 15:15:47;3.68;89.42;99;31.30
2022-03-06 15:26:00;3.68;89.42;99;31.30
2022-03-06 15:35:43;3.68;87.81;99;31.40
2022-03-06 15:46:06;3.69;89.42;97;31.90
2022-03-06 15:55:29;3.68;89.58;97;31.90
2022-03-06 16:06:21;3.69;88.46;99;31.60
2022-03-06 16:15:06;3.68;89.58;99;30.30
2022-03-06 16:26:57;3.68;88.46;99;30.80
2022-03-06 16:34:12;3.70;88.13;98;31.60
2022-03-06 16:36:01;3.69;89.91;97;31.50
2022-03-06 16:45:34;3.69;89.91;99;30.90
2022-03-06 16:56:16;3.69;89.10;99;29.50
2022-03-06 17:05:10;3.69;89.10;99;29.60
2022-03-06 17:16:50;3.70;88.78;99;29.90
2022-03-06 17:24:25;3.69;88.78;99;30.00
2022-03-06 17:25:35;3.69;90.23;99;30.10
2022-03-06 17:36:17;3.69;88.78;99;29.40
2022-03-06 17:45:10;3.68;90.55;99;29.20
2022-03-06 17:56:50;3.68;89.10;99;28.80
2022-03-06 18:04:25;3.68;88.78;99;28.90
2022-03-06 18:05:35;3.68;90.55;99;28.90
2022-03-06 18:16:16;3.68;90.87;99;30.20
2022-03-06 18:25:09;3.68;89.10;99;29.00
2022-03-06 18:36:49;3.68;88.78;99;28.10
2022-03-06 18:44:24;3.68;90.55;99;27.70
2022-03-06 18:45:43;3.68;89.10;99;27.80
2022-03-06 18:56:05;3.67;89.42;99;27.40
2022-03-06 19:05:27;3.67;89.42;99;27.30
2022-03-06 19:16:28;3.67;90.87;99;26.40
2022-03-06 19:25:00;3.67;88.78;99;26.00
2022-03-06 19:37:00;3.67;90.87;99;25.60
2022-03-06 19:44:14;3.67;89.10;99;25.60
2022-03-06 19:45:53;3.67;90.55;99;25.50
2022-03-06 19:55:44;3.66;89.10;99;25.10
2022-03-06 20:05:55;3.66;90.55;99;24.80
2022-03-06 20:15:47;3.66;90.55;99;24.90
2022-03-06 20:25:57;3.66;90.55;99;24.60
2022-03-06 20:35:39;3.66;89.10;99;24.40
2022-03-06 20:46:09;3.66;90.55;99;24.40
2022-03-06 20:55:21;3.65;90.23;99;24.40
2022-03-06 21:06:30;3.65;88.78;99;24.40
2022-03-06 21:14:53;3.65;90.23;99;24.20
2022-03-06 21:15:04;3.64;90.23;99;24.10
2022-03-06 21:26:53;3.65;88.78;99;24.00
2022-03-06 21:34:16;3.65;88.46;99;24.10
2022-03-06 21:35:46;3.65;89.58;99;24.10
2022-03-06 21:45:57;3.64;89.91;99;23.90
2022-03-06 21:55:38;3.64;89.91;99;23.90
2022-03-06 22:06:08;3.64;89.91;99;24.00
2022-03-06 22:15:20;3.64;88.78;99;23.80
2022-03-06 22:26:39;3.64;90.23;99;23.70
2022-03-06 22:34:42;3.63;89.58;99;23.60
2022-03-06 22:35:12;3.63;89.58;99;23.70
2022-03-06 22:46:42;3.63;88.78;99;23.50
2022-03-06 22:54:34;3.63;89.91;99;23.50
2022-03-06 22:55:25;3.63;89.91;99;23.50
2022-03-06 23:06:24;3.63;89.91;99;23.70
2022-03-06 23:14:57;3.63;89.58;99;23.60
2022-03-06 23:15:08;3.62;89.91;99;23.60
2022-03-06 23:26:56;3.62;89.91;99;23.70
2022-03-06 23:34:10;3.62;89.91;99;23.70
2022-03-06 23:35:59;3.62;89.91;99;23.70
2022-03-06 23:45:40;3.62;88.46;99;24.10
2022-03-06 23:56:01;3.62;88.46;99;23.70
