2022-01-18 00:00:39;3.57;101.67;2;22.30
2022-01-18 00:05:43;3.57;101.99;2;22.40
2022-01-18 00:10:42;3.57;101.19;2;22.50
2022-01-18 00:15:41;3.57;102.31;2;22.20
2022-01-18 00:20:40;3.57;101.19;2;22.30
2022-01-18 00:25:39;3.57;101.99;2;22.30
2022-01-18 00:30:43;3.57;102.31;2;22.20
2022-01-18 00:35:41;3.57;100.86;2;22.30
2022-01-18 00:40:40;3.57;102.31;2;22.40
2022-01-18 00:45:39;3.57;102.31;2;22.10
2022-01-18 00:50:43;3.57;102.31;2;22.60
2022-01-18 00:55:42;3.57;102.31;2;22.40
2022-01-18 01:00:41;3.57;100.54;2;22.60
2022-01-18 01:05:40;3.57;100.86;2;22.40
2022-01-18 01:10:43;3.57;101.67;2;22.20
2022-01-18 01:15:42;3.57;99.57;2;22.50
2022-01-18 01:20:41;3.57;99.57;2;22.40
2022-01-18 01:25:40;3.57;100.22;2;22.90
2022-01-18 01:30:39;3.57;101.99;2;22.80
2022-01-18 01:35:43;3.57;102.31;2;22.00
2022-01-18 01:40:42;3.57;100.22;2;22.10
2022-01-18 01:45:41;3.57;101.19;2;21.80
2022-01-18 01:50:40;3.57;100.22;2;21.60
2022-01-18 01:55:43;3.57;100.22;2;21.40
2022-01-18 02:00:42;3.57;101.51;2;21.70
2022-01-18 02:05:41;3.57;101.51;2;21.80
2022-01-18 02:10:40;3.57;101.51;2;22.00
2022-01-18 02:15:39;3.57;101.99;2;21.40
2022-01-18 02:20:42;3.57;100.54;2;21.60
2022-01-18 02:25:41;3.57;101.67;2;21.60
2022-01-18 02:30:40;3.57;102.31;2;21.70
2022-01-18 02:35:39;3.57;101.67;2;21.70
2022-01-18 02:40:43;3.57;100.54;2;21.60
2022-01-18 02:45:42;3.57;100.86;2;21.30
2022-01-18 02:50:40;3.57;101.19;2;21.50
2022-01-18 02:55:39;3.57;101.19;2;21.70
2022-01-18 03:00:43;3.57;100.86;2;21.40
2022-01-18 03:05:42;3.57;101.99;2;21.20
2022-01-18 03:10:41;3.57;101.67;2;21.10
2022-01-18 03:15:39;3.57;101.99;2;20.90
2022-01-18 03:20:43;3.57;101.67;2;20.90
2022-01-18 03:25:42;3.57;101.51;2;20.90
2022-01-18 03:30:41;3.57;101.67;2;20.90
2022-01-18 03:35:39;3.57;100.54;2;21.00
2022-01-18 03:40:43;3.57;100.22;2;20.90
2022-01-18 03:45:42;3.57;100.54;2;20.80
2022-01-18 03:50:41;3.57;101.99;2;20.60
2022-01-18 03:55:39;3.57;101.67;2;20.80
2022-01-18 04:00:43;3.57;100.54;2;20.30
2022-01-18 04:05:42;3.57;101.67;2;20.30
2022-01-18 04:10:40;3.57;100.54;2;20.40
2022-01-18 04:15:39;3.57;101.67;2;20.20
2022-01-18 04:20:43;3.57;100.54;2;20.20
2022-01-18 04:25:41;3.57;100.54;2;20.20
2022-01-18 04:30:40;3.57;101.99;2;20.50
2022-01-18 04:35:39;3.57;101.99;2;20.20
2022-01-18 04:40:42;3.57;101.99;2;20.40
2022-01-18 04:45:41;3.57;100.54;2;20.50
2022-01-18 04:50:39;3.57;100.22;2;20.60
2022-01-18 04:55:43;3.57;101.67;2;20.90
2022-01-18 05:00:42;3.57;101.67;2;21.20
2022-01-18 05:05:40;3.57;101.51;2;21.00
2022-01-18 05:10:39;3.57;101.51;2;21.00
2022-01-18 05:15:42;3.57;100.86;2;20.90
2022-01-18 05:20:41;3.57;100.22;2;21.10
2022-01-18 05:25:40;3.57;99.90;2;20.80
2022-01-18 05:30:39;3.57;99.57;2;21.00
2022-01-18 05:35:42;3.57;100.54;2;21.00
2022-01-18 05:40:41;3.57;100.86;2;21.20
2022-01-18 05:45:40;3.57;99.25;2;21.10
2022-01-18 05:50:43;3.57;100.86;2;20.80
2022-01-18 05:55:42;3.57;100.22;2;21.20
2022-01-18 06:00:41;3.57;99.25;2;20.80
2022-01-18 06:05:40;3.57;98.61;2;20.90
2022-01-18 06:10:43;3.57;98.61;2;20.90
2022-01-18 06:15:42;3.57;98.93;2;21.00
2022-01-18 06:20:41;3.57;98.61;2;20.70
2022-01-18 06:25:39;3.57;99.57;2;20.90
2022-01-18 06:30:43;3.57;99.57;2;20.70
2022-01-18 06:35:42;3.57;100.54;2;20.70
2022-01-18 06:40:40;3.57;98.61;2;20.90
2022-01-18 06:45:39;3.57;99.90;2;20.80
2022-01-18 06:50:43;3.57;98.61;2;20.80
2022-01-18 06:55:41;3.57;100.22;2;21.00
2022-01-18 07:00:40;3.57;98.61;2;21.10
2022-01-18 07:05:39;3.57;98.61;2;21.30
2022-01-18 07:10:42;3.57;98.61;2;21.20
2022-01-18 07:15:41;3.57;98.61;2;21.00
2022-01-18 07:20:40;3.57;100.22;2;21.30
2022-01-18 07:25:43;3.57;100.54;2;21.20
2022-01-18 07:30:42;3.57;99.90;2;21.30
2022-01-18 07:35:41;3.57;99.57;2;21.20
2022-01-18 07:40:40;3.57;100.86;2;21.00
2022-01-18 07:45:43;3.57;100.86;2;21.10
2022-01-18 07:50:42;3.57;100.86;2;21.00
2022-01-18 07:55:41;3.57;101.51;2;21.00
2022-01-18 08:00:40;3.57;99.25;2;21.20
2022-01-18 08:05:43;3.57;101.19;2;21.00
2022-01-18 08:10:42;3.57;100.86;2;21.00
2022-01-18 08:15:41;3.57;99.90;2;21.00
2022-01-18 08:20:39;3.56;101.19;2;21.00
2022-01-18 08:25:43;3.57;100.54;2;20.60
2022-01-18 08:30:42;3.57;100.86;2;20.50
2022-01-18 08:35:40;3.57;99.90;2;20.60
2022-01-18 08:40:39;3.57;101.19;2;20.60
2022-01-18 08:45:43;3.57;100.86;2;20.70
2022-01-18 08:50:41;3.57;101.19;2;20.50
2022-01-18 08:55:40;3.57;99.57;2;20.40
2022-01-18 09:00:39;3.57;100.54;2;20.70
2022-01-18 09:05:42;3.57;101.19;2;20.80
2022-01-18 09:10:41;3.57;100.54;2;20.50
2022-01-18 09:15:40;3.57;100.86;2;20.50
2022-01-18 09:20:43;3.57;102.31;2;20.70
2022-01-18 09:25:42;3.57;101.19;2;21.00
2022-01-18 09:30:41;3.56;101.51;2;20.80
2022-01-18 09:35:39;3.56;101.51;2;20.90
2022-01-18 09:40:43;3.57;102.96;2;20.80
2022-01-18 09:45:42;3.57;101.19;2;21.00
2022-01-18 09:50:40;3.57;101.51;2;21.00
2022-01-18 09:55:39;3.57;100.86;2;21.10
2022-01-18 10:00:43;3.57;100.86;2;20.90
2022-01-18 10:05:41;3.56;101.99;2;21.00
2022-01-18 10:10:40;3.57;102.31;2;21.10
2022-01-18 10:15:39;3.57;102.31;2;21.00
2022-01-18 10:20:42;3.57;101.19;2;20.90
2022-01-18 10:25:41;3.57;101.67;2;21.00
2022-01-18 10:30:40;3.56;99.90;2;22.00
2022-01-18 10:35:39;3.57;101.67;2;21.60
2022-01-18 10:40:42;3.56;100.22;2;21.70
2022-01-18 10:45:41;3.56;100.22;2;21.60
2022-01-18 10:50:40;3.56;100.54;2;21.70
2022-01-18 10:55:39;3.56;100.54;2;21.50
2022-01-18 11:00:43;3.56;100.54;2;21.50
2022-01-18 11:05:42;3.56;100.86;2;21.70
2022-01-18 11:10:41;3.56;100.54;2;21.80
2022-01-18 11:15:40;3.56;101.51;2;21.60
2022-01-18 11:20:43;3.56;100.54;2;21.70
2022-01-18 11:25:42;3.56;101.67;2;21.80
2022-01-18 11:30:41;3.56;100.54;2;22.00
2022-01-18 11:35:40;3.56;100.54;2;22.20
2022-01-18 11:40:39;3.56;101.51;2;22.20
2022-01-18 11:45:43;3.56;100.22;2;22.30
2022-01-18 11:50:42;3.56;101.51;2;22.20
2022-01-18 11:55:41;3.56;101.51;2;22.50
2022-01-18 12:00:40;3.56;100.22;2;22.70
2022-01-18 12:05:39;3.56;100.54;2;23.20
2022-01-18 12:10:43;3.56;101.19;2;23.40
2022-01-18 12:15:42;3.56;101.51;2;24.00
2022-01-18 12:20:41;3.56;101.51;6;24.30
2022-01-18 12:25:40;3.56;101.67;46;24.10
2022-01-18 12:30:40;3.56;101.51;50;24.40
2022-01-18 12:35:44;3.56;101.19;28;24.60
2022-01-18 12:40:43;3.56;101.51;35;24.90
2022-01-18 12:45:42;3.56;101.67;53;25.10
2022-01-18 12:50:42;3.56;101.51;81;24.90
2022-01-18 12:55:41;3.56;100.22;86;25.10
2022-01-18 13:00:41;3.56;101.67;70;25.50
2022-01-18 13:05:40;3.56;99.90;99;26.20
2022-01-18 13:10:40;3.56;99.57;99;27.30
2022-01-18 13:15:44;3.56;101.19;99;27.90
2022-01-18 13:20:39;3.56;100.22;99;27.40
2022-01-18 13:25:44;3.56;101.51;99;28.00
2022-01-18 13:30:39;3.56;101.67;99;28.00
2022-01-18 13:35:44;3.56;101.99;97;27.50
2022-01-18 13:40:39;3.56;100.54;99;27.50
2022-01-18 13:45:44;3.56;101.51;99;28.00
2022-01-18 13:50:40;3.56;100.22;99;27.30
2022-01-18 13:55:45;3.56;101.51;99;27.50
2022-01-18 14:00:40;3.56;100.54;99;28.80
2022-01-18 14:05:40;3.56;101.67;96;30.40
2022-01-18 14:10:41;3.56;101.51;98;29.70
2022-01-18 14:15:41;3.56;101.19;96;29.60
2022-01-18 14:20:41;3.56;101.51;98;29.10
2022-01-18 14:25:41;3.56;101.67;99;28.10
2022-01-18 14:30:41;3.56;101.51;99;28.00
2022-01-18 14:35:42;3.56;101.51;99;27.80
2022-01-18 14:40:42;3.56;100.22;98;28.40
2022-01-18 14:45:42;3.56;100.22;98;30.00
2022-01-18 14:50:42;3.56;100.22;90;32.10
2022-01-18 14:55:42;3.56;101.67;81;35.20
2022-01-18 15:00:43;3.56;100.54;83;34.10
2022-01-18 15:05:43;3.56;101.51;88;31.30
2022-01-18 15:10:44;3.56;101.67;90;30.00
2022-01-18 15:15:40;3.56;101.51;97;29.10
2022-01-18 15:20:40;3.56;101.51;93;28.60
2022-01-18 15:25:41;3.56;101.51;95;28.90
2022-01-18 15:30:41;3.56;100.22;95;29.00
2022-01-18 15:35:42;3.56;101.51;95;29.30
2022-01-18 15:40:42;3.56;101.51;94;29.20
2022-01-18 15:45:42;3.56;100.22;97;29.00
2022-01-18 15:50:43;3.56;101.19;96;28.70
2022-01-18 15:55:43;3.56;99.90;95;29.20
2022-01-18 16:00:43;3.56;99.90;94;29.40
2022-01-18 16:05:43;3.56;101.51;99;27.70
2022-01-18 16:10:43;3.56;101.19;99;27.90
2022-01-18 16:15:43;3.56;101.51;99;27.70
2022-01-18 16:20:43;3.56;101.51;96;28.60
2022-01-18 16:25:43;3.56;100.22;96;29.40
2022-01-18 16:30:43;3.56;100.86;94;30.80
2022-01-18 16:35:43;3.56;100.86;94;30.20
2022-01-18 16:40:44;3.56;101.19;94;29.40
2022-01-18 16:45:44;3.56;101.19;95;29.30
2022-01-18 16:50:44;3.56;100.22;98;29.60
2022-01-18 16:55:39;3.56;101.67;95;29.30
2022-01-18 17:00:44;3.56;100.54;97;29.60
2022-01-18 17:05:40;3.56;100.22;99;29.00
2022-01-18 17:10:45;3.56;100.22;99;27.20
2022-01-18 17:15:40;3.56;100.22;99;27.10
2022-01-18 17:20:40;3.56;100.22;88;26.20
2022-01-18 17:25:40;3.56;101.51;79;24.90
2022-01-18 17:30:40;3.56;101.67;64;24.60
2022-01-18 17:35:40;3.56;101.67;66;24.70
2022-01-18 17:40:40;3.56;100.54;44;24.10
2022-01-18 17:45:44;3.56;101.51;55;24.20
2022-01-18 17:50:39;3.56;100.22;61;24.50
2022-01-18 17:55:43;3.56;101.51;71;24.70
2022-01-18 18:00:43;3.56;101.67;62;24.50
2022-01-18 18:05:42;3.56;101.51;80;25.00
2022-01-18 18:10:42;3.56;100.22;71;24.80
2022-01-18 18:15:41;3.56;99.90;80;24.70
2022-01-18 18:20:41;3.56;101.19;85;24.20
2022-01-18 18:25:40;3.56;100.22;63;24.10
2022-01-18 18:30:40;3.56;101.67;59;23.60
2022-01-18 18:35:44;3.56;100.22;34;23.80
2022-01-18 18:40:43;3.56;99.90;62;23.90
2022-01-18 18:45:43;3.56;99.90;50;23.60
2022-01-18 18:50:42;3.56;101.19;64;23.80
2022-01-18 18:55:41;3.56;101.67;64;23.70
2022-01-18 19:00:40;3.56;101.19;50;24.10
2022-01-18 19:05:40;3.56;101.19;66;23.80
2022-01-18 19:10:44;3.56;101.19;67;23.80
2022-01-18 19:15:43;3.56;100.22;74;24.30
2022-01-18 19:20:42;3.56;101.51;75;24.20
2022-01-18 19:25:41;3.56;100.22;76;23.90
2022-01-18 19:30:41;3.56;101.67;72;23.80
2022-01-18 19:35:40;3.56;100.22;55;23.60
2022-01-18 19:40:39;3.56;100.22;50;23.30
2022-01-18 19:45:43;3.56;101.19;47;23.60
2022-01-18 19:50:42;3.56;101.51;31;23.10
2022-01-18 19:55:41;3.56;101.67;23;23.00
2022-01-18 20:00:40;3.56;100.22;8;22.90
2022-01-18 20:05:39;3.56;101.19;2;22.30
2022-01-18 20:10:43;3.56;100.22;2;22.30
2022-01-18 20:15:42;3.56;101.51;2;22.30
2022-01-18 20:20:41;3.56;101.67;2;22.10
2022-01-18 20:25:40;3.56;101.51;2;22.10
2022-01-18 20:30:39;3.56;101.51;2;21.80
2022-01-18 20:35:43;3.56;100.22;2;21.90
2022-01-18 20:40:41;3.56;101.67;2;22.00
2022-01-18 20:45:40;3.56;101.67;2;21.60
2022-01-18 20:50:39;3.56;101.19;2;21.60
2022-01-18 20:55:43;3.56;100.22;2;21.50
2022-01-18 21:00:42;3.56;99.90;2;21.60
2022-01-18 21:05:40;3.56;101.51;2;21.40
2022-01-18 21:11:25;3.56;99.90;2;21.40
2022-01-18 21:17:15;3.56;101.51;2;21.40
2022-01-18 21:21:48;3.56;101.51;2;21.50
2022-01-18 21:26:42;3.56;101.51;2;21.30
2022-01-18 21:31:51;3.56;99.57;2;21.10
2022-01-18 21:36:50;3.56;100.86;2;21.20
2022-01-18 21:41:41;3.56;99.57;2;21.00
2022-01-18 21:46:50;3.55;101.19;2;20.90
2022-01-18 21:51:39;3.56;99.25;2;20.80
2022-01-18 21:56:59;3.55;101.19;2;20.90
2022-01-18 22:01:56;3.55;100.54;2;20.70
2022-01-18 22:07:07;3.55;100.54;2;20.60
2022-01-18 22:12:13;3.55;100.86;2;20.60
2022-01-18 22:16:46;3.55;98.93;2;20.90
2022-01-18 22:21:57;3.55;99.25;2;20.60
2022-01-18 22:27:17;3.55;100.54;2;20.70
2022-01-18 22:31:46;3.55;100.54;2;20.60
2022-01-18 22:37:17;3.55;100.54;2;20.40
2022-01-18 22:41:54;3.55;98.93;2;20.50
2022-01-18 22:46:55;3.55;98.93;2;20.60
2022-01-18 22:52:26;3.55;99.57;2;20.50
2022-01-18 22:56:55;3.55;100.54;2;20.20
2022-01-18 23:02:22;3.55;100.54;2;20.20
2022-01-18 23:06:56;3.55;100.22;2;20.30
2022-01-18 23:12:17;3.55;100.54;2;20.20
2022-01-18 23:17:04;3.55;100.22;2;20.40
2022-01-18 23:22:17;3.55;99.90;2;20.10
2022-01-18 23:27:00;3.54;100.54;2;20.20
2022-01-18 23:32:13;3.54;100.22;2;20.20
2022-01-18 23:37:01;3.54;100.22;2;20.10
2022-01-18 23:42:17;3.54;100.22;2;20.10
2022-01-18 23:47:01;3.54;98.93;2;19.90
2022-01-18 23:52:14;3.54;98.61;2;19.70
2022-01-18 23:57:02;3.54;100.22;2;19.90
