2022-04-25 00:02:16;3.63;9239.28
2022-04-25 00:06:33;3.63;9239.28
2022-04-25 00:11:29;3.63;9239.28
2022-04-25 00:16:44;3.63;9239.28
2022-04-25 00:20:48;3.63;9239.28
2022-04-25 00:27:01;3.63;9239.28
2022-04-25 00:31:10;3.63;9239.28
2022-04-25 00:35:52;3.63;-1314.92
2022-04-25 00:41:04;3.63;9239.28
2022-04-25 00:47:11;3.63;9239.28
2022-04-25 00:51:27;3.63;9239.28
2022-04-25 00:56:46;3.63;9239.28
2022-04-25 01:01:44;3.63;9239.28
2022-04-25 01:06:42;3.63;9239.28
2022-04-25 01:11:59;3.63;-1319.92
2022-04-25 01:16:04;3.63;-1319.92
2022-04-25 01:21:22;3.63;-0.16
2022-04-25 01:25:48;3.63;-1319.92
2022-04-25 01:32:03;3.63;9239.28
2022-04-25 01:35:59;3.63;-1319.92
2022-04-25 01:41:56;3.63;9239.28
2022-04-25 01:46:38;3.63;9239.28
2022-04-25 01:52:13;3.62;-1319.92
2022-04-25 01:56:19;3.62;-1319.92
2022-04-25 02:01:34;3.62;-1319.92
2022-04-25 02:06:26;3.62;-1319.92
2022-04-25 02:10:57;3.62;3959.60
2022-04-25 02:16:34;3.62;9239.28
2022-04-25 02:21:06;3.62;9239.28
2022-04-25 02:25:25;3.62;9239.28
2022-04-25 02:30:34;3.62;9239.28
2022-04-25 02:35:29;3.62;9239.28
2022-04-25 02:40:33;3.62;9239.28
2022-04-25 02:45:32;3.62;9239.28
2022-04-25 02:50:31;3.62;9239.28
2022-04-25 02:55:31;3.62;9239.28
2022-04-25 03:00:30;3.62;9239.28
2022-04-25 03:05:30;3.62;3959.60
2022-04-25 03:10:29;3.62;9239.28
2022-04-25 03:15:33;3.62;9239.28
2022-04-25 03:20:33;3.62;9239.28
2022-04-25 03:25:32;3.62;9239.28
2022-04-25 03:30:32;3.62;9239.28
2022-04-25 03:35:31;3.62;9239.28
2022-04-25 03:40:30;3.62;9239.28
2022-04-25 03:45:30;3.62;9239.28
2022-04-25 03:50:29;3.62;9239.28
2022-04-25 03:55:33;3.62;9239.28
2022-04-25 04:00:33;3.62;-1319.92
2022-04-25 04:05:32;3.62;3959.60
2022-04-25 04:10:32;3.62;9239.28
2022-04-25 04:15:31;3.62;9239.28
2022-04-25 04:20:30;3.62;9239.28
2022-04-25 04:25:30;3.62;-1319.92
2022-04-25 04:30:29;3.62;9239.28
2022-04-25 04:35:33;3.62;9239.28
2022-04-25 04:40:33;3.62;-1319.92
2022-04-25 04:45:32;3.62;3959.60
2022-04-25 04:50:31;3.62;9239.28
2022-04-25 04:55:31;3.62;9239.28
2022-04-25 05:00:30;3.62;9239.28
2022-04-25 05:05:30;3.62;9239.28
2022-04-25 05:10:29;3.62;9239.28
2022-04-25 05:15:33;3.62;659.80
2022-04-25 05:20:33;3.62;9239.28
2022-04-25 05:25:32;3.62;-1319.92
2022-04-25 05:30:31;3.62;9239.28
2022-04-25 05:35:31;3.62;-1309.77
2022-04-25 05:40:30;3.62;9239.28
2022-04-25 05:45:30;3.62;9239.28
2022-04-25 05:50:29;3.62;9239.28
2022-04-25 06:05:32;3.62;9239.28
2022-04-25 06:50:28;3.62;9239.28
