2022-03-02 00:00:34;4.13;75;15.40;0;0.00
2022-03-02 00:05:31;4.13;76;15.40;0;0.00
2022-03-02 00:10:33;4.13;77;15.50;0;0.00
2022-03-02 00:15:29;4.13;77;15.30;0;0.00
2022-03-02 00:20:31;4.13;78;15.70;0;0.00
2022-03-02 00:25:32;4.13;79;15.80;0;0.00
2022-03-02 00:30:34;4.13;79;15.90;0;0.00
2022-03-02 00:35:30;4.13;80;15.80;0;0.00
2022-03-02 00:40:32;4.13;79;15.30;0;0.00
2022-03-02 00:45:33;4.13;79;15.00;0;0.00
2022-03-02 00:50:34;4.13;79;15.10;0;0.00
2022-03-02 00:55:31;4.13;79;15.10;0;0.00
2022-03-02 01:00:32;4.13;79;15.10;0;0.00
2022-03-02 01:05:34;4.13;80;14.80;0;0.00
2022-03-02 01:10:31;4.13;80;14.90;0;0.00
2022-03-02 01:15:32;4.13;80;15.20;0;0.00
2022-03-02 01:20:33;4.13;80;15.90;0;0.00
2022-03-02 01:25:30;4.13;80;15.80;0;0.00
2022-03-02 01:30:31;4.13;80;15.80;0;0.00
2022-03-02 01:35:33;4.13;81;15.60;0;0.00
2022-03-02 01:40:29;4.13;81;15.50;0;0.00
2022-03-02 01:45:31;4.13;81;15.40;0;0.00
2022-03-02 01:50:32;4.13;81;15.20;0;0.00
2022-03-02 01:55:33;4.13;81;15.30;0;0.00
2022-03-02 02:00:30;4.13;81;15.10;0;0.00
2022-03-02 02:05:32;4.13;81;15.30;0;0.00
2022-03-02 02:10:33;4.13;81;15.70;0;0.00
2022-03-02 02:15:34;4.13;80;15.80;0;1.10
2022-03-02 02:20:31;4.12;80;16.00;0;0.00
2022-03-02 02:25:33;4.12;80;16.10;0;0.00
2022-03-02 02:30:34;4.13;80;16.10;0;0.00
2022-03-02 02:35:31;4.13;81;16.00;0;0.00
2022-03-02 02:40:32;4.13;81;15.90;0;0.00
2022-03-02 02:45:34;4.13;81;15.80;0;0.00
2022-03-02 02:50:31;4.13;81;15.70;0;0.00
2022-03-02 02:55:32;4.13;81;15.50;0;0.00
2022-03-02 03:00:33;4.12;80;15.30;0;0.00
2022-03-02 03:05:30;4.12;80;15.30;0;0.00
2022-03-02 03:10:32;4.12;80;15.30;0;0.00
2022-03-02 03:15:33;4.13;80;15.00;0;0.00
2022-03-02 03:20:34;4.13;80;14.80;0;0.00
2022-03-02 03:25:31;4.12;80;14.60;0;0.00
2022-03-02 03:30:32;4.12;80;14.40;0;0.00
2022-03-02 03:35:29;4.12;79;14.20;0;0.00
2022-03-02 03:40:31;4.12;79;14.10;0;0.00
2022-03-02 03:45:32;4.12;78;14.10;0;0.00
2022-03-02 03:50:33;4.12;78;14.00;0;0.00
2022-03-02 03:55:34;4.12;78;14.20;0;0.00
2022-03-02 04:00:31;4.12;78;14.20;0;0.00
2022-03-02 04:05:32;4.12;77;14.00;0;0.00
2022-03-02 04:10:34;4.12;77;13.80;0;0.00
2022-03-02 04:15:30;4.12;75;13.80;0;0.00
2022-03-02 04:20:31;4.12;75;13.90;0;0.00
2022-03-02 04:25:33;4.11;75;13.90;0;0.00
2022-03-02 04:30:34;4.12;75;13.90;0;0.00
2022-03-02 04:35:30;4.11;75;13.70;0;0.00
2022-03-02 04:40:32;4.11;73;13.80;0;0.00
2022-03-02 04:45:33;4.12;73;13.90;0;0.00
2022-03-02 04:50:34;4.12;74;13.90;0;0.00
2022-03-02 04:55:31;4.11;75;14.20;0;0.00
2022-03-02 05:00:32;4.11;76;14.10;0;0.00
2022-03-02 05:05:33;4.11;75;13.90;0;0.00
2022-03-02 05:10:34;4.11;75;13.90;0;0.00
2022-03-02 05:15:31;4.12;75;13.60;0;0.00
2022-03-02 05:20:32;4.12;73;13.70;0;0.00
2022-03-02 05:25:33;4.12;74;13.80;0;0.00
2022-03-02 05:30:30;4.11;75;13.80;0;0.00
2022-03-02 05:35:31;4.11;74;13.30;0;0.00
2022-03-02 05:40:32;4.11;73;13.80;0;0.00
2022-03-02 05:45:33;4.11;75;13.60;0;0.00
2022-03-02 05:50:30;4.11;74;13.30;0;0.00
2022-03-02 05:55:31;4.11;73;13.10;0;0.00
2022-03-02 06:00:32;4.11;72;13.00;0;0.00
2022-03-02 06:05:33;4.11;71;12.90;0;0.00
2022-03-02 06:10:30;4.11;72;12.80;0;0.00
2022-03-02 06:15:31;4.11;71;12.50;0;0.00
2022-03-02 06:20:32;4.11;65;12.70;0;0.00
2022-03-02 06:25:33;4.11;63;13.10;0;0.00
2022-03-02 06:30:30;4.11;63;13.10;0;0.00
2022-03-02 06:35:31;4.11;63;13.30;0;0.00
2022-03-02 06:40:32;4.11;68;13.10;0;0.00
2022-03-02 06:45:33;4.11;68;12.90;0;0.00
2022-03-02 06:50:30;4.11;66;12.80;0;0.00
2022-03-02 06:55:31;4.11;63;13.40;0;0.00
2022-03-02 07:00:32;4.11;69;14.10;0;0.00
2022-03-02 07:05:33;4.11;71;14.30;0;1.10
2022-03-02 07:10:30;4.11;73;14.40;0;0.00
2022-03-02 07:15:31;4.11;72;14.40;0;0.00
2022-03-02 07:20:32;4.11;72;14.50;0;0.00
2022-03-02 07:25:29;4.11;75;15.40;0;0.00
2022-03-02 07:30:35;4.11;76;15.80;0;0.00
2022-03-02 07:35:31;4.11;77;16.20;0;0.00
2022-03-02 07:40:33;4.11;77;16.50;0;0.00
2022-03-02 07:45:34;4.11;78;16.90;0;0.00
2022-03-02 07:50:31;4.11;78;17.20;0;0.00
2022-03-02 07:55:32;4.12;78;17.50;0;0.00
2022-03-02 08:00:34;4.12;78;18.10;0;0.00
2022-03-02 08:05:31;4.12;78;18.60;0;0.00
2022-03-02 08:10:33;4.12;78;19.30;0;0.00
2022-03-02 08:15:34;4.12;79;19.40;0;0.00
2022-03-02 08:20:31;4.12;78;19.80;0;0.00
2022-03-02 08:25:33;4.12;77;20.00;0;0.00
2022-03-02 08:30:31;4.13;79;20.20;0;0.00
2022-03-02 08:35:32;4.13;79;20.30;0;0.00
2022-03-02 08:40:34;4.13;78;20.70;0;0.00
2022-03-02 08:45:32;4.14;77;20.70;0;0.00
2022-03-02 08:50:34;4.14;78;21.10;0;0.00
2022-03-02 08:55:32;4.14;77;21.00;0;0.00
2022-03-02 09:00:34;4.14;79;21.30;0;0.00
2022-03-02 09:05:32;4.14;79;21.30;0;0.00
2022-03-02 09:10:34;4.15;79;21.70;0;0.00
2022-03-02 09:15:32;4.15;77;22.00;0;0.00
2022-03-02 09:20:34;4.15;77;22.40;0;0.00
2022-03-02 09:25:32;4.15;77;22.90;0;0.00
2022-03-02 09:30:35;4.15;77;23.00;0;1.10
2022-03-02 09:35:33;4.15;77;23.30;0;1.20
2022-03-02 09:40:35;4.16;76;23.40;0;0.00
2022-03-02 09:45:33;4.16;76;23.90;0;0.00
2022-03-02 09:50:32;4.16;75;24.00;0;0.00
2022-03-02 09:55:34;4.16;75;24.40;0;0.00
2022-03-02 10:00:33;4.16;75;24.50;0;1.10
2022-03-02 10:05:36;4.16;76;24.50;0;1.30
2022-03-02 10:10:34;4.16;76;25.10;0;1.30
2022-03-02 10:15:32;4.16;76;25.30;0;2.19
2022-03-02 10:20:35;4.16;73;25.50;0;1.40
2022-03-02 10:25:34;4.16;75;25.60;0;2.00
2022-03-02 10:30:32;4.17;74;25.70;0;2.39
2022-03-02 10:35:35;4.17;75;25.90;0;1.70
2022-03-02 10:40:34;4.17;75;25.90;0;2.49
2022-03-02 10:45:33;4.17;76;26.30;0;1.20
2022-03-02 10:50:36;4.17;74;26.50;0;2.00
2022-03-02 10:55:34;4.17;71;26.60;0;2.19
2022-03-02 11:00:33;4.17;73;26.80;0;1.40
2022-03-02 11:05:32;4.17;73;27.20;0;1.90
2022-03-02 11:10:35;4.17;71;27.80;0;0.00
2022-03-02 11:15:34;4.17;71;27.80;0;1.80
2022-03-02 11:20:33;4.17;72;27.80;0;1.50
2022-03-02 11:25:36;4.17;73;28.20;0;1.70
2022-03-02 11:30:35;4.17;69;28.10;0;1.20
2022-03-02 11:35:34;4.17;72;28.90;0;0.00
2022-03-02 11:40:33;4.18;70;28.70;0;1.30
2022-03-02 11:45:32;4.17;67;29.20;0;0.00
2022-03-02 11:50:36;4.18;69;29.40;0;0.00
2022-03-02 11:55:35;4.18;69;29.30;0;2.19
2022-03-02 12:00:34;4.18;67;29.50;0;0.00
2022-03-02 12:05:34;4.18;70;29.60;0;1.30
2022-03-02 12:10:33;4.18;67;29.50;0;2.29
2022-03-02 12:15:37;4.18;67;29.70;0;2.09
2022-03-02 12:20:36;4.18;70;29.90;0;1.90
2022-03-02 12:25:35;4.18;68;29.80;0;0.00
2022-03-02 12:30:35;4.18;67;30.20;0;2.19
2022-03-02 12:35:34;4.18;66;29.90;0;1.40
2022-03-02 12:40:33;4.18;66;30.30;0;1.10
2022-03-02 12:45:32;4.18;68;30.00;0;1.70
2022-03-02 12:50:36;4.18;67;30.00;0;1.60
2022-03-02 12:55:31;4.18;67;30.30;0;2.19
2022-03-02 13:00:35;4.18;66;30.70;0;0.00
2022-03-02 13:05:35;4.18;67;30.60;0;2.39
2022-03-02 13:10:34;4.18;66;31.20;0;1.50
2022-03-02 13:15:33;4.18;67;31.30;0;1.60
2022-03-02 13:20:33;4.19;65;31.10;0;1.50
2022-03-02 13:25:37;4.19;65;30.90;0;0.00
2022-03-02 13:30:36;4.18;65;31.80;0;0.00
2022-03-02 13:35:36;4.19;66;31.40;0;1.30
2022-03-02 13:40:35;4.19;65;31.60;0;1.20
2022-03-02 13:45:35;4.19;64;31.70;0;0.00
2022-03-02 13:50:35;4.19;66;32.00;0;0.00
2022-03-02 13:55:34;4.19;66;31.80;0;0.00
2022-03-02 14:00:34;4.19;65;32.20;0;1.60
2022-03-02 14:05:33;4.19;64;32.00;0;1.80
2022-03-02 14:10:33;4.19;65;32.00;0;1.60
2022-03-02 14:15:33;4.19;66;32.40;0;2.09
2022-03-02 14:20:37;4.19;63;31.80;0;1.90
2022-03-02 14:25:37;4.19;63;32.40;0;1.50
2022-03-02 14:30:36;4.19;63;32.40;0;1.40
2022-03-02 14:35:36;4.19;63;32.20;0;2.29
2022-03-02 14:40:35;4.19;63;32.20;0;1.40
2022-03-02 14:45:35;4.19;63;31.90;0;0.00
2022-03-02 14:50:35;4.19;64;32.30;0;2.19
2022-03-02 14:55:34;4.19;61;32.50;0;1.90
2022-03-02 15:00:34;4.19;64;32.30;0;1.70
2022-03-02 15:05:34;4.19;64;32.40;0;1.40
2022-03-02 15:10:33;4.19;62;32.20;0;2.29
2022-03-02 15:15:33;4.19;64;32.30;0;1.20
2022-03-02 15:20:37;4.19;60;32.20;0;0.00
2022-03-02 15:25:32;4.19;62;32.80;0;1.50
2022-03-02 15:30:36;4.19;60;32.60;0;1.90
2022-03-02 15:35:32;4.19;60;32.80;0;0.00
2022-03-02 15:40:36;4.19;62;33.00;0;0.00
2022-03-02 15:45:35;4.20;63;32.60;0;2.49
2022-03-02 15:50:35;4.19;65;32.50;0;1.30
2022-03-02 15:55:35;4.19;62;32.80;0;0.00
2022-03-02 16:00:35;4.20;62;32.30;0;1.70
2022-03-02 16:05:34;4.20;63;32.50;0;0.00
2022-03-02 16:10:34;4.20;64;32.80;0;1.40
2022-03-02 16:15:33;4.20;62;32.50;0;2.39
2022-03-02 16:20:33;4.20;61;32.50;0;2.09
2022-03-02 16:25:33;4.20;58;32.60;0;1.40
2022-03-02 16:30:37;4.20;60;32.60;0;1.90
2022-03-02 16:35:37;4.20;62;32.70;0;2.00
2022-03-02 16:40:36;4.20;61;32.80;0;1.50
2022-03-02 16:45:36;4.20;58;32.40;0;2.00
2022-03-02 16:50:36;4.20;57;32.90;0;0.00
2022-03-02 16:55:35;4.20;57;32.80;0;0.00
2022-03-02 17:00:35;4.20;59;32.80;0;0.00
2022-03-02 17:05:34;4.20;57;33.50;0;0.00
2022-03-02 17:10:34;4.20;61;32.80;0;1.40
2022-03-02 17:15:34;4.20;64;32.30;0;1.70
2022-03-02 17:20:33;4.20;62;32.20;0;1.90
2022-03-02 17:25:33;4.20;61;33.20;0;1.20
2022-03-02 17:30:37;4.20;61;32.60;0;0.00
2022-03-02 17:35:36;4.20;62;32.20;0;2.49
2022-03-02 17:40:36;4.20;61;32.60;0;0.00
2022-03-02 17:45:35;4.20;63;32.70;0;0.00
2022-03-02 17:50:35;4.20;60;32.40;0;0.00
2022-03-02 17:55:34;4.20;62;32.40;0;0.00
2022-03-02 18:00:34;4.20;60;32.80;0;0.00
2022-03-02 18:05:33;4.20;59;32.70;0;0.00
2022-03-02 18:10:33;4.20;64;32.90;0;0.00
2022-03-02 18:15:32;4.20;62;32.30;0;0.00
2022-03-02 18:20:36;4.20;62;32.40;0;0.00
2022-03-02 18:25:35;4.20;65;32.20;0;0.00
2022-03-02 18:30:35;4.20;64;31.90;0;0.00
2022-03-02 18:35:34;4.20;62;31.80;0;0.00
2022-03-02 18:40:33;4.20;64;31.70;0;0.00
2022-03-02 18:45:32;4.20;63;32.30;0;0.00
2022-03-02 18:50:36;4.20;62;33.70;0;0.00
2022-03-02 18:55:35;4.20;61;34.00;0;0.00
2022-03-02 19:00:34;4.19;59;33.50;0;0.00
2022-03-02 19:05:33;4.19;60;33.30;0;0.00
2022-03-02 19:10:32;4.19;63;32.60;0;0.00
2022-03-02 19:15:36;4.19;63;31.70;0;0.00
2022-03-02 19:20:35;4.19;63;30.90;0;0.00
2022-03-02 19:25:34;4.19;68;29.70;0;0.00
2022-03-02 19:30:33;4.19;74;28.30;0;0.00
2022-03-02 19:35:36;4.19;74;27.40;0;0.00
2022-03-02 19:40:35;4.19;72;27.20;0;0.00
2022-03-02 19:45:33;4.19;73;26.80;0;0.00
2022-03-02 19:50:32;4.19;73;26.50;0;0.00
2022-03-02 19:55:35;4.18;76;26.50;0;0.00
2022-03-02 20:00:33;4.18;81;26.00;0;0.00
2022-03-02 20:05:32;4.18;78;25.20;0;0.00
2022-03-02 20:10:34;4.18;82;25.30;0;0.00
2022-03-02 20:15:33;4.18;82;25.00;0;0.00
2022-03-02 20:20:35;4.18;81;24.60;0;0.00
2022-03-02 20:25:33;4.18;81;24.50;0;0.00
2022-03-02 20:30:31;4.18;79;24.70;0;0.00
2022-03-02 20:35:34;4.17;80;24.70;0;0.00
2022-03-02 20:40:32;4.17;78;24.60;0;0.00
2022-03-02 20:45:35;4.17;77;25.10;0;0.00
2022-03-02 20:50:33;4.17;81;24.80;0;0.00
2022-03-02 20:55:35;4.17;82;24.20;0;0.00
2022-03-02 21:00:33;4.17;81;23.80;0;0.00
2022-03-02 21:05:35;4.17;80;24.10;0;0.00
2022-03-02 21:10:33;4.17;82;24.00;0;0.00
2022-03-02 21:15:31;4.17;81;23.80;0;0.00
2022-03-02 21:20:34;4.17;82;23.90;0;0.00
2022-03-02 21:25:32;4.17;83;23.60;0;0.00
2022-03-02 21:30:34;4.17;83;23.30;0;0.00
2022-03-02 21:35:32;4.17;82;23.40;0;0.00
2022-03-02 21:40:34;4.16;82;23.30;0;0.00
2022-03-02 21:45:32;4.16;83;23.20;0;0.00
2022-03-02 21:50:34;4.16;83;22.90;0;0.00
2022-03-02 21:55:32;4.16;82;22.70;0;0.00
2022-03-02 22:00:34;4.16;82;22.80;0;0.00
2022-03-02 22:05:32;4.16;82;22.70;0;0.00
2022-03-02 22:10:34;4.16;81;22.50;0;0.00
2022-03-02 22:15:32;4.16;80;22.30;0;0.00
2022-03-02 22:20:34;4.16;81;22.30;0;0.00
2022-03-02 22:25:32;4.16;81;22.00;0;0.00
2022-03-02 22:30:34;4.16;81;21.90;0;0.00
2022-03-02 22:35:32;4.16;81;22.00;0;0.00
2022-03-02 22:40:30;4.16;81;22.00;0;0.00
2022-03-02 22:45:32;4.16;81;21.90;0;0.00
2022-03-02 22:50:34;4.16;81;21.80;0;0.00
2022-03-02 22:55:32;4.16;81;21.80;0;0.00
2022-03-02 23:00:34;4.16;80;21.70;0;0.00
2022-03-02 23:05:32;4.16;80;21.70;0;0.00
2022-03-02 23:10:34;4.16;80;21.90;0;0.00
2022-03-02 23:15:32;4.15;81;21.80;0;0.00
2022-03-02 23:20:34;4.15;81;21.60;0;0.00
2022-03-02 23:25:31;4.15;80;21.20;0;0.00
2022-03-02 23:30:34;4.15;80;21.40;0;0.00
2022-03-02 23:35:31;4.15;80;20.70;0;0.00
2022-03-02 23:40:33;4.15;79;20.60;0;0.00
2022-03-02 23:45:31;4.15;79;20.70;0;0.00
2022-03-02 23:50:33;4.15;78;20.70;0;0.00
2022-03-02 23:55:31;4.15;78;20.70;0;0.00
