2022-02-13 00:00:30;4.12;99;12.00;0;0.00
2022-02-13 00:05:31;4.12;99;11.80;0;0.00
2022-02-13 00:10:32;4.12;99;11.80;0;0.00
2022-02-13 00:15:33;4.12;99;11.80;0;1.20
2022-02-13 00:20:30;4.12;99;11.70;0;1.30
2022-02-13 00:25:31;4.12;99;11.90;0;1.20
2022-02-13 00:30:32;4.12;99;11.90;0;1.10
2022-02-13 00:35:33;4.12;99;11.80;0;0.00
2022-02-13 00:40:30;4.12;99;11.60;0;0.00
2022-02-13 00:45:31;4.12;99;11.60;0;0.00
2022-02-13 00:50:32;4.11;99;11.40;0;0.00
2022-02-13 00:55:33;4.11;99;11.40;0;0.00
2022-02-13 01:00:34;4.12;99;11.40;0;0.00
2022-02-13 01:05:30;4.12;99;11.60;0;0.00
2022-02-13 01:10:31;4.12;99;11.50;0;0.00
2022-02-13 01:15:32;4.11;99;11.40;0;0.00
2022-02-13 01:20:33;4.11;99;11.30;0;0.00
2022-02-13 01:25:30;4.11;99;11.20;0;0.00
2022-02-13 01:30:31;4.11;99;11.20;0;0.00
2022-02-13 01:35:32;4.11;99;11.00;0;0.00
2022-02-13 01:40:33;4.11;99;11.00;0;0.00
2022-02-13 01:45:29;4.11;99;11.10;0;0.00
2022-02-13 01:50:30;4.11;99;11.00;0;0.00
2022-02-13 01:55:31;4.11;99;11.10;0;1.20
2022-02-13 02:00:32;4.11;99;11.10;0;1.20
2022-02-13 02:05:29;4.11;99;11.10;0;1.20
2022-02-13 02:10:34;4.11;99;11.00;0;1.40
2022-02-13 02:15:31;4.11;99;10.90;0;1.20
2022-02-13 02:20:32;4.11;99;10.60;0;1.20
2022-02-13 02:25:33;4.11;99;10.70;0;0.00
2022-02-13 02:30:29;4.11;99;10.70;0;1.20
2022-02-13 02:35:30;4.11;99;10.80;0;1.10
2022-02-13 02:40:31;4.11;99;10.80;0;0.00
2022-02-13 02:45:32;4.11;99;10.80;0;0.00
2022-02-13 02:50:29;4.11;99;10.70;0;1.20
2022-02-13 02:55:34;4.11;99;10.70;0;0.00
2022-02-13 03:00:30;4.11;99;10.50;0;0.00
2022-02-13 03:05:31;4.11;99;10.50;0;1.10
2022-02-13 03:10:32;4.10;99;10.50;0;0.00
2022-02-13 03:15:33;4.11;99;10.50;0;1.10
2022-02-13 03:20:30;4.11;99;10.40;0;0.00
2022-02-13 03:25:31;4.11;99;10.40;0;0.00
2022-02-13 03:30:31;4.10;99;10.40;0;0.00
2022-02-13 03:35:32;4.11;99;10.20;0;0.00
2022-02-13 03:40:33;4.11;99;10.00;0;0.00
2022-02-13 03:45:30;4.11;99;9.90;0;0.00
2022-02-13 03:50:31;4.10;99;10.00;0;0.00
2022-02-13 03:55:32;4.10;99;9.90;0;0.00
2022-02-13 04:00:32;4.10;99;9.90;0;0.00
2022-02-13 04:05:33;4.10;99;10.00;0;0.00
2022-02-13 04:10:30;4.10;99;9.80;0;0.00
2022-02-13 04:15:31;4.10;99;9.50;0;0.00
2022-02-13 04:20:31;4.10;99;9.60;0;0.00
2022-02-13 04:25:32;4.10;99;9.70;0;0.00
2022-02-13 04:30:33;4.10;99;9.80;0;0.00
2022-02-13 04:35:34;4.10;99;9.90;0;0.00
2022-02-13 04:40:30;4.10;99;9.70;0;0.00
2022-02-13 04:45:31;4.10;99;9.60;0;0.00
2022-02-13 04:50:32;4.10;99;9.50;0;1.10
2022-02-13 04:55:33;4.10;99;9.50;0;1.30
2022-02-13 05:00:29;4.10;99;9.50;0;1.20
2022-02-13 05:05:34;4.10;99;9.30;0;0.00
2022-02-13 05:10:31;4.10;99;9.40;0;1.10
2022-02-13 05:15:32;4.10;99;9.20;0;0.00
2022-02-13 05:20:32;4.10;99;9.00;0;0.00
2022-02-13 05:25:33;4.10;99;9.10;0;0.00
2022-02-13 05:30:29;4.10;99;9.00;0;0.00
2022-02-13 05:35:30;4.10;99;8.90;0;0.00
2022-02-13 05:40:31;4.10;99;8.90;0;0.00
2022-02-13 05:45:32;4.10;99;8.90;0;0.00
2022-02-13 05:50:33;4.10;99;8.60;0;0.00
2022-02-13 05:55:33;4.10;99;8.40;0;0.00
2022-02-13 06:00:30;4.10;99;8.60;0;1.20
2022-02-13 06:05:30;4.10;99;9.00;0;0.00
2022-02-13 06:10:31;4.09;99;8.80;0;0.00
2022-02-13 06:15:32;4.09;99;8.80;0;1.10
2022-02-13 06:20:33;4.09;99;8.70;0;0.00
2022-02-13 06:25:29;4.10;99;8.60;0;0.00
2022-02-13 06:30:34;4.09;99;8.70;0;0.00
2022-02-13 06:35:30;4.09;99;8.80;0;0.00
2022-02-13 06:40:31;4.09;99;8.70;0;0.00
2022-02-13 06:45:32;4.09;99;8.80;0;0.00
2022-02-13 06:50:33;4.09;99;8.60;0;0.00
2022-02-13 06:55:33;4.09;99;8.80;0;0.00
2022-02-13 07:00:29;4.09;99;8.90;0;0.00
2022-02-13 07:05:30;4.09;99;8.90;0;0.00
2022-02-13 07:10:31;4.09;99;8.90;0;0.00
2022-02-13 07:15:32;4.09;99;9.20;0;0.00
2022-02-13 07:20:32;4.09;99;9.70;0;0.00
2022-02-13 07:25:33;4.10;99;10.40;0;0.00
2022-02-13 07:30:30;4.09;99;10.90;0;0.00
2022-02-13 07:35:30;4.10;99;11.30;0;0.00
2022-02-13 07:40:31;4.10;99;11.80;0;0.00
2022-02-13 07:45:32;4.10;99;12.30;0;0.00
2022-02-13 07:50:33;4.10;99;12.70;0;0.00
2022-02-13 07:55:30;4.10;99;13.30;0;0.00
2022-02-13 08:00:31;4.10;99;13.70;0;0.00
2022-02-13 08:05:32;4.10;99;14.20;0;0.00
2022-02-13 08:10:33;4.11;99;14.50;0;0.00
2022-02-13 08:15:30;4.11;99;15.10;0;0.00
2022-02-13 08:20:31;4.11;99;15.20;0;0.00
2022-02-13 08:25:32;4.11;99;16.50;0;0.00
2022-02-13 08:30:34;4.11;99;16.40;0;0.00
2022-02-13 08:35:31;4.11;99;16.60;0;0.00
2022-02-13 08:40:32;4.12;99;17.10;0;0.00
2022-02-13 08:45:34;4.13;99;17.30;0;0.00
2022-02-13 08:50:31;4.13;99;18.00;0;0.00
2022-02-13 08:55:32;4.13;99;18.60;0;0.00
2022-02-13 09:00:30;4.13;0;19.30;0;0.00
2022-02-13 09:05:32;4.13;9;18.90;0;0.00
2022-02-13 09:10:34;4.14;99;18.20;0;0.00
2022-02-13 09:15:31;4.14;99;19.60;0;0.00
2022-02-13 09:20:33;4.14;30;20.30;0;0.00
2022-02-13 09:25:31;4.15;38;20.80;0;0.00
2022-02-13 09:30:33;4.15;22;21.40;0;0.00
2022-02-13 09:35:35;4.15;26;21.90;0;0.00
2022-02-13 09:40:33;4.15;13;21.30;0;0.00
2022-02-13 09:45:35;4.15;15;21.80;0;0.00
2022-02-13 09:50:33;4.15;7;21.40;0;0.00
2022-02-13 09:55:31;4.15;27;21.90;0;0.00
2022-02-13 10:00:34;4.15;1;21.50;0;1.90
2022-02-13 10:05:32;4.15;9;21.20;0;0.00
2022-02-13 10:10:34;4.16;27;22.30;0;1.30
2022-02-13 10:15:32;4.16;99;22.10;0;0.00
2022-02-13 10:20:35;4.16;43;22.70;0;1.20
2022-02-13 10:25:33;4.16;45;22.50;0;0.00
2022-02-13 10:30:36;4.16;36;22.10;0;0.00
2022-02-13 10:35:34;4.16;42;22.90;0;0.00
2022-02-13 10:40:32;4.16;52;23.20;0;0.00
2022-02-13 10:45:30;4.16;60;23.20;0;1.10
2022-02-13 10:50:33;4.16;62;23.60;0;0.00
2022-02-13 10:55:32;4.16;62;23.70;0;0.00
2022-02-13 11:00:35;4.16;61;23.50;0;0.00
2022-02-13 11:05:33;4.17;64;22.60;0;2.00
2022-02-13 11:10:32;4.16;62;23.00;0;0.00
2022-02-13 11:15:35;4.17;62;23.30;0;1.20
2022-02-13 11:20:33;4.17;62;24.40;0;0.00
2022-02-13 11:25:36;4.17;62;23.20;0;0.00
2022-02-13 11:30:35;4.17;61;24.90;0;0.00
2022-02-13 11:35:33;4.17;60;24.60;0;0.00
2022-02-13 11:40:36;4.17;62;24.50;0;1.30
2022-02-13 11:45:35;4.17;62;24.00;0;0.00
2022-02-13 11:50:34;4.17;60;24.30;0;0.00
2022-02-13 11:55:32;4.17;60;25.00;0;0.00
2022-02-13 12:00:36;4.17;61;24.70;0;0.00
2022-02-13 12:05:34;4.17;62;24.50;0;1.30
2022-02-13 12:10:33;4.17;62;24.30;0;0.00
2022-02-13 12:15:32;4.17;61;24.30;0;0.00
2022-02-13 12:20:35;4.17;61;24.50;0;0.00
2022-02-13 12:25:34;4.17;60;25.80;0;0.00
2022-02-13 12:30:32;4.17;60;25.80;0;0.00
2022-02-13 12:35:31;4.17;60;25.60;0;0.00
2022-02-13 12:40:35;4.17;59;26.10;0;0.00
2022-02-13 12:45:33;4.17;57;26.20;0;0.00
2022-02-13 12:50:32;4.18;61;25.30;0;1.60
2022-02-13 12:55:31;4.18;58;26.20;0;1.10
2022-02-13 13:00:35;4.18;59;25.40;0;0.00
2022-02-13 13:05:34;4.18;58;25.80;0;0.00
2022-02-13 13:10:32;4.18;57;27.20;0;0.00
2022-02-13 13:15:36;4.18;58;26.90;0;0.00
2022-02-13 13:20:35;4.18;58;26.30;0;0.00
2022-02-13 13:25:34;4.18;57;26.30;0;0.00
2022-02-13 13:30:33;4.18;60;26.40;0;0.00
2022-02-13 13:35:36;4.18;58;26.30;0;1.10
2022-02-13 13:40:31;4.18;59;26.60;0;0.00
2022-02-13 13:45:34;4.18;56;27.30;0;0.00
2022-02-13 13:50:33;4.18;55;27.90;0;0.00
2022-02-13 13:55:32;4.18;57;26.40;0;0.00
2022-02-13 14:00:31;4.18;57;26.90;0;0.00
2022-02-13 14:05:35;4.18;56;27.10;0;0.00
2022-02-13 14:10:34;4.18;58;27.10;0;1.40
2022-02-13 14:15:33;4.18;58;27.30;0;1.70
2022-02-13 14:20:32;4.18;58;27.70;0;1.10
2022-02-13 14:25:36;4.18;58;27.60;0;0.00
2022-02-13 14:30:35;4.18;57;27.80;0;0.00
2022-02-13 14:35:34;4.18;57;27.50;0;1.30
2022-02-13 14:40:33;4.18;58;27.60;0;1.20
2022-02-13 14:45:32;4.18;60;27.70;0;2.39
2022-02-13 14:50:36;4.18;57;27.40;0;0.00
2022-02-13 14:55:35;4.18;59;28.40;0;0.00
2022-02-13 15:00:34;4.19;57;28.00;0;0.00
2022-02-13 15:05:33;4.19;55;28.10;0;0.00
2022-02-13 15:10:36;4.19;54;28.80;0;0.00
2022-02-13 15:15:36;4.19;55;29.20;0;0.00
2022-02-13 15:20:35;4.19;54;29.30;0;0.00
2022-02-13 15:25:34;4.19;53;28.80;0;0.00
2022-02-13 15:30:33;4.19;53;28.70;0;1.80
2022-02-13 15:35:32;4.19;54;27.60;0;1.20
2022-02-13 15:40:36;4.19;54;28.00;0;1.20
2022-02-13 15:45:35;4.19;53;28.30;0;2.00
2022-02-13 15:50:34;4.19;55;27.70;0;2.09
2022-02-13 15:55:33;4.19;52;28.40;0;1.30
2022-02-13 16:00:32;4.19;52;28.80;0;1.10
2022-02-13 16:05:36;4.19;51;28.30;0;0.00
2022-02-13 16:10:35;4.19;49;28.40;0;0.00
2022-02-13 16:15:34;4.19;51;28.20;0;0.00
2022-02-13 16:20:33;4.19;49;29.20;0;0.00
2022-02-13 16:25:32;4.19;50;29.30;0;1.80
2022-02-13 16:30:31;4.19;51;28.70;0;0.00
2022-02-13 16:35:35;4.19;49;28.50;0;0.00
2022-02-13 16:40:34;4.19;49;28.20;0;1.20
2022-02-13 16:45:33;4.19;50;28.80;0;0.00
2022-02-13 16:50:37;4.19;50;28.80;0;0.00
2022-02-13 16:55:31;4.19;50;28.30;0;0.00
2022-02-13 17:00:35;4.19;50;29.80;0;0.00
2022-02-13 17:05:34;4.19;51;28.80;0;1.70
2022-02-13 17:10:33;4.19;50;29.10;0;1.30
2022-02-13 17:15:32;4.19;48;29.00;0;0.00
2022-02-13 17:20:35;4.19;50;28.60;0;1.10
2022-02-13 17:25:34;4.19;47;30.30;0;0.00
2022-02-13 17:30:33;4.19;48;28.50;0;1.40
2022-02-13 17:35:32;4.19;48;28.00;0;1.20
2022-02-13 17:40:36;4.19;47;28.50;0;1.20
2022-02-13 17:45:35;4.19;47;28.10;0;0.00
2022-02-13 17:50:34;4.19;46;28.60;0;0.00
2022-02-13 17:55:33;4.19;47;29.00;0;0.00
2022-02-13 18:00:32;4.19;48;28.90;0;1.20
2022-02-13 18:05:35;4.19;49;28.50;0;1.10
2022-02-13 18:10:34;4.19;47;28.20;0;1.10
2022-02-13 18:15:33;4.19;47;28.60;0;0.00
2022-02-13 18:20:31;4.19;46;28.50;0;0.00
2022-02-13 18:25:35;4.19;47;29.30;0;0.00
2022-02-13 18:30:33;4.19;46;28.90;0;0.00
2022-02-13 18:35:32;4.19;48;29.10;0;0.00
2022-02-13 18:40:31;4.19;51;28.10;0;0.00
2022-02-13 18:45:34;4.19;51;28.20;0;0.00
2022-02-13 18:50:33;4.19;46;29.20;0;0.00
2022-02-13 18:55:36;4.19;46;29.80;0;0.00
2022-02-13 19:00:35;4.18;45;30.00;0;0.00
2022-02-13 19:05:33;4.18;47;29.20;0;0.00
2022-02-13 19:10:32;4.18;48;29.40;0;0.00
2022-02-13 19:15:35;4.18;46;29.00;0;0.00
2022-02-13 19:20:34;4.18;49;28.80;0;0.00
2022-02-13 19:25:32;4.18;51;28.60;0;0.00
2022-02-13 19:30:35;4.18;52;27.70;0;0.00
2022-02-13 19:35:34;4.18;57;26.60;0;0.00
2022-02-13 19:40:32;4.17;60;25.50;0;0.00
2022-02-13 19:45:35;4.17;59;24.20;0;0.00
2022-02-13 19:50:33;4.17;62;23.10;0;0.00
2022-02-13 19:55:31;4.17;62;22.50;0;0.00
2022-02-13 20:00:34;4.17;63;22.00;0;0.00
2022-02-13 20:05:32;4.17;61;21.30;0;0.00
2022-02-13 20:10:34;4.17;52;20.50;0;0.00
2022-02-13 20:15:32;4.17;58;19.90;0;0.00
2022-02-13 20:20:34;4.16;60;19.90;0;0.00
2022-02-13 20:25:32;4.16;60;20.10;0;0.00
2022-02-13 20:30:34;4.16;62;20.10;0;0.00
2022-02-13 20:35:31;4.16;60;20.00;0;0.00
2022-02-13 20:40:33;4.16;60;20.00;0;0.00
2022-02-13 20:45:31;4.16;57;19.80;0;0.00
2022-02-13 20:50:33;4.16;57;19.60;0;0.00
2022-02-13 20:55:34;4.16;58;19.20;0;0.00
2022-02-13 21:00:32;4.15;55;19.20;0;0.00
2022-02-13 21:05:33;4.15;40;18.30;0;0.00
2022-02-13 21:10:31;4.15;41;18.30;0;0.00
2022-02-13 21:15:33;4.15;6;18.40;0;0.00
2022-02-13 21:20:34;4.15;24;18.10;0;0.00
2022-02-13 21:25:31;4.14;35;18.20;0;0.00
2022-02-13 21:30:33;4.14;43;18.40;0;0.00
2022-02-13 21:35:30;4.15;99;17.10;0;0.00
2022-02-13 21:40:32;4.15;99;16.50;0;0.00
2022-02-13 21:45:34;4.14;99;16.30;0;0.00
2022-02-13 21:50:31;4.14;99;16.00;0;0.00
2022-02-13 21:55:32;4.14;99;15.30;0;0.00
2022-02-13 22:00:34;4.14;99;15.30;0;0.00
2022-02-13 22:05:31;4.14;99;15.60;0;0.00
2022-02-13 22:10:32;4.14;99;15.60;0;0.00
2022-02-13 22:15:33;4.13;99;15.50;0;0.00
2022-02-13 22:20:30;4.13;99;15.30;0;0.00
2022-02-13 22:25:32;4.13;99;15.10;0;0.00
2022-02-13 22:30:33;4.13;99;15.00;0;0.00
2022-02-13 22:35:30;4.13;99;15.80;0;0.00
2022-02-13 22:40:32;4.13;99;15.90;0;0.00
2022-02-13 22:45:33;4.13;99;15.90;0;0.00
2022-02-13 22:50:34;4.13;10;16.00;0;0.00
2022-02-13 22:55:31;4.13;1;16.00;0;0.00
2022-02-13 23:00:32;4.13;99;15.30;0;0.00
2022-02-13 23:05:34;4.13;99;15.60;0;0.00
2022-02-13 23:10:31;4.13;99;14.90;0;0.00
2022-02-13 23:15:32;4.13;99;14.50;0;0.00
2022-02-13 23:20:33;4.13;99;13.80;0;0.00
2022-02-13 23:25:30;4.13;99;13.70;0;0.00
2022-02-13 23:30:32;4.13;99;13.90;0;0.00
2022-02-13 23:35:33;4.13;99;14.10;0;0.00
2022-02-13 23:40:34;4.13;99;14.50;0;0.00
2022-02-13 23:45:31;4.13;99;14.50;0;0.00
2022-02-13 23:50:32;4.13;99;14.40;0;0.00
2022-02-13 23:55:34;4.13;99;14.40;0;0.00
