2022-02-22 00:00:35;4.15;99;20.70;0;0.00
2022-02-22 00:05:33;4.15;99;20.70;0;0.00
2022-02-22 00:10:35;4.15;99;20.60;0;0.00
2022-02-22 00:15:32;4.15;99;20.60;0;0.00
2022-02-22 00:20:34;4.15;99;20.70;0;0.00
2022-02-22 00:25:32;4.15;99;20.70;0;0.00
2022-02-22 00:30:34;4.15;99;20.70;0;0.00
2022-02-22 00:35:32;4.15;99;20.70;0;0.00
2022-02-22 00:40:34;4.15;99;20.40;0;0.00
2022-02-22 00:45:31;4.15;99;20.30;0;0.00
2022-02-22 00:50:33;4.14;99;20.30;0;0.00
2022-02-22 00:55:31;4.15;99;20.30;0;0.00
2022-02-22 01:00:33;4.14;99;20.20;0;0.00
2022-02-22 01:05:30;4.15;99;20.30;0;0.00
2022-02-22 01:10:32;4.14;99;20.20;0;0.00
2022-02-22 01:15:34;4.14;99;20.10;0;0.00
2022-02-22 01:20:32;4.14;99;19.90;0;0.00
2022-02-22 01:25:34;4.14;99;19.60;0;0.00
2022-02-22 01:30:31;4.14;99;19.20;0;0.00
2022-02-22 01:35:33;4.14;99;19.30;0;0.00
2022-02-22 01:40:31;4.14;99;19.00;0;1.10
2022-02-22 01:45:33;4.14;99;18.90;0;0.00
2022-02-22 01:50:34;4.14;99;18.90;0;1.10
2022-02-22 01:55:32;4.14;99;18.90;0;0.00
2022-02-22 02:00:34;4.14;99;18.80;0;0.00
2022-02-22 02:05:31;4.14;99;18.90;0;0.00
2022-02-22 02:10:33;4.14;99;18.80;0;0.00
2022-02-22 02:15:35;4.14;99;18.90;0;0.00
2022-02-22 02:20:32;4.14;99;18.90;0;0.00
2022-02-22 02:25:29;4.14;99;18.80;0;0.00
2022-02-22 02:30:31;4.14;99;18.80;0;0.00
2022-02-22 02:35:33;4.14;99;18.70;0;0.00
2022-02-22 02:40:35;4.14;99;18.60;0;0.00
2022-02-22 02:45:32;4.14;99;18.60;0;0.00
2022-02-22 02:50:34;4.13;99;18.60;0;0.00
2022-02-22 02:55:31;4.14;99;18.60;0;0.00
2022-02-22 03:00:33;4.14;99;18.40;0;0.00
2022-02-22 03:05:35;4.13;99;18.30;0;0.00
2022-02-22 03:10:32;4.13;99;18.20;0;0.00
2022-02-22 03:15:34;4.13;99;18.00;0;0.00
2022-02-22 03:20:31;4.13;99;17.90;0;0.00
2022-02-22 03:25:33;4.13;99;17.90;0;0.00
2022-02-22 03:30:35;4.13;99;17.80;0;0.00
2022-02-22 03:35:32;4.13;99;17.70;0;0.00
2022-02-22 03:40:33;4.13;99;17.80;0;0.00
2022-02-22 03:45:31;4.13;99;17.80;0;0.00
2022-02-22 03:50:32;4.13;99;17.70;0;0.00
2022-02-22 03:55:34;4.13;99;17.80;0;0.00
2022-02-22 04:00:31;4.13;99;17.60;0;0.00
2022-02-22 04:05:33;4.13;99;17.70;0;0.00
2022-02-22 04:10:30;4.13;99;17.50;0;0.00
2022-02-22 04:15:32;4.13;99;17.40;0;0.00
2022-02-22 04:20:33;4.13;99;17.40;0;0.00
2022-02-22 04:25:30;4.13;99;17.50;0;0.00
2022-02-22 04:30:32;4.13;99;17.50;0;0.00
2022-02-22 04:35:34;4.13;99;17.60;0;0.00
2022-02-22 04:40:31;4.13;99;17.50;0;0.00
2022-02-22 04:45:32;4.13;99;17.30;0;0.00
2022-02-22 04:50:34;4.13;99;17.20;0;0.00
2022-02-22 04:55:31;4.13;99;17.30;0;0.00
2022-02-22 05:00:33;4.13;99;17.30;0;0.00
2022-02-22 05:05:30;4.13;99;17.30;0;0.00
2022-02-22 05:10:32;4.13;99;17.20;0;0.00
2022-02-22 05:15:33;4.13;99;17.10;0;0.00
2022-02-22 05:20:30;4.13;99;17.10;0;0.00
2022-02-22 05:25:32;4.13;99;17.10;0;0.00
2022-02-22 05:30:29;4.13;99;16.90;0;0.00
2022-02-22 05:35:31;4.13;99;16.90;0;0.00
2022-02-22 05:40:32;4.13;99;16.90;0;0.00
2022-02-22 05:45:34;4.13;99;16.80;0;0.00
2022-02-22 05:50:31;4.13;99;16.80;0;0.00
2022-02-22 05:55:33;4.13;99;16.80;0;0.00
2022-02-22 06:00:30;4.13;99;16.60;0;0.00
2022-02-22 06:05:31;4.13;99;16.60;0;0.00
2022-02-22 06:10:33;4.13;99;16.50;0;0.00
2022-02-22 06:15:35;4.13;99;16.60;0;0.00
2022-02-22 06:20:32;4.13;99;16.60;0;0.00
2022-02-22 06:25:33;4.13;99;16.50;0;0.00
2022-02-22 06:30:30;4.13;99;16.50;0;0.00
2022-02-22 06:35:32;4.13;99;16.50;0;0.00
2022-02-22 06:40:33;4.13;99;16.50;0;0.00
2022-02-22 06:45:30;4.13;99;16.40;0;0.00
2022-02-22 06:50:32;4.13;99;16.40;0;0.00
2022-02-22 06:55:34;4.12;99;16.50;0;0.00
2022-02-22 07:00:31;4.12;99;16.50;0;0.00
2022-02-22 07:05:32;4.12;99;16.50;0;0.00
2022-02-22 07:10:34;4.12;99;16.60;0;0.00
2022-02-22 07:15:31;4.12;99;16.60;0;0.00
2022-02-22 07:20:32;4.12;99;16.80;0;0.00
2022-02-22 07:25:34;4.13;99;17.00;0;0.00
2022-02-22 07:30:31;4.13;99;17.60;0;0.00
2022-02-22 07:35:32;4.12;99;18.00;0;0.00
2022-02-22 07:40:34;4.13;99;18.20;0;0.00
2022-02-22 07:45:31;4.13;99;18.70;0;0.00
2022-02-22 07:50:33;4.13;99;19.60;0;0.00
2022-02-22 07:55:35;4.13;99;20.00;0;0.00
2022-02-22 08:00:32;4.13;99;20.40;0;0.00
2022-02-22 08:05:34;4.13;99;20.70;0;0.00
2022-02-22 08:10:31;4.13;99;20.80;0;0.00
2022-02-22 08:15:33;4.13;99;21.20;0;0.00
2022-02-22 08:20:31;4.13;99;21.70;0;0.00
2022-02-22 08:25:33;4.13;99;22.80;0;0.00
2022-02-22 08:30:35;4.13;99;23.20;0;0.00
2022-02-22 08:35:33;4.14;99;23.40;0;0.00
2022-02-22 08:40:35;4.14;14;23.90;0;0.00
2022-02-22 08:45:33;4.14;22;24.20;0;0.00
2022-02-22 08:50:35;4.15;33;24.60;0;0.00
2022-02-22 08:55:33;4.15;44;25.00;0;0.00
2022-02-22 09:00:36;4.15;53;25.30;0;0.00
2022-02-22 09:05:34;4.15;57;25.80;0;0.00
2022-02-22 09:10:32;4.16;61;26.40;0;0.00
2022-02-22 09:15:35;4.16;61;26.30;0;0.00
2022-02-22 09:20:33;4.16;62;25.80;0;0.00
2022-02-22 09:25:31;4.16;63;26.20;0;0.00
2022-02-22 09:30:35;4.16;63;26.50;0;0.00
2022-02-22 09:35:33;4.16;64;26.40;0;0.00
2022-02-22 09:40:36;4.16;64;26.90;0;0.00
2022-02-22 09:45:35;4.17;64;27.60;0;0.00
2022-02-22 09:50:08;4.16;65;27.60;7;0.00
2022-02-22 09:55:34;4.17;65;27.60;7;0.00
2022-02-22 10:00:33;4.17;65;27.40;7;0.00
2022-02-22 10:05:32;4.17;65;27.70;7;0.00
2022-02-22 10:10:35;4.17;66;27.40;7;0.00
2022-02-22 10:15:34;4.17;65;28.60;7;0.00
2022-02-22 10:20:33;4.17;66;27.80;7;0.00
2022-02-22 10:25:32;4.17;65;28.70;7;0.00
2022-02-22 10:30:36;4.17;65;28.50;7;0.00
2022-02-22 10:35:35;4.17;66;28.50;7;0.00
2022-02-22 10:40:34;4.17;66;28.00;7;0.00
2022-02-22 10:45:33;4.17;66;27.80;7;0.00
2022-02-22 10:50:32;4.18;67;27.90;7;0.00
2022-02-22 10:55:35;4.18;66;28.70;7;0.00
2022-02-22 11:00:35;4.18;66;28.80;7;0.00
2022-02-22 11:05:34;4.18;66;29.10;7;0.00
2022-02-22 11:10:33;4.18;66;28.50;7;1.10
2022-02-22 11:15:32;4.18;66;29.20;7;0.00
2022-02-22 11:20:36;4.18;65;29.20;7;0.00
2022-02-22 11:25:35;4.18;65;29.50;7;0.00
2022-02-22 11:30:34;4.18;64;29.10;7;0.00
2022-02-22 11:35:34;4.18;65;29.40;7;0.00
2022-02-22 11:40:33;4.18;64;29.80;7;0.00
2022-02-22 11:45:33;4.18;63;29.70;7;0.00
2022-02-22 11:50:37;4.18;62;29.60;7;0.00
2022-02-22 11:55:36;4.18;63;29.80;7;0.00
2022-02-22 12:00:35;4.18;63;30.60;7;0.00
2022-02-22 12:05:35;4.18;63;29.70;7;0.00
2022-02-22 12:10:35;4.19;63;29.80;7;0.00
2022-02-22 12:15:34;4.18;63;30.70;7;0.00
2022-02-22 12:20:34;4.18;61;31.20;7;0.00
2022-02-22 12:25:33;4.18;63;30.70;7;1.80
2022-02-22 12:30:33;4.19;64;30.00;7;0.00
2022-02-22 12:35:33;4.19;64;30.90;7;0.00
2022-02-22 12:40:37;4.19;64;30.90;7;0.00
2022-02-22 12:45:36;4.19;63;30.60;7;0.00
2022-02-22 12:50:36;4.19;66;29.90;7;0.00
2022-02-22 12:55:36;4.19;62;30.90;7;0.00
2022-02-22 13:00:35;4.19;61;31.40;7;0.00
2022-02-22 13:05:35;4.19;61;31.20;7;0.00
2022-02-22 13:10:35;4.19;61;32.10;7;0.00
2022-02-22 13:15:34;4.19;63;31.40;7;0.00
2022-02-22 13:20:34;4.19;62;30.70;7;0.00
2022-02-22 13:25:34;4.19;60;30.80;7;0.00
2022-02-22 13:30:34;4.19;61;31.30;7;0.00
2022-02-22 13:35:33;4.19;62;31.40;7;0.00
2022-02-22 13:40:33;4.19;61;31.40;7;0.00
2022-02-22 13:45:37;4.19;61;32.00;7;0.00
2022-02-22 13:50:32;4.19;61;32.20;7;0.00
2022-02-22 13:55:32;4.19;59;32.80;7;0.00
2022-02-22 14:00:37;4.19;59;33.00;7;0.00
2022-02-22 14:05:36;4.20;59;33.20;7;0.00
2022-02-22 14:10:36;4.20;59;31.80;7;0.00
2022-02-22 14:15:36;4.20;62;31.10;7;0.00
2022-02-22 14:20:31;4.20;60;32.70;7;0.00
2022-02-22 14:25:36;4.20;60;31.60;7;0.00
2022-02-22 14:30:36;4.20;57;32.80;7;0.00
2022-02-22 14:35:35;4.20;59;32.40;7;0.00
2022-02-22 14:40:35;4.20;58;31.90;7;0.00
2022-02-22 14:45:35;4.20;57;31.70;7;0.00
2022-02-22 14:50:35;4.20;58;32.80;7;1.10
2022-02-22 14:55:35;4.20;57;33.40;7;1.60
2022-02-22 15:00:35;4.20;57;32.50;7;1.10
2022-02-22 15:05:34;4.20;57;32.60;7;0.00
2022-02-22 15:10:34;4.20;56;32.60;7;0.00
2022-02-22 15:15:34;4.20;56;33.70;7;0.00
2022-02-22 15:20:34;4.20;58;32.50;7;0.00
2022-02-22 15:25:34;4.20;56;33.50;7;0.00
2022-02-22 15:30:34;4.20;55;33.70;7;0.00
2022-02-22 15:35:34;4.20;54;33.60;7;0.00
2022-02-22 15:40:34;4.20;55;32.70;7;0.00
2022-02-22 15:45:34;4.20;56;32.80;7;0.00
2022-02-22 15:50:33;4.20;57;33.40;7;0.00
2022-02-22 15:55:33;4.20;56;33.70;7;0.00
2022-02-22 16:00:33;4.20;54;33.60;7;0.00
2022-02-22 16:05:33;4.20;55;33.40;7;0.00
2022-02-22 16:10:33;4.20;56;33.00;7;0.00
2022-02-22 16:15:33;4.20;55;33.90;7;0.00
2022-02-22 16:20:33;4.20;55;33.60;7;0.00
2022-02-22 16:25:38;4.20;56;33.10;7;0.00
2022-02-22 16:30:33;4.20;56;33.90;7;0.00
2022-02-22 16:35:37;4.20;56;33.30;7;0.00
2022-02-22 16:40:33;4.20;56;33.10;7;0.00
2022-02-22 16:45:37;4.20;56;33.60;7;0.00
2022-02-22 16:50:32;4.20;54;34.00;7;0.00
2022-02-22 16:55:37;4.20;55;33.40;7;1.10
2022-02-22 17:00:32;4.20;55;33.20;7;0.00
2022-02-22 17:05:37;4.20;54;33.60;7;0.00
2022-02-22 17:10:36;4.20;54;34.30;7;0.00
2022-02-22 17:15:36;4.20;54;33.50;7;0.00
2022-02-22 17:20:36;4.20;54;33.60;7;1.30
2022-02-22 17:25:31;4.20;55;32.60;7;0.00
2022-02-22 17:30:36;4.20;55;33.00;7;0.00
2022-02-22 17:35:35;4.21;54;33.00;7;0.00
2022-02-22 17:40:35;4.21;55;32.60;7;1.30
2022-02-22 17:45:35;4.20;55;32.40;7;1.30
2022-02-22 17:50:34;4.20;54;32.30;7;0.00
2022-02-22 17:55:34;4.20;55;31.90;7;1.10
2022-02-22 18:00:34;4.21;56;32.20;7;0.00
2022-02-22 18:05:33;4.20;56;32.10;7;0.00
2022-02-22 18:10:33;4.20;56;32.10;7;1.30
2022-02-22 18:15:37;4.20;56;31.90;7;0.00
2022-02-22 18:20:32;4.20;55;31.90;7;0.00
2022-02-22 18:25:36;4.20;56;31.80;7;1.10
2022-02-22 18:30:35;4.20;56;31.50;7;1.50
2022-02-22 18:35:34;4.20;57;31.60;7;0.00
2022-02-22 18:40:34;4.20;58;31.40;7;0.00
2022-02-22 18:45:33;4.20;58;31.20;7;0.00
2022-02-22 18:50:37;4.20;59;31.10;7;0.00
2022-02-22 18:55:36;4.20;60;30.80;7;0.00
2022-02-22 19:00:35;4.20;60;30.40;7;0.00
2022-02-22 19:05:34;4.20;61;30.10;7;0.00
2022-02-22 19:10:33;4.20;62;29.90;7;0.00
2022-02-22 19:15:32;4.20;63;29.60;7;0.00
2022-02-22 19:20:36;4.20;64;29.10;7;0.00
2022-02-22 19:25:35;4.19;65;28.60;7;0.00
2022-02-22 19:30:34;4.19;66;28.10;7;0.00
2022-02-22 19:35:32;4.19;67;27.60;7;0.00
2022-02-22 19:40:36;4.19;68;27.20;7;0.00
2022-02-22 19:45:34;4.19;69;26.90;7;0.00
2022-02-22 19:50:33;4.19;69;26.60;7;0.00
2022-02-22 19:55:36;4.19;70;26.00;7;0.00
2022-02-22 20:00:35;4.19;70;25.60;7;0.00
2022-02-22 20:05:33;4.18;70;25.20;7;0.00
2022-02-22 20:10:36;4.18;69;25.00;7;0.00
2022-02-22 20:15:34;4.18;69;24.90;7;0.00
2022-02-22 20:20:32;4.18;68;24.60;7;0.00
2022-02-22 20:25:35;4.18;67;24.30;7;0.00
2022-02-22 20:30:33;4.18;67;24.10;7;0.00
2022-02-22 20:35:31;4.18;67;24.10;7;0.00
2022-02-22 20:40:34;4.18;67;24.00;7;0.00
2022-02-22 20:45:32;4.18;66;23.80;7;0.00
2022-02-22 20:50:35;4.17;65;23.50;7;0.00
2022-02-22 20:55:33;4.17;62;23.10;7;0.00
2022-02-22 21:00:35;4.17;60;23.00;7;0.00
2022-02-22 21:05:33;4.17;60;23.00;7;0.00
2022-02-22 21:10:31;4.17;60;23.00;7;0.00
2022-02-22 21:15:34;4.17;59;23.00;7;0.00
2022-02-22 21:20:31;4.17;59;23.00;7;0.00
2022-02-22 21:25:34;4.17;60;23.10;7;0.00
2022-02-22 21:30:32;4.17;60;23.10;7;0.00
2022-02-22 21:35:34;4.17;61;23.10;7;0.00
2022-02-22 21:40:32;4.17;61;23.20;7;0.00
2022-02-22 21:45:34;4.17;62;23.30;7;0.00
2022-02-22 21:50:32;4.16;63;23.30;7;0.00
2022-02-22 21:55:34;4.16;64;23.60;7;0.00
2022-02-22 22:00:32;4.17;64;23.40;7;0.00
2022-02-22 22:05:35;4.17;63;23.20;7;0.00
2022-02-22 22:10:32;4.16;61;23.00;7;0.00
2022-02-22 22:15:35;4.16;58;22.70;7;0.00
2022-02-22 22:20:32;4.16;58;22.80;7;0.00
2022-02-22 22:25:35;4.16;59;22.80;7;0.00
2022-02-22 22:30:33;4.16;58;22.70;7;0.00
2022-02-22 22:35:35;4.16;57;22.60;7;0.00
2022-02-22 22:40:33;4.16;57;22.70;7;0.00
2022-02-22 22:45:30;4.16;56;22.60;7;0.00
2022-02-22 22:50:33;4.16;53;22.40;7;0.00
2022-02-22 22:55:35;4.16;50;22.30;7;0.00
2022-02-22 23:00:33;4.16;50;22.40;7;0.00
2022-02-22 23:05:35;4.16;47;22.20;7;0.00
2022-02-22 23:10:33;4.16;46;22.20;7;0.00
2022-02-22 23:15:35;4.16;43;22.00;7;0.00
2022-02-22 23:20:32;4.16;42;22.10;7;0.00
2022-02-22 23:25:35;4.16;41;22.00;7;0.00
2022-02-22 23:30:32;4.16;39;21.90;7;0.00
2022-02-22 23:35:30;4.15;35;21.90;7;0.00
2022-02-22 23:40:32;4.15;32;21.70;7;0.00
2022-02-22 23:45:34;4.15;27;21.60;7;0.00
2022-02-22 23:50:32;4.16;21;21.50;7;0.00
2022-02-22 23:55:34;4.15;13;21.30;7;0.00
