2021-03-16 00:04:22;4.13;115.36;99;19.00
2021-03-16 00:34:22;4.13;115.69;99;20.30
2021-03-16 01:04:22;4.13;113.91;96;20.80
2021-03-16 01:34:23;4.13;115.36;94;20.80
2021-03-16 02:04:24;4.13;115.04;95;20.70
2021-03-16 02:34:25;4.13;113.59;93;21.80
2021-03-16 03:04:27;4.13;115.36;95;21.40
2021-03-16 03:34:24;4.13;114.08;99;20.10
2021-03-16 04:04:24;4.13;115.36;99;19.00
2021-03-16 04:34:19;4.13;115.04;99;19.10
2021-03-16 05:04:24;4.13;115.04;99;19.40
2021-03-16 05:34:24;4.13;111.98;99;20.30
2021-03-16 06:04:24;4.13;112.30;99;19.70
2021-03-16 06:34:24;4.13;115.04;99;19.40
2021-03-16 07:04:24;4.13;114.40;99;19.90
2021-03-16 07:34:25;4.13;115.69;99;20.50
2021-03-16 08:04:25;4.13;113.59;99;20.60
2021-03-16 08:34:26;4.13;112.95;99;21.20
2021-03-16 09:04:23;4.13;111.34;99;20.20
2021-03-16 09:34:24;4.13;113.27;99;18.60
2021-03-16 10:04:24;4.13;111.34;99;18.30
2021-03-16 10:34:23;4.13;111.34;99;18.10
2021-03-16 11:04:23;4.13;111.34;99;18.30
2021-03-16 11:34:22;4.13;111.66;95;18.10
2021-03-16 12:04:21;4.13;113.91;96;18.30
2021-03-16 12:34:25;4.13;114.08;78;18.40
2021-03-16 13:04:20;4.13;114.08;88;18.70
2021-03-16 13:34:25;4.13;113.91;90;20.40
2021-03-16 14:04:26;4.13;113.59;97;21.80
2021-03-16 14:34:25;4.13;112.62;99;22.60
2021-03-16 15:04:29;4.13;114.40;99;24.20
2021-03-16 15:34:31;4.13;114.08;99;25.60
2021-03-16 16:04:29;4.13;112.95;99;26.50
2021-03-16 16:34:28;4.13;114.72;99;25.30
2021-03-16 17:04:31;4.13;113.27;99;26.10
2021-03-16 17:34:30;4.13;115.36;88;27.40
2021-03-16 18:04:29;4.14;115.04;93;25.90
2021-03-16 18:34:27;4.13;114.40;98;24.60
2021-03-16 19:04:29;4.14;114.40;95;24.40
2021-03-16 19:34:29;4.13;112.95;99;22.30
2021-03-16 20:04:27;4.13;112.95;99;21.40
2021-03-16 20:34:24;4.13;114.40;99;21.20
2021-03-16 21:04:26;4.13;114.08;99;21.20
2021-03-16 21:34:23;4.13;114.08;99;20.40
2021-03-16 22:04:24;4.13;112.30;99;20.30
2021-03-16 22:34:25;4.13;111.66;99;20.50
2021-03-16 23:04:26;4.13;113.59;99;20.10
2021-03-16 23:34:22;4.13;111.34;99;19.20
