2021-02-28 00:04:28;4.14;123.42;99;22.40
2021-02-28 00:34:26;4.14;123.42;99;22.20
2021-02-28 01:04:24;4.14;123.42;99;22.00
2021-02-28 01:34:26;4.14;123.42;99;22.40
2021-02-28 02:04:23;4.14;121.65;99;22.10
2021-02-28 02:34:25;4.14;123.74;99;21.60
2021-02-28 03:04:26;4.14;124.06;99;21.20
2021-02-28 03:34:23;4.14;122.13;99;21.20
2021-02-28 04:04:24;4.14;122.45;99;21.50
2021-02-28 04:34:25;4.14;124.39;99;21.00
2021-02-28 05:04:22;4.14;122.13;99;20.50
2021-02-28 05:34:23;4.14;122.13;99;20.60
2021-02-28 06:04:24;4.14;121.81;99;20.70
2021-02-28 06:34:25;4.14;121.81;99;20.90
2021-02-28 07:04:26;4.14;123.42;99;21.30
2021-02-28 07:34:23;4.14;121.65;99;22.50
2021-02-28 08:04:26;4.14;123.10;99;23.80
2021-02-28 08:34:27;4.14;121.65;99;25.60
2021-02-28 09:04:30;4.14;123.10;95;26.60
2021-02-28 09:34:29;4.14;123.10;89;27.80
2021-02-28 10:04:34;4.14;121.49;85;29.10
2021-02-28 10:34:30;4.14;123.10;82;30.20
2021-02-28 11:04:33;4.14;121.16;82;30.30
2021-02-28 11:34:36;4.14;121.65;81;30.70
2021-02-28 12:04:35;4.14;123.42;76;31.50
2021-02-28 12:34:34;4.14;121.81;71;33.00
2021-02-28 13:04:36;4.14;122.13;71;34.70
2021-02-28 13:34:38;4.15;122.13;66;33.90
2021-02-28 14:04:36;4.15;122.78;64;35.50
2021-02-28 14:34:40;4.15;124.71;60;35.50
2021-02-28 15:04:40;4.15;123.10;59;35.90
2021-02-28 15:34:40;4.15;125.03;59;35.00
2021-02-28 16:04:39;4.15;123.10;62;32.90
2021-02-28 16:34:36;4.15;125.03;61;34.20
2021-02-28 17:04:38;4.15;125.35;62;34.10
2021-02-28 17:34:35;4.15;123.42;65;33.00
2021-02-28 18:04:36;4.15;123.10;68;31.90
2021-02-28 18:34:35;4.15;125.03;70;31.70
2021-02-28 19:04:34;4.15;124.71;75;29.80
2021-02-28 19:34:31;4.15;122.78;83;27.60
2021-02-28 20:04:30;4.15;122.78;90;25.50
2021-02-28 20:34:27;4.15;125.03;95;24.00
2021-02-28 21:04:26;4.15;122.78;96;23.30
2021-02-28 21:34:25;4.15;122.45;99;21.40
2021-02-28 22:04:27;4.15;122.78;96;23.30
2021-02-28 22:34:25;4.15;124.39;99;22.60
2021-02-28 23:04:28;4.15;123.74;99;22.40
2021-02-28 23:34:25;4.15;124.06;99;22.40
