AÑO;ENE;FEB;MAR;ABR;MAY;JUN;JUL;AGO;SEP;OCT;NOV;DIC
1969;;;;;;;;;11.82;11.87;11.94;11.99
1970;12.01;12.04;12.05;12.06;12.09;12.11;12.12;12.15;12.14;12.16;12.18;12.21
1971;12.23;12.26;12.25;12.19;12.13;12.07;12.02;11.99;11.98;11.97;12.02;12.10
1972;12.14;12.22;12.23;12.21;12.24;12.27;12.28;12.29;12.29;12.25;12.18;12.17
1973;12.18;12.12;11.72;11.07;10.14;9.50;8.97;8.75;8.65;8.59;8.57;8.62
1974;8.71;8.80;8.87;8.85;8.89;8.86;8.96;9.04;9.10;9.13;9.20;9.24
1975;9.33;9.36;9.41;9.11;8.66;8.28;8.12;8.01;7.98;7.94;7.88;7.83
1976;7.88;7.92;8.00;8.11;8.20;8.33;8.41;8.51;8.55;8.61;8.69;8.73
1977;8.78;8.80;8.01;6.41;6.32;6.37;6.43;6.50;6.57;6.63;6.53;6.15
1978;5.33;4.37;3.79;2.70;2.81;2.91;2.94;2.98;3.05;3.04;2.99;2.37
1979;2.32;2.59;2.79;2.97;3.12;3.25;3.34;3.45;3.53;3.56;3.62;3.65
1980;3.76;4.04;4.28;4.07;3.95;3.89;3.94;3.86;3.92;4.01;4.27;4.55
1981;4.71;2.21;2.15;1.51;0.38;0.63;1.00;1.13;1.28;1.50;1.77;1.97
1982;2.07;2.20;2.37;2.42;2.47;2.44;2.47;2.55;2.55;2.53;2.70;2.97
1983;3.27;3.20;2.49;2.31;2.16;2.21;2.30;2.38;2.42;2.49;2.65;2.83
1984;3.06;3.26;2.92;2.80;2.87;3.00;3.12;3.23;3.35;3.44;3.41;3.60
1985;4.00;4.40;4.51;4.61;4.59;4.61;4.36;4.11;4.11;3.90;3.84;3.95
1986;4.19;4.28;3.95;3.62;2.50;2.57;2.57;2.51;2.58;2.72;2.79;2.32
1987;2.25;2.44;2.12;0.56;0.35;0.53;0.86;1.02;1.24;1.57;1.92;2.11
1988;2.34;2.48;2.67;2.87;3.07;3.20;3.33;3.41;3.55;3.68;3.97;4.24
1989;4.45;4.67;4.85;4.90;4.96;5.00;5.07;5.14;5.24;5.39;5.55;5.41
1990;5.58;4.55;4.31;4.13;4.19;4.33;4.37;4.54;4.67;4.84;5.11;4.91
1991;3.98;4.09;4.34;4.59;4.34;3.49;3.34;3.36;3.29;3.37;3.54;3.13
1992;2.28;2.29;2.44;2.23;2.30;2.41;2.49;2.58;2.51;2.59;2.63;1.85
1993;1.11;1.29;1.76;1.93;1.93;2.03;2.12;2.15;2.26;2.32;0.80;0.70
1994;1.10;1.47;1.75;1.88;1.99;2.10;2.23;2.34;2.48;2.68;2.94;3.27
1995;3.68;4.06;4.35;4.54;4.39;4.51;4.63;4.74;4.84;4.37;3.81;3.84
1996;4.22;4.45;4.54;4.63;4.75;4.91;5.00;5.13;5.28;5.38;5.48;5.70
1997;5.98;6.20;6.46;6.74;7.01;7.15;7.21;7.29;7.40;7.55;7.70;7.72
1998;7.27;6.58;6.09;5.91;5.97;6.00;6.05;6.14;6.21;6.34;6.51;6.74
1999;6.98;6.85;6.88;6.58;5.12;5.16;5.20;5.24;5.34;5.45;5.62;5.73
2000;5.86;6.10;6.39;5.60;4.66;4.52;4.62;4.75;4.84;4.95;4.96;4.77
2001;4.60;4.36;4.62;4.79;4.95;5.07;5.15;5.24;5.36;4.96;4.43;4.39
2002;4.40;4.45;4.91;4.47;4.28;4.09;4.10;4.17;4.24;4.33;4.33;3.73
2003;3.73;3.44;2.89;2.55;1.23;1.45;1.64;1.25;1.46;1.26;0.99;1.17
2004;1.39;2.17;3.14;3.49;3.52;3.60;3.65;3.65;3.83;4.10;4.25;4.31
2005;4.26;4.33;3.78;3.05;2.71;2.75;2.78;2.88;2.97;3.06;3.08;3.08
2006;3.36;3.67;3.70;3.64;3.79;3.90;3.81;3.95;4.07;4.22;4.44;4.01
2007;3.27;3.57;2.42;0.36;0.48;0.79;0.70;1.00;0.96;1.13;1.46;1.74
2008;1.85;1.70;1.52;1.59;1.70;1.86;1.98;2.09;2.21;2.30;2.38;2.50
2009;2.75;2.86;2.32;2.64;2.99;3.27;3.46;3.62;3.76;3.84;4.03;3.30
2010;2.95;2.71;2.64;2.85;2.97;3.08;3.21;3.32;3.43;3.53;3.75;3.99
2011;4.18;3.89;3.93;4.07;4.13;4.15;4.17;4.22;4.28;4.30;3.74;3.61
2012;3.92;4.24;4.15;4.16;4.39;4.53;4.62;4.64;4.58;4.30;4.09;3.12
2013;2.24;2.47;2.53;2.58;2.45;2.60;2.73;2.85;2.99;3.23;2.75;2.29
2014;2.53;1.87;0.58;0.28;0.29;0.62;0.86;1.07;1.02;1.24;1.15;1.19
2015;0.70;0.65;0.51;0.90;1.11;1.24;1.37;1.15;1.18;1.15;1.18;0.97
2016;1.30;0.95;0.52;0.05;0.37;0.52;0.36;0.69;0.98;0.95;0.98;1.05
2017;0.27;0.60;0.99;0.65;0.64;0.92;0.92;1.05;0.99;0.48;0.58;1.13
2018;1.47;1.77;2.06;2.38;2.49;2.60;2.70;2.79;2.88;2.98;2.21;1.62
2019;1.30;1.29;1.63;1.93;1.49;1.50;1.58;1.62;1.58;1.76;2.00;2.12
2020;2.11;2.09;2.35;2.49;2.70;2.82;2.94;3.05;3.16;3.31;3.54;3.78
2021;3.88;2.82;3.04;3.12;3.20;3.29;3.39;3.48;3.57;3.66;3.68;3.84
2022;4.09;4.31;4.45;4.57;4.68;4.79;4.89;4.99;5.08;5.18;5.28;5.41
2023;5.54;5.69;5.67;5.22;5.40;5.46;5.58;5.74;5.94;6.19;6.37;6.33
2024;6.17;;;;;;;;;;;
