#2021-01-12 11:06:59;4.14;104.57;85;24.10
2021-01-12 11:34:09;4.14;104.89;83;25.10
2021-01-12 12:04:35;4.14;106.34;77;27.40
2021-01-12 12:34:29;4.14;104.57;77;27.00
2021-01-12 13:04:33;4.14;106.66;76;27.30
2021-01-12 13:34:32;4.15;105.54;74;27.40
2021-01-12 14:04:32;4.15;106.99;71;29.60
2021-01-12 14:34:34;4.15;105.21;69;29.30
2021-01-12 15:04:31;4.15;105.70;69;29.30
2021-01-12 15:34:34;4.15;106.02;72;27.90
2021-01-12 16:04:32;4.15;107.63;65;29.90
2021-01-12 16:34:35;4.15;107.95;66;30.10
2021-01-12 17:04:33;4.15;106.66;67;30.10
2021-01-12 17:34:32;4.15;106.66;66;29.60
2021-01-12 18:04:34;4.15;106.66;67;28.80
2021-01-12 18:34:32;4.15;108.27;69;28.20
2021-01-12 19:04:33;4.15;106.66;69;27.70
2021-01-12 19:34:29;4.15;106.34;74;26.20
2021-01-12 20:04:31;4.15;107.63;82;24.00
2021-01-12 20:34:26;4.15;105.70;91;21.90
2021-01-12 21:04:24;4.15;106.99;98;20.60
2021-01-12 21:34:25;4.15;104.89;99;19.60
2021-01-12 22:04:24;4.15;104.89;99;18.70
2021-01-12 22:34:23;4.15;104.89;99;18.50
2021-01-12 23:04:22;4.15;103.92;99;17.60
2021-01-12 23:34:20;4.15;106.02;99;17.10
