2021-01-17 00:04:20;4.14;102.96;99;18.30
2021-01-17 00:34:23;4.14;104.57;99;18.10
2021-01-17 01:04:21;4.14;104.57;99;17.70
2021-01-17 01:34:19;4.14;102.96;99;17.20
2021-01-17 02:04:21;4.14;104.57;99;16.80
2021-01-17 02:34:18;4.14;102.96;99;16.30
2021-01-17 03:04:20;4.14;102.96;99;15.70
2021-01-17 03:34:21;4.14;104.57;99;15.40
2021-01-17 04:04:22;4.13;104.57;99;14.90
2021-01-17 04:34:18;4.13;102.96;99;14.60
2021-01-17 05:04:18;4.13;102.96;99;14.30
2021-01-17 05:34:18;4.13;102.96;99;13.80
2021-01-17 06:04:17;4.13;104.57;99;13.70
2021-01-17 06:34:17;4.13;104.57;99;13.60
2021-01-17 07:04:21;4.13;102.96;99;14.10
2021-01-17 07:34:17;4.13;102.96;99;15.20
2021-01-17 08:04:20;4.13;102.96;97;16.50
2021-01-17 08:34:23;4.13;104.57;92;17.60
2021-01-17 09:04:23;4.13;104.57;88;18.80
2021-01-17 09:34:24;4.13;102.96;84;20.20
2021-01-17 10:04:27;4.13;104.57;82;20.90
2021-01-17 10:34:25;4.14;102.96;79;22.40
2021-01-17 11:04:29;4.14;104.57;71;23.10
2021-01-17 11:34:28;4.14;103.28;66;23.90
2021-01-17 12:04:29;4.14;103.28;65;24.90
2021-01-17 12:34:30;4.14;105.70;59;24.80
2021-01-17 13:04:26;4.14;105.70;60;25.60
2021-01-17 13:34:28;4.14;103.60;57;25.40
2021-01-17 14:04:30;4.14;103.92;61;26.50
2021-01-17 14:34:29;4.14;103.92;59;26.60
2021-01-17 15:04:32;4.14;106.02;56;26.40
2021-01-17 15:34:31;4.14;106.02;58;27.30
2021-01-17 16:04:30;4.14;104.89;55;26.80
2021-01-17 16:34:30;4.14;104.57;61;27.90
2021-01-17 17:04:30;4.14;103.92;54;27.50
2021-01-17 17:34:31;4.14;106.02;53;27.30
2021-01-17 18:04:31;4.14;106.02;53;27.20
2021-01-17 18:34:31;4.15;106.34;53;27.00
2021-01-17 19:04:31;4.15;106.02;57;26.70
2021-01-17 19:34:30;4.15;103.92;61;25.20
2021-01-17 20:04:26;4.15;105.70;72;22.80
2021-01-17 20:34:25;4.15;106.02;81;20.80
2021-01-17 21:04:26;4.15;103.60;89;19.30
2021-01-17 21:34:20;4.14;103.28;94;18.10
2021-01-17 22:04:23;4.14;105.54;97;17.50
2021-01-17 22:34:21;4.14;102.96;99;16.20
2021-01-17 23:04:22;4.14;103.60;99;16.20
2021-01-17 23:34:19;4.14;104.57;99;16.00
