#EQ-Puntano; time; bat; cm09-03-2023 20:32:56;89;9244
#EQ-Puntano; time; bat; cm09-03-2023 20:35:00;88;9
#EQ-Puntano; time; bat; cm09-03-2023 20:36:05;88;9
#EQ-Puntano; time; bat; cm09-03-2023 20:37:01;88;9
#EQ-Puntano; time; bat; cm09-03-2023 20:43:19;88;8
#EQ-Puntano; time; bat; cm09-03-2023 20:43:05;88;8
#EQ-Puntano; time; bat; cm09-03-2023 20:43:05;88;8
