2021-10-30 00:00:35;4.18;81;21.90;0;0.00
2021-10-30 00:05:32;4.18;81;21.60;0;0.00
2021-10-30 00:10:35;4.18;81;21.60;0;0.00
2021-10-30 00:15:32;4.18;81;21.50;0;0.00
2021-10-30 00:20:35;4.18;80;21.80;0;0.00
2021-10-30 00:25:32;4.18;80;21.80;0;0.00
2021-10-30 00:30:35;4.18;81;21.60;0;0.00
2021-10-30 00:35:32;4.18;83;21.30;0;0.00
2021-10-30 00:40:34;4.18;83;21.30;0;0.00
2021-10-30 00:45:32;4.17;83;21.20;0;0.00
2021-10-30 00:50:34;4.18;82;21.60;0;0.00
2021-10-30 00:55:32;4.18;80;22.00;0;0.00
2021-10-30 01:00:34;4.18;82;21.60;0;0.00
2021-10-30 01:05:31;4.17;84;21.10;0;0.00
2021-10-30 01:10:34;4.18;84;21.00;0;0.00
2021-10-30 01:15:31;4.17;83;21.20;0;0.00
2021-10-30 01:20:33;4.17;84;21.10;0;0.00
2021-10-30 01:25:31;4.18;84;21.10;0;0.00
2021-10-30 01:30:33;4.17;85;20.70;0;0.00
2021-10-30 01:35:31;4.17;85;20.90;0;0.00
2021-10-30 01:40:33;4.17;82;21.70;0;0.00
2021-10-30 01:45:35;4.17;82;21.80;0;0.00
2021-10-30 01:50:32;4.17;83;21.60;0;0.00
2021-10-30 01:55:35;4.17;84;21.00;0;0.00
2021-10-30 02:00:32;4.17;85;20.90;0;0.00
2021-10-30 02:05:34;4.17;86;20.70;0;0.00
2021-10-30 02:10:32;4.17;87;20.50;0;0.00
2021-10-30 02:15:34;4.17;87;20.40;0;0.00
2021-10-30 02:20:32;4.17;87;20.70;0;0.00
2021-10-30 02:25:34;4.17;87;20.50;0;0.00
2021-10-30 02:30:31;4.17;87;20.50;0;0.00
2021-10-30 02:35:33;4.17;87;20.50;0;0.00
2021-10-30 02:40:31;4.17;88;20.40;0;0.00
2021-10-30 02:45:33;4.17;88;20.00;0;0.00
2021-10-30 02:50:35;4.17;89;19.90;0;0.00
2021-10-30 02:55:32;4.17;89;19.80;0;0.00
2021-10-30 03:00:34;4.16;90;19.70;0;0.00
2021-10-30 03:05:32;4.16;89;20.00;0;0.00
2021-10-30 03:10:34;4.17;87;20.70;0;0.00
2021-10-30 03:15:31;4.17;86;20.90;0;0.00
2021-10-30 03:20:33;4.17;85;21.20;0;0.00
2021-10-30 03:25:31;4.16;85;21.20;0;0.00
2021-10-30 03:30:33;4.17;85;21.30;0;0.00
2021-10-30 03:35:35;4.17;86;21.10;0;0.00
2021-10-30 03:40:32;4.17;87;20.80;0;0.00
2021-10-30 03:45:34;4.17;87;20.70;0;0.00
2021-10-30 03:50:32;4.17;89;20.40;0;0.00
2021-10-30 03:55:34;4.17;90;20.10;0;0.00
2021-10-30 04:00:31;4.17;90;20.10;0;0.00
2021-10-30 04:05:33;4.16;90;20.20;0;0.00
2021-10-30 04:10:31;4.16;90;20.20;0;0.00
2021-10-30 04:15:33;4.16;91;19.90;0;0.00
2021-10-30 04:20:35;4.16;92;19.70;0;0.00
2021-10-30 04:25:32;4.16;92;19.50;0;0.00
2021-10-30 04:30:34;4.16;92;19.70;0;0.00
2021-10-30 04:35:32;4.16;92;20.10;0;0.00
2021-10-30 04:40:34;4.16;91;20.10;0;0.00
2021-10-30 04:45:31;4.16;91;20.20;0;0.00
2021-10-30 04:50:33;4.16;91;20.20;0;0.00
2021-10-30 04:55:31;4.16;92;20.10;0;0.00
2021-10-30 05:00:33;4.16;92;20.10;0;0.00
2021-10-30 05:05:30;4.16;92;19.90;0;0.00
2021-10-30 05:10:32;4.16;92;19.80;0;0.00
2021-10-30 05:15:34;4.16;93;19.70;0;0.00
2021-10-30 05:20:31;4.16;93;19.60;0;0.00
2021-10-30 05:25:33;4.16;93;19.60;0;0.00
2021-10-30 05:30:31;4.16;93;20.10;0;0.00
2021-10-30 05:35:33;4.16;92;20.10;0;0.00
2021-10-30 05:40:35;4.16;93;19.70;0;0.00
2021-10-30 05:45:32;4.16;93;19.80;0;0.00
2021-10-30 05:50:34;4.16;93;19.90;0;0.00
2021-10-30 05:55:32;4.16;93;19.70;0;0.00
2021-10-30 06:00:34;4.16;94;19.70;0;0.00
2021-10-30 06:05:31;4.16;94;19.60;0;0.00
2021-10-30 06:10:33;4.16;94;19.40;0;0.00
2021-10-30 06:15:35;4.16;94;19.30;0;0.00
2021-10-30 06:20:32;4.16;94;19.60;0;0.00
2021-10-30 06:25:34;4.16;94;20.00;0;0.00
2021-10-30 06:30:32;4.16;94;20.20;0;0.00
2021-10-30 06:35:34;4.16;94;20.40;0;0.00
2021-10-30 06:40:31;4.16;94;20.50;0;0.00
2021-10-30 06:45:33;4.16;93;21.10;0;0.00
2021-10-30 06:50:35;4.16;91;21.80;0;0.00
2021-10-30 06:55:33;4.16;91;22.00;0;0.00
2021-10-30 07:00:35;4.16;90;22.20;0;0.00
2021-10-30 07:05:32;4.16;90;22.40;0;1.10
2021-10-30 07:10:35;4.16;90;22.60;0;0.00
2021-10-30 07:15:32;4.16;89;22.80;0;1.10
2021-10-30 07:20:35;4.16;89;23.10;0;1.30
2021-10-30 07:25:33;4.16;88;23.40;0;1.70
2021-10-30 07:30:35;4.16;87;23.60;0;1.90
2021-10-30 07:35:33;4.16;87;24.00;0;1.50
2021-10-30 07:40:35;4.16;86;24.20;0;1.60
2021-10-30 07:45:33;4.17;85;24.60;0;1.50
2021-10-30 07:50:31;4.17;85;24.80;0;1.40
2021-10-30 07:55:34;4.17;84;25.00;0;2.29
2021-10-30 08:00:32;4.17;84;25.00;0;2.09
2021-10-30 08:05:35;4.17;83;25.40;0;2.39
2021-10-30 08:10:33;4.17;82;25.70;0;2.39
2021-10-30 08:15:31;4.17;81;26.10;0;2.19
2021-10-30 08:20:34;4.18;81;26.10;0;2.79
2021-10-30 08:25:33;4.18;79;26.70;0;2.59
2021-10-30 08:30:36;4.18;78;26.80;0;3.38
2021-10-30 08:35:34;4.18;79;27.00;0;2.89
2021-10-30 08:40:33;4.18;77;27.40;0;2.69
2021-10-30 08:45:36;4.18;77;27.50;0;2.89
2021-10-30 08:50:35;4.19;77;27.80;0;2.39
2021-10-30 08:55:33;4.19;76;28.20;0;3.08
2021-10-30 09:00:32;4.19;75;28.50;0;3.38
2021-10-30 09:05:35;4.19;74;28.30;0;2.79
2021-10-30 09:10:34;4.19;73;29.20;0;2.59
2021-10-30 09:15:33;4.19;74;29.00;0;3.08
2021-10-30 09:20:36;4.19;73;29.10;0;3.18
2021-10-30 09:25:35;4.19;73;29.30;0;2.69
2021-10-30 09:30:34;4.19;72;29.40;0;2.49
2021-10-30 09:35:33;4.19;71;29.80;0;2.99
2021-10-30 09:40:32;4.19;70;30.10;0;2.39
2021-10-30 09:45:36;4.19;70;30.50;0;1.80
2021-10-30 09:50:35;4.20;70;30.70;0;2.39
2021-10-30 09:55:35;4.19;69;30.30;0;2.49
2021-10-30 10:00:34;4.20;68;31.50;0;2.69
2021-10-30 10:05:33;4.20;68;31.10;0;2.19
2021-10-30 10:10:32;4.20;68;31.10;0;2.00
2021-10-30 10:15:36;4.20;67;31.70;0;2.29
2021-10-30 10:20:36;4.20;67;32.10;0;1.50
2021-10-30 10:25:35;4.20;66;32.30;0;2.00
2021-10-30 10:30:35;4.20;65;32.50;0;2.00
2021-10-30 10:35:34;4.20;65;32.50;0;2.69
2021-10-30 10:40:34;4.20;65;32.10;0;3.18
2021-10-30 10:45:34;4.20;64;32.70;0;1.50
2021-10-30 10:50:33;4.20;62;32.90;0;1.20
2021-10-30 10:55:33;4.20;63;33.00;0;2.00
2021-10-30 11:00:37;4.20;63;33.30;0;1.40
2021-10-30 11:05:32;4.20;62;33.60;0;2.69
2021-10-30 11:10:37;4.20;63;33.80;0;2.19
2021-10-30 11:15:32;4.20;62;33.40;0;2.29
2021-10-30 11:20:36;4.21;61;34.20;0;1.10
2021-10-30 11:25:36;4.21;60;34.20;0;1.80
2021-10-30 11:30:36;4.20;60;34.20;0;1.50
2021-10-30 11:35:36;4.21;62;33.50;0;0.00
2021-10-30 11:40:36;4.21;61;33.70;0;1.10
2021-10-30 11:45:36;4.21;60;34.50;0;1.50
2021-10-30 11:50:36;4.21;59;34.60;0;1.90
2021-10-30 11:55:36;4.21;57;35.20;0;0.00
2021-10-30 12:00:37;4.21;62;35.20;0;1.10
2021-10-30 12:05:37;4.21;58;35.10;0;1.40
2021-10-30 12:10:37;4.21;57;34.90;0;0.00
2021-10-30 12:15:37;4.21;58;35.40;0;1.10
2021-10-30 12:20:33;4.21;57;36.10;0;1.40
2021-10-30 12:25:38;4.21;56;34.80;0;0.00
2021-10-30 12:30:34;4.21;54;35.60;0;1.30
2021-10-30 12:35:34;4.21;57;35.30;0;1.90
2021-10-30 12:40:34;4.21;55;36.20;0;1.50
2021-10-30 12:45:35;4.21;53;36.50;0;1.10
2021-10-30 12:50:35;4.21;54;35.90;0;2.49
2021-10-30 12:55:36;4.21;54;35.60;0;1.10
2021-10-30 13:00:36;4.21;54;36.00;0;0.00
2021-10-30 13:05:37;4.22;54;35.70;0;0.00
2021-10-30 13:10:37;4.22;56;36.30;0;0.00
2021-10-30 13:15:33;4.22;55;35.90;0;1.90
2021-10-30 13:20:34;4.21;55;35.60;0;2.09
2021-10-30 13:25:35;4.22;57;35.50;0;1.70
2021-10-30 13:30:35;4.22;57;34.20;0;2.99
2021-10-30 13:35:35;4.22;56;34.60;0;1.40
2021-10-30 13:40:36;4.22;58;35.50;0;0.00
2021-10-30 13:45:36;4.22;57;34.00;0;2.39
2021-10-30 13:50:36;4.22;54;35.80;0;2.39
2021-10-30 13:55:36;4.22;52;36.80;0;1.40
2021-10-30 14:00:37;4.22;53;36.10;0;2.29
2021-10-30 14:05:37;4.22;54;36.10;0;2.00
2021-10-30 14:10:37;4.22;55;36.50;0;0.00
2021-10-30 14:15:33;4.22;52;36.70;0;0.00
2021-10-30 14:20:34;4.22;54;36.60;0;2.09
2021-10-30 14:25:34;4.22;53;36.80;0;0.00
2021-10-30 14:30:35;4.22;51;36.60;0;0.00
2021-10-30 14:35:35;4.22;51;36.90;0;1.20
2021-10-30 14:40:36;4.22;53;36.60;0;1.10
2021-10-30 14:45:36;4.22;51;36.60;0;0.00
2021-10-30 14:50:37;4.22;52;37.30;0;0.00
2021-10-30 14:55:37;4.22;51;37.00;0;1.30
2021-10-30 15:00:33;4.22;51;36.30;0;1.90
2021-10-30 15:05:34;4.22;51;36.90;0;3.18
2021-10-30 15:10:34;4.22;51;35.90;0;1.70
2021-10-30 15:15:35;4.22;51;36.70;0;0.00
2021-10-30 15:20:35;4.22;50;37.30;0;1.70
2021-10-30 15:25:36;4.22;49;36.50;0;2.79
2021-10-30 15:30:36;4.22;51;36.30;0;1.20
2021-10-30 15:35:37;4.22;50;37.20;0;0.00
2021-10-30 15:40:37;4.22;49;37.20;0;1.70
2021-10-30 15:45:38;4.22;50;36.80;0;2.19
2021-10-30 15:50:33;4.22;51;36.30;0;1.40
2021-10-30 15:55:34;4.22;50;36.60;0;1.40
2021-10-30 16:00:34;4.23;49;36.90;0;1.60
2021-10-30 16:05:35;4.22;50;36.70;0;0.00
2021-10-30 16:10:35;4.23;51;36.20;0;0.00
2021-10-30 16:15:36;4.23;50;36.50;0;2.19
2021-10-30 16:20:36;4.23;51;35.80;0;2.00
2021-10-30 16:25:36;4.23;51;36.70;0;1.40
2021-10-30 16:30:37;4.23;51;36.20;0;1.80
2021-10-30 16:35:37;4.23;51;36.60;0;1.20
2021-10-30 16:40:37;4.23;51;36.30;0;1.10
2021-10-30 16:45:33;4.23;49;36.20;0;1.70
2021-10-30 16:50:38;4.22;53;36.50;0;0.00
2021-10-30 16:55:33;4.23;51;36.00;0;0.00
2021-10-30 17:00:34;4.23;52;35.70;0;1.10
2021-10-30 17:05:34;4.23;52;35.50;0;3.58
2021-10-30 17:10:34;4.23;52;35.60;0;1.30
2021-10-30 17:15:34;4.23;53;35.80;0;1.10
2021-10-30 17:20:34;4.23;52;35.80;0;1.60
2021-10-30 17:25:34;4.23;52;35.60;0;1.40
2021-10-30 17:30:35;4.23;55;35.10;0;0.00
2021-10-30 17:35:35;4.23;54;34.90;0;1.10
2021-10-30 17:40:35;4.23;55;35.20;0;1.20
2021-10-30 17:45:35;4.23;53;35.00;0;2.69
2021-10-30 17:50:34;4.23;54;34.90;0;1.50
2021-10-30 17:55:34;4.23;54;34.60;0;1.30
2021-10-30 18:00:34;4.23;54;34.40;0;1.20
2021-10-30 18:05:34;4.23;54;34.40;0;1.80
2021-10-30 18:10:34;4.23;55;34.00;0;1.40
2021-10-30 18:15:34;4.22;56;33.70;0;0.00
2021-10-30 18:20:33;4.23;56;33.30;0;0.00
2021-10-30 18:25:33;4.22;57;33.00;0;0.00
2021-10-30 18:30:33;4.22;58;32.50;0;0.00
2021-10-30 18:35:37;4.22;59;32.30;0;0.00
2021-10-30 18:40:36;4.22;59;32.00;0;0.00
2021-10-30 18:45:36;4.22;60;31.60;0;0.00
2021-10-30 18:50:35;4.22;61;31.40;0;0.00
2021-10-30 18:55:34;4.22;62;30.90;0;0.00
2021-10-30 19:00:34;4.22;62;30.70;0;0.00
2021-10-30 19:05:33;4.22;63;30.50;0;0.00
2021-10-30 19:10:36;4.22;63;30.40;0;0.00
2021-10-30 19:15:35;4.22;65;30.00;0;0.00
2021-10-30 19:20:34;4.22;65;29.60;0;0.00
2021-10-30 19:25:33;4.22;65;29.40;0;0.00
2021-10-30 19:30:32;4.21;66;29.10;0;0.00
2021-10-30 19:35:36;4.22;67;28.70;0;0.00
2021-10-30 19:40:34;4.22;69;27.80;0;0.00
2021-10-30 19:45:33;4.21;70;27.30;0;0.00
2021-10-30 19:50:32;4.21;72;27.20;0;0.00
2021-10-30 19:55:35;4.21;70;27.50;0;0.00
2021-10-30 20:00:33;4.21;71;27.40;0;0.00
2021-10-30 20:05:32;4.21;71;27.40;0;0.00
2021-10-30 20:10:35;4.21;72;26.90;0;0.00
2021-10-30 20:15:33;4.21;72;26.80;0;0.00
2021-10-30 20:20:32;4.20;73;26.50;0;0.00
2021-10-30 20:25:35;4.21;73;26.40;0;0.00
2021-10-30 20:30:33;4.20;73;26.40;0;0.00
2021-10-30 20:35:36;4.20;73;26.30;0;0.00
2021-10-30 20:40:34;4.20;73;26.40;0;0.00
2021-10-30 20:45:32;4.20;72;26.40;0;0.00
2021-10-30 20:50:35;4.20;72;26.70;0;0.00
2021-10-30 20:55:33;4.20;72;26.80;0;0.00
2021-10-30 21:00:32;4.20;72;26.70;0;0.00
2021-10-30 21:05:35;4.20;73;26.50;0;0.00
2021-10-30 21:10:33;4.20;72;26.60;0;0.00
2021-10-30 21:15:36;4.20;74;26.40;0;0.00
2021-10-30 21:20:34;4.20;74;26.20;0;0.00
2021-10-30 21:25:32;4.20;74;26.50;0;0.00
2021-10-30 21:30:35;4.20;74;26.50;0;0.00
2021-10-30 21:35:33;4.20;74;26.40;0;0.00
2021-10-30 21:40:32;4.20;74;26.40;0;0.00
2021-10-30 21:45:34;4.20;75;26.30;0;0.00
2021-10-30 21:50:33;4.20;75;26.20;0;0.00
2021-10-30 21:55:35;4.20;74;26.50;0;0.00
2021-10-30 22:00:34;4.20;73;27.00;0;0.00
2021-10-30 22:05:32;4.20;74;26.50;0;0.00
2021-10-30 22:10:35;4.20;76;26.00;0;0.00
2021-10-30 22:15:33;4.19;77;25.80;0;0.00
2021-10-30 22:20:31;4.20;77;25.50;0;0.00
2021-10-30 22:25:34;4.20;77;25.50;0;0.00
2021-10-30 22:30:32;4.19;77;25.40;0;0.00
2021-10-30 22:35:35;4.19;79;25.00;0;0.00
2021-10-30 22:40:33;4.19;81;24.40;0;0.00
2021-10-30 22:45:31;4.19;79;24.90;0;0.00
2021-10-30 22:50:34;4.19;77;25.50;0;0.00
2021-10-30 22:55:32;4.19;77;25.40;0;0.00
2021-10-30 23:00:35;4.19;79;24.90;0;0.00
2021-10-30 23:05:33;4.19;78;25.20;0;0.00
2021-10-30 23:10:31;4.19;78;25.20;0;0.00
2021-10-30 23:15:34;4.19;77;25.40;0;0.00
2021-10-30 23:20:32;4.19;78;25.10;0;0.00
2021-10-30 23:25:35;4.19;81;24.30;0;0.00
2021-10-30 23:30:33;4.19;82;24.00;0;0.00
2021-10-30 23:35:35;4.19;82;24.00;0;0.00
2021-10-30 23:40:33;4.19;81;24.30;0;0.00
2021-10-30 23:45:31;4.19;81;24.30;0;0.00
2021-10-30 23:50:34;4.19;82;24.00;0;0.00
2021-10-30 23:55:32;4.19;83;23.50;0;0.00
