#EQ3t;v;h;t;p;a2021-10-29 18:47:06;4.22;57;30.80;0;0.00
2021-10-29 18:50:19;4.22;57;30.30;0;0.00
2021-10-29 18:55:37;4.22;60;29.10;0;0.00
2021-10-29 19:00:36;4.22;62;28.20;0;0.00
2021-10-29 19:05:30;4.22;64;27.30;0;0.00
2021-10-29 19:10:34;4.22;62;27.20;0;0.00
2021-10-29 19:15:33;4.21;64;26.70;0;0.00
2021-10-29 19:20:36;4.21;64;26.10;0;0.00
2021-10-29 19:25:35;4.21;65;25.80;0;0.00
2021-10-29 19:30:33;4.21;65;25.60;0;0.00
2021-10-29 19:35:36;4.21;67;25.50;0;0.00
2021-10-29 19:40:34;4.21;68;25.00;0;0.00
2021-10-29 19:45:33;4.21;68;24.60;0;0.00
2021-10-29 19:50:35;4.21;67;24.60;0;0.00
2021-10-29 19:55:34;4.20;67;24.50;0;0.00
2021-10-29 20:00:32;4.20;68;24.30;0;0.00
2021-10-29 20:05:34;4.20;69;24.00;0;0.00
2021-10-29 20:10:32;4.20;70;23.60;0;0.00
2021-10-29 20:15:35;4.20;69;23.70;0;0.00
2021-10-29 20:20:33;4.20;69;23.80;0;0.00
2021-10-29 20:25:35;4.20;68;23.80;0;0.00
2021-10-29 20:30:33;4.20;68;23.70;0;0.00
2021-10-29 20:35:31;4.20;68;23.50;0;0.00
2021-10-29 20:40:34;4.20;68;23.50;0;0.00
2021-10-29 20:45:31;4.20;67;23.50;0;0.00
2021-10-29 20:50:34;4.20;70;23.10;0;0.00
2021-10-29 20:55:32;4.20;70;22.70;0;0.00
2021-10-29 21:00:34;4.19;69;23.00;0;0.00
2021-10-29 21:05:32;4.19;70;22.70;0;0.00
2021-10-29 21:10:34;4.19;69;23.20;0;0.00
2021-10-29 21:15:32;4.19;67;23.60;0;0.00
2021-10-29 21:20:34;4.19;68;23.50;0;0.00
2021-10-29 21:25:32;4.19;72;22.80;0;0.00
2021-10-29 21:30:34;4.19;68;23.70;0;0.00
2021-10-29 21:35:32;4.19;72;22.80;0;0.00
2021-10-29 21:40:34;4.19;79;21.40;0;0.00
2021-10-29 21:45:32;4.19;79;21.40;0;0.00
2021-10-29 21:50:34;4.19;79;21.40;0;0.00
2021-10-29 21:55:32;4.19;75;22.20;0;0.00
2021-10-29 22:00:34;4.19;71;23.40;0;0.00
2021-10-29 22:05:32;4.19;70;23.50;0;0.00
2021-10-29 22:10:34;4.19;70;23.50;0;0.00
2021-10-29 22:15:32;4.19;70;23.40;0;0.00
2021-10-29 22:20:34;4.19;71;23.30;0;0.00
2021-10-29 22:25:32;4.19;71;23.30;0;0.00
2021-10-29 22:30:34;4.18;72;23.00;0;0.00
2021-10-29 22:35:32;4.18;73;22.70;0;0.00
2021-10-29 22:40:34;4.19;73;23.00;0;0.00
2021-10-29 22:45:32;4.18;73;23.20;0;0.00
2021-10-29 22:50:35;4.18;72;23.60;0;0.00
2021-10-29 22:55:32;4.18;74;23.00;0;0.00
2021-10-29 23:00:35;4.18;75;22.60;0;0.00
2021-10-29 23:05:32;4.18;77;22.20;0;0.00
2021-10-29 23:10:35;4.18;79;21.90;0;0.00
2021-10-29 23:15:32;4.18;80;21.60;0;0.00
2021-10-29 23:20:35;4.18;82;21.20;0;0.00
2021-10-29 23:25:32;4.18;79;21.80;0;0.00
2021-10-29 23:30:35;4.18;77;22.60;0;0.00
2021-10-29 23:35:32;4.18;76;22.90;0;0.00
2021-10-29 23:40:35;4.18;75;23.10;0;0.00
2021-10-29 23:45:32;4.18;75;23.10;0;0.00
2021-10-29 23:50:30;4.18;76;22.90;0;0.00
2021-10-29 23:55:32;4.18;78;22.50;0;0.00
