2021-09-01 00:00:31;4.17;69;22.50;0;2.09
2021-09-01 00:05:33;4.17;70;22.10;0;2.19
2021-09-01 00:10:31;4.17;70;21.90;0;2.09
2021-09-01 00:15:34;4.17;71;21.80;0;2.49
2021-09-01 00:20:31;4.17;70;21.90;0;2.19
2021-09-01 00:25:34;4.17;70;22.00;0;2.19
2021-09-01 00:30:31;4.17;70;22.00;0;2.19
2021-09-01 00:35:34;4.17;70;21.90;0;2.79
2021-09-01 00:40:31;4.17;70;21.90;0;1.70
2021-09-01 00:45:34;4.17;70;21.90;0;2.29
2021-09-01 00:50:31;4.17;70;21.90;0;2.49
2021-09-01 00:55:34;4.17;71;21.60;0;2.29
2021-09-01 01:00:31;4.17;71;21.50;0;2.19
2021-09-01 01:05:34;4.17;71;21.50;0;2.39
2021-09-01 01:10:31;4.17;72;21.30;0;2.49
2021-09-01 01:15:34;4.17;72;21.10;0;2.29
2021-09-01 01:20:31;4.17;72;21.20;0;2.29
2021-09-01 01:25:34;4.17;73;21.00;0;1.90
2021-09-01 01:30:31;4.17;73;21.00;0;2.59
2021-09-01 01:35:33;4.17;73;20.80;0;2.39
2021-09-01 01:40:31;4.17;74;20.70;0;1.60
2021-09-01 01:45:33;4.17;74;20.60;0;1.80
2021-09-01 01:50:31;4.17;74;20.60;0;2.09
2021-09-01 01:55:33;4.16;74;20.40;0;1.60
2021-09-01 02:00:35;4.17;74;20.40;0;1.70
2021-09-01 02:05:33;4.16;75;20.20;0;1.60
2021-09-01 02:10:35;4.16;75;20.20;0;1.40
2021-09-01 02:15:32;4.16;75;20.00;0;1.20
2021-09-01 02:20:34;4.16;76;20.00;0;1.30
2021-09-01 02:25:32;4.16;76;19.70;0;1.30
2021-09-01 02:30:34;4.16;76;19.70;0;1.40
2021-09-01 02:35:31;4.16;77;19.60;0;1.20
2021-09-01 02:40:33;4.16;77;19.40;0;1.20
2021-09-01 02:45:31;4.16;77;19.40;0;1.10
2021-09-01 02:50:33;4.16;78;19.30;0;1.10
2021-09-01 02:55:35;4.16;78;19.30;0;1.20
2021-09-01 03:00:32;4.16;78;19.30;0;1.10
2021-09-01 03:05:34;4.16;78;19.30;0;1.20
2021-09-01 03:10:32;4.16;78;19.30;0;1.20
2021-09-01 03:15:34;4.16;78;19.20;0;0.00
2021-09-01 03:20:31;4.16;77;19.20;0;0.00
2021-09-01 03:25:33;4.16;78;19.00;0;0.00
2021-09-01 03:30:35;4.16;79;18.80;0;0.00
2021-09-01 03:35:32;4.16;79;18.70;0;0.00
2021-09-01 03:40:34;4.16;79;18.80;0;0.00
2021-09-01 03:45:32;4.15;79;18.90;0;0.00
2021-09-01 03:50:34;4.15;78;19.00;0;0.00
2021-09-01 03:55:31;4.16;78;18.90;0;0.00
2021-09-01 04:00:33;4.16;80;18.30;0;0.00
2021-09-01 04:05:35;4.15;81;18.10;0;0.00
2021-09-01 04:10:32;4.15;80;18.30;0;0.00
2021-09-01 04:15:34;4.15;80;18.10;0;0.00
2021-09-01 04:20:31;4.15;80;18.40;0;0.00
2021-09-01 04:25:33;4.15;80;18.40;0;0.00
2021-09-01 04:30:35;4.15;81;18.50;0;0.00
2021-09-01 04:35:32;4.15;79;19.10;0;0.00
2021-09-01 04:40:34;4.15;79;19.20;0;0.00
2021-09-01 04:45:31;4.15;79;19.50;0;1.10
2021-09-01 04:50:33;4.15;79;19.10;0;0.00
2021-09-01 04:55:35;4.15;81;18.70;0;0.00
2021-09-01 05:00:32;4.15;81;18.70;0;0.00
2021-09-01 05:05:34;4.15;81;18.60;0;0.00
2021-09-01 05:10:32;4.15;81;18.80;0;0.00
2021-09-01 05:15:33;4.15;81;18.70;0;0.00
2021-09-01 05:20:31;4.15;81;18.80;0;0.00
2021-09-01 05:25:33;4.15;81;18.90;0;0.00
2021-09-01 05:30:35;4.15;80;19.10;0;0.00
2021-09-01 05:35:32;4.15;81;19.00;0;0.00
2021-09-01 05:40:34;4.15;81;19.20;0;0.00
2021-09-01 05:45:31;4.15;80;19.50;0;1.10
2021-09-01 05:50:33;4.15;80;19.60;0;1.40
2021-09-01 05:55:35;4.15;80;19.60;0;0.00
2021-09-01 06:00:32;4.15;79;19.70;0;1.40
2021-09-01 06:05:34;4.15;79;19.70;0;1.20
2021-09-01 06:10:32;4.15;80;19.60;0;1.20
2021-09-01 06:15:34;4.15;78;20.00;0;1.80
2021-09-01 06:20:31;4.15;77;20.20;0;2.00
2021-09-01 06:25:33;4.15;77;20.50;0;2.29
2021-09-01 06:30:35;4.15;77;20.20;0;1.90
2021-09-01 06:35:32;4.15;78;20.10;0;2.59
2021-09-01 06:40:35;4.15;79;19.90;0;2.09
2021-09-01 06:45:32;4.15;79;19.70;0;2.09
2021-09-01 06:50:34;4.15;80;19.60;0;1.50
2021-09-01 06:55:31;4.15;80;19.60;0;1.80
2021-09-01 07:00:33;4.15;80;19.30;0;1.30
2021-09-01 07:05:31;4.15;81;19.20;0;0.00
2021-09-01 07:10:33;4.15;81;19.00;0;1.20
2021-09-01 07:15:35;4.15;82;18.90;0;0.00
2021-09-01 07:20:32;4.15;82;18.60;0;0.00
2021-09-01 07:25:34;4.15;82;18.70;0;0.00
2021-09-01 07:30:32;4.15;82;18.90;0;0.00
2021-09-01 07:35:33;4.15;82;18.80;0;0.00
2021-09-01 07:40:31;4.15;83;18.60;0;0.00
2021-09-01 07:45:33;4.15;83;18.60;0;0.00
2021-09-01 07:50:35;4.15;83;18.80;0;0.00
2021-09-01 07:55:32;4.15;83;18.60;0;0.00
2021-09-01 08:00:34;4.15;85;18.20;0;0.00
2021-09-01 08:05:31;4.15;85;18.20;0;0.00
2021-09-01 08:10:33;4.15;85;18.20;0;0.00
2021-09-01 08:15:35;4.15;84;18.50;0;0.00
2021-09-01 08:20:32;4.15;83;19.00;0;1.50
2021-09-01 08:25:34;4.15;83;19.10;0;1.40
2021-09-01 08:30:32;4.15;82;19.30;0;1.10
2021-09-01 08:35:34;4.15;82;19.40;0;1.10
2021-09-01 08:40:31;4.16;81;19.80;0;1.20
2021-09-01 08:45:33;4.15;82;19.80;0;1.10
2021-09-01 08:50:35;4.16;80;20.20;0;2.19
2021-09-01 08:55:32;4.16;79;20.50;0;1.90
2021-09-01 09:00:35;4.16;78;21.10;0;2.09
2021-09-01 09:05:32;4.16;77;21.70;0;1.40
2021-09-01 09:10:34;4.17;75;22.20;0;2.69
2021-09-01 09:15:32;4.17;74;22.90;0;2.19
2021-09-01 09:20:34;4.16;73;22.70;0;3.08
2021-09-01 09:25:32;4.16;73;22.80;0;3.18
2021-09-01 09:30:35;4.16;73;22.80;0;3.38
2021-09-01 09:35:33;4.17;72;22.90;0;2.79
2021-09-01 09:40:35;4.16;73;23.00;0;2.29
2021-09-01 09:45:33;4.17;72;23.20;0;2.29
2021-09-01 09:50:35;4.17;70;23.90;0;2.39
2021-09-01 09:55:33;4.17;71;23.80;0;2.00
2021-09-01 10:00:31;4.17;71;23.80;0;2.09
2021-09-01 10:05:34;4.17;71;23.90;0;2.29
2021-09-01 10:10:32;4.17;71;23.90;0;1.60
2021-09-01 10:15:35;4.17;72;23.90;0;1.30
2021-09-01 10:20:33;4.17;71;24.30;0;1.10
2021-09-01 10:25:35;4.17;68;24.90;0;1.60
2021-09-01 10:30:34;4.17;66;25.30;0;1.60
2021-09-01 10:35:32;4.17;66;25.50;0;2.19
2021-09-01 10:40:34;4.18;65;25.90;0;2.29
2021-09-01 10:45:33;4.18;63;26.50;0;2.59
2021-09-01 10:50:36;4.18;62;27.20;0;2.99
2021-09-01 10:55:34;4.18;60;27.80;0;5.06
2021-09-01 11:00:33;4.18;60;28.30;0;2.29
2021-09-01 11:05:36;4.18;59;28.30;0;3.88
2021-09-01 11:10:34;4.18;58;28.50;0;2.89
2021-09-01 11:15:33;4.18;60;27.80;0;2.59
2021-09-01 11:20:36;4.18;60;27.50;0;1.70
2021-09-01 11:25:35;4.18;62;27.40;0;1.40
2021-09-01 11:30:34;4.18;61;27.20;0;2.19
2021-09-01 11:35:32;4.18;64;26.50;0;2.99
2021-09-01 11:40:36;4.18;65;26.30;0;2.39
2021-09-01 11:45:34;4.18;63;26.30;0;3.68
2021-09-01 11:50:33;4.19;65;25.70;0;3.28
2021-09-01 11:55:36;4.19;68;25.30;0;1.90
2021-09-01 12:00:34;4.18;67;25.40;0;3.08
2021-09-01 12:05:33;4.18;69;25.00;0;2.09
2021-09-01 12:10:36;4.18;71;24.60;0;2.19
2021-09-01 12:15:34;4.18;72;24.30;0;2.00
2021-09-01 12:20:33;4.18;71;24.60;0;1.80
2021-09-01 12:25:35;4.19;70;25.00;0;2.00
2021-09-01 12:30:34;4.19;68;25.90;0;1.90
2021-09-01 12:35:32;4.19;66;26.60;0;1.60
2021-09-01 12:40:35;4.19;66;26.90;0;2.09
2021-09-01 12:45:33;4.19;66;27.00;0;1.90
2021-09-01 12:50:32;4.19;64;27.60;0;1.70
2021-09-01 12:55:35;4.19;64;27.60;0;2.19
2021-09-01 13:00:34;4.19;63;28.00;0;2.00
2021-09-01 13:05:32;4.19;63;28.10;0;1.50
2021-09-01 13:10:35;4.19;61;28.10;0;2.29
2021-09-01 13:15:34;4.19;64;27.90;0;1.60
2021-09-01 13:20:33;4.19;64;28.00;0;2.00
2021-09-01 13:25:36;4.19;64;27.90;0;1.10
2021-09-01 13:30:35;4.19;62;28.20;0;1.40
2021-09-01 13:35:33;4.19;63;28.80;0;1.90
2021-09-01 13:40:32;4.19;62;28.80;0;1.40
2021-09-01 13:45:36;4.19;60;29.50;0;1.60
2021-09-01 13:50:35;4.19;59;29.80;0;2.89
2021-09-01 13:55:33;4.20;60;30.10;0;1.70
2021-09-01 14:00:32;4.20;59;29.60;0;2.00
2021-09-01 14:05:36;4.20;61;29.80;0;0.00
2021-09-01 14:10:35;4.20;57;29.50;0;2.29
2021-09-01 14:15:34;4.20;58;29.40;0;3.58
2021-09-01 14:20:33;4.20;59;29.00;0;2.09
2021-09-01 14:25:36;4.20;58;28.80;0;1.90
2021-09-01 14:30:35;4.20;60;28.60;0;2.49
2021-09-01 14:35:34;4.20;61;28.50;0;0.00
2021-09-01 14:40:33;4.20;63;28.10;0;1.40
2021-09-01 14:45:32;4.20;65;27.70;0;0.00
2021-09-01 14:50:35;4.19;64;27.60;0;1.80
2021-09-01 14:55:34;4.20;64;27.50;0;1.50
2021-09-01 15:00:33;4.20;64;27.50;0;1.60
2021-09-01 15:05:36;4.20;63;27.60;0;1.10
2021-09-01 15:10:35;4.20;64;27.70;0;0.00
2021-09-01 15:15:33;4.20;65;28.00;0;0.00
2021-09-01 15:20:32;4.20;64;28.10;0;0.00
2021-09-01 15:25:35;4.20;63;28.20;0;0.00
2021-09-01 15:30:34;4.20;63;28.50;0;0.00
2021-09-01 15:35:33;4.20;63;28.80;0;0.00
2021-09-01 15:40:36;4.20;63;28.80;0;0.00
2021-09-01 15:45:35;4.20;64;28.50;0;0.00
2021-09-01 15:50:34;4.20;65;28.60;0;0.00
2021-09-01 15:55:32;4.20;64;28.60;0;0.00
2021-09-01 16:00:36;4.20;64;29.10;0;1.40
2021-09-01 16:05:34;4.20;64;29.40;0;0.00
2021-09-01 16:10:33;4.20;64;29.60;0;0.00
2021-09-01 16:15:32;4.20;64;29.60;0;0.00
2021-09-01 16:20:36;4.20;64;29.50;0;0.00
2021-09-01 16:25:34;4.20;65;29.70;0;0.00
2021-09-01 16:30:33;4.20;63;29.90;0;0.00
2021-09-01 16:35:32;4.20;63;29.70;0;0.00
2021-09-01 16:40:36;4.20;65;29.10;0;0.00
2021-09-01 16:45:35;4.20;64;29.20;0;0.00
2021-09-01 16:50:34;4.20;62;29.40;0;0.00
2021-09-01 16:55:32;4.20;63;29.20;0;0.00
2021-09-01 17:00:36;4.20;63;29.00;0;0.00
2021-09-01 17:05:35;4.20;65;28.50;0;0.00
2021-09-01 17:10:33;4.20;68;28.20;0;0.00
2021-09-01 17:15:32;4.20;66;28.20;0;0.00
2021-09-01 17:20:36;4.19;71;27.20;0;0.00
2021-09-01 17:25:34;4.19;71;27.10;0;1.20
2021-09-01 17:30:33;4.20;73;26.70;0;0.00
2021-09-01 17:35:36;4.19;73;26.60;0;0.00
2021-09-01 17:40:35;4.19;73;26.40;0;0.00
2021-09-01 17:45:33;4.19;73;26.30;0;3.28
2021-09-01 17:50:32;4.19;75;25.30;0;2.39
2021-09-01 17:55:35;4.19;79;23.80;0;4.07
2021-09-01 18:00:33;4.19;81;23.20;0;2.29
2021-09-01 18:05:36;4.19;82;22.90;0;0.00
2021-09-01 18:10:34;4.19;83;22.50;0;1.90
2021-09-01 18:15:32;4.19;83;22.50;0;0.00
2021-09-01 18:20:35;4.18;83;22.30;0;0.00
2021-09-01 18:25:33;4.18;84;22.20;0;2.09
2021-09-01 18:30:36;4.18;84;22.10;0;0.00
2021-09-01 18:35:34;4.18;85;21.90;0;2.29
2021-09-01 18:40:32;4.18;86;21.80;0;0.00
2021-09-01 18:45:34;4.18;87;21.60;0;1.20
2021-09-01 18:50:32;4.18;88;21.40;0;0.00
2021-09-01 18:55:34;4.18;88;21.40;0;2.00
2021-09-01 19:00:32;4.18;88;21.40;0;1.30
2021-09-01 19:05:34;4.18;88;21.30;0;0.00
2021-09-01 19:10:32;4.18;87;21.40;0;1.30
2021-09-01 19:15:34;4.18;86;21.50;0;2.79
2021-09-01 19:20:32;4.18;86;21.60;0;1.60
2021-09-01 19:25:34;4.18;86;21.50;0;2.39
2021-09-01 19:30:32;4.17;86;21.50;0;2.19
2021-09-01 19:35:34;4.17;87;21.40;0;2.00
2021-09-01 19:40:32;4.17;88;21.30;0;1.60
2021-09-01 19:45:34;4.17;88;21.30;0;1.60
2021-09-01 19:50:32;4.17;88;21.30;0;2.79
2021-09-01 19:55:34;4.17;88;21.30;0;1.90
2021-09-01 20:00:32;4.17;88;21.20;0;2.09
2021-09-01 20:05:34;4.17;88;21.20;0;1.20
2021-09-01 20:10:32;4.17;88;21.20;0;1.80
2021-09-01 20:15:34;4.17;88;21.10;0;0.00
2021-09-01 20:20:32;4.17;88;21.00;0;0.00
2021-09-01 20:25:34;4.17;89;20.90;0;2.09
2021-09-01 20:30:31;4.17;89;20.80;0;0.00
2021-09-01 20:35:34;4.17;89;20.80;0;0.00
2021-09-01 20:40:31;4.17;89;20.80;0;0.00
2021-09-01 20:45:33;4.17;89;20.70;0;1.20
2021-09-01 20:50:31;4.17;89;20.70;0;0.00
2021-09-01 20:55:33;4.17;89;20.60;0;0.00
2021-09-01 21:00:31;4.17;90;20.60;0;1.50
2021-09-01 21:05:33;4.17;90;20.40;0;0.00
2021-09-01 21:10:35;4.17;91;20.20;0;0.00
2021-09-01 21:15:33;4.17;91;20.10;0;0.00
2021-09-01 21:20:35;4.17;91;20.10;0;0.00
2021-09-01 21:25:32;4.17;91;20.10;0;0.00
2021-09-01 21:30:34;4.16;91;20.20;0;1.10
2021-09-01 21:35:32;4.17;90;20.20;0;0.00
2021-09-01 21:40:34;4.16;90;20.30;0;1.20
2021-09-01 21:45:31;4.16;90;20.30;0;0.00
2021-09-01 21:50:33;4.16;90;20.20;0;0.00
2021-09-01 21:55:31;4.16;91;20.00;0;1.20
2021-09-01 22:00:33;4.16;91;19.90;0;0.00
2021-09-01 22:05:35;4.16;92;19.90;0;0.00
2021-09-01 22:10:32;4.16;92;19.90;0;0.00
2021-09-01 22:15:34;4.16;92;19.70;0;0.00
2021-09-01 22:20:32;4.16;92;19.70;0;0.00
2021-09-01 22:25:34;4.16;92;19.70;0;0.00
2021-09-01 22:30:31;4.16;92;19.60;0;1.10
2021-09-01 22:35:33;4.16;93;19.50;0;1.60
2021-09-01 22:40:31;4.16;93;19.40;0;0.00
2021-09-01 22:45:33;4.16;93;19.40;0;2.00
2021-09-01 22:50:35;4.16;93;19.40;0;2.39
2021-09-01 22:55:32;4.16;93;19.40;0;1.60
2021-09-01 23:00:34;4.16;94;19.40;0;1.60
2021-09-01 23:05:32;4.16;94;19.30;0;3.18
2021-09-01 23:10:34;4.16;94;19.20;0;1.80
2021-09-01 23:15:31;4.16;94;19.20;0;2.69
2021-09-01 23:20:33;4.16;94;19.10;0;2.00
2021-09-01 23:25:35;4.16;94;19.00;0;2.00
2021-09-01 23:30:32;4.16;94;19.00;0;1.10
2021-09-01 23:35:34;4.16;94;19.20;0;2.29
2021-09-01 23:40:32;4.16;94;19.10;0;3.48
2021-09-01 23:45:34;4.16;94;19.00;0;1.60
2021-09-01 23:50:31;4.16;95;18.90;0;1.60
2021-09-01 23:55:33;4.16;95;18.70;0;1.30
