2021-09-02 00:00:35;4.16;95;18.70;0;1.40
2021-09-02 00:05:32;4.15;95;18.70;0;0.00
2021-09-02 00:10:34;4.16;95;18.60;0;0.00
2021-09-02 00:15:32;4.15;95;18.70;0;0.00
2021-09-02 00:20:33;4.16;95;18.80;0;1.80
2021-09-02 00:25:31;4.16;94;18.90;0;0.00
2021-09-02 00:30:33;4.15;94;18.90;0;1.10
2021-09-02 00:35:35;4.15;94;18.90;0;0.00
2021-09-02 00:40:32;4.15;94;18.90;0;2.19
2021-09-02 00:45:34;4.15;94;18.90;0;1.10
2021-09-02 00:50:31;4.15;94;19.00;0;1.50
2021-09-02 00:55:33;4.15;94;19.00;0;0.00
2021-09-02 01:00:30;4.15;94;19.10;0;1.20
2021-09-02 01:05:32;4.15;93;19.30;0;0.00
2021-09-02 01:10:34;4.15;93;19.40;0;1.30
2021-09-02 01:15:32;4.15;92;19.50;0;2.59
2021-09-02 01:20:34;4.15;92;19.60;0;2.00
2021-09-02 01:25:31;4.15;92;19.60;0;1.80
2021-09-02 01:30:33;4.15;92;19.60;0;1.60
2021-09-02 01:35:35;4.15;92;19.50;0;2.09
2021-09-02 01:40:32;4.15;92;19.40;0;0.00
2021-09-02 01:45:34;4.15;93;19.40;0;2.00
2021-09-02 01:50:32;4.15;93;19.30;0;0.00
2021-09-02 01:55:34;4.15;93;19.20;0;0.00
2021-09-02 02:00:31;4.15;94;19.00;0;1.30
2021-09-02 02:05:33;4.15;94;19.00;0;1.90
2021-09-02 02:10:35;4.15;94;19.00;0;2.09
2021-09-02 02:15:32;4.15;93;19.20;0;3.78
2021-09-02 02:20:34;4.15;93;19.30;0;3.68
2021-09-02 02:25:32;4.15;92;19.30;0;4.96
2021-09-02 02:30:34;4.15;93;19.10;0;4.17
2021-09-02 02:35:31;4.15;95;18.90;0;2.79
2021-09-02 02:40:33;4.15;96;18.70;0;3.68
2021-09-02 02:45:35;4.15;97;18.60;0;4.27
2021-09-02 02:50:29;4.15;98;18.40;1;3.38
2021-09-02 02:55:19;4.15;98;18.30;4;3.97
2021-09-02 03:00:29;4.15;98;18.30;7;3.58
2021-09-02 03:05:32;4.15;98;18.20;8;3.18
2021-09-02 03:10:32;4.15;98;18.10;10;5.36
2021-09-02 03:15:33;4.15;98;18.20;11;3.38
2021-09-02 03:20:24;4.15;98;18.10;14;4.47
2021-09-02 03:25:32;4.15;98;18.00;18;2.99
2021-09-02 03:30:20;4.15;98;18.00;23;3.58
2021-09-02 03:35:23;4.15;98;17.80;29;1.20
2021-09-02 03:40:34;4.15;98;17.70;29;2.19
2021-09-02 03:45:32;4.15;98;17.70;29;2.09
2021-09-02 03:50:31;4.15;98;17.70;30;2.09
2021-09-02 03:55:33;4.14;98;17.70;30;1.30
2021-09-02 04:00:34;4.14;98;17.80;30;1.30
2021-09-02 04:05:32;4.14;98;17.80;30;0.00
2021-09-02 04:10:33;4.14;98;17.80;30;2.39
2021-09-02 04:15:31;4.14;98;17.70;30;1.80
2021-09-02 04:20:32;4.14;98;17.60;30;0.00
2021-09-02 04:25:32;4.14;98;17.50;31;3.58
2021-09-02 04:30:29;4.14;98;17.50;34;3.58
2021-09-02 04:35:31;4.14;98;17.40;34;3.38
2021-09-02 04:40:33;4.14;98;17.40;34;3.18
2021-09-02 04:45:35;4.14;98;17.40;34;3.28
2021-09-02 04:50:32;4.14;98;17.40;34;3.28
2021-09-02 04:55:34;4.14;98;17.30;34;3.28
2021-09-02 05:00:31;4.14;98;17.30;34;3.18
2021-09-02 05:05:32;4.14;98;17.30;34;3.28
2021-09-02 05:10:34;4.14;98;17.40;34;3.38
2021-09-02 05:15:31;4.14;98;17.40;34;3.38
2021-09-02 05:20:33;4.14;98;17.40;34;3.28
2021-09-02 05:25:35;4.14;98;17.60;34;3.28
2021-09-02 05:30:32;4.14;98;17.60;34;3.08
2021-09-02 05:35:31;4.14;98;17.50;35;3.18
2021-09-02 05:40:32;4.14;98;17.50;35;3.28
2021-09-02 05:45:22;4.14;98;17.30;40;0.00
2021-09-02 05:50:28;4.14;98;17.20;43;3.58
2021-09-02 05:55:33;4.14;98;17.20;44;3.38
2021-09-02 06:00:31;4.14;98;17.30;45;3.48
2021-09-02 06:05:33;4.14;98;17.30;45;3.48
2021-09-02 06:10:34;4.14;98;17.30;45;3.28
2021-09-02 06:15:28;4.14;98;17.30;46;3.38
2021-09-02 06:20:34;4.14;98;17.20;47;3.18
2021-09-02 06:25:31;4.14;98;17.20;47;3.08
2021-09-02 06:30:32;4.14;98;17.20;48;2.79
2021-09-02 06:35:32;4.14;98;17.20;49;2.49
2021-09-02 06:40:32;4.14;98;17.20;51;1.80
2021-09-02 06:45:30;4.14;98;17.20;52;0.00
2021-09-02 06:50:30;4.14;98;17.20;53;2.09
2021-09-02 06:55:32;4.14;98;17.30;53;2.49
2021-09-02 07:00:34;4.14;98;17.30;53;2.49
2021-09-02 07:05:31;4.14;98;17.30;53;2.69
2021-09-02 07:10:29;4.14;98;17.20;54;2.49
2021-09-02 07:15:35;4.14;98;17.20;54;3.28
2021-09-02 07:20:32;4.14;98;17.30;54;2.49
2021-09-02 07:25:34;4.14;98;17.30;54;2.29
2021-09-02 07:30:28;4.14;98;17.30;55;2.79
2021-09-02 07:35:34;4.13;98;17.20;55;1.50
2021-09-02 07:40:31;4.13;98;17.20;55;2.49
2021-09-02 07:45:30;4.13;98;17.10;56;2.29
2021-09-02 07:50:32;4.13;98;17.20;56;2.99
2021-09-02 07:55:30;4.14;98;17.10;57;2.19
2021-09-02 08:00:31;4.13;98;17.20;58;3.48
2021-09-02 08:05:30;4.13;98;17.10;60;2.49
2021-09-02 08:10:28;4.13;98;17.10;61;2.69
2021-09-02 08:15:33;4.13;98;17.20;63;2.59
2021-09-02 08:20:33;4.13;98;17.10;64;3.08
2021-09-02 08:25:29;4.13;98;17.00;65;2.89
2021-09-02 08:30:35;4.13;98;17.10;65;2.59
2021-09-02 08:35:32;4.13;98;17.10;65;3.78
2021-09-02 08:40:34;4.13;98;17.10;65;2.79
2021-09-02 08:45:31;4.13;98;17.20;65;2.89
2021-09-02 08:50:32;4.13;98;17.30;65;3.18
2021-09-02 08:55:34;4.14;98;17.30;65;3.48
2021-09-02 09:00:31;4.14;98;17.40;65;4.07
2021-09-02 09:05:33;4.14;98;17.40;65;4.17
2021-09-02 09:10:35;4.14;98;17.50;65;3.78
2021-09-02 09:15:32;4.14;97;17.60;65;4.17
2021-09-02 09:20:33;4.14;97;17.70;65;4.17
2021-09-02 09:25:31;4.14;96;17.80;65;3.48
2021-09-02 09:30:32;4.14;96;18.00;65;3.08
2021-09-02 09:35:34;4.14;96;18.20;65;2.79
2021-09-02 09:40:31;4.14;96;18.20;65;1.70
2021-09-02 09:45:33;4.15;95;18.40;65;2.19
2021-09-02 09:50:30;4.15;94;18.50;65;1.20
2021-09-02 09:55:32;4.15;94;18.60;65;0.00
2021-09-02 10:00:34;4.15;95;18.80;65;0.00
2021-09-02 10:05:31;4.15;94;19.00;65;1.30
2021-09-02 10:10:33;4.15;94;19.10;65;0.00
2021-09-02 10:15:31;4.15;94;19.20;65;0.00
2021-09-02 10:20:33;4.15;92;19.30;65;0.00
2021-09-02 10:25:35;4.16;91;19.50;65;0.00
2021-09-02 10:30:32;4.16;90;19.60;65;1.40
2021-09-02 10:35:34;4.15;89;19.70;65;0.00
2021-09-02 10:40:32;4.16;89;20.20;65;0.00
2021-09-02 10:45:34;4.15;91;19.60;65;0.00
2021-09-02 10:50:31;4.15;93;19.00;65;2.19
2021-09-02 10:55:33;4.15;94;18.80;65;2.19
2021-09-02 11:00:31;4.16;96;18.80;65;0.00
2021-09-02 11:05:33;4.16;95;18.80;65;1.30
2021-09-02 11:10:35;4.16;94;19.00;65;2.19
2021-09-02 11:15:32;4.16;95;18.90;65;1.60
2021-09-02 11:20:34;4.16;93;19.10;65;1.70
2021-09-02 11:25:32;4.16;90;19.50;65;0.00
2021-09-02 11:30:34;4.16;88;19.70;65;0.00
2021-09-02 11:35:31;4.16;84;21.20;65;0.00
2021-09-02 11:40:33;4.16;89;21.10;65;1.80
2021-09-02 11:45:31;4.16;91;19.70;65;1.70
2021-09-02 11:50:33;4.17;91;20.00;65;1.80
2021-09-02 11:55:31;4.17;89;20.10;65;1.40
2021-09-02 12:00:33;4.16;91;20.00;65;1.60
2021-09-02 12:05:31;4.16;91;19.80;65;1.50
2021-09-02 12:10:33;4.17;95;19.60;65;1.60
2021-09-02 12:15:31;4.17;94;19.20;65;2.09
2021-09-02 12:20:33;4.17;94;19.40;65;2.59
2021-09-02 12:25:31;4.17;95;19.30;65;1.90
2021-09-02 12:30:33;4.17;94;19.50;65;2.49
2021-09-02 12:35:35;4.17;93;19.20;65;1.70
2021-09-02 12:40:33;4.17;95;19.10;65;2.19
2021-09-02 12:45:35;4.16;94;19.00;65;2.29
2021-09-02 12:50:33;4.17;95;19.10;65;1.90
2021-09-02 12:55:35;4.17;93;19.00;65;1.70
2021-09-02 13:00:32;4.17;94;18.90;65;2.19
2021-09-02 13:05:35;4.17;94;18.80;65;2.69
2021-09-02 13:10:32;4.16;94;18.80;65;2.69
2021-09-02 13:15:34;4.16;95;18.90;65;2.59
2021-09-02 13:20:32;4.16;94;18.80;65;1.50
2021-09-02 13:25:34;4.16;94;18.80;65;2.69
2021-09-02 13:30:31;4.16;93;18.80;65;2.19
2021-09-02 13:35:33;4.16;94;18.80;65;1.80
2021-09-02 13:40:31;4.16;94;18.90;65;1.90
2021-09-02 13:45:33;4.16;94;19.00;65;2.00
2021-09-02 13:50:35;4.16;94;19.00;65;1.70
2021-09-02 13:55:32;4.16;93;19.20;65;3.28
2021-09-02 14:00:34;4.17;93;19.30;65;2.00
2021-09-02 14:05:31;4.17;94;19.40;65;1.90
2021-09-02 14:10:33;4.16;92;19.30;65;2.89
2021-09-02 14:15:31;4.16;93;19.20;65;2.29
2021-09-02 14:20:33;4.17;93;19.30;65;2.09
2021-09-02 14:25:35;4.17;93;19.20;65;2.49
2021-09-02 14:30:32;4.16;92;19.20;65;2.99
2021-09-02 14:35:34;4.17;92;19.20;65;1.90
2021-09-02 14:40:32;4.17;92;19.20;65;2.69
2021-09-02 14:45:34;4.17;93;19.20;65;1.80
2021-09-02 14:50:31;4.17;93;19.00;65;2.39
2021-09-02 14:55:33;4.17;92;19.40;65;2.29
2021-09-02 15:00:31;4.17;90;19.50;65;3.88
2021-09-02 15:05:33;4.17;90;19.40;65;3.28
2021-09-02 15:10:35;4.17;91;19.40;65;2.49
2021-09-02 15:15:33;4.17;90;19.40;65;2.39
2021-09-02 15:20:35;4.17;92;19.60;65;2.09
2021-09-02 15:25:32;4.17;91;19.70;65;2.69
2021-09-02 15:30:34;4.17;90;19.40;65;2.29
2021-09-02 15:35:32;4.17;91;19.70;65;2.99
2021-09-02 15:40:34;4.17;91;19.70;65;2.99
2021-09-02 15:45:32;4.18;92;19.60;65;2.19
2021-09-02 15:50:34;4.17;91;19.60;65;2.49
2021-09-02 15:55:31;4.17;91;19.50;65;2.79
2021-09-02 16:00:34;4.17;91;19.50;65;2.79
2021-09-02 16:05:31;4.17;92;19.50;65;2.29
2021-09-02 16:10:33;4.17;92;19.60;65;2.79
2021-09-02 16:15:31;4.18;91;19.50;65;3.08
2021-09-02 16:20:33;4.18;91;19.70;65;2.59
2021-09-02 16:25:35;4.18;90;19.90;65;2.79
2021-09-02 16:30:33;4.17;91;19.90;65;2.89
2021-09-02 16:35:35;4.17;90;19.70;65;3.18
2021-09-02 16:40:33;4.18;89;19.90;65;2.39
2021-09-02 16:45:35;4.18;89;19.60;65;2.09
2021-09-02 16:50:32;4.17;90;19.40;65;2.09
2021-09-02 16:55:34;4.17;91;19.30;65;2.19
2021-09-02 17:00:32;4.17;91;19.30;65;2.29
2021-09-02 17:05:34;4.17;91;19.30;65;2.39
2021-09-02 17:10:32;4.17;92;19.20;65;1.80
2021-09-02 17:15:34;4.17;90;19.10;65;1.90
2021-09-02 17:20:31;4.17;91;19.00;65;2.39
2021-09-02 17:25:33;4.17;92;19.10;65;2.09
2021-09-02 17:30:31;4.17;93;19.20;65;1.70
2021-09-02 17:35:33;4.17;92;19.10;65;2.39
2021-09-02 17:40:35;4.17;92;19.00;65;1.80
2021-09-02 17:45:32;4.17;92;19.00;65;1.60
2021-09-02 17:50:34;4.17;93;19.00;65;1.50
2021-09-02 17:55:32;4.17;92;18.90;65;2.69
2021-09-02 18:00:34;4.17;93;18.80;65;2.29
2021-09-02 18:05:31;4.17;92;18.80;65;2.59
2021-09-02 18:10:33;4.17;92;18.70;65;2.09
2021-09-02 18:15:35;4.17;93;18.60;65;1.70
2021-09-02 18:20:32;4.16;93;18.60;65;1.60
2021-09-02 18:25:34;4.16;93;18.50;65;1.30
2021-09-02 18:30:32;4.16;93;18.50;65;2.29
2021-09-02 18:35:34;4.16;94;18.40;65;1.20
2021-09-02 18:40:31;4.16;95;18.40;65;0.00
2021-09-02 18:45:33;4.16;94;18.40;65;0.00
2021-09-02 18:50:35;4.16;94;18.30;65;1.60
2021-09-02 18:55:32;4.16;94;18.20;65;0.00
2021-09-02 19:00:34;4.16;94;18.20;65;0.00
2021-09-02 19:05:31;4.16;95;18.10;65;0.00
2021-09-02 19:10:33;4.16;95;18.20;65;1.30
2021-09-02 19:15:35;4.16;95;17.90;65;2.69
2021-09-02 19:20:32;4.16;97;17.60;65;1.60
2021-09-02 19:25:34;4.16;98;17.50;65;0.00
2021-09-02 19:30:31;4.16;98;17.50;65;2.19
2021-09-02 19:35:33;4.16;98;17.50;65;0.00
2021-09-02 19:40:34;4.16;98;17.60;65;1.50
2021-09-02 19:45:32;4.16;97;17.50;65;3.48
2021-09-02 19:50:33;4.15;98;17.30;65;2.89
2021-09-02 19:55:30;4.15;98;17.10;65;2.09
2021-09-02 20:00:32;4.15;98;17.00;65;3.08
2021-09-02 20:05:34;4.15;98;16.80;65;2.19
2021-09-02 20:10:31;4.15;98;16.70;65;2.99
2021-09-02 20:15:33;4.15;98;16.70;65;2.29
2021-09-02 20:20:34;4.15;98;16.60;65;2.69
2021-09-02 20:25:31;4.15;98;16.60;65;3.97
2021-09-02 20:30:33;4.15;98;16.60;65;1.40
2021-09-02 20:35:30;4.15;98;16.40;65;2.59
2021-09-02 20:40:32;4.15;98;16.30;65;2.39
2021-09-02 20:45:33;4.15;98;16.20;65;2.59
2021-09-02 20:50:31;4.15;98;16.10;65;1.10
2021-09-02 20:55:32;4.15;98;16.10;65;1.90
2021-09-02 21:00:34;4.15;98;16.00;65;2.29
2021-09-02 21:05:31;4.15;98;16.00;65;2.19
2021-09-02 21:10:32;4.15;98;15.90;65;1.80
2021-09-02 21:15:34;4.15;98;15.90;65;1.90
2021-09-02 21:20:31;4.15;98;15.80;65;2.19
2021-09-02 21:25:32;4.15;98;15.80;65;2.00
2021-09-02 21:30:34;4.15;98;15.80;65;2.69
2021-09-02 21:35:31;4.15;98;15.70;65;1.80
2021-09-02 21:40:32;4.15;98;15.80;65;1.40
2021-09-02 21:45:34;4.15;98;15.80;65;1.30
2021-09-02 21:50:31;4.14;98;15.70;65;1.90
2021-09-02 21:55:32;4.14;98;15.70;65;2.69
2021-09-02 22:00:34;4.14;98;15.60;65;2.79
2021-09-02 22:05:31;4.14;98;15.50;65;2.89
2021-09-02 22:10:32;4.14;98;15.50;65;2.49
2021-09-02 22:15:34;4.14;98;15.50;65;1.90
2021-09-02 22:20:31;4.14;98;15.50;65;1.70
2021-09-02 22:25:32;4.14;98;15.50;65;1.70
2021-09-02 22:30:34;4.14;98;15.50;65;1.50
2021-09-02 22:35:31;4.14;98;15.50;65;1.90
2021-09-02 22:40:32;4.14;98;15.50;65;1.90
2021-09-02 22:45:34;4.14;98;15.50;65;2.39
2021-09-02 22:50:31;4.14;98;15.60;65;1.50
2021-09-02 22:55:32;4.14;98;15.50;65;1.40
2021-09-02 23:00:34;4.14;98;15.40;65;1.10
2021-09-02 23:05:31;4.14;98;15.40;65;1.40
2021-09-02 23:10:32;4.14;98;15.50;65;2.89
2021-09-02 23:15:34;4.14;98;15.50;65;1.40
2021-09-02 23:20:30;4.14;98;15.50;65;1.70
2021-09-02 23:25:32;4.14;98;15.50;65;1.80
2021-09-02 23:30:33;4.14;98;15.50;65;1.60
2021-09-02 23:35:30;4.14;98;15.50;65;1.30
2021-09-02 23:40:32;4.14;98;15.30;65;1.90
2021-09-02 23:45:33;4.14;98;15.20;65;2.00
2021-09-02 23:50:30;4.14;98;15.20;65;2.29
2021-09-02 23:55:32;4.14;98;15.20;65;1.50
