2021-12-18 00:00:41;4.00;127.77;96;17.90
2021-12-18 00:05:39;4.00;128.09;99;18.10
2021-12-18 00:10:42;4.00;126.16;99;18.10
2021-12-18 00:15:40;4.00;127.45;99;18.00
2021-12-18 00:20:39;4.00;128.09;99;18.10
2021-12-18 00:25:42;4.00;126.16;99;18.00
2021-12-18 00:30:40;4.00;126.48;99;17.90
2021-12-18 00:35:43;4.00;128.09;99;17.60
2021-12-18 00:40:41;4.00;126.48;99;17.60
2021-12-18 00:45:39;4.00;127.45;97;17.70
2021-12-18 00:50:42;4.00;126.16;94;17.90
2021-12-18 00:55:40;4.00;127.45;96;17.90
2021-12-18 01:00:39;4.00;126.16;96;17.90
2021-12-18 01:05:42;4.00;127.45;95;17.70
2021-12-18 01:10:40;4.00;127.77;93;17.90
2021-12-18 01:15:38;4.00;127.45;93;17.70
2021-12-18 01:20:41;4.00;126.48;94;17.80
2021-12-18 01:25:39;4.00;125.84;91;17.80
2021-12-18 01:30:42;4.00;126.16;92;18.00
2021-12-18 01:35:40;4.00;126.16;88;17.70
2021-12-18 01:40:39;4.00;126.16;85;17.70
2021-12-18 01:45:42;4.00;126.48;85;17.40
2021-12-18 01:50:40;4.00;128.09;83;17.50
2021-12-18 01:55:38;4.00;126.48;75;17.50
2021-12-18 02:00:41;4.00;126.16;70;17.30
2021-12-18 02:05:39;4.00;127.77;62;17.20
2021-12-18 02:10:42;4.00;126.16;53;17.20
2021-12-18 02:15:40;4.00;127.45;48;17.00
2021-12-18 02:20:39;4.00;126.16;32;17.00
2021-12-18 02:25:42;4.00;127.77;22;16.90
2021-12-18 02:30:40;4.00;126.48;14;17.00
2021-12-18 02:35:43;4.00;126.48;15;16.60
2021-12-18 02:40:41;4.00;128.09;2;16.60
2021-12-18 02:45:39;4.00;126.48;2;16.60
2021-12-18 02:50:42;4.00;127.45;2;16.60
2021-12-18 02:55:40;4.00;126.16;2;16.40
2021-12-18 03:00:38;4.00;128.09;2;16.60
2021-12-18 03:05:41;4.00;127.77;2;16.50
2021-12-18 03:10:39;4.00;126.16;2;16.70
2021-12-18 03:15:42;4.00;127.45;2;16.70
2021-12-18 03:20:40;4.00;127.77;2;16.30
2021-12-18 03:25:43;4.00;127.45;2;16.50
2021-12-18 03:30:41;4.00;127.77;2;16.50
2021-12-18 03:35:39;4.00;125.84;2;16.40
2021-12-18 03:40:42;4.00;127.45;2;16.30
2021-12-18 03:45:40;4.00;126.16;2;16.30
2021-12-18 03:50:42;4.00;126.16;2;16.20
2021-12-18 03:55:41;4.00;126.16;2;16.30
2021-12-18 04:00:39;4.00;127.45;2;16.30
2021-12-18 04:05:41;4.00;127.77;2;16.30
2021-12-18 04:10:40;4.00;125.84;2;16.30
2021-12-18 04:15:42;4.00;125.84;2;16.30
2021-12-18 04:20:40;4.00;127.13;2;16.10
2021-12-18 04:25:38;4.00;127.45;2;16.20
2021-12-18 04:30:41;4.00;127.13;2;16.20
2021-12-18 04:35:39;4.00;127.13;2;16.20
2021-12-18 04:40:42;4.00;125.84;2;16.30
2021-12-18 04:45:40;4.00;127.13;2;16.40
2021-12-18 04:50:38;4.00;125.84;2;16.30
2021-12-18 04:55:41;4.00;127.13;2;16.30
2021-12-18 05:00:39;4.00;125.68;2;16.30
2021-12-18 05:05:42;4.00;127.13;2;16.40
2021-12-18 05:10:40;4.00;127.13;2;16.50
2021-12-18 05:15:42;4.00;125.68;2;16.70
2021-12-18 05:20:41;4.00;125.68;2;16.40
2021-12-18 05:25:39;4.00;127.45;2;16.50
2021-12-18 05:30:41;4.00;125.68;2;16.50
2021-12-18 05:35:39;4.00;125.68;2;16.50
2021-12-18 05:40:42;4.00;127.45;2;16.60
2021-12-18 05:45:40;4.00;127.45;2;16.60
2021-12-18 05:50:38;4.00;125.84;2;16.30
2021-12-18 05:55:41;4.00;126.80;2;16.40
2021-12-18 06:00:39;4.00;127.13;2;16.50
2021-12-18 06:05:42;4.00;125.68;2;16.50
2021-12-18 06:10:40;4.00;125.68;2;16.50
2021-12-18 06:15:38;4.00;125.84;2;17.00
2021-12-18 06:20:41;4.00;125.68;2;17.00
2021-12-18 06:25:39;4.00;125.68;2;17.10
2021-12-18 06:30:42;4.00;126.80;2;17.30
2021-12-18 06:35:40;4.00;125.68;2;17.70
2021-12-18 06:40:42;4.00;127.13;2;18.00
2021-12-18 06:45:41;4.00;125.35;2;18.00
2021-12-18 06:50:39;4.00;126.80;2;18.60
2021-12-18 06:55:42;4.00;126.80;36;18.70
2021-12-18 07:00:40;4.00;126.80;73;19.50
2021-12-18 07:05:43;4.00;126.48;91;19.90
2021-12-18 07:10:41;4.00;126.80;99;20.40
2021-12-18 07:15:39;4.00;125.68;99;20.70
2021-12-18 07:20:42;4.00;126.80;99;20.90
2021-12-18 07:25:41;4.00;126.80;99;21.30
2021-12-18 07:30:39;4.00;126.80;99;21.60
2021-12-18 07:35:42;4.00;125.68;99;21.80
2021-12-18 07:40:41;4.00;126.80;99;22.40
2021-12-18 07:45:40;4.00;126.80;99;23.10
2021-12-18 07:50:43;3.99;127.13;99;23.80
2021-12-18 07:55:41;3.99;126.80;99;24.90
2021-12-18 08:00:40;3.99;127.13;99;25.70
2021-12-18 08:05:39;3.99;126.80;99;26.10
2021-12-18 08:10:43;3.99;127.13;98;26.40
2021-12-18 08:15:42;3.99;125.68;98;26.70
2021-12-18 08:20:41;3.99;125.68;96;27.20
2021-12-18 08:25:40;3.99;125.68;94;27.70
2021-12-18 08:30:44;3.99;125.68;96;27.10
2021-12-18 08:35:43;3.99;125.35;95;26.90
2021-12-18 08:40:42;3.99;127.13;95;28.10
2021-12-18 08:45:42;3.99;126.80;94;27.90
2021-12-18 08:50:41;3.99;125.68;92;28.10
2021-12-18 08:55:41;3.99;126.80;92;29.30
2021-12-18 09:00:41;3.99;127.13;91;29.80
2021-12-18 09:05:40;3.99;125.35;89;30.80
2021-12-18 09:10:40;3.99;126.80;87;30.80
2021-12-18 09:15:40;3.99;125.68;88;30.90
2021-12-18 09:20:40;3.99;126.80;86;31.10
2021-12-18 09:25:40;3.99;125.35;86;31.80
2021-12-18 09:30:40;3.99;125.68;86;32.10
2021-12-18 09:35:41;3.99;125.68;84;32.30
2021-12-18 09:40:41;3.99;125.68;85;31.50
2021-12-18 09:45:41;3.99;127.13;85;32.00
2021-12-18 09:50:42;3.99;126.80;83;33.10
2021-12-18 09:55:42;3.99;125.68;82;33.50
2021-12-18 10:00:42;3.99;125.68;81;33.50
2021-12-18 10:05:43;3.99;126.80;80;33.60
2021-12-18 10:10:44;3.99;125.35;81;34.30
2021-12-18 10:15:44;3.99;125.68;79;34.50
2021-12-18 10:20:41;3.99;126.80;78;34.30
2021-12-18 10:25:41;3.99;125.35;80;33.90
2021-12-18 10:30:42;3.99;126.80;80;34.20
2021-12-18 10:35:43;3.99;125.68;76;35.30
2021-12-18 10:40:44;3.99;126.80;75;35.90
2021-12-18 10:45:40;3.99;125.68;73;36.10
2021-12-18 10:50:42;3.99;127.13;73;36.00
2021-12-18 10:55:43;3.99;125.84;74;35.30
2021-12-18 11:00:44;3.99;127.13;71;36.90
2021-12-18 11:05:41;3.99;125.68;72;36.70
2021-12-18 11:10:42;3.99;125.84;69;37.20
2021-12-18 11:15:43;3.99;127.13;68;37.30
2021-12-18 11:20:45;3.99;125.68;69;37.30
2021-12-18 11:25:42;3.99;125.84;67;37.00
2021-12-18 11:30:43;3.99;127.13;68;37.90
2021-12-18 11:35:45;3.99;127.45;63;39.10
2021-12-18 11:40:42;3.99;127.13;64;39.00
2021-12-18 11:45:44;3.99;127.45;66;38.00
2021-12-18 11:50:46;3.99;125.68;65;39.00
2021-12-18 11:55:43;3.99;127.45;64;39.00
2021-12-18 12:00:45;3.99;125.84;65;39.30
2021-12-18 12:05:42;3.99;125.84;63;39.10
2021-12-18 12:10:44;3.99;127.45;62;38.80
2021-12-18 12:15:41;3.99;127.45;63;38.70
2021-12-18 12:20:44;3.99;125.84;64;38.60
2021-12-18 12:25:46;3.99;127.45;64;38.80
2021-12-18 12:30:43;3.99;127.45;65;39.10
2021-12-18 12:35:45;3.99;127.45;62;39.40
2021-12-18 12:40:43;3.99;126.16;61;39.50
2021-12-18 12:45:45;3.99;126.16;60;40.00
2021-12-18 12:50:43;3.98;127.77;60;40.10
2021-12-18 12:55:45;3.98;127.45;61;40.20
2021-12-18 13:00:43;3.99;126.48;60;40.60
2021-12-18 13:05:45;3.99;127.77;57;40.70
2021-12-18 13:10:43;3.98;126.48;60;40.30
2021-12-18 13:15:45;3.98;127.77;60;40.50
2021-12-18 13:20:43;3.98;126.16;60;40.60
2021-12-18 13:25:46;3.98;126.16;61;40.60
2021-12-18 13:30:44;3.98;126.80;58;40.10
2021-12-18 13:35:47;3.98;126.48;63;38.10
2021-12-18 13:40:44;3.98;128.09;62;40.00
2021-12-18 13:45:42;3.98;126.48;61;40.30
2021-12-18 13:50:45;3.98;128.42;58;41.20
2021-12-18 13:55:43;3.98;128.42;58;40.50
2021-12-18 14:00:46;3.98;127.13;57;41.40
2021-12-18 14:05:44;3.98;127.13;59;41.10
2021-12-18 14:10:46;3.98;127.13;57;40.90
2021-12-18 14:15:44;3.98;128.42;56;40.80
2021-12-18 14:20:43;3.98;126.80;56;41.50
2021-12-18 14:25:45;3.98;128.74;57;41.40
2021-12-18 14:30:44;3.98;127.45;55;41.20
2021-12-18 14:35:47;3.98;128.74;57;40.60
2021-12-18 14:40:45;3.98;127.13;57;41.40
2021-12-18 14:45:43;3.98;128.74;58;41.10
2021-12-18 14:50:46;3.98;127.45;54;42.50
2021-12-18 14:55:44;3.98;127.13;56;41.00
2021-12-18 15:00:42;3.98;128.74;56;41.20
2021-12-18 15:05:45;3.98;127.13;55;41.30
2021-12-18 15:10:44;3.98;127.13;58;41.30
2021-12-18 15:15:47;3.98;127.45;58;41.00
2021-12-18 15:20:45;3.98;127.45;58;41.10
2021-12-18 15:25:43;3.98;129.38;56;41.80
2021-12-18 15:30:46;3.98;129.38;57;41.90
2021-12-18 15:35:44;3.98;129.38;56;40.70
2021-12-18 15:40:43;3.98;129.38;59;40.60
2021-12-18 15:45:46;3.98;129.87;56;40.90
2021-12-18 15:50:44;3.98;128.09;57;40.30
2021-12-18 15:55:42;3.98;129.38;59;40.40
2021-12-18 16:00:45;3.98;128.09;57;41.00
2021-12-18 16:05:43;3.98;129.70;57;40.90
2021-12-18 16:10:46;3.98;129.70;55;41.10
2021-12-18 16:15:44;3.98;128.09;54;41.30
2021-12-18 16:20:47;3.98;129.70;57;40.80
2021-12-18 16:25:45;3.98;129.70;56;41.30
2021-12-18 16:30:43;3.98;128.09;56;41.60
2021-12-18 16:35:45;3.98;128.09;55;41.70
2021-12-18 16:40:43;3.98;128.42;56;41.20
2021-12-18 16:45:46;3.98;127.77;55;40.90
2021-12-18 16:50:44;3.98;128.42;54;41.10
2021-12-18 16:55:42;3.98;129.70;55;40.70
2021-12-18 17:00:45;3.98;128.42;56;40.50
2021-12-18 17:05:43;3.98;129.87;57;40.70
2021-12-18 17:10:45;3.98;128.74;59;39.80
2021-12-18 17:15:43;3.98;128.42;57;39.90
2021-12-18 17:20:46;3.98;128.09;56;39.70
2021-12-18 17:25:43;3.98;128.42;57;39.70
2021-12-18 17:30:46;3.98;128.74;56;39.60
2021-12-18 17:35:44;3.98;129.87;56;40.00
2021-12-18 17:40:46;3.98;129.87;57;39.10
2021-12-18 17:45:44;3.98;129.87;57;39.40
2021-12-18 17:50:46;3.98;130.19;57;39.00
2021-12-18 17:55:44;3.98;128.09;59;39.10
2021-12-18 18:00:46;3.98;128.74;60;39.10
2021-12-18 18:05:43;3.98;128.42;59;38.40
2021-12-18 18:10:45;3.98;128.74;58;38.20
2021-12-18 18:15:43;3.98;130.19;59;38.10
2021-12-18 18:20:45;3.98;128.74;60;37.60
2021-12-18 18:25:42;3.98;129.87;60;37.70
2021-12-18 18:30:44;3.98;129.87;60;37.00
2021-12-18 18:35:41;3.98;129.87;61;37.00
2021-12-18 18:40:43;3.98;128.42;61;36.70
2021-12-18 18:45:45;3.98;129.87;62;36.70
2021-12-18 18:50:42;3.98;129.87;63;36.00
2021-12-18 18:55:43;3.98;129.87;63;35.20
2021-12-18 19:00:45;3.98;128.42;65;34.90
2021-12-18 19:05:41;3.98;129.87;66;33.80
2021-12-18 19:10:43;3.98;129.87;69;32.90
2021-12-18 19:15:44;3.98;129.87;73;32.00
2021-12-18 19:20:40;3.98;129.70;75;31.40
2021-12-18 19:25:41;3.98;128.74;77;30.40
2021-12-18 19:30:42;3.98;129.70;79;29.90
2021-12-18 19:35:43;3.98;129.87;82;29.40
2021-12-18 19:40:43;3.98;128.09;83;28.60
2021-12-18 19:45:44;3.98;129.70;86;28.20
2021-12-18 19:50:44;3.98;129.70;87;27.70
2021-12-18 19:55:40;3.98;129.70;89;27.30
2021-12-18 20:00:44;3.98;127.77;91;26.50
2021-12-18 20:05:40;3.98;129.87;94;25.80
2021-12-18 20:10:44;3.98;128.09;96;25.20
2021-12-18 20:15:40;3.98;128.09;97;24.80
2021-12-18 20:20:44;3.98;129.70;99;24.40
2021-12-18 20:25:39;3.98;128.09;99;23.80
2021-12-18 20:30:43;3.98;129.38;99;23.70
2021-12-18 20:35:43;3.98;129.38;99;23.10
2021-12-18 20:40:42;3.98;129.38;99;22.90
2021-12-18 20:45:42;3.99;127.77;99;22.50
2021-12-18 20:50:41;3.98;127.77;99;22.20
2021-12-18 20:55:41;3.98;127.77;99;22.00
2021-12-18 21:00:40;3.98;127.77;99;21.90
2021-12-18 21:05:44;3.98;127.77;99;21.80
2021-12-18 21:10:43;3.98;127.45;99;21.60
2021-12-18 21:15:42;3.99;129.06;99;21.20
2021-12-18 21:20:41;3.98;127.13;99;21.10
2021-12-18 21:25:40;3.99;129.06;99;20.90
2021-12-18 21:30:39;3.98;127.45;99;20.70
2021-12-18 21:35:43;3.98;127.45;99;20.40
2021-12-18 21:40:41;3.98;129.06;99;21.20
2021-12-18 21:45:40;3.98;129.06;99;21.70
2021-12-18 21:50:39;3.98;127.13;99;21.60
2021-12-18 21:55:43;3.98;128.74;99;21.40
2021-12-18 22:00:42;3.98;127.13;99;21.10
2021-12-18 22:05:41;3.98;127.13;99;20.80
2021-12-18 22:10:39;3.98;127.13;99;20.90
2021-12-18 22:15:43;3.98;127.13;99;20.30
2021-12-18 22:20:41;3.98;128.42;99;20.50
2021-12-18 22:25:40;3.98;127.13;99;20.10
2021-12-18 22:30:39;3.98;127.13;99;20.00
2021-12-18 22:35:42;3.98;128.74;99;20.00
2021-12-18 22:40:41;3.98;126.80;99;19.60
2021-12-18 22:45:40;3.98;126.80;99;19.30
2021-12-18 22:50:43;3.98;126.80;99;19.30
2021-12-18 22:55:42;3.98;128.09;99;19.00
2021-12-18 23:00:40;3.98;128.42;99;19.00
2021-12-18 23:05:39;3.98;126.48;93;18.80
2021-12-18 23:10:42;3.98;128.09;92;19.00
2021-12-18 23:15:41;3.98;128.09;92;18.70
2021-12-18 23:20:39;3.98;128.09;88;18.60
2021-12-18 23:25:42;3.98;126.80;86;18.30
2021-12-18 23:30:41;3.98;126.16;85;18.20
2021-12-18 23:35:39;3.98;126.48;85;18.40
2021-12-18 23:40:43;3.98;128.09;85;18.50
2021-12-18 23:45:41;3.98;127.77;87;18.50
2021-12-18 23:50:39;3.98;128.09;90;18.50
2021-12-18 23:55:43;3.98;126.48;96;18.70
