2021-01-09 00:04:25;4.16;108.92;74;22.30
2021-01-09 00:34:23;4.16;108.60;69;23.90
2021-01-09 01:04:26;4.16;108.27;74;22.80
2021-01-09 01:34:25;4.16;107.95;73;23.00
2021-01-09 02:04:28;4.15;107.63;85;22.40
2021-01-09 02:34:27;4.15;106.66;98;19.90
2021-01-09 03:04:23;4.15;108.60;94;19.80
2021-01-09 03:34:23;4.15;108.60;99;18.30
2021-01-09 04:04:23;4.15;107.31;99;18.20
2021-01-09 04:34:22;4.15;107.63;99;18.60
2021-01-09 05:04:22;4.15;109.24;99;18.60
2021-01-09 05:34:21;4.15;107.63;99;18.20
2021-01-09 06:04:25;4.15;107.31;99;18.40
2021-01-09 06:34:24;4.15;107.95;99;18.50
2021-01-09 07:04:23;4.15;107.63;99;18.70
2021-01-09 07:34:23;4.15;107.31;99;19.00
2021-01-09 08:04:23;4.15;108.92;97;19.80
2021-01-09 08:34:24;4.15;108.92;93;20.70
2021-01-09 09:04:26;4.15;108.60;89;22.10
2021-01-09 09:34:24;4.15;106.66;87;22.60
2021-01-09 10:04:29;4.15;108.27;83;23.80
2021-01-09 10:34:30;4.15;106.66;75;26.20
2021-01-09 11:04:29;4.15;106.99;68;27.60
2021-01-09 11:34:34;4.15;108.92;65;29.10
2021-01-09 12:04:32;4.15;108.92;65;30.20
2021-01-09 12:34:36;4.15;108.92;62;30.70
2021-01-09 13:04:35;4.15;107.63;62;30.20
2021-01-09 13:34:35;4.15;109.24;60;31.30
2021-01-09 14:04:35;4.15;108.27;56;32.90
2021-01-09 14:34:37;4.15;108.27;62;30.10
2021-01-09 15:04:37;4.15;110.05;56;32.80
2021-01-09 15:34:39;4.15;110.37;57;33.30
2021-01-09 16:04:39;4.15;110.05;54;34.30
2021-01-09 16:34:39;4.15;110.69;54;33.80
2021-01-09 17:04:40;4.16;110.69;54;33.60
2021-01-09 17:34:40;4.16;109.56;54;33.40
2021-01-09 18:04:39;4.16;110.69;56;32.90
2021-01-09 18:34:38;4.16;110.37;57;32.60
2021-01-09 19:04:35;4.16;108.92;61;31.10
2021-01-09 19:34:35;4.16;108.60;68;29.30
2021-01-09 20:04:32;4.16;108.27;74;27.20
2021-01-09 20:34:31;4.16;107.95;82;25.10
2021-01-09 21:04:27;4.16;107.63;88;23.90
2021-01-09 21:34:27;4.16;108.92;91;23.40
2021-01-09 22:04:26;4.16;108.60;95;22.70
2021-01-09 22:34:24;4.15;106.66;93;22.90
2021-01-09 23:04:27;4.15;108.27;96;22.50
2021-01-09 23:34:25;4.15;106.66;99;21.20
