2020-11-22 00:03:46;1;129;129;129;128;129;129;129;128;128;128;
2020-11-22 00:03:46;2;125;125;125;125;125;125;125;125;125;125;
2020-11-22 00:03:46;3;47;47;47;47;47;47;47;47;47;47;
2020-11-22 00:03:46;4;125;125;125;125;125;125;125;125;125;125;
2020-11-22 00:03:46;5;125;125;125;125;125;125;125;125;125;125;
2020-11-22 00:03:46;ht;99;16.10
2020-11-22 00:03:46;v;4.06
2020-11-22 00:33:47;1;128;128;128;128;128;128;128;128;128;129;
2020-11-22 00:33:47;2;126;126;126;126;126;126;126;126;126;126;
2020-11-22 00:33:47;3;47;47;47;47;47;47;47;47;47;47;
2020-11-22 00:33:47;4;124;124;124;124;124;124;124;124;124;124;
2020-11-22 00:33:47;5;120;120;120;120;120;120;120;120;121;120;
2020-11-22 00:33:47;ht;99;15.80
2020-11-22 00:33:47;v;4.06
2020-11-22 01:03:44;1;127;127;127;127;127;127;127;127;127;127;
2020-11-22 01:03:44;2;116;116;116;116;116;116;116;116;116;116;
2020-11-22 01:03:44;3;47;47;47;47;47;47;47;47;47;47;
2020-11-22 01:03:44;4;126;126;126;126;126;126;126;126;126;126;
2020-11-22 01:03:44;5;114;114;114;114;114;114;114;114;114;114;
2020-11-22 01:03:44;ht;99;15.60
2020-11-22 01:03:44;v;4.06
2020-11-22 01:33:44;1;128;129;129;129;128;128;128;128;128;128;
2020-11-22 01:33:44;2;122;122;122;122;122;122;122;122;122;122;
2020-11-22 01:33:44;3;60;60;60;60;60;60;60;60;60;60;
2020-11-22 01:33:44;4;125;125;125;125;125;125;125;125;125;125;
2020-11-22 01:33:44;5;115;115;115;115;115;115;115;115;115;115;
2020-11-22 01:33:44;ht;99;15.40
2020-11-22 01:33:44;v;4.05
2020-11-22 02:03:45;1;129;129;129;129;129;129;129;130;129;129;
2020-11-22 02:03:45;2;121;121;121;121;121;121;121;121;121;121;
2020-11-22 02:03:45;3;59;59;59;59;59;59;59;59;59;60;
2020-11-22 02:03:45;4;127;127;127;127;127;127;127;127;127;127;
2020-11-22 02:03:45;5;113;114;114;113;113;113;114;114;114;114;
2020-11-22 02:03:45;ht;99;15.30
2020-11-22 02:03:45;v;4.06
2020-11-22 02:33:46;1;129;129;129;129;129;129;129;129;129;129;
2020-11-22 02:33:46;2;116;116;116;116;116;116;116;116;116;116;
2020-11-22 02:33:46;3;48;48;48;47;48;48;48;48;48;48;
2020-11-22 02:33:46;4;126;126;126;126;126;126;126;126;126;126;
2020-11-22 02:33:46;5;133;133;133;133;133;133;133;133;133;133;
2020-11-22 02:33:46;ht;99;14.70
2020-11-22 02:33:46;v;4.06
2020-11-22 03:03:46;1;127;127;127;127;127;127;127;127;127;127;
2020-11-22 03:03:46;2;120;120;120;120;120;120;120;120;120;120;
2020-11-22 03:03:46;3;47;47;48;47;48;48;47;48;47;47;
2020-11-22 03:03:46;4;125;126;125;125;125;125;125;126;125;125;
2020-11-22 03:03:46;5;120;120;120;120;120;120;120;120;120;120;
2020-11-22 03:03:46;ht;99;15.20
2020-11-22 03:03:46;v;4.06
2020-11-22 03:33:46;1;128;128;128;128;128;128;128;128;128;128;
2020-11-22 03:33:46;2;122;122;122;123;123;123;122;123;123;122;
2020-11-22 03:33:46;3;47;47;47;47;47;47;47;47;47;47;
2020-11-22 03:33:46;4;125;125;125;125;125;125;125;125;125;125;
2020-11-22 03:33:46;5;116;116;116;116;116;116;116;116;116;116;
2020-11-22 03:33:46;ht;99;14.20
2020-11-22 03:33:46;v;4.06
2020-11-22 04:03:47;1;128;128;128;128;128;128;128;128;128;128;
2020-11-22 04:03:47;2;123;123;123;123;123;124;124;124;124;124;
2020-11-22 04:03:47;3;48;48;48;48;48;48;48;48;48;48;
2020-11-22 04:03:47;4;123;123;122;122;122;122;122;122;122;123;
2020-11-22 04:03:47;5;135;135;134;135;134;134;134;134;134;134;
2020-11-22 04:03:47;ht;99;14.10
2020-11-22 04:03:47;v;4.05
2020-11-22 04:33:46;1;127;127;127;127;127;127;127;127;127;127;
2020-11-22 04:33:46;2;117;117;116;117;117;117;117;117;117;117;
2020-11-22 04:33:46;3;48;48;48;48;48;48;48;48;48;48;
2020-11-22 04:33:46;4;127;125;124;124;124;124;124;124;124;124;
2020-11-22 04:33:46;5;140;140;140;140;140;140;140;140;140;140;
2020-11-22 04:33:46;ht;99;14.20
2020-11-22 04:33:46;v;4.05
2020-11-22 05:03:46;1;130;130;130;130;130;130;130;130;130;130;
2020-11-22 05:03:46;2;116;115;116;116;116;115;116;116;116;116;
2020-11-22 05:03:46;3;56;56;56;55;56;56;56;56;56;56;
2020-11-22 05:03:46;4;122;122;122;122;122;122;122;122;122;122;
2020-11-22 05:03:46;5;117;117;117;117;117;117;117;117;117;117;
2020-11-22 05:03:46;ht;99;13.70
2020-11-22 05:03:46;v;4.05
2020-11-22 05:33:46;1;130;130;130;130;130;130;130;130;130;130;
2020-11-22 05:33:46;2;116;116;116;116;116;116;116;116;116;116;
2020-11-22 05:33:46;3;48;48;48;48;48;48;48;48;48;48;
2020-11-22 05:33:46;4;125;125;125;125;125;125;125;125;125;125;
2020-11-22 05:33:46;5;126;126;126;126;125;126;126;126;126;126;
2020-11-22 05:33:46;ht;99;13.70
2020-11-22 05:33:46;v;4.06
2020-11-22 06:03:45;1;129;129;129;129;129;129;129;129;130;129;
2020-11-22 06:03:45;2;116;116;116;116;116;116;116;116;116;116;
2020-11-22 06:03:45;3;45;45;45;45;45;45;45;45;45;45;
2020-11-22 06:03:45;4;126;126;126;126;126;126;126;126;126;126;
2020-11-22 06:03:45;5;121;121;121;121;121;121;121;121;121;121;
2020-11-22 06:03:45;ht;99;13.90
2020-11-22 06:03:45;v;4.05
2020-11-22 06:33:45;1;124;124;124;124;124;124;124;124;124;124;
2020-11-22 06:33:45;2;124;124;124;124;124;124;124;124;124;124;
2020-11-22 06:33:45;3;26;26;26;26;26;26;26;26;26;26;
2020-11-22 06:33:45;4;123;123;123;123;123;123;123;123;123;123;
2020-11-22 06:33:45;5;2;1;1;1;1;1;1;1;1;1;
2020-11-22 06:33:45;ht;99;16.10
2020-11-22 06:33:45;v;4.05
2020-11-22 07:03:47;1;128;128;128;128;128;128;128;128;128;128;
2020-11-22 07:03:47;2;126;126;126;126;126;126;126;126;126;126;
2020-11-22 07:03:47;3;2;2;2;2;2;2;2;2;2;2;
2020-11-22 07:03:47;4;125;125;125;125;125;125;125;125;125;125;
2020-11-22 07:03:47;5;113;113;113;112;113;113;112;113;113;112;
2020-11-22 07:03:47;ht;99;18.80
2020-11-22 07:03:47;v;4.05
2020-11-22 07:33:51;1;126;126;126;126;126;126;126;126;126;126;
2020-11-22 07:33:51;2;119;119;119;120;120;120;120;120;120;120;
2020-11-22 07:33:51;3;27;27;27;27;27;27;27;27;27;27;
2020-11-22 07:33:51;4;126;126;126;126;126;126;126;126;126;126;
2020-11-22 07:33:51;5;2;2;2;2;2;2;2;2;2;2;
2020-11-22 07:33:51;ht;99;20.50
2020-11-22 07:33:51;v;4.06
2020-11-22 08:03:52;1;125;125;125;125;125;125;125;125;125;125;
2020-11-22 08:03:52;2;121;121;121;121;121;121;121;121;121;121;
2020-11-22 08:03:52;3;40;39;39;40;40;40;39;40;39;40;
2020-11-22 08:03:52;4;125;124;125;125;125;125;125;124;125;125;
2020-11-22 08:03:52;5;121;121;121;121;121;121;121;121;121;121;
2020-11-22 08:03:52;ht;99;22.00
2020-11-22 08:03:52;v;4.06
2020-11-22 08:33:50;1;118;118;118;118;118;118;118;118;118;118;
2020-11-22 08:33:50;2;122;122;122;122;122;122;122;122;122;122;
2020-11-22 08:33:50;3;40;40;40;40;40;40;40;40;40;40;
2020-11-22 08:33:50;4;120;121;121;120;121;121;121;120;120;121;
2020-11-22 08:33:50;5;121;122;122;121;122;122;121;121;121;122;
2020-11-22 08:33:50;ht;99;24.20
2020-11-22 08:33:50;v;4.05
2020-11-22 09:03:54;1;127;127;127;127;127;127;127;127;127;127;
2020-11-22 09:03:54;2;118;118;118;118;118;118;118;118;118;118;
2020-11-22 09:03:54;3;39;39;39;39;39;39;39;39;39;39;
2020-11-22 09:03:54;4;123;123;123;123;123;123;123;123;123;123;
2020-11-22 09:03:54;5;117;117;117;116;116;117;116;117;117;117;
2020-11-22 09:03:54;ht;96;25.70
2020-11-22 09:03:54;v;4.06
2020-11-22 09:33:55;1;123;123;123;123;123;123;123;123;123;123;
2020-11-22 09:33:55;2;121;121;121;121;121;121;121;121;121;121;
2020-11-22 09:33:55;3;38;38;38;38;38;38;38;38;38;38;
2020-11-22 09:33:55;4;123;123;123;123;123;123;123;123;123;123;
2020-11-22 09:33:55;5;2;2;2;2;2;2;2;2;2;2;
2020-11-22 09:33:55;ht;76;27.50
2020-11-22 09:33:55;v;4.06
2020-11-22 10:03:57;1;124;124;124;124;124;124;124;124;124;124;
2020-11-22 10:03:57;2;120;120;119;120;120;120;120;120;120;120;
2020-11-22 10:03:57;3;37;37;37;37;37;37;37;37;37;37;
2020-11-22 10:03:57;4;124;124;124;124;124;124;124;124;124;124;
2020-11-22 10:03:57;5;123;123;123;123;123;122;123;122;122;123;
2020-11-22 10:03:57;ht;76;28.30
2020-11-22 10:03:57;v;4.06
2020-11-22 10:33:56;1;133;132;133;132;132;132;132;133;133;132;
2020-11-22 10:33:56;2;123;123;123;123;123;123;123;123;123;123;
2020-11-22 10:33:56;3;37;37;37;37;37;37;37;37;37;37;
2020-11-22 10:33:56;4;123;123;123;123;123;123;123;123;123;123;
2020-11-22 10:33:56;5;123;123;123;123;123;123;123;123;123;123;
2020-11-22 10:33:56;ht;60;29.50
2020-11-22 10:33:56;v;4.05
2020-11-22 11:03:55;1;122;122;122;122;122;122;122;122;122;122;
2020-11-22 11:03:55;2;117;117;117;117;117;118;118;118;118;118;
2020-11-22 11:03:55;3;37;37;37;37;37;37;37;37;37;37;
2020-11-22 11:03:55;4;123;123;123;123;123;123;123;123;123;123;
2020-11-22 11:03:55;5;121;121;121;121;121;121;121;121;121;121;
2020-11-22 11:03:55;ht;59;29.90
2020-11-22 11:03:55;v;4.06
2020-11-22 11:33:59;1;122;122;122;122;122;122;122;122;122;122;
2020-11-22 11:33:59;2;119;119;119;119;119;119;119;119;119;119;
2020-11-22 11:33:59;3;36;36;36;36;36;36;36;36;36;36;
2020-11-22 11:33:59;4;123;123;123;123;123;123;123;123;123;123;
2020-11-22 11:33:59;5;119;119;119;118;119;119;119;119;119;118;
2020-11-22 11:33:59;ht;54;30.60
2020-11-22 11:33:59;v;4.05
2020-11-22 12:03:55;1;119;119;119;119;119;119;119;119;119;119;
2020-11-22 12:03:55;2;119;119;119;119;119;119;119;119;119;119;
2020-11-22 12:03:55;3;35;35;36;36;35;35;35;35;35;36;
2020-11-22 12:03:55;4;123;123;123;123;123;123;123;123;123;123;
2020-11-22 12:03:55;5;121;121;121;121;121;121;121;121;121;122;
2020-11-22 12:03:55;ht;47;30.80
2020-11-22 12:03:55;v;4.05
2020-11-22 12:33:57;1;132;132;132;132;132;132;132;132;132;132;
2020-11-22 12:33:57;2;122;122;122;122;122;122;122;122;122;122;
2020-11-22 12:33:57;3;36;36;36;36;36;36;36;36;36;36;
2020-11-22 12:33:57;4;123;123;123;123;123;123;123;123;123;123;
2020-11-22 12:33:57;5;123;123;123;123;123;123;123;123;123;123;
2020-11-22 12:33:57;ht;44;31.30
2020-11-22 12:33:57;v;4.05
2020-11-22 13:03:59;1;128;128;128;128;128;128;128;128;128;128;
2020-11-22 13:03:59;2;120;120;120;120;120;120;120;120;120;120;
2020-11-22 13:03:59;3;36;36;36;36;36;36;36;36;36;36;
2020-11-22 13:03:59;4;123;123;123;123;123;122;123;123;123;123;
2020-11-22 13:03:59;5;116;116;116;116;116;116;116;116;116;116;
2020-11-22 13:03:59;ht;45;31.40
2020-11-22 13:03:59;v;4.05
2020-11-22 13:34:01;1;122;122;122;122;122;122;122;122;122;122;
2020-11-22 13:34:01;2;122;122;122;122;122;122;122;122;122;122;
2020-11-22 13:34:01;3;35;35;35;35;35;35;35;35;35;35;
2020-11-22 13:34:01;4;123;123;123;122;123;123;123;123;123;123;
2020-11-22 13:34:01;5;117;117;117;117;117;117;117;117;117;117;
2020-11-22 13:34:01;ht;46;31.80
2020-11-22 13:34:01;v;4.05
2020-11-22 14:03:59;1;126;126;126;126;126;126;126;126;126;126;
2020-11-22 14:03:59;2;115;115;115;115;115;115;115;115;115;115;
2020-11-22 14:03:59;3;35;35;35;35;35;35;35;35;35;35;
2020-11-22 14:03:59;4;122;122;123;122;122;122;122;122;122;122;
2020-11-22 14:03:59;5;121;121;121;121;121;121;121;121;121;121;
2020-11-22 14:03:59;ht;47;32.00
2020-11-22 14:03:59;v;4.05
2020-11-22 14:34:02;1;130;130;130;130;130;130;130;130;130;130;
2020-11-22 14:34:02;2;123;123;123;123;123;123;123;123;123;123;
2020-11-22 14:34:02;3;35;34;35;35;35;35;35;34;35;35;
2020-11-22 14:34:02;4;121;121;122;121;121;121;121;121;121;121;
2020-11-22 14:34:02;5;117;117;117;117;117;117;117;117;117;117;
2020-11-22 14:34:02;ht;44;32.40
2020-11-22 14:34:02;v;4.05
2020-11-22 15:04:00;1;127;127;127;127;127;127;127;127;127;127;
2020-11-22 15:04:00;2;122;122;122;122;122;122;122;122;122;122;
2020-11-22 15:04:00;3;34;34;34;34;34;34;34;34;34;34;
2020-11-22 15:04:00;4;123;123;123;123;123;123;123;123;123;123;
2020-11-22 15:04:00;5;2;2;2;2;2;2;2;2;2;2;
2020-11-22 15:04:00;ht;45;32.70
2020-11-22 15:04:00;v;4.05
2020-11-22 15:33:59;1;121;121;121;121;121;121;121;121;121;121;
2020-11-22 15:33:59;2;119;119;119;119;119;119;119;119;119;119;
2020-11-22 15:33:59;3;33;33;33;33;33;33;33;33;33;33;
2020-11-22 15:33:59;4;122;122;122;122;122;122;122;122;122;122;
2020-11-22 15:33:59;5;2;1;2;1;1;1;2;1;1;2;
2020-11-22 15:33:59;ht;43;32.20
2020-11-22 15:33:59;v;4.05
2020-11-22 16:04:02;1;123;123;123;123;123;123;123;123;123;123;
2020-11-22 16:04:02;2;123;123;123;123;123;123;123;123;123;123;
2020-11-22 16:04:02;3;34;34;34;34;34;34;34;34;34;34;
2020-11-22 16:04:02;4;123;123;123;123;123;123;123;123;123;123;
2020-11-22 16:04:02;5;122;122;122;122;122;122;122;122;122;122;
2020-11-22 16:04:02;ht;41;32.20
2020-11-22 16:04:02;v;4.05
2020-11-22 16:34:00;1;124;124;124;124;124;124;124;124;124;124;
2020-11-22 16:34:00;2;120;120;120;120;120;120;120;120;120;120;
2020-11-22 16:34:00;3;34;33;34;34;34;34;34;34;34;34;
2020-11-22 16:34:00;4;122;122;122;122;122;122;122;122;122;122;
2020-11-22 16:34:00;5;2;2;2;2;2;2;2;2;2;2;
2020-11-22 16:34:00;ht;43;31.70
2020-11-22 16:34:00;v;4.05
2020-11-22 17:03:59;1;125;125;124;125;125;125;125;125;125;125;
2020-11-22 17:03:59;2;121;121;121;121;121;121;121;121;121;121;
2020-11-22 17:03:59;3;33;33;33;33;33;33;33;33;33;33;
2020-11-22 17:03:59;4;122;122;122;122;122;122;122;122;122;122;
2020-11-22 17:03:59;5;119;119;119;119;119;119;119;119;119;119;
2020-11-22 17:03:59;ht;45;31.60
2020-11-22 17:03:59;v;4.05
2020-11-22 17:34:01;1;138;138;137;137;138;138;138;138;138;138;
2020-11-22 17:34:01;2;123;123;123;123;123;123;123;123;123;123;
2020-11-22 17:34:01;3;34;34;34;34;34;34;34;34;34;34;
2020-11-22 17:34:01;4;122;122;122;122;122;122;122;122;122;122;
2020-11-22 17:34:01;5;2;1;2;2;1;1;1;2;1;2;
2020-11-22 17:34:01;ht;46;31.20
2020-11-22 17:34:01;v;4.05
2020-11-22 18:03:58;1;120;120;120;120;120;120;120;120;120;120;
2020-11-22 18:03:58;2;120;120;120;120;120;120;120;120;120;120;
2020-11-22 18:03:58;3;34;34;34;34;34;34;34;34;34;34;
2020-11-22 18:03:58;4;121;121;121;121;121;121;121;121;121;121;
2020-11-22 18:03:58;5;123;123;123;123;123;123;123;123;123;123;
2020-11-22 18:03:58;ht;47;30.60
2020-11-22 18:03:58;v;4.05
2020-11-22 18:33:59;1;130;130;130;131;130;130;130;130;130;130;
2020-11-22 18:33:59;2;116;116;116;116;116;116;116;116;116;116;
2020-11-22 18:33:59;3;35;34;35;35;35;34;35;35;34;34;
2020-11-22 18:33:59;4;119;119;119;119;119;119;119;119;119;119;
2020-11-22 18:33:59;5;2;2;2;2;2;2;2;2;2;2;
2020-11-22 18:33:59;ht;45;30.00
2020-11-22 18:33:59;v;4.05
2020-11-22 19:03:59;1;123;123;123;123;123;123;123;123;123;123;
2020-11-22 19:03:59;2;123;123;123;123;123;123;123;123;123;123;
2020-11-22 19:03:59;3;36;36;36;36;35;36;36;36;36;35;
2020-11-22 19:03:59;4;119;119;119;119;119;119;119;119;119;119;
2020-11-22 19:03:59;5;139;139;139;138;139;139;139;139;139;139;
2020-11-22 19:03:59;ht;48;28.80
2020-11-22 19:03:59;v;4.05
2020-11-22 19:33:58;1;128;128;128;128;128;128;128;128;128;128;
2020-11-22 19:33:58;2;125;125;125;125;125;125;125;125;125;125;
2020-11-22 19:33:58;3;37;37;37;37;37;37;37;37;37;37;
2020-11-22 19:33:58;4;120;120;120;120;120;120;120;120;120;120;
2020-11-22 19:33:58;5;116;116;116;116;116;116;116;116;116;116;
2020-11-22 19:33:58;ht;54;26.50
2020-11-22 19:33:58;v;4.05
2020-11-22 20:03:54;1;127;127;127;127;127;127;127;127;127;127;
2020-11-22 20:03:54;2;121;121;121;121;121;121;121;121;121;121;
2020-11-22 20:03:54;3;40;40;40;40;40;40;40;40;40;40;
2020-11-22 20:03:54;4;122;122;122;122;122;122;122;122;122;122;
2020-11-22 20:03:54;5;95;95;95;95;95;95;95;95;95;95;
2020-11-22 20:03:54;ht;67;24.10
2020-11-22 20:03:54;v;4.05
2020-11-22 20:33:53;1;125;125;125;125;125;125;125;125;125;125;
2020-11-22 20:33:53;2;121;121;121;121;121;121;121;121;121;121;
2020-11-22 20:33:53;3;42;42;42;42;42;42;42;42;42;42;
2020-11-22 20:33:53;4;121;121;121;121;121;121;121;121;121;121;
2020-11-22 20:33:53;5;122;122;122;122;122;122;122;122;122;122;
2020-11-22 20:33:53;ht;74;23.30
2020-11-22 20:33:53;v;4.05
2020-11-22 21:03:51;1;127;127;127;127;127;127;127;127;127;127;
2020-11-22 21:03:51;2;124;124;124;124;124;124;124;124;124;124;
2020-11-22 21:03:51;3;42;42;42;42;42;42;42;42;42;42;
2020-11-22 21:03:51;4;121;120;121;120;121;121;121;121;121;121;
2020-11-22 21:03:51;5;117;117;117;117;117;117;116;117;117;117;
2020-11-22 21:03:51;ht;78;22.90
2020-11-22 21:03:51;v;4.05
2020-11-22 21:33:52;1;126;126;126;126;126;126;126;126;126;126;
2020-11-22 21:33:52;2;124;124;124;124;124;124;125;125;124;125;
2020-11-22 21:33:52;3;43;43;42;43;43;43;42;42;43;43;
2020-11-22 21:33:52;4;121;121;121;121;121;121;121;121;121;121;
2020-11-22 21:33:52;5;120;120;120;120;120;120;120;120;120;120;
2020-11-22 21:33:52;ht;98;21.00
2020-11-22 21:33:52;v;4.05
2020-11-22 22:03:49;1;129;129;129;129;129;129;130;129;129;129;
2020-11-22 22:03:49;2;122;122;122;122;122;122;122;122;122;122;
2020-11-22 22:03:49;3;45;45;45;45;45;45;45;45;45;45;
2020-11-22 22:03:49;4;120;120;120;121;121;121;121;121;121;120;
2020-11-22 22:03:49;5;133;133;133;133;133;133;133;133;133;133;
2020-11-22 22:03:49;ht;99;20.60
2020-11-22 22:03:49;v;4.05
2020-11-22 22:33:48;1;125;125;125;125;125;125;125;125;125;125;
2020-11-22 22:33:48;2;124;124;124;124;124;124;124;124;124;124;
2020-11-22 22:33:48;3;43;44;44;44;44;44;44;44;44;44;
2020-11-22 22:33:48;4;121;121;121;121;121;121;121;121;121;121;
2020-11-22 22:33:48;5;116;116;116;116;116;116;116;116;116;115;
2020-11-22 22:33:48;ht;99;19.50
2020-11-22 22:33:48;v;4.05
2020-11-22 23:03:48;1;126;126;126;126;126;126;126;126;126;126;
2020-11-22 23:03:48;2;123;123;123;123;123;123;123;123;123;123;
2020-11-22 23:03:48;3;45;45;45;45;44;45;45;45;45;45;
2020-11-22 23:03:48;4;122;122;122;122;122;122;122;122;122;122;
2020-11-22 23:03:48;5;120;120;120;120;120;120;120;120;120;120;
2020-11-22 23:03:48;ht;99;18.60
2020-11-22 23:03:48;v;4.05
2020-11-22 23:33:46;1;123;123;123;123;123;123;123;123;123;123;
2020-11-22 23:33:46;2;125;125;125;125;125;125;125;125;125;125;
2020-11-22 23:33:46;3;45;45;45;45;45;45;45;45;45;45;
2020-11-22 23:33:46;4;122;122;121;121;122;121;121;121;121;121;
2020-11-22 23:33:46;5;126;126;126;126;126;126;126;126;126;126;
2020-11-22 23:33:46;ht;99;18.20
2020-11-22 23:33:46;v;4.05
