2020-12-05 00:03:43;1;116;116;116;116;116;116;116;116;116;116;
2020-12-05 00:03:43;2;120;120;120;120;120;120;120;120;120;120;
2020-12-05 00:03:43;3;101;101;101;101;101;101;102;101;101;101;
2020-12-05 00:03:43;4;126;126;126;126;126;126;126;126;126;126;
2020-12-05 00:03:43;5;89;89;88;89;89;89;89;88;88;88;
2020-12-05 00:03:43;ht;99;10.90
2020-12-05 00:03:43;v;4.01
2020-12-05 00:33:45;1;129;129;129;129;129;129;129;129;129;129;
2020-12-05 00:33:45;2;120;120;120;120;120;120;120;120;120;120;
2020-12-05 00:33:45;3;102;102;102;102;102;102;102;102;102;102;
2020-12-05 00:33:45;4;122;122;122;122;122;122;122;122;122;122;
2020-12-05 00:33:45;5;87;87;87;87;87;87;87;87;87;87;
2020-12-05 00:33:45;ht;99;10.50
2020-12-05 00:33:45;v;4.00
2020-12-05 01:03:42;1;94;94;94;94;94;94;94;94;94;94;
2020-12-05 01:03:42;2;126;127;126;126;126;126;126;126;126;126;
2020-12-05 01:03:42;3;138;138;138;138;138;138;138;138;138;138;
2020-12-05 01:03:42;4;126;127;127;126;127;127;127;127;127;127;
2020-12-05 01:03:42;5;82;82;82;82;82;82;82;82;82;82;
2020-12-05 01:03:42;ht;99;10.60
2020-12-05 01:03:42;v;4.00
2020-12-05 01:33:44;1;131;131;131;131;131;131;131;131;131;131;
2020-12-05 01:33:44;2;120;120;120;120;120;121;120;121;121;120;
2020-12-05 01:33:44;3;133;133;133;133;133;133;133;133;133;133;
2020-12-05 01:33:44;4;123;123;123;123;123;123;123;123;123;123;
2020-12-05 01:33:44;5;78;78;78;78;78;78;78;78;78;78;
2020-12-05 01:33:44;ht;99;10.50
2020-12-05 01:33:44;v;4.00
2020-12-05 02:03:41;1;128;128;128;128;128;128;128;128;128;128;
2020-12-05 02:03:41;2;119;119;118;118;118;118;118;119;119;119;
2020-12-05 02:03:41;3;102;101;101;102;102;102;102;103;103;103;
2020-12-05 02:03:41;4;129;127;127;126;126;126;126;126;126;126;
2020-12-05 02:03:41;5;86;85;85;85;85;85;86;86;86;86;
2020-12-05 02:03:41;ht;99;10.00
2020-12-05 02:03:41;v;4.00
2020-12-05 02:33:43;1;131;131;131;131;131;131;131;131;131;131;
2020-12-05 02:33:43;2;129;129;129;129;129;129;129;129;128;128;
2020-12-05 02:33:43;3;104;103;103;103;103;103;103;103;103;103;
2020-12-05 02:33:43;4;128;128;128;128;128;128;128;128;128;128;
2020-12-05 02:33:43;5;85;84;84;84;85;85;85;84;85;85;
2020-12-05 02:33:43;ht;99;10.00
2020-12-05 02:33:43;v;4.00
2020-12-05 03:03:44;1;2;1;2;2;2;2;2;2;2;2;
2020-12-05 03:03:44;2;130;130;130;130;130;130;130;130;130;130;
2020-12-05 03:03:44;3;102;102;102;102;102;102;102;101;102;102;
2020-12-05 03:03:44;4;129;129;129;129;129;129;129;129;129;129;
2020-12-05 03:03:44;5;84;84;84;84;84;84;84;84;85;85;
2020-12-05 03:03:44;ht;99;9.40
2020-12-05 03:03:44;v;4.00
2020-12-05 03:33:41;1;126;126;126;126;126;126;126;126;126;126;
2020-12-05 03:33:41;2;5;5;5;5;5;5;5;5;5;5;
2020-12-05 03:33:41;3;103;103;103;103;103;103;103;103;103;103;
2020-12-05 03:33:41;4;127;127;127;127;127;127;127;127;127;127;
2020-12-05 03:33:41;5;80;79;80;80;79;79;80;80;80;80;
2020-12-05 03:33:41;ht;99;9.30
2020-12-05 03:33:41;v;4.00
2020-12-05 04:03:42;1;3;2;2;2;2;2;1;1;1;2;
2020-12-05 04:03:42;2;123;122;123;123;122;123;122;123;122;123;
2020-12-05 04:03:42;3;106;106;106;106;106;106;106;106;106;106;
2020-12-05 04:03:42;4;121;122;122;122;122;122;122;122;122;122;
2020-12-05 04:03:42;5;86;86;85;86;85;85;86;86;86;86;
2020-12-05 04:03:42;ht;99;9.50
2020-12-05 04:03:42;v;4.00
2020-12-05 04:33:43;1;122;122;122;122;122;122;122;122;122;122;
2020-12-05 04:33:43;2;116;116;116;116;116;116;116;116;116;116;
2020-12-05 04:33:43;3;125;125;125;125;125;125;125;125;125;125;
2020-12-05 04:33:43;4;122;122;122;122;122;123;122;122;123;123;
2020-12-05 04:33:43;5;99;99;99;99;99;99;99;99;100;99;
2020-12-05 04:33:43;ht;99;9.60
2020-12-05 04:33:43;v;4.00
2020-12-05 05:03:40;1;132;132;132;132;132;132;132;132;132;132;
2020-12-05 05:03:40;2;6;6;6;6;6;6;6;6;6;6;
2020-12-05 05:03:40;3;123;123;123;123;123;123;123;123;123;123;
2020-12-05 05:03:40;4;126;125;125;125;125;125;125;126;125;126;
2020-12-05 05:03:40;5;82;82;82;82;82;82;81;82;82;82;
2020-12-05 05:03:40;ht;99;9.50
2020-12-05 05:03:40;v;4.00
2020-12-05 05:33:42;1;132;132;132;132;132;132;132;132;132;132;
2020-12-05 05:33:42;2;122;122;123;122;122;122;122;122;122;122;
2020-12-05 05:33:42;3;123;123;123;123;123;123;123;123;123;123;
2020-12-05 05:33:42;4;124;124;124;124;124;124;124;124;124;124;
2020-12-05 05:33:42;5;86;86;86;86;87;86;86;86;86;86;
2020-12-05 05:33:42;ht;99;9.10
2020-12-05 05:33:42;v;4.00
2020-12-05 06:03:43;1;95;95;94;95;94;94;94;94;95;94;
2020-12-05 06:03:43;2;108;108;108;108;108;108;108;108;108;108;
2020-12-05 06:03:43;3;96;96;96;96;96;96;96;96;96;96;
2020-12-05 06:03:43;4;125;125;125;125;125;125;125;125;126;125;
2020-12-05 06:03:43;5;83;84;83;84;84;83;83;83;83;83;
2020-12-05 06:03:43;ht;99;8.80
2020-12-05 06:03:43;v;4.00
2020-12-05 06:33:44;1;96;96;95;95;95;95;96;95;96;96;
2020-12-05 06:33:44;2;106;106;106;106;106;106;106;106;106;106;
2020-12-05 06:33:44;3;104;104;104;104;104;104;104;104;104;104;
2020-12-05 06:33:44;4;128;128;128;128;128;128;128;128;128;128;
2020-12-05 06:33:44;5;83;83;83;83;83;83;83;83;83;83;
2020-12-05 06:33:44;ht;99;11.00
2020-12-05 06:33:44;v;4.00
2020-12-05 07:03:42;1;121;121;121;121;121;121;121;121;121;121;
2020-12-05 07:03:42;2;113;112;112;113;112;112;112;112;112;112;
2020-12-05 07:03:42;3;100;100;100;100;100;100;100;100;100;100;
2020-12-05 07:03:42;4;129;129;129;129;129;129;129;129;129;129;
2020-12-05 07:03:42;5;95;96;96;95;96;96;96;96;95;95;
2020-12-05 07:03:42;ht;99;13.50
2020-12-05 07:03:42;v;4.00
2020-12-05 07:33:47;1;104;103;104;104;103;104;103;104;104;104;
2020-12-05 07:33:47;2;98;98;98;98;98;98;98;98;98;98;
2020-12-05 07:33:47;3;103;103;103;103;103;103;103;103;103;103;
2020-12-05 07:33:47;4;111;111;111;111;111;111;111;111;111;111;
2020-12-05 07:33:47;5;91;91;91;91;91;91;91;91;91;91;
2020-12-05 07:33:47;ht;99;15.10
2020-12-05 07:33:47;v;4.00
2020-12-05 08:03:48;1;117;117;117;117;117;117;117;117;117;117;
2020-12-05 08:03:48;2;120;119;119;119;119;119;119;119;119;119;
2020-12-05 08:03:48;3;104;104;104;104;104;104;104;104;104;104;
2020-12-05 08:03:48;4;101;101;101;101;101;101;101;101;101;101;
2020-12-05 08:03:48;5;84;84;84;84;84;84;84;84;84;84;
2020-12-05 08:03:48;ht;99;15.90
2020-12-05 08:03:48;v;4.00
2020-12-05 08:33:45;1;129;129;129;129;129;129;129;129;129;129;
2020-12-05 08:33:45;2;95;95;95;95;95;95;95;95;95;95;
2020-12-05 08:33:45;3;104;104;104;105;104;105;105;105;105;104;
2020-12-05 08:33:45;4;127;127;127;127;127;127;127;127;127;127;
2020-12-05 08:33:45;5;82;82;82;82;82;82;82;82;82;82;
2020-12-05 08:33:45;ht;99;17.70
2020-12-05 08:33:45;v;4.00
2020-12-05 09:03:48;1;127;127;127;127;127;127;127;127;127;127;
2020-12-05 09:03:48;2;115;115;115;115;115;115;115;115;115;115;
2020-12-05 09:03:48;3;106;106;106;106;106;106;106;106;106;106;
2020-12-05 09:03:48;4;122;122;122;122;122;122;122;122;122;122;
2020-12-05 09:03:48;5;89;89;89;89;89;89;89;89;89;89;
2020-12-05 09:03:48;ht;99;18.40
2020-12-05 09:03:48;v;4.00
2020-12-05 09:33:48;1;98;97;97;97;97;97;97;97;97;97;
2020-12-05 09:33:48;2;97;97;97;97;97;97;97;97;97;97;
2020-12-05 09:33:48;3;107;107;107;107;107;107;107;107;107;107;
2020-12-05 09:33:48;4;125;125;125;125;125;125;125;125;125;125;
2020-12-05 09:33:48;5;77;77;77;77;77;77;77;77;77;77;
2020-12-05 09:33:48;ht;99;19.50
2020-12-05 09:33:48;v;4.00
2020-12-05 10:03:48;1;127;127;127;127;127;127;127;127;127;127;
2020-12-05 10:03:48;2;116;116;116;116;116;116;116;116;117;117;
2020-12-05 10:03:48;3;108;108;108;108;108;108;108;108;108;108;
2020-12-05 10:03:48;4;89;90;89;89;89;89;89;89;89;89;
2020-12-05 10:03:48;5;77;77;77;77;77;77;77;77;77;77;
2020-12-05 10:03:48;ht;99;20.50
2020-12-05 10:03:48;v;4.00
2020-12-05 10:33:49;1;96;104;97;96;96;96;96;96;96;96;
2020-12-05 10:33:49;2;9;9;9;9;9;9;9;9;9;9;
2020-12-05 10:33:49;3;112;112;112;112;112;112;112;112;112;112;
2020-12-05 10:33:49;4;128;128;128;128;128;128;128;128;128;128;
2020-12-05 10:33:49;5;85;85;85;85;85;85;85;85;85;85;
2020-12-05 10:33:49;ht;93;20.30
2020-12-05 10:33:49;v;4.00
2020-12-05 11:03:50;1;118;118;118;118;118;118;118;118;118;118;
2020-12-05 11:03:50;2;112;112;112;112;112;112;112;112;112;112;
2020-12-05 11:03:50;3;105;105;105;105;105;105;105;105;105;105;
2020-12-05 11:03:50;4;121;121;121;121;121;121;121;121;121;121;
2020-12-05 11:03:50;5;86;86;85;85;85;86;86;86;86;86;
2020-12-05 11:03:50;ht;93;21.70
2020-12-05 11:03:50;v;4.00
2020-12-05 11:33:51;1;9;4;2;2;2;2;2;2;2;1;
2020-12-05 11:33:51;2;120;119;119;119;119;119;119;119;119;119;
2020-12-05 11:33:51;3;109;109;109;109;109;109;109;109;109;109;
2020-12-05 11:33:51;4;127;127;127;127;127;127;127;127;127;127;
2020-12-05 11:33:51;5;90;90;90;90;90;90;90;90;90;90;
2020-12-05 11:33:51;ht;81;22.60
2020-12-05 11:33:51;v;4.00
2020-12-05 12:03:49;1;103;102;102;102;102;102;102;102;102;102;
2020-12-05 12:03:49;2;123;123;123;123;123;123;123;123;122;122;
2020-12-05 12:03:49;3;109;108;108;109;109;108;108;108;108;108;
2020-12-05 12:03:49;4;120;120;120;120;120;120;120;120;120;120;
2020-12-05 12:03:49;5;79;78;79;79;79;79;79;79;78;79;
2020-12-05 12:03:49;ht;84;22.10
2020-12-05 12:03:49;v;4.00
2020-12-05 12:33:52;1;108;108;108;108;108;108;108;108;108;108;
2020-12-05 12:33:52;2;130;130;129;129;129;129;130;130;130;130;
2020-12-05 12:33:52;3;106;106;106;106;106;106;106;106;106;106;
2020-12-05 12:33:52;4;115;116;115;115;115;116;116;115;116;116;
2020-12-05 12:33:52;5;81;81;82;81;81;82;82;81;81;81;
2020-12-05 12:33:52;ht;73;22.10
2020-12-05 12:33:52;v;4.00
2020-12-05 13:03:50;1;96;96;96;95;96;96;96;96;96;96;
2020-12-05 13:03:50;2;103;103;103;103;103;103;103;103;103;103;
2020-12-05 13:03:50;3;107;107;107;107;107;107;107;107;107;107;
2020-12-05 13:03:50;4;112;111;111;111;111;112;111;111;111;111;
2020-12-05 13:03:50;5;83;83;83;83;83;83;83;83;83;83;
2020-12-05 13:03:50;ht;69;23.00
2020-12-05 13:03:50;v;4.00
2020-12-05 13:33:54;1;112;112;112;112;112;112;112;112;112;112;
2020-12-05 13:33:54;2;98;99;99;99;99;99;99;99;99;99;
2020-12-05 13:33:54;3;106;106;106;106;106;105;106;106;106;106;
2020-12-05 13:33:54;4;108;109;108;108;108;109;108;109;108;109;
2020-12-05 13:33:54;5;82;82;82;82;82;82;82;82;82;82;
2020-12-05 13:33:54;ht;80;23.70
2020-12-05 13:33:54;v;4.00
2020-12-05 14:03:53;1;88;88;88;88;88;88;88;88;88;88;
2020-12-05 14:03:53;2;121;121;121;121;121;121;121;121;121;121;
2020-12-05 14:03:53;3;106;106;106;106;106;106;106;106;106;106;
2020-12-05 14:03:53;4;129;129;129;129;129;129;129;129;129;129;
2020-12-05 14:03:53;5;84;84;84;84;84;84;84;84;84;84;
2020-12-05 14:03:53;ht;70;23.10
2020-12-05 14:03:53;v;4.00
2020-12-05 14:33:52;1;125;125;125;125;125;125;125;125;125;125;
2020-12-05 14:33:52;2;113;113;113;113;113;113;113;113;113;112;
2020-12-05 14:33:52;3;107;106;107;107;106;106;106;106;106;106;
2020-12-05 14:33:52;4;114;114;114;114;114;114;114;115;114;115;
2020-12-05 14:33:52;5;79;78;78;78;78;79;79;78;78;78;
2020-12-05 14:33:52;ht;62;23.50
2020-12-05 14:33:52;v;4.00
2020-12-05 15:03:52;1;121;121;121;121;121;121;121;121;121;121;
2020-12-05 15:03:52;2;114;114;114;114;114;114;114;113;114;114;
2020-12-05 15:03:52;3;111;111;111;111;111;111;111;111;111;111;
2020-12-05 15:03:52;4;120;121;121;120;120;121;120;121;120;121;
2020-12-05 15:03:52;5;83;83;83;83;83;83;83;83;83;83;
2020-12-05 15:03:52;ht;74;23.80
2020-12-05 15:03:52;v;4.00
2020-12-05 15:33:52;1;120;120;120;120;120;120;120;120;120;120;
2020-12-05 15:33:52;2;127;126;126;126;126;126;126;126;126;126;
2020-12-05 15:33:52;3;104;104;104;104;104;104;104;104;104;104;
2020-12-05 15:33:52;4;125;125;125;125;125;125;125;125;125;125;
2020-12-05 15:33:52;5;82;82;82;82;82;82;82;82;82;82;
2020-12-05 15:33:52;ht;76;23.50
2020-12-05 15:33:52;v;4.00
2020-12-05 16:03:52;1;125;125;125;125;125;125;125;125;125;125;
2020-12-05 16:03:52;2;97;96;97;97;97;97;97;97;97;97;
2020-12-05 16:03:52;3;111;111;111;111;111;111;111;111;111;111;
2020-12-05 16:03:52;4;127;127;127;127;127;127;126;127;127;127;
2020-12-05 16:03:52;5;85;85;85;85;86;85;85;85;86;85;
2020-12-05 16:03:52;ht;70;23.50
2020-12-05 16:03:52;v;4.00
2020-12-05 16:33:52;1;122;122;122;122;122;122;122;122;122;122;
2020-12-05 16:33:52;2;125;125;125;125;125;125;125;125;125;125;
2020-12-05 16:33:52;3;105;105;105;105;105;105;105;105;105;105;
2020-12-05 16:33:52;4;123;124;124;123;123;123;124;123;123;123;
2020-12-05 16:33:52;5;76;76;76;76;76;76;76;76;76;76;
2020-12-05 16:33:52;ht;69;24.30
2020-12-05 16:33:52;v;4.00
2020-12-05 17:03:52;1;80;80;80;80;80;80;80;80;80;80;
2020-12-05 17:03:52;2;116;116;116;116;116;116;116;116;116;116;
2020-12-05 17:03:52;3;102;102;102;102;102;102;102;102;102;101;
2020-12-05 17:03:52;4;124;124;124;124;124;124;124;124;124;124;
2020-12-05 17:03:52;5;83;83;83;83;83;83;83;83;83;83;
2020-12-05 17:03:52;ht;64;23.90
2020-12-05 17:03:52;v;4.00
2020-12-05 17:33:51;1;131;127;125;125;125;124;124;125;124;124;
2020-12-05 17:33:51;2;118;118;118;118;118;118;118;118;118;118;
2020-12-05 17:33:51;3;104;104;104;104;104;104;104;104;104;104;
2020-12-05 17:33:51;4;124;124;124;124;124;124;124;124;124;124;
2020-12-05 17:33:51;5;81;80;80;80;80;80;80;80;80;80;
2020-12-05 17:33:51;ht;62;23.20
2020-12-05 17:33:51;v;4.00
2020-12-05 18:03:50;1;119;119;119;119;119;119;119;119;119;119;
2020-12-05 18:03:50;2;110;110;110;110;110;110;110;110;110;110;
2020-12-05 18:03:50;3;96;97;97;97;96;96;96;97;96;97;
2020-12-05 18:03:50;4;128;128;128;128;128;128;128;128;128;128;
2020-12-05 18:03:50;5;93;92;93;93;93;93;92;93;93;92;
2020-12-05 18:03:50;ht;63;22.60
2020-12-05 18:03:50;v;4.00
2020-12-05 18:33:54;1;113;113;113;113;113;113;113;113;113;113;
2020-12-05 18:33:54;2;118;118;118;118;118;118;118;118;118;118;
2020-12-05 18:33:54;3;102;102;102;102;102;102;102;102;102;102;
2020-12-05 18:33:54;4;122;122;122;122;122;122;122;121;122;122;
2020-12-05 18:33:54;5;83;82;82;82;82;82;82;82;82;82;
2020-12-05 18:33:54;ht;69;22.40
2020-12-05 18:33:54;v;4.00
2020-12-05 19:03:51;1;126;126;126;126;126;126;126;126;126;126;
2020-12-05 19:03:51;2;104;104;104;104;104;104;104;104;104;104;
2020-12-05 19:03:51;3;101;101;101;102;102;101;101;101;101;102;
2020-12-05 19:03:51;4;123;123;123;123;124;123;123;123;123;123;
2020-12-05 19:03:51;5;75;75;75;75;75;75;75;75;75;75;
2020-12-05 19:03:51;ht;73;21.20
2020-12-05 19:03:51;v;4.00
2020-12-05 19:33:48;1;97;96;96;96;97;96;96;97;96;96;
2020-12-05 19:33:48;2;111;111;111;111;111;111;111;111;111;111;
2020-12-05 19:33:48;3;95;95;95;95;95;95;95;95;95;95;
2020-12-05 19:33:48;4;122;122;122;122;122;122;122;122;122;122;
2020-12-05 19:33:48;5;77;77;77;77;77;77;77;77;77;77;
2020-12-05 19:33:48;ht;99;19.40
2020-12-05 19:33:48;v;4.00
2020-12-05 20:03:47;1;119;119;119;119;119;119;119;119;119;119;
2020-12-05 20:03:47;2;119;119;119;119;119;119;119;119;119;119;
2020-12-05 20:03:47;3;101;101;101;101;101;101;101;101;101;101;
2020-12-05 20:03:47;4;125;125;125;125;125;125;125;125;125;125;
2020-12-05 20:03:47;5;80;80;80;80;80;80;80;80;80;80;
2020-12-05 20:03:47;ht;99;17.00
2020-12-05 20:03:47;v;4.00
2020-12-05 20:33:45;1;129;129;129;130;129;129;129;129;129;129;
2020-12-05 20:33:45;2;132;132;132;132;132;132;132;132;132;132;
2020-12-05 20:33:45;3;131;131;131;131;131;131;131;131;131;131;
2020-12-05 20:33:45;4;82;82;82;82;82;82;82;82;82;82;
2020-12-05 20:33:45;5;75;76;76;76;76;76;75;76;75;76;
2020-12-05 20:33:45;ht;99;15.50
2020-12-05 20:33:45;v;3.99
2020-12-05 21:03:45;1;126;126;126;126;126;126;126;126;126;126;
2020-12-05 21:03:45;2;126;126;126;126;126;126;126;126;127;127;
2020-12-05 21:03:45;3;97;97;97;97;97;97;97;97;97;97;
2020-12-05 21:03:45;4;124;124;124;124;124;124;124;124;124;124;
2020-12-05 21:03:45;5;76;76;77;77;76;76;76;77;76;76;
2020-12-05 21:03:45;ht;99;15.10
2020-12-05 21:03:45;v;3.99
2020-12-05 21:33:46;1;119;120;120;120;120;120;120;120;120;120;
2020-12-05 21:33:46;2;128;128;128;128;128;128;128;128;128;128;
2020-12-05 21:33:46;3;98;97;98;98;98;97;98;98;98;97;
2020-12-05 21:33:46;4;122;122;122;122;122;122;122;122;122;122;
2020-12-05 21:33:46;5;86;86;86;86;86;86;86;86;86;86;
2020-12-05 21:33:46;ht;99;14.70
2020-12-05 21:33:46;v;4.00
2020-12-05 22:03:45;1;124;124;124;124;124;124;124;124;124;124;
2020-12-05 22:03:45;2;106;106;106;106;106;106;106;106;106;106;
2020-12-05 22:03:45;3;96;96;96;96;96;96;96;97;96;96;
2020-12-05 22:03:45;4;123;123;123;123;123;123;123;123;123;123;
2020-12-05 22:03:45;5;96;96;96;96;96;96;96;96;96;96;
2020-12-05 22:03:45;ht;99;14.80
2020-12-05 22:03:45;v;3.99
2020-12-05 22:33:45;1;157;157;157;157;157;157;157;157;157;157;
2020-12-05 22:33:45;2;127;127;127;127;127;127;127;127;127;127;
2020-12-05 22:33:45;3;96;97;96;96;97;96;96;96;96;96;
2020-12-05 22:33:45;4;111;110;111;110;111;111;110;111;111;110;
2020-12-05 22:33:45;5;87;87;87;87;87;87;87;87;87;87;
2020-12-05 22:33:45;ht;99;14.00
2020-12-05 22:33:45;v;3.99
2020-12-05 23:03:44;1;120;120;120;120;119;119;119;120;119;120;
2020-12-05 23:03:44;2;123;123;123;123;123;123;123;123;123;123;
2020-12-05 23:03:44;3;98;98;98;98;98;98;99;99;100;99;
2020-12-05 23:03:44;4;133;133;133;133;133;133;133;133;133;133;
2020-12-05 23:03:44;5;85;85;85;85;85;86;85;85;85;85;
2020-12-05 23:03:44;ht;99;13.60
2020-12-05 23:03:44;v;3.99
2020-12-05 23:33:44;1;102;102;102;102;102;102;102;102;102;102;
2020-12-05 23:33:44;2;125;125;125;125;125;125;125;125;125;125;
2020-12-05 23:33:44;3;100;100;100;100;100;100;100;100;101;100;
2020-12-05 23:33:44;4;123;123;123;123;123;123;123;124;123;123;
2020-12-05 23:33:44;5;87;87;87;87;87;87;87;87;87;87;
2020-12-05 23:33:44;ht;99;13.50
2020-12-05 23:33:44;v;3.99
