2020-12-30 00:03:50;1;123;123;123;123;123;123;123;123;123;123;
2020-12-30 00:03:50;2;116;116;116;116;116;116;116;116;116;116;
2020-12-30 00:03:50;3;60;59;59;59;59;58;58;58;58;58;
2020-12-30 00:03:50;4;119;119;119;119;119;119;119;119;119;119;
2020-12-30 00:03:50;5;123;123;123;123;123;123;123;123;123;123;
2020-12-30 00:03:50;ht;99;23.30
2020-12-30 00:03:50;v;4.16
2020-12-30 00:33:52;1;148;148;148;154;150;148;148;148;148;148;
2020-12-30 00:33:52;2;113;113;113;113;113;113;113;113;113;113;
2020-12-30 00:33:52;3;57;57;56;56;55;55;54;54;54;53;
2020-12-30 00:33:52;4;115;116;116;115;116;116;116;116;116;116;
2020-12-30 00:33:52;5;122;122;122;122;122;122;122;122;122;122;
2020-12-30 00:33:52;ht;99;22.60
2020-12-30 00:33:52;v;4.16
2020-12-30 01:03:49;1;124;129;125;124;124;124;124;124;124;124;
2020-12-30 01:03:49;2;123;123;123;123;123;123;123;123;123;123;
2020-12-30 01:03:49;3;119;119;119;119;119;119;119;119;119;119;
2020-12-30 01:03:49;4;115;115;115;115;115;115;115;115;115;115;
2020-12-30 01:03:49;5;114;114;114;114;114;114;114;114;114;114;
2020-12-30 01:03:49;ht;99;23.30
2020-12-30 01:03:49;v;4.16
2020-12-30 01:33:51;1;119;118;118;119;127;119;119;119;119;119;
2020-12-30 01:33:51;2;120;120;120;120;120;120;120;120;120;120;
2020-12-30 01:33:51;3;122;122;122;123;123;124;123;123;123;123;
2020-12-30 01:33:51;4;120;120;120;120;120;120;120;120;120;120;
2020-12-30 01:33:51;5;98;97;97;97;97;97;97;97;98;98;
2020-12-30 01:33:51;ht;99;21.90
2020-12-30 01:33:51;v;4.16
2020-12-30 02:03:52;1;1;2;2;2;2;1;1;1;1;2;
2020-12-30 02:03:52;2;116;116;116;116;116;116;116;116;116;116;
2020-12-30 02:03:52;3;122;122;122;122;122;122;122;122;122;122;
2020-12-30 02:03:52;4;116;116;116;116;116;116;116;116;116;116;
2020-12-30 02:03:52;5;119;119;119;119;119;119;119;119;119;119;
2020-12-30 02:03:52;ht;99;21.60
2020-12-30 02:03:52;v;4.16
2020-12-30 02:33:48;1;130;129;129;130;129;129;129;129;129;129;
2020-12-30 02:33:48;2;126;126;126;126;125;125;126;126;126;126;
2020-12-30 02:33:48;3;125;124;124;125;124;124;124;124;124;124;
2020-12-30 02:33:48;4;116;116;116;115;115;116;115;116;116;115;
2020-12-30 02:33:48;5;91;91;92;91;92;91;92;92;92;92;
2020-12-30 02:33:48;ht;99;21.60
2020-12-30 02:33:48;v;4.16
2020-12-30 03:03:48;1;129;128;128;128;128;128;128;128;128;128;
2020-12-30 03:03:48;2;116;116;116;116;116;116;116;116;116;116;
2020-12-30 03:03:48;3;125;126;126;125;125;125;125;125;125;125;
2020-12-30 03:03:48;4;111;111;111;111;111;111;111;111;111;111;
2020-12-30 03:03:48;5;1;2;2;1;1;1;1;2;1;2;
2020-12-30 03:03:48;ht;99;21.20
2020-12-30 03:03:48;v;4.16
2020-12-30 03:33:49;1;127;127;128;127;127;127;127;128;136;128;
2020-12-30 03:33:49;2;121;121;121;121;121;121;121;121;121;121;
2020-12-30 03:33:49;3;118;118;118;117;117;117;117;117;117;117;
2020-12-30 03:33:49;4;115;115;115;115;115;115;115;115;115;115;
2020-12-30 03:33:49;5;124;123;123;124;123;124;124;124;123;124;
2020-12-30 03:33:49;ht;99;21.00
2020-12-30 03:33:49;v;4.15
2020-12-30 04:03:49;1;97;97;96;102;99;97;97;96;96;96;
2020-12-30 04:03:49;2;115;116;116;116;116;116;116;116;116;116;
2020-12-30 04:03:49;3;55;55;54;54;54;54;53;53;53;53;
2020-12-30 04:03:49;4;122;122;122;122;121;121;122;122;122;121;
2020-12-30 04:03:49;5;91;91;91;91;90;91;91;91;91;91;
2020-12-30 04:03:49;ht;99;21.00
2020-12-30 04:03:49;v;4.16
2020-12-30 04:33:49;1;124;124;124;124;124;124;124;124;124;124;
2020-12-30 04:33:49;2;125;125;125;125;125;125;125;125;125;125;
2020-12-30 04:33:49;3;67;66;66;65;65;65;64;64;64;63;
2020-12-30 04:33:49;4;121;121;120;120;120;121;121;121;121;120;
2020-12-30 04:33:49;5;91;91;91;91;91;91;91;91;91;90;
2020-12-30 04:33:49;ht;99;21.30
2020-12-30 04:33:49;v;4.15
2020-12-30 05:03:50;1;128;127;128;128;134;129;128;128;128;128;
2020-12-30 05:03:50;2;124;124;124;124;124;124;124;124;124;124;
2020-12-30 05:03:50;3;72;74;75;76;76;77;81;78;76;75;
2020-12-30 05:03:50;4;132;132;132;132;132;132;132;132;132;132;
2020-12-30 05:03:50;5;91;91;91;91;91;91;91;91;91;91;
2020-12-30 05:03:50;ht;99;21.50
2020-12-30 05:03:50;v;4.15
2020-12-30 05:33:50;1;127;127;127;127;127;127;127;128;127;128;
2020-12-30 05:33:50;2;118;118;118;118;118;118;118;118;118;118;
2020-12-30 05:33:50;3;105;106;106;105;106;105;106;106;106;106;
2020-12-30 05:33:50;4;118;117;118;117;118;117;118;117;117;117;
2020-12-30 05:33:50;5;104;104;104;104;104;104;104;104;104;104;
2020-12-30 05:33:50;ht;99;21.40
2020-12-30 05:33:50;v;4.16
2020-12-30 06:03:50;1;113;113;113;113;113;113;113;112;113;113;
2020-12-30 06:03:50;2;114;114;114;114;114;114;114;114;114;114;
2020-12-30 06:03:50;3;51;51;51;51;51;51;50;50;50;50;
2020-12-30 06:03:50;4;121;121;121;121;121;121;121;121;121;121;
2020-12-30 06:03:50;5;96;96;95;96;96;95;96;96;95;96;
2020-12-30 06:03:50;ht;99;20.80
2020-12-30 06:03:50;v;4.15
2020-12-30 06:33:50;1;121;120;121;120;121;120;120;121;121;120;
2020-12-30 06:33:50;2;104;104;104;103;104;104;104;103;103;104;
2020-12-30 06:33:50;3;56;56;55;55;55;55;54;54;54;54;
2020-12-30 06:33:50;4;116;116;116;116;116;116;116;116;116;116;
2020-12-30 06:33:50;5;110;110;109;109;109;109;109;109;110;110;
2020-12-30 06:33:50;ht;99;21.70
2020-12-30 06:33:50;v;4.15
2020-12-30 07:03:51;1;126;126;126;125;125;125;125;125;125;125;
2020-12-30 07:03:51;2;124;124;124;124;124;124;124;124;124;124;
2020-12-30 07:03:51;3;97;97;97;97;97;97;97;97;97;97;
2020-12-30 07:03:51;4;128;128;128;128;128;128;128;128;128;128;
2020-12-30 07:03:51;5;88;88;88;88;88;88;88;88;88;88;
2020-12-30 07:03:51;ht;99;25.60
2020-12-30 07:03:51;v;4.15
2020-12-30 07:33:50;1;113;111;111;111;111;111;111;111;111;111;
2020-12-30 07:33:50;2;125;125;125;125;125;125;125;125;125;125;
2020-12-30 07:33:50;3;101;101;101;101;101;100;100;100;100;99;
2020-12-30 07:33:50;4;125;125;125;125;125;125;125;125;125;125;
2020-12-30 07:33:50;5;91;91;91;91;91;91;91;91;91;91;
2020-12-30 07:33:50;ht;99;28.80
2020-12-30 07:33:50;v;4.16
2020-12-30 08:03:55;1;121;121;121;121;121;121;121;121;121;121;
2020-12-30 08:03:55;2;103;102;103;103;103;103;103;102;103;103;
2020-12-30 08:03:55;3;104;105;104;104;104;104;104;104;105;104;
2020-12-30 08:03:55;4;105;105;105;105;105;105;105;105;105;105;
2020-12-30 08:03:55;5;2;2;2;2;2;2;2;2;2;2;
2020-12-30 08:03:55;ht;99;29.00
2020-12-30 08:03:55;v;4.16
2020-12-30 08:33:52;1;122;122;127;125;123;122;122;122;122;122;
2020-12-30 08:33:52;2;118;118;118;118;117;117;118;118;118;118;
2020-12-30 08:33:52;3;118;118;118;118;118;119;118;119;119;119;
2020-12-30 08:33:52;4;116;116;116;116;116;116;116;116;116;116;
2020-12-30 08:33:52;5;109;110;110;110;110;110;110;109;110;110;
2020-12-30 08:33:52;ht;99;23.60
2020-12-30 08:33:52;v;4.16
2020-12-30 09:03:51;1;128;128;135;135;135;135;135;135;135;135;
2020-12-30 09:03:51;2;117;117;117;117;117;117;117;117;117;117;
2020-12-30 09:03:51;3;53;53;53;52;52;52;52;52;52;51;
2020-12-30 09:03:51;4;116;116;117;116;116;116;116;117;116;117;
2020-12-30 09:03:51;5;113;113;113;113;113;113;113;113;113;113;
2020-12-30 09:03:51;ht;99;20.70
2020-12-30 09:03:51;v;4.15
2020-12-30 09:33:47;1;128;128;127;134;129;128;127;127;127;127;
2020-12-30 09:33:47;2;121;121;121;121;121;121;121;121;121;121;
2020-12-30 09:33:47;3;45;45;45;45;45;45;44;46;45;45;
2020-12-30 09:33:47;4;113;113;113;113;113;113;113;114;113;114;
2020-12-30 09:33:47;5;109;109;109;109;109;109;109;109;109;109;
2020-12-30 09:33:47;ht;99;18.80
2020-12-30 09:33:47;v;4.15
2020-12-30 10:03:46;1;125;125;125;125;125;125;125;125;125;125;
2020-12-30 10:03:46;2;119;119;119;119;119;119;119;119;119;119;
2020-12-30 10:03:46;3;41;41;41;41;41;41;41;41;41;41;
2020-12-30 10:03:46;4;106;106;106;106;106;106;106;106;106;106;
2020-12-30 10:03:46;5;112;112;112;112;112;112;112;112;112;112;
2020-12-30 10:03:46;ht;99;18.20
2020-12-30 10:03:46;v;4.15
2020-12-30 10:33:49;1;127;127;127;127;127;127;127;127;127;127;
2020-12-30 10:33:49;2;119;119;119;119;119;119;119;119;119;119;
2020-12-30 10:33:49;3;125;125;125;124;125;125;125;125;125;125;
2020-12-30 10:33:49;4;136;136;136;136;136;136;136;136;136;136;
2020-12-30 10:33:49;5;2;1;2;1;1;2;2;1;2;1;
2020-12-30 10:33:49;ht;99;20.90
2020-12-30 10:33:49;v;4.15
2020-12-30 11:03:49;1;113;113;113;113;113;113;113;113;113;113;
2020-12-30 11:03:49;2;120;120;120;120;120;120;120;120;120;120;
2020-12-30 11:03:49;3;116;116;116;116;116;116;116;116;116;115;
2020-12-30 11:03:49;4;113;114;114;113;113;113;114;113;114;113;
2020-12-30 11:03:49;5;115;116;116;116;116;116;116;116;116;116;
2020-12-30 11:03:49;ht;99;19.00
2020-12-30 11:03:49;v;4.15
2020-12-30 11:33:47;1;110;110;110;110;110;110;110;110;110;110;
2020-12-30 11:33:47;2;118;118;118;118;118;118;118;118;118;118;
2020-12-30 11:33:47;3;43;43;43;43;43;43;43;43;43;43;
2020-12-30 11:33:47;4;114;114;114;114;114;114;114;114;114;114;
2020-12-30 11:33:47;5;2;2;2;2;2;2;2;2;2;2;
2020-12-30 11:33:47;ht;99;19.10
2020-12-30 11:33:47;v;4.15
2020-12-30 12:03:46;1;127;127;127;127;127;127;127;127;127;127;
2020-12-30 12:03:46;2;124;124;124;124;124;124;124;124;124;124;
2020-12-30 12:03:46;3;50;49;49;49;49;49;49;49;49;48;
2020-12-30 12:03:46;4;116;116;116;116;116;116;116;116;115;116;
2020-12-30 12:03:46;5;111;111;111;111;111;111;110;111;110;111;
2020-12-30 12:03:46;ht;99;18.90
2020-12-30 12:03:46;v;4.15
2020-12-30 12:33:50;1;123;123;123;123;123;123;123;123;123;123;
2020-12-30 12:33:50;2;112;112;112;112;112;112;112;112;112;112;
2020-12-30 12:33:50;3;55;55;55;55;55;55;55;55;54;54;
2020-12-30 12:33:50;4;111;111;111;111;111;111;111;111;111;111;
2020-12-30 12:33:50;5;107;107;107;107;107;107;107;107;107;107;
2020-12-30 12:33:50;ht;99;19.00
2020-12-30 12:33:50;v;4.15
2020-12-30 13:03:50;1;121;121;121;121;121;120;121;120;120;121;
2020-12-30 13:03:50;2;120;120;120;120;120;120;120;120;120;120;
2020-12-30 13:03:50;3;60;58;58;58;58;58;58;58;58;58;
2020-12-30 13:03:50;4;113;113;113;113;112;113;112;112;113;113;
2020-12-30 13:03:50;5;109;109;109;109;109;109;109;109;109;109;
2020-12-30 13:03:50;ht;99;20.90
2020-12-30 13:03:50;v;4.16
2020-12-30 13:33:51;1;122;122;122;122;122;122;122;122;122;122;
2020-12-30 13:33:51;2;121;121;121;121;121;121;121;121;121;121;
2020-12-30 13:33:51;3;128;128;128;128;128;128;128;128;128;128;
2020-12-30 13:33:51;4;118;118;118;118;118;118;118;118;118;118;
2020-12-30 13:33:51;5;100;100;100;100;101;101;101;101;101;101;
2020-12-30 13:33:51;ht;99;17.80
2020-12-30 13:33:51;v;4.15
2020-12-30 14:03:46;1;115;115;115;115;115;115;115;115;115;115;
2020-12-30 14:03:46;2;114;114;114;114;114;114;114;114;114;114;
2020-12-30 14:03:46;3;48;48;48;47;46;46;46;45;45;44;
2020-12-30 14:03:46;4;102;102;102;102;102;102;102;102;102;102;
2020-12-30 14:03:46;5;112;113;113;113;113;113;113;113;113;112;
2020-12-30 14:03:46;ht;99;17.10
2020-12-30 14:03:46;v;4.15
2020-12-30 14:33:47;1;119;119;119;119;119;119;119;119;119;119;
2020-12-30 14:33:47;2;117;117;117;117;117;117;117;117;117;117;
2020-12-30 14:33:47;3;65;68;70;73;75;77;78;81;83;84;
2020-12-30 14:33:47;4;117;117;117;117;117;117;117;117;117;117;
2020-12-30 14:33:47;5;125;125;125;125;125;125;125;125;125;125;
2020-12-30 14:33:47;ht;99;15.60
2020-12-30 14:33:47;v;4.15
2020-12-30 15:03:44;1;111;111;111;111;111;111;111;111;111;111;
2020-12-30 15:03:44;2;123;123;123;124;123;123;123;123;124;124;
2020-12-30 15:03:44;3;40;40;40;40;40;40;40;40;40;40;
2020-12-30 15:03:44;4;116;116;116;116;116;116;116;116;116;116;
2020-12-30 15:03:44;5;106;107;107;107;107;106;107;107;106;107;
2020-12-30 15:03:44;ht;99;16.80
2020-12-30 15:03:44;v;4.15
2020-12-30 15:33:46;1;116;116;116;116;116;116;116;116;116;116;
2020-12-30 15:33:46;2;115;115;115;115;115;115;115;115;115;115;
2020-12-30 15:33:46;3;118;118;118;118;118;118;118;118;118;118;
2020-12-30 15:33:46;4;121;121;121;121;121;121;121;121;121;121;
2020-12-30 15:33:46;5;112;111;111;111;112;112;112;111;112;111;
2020-12-30 15:33:46;ht;99;17.70
2020-12-30 15:33:46;v;4.15
2020-12-30 16:03:49;1;115;114;114;114;114;114;114;114;114;114;
2020-12-30 16:03:49;2;120;120;120;120;120;120;120;120;120;120;
2020-12-30 16:03:49;3;61;60;60;59;59;59;58;58;58;57;
2020-12-30 16:03:49;4;106;106;106;106;106;106;106;106;106;106;
2020-12-30 16:03:49;5;2;1;1;2;2;2;1;1;2;1;
2020-12-30 16:03:49;ht;99;21.20
2020-12-30 16:03:49;v;4.15
2020-12-30 16:33:50;1;114;114;114;114;114;114;114;114;114;114;
2020-12-30 16:33:50;2;121;121;121;121;121;121;121;121;121;121;
2020-12-30 16:33:50;3;67;67;68;70;71;72;72;72;71;70;
2020-12-30 16:33:50;4;105;104;105;105;104;105;104;105;104;105;
2020-12-30 16:33:50;5;112;112;112;112;112;112;112;112;112;112;
2020-12-30 16:33:50;ht;99;21.90
2020-12-30 16:33:50;v;4.15
2020-12-30 17:03:53;1;121;121;121;121;121;121;121;121;121;121;
2020-12-30 17:03:53;2;108;108;108;108;108;108;108;108;108;108;
2020-12-30 17:03:53;3;66;66;66;65;66;68;69;70;70;70;
2020-12-30 17:03:53;4;116;116;116;116;116;116;116;116;116;116;
2020-12-30 17:03:53;5;115;115;115;115;115;115;115;115;115;115;
2020-12-30 17:03:53;ht;99;22.30
2020-12-30 17:03:53;v;4.16
2020-12-30 17:33:52;1;123;123;123;123;123;123;123;123;123;123;
2020-12-30 17:33:52;2;120;120;120;120;120;120;120;120;120;119;
2020-12-30 17:33:52;3;70;70;70;70;72;73;74;74;74;74;
2020-12-30 17:33:52;4;118;118;118;118;118;118;119;118;118;118;
2020-12-30 17:33:52;5;114;114;114;114;114;114;114;114;114;114;
2020-12-30 17:33:52;ht;99;24.40
2020-12-30 17:33:52;v;4.15
2020-12-30 18:03:52;1;127;127;128;128;128;128;128;128;128;128;
2020-12-30 18:03:52;2;110;110;110;110;110;110;110;110;110;110;
2020-12-30 18:03:52;3;82;81;81;81;81;81;80;80;80;80;
2020-12-30 18:03:52;4;118;118;118;119;118;118;118;118;119;118;
2020-12-30 18:03:52;5;120;120;120;120;120;120;120;120;120;120;
2020-12-30 18:03:52;ht;99;25.10
2020-12-30 18:03:52;v;4.16
2020-12-30 18:33:52;1;119;119;119;118;119;119;119;119;119;119;
2020-12-30 18:33:52;2;116;117;116;117;116;116;117;116;116;116;
2020-12-30 18:33:52;3;85;84;84;84;83;83;79;79;79;79;
2020-12-30 18:33:52;4;119;119;119;120;119;119;119;120;119;120;
2020-12-30 18:33:52;5;117;117;117;117;117;117;117;117;117;117;
2020-12-30 18:33:52;ht;95;25.20
2020-12-30 18:33:52;v;4.16
2020-12-30 19:03:52;1;123;123;123;123;123;123;123;123;123;123;
2020-12-30 19:03:52;2;124;124;124;124;124;124;124;124;124;124;
2020-12-30 19:03:52;3;77;77;77;77;76;76;76;76;76;75;
2020-12-30 19:03:52;4;113;113;113;113;113;113;113;113;113;113;
2020-12-30 19:03:52;5;108;108;108;108;109;108;108;108;109;109;
2020-12-30 19:03:52;ht;88;24.40
2020-12-30 19:03:52;v;4.16
2020-12-30 19:33:52;1;123;123;123;123;123;123;123;123;123;122;
2020-12-30 19:33:52;2;124;124;124;124;124;124;124;124;124;124;
2020-12-30 19:33:52;3;66;65;65;65;65;65;66;67;69;69;
2020-12-30 19:33:52;4;115;115;115;115;115;115;115;115;115;115;
2020-12-30 19:33:52;5;119;119;119;119;119;119;119;119;119;118;
2020-12-30 19:33:52;ht;98;22.30
2020-12-30 19:33:52;v;4.16
2020-12-30 20:03:49;1;120;120;120;120;120;120;120;120;120;120;
2020-12-30 20:03:49;2;123;123;123;123;123;123;123;123;123;123;
2020-12-30 20:03:49;3;53;53;52;52;52;52;52;52;53;54;
2020-12-30 20:03:49;4;119;119;119;119;119;119;119;119;119;119;
2020-12-30 20:03:49;5;109;109;109;109;109;109;109;109;109;109;
2020-12-30 20:03:49;ht;99;20.00
2020-12-30 20:03:49;v;4.16
2020-12-30 20:33:49;1;131;131;131;131;130;131;131;130;130;130;
2020-12-30 20:33:49;2;122;122;122;122;122;122;122;122;122;122;
2020-12-30 20:33:49;3;41;41;41;41;41;41;40;40;40;40;
2020-12-30 20:33:49;4;118;118;118;118;119;118;119;118;118;119;
2020-12-30 20:33:49;5;110;110;110;110;110;110;110;110;110;110;
2020-12-30 20:33:49;ht;99;18.00
2020-12-30 20:33:49;v;4.15
2020-12-30 21:03:46;1;117;118;118;118;118;118;118;118;118;118;
2020-12-30 21:03:46;2;116;117;117;116;117;117;117;117;117;117;
2020-12-30 21:03:46;3;37;37;37;36;36;36;36;36;36;35;
2020-12-30 21:03:46;4;123;123;123;123;123;123;123;123;123;123;
2020-12-30 21:03:46;5;109;109;108;109;109;109;109;109;109;109;
2020-12-30 21:03:46;ht;99;17.10
2020-12-30 21:03:46;v;4.15
2020-12-30 21:33:48;1;127;127;127;127;127;127;127;127;127;127;
2020-12-30 21:33:48;2;126;126;126;126;126;126;126;126;126;126;
2020-12-30 21:33:48;3;98;98;99;98;99;98;98;98;98;98;
2020-12-30 21:33:48;4;130;130;130;130;130;130;130;130;130;130;
2020-12-30 21:33:48;5;127;127;127;127;127;127;127;126;127;127;
2020-12-30 21:33:48;ht;99;16.60
2020-12-30 21:33:48;v;4.15
2020-12-30 22:03:44;1;143;142;143;142;142;143;142;143;142;143;
2020-12-30 22:03:44;2;126;126;126;126;126;126;126;126;126;126;
2020-12-30 22:03:44;3;102;102;102;101;102;102;101;101;101;101;
2020-12-30 22:03:44;4;124;124;124;124;124;124;124;124;124;124;
2020-12-30 22:03:44;5;114;114;114;114;114;114;114;114;114;114;
2020-12-30 22:03:44;ht;99;15.70
2020-12-30 22:03:44;v;4.15
2020-12-30 22:33:45;1;127;127;127;127;127;127;127;127;127;127;
2020-12-30 22:33:45;2;119;119;119;119;119;119;119;119;119;119;
2020-12-30 22:33:45;3;36;36;36;36;36;36;36;36;36;36;
2020-12-30 22:33:45;4;126;126;127;126;127;126;126;126;126;126;
2020-12-30 22:33:45;5;122;122;122;122;122;122;122;122;122;122;
2020-12-30 22:33:45;ht;99;14.80
2020-12-30 22:33:45;v;4.15
2020-12-30 23:03:45;1;125;125;125;125;125;125;125;125;125;125;
2020-12-30 23:03:45;2;122;122;122;122;122;122;122;122;122;122;
2020-12-30 23:03:45;3;99;99;99;99;99;99;99;99;99;99;
2020-12-30 23:03:45;4;123;123;123;123;123;123;123;123;123;123;
2020-12-30 23:03:45;5;124;124;125;124;125;125;124;124;124;124;
2020-12-30 23:03:45;ht;99;14.70
2020-12-30 23:03:45;v;4.14
2020-12-30 23:33:45;1;125;125;125;125;125;125;125;125;125;125;
2020-12-30 23:33:45;2;125;125;125;125;125;125;125;125;125;125;
2020-12-30 23:33:45;3;122;121;121;121;121;121;121;121;121;121;
2020-12-30 23:33:45;4;125;125;125;125;124;125;125;124;125;124;
2020-12-30 23:33:45;5;123;123;123;122;123;123;123;123;123;123;
2020-12-30 23:33:45;ht;99;15.00
2020-12-30 23:33:45;v;4.15
