2020-12-21 00:03:46;1;128;128;128;128;128;128;128;128;128;128;
2020-12-21 00:03:46;2;126;126;126;126;126;126;126;126;126;126;
2020-12-21 00:03:46;3;133;133;133;133;133;133;133;133;133;132;
2020-12-21 00:03:46;4;125;125;125;125;125;125;125;125;125;125;
2020-12-21 00:03:46;5;127;127;127;127;127;127;127;127;127;127;
2020-12-21 00:03:46;ht;99;15.50
2020-12-21 00:03:46;v;4.14
2020-12-21 00:33:46;1;128;128;128;128;127;127;128;128;128;128;
2020-12-21 00:33:46;2;125;125;125;125;125;125;125;125;125;125;
2020-12-21 00:33:46;3;132;132;132;132;132;132;132;132;132;132;
2020-12-21 00:33:46;4;123;124;123;123;123;124;123;124;124;123;
2020-12-21 00:33:46;5;127;127;127;127;127;127;127;127;127;127;
2020-12-21 00:33:46;ht;99;14.80
2020-12-21 00:33:46;v;4.14
2020-12-21 01:03:46;1;127;127;127;127;127;127;127;127;127;127;
2020-12-21 01:03:46;2;125;124;124;124;124;124;124;124;124;125;
2020-12-21 01:03:46;3;132;132;132;132;132;132;132;132;132;132;
2020-12-21 01:03:46;4;125;124;125;125;125;125;125;124;125;125;
2020-12-21 01:03:46;5;126;126;126;126;126;126;126;126;126;126;
2020-12-21 01:03:46;ht;99;14.60
2020-12-21 01:03:46;v;4.14
2020-12-21 01:33:46;1;127;127;127;127;127;127;127;127;127;127;
2020-12-21 01:33:46;2;125;125;125;125;125;125;125;125;125;125;
2020-12-21 01:33:46;3;142;140;138;137;144;148;152;146;147;151;
2020-12-21 01:33:46;4;126;126;126;126;127;126;127;127;126;127;
2020-12-21 01:33:46;5;127;127;127;127;127;127;127;127;127;127;
2020-12-21 01:33:46;ht;99;14.40
2020-12-21 01:33:46;v;4.13
2020-12-21 02:03:45;1;129;128;128;128;128;128;128;128;128;128;
2020-12-21 02:03:45;2;126;126;126;126;126;126;126;126;126;126;
2020-12-21 02:03:45;3;136;136;135;134;134;134;133;133;133;133;
2020-12-21 02:03:45;4;127;127;127;127;127;127;127;127;126;127;
2020-12-21 02:03:45;5;128;128;127;128;128;128;128;128;128;128;
2020-12-21 02:03:45;ht;99;14.40
2020-12-21 02:03:45;v;4.14
2020-12-21 02:33:45;1;127;127;127;127;127;127;127;127;127;127;
2020-12-21 02:33:45;2;125;124;125;125;125;125;125;124;125;125;
2020-12-21 02:33:45;3;132;132;132;132;132;132;132;132;132;132;
2020-12-21 02:33:45;4;128;128;128;128;128;127;128;128;127;127;
2020-12-21 02:33:45;5;128;128;127;128;128;127;127;127;128;128;
2020-12-21 02:33:45;ht;99;14.90
2020-12-21 02:33:45;v;4.14
2020-12-21 03:03:45;1;128;128;128;128;128;128;128;128;128;128;
2020-12-21 03:03:45;2;124;124;124;125;125;124;124;125;125;125;
2020-12-21 03:03:45;3;162;153;148;145;143;141;139;138;137;136;
2020-12-21 03:03:45;4;128;128;128;128;128;127;128;127;127;128;
2020-12-21 03:03:45;5;128;128;127;128;127;128;128;128;128;128;
2020-12-21 03:03:45;ht;99;14.70
2020-12-21 03:03:45;v;4.13
2020-12-21 03:33:44;1;127;127;127;127;127;127;127;127;127;127;
2020-12-21 03:33:44;2;124;124;124;124;124;125;125;124;124;124;
2020-12-21 03:33:44;3;134;133;132;132;132;131;131;131;131;130;
2020-12-21 03:33:44;4;130;129;129;129;129;129;129;129;129;129;
2020-12-21 03:33:44;5;127;127;127;127;127;127;127;127;127;127;
2020-12-21 03:33:44;ht;99;14.30
2020-12-21 03:33:44;v;4.13
2020-12-21 04:03:44;1;127;128;128;128;127;128;128;128;128;128;
2020-12-21 04:03:44;2;124;124;124;124;124;124;124;124;124;124;
2020-12-21 04:03:44;3;129;129;129;129;128;128;128;128;129;130;
2020-12-21 04:03:44;4;131;131;131;130;130;131;130;131;130;130;
2020-12-21 04:03:44;5;128;128;128;128;128;128;128;128;128;128;
2020-12-21 04:03:44;ht;99;13.40
2020-12-21 04:03:44;v;4.13
2020-12-21 04:33:43;1;125;125;125;125;125;131;126;125;125;125;
2020-12-21 04:33:43;2;124;129;126;124;124;124;123;124;124;124;
2020-12-21 04:33:43;3;131;131;132;132;132;132;132;132;132;132;
2020-12-21 04:33:43;4;130;130;131;130;130;130;130;131;130;130;
2020-12-21 04:33:43;5;129;129;128;129;128;129;129;129;129;129;
2020-12-21 04:33:43;ht;99;13.40
2020-12-21 04:33:43;v;4.13
2020-12-21 05:03:46;1;127;127;127;127;134;129;128;128;127;128;
2020-12-21 05:03:46;2;125;125;125;125;125;125;125;125;125;125;
2020-12-21 05:03:46;3;128;128;128;128;128;128;128;128;129;129;
2020-12-21 05:03:46;4;130;131;131;130;130;130;130;131;131;131;
2020-12-21 05:03:46;5;128;128;128;129;129;129;129;129;129;129;
2020-12-21 05:03:46;ht;99;13.30
2020-12-21 05:03:46;v;4.13
2020-12-21 05:33:44;1;127;127;128;127;127;127;127;128;127;127;
2020-12-21 05:33:44;2;124;124;124;124;124;124;124;124;124;124;
2020-12-21 05:33:44;3;130;130;130;130;130;130;130;130;130;130;
2020-12-21 05:33:44;4;132;132;132;132;132;132;132;132;132;132;
2020-12-21 05:33:44;5;127;127;127;127;127;127;127;127;127;127;
2020-12-21 05:33:44;ht;99;13.00
2020-12-21 05:33:44;v;4.13
2020-12-21 06:03:43;1;127;127;127;127;127;127;127;127;127;127;
2020-12-21 06:03:43;2;124;124;124;124;124;124;124;124;124;124;
2020-12-21 06:03:43;3;132;132;132;132;132;132;132;132;132;132;
2020-12-21 06:03:43;4;132;132;132;132;132;132;132;132;132;132;
2020-12-21 06:03:43;5;128;128;128;128;128;128;128;128;128;128;
2020-12-21 06:03:43;ht;99;13.50
2020-12-21 06:03:43;v;4.13
2020-12-21 06:33:46;1;129;127;127;127;127;127;127;127;127;127;
2020-12-21 06:33:46;2;125;125;125;125;125;125;125;125;125;125;
2020-12-21 06:33:46;3;132;132;132;132;132;132;132;132;132;132;
2020-12-21 06:33:46;4;129;129;129;129;129;129;129;129;129;129;
2020-12-21 06:33:46;5;125;125;125;125;125;125;125;125;125;125;
2020-12-21 06:33:46;ht;99;15.30
2020-12-21 06:33:46;v;4.13
2020-12-21 07:03:46;1;126;126;126;126;125;126;126;126;126;126;
2020-12-21 07:03:46;2;123;123;123;123;123;123;123;123;123;123;
2020-12-21 07:03:46;3;137;137;137;137;136;136;136;136;136;136;
2020-12-21 07:03:46;4;133;133;133;133;133;133;133;133;133;133;
2020-12-21 07:03:46;5;126;126;126;126;126;126;126;127;127;127;
2020-12-21 07:03:46;ht;99;19.50
2020-12-21 07:03:46;v;4.13
2020-12-21 07:33:47;1;126;126;126;126;126;126;126;126;126;126;
2020-12-21 07:33:47;2;123;123;123;123;123;123;123;123;123;123;
2020-12-21 07:33:47;3;135;135;135;135;135;135;135;135;135;135;
2020-12-21 07:33:47;4;132;132;132;132;132;132;132;132;132;132;
2020-12-21 07:33:47;5;127;127;127;127;127;127;127;127;127;127;
2020-12-21 07:33:47;ht;99;18.90
2020-12-21 07:33:47;v;4.13
2020-12-21 08:03:46;1;126;126;126;126;126;126;126;126;126;126;
2020-12-21 08:03:46;2;124;124;124;124;124;124;124;124;124;124;
2020-12-21 08:03:46;3;135;134;135;135;135;135;135;135;135;135;
2020-12-21 08:03:46;4;130;130;130;130;130;130;130;130;130;130;
2020-12-21 08:03:46;5;127;127;127;127;127;127;127;127;127;127;
2020-12-21 08:03:46;ht;99;20.10
2020-12-21 08:03:46;v;4.14
2020-12-21 08:33:50;1;125;125;125;125;125;125;125;125;125;125;
2020-12-21 08:33:50;2;124;124;124;124;124;124;124;124;124;124;
2020-12-21 08:33:50;3;135;135;135;135;135;135;135;135;135;135;
2020-12-21 08:33:50;4;124;124;124;125;124;124;124;125;124;125;
2020-12-21 08:33:50;5;126;126;126;126;126;126;126;126;126;126;
2020-12-21 08:33:50;ht;99;21.40
2020-12-21 08:33:50;v;4.14
2020-12-21 09:03:51;1;126;126;126;126;126;126;126;126;126;126;
2020-12-21 09:03:51;2;123;123;123;123;123;123;123;123;123;123;
2020-12-21 09:03:51;3;135;135;135;135;135;135;135;135;135;135;
2020-12-21 09:03:51;4;128;128;128;128;128;128;128;128;128;128;
2020-12-21 09:03:51;5;126;126;126;126;126;126;126;126;125;126;
2020-12-21 09:03:51;ht;99;22.80
2020-12-21 09:03:51;v;4.14
2020-12-21 09:33:49;1;127;126;126;126;126;126;126;126;126;126;
2020-12-21 09:33:49;2;123;123;123;123;123;123;123;123;123;123;
2020-12-21 09:33:49;3;135;134;135;135;135;135;135;134;135;135;
2020-12-21 09:33:49;4;124;124;124;124;125;124;124;125;125;125;
2020-12-21 09:33:49;5;124;124;124;124;124;124;124;124;124;124;
2020-12-21 09:33:49;ht;97;24.20
2020-12-21 09:33:49;v;4.14
2020-12-21 10:03:53;1;125;125;125;125;125;125;125;125;125;125;
2020-12-21 10:03:53;2;122;122;122;122;122;122;122;122;122;122;
2020-12-21 10:03:53;3;135;135;135;135;135;135;135;135;135;135;
2020-12-21 10:03:53;4;126;126;126;126;126;126;126;126;126;126;
2020-12-21 10:03:53;5;124;123;123;123;124;124;123;124;123;123;
2020-12-21 10:03:53;ht;87;24.90
2020-12-21 10:03:53;v;4.14
2020-12-21 10:33:53;1;125;125;125;125;125;125;125;125;125;125;
2020-12-21 10:33:53;2;123;123;123;123;123;123;122;122;122;123;
2020-12-21 10:33:53;3;135;135;135;135;135;135;135;135;135;135;
2020-12-21 10:33:53;4;126;126;126;126;126;126;126;126;126;126;
2020-12-21 10:33:53;5;127;127;127;127;127;127;127;127;127;127;
2020-12-21 10:33:53;ht;74;26.10
2020-12-21 10:33:53;v;4.15
2020-12-21 11:03:54;1;125;125;125;125;125;125;125;125;125;125;
2020-12-21 11:03:54;2;123;123;123;123;123;123;123;123;123;123;
2020-12-21 11:03:54;3;137;137;136;136;137;137;137;137;137;137;
2020-12-21 11:03:54;4;126;125;126;126;126;126;126;125;125;126;
2020-12-21 11:03:54;5;125;125;125;125;125;125;125;125;125;125;
2020-12-21 11:03:54;ht;66;25.90
2020-12-21 11:03:54;v;4.15
2020-12-21 11:33:55;1;125;125;125;125;125;125;125;125;125;125;
2020-12-21 11:33:55;2;121;121;121;121;121;121;121;121;121;121;
2020-12-21 11:33:55;3;138;138;138;138;138;138;138;138;138;138;
2020-12-21 11:33:55;4;126;126;126;126;126;126;126;126;126;126;
2020-12-21 11:33:55;5;125;125;125;125;125;125;125;125;125;125;
2020-12-21 11:33:55;ht;63;26.90
2020-12-21 11:33:55;v;4.15
2020-12-21 12:03:53;1;125;125;125;125;125;125;125;125;125;125;
2020-12-21 12:03:53;2;122;122;122;122;122;122;122;122;122;122;
2020-12-21 12:03:53;3;137;137;137;137;137;137;137;137;137;137;
2020-12-21 12:03:53;4;126;126;126;126;126;126;126;126;126;126;
2020-12-21 12:03:53;5;124;125;124;124;124;124;124;124;124;124;
2020-12-21 12:03:53;ht;63;27.80
2020-12-21 12:03:53;v;4.15
2020-12-21 12:33:56;1;125;125;125;125;125;125;125;125;125;125;
2020-12-21 12:33:56;2;122;122;122;122;122;122;122;122;122;122;
2020-12-21 12:33:56;3;138;138;138;138;138;138;138;138;138;138;
2020-12-21 12:33:56;4;126;126;126;126;126;126;126;126;126;126;
2020-12-21 12:33:56;5;124;124;124;124;124;124;124;124;124;124;
2020-12-21 12:33:56;ht;63;27.70
2020-12-21 12:33:56;v;4.15
2020-12-21 13:03:55;1;125;125;125;125;125;125;125;125;125;125;
2020-12-21 13:03:55;2;122;122;122;122;122;122;122;122;122;122;
2020-12-21 13:03:55;3;132;133;132;133;132;133;132;133;133;133;
2020-12-21 13:03:55;4;124;124;124;124;124;124;124;124;124;124;
2020-12-21 13:03:55;5;123;122;122;123;122;123;122;123;122;122;
2020-12-21 13:03:55;ht;57;28.00
2020-12-21 13:03:55;v;4.15
2020-12-21 13:33:55;1;125;125;125;125;125;125;125;125;125;125;
2020-12-21 13:33:55;2;122;122;122;122;122;122;122;122;122;122;
2020-12-21 13:33:55;3;136;136;135;136;135;136;136;136;136;135;
2020-12-21 13:33:55;4;125;125;125;125;125;125;126;125;125;125;
2020-12-21 13:33:55;5;122;122;122;122;122;122;122;122;122;122;
2020-12-21 13:33:55;ht;53;28.10
2020-12-21 13:33:55;v;4.15
2020-12-21 14:04:00;1;125;125;125;125;125;125;125;125;125;125;
2020-12-21 14:04:00;2;118;118;118;118;118;118;118;118;118;118;
2020-12-21 14:04:00;3;133;133;133;132;133;133;133;133;133;133;
2020-12-21 14:04:00;4;127;127;127;127;127;127;127;127;127;127;
2020-12-21 14:04:00;5;123;123;122;123;122;123;122;122;123;123;
2020-12-21 14:04:00;ht;52;29.40
2020-12-21 14:04:00;v;4.15
2020-12-21 14:33:56;1;125;125;125;125;125;125;125;125;125;125;
2020-12-21 14:33:56;2;119;119;119;119;119;119;119;119;119;119;
2020-12-21 14:33:56;3;128;128;128;128;128;128;128;128;128;128;
2020-12-21 14:33:56;4;127;127;127;127;127;127;127;127;127;127;
2020-12-21 14:33:56;5;121;122;122;121;122;121;122;122;122;122;
2020-12-21 14:33:56;ht;51;29.30
2020-12-21 14:33:56;v;4.15
2020-12-21 15:03:58;1;125;125;125;125;125;125;125;125;125;125;
2020-12-21 15:03:58;2;120;120;120;120;120;120;120;120;120;120;
2020-12-21 15:03:58;3;146;143;141;140;138;137;136;135;134;134;
2020-12-21 15:03:58;4;126;126;126;126;126;126;126;126;126;126;
2020-12-21 15:03:58;5;122;122;122;122;122;121;122;122;122;122;
2020-12-21 15:03:58;ht;50;30.60
2020-12-21 15:03:58;v;4.15
2020-12-21 15:34:00;1;125;125;125;125;125;125;125;125;125;125;
2020-12-21 15:34:00;2;123;122;123;123;123;123;123;123;123;123;
2020-12-21 15:34:00;3;134;133;133;133;133;133;133;133;133;133;
2020-12-21 15:34:00;4;125;126;125;126;126;125;125;125;125;125;
2020-12-21 15:34:00;5;124;124;124;124;124;124;124;124;124;124;
2020-12-21 15:34:00;ht;52;30.10
2020-12-21 15:34:00;v;4.15
2020-12-21 16:03:57;1;126;126;126;126;126;126;126;126;126;126;
2020-12-21 16:03:57;2;122;122;122;122;122;122;122;122;122;122;
2020-12-21 16:03:57;3;133;133;133;133;134;136;138;139;138;137;
2020-12-21 16:03:57;4;127;127;127;127;127;127;127;127;127;127;
2020-12-21 16:03:57;5;123;123;123;123;123;123;123;123;123;123;
2020-12-21 16:03:57;ht;46;30.90
2020-12-21 16:03:57;v;4.15
2020-12-21 16:33:59;1;125;125;125;125;125;124;125;125;125;125;
2020-12-21 16:33:59;2;119;119;119;118;119;119;119;119;119;119;
2020-12-21 16:33:59;3;119;119;119;118;118;118;121;122;124;124;
2020-12-21 16:33:59;4;126;126;126;125;126;126;126;126;126;126;
2020-12-21 16:33:59;5;124;124;124;124;124;124;124;124;124;124;
2020-12-21 16:33:59;ht;54;29.80
2020-12-21 16:33:59;v;4.16
2020-12-21 17:03:57;1;125;125;125;125;125;125;125;125;125;125;
2020-12-21 17:03:57;2;123;123;123;123;123;123;123;123;123;123;
2020-12-21 17:03:57;3;120;119;119;119;119;119;119;118;118;118;
2020-12-21 17:03:57;4;125;125;125;125;125;125;125;125;125;125;
2020-12-21 17:03:57;5;124;124;124;124;124;124;124;124;124;124;
2020-12-21 17:03:57;ht;51;29.90
2020-12-21 17:03:57;v;4.16
2020-12-21 17:33:58;1;126;126;126;126;126;126;126;126;126;126;
2020-12-21 17:33:58;2;121;121;121;121;121;121;121;121;121;121;
2020-12-21 17:33:58;3;119;118;118;118;118;118;118;118;118;118;
2020-12-21 17:33:58;4;124;124;124;124;124;124;124;124;124;124;
2020-12-21 17:33:58;5;123;123;123;123;123;123;123;123;123;123;
2020-12-21 17:33:58;ht;59;29.60
2020-12-21 17:33:58;v;4.15
2020-12-21 18:03:59;1;126;126;126;126;125;126;126;126;126;126;
2020-12-21 18:03:59;2;121;121;121;121;121;121;121;121;121;121;
2020-12-21 18:03:59;3;134;134;134;134;134;134;134;134;134;134;
2020-12-21 18:03:59;4;124;124;124;124;124;124;124;124;124;124;
2020-12-21 18:03:59;5;123;123;123;123;123;123;123;123;123;123;
2020-12-21 18:03:59;ht;52;28.90
2020-12-21 18:03:59;v;4.16
2020-12-21 18:33:59;1;125;125;125;125;125;125;125;125;125;125;
2020-12-21 18:33:59;2;120;120;120;120;120;120;120;120;120;120;
2020-12-21 18:33:59;3;117;117;117;118;121;123;124;123;122;122;
2020-12-21 18:33:59;4;123;123;123;123;123;123;123;123;123;123;
2020-12-21 18:33:59;5;125;125;125;125;125;125;125;125;125;125;
2020-12-21 18:33:59;ht;56;28.60
2020-12-21 18:33:59;v;4.16
2020-12-21 19:03:58;1;126;126;126;126;126;126;126;126;126;126;
2020-12-21 19:03:58;2;119;119;120;120;120;119;120;120;119;120;
2020-12-21 19:03:58;3;109;109;109;109;108;108;109;108;108;108;
2020-12-21 19:03:58;4;123;122;122;122;123;123;123;123;123;122;
2020-12-21 19:03:58;5;121;121;121;121;121;121;121;121;121;121;
2020-12-21 19:03:58;ht;64;27.10
2020-12-21 19:03:58;v;4.16
2020-12-21 19:33:56;1;126;126;126;126;126;126;126;126;126;126;
2020-12-21 19:33:56;2;123;122;123;123;123;123;123;123;123;123;
2020-12-21 19:33:56;3;124;124;123;123;122;121;121;120;120;120;
2020-12-21 19:33:56;4;123;123;123;123;123;123;123;123;123;123;
2020-12-21 19:33:56;5;125;125;125;125;125;125;125;125;125;125;
2020-12-21 19:33:56;ht;83;25.50
2020-12-21 19:33:56;v;4.15
2020-12-21 20:03:52;1;127;127;127;127;127;127;127;127;127;127;
2020-12-21 20:03:52;2;123;123;123;123;123;123;123;123;123;123;
2020-12-21 20:03:52;3;130;130;130;130;130;130;130;130;130;130;
2020-12-21 20:03:52;4;134;133;133;133;134;133;133;133;134;134;
2020-12-21 20:03:52;5;123;123;124;123;123;123;123;123;123;123;
2020-12-21 20:03:52;ht;90;24.00
2020-12-21 20:03:52;v;4.15
2020-12-21 20:33:50;1;126;127;127;127;127;127;127;127;127;127;
2020-12-21 20:33:50;2;124;124;124;124;124;124;124;123;124;124;
2020-12-21 20:33:50;3;93;94;95;96;96;95;94;93;92;91;
2020-12-21 20:33:50;4;127;127;127;127;127;127;127;127;127;127;
2020-12-21 20:33:50;5;121;121;121;121;121;121;121;121;121;121;
2020-12-21 20:33:50;ht;91;22.80
2020-12-21 20:33:50;v;4.15
2020-12-21 21:03:51;1;127;127;127;127;127;126;127;127;127;127;
2020-12-21 21:03:51;2;124;124;123;124;124;123;124;124;124;124;
2020-12-21 21:03:51;3;128;128;128;127;127;127;127;127;127;127;
2020-12-21 21:03:51;4;127;127;127;127;127;127;127;127;127;127;
2020-12-21 21:03:51;5;123;123;123;123;123;123;123;123;123;123;
2020-12-21 21:03:51;ht;95;21.10
2020-12-21 21:03:51;v;4.15
2020-12-21 21:33:51;1;128;128;128;128;128;128;128;128;128;128;
2020-12-21 21:33:51;2;124;124;124;124;124;124;124;124;124;124;
2020-12-21 21:33:51;3;148;152;153;152;155;154;151;158;155;149;
2020-12-21 21:33:51;4;128;128;128;128;128;128;128;128;128;128;
2020-12-21 21:33:51;5;124;124;124;124;124;124;124;124;124;124;
2020-12-21 21:33:51;ht;99;20.40
2020-12-21 21:33:51;v;4.15
2020-12-21 22:03:50;1;128;127;127;127;127;127;127;127;127;127;
2020-12-21 22:03:50;2;124;124;124;124;124;124;124;124;124;124;
2020-12-21 22:03:50;3;69;69;68;68;68;68;68;68;67;67;
2020-12-21 22:03:50;4;127;127;127;127;127;127;127;127;127;127;
2020-12-21 22:03:50;5;125;125;125;125;125;125;125;125;125;125;
2020-12-21 22:03:50;ht;99;19.00
2020-12-21 22:03:50;v;4.15
2020-12-21 22:33:48;1;127;127;127;127;127;127;127;127;127;127;
2020-12-21 22:33:48;2;125;125;125;125;125;125;125;125;125;125;
2020-12-21 22:33:48;3;126;126;126;126;126;126;126;126;126;126;
2020-12-21 22:33:48;4;128;128;128;128;128;128;128;128;128;128;
2020-12-21 22:33:48;5;124;124;124;124;124;124;124;124;124;124;
2020-12-21 22:33:48;ht;99;19.30
2020-12-21 22:33:48;v;4.15
2020-12-21 23:03:46;1;127;127;127;127;127;127;127;127;127;127;
2020-12-21 23:03:46;2;123;123;123;123;123;123;123;123;123;123;
2020-12-21 23:03:46;3;130;135;141;138;142;137;138;148;146;147;
2020-12-21 23:03:46;4;123;123;123;123;123;123;123;123;123;123;
2020-12-21 23:03:46;5;126;126;126;126;126;126;126;126;126;126;
2020-12-21 23:03:46;ht;99;19.00
2020-12-21 23:03:46;v;4.15
2020-12-21 23:33:48;1;127;127;127;127;127;127;127;127;127;127;
2020-12-21 23:33:48;2;125;125;125;125;125;125;125;125;125;125;
2020-12-21 23:33:48;3;133;142;141;140;136;141;145;147;148;152;
2020-12-21 23:33:48;4;125;125;125;125;125;125;125;125;125;125;
2020-12-21 23:33:48;5;127;127;127;127;127;127;127;127;127;127;
2020-12-21 23:33:48;ht;99;18.00
2020-12-21 23:33:48;v;4.15
