2020-12-27 00:03:49;1;127;127;127;127;127;127;127;127;127;127;
2020-12-27 00:03:49;2;125;125;125;125;125;125;125;125;125;125;
2020-12-27 00:03:49;3;134;134;134;134;134;134;134;134;134;134;
2020-12-27 00:03:49;4;122;122;122;122;122;122;122;122;122;122;
2020-12-27 00:03:49;5;105;105;105;106;105;105;105;106;105;106;
2020-12-27 00:03:49;ht;99;22.90
2020-12-27 00:03:49;v;4.16
2020-12-27 00:33:50;1;125;125;125;125;125;125;125;125;125;125;
2020-12-27 00:33:50;2;126;126;125;125;125;125;125;125;125;125;
2020-12-27 00:33:50;3;134;134;134;134;134;134;134;134;134;134;
2020-12-27 00:33:50;4;122;122;122;122;122;122;122;122;122;122;
2020-12-27 00:33:50;5;127;127;127;127;127;127;127;127;127;127;
2020-12-27 00:33:50;ht;99;22.60
2020-12-27 00:33:50;v;4.16
2020-12-27 01:03:51;1;126;126;126;126;126;126;126;126;125;126;
2020-12-27 01:03:51;2;125;125;125;125;125;125;125;125;125;125;
2020-12-27 01:03:51;3;132;132;132;132;133;132;132;133;132;133;
2020-12-27 01:03:51;4;121;121;121;121;121;121;121;121;121;121;
2020-12-27 01:03:51;5;106;106;106;106;106;106;106;106;106;106;
2020-12-27 01:03:51;ht;99;22.20
2020-12-27 01:03:51;v;4.16
2020-12-27 01:33:52;1;125;125;125;125;125;125;125;125;125;125;
2020-12-27 01:33:52;2;122;122;122;122;122;122;122;122;122;122;
2020-12-27 01:33:52;3;133;134;134;133;133;134;134;134;134;134;
2020-12-27 01:33:52;4;119;119;119;119;119;119;119;119;119;119;
2020-12-27 01:33:52;5;1;1;1;1;1;1;2;1;2;1;
2020-12-27 01:33:52;ht;99;21.20
2020-12-27 01:33:52;v;4.16
2020-12-27 02:03:48;1;135;135;134;135;135;135;135;135;135;135;
2020-12-27 02:03:48;2;126;126;126;126;126;126;126;126;126;126;
2020-12-27 02:03:48;3;133;133;133;133;133;133;133;133;133;133;
2020-12-27 02:03:48;4;118;118;118;118;118;118;118;118;118;118;
2020-12-27 02:03:48;5;110;110;110;110;110;110;110;110;110;110;
2020-12-27 02:03:48;ht;99;20.90
2020-12-27 02:03:48;v;4.16
2020-12-27 02:33:47;1;127;127;127;127;127;127;127;127;127;127;
2020-12-27 02:33:47;2;120;121;121;121;121;121;121;120;120;121;
2020-12-27 02:33:47;3;135;135;135;135;135;135;135;135;135;135;
2020-12-27 02:33:47;4;114;114;114;114;114;114;114;114;114;114;
2020-12-27 02:33:47;5;103;103;103;103;103;103;103;103;103;103;
2020-12-27 02:33:47;ht;99;20.00
2020-12-27 02:33:47;v;4.16
2020-12-27 03:03:51;1;123;123;123;123;123;123;123;123;123;123;
2020-12-27 03:03:51;2;122;122;122;122;122;122;122;122;123;122;
2020-12-27 03:03:51;3;133;133;133;133;133;133;133;133;133;133;
2020-12-27 03:03:51;4;114;114;114;114;114;114;114;114;113;114;
2020-12-27 03:03:51;5;102;103;103;103;102;103;103;103;103;103;
2020-12-27 03:03:51;ht;99;20.10
2020-12-27 03:03:51;v;4.16
2020-12-27 03:33:51;1;124;124;124;124;124;124;124;124;124;124;
2020-12-27 03:33:51;2;120;120;120;120;120;120;120;120;120;120;
2020-12-27 03:33:51;3;129;129;129;129;129;129;129;129;129;129;
2020-12-27 03:33:51;4;120;120;120;120;120;119;120;120;120;120;
2020-12-27 03:33:51;5;115;116;116;116;116;115;115;115;116;116;
2020-12-27 03:33:51;ht;99;19.90
2020-12-27 03:33:51;v;4.15
2020-12-27 04:03:50;1;121;121;121;121;121;121;121;121;121;121;
2020-12-27 04:03:50;2;126;126;126;126;126;126;126;126;126;126;
2020-12-27 04:03:50;3;130;130;130;130;130;130;130;130;130;130;
2020-12-27 04:03:50;4;133;133;134;134;134;134;134;134;133;133;
2020-12-27 04:03:50;5;104;104;104;104;104;104;104;104;104;104;
2020-12-27 04:03:50;ht;99;19.80
2020-12-27 04:03:50;v;4.16
2020-12-27 04:33:49;1;133;133;133;133;133;133;133;133;133;133;
2020-12-27 04:33:49;2;126;126;126;126;126;126;126;126;126;126;
2020-12-27 04:33:49;3;131;131;131;131;131;131;131;131;132;132;
2020-12-27 04:33:49;4;139;139;139;139;138;139;138;139;138;139;
2020-12-27 04:33:49;5;105;105;105;105;105;105;105;105;105;105;
2020-12-27 04:33:49;ht;99;19.50
2020-12-27 04:33:49;v;4.16
2020-12-27 05:03:48;1;127;127;127;127;127;127;127;127;127;127;
2020-12-27 05:03:48;2;127;127;127;127;127;127;127;127;127;127;
2020-12-27 05:03:48;3;128;128;128;128;128;128;128;128;128;129;
2020-12-27 05:03:48;4;138;138;138;138;138;138;138;138;138;138;
2020-12-27 05:03:48;5;115;115;115;115;115;115;115;115;114;115;
2020-12-27 05:03:48;ht;99;18.80
2020-12-27 05:03:48;v;4.15
2020-12-27 05:33:46;1;123;123;123;123;123;123;123;123;123;123;
2020-12-27 05:33:46;2;123;124;124;124;124;124;124;124;124;124;
2020-12-27 05:33:46;3;130;130;130;130;130;130;130;130;130;130;
2020-12-27 05:33:46;4;139;139;139;139;139;139;139;139;139;139;
2020-12-27 05:33:46;5;112;112;112;112;112;113;112;112;113;112;
2020-12-27 05:33:46;ht;99;18.60
2020-12-27 05:33:46;v;4.15
2020-12-27 06:03:49;1;121;121;121;121;121;121;121;121;121;121;
2020-12-27 06:03:49;2;122;122;122;122;122;122;122;122;122;122;
2020-12-27 06:03:49;3;127;127;127;127;127;127;127;127;127;127;
2020-12-27 06:03:49;4;115;115;114;114;114;115;115;115;115;115;
2020-12-27 06:03:49;5;109;108;109;109;108;108;109;108;109;108;
2020-12-27 06:03:49;ht;99;18.10
2020-12-27 06:03:49;v;4.15
2020-12-27 06:33:47;1;120;120;120;120;120;120;120;120;120;120;
2020-12-27 06:33:47;2;109;109;109;109;109;109;110;109;109;109;
2020-12-27 06:33:47;3;116;116;116;116;116;116;116;116;116;116;
2020-12-27 06:33:47;4;3;3;3;3;3;3;3;3;3;3;
2020-12-27 06:33:47;5;113;113;113;113;113;113;113;113;113;113;
2020-12-27 06:33:47;ht;99;20.30
2020-12-27 06:33:47;v;4.15
2020-12-27 07:03:51;1;122;122;122;122;122;122;122;122;122;122;
2020-12-27 07:03:51;2;117;117;117;117;117;117;117;117;117;117;
2020-12-27 07:03:51;3;123;123;123;123;123;123;123;123;123;123;
2020-12-27 07:03:51;4;111;111;111;111;111;111;111;111;111;111;
2020-12-27 07:03:51;5;102;103;103;102;103;103;103;103;102;103;
2020-12-27 07:03:51;ht;99;23.30
2020-12-27 07:03:51;v;4.15
2020-12-27 07:33:52;1;113;113;113;113;113;113;113;113;113;113;
2020-12-27 07:33:52;2;110;110;110;110;110;110;110;110;110;110;
2020-12-27 07:33:52;3;132;132;132;132;132;132;132;132;132;132;
2020-12-27 07:33:52;4;110;110;110;110;110;110;110;110;110;110;
2020-12-27 07:33:52;5;106;106;106;106;106;106;106;106;106;106;
2020-12-27 07:33:52;ht;99;24.50
2020-12-27 07:33:52;v;4.15
2020-12-27 08:03:50;1;125;125;126;125;125;126;125;125;125;125;
2020-12-27 08:03:50;2;125;125;125;125;125;125;125;125;125;125;
2020-12-27 08:03:50;3;136;136;136;136;136;136;136;136;136;136;
2020-12-27 08:03:50;4;114;114;114;114;114;114;114;114;114;114;
2020-12-27 08:03:50;5;113;113;113;113;113;113;113;113;113;113;
2020-12-27 08:03:50;ht;99;26.50
2020-12-27 08:03:50;v;4.16
2020-12-27 08:33:55;1;121;121;121;121;121;121;121;121;121;121;
2020-12-27 08:33:55;2;123;123;123;123;123;123;124;123;123;124;
2020-12-27 08:33:55;3;108;107;108;108;108;107;107;107;107;107;
2020-12-27 08:33:55;4;116;116;116;117;116;117;117;117;117;117;
2020-12-27 08:33:55;5;109;109;109;109;109;109;109;109;109;109;
2020-12-27 08:33:55;ht;99;27.20
2020-12-27 08:33:55;v;4.16
2020-12-27 09:03:56;1;114;114;114;114;114;114;114;114;114;114;
2020-12-27 09:03:56;2;123;123;123;123;123;123;123;123;123;123;
2020-12-27 09:03:56;3;135;135;135;135;136;135;135;135;135;135;
2020-12-27 09:03:56;4;111;111;111;111;111;111;111;111;111;111;
2020-12-27 09:03:56;5;113;114;113;114;114;114;114;114;114;114;
2020-12-27 09:03:56;ht;99;27.00
2020-12-27 09:03:56;v;4.16
2020-12-27 09:33:53;1;107;108;108;107;107;108;108;108;108;108;
2020-12-27 09:33:53;2;120;120;120;120;120;120;120;120;120;120;
2020-12-27 09:33:53;3;128;128;128;128;128;128;128;128;129;128;
2020-12-27 09:33:53;4;111;111;111;111;111;111;111;111;111;111;
2020-12-27 09:33:53;5;113;113;113;113;113;113;113;113;113;113;
2020-12-27 09:33:53;ht;99;27.80
2020-12-27 09:33:53;v;4.16
2020-12-27 10:03:55;1;112;112;112;112;112;112;111;112;112;111;
2020-12-27 10:03:55;2;122;122;122;122;122;122;122;122;122;122;
2020-12-27 10:03:55;3;109;109;109;109;109;109;109;109;109;109;
2020-12-27 10:03:55;4;117;117;118;118;117;117;117;117;117;117;
2020-12-27 10:03:55;5;103;103;103;103;103;103;103;103;103;103;
2020-12-27 10:03:55;ht;99;29.20
2020-12-27 10:03:55;v;4.16
2020-12-27 10:33:55;1;120;120;120;120;120;120;120;120;120;120;
2020-12-27 10:33:55;2;119;119;119;119;119;119;119;119;119;119;
2020-12-27 10:33:55;3;134;135;135;135;135;135;135;135;135;135;
2020-12-27 10:33:55;4;114;114;114;114;114;114;114;114;114;114;
2020-12-27 10:33:55;5;101;101;101;101;101;101;101;101;101;101;
2020-12-27 10:33:55;ht;99;30.50
2020-12-27 10:33:55;v;4.16
2020-12-27 11:03:59;1;120;120;120;120;120;120;120;120;120;120;
2020-12-27 11:03:59;2;117;117;117;117;117;117;117;117;117;117;
2020-12-27 11:03:59;3;119;119;119;119;119;119;119;119;119;119;
2020-12-27 11:03:59;4;116;116;116;116;116;116;116;116;116;116;
2020-12-27 11:03:59;5;119;119;119;119;119;119;119;119;119;119;
2020-12-27 11:03:59;ht;99;30.40
2020-12-27 11:03:59;v;4.16
2020-12-27 11:33:55;1;128;128;127;128;127;127;127;128;127;127;
2020-12-27 11:33:55;2;117;118;117;118;118;117;117;117;117;118;
2020-12-27 11:33:55;3;122;122;121;122;121;122;122;122;121;122;
2020-12-27 11:33:55;4;116;116;116;116;116;116;116;116;116;116;
2020-12-27 11:33:55;5;2;2;2;1;1;2;1;2;1;2;
2020-12-27 11:33:55;ht;99;31.30
2020-12-27 11:33:55;v;4.16
2020-12-27 12:03:58;1;113;113;113;113;113;113;113;113;113;113;
2020-12-27 12:03:58;2;119;118;118;119;119;118;119;119;119;118;
2020-12-27 12:03:58;3;143;143;143;143;143;143;143;143;143;143;
2020-12-27 12:03:58;4;111;111;111;111;111;111;111;111;111;111;
2020-12-27 12:03:58;5;100;100;100;100;100;100;100;100;100;100;
2020-12-27 12:03:58;ht;99;31.60
2020-12-27 12:03:58;v;4.16
2020-12-27 12:34:00;1;109;109;109;109;109;109;109;109;109;109;
2020-12-27 12:34:00;2;116;116;116;116;116;116;116;116;116;116;
2020-12-27 12:34:00;3;129;130;130;130;130;130;130;130;130;130;
2020-12-27 12:34:00;4;126;126;126;126;126;126;126;126;126;126;
2020-12-27 12:34:00;5;104;104;104;104;104;104;104;104;104;104;
2020-12-27 12:34:00;ht;99;32.20
2020-12-27 12:34:00;v;4.16
2020-12-27 13:03:59;1;117;117;117;116;117;117;117;117;117;117;
2020-12-27 13:03:59;2;119;119;119;119;119;119;119;119;119;119;
2020-12-27 13:03:59;3;138;137;137;138;137;138;138;138;138;138;
2020-12-27 13:03:59;4;108;108;108;108;108;108;108;108;108;108;
2020-12-27 13:03:59;5;2;2;2;2;1;2;2;1;1;1;
2020-12-27 13:03:59;ht;99;31.80
2020-12-27 13:03:59;v;4.16
2020-12-27 13:34:03;1;110;110;110;110;110;110;110;110;110;110;
2020-12-27 13:34:03;2;117;117;117;117;117;117;117;117;117;117;
2020-12-27 13:34:03;3;130;130;130;130;130;130;130;130;130;130;
2020-12-27 13:34:03;4;116;116;116;116;116;116;116;116;116;116;
2020-12-27 13:34:03;5;101;101;101;101;101;101;101;101;101;101;
2020-12-27 13:34:03;ht;99;33.60
2020-12-27 13:34:03;v;4.16
2020-12-27 14:04:02;1;125;125;125;125;125;125;125;125;125;125;
2020-12-27 14:04:02;2;123;123;123;123;123;123;123;123;123;123;
2020-12-27 14:04:02;3;126;126;126;126;127;126;126;126;127;126;
2020-12-27 14:04:02;4;120;120;120;120;120;120;120;120;120;120;
2020-12-27 14:04:02;5;107;107;107;107;107;107;107;107;107;107;
2020-12-27 14:04:02;ht;99;33.30
2020-12-27 14:04:02;v;4.16
2020-12-27 14:34:02;1;128;127;128;127;128;128;128;128;128;128;
2020-12-27 14:34:02;2;119;119;119;119;119;119;119;119;118;119;
2020-12-27 14:34:02;3;116;116;116;116;116;116;115;116;116;116;
2020-12-27 14:34:02;4;115;115;116;116;116;116;115;115;116;115;
2020-12-27 14:34:02;5;103;102;102;102;102;103;103;103;103;103;
2020-12-27 14:34:02;ht;99;33.90
2020-12-27 14:34:02;v;4.17
2020-12-27 15:04:02;1;119;119;119;119;119;119;118;119;119;119;
2020-12-27 15:04:02;2;107;107;107;107;107;107;107;107;107;107;
2020-12-27 15:04:02;3;129;129;129;129;129;129;129;129;128;128;
2020-12-27 15:04:02;4;117;117;117;117;117;117;117;117;117;117;
2020-12-27 15:04:02;5;106;106;106;106;106;106;106;106;106;106;
2020-12-27 15:04:02;ht;98;33.30
2020-12-27 15:04:02;v;4.16
2020-12-27 15:34:02;1;127;127;127;127;127;127;127;127;128;127;
2020-12-27 15:34:02;2;125;125;125;125;125;125;125;125;125;125;
2020-12-27 15:34:02;3;132;132;134;136;137;138;137;136;135;134;
2020-12-27 15:34:02;4;115;115;115;115;115;115;115;115;115;115;
2020-12-27 15:34:02;5;105;105;105;105;105;105;105;105;105;105;
2020-12-27 15:34:02;ht;95;33.30
2020-12-27 15:34:02;v;4.17
2020-12-27 16:04:02;1;131;131;131;131;131;131;132;131;131;131;
2020-12-27 16:04:02;2;113;113;113;113;113;113;113;113;113;113;
2020-12-27 16:04:02;3;113;115;115;115;114;113;112;108;108;108;
2020-12-27 16:04:02;4;115;115;115;115;115;115;115;115;115;115;
2020-12-27 16:04:02;5;99;99;99;99;99;99;99;98;99;99;
2020-12-27 16:04:02;ht;93;33.30
2020-12-27 16:04:02;v;4.17
2020-12-27 16:34:01;1;117;117;117;117;117;117;117;117;117;117;
2020-12-27 16:34:01;2;109;109;109;109;109;109;109;109;109;109;
2020-12-27 16:34:01;3;98;98;98;98;98;98;97;97;98;100;
2020-12-27 16:34:01;4;116;116;116;116;116;116;116;116;116;116;
2020-12-27 16:34:01;5;107;107;107;107;107;107;108;107;108;107;
2020-12-27 16:34:01;ht;89;33.50
2020-12-27 16:34:01;v;4.17
2020-12-27 17:04:01;1;125;125;125;125;125;125;125;125;125;125;
2020-12-27 17:04:01;2;121;121;121;121;121;121;121;121;121;121;
2020-12-27 17:04:01;3;104;103;102;102;101;101;100;100;99;99;
2020-12-27 17:04:01;4;115;115;115;115;115;115;115;115;115;115;
2020-12-27 17:04:01;5;99;99;100;99;100;99;99;99;100;99;
2020-12-27 17:04:01;ht;91;33.10
2020-12-27 17:04:01;v;4.17
2020-12-27 17:34:00;1;123;123;123;123;123;123;123;123;123;123;
2020-12-27 17:34:00;2;114;114;114;114;114;114;114;114;114;114;
2020-12-27 17:34:00;3;101;100;100;100;100;100;99;99;99;99;
2020-12-27 17:34:00;4;109;109;109;109;109;109;109;109;109;109;
2020-12-27 17:34:00;5;102;102;102;102;102;102;102;102;102;102;
2020-12-27 17:34:00;ht;87;33.20
2020-12-27 17:34:00;v;4.17
2020-12-27 18:03:59;1;110;110;110;110;110;109;109;109;110;110;
2020-12-27 18:03:59;2;122;121;122;122;122;121;122;122;121;121;
2020-12-27 18:03:59;3;95;96;96;96;96;96;95;95;95;95;
2020-12-27 18:03:59;4;119;119;119;119;119;119;119;119;119;119;
2020-12-27 18:03:59;5;2;2;2;2;2;2;2;2;2;2;
2020-12-27 18:03:59;ht;85;32.20
2020-12-27 18:03:59;v;4.17
2020-12-27 18:33:57;1;124;124;124;124;124;124;124;124;124;124;
2020-12-27 18:33:57;2;108;108;108;108;108;108;108;108;108;107;
2020-12-27 18:33:57;3;113;112;112;111;111;110;110;109;109;108;
2020-12-27 18:33:57;4;122;122;122;122;122;122;122;122;122;122;
2020-12-27 18:33:57;5;115;115;115;114;115;115;115;114;115;115;
2020-12-27 18:33:57;ht;90;32.30
2020-12-27 18:33:57;v;4.17
2020-12-27 19:03:59;1;119;119;119;119;119;119;119;119;119;119;
2020-12-27 19:03:59;2;112;112;112;112;112;112;112;112;112;112;
2020-12-27 19:03:59;3;107;107;106;106;106;106;105;105;105;104;
2020-12-27 19:03:59;4;119;119;119;119;119;119;119;119;119;119;
2020-12-27 19:03:59;5;119;119;119;119;119;119;119;119;119;119;
2020-12-27 19:03:59;ht;93;30.70
2020-12-27 19:03:59;v;4.17
2020-12-27 19:33:55;1;123;123;123;124;123;123;124;123;123;123;
2020-12-27 19:33:55;2;119;118;118;119;118;119;119;119;119;118;
2020-12-27 19:33:55;3;84;84;84;84;83;83;83;82;82;82;
2020-12-27 19:33:55;4;108;108;108;108;108;108;108;108;108;108;
2020-12-27 19:33:55;5;102;102;102;102;102;102;102;102;102;102;
2020-12-27 19:33:55;ht;96;29.60
2020-12-27 19:33:55;v;4.17
2020-12-27 20:03:55;1;129;129;129;129;129;129;130;129;130;130;
2020-12-27 20:03:55;2;107;107;106;107;106;106;106;107;106;106;
2020-12-27 20:03:55;3;82;82;82;81;81;81;81;80;80;80;
2020-12-27 20:03:55;4;118;118;118;118;118;118;118;118;118;118;
2020-12-27 20:03:55;5;1;1;2;2;2;2;2;2;2;2;
2020-12-27 20:03:55;ht;99;27.40
2020-12-27 20:03:55;v;4.17
2020-12-27 20:33:56;1;113;113;113;113;113;113;113;113;113;113;
2020-12-27 20:33:56;2;114;114;114;114;114;114;114;114;114;114;
2020-12-27 20:33:56;3;132;137;134;131;129;127;126;125;124;123;
2020-12-27 20:33:56;4;116;116;116;116;116;116;116;116;116;116;
2020-12-27 20:33:56;5;98;98;98;98;98;98;98;98;98;98;
2020-12-27 20:33:56;ht;99;25.90
2020-12-27 20:33:56;v;4.16
2020-12-27 21:03:51;1;125;125;125;125;125;124;125;125;125;125;
2020-12-27 21:03:51;2;120;120;120;120;120;120;120;120;120;120;
2020-12-27 21:03:51;3;68;67;67;67;67;67;66;66;66;66;
2020-12-27 21:03:51;4;120;120;120;121;120;121;121;120;120;121;
2020-12-27 21:03:51;5;103;103;103;103;103;103;103;103;103;103;
2020-12-27 21:03:51;ht;99;24.90
2020-12-27 21:03:51;v;4.16
2020-12-27 21:33:54;1;113;113;113;113;113;113;113;113;113;113;
2020-12-27 21:33:54;2;117;117;117;117;117;117;117;117;117;117;
2020-12-27 21:33:54;3;60;60;60;60;59;59;59;59;59;59;
2020-12-27 21:33:54;4;119;119;119;119;119;119;119;119;119;119;
2020-12-27 21:33:54;5;102;102;102;102;102;102;102;102;102;102;
2020-12-27 21:33:54;ht;99;24.60
2020-12-27 21:33:54;v;4.16
2020-12-27 22:03:52;1;118;118;118;118;118;118;118;118;117;118;
2020-12-27 22:03:52;2;113;113;113;113;113;113;113;113;113;113;
2020-12-27 22:03:52;3;61;61;61;61;61;62;61;61;61;61;
2020-12-27 22:03:52;4;120;120;120;120;120;120;120;120;120;120;
2020-12-27 22:03:52;5;103;103;102;103;103;103;103;102;103;102;
2020-12-27 22:03:52;ht;99;24.00
2020-12-27 22:03:52;v;4.16
2020-12-27 22:33:50;1;128;127;128;128;128;127;128;127;127;128;
2020-12-27 22:33:50;2;117;117;117;117;118;117;117;117;117;117;
2020-12-27 22:33:50;3;58;58;58;58;58;57;57;57;57;57;
2020-12-27 22:33:50;4;120;120;119;120;120;120;120;120;120;120;
2020-12-27 22:33:50;5;122;122;122;122;122;122;122;122;122;122;
2020-12-27 22:33:50;ht;99;23.40
2020-12-27 22:33:50;v;4.16
2020-12-27 23:03:52;1;124;124;124;124;124;124;124;124;124;124;
2020-12-27 23:03:52;2;120;120;120;120;120;120;120;120;120;120;
2020-12-27 23:03:52;3;121;121;121;121;121;121;121;121;121;121;
2020-12-27 23:03:52;4;119;119;119;119;119;119;119;119;119;119;
2020-12-27 23:03:52;5;125;125;125;125;125;125;125;125;125;125;
2020-12-27 23:03:52;ht;99;23.40
2020-12-27 23:03:52;v;4.16
2020-12-27 23:33:49;1;127;127;127;127;127;127;127;127;127;127;
2020-12-27 23:33:49;2;124;124;124;124;124;124;124;124;124;124;
2020-12-27 23:33:49;3;55;55;55;54;54;54;54;54;54;53;
2020-12-27 23:33:49;4;118;119;119;119;119;119;119;119;119;119;
2020-12-27 23:33:49;5;101;101;101;101;101;101;101;101;101;101;
2020-12-27 23:33:49;ht;99;22.70
2020-12-27 23:33:49;v;4.16
