2021-03-16 00:03:40;4.20;1;19.20;1;0.00
2021-03-16 00:33:41;4.20;1;19.90;0;1.40
2021-03-16 01:03:42;4.20;1;20.50;0;1.70
2021-03-16 01:33:39;4.20;1;20.50;0;0.00
2021-03-16 02:03:41;4.20;1;20.80;0;1.10
2021-03-16 02:33:43;4.20;1;21.20;0;1.30
2021-03-16 03:03:41;4.20;1;21.00;0;0.00
2021-03-16 03:33:41;4.20;72;19.50;1;0.00
2021-03-16 04:03:29;4.20;1;18.90;9;1.60
2021-03-16 04:33:42;4.20;1;18.90;10;2.89
2021-03-16 05:03:33;4.20;26;19.20;12;2.09
2021-03-16 05:33:37;4.20;4;20.10;15;6.45
2021-03-16 06:03:29;4.20;37;19.40;19;3.38
2021-03-16 06:33:34;4.19;66;19.20;24;2.19
2021-03-16 07:03:31;4.20;10;19.80;27;2.79
2021-03-16 07:33:41;4.19;1;20.20;27;2.59
2021-03-16 08:03:38;4.19;1;20.60;27;0.00
2021-03-16 08:33:40;4.20;1;21.00;27;2.09
2021-03-16 09:03:43;4.20;3;19.80;27;2.69
2021-03-16 09:33:38;4.20;24;18.40;28;2.49
2021-03-16 10:03:21;4.20;68;17.80;37;3.88
2021-03-16 10:33:16;4.19;91;17.70;49;1.30
2021-03-16 11:03:23;4.19;97;17.80;60;2.00
2021-03-16 11:33:25;4.19;99;17.70;70;0.00
2021-03-16 12:03:37;4.19;99;17.90;75;0.00
2021-03-16 12:33:38;4.19;80;17.90;78;6.25
2021-03-16 13:03:38;4.20;57;18.40;78;1.30
2021-03-16 13:33:39;4.20;22;19.60;78;1.30
2021-03-16 14:03:41;4.20;1;20.90;78;0.00
2021-03-16 14:33:45;4.21;1;22.00;78;1.10
2021-03-16 15:03:45;4.21;1;24.50;78;2.00
2021-03-16 15:33:47;4.21;1;25.80;78;1.30
2021-03-16 16:03:47;4.21;1;25.90;78;2.09
2021-03-16 16:33:46;4.22;1;24.90;78;1.50
2021-03-16 17:03:44;4.22;1;25.60;78;0.00
2021-03-16 17:33:47;4.22;1;25.60;78;1.40
2021-03-16 18:03:46;4.22;1;24.90;78;1.80
2021-03-16 18:33:43;4.22;1;24.50;78;1.10
2021-03-16 19:03:44;4.22;1;24.10;78;1.80
2021-03-16 19:33:44;4.21;1;22.10;78;2.49
2021-03-16 20:03:43;4.21;1;20.90;78;2.00
2021-03-16 20:33:41;4.21;1;20.90;78;1.30
2021-03-16 21:03:43;4.21;1;20.80;78;4.07
2021-03-16 21:33:40;4.21;1;19.90;78;2.49
2021-03-16 22:03:42;4.21;5;19.80;78;3.38
2021-03-16 22:33:39;4.20;1;20.10;78;4.57
2021-03-16 23:03:40;4.20;1;19.60;78;3.38
2021-03-16 23:33:42;4.20;1;18.90;78;3.88
