2021-03-19 00:03:36;4.20;1;14.10;0;0.00
2021-03-19 00:33:37;4.20;1;14.10;0;0.00
2021-03-19 01:03:35;4.20;1;13.90;0;0.00
2021-03-19 01:33:36;4.19;1;13.40;0;0.00
2021-03-19 02:03:38;4.19;1;13.40;0;0.00
2021-03-19 02:33:34;4.19;1;13.20;0;0.00
2021-03-19 03:03:35;4.19;1;13.20;0;0.00
2021-03-19 03:33:37;4.19;1;13.40;0;0.00
2021-03-19 04:03:38;4.19;1;13.40;0;0.00
2021-03-19 04:33:35;4.19;1;13.20;0;0.00
2021-03-19 05:03:36;4.19;1;13.40;0;0.00
2021-03-19 05:33:38;4.19;1;13.10;0;0.00
2021-03-19 06:03:34;4.18;1;13.20;0;0.00
2021-03-19 06:33:35;4.19;1;12.30;0;0.00
2021-03-19 07:03:36;4.18;16;12.10;0;0.00
2021-03-19 07:33:36;4.18;13;12.10;0;0.00
2021-03-19 08:03:37;4.19;1;13.30;0;0.00
2021-03-19 08:33:38;4.19;1;15.20;0;0.00
2021-03-19 09:03:37;4.20;1;17.10;0;0.00
2021-03-19 09:33:41;4.20;1;18.20;0;0.00
2021-03-19 10:03:42;4.20;1;19.70;0;1.20
2021-03-19 10:33:40;4.21;1;20.30;0;1.60
2021-03-19 11:03:43;4.21;1;20.80;0;0.00
2021-03-19 11:33:42;4.21;1;21.90;0;0.00
2021-03-19 12:03:41;4.21;1;21.80;0;0.00
2021-03-19 12:33:41;4.21;1;22.70;0;0.00
2021-03-19 13:03:42;4.22;1;22.70;0;0.00
2021-03-19 13:33:43;4.22;1;22.40;0;1.10
2021-03-19 14:03:44;4.22;1;23.30;0;1.90
2021-03-19 14:33:46;4.22;1;23.10;0;1.20
2021-03-19 15:03:42;4.22;1;23.60;0;0.00
2021-03-19 15:33:44;4.22;1;23.50;0;1.30
2021-03-19 16:03:45;4.22;1;23.50;0;0.00
2021-03-19 16:33:42;4.22;1;24.00;0;0.00
2021-03-19 17:03:43;4.22;1;23.40;0;0.00
2021-03-19 17:33:44;4.22;1;23.20;0;0.00
2021-03-19 18:03:44;4.22;1;22.10;0;0.00
2021-03-19 18:33:44;4.22;1;21.40;0;0.00
2021-03-19 19:03:43;4.22;1;20.60;0;0.00
2021-03-19 19:33:40;4.21;1;19.70;0;0.00
2021-03-19 20:03:42;4.21;1;19.30;0;0.00
2021-03-19 20:33:39;4.21;1;19.10;0;0.00
2021-03-19 21:03:39;4.21;1;19.10;0;0.00
2021-03-19 21:33:40;4.21;1;19.10;0;0.00
2021-03-19 22:03:41;4.21;1;19.20;0;1.60
2021-03-19 22:33:38;4.21;1;19.10;0;0.00
2021-03-19 23:03:38;4.20;1;19.20;0;1.10
2021-03-19 23:33:39;4.20;1;18.90;0;1.10
