2021-11-4 0:2:37;3.90;99;20.10;99;21.50;11;71.9;0.037;10.2481;13.143;10.413;13.682;6;6;6;6;6;6;6;6;6;6;321;321;321;321;321;321;321;321;321;321;318;318;318;318;318;318;318;318;318;318;0.72;0.72;0.72;0.72;0.72;0.72;0.72;0.72;0.72;148
2021-11-4 0:32:37;3.89;99;20.70;99;21.20;11;71.9;0.036;10.4421;12.951;10.606;13.514;6;6;6;6;6;6;6;6;6;6;321;321;321;321;321;321;321;321;321;321;318;318;318;318;318;318;318;318;318;318;0.72;0.72;0.72;0.72;0.72;0.72;0.72;0.72;0.72;148
2021-11-4 1:2:38;3.89;99;20.70;99;21.80;11;0.177;0.037;21.91;71.5;0.036;10.6851;12.863;10.849;13.452;6;6;6;6;6;6;6;6;7;6;321;321;321;321;321;321;321;321;321;321;318;318;318;318;318;318;318;318;318;318;0.72;0.72;0.72;0.72;0.72;0.72;0.72;0.72;0.72;148
2021-11-4 1:32:39;3.89;99;20.20;99;21.80;11;0.173;0.038;21.91;71.5;0.036;10.4091;12.919;10.567;13.527;7;6;6;6;6;6;6;6;6;6;321;321;321;320;321;321;321;321;321;321;318;318;318;318;318;318;318;318;318;318;0.72;0.72;0.72;0.72;0.72;0.72;0.72;0.72;0.72;147
2021-11-4 2:2:35;3.88;99;19.60;99;21.20;11;0.173;0.038;21.71;71.1;0.036;10.4041;12.914;10.557;13.568;6;6;6;7;6;7;7;6;6;6;320;321;321;321;321;321;320;321;320;321;318;318;318;318;318;318;318;318;318;318;0.72;0.72;0.72;0.72;0.72;0.72;0.72;0.72;0.72;148
2021-11-4 2:32:35;3.88;99;19.80;99;20.70;11;0.177;0.038;21.51;70.7;0.036;10.6481;12.828;10.803;13.493;6;6;6;6;6;7;6;6;6;6;320;321;321;321;321;321;320;321;321;320;318;318;318;318;318;318;318;318;318;318;0.72;0.72;0.72;0.72;0.72;0.72;0.72;0.72;0.72;148
2021-11-4 3:2:36;3.88;99;20.40;99;21.00;11;0.172;0.038;21.51;70.7;0.036;10.3731;12.884;10.522;13.567;7;6;7;6;6;6;7;6;6;6;321;321;321;321;320;321;321;320;320;321;318;318;318;318;318;318;318;318;318;318;0.72;0.72;0.72;0.72;0.72;0.72;0.72;0.72;0.72;148
2021-11-4 3:32:36;3.88;99;20.00;99;21.50;11;0.172;0.038;21.51;70.7;0.036;10.3731;12.884;10.522;13.567;6;6;6;7;6;6;6;7;6;7;321;321;320;321;321;320;321;320;321;321;318;318;318;318;318;318;318;318;318;318;0.72;0.72;0.72;0.72;0.72;0.72;0.72;0.72;0.72;148
2021-11-4 4:2:36;3.88;99;19.40;99;21.10;11;0.175;0.037;21.31;70.3;0.035;10.5591;12.695;10.707;13.399;7;7;7;6;6;6;7;6;7;6;320;320;321;321;321;321;321;321;320;321;318;318;318;318;318;318;318;318;318;318;0.72;0.72;0.72;0.72;0.72;0.72;0.72;0.72;0.72;147
2021-11-4 4:32:36;3.87;99;19.10;99;20.40;11;0.175;0.037;21.11;70.0;0.035;10.5561;12.693;10.700;13.427;7;7;7;7;7;7;7;7;7;7;321;320;321;320;320;321;321;320;321;320;318;318;318;318;318;318;318;318;318;318;0.72;0.72;0.72;0.72;0.72;0.72;0.72;0.72;0.72;147
2021-11-4 5:2:36;3.87;99;19.10;99;20.20;11;0.179;0.037;21.11;70.0;0.035;10.7931;12.606;10.936;13.365;7;7;7;7;7;7;7;7;7;7;321;321;320;320;320;321;321;321;320;321;318;318;318;318;318;318;318;318;318;318;0.72;0.72;0.72;0.72;0.72;0.72;0.72;0.72;0.72;148
2021-11-4 5:32:35;3.87;99;18.70;99;20.20;11;0.175;0.037;20.91;69.6;0.035;10.5221;12.660;10.658;13.453;7;7;7;7;7;7;7;7;7;7;320;320;320;321;320;320;321;320;320;320;318;318;318;318;318;318;318;318;318;318;0.72;0.72;0.72;0.72;0.72;0.72;0.72;0.72;0.72;148
2021-11-4 6:2:34;3.86;99;18.70;99;19.80;11;0.175;0.037;20.91;69.6;0.035;10.5201;12.659;10.655;13.466;7;7;7;7;7;7;7;7;7;7;320;321;320;321;320;320;321;321;320;320;318;318;318;318;318;319;319;318;318;318;0.72;0.72;0.72;0.72;0.72;0.72;0.72;0.72;0.72;147
2021-11-4 6:32:38;3.86;99;19.10;99;19.90;11;0.178;0.037;20.71;69.2;0.035;10.7011;12.474;10.837;13.285;7;7;7;7;7;7;7;7;7;7;320;321;320;321;320;320;321;320;320;320;318;318;318;318;318;318;318;318;318;318;0.72;0.72;0.72;0.72;0.72;0.72;0.72;0.72;0.72;147
2021-11-4 7:2:38;3.86;99;20.20;99;20.30;11;0.178;0.037;20.71;69.2;0.035;10.7011;12.474;10.837;13.285;7;7;8;7;7;7;7;7;7;8;320;320;321;321;320;321;321;320;321;321;318;318;318;318;318;318;318;318;318;319;0.72;0.72;0.72;0.72;0.72;0.72;0.72;0.72;0.72;148
2021-11-4 7:32:38;3.90;99;23.90;99;21.60;11;0.170;0.038;20.71;69.2;0.035;10.2491;12.715;10.380;13.527;8;8;7;8;7;8;8;8;7;8;320;320;321;321;320;321;321;320;320;320;318;318;318;318;319;318;318;318;318;318;0.72;0.72;0.72;0.72;0.72;0.72;0.72;0.72;0.72;147
2021-11-4 8:2:42;3.95;93;26.90;99;25.00;11;0.170;0.037;20.91;69.6;0.035;10.2531;12.720;10.390;13.486;8;8;8;8;8;8;8;8;8;8;320;320;320;321;320;320;321;320;320;321;318;318;318;318;318;318;318;318;318;318;0.72;0.72;0.72;0.72;0.72;0.72;0.72;0.72;0.72;147
2021-11-4 8:32:45;4.02;74;28.80;92;27.80;11;70.3;0.035;10.2621;12.728;10.409;13.403;8;8;8;8;8;8;8;8;8;8;321;321;321;321;321;321;321;321;321;321;318;318;319;319;319;319;319;318;318;319;0.72;0.71;0.72;0.72;0.72;0.71;0.72;0.71;0.71;146
2021-11-4 9:2:47;4.08;59;31.50;85;29.90;11;71.1;0.035;10.546;9;9;9;9;9;9;8;9;9;8;323;322;322;322;322;322;322;322;322;322;319;319;319;319;319;319;319;319;319;319;0.71;0.71;0.71;0.71;0.71;0.71;0.71;0.71;0.71;146
2021-11-4 9:32:53;4.11;50;33.40;78;32.90;11;73.0;0.036;10.413;10;10;10;10;10;10;10;10;10;10;321;322;322;321;322;321;322;322;322;322;320;319;320;319;320;319;320;320;319;320;0.71;0.71;0.71;0.71;0.71;0.71;0.71;0.71;0.71;146
2021-11-4 10:2:53;4.13;46;34.30;71;35.00;11;75.9;0.036;10.561;12;12;12;12;12;12;12;12;12;12;322;322;322;323;322;322;322;322;322;322;320;320;320;320;320;320;320;320;320;320;0.71;0.71;0.71;0.71;0.71;0.71;0.71;0.71;0.71;146
2021-11-4 10:32:55;4.13;46;34.50;69;36.00;11;78.6;0.037;10.452;302;302;302;302;302;302;302;302;302;302;323;323;323;323;323;323;324;324;323;323;320;320;320;320;320;320;320;320;320;320;0.71;0.71;0.71;0.71;0.71;0.71;0.71;0.71;0.71;146
2021-11-4 11:2:58;4.08;52;30.70;67;36.70;11;13.825;10.735;13.197;8;8;8;8;8;8;8;8;8;8;323;323;323;323;323;323;323;323;323;323;320;320;320;320;320;320;320;320;320;320;0.71;0.71;0.71;0.71;0.71;0.71;0.71;0.71;0.71;146
2021-11-4 11:32:51;4.13;54;32.10;75;31.90;11;82.0;0.039;10.5691;14.029;10.892;13.374;9;9;9;8;9;9;9;9;9;8;322;322;322;322;322;322;322;322;322;322;319;319;319;319;319;319;319;319;319;319;0.71;0.71;0.71;0.71;0.71;0.71;0.71;0.71;0.71;146
2021-11-4 12:2:53;4.08;59;29.50;72;34.50;11;82.5;0.040;10.3861;14.270;10.709;13.567;9;9;9;9;9;9;9;9;9;9;322;322;321;321;322;322;322;322;322;322;319;319;319;319;319;319;319;319;319;319;0.71;0.71;0.71;0.71;0.71;0.71;0.71;0.71;0.71;146
2021-11-4 12:32:48;4.08;65;29.00;79;30.90;11;82.0;0.039;10.6851;14.199;11.007;13.572;10;10;10;10;10;10;10;10;10;10;321;321;321;321;321;321;321;321;321;321;319;318;318;319;319;319;318;318;319;319;0.72;0.72;0.71;0.72;0.71;0.72;0.72;0.71;0.72;146
2021-11-4 13:2:47;4.10;53;31.40;81;30.40;11;14.210;11.030;13.492;297;6;6;5;6;6;6;5;5;5;322;323;322;322;322;322;322;322;323;323;319;319;319;319;319;319;319;319;319;319;0.71;0.71;0.71;0.71;0.71;0.71;0.71;0.71;0.71;145
2021-11-4 13:32:53;4.11;45;33.40;74;32.90;11;14.476;10.888;13.540;6;5;5;5;5;5;5;5;5;6;323;323;324;323;323;323;323;324;323;323;319;319;319;319;319;320;320;319;320;320;0.71;0.71;0.71;0.71;0.71;0.71;0.71;0.71;0.71;145
2021-11-4 14:2:50;4.11;44;33.90;68;35.00;11;14.727;10.699;13.717;5;5;5;5;5;5;5;5;5;5;323;323;324;323;323;323;323;323;323;323;319;319;319;319;319;319;319;319;319;319;0.71;0.71;0.71;0.71;0.71;0.71;0.71;0.71;0.71;145
2021-11-4 14:33:14;4.08;48;31.00;71;32.10;11;14.706;11.076;13.640;6;5;5;5;6;5;5;5;5;5;323;323;323;323;323;323;323;323;323;323;319;319;319;319;319;319;319;319;319;319;0.71;0.71;0.71;0.71;0.71;0.71;0.71;0.71;0.71;145
2021-11-4 15:2:49;4.07;49;30.10;71;32.10;11;14.903;10.809;13.939;5;5;5;5;5;5;5;5;5;5;322;322;321;322;322;322;322;322;322;322;318;318;318;318;319;319;318;319;319;318;0.71;0.71;0.71;0.71;0.71;0.71;0.71;0.71;0.71;145
2021-11-4 15:32:49;4.06;46;32.10;73;31.30;11;84.0;0.041;10.4411;14.888;10.780;14.040;5;5;5;5;5;5;5;5;5;5;321;321;321;321;321;321;321;321;321;320;318;318;318;318;318;318;318;318;318;318;0.71;0.71;0.71;0.71;0.71;0.71;0.71;0.71;0.71;145
2021-11-4 16:2:49;4.06;42;31.40;69;33.70;11;83.0;0.041;10.656;5;5;5;5;5;5;5;5;5;5;320;320;320;321;320;320;321;321;320;320;318;318;318;318;318;318;318;318;318;318;0.71;0.71;0.71;0.71;0.71;0.71;0.71;0.71;0.71;145
2021-11-4 16:32:48;4.05;43;31.20;67;32.90;11;82.0;0.041;10.612;6;5;6;5;5;5;5;6;5;5;319;320;320;319;319;319;320;320;319;320;318;318;318;318;318;318;318;318;318;318;0.71;0.71;0.71;0.71;0.71;0.71;0.71;0.71;0.71;145
2021-11-4 17:2:47;4.04;42;30.80;67;32.50;11;81.0;0.040;10.514;5;5;5;5;5;5;5;5;5;5;319;320;319;320;319;320;320;320;320;319;318;318;318;318;318;318;318;318;318;318;0.71;0.71;0.71;0.71;0.71;0.71;0.71;0.71;0.71;145
2021-11-4 17:32:50;4.04;47;30.30;68;32.10;11;80.5;0.040;10.476;5;5;5;5;5;5;5;5;5;5;320;319;320;320;320;320;319;319;319;320;318;318;318;318;318;318;318;318;318;318;0.71;0.71;0.71;0.71;0.71;0.71;0.71;0.71;0.71;146
2021-11-4 18:2:48;4.04;51;29.90;71;31.50;11;80.0;0.039;10.687;5;6;5;5;6;6;5;5;5;6;320;320;320;320;320;320;320;320;320;320;318;318;318;318;318;318;318;318;318;318;0.71;0.71;0.71;0.71;0.71;0.71;0.71;0.71;0.71;146
2021-11-4 18:32:50;4.03;52;29.50;74;31.00;11;79.5;0.039;10.6501;14.160;10.928;13.856;5;6;5;5;6;5;5;6;5;5;320;320;320;320;320;320;320;320;320;320;318;318;318;318;318;318;318;318;318;318;0.71;0.71;0.71;0.71;0.71;0.71;0.71;0.71;0.71;146
2021-11-4 19:2:46;4.02;57;28.80;75;30.60;11;79.1;0.040;10.3391;14.216;10.602;13.964;6;5;6;5;5;5;6;6;6;5;321;320;321;320;320;320;320;320;321;320;318;318;318;318;318;318;318;318;318;318;0.71;0.71;0.71;0.71;0.71;0.71;0.71;0.71;0.71;145
2021-11-4 19:32:47;4.01;62;28.30;79;29.90;11;78.6;0.039;10.8181;13.914;11.087;13.719;6;5;6;6;6;6;6;5;6;5;320;320;320;320;320;320;320;320;320;321;319;318;318;318;318;319;318;318;318;319;0.71;0.71;0.71;0.71;0.71;0.71;0.71;0.71;0.71;146
2021-11-4 20:2:47;4.01;62;28.00;81;29.40;11;78.2;0.039;10.2981;14.171;10.547;14.026;6;5;6;5;5;5;5;5;6;6;321;320;321;320;320;320;320;320;321;320;318;319;318;319;318;318;318;318;319;319;0.71;0.71;0.71;0.71;0.71;0.71;0.71;0.71;0.71;146
2021-11-4 20:32:46;4.01;65;27.60;81;29.00;11;77.7;0.039;10.5091;13.963;10.757;13.872;6;5;6;5;6;6;6;6;6;6;320;321;321;321;321;320;321;320;321;321;319;318;319;318;318;318;319;319;319;319;0.71;0.71;0.71;0.71;0.71;0.71;0.71;0.71;0.71;146
2021-11-4 21:2:45;4.00;81;26.00;82;28.70;11;77.3;0.039;10.4751;13.928;10.718;13.871;6;6;6;5;6;6;5;5;6;6;321;321;321;320;321;321;321;320;321;321;319;319;318;319;318;318;319;319;318;319;0.71;0.71;0.71;0.71;0.71;0.71;0.71;0.71;0.71;146
2021-11-4 21:32:43;3.99;99;23.60;88;26.90;11;76.8;0.038;10.6771;13.721;10.915;13.733;6;6;6;6;5;6;6;5;6;6;321;321;321;321;321;321;321;321;321;321;319;319;318;318;319;319;318;319;318;319;0.71;0.71;0.71;0.71;0.71;0.71;0.71;0.71;0.71;146
2021-11-4 22:2:43;3.98;99;22.40;96;24.50;11;76.4;0.038;10.373;6;6;5;5;6;6;6;6;6;6;321;321;321;321;321;321;321;321;321;322;319;319;318;319;319;319;319;319;319;319;0.71;0.71;0.71;0.71;0.71;0.71;0.71;0.71;0.71;146
2021-11-4 22:32:42;3.97;99;21.00;99;23.40;11;75.5;0.038;10.337;5;6;6;5;6;5;6;5;6;6;321;321;321;321;321;321;321;321;321;322;318;319;319;319;319;318;319;319;319;319;0.69;0.69;0.69;0.69;0.69;0.69;0.69;0.69;0.69;141
2021-11-4 23:2:39;3.96;99;19.40;99;21.90;11;74.7;0.038;10.5341;13.527;10.738;13.787;6;5;6;6;5;5;5;6;6;5;321;321;321;320;321;321;321;321;321;321;319;319;319;319;319;318;319;319;319;318;0.68;0.68;0.68;0.68;0.68;0.68;0.68;0.68;0.68;140
2021-11-4 23:32:40;3.95;99;18.80;99;20.30;11;73.9;0.038;10.0201;13.772;10.204;14.138;5;5;5;5;6;5;5;6;6;6;320;321;320;321;321;320;320;321;320;321;318;319;319;319;319;319;319;319;318;318;0.70;0.70;0.70;0.70;0.70;0.70;0.70;0.70;0.70;143
