2021-9-27 0:2:39;4.10;66;19.50;79;20.80;11;0.162;0.039;19.91;67.8;0.036;9.8131;12.995;9.919;14.010;19;19;19;19;19;19;19;19;19;19;334;334;334;334;334;335;334;335;334;335;349;349;349;349;349;349;350;349;349;349;0.66;0.66;0.65;0.66;0.66;0.65;0.66;0.66;0.65;135
2021-9-27 0:32:39;4.09;71;19.20;83;20.20;11;0.170;0.038;19.71;67.5;0.035;10.2571;12.722;10.362;13.761;19;19;19;19;19;19;19;19;19;19;334;335;334;334;334;334;334;335;335;335;349;349;349;349;349;349;350;349;349;349;0.66;0.66;0.65;0.66;0.65;0.65;0.66;0.66;0.66;134
2021-9-27 1:2:38;4.08;78;18.70;84;19.90;11;0.165;0.039;19.51;67.1;0.036;9.9771;12.773;10.073;13.877;19;19;19;19;19;19;19;19;19;19;334;334;334;335;335;335;334;335;334;335;350;349;350;349;349;350;349;349;350;349;0.66;0.65;0.65;0.66;0.66;0.66;0.66;0.66;0.65;135
2021-9-27 1:32:37;4.08;88;18.30;86;19.50;11;0.165;0.039;19.11;66.4;0.035;9.9461;12.742;10.037;13.888;19;19;19;19;19;19;19;19;19;19;334;334;335;334;334;334;335;334;334;335;350;349;349;349;349;350;349;349;349;350;0.65;0.65;0.65;0.66;0.66;0.66;0.65;0.66;0.65;135
2021-9-27 2:2:36;4.08;92;18.20;89;19.00;11;0.168;0.038;18.91;66.1;0.035;10.1351;12.555;10.223;13.729;19;19;19;19;19;19;19;19;19;19;334;335;334;335;335;334;334;335;334;334;350;350;350;349;349;349;350;350;349;349;0.66;0.66;0.65;0.66;0.66;0.66;0.66;0.65;0.65;134
2021-9-27 2:32:34;4.08;89;18.50;90;18.90;11;0.167;0.038;18.81;65.8;0.035;10.1041;12.525;10.187;13.741;19;19;19;19;19;19;19;19;19;19;334;335;335;334;334;335;334;335;334;335;349;350;349;350;349;350;349;349;349;349;0.65;0.65;0.66;0.65;0.65;0.65;0.65;0.65;0.66;134
2021-9-27 3:2:37;4.08;87;18.80;89;19.30;11;0.167;0.038;18.81;65.8;0.035;10.1011;12.522;10.181;13.767;19;19;19;19;19;19;19;19;19;19;334;334;334;335;334;334;335;334;335;334;350;350;350;349;349;349;350;350;349;349;0.65;0.66;0.65;0.66;0.66;0.65;0.65;0.66;0.65;134
2021-9-27 3:32:36;4.08;94;18.20;89;19.50;11;0.163;0.039;18.61;65.4;0.035;9.8271;12.575;9.902;13.856;19;19;19;19;19;19;19;19;19;19;335;334;335;335;334;335;334;334;335;334;349;350;349;350;349;349;349;350;349;350;0.65;0.65;0.65;0.65;0.65;0.65;0.65;0.65;0.65;134
2021-9-27 4:2:38;4.08;93;18.20;91;18.90;11;0.158;0.039;18.41;65.1;0.035;9.5501;12.628;9.619;13.944;19;19;19;19;19;19;19;19;19;19;334;335;335;334;334;334;334;334;334;334;349;350;349;349;349;350;350;350;350;350;0.66;0.65;0.65;0.66;0.66;0.65;0.66;0.66;0.65;134
2021-9-27 4:32:37;4.08;94;18.10;90;18.90;11;0.162;0.039;18.21;64.8;0.035;9.7961;12.544;9.865;13.880;19;19;19;19;19;19;19;19;19;19;334;334;334;335;335;334;335;334;335;335;349;350;350;350;349;350;350;350;350;350;0.65;0.66;0.66;0.65;0.66;0.65;0.65;0.66;0.65;135
2021-9-27 5:2:35;4.08;99;17.80;91;18.90;11;0.165;0.038;18.21;64.8;0.034;9.9841;12.362;10.051;13.708;19;19;19;19;19;19;19;19;19;19;335;334;334;334;335;335;334;335;334;334;350;350;350;350;350;350;350;350;350;350;0.65;0.65;0.65;0.65;0.65;0.65;0.65;0.65;0.65;134
2021-9-27 5:32:38;4.07;99;17.60;94;18.50;11;0.161;0.038;18.01;64.5;0.035;9.7131;12.414;9.775;13.795;19;19;19;19;19;19;19;19;19;19;335;335;335;335;334;334;335;335;335;335;350;350;350;350;350;350;350;350;350;350;0.65;0.65;0.65;0.65;0.65;0.66;0.65;0.65;0.65;134
2021-9-27 6:2:35;4.07;98;17.80;93;18.30;11;0.168;0.038;17.91;64.1;0.034;10.1391;12.155;10.202;13.522;19;19;19;19;19;19;19;19;19;19;335;335;335;335;335;335;335;335;335;334;350;350;350;350;350;350;350;350;350;350;0.65;0.65;0.65;0.65;0.65;0.65;0.65;0.65;0.65;135
2021-9-27 6:32:37;4.07;99;17.30;92;18.50;11;0.168;0.038;17.91;64.1;0.034;10.1361;12.153;10.196;13.548;19;19;19;19;19;19;19;19;19;19;335;335;335;335;334;335;335;335;334;334;350;350;350;350;350;350;350;350;350;350;0.66;0.65;0.65;0.65;0.65;0.65;0.65;0.65;0.65;134
2021-9-27 7:2:35;4.06;99;16.30;95;18.00;11;0.160;0.038;17.71;63.8;0.034;9.6811;12.382;9.736;13.833;19;19;19;19;19;19;19;19;19;19;335;335;335;335;335;335;335;335;335;335;350;350;350;350;350;350;350;350;350;350;0.65;0.65;0.65;0.66;0.66;0.65;0.65;0.66;0.65;134
2021-9-27 7:32:36;4.06;99;16.60;99;17.00;11;0.163;0.038;17.51;63.5;0.034;9.8701;12.204;9.924;13.648;19;19;19;19;19;19;19;19;19;19;335;335;335;335;335;335;334;335;335;335;350;350;350;350;350;350;350;350;350;350;0.65;0.65;0.66;0.65;0.65;0.65;0.65;0.65;0.66;135
2021-9-27 8:2:33;4.07;99;18.00;99;17.60;11;0.155;0.039;17.71;63.8;0.035;9.4101;12.437;9.463;13.894;19;19;19;19;19;19;19;19;19;19;335;335;335;335;335;336;335;335;335;335;350;350;350;350;350;350;350;350;350;350;0.65;0.66;0.65;0.65;0.65;0.65;0.65;0.66;0.65;134
2021-9-27 8:32:36;4.08;93;19.60;93;19.00;11;0.160;0.038;17.71;63.8;0.034;9.6591;12.360;9.718;13.764;19;19;19;19;19;19;19;19;19;19;335;335;335;335;335;335;335;335;335;335;350;350;350;350;350;350;350;350;350;350;0.65;0.65;0.65;0.65;0.65;0.65;0.66;0.65;0.65;134
2021-9-27 9:2:37;4.12;56;24.60;90;20.60;11;0.160;0.038;18.21;64.8;0.034;9.6711;12.372;9.744;13.632;19;19;19;19;19;19;19;19;19;19;336;336;336;336;336;336;336;336;336;336;350;350;350;350;350;350;350;350;350;350;0.65;0.65;0.65;0.65;0.65;0.65;0.65;0.65;0.65;134
2021-9-27 9:32:42;4.14;50;26.60;75;25.40;11;0.161;0.037;19.11;66.4;0.035;9.7181;12.421;9.820;13.421;19;19;19;19;19;19;19;19;20;19;335;335;335;335;335;335;335;335;335;335;350;350;350;350;350;350;350;350;350;350;0.66;0.66;0.66;0.66;0.66;0.66;0.66;0.66;0.66;135
2021-9-27 10:2:48;4.15;48;27.60;71;27.40;11;0.166;0.036;20.51;68.9;0.035;10.0401;12.419;10.179;13.122;19;20;19;19;19;19;19;19;19;19;334;334;334;334;334;334;334;334;335;335;350;350;350;350;350;350;350;350;350;350;0.66;0.66;0.66;0.65;0.66;0.66;0.66;0.66;0.66;135
2021-9-27 10:32:51;4.15;45;29.50;68;28.90;11;0.169;0.036;21.71;71.1;0.035;10.2001;12.622;10.371;13.079;19;20;19;19;19;19;19;19;19;20;335;335;335;335;335;335;335;335;335;335;350;350;350;350;350;350;350;350;350;350;0.65;0.66;0.66;0.65;0.66;0.65;0.65;0.65;0.66;134
2021-9-27 11:2:52;4.16;42;30.60;66;30.80;11;0.168;0.037;23.01;73.4;0.036;10.1431;12.991;10.347;13.177;19;20;19;19;20;19;19;20;20;20;335;335;335;335;335;335;335;335;335;335;350;350;350;350;350;350;350;350;350;350;0.66;0.65;0.66;0.66;0.66;0.65;0.65;0.66;0.66;135
2021-9-27 11:32:53;4.17;40;31.60;63;32.00;11;75.9;0.037;9.8101;13.455;10.038;13.400;20;20;20;20;20;20;20;20;20;20;335;335;334;335;335;334;334;334;335;334;350;350;350;350;350;350;350;350;350;350;0.66;0.66;0.66;0.66;0.66;0.66;0.66;0.66;0.66;135
2021-9-27 12:2:49;4.17;41;31.60;62;32.60;11;78.2;0.039;9.7521;13.874;10.007;13.576;20;20;20;20;20;20;20;20;20;20;334;334;334;335;335;335;335;334;335;334;350;350;350;350;350;350;350;350;350;350;0.66;0.66;0.66;0.66;0.66;0.66;0.66;0.66;0.66;135
2021-9-27 12:32:50;4.17;40;31.10;62;32.80;11;80.0;0.039;9.9131;14.102;10.198;13.587;20;20;20;20;20;20;20;20;20;20;334;334;334;334;334;335;335;334;334;334;350;350;350;350;350;350;350;350;350;350;0.66;0.66;0.66;0.66;0.66;0.65;0.65;0.66;0.65;135
2021-9-27 13:2:52;4.17;36;31.60;62;32.80;11;82.0;0.040;10.0811;14.338;10.401;13.577;20;20;20;20;20;20;20;20;20;20;335;335;335;335;335;335;335;335;335;335;350;350;350;350;350;350;350;350;350;349;0.66;0.66;0.66;0.66;0.66;0.65;0.65;0.65;0.66;134
2021-9-27 13:32:49;4.17;36;31.30;58;33.50;11;84.0;0.041;10.2521;14.580;10.607;13.580;20;20;20;20;20;20;20;20;20;20;335;335;334;335;335;335;335;334;334;334;350;350;349;349;349;350;350;350;350;350;0.66;0.66;0.65;0.66;0.66;0.66;0.66;0.66;0.66;135
2021-9-27 14:2:49;4.16;39;29.70;58;32.80;11;84.6;0.042;10.1341;14.975;10.485;13.948;20;20;20;20;20;20;20;20;20;20;334;334;334;334;334;334;334;334;334;334;349;349;349;349;349;349;349;349;349;349;0.66;0.66;0.66;0.66;0.66;0.66;0.66;0.66;0.66;135
2021-9-27 14:32:47;4.16;41;29.20;63;31.10;11;0.164;0.040;28.61;83.5;0.042;9.8931;15.195;10.207;14.388;20;20;20;20;20;20;20;20;20;20;332;332;332;332;332;332;332;332;332;332;348;348;348;348;348;348;348;348;348;348;0.66;0.66;0.66;0.66;0.66;0.66;0.66;0.66;0.66;135
2021-9-27 15:2:50;4.16;37;31.20;63;30.40;11;0.164;0.040;27.81;82.0;0.042;9.8771;15.175;10.172;14.524;20;20;20;20;20;20;20;20;20;20;331;332;332;331;332;332;332;332;332;332;348;348;348;348;348;348;348;348;348;348;0.66;0.66;0.66;0.66;0.66;0.66;0.66;0.66;0.66;135
2021-9-27 15:32:49;4.16;38;30.30;60;32.40;11;0.173;0.040;27.21;81.0;0.041;10.4031;14.842;10.695;14.356;20;20;20;20;20;20;20;20;20;20;331;332;332;331;332;332;332;332;332;332;348;348;348;348;348;348;348;348;348;348;0.66;0.66;0.66;0.66;0.66;0.66;0.66;0.66;0.66;135
2021-9-27 16:2:47;4.16;38;29.90;61;31.50;11;0.167;0.040;26.71;80.0;0.041;10.0661;14.892;10.336;14.516;20;20;20;20;20;20;20;20;20;20;332;332;332;332;332;332;332;332;332;332;348;348;348;348;348;348;348;348;348;348;0.66;0.66;0.66;0.66;0.66;0.66;0.66;0.66;0.66;135
2021-9-27 16:32:51;4.15;39;29.80;62;31.20;11;0.170;0.040;26.21;79.1;0.041;10.2611;14.633;10.522;14.374;20;20;20;20;20;20;20;20;20;20;332;332;332;332;332;332;332;332;332;332;348;348;348;348;348;348;348;348;348;348;0.66;0.66;0.66;0.66;0.66;0.66;0.66;0.66;0.66;135
2021-9-27 17:2:48;4.15;42;28.80;63;30.80;11;0.165;0.040;25.61;78.2;0.041;9.9321;14.687;10.177;14.500;20;20;20;20;20;20;20;20;20;20;332;332;332;332;332;332;332;332;332;332;348;348;348;348;348;348;348;348;348;348;0.66;0.66;0.66;0.66;0.66;0.66;0.66;0.66;0.66;135
2021-9-27 17:32:45;4.15;44;28.30;65;29.70;11;0.173;0.040;25.41;77.7;0.040;10.4421;14.375;10.691;14.263;20;20;20;20;20;20;20;20;20;20;332;332;332;332;332;333;332;332;332;332;348;348;348;348;348;348;348;348;348;348;0.66;0.66;0.66;0.66;0.66;0.66;0.66;0.66;0.66;135
2021-9-27 18:2:45;4.15;47;27.60;67;29.20;11;0.168;0.040;24.91;76.8;0.040;10.1231;14.429;10.355;14.388;20;20;20;20;20;20;20;20;20;20;332;332;332;332;333;332;332;333;332;332;348;348;348;348;348;348;348;348;348;348;0.66;0.66;0.66;0.66;0.66;0.66;0.66;0.66;0.66;135
2021-9-27 18:32:44;4.14;50;27.00;70;28.60;11;0.167;0.040;24.71;76.4;0.040;10.0861;14.388;10.310;14.418;20;20;20;20;20;20;20;20;20;20;332;332;332;332;332;332;332;332;332;332;348;348;348;348;348;348;348;348;348;348;0.66;0.66;0.66;0.66;0.66;0.66;0.66;0.66;0.66;135
2021-9-27 19:2:43;4.13;50;26.20;72;27.90;11;0.171;0.040;24.41;75.9;0.039;10.3041;14.176;10.524;14.275;20;20;20;20;20;20;20;20;20;20;332;331;331;331;331;331;331;331;331;331;348;348;348;348;348;348;348;348;348;348;0.66;0.66;0.66;0.66;0.66;0.66;0.66;0.66;0.66;135
2021-9-27 19:32:45;4.13;55;25.40;72;27.10;11;0.170;0.040;23.91;75.1;0.039;10.2661;14.134;10.475;14.319;20;20;20;20;20;20;20;20;20;20;331;331;332;331;332;331;331;332;331;332;348;348;348;348;348;348;348;348;348;348;0.66;0.66;0.66;0.66;0.66;0.66;0.66;0.66;0.66;135
2021-9-27 20:2:42;4.13;57;24.80;76;26.20;11;0.165;0.040;23.71;74.7;0.039;9.9511;14.187;10.146;14.443;20;20;20;20;20;20;20;20;20;20;332;332;332;332;332;332;332;332;332;332;348;348;349;348;348;348;348;348;348;348;0.66;0.66;0.66;0.66;0.66;0.66;0.66;0.66;0.66;135
2021-9-27 20:32:42;4.12;61;24.20;77;25.60;11;0.173;0.039;23.31;73.9;0.039;10.4381;13.887;10.635;14.205;20;20;20;20;20;20;20;20;20;20;332;332;332;332;332;332;332;332;332;332;348;348;348;348;348;349;348;348;348;348;0.66;0.66;0.66;0.66;0.66;0.66;0.66;0.66;0.66;135
2021-9-27 21:2:42;4.12;66;23.50;80;25.00;11;0.168;0.040;23.01;73.4;0.039;10.1321;13.940;10.315;14.327;20;20;20;20;20;20;20;20;20;20;332;332;332;332;333;332;332;332;332;332;348;348;348;348;348;348;348;348;348;348;0.66;0.66;0.66;0.66;0.66;0.66;0.66;0.66;0.66;135
2021-9-27 21:32:42;4.11;76;23.00;82;24.30;11;0.171;0.039;22.81;73.0;0.038;10.3101;13.704;10.489;14.151;20;20;20;20;20;20;20;20;20;20;332;332;332;333;333;332;332;332;332;332;348;348;348;348;348;349;348;348;348;348;0.66;0.66;0.66;0.66;0.66;0.66;0.66;0.66;0.66;135
2021-9-27 22:2:41;4.11;93;22.40;86;23.80;11;0.166;0.040;22.41;72.3;0.038;10.0081;13.759;10.176;14.257;20;20;20;20;20;20;20;20;20;20;332;333;333;332;333;333;332;333;332;333;349;348;349;349;349;349;348;348;348;349;0.66;0.66;0.66;0.66;0.66;0.66;0.66;0.66;0.66;135
2021-9-27 22:32:39;4.11;99;21.50;90;23.20;11;0.169;0.039;22.11;71.9;0.038;10.2131;13.555;10.375;14.127;20;20;20;20;20;20;20;20;20;20;333;333;333;333;333;333;333;332;333;333;349;348;349;349;348;349;348;348;348;349;0.66;0.66;0.66;0.66;0.66;0.66;0.66;0.66;0.66;135
2021-9-27 23:2:40;4.11;99;20.30;95;22.20;11;0.169;0.039;21.91;71.5;0.038;10.1781;13.518;10.333;14.154;20;20;20;20;20;20;20;20;20;20;333;333;333;333;334;333;333;333;334;333;348;349;349;348;349;349;349;348;348;349;0.66;0.66;0.66;0.66;0.66;0.66;0.66;0.66;0.66;135
2021-9-27 23:32:37;4.10;99;19.50;98;21.10;11;0.164;0.040;21.51;70.7;0.038;9.8781;13.571;10.022;14.274;20;20;20;20;20;20;20;20;20;20;333;333;334;333;333;333;333;333;333;333;349;349;348;349;349;348;348;349;349;349;0.66;0.66;0.66;0.66;0.66;0.66;0.66;0.66;0.66;135
