2021-11-14 0:2:38;3.99;99;19.30;99;20.60;11;72.6;0.038;23.7571;13.593;24.157;14.085;78;78;79;78;78;78;78;78;78;78;296;296;296;296;296;296;296;296;296;296;304;304;304;304;304;304;304;304;304;304;0.88;0.88;0.88;0.88;0.88;0.88;0.88;0.88;0.88;180
2021-11-14 0:32:38;3.98;99;19.00;99;20.40;11;72.3;0.037;23.2431;13.271;23.613;13.831;76;77;77;77;76;77;77;77;77;76;298;298;298;298;298;298;298;298;298;298;302;302;302;302;302;302;302;302;302;302;0.88;0.87;0.88;0.87;0.88;0.87;0.88;0.88;0.88;180
2021-11-14 1:2:38;3.98;99;19.10;99;20.20;11;71.9;0.035;23.2231;12.742;23.580;13.326;81;81;81;81;81;81;81;81;81;81;299;299;299;299;299;299;299;299;299;299;302;302;302;302;301;301;302;302;301;302;0.87;0.87;0.87;0.88;0.88;0.88;0.88;0.88;0.88;179
2021-11-14 1:32:38;3.98;99;19.10;99;20.20;11;0.349;0.036;21.91;71.5;0.034;23.4731;12.388;23.826;12.986;78;77;78;78;77;77;77;77;77;77;299;300;299;299;299;300;299;299;299;300;301;301;301;301;301;301;301;301;301;301;0.88;0.88;0.88;0.88;0.88;0.88;0.88;0.88;0.88;180
2021-11-14 2:2:38;3.98;99;19.10;99;20.20;11;0.344;0.035;21.71;71.1;0.034;22.9941;12.100;23.332;12.713;84;84;84;84;84;84;84;84;84;84;303;303;303;304;304;303;303;303;303;303;302;302;302;302;302;302;302;302;302;302;0.87;0.87;0.87;0.87;0.87;0.87;0.87;0.87;0.87;179
2021-11-14 2:32:37;3.97;99;19.40;99;20.20;11;70.7;0.033;22.0841;11.838;22.408;12.438;79;78;78;78;78;78;78;78;78;78;305;306;305;306;305;305;305;306;306;306;303;303;303;303;303;303;303;303;303;303;0.87;0.87;0.87;0.87;0.87;0.87;0.87;0.87;0.87;178
2021-11-14 3:2:37;3.97;99;19.30;99;20.60;11;70.7;0.032;21.7701;11.431;22.086;12.023;92;92;92;92;92;92;92;92;92;92;307;307;307;307;308;307;307;308;308;307;304;304;304;304;304;304;304;304;304;304;0.87;0.86;0.86;0.86;0.86;0.86;0.86;0.86;0.86;176
2021-11-14 3:32:37;3.97;99;19.10;99;20.50;11;70.7;0.032;21.2251;11.349;21.533;11.938;79;79;79;78;79;79;78;79;79;79;308;308;308;309;308;308;308;308;308;308;305;305;305;305;305;305;305;304;305;305;0.86;0.86;0.86;0.86;0.86;0.86;0.86;0.86;0.86;176
2021-11-14 4:2:36;3.97;99;19.10;99;20.20;11;70.7;0.031;20.7501;11.288;21.047;11.886;87;87;88;87;88;87;87;87;87;87;309;309;309;309;309;309;309;309;309;309;305;305;305;305;305;305;305;305;305;305;0.86;0.86;0.86;0.86;0.86;0.86;0.86;0.86;0.86;175
2021-11-14 4:32:36;3.97;99;19.00;99;20.20;11;70.7;0.031;20.7021;11.042;20.999;11.628;81;81;81;81;81;81;81;81;81;81;309;310;309;309;309;310;310;309;310;309;306;306;306;306;306;306;306;306;306;306;0.85;0.85;0.85;0.85;0.85;0.85;0.85;0.85;0.85;174
2021-11-14 5:2:40;3.97;99;18.80;99;20.10;11;70.7;0.030;20.4761;10.901;20.766;11.493;83;83;83;83;83;83;83;83;84;84;310;310;311;311;310;310;310;310;310;310;306;306;306;306;306;306;306;306;306;306;0.85;0.85;0.85;0.85;0.85;0.85;0.85;0.85;0.85;174
2021-11-14 5:32:35;3.97;99;18.60;99;19.90;11;0.315;0.031;21.31;70.3;0.029;20.5461;10.488;20.830;11.082;84;84;83;83;83;83;83;83;83;83;310;310;310;311;311;310;310;311;310;310;306;306;306;307;306;307;307;306;306;306;0.85;0.85;0.85;0.85;0.85;0.85;0.85;0.85;0.85;173
2021-11-14 6:2:38;3.97;99;18.30;99;19.80;11;0.310;0.032;21.31;70.3;0.030;20.1361;10.719;20.411;11.339;81;81;81;81;81;81;81;81;81;81;311;311;311;311;311;311;311;311;311;311;307;307;307;307;307;307;307;307;307;307;0.84;0.84;0.84;0.84;0.84;0.84;0.84;0.84;0.84;172
2021-11-14 6:32:37;3.97;99;18.50;99;19.50;11;0.309;0.031;21.11;70.0;0.029;20.0431;10.412;20.313;11.027;81;81;81;81;81;81;81;82;82;81;312;312;312;311;311;312;312;312;311;312;307;307;307;307;307;307;307;307;307;307;0.84;0.84;0.84;0.84;0.84;0.84;0.84;0.84;0.84;171
2021-11-14 7:2:36;3.97;99;18.40;99;19.70;11;0.306;0.031;21.11;70.0;0.029;19.7621;10.468;20.025;11.099;81;81;81;81;82;81;82;81;81;81;312;312;312;312;312;312;312;312;312;312;307;307;307;307;307;307;307;307;307;307;0.84;0.84;0.84;0.84;0.84;0.84;0.84;0.84;0.84;171
2021-11-14 7:32:36;3.97;99;18.60;99;19.70;11;0.306;0.030;20.91;69.6;0.029;19.7741;10.259;20.034;10.889;83;83;83;84;83;84;83;83;83;83;312;312;312;312;312;312;312;312;312;312;308;308;307;307;307;307;308;307;307;307;0.83;0.83;0.83;0.83;0.83;0.83;0.83;0.83;0.83;171
2021-11-14 8:2:35;4.00;99;19.40;99;19.90;11;0.306;0.030;20.91;69.6;0.028;19.7881;10.053;20.048;10.671;85;84;84;85;85;84;85;85;85;85;312;312;312;313;312;313;313;313;313;313;307;308;308;307;308;308;307;308;307;308;0.83;0.83;0.83;0.83;0.83;0.83;0.83;0.83;0.83;170
2021-11-14 8:32:35;4.01;99;19.40;99;20.80;11;0.302;0.030;21.11;70.0;0.029;19.4531;10.298;19.715;10.906;85;85;85;85;85;85;85;85;85;85;313;313;313;313;313;313;313;313;313;313;308;308;308;308;308;308;308;308;308;308;0.83;0.83;0.83;0.83;0.83;0.83;0.83;0.83;0.83;169
2021-11-14 9:2:36;4.02;99;19.70;99;20.80;11;0.300;0.030;21.11;70.0;0.028;19.3061;10.188;19.569;10.777;85;85;85;85;85;85;85;85;85;85;313;313;313;313;313;314;313;313;314;313;308;308;308;308;308;308;308;308;308;308;0.82;0.82;0.82;0.82;0.82;0.82;0.82;0.82;0.82;168
2021-11-14 9:32:38;4.04;99;22.10;99;21.20;11;70.7;0.028;19.2761;10.177;19.566;10.668;90;89;89;90;90;90;89;89;89;89;315;315;315;314;315;314;315;315;314;314;308;308;308;308;308;308;308;308;308;308;0.82;0.82;0.82;0.82;0.82;0.82;0.82;0.82;0.82;167
2021-11-14 10:2:44;4.08;99;23.90;99;23.70;11;71.9;0.029;18.7881;10.522;19.104;10.903;92;92;92;92;92;92;92;92;92;92;314;314;315;314;315;315;315;314;315;315;308;308;308;308;309;309;308;308;309;309;0.82;0.82;0.82;0.82;0.82;0.82;0.82;0.82;0.82;167
2021-11-14 10:32:42;4.12;91;25.40;94;26.10;11;73.0;0.029;18.841;77;78;77;77;77;78;77;77;77;77;315;315;315;316;315;315;315;315;315;315;309;309;309;309;309;309;309;309;309;309;0.82;0.82;0.82;0.82;0.82;0.82;0.82;0.82;0.82;167
2021-11-14 11:2:46;4.12;74;26.00;86;27.60;11;74.7;0.029;18.830;78;78;78;78;78;78;78;78;78;78;315;315;315;315;315;315;315;315;316;315;309;309;309;309;309;309;309;309;309;309;0.81;0.82;0.81;0.81;0.81;0.81;0.81;0.81;0.81;166
2021-11-14 11:32:47;4.10;70;26.70;82;28.30;11;77.3;0.029;18.6511;10.414;19.103;10.308;80;80;80;80;80;80;80;80;80;80;316;315;315;316;316;316;315;316;316;316;309;309;309;309;309;309;309;309;309;309;0.81;0.81;0.81;0.81;0.81;0.81;0.81;0.81;0.81;166
2021-11-14 12:2:49;4.12;54;28.60;80;29.10;11;78.2;0.029;18.6261;10.404;19.108;10.194;80;80;80;80;80;80;80;80;80;80;316;316;315;316;316;316;316;316;316;316;310;310;310;310;309;310;309;309;310;309;0.81;0.81;0.81;0.81;0.81;0.81;0.81;0.81;0.81;165
2021-11-14 12:32:47;4.12;56;27.90;73;30.60;11;80.0;0.029;18.436;80;80;80;80;80;80;80;80;80;80;318;317;317;317;317;317;317;316;317;317;310;310;310;310;310;310;310;310;310;310;0.81;0.81;0.81;0.81;0.81;0.81;0.81;0.81;0.81;165
2021-11-14 13:2:48;4.10;52;27.50;76;29.70;11;81.5;0.030;18.117;81;81;81;81;81;81;81;81;81;81;318;318;318;318;318;318;318;318;318;318;310;310;310;310;310;310;310;310;310;310;0.80;0.81;0.81;0.81;0.81;0.81;0.80;0.81;0.80;164
2021-11-14 13:32:48;4.07;51;27.80;74;29.30;11;83.5;0.030;18.020;81;81;81;81;81;81;81;81;81;81;317;317;317;318;317;317;317;318;317;317;310;310;310;310;310;310;310;310;310;310;0.80;0.80;0.80;0.80;0.80;0.80;0.80;0.80;0.80;164
2021-11-14 14:2:44;4.07;51;27.40;73;29.60;11;83.5;0.030;17.959;84;84;83;83;84;83;83;84;84;83;318;318;319;318;318;318;318;319;319;318;311;311;311;311;311;310;310;310;310;311;0.80;0.80;0.80;0.80;0.80;0.80;0.80;0.80;0.80;164
2021-11-14 14:32:45;4.07;46;27.40;73;29.10;11;82.5;0.030;17.660;84;84;84;84;84;84;84;84;84;84;319;319;319;320;319;319;320;320;319;319;311;311;311;311;311;311;311;311;311;311;0.80;0.80;0.80;0.80;0.80;0.80;0.80;0.80;0.80;163
2021-11-14 15:2:47;4.07;47;28.00;70;29.20;11;81.5;0.030;17.3671;10.694;17.866;10.303;88;87;87;88;88;88;87;87;87;87;318;319;319;318;318;318;318;319;319;319;311;311;311;311;311;311;311;311;311;311;0.80;0.80;0.80;0.80;0.80;0.80;0.80;0.80;0.80;163
2021-11-14 15:32:48;4.06;47;27.60;70;29.80;11;80.0;0.029;17.465;79;78;79;79;79;79;79;79;79;78;319;319;319;319;319;319;319;318;319;319;311;311;311;311;311;311;311;311;311;311;0.80;0.79;0.79;0.79;0.80;0.79;0.79;0.79;0.79;163
2021-11-14 16:2:44;4.06;44;27.10;70;29.40;11;78.6;0.028;17.433;78;79;79;79;79;79;78;79;79;79;319;319;319;320;320;319;319;320;320;320;311;311;311;311;311;311;311;311;311;311;0.80;0.80;0.80;0.79;0.80;0.80;0.79;0.80;0.80;163
2021-11-14 16:32:44;4.05;42;26.50;69;28.50;11;77.7;0.028;17.155;79;79;79;79;79;79;79;79;79;79;320;320;320;320;320;320;320;319;319;320;311;311;311;311;311;311;311;311;311;311;0.80;0.80;0.80;0.79;0.79;0.79;0.79;0.80;0.79;162
2021-11-14 17:2:47;4.04;43;26.30;68;27.80;11;76.4;0.028;17.011;79;79;79;79;79;79;79;79;79;79;320;320;320;320;320;320;320;320;320;320;311;311;311;311;311;311;311;311;311;311;0.79;0.79;0.79;0.79;0.79;0.79;0.79;0.79;0.79;162
2021-11-14 17:32:45;4.04;44;25.90;68;27.50;11;75.5;0.028;16.745;79;79;79;79;79;79;79;79;79;79;320;320;320;320;320;320;321;320;320;320;311;311;311;311;311;311;311;311;311;311;0.79;0.79;0.79;0.79;0.79;0.79;0.79;0.79;0.79;162
2021-11-14 18:2:42;4.03;45;25.60;69;27.10;11;75.1;0.027;16.7761;9.836;17.108;10.001;80;79;79;80;79;80;79;79;79;79;320;320;320;320;320;320;320;320;321;321;311;311;311;311;311;311;311;311;311;311;0.79;0.79;0.79;0.79;0.79;0.79;0.79;0.79;0.79;162
2021-11-14 18:32:44;4.02;45;25.00;70;26.70;11;74.3;0.027;16.8071;9.643;17.127;9.851;79;79;79;79;79;79;79;79;79;79;320;320;320;320;320;320;321;320;321;320;311;311;311;311;311;311;311;311;311;311;0.79;0.79;0.79;0.79;0.79;0.79;0.79;0.79;0.79;162
2021-11-14 19:2:44;4.02;47;24.40;70;26.10;11;73.9;0.026;16.8371;9.452;17.145;9.703;83;83;83;83;83;83;83;83;83;82;320;320;320;320;320;320;320;320;320;320;311;311;311;311;311;311;311;311;311;311;0.79;0.79;0.79;0.79;0.79;0.79;0.79;0.79;0.79;162
2021-11-14 19:32:40;4.01;51;23.50;71;25.60;11;73.4;0.026;16.6251;9.513;16.917;9.811;90;90;90;90;90;90;90;90;90;90;320;320;320;320;319;319;320;319;320;320;311;311;311;311;311;311;311;311;311;311;0.79;0.79;0.79;0.79;0.79;0.79;0.79;0.79;0.79;161
2021-11-14 20:2:39;4.01;53;23.00;75;24.60;11;73.0;0.027;16.3761;9.557;16.658;9.880;91;90;90;90;90;90;90;90;90;90;319;319;319;320;319;319;320;319;319;319;311;311;311;311;311;311;311;311;311;311;0.79;0.79;0.79;0.79;0.79;0.79;0.79;0.79;0.79;161
2021-11-14 20:32:42;4.00;56;22.60;77;24.00;11;72.3;0.026;16.6111;9.306;16.884;9.665;91;90;90;90;90;90;90;90;90;90;319;320;319;319;320;319;319;320;320;320;311;311;311;311;311;311;311;311;311;311;0.79;0.79;0.79;0.79;0.79;0.79;0.79;0.79;0.79;161
2021-11-14 21:2:41;3.99;62;22.10;79;23.50;11;71.9;0.026;16.4861;9.203;16.752;9.580;92;92;91;91;92;91;92;92;92;92;320;319;319;320;319;320;319;319;320;319;311;311;311;311;311;311;311;311;311;311;0.79;0.79;0.79;0.79;0.79;0.79;0.79;0.79;0.79;161
2021-11-14 21:32:38;3.99;73;21.40;82;23.20;11;71.9;0.026;16.4381;9.182;16.691;9.603;97;97;97;97;97;97;97;97;97;97;320;320;320;319;320;319;320;320;320;319;311;311;311;311;311;311;311;311;311;311;0.79;0.79;0.79;0.79;0.79;0.79;0.79;0.79;0.79;161
2021-11-14 22:2:40;3.99;76;21.50;86;22.40;11;0.260;0.027;21.91;71.5;0.026;16.2381;9.244;16.484;9.679;93;93;93;93;93;93;92;93;93;93;320;319;320;320;319;319;319;319;319;320;311;311;311;311;311;311;311;311;311;311;0.79;0.79;0.79;0.79;0.79;0.79;0.79;0.79;0.79;161
2021-11-14 22:32:37;3.99;87;21.00;86;22.60;11;0.260;0.027;21.71;71.1;0.026;16.1921;9.224;16.430;9.692;92;92;92;92;92;92;92;92;92;92;319;320;319;320;320;320;319;320;319;319;311;311;311;311;311;311;311;311;311;311;0.79;0.79;0.79;0.79;0.79;0.79;0.79;0.79;0.79;161
2021-11-14 23:2:38;3.98;78;21.10;89;22.10;11;0.257;0.027;21.51;70.7;0.026;15.9891;9.285;16.219;9.777;92;92;91;92;92;92;91;92;92;92;320;319;320;319;319;319;319;320;320;319;311;311;311;311;311;311;311;311;311;311;0.78;0.79;0.79;0.79;0.78;0.79;0.78;0.78;0.78;160
2021-11-14 23:32:39;3.98;85;20.80;87;22.20;11;0.260;0.027;21.31;70.3;0.025;16.2261;9.042;16.453;9.544;94;94;94;94;94;94;94;94;94;94;319;319;319;319;319;320;320;319;319;319;311;311;311;311;311;311;311;311;311;311;0.79;0.79;0.79;0.79;0.78;0.79;0.78;0.79;0.79;160
