2021-11-28 0:2:35;3.97;99;16.60;99;17.70;11;69.2;0.031;20.6551;11.251;20.909;12.009;81;81;81;81;81;81;81;81;81;81;311;311;311;311;311;311;311;311;311;310;305;305;305;305;305;305;305;305;305;305;0.88;0.88;0.88;0.88;0.88;0.88;0.88;0.88;0.88;180
2021-11-28 0:32:36;3.96;99;16.70;99;17.80;11;68.9;0.031;20.6521;11.250;20.902;12.021;81;81;81;81;81;81;81;81;81;81;311;311;311;311;311;311;311;311;311;311;305;305;305;305;305;305;305;305;305;305;0.88;0.87;0.88;0.88;0.88;0.88;0.88;0.88;0.87;180
2021-11-28 1:2:34;3.96;99;16.80;99;17.90;11;68.9;0.031;20.4251;11.107;20.669;11.882;81;81;81;81;81;81;81;81;81;81;311;311;311;311;311;312;311;311;311;311;305;305;305;305;305;305;305;305;305;305;0.87;0.87;0.87;0.87;0.87;0.87;0.87;0.87;0.87;179
2021-11-28 1:32:35;3.97;99;17.10;99;18.00;11;68.9;0.030;20.2031;10.966;20.441;11.744;81;81;81;81;81;81;81;81;81;81;312;312;312;312;312;312;312;312;312;312;305;305;305;305;305;305;305;305;305;305;0.87;0.87;0.87;0.87;0.87;0.87;0.87;0.87;0.87;178
2021-11-28 2:2:38;3.97;99;17.90;99;18.30;11;68.5;0.030;20.0881;10.921;20.321;11.709;81;81;81;81;81;81;81;81;81;81;313;313;313;313;313;313;313;313;313;313;305;305;305;306;305;305;305;305;306;306;0.87;0.87;0.87;0.87;0.87;0.87;0.87;0.87;0.87;178
2021-11-28 2:32:36;3.97;99;17.60;99;19.20;11;68.5;0.030;19.8741;10.784;20.105;11.562;81;81;81;81;81;81;81;81;80;81;313;313;313;313;313;313;313;313;313;313;306;305;305;305;305;305;305;306;306;305;0.87;0.87;0.87;0.87;0.87;0.87;0.87;0.87;0.87;177
2021-11-28 3:2:34;3.97;99;17.60;99;18.80;11;68.5;0.029;19.8901;10.571;20.121;11.334;81;81;81;81;81;81;81;81;81;81;314;313;313;314;313;314;313;314;313;314;306;306;305;306;306;306;306;306;306;306;0.86;0.86;0.86;0.86;0.86;0.86;0.87;0.86;0.86;176
2021-11-28 3:32:37;3.97;99;17.70;99;18.90;11;68.5;0.029;19.7351;10.458;19.964;11.212;81;81;81;81;81;81;81;81;81;81;313;313;314;314;314;314;313;314;314;314;306;306;306;306;306;306;306;306;306;306;0.86;0.86;0.86;0.86;0.86;0.86;0.86;0.86;0.86;176
2021-11-28 4:2:35;4.00;99;18.70;99;19.00;11;0.301;0.032;20.31;68.5;0.030;19.3841;10.704;19.610;11.476;81;81;81;81;81;81;81;81;81;81;314;314;314;314;314;313;314;314;314;313;306;306;306;306;306;306;306;306;306;306;0.86;0.86;0.86;0.86;0.86;0.86;0.86;0.86;0.86;175
2021-11-28 4:32:39;4.05;99;21.90;99;20.00;11;0.301;0.031;20.31;68.5;0.029;19.4051;10.494;19.631;11.251;81;81;81;81;81;81;81;81;81;81;314;314;314;314;314;314;314;314;314;315;306;306;306;306;306;306;306;306;306;306;0.86;0.85;0.85;0.85;0.85;0.85;0.85;0.85;0.85;174
2021-11-28 5:2:42;4.08;93;24.50;99;23.10;11;68.9;0.030;19.0621;10.740;19.293;11.477;81;81;81;81;81;81;81;81;81;81;314;315;315;314;314;314;314;314;314;314;306;306;306;306;306;306;306;306;306;306;0.85;0.85;0.85;0.85;0.85;0.85;0.85;0.85;0.85;174
2021-11-28 5:32:43;4.06;99;22.20;90;25.60;11;69.2;0.029;19.2191;10.368;19.461;11.042;81;81;81;81;81;81;81;81;81;81;314;314;315;315;314;314;314;314;314;314;306;306;306;306;306;306;306;306;306;306;0.85;0.85;0.85;0.85;0.85;0.85;0.85;0.85;0.85;174
2021-11-28 6:2:44;4.06;89;25.00;97;23.30;11;69.6;0.029;19.1751;10.351;19.427;10.987;81;81;81;81;81;81;81;81;81;81;314;315;314;314;314;314;314;314;314;314;306;306;306;306;306;306;306;306;306;306;0.85;0.85;0.85;0.85;0.85;0.85;0.85;0.85;0.85;173
2021-11-28 6:32:42;4.07;98;23.20;89;26.10;11;70.0;0.029;18.962;81;81;81;81;81;81;81;81;81;81;315;314;314;314;315;315;315;315;315;314;307;306;307;307;306;306;306;307;306;306;0.85;0.85;0.85;0.85;0.85;0.85;0.85;0.85;0.85;173
2021-11-28 7:2:43;4.06;92;23.80;92;24.30;11;70.0;0.029;18.914;81;81;81;81;81;81;81;81;81;81;314;315;314;314;315;314;314;314;315;314;307;307;307;307;307;307;307;307;306;307;0.85;0.85;0.85;0.85;0.85;0.85;0.85;0.85;0.85;173
2021-11-28 7:32:45;4.10;94;23.80;90;25.10;11;70.3;0.029;18.6951;10.483;18.957;11.065;81;81;81;81;81;81;81;81;81;81;315;315;314;315;315;314;314;315;314;315;307;307;307;307;307;307;307;307;307;307;0.85;0.85;0.85;0.85;0.85;0.85;0.85;0.85;0.85;173
2021-11-28 8:2:42;4.06;95;23.70;91;25.00;11;70.3;0.029;18.651;82;81;82;82;82;82;81;82;81;82;315;315;315;315;316;315;315;315;315;315;307;307;307;307;307;307;307;307;307;307;0.84;0.85;0.85;0.84;0.85;0.84;0.85;0.85;0.85;173
2021-11-28 8:32:44;4.06;88;24.10;91;25.00;11;10.539;18.700;11.085;81;81;81;81;81;81;81;81;81;81;316;316;316;315;315;315;315;315;315;316;307;307;307;307;307;307;307;307;307;307;0.85;0.84;0.84;0.84;0.84;0.84;0.84;0.84;0.85;172
2021-11-28 9:2:45;4.06;82;24.50;89;25.40;11;10.520;18.656;11.052;81;81;81;81;81;81;82;82;82;82;315;315;315;316;315;315;316;316;316;315;307;307;307;307;307;307;307;307;307;307;0.84;0.84;0.84;0.84;0.84;0.84;0.84;0.84;0.84;172
2021-11-28 9:32:43;4.05;68;24.50;87;25.90;11;70.7;0.029;18.1621;10.590;18.425;11.139;81;81;81;81;81;81;81;81;82;81;316;316;316;316;316;316;316;317;316;316;307;307;307;307;307;307;307;307;307;307;0.84;0.84;0.84;0.84;0.84;0.84;0.84;0.84;0.84;172
2021-11-28 10:2:44;4.06;72;24.20;83;25.90;11;70.7;0.029;18.4131;10.315;18.680;10.850;82;82;81;82;82;82;82;81;81;81;316;316;317;316;316;316;316;316;316;316;307;307;307;307;307;307;307;307;307;308;0.84;0.84;0.84;0.84;0.84;0.84;0.84;0.84;0.84;172
2021-11-28 10:32:41;4.05;59;24.80;85;25.50;11;70.7;0.028;18.2711;10.203;18.532;10.745;81;81;81;81;81;81;81;81;81;81;316;316;317;316;316;316;316;316;316;316;307;307;307;308;307;307;307;307;307;307;0.84;0.84;0.84;0.84;0.84;0.84;0.84;0.84;0.84;172
2021-11-28 11:2:42;4.04;58;24.30;79;26.20;11;70.3;0.028;18.2211;10.183;18.479;10.735;81;81;82;81;81;81;81;81;81;81;317;317;317;317;317;317;317;317;316;317;308;307;308;308;308;308;307;307;307;307;0.84;0.84;0.84;0.84;0.84;0.84;0.84;0.84;0.84;172
2021-11-28 11:32:43;4.04;57;24.20;79;25.70;11;70.3;0.029;18.0021;10.252;18.254;10.821;82;81;81;81;81;81;81;81;81;81;317;317;317;317;317;317;317;317;317;317;308;308;308;308;307;307;308;307;307;308;0.84;0.84;0.84;0.84;0.84;0.84;0.84;0.84;0.84;171
2021-11-28 12:2:43;4.03;55;24.20;78;25.50;11;70.0;0.028;17.9501;10.230;18.195;10.822;82;81;81;81;82;81;81;81;81;81;316;316;317;316;317;316;317;317;317;317;307;308;307;308;307;307;308;308;307;308;0.84;0.84;0.84;0.84;0.84;0.84;0.84;0.84;0.84;171
2021-11-28 12:32:43;4.02;55;23.80;77;25.50;11;70.0;0.029;17.7321;10.299;17.970;10.907;82;81;81;82;81;81;81;81;82;81;317;317;317;317;317;317;317;317;317;317;308;308;307;308;308;308;308;308;308;308;0.84;0.84;0.84;0.84;0.84;0.84;0.84;0.84;0.84;171
2021-11-28 13:2:43;4.01;57;23.60;77;25.10;11;69.6;0.029;17.6831;10.278;17.919;10.897;81;81;81;81;81;81;81;81;81;81;317;317;317;317;317;318;317;317;318;317;308;308;308;308;308;308;308;308;308;308;0.84;0.84;0.84;0.84;0.84;0.84;0.84;0.84;0.84;171
2021-11-28 13:32:43;4.01;56;23.30;78;24.90;11;69.6;0.028;17.7621;10.099;17.995;10.719;82;81;81;82;82;81;82;81;81;81;317;317;318;317;317;317;317;318;317;318;308;308;308;308;308;308;308;308;308;308;0.84;0.83;0.84;0.84;0.84;0.83;0.84;0.84;0.83;170
2021-11-28 14:2:41;4.01;62;22.70;78;24.50;11;69.6;0.028;17.7141;10.078;17.944;10.709;81;82;82;81;81;82;81;81;81;81;318;317;318;318;317;317;317;317;317;317;308;308;308;308;308;308;308;308;308;308;0.83;0.84;0.83;0.83;0.83;0.84;0.83;0.84;0.84;171
2021-11-28 14:32:40;4.00;78;21.80;81;23.90;11;69.6;0.028;17.5811;9.970;17.809;10.595;82;81;82;82;82;81;81;81;82;82;318;318;317;317;318;317;318;318;317;318;308;308;308;308;308;308;308;308;308;308;0.84;0.83;0.84;0.83;0.83;0.83;0.83;0.83;0.83;170
2021-11-28 15:2:42;3.99;80;21.30;87;23.00;11;69.2;0.028;17.3671;10.037;17.589;10.678;82;81;81;81;81;81;81;81;81;81;318;318;318;318;318;318;318;318;318;318;308;308;308;308;308;308;308;308;308;308;0.83;0.83;0.83;0.83;0.83;0.83;0.83;0.83;0.83;170
2021-11-28 15:32:38;3.99;88;20.80;87;22.50;11;69.2;0.027;17.6111;9.775;17.833;10.411;81;82;82;81;81;81;81;81;81;82;319;318;318;319;318;319;318;318;318;318;308;308;308;308;308;308;308;308;308;308;0.83;0.83;0.83;0.83;0.83;0.83;0.83;0.83;0.83;170
2021-11-28 16:2:39;3.99;94;20.60;90;21.90;11;69.2;0.027;17.3991;9.842;17.616;10.493;82;81;82;81;82;82;81;81;81;81;318;318;318;319;319;318;319;318;318;318;308;308;308;308;308;308;308;308;308;308;0.83;0.83;0.83;0.83;0.83;0.83;0.83;0.83;0.83;170
2021-11-28 16:32:40;3.98;99;20.20;92;21.80;11;68.9;0.028;17.2721;9.996;17.484;10.670;81;81;81;81;81;81;81;81;81;81;318;318;318;319;318;318;318;318;318;319;308;308;308;308;308;308;308;308;308;308;0.83;0.83;0.83;0.83;0.83;0.83;0.83;0.83;0.83;170
2021-11-28 17:2:40;3.97;99;19.00;95;21.30;11;0.275;0.029;20.51;68.9;0.027;17.3511;9.821;17.561;10.495;82;81;81;81;81;81;81;81;81;81;318;318;319;318;318;318;318;318;318;318;308;308;308;308;308;308;308;308;308;308;0.83;0.83;0.83;0.83;0.83;0.83;0.83;0.83;0.83;170
2021-11-28 17:32:35;3.97;99;19.00;99;20.10;11;0.275;0.029;20.51;68.9;0.027;17.3841;9.630;17.591;10.302;81;82;82;82;81;82;81;82;81;81;318;318;318;319;319;318;319;318;318;318;308;308;309;308;308;308;308;309;308;308;0.83;0.83;0.83;0.83;0.83;0.83;0.83;0.83;0.83;170
2021-11-28 18:2:39;3.97;99;18.60;99;20.20;11;0.275;0.029;20.31;68.5;0.027;17.3811;9.629;17.586;10.312;82;81;81;81;81;81;82;82;81;81;318;319;319;318;319;319;318;318;318;318;309;308;309;308;308;308;309;309;308;309;0.83;0.83;0.83;0.83;0.83;0.83;0.83;0.83;0.83;170
2021-11-28 18:32:38;3.97;99;18.60;99;19.80;11;0.273;0.029;20.31;68.5;0.027;17.1731;9.695;17.372;10.394;81;81;81;81;81;82;81;81;81;81;318;319;319;319;319;319;319;319;318;318;308;308;308;308;308;308;309;308;308;308;0.83;0.83;0.83;0.83;0.83;0.83;0.83;0.83;0.83;169
2021-11-28 19:2:37;3.96;99;18.30;99;19.80;11;0.276;0.028;20.31;68.5;0.026;17.4101;9.439;17.610;10.132;82;81;81;81;82;81;81;82;81;81;319;319;319;319;318;319;319;319;319;319;309;308;308;309;308;308;309;309;308;309;0.83;0.83;0.83;0.83;0.83;0.83;0.83;0.83;0.83;170
2021-11-28 19:32:35;3.96;99;17.90;99;19.50;11;0.272;0.029;20.31;68.5;0.027;17.1261;9.675;17.319;10.396;82;82;82;82;82;82;81;81;81;82;319;319;319;319;319;319;319;319;319;319;308;309;308;309;309;309;309;309;309;309;0.83;0.83;0.83;0.83;0.83;0.83;0.83;0.83;0.83;170
2021-11-28 20:2:38;3.96;99;17.80;99;19.10;11;0.273;0.028;20.11;68.2;0.026;17.2021;9.504;17.393;10.223;81;82;82;82;81;81;82;81;81;82;319;319;319;319;319;319;319;320;319;319;308;309;308;309;309;309;308;309;308;308;0.83;0.83;0.83;0.83;0.83;0.83;0.83;0.83;0.83;170
2021-11-28 20:32:36;3.96;99;17.60;99;19.00;11;0.270;0.029;20.11;68.2;0.027;16.9961;9.568;17.182;10.304;82;82;82;82;82;82;82;82;81;82;319;319;319;319;319;319;319;319;319;319;308;308;309;309;309;309;309;309;309;308;0.83;0.83;0.83;0.83;0.83;0.83;0.83;0.83;0.83;170
2021-11-28 21:2:38;3.95;99;16.80;99;18.70;11;0.272;0.028;19.91;67.8;0.026;17.1551;9.484;17.341;10.225;81;81;82;82;82;81;81;81;81;82;319;320;319;319;319;320;319;319;319;319;309;309;309;309;309;309;309;309;309;309;0.83;0.83;0.83;0.83;0.83;0.83;0.83;0.83;0.83;169
2021-11-28 21:32:35;3.95;99;16.70;99;17.90;11;0.270;0.029;19.91;67.8;0.027;16.9491;9.549;17.130;10.306;82;82;81;82;82;82;82;82;82;81;319;319;320;320;319;319;319;319;320;319;309;309;309;309;309;309;309;309;309;309;0.83;0.83;0.83;0.83;0.83;0.83;0.83;0.83;0.83;169
2021-11-28 22:2:37;3.95;99;16.80;99;17.90;11;0.271;0.028;19.71;67.5;0.026;17.0261;9.380;17.204;10.135;82;82;82;82;82;82;82;82;82;82;319;319;319;319;320;319;319;319;319;319;309;309;309;309;308;309;309;309;309;309;0.83;0.83;0.83;0.83;0.83;0.83;0.83;0.83;0.83;169
2021-11-28 22:32:34;3.95;99;16.60;99;18.10;11;0.269;0.029;19.71;67.5;0.026;16.9021;9.529;17.073;10.318;82;82;82;81;81;82;82;82;82;82;319;319;319;319;319;319;319;319;319;320;309;309;309;309;309;309;309;309;309;309;0.83;0.83;0.83;0.83;0.83;0.83;0.83;0.83;0.83;169
2021-11-28 23:2:35;3.95;99;16.60;99;17.80;11;0.270;0.028;19.71;67.5;0.026;16.9781;9.360;17.148;10.147;82;81;81;81;81;82;81;81;81;81;319;319;319;319;319;320;319;320;319;320;309;309;309;309;309;309;309;309;309;309;0.83;0.83;0.83;0.83;0.83;0.83;0.83;0.83;0.83;169
2021-11-28 23:32:32;3.95;99;15.70;99;17.70;11;0.271;0.028;19.51;67.1;0.026;17.0551;9.194;17.225;9.967;81;82;81;81;82;81;81;81;81;81;319;320;320;319;319;320;319;319;319;319;309;309;309;309;309;309;309;309;309;309;0.83;0.83;0.83;0.83;0.83;0.83;0.83;0.83;0.83;169
