2021-10-24 0:2:36;3.70;91;17.20;93;18.40;11;0.233;0.047;17.71;63.8;0.042;14.2611;15.145;14.337;16.955;5;5;4;5;5;4;5;5;4;5;308;309;308;309;309;308;309;308;308;309;313;313;313;313;313;313;313;313;313;313;0.74;0.74;0.74;0.74;0.74;0.74;0.74;0.74;0.74;152
2021-10-24 0:32:34;3.69;99;16.70;90;18.20;11;0.231;0.047;17.51;63.5;0.042;14.1341;14.987;14.204;16.831;5;5;5;5;5;5;5;5;5;5;309;309;309;309;309;309;308;308;309;309;313;313;313;313;313;313;313;313;313;313;0.74;0.74;0.74;0.74;0.74;0.74;0.74;0.74;0.74;152
2021-10-24 1:2:35;3.69;99;15.80;96;17.70;11;0.230;0.047;17.31;63.2;0.042;14.0891;14.948;14.153;16.822;5;5;5;5;5;5;5;5;5;5;308;309;309;308;309;309;308;308;309;309;313;313;313;313;313;313;313;313;313;313;0.74;0.74;0.74;0.74;0.74;0.74;0.74;0.74;0.74;152
2021-10-24 1:32:36;3.69;99;15.60;98;16.80;11;0.226;0.047;17.21;62.9;0.042;13.7861;15.015;13.845;16.932;5;5;5;5;5;5;5;5;5;5;309;309;308;309;309;308;309;309;309;309;313;313;313;313;313;313;313;313;313;313;0.74;0.74;0.74;0.74;0.74;0.74;0.74;0.74;0.74;152
2021-10-24 2:2:36;3.69;99;15.20;96;16.60;11;0.225;0.047;17.01;62.6;0.042;13.7391;14.974;13.793;16.940;5;4;5;5;5;5;5;5;5;5;309;308;309;309;308;309;309;309;309;309;313;313;313;313;313;313;313;313;313;313;0.74;0.74;0.74;0.74;0.74;0.74;0.74;0.74;0.74;152
2021-10-24 2:32:36;3.69;99;14.10;97;16.20;11;0.228;0.047;16.81;62.3;0.041;13.9141;14.749;13.962;16.738;5;5;5;5;5;5;5;5;5;5;309;309;309;309;309;309;309;309;309;309;313;313;313;313;313;313;313;313;313;313;0.74;0.74;0.74;0.74;0.74;0.74;0.74;0.74;0.74;152
2021-10-24 3:2:35;3.69;99;14.00;99;15.00;11;0.229;0.046;16.71;62.0;0.040;14.0411;14.493;14.084;16.498;5;5;5;5;5;4;5;5;4;5;309;309;309;309;309;309;309;309;309;309;313;313;313;313;313;313;313;313;313;313;0.74;0.74;0.74;0.74;0.74;0.74;0.74;0.74;0.74;152
2021-10-24 3:32:30;3.68;99;13.20;98;15.10;11;0.225;0.046;16.51;61.7;0.040;13.7481;14.559;13.786;16.607;5;5;5;5;5;5;4;5;5;5;309;309;309;309;309;309;309;309;309;309;313;313;313;313;313;313;313;313;313;313;0.74;0.74;0.74;0.74;0.74;0.74;0.74;0.74;0.74;152
2021-10-24 4:2:33;3.68;99;12.40;99;14.10;11;0.224;0.046;16.31;61.4;0.040;13.7031;14.520;13.734;16.614;5;5;5;5;5;5;5;5;5;5;309;309;309;309;309;309;309;309;309;309;313;313;313;313;313;313;313;313;313;313;0.74;0.74;0.74;0.74;0.74;0.74;0.74;0.74;0.74;152
2021-10-24 4:32:31;3.68;99;12.00;99;13.40;11;0.227;0.046;16.21;61.1;0.040;13.8701;14.302;13.896;16.415;5;5;5;5;5;5;5;5;5;5;309;309;309;309;309;309;309;309;309;309;313;313;313;313;313;313;313;313;313;313;0.74;0.74;0.74;0.74;0.74;0.74;0.74;0.74;0.74;152
2021-10-24 5:2:33;3.68;99;11.40;99;13.00;11;0.226;0.046;16.01;60.8;0.040;13.8251;14.265;13.845;16.422;5;4;5;5;5;5;5;5;5;5;309;309;309;309;309;309;309;309;309;309;313;313;313;313;313;313;313;313;313;313;0.74;0.74;0.74;0.74;0.74;0.74;0.74;0.74;0.74;152
2021-10-24 5:32:30;3.67;99;10.80;99;12.40;11;0.222;0.046;15.81;60.5;0.040;13.5331;14.326;13.545;16.560;5;5;5;5;5;5;4;5;5;5;309;309;309;309;309;309;309;309;309;309;313;313;313;313;313;313;313;313;313;313;0.74;0.74;0.74;0.74;0.74;0.74;0.74;0.74;0.74;152
2021-10-24 6:2:31;3.67;99;10.80;99;11.80;11;0.224;0.045;15.51;59.9;0.039;13.6991;14.112;13.706;16.362;5;5;5;5;5;5;5;5;4;4;310;309;309;309;309;309;309;309;309;309;313;313;313;313;313;313;313;313;313;313;0.74;0.74;0.74;0.74;0.74;0.74;0.74;0.74;0.74;152
2021-10-24 6:32:32;3.67;99;10.80;99;12.00;11;0.224;0.045;15.41;59.6;0.039;13.6571;14.076;13.660;16.354;5;5;5;5;5;5;5;5;5;5;309;309;309;309;309;309;309;309;309;309;313;313;313;313;313;313;313;313;313;313;0.74;0.74;0.74;0.74;0.74;0.74;0.74;0.74;0.74;152
2021-10-24 7:2:29;3.67;99;12.10;99;11.90;11;0.220;0.046;15.41;59.6;0.039;13.3711;14.140;13.370;16.461;5;5;5;5;5;4;5;5;5;5;309;309;310;310;309;310;310;309;309;310;313;313;313;313;313;313;313;313;313;313;0.74;0.74;0.74;0.74;0.74;0.74;0.74;0.74;0.74;152
2021-10-24 7:32:31;3.68;76;17.00;99;13.40;11;0.226;0.045;15.21;59.4;0.038;13.7801;13.835;13.779;16.105;5;5;5;5;5;5;5;5;5;5;309;310;309;309;309;309;309;310;309;310;313;313;313;313;313;313;313;313;313;313;0.74;0.74;0.74;0.74;0.74;0.74;0.74;0.74;0.74;152
2021-10-24 8:2:35;3.69;55;20.10;86;17.50;11;0.222;0.045;15.41;59.6;0.039;13.5071;13.905;13.512;16.138;5;5;5;5;5;5;5;5;5;5;309;309;310;310;309;310;310;310;309;310;313;313;313;313;313;313;313;313;313;313;0.74;0.74;0.74;0.74;0.74;0.74;0.74;0.74;0.74;151
2021-10-24 8:32:35;3.70;51;22.30;76;20.50;11;0.222;0.045;15.51;59.9;0.039;13.5151;13.911;13.529;16.064;5;5;5;5;5;5;5;5;5;5;309;310;309;309;310;310;310;309;310;309;313;313;313;313;313;313;313;313;313;313;0.74;0.74;0.74;0.74;0.74;0.74;0.74;0.74;0.74;151
2021-10-24 9:2:43;3.71;48;23.30;75;22.50;11;0.222;0.044;16.01;60.8;0.039;13.5301;13.924;13.561;15.932;5;5;5;5;5;5;5;5;5;5;310;310;310;310;310;310;311;310;310;310;314;314;314;314;314;314;314;313;313;314;0.74;0.74;0.74;0.74;0.74;0.74;0.74;0.74;0.74;151
2021-10-24 9:32:44;3.72;48;24.40;70;24.60;11;0.220;0.044;17.31;63.2;0.039;13.4071;14.173;13.493;15.750;5;5;5;5;5;5;5;5;5;5;312;311;312;312;311;312;312;311;312;312;314;314;314;315;314;314;314;314;314;314;0.74;0.74;0.74;0.74;0.74;0.74;0.74;0.74;0.74;151
2021-10-24 10:2:44;3.72;37;26.40;69;25.60;11;0.219;0.043;19.11;66.4;0.040;13.3611;14.499;13.507;15.614;5;5;5;5;5;5;5;5;5;5;311;311;311;311;311;311;311;311;311;311;315;315;315;315;315;315;315;315;315;315;0.74;0.74;0.73;0.73;0.73;0.73;0.73;0.73;0.74;151
2021-10-24 10:32:49;3.72;39;26.30;61;27.90;11;69.6;0.042;13.3811;14.947;13.587;15.633;5;5;5;5;5;5;5;5;5;5;311;311;311;311;311;311;311;311;311;311;315;315;315;315;315;315;315;315;315;315;0.73;0.73;0.73;0.73;0.73;0.73;0.73;0.73;0.73;151
2021-10-24 11:2:46;3.72;38;27.50;62;27.80;11;73.0;0.042;13.628;5;5;5;5;5;5;5;5;5;5;312;312;312;312;312;312;312;312;312;312;315;315;315;315;315;315;315;315;315;315;0.73;0.73;0.73;0.73;0.73;0.73;0.73;0.73;0.73;150
2021-10-24 11:32:47;3.72;35;27.70;61;29.10;11;75.9;0.043;13.8781;15.495;14.205;15.394;5;5;5;5;5;5;5;5;5;5;312;313;313;313;312;313;312;312;312;312;315;315;315;316;315;315;315;316;315;315;0.73;0.73;0.73;0.73;0.73;0.73;0.73;0.73;0.73;150
2021-10-24 12:2:47;3.72;32;27.30;58;29.20;11;78.6;0.045;13.6061;16.080;13.973;15.655;5;5;5;5;5;5;5;5;5;5;313;313;313;313;313;313;313;314;313;313;315;316;315;315;316;316;316;315;316;316;0.73;0.73;0.73;0.73;0.73;0.73;0.73;0.73;0.73;150
2021-10-24 12:32:47;3.72;32;27.20;58;28.70;11;80.5;0.046;13.588;5;5;5;5;5;5;5;5;5;5;313;313;314;313;313;314;313;314;314;313;316;316;316;316;316;316;316;316;316;316;0.73;0.73;0.73;0.73;0.73;0.73;0.73;0.73;0.73;150
2021-10-24 13:2:48;3.72;32;26.80;57;28.90;11;81.0;0.046;13.974;5;5;5;5;5;5;5;5;5;5;314;314;314;314;314;315;314;315;315;314;316;317;316;316;316;316;316;316;316;316;0.73;0.73;0.73;0.73;0.73;0.73;0.73;0.73;0.73;149
2021-10-24 13:32:48;3.72;33;27.30;57;28.50;11;82.5;0.047;13.8241;16.843;14.260;15.971;5;5;5;5;5;5;5;5;5;5;315;315;316;316;315;315;316;315;315;315;316;316;317;316;316;316;316;316;316;316;0.73;0.73;0.73;0.73;0.73;0.73;0.73;0.73;0.73;149
2021-10-24 14:2:45;3.72;30;27.80;56;28.90;11;81.0;0.047;13.567;5;5;5;5;5;5;5;5;5;5;313;313;312;312;313;312;312;313;312;312;315;315;315;315;315;315;315;315;315;315;0.73;0.73;0.73;0.73;0.73;0.73;0.73;0.73;0.73;149
2021-10-24 14:32:47;3.72;28;28.80;54;29.60;11;80.0;0.047;13.7781;16.796;14.162;16.267;5;5;5;5;5;5;5;5;5;5;313;314;314;313;313;313;313;313;313;313;315;315;315;315;315;315;315;315;315;315;0.73;0.73;0.73;0.73;0.73;0.73;0.73;0.73;0.73;149
2021-10-24 15:2:49;3.72;27;28.10;52;30.30;11;80.0;0.047;13.426;5;5;5;5;5;5;5;5;5;6;313;313;313;313;313;313;313;314;313;313;315;315;315;315;315;315;315;315;315;315;0.73;0.73;0.73;0.73;0.73;0.73;0.73;0.73;0.73;149
2021-10-24 15:32:46;3.72;28;28.70;52;29.60;11;78.6;0.047;13.3511;16.786;13.680;16.572;5;5;5;5;5;5;5;5;5;5;312;312;312;312;312;313;312;313;312;312;314;314;314;314;314;314;314;314;315;314;0.73;0.73;0.73;0.73;0.73;0.73;0.73;0.73;0.73;149
2021-10-24 16:2:47;3.72;27;27.80;52;30.00;11;76.8;0.046;13.5031;16.473;13.808;16.467;5;5;5;5;5;5;5;5;5;5;311;311;311;311;311;311;311;311;311;311;314;314;314;314;314;314;314;314;314;314;0.73;0.73;0.73;0.73;0.73;0.73;0.73;0.73;0.73;149
2021-10-24 16:32:47;3.72;28;27.60;53;29.10;11;75.5;0.046;13.1031;16.482;13.375;16.658;5;5;5;5;5;5;5;5;5;5;311;311;311;312;312;311;311;311;311;311;314;314;314;314;314;314;314;314;314;314;0.73;0.73;0.73;0.73;0.73;0.73;0.73;0.73;0.73;149
2021-10-24 17:2:46;3.71;28;26.80;52;28.70;11;74.3;0.044;13.4701;15.947;13.729;16.273;5;5;5;5;5;5;5;5;5;5;311;312;312;311;311;311;311;312;312;311;314;314;314;314;314;314;314;314;314;314;0.73;0.73;0.73;0.73;0.73;0.73;0.73;0.73;0.73;149
2021-10-24 17:32:45;3.71;28;26.40;53;28.00;11;0.223;0.045;23.01;73.4;0.044;13.6141;15.660;13.858;16.113;5;5;5;5;5;5;5;5;5;5;312;312;312;312;312;312;312;312;312;312;314;314;314;314;314;314;314;314;314;314;0.73;0.73;0.73;0.73;0.73;0.73;0.73;0.73;0.73;150
2021-10-24 18:2:43;3.71;29;25.90;54;27.60;11;0.218;0.045;22.61;72.6;0.044;13.2421;15.680;13.465;16.247;5;5;5;5;5;5;5;5;5;5;312;312;312;312;312;312;312;312;312;312;314;314;314;314;314;314;314;314;314;314;0.73;0.73;0.73;0.73;0.73;0.73;0.73;0.73;0.73;149
2021-10-24 18:32:45;3.71;34;25.10;54;27.00;11;0.220;0.045;22.11;71.9;0.043;13.3911;15.403;13.604;16.054;5;5;5;5;5;5;5;5;5;5;312;312;312;312;312;312;312;312;312;312;314;314;314;314;315;314;314;314;314;314;0.73;0.73;0.73;0.73;0.73;0.73;0.73;0.73;0.73;149
2021-10-24 19:2:42;3.70;37;24.20;59;26.20;11;0.218;0.044;21.91;71.5;0.042;13.2661;15.238;13.465;15.973;5;5;5;5;6;5;5;5;5;5;312;312;312;313;312;313;312;313;312;312;314;314;314;314;314;314;314;315;314;314;0.73;0.73;0.73;0.73;0.73;0.73;0.73;0.73;0.73;149
2021-10-24 19:32:42;3.70;42;23.10;61;25.30;11;0.217;0.044;21.51;70.7;0.042;13.2171;15.193;13.407;15.999;5;5;5;5;5;5;5;5;5;5;313;313;313;313;313;312;313;312;313;313;315;314;314;314;314;315;314;314;314;314;0.73;0.73;0.73;0.73;0.73;0.73;0.73;0.73;0.73;149
2021-10-24 20:2:41;3.69;44;22.60;66;24.10;11;0.219;0.044;21.11;70.0;0.042;13.3611;14.928;13.543;15.792;5;5;5;5;5;5;5;5;5;5;313;313;313;313;313;313;313;313;313;313;315;314;314;315;315;314;315;314;314;315;0.73;0.73;0.73;0.73;0.73;0.73;0.73;0.73;0.73;149
2021-10-24 20:32:40;3.69;45;22.00;67;23.60;11;0.219;0.044;20.91;69.6;0.041;13.3111;14.884;13.481;15.833;5;5;5;5;5;5;5;5;5;5;313;313;313;314;313;314;314;313;313;313;314;315;315;314;315;315;314;314;315;315;0.73;0.73;0.73;0.73;0.73;0.73;0.73;0.73;0.73;149
2021-10-24 21:2:42;3.69;48;21.20;68;23.00;11;0.217;0.044;20.51;68.9;0.041;13.1911;14.727;13.351;15.737;5;6;5;5;5;6;6;6;6;5;313;313;313;314;314;313;313;313;313;314;315;315;315;315;315;315;314;314;315;315;0.73;0.73;0.73;0.73;0.73;0.73;0.73;0.73;0.73;149
2021-10-24 21:32:39;3.69;48;20.70;71;22.10;11;0.216;0.044;20.31;68.5;0.041;13.1451;14.685;13.295;15.762;5;5;5;6;5;5;6;5;5;5;314;313;313;313;313;314;313;313;313;314;315;314;315;315;314;315;315;314;315;315;0.73;0.73;0.73;0.73;0.73;0.73;0.73;0.73;0.73;149
2021-10-24 22:2:40;3.69;45;20.50;70;21.70;11;0.214;0.044;19.91;67.8;0.040;13.0271;14.530;13.168;15.665;6;5;5;5;5;5;5;5;5;6;313;313;313;313;313;313;313;313;313;313;315;315;315;315;315;315;315;315;315;315;0.73;0.73;0.73;0.73;0.73;0.73;0.73;0.73;0.73;149
2021-10-24 22:32:36;3.69;44;20.30;68;21.60;11;0.214;0.044;19.71;67.5;0.040;12.9821;14.490;13.114;15.690;6;5;5;5;5;5;5;5;6;5;313;313;313;313;313;313;313;313;313;313;315;315;315;315;315;315;315;315;315;315;0.73;0.73;0.73;0.73;0.73;0.73;0.73;0.73;0.73;149
2021-10-24 23:2:37;3.69;46;19.50;67;21.30;11;0.212;0.043;19.51;67.1;0.040;12.8671;14.337;12.989;15.594;5;5;5;5;5;5;5;5;5;5;313;313;313;313;313;313;313;313;313;313;315;315;315;315;315;315;315;315;315;315;0.73;0.73;0.73;0.73;0.73;0.73;0.73;0.73;0.73;149
2021-10-24 23:32:37;3.68;50;18.60;69;20.40;11;0.211;0.043;19.31;66.8;0.040;12.8241;14.300;12.940;15.603;6;5;5;5;5;5;5;6;5;5;313;313;313;313;313;313;313;313;313;313;315;315;315;315;315;315;315;315;315;315;0.73;0.73;0.73;0.73;0.73;0.73;0.73;0.73;0.73;149
