2021-12-8 0:2:40;3.97;85;20.10;86;21.70;11;70.7;0.020;11.3881;7.225;11.553;7.599;110;110;110;110;110;110;110;110;110;110;304;304;305;304;304;305;304;305;304;305;331;331;331;331;331;331;331;331;331;331;0.77;0.76;0.77;0.76;0.76;0.76;0.76;0.76;0.77;156
2021-12-8 0:32:40;3.97;91;19.80;88;21.20;11;70.3;0.021;11.119;109;109;108;108;108;109;108;108;108;109;304;304;305;304;304;305;304;304;304;304;331;331;331;331;331;331;331;331;331;331;0.76;0.76;0.76;0.76;0.76;0.77;0.77;0.76;0.76;156
2021-12-8 1:2:36;3.97;96;19.90;90;21.00;11;70.3;0.021;11.1171;7.395;11.270;7.814;109;108;108;108;108;108;109;109;109;108;304;304;304;304;304;304;305;304;304;304;331;331;331;331;331;331;331;331;331;331;0.76;0.76;0.76;0.76;0.76;0.76;0.76;0.76;0.76;156
2021-12-8 1:32:40;3.97;95;20.60;91;21.10;11;70.0;0.020;11.213;109;109;109;108;109;109;109;109;109;109;304;304;305;304;304;305;304;304;304;304;331;331;331;331;331;331;331;331;331;331;0.76;0.76;0.77;0.76;0.76;0.76;0.76;0.76;0.77;156
2021-12-8 2:2:37;3.98;84;21.80;91;21.80;11;70.0;0.020;11.213;109;109;109;109;109;109;109;109;109;109;304;304;304;304;304;304;304;304;304;304;331;331;331;331;331;331;331;331;331;331;0.76;0.76;0.77;0.77;0.76;0.76;0.77;0.77;0.77;156
2021-12-8 2:32:40;4.04;62;25.10;87;23.00;11;70.0;0.020;11.2131;7.267;11.366;7.687;107;107;107;107;107;107;107;107;107;107;304;304;304;305;305;305;305;305;304;305;331;331;331;331;331;331;331;331;331;331;0.76;0.76;0.76;0.76;0.76;0.77;0.76;0.77;0.77;156
2021-12-8 3:2:43;4.07;54;27.20;80;26.40;11;70.3;0.020;11.2181;7.269;11.378;7.655;107;107;107;107;107;107;107;107;107;107;305;304;304;304;305;304;305;305;305;304;331;331;331;331;331;331;331;331;331;331;0.77;0.77;0.76;0.76;0.77;0.76;0.77;0.76;0.77;156
2021-12-8 3:32:49;4.09;47;28.50;75;28.70;11;70.7;0.020;11.220;107;107;107;107;107;107;107;107;107;107;304;304;304;304;304;305;305;304;304;304;331;331;331;331;331;331;331;331;331;331;0.76;0.76;0.77;0.77;0.76;0.76;0.76;0.76;0.76;157
2021-12-8 4:2:49;4.11;43;30.20;70;30.10;11;71.1;0.020;11.2251;7.273;11.397;7.607;107;106;106;106;106;106;107;106;106;106;304;305;304;304;304;305;305;305;305;305;331;331;331;331;331;331;331;331;331;331;0.77;0.77;0.76;0.77;0.76;0.76;0.77;0.77;0.76;157
2021-12-8 4:32:51;4.13;41;31.20;67;31.80;11;71.5;0.020;11.2301;7.276;11.410;7.574;107;107;107;107;107;107;107;107;107;107;305;304;304;305;304;305;305;305;305;305;331;331;331;331;331;331;331;331;331;331;0.77;0.76;0.77;0.76;0.77;0.77;0.77;0.77;0.77;157
2021-12-8 5:2:55;4.14;35;32.70;65;32.70;11;72.3;0.021;11.1371;7.407;11.324;7.675;106;106;106;106;106;106;106;106;106;106;305;305;305;305;305;305;305;305;305;305;331;331;331;331;331;331;331;331;331;331;0.77;0.77;0.76;0.77;0.77;0.77;0.76;0.76;0.76;156
2021-12-8 5:32:55;4.14;35;33.20;61;34.70;11;72.6;0.021;11.142;107;107;107;107;106;107;106;107;107;107;305;305;305;305;305;305;305;305;305;305;331;331;331;331;331;331;331;331;331;331;0.77;0.76;0.77;0.76;0.76;0.76;0.77;0.77;0.77;157
2021-12-8 6:2:56;4.14;32;33.40;60;35.10;11;73.0;0.021;11.046;107;107;107;107;107;107;107;107;107;107;305;305;305;305;305;305;305;305;305;305;331;332;331;331;331;332;331;331;331;331;0.76;0.76;0.76;0.76;0.77;0.76;0.77;0.77;0.76;156
2021-12-8 6:32:55;4.14;30;33.90;58;35.10;11;73.4;0.020;11.321;107;107;107;107;107;107;107;107;107;107;306;305;305;305;305;306;305;305;305;306;331;331;331;331;331;331;331;331;332;331;0.77;0.77;0.77;0.76;0.77;0.77;0.77;0.77;0.76;157
2021-12-8 7:2:55;4.14;30;33.20;57;35.70;11;73.9;0.021;11.175;112;112;112;112;112;112;112;112;111;111;305;305;305;306;305;305;305;306;305;305;332;332;331;332;332;331;331;331;331;331;0.77;0.77;0.77;0.76;0.76;0.77;0.77;0.77;0.77;156
2021-12-8 7:32:54;4.13;30;33.50;56;34.90;11;73.9;0.021;11.077;107;107;107;107;107;107;107;107;107;107;306;305;305;305;305;306;305;306;305;305;332;332;331;332;332;331;332;332;332;332;0.76;0.76;0.77;0.77;0.76;0.77;0.77;0.77;0.77;156
2021-12-8 8:2:52;4.11;27;33.60;56;35.30;11;74.7;0.021;11.080;107;107;107;107;107;108;107;107;107;107;305;305;305;305;306;305;306;305;306;305;332;332;331;332;332;331;332;332;331;332;0.77;0.77;0.77;0.76;0.77;0.77;0.76;0.77;0.77;157
2021-12-8 8:32:50;4.11;27;33.80;52;35.20;11;74.7;0.021;10.980;107;107;107;108;107;107;107;107;107;107;306;306;306;306;306;306;306;306;306;306;332;332;332;332;332;332;332;331;332;332;0.77;0.77;0.76;0.77;0.76;0.77;0.77;0.77;0.77;157
2021-12-8 9:2:53;4.11;23;33.60;53;35.50;11;75.1;0.021;11.259;107;107;107;107;107;107;107;107;107;107;306;306;306;306;306;306;306;306;306;306;332;332;332;332;332;332;332;332;332;332;0.77;0.77;0.76;0.77;0.76;0.76;0.76;0.76;0.76;156
2021-12-8 9:32:51;4.11;23;33.90;48;35.30;11;75.1;0.021;11.259;107;107;107;107;108;107;108;107;108;107;306;306;306;306;306;306;306;306;306;306;332;332;332;332;332;332;332;332;332;332;0.76;0.76;0.77;0.76;0.76;0.77;0.76;0.76;0.77;156
2021-12-8 10:2:54;4.10;24;33.40;48;35.60;11;75.1;0.021;11.259;112;112;112;112;112;112;112;112;112;112;306;306;306;306;306;306;306;306;306;306;332;332;332;332;332;332;332;332;332;331;0.76;0.76;0.76;0.76;0.76;0.77;0.76;0.76;0.77;156
2021-12-8 10:32:51;4.09;24;32.70;49;35.00;11;75.1;0.021;11.259;124;124;124;124;124;124;124;124;124;124;306;306;306;306;306;306;306;306;306;306;332;332;332;332;332;332;332;332;332;332;0.76;0.76;0.77;0.76;0.76;0.76;0.77;0.76;0.77;156
2021-12-8 11:2:52;4.08;25;32.40;50;34.20;11;75.1;0.021;11.259;127;127;126;126;126;126;127;126;127;126;305;306;306;306;306;305;305;306;306;305;332;332;332;332;332;332;332;332;332;332;0.76;0.77;0.77;0.77;0.77;0.77;0.77;0.76;0.76;156
2021-12-8 11:32:48;4.08;25;32.00;50;33.90;11;75.1;0.021;11.259;127;126;127;127;128;128;129;128;128;129;306;306;306;306;306;306;306;306;306;306;332;332;332;332;331;332;332;332;332;332;0.76;0.76;0.77;0.77;0.76;0.77;0.77;0.76;0.76;156
2021-12-8 12:2:48;4.07;21;31.80;51;33.40;11;75.1;0.021;11.257;123;123;123;123;123;123;123;123;123;123;306;306;306;306;306;305;306;306;306;305;332;332;332;332;332;332;332;332;332;332;0.76;0.76;0.76;0.76;0.77;0.77;0.76;0.76;0.76;156
2021-12-8 12:32:48;4.07;22;31.20;46;33.10;11;75.1;0.021;11.257;124;124;124;124;124;124;124;124;124;124;306;306;306;306;306;306;306;306;306;306;332;332;332;332;332;332;332;332;332;332;0.76;0.76;0.76;0.76;0.76;0.76;0.76;0.76;0.76;157
2021-12-8 13:2:51;4.06;26;31.00;48;32.60;11;75.1;0.021;11.084;96;95;96;96;95;96;95;96;96;96;305;305;305;305;306;306;305;306;306;306;332;332;332;332;332;332;332;332;332;332;0.76;0.76;0.76;0.76;0.76;0.76;0.76;0.76;0.76;156
2021-12-8 13:32:49;4.06;28;30.00;52;32.30;11;74.7;0.021;11.0821;7.561;11.306;7.670;105;105;105;105;105;105;105;105;105;105;305;306;306;305;306;306;305;306;306;306;332;332;332;332;332;332;332;332;332;332;0.76;0.76;0.76;0.76;0.76;0.76;0.76;0.76;0.76;156
2021-12-8 14:2:47;4.05;40;29.30;55;31.40;11;74.7;0.021;11.0811;7.560;11.303;7.678;110;111;112;113;127;131;131;131;130;130;306;306;306;306;306;306;306;306;306;306;332;332;332;332;332;332;332;332;332;332;0.76;0.76;0.76;0.76;0.76;0.76;0.76;0.76;0.76;156
2021-12-8 14:32:49;4.04;44;28.20;66;30.70;11;74.7;0.021;11.0811;7.560;11.303;7.678;105;105;105;105;105;105;105;105;105;105;305;305;305;306;305;305;306;306;305;306;332;332;332;332;332;332;332;332;332;332;0.76;0.76;0.76;0.76;0.76;0.76;0.76;0.76;0.76;156
2021-12-8 15:2:45;4.04;44;27.50;70;29.60;11;74.7;0.021;11.0801;7.560;11.299;7.687;107;107;107;107;107;107;107;107;107;107;305;306;306;305;306;306;305;306;305;305;332;332;331;332;332;331;332;332;332;332;0.76;0.76;0.76;0.76;0.76;0.76;0.76;0.76;0.76;156
2021-12-8 15:32:44;4.04;43;27.10;69;28.70;11;74.7;0.021;11.0791;7.559;11.296;7.695;103;103;103;103;103;103;103;103;103;103;305;305;305;305;306;306;305;305;305;305;332;332;332;331;332;332;332;331;332;332;0.76;0.76;0.76;0.76;0.76;0.76;0.76;0.76;0.76;156
2021-12-8 16:2:43;4.03;45;26.60;68;28.40;11;74.7;0.021;11.0771;7.558;11.293;7.704;103;103;103;104;104;103;103;103;103;103;305;306;305;305;305;305;305;305;305;305;332;332;332;332;331;332;332;332;332;331;0.76;0.76;0.76;0.76;0.76;0.76;0.76;0.76;0.76;156
2021-12-8 16:32:46;4.02;46;25.90;70;27.90;11;74.3;0.021;11.1761;7.428;11.391;7.580;103;103;103;103;103;103;103;103;103;103;305;305;305;305;305;305;305;306;305;306;332;332;332;331;332;331;332;332;331;331;0.76;0.76;0.76;0.76;0.76;0.76;0.76;0.76;0.76;156
2021-12-8 17:2:43;4.02;44;25.80;71;27.20;11;74.3;0.020;11.3231;7.369;11.539;7.529;104;103;104;104;104;104;104;104;103;104;305;305;305;305;305;306;305;305;306;305;332;332;332;332;332;332;332;331;332;332;0.76;0.76;0.76;0.76;0.76;0.76;0.76;0.76;0.76;156
2021-12-8 17:32:45;4.01;51;24.60;69;26.90;11;73.9;0.021;11.0511;7.544;11.259;7.716;113;113;113;113;113;113;113;113;113;113;305;305;305;305;305;305;306;305;305;305;331;331;332;332;331;331;332;331;331;331;0.76;0.76;0.76;0.76;0.76;0.76;0.76;0.76;0.76;156
2021-12-8 18:2:41;4.01;56;24.00;75;25.80;11;73.9;0.021;11.0481;7.542;11.252;7.733;123;123;123;123;123;123;123;123;120;120;305;305;305;305;305;306;305;305;305;305;331;331;331;332;331;332;331;332;331;331;0.76;0.76;0.76;0.76;0.76;0.76;0.76;0.76;0.76;156
2021-12-8 18:32:42;4.01;58;23.80;78;25.20;11;73.4;0.021;11.1471;7.412;11.351;7.609;98;98;98;98;98;98;98;98;98;98;305;305;305;305;305;306;305;305;305;305;332;331;331;332;332;331;331;332;331;332;0.76;0.76;0.76;0.76;0.76;0.76;0.76;0.76;0.76;156
2021-12-8 19:2:41;4.00;54;24.10;79;24.90;11;73.4;0.021;11.1461;7.411;11.347;7.617;89;89;89;89;89;89;89;89;89;89;305;305;305;305;305;305;305;305;305;306;332;332;331;332;331;331;331;331;332;331;0.76;0.76;0.76;0.76;0.76;0.76;0.76;0.76;0.76;156
2021-12-8 19:32:41;4.00;59;23.50;76;25.30;11;73.0;0.021;10.870;128;128;127;128;128;128;129;130;130;129;305;305;305;305;305;305;305;305;305;305;332;332;331;332;332;332;332;331;331;331;0.76;0.76;0.76;0.76;0.76;0.76;0.76;0.76;0.76;156
2021-12-8 20:2:41;4.00;62;23.10;80;24.70;11;73.0;0.021;10.971;93;93;93;93;93;93;93;93;93;93;305;306;305;305;305;305;305;305;305;305;331;332;332;331;331;332;331;331;332;331;0.76;0.76;0.76;0.76;0.76;0.76;0.76;0.76;0.76;156
2021-12-8 20:32:40;3.99;59;23.30;81;24.30;11;73.0;0.021;10.970;96;96;96;96;96;96;96;96;96;96;305;305;305;305;305;306;305;305;305;305;332;332;331;331;331;332;331;331;331;331;0.76;0.76;0.76;0.76;0.76;0.76;0.76;0.76;0.76;156
2021-12-8 21:2:43;3.99;60;23.40;79;24.40;11;73.0;0.021;10.968;98;97;97;98;97;98;98;97;97;97;305;305;305;305;305;305;305;305;306;305;332;331;331;331;332;331;331;331;332;332;0.76;0.76;0.76;0.76;0.76;0.76;0.76;0.76;0.76;156
2021-12-8 21:32:42;3.99;65;22.70;80;24.50;11;72.6;0.021;10.9671;7.453;11.156;7.705;122;122;122;122;122;122;122;122;121;122;305;305;305;305;305;305;305;305;305;305;332;332;331;332;331;331;332;332;331;332;0.76;0.76;0.76;0.76;0.76;0.76;0.76;0.76;0.76;156
2021-12-8 22:2:41;3.99;69;22.30;82;23.80;11;72.6;0.020;11.2131;7.267;11.403;7.522;88;87;88;88;88;88;88;88;88;88;305;305;305;305;305;305;305;305;305;306;331;332;332;331;331;332;331;332;332;331;0.76;0.76;0.76;0.76;0.76;0.76;0.76;0.76;0.76;156
2021-12-8 22:32:39;3.99;62;22.80;84;23.40;11;72.6;0.021;10.9421;7.440;11.126;7.709;88;88;88;88;88;88;88;88;88;88;305;305;305;305;305;305;305;305;305;305;332;332;331;331;331;331;331;332;331;332;0.76;0.76;0.76;0.76;0.76;0.76;0.76;0.76;0.76;156
2021-12-8 23:2:42;3.99;66;22.20;81;23.90;11;72.3;0.021;10.9411;7.439;11.123;7.717;86;86;86;86;86;86;86;86;86;86;305;305;305;305;305;305;305;305;305;305;332;332;332;332;332;331;331;331;332;332;0.76;0.76;0.76;0.76;0.76;0.76;0.76;0.76;0.76;156
2021-12-8 23:32:40;3.98;72;21.80;83;23.30;11;72.3;0.021;10.940;86;86;86;86;86;85;86;86;85;85;305;305;305;305;305;305;305;305;305;305;331;332;332;331;332;331;331;331;331;331;0.76;0.76;0.76;0.76;0.76;0.76;0.76;0.76;0.76;156
