2021-04-29 00:03:41;1;127;128;127;128;128;127;127;127;127;127;
2021-04-29 00:03:41;2;131;131;131;131;131;131;131;131;131;131;
2021-04-29 00:03:41;3;195;195;195;195;195;195;195;195;195;195;
2021-04-29 00:03:41;4;132;132;132;132;132;132;132;132;132;132;
2021-04-29 00:03:41;5;112;113;112;112;113;113;112;113;112;112;
2021-04-29 00:03:41;ht;99;10.30
2021-04-29 00:03:41;v;4.12
2021-04-29 00:33:43;1;128;127;128;127;128;128;128;127;128;127;
2021-04-29 00:33:43;2;86;86;86;86;86;86;86;86;86;86;
2021-04-29 00:33:43;3;194;194;195;195;195;194;195;195;195;195;
2021-04-29 00:33:43;4;107;107;107;107;107;107;107;107;107;107;
2021-04-29 00:33:43;5;120;120;121;120;121;120;120;121;120;120;
2021-04-29 00:33:43;ht;99;10.30
2021-04-29 00:33:43;v;4.12
2021-04-29 01:03:44;1;125;125;125;125;125;125;125;125;125;125;
2021-04-29 01:03:44;2;112;112;112;112;112;112;112;112;112;112;
2021-04-29 01:03:44;3;194;194;194;194;194;194;194;194;194;194;
2021-04-29 01:03:44;4;121;121;121;120;121;121;121;121;120;121;
2021-04-29 01:03:44;5;129;129;129;129;129;129;129;129;129;129;
2021-04-29 01:03:44;ht;99;11.60
2021-04-29 01:03:44;v;4.12
2021-04-29 01:33:41;1;127;127;127;127;127;127;127;127;127;127;
2021-04-29 01:33:41;2;1;1;1;1;1;1;1;1;1;1;
2021-04-29 01:33:41;3;194;194;194;194;194;194;194;194;194;194;
2021-04-29 01:33:41;4;117;117;117;117;116;117;117;117;116;117;
2021-04-29 01:33:41;5;109;109;109;109;109;109;109;109;109;109;
2021-04-29 01:33:41;ht;99;10.40
2021-04-29 01:33:41;v;4.12
2021-04-29 02:03:43;1;127;127;127;127;127;127;127;127;127;127;
2021-04-29 02:03:43;2;116;116;116;116;116;116;116;116;116;116;
2021-04-29 02:03:43;3;194;194;194;194;194;194;194;194;194;194;
2021-04-29 02:03:43;4;118;118;118;118;118;117;117;118;117;118;
2021-04-29 02:03:43;5;123;123;123;124;123;123;123;123;123;123;
2021-04-29 02:03:43;ht;99;9.80
2021-04-29 02:03:43;v;4.12
2021-04-29 02:33:44;1;124;124;124;124;124;124;124;124;124;124;
2021-04-29 02:33:44;2;121;121;121;121;121;121;121;121;121;121;
2021-04-29 02:33:44;3;188;188;188;188;188;188;188;188;188;188;
2021-04-29 02:33:44;4;118;118;118;118;118;117;118;117;118;118;
2021-04-29 02:33:44;5;108;108;108;108;109;109;108;109;109;108;
2021-04-29 02:33:44;ht;99;9.70
2021-04-29 02:33:44;v;4.12
2021-04-29 03:03:41;1;107;107;107;107;107;107;107;107;107;107;
2021-04-29 03:03:41;2;124;124;124;124;124;124;124;123;124;124;
2021-04-29 03:03:41;3;189;189;189;189;189;189;189;189;189;189;
2021-04-29 03:03:41;4;128;128;128;128;128;128;128;128;128;128;
2021-04-29 03:03:41;5;118;118;118;118;118;118;118;118;119;119;
2021-04-29 03:03:41;ht;99;9.10
2021-04-29 03:03:41;v;4.12
2021-04-29 03:33:42;1;126;126;126;126;126;126;126;126;126;126;
2021-04-29 03:33:42;2;89;89;89;89;89;89;89;89;89;89;
2021-04-29 03:33:42;3;192;192;191;191;192;191;192;192;192;192;
2021-04-29 03:33:42;4;98;98;98;98;98;98;98;98;98;98;
2021-04-29 03:33:42;5;119;119;119;119;119;119;119;119;118;118;
2021-04-29 03:33:42;ht;99;10.30
2021-04-29 03:33:42;v;4.12
2021-04-29 04:03:43;1;123;123;123;123;123;123;123;123;123;123;
2021-04-29 04:03:43;2;89;89;89;89;89;89;89;89;89;89;
2021-04-29 04:03:43;3;194;194;194;194;194;194;194;194;194;194;
2021-04-29 04:03:43;4;118;118;118;118;118;118;118;118;118;118;
2021-04-29 04:03:43;5;105;105;105;105;105;105;105;105;105;105;
2021-04-29 04:03:43;ht;99;10.40
2021-04-29 04:03:43;v;4.12
2021-04-29 04:33:44;1;120;120;120;120;120;120;120;120;120;120;
2021-04-29 04:33:44;2;90;90;90;90;90;90;90;90;90;90;
2021-04-29 04:33:44;3;193;193;193;193;192;193;193;193;192;193;
2021-04-29 04:33:44;4;120;119;120;120;119;120;120;120;120;119;
2021-04-29 04:33:44;5;111;112;112;112;112;111;112;111;112;111;
2021-04-29 04:33:44;ht;99;11.00
2021-04-29 04:33:44;v;4.12
2021-04-29 05:03:42;1;120;120;120;120;120;120;120;120;120;120;
2021-04-29 05:03:42;2;91;91;91;91;91;91;91;91;91;91;
2021-04-29 05:03:42;3;195;195;195;195;195;195;195;195;195;195;
2021-04-29 05:03:42;4;95;95;95;95;94;94;95;95;95;95;
2021-04-29 05:03:42;5;111;111;111;111;111;110;110;111;110;111;
2021-04-29 05:03:42;ht;99;10.60
2021-04-29 05:03:42;v;4.12
2021-04-29 05:33:43;1;117;117;117;117;117;117;117;117;117;117;
2021-04-29 05:33:43;2;1;1;1;1;1;1;1;1;1;1;
2021-04-29 05:33:43;3;191;191;191;191;191;191;191;191;191;191;
2021-04-29 05:33:43;4;123;123;123;123;123;123;123;123;123;123;
2021-04-29 05:33:43;5;94;94;94;94;94;94;94;94;94;94;
2021-04-29 05:33:43;ht;99;9.00
2021-04-29 05:33:43;v;4.11
2021-04-29 06:03:40;1;114;114;114;114;114;114;114;114;114;114;
2021-04-29 06:03:40;2;127;127;127;127;127;127;127;127;127;127;
2021-04-29 06:03:40;3;192;192;192;193;193;193;193;193;193;193;
2021-04-29 06:03:40;4;107;106;106;106;107;106;106;106;106;106;
2021-04-29 06:03:40;5;97;97;97;97;97;97;97;97;97;97;
2021-04-29 06:03:40;ht;99;9.20
2021-04-29 06:03:40;v;4.12
2021-04-29 06:33:41;1;127;127;127;127;127;127;127;127;127;127;
2021-04-29 06:33:41;2;102;101;102;101;101;102;101;101;101;102;
2021-04-29 06:33:41;3;190;190;190;190;190;190;190;190;190;190;
2021-04-29 06:33:41;4;114;114;114;114;114;114;114;114;114;114;
2021-04-29 06:33:41;5;108;108;108;108;108;108;108;108;108;108;
2021-04-29 06:33:41;ht;99;9.10
2021-04-29 06:33:41;v;4.12
2021-04-29 07:03:42;1;114;114;114;113;114;113;113;114;113;113;
2021-04-29 07:03:42;2;95;95;95;95;95;95;95;95;95;95;
2021-04-29 07:03:42;3;194;193;194;193;194;194;193;194;194;194;
2021-04-29 07:03:42;4;117;117;117;117;117;117;117;117;117;116;
2021-04-29 07:03:42;5;113;113;113;113;113;113;113;113;113;113;
2021-04-29 07:03:42;ht;99;9.00
2021-04-29 07:03:42;v;4.11
2021-04-29 07:33:43;1;118;118;118;118;118;118;118;118;118;118;
2021-04-29 07:33:43;2;88;89;89;89;89;89;88;89;89;89;
2021-04-29 07:33:43;3;191;191;191;191;191;191;191;191;191;191;
2021-04-29 07:33:43;4;128;128;129;128;129;128;128;128;129;129;
2021-04-29 07:33:43;5;106;106;106;106;106;106;106;107;106;106;
2021-04-29 07:33:43;ht;99;7.70
2021-04-29 07:33:43;v;4.11
2021-04-29 08:03:43;1;121;121;121;121;121;121;121;121;122;121;
2021-04-29 08:03:43;2;114;114;114;114;114;113;114;114;114;113;
2021-04-29 08:03:43;3;192;192;192;192;192;192;192;192;192;192;
2021-04-29 08:03:43;4;120;120;120;120;120;120;120;120;120;120;
2021-04-29 08:03:43;5;125;125;124;124;124;125;125;124;124;125;
2021-04-29 08:03:43;ht;99;9.00
2021-04-29 08:03:43;v;4.11
2021-04-29 08:33:44;1;128;128;128;128;128;128;128;128;128;128;
2021-04-29 08:33:44;2;2;2;1;1;2;1;2;2;1;1;
2021-04-29 08:33:44;3;200;200;200;200;200;200;200;200;200;200;
2021-04-29 08:33:44;4;105;105;105;105;105;105;105;105;105;105;
2021-04-29 08:33:44;5;107;107;107;107;107;107;107;107;107;107;
2021-04-29 08:33:44;ht;99;12.40
2021-04-29 08:33:44;v;4.12
2021-04-29 09:03:42;1;122;121;121;121;121;121;121;121;121;121;
2021-04-29 09:03:42;2;91;91;91;91;91;91;91;91;91;91;
2021-04-29 09:03:42;3;202;202;203;202;202;202;203;203;203;203;
2021-04-29 09:03:42;4;1;2;2;2;2;1;1;2;2;2;
2021-04-29 09:03:42;5;105;105;105;105;105;105;105;105;105;105;
2021-04-29 09:03:42;ht;99;15.30
2021-04-29 09:03:42;v;4.12
2021-04-29 09:33:46;1;118;118;118;118;118;118;118;118;118;118;
2021-04-29 09:33:46;2;86;86;86;86;87;86;86;86;86;86;
2021-04-29 09:33:46;3;206;206;206;206;205;206;206;205;206;206;
2021-04-29 09:33:46;4;86;86;86;86;87;86;86;86;86;86;
2021-04-29 09:33:46;5;104;105;105;105;105;105;104;104;104;104;
2021-04-29 09:33:46;ht;99;16.90
2021-04-29 09:33:46;v;4.13
2021-04-29 10:03:48;1;120;120;120;120;120;120;120;120;120;120;
2021-04-29 10:03:48;2;94;94;93;94;94;93;93;93;94;94;
2021-04-29 10:03:48;3;207;207;207;207;207;207;207;207;207;207;
2021-04-29 10:03:48;4;87;87;87;87;87;87;87;87;87;87;
2021-04-29 10:03:48;5;98;98;98;98;98;98;98;98;98;98;
2021-04-29 10:03:48;ht;99;18.70
2021-04-29 10:03:48;v;4.13
2021-04-29 10:33:47;1;118;118;118;118;119;118;118;118;118;118;
2021-04-29 10:33:47;2;111;111;111;111;111;111;111;111;111;111;
2021-04-29 10:33:47;3;209;209;209;209;209;209;209;209;209;209;
2021-04-29 10:33:47;4;89;89;89;89;88;88;89;89;88;88;
2021-04-29 10:33:47;5;105;105;105;105;105;105;105;105;105;105;
2021-04-29 10:33:47;ht;99;20.00
2021-04-29 10:33:47;v;4.13
2021-04-29 11:03:52;1;114;114;114;114;114;114;114;114;114;114;
2021-04-29 11:03:52;2;88;88;87;88;88;87;87;87;87;87;
2021-04-29 11:03:52;3;211;211;211;211;211;211;211;211;211;211;
2021-04-29 11:03:52;4;87;87;87;87;87;87;87;87;87;87;
2021-04-29 11:03:52;5;108;108;108;108;108;108;108;107;108;108;
2021-04-29 11:03:52;ht;99;21.00
2021-04-29 11:03:52;v;4.13
2021-04-29 11:33:49;1;120;120;120;120;120;120;120;120;120;120;
2021-04-29 11:33:49;2;89;90;89;90;89;90;90;90;89;89;
2021-04-29 11:33:49;3;212;212;212;212;212;212;213;212;212;212;
2021-04-29 11:33:49;4;2;2;2;2;2;2;2;1;2;1;
2021-04-29 11:33:49;5;107;107;107;107;107;106;106;106;106;106;
2021-04-29 11:33:49;ht;99;21.20
2021-04-29 11:33:49;v;4.13
2021-04-29 12:03:52;1;122;122;122;122;122;122;122;122;122;122;
2021-04-29 12:03:52;2;89;89;89;89;89;90;89;89;89;89;
2021-04-29 12:03:52;3;213;213;213;213;213;214;214;213;214;213;
2021-04-29 12:03:52;4;105;105;106;107;108;109;110;111;111;112;
2021-04-29 12:03:52;5;106;106;106;106;106;105;106;105;105;105;
2021-04-29 12:03:52;ht;99;22.60
2021-04-29 12:03:52;v;4.13
2021-04-29 12:33:50;1;125;125;124;125;124;125;124;125;125;125;
2021-04-29 12:33:50;2;89;89;89;89;89;89;88;88;88;88;
2021-04-29 12:33:50;3;213;213;213;213;213;213;213;213;213;213;
2021-04-29 12:33:50;4;89;89;89;89;89;89;89;89;89;89;
2021-04-29 12:33:50;5;112;112;112;112;112;112;112;112;112;112;
2021-04-29 12:33:50;ht;99;22.80
2021-04-29 12:33:50;v;4.13
2021-04-29 13:03:55;1;112;112;112;112;112;112;112;112;112;112;
2021-04-29 13:03:55;2;88;87;87;87;87;87;87;87;87;87;
2021-04-29 13:03:55;3;213;213;213;213;213;213;213;213;214;214;
2021-04-29 13:03:55;4;94;93;94;93;93;94;93;93;93;94;
2021-04-29 13:03:55;5;118;118;118;118;118;118;118;118;118;118;
2021-04-29 13:03:55;ht;99;23.50
2021-04-29 13:03:55;v;4.14
2021-04-29 13:33:55;1;116;116;116;116;116;116;116;116;116;116;
2021-04-29 13:33:55;2;93;93;93;93;93;93;93;93;93;93;
2021-04-29 13:33:55;3;214;214;214;214;214;214;214;214;214;214;
2021-04-29 13:33:55;4;88;88;88;88;88;88;88;88;88;88;
2021-04-29 13:33:55;5;104;104;103;103;103;103;103;104;103;103;
2021-04-29 13:33:55;ht;96;23.30
2021-04-29 13:33:55;v;4.14
2021-04-29 14:03:55;1;114;114;114;114;114;114;114;114;114;114;
2021-04-29 14:03:55;2;90;91;90;91;90;90;90;91;90;90;
2021-04-29 14:03:55;3;215;215;215;215;215;215;215;215;215;215;
2021-04-29 14:03:55;4;91;91;91;91;91;91;91;91;91;91;
2021-04-29 14:03:55;5;107;107;106;106;106;106;106;106;106;106;
2021-04-29 14:03:55;ht;96;24.20
2021-04-29 14:03:55;v;4.13
2021-04-29 14:33:55;1;116;116;116;116;116;116;116;116;116;116;
2021-04-29 14:33:55;2;91;91;91;91;92;91;92;92;92;92;
2021-04-29 14:33:55;3;215;215;215;215;215;215;215;215;215;215;
2021-04-29 14:33:55;4;113;112;113;112;113;113;112;112;113;112;
2021-04-29 14:33:55;5;110;109;110;109;109;110;110;110;110;110;
2021-04-29 14:33:55;ht;94;23.40
2021-04-29 14:33:55;v;4.14
2021-04-29 15:03:51;1;115;115;115;115;115;115;115;115;115;115;
2021-04-29 15:03:51;2;82;82;82;82;82;82;82;82;82;82;
2021-04-29 15:03:51;3;211;211;212;211;212;212;212;211;211;212;
2021-04-29 15:03:51;4;1;2;2;2;2;2;2;1;1;2;
2021-04-29 15:03:51;5;96;96;96;97;97;97;97;97;97;97;
2021-04-29 15:03:51;ht;92;23.90
2021-04-29 15:03:51;v;4.14
2021-04-29 15:33:56;1;119;119;119;119;119;119;119;119;119;119;
2021-04-29 15:33:56;2;83;83;83;84;83;83;83;83;83;83;
2021-04-29 15:33:56;3;210;210;210;210;210;210;210;210;210;210;
2021-04-29 15:33:56;4;119;119;119;119;119;119;119;119;119;119;
2021-04-29 15:33:56;5;118;118;118;118;118;118;118;117;117;118;
2021-04-29 15:33:56;ht;91;24.30
2021-04-29 15:33:56;v;4.14
2021-04-29 16:03:52;1;112;112;112;112;112;112;112;112;111;111;
2021-04-29 16:03:52;2;90;90;90;90;90;90;90;90;90;90;
2021-04-29 16:03:52;3;213;213;213;213;213;213;213;213;213;213;
2021-04-29 16:03:52;4;114;114;114;114;114;114;114;114;114;114;
2021-04-29 16:03:52;5;1;2;1;1;2;1;1;2;1;1;
2021-04-29 16:03:52;ht;90;24.10
2021-04-29 16:03:52;v;4.14
2021-04-29 16:33:52;1;118;118;118;118;118;118;118;118;118;118;
2021-04-29 16:33:52;2;87;87;87;87;87;87;87;87;87;87;
2021-04-29 16:33:52;3;214;214;214;214;214;214;214;214;214;214;
2021-04-29 16:33:52;4;115;116;115;116;116;116;116;116;116;116;
2021-04-29 16:33:52;5;109;109;109;109;108;109;109;109;109;109;
2021-04-29 16:33:52;ht;91;23.80
2021-04-29 16:33:52;v;4.14
2021-04-29 17:03:52;1;118;118;118;118;119;118;118;119;118;118;
2021-04-29 17:03:52;2;86;85;85;85;86;85;85;86;86;86;
2021-04-29 17:03:52;3;213;213;213;213;213;213;213;213;213;213;
2021-04-29 17:03:52;4;130;130;130;130;130;130;130;130;130;130;
2021-04-29 17:03:52;5;100;100;100;100;100;100;100;100;100;100;
2021-04-29 17:03:52;ht;91;23.20
2021-04-29 17:03:52;v;4.14
2021-04-29 17:33:51;1;115;115;115;115;115;115;115;115;115;115;
2021-04-29 17:33:51;2;136;135;135;136;136;135;136;136;135;135;
2021-04-29 17:33:51;3;212;212;212;212;212;212;212;212;212;212;
2021-04-29 17:33:51;4;101;101;101;100;101;101;101;101;101;101;
2021-04-29 17:33:51;5;99;99;99;99;99;99;99;99;99;99;
2021-04-29 17:33:51;ht;94;22.30
2021-04-29 17:33:51;v;4.14
2021-04-29 18:03:49;1;119;119;119;119;119;119;119;119;119;119;
2021-04-29 18:03:49;2;89;89;89;89;89;89;89;88;89;89;
2021-04-29 18:03:49;3;209;209;209;209;209;209;209;209;209;209;
2021-04-29 18:03:49;4;111;111;111;111;111;111;111;111;111;111;
2021-04-29 18:03:49;5;2;2;2;2;2;2;1;1;2;1;
2021-04-29 18:03:49;ht;99;20.30
2021-04-29 18:03:49;v;4.14
2021-04-29 18:33:49;1;122;122;122;122;122;122;122;122;122;122;
2021-04-29 18:33:49;2;95;95;95;95;95;95;95;95;95;95;
2021-04-29 18:33:49;3;203;203;203;203;203;203;203;203;203;203;
2021-04-29 18:33:49;4;116;115;116;115;115;115;115;116;116;116;
2021-04-29 18:33:49;5;97;97;97;97;97;97;97;97;97;97;
2021-04-29 18:33:49;ht;99;16.40
2021-04-29 18:33:49;v;4.14
2021-04-29 19:03:47;1;112;112;112;112;112;112;112;112;112;112;
2021-04-29 19:03:47;2;129;129;129;129;129;129;129;129;129;129;
2021-04-29 19:03:47;3;197;197;197;197;197;197;197;197;197;197;
2021-04-29 19:03:47;4;117;116;117;117;116;116;116;117;117;116;
2021-04-29 19:03:47;5;96;96;96;96;96;96;96;96;96;96;
2021-04-29 19:03:47;ht;99;14.70
2021-04-29 19:03:47;v;4.13
2021-04-29 19:33:46;1;108;108;108;108;108;108;108;107;108;108;
2021-04-29 19:33:46;2;86;86;85;85;85;85;85;85;85;85;
2021-04-29 19:33:46;3;195;195;195;195;195;195;195;195;195;195;
2021-04-29 19:33:46;4;117;117;117;117;117;117;117;117;117;116;
2021-04-29 19:33:46;5;109;109;109;109;109;109;109;109;109;109;
2021-04-29 19:33:46;ht;99;14.20
2021-04-29 19:33:46;v;4.13
2021-04-29 20:03:45;1;126;126;126;126;126;126;126;126;126;126;
2021-04-29 20:03:45;2;93;93;93;93;93;93;93;93;93;93;
2021-04-29 20:03:45;3;196;195;196;196;196;196;196;196;196;196;
2021-04-29 20:03:45;4;117;117;117;117;117;117;117;117;117;117;
2021-04-29 20:03:45;5;94;94;94;94;94;94;94;94;94;94;
2021-04-29 20:03:45;ht;99;13.10
2021-04-29 20:03:45;v;4.13
2021-04-29 20:33:44;1;123;123;123;123;123;123;123;123;123;123;
2021-04-29 20:33:44;2;140;140;140;140;140;140;140;140;140;140;
2021-04-29 20:33:44;3;195;195;195;195;195;195;195;195;195;195;
2021-04-29 20:33:44;4;116;116;116;116;116;116;117;117;117;117;
2021-04-29 20:33:44;5;105;105;105;105;105;105;105;105;105;105;
2021-04-29 20:33:44;ht;99;12.60
2021-04-29 20:33:44;v;4.13
2021-04-29 21:03:42;1;113;114;113;113;113;113;113;113;113;113;
2021-04-29 21:03:42;2;101;101;101;101;101;100;100;101;101;101;
2021-04-29 21:03:42;3;195;195;195;195;195;195;195;195;195;195;
2021-04-29 21:03:42;4;93;93;93;93;93;93;93;93;93;93;
2021-04-29 21:03:42;5;100;100;100;100;100;100;101;101;101;101;
2021-04-29 21:03:42;ht;99;12.40
2021-04-29 21:03:42;v;4.13
2021-04-29 21:33:45;1;127;127;127;127;127;127;127;127;127;127;
2021-04-29 21:33:45;2;109;109;109;109;109;109;109;108;109;109;
2021-04-29 21:33:45;3;193;193;193;193;193;193;193;193;193;193;
2021-04-29 21:33:45;4;126;126;126;125;126;126;126;126;126;126;
2021-04-29 21:33:45;5;113;112;112;112;113;112;113;113;113;112;
2021-04-29 21:33:45;ht;99;11.90
2021-04-29 21:33:45;v;4.13
2021-04-29 22:03:43;1;125;125;125;125;125;125;125;125;125;125;
2021-04-29 22:03:43;2;1;2;1;1;1;1;1;2;2;1;
2021-04-29 22:03:43;3;193;193;193;193;193;193;193;193;194;193;
2021-04-29 22:03:43;4;115;115;115;115;114;115;115;115;115;115;
2021-04-29 22:03:43;5;96;96;96;96;96;96;96;96;96;96;
2021-04-29 22:03:43;ht;99;11.30
2021-04-29 22:03:43;v;4.13
2021-04-29 22:33:45;1;118;118;118;118;118;118;118;118;118;118;
2021-04-29 22:33:45;2;1;1;1;2;1;2;1;1;1;1;
2021-04-29 22:33:45;3;192;193;192;193;193;193;193;192;193;193;
2021-04-29 22:33:45;4;116;116;116;115;116;115;116;115;116;115;
2021-04-29 22:33:45;5;98;98;98;98;98;98;98;98;98;98;
2021-04-29 22:33:45;ht;99;11.00
2021-04-29 22:33:45;v;4.12
2021-04-29 23:03:42;1;120;120;120;120;120;120;120;120;120;120;
2021-04-29 23:03:42;2;109;110;110;110;110;110;110;110;110;111;
2021-04-29 23:03:42;3;192;192;192;192;192;192;192;192;192;192;
2021-04-29 23:03:42;4;113;113;113;113;113;113;113;113;113;113;
2021-04-29 23:03:42;5;97;97;97;97;97;97;97;97;97;97;
2021-04-29 23:03:42;ht;99;10.30
2021-04-29 23:03:42;v;4.13
2021-04-29 23:33:44;1;123;123;123;123;123;123;123;123;123;123;
2021-04-29 23:33:44;2;123;123;123;123;123;123;123;123;123;123;
2021-04-29 23:33:44;3;193;193;193;193;193;193;193;193;193;193;
2021-04-29 23:33:44;4;148;149;149;149;149;149;148;148;148;149;
2021-04-29 23:33:44;5;108;108;107;107;107;108;107;107;107;107;
2021-04-29 23:33:44;ht;99;10.30
2021-04-29 23:33:44;v;4.12
