2021-05-12 00:03:40;1;100;99;99;99;99;99;99;99;99;100;
2021-05-12 00:03:40;2;1;1;1;1;1;1;1;2;1;1;
2021-05-12 00:03:40;3;147;147;147;147;147;147;147;147;147;147;
2021-05-12 00:03:40;4;121;121;121;121;121;121;121;121;121;121;
2021-05-12 00:03:40;5;105;105;105;105;105;105;105;105;105;105;
2021-05-12 00:03:40;ht;99;4.90
2021-05-12 00:03:40;v;4.11
2021-05-12 00:33:38;1;119;119;119;120;119;120;119;120;120;119;
2021-05-12 00:33:38;2;1;1;1;1;1;1;1;1;1;1;
2021-05-12 00:33:38;3;145;145;145;145;145;145;145;145;145;145;
2021-05-12 00:33:38;4;124;124;124;124;124;124;124;124;124;124;
2021-05-12 00:33:38;5;105;105;105;105;105;105;104;105;105;105;
2021-05-12 00:33:38;ht;99;3.70
2021-05-12 00:33:38;v;4.11
2021-05-12 01:03:41;1;120;120;120;120;120;120;120;120;120;120;
2021-05-12 01:03:41;2;1;1;1;1;1;1;1;1;1;1;
2021-05-12 01:03:41;3;146;146;146;146;146;146;146;146;146;146;
2021-05-12 01:03:41;4;123;123;124;123;123;123;123;123;123;123;
2021-05-12 01:03:41;5;101;101;101;101;101;101;101;101;101;101;
2021-05-12 01:03:41;ht;99;2.90
2021-05-12 01:03:41;v;4.11
2021-05-12 01:33:39;1;126;126;126;126;126;126;126;126;126;126;
2021-05-12 01:33:39;2;1;1;1;1;1;1;1;1;1;1;
2021-05-12 01:33:39;3;146;146;146;146;146;146;146;146;146;146;
2021-05-12 01:33:39;4;125;125;124;125;125;125;125;125;125;125;
2021-05-12 01:33:39;5;104;104;104;104;104;104;104;104;104;104;
2021-05-12 01:33:39;ht;99;3.10
2021-05-12 01:33:39;v;4.10
2021-05-12 02:03:41;1;121;121;121;121;121;121;121;121;121;121;
2021-05-12 02:03:41;2;1;1;1;1;1;1;1;1;1;1;
2021-05-12 02:03:41;3;147;146;147;146;147;147;147;146;147;146;
2021-05-12 02:03:41;4;109;109;108;109;109;109;109;108;108;109;
2021-05-12 02:03:41;5;114;114;114;114;114;114;114;114;114;114;
2021-05-12 02:03:41;ht;99;2.70
2021-05-12 02:03:41;v;4.10
2021-05-12 02:33:39;1;125;125;125;125;125;125;125;125;125;125;
2021-05-12 02:33:39;2;1;1;2;1;1;1;1;1;2;1;
2021-05-12 02:33:39;3;145;145;145;145;145;145;145;145;145;145;
2021-05-12 02:33:39;4;116;116;116;117;116;116;116;116;116;117;
2021-05-12 02:33:39;5;104;103;103;103;103;103;103;103;103;103;
2021-05-12 02:33:39;ht;99;2.50
2021-05-12 02:33:39;v;4.10
2021-05-12 03:03:41;1;128;128;128;128;128;128;128;128;128;128;
2021-05-12 03:03:41;2;118;118;118;118;117;118;118;117;118;118;
2021-05-12 03:03:41;3;145;145;145;145;145;145;145;145;145;145;
2021-05-12 03:03:41;4;105;105;105;105;105;105;105;105;105;105;
2021-05-12 03:03:41;5;106;106;106;106;106;106;106;106;106;106;
2021-05-12 03:03:41;ht;99;2.80
2021-05-12 03:03:41;v;4.10
2021-05-12 03:33:38;1;119;119;119;119;119;120;119;119;119;119;
2021-05-12 03:33:38;2;122;122;122;122;123;122;122;123;123;123;
2021-05-12 03:33:38;3;146;146;146;146;146;146;146;146;146;146;
2021-05-12 03:33:38;4;121;122;122;122;122;122;121;122;121;122;
2021-05-12 03:33:38;5;111;111;111;112;111;111;111;111;111;111;
2021-05-12 03:33:38;ht;99;3.10
2021-05-12 03:33:38;v;4.10
2021-05-12 04:03:40;1;100;100;100;100;100;100;99;99;99;99;
2021-05-12 04:03:40;2;1;1;2;1;1;1;1;1;1;1;
2021-05-12 04:03:40;3;146;146;146;146;146;146;146;146;145;146;
2021-05-12 04:03:40;4;112;112;112;112;112;111;111;112;111;112;
2021-05-12 04:03:40;5;118;118;118;117;118;118;118;117;118;118;
2021-05-12 04:03:40;ht;99;2.50
2021-05-12 04:03:40;v;4.10
2021-05-12 04:33:37;1;120;120;120;120;120;120;120;120;120;120;
2021-05-12 04:33:37;2;1;1;1;2;1;1;1;1;1;1;
2021-05-12 04:33:37;3;145;145;145;145;145;145;145;145;146;146;
2021-05-12 04:33:37;4;121;122;122;122;121;121;122;122;121;121;
2021-05-12 04:33:37;5;105;105;105;105;105;105;105;105;105;105;
2021-05-12 04:33:37;ht;99;1.30
2021-05-12 04:33:37;v;4.10
2021-05-12 05:03:38;1;117;118;117;117;118;117;117;117;117;117;
2021-05-12 05:03:38;2;1;1;1;1;1;1;1;1;1;1;
2021-05-12 05:03:38;3;145;145;145;145;145;145;145;145;145;145;
2021-05-12 05:03:38;4;113;113;113;113;113;113;113;113;113;113;
2021-05-12 05:03:38;5;118;118;118;118;118;118;118;118;118;118;
2021-05-12 05:03:38;ht;99;2.70
2021-05-12 05:03:38;v;4.09
2021-05-12 05:33:40;1;99;99;99;99;99;99;99;99;99;99;
2021-05-12 05:33:40;2;1;1;2;1;2;2;1;1;1;1;
2021-05-12 05:33:40;3;146;146;146;146;146;146;146;146;146;146;
2021-05-12 05:33:40;4;124;124;124;124;124;124;124;124;123;124;
2021-05-12 05:33:40;5;106;106;106;106;106;106;106;106;106;106;
2021-05-12 05:33:40;ht;99;2.20
2021-05-12 05:33:40;v;4.10
2021-05-12 06:03:37;1;118;118;118;118;118;118;118;118;118;118;
2021-05-12 06:03:37;2;122;122;122;122;122;122;122;122;122;122;
2021-05-12 06:03:37;3;146;146;146;146;146;146;146;146;146;146;
2021-05-12 06:03:37;4;119;119;119;119;119;119;119;119;119;119;
2021-05-12 06:03:37;5;126;127;127;127;126;127;127;127;127;127;
2021-05-12 06:03:37;ht;99;1.70
2021-05-12 06:03:37;v;4.10
2021-05-12 06:33:38;1;102;102;102;102;102;102;102;102;102;102;
2021-05-12 06:33:38;2;1;1;2;1;1;1;1;2;1;1;
2021-05-12 06:33:38;3;147;147;147;147;147;147;147;147;147;147;
2021-05-12 06:33:38;4;114;114;114;114;114;114;114;114;114;114;
2021-05-12 06:33:38;5;115;115;115;115;115;115;115;115;115;115;
2021-05-12 06:33:38;ht;99;1.20
2021-05-12 06:33:38;v;4.09
2021-05-12 07:03:39;1;108;108;108;108;108;108;108;108;108;108;
2021-05-12 07:03:39;2;2;1;1;1;1;2;1;1;2;1;
2021-05-12 07:03:39;3;151;151;151;151;151;151;151;151;151;151;
2021-05-12 07:03:39;4;121;121;121;121;121;121;120;121;121;121;
2021-05-12 07:03:39;5;122;121;121;122;121;121;122;121;121;122;
2021-05-12 07:03:39;ht;99;0.80
2021-05-12 07:03:39;v;4.09
2021-05-12 07:33:36;1;127;127;127;127;127;127;127;127;127;127;
2021-05-12 07:33:36;2;31;35;39;44;49;54;58;62;66;69;
2021-05-12 07:33:36;3;157;157;157;157;157;157;157;157;157;157;
2021-05-12 07:33:36;4;105;105;105;105;105;105;105;105;105;105;
2021-05-12 07:33:36;5;129;129;129;129;129;129;129;129;129;129;
2021-05-12 07:33:36;ht;99;0.80
2021-05-12 07:33:36;v;4.09
2021-05-12 08:03:36;1;112;112;112;112;112;112;112;112;112;112;
2021-05-12 08:03:36;2;1;1;2;1;1;1;2;1;1;1;
2021-05-12 08:03:36;3;157;157;157;157;157;157;157;157;157;157;
2021-05-12 08:03:36;4;123;124;123;123;123;123;123;123;123;123;
2021-05-12 08:03:36;5;123;123;123;123;123;123;123;123;123;123;
2021-05-12 08:03:36;ht;99;1.50
2021-05-12 08:03:36;v;4.09
2021-05-12 08:33:38;1;112;111;112;111;111;111;111;111;111;111;
2021-05-12 08:33:38;2;100;100;100;100;100;100;100;100;100;100;
2021-05-12 08:33:38;3;168;168;168;168;168;168;168;168;168;168;
2021-05-12 08:33:38;4;122;122;123;123;122;122;122;122;122;122;
2021-05-12 08:33:38;5;117;117;117;117;117;117;117;117;117;117;
2021-05-12 08:33:38;ht;99;5.40
2021-05-12 08:33:38;v;4.09
2021-05-12 09:03:41;1;104;104;104;104;104;104;104;103;103;103;
2021-05-12 09:03:41;2;124;123;124;123;123;123;124;124;124;124;
2021-05-12 09:03:41;3;172;172;172;172;172;172;172;172;172;172;
2021-05-12 09:03:41;4;94;94;94;94;94;94;94;94;94;94;
2021-05-12 09:03:41;5;108;108;108;108;108;108;108;108;108;108;
2021-05-12 09:03:41;ht;99;8.80
2021-05-12 09:03:41;v;4.11
2021-05-12 09:33:42;1;97;97;97;97;97;97;97;97;97;97;
2021-05-12 09:33:42;2;93;93;93;93;93;93;93;93;93;93;
2021-05-12 09:33:42;3;185;185;185;185;185;185;185;185;185;185;
2021-05-12 09:33:42;4;115;115;116;115;115;116;115;116;115;115;
2021-05-12 09:33:42;5;109;109;109;109;109;109;109;109;109;109;
2021-05-12 09:33:42;ht;99;11.10
2021-05-12 09:33:42;v;4.11
2021-05-12 10:03:44;1;114;114;113;113;113;113;113;114;114;113;
2021-05-12 10:03:44;2;92;92;92;92;92;93;92;92;92;92;
2021-05-12 10:03:44;3;189;189;189;189;189;189;189;189;189;189;
2021-05-12 10:03:44;4;108;109;109;108;108;108;108;109;109;108;
2021-05-12 10:03:44;5;111;111;111;111;111;111;111;111;111;111;
2021-05-12 10:03:44;ht;99;13.40
2021-05-12 10:03:44;v;4.11
2021-05-12 10:33:45;1;95;95;95;95;95;95;95;95;95;95;
2021-05-12 10:33:45;2;95;95;95;95;95;95;95;95;95;95;
2021-05-12 10:33:45;3;198;198;198;198;198;198;198;198;198;198;
2021-05-12 10:33:45;4;117;117;117;117;117;117;117;117;117;117;
2021-05-12 10:33:45;5;112;112;112;112;112;112;112;112;112;112;
2021-05-12 10:33:45;ht;99;15.20
2021-05-12 10:33:45;v;4.12
2021-05-12 11:03:47;1;122;122;122;122;122;122;122;122;121;121;
2021-05-12 11:03:47;2;91;91;91;91;91;91;91;91;91;91;
2021-05-12 11:03:47;3;191;191;191;191;191;191;191;190;191;191;
2021-05-12 11:03:47;4;112;112;112;112;112;112;112;112;112;112;
2021-05-12 11:03:47;5;105;105;105;105;105;105;105;105;105;105;
2021-05-12 11:03:47;ht;98;16.90
2021-05-12 11:03:47;v;4.12
2021-05-12 11:33:50;1;113;113;112;112;112;113;112;112;113;113;
2021-05-12 11:33:50;2;90;90;90;90;90;90;90;90;90;90;
2021-05-12 11:33:50;3;190;190;190;190;190;190;190;190;190;190;
2021-05-12 11:33:50;4;115;115;115;115;115;115;115;115;115;115;
2021-05-12 11:33:50;5;107;107;107;107;107;107;107;107;107;107;
2021-05-12 11:33:50;ht;90;17.70
2021-05-12 11:33:50;v;4.13
2021-05-12 12:03:50;1;109;109;109;109;109;109;109;109;109;108;
2021-05-12 12:03:50;2;120;120;120;120;120;120;120;120;120;120;
2021-05-12 12:03:50;3;196;196;196;196;196;196;196;196;196;196;
2021-05-12 12:03:50;4;118;118;118;118;118;118;117;118;118;117;
2021-05-12 12:03:50;5;101;101;101;101;101;101;101;101;101;101;
2021-05-12 12:03:50;ht;89;19.00
2021-05-12 12:03:50;v;4.13
2021-05-12 12:33:51;1;105;106;106;106;105;106;105;105;105;105;
2021-05-12 12:33:51;2;88;88;88;89;88;89;88;89;88;88;
2021-05-12 12:33:51;3;197;196;197;196;196;197;197;197;197;197;
2021-05-12 12:33:51;4;119;119;119;119;119;119;119;119;119;119;
2021-05-12 12:33:51;5;104;103;103;104;104;103;104;104;104;103;
2021-05-12 12:33:51;ht;80;18.90
2021-05-12 12:33:51;v;4.13
2021-05-12 13:03:52;1;120;120;120;120;120;120;120;120;120;120;
2021-05-12 13:03:52;2;85;85;85;85;85;85;85;85;85;85;
2021-05-12 13:03:52;3;192;192;192;192;192;192;192;192;192;192;
2021-05-12 13:03:52;4;115;115;115;115;115;115;115;115;115;115;
2021-05-12 13:03:52;5;104;105;104;105;105;105;104;105;105;104;
2021-05-12 13:03:52;ht;90;19.30
2021-05-12 13:03:52;v;4.13
2021-05-12 13:33:49;1;100;101;102;103;104;105;106;107;108;109;
2021-05-12 13:33:49;2;110;110;110;110;111;111;110;111;111;110;
2021-05-12 13:33:49;3;195;195;195;195;195;195;195;195;195;195;
2021-05-12 13:33:49;4;100;100;100;100;100;101;101;100;100;101;
2021-05-12 13:33:49;5;117;117;117;117;117;117;117;117;117;117;
2021-05-12 13:33:49;ht;77;19.40
2021-05-12 13:33:49;v;4.13
2021-05-12 14:03:51;1;117;117;117;117;117;117;116;117;117;116;
2021-05-12 14:03:51;2;77;77;77;77;77;77;77;77;77;77;
2021-05-12 14:03:51;3;192;192;192;192;192;192;192;192;192;192;
2021-05-12 14:03:51;4;118;118;118;118;118;118;118;118;118;118;
2021-05-12 14:03:51;5;94;94;94;94;94;94;94;94;94;94;
2021-05-12 14:03:51;ht;77;20.20
2021-05-12 14:03:51;v;4.13
2021-05-12 14:33:53;1;112;112;112;112;112;112;112;112;112;112;
2021-05-12 14:33:53;2;80;80;80;80;80;80;80;80;80;80;
2021-05-12 14:33:53;3;192;192;192;192;192;192;192;192;192;192;
2021-05-12 14:33:53;4;123;123;123;123;123;123;123;123;123;123;
2021-05-12 14:33:53;5;107;107;107;107;107;107;107;107;107;107;
2021-05-12 14:33:53;ht;74;20.00
2021-05-12 14:33:53;v;4.13
2021-05-12 15:03:51;1;115;115;115;115;115;115;115;115;115;115;
2021-05-12 15:03:51;2;81;81;81;81;81;81;81;81;81;81;
2021-05-12 15:03:51;3;190;190;191;190;191;191;191;191;191;191;
2021-05-12 15:03:51;4;121;121;121;121;121;121;121;121;121;121;
2021-05-12 15:03:51;5;101;102;102;102;102;102;102;102;102;102;
2021-05-12 15:03:51;ht;69;20.20
2021-05-12 15:03:51;v;4.13
2021-05-12 15:33:53;1;121;121;121;121;121;121;121;121;121;121;
2021-05-12 15:33:53;2;116;115;115;116;116;115;115;116;116;116;
2021-05-12 15:33:53;3;195;195;195;195;195;195;195;195;195;195;
2021-05-12 15:33:53;4;111;110;111;111;111;110;110;111;110;110;
2021-05-12 15:33:53;5;110;110;110;110;110;110;111;110;110;110;
2021-05-12 15:33:53;ht;74;20.10
2021-05-12 15:33:53;v;4.13
2021-05-12 16:03:50;1;113;113;113;113;113;113;113;113;113;113;
2021-05-12 16:03:50;2;81;81;81;81;81;81;81;81;81;81;
2021-05-12 16:03:50;3;196;196;196;196;196;196;196;196;196;196;
2021-05-12 16:03:50;4;117;117;117;117;117;117;117;117;117;117;
2021-05-12 16:03:50;5;108;108;108;108;108;108;108;108;108;108;
2021-05-12 16:03:50;ht;69;19.90
2021-05-12 16:03:50;v;4.13
2021-05-12 16:33:52;1;103;103;103;102;103;102;102;102;102;102;
2021-05-12 16:33:52;2;86;86;86;86;86;86;86;86;86;86;
2021-05-12 16:33:52;3;190;191;191;191;191;191;191;191;191;191;
2021-05-12 16:33:52;4;118;118;118;118;118;118;118;118;118;118;
2021-05-12 16:33:52;5;102;102;102;102;102;102;102;102;102;102;
2021-05-12 16:33:52;ht;64;20.00
2021-05-12 16:33:52;v;4.13
2021-05-12 17:03:49;1;124;124;124;124;124;124;124;124;123;123;
2021-05-12 17:03:49;2;82;82;82;82;82;82;82;82;82;82;
2021-05-12 17:03:49;3;192;192;192;192;192;192;192;192;192;192;
2021-05-12 17:03:49;4;117;116;117;117;117;117;117;117;117;117;
2021-05-12 17:03:49;5;99;99;99;99;99;99;99;99;99;99;
2021-05-12 17:03:49;ht;69;19.50
2021-05-12 17:03:49;v;4.13
2021-05-12 17:33:50;1;120;120;120;120;120;120;120;120;121;120;
2021-05-12 17:33:50;2;86;86;86;86;86;86;86;86;86;86;
2021-05-12 17:33:50;3;189;189;189;189;189;189;189;189;189;189;
2021-05-12 17:33:50;4;113;113;113;113;113;113;113;113;113;113;
2021-05-12 17:33:50;5;109;109;109;109;109;109;110;109;109;109;
2021-05-12 17:33:50;ht;72;18.30
2021-05-12 17:33:50;v;4.13
2021-05-12 18:03:49;1;114;114;114;114;114;114;114;114;114;114;
2021-05-12 18:03:49;2;107;107;107;107;107;107;107;107;107;107;
2021-05-12 18:03:49;3;187;187;187;187;187;187;187;187;187;187;
2021-05-12 18:03:49;4;124;124;124;124;124;124;124;124;124;124;
2021-05-12 18:03:49;5;105;104;105;104;105;105;105;105;105;105;
2021-05-12 18:03:49;ht;84;15.40
2021-05-12 18:03:49;v;4.13
2021-05-12 18:33:46;1;121;121;121;121;121;121;121;121;121;121;
2021-05-12 18:33:46;2;111;111;111;111;111;111;111;111;111;111;
2021-05-12 18:33:46;3;186;186;186;186;186;186;186;186;186;186;
2021-05-12 18:33:46;4;105;105;105;105;105;105;105;105;105;106;
2021-05-12 18:33:46;5;108;108;108;108;108;108;108;107;108;108;
2021-05-12 18:33:46;ht;99;11.20
2021-05-12 18:33:46;v;4.13
2021-05-12 19:03:45;1;110;110;110;110;110;110;110;110;110;110;
2021-05-12 19:03:45;2;89;89;89;89;89;89;89;89;89;89;
2021-05-12 19:03:45;3;184;184;184;184;184;184;184;184;184;184;
2021-05-12 19:03:45;4;119;119;119;119;119;119;119;119;119;119;
2021-05-12 19:03:45;5;97;97;97;97;97;97;97;97;97;97;
2021-05-12 19:03:45;ht;99;10.20
2021-05-12 19:03:45;v;4.12
2021-05-12 19:33:42;1;114;114;113;114;113;113;114;113;113;113;
2021-05-12 19:33:42;2;1;1;1;1;1;1;1;1;2;1;
2021-05-12 19:33:42;3;185;185;185;185;185;185;185;185;185;185;
2021-05-12 19:33:42;4;126;127;126;126;127;126;126;126;126;126;
2021-05-12 19:33:42;5;110;110;110;109;109;109;109;109;109;109;
2021-05-12 19:33:42;ht;99;10.80
2021-05-12 19:33:42;v;4.12
2021-05-12 20:03:44;1;113;113;113;113;113;113;113;113;113;112;
2021-05-12 20:03:44;2;105;105;105;105;105;105;105;105;105;105;
2021-05-12 20:03:44;3;185;185;185;185;185;185;185;185;185;185;
2021-05-12 20:03:44;4;123;123;123;123;123;123;123;123;123;123;
2021-05-12 20:03:44;5;100;100;100;100;100;100;100;100;100;100;
2021-05-12 20:03:44;ht;99;8.90
2021-05-12 20:03:44;v;4.12
2021-05-12 20:33:41;1;112;112;112;112;112;112;112;112;112;112;
2021-05-12 20:33:41;2;96;96;96;96;96;96;96;96;96;96;
2021-05-12 20:33:41;3;177;177;177;177;177;177;177;177;177;177;
2021-05-12 20:33:41;4;1;1;1;1;1;1;1;1;1;1;
2021-05-12 20:33:41;5;101;101;101;101;101;101;101;101;101;101;
2021-05-12 20:33:41;ht;99;9.40
2021-05-12 20:33:41;v;4.12
2021-05-12 21:03:42;1;115;115;115;116;115;115;115;115;115;115;
2021-05-12 21:03:42;2;102;102;102;102;102;102;102;102;102;102;
2021-05-12 21:03:42;3;177;177;177;177;177;177;177;177;177;177;
2021-05-12 21:03:42;4;87;87;87;87;87;87;87;87;87;87;
2021-05-12 21:03:42;5;101;102;101;101;102;101;102;101;101;101;
2021-05-12 21:03:42;ht;99;7.30
2021-05-12 21:03:42;v;4.11
2021-05-12 21:33:42;1;118;118;117;118;117;118;117;118;117;117;
2021-05-12 21:33:42;2;99;99;99;99;99;99;99;99;99;99;
2021-05-12 21:33:42;3;184;184;184;184;184;184;184;184;184;184;
2021-05-12 21:33:42;4;113;113;113;113;113;113;113;112;113;113;
2021-05-12 21:33:42;5;103;103;103;103;103;103;103;103;103;103;
2021-05-12 21:33:42;ht;99;6.40
2021-05-12 21:33:42;v;4.11
2021-05-12 22:03:42;1;135;135;135;134;134;134;134;134;134;134;
2021-05-12 22:03:42;2;117;117;117;117;117;117;117;117;117;117;
2021-05-12 22:03:42;3;178;178;178;178;178;178;178;178;178;178;
2021-05-12 22:03:42;4;108;109;108;109;109;109;109;109;109;109;
2021-05-12 22:03:42;5;112;112;112;112;112;112;112;112;112;112;
2021-05-12 22:03:42;ht;99;7.60
2021-05-12 22:03:42;v;4.11
2021-05-12 22:33:42;1;115;115;115;115;115;115;116;115;115;115;
2021-05-12 22:33:42;2;109;109;109;109;109;109;109;109;109;109;
2021-05-12 22:33:42;3;182;182;182;182;182;182;182;182;182;182;
2021-05-12 22:33:42;4;121;120;120;120;120;120;120;120;120;120;
2021-05-12 22:33:42;5;101;101;101;101;101;101;101;101;101;101;
2021-05-12 22:33:42;ht;99;6.40
2021-05-12 22:33:42;v;4.11
2021-05-12 23:03:41;1;116;115;115;115;115;115;115;115;115;115;
2021-05-12 23:03:41;2;106;106;106;106;106;106;106;106;106;106;
2021-05-12 23:03:41;3;179;179;179;179;179;179;179;179;179;179;
2021-05-12 23:03:41;4;113;113;113;113;113;113;113;113;113;113;
2021-05-12 23:03:41;5;116;116;116;116;116;116;116;116;116;116;
2021-05-12 23:03:41;ht;99;6.90
2021-05-12 23:03:41;v;4.11
2021-05-12 23:33:41;1;119;119;118;118;118;118;118;118;118;118;
2021-05-12 23:33:41;2;1;2;1;2;1;2;1;2;2;2;
2021-05-12 23:33:41;3;177;177;177;177;177;178;178;178;177;177;
2021-05-12 23:33:41;4;111;112;112;111;111;112;112;112;112;112;
2021-05-12 23:33:41;5;118;118;118;118;118;118;118;118;118;119;
2021-05-12 23:33:41;ht;99;6.70
2021-05-12 23:33:41;v;4.11
