2021-05-29 00:03:44;1;123;123;124;124;123;123;123;123;130;124;
2021-05-29 00:03:44;2;127;127;127;127;128;127;127;127;127;127;
2021-05-29 00:03:44;3;52;52;51;51;52;52;52;52;51;52;
2021-05-29 00:03:44;4;119;119;119;119;119;119;119;119;119;119;
2021-05-29 00:03:44;5;122;122;122;122;122;122;122;122;122;122;
2021-05-29 00:03:44;ht;99;10.50
2021-05-29 00:03:44;v;4.09
2021-05-29 00:33:41;1;117;117;117;116;117;116;117;116;117;117;
2021-05-29 00:33:41;2;128;127;128;128;128;127;128;127;127;128;
2021-05-29 00:33:41;3;52;52;52;52;52;52;52;52;52;52;
2021-05-29 00:33:41;4;123;123;123;123;123;123;123;123;123;123;
2021-05-29 00:33:41;5;135;134;134;134;134;135;135;135;134;135;
2021-05-29 00:33:41;ht;99;9.90
2021-05-29 00:33:41;v;4.09
2021-05-29 01:03:42;1;120;119;120;120;119;119;119;119;120;119;
2021-05-29 01:03:42;2;127;127;127;127;127;127;127;127;127;127;
2021-05-29 01:03:42;3;54;54;54;54;54;54;54;54;54;54;
2021-05-29 01:03:42;4;121;121;121;121;121;121;121;121;121;121;
2021-05-29 01:03:42;5;121;122;122;122;121;122;122;122;122;122;
2021-05-29 01:03:42;ht;99;9.70
2021-05-29 01:03:42;v;4.09
2021-05-29 01:33:44;1;120;120;120;120;120;120;120;120;120;120;
2021-05-29 01:33:44;2;133;132;132;132;132;132;133;132;133;132;
2021-05-29 01:33:44;3;55;55;55;55;55;55;55;55;55;55;
2021-05-29 01:33:44;4;127;127;127;127;127;127;127;127;127;127;
2021-05-29 01:33:44;5;122;122;122;122;122;122;122;122;122;122;
2021-05-29 01:33:44;ht;99;9.70
2021-05-29 01:33:44;v;4.08
2021-05-29 02:03:40;1;127;127;127;127;127;127;127;127;127;127;
2021-05-29 02:03:40;2;134;133;133;133;133;133;133;133;133;133;
2021-05-29 02:03:40;3;56;56;56;56;56;56;56;56;56;56;
2021-05-29 02:03:40;4;125;125;125;125;125;125;125;125;125;125;
2021-05-29 02:03:40;5;125;125;125;125;125;125;124;125;125;125;
2021-05-29 02:03:40;ht;99;8.30
2021-05-29 02:03:40;v;4.09
2021-05-29 02:33:41;1;120;120;120;120;120;120;120;120;120;120;
2021-05-29 02:33:41;2;118;118;118;118;118;118;117;117;118;118;
2021-05-29 02:33:41;3;57;57;57;57;57;57;57;57;57;57;
2021-05-29 02:33:41;4;122;122;122;122;121;122;122;122;122;122;
2021-05-29 02:33:41;5;125;124;125;125;125;125;124;124;124;125;
2021-05-29 02:33:41;ht;99;7.90
2021-05-29 02:33:41;v;4.09
2021-05-29 03:03:41;1;121;121;121;120;120;120;120;120;121;121;
2021-05-29 03:03:41;2;118;117;117;118;117;118;118;118;117;117;
2021-05-29 03:03:41;3;58;58;58;58;58;58;58;58;58;58;
2021-05-29 03:03:41;4;124;124;124;124;124;124;124;124;124;123;
2021-05-29 03:03:41;5;122;122;122;122;121;121;121;121;122;122;
2021-05-29 03:03:41;ht;99;8.00
2021-05-29 03:03:41;v;4.09
2021-05-29 03:33:41;1;120;120;121;121;120;121;121;120;120;120;
2021-05-29 03:33:41;2;119;119;119;118;119;119;118;118;119;118;
2021-05-29 03:33:41;3;55;55;55;55;55;55;55;55;55;55;
2021-05-29 03:33:41;4;128;128;128;128;128;128;128;128;128;128;
2021-05-29 03:33:41;5;127;127;127;127;127;127;127;127;127;127;
2021-05-29 03:33:41;ht;99;7.00
2021-05-29 03:33:41;v;4.08
2021-05-29 04:03:41;1;125;125;125;125;125;125;125;125;125;125;
2021-05-29 04:03:41;2;122;122;122;122;121;122;122;122;122;122;
2021-05-29 04:03:41;3;56;56;55;55;56;56;56;56;56;55;
2021-05-29 04:03:41;4;123;123;123;123;123;123;123;123;123;123;
2021-05-29 04:03:41;5;124;123;123;123;123;123;123;123;123;123;
2021-05-29 04:03:41;ht;99;7.00
2021-05-29 04:03:41;v;4.08
2021-05-29 04:33:40;1;120;120;120;120;120;120;120;120;120;120;
2021-05-29 04:33:40;2;123;123;123;123;123;123;123;123;123;123;
2021-05-29 04:33:40;3;58;58;58;59;58;58;58;58;59;58;
2021-05-29 04:33:40;4;129;129;129;129;129;129;129;129;129;129;
2021-05-29 04:33:40;5;122;122;121;122;122;122;122;122;122;122;
2021-05-29 04:33:40;ht;99;6.90
2021-05-29 04:33:40;v;4.08
2021-05-29 05:03:40;1;120;120;120;120;120;120;120;120;120;120;
2021-05-29 05:03:40;2;124;124;124;124;124;124;124;124;124;124;
2021-05-29 05:03:40;3;59;59;59;59;59;59;59;59;59;59;
2021-05-29 05:03:40;4;124;124;124;124;124;124;124;124;124;124;
2021-05-29 05:03:40;5;134;134;134;134;134;134;134;134;134;134;
2021-05-29 05:03:40;ht;99;7.50
2021-05-29 05:03:40;v;4.08
2021-05-29 05:33:40;1;137;136;136;136;136;136;137;136;136;136;
2021-05-29 05:33:40;2;125;125;125;125;125;125;125;125;125;125;
2021-05-29 05:33:40;3;59;59;59;59;59;59;59;59;59;59;
2021-05-29 05:33:40;4;120;120;120;120;120;120;120;120;120;120;
2021-05-29 05:33:40;5;124;124;124;124;124;124;123;123;123;123;
2021-05-29 05:33:40;ht;99;9.50
2021-05-29 05:33:40;v;4.08
2021-05-29 06:03:41;1;123;123;123;123;123;123;123;123;123;123;
2021-05-29 06:03:41;2;139;139;139;139;139;139;139;139;139;139;
2021-05-29 06:03:41;3;57;56;57;56;56;56;57;57;57;56;
2021-05-29 06:03:41;4;118;118;118;118;118;118;118;118;118;118;
2021-05-29 06:03:41;5;127;127;127;128;128;127;127;128;127;128;
2021-05-29 06:03:41;ht;99;11.10
2021-05-29 06:03:41;v;4.08
2021-05-29 06:33:43;1;120;120;120;120;120;120;120;120;120;120;
2021-05-29 06:33:43;2;120;120;120;120;120;120;120;120;120;120;
2021-05-29 06:33:43;3;56;56;56;56;56;56;56;56;56;56;
2021-05-29 06:33:43;4;121;122;121;122;121;121;121;121;121;121;
2021-05-29 06:33:43;5;131;131;131;131;131;131;131;131;131;131;
2021-05-29 06:33:43;ht;99;10.70
2021-05-29 06:33:43;v;4.09
2021-05-29 07:03:45;1;126;126;126;126;126;126;126;126;126;126;
2021-05-29 07:03:45;2;124;124;125;124;124;124;124;124;124;124;
2021-05-29 07:03:45;3;56;56;56;56;56;56;56;56;56;56;
2021-05-29 07:03:45;4;120;120;121;121;121;120;121;121;120;121;
2021-05-29 07:03:45;5;127;127;127;127;127;127;127;127;127;127;
2021-05-29 07:03:45;ht;99;10.80
2021-05-29 07:03:45;v;4.09
2021-05-29 07:33:43;1;133;133;133;132;133;133;132;133;132;132;
2021-05-29 07:33:43;2;123;122;122;122;122;122;122;122;122;122;
2021-05-29 07:33:43;3;55;55;54;54;55;55;55;55;55;55;
2021-05-29 07:33:43;4;122;122;122;122;122;122;122;122;122;122;
2021-05-29 07:33:43;5;142;142;142;141;142;141;141;141;141;142;
2021-05-29 07:33:43;ht;99;11.30
2021-05-29 07:33:43;v;4.09
2021-05-29 08:03:45;1;123;123;123;123;123;123;123;124;123;123;
2021-05-29 08:03:45;2;119;118;119;119;118;119;119;119;119;119;
2021-05-29 08:03:45;3;52;52;52;52;52;52;52;52;52;52;
2021-05-29 08:03:45;4;129;129;129;129;129;129;129;129;129;129;
2021-05-29 08:03:45;5;116;116;116;116;117;116;117;117;117;117;
2021-05-29 08:03:45;ht;99;12.00
2021-05-29 08:03:45;v;4.09
2021-05-29 08:33:43;1;115;115;115;115;115;115;115;115;115;115;
2021-05-29 08:33:43;2;116;116;116;116;116;116;116;116;116;116;
2021-05-29 08:33:43;3;54;54;54;54;54;54;54;54;54;54;
2021-05-29 08:33:43;4;118;118;117;118;118;117;117;117;118;118;
2021-05-29 08:33:43;5;117;117;117;117;117;117;117;117;118;117;
2021-05-29 08:33:43;ht;99;12.20
2021-05-29 08:33:43;v;4.09
2021-05-29 09:03:42;1;115;115;115;115;115;115;115;114;115;115;
2021-05-29 09:03:42;2;117;117;117;117;117;116;117;117;116;117;
2021-05-29 09:03:42;3;53;53;53;53;53;53;53;53;53;53;
2021-05-29 09:03:42;4;122;122;122;122;122;122;122;122;122;122;
2021-05-29 09:03:42;5;116;116;116;116;116;116;117;116;116;117;
2021-05-29 09:03:42;ht;99;12.70
2021-05-29 09:03:42;v;4.08
2021-05-29 09:33:46;1;119;119;119;119;119;119;119;119;119;119;
2021-05-29 09:33:46;2;122;121;121;121;122;121;121;122;122;122;
2021-05-29 09:33:46;3;53;53;53;53;53;53;53;53;53;53;
2021-05-29 09:33:46;4;115;115;115;115;115;115;115;115;115;115;
2021-05-29 09:33:46;5;117;117;117;117;117;117;116;117;117;117;
2021-05-29 09:33:46;ht;99;13.20
2021-05-29 09:33:46;v;4.09
2021-05-29 10:03:46;1;117;117;117;117;117;117;117;116;117;116;
2021-05-29 10:03:46;2;116;116;116;116;116;116;116;116;116;116;
2021-05-29 10:03:46;3;48;48;48;48;48;48;48;48;48;48;
2021-05-29 10:03:46;4;122;122;122;122;123;122;122;122;122;122;
2021-05-29 10:03:46;5;117;117;118;117;118;118;118;117;117;118;
2021-05-29 10:03:46;ht;99;13.60
2021-05-29 10:03:46;v;4.09
2021-05-29 10:33:46;1;120;120;120;120;120;120;120;120;120;119;
2021-05-29 10:33:46;2;120;120;120;120;120;120;120;120;120;120;
2021-05-29 10:33:46;3;46;46;46;46;46;46;46;46;46;46;
2021-05-29 10:33:46;4;122;121;121;122;122;122;121;122;122;122;
2021-05-29 10:33:46;5;116;116;116;116;116;116;116;117;116;116;
2021-05-29 10:33:46;ht;99;13.90
2021-05-29 10:33:46;v;4.09
2021-05-29 11:03:46;1;118;118;118;117;117;118;118;118;118;118;
2021-05-29 11:03:46;2;126;126;126;126;126;126;126;126;126;126;
2021-05-29 11:03:46;3;49;50;49;49;49;49;49;49;49;49;
2021-05-29 11:03:46;4;121;121;121;121;121;121;121;121;121;121;
2021-05-29 11:03:46;5;122;122;122;122;122;122;122;122;122;122;
2021-05-29 11:03:46;ht;99;14.50
2021-05-29 11:03:46;v;4.09
2021-05-29 11:33:47;1;117;117;117;117;117;117;117;117;117;117;
2021-05-29 11:33:47;2;117;116;117;117;116;116;117;116;117;116;
2021-05-29 11:33:47;3;49;49;49;49;49;49;48;48;49;49;
2021-05-29 11:33:47;4;118;118;118;118;118;118;118;118;118;118;
2021-05-29 11:33:47;5;115;115;115;115;114;114;114;115;115;115;
2021-05-29 11:33:47;ht;99;15.80
2021-05-29 11:33:47;v;4.09
2021-05-29 12:03:51;1;119;119;119;119;119;119;119;119;119;119;
2021-05-29 12:03:51;2;112;111;112;111;111;112;111;112;111;112;
2021-05-29 12:03:51;3;44;44;44;44;44;44;44;44;44;44;
2021-05-29 12:03:51;4;116;116;115;116;115;115;115;116;116;116;
2021-05-29 12:03:51;5;119;118;118;118;118;118;118;119;118;119;
2021-05-29 12:03:51;ht;97;17.40
2021-05-29 12:03:51;v;4.09
2021-05-29 12:33:48;1;121;120;120;120;120;121;120;120;120;121;
2021-05-29 12:33:48;2;121;121;120;121;120;121;121;120;121;121;
2021-05-29 12:33:48;3;41;41;41;41;41;41;41;41;41;41;
2021-05-29 12:33:48;4;118;118;118;117;118;118;118;117;117;117;
2021-05-29 12:33:48;5;124;123;124;123;123;123;123;123;123;123;
2021-05-29 12:33:48;ht;96;18.00
2021-05-29 12:33:48;v;4.09
2021-05-29 13:03:48;1;125;125;125;125;125;124;124;124;124;124;
2021-05-29 13:03:48;2;121;121;121;121;121;121;121;121;121;121;
2021-05-29 13:03:48;3;42;42;42;42;42;42;42;42;42;42;
2021-05-29 13:03:48;4;117;117;117;117;117;117;117;117;117;117;
2021-05-29 13:03:48;5;108;109;108;108;109;108;108;109;108;109;
2021-05-29 13:03:48;ht;91;18.40
2021-05-29 13:03:48;v;4.09
2021-05-29 13:33:49;1;126;126;126;126;126;126;126;126;126;126;
2021-05-29 13:33:49;2;120;120;120;120;120;120;120;120;119;120;
2021-05-29 13:33:49;3;41;41;41;41;41;41;41;41;41;41;
2021-05-29 13:33:49;4;122;122;122;122;122;122;122;122;122;122;
2021-05-29 13:33:49;5;121;121;121;121;121;121;121;121;121;121;
2021-05-29 13:33:49;ht;91;17.80
2021-05-29 13:33:49;v;4.09
2021-05-29 14:03:50;1;2;2;1;2;2;1;2;1;2;1;
2021-05-29 14:03:50;2;115;115;116;116;116;116;115;115;116;116;
2021-05-29 14:03:50;3;38;39;39;39;38;39;39;38;38;39;
2021-05-29 14:03:50;4;121;120;121;121;121;121;121;121;121;121;
2021-05-29 14:03:50;5;124;125;124;125;125;124;125;125;125;125;
2021-05-29 14:03:50;ht;95;17.30
2021-05-29 14:03:50;v;4.09
2021-05-29 14:33:49;1;119;119;119;119;119;119;119;119;119;119;
2021-05-29 14:33:49;2;117;117;117;117;117;117;117;117;117;117;
2021-05-29 14:33:49;3;41;41;41;40;40;41;41;41;41;40;
2021-05-29 14:33:49;4;114;114;114;114;114;114;114;114;114;114;
2021-05-29 14:33:49;5;113;113;113;113;113;112;113;112;113;113;
2021-05-29 14:33:49;ht;93;16.70
2021-05-29 14:33:49;v;4.09
2021-05-29 15:03:48;1;118;118;117;118;118;118;118;118;118;117;
2021-05-29 15:03:48;2;116;117;117;116;117;116;116;117;117;117;
2021-05-29 15:03:48;3;43;43;43;43;43;43;43;43;43;43;
2021-05-29 15:03:48;4;114;114;114;114;114;114;114;114;114;114;
2021-05-29 15:03:48;5;114;114;114;114;114;114;114;114;114;114;
2021-05-29 15:03:48;ht;93;18.20
2021-05-29 15:03:48;v;4.09
2021-05-29 15:33:48;1;117;117;117;117;117;117;117;117;117;117;
2021-05-29 15:33:48;2;118;118;118;118;118;118;118;118;118;118;
2021-05-29 15:33:48;3;42;42;42;42;42;42;42;42;42;42;
2021-05-29 15:33:48;4;119;119;119;119;119;119;119;118;118;119;
2021-05-29 15:33:48;5;115;115;115;115;115;115;115;115;115;115;
2021-05-29 15:33:48;ht;89;18.20
2021-05-29 15:33:48;v;4.09
2021-05-29 16:03:47;1;118;118;118;118;118;118;118;118;118;118;
2021-05-29 16:03:47;2;115;114;114;115;114;115;115;114;115;115;
2021-05-29 16:03:47;3;42;42;42;42;42;42;42;42;42;42;
2021-05-29 16:03:47;4;121;122;122;122;122;122;122;122;121;121;
2021-05-29 16:03:47;5;117;117;118;118;117;117;117;117;118;117;
2021-05-29 16:03:47;ht;86;18.10
2021-05-29 16:03:47;v;4.09
2021-05-29 16:33:47;1;118;118;118;118;117;118;118;118;118;118;
2021-05-29 16:33:47;2;116;116;116;116;116;116;116;116;116;116;
2021-05-29 16:33:47;3;41;41;41;41;41;41;41;41;41;41;
2021-05-29 16:33:47;4;116;116;116;116;116;116;116;116;116;116;
2021-05-29 16:33:47;5;119;119;119;119;119;119;119;119;119;119;
2021-05-29 16:33:47;ht;84;17.70
2021-05-29 16:33:47;v;4.09
2021-05-29 17:03:47;1;117;117;117;117;117;117;117;117;117;117;
2021-05-29 17:03:47;2;117;117;117;117;117;116;117;117;117;117;
2021-05-29 17:03:47;3;41;41;41;41;40;41;41;41;41;41;
2021-05-29 17:03:47;4;119;119;119;119;119;119;119;119;119;119;
2021-05-29 17:03:47;5;117;117;117;117;117;117;117;117;117;117;
2021-05-29 17:03:47;ht;78;17.80
2021-05-29 17:03:47;v;4.09
2021-05-29 17:33:46;1;118;118;117;118;118;118;118;118;118;118;
2021-05-29 17:33:46;2;117;116;117;117;117;116;116;117;117;117;
2021-05-29 17:33:46;3;40;40;40;39;40;40;40;40;40;40;
2021-05-29 17:33:46;4;114;115;115;115;115;115;115;114;115;115;
2021-05-29 17:33:46;5;121;121;121;121;120;121;121;120;121;121;
2021-05-29 17:33:46;ht;93;16.50
2021-05-29 17:33:46;v;4.09
2021-05-29 18:03:48;1;119;119;120;120;119;119;119;119;119;119;
2021-05-29 18:03:48;2;123;123;123;123;123;123;123;123;123;123;
2021-05-29 18:03:48;3;40;40;40;40;40;40;40;40;40;40;
2021-05-29 18:03:48;4;115;115;116;116;115;116;116;116;116;116;
2021-05-29 18:03:48;5;121;122;122;121;121;122;121;122;122;122;
2021-05-29 18:03:48;ht;96;13.60
2021-05-29 18:03:48;v;4.08
2021-05-29 18:33:43;1;120;120;120;120;120;120;120;120;120;120;
2021-05-29 18:33:43;2;117;118;117;117;117;117;118;117;118;117;
2021-05-29 18:33:43;3;43;43;43;43;43;43;43;43;43;43;
2021-05-29 18:33:43;4;116;116;116;116;116;116;116;116;116;116;
2021-05-29 18:33:43;5;121;121;121;121;121;121;121;121;121;121;
2021-05-29 18:33:43;ht;96;12.60
2021-05-29 18:33:43;v;4.08
2021-05-29 19:03:45;1;121;121;121;120;120;120;120;120;120;120;
2021-05-29 19:03:45;2;118;118;119;118;118;119;118;118;118;118;
2021-05-29 19:03:45;3;46;46;46;46;46;46;46;46;46;46;
2021-05-29 19:03:45;4;117;117;117;117;117;117;117;117;117;117;
2021-05-29 19:03:45;5;119;119;119;119;119;120;120;120;120;120;
2021-05-29 19:03:45;ht;99;11.30
2021-05-29 19:03:45;v;4.08
2021-05-29 19:33:42;1;121;121;121;121;121;121;121;121;121;121;
2021-05-29 19:33:42;2;117;117;117;117;117;117;117;117;117;117;
2021-05-29 19:33:42;3;48;48;48;48;48;48;48;48;48;48;
2021-05-29 19:33:42;4;122;122;123;123;122;122;123;122;122;122;
2021-05-29 19:33:42;5;121;121;121;121;121;121;121;121;121;121;
2021-05-29 19:33:42;ht;99;10.30
2021-05-29 19:33:42;v;4.08
2021-05-29 20:03:44;1;118;118;117;117;117;118;118;118;118;118;
2021-05-29 20:03:44;2;115;116;116;115;116;115;116;116;116;115;
2021-05-29 20:03:44;3;50;50;50;50;50;50;50;50;50;50;
2021-05-29 20:03:44;4;126;126;126;126;126;126;126;125;126;126;
2021-05-29 20:03:44;5;122;121;122;122;122;122;122;122;122;122;
2021-05-29 20:03:44;ht;99;10.80
2021-05-29 20:03:44;v;4.08
2021-05-29 20:33:41;1;125;125;125;125;124;124;125;125;125;125;
2021-05-29 20:33:41;2;117;117;117;117;117;117;117;117;117;117;
2021-05-29 20:33:41;3;51;51;51;51;51;51;51;51;51;51;
2021-05-29 20:33:41;4;123;123;123;123;123;123;123;123;123;123;
2021-05-29 20:33:41;5;129;129;130;129;129;130;129;129;129;129;
2021-05-29 20:33:41;ht;99;10.40
2021-05-29 20:33:41;v;4.08
2021-05-29 21:03:41;1;130;130;130;130;130;130;130;130;130;130;
2021-05-29 21:03:41;2;117;117;117;117;117;117;117;117;117;117;
2021-05-29 21:03:41;3;51;51;51;51;51;51;51;51;51;51;
2021-05-29 21:03:41;4;122;122;122;122;122;122;122;122;122;122;
2021-05-29 21:03:41;5;130;130;130;130;130;130;130;130;130;130;
2021-05-29 21:03:41;ht;99;8.30
2021-05-29 21:03:41;v;4.08
2021-05-29 21:33:42;1;129;129;129;129;129;128;128;128;129;128;
2021-05-29 21:33:42;2;120;120;119;119;120;120;120;120;119;120;
2021-05-29 21:33:42;3;52;52;52;52;52;52;52;52;52;52;
2021-05-29 21:33:42;4;120;120;120;120;120;120;120;120;120;119;
2021-05-29 21:33:42;5;126;126;126;126;126;126;126;126;126;126;
2021-05-29 21:33:42;ht;99;7.30
2021-05-29 21:33:42;v;4.07
2021-05-29 22:03:41;1;120;120;120;120;119;120;119;119;120;120;
2021-05-29 22:03:41;2;121;121;121;121;122;122;122;122;122;122;
2021-05-29 22:03:41;3;54;54;54;54;54;54;54;54;54;54;
2021-05-29 22:03:41;4;119;119;119;119;119;119;119;119;119;119;
2021-05-29 22:03:41;5;124;125;125;125;125;125;124;124;125;125;
2021-05-29 22:03:41;ht;99;7.00
2021-05-29 22:03:41;v;4.08
2021-05-29 22:33:41;1;127;127;127;127;127;127;127;127;127;127;
2021-05-29 22:33:41;2;116;116;117;117;117;117;116;117;117;117;
2021-05-29 22:33:41;3;55;55;55;55;55;55;55;55;55;55;
2021-05-29 22:33:41;4;117;117;118;117;117;117;117;117;118;118;
2021-05-29 22:33:41;5;124;125;125;124;124;125;124;124;125;124;
2021-05-29 22:33:41;ht;99;7.10
2021-05-29 22:33:41;v;4.07
2021-05-29 23:03:40;1;119;119;119;119;119;119;119;119;119;119;
2021-05-29 23:03:40;2;118;118;118;118;118;118;118;118;118;118;
2021-05-29 23:03:40;3;56;55;56;56;55;55;55;56;56;55;
2021-05-29 23:03:40;4;117;118;117;117;117;117;117;117;117;118;
2021-05-29 23:03:40;5;124;124;124;124;124;124;124;124;124;124;
2021-05-29 23:03:40;ht;99;6.90
2021-05-29 23:03:40;v;4.07
2021-05-29 23:33:39;1;122;122;122;122;122;122;122;122;122;122;
2021-05-29 23:33:39;2;119;119;119;119;119;119;118;119;119;119;
2021-05-29 23:33:39;3;56;56;56;56;56;56;56;56;56;56;
2021-05-29 23:33:39;4;118;118;118;118;118;118;118;118;118;118;
2021-05-29 23:33:39;5;130;130;130;130;130;130;130;130;130;130;
2021-05-29 23:33:39;ht;99;6.60
2021-05-29 23:33:39;v;4.07
