#2021-02-19 11:30:17;4.14;125.68;99;20.90
2021-02-19 12:05:10;4.14;126.80;99;20.40
2021-02-19 12:34:15;4.14;126.80;99;21.50
2021-02-19 13:04:27;4.14;126.80;99;21.80
2021-02-19 13:34:25;4.14;126.48;99;22.40
2021-02-19 14:04:25;4.14;126.48;99;23.60
2021-02-19 14:34:25;4.14;126.80;96;25.20
2021-02-19 15:04:27;4.14;126.80;94;25.80
2021-02-19 15:34:31;4.14;128.42;86;27.80
2021-02-19 16:04:32;4.15;128.42;78;28.70
2021-02-19 16:34:34;4.15;128.42;71;29.40
2021-02-19 17:04:32;4.15;126.80;69;29.20
2021-02-19 17:34:35;4.15;128.09;57;30.20
2021-02-19 18:04:33;4.15;126.48;68;29.60
2021-02-19 18:34:31;4.15;127.45;65;29.50
2021-02-19 19:04:33;4.15;126.16;69;27.90
2021-02-19 19:34:29;4.15;125.84;83;25.20
2021-02-19 20:04:26;4.15;127.13;92;22.70
2021-02-19 20:34:25;4.15;125.35;99;20.50
2021-02-19 21:04:22;4.15;126.48;99;19.70
2021-02-19 21:34:22;4.15;124.71;99;19.80
2021-02-19 22:04:22;4.15;126.80;99;19.30
2021-02-19 22:34:22;4.14;126.80;99;18.60
2021-02-19 23:04:21;4.14;126.48;99;17.40
2021-02-19 23:34:19;4.14;125.03;99;16.80
