2021-02-26 00:03:41;4.22;37;19.80;0;0.00
2021-02-26 00:33:37;4.21;47;17.90;0;0.00
2021-02-26 01:03:42;4.21;58;17.10;0;0.00
2021-02-26 01:33:37;4.21;52;17.80;0;0.00
2021-02-26 02:03:41;4.21;65;16.40;0;0.00
2021-02-26 02:33:40;4.21;67;16.80;0;0.00
2021-02-26 03:03:38;4.20;62;16.00;0;0.00
2021-02-26 03:33:36;4.21;79;15.30;0;0.00
2021-02-26 04:03:39;4.20;81;15.30;0;0.00
2021-02-26 04:33:37;4.20;80;14.50;0;0.00
2021-02-26 05:03:39;4.20;87;15.00;0;0.00
2021-02-26 05:33:36;4.20;89;13.90;0;0.00
2021-02-26 06:03:38;4.19;99;14.10;0;0.00
2021-02-26 06:33:36;4.20;99;13.40;0;0.00
2021-02-26 07:03:37;4.19;87;14.30;0;0.00
2021-02-26 07:33:35;4.19;53;17.40;0;0.00
2021-02-26 08:03:38;4.20;46;19.10;0;0.00
2021-02-26 08:33:39;4.21;45;20.90;0;0.00
2021-02-26 09:03:41;4.21;27;23.60;0;1.90
2021-02-26 09:33:42;4.21;21;26.00;0;1.90
2021-02-26 10:03:45;4.22;14;27.40;0;2.39
2021-02-26 10:33:49;4.22;8;28.60;0;1.40
2021-02-26 11:03:51;4.22;8;29.50;0;2.39
2021-02-26 11:33:49;4.22;4;31.20;0;2.59
