2021-12-09 00:00:43;4.12;131.80;99;18.60
2021-12-09 00:05:42;4.12;131.80;99;18.80
2021-12-09 00:10:40;4.11;133.73;99;18.50
2021-12-09 00:15:39;4.11;131.80;99;18.70
2021-12-09 00:20:42;4.12;133.09;99;18.40
2021-12-09 00:25:41;4.11;133.09;99;18.30
2021-12-09 00:30:39;4.11;133.09;99;18.10
2021-12-09 00:35:42;4.12;131.80;99;18.50
2021-12-09 00:40:41;4.11;131.80;99;18.20
2021-12-09 00:45:39;4.11;131.80;99;18.00
2021-12-09 00:50:43;4.12;132.12;99;18.20
2021-12-09 00:55:41;4.11;133.09;99;17.90
2021-12-09 01:00:39;4.11;132.12;99;17.60
2021-12-09 01:05:43;4.11;133.41;99;17.60
2021-12-09 01:10:41;4.11;133.41;99;17.10
2021-12-09 01:15:40;4.11;133.09;99;17.20
2021-12-09 01:20:43;4.11;131.80;99;17.30
2021-12-09 01:25:41;4.11;131.80;99;16.50
2021-12-09 01:30:39;4.11;131.80;97;16.40
2021-12-09 01:35:42;4.12;133.41;97;16.30
2021-12-09 01:40:41;4.11;131.80;96;16.30
2021-12-09 01:45:39;4.11;133.09;94;16.30
2021-12-09 01:50:42;4.11;131.80;91;15.90
2021-12-09 01:55:40;4.12;133.41;91;15.90
2021-12-09 02:00:39;4.12;132.12;86;16.00
2021-12-09 02:05:42;4.12;132.12;83;16.00
2021-12-09 02:10:40;4.11;132.12;84;16.00
2021-12-09 02:15:38;4.11;133.73;85;15.50
2021-12-09 02:20:41;4.11;132.44;79;15.60
2021-12-09 02:25:39;4.11;132.12;77;15.70
2021-12-09 02:30:42;4.11;133.73;75;15.70
2021-12-09 02:35:40;4.11;132.44;74;15.70
2021-12-09 02:40:39;4.11;133.41;76;15.70
2021-12-09 02:45:41;4.11;133.41;74;15.60
2021-12-09 02:50:40;4.11;131.80;73;15.30
2021-12-09 02:55:42;4.11;133.73;70;15.30
2021-12-09 03:00:41;4.11;132.12;64;15.50
2021-12-09 03:05:39;4.12;133.41;61;15.40
2021-12-09 03:10:42;4.11;132.12;58;15.70
2021-12-09 03:15:40;4.11;133.73;55;15.60
2021-12-09 03:20:43;4.11;132.44;53;15.50
2021-12-09 03:25:41;4.11;132.12;54;15.40
2021-12-09 03:30:39;4.11;133.41;56;15.70
2021-12-09 03:35:42;4.11;133.73;59;15.40
2021-12-09 03:40:40;4.11;133.73;60;15.50
2021-12-09 03:45:43;4.10;132.12;60;16.00
2021-12-09 03:50:41;4.10;133.73;61;15.30
2021-12-09 03:55:39;4.11;133.41;61;15.30
2021-12-09 04:00:42;4.11;133.89;58;15.20
2021-12-09 04:05:40;4.11;132.12;63;15.20
2021-12-09 04:10:43;4.11;132.12;74;15.30
2021-12-09 04:15:41;4.11;132.12;82;15.40
2021-12-09 04:20:39;4.11;133.73;84;15.20
2021-12-09 04:25:42;4.11;133.41;82;15.20
2021-12-09 04:30:40;4.11;132.12;74;14.70
2021-12-09 04:35:42;4.11;132.12;68;15.10
2021-12-09 04:40:41;4.10;133.41;69;15.30
2021-12-09 04:45:39;4.10;133.41;70;15.30
2021-12-09 04:50:41;4.10;132.12;78;15.20
2021-12-09 04:55:39;4.10;133.41;76;15.00
2021-12-09 05:00:42;4.11;132.12;77;15.00
2021-12-09 05:05:40;4.06;133.41;73;15.00
2021-12-09 05:10:38;4.11;131.80;75;15.00
2021-12-09 05:15:41;4.11;133.41;71;15.20
2021-12-09 05:20:39;4.11;132.12;69;15.00
2021-12-09 05:25:42;4.10;131.80;67;14.90
2021-12-09 05:30:40;4.10;133.09;63;14.80
2021-12-09 05:35:38;4.10;131.80;58;14.70
2021-12-09 05:40:41;4.10;131.80;51;14.70
2021-12-09 05:45:39;4.10;131.80;44;14.90
2021-12-09 05:50:42;4.11;133.41;44;14.90
2021-12-09 05:55:40;4.12;131.80;48;14.60
2021-12-09 06:00:42;4.12;132.77;50;14.40
2021-12-09 06:05:40;4.12;131.80;41;14.40
2021-12-09 06:10:38;4.12;133.41;31;14.60
2021-12-09 06:15:41;4.12;131.80;21;14.60
2021-12-09 06:20:39;4.12;131.48;22;14.80
2021-12-09 06:25:42;4.12;131.80;26;14.50
2021-12-09 06:30:40;4.12;131.80;16;14.60
2021-12-09 06:35:43;4.12;133.09;15;15.00
2021-12-09 06:40:41;4.12;133.41;21;15.30
2021-12-09 06:45:39;4.12;133.09;22;15.40
2021-12-09 06:50:41;4.12;131.80;24;15.90
2021-12-09 06:55:40;4.12;133.09;36;16.10
2021-12-09 07:00:42;4.12;133.09;69;16.50
2021-12-09 07:05:41;4.12;133.09;84;17.10
2021-12-09 07:10:39;4.12;133.09;92;17.10
2021-12-09 07:15:42;4.12;132.77;96;17.40
2021-12-09 07:20:40;4.12;132.77;99;17.80
2021-12-09 07:25:43;4.12;132.77;99;18.30
2021-12-09 07:30:41;4.12;133.09;99;18.70
2021-12-09 07:35:39;4.12;132.44;99;19.10
2021-12-09 07:40:42;4.12;131.48;99;19.80
2021-12-09 07:45:41;4.12;132.44;99;20.20
2021-12-09 07:50:39;4.12;131.15;99;20.10
2021-12-09 07:55:43;4.12;131.15;99;20.20
2021-12-09 08:00:41;4.12;131.48;99;22.20
2021-12-09 08:05:40;4.12;130.83;96;24.50
2021-12-09 08:10:43;4.12;131.15;91;25.60
2021-12-09 08:15:42;4.12;131.15;90;26.60
2021-12-09 08:20:41;4.12;132.77;86;26.80
2021-12-09 08:25:40;4.12;133.09;83;27.30
2021-12-09 08:30:40;4.12;131.15;82;27.70
2021-12-09 08:35:44;4.12;131.48;79;28.90
2021-12-09 08:40:43;4.12;132.77;83;27.10
2021-12-09 08:45:43;4.12;132.44;84;26.00
2021-12-09 08:50:43;4.12;131.15;85;25.90
2021-12-09 08:55:43;4.12;132.77;86;26.00
2021-12-09 09:00:42;4.13;132.77;84;26.10
2021-12-09 09:05:42;4.12;132.77;86;25.80
2021-12-09 09:10:42;4.13;131.15;82;28.90
2021-12-09 09:15:42;4.13;132.44;76;29.60
2021-12-09 09:20:42;4.13;132.77;74;30.70
2021-12-09 09:25:42;4.13;131.48;74;30.30
2021-12-09 09:30:42;4.13;131.48;72;30.80
2021-12-09 09:35:42;4.13;131.15;71;32.00
2021-12-09 09:40:43;4.13;131.15;73;32.50
2021-12-09 09:45:44;4.13;131.15;71;32.20
2021-12-09 09:50:44;4.13;131.15;71;32.40
2021-12-09 09:55:40;4.13;131.48;68;32.70
2021-12-09 10:00:41;4.13;131.15;68;33.80
2021-12-09 10:05:42;4.13;131.15;66;34.40
2021-12-09 10:10:43;4.13;132.77;69;32.20
2021-12-09 10:15:45;4.13;132.77;70;32.70
2021-12-09 10:20:41;4.13;132.77;69;33.00
2021-12-09 10:25:42;4.13;131.15;68;32.90
2021-12-09 10:30:43;4.13;131.48;66;33.90
2021-12-09 10:35:45;4.13;131.15;64;34.70
2021-12-09 10:40:41;4.13;132.77;65;34.50
2021-12-09 10:45:43;4.13;132.77;65;34.90
2021-12-09 10:50:44;4.13;132.77;66;32.50
2021-12-09 10:55:41;4.13;131.15;65;34.40
2021-12-09 11:00:42;4.13;132.77;63;34.80
2021-12-09 11:05:44;4.13;131.15;63;34.90
2021-12-09 11:10:45;4.13;131.15;63;35.90
2021-12-09 11:15:42;4.13;131.48;61;35.60
2021-12-09 11:20:44;4.13;132.77;59;36.40
2021-12-09 11:25:41;4.13;132.77;59;38.20
2021-12-09 11:30:43;4.13;131.48;60;37.00
2021-12-09 11:35:45;4.13;131.48;56;37.80
2021-12-09 11:40:42;4.13;131.48;60;34.10
2021-12-09 11:45:44;4.13;132.77;62;36.00
2021-12-09 11:50:41;4.13;131.48;60;37.10
2021-12-09 11:55:43;4.13;131.15;58;37.30
2021-12-09 12:00:45;4.13;132.77;62;35.40
2021-12-09 12:05:43;4.13;131.48;61;35.10
2021-12-09 12:10:45;4.13;132.77;62;34.40
2021-12-09 12:15:42;4.13;131.48;63;33.80
2021-12-09 12:20:44;4.13;131.48;64;33.30
2021-12-09 12:25:45;4.13;131.48;62;35.40
2021-12-09 12:30:42;4.13;133.09;60;36.30
2021-12-09 12:35:44;4.13;131.80;60;36.50
2021-12-09 12:40:41;4.13;133.09;59;37.80
2021-12-09 12:45:43;4.13;131.48;56;38.10
2021-12-09 12:50:45;4.13;133.09;59;35.80
2021-12-09 12:55:43;4.13;133.09;59;36.00
2021-12-09 13:00:45;4.13;131.48;60;35.00
2021-12-09 13:05:42;4.13;133.41;60;35.50
2021-12-09 13:10:44;4.13;131.80;57;36.30
2021-12-09 13:15:41;4.13;131.48;60;34.70
2021-12-09 13:20:43;4.13;133.41;60;35.30
2021-12-09 13:25:45;4.13;131.80;61;34.70
2021-12-09 13:30:42;4.13;131.48;58;35.60
2021-12-09 13:35:44;4.13;131.80;56;37.80
2021-12-09 13:40:41;4.13;131.80;52;41.00
2021-12-09 13:45:44;4.13;131.80;54;38.10
2021-12-09 13:50:46;4.13;133.41;58;36.00
2021-12-09 13:55:43;4.13;133.41;61;34.40
2021-12-09 14:00:45;4.13;133.41;62;33.50
2021-12-09 14:05:42;4.13;132.12;64;33.60
2021-12-09 14:10:44;4.13;133.41;62;34.20
2021-12-09 14:15:41;4.13;132.12;62;33.80
2021-12-09 14:20:43;4.13;131.80;63;33.80
2021-12-09 14:25:44;4.13;132.44;64;33.80
2021-12-09 14:30:41;4.13;133.41;63;34.10
2021-12-09 14:35:43;4.13;131.80;63;34.30
2021-12-09 14:40:44;4.13;132.44;61;34.80
2021-12-09 14:45:41;4.13;133.41;60;34.50
2021-12-09 14:50:42;4.13;132.12;62;34.40
2021-12-09 14:55:44;4.13;133.41;63;34.80
2021-12-09 15:00:45;4.13;131.80;61;35.20
2021-12-09 15:05:42;4.13;133.73;60;35.50
2021-12-09 15:10:44;4.13;133.41;60;35.90
2021-12-09 15:15:45;4.13;132.12;62;35.20
2021-12-09 15:20:42;4.13;132.12;59;36.60
2021-12-09 15:25:44;4.13;132.12;56;38.50
2021-12-09 15:30:45;4.13;133.73;54;39.50
2021-12-09 15:35:43;4.13;132.44;55;37.60
2021-12-09 15:40:45;4.13;133.73;56;37.60
2021-12-09 15:45:42;4.13;132.12;57;37.40
2021-12-09 15:50:44;4.13;133.73;55;38.40
2021-12-09 15:55:46;4.13;133.73;57;37.70
2021-12-09 16:00:43;4.13;132.12;58;38.00
2021-12-09 16:05:45;4.13;133.73;53;38.30
2021-12-09 16:10:43;4.13;133.73;56;37.60
2021-12-09 16:15:45;4.13;132.44;56;36.80
2021-12-09 16:20:42;4.13;132.12;58;36.80
2021-12-09 16:25:44;4.13;133.89;58;35.80
2021-12-09 16:30:41;4.13;133.73;60;35.40
2021-12-09 16:35:43;4.13;133.73;60;34.50
2021-12-09 16:40:45;4.13;132.44;62;34.50
2021-12-09 16:45:42;4.13;133.73;64;33.60
2021-12-09 16:50:44;4.13;132.12;67;32.90
2021-12-09 16:55:45;4.13;133.73;69;32.50
2021-12-09 17:00:42;4.13;133.73;71;30.70
2021-12-09 17:05:43;4.13;133.89;73;30.00
2021-12-09 17:10:44;4.13;133.73;76;29.70
2021-12-09 17:15:40;4.13;133.73;84;28.70
2021-12-09 17:20:41;4.13;133.73;93;26.70
2021-12-09 17:25:42;4.13;133.73;99;25.80
2021-12-09 17:30:42;4.13;132.44;99;25.00
2021-12-09 17:35:43;4.13;133.89;99;25.00
2021-12-09 17:40:43;4.13;133.73;99;24.80
2021-12-09 17:45:43;4.13;133.41;99;24.50
2021-12-09 17:50:42;4.13;133.41;99;24.30
2021-12-09 17:55:42;4.13;132.12;99;23.90
2021-12-09 18:00:42;4.13;133.41;99;23.50
2021-12-09 18:05:41;4.13;131.80;99;23.30
2021-12-09 18:10:41;4.13;132.12;99;23.00
2021-12-09 18:15:40;4.13;132.44;99;22.40
2021-12-09 18:20:40;4.13;133.41;99;22.20
2021-12-09 18:25:44;4.13;132.12;93;21.90
2021-12-09 18:30:43;4.13;131.48;86;22.10
2021-12-09 18:35:42;4.13;131.80;87;22.30
2021-12-09 18:40:41;4.13;133.09;88;22.00
2021-12-09 18:45:41;4.13;131.48;85;22.00
2021-12-09 18:50:40;4.13;131.80;77;22.00
2021-12-09 18:55:44;4.13;133.09;68;21.90
2021-12-09 19:00:43;4.13;133.09;55;22.20
2021-12-09 19:05:42;4.13;133.09;32;22.40
2021-12-09 19:10:41;4.13;131.48;55;22.20
2021-12-09 19:15:40;4.13;131.48;86;22.00
2021-12-09 19:20:40;4.13;131.80;89;22.20
2021-12-09 19:25:43;4.13;133.09;93;21.90
2021-12-09 19:30:43;4.13;131.80;90;22.00
2021-12-09 19:35:42;4.13;132.77;82;21.80
2021-12-09 19:40:41;4.13;133.41;72;22.30
2021-12-09 19:45:40;4.13;132.77;57;21.70
2021-12-09 19:50:44;4.13;131.48;52;21.80
2021-12-09 19:55:43;4.13;131.80;39;21.80
2021-12-09 20:00:42;4.13;131.48;33;21.80
2021-12-09 20:05:41;4.13;131.48;42;21.90
2021-12-09 20:10:40;4.13;131.80;40;22.10
2021-12-09 20:15:39;4.13;131.15;30;21.60
2021-12-09 20:20:43;4.13;131.48;18;21.60
2021-12-09 20:25:42;4.13;132.77;9;21.70
2021-12-09 20:30:41;4.13;131.15;2;21.30
2021-12-09 20:35:40;4.13;132.77;2;21.40
2021-12-09 20:40:39;4.13;131.15;2;21.30
2021-12-09 20:45:43;4.13;131.48;2;21.50
2021-12-09 20:50:42;4.13;132.77;2;21.20
2021-12-09 20:55:41;4.13;132.77;2;21.20
2021-12-09 21:00:40;4.13;132.77;2;21.50
2021-12-09 21:05:39;4.13;132.77;2;21.00
2021-12-09 21:10:43;4.13;131.15;2;21.00
2021-12-09 21:15:42;4.13;131.15;2;20.60
2021-12-09 21:20:41;4.13;132.44;2;20.50
2021-12-09 21:25:39;4.13;130.83;2;20.40
2021-12-09 21:30:43;4.13;131.15;2;20.30
2021-12-09 21:35:42;4.13;131.15;2;20.50
2021-12-09 21:40:41;4.12;131.48;2;20.40
2021-12-09 21:45:40;4.13;132.77;2;20.10
2021-12-09 21:50:43;4.13;132.44;2;20.40
2021-12-09 21:55:42;4.12;131.15;2;20.10
2021-12-09 22:00:41;4.12;132.44;2;20.10
2021-12-09 22:05:40;4.13;131.15;2;20.30
2021-12-09 22:10:43;4.12;131.48;2;20.10
2021-12-09 22:15:42;4.12;131.15;2;19.90
2021-12-09 22:20:41;4.12;132.44;2;19.90
2021-12-09 22:25:40;4.12;132.44;2;19.70
2021-12-09 22:30:43;4.12;132.77;2;19.70
2021-12-09 22:35:42;4.12;132.44;2;19.80
2021-12-09 22:40:41;4.12;131.48;2;19.70
2021-12-09 22:45:40;4.12;131.15;2;19.80
2021-12-09 22:50:43;4.12;131.48;2;19.30
2021-12-09 22:55:42;4.12;132.44;2;19.60
2021-12-09 23:00:40;4.12;132.44;2;19.10
2021-12-09 23:05:39;4.12;132.44;2;19.40
2021-12-09 23:10:43;4.12;131.15;2;19.20
2021-12-09 23:15:41;4.12;131.15;2;19.20
2021-12-09 23:20:40;4.12;131.48;2;19.00
2021-12-09 23:25:39;4.12;132.77;2;19.10
2021-12-09 23:30:42;4.12;131.15;2;18.90
2021-12-09 23:35:41;4.12;132.77;2;18.70
2021-12-09 23:40:39;4.12;131.48;2;18.50
2021-12-09 23:45:43;4.12;132.77;2;18.70
2021-12-09 23:50:41;4.12;130.83;2;18.50
2021-12-09 23:55:40;4.12;131.15;2;18.70
