2023-03-17 00:00:01;91;8
2023-03-17 00:01:03;90;8
2023-03-17 00:02:01;90;8
2023-03-17 00:03:04;90;8
2023-03-17 00:04:02;90;8
2023-03-17 00:05:00;90;8
2023-03-17 00:06:02;90;8
2023-03-17 00:07:01;90;8
2023-03-17 00:08:03;90;8
2023-03-17 00:09:01;90;8
2023-03-17 00:10:04;90;8
2023-03-17 00:11:02;90;8
2023-03-17 00:12:00;90;8
2023-03-17 00:13:03;90;8
2023-03-17 00:14:01;90;8
2023-03-17 00:15:03;90;8
2023-03-17 00:16:01;90;8
2023-03-17 00:17:04;90;8
2023-03-17 00:18:02;90;8
2023-03-17 00:19:00;91;8
2023-03-17 00:20:03;90;8
2023-03-17 00:21:01;90;8
2023-03-17 00:22:03;90;8
2023-03-17 00:23:01;90;8
2023-03-17 00:24:00;90;8
2023-03-17 00:25:02;90;8
2023-03-17 00:26:00;90;8
2023-03-17 00:27:03;90;8
2023-03-17 00:28:01;90;8
2023-03-17 00:29:03;90;8
2023-03-17 00:30:01;90;8
2023-03-17 00:31:00;90;8
2023-03-17 00:32:02;90;8
2023-03-17 00:33:00;90;8
2023-03-17 00:34:03;90;8
2023-03-17 00:35:01;90;8
2023-03-17 00:36:03;90;8
2023-03-17 00:37:02;90;8
2023-03-17 00:38:00;90;8
2023-03-17 00:39:02;91;8
2023-03-17 00:40:00;90;8
2023-03-17 00:41:03;90;8
2023-03-17 00:42:01;90;8
2023-03-17 00:43:03;90;8
2023-03-17 00:44:02;90;8
2023-03-17 00:45:00;90;8
2023-03-17 00:46:02;90;8
2023-03-17 00:47:00;90;8
2023-03-17 00:48:03;90;8
2023-03-17 00:49:01;90;8
2023-03-17 00:50:03;90;8
2023-03-17 00:51:02;90;8
2023-03-17 00:52:00;90;8
2023-03-17 00:53:02;90;8
2023-03-17 00:54:00;90;8
2023-03-17 00:55:03;90;8
2023-03-17 00:56:01;90;8
2023-03-17 00:57:04;90;8
2023-03-17 00:58:02;90;8
2023-03-17 00:59:00;91;8
2023-03-17 01:00:02;90;8
2023-03-17 01:01:01;90;8
2023-03-17 01:02:03;90;8
2023-03-17 01:03:01;90;8
2023-03-17 01:04:04;90;8
2023-03-17 01:05:02;90;8
2023-03-17 01:06:00;90;8
2023-03-17 01:07:02;90;8
2023-03-17 01:08:01;90;8
2023-03-17 01:09:03;90;8
2023-03-17 01:10:01;90;8
2023-03-17 01:11:04;90;8
2023-03-17 01:12:02;90;8
2023-03-17 01:13:00;90;8
2023-03-17 01:14:03;90;8
2023-03-17 01:15:01;90;8
2023-03-17 01:16:03;90;8
2023-03-17 01:17:01;90;8
2023-03-17 01:18:00;90;8
2023-03-17 01:19:02;90;8
2023-03-17 01:20:00;90;8
2023-03-17 01:21:03;90;8
2023-03-17 01:22:01;90;8
2023-03-17 01:23:03;90;8
2023-03-17 01:24:01;90;8
2023-03-17 01:25:00;90;8
2023-03-17 01:26:02;90;8
2023-03-17 01:27:00;90;8
2023-03-17 01:28:03;90;8
2023-03-17 01:29:01;90;8
2023-03-17 01:30:03;90;8
2023-03-17 01:31:02;90;8
2023-03-17 01:32:00;90;8
2023-03-17 01:33:02;90;8
2023-03-17 01:34:00;90;8
2023-03-17 01:35:03;90;8
2023-03-17 01:36:01;90;8
2023-03-17 01:37:04;90;8
2023-03-17 01:38:02;91;8
2023-03-17 01:39:00;90;8
2023-03-17 01:40:02;90;8
2023-03-17 01:41:01;90;8
2023-03-17 01:42:03;90;8
2023-03-17 01:43:01;90;8
2023-03-17 01:44:04;90;8
2023-03-17 01:45:02;90;8
2023-03-17 01:46:00;90;8
2023-03-17 01:47:02;90;8
2023-03-17 01:48:01;90;8
2023-03-17 01:49:03;90;8
2023-03-17 01:50:01;90;8
2023-03-17 01:51:04;90;8
2023-03-17 01:52:02;90;8
2023-03-17 01:53:00;90;8
2023-03-17 01:54:03;90;8
2023-03-17 01:55:01;90;8
2023-03-17 01:56:03;90;8
2023-03-17 01:57:01;90;8
2023-03-17 01:58:00;91;8
2023-03-17 01:59:02;90;8
2023-03-17 02:00:00;90;8
2023-03-17 02:01:03;90;8
2023-03-17 02:02:01;90;8
2023-03-17 02:03:03;90;8
2023-03-17 02:04:02;90;8
2023-03-17 02:05:00;90;8
2023-03-17 02:06:02;90;8
2023-03-17 02:07:00;90;8
2023-03-17 02:08:03;90;8
2023-03-17 02:09:01;90;8
2023-03-17 02:10:04;90;8
2023-03-17 02:11:02;90;8
2023-03-17 02:12:00;90;8
2023-03-17 02:13:02;90;8
2023-03-17 02:14:01;90;8
2023-03-17 02:15:03;90;8
2023-03-17 02:16:01;90;8
2023-03-17 02:17:00;90;8
2023-03-17 02:18:02;90;8
2023-03-17 02:19:00;90;8
2023-03-17 02:20:03;90;8
2023-03-17 02:21:01;90;8
2023-03-17 02:22:03;90;8
2023-03-17 02:23:01;90;8
2023-03-17 02:24:00;90;8
2023-03-17 02:25:02;90;8
2023-03-17 02:26:00;90;8
2023-03-17 02:27:03;90;8
2023-03-17 02:28:01;90;8
2023-03-17 02:29:03;90;8
2023-03-17 02:30:02;90;8
2023-03-17 02:31:00;90;8
2023-03-17 02:32:02;90;8
2023-03-17 02:33:01;90;8
2023-03-17 02:34:03;90;8
2023-03-17 02:35:01;90;8
2023-03-17 02:36:04;90;8
2023-03-17 02:37:02;91;8
2023-03-17 02:38:00;90;8
2023-03-17 02:39:03;90;8
2023-03-17 02:40:01;90;8
2023-03-17 02:41:03;90;8
2023-03-17 02:42:01;90;8
2023-03-17 02:43:00;90;8
2023-03-17 02:44:02;90;8
2023-03-17 02:45:00;90;8
2023-03-17 02:46:03;90;8
2023-03-17 02:47:01;90;8
2023-03-17 02:48:03;90;8
2023-03-17 02:49:02;90;8
2023-03-17 02:50:00;90;8
2023-03-17 02:51:02;90;8
2023-03-17 02:52:00;90;8
2023-03-17 02:53:03;90;8
2023-03-17 02:54:01;90;8
2023-03-17 02:55:04;90;8
2023-03-17 02:56:02;90;8
2023-03-17 02:57:00;91;8
2023-03-17 02:58:02;90;8
2023-03-17 02:59:01;90;8
2023-03-17 03:00:03;90;8
2023-03-17 03:01:01;90;8
2023-03-17 03:02:04;90;8
2023-03-17 03:03:02;90;8
2023-03-17 03:04:00;90;8
2023-03-17 03:05:03;90;8
2023-03-17 03:06:01;90;8
2023-03-17 03:07:03;90;8
2023-03-17 03:08:02;90;8
2023-03-17 03:09:00;90;8
2023-03-17 03:10:02;90;8
2023-03-17 03:11:00;90;8
2023-03-17 03:12:03;90;8
2023-03-17 03:13:01;90;8
2023-03-17 03:14:04;90;8
2023-03-17 03:15:02;90;8
2023-03-17 03:16:00;90;8
2023-03-17 03:17:02;90;8
2023-03-17 03:18:01;90;8
2023-03-17 03:19:03;90;8
2023-03-17 03:20:01;90;8
2023-03-17 03:21:04;90;8
2023-03-17 03:22:02;90;8
2023-03-17 03:23:00;90;8
2023-03-17 03:24:03;90;8
2023-03-17 03:25:01;90;8
2023-03-17 03:26:03;90;8
2023-03-17 03:27:01;90;8
2023-03-17 03:28:00;90;8
2023-03-17 03:29:02;90;8
2023-03-17 03:30:00;90;8
2023-03-17 03:31:03;90;8
2023-03-17 03:32:01;90;8
2023-03-17 03:33:04;90;8
2023-03-17 03:34:02;90;8
2023-03-17 03:35:00;90;8
2023-03-17 03:36:02;90;8
2023-03-17 03:37:01;90;8
2023-03-17 03:38:03;90;8
2023-03-17 03:39:01;90;8
2023-03-17 03:40:04;90;8
2023-03-17 03:41:02;90;8
2023-03-17 03:42:00;90;8
2023-03-17 03:43:03;90;8
2023-03-17 03:44:01;90;8
2023-03-17 03:45:03;90;8
2023-03-17 03:46:02;90;8
2023-03-17 03:47:00;90;8
2023-03-17 03:48:02;90;8
2023-03-17 03:49:00;90;8
2023-03-17 03:50:03;90;8
2023-03-17 03:51:01;90;8
2023-03-17 03:52:04;90;8
2023-03-17 03:53:02;90;8
2023-03-17 03:54:00;90;8
2023-03-17 03:55:03;90;8
2023-03-17 03:56:01;90;8
2023-03-17 03:57:03;90;8
2023-03-17 03:58:01;90;8
2023-03-17 03:58:59;90;8
2023-03-17 04:00:02;90;8
2023-03-17 04:01:00;90;8
2023-03-17 04:02:03;90;8
2023-03-17 04:03:01;90;8
2023-03-17 04:04:03;90;8
2023-03-17 04:05:01;90;8
2023-03-17 04:05:59;90;8
2023-03-17 04:07:02;90;8
2023-03-17 04:08:00;90;8
2023-03-17 04:09:03;90;8
2023-03-17 04:10:01;90;8
2023-03-17 04:11:03;90;8
2023-03-17 04:12:01;90;8
2023-03-17 04:13:04;90;8
2023-03-17 04:14:02;90;8
2023-03-17 04:15:00;90;8
2023-03-17 04:16:03;90;8
2023-03-17 04:17:01;90;8
2023-03-17 04:18:03;90;8
2023-03-17 04:19:01;90;8
2023-03-17 04:20:04;90;8
2023-03-17 04:21:02;90;8
2023-03-17 04:22:00;90;8
2023-03-17 04:23:03;90;8
2023-03-17 04:24:01;90;8
2023-03-17 04:25:03;90;8
2023-03-17 04:26:01;90;8
2023-03-17 04:27:04;90;8
2023-03-17 04:28:02;90;8
2023-03-17 04:29:00;90;8
2023-03-17 04:30:03;90;8
2023-03-17 04:31:01;90;8
2023-03-17 04:32:03;90;8
2023-03-17 04:33:01;90;8
2023-03-17 04:34:04;90;8
2023-03-17 04:35:02;90;8
2023-03-17 04:36:00;90;8
2023-03-17 04:37:03;90;8
2023-03-17 04:38:01;90;8
2023-03-17 04:39:03;90;8
2023-03-17 04:40:01;90;8
2023-03-17 04:41:04;90;8
2023-03-17 04:42:02;90;8
2023-03-17 04:43:00;90;8
2023-03-17 04:44:03;90;8
2023-03-17 04:45:01;90;8
2023-03-17 04:46:03;90;8
2023-03-17 04:47:01;90;8
2023-03-17 04:48:04;90;8
2023-03-17 04:49:02;90;8
2023-03-17 04:50:00;90;8
2023-03-17 04:51:03;90;8
2023-03-17 04:52:01;90;8
2023-03-17 04:53:03;90;8
2023-03-17 04:54:01;90;8
2023-03-17 04:55:04;90;8
2023-03-17 04:56:02;90;8
2023-03-17 04:57:00;90;8
2023-03-17 04:58:03;90;8
2023-03-17 04:59:01;90;8
2023-03-17 05:00:03;90;8
2023-03-17 05:01:01;90;8
2023-03-17 05:02:04;90;8
2023-03-17 05:03:02;90;8
2023-03-17 05:04:00;90;8
2023-03-17 05:05:03;90;8
2023-03-17 05:06:01;90;8
2023-03-17 05:07:03;90;8
2023-03-17 05:08:01;90;8
2023-03-17 05:09:00;90;8
2023-03-17 05:10:02;90;8
2023-03-17 05:11:00;90;8
2023-03-17 05:12:03;90;8
2023-03-17 05:13:01;90;8
2023-03-17 05:14:03;90;8
2023-03-17 05:15:01;90;8
2023-03-17 05:16:00;90;8
2023-03-17 05:17:02;90;8
2023-03-17 05:18:00;90;8
2023-03-17 05:19:03;90;8
2023-03-17 05:20:01;90;8
2023-03-17 05:21:03;90;8
2023-03-17 05:22:01;90;8
2023-03-17 05:23:00;90;8
2023-03-17 05:24:02;90;8
2023-03-17 05:25:00;90;8
2023-03-17 05:26:03;90;8
2023-03-17 05:27:01;90;8
2023-03-17 05:28:03;90;8
2023-03-17 05:29:01;90;8
2023-03-17 05:30:00;90;8
2023-03-17 05:31:02;90;8
2023-03-17 05:32:00;90;8
2023-03-17 05:33:03;90;8
2023-03-17 05:34:01;90;8
2023-03-17 05:35:03;90;8
2023-03-17 05:36:02;90;8
2023-03-17 05:37:00;90;8
2023-03-17 05:38:02;90;8
2023-03-17 05:39:00;90;8
2023-03-17 05:40:03;90;8
2023-03-17 05:41:01;90;8
2023-03-17 05:42:03;90;8
2023-03-17 05:43:02;90;8
2023-03-17 05:44:00;90;8
2023-03-17 05:45:02;90;8
2023-03-17 05:46:00;90;8
2023-03-17 05:47:03;90;8
2023-03-17 05:48:01;90;8
2023-03-17 05:49:03;90;8
2023-03-17 05:50:02;90;8
2023-03-17 05:51:00;90;8
2023-03-17 05:52:02;89;8
2023-03-17 05:53:00;90;8
2023-03-17 05:54:03;90;8
2023-03-17 05:55:01;90;8
2023-03-17 05:56:03;90;8
2023-03-17 05:57:02;90;8
2023-03-17 05:58:00;90;8
2023-03-17 05:59:02;90;8
2023-03-17 06:00:00;90;8
2023-03-17 06:01:03;90;8
2023-03-17 06:02:01;90;8
2023-03-17 06:03:03;90;8
2023-03-17 06:04:02;90;8
2023-03-17 06:05:00;89;8
2023-03-17 06:06:02;90;8
2023-03-17 06:07:00;90;8
2023-03-17 06:08:03;90;8
2023-03-17 06:09:01;90;8
2023-03-17 06:10:04;90;8
2023-03-17 06:11:02;90;8
2023-03-17 06:12:00;90;8
2023-03-17 06:13:02;90;8
2023-03-17 06:14:00;90;8
2023-03-17 06:15:03;90;8
2023-03-17 06:16:01;90;8
2023-03-17 06:17:04;90;8
2023-03-17 06:18:02;90;8
2023-03-17 06:19:00;89;8
2023-03-17 06:20:02;90;8
2023-03-17 06:21:01;90;8
2023-03-17 06:22:03;89;8
2023-03-17 06:23:01;89;8
2023-03-17 06:24:04;90;8
2023-03-17 06:25:02;89;8
2023-03-17 06:26:00;90;8
2023-03-17 06:27:02;90;8
2023-03-17 06:28:01;90;8
2023-03-17 06:29:03;90;8
2023-03-17 06:30:01;90;8
2023-03-17 06:31:04;89;8
2023-03-17 06:32:02;90;8
2023-03-17 06:33:00;89;8
2023-03-17 06:34:03;89;8
2023-03-17 06:35:01;89;8
2023-03-17 06:36:03;89;8
2023-03-17 06:37:01;90;8
2023-03-17 06:38:00;90;8
2023-03-17 06:39:02;89;8
2023-03-17 06:40:00;89;8
2023-03-17 06:41:03;89;8
2023-03-17 06:42:01;89;8
2023-03-17 06:43:03;89;8
2023-03-17 06:44:01;89;8
2023-03-17 06:45:00;89;8
2023-03-17 06:46:02;89;8
2023-03-17 06:47:00;89;8
2023-03-17 06:48:03;89;8
2023-03-17 06:49:01;89;8
2023-03-17 06:50:04;90;8
2023-03-17 06:51:02;89;8
2023-03-17 06:52:00;89;8
2023-03-17 06:53:02;90;8
2023-03-17 06:54:01;89;8
2023-03-17 06:55:03;89;8
2023-03-17 06:56:01;89;8
2023-03-17 06:57:04;89;8
2023-03-17 06:58:02;89;8
2023-03-17 06:59:00;89;8
2023-03-17 07:00:03;89;8
2023-03-17 07:01:01;89;8
2023-03-17 07:02:03;89;8
2023-03-17 07:03:01;89;8
2023-03-17 07:04:00;90;8
2023-03-17 07:05:02;89;8
2023-03-17 07:06:00;89;8
2023-03-17 07:07:03;89;8
2023-03-17 07:08:01;89;8
2023-03-17 07:09:03;89;8
2023-03-17 07:10:01;89;8
2023-03-17 07:11:00;89;8
2023-03-17 07:12:02;89;8
2023-03-17 07:13:00;90;8
2023-03-17 07:14:03;89;8
2023-03-17 07:15:01;89;8
2023-03-17 07:16:03;89;8
2023-03-17 07:17:02;89;8
2023-03-17 07:18:00;89;8
2023-03-17 07:19:02;89;8
2023-03-17 07:20:00;89;8
2023-03-17 07:21:03;89;8
2023-03-17 07:22:01;89;8
2023-03-17 07:23:03;89;8
2023-03-17 07:24:02;89;8
2023-03-17 07:25:00;89;8
2023-03-17 07:26:02;89;8
2023-03-17 07:27:00;89;8
2023-03-17 07:28:03;89;8
2023-03-17 07:29:01;89;8
2023-03-17 07:30:04;89;8
2023-03-17 07:31:02;89;8
2023-03-17 07:32:00;89;8
2023-03-17 07:33:02;89;8
2023-03-17 07:34:01;89;8
2023-03-17 07:35:03;89;8
2023-03-17 07:36:01;89;8
2023-03-17 07:37:04;89;8
2023-03-17 07:38:02;89;8
2023-03-17 07:39:00;89;8
2023-03-17 07:40:03;89;8
2023-03-17 07:41:01;89;8
2023-03-17 07:42:03;89;8
2023-03-17 07:43:01;89;8
2023-03-17 07:44:00;89;8
2023-03-17 07:45:02;89;8
2023-03-17 07:46:00;89;8
2023-03-17 07:47:03;89;8
2023-03-17 07:48:01;89;8
2023-03-17 07:49:03;89;8
2023-03-17 07:50:02;89;8
2023-03-17 07:51:00;89;8
2023-03-17 07:52:02;90;8
2023-03-17 07:53:00;89;8
2023-03-17 07:54:03;89;8
2023-03-17 07:55:01;89;8
2023-03-17 07:56:03;89;8
2023-03-17 07:57:02;89;8
2023-03-17 07:58:00;89;8
2023-03-17 07:59:02;89;8
2023-03-17 08:00:01;89;8
2023-03-17 08:01:03;89;8
2023-03-17 08:02:01;89;8
2023-03-17 08:03:04;89;8
2023-03-17 08:04:02;89;8
2023-03-17 08:05:00;89;8
2023-03-17 08:06:03;89;8
2023-03-17 08:07:01;89;8
2023-03-17 08:08:03;89;8
2023-03-17 08:09:01;89;8
2023-03-17 08:10:00;89;8
2023-03-17 08:11:02;89;8
2023-03-17 08:12:00;90;8
2023-03-17 08:13:03;89;8
2023-03-17 08:14:01;89;8
2023-03-17 08:15:03;89;8
2023-03-17 08:16:01;89;8
2023-03-17 08:17:00;89;8
2023-03-17 08:18:02;89;8
2023-03-17 08:19:00;89;8
2023-03-17 08:20:03;89;8
2023-03-17 08:21:01;89;8
2023-03-17 08:22:03;89;8
2023-03-17 08:23:02;89;8
2023-03-17 08:24:00;89;8
2023-03-17 08:25:02;89;8
2023-03-17 08:26:00;89;8
2023-03-17 08:27:03;89;8
2023-03-17 08:28:01;89;8
2023-03-17 08:29:04;89;8
2023-03-17 08:30:02;89;8
2023-03-17 08:31:00;89;8
2023-03-17 08:32:02;89;8
2023-03-17 08:33:01;89;8
2023-03-17 08:34:03;89;8
2023-03-17 08:35:01;89;8
2023-03-17 08:36:04;89;8
2023-03-17 08:37:02;89;8
2023-03-17 08:38:00;89;8
2023-03-17 08:39:03;89;8
2023-03-17 08:40:01;89;8
2023-03-17 08:41:03;89;8
2023-03-17 08:42:01;89;8
2023-03-17 08:43:00;89;8
2023-03-17 08:44:02;89;8
2023-03-17 08:45:00;89;8
2023-03-17 08:46:03;89;8
2023-03-17 08:47:01;89;8
2023-03-17 08:48:03;89;8
2023-03-17 08:49:02;89;8
2023-03-17 08:50:00;89;8
2023-03-17 08:51:02;90;8
2023-03-17 08:52:01;89;8
2023-03-17 08:53:03;89;8
2023-03-17 08:54:01;89;8
2023-03-17 08:55:04;89;8
2023-03-17 08:56:02;89;8
2023-03-17 08:57:00;89;8
2023-03-17 08:58:03;89;8
2023-03-17 08:59:01;89;8
2023-03-17 09:00:03;89;8
2023-03-17 09:01:01;89;8
2023-03-17 09:02:00;89;8
2023-03-17 09:03:02;89;8
2023-03-17 09:04:00;89;8
2023-03-17 09:05:03;89;8
2023-03-17 09:06:01;89;8
2023-03-17 09:07:03;89;8
2023-03-17 09:08:02;89;8
2023-03-17 09:09:00;89;8
2023-03-17 09:10:02;89;8
2023-03-17 09:11:00;90;8
2023-03-17 09:12:03;87;8
2023-03-17 09:13:01;87;8
2023-03-17 09:14:04;87;8
2023-03-17 09:15:02;87;8
2023-03-17 09:16:00;87;8
2023-03-17 09:17:03;87;8
2023-03-17 09:18:01;87;8
2023-03-17 09:19:03;87;8
2023-03-17 09:20:01;87;8
2023-03-17 09:21:00;87;8
2023-03-17 09:22:02;87;8
2023-03-17 09:23:00;87;8
2023-03-17 09:24:03;87;8
2023-03-17 09:25:01;87;8
2023-03-17 09:26:03;87;8
2023-03-17 09:27:02;87;8
2023-03-17 09:28:00;87;8
2023-03-17 09:29:02;87;8
2023-03-17 09:30:01;87;8
2023-03-17 09:31:03;90;8
2023-03-17 09:32:01;89;8
2023-03-17 09:33:04;89;8
2023-03-17 09:34:02;89;8
2023-03-17 09:35:00;89;8
2023-03-17 09:36:03;89;8
2023-03-17 09:37:01;89;8
2023-03-17 09:38:03;89;8
2023-03-17 09:39:01;89;8
2023-03-17 09:40:00;89;8
2023-03-17 09:41:02;89;8
2023-03-17 09:42:00;89;8
2023-03-17 09:43:03;89;8
2023-03-17 09:44:01;89;8
2023-03-17 09:45:03;89;8
2023-03-17 09:46:01;89;8
2023-03-17 09:47:00;89;8
2023-03-17 09:48:02;89;8
2023-03-17 09:49:00;89;8
2023-03-17 09:50:03;89;8
2023-03-17 09:51:01;87;8
2023-03-17 09:52:03;87;8
2023-03-17 09:53:01;87;8
2023-03-17 09:54:04;86;8
2023-03-17 09:55:02;87;8
2023-03-17 09:56:00;87;8
2023-03-17 09:57:03;87;8
2023-03-17 09:58:01;87;8
2023-03-17 09:59:03;86;8
2023-03-17 10:00:01;87;8
2023-03-17 10:01:04;87;8
2023-03-17 10:02:02;86;8
2023-03-17 10:03:00;87;8
2023-03-17 10:04:03;87;8
2023-03-17 10:05:01;86;8
2023-03-17 10:06:03;87;8
2023-03-17 10:07:01;87;8
2023-03-17 10:08:04;87;8
2023-03-17 10:09:02;87;8
2023-03-17 10:10:00;90;8
2023-03-17 10:11:02;89;8
2023-03-17 10:12:01;89;8
2023-03-17 10:13:03;89;8
2023-03-17 10:14:01;89;8
2023-03-17 10:15:04;89;8
2023-03-17 10:16:02;89;8
2023-03-17 10:17:00;89;8
2023-03-17 10:18:02;89;8
2023-03-17 10:19:01;89;8
2023-03-17 10:20:03;89;8
2023-03-17 10:21:01;89;8
2023-03-17 10:22:04;89;8
2023-03-17 10:23:02;89;8
2023-03-17 10:24:00;89;8
2023-03-17 10:25:02;89;8
2023-03-17 10:26:01;89;8
2023-03-17 10:27:03;89;8
2023-03-17 10:28:01;89;8
2023-03-17 10:29:04;89;8
2023-03-17 10:30:02;90;8
2023-03-17 10:31:00;89;8
2023-03-17 10:32:02;89;8
2023-03-17 10:33:01;89;8
2023-03-17 10:34:03;89;8
2023-03-17 10:35:01;89;8
2023-03-17 10:36:04;89;8
2023-03-17 10:37:02;89;8
2023-03-17 10:38:00;89;8
2023-03-17 10:39:02;89;8
2023-03-17 10:40:01;89;8
2023-03-17 10:41:03;89;8
2023-03-17 10:42:01;89;8
2023-03-17 10:43:04;89;8
2023-03-17 10:44:02;89;8
2023-03-17 10:45:00;89;8
2023-03-17 10:46:02;89;8
2023-03-17 10:47:01;89;8
2023-03-17 10:48:03;89;8
2023-03-17 10:49:01;89;8
2023-03-17 10:50:04;89;8
2023-03-17 10:51:02;89;8
2023-03-17 10:52:00;89;8
2023-03-17 10:53:03;89;8
2023-03-17 10:54:01;89;8
2023-03-17 10:55:03;89;8
2023-03-17 10:56:01;89;8
2023-03-17 10:57:04;89;8
2023-03-17 10:58:02;89;8
2023-03-17 10:59:00;89;8
2023-03-17 11:00:03;89;8
2023-03-17 11:01:01;89;8
2023-03-17 11:02:03;89;8
2023-03-17 11:03:01;89;8
2023-03-17 11:04:00;89;8
2023-03-17 11:05:02;89;8
2023-03-17 11:06:00;89;8
2023-03-17 11:07:03;89;8
2023-03-17 11:08:01;89;8
2023-03-17 11:09:03;90;8
2023-03-17 11:10:01;89;8
2023-03-17 11:11:00;89;8
2023-03-17 11:12:02;89;8
2023-03-17 11:13:00;89;8
2023-03-17 11:14:03;89;8
2023-03-17 11:15:01;89;8
2023-03-17 11:16:03;89;8
2023-03-17 11:17:02;89;8
2023-03-17 11:18:00;89;8
2023-03-17 11:19:02;89;8
2023-03-17 11:20:00;89;8
2023-03-17 11:21:03;88;8
2023-03-17 11:22:01;89;8
2023-03-17 11:23:03;89;8
2023-03-17 11:24:02;88;8
2023-03-17 11:25:00;89;8
2023-03-17 11:26:02;88;8
2023-03-17 11:27:00;88;8
2023-03-17 11:28:03;88;8
2023-03-17 11:29:01;89;8
2023-03-17 11:30:04;88;8
2023-03-17 11:31:02;89;8
2023-03-17 11:32:00;89;8
2023-03-17 11:33:02;89;8
2023-03-17 11:34:01;89;8
2023-03-17 11:35:03;89;8
2023-03-17 11:36:01;88;8
2023-03-17 11:37:04;88;8
2023-03-17 11:38:02;89;8
2023-03-17 11:39:00;89;8
2023-03-17 11:40:03;88;8
2023-03-17 11:41:01;89;8
2023-03-17 11:42:03;88;8
2023-03-17 11:43:01;89;8
2023-03-17 11:44:00;88;8
2023-03-17 11:45:02;88;8
2023-03-17 11:46:00;88;8
2023-03-17 11:47:03;88;8
2023-03-17 11:48:01;89;8
2023-03-17 11:49:03;89;8
2023-03-17 11:50:01;88;8
2023-03-17 11:51:00;88;8
2023-03-17 11:52:02;89;8
2023-03-17 11:53:00;88;8
2023-03-17 11:54:03;89;8
2023-03-17 11:55:01;88;8
2023-03-17 11:56:03;88;8
2023-03-17 11:57:02;89;8
2023-03-17 11:58:00;88;8
2023-03-17 11:59:02;88;8
2023-03-17 12:00:00;89;8
2023-03-17 12:01:03;88;8
2023-03-17 12:02:01;88;8
2023-03-17 12:03:04;88;8
2023-03-17 12:04:02;89;8
2023-03-17 12:05:00;88;8
2023-03-17 12:06:02;88;8
2023-03-17 12:07:01;88;8
2023-03-17 12:08:03;89;8
2023-03-17 12:09:01;88;8
2023-03-17 12:10:00;88;8
2023-03-17 12:11:02;88;8
2023-03-17 12:12:00;88;8
2023-03-17 12:13:03;88;8
2023-03-17 12:14:01;88;8
2023-03-17 12:15:03;88;8
2023-03-17 12:16:02;88;9
2023-03-17 12:17:00;88;8
2023-03-17 12:18:02;88;8
2023-03-17 12:19:00;88;8
2023-03-17 12:20:03;88;8
2023-03-17 12:21:01;88;8
2023-03-17 12:22:04;88;8
2023-03-17 12:23:02;88;8
2023-03-17 12:24:00;88;8
2023-03-17 12:25:03;88;8
2023-03-17 12:26:01;88;8
2023-03-17 12:27:03;88;8
2023-03-17 12:28:01;89;9
2023-03-17 12:29:00;88;9
2023-03-17 12:30:02;88;8
2023-03-17 12:31:00;88;8
2023-03-17 12:32:03;88;9
2023-03-17 12:33:01;88;8
2023-03-17 12:34:04;88;8
2023-03-17 12:35:02;88;8
2023-03-17 12:36:00;88;8
2023-03-17 12:37:02;88;8
2023-03-17 12:38:01;88;8
2023-03-17 12:39:03;88;8
2023-03-17 12:40:01;88;8
2023-03-17 12:41:04;88;8
2023-03-17 12:42:02;88;8
2023-03-17 12:43:00;88;8
2023-03-17 12:44:03;88;8
2023-03-17 12:45:01;88;8
2023-03-17 12:46:03;88;8
2023-03-17 12:47:02;88;8
2023-03-17 12:48:00;88;8
2023-03-17 12:49:02;88;8
2023-03-17 12:50:00;88;8
2023-03-17 12:51:03;88;8
2023-03-17 12:52:01;88;8
2023-03-17 12:53:04;88;8
2023-03-17 12:54:02;88;8
2023-03-17 12:55:00;88;8
2023-03-17 12:56:03;88;8
2023-03-17 12:57:01;88;8
2023-03-17 12:58:03;88;8
2023-03-17 12:59:01;88;8
2023-03-17 13:00:00;88;8
2023-03-17 13:01:02;88;8
2023-03-17 13:02:00;88;8
2023-03-17 13:03:03;88;8
2023-03-17 13:04:01;88;8
2023-03-17 13:05:04;88;8
2023-03-17 13:06:02;88;8
2023-03-17 13:07:00;89;8
2023-03-17 13:08:03;88;8
2023-03-17 13:09:01;88;8
2023-03-17 13:10:03;88;8
2023-03-17 13:11:02;88;8
2023-03-17 13:12:00;88;8
2023-03-17 13:13:02;88;8
2023-03-17 13:14:00;88;8
2023-03-17 13:15:03;88;8
2023-03-17 13:16:01;88;9
2023-03-17 13:17:04;88;8
2023-03-17 13:18:02;88;8
2023-03-17 13:19:00;88;8
2023-03-17 13:20:03;88;9
2023-03-17 13:21:01;88;8
2023-03-17 13:22:03;88;8
2023-03-17 13:23:02;88;9
2023-03-17 13:24:00;88;8
2023-03-17 13:25:02;88;9
2023-03-17 13:26:01;88;8
2023-03-17 13:27:03;89;8
2023-03-17 13:28:01;88;9
2023-03-17 13:29:04;88;8
2023-03-17 13:30:02;88;8
2023-03-17 13:31:00;88;8
2023-03-17 13:32:03;88;8
2023-03-17 13:33:01;88;8
2023-03-17 13:34:03;88;8
2023-03-17 13:35:02;88;8
2023-03-17 13:36:00;88;8
2023-03-17 13:37:02;88;8
2023-03-17 13:38:01;88;8
2023-03-17 13:39:03;88;8
2023-03-17 13:40:01;88;8
2023-03-17 13:41:00;88;8
2023-03-17 13:42:02;88;8
2023-03-17 13:43:00;88;8
2023-03-17 13:44:03;88;8
2023-03-17 13:45:01;88;8
2023-03-17 13:46:10;88;8
2023-03-17 13:47:12;89;8
2023-03-17 13:48:02;88;8
#EQ-Puntano; time; bat; cm2023-03-17 15:28:35;89;100
2023-03-17 15:28:59;89;98
2023-03-17 15:30:02;90;100
2023-03-17 15:31:00;90;99
#EQ-Puntano; time; bat; cm2023-03-17 15:31:31;89;99
2023-03-17 15:31:59;89;99
2023-03-17 15:33:02;90;157
2023-03-17 15:34:07;90;326
2023-03-17 15:35:01;90;585
2023-03-17 15:36:23;90;577
2023-03-17 15:37:00;90;576
2023-03-17 15:38:03;90;574
2023-03-17 15:39:02;90;573
2023-03-17 15:40:00;90;572
2023-03-17 15:41:03;90;571
2023-03-17 15:42:40;90;568
2023-03-17 15:43:00;90;568
2023-03-17 15:44:03;90;567
2023-03-17 15:45:01;90;566
2023-03-17 15:46:04;90;565
2023-03-17 15:47:03;90;563
2023-03-17 15:48:01;90;562
2023-03-17 15:49:00;90;562
2023-03-17 15:50:03;90;561
2023-03-17 15:51:02;90;559
2023-03-17 15:52:00;90;558
2023-03-17 15:53:03;90;557
2023-03-17 15:54:02;90;556
2023-03-17 15:55:00;90;555
2023-03-17 15:56:03;90;554
2023-03-17 15:57:02;91;553
2023-03-17 15:58:01;90;552
2023-03-17 15:59:04;91;550
2023-03-17 16:00:02;91;549
2023-03-17 16:01:01;90;548
2023-03-17 16:02:04;91;547
2023-03-17 16:03:02;91;546
2023-03-17 16:04:01;91;545
2023-03-17 16:05:04;91;544
2023-03-17 16:06:03;91;543
2023-03-17 16:07:01;91;541
2023-03-17 16:08:00;91;540
2023-03-17 16:09:03;91;539
2023-03-17 16:10:02;91;538
2023-03-17 16:11:00;91;537
2023-03-17 16:12:03;91;536
2023-03-17 16:13:02;91;535
2023-03-17 16:14:01;91;533
2023-03-17 16:15:04;91;532
2023-03-17 16:16:02;91;531
2023-03-17 16:17:01;92;530
2023-03-17 16:18:04;92;529
2023-03-17 16:19:03;91;527
2023-03-17 16:20:01;92;526
2023-03-17 16:21:04;91;525
2023-03-17 16:22:03;91;525
2023-03-17 16:23:02;92;523
2023-03-17 16:24:00;92;522
2023-03-17 16:25:03;92;522
2023-03-17 16:26:02;92;520
2023-03-17 16:27:00;92;519
2023-03-17 16:28:03;92;518
2023-03-17 16:29:02;92;516
2023-03-17 16:30:01;92;515
2023-03-17 16:31:04;92;515
2023-03-17 16:32:02;92;514
2023-03-17 16:33:01;92;513
2023-03-17 16:34:04;92;512
2023-03-17 16:35:03;92;510
2023-03-17 16:36:01;92;510
2023-03-17 16:37:00;92;508
2023-03-17 16:38:03;92;507
2023-03-17 16:39:02;92;506
2023-03-17 16:40:00;92;505
2023-03-17 16:41:03;92;504
2023-03-17 16:42:02;92;503
2023-03-17 16:43:01;92;502
2023-03-17 16:44:04;92;501
2023-03-17 16:45:02;92;500
2023-03-17 16:46:01;92;499
2023-03-17 16:47:04;92;498
2023-03-17 16:48:03;92;497
2023-03-17 16:49:01;92;496
2023-03-17 16:50:00;92;495
2023-03-17 16:51:03;92;494
2023-03-17 16:52:02;92;493
2023-03-17 16:53:00;92;492
2023-03-17 16:54:03;92;491
2023-03-17 16:55:02;92;490
2023-03-17 16:56:01;92;489
2023-03-17 16:57:04;92;488
2023-03-17 16:58:02;93;487
2023-03-17 16:59:01;93;486
2023-03-17 17:00:04;92;485
2023-03-17 17:01:02;92;484
2023-03-17 17:02:01;92;483
2023-03-17 17:03:04;93;482
2023-03-17 17:04:02;93;481
2023-03-17 17:05:01;92;480
2023-03-17 17:06:04;92;479
2023-03-17 17:07:02;92;478
2023-03-17 17:08:01;92;477
2023-03-17 17:09:04;92;476
2023-03-17 17:10:02;92;475
2023-03-17 17:11:01;92;474
2023-03-17 17:12:04;92;473
2023-03-17 17:13:02;93;473
2023-03-17 17:14:01;92;472
2023-03-17 17:15:04;92;471
2023-03-17 17:16:02;92;470
2023-03-17 17:17:01;92;469
2023-03-17 17:18:03;93;468
2023-03-17 17:19:02;93;467
2023-03-17 17:20:00;92;466
2023-03-17 17:21:03;92;465
2023-03-17 17:22:02;92;464
2023-03-17 17:23:00;92;463
2023-03-17 17:24:03;93;462
2023-03-17 17:25:01;93;461
2023-03-17 17:26:04;93;460
2023-03-17 17:27:02;92;459
2023-03-17 17:28:01;93;459
2023-03-17 17:29:03;93;457
2023-03-17 17:30:02;93;457
2023-03-17 17:31:00;93;455
2023-03-17 17:32:03;93;455
2023-03-17 17:33:01;93;454
2023-03-17 17:34:04;93;453
2023-03-17 17:35:02;93;452
2023-03-17 17:36:01;93;451
2023-03-17 17:37:03;92;450
2023-03-17 17:38:02;93;449
2023-03-17 17:39:00;92;449
2023-03-17 17:40:03;93;448
2023-03-17 17:41:01;93;446
2023-03-17 17:42:04;93;445
2023-03-17 17:43:02;93;445
2023-03-17 17:44:00;93;444
2023-03-17 17:45:03;93;443
2023-03-17 17:46:01;93;442
2023-03-17 17:47:00;92;441
2023-03-17 17:48:02;92;440
2023-03-17 17:49:01;93;440
2023-03-17 17:50:03;93;439
2023-03-17 17:51:02;93;438
2023-03-17 17:52:00;93;437
2023-03-17 17:53:03;93;436
2023-03-17 17:54:01;93;435
2023-03-17 17:55:04;93;434
2023-03-17 17:56:02;93;433
2023-03-17 17:57:00;93;433
2023-03-17 17:58:03;93;432
2023-03-17 17:59:01;93;431
2023-03-17 18:00:04;92;430
2023-03-17 18:01:02;92;429
2023-03-17 18:02:01;93;428
2023-03-17 18:03:03;93;428
2023-03-17 18:04:01;92;427
2023-03-17 18:05:00;92;426
2023-03-17 18:06:02;93;425
2023-03-17 18:07:01;93;425
2023-03-17 18:08:03;93;424
2023-03-17 18:09:02;92;423
2023-03-17 18:10:00;93;422
2023-03-17 18:11:03;93;422
2023-03-17 18:12:01;92;421
2023-03-17 18:13:04;92;420
2023-03-17 18:14:02;92;419
2023-03-17 18:15:00;93;418
2023-03-17 18:16:03;93;417
2023-03-17 18:17:01;92;417
2023-03-17 18:18:04;92;416
2023-03-17 18:19:02;92;415
2023-03-17 18:20:00;92;414
2023-03-17 18:21:03;92;413
2023-03-17 18:22:01;92;413
2023-03-17 18:23:04;93;412
2023-03-17 18:24:02;92;411
2023-03-17 18:25:00;92;411
2023-03-17 18:26:03;93;410
2023-03-17 18:27:01;92;409
2023-03-17 18:28:00;93;408
2023-03-17 18:29:02;92;407
2023-03-17 18:30:01;92;407
2023-03-17 18:31:03;92;406
2023-03-17 18:32:02;92;405
2023-03-17 18:33:00;92;405
2023-03-17 18:34:03;92;404
2023-03-17 18:35:01;92;403
2023-03-17 18:36:04;92;402
2023-03-17 18:37:02;92;402
2023-03-17 18:38:00;92;401
2023-03-17 18:39:03;92;400
2023-03-17 18:40:01;92;399
2023-03-17 18:41:04;92;399
2023-03-17 18:42:02;92;398
2023-03-17 18:43:00;92;397
2023-03-17 18:44:03;93;397
2023-03-17 18:45:01;92;396
2023-03-17 18:46:00;92;395
2023-03-17 18:47:02;92;394
2023-03-17 18:48:01;92;393
2023-03-17 18:49:03;92;393
2023-03-17 18:50:02;92;392
2023-03-17 18:51:00;92;392
2023-03-17 18:52:02;92;391
2023-03-17 18:53:01;92;390
2023-03-17 18:54:03;92;389
2023-03-17 18:55:02;92;389
2023-03-17 18:56:00;92;388
2023-03-17 18:57:03;92;387
2023-03-17 18:58:01;92;387
2023-03-17 18:59:03;92;386
2023-03-17 19:00:02;92;386
2023-03-17 19:01:00;92;385
2023-03-17 19:02:03;92;384
2023-03-17 19:03:01;92;383
2023-03-17 19:04:04;92;383
2023-03-17 19:05:02;92;382
2023-03-17 19:06:00;92;381
2023-03-17 19:07:03;92;380
2023-03-17 19:08:01;92;380
2023-03-17 19:09:04;92;379
2023-03-17 19:10:02;92;379
2023-03-17 19:11:00;92;378
2023-03-17 19:12:03;92;377
2023-03-17 19:13:01;92;376
2023-03-17 19:14:03;92;375
2023-03-17 19:15:02;92;375
2023-03-17 19:16:00;92;374
2023-03-17 19:17:03;92;373
2023-03-17 19:18:01;92;373
2023-03-17 19:19:03;92;372
2023-03-17 19:20:02;92;371
2023-03-17 19:21:00;93;371
2023-03-17 19:22:02;92;370
2023-03-17 19:23:01;92;370
2023-03-17 19:24:03;92;369
2023-03-17 19:25:02;92;368
2023-03-17 19:26:00;92;368
2023-03-17 19:27:02;92;367
2023-03-17 19:28:01;92;367
2023-03-17 19:29:03;92;366
2023-03-17 19:30:01;92;365
2023-03-17 19:31:00;92;365
2023-03-17 19:32:02;92;365
2023-03-17 19:33:00;92;364
2023-03-17 19:34:03;92;363
2023-03-17 19:35:01;92;363
2023-03-17 19:36:04;92;362
2023-03-17 19:37:02;92;362
2023-03-17 19:38:00;92;361
2023-03-17 19:39:03;93;360
2023-03-17 19:40:01;92;360
2023-03-17 19:41:04;92;359
2023-03-17 19:42:02;92;359
2023-03-17 19:43:00;92;358
2023-03-17 19:44:03;92;358
2023-03-17 19:45:01;92;357
2023-03-17 19:46:03;92;356
2023-03-17 19:47:02;92;356
2023-03-17 19:48:00;92;355
2023-03-17 19:49:02;92;355
2023-03-17 19:50:01;92;354
2023-03-17 19:51:03;92;354
2023-03-17 19:52:01;92;353
2023-03-17 19:53:04;92;352
2023-03-17 19:54:02;92;352
2023-03-17 19:55:00;92;351
2023-03-17 19:56:03;92;350
2023-03-17 19:57:01;92;350
2023-03-17 19:58:04;92;349
2023-03-17 19:59:02;92;349
2023-03-17 20:00:00;92;348
2023-03-17 20:01:03;92;348
2023-03-17 20:02:01;92;347
2023-03-17 20:03:03;92;347
2023-03-17 20:04:02;92;346
2023-03-17 20:05:00;92;345
2023-03-17 20:06:02;92;345
2023-03-17 20:07:00;92;344
2023-03-17 20:08:03;92;344
2023-03-17 20:09:01;92;343
2023-03-17 20:10:04;92;342
2023-03-17 20:11:02;92;342
2023-03-17 20:12:00;92;341
2023-03-17 20:13:03;92;341
2023-03-17 20:14:01;92;340
2023-03-17 20:15:03;92;340
2023-03-17 20:16:02;93;339
2023-03-17 20:17:00;92;339
2023-03-17 20:18:02;92;338
2023-03-17 20:19:01;92;338
2023-03-17 20:20:03;92;337
2023-03-17 20:21:01;92;337
2023-03-17 20:22:04;92;336
2023-03-17 20:23:02;92;336
2023-03-17 20:24:00;92;335
2023-03-17 20:25:03;92;334
2023-03-17 20:26:01;92;334
2023-03-17 20:27:03;92;333
2023-03-17 20:28:02;92;333
2023-03-17 20:29:00;92;332
2023-03-17 20:30:02;92;332
2023-03-17 20:31:01;92;331
2023-03-17 20:32:03;92;331
2023-03-17 20:33:01;92;330
2023-03-17 20:34:04;93;330
2023-03-17 20:35:02;92;329
2023-03-17 20:36:00;92;328
2023-03-17 20:37:03;92;328
2023-03-17 20:38:01;92;328
2023-03-17 20:39:03;92;327
2023-03-17 20:40:02;92;326
2023-03-17 20:41:00;92;326
2023-03-17 20:42:02;92;325
2023-03-17 20:43:00;92;325
2023-03-17 20:44:03;92;324
2023-03-17 20:45:01;92;323
2023-03-17 20:46:04;92;323
2023-03-17 20:47:02;92;322
2023-03-17 20:48:00;92;322
2023-03-17 20:49:03;92;322
2023-03-17 20:50:01;92;321
2023-03-17 20:51:03;92;321
2023-03-17 20:52:01;93;320
2023-03-17 20:53:00;90;320
2023-03-17 20:54:02;90;319
2023-03-17 20:55:00;90;319
2023-03-17 20:56:03;90;318
2023-03-17 20:57:01;90;318
2023-03-17 20:58:04;90;317
2023-03-17 20:59:02;90;317
2023-03-17 21:00:00;90;316
2023-03-17 21:01:02;90;316
2023-03-17 21:02:01;90;315
2023-03-17 21:03:03;90;315
2023-03-17 21:04:01;90;314
2023-03-17 21:05:04;90;314
2023-03-17 21:06:02;90;313
2023-03-17 21:07:00;90;313
2023-03-17 21:08:03;90;312
2023-03-17 21:09:01;90;312
2023-03-17 21:10:03;90;311
2023-03-17 21:11:02;92;311
2023-03-17 21:12:00;92;310
2023-03-17 21:13:02;92;310
2023-03-17 21:14:01;92;310
2023-03-17 21:15:03;92;309
2023-03-17 21:16:01;92;309
2023-03-17 21:17:04;92;308
2023-03-17 21:18:02;92;308
2023-03-17 21:19:00;92;307
2023-03-17 21:20:03;92;307
2023-03-17 21:21:01;92;306
2023-03-17 21:22:03;92;306
2023-03-17 21:23:02;92;305
2023-03-17 21:24:00;92;305
2023-03-17 21:25:02;92;304
2023-03-17 21:26:00;92;304
2023-03-17 21:27:03;92;304
2023-03-17 21:28:01;92;303
2023-03-17 21:29:04;93;303
2023-03-17 21:30:02;90;302
2023-03-17 21:31:00;90;302
2023-03-17 21:32:03;90;301
2023-03-17 21:33:01;90;301
2023-03-17 21:34:03;90;300
2023-03-17 21:35:02;90;300
2023-03-17 21:36:00;90;300
2023-03-17 21:37:02;90;299
2023-03-17 21:38:01;90;299
2023-03-17 21:39:03;90;298
2023-03-17 21:40:01;90;297
2023-03-17 21:41:04;90;297
2023-03-17 21:42:02;90;297
2023-03-17 21:43:00;90;296
2023-03-17 21:44:03;90;296
2023-03-17 21:45:01;90;295
2023-03-17 21:46:03;90;295
2023-03-17 21:47:02;93;294
2023-03-17 21:48:00;92;294
2023-03-17 21:49:02;92;294
2023-03-17 21:50:01;92;293
2023-03-17 21:51:03;92;292
2023-03-17 21:52:01;92;292
2023-03-17 21:53:04;92;292
2023-03-17 21:54:02;92;291
2023-03-17 21:55:00;92;291
2023-03-17 21:56:03;92;291
2023-03-17 21:57:01;92;290
2023-03-17 21:58:03;92;290
2023-03-17 21:59:02;92;289
2023-03-17 22:00:00;92;289
2023-03-17 22:01:02;92;288
2023-03-17 22:02:01;92;288
2023-03-17 22:03:03;92;287
2023-03-17 22:04:01;92;287
2023-03-17 22:05:04;92;287
2023-03-17 22:06:02;92;286
2023-03-17 22:07:00;92;286
2023-03-17 22:08:03;92;286
2023-03-17 22:09:01;92;285
2023-03-17 22:10:03;92;285
2023-03-17 22:11:02;92;284
2023-03-17 22:12:00;92;284
2023-03-17 22:13:02;92;283
2023-03-17 22:14:00;92;283
2023-03-17 22:15:03;92;282
2023-03-17 22:16:01;92;282
2023-03-17 22:17:04;92;282
2023-03-17 22:18:02;92;281
2023-03-17 22:19:00;92;281
2023-03-17 22:20:03;92;280
2023-03-17 22:21:01;92;280
2023-03-17 22:22:03;92;280
2023-03-17 22:23:02;92;279
2023-03-17 22:24:00;93;279
2023-03-17 22:25:02;92;279
2023-03-17 22:26:00;92;278
2023-03-17 22:27:03;92;278
2023-03-17 22:28:01;92;277
2023-03-17 22:29:04;92;277
2023-03-17 22:30:02;92;276
2023-03-17 22:31:00;92;276
2023-03-17 22:32:03;92;276
2023-03-17 22:33:01;92;275
2023-03-17 22:34:03;92;275
2023-03-17 22:35:01;92;274
2023-03-17 22:36:00;92;274
2023-03-17 22:37:02;92;274
2023-03-17 22:38:00;92;273
2023-03-17 22:39:03;92;273
2023-03-17 22:40:01;92;272
2023-03-17 22:41:03;92;272
2023-03-17 22:42:02;93;272
2023-03-17 22:43:00;92;271
2023-03-17 22:44:02;92;271
2023-03-17 22:45:00;92;271
2023-03-17 22:46:03;92;270
2023-03-17 22:47:01;92;270
2023-03-17 22:48:03;92;270
2023-03-17 22:49:02;92;269
2023-03-17 22:50:00;92;269
2023-03-17 22:51:02;92;269
2023-03-17 22:52:00;92;268
2023-03-17 22:53:03;92;267
2023-03-17 22:54:01;92;267
2023-03-17 22:55:03;92;267
2023-03-17 22:56:01;92;266
2023-03-17 22:57:00;92;266
2023-03-17 22:58:02;92;266
2023-03-17 22:59:00;92;265
2023-03-17 23:00:03;92;265
2023-03-17 23:01:01;92;265
2023-03-17 23:02:03;92;264
2023-03-17 23:03:01;92;264
2023-03-17 23:03:59;92;263
2023-03-17 23:05:02;92;263
2023-03-17 23:06:00;92;263
2023-03-17 23:07:02;92;263
2023-03-17 23:08:01;92;262
2023-03-17 23:09:03;92;262
2023-03-17 23:10:01;92;262
2023-03-17 23:11:04;92;261
2023-03-17 23:12:02;92;261
2023-03-17 23:13:00;92;261
2023-03-17 23:14:02;92;260
2023-03-17 23:15:00;92;260
2023-03-17 23:16:03;92;260
2023-03-17 23:17:01;92;259
2023-03-17 23:18:03;92;259
2023-03-17 23:19:01;92;258
2023-03-17 23:20:00;92;258
2023-03-17 23:21:02;92;258
2023-03-17 23:22:00;92;257
2023-03-17 23:23:03;92;257
2023-03-17 23:24:01;92;257
2023-03-17 23:25:03;92;257
2023-03-17 23:26:01;92;256
2023-03-17 23:27:04;92;256
2023-03-17 23:28:02;92;255
2023-03-17 23:29:00;92;255
2023-03-17 23:30:02;92;255
2023-03-17 23:31:00;92;255
2023-03-17 23:32:03;92;255
2023-03-17 23:33:01;92;254
2023-03-17 23:34:03;92;254
2023-03-17 23:35:01;92;254
2023-03-17 23:36:00;92;253
2023-03-17 23:37:02;92;253
2023-03-17 23:38:00;92;253
2023-03-17 23:39:03;92;252
2023-03-17 23:40:01;92;252
2023-03-17 23:41:03;92;251
2023-03-17 23:42:01;92;251
2023-03-17 23:43:04;92;251
2023-03-17 23:44:02;92;251
2023-03-17 23:45:00;92;250
2023-03-17 23:46:02;92;250
2023-03-17 23:47:00;92;250
2023-03-17 23:48:03;92;249
2023-03-17 23:49:01;92;249
2023-03-17 23:50:03;92;249
2023-03-17 23:51:01;92;248
2023-03-17 23:52:00;92;248
2023-03-17 23:53:02;92;248
2023-03-17 23:54:00;92;247
2023-03-17 23:55:02;92;247
2023-03-17 23:56:01;92;247
2023-03-17 23:57:03;92;246
2023-03-17 23:58:01;92;246
2023-03-17 23:59:04;92;246
