2020-12-12 00:03:41;3.91;62;17.40;0;0.00
2020-12-12 00:33:41;3.91;55;18.70;0;0.00
2020-12-12 01:03:42;3.91;52;19.10;0;0.00
2020-12-12 01:33:38;3.91;52;18.60;0;0.00
2020-12-12 02:03:39;3.91;55;17.70;0;0.00
2020-12-12 02:33:40;3.91;58;17.60;0;0.00
2020-12-12 03:03:40;3.91;60;18.00;0;0.00
2020-12-12 03:33:41;3.91;64;17.70;0;0.00
2020-12-12 04:03:37;3.91;65;18.00;0;0.00
2020-12-12 04:33:38;3.91;62;18.40;0;0.00
2020-12-12 05:03:39;3.91;59;18.60;0;0.00
2020-12-12 05:33:40;3.91;69;17.50;0;0.00
2020-12-12 06:03:41;3.91;78;17.00;0;0.00
2020-12-12 06:33:41;3.91;78;17.40;0;0.00
2020-12-12 07:03:41;3.91;74;18.60;0;0.00
2020-12-12 07:33:38;3.91;74;18.80;0;0.00
2020-12-12 08:03:40;3.91;81;17.70;0;0.00
2020-12-12 08:33:35;3.91;88;15.90;2;3.68
2020-12-12 09:03:36;3.91;78;16.40;7;5.46
2020-12-12 09:33:29;3.91;99;15.40;12;4.57
2020-12-12 10:02:44;3.91;99;17.40;37;1.20
2020-12-12 10:32:41;3.91;99;16.70;72;1.70
2020-12-12 11:03:34;3.91;99;17.40;77;1.30
2020-12-12 11:33:40;3.92;90;19.80;77;2.39
2020-12-12 12:03:43;3.93;74;23.10;77;1.60
2020-12-12 12:33:45;3.94;64;25.20;77;1.80
2020-12-12 13:03:44;3.95;62;27.80;77;0.00
2020-12-12 13:33:46;3.96;58;26.40;77;2.29
2020-12-12 14:03:47;3.97;54;27.50;77;2.09
2020-12-12 14:33:49;3.99;51;27.60;77;2.49
2020-12-12 15:03:46;4.00;48;27.80;77;2.49
2020-12-12 15:33:48;4.01;46;28.70;77;3.38
2020-12-12 16:03:50;4.02;45;29.10;77;2.29
2020-12-12 16:33:48;4.03;47;28.40;77;4.37
2020-12-12 17:03:50;4.04;49;28.30;77;4.87
2020-12-12 17:33:47;4.04;53;27.50;77;2.79
2020-12-12 18:03:48;4.05;56;26.30;77;3.48
2020-12-12 18:33:43;4.05;53;24.50;77;4.96
2020-12-12 19:03:46;4.05;53;24.30;77;3.58
2020-12-12 19:33:43;4.05;55;23.60;77;4.67
2020-12-12 20:03:44;4.05;61;22.60;77;5.36
2020-12-12 20:33:40;4.05;66;22.20;77;1.80
2020-12-12 21:03:40;4.05;70;21.80;77;2.00
2020-12-12 21:33:44;4.05;76;21.40;77;2.19
2020-12-12 22:03:43;4.05;84;20.80;77;2.19
2020-12-12 22:33:42;4.05;92;20.50;77;2.79
2020-12-12 23:03:40;4.05;99;20.00;77;1.30
2020-12-12 23:33:42;4.05;99;19.80;77;1.30
