2020-12-29 00:03:40;4.24;78;20.80;0;0.00
2020-12-29 00:33:43;4.24;81;20.30;0;0.00
2020-12-29 01:03:41;4.24;84;19.90;0;0.00
2020-12-29 01:33:43;4.24;84;20.10;0;0.00
2020-12-29 02:03:40;4.24;85;19.90;0;1.10
2020-12-29 02:33:42;4.24;87;19.50;0;0.00
2020-12-29 03:03:39;4.24;87;19.30;0;0.00
2020-12-29 03:33:40;4.23;88;19.10;0;0.00
2020-12-29 04:03:37;4.23;89;18.80;0;0.00
2020-12-29 04:33:39;4.23;88;19.30;0;0.00
2020-12-29 05:03:40;4.23;87;19.50;0;1.30
2020-12-29 05:33:37;4.23;89;19.10;0;0.00
2020-12-29 06:03:39;4.23;90;18.80;0;0.00
2020-12-29 06:33:40;4.23;89;19.50;0;1.40
2020-12-29 07:03:42;4.23;77;21.60;0;1.50
2020-12-29 07:33:41;4.24;73;23.00;0;0.00
2020-12-29 08:03:42;4.24;67;25.00;0;0.00
2020-12-29 08:33:45;4.24;62;27.00;0;0.00
2020-12-29 09:03:45;4.24;55;29.00;0;0.00
2020-12-29 09:33:48;4.24;50;30.60;0;0.00
2020-12-29 10:03:52;4.24;46;31.50;0;0.00
2020-12-29 10:33:53;4.24;38;33.30;0;0.00
2020-12-29 11:03:52;4.24;37;32.80;0;0.00
2020-12-29 11:33:56;4.24;33;34.10;0;0.00
2020-12-29 12:03:56;4.24;33;34.70;0;0.00
2020-12-29 12:33:57;4.25;32;34.90;0;1.20
2020-12-29 13:03:58;4.25;31;35.00;0;0.00
2020-12-29 13:33:54;4.25;32;36.10;0;0.00
2020-12-29 14:03:55;4.25;29;36.20;0;0.00
2020-12-29 14:33:56;4.25;31;36.00;0;0.00
2020-12-29 15:03:59;4.25;29;35.70;0;0.00
2020-12-29 15:33:57;4.25;27;36.60;0;0.00
2020-12-29 16:04:00;4.26;26;37.10;0;0.00
2020-12-29 16:33:57;4.26;23;37.80;0;0.00
2020-12-29 17:03:59;4.25;27;38.10;0;0.00
2020-12-29 17:33:57;4.26;26;36.20;0;0.00
2020-12-29 18:03:58;4.26;26;36.70;0;0.00
2020-12-29 18:33:54;4.26;28;36.40;0;0.00
2020-12-29 19:03:53;4.26;29;36.10;0;0.00
2020-12-29 19:33:52;4.26;36;34.50;0;0.00
2020-12-29 20:03:54;4.26;37;31.60;0;0.00
2020-12-29 20:33:48;4.26;52;28.70;0;0.00
2020-12-29 21:03:48;4.25;58;27.50;0;0.00
2020-12-29 21:33:47;4.26;58;26.90;0;0.00
2020-12-29 22:03:45;4.26;55;26.90;0;0.00
2020-12-29 22:33:43;4.26;60;25.70;0;0.00
2020-12-29 23:03:44;4.25;62;24.80;0;0.00
2020-12-29 23:33:45;4.25;62;24.40;0;0.00
