2021-01-22 00:03:44;4.23;64;22.40;0;0.00
2021-01-22 00:33:43;4.23;67;22.10;0;0.00
2021-01-22 01:03:42;4.23;69;22.00;0;0.00
2021-01-22 01:33:40;4.22;69;22.20;0;0.00
2021-01-22 02:03:43;4.22;76;21.40;0;0.00
2021-01-22 02:33:41;4.22;77;21.10;0;0.00
2021-01-22 03:03:39;4.22;81;20.60;0;0.00
2021-01-22 03:33:42;4.22;83;20.60;0;0.00
2021-01-22 04:03:39;4.22;82;21.30;0;0.00
2021-01-22 04:33:42;4.22;82;21.80;0;0.00
2021-01-22 05:03:41;4.22;82;22.00;0;0.00
2021-01-22 05:33:45;4.22;83;22.00;0;0.00
2021-01-22 06:03:43;4.22;88;21.20;0;0.00
2021-01-22 06:33:42;4.22;94;20.90;0;0.00
2021-01-22 07:03:40;4.22;82;22.40;0;0.00
2021-01-22 07:33:44;4.22;69;24.30;0;0.00
2021-01-22 08:03:45;4.22;63;25.30;0;1.30
2021-01-22 08:33:43;4.23;58;26.00;0;2.59
2021-01-22 09:03:47;4.23;56;26.60;0;2.39
2021-01-22 09:33:47;4.23;53;27.50;0;2.29
2021-01-22 10:03:47;4.23;52;28.20;0;2.69
2021-01-22 10:33:49;4.23;46;29.60;0;0.00
2021-01-22 11:03:48;4.23;43;30.80;0;0.00
2021-01-22 11:33:51;4.24;42;32.00;0;0.00
2021-01-22 12:03:51;4.24;40;31.30;0;0.00
2021-01-22 12:33:53;4.24;39;32.50;0;2.39
2021-01-22 13:03:55;4.24;38;32.60;0;1.10
2021-01-22 13:33:52;4.24;39;32.20;0;0.00
2021-01-22 14:03:53;4.24;40;33.00;0;0.00
2021-01-22 14:33:54;4.24;35;33.60;0;1.90
2021-01-22 15:03:52;4.25;34;33.00;0;1.40
2021-01-22 15:33:53;4.25;34;34.00;0;1.30
2021-01-22 16:03:55;4.25;32;33.10;0;2.29
2021-01-22 16:33:53;4.25;32;33.70;0;2.00
2021-01-22 17:03:51;4.25;35;32.20;0;1.70
2021-01-22 17:33:52;4.25;32;33.50;0;1.50
2021-01-22 18:03:54;4.25;36;31.50;0;1.10
2021-01-22 18:33:49;4.25;33;32.50;0;1.80
2021-01-22 19:03:49;4.25;35;31.90;0;2.19
2021-01-22 19:33:49;4.25;37;30.90;0;1.10
2021-01-22 20:03:51;4.25;43;29.00;0;0.00
2021-01-22 20:33:47;4.24;50;27.30;0;0.00
2021-01-22 21:03:46;4.24;53;26.30;0;0.00
2021-01-22 21:33:44;4.24;54;26.00;0;0.00
2021-01-22 22:03:46;4.24;58;25.40;0;0.00
2021-01-22 22:33:43;4.24;58;25.20;0;0.00
2021-01-22 23:03:44;4.24;66;23.80;0;0.00
2021-01-22 23:33:45;4.23;69;23.30;0;0.00
