2021-01-20 00:03:38;4.22;76;18.20;0;0.00
2021-01-20 00:33:38;4.22;76;18.00;0;0.00
2021-01-20 01:03:38;4.22;74;17.90;0;0.00
2021-01-20 01:33:37;4.22;81;16.90;0;0.00
2021-01-20 02:03:37;4.22;77;17.50;0;0.00
2021-01-20 02:33:41;4.21;73;17.40;0;0.00
2021-01-20 03:03:40;4.21;71;17.30;0;0.00
2021-01-20 03:33:39;4.21;72;17.10;0;0.00
2021-01-20 04:03:38;4.21;95;15.50;0;0.00
2021-01-20 04:33:37;4.21;88;16.10;0;0.00
2021-01-20 05:03:40;4.21;69;17.50;0;0.00
2021-01-20 05:33:38;4.21;90;15.40;0;0.00
2021-01-20 06:03:37;4.21;76;16.70;0;0.00
2021-01-20 06:33:40;4.21;80;16.00;0;0.00
2021-01-20 07:03:39;4.21;66;18.00;0;0.00
2021-01-20 07:33:39;4.21;56;21.10;0;0.00
2021-01-20 08:03:41;4.21;52;22.50;0;0.00
2021-01-20 08:33:41;4.22;48;23.60;0;0.00
2021-01-20 09:03:46;4.22;43;24.60;0;2.29
2021-01-20 09:33:44;4.22;41;26.10;0;1.80
2021-01-20 10:03:47;4.23;41;27.00;0;1.10
2021-01-20 10:33:48;4.23;34;28.30;0;1.80
2021-01-20 11:03:50;4.23;34;29.40;0;0.00
2021-01-20 11:33:49;4.23;35;30.40;0;1.70
2021-01-20 12:03:53;4.23;31;31.30;0;0.00
2021-01-20 12:33:49;4.24;29;30.90;0;1.90
2021-01-20 13:03:50;4.24;29;31.50;0;0.00
2021-01-20 13:33:52;4.24;25;32.10;0;0.00
2021-01-20 14:03:53;4.24;20;32.30;0;2.09
2021-01-20 14:33:50;4.24;18;32.90;0;1.10
2021-01-20 15:03:52;4.24;18;32.40;0;2.79
2021-01-20 15:33:54;4.24;18;33.20;0;1.50
2021-01-20 16:03:51;4.24;16;32.80;0;3.18
2021-01-20 16:33:53;4.24;16;33.20;0;2.00
2021-01-20 17:03:54;4.25;18;33.30;0;0.00
2021-01-20 17:33:51;4.25;18;32.70;0;2.39
2021-01-20 18:03:52;4.25;19;32.60;0;1.50
2021-01-20 18:33:52;4.25;21;32.00;0;1.70
2021-01-20 19:03:51;4.24;23;31.40;0;0.00
2021-01-20 19:33:49;4.25;30;30.00;0;0.00
2021-01-20 20:03:46;4.24;39;26.40;0;0.00
2021-01-20 20:33:44;4.24;45;24.40;0;0.00
2021-01-20 21:03:44;4.24;47;23.40;0;0.00
2021-01-20 21:33:44;4.24;51;22.20;0;0.00
2021-01-20 22:03:42;4.23;56;21.10;0;0.00
2021-01-20 22:33:40;4.23;55;20.80;0;0.00
2021-01-20 23:03:42;4.23;57;20.50;0;0.00
2021-01-20 23:33:39;4.22;60;19.90;0;0.00
