2021-04-16 00:03:36;4.22;11;18.50;0;0.00
2021-04-16 00:33:40;4.22;18;17.40;0;0.00
2021-04-16 01:03:35;4.22;39;16.60;0;0.00
2021-04-16 01:33:39;4.22;56;16.40;0;0.00
2021-04-16 02:03:37;4.22;95;16.30;0;0.00
2021-04-16 02:33:36;4.22;99;16.70;0;0.00
2021-04-16 03:03:39;4.22;99;16.30;0;0.00
2021-04-16 03:33:37;4.22;80;16.00;0;0.00
2021-04-16 04:03:36;4.22;77;15.40;0;0.00
2021-04-16 04:33:38;4.22;84;15.20;0;0.00
2021-04-16 05:03:36;4.22;97;16.10;0;0.00
2021-04-16 05:33:39;4.21;91;16.20;0;0.00
2021-04-16 06:03:37;4.22;99;15.70;0;0.00
2021-04-16 06:33:35;4.21;99;15.40;0;0.00
2021-04-16 07:03:38;4.21;99;14.80;0;0.00
2021-04-16 07:33:35;4.21;99;14.80;0;0.00
2021-04-16 08:03:37;4.22;99;15.40;0;0.00
2021-04-16 08:33:36;4.22;99;18.50;0;0.00
2021-04-16 09:03:41;4.22;1;21.40;0;0.00
2021-04-16 09:33:39;4.22;1;23.10;0;0.00
2021-04-16 10:03:43;4.23;1;24.10;0;0.00
2021-04-16 10:33:45;4.23;1;27.10;0;0.00
2021-04-16 11:03:44;4.23;1;27.60;0;0.00
2021-04-16 11:33:49;4.23;1;28.00;0;0.00
2021-04-16 12:03:46;4.23;1;29.00;0;0.00
2021-04-16 12:33:49;4.23;1;29.60;0;0.00
2021-04-16 13:03:49;4.24;1;29.90;0;0.00
2021-04-16 13:33:48;4.24;1;29.20;0;1.20
2021-04-16 14:03:48;4.24;1;30.90;0;0.00
2021-04-16 14:33:54;4.24;1;29.50;0;1.10
2021-04-16 15:03:49;4.24;1;30.10;0;1.50
2021-04-16 15:33:50;4.25;1;30.20;0;0.00
2021-04-16 16:03:50;4.25;1;30.20;0;0.00
2021-04-16 16:33:49;4.25;1;29.80;0;0.00
2021-04-16 17:03:52;4.24;1;29.50;0;0.00
2021-04-16 17:33:50;4.25;1;28.50;0;0.00
2021-04-16 18:03:46;4.25;1;27.30;0;0.00
2021-04-16 18:33:45;4.24;1;24.70;0;0.00
2021-04-16 19:03:41;4.24;1;22.70;0;0.00
2021-04-16 19:33:40;4.24;1;22.00;0;0.00
2021-04-16 20:03:39;4.24;1;21.30;0;0.00
2021-04-16 20:33:40;4.24;1;19.70;0;0.00
2021-04-16 21:03:37;4.23;1;20.30;0;0.00
2021-04-16 21:33:38;4.23;1;19.50;0;0.00
2021-04-16 22:03:39;4.23;4;19.00;0;0.00
2021-04-16 22:33:40;4.23;35;18.10;0;0.00
2021-04-16 23:03:40;4.23;70;18.10;0;0.00
2021-04-16 23:33:39;4.23;99;17.60;0;0.00
