2021-07-14 00:03:34;3.57;1;12.40;0;2.69
2021-07-14 00:33:35;3.57;1;11.50;0;2.49
2021-07-14 01:03:35;3.57;1;11.10;0;3.08
2021-07-14 01:33:34;3.57;1;11.10;0;1.20
2021-07-14 02:03:34;3.57;1;10.70;0;1.40
2021-07-14 02:33:33;3.57;1;10.80;0;1.50
2021-07-14 03:03:37;3.56;1;10.90;0;0.00
2021-07-14 03:33:36;3.56;1;10.80;0;1.10
2021-07-14 04:03:24;3.57;1;10.80;6;1.30
2021-07-14 04:33:34;3.56;1;10.80;7;1.50
2021-07-14 05:03:24;3.56;1;10.80;13;2.09
2021-07-14 05:33:28;3.56;1;10.80;18;0.00
2021-07-14 06:03:31;3.56;1;10.80;20;0.00
2021-07-14 06:33:34;3.56;1;10.90;20;1.40
2021-07-14 07:03:34;3.56;1;11.00;20;2.59
2021-07-14 07:33:18;3.56;1;10.80;26;1.70
2021-07-14 08:03:35;3.56;1;10.80;27;1.10
2021-07-14 08:33:34;3.56;1;10.80;27;0.00
2021-07-14 09:03:32;3.56;1;10.70;28;2.09
2021-07-14 09:33:27;3.56;1;10.70;31;1.10
2021-07-14 10:03:33;3.56;1;10.70;32;2.09
2021-07-14 10:33:37;3.56;1;10.90;32;2.09
2021-07-14 11:03:36;3.56;1;11.10;32;2.00
2021-07-14 11:33:36;3.56;1;11.10;32;2.59
2021-07-14 12:03:35;3.56;1;11.30;32;1.90
2021-07-14 12:33:30;3.56;1;11.70;33;1.30
2021-07-14 13:03:35;3.56;1;12.10;33;2.59
2021-07-14 13:33:35;3.56;1;12.40;33;1.40
2021-07-14 14:03:35;3.57;1;12.40;33;2.89
2021-07-14 14:33:36;3.57;99;12.20;33;0.00
2021-07-14 15:03:36;3.57;99;12.60;33;2.09
2021-07-14 15:33:36;3.56;52;11.20;33;4.17
2021-07-14 16:03:36;3.57;53;10.90;33;3.08
2021-07-14 16:33:35;3.57;61;10.60;33;3.38
2021-07-14 17:03:35;3.57;85;10.60;33;3.38
2021-07-14 17:33:34;3.57;1;10.80;33;2.69
2021-07-14 18:03:33;3.56;1;10.60;33;2.69
2021-07-14 18:33:37;3.56;1;10.50;33;1.90
2021-07-14 19:03:35;3.56;1;10.40;33;3.97
2021-07-14 19:33:34;3.57;1;10.20;33;3.08
2021-07-14 20:03:33;3.56;1;10.10;33;3.08
2021-07-14 20:33:32;3.56;1;10.00;33;2.29
2021-07-14 21:03:35;3.56;99;10.00;33;2.09
2021-07-14 21:33:34;3.56;99;10.00;33;2.29
2021-07-14 22:03:32;3.56;99;9.90;33;2.49
2021-07-14 22:33:35;3.56;99;9.80;33;1.10
2021-07-14 23:03:34;3.56;99;9.90;33;1.90
2021-07-14 23:33:32;3.56;99;10.00;33;1.80
