2021-04-05 00:03:39;4.22;1;17.90;0;0.00
2021-04-05 00:33:39;4.22;1;17.70;0;0.00
2021-04-05 01:03:38;4.23;1;17.20;0;0.00
2021-04-05 01:33:38;4.22;1;17.30;0;0.00
2021-04-05 02:03:37;4.22;1;17.20;0;0.00
2021-04-05 02:33:36;4.22;1;17.00;0;0.00
2021-04-05 03:03:36;4.22;1;17.00;0;0.00
2021-04-05 03:33:39;4.22;1;16.70;0;0.00
2021-04-05 04:03:38;4.22;1;17.60;0;0.00
2021-04-05 04:33:38;4.21;1;16.60;0;0.00
2021-04-05 05:03:37;4.21;11;16.70;0;0.00
2021-04-05 05:33:36;4.22;39;16.90;0;0.00
2021-04-05 06:03:40;4.22;2;17.60;0;0.00
2021-04-05 06:33:40;4.22;19;17.60;0;0.00
2021-04-05 07:03:40;4.21;11;17.90;0;0.00
2021-04-05 07:33:40;4.21;1;18.40;0;0.00
2021-04-05 08:03:40;4.21;1;18.60;0;0.00
2021-04-05 08:33:36;4.21;1;18.80;0;0.00
2021-04-05 09:03:37;4.21;1;18.90;0;0.00
2021-04-05 09:33:39;4.22;1;19.10;0;0.00
2021-04-05 10:03:40;4.21;1;19.40;0;1.30
2021-04-05 10:33:42;4.22;1;19.80;0;0.00
2021-04-05 11:03:39;4.22;1;19.70;0;0.00
2021-04-05 11:33:41;4.22;1;19.90;0;0.00
2021-04-05 12:03:38;4.22;1;20.10;0;0.00
2021-04-05 12:33:41;4.22;1;21.80;0;0.00
2021-04-05 13:03:40;4.22;1;23.00;0;0.00
2021-04-05 13:33:45;4.23;1;23.60;0;0.00
2021-04-05 14:03:41;4.23;1;23.60;0;0.00
2021-04-05 14:33:41;4.23;1;23.40;0;0.00
2021-04-05 15:03:43;4.23;1;25.10;0;0.00
2021-04-05 15:33:46;4.23;1;26.50;0;0.00
2021-04-05 16:03:47;4.23;1;26.10;0;0.00
2021-04-05 16:33:47;4.23;1;26.90;0;0.00
2021-04-05 17:03:47;4.23;1;26.90;0;1.10
2021-04-05 17:33:46;4.24;1;25.90;0;0.00
2021-04-05 18:03:46;4.24;1;25.90;0;1.30
2021-04-05 18:33:44;4.23;1;24.00;0;0.00
2021-04-05 19:03:45;4.23;1;21.90;0;0.00
2021-04-05 19:33:39;4.23;1;20.50;0;0.00
2021-04-05 20:03:41;4.23;1;19.80;0;0.00
2021-04-05 20:33:38;4.23;5;18.10;0;0.00
2021-04-05 21:03:38;4.23;18;18.60;0;0.00
2021-04-05 21:33:39;4.22;30;17.60;0;0.00
2021-04-05 22:03:38;4.22;54;17.30;0;0.00
2021-04-05 22:33:38;4.22;76;16.50;0;0.00
2021-04-05 23:03:37;4.21;99;16.60;0;0.00
2021-04-05 23:33:36;4.21;99;16.10;0;0.00
