2021-09-11 00:00:30;4.20;98;9.80;0;0.00
2021-09-11 00:05:31;4.20;98;9.80;0;0.00
2021-09-11 00:10:32;4.20;98;9.50;0;0.00
2021-09-11 00:15:33;4.20;98;9.60;0;0.00
2021-09-11 00:20:29;4.19;98;9.70;0;0.00
2021-09-11 00:25:30;4.20;98;9.40;0;0.00
2021-09-11 00:30:31;4.20;98;9.40;0;0.00
2021-09-11 00:35:32;4.20;98;9.50;0;0.00
2021-09-11 00:40:33;4.20;98;9.40;0;0.00
2021-09-11 00:45:29;4.19;98;9.50;0;0.00
2021-09-11 00:50:30;4.20;98;9.70;0;0.00
2021-09-11 00:55:31;4.20;98;9.40;0;0.00
2021-09-11 01:00:32;4.19;98;9.40;0;0.00
2021-09-11 01:05:33;4.20;98;9.50;0;0.00
2021-09-11 01:10:29;4.19;98;9.70;0;0.00
2021-09-11 01:15:30;4.19;98;9.50;0;0.00
2021-09-11 01:20:31;4.19;98;9.30;0;0.00
2021-09-11 01:25:32;4.19;98;9.00;0;0.00
2021-09-11 01:30:33;4.19;98;9.10;0;0.00
2021-09-11 01:35:29;4.19;98;9.20;0;0.00
2021-09-11 01:40:30;4.19;98;9.00;0;0.00
2021-09-11 01:45:31;4.19;98;9.40;0;0.00
2021-09-11 01:50:32;4.19;98;9.70;0;0.00
2021-09-11 01:55:33;4.19;98;9.60;0;0.00
2021-09-11 02:00:29;4.19;98;9.40;0;0.00
2021-09-11 02:05:30;4.19;98;9.60;0;0.00
2021-09-11 02:10:31;4.19;98;9.40;0;0.00
2021-09-11 02:15:32;4.19;98;9.30;0;0.00
2021-09-11 02:20:33;4.19;98;8.80;0;0.00
2021-09-11 02:25:29;4.19;98;8.90;0;0.00
2021-09-11 02:30:30;4.19;98;8.80;0;0.00
2021-09-11 02:35:31;4.19;98;8.70;0;0.00
2021-09-11 02:40:31;4.19;98;9.10;0;0.00
2021-09-11 02:45:32;4.19;98;9.20;0;0.00
2021-09-11 02:50:29;4.19;98;8.80;0;0.00
2021-09-11 02:55:29;4.19;98;9.10;0;0.00
2021-09-11 03:00:30;4.19;98;9.10;0;0.00
2021-09-11 03:05:31;4.19;98;8.90;0;0.00
2021-09-11 03:10:32;4.19;98;9.00;0;0.00
2021-09-11 03:15:33;4.19;98;8.80;0;0.00
2021-09-11 03:20:29;4.19;98;8.90;0;0.00
2021-09-11 03:25:30;4.19;98;9.00;0;0.00
2021-09-11 03:30:31;4.19;98;9.00;0;0.00
2021-09-11 03:35:32;4.19;98;9.10;0;0.00
2021-09-11 03:40:32;4.19;98;9.10;0;0.00
2021-09-11 03:45:29;4.19;98;8.90;0;0.00
2021-09-11 03:50:30;4.19;98;8.90;0;0.00
2021-09-11 03:55:30;4.19;98;8.90;0;0.00
2021-09-11 04:00:31;4.19;98;9.10;0;0.00
2021-09-11 04:05:32;4.19;98;9.00;0;0.00
2021-09-11 04:10:28;4.19;98;9.00;0;1.30
2021-09-11 04:15:29;4.19;98;8.90;0;1.10
2021-09-11 04:20:30;4.19;98;8.90;0;0.00
2021-09-11 04:25:31;4.19;98;8.90;0;0.00
2021-09-11 04:30:32;4.19;98;9.00;0;1.10
2021-09-11 04:35:33;4.19;98;9.10;0;1.20
2021-09-11 04:40:29;4.19;98;9.20;0;1.20
2021-09-11 04:45:30;4.19;98;9.30;0;1.20
2021-09-11 04:50:31;4.19;98;9.40;0;1.70
2021-09-11 04:55:32;4.19;98;9.30;0;1.30
2021-09-11 05:00:32;4.19;98;9.20;0;1.50
2021-09-11 05:05:29;4.19;98;9.40;0;1.70
2021-09-11 05:10:30;4.19;98;9.50;0;1.50
2021-09-11 05:15:31;4.19;98;9.50;0;1.30
2021-09-11 05:20:31;4.19;98;9.40;0;1.40
2021-09-11 05:25:32;4.19;98;9.40;0;1.50
2021-09-11 05:30:29;4.19;98;9.30;0;2.09
2021-09-11 05:35:30;4.19;98;9.40;0;1.90
2021-09-11 05:40:30;4.19;98;9.30;0;0.00
2021-09-11 05:45:31;4.18;98;9.10;0;1.80
2021-09-11 05:50:32;4.18;98;9.00;0;0.00
2021-09-11 05:55:28;4.19;98;8.90;1;1.30
2021-09-11 06:00:29;4.18;98;8.70;1;0.00
2021-09-11 06:05:30;4.19;98;8.90;1;1.20
2021-09-11 06:10:31;4.19;98;9.00;1;1.10
2021-09-11 06:15:32;4.18;98;9.10;1;1.90
2021-09-11 06:20:33;4.18;98;9.10;1;2.00
2021-09-11 06:25:29;4.18;98;9.20;1;1.80
2021-09-11 06:30:30;4.18;98;8.90;1;1.40
2021-09-11 06:35:31;4.18;98;8.90;1;2.00
2021-09-11 06:40:32;4.18;98;9.00;1;1.80
2021-09-11 06:45:33;4.18;98;9.00;1;1.20
2021-09-11 06:50:29;4.18;98;9.00;1;1.40
2021-09-11 06:55:30;4.18;98;8.90;1;1.50
2021-09-11 07:00:31;4.18;98;8.80;1;1.80
2021-09-11 07:05:31;4.18;98;8.70;1;1.30
2021-09-11 07:10:32;4.18;98;8.70;1;0.00
2021-09-11 07:15:29;4.18;98;8.70;1;1.30
2021-09-11 07:20:29;4.18;98;8.90;1;0.00
2021-09-11 07:25:30;4.18;98;8.90;1;1.20
2021-09-11 07:30:31;4.18;98;9.00;1;0.00
2021-09-11 07:35:32;4.18;98;9.00;1;1.20
2021-09-11 07:40:33;4.18;98;9.20;1;1.20
2021-09-11 07:45:29;4.18;98;9.50;1;0.00
2021-09-11 07:50:30;4.18;98;9.60;1;0.00
2021-09-11 07:55:31;4.19;98;10.00;1;1.40
2021-09-11 08:00:32;4.19;98;10.30;1;1.50
2021-09-11 08:05:33;4.19;98;10.70;1;1.30
2021-09-11 08:10:29;4.19;97;11.00;1;2.19
2021-09-11 08:15:30;4.19;97;11.30;1;2.09
2021-09-11 08:20:31;4.19;96;11.50;1;2.29
2021-09-11 08:25:32;4.20;96;11.60;1;2.19
2021-09-11 08:30:29;4.20;95;11.70;1;2.79
2021-09-11 08:35:30;4.20;96;12.10;1;2.49
2021-09-11 08:40:31;4.20;95;12.30;1;2.99
2021-09-11 08:45:32;4.20;94;12.40;1;3.18
2021-09-11 08:50:29;4.20;94;12.60;1;3.08
2021-09-11 08:55:30;4.20;94;12.90;1;3.68
2021-09-11 09:00:32;4.20;94;13.20;1;2.89
2021-09-11 09:05:33;4.20;93;13.40;1;2.89
2021-09-11 09:10:30;4.20;93;13.80;1;3.78
2021-09-11 09:15:31;4.20;92;14.00;1;4.27
2021-09-11 09:20:33;4.20;91;14.10;1;3.48
2021-09-11 09:25:30;4.20;90;14.30;1;3.97
2021-09-11 09:30:31;4.20;90;14.70;1;3.08
2021-09-11 09:35:33;4.20;88;14.50;1;4.07
2021-09-11 09:40:30;4.20;88;14.80;1;5.26
2021-09-11 09:45:32;4.21;87;15.30;1;3.38
2021-09-11 09:50:33;4.20;87;15.10;1;4.67
2021-09-11 09:55:30;4.21;87;15.50;1;2.89
2021-09-11 10:00:32;4.21;86;15.70;1;3.18
2021-09-11 10:05:34;4.21;86;16.50;1;2.00
2021-09-11 10:10:31;4.21;83;16.60;1;2.49
2021-09-11 10:15:33;4.21;84;16.50;1;4.07
2021-09-11 10:20:30;4.21;83;16.70;1;3.97
2021-09-11 10:25:32;4.21;82;17.20;1;4.47
2021-09-11 10:30:34;4.21;82;17.40;1;2.99
2021-09-11 10:35:31;4.21;81;17.40;1;3.78
2021-09-11 10:40:33;4.21;80;17.80;1;4.47
2021-09-11 10:45:31;4.21;79;17.80;1;4.47
2021-09-11 10:50:33;4.21;80;18.10;1;3.88
2021-09-11 10:55:30;4.21;79;17.70;1;4.77
2021-09-11 11:00:33;4.21;78;18.30;1;4.57
2021-09-11 11:05:30;4.21;78;18.40;1;3.78
2021-09-11 11:10:32;4.21;78;18.40;1;3.38
2021-09-11 11:15:30;4.21;78;18.70;1;4.47
2021-09-11 11:20:32;4.21;77;18.50;1;6.75
2021-09-11 11:25:30;4.21;77;19.00;1;4.17
2021-09-11 11:30:32;4.21;76;19.30;1;4.37
2021-09-11 11:35:30;4.22;75;19.30;1;3.58
2021-09-11 11:40:32;4.21;77;19.50;1;3.78
2021-09-11 11:45:30;4.21;75;19.80;1;3.28
2021-09-11 11:50:32;4.21;76;19.30;1;3.08
2021-09-11 11:55:30;4.22;74;19.80;1;4.57
2021-09-11 12:00:33;4.22;74;20.40;1;4.07
2021-09-11 12:05:30;4.22;72;20.40;1;5.06
2021-09-11 12:10:33;4.22;74;19.90;1;4.47
2021-09-11 12:15:31;4.22;72;20.70;1;2.39
2021-09-11 12:20:34;4.22;73;20.70;1;3.78
2021-09-11 12:25:31;4.22;71;21.00;1;3.97
2021-09-11 12:30:34;4.22;71;20.80;1;4.96
2021-09-11 12:35:32;4.22;70;21.40;1;3.48
2021-09-11 12:40:34;4.22;70;21.80;1;3.08
2021-09-11 12:45:32;4.22;71;20.90;1;3.78
2021-09-11 12:50:30;4.22;71;22.10;1;2.79
2021-09-11 12:55:33;4.22;69;21.90;1;3.18
2021-09-11 13:00:31;4.22;69;21.60;1;3.78
2021-09-11 13:05:33;4.22;68;21.60;1;3.28
2021-09-11 13:10:35;4.22;68;21.50;1;4.27
2021-09-11 13:15:33;4.22;67;22.50;1;4.67
2021-09-11 13:20:31;4.22;66;22.00;1;4.07
2021-09-11 13:25:34;4.22;67;22.50;1;3.48
2021-09-11 13:30:31;4.22;69;22.80;1;2.59
2021-09-11 13:35:34;4.22;67;22.20;1;2.59
2021-09-11 13:40:32;4.22;65;22.60;1;3.38
2021-09-11 13:45:34;4.22;66;22.70;1;4.17
2021-09-11 13:50:32;4.22;65;23.10;1;4.57
2021-09-11 13:55:35;4.22;65;22.80;1;3.88
2021-09-11 14:00:33;4.22;64;22.90;1;4.07
2021-09-11 14:05:35;4.22;64;23.20;1;2.79
2021-09-11 14:10:33;4.22;64;23.00;1;3.58
2021-09-11 14:15:36;4.23;63;22.90;1;3.48
2021-09-11 14:20:34;4.23;64;23.00;1;3.48
2021-09-11 14:25:32;4.23;64;23.30;1;3.58
2021-09-11 14:30:34;4.22;64;23.60;1;3.38
2021-09-11 14:35:32;4.23;63;23.00;1;4.17
2021-09-11 14:40:35;4.23;61;23.30;1;3.78
2021-09-11 14:45:33;4.23;62;23.00;1;4.17
2021-09-11 14:50:35;4.23;62;23.40;1;3.58
2021-09-11 14:55:34;4.23;63;23.90;1;3.88
2021-09-11 15:00:32;4.23;63;23.10;1;4.67
2021-09-11 15:05:34;4.23;63;24.00;1;2.79
2021-09-11 15:10:32;4.23;61;23.20;1;4.27
2021-09-11 15:15:35;4.23;62;24.20;1;4.17
2021-09-11 15:20:33;4.23;62;23.50;1;3.97
2021-09-11 15:25:36;4.23;64;23.40;1;3.48
2021-09-11 15:30:34;4.23;62;23.50;1;4.57
2021-09-11 15:35:32;4.23;62;23.50;1;3.88
2021-09-11 15:40:34;4.23;61;23.80;1;5.06
2021-09-11 15:45:32;4.23;62;23.80;1;5.56
2021-09-11 15:50:35;4.23;62;24.00;1;5.56
2021-09-11 15:55:33;4.23;62;23.90;1;4.67
2021-09-11 16:00:31;4.23;62;23.70;1;3.38
2021-09-11 16:05:34;4.23;60;24.30;1;3.18
2021-09-11 16:10:32;4.23;62;23.50;1;5.26
2021-09-11 16:15:35;4.23;62;23.80;1;3.88
2021-09-11 16:20:33;4.23;61;24.00;1;5.06
2021-09-11 16:25:35;4.23;61;23.50;1;3.68
2021-09-11 16:30:33;4.23;61;23.80;1;5.16
2021-09-11 16:35:31;4.23;62;23.50;1;4.57
2021-09-11 16:40:34;4.23;61;23.60;1;5.06
2021-09-11 16:45:32;4.23;62;23.70;1;2.79
2021-09-11 16:50:35;4.23;60;23.80;1;5.46
2021-09-11 16:55:33;4.23;61;23.30;1;4.77
2021-09-11 17:00:35;4.23;61;23.30;1;4.17
2021-09-11 17:05:33;4.23;60;23.30;1;4.07
2021-09-11 17:10:31;4.23;61;23.20;1;3.78
2021-09-11 17:15:34;4.23;61;23.40;1;4.47
2021-09-11 17:20:32;4.23;61;23.20;1;3.97
2021-09-11 17:25:34;4.23;61;23.10;1;5.26
2021-09-11 17:30:32;4.23;61;23.00;1;4.77
2021-09-11 17:35:34;4.23;61;22.90;1;5.06
2021-09-11 17:40:32;4.23;61;22.80;1;3.97
2021-09-11 17:45:35;4.23;61;22.70;1;4.57
2021-09-11 17:50:32;4.23;60;22.60;1;3.68
2021-09-11 17:55:35;4.23;61;22.50;1;3.88
2021-09-11 18:00:32;4.23;62;22.30;1;3.78
2021-09-11 18:05:35;4.24;63;22.20;1;4.37
2021-09-11 18:10:32;4.24;64;22.00;1;2.99
2021-09-11 18:15:35;4.23;65;21.90;1;4.77
2021-09-11 18:20:32;4.24;66;21.70;1;3.18
2021-09-11 18:25:35;4.23;67;21.40;1;3.68
2021-09-11 18:30:32;4.23;66;21.30;1;3.48
2021-09-11 18:35:34;4.23;66;21.20;1;3.97
2021-09-11 18:40:32;4.23;67;20.70;1;2.99
2021-09-11 18:45:34;4.23;69;20.50;1;2.00
2021-09-11 18:50:31;4.23;70;20.40;1;2.39
2021-09-11 18:55:33;4.23;71;19.90;1;2.00
2021-09-11 19:00:31;4.23;72;19.60;1;2.29
2021-09-11 19:05:33;4.23;72;19.50;1;2.59
2021-09-11 19:10:34;4.23;72;19.40;1;1.60
2021-09-11 19:15:32;4.23;72;19.40;1;2.49
2021-09-11 19:20:33;4.23;71;19.50;1;2.39
2021-09-11 19:25:31;4.23;71;19.40;1;2.59
2021-09-11 19:30:32;4.23;71;19.30;1;1.90
2021-09-11 19:35:34;4.23;73;18.70;1;1.80
2021-09-11 19:40:31;4.23;75;18.30;1;1.50
2021-09-11 19:45:33;4.23;76;17.80;1;2.09
2021-09-11 19:50:35;4.23;77;17.60;1;1.50
2021-09-11 19:55:32;4.22;79;17.10;1;1.30
2021-09-11 20:00:33;4.22;81;16.90;1;1.50
2021-09-11 20:05:30;4.22;81;16.90;1;1.80
2021-09-11 20:10:32;4.22;82;16.90;1;1.40
2021-09-11 20:15:34;4.22;83;16.90;1;2.09
2021-09-11 20:20:30;4.22;83;16.80;1;1.80
2021-09-11 20:25:32;4.22;84;16.60;1;1.40
2021-09-11 20:30:33;4.22;84;16.50;1;2.00
2021-09-11 20:35:30;4.22;84;16.70;1;2.09
2021-09-11 20:40:32;4.22;83;16.80;1;1.80
2021-09-11 20:45:33;4.22;83;17.00;1;2.00
2021-09-11 20:50:30;4.22;83;16.80;1;1.70
2021-09-11 20:55:31;4.22;82;17.00;1;2.09
2021-09-11 21:00:33;4.22;81;17.10;1;2.39
2021-09-11 21:05:34;4.22;80;17.30;1;2.09
2021-09-11 21:10:31;4.22;80;17.20;1;1.90
2021-09-11 21:15:33;4.22;81;17.20;1;2.09
2021-09-11 21:20:34;4.22;81;17.00;1;1.80
2021-09-11 21:25:31;4.22;81;16.80;1;1.50
2021-09-11 21:30:32;4.22;82;16.80;1;1.40
2021-09-11 21:35:34;4.22;82;16.70;1;1.90
2021-09-11 21:40:31;4.22;82;16.70;1;2.39
2021-09-11 21:45:32;4.22;82;16.60;1;1.50
2021-09-11 21:50:33;4.22;83;16.30;1;1.10
2021-09-11 21:55:30;4.22;84;16.10;1;0.00
2021-09-11 22:00:32;4.22;85;15.70;1;1.10
2021-09-11 22:05:33;4.22;86;15.40;1;0.00
2021-09-11 22:10:34;4.22;87;15.20;1;0.00
2021-09-11 22:15:31;4.21;88;14.90;1;0.00
2021-09-11 22:20:33;4.21;88;15.00;1;1.30
2021-09-11 22:25:30;4.21;88;15.00;1;1.90
2021-09-11 22:30:31;4.21;86;15.40;1;1.70
2021-09-11 22:35:33;4.21;86;15.40;1;1.40
2021-09-11 22:40:30;4.21;86;15.40;1;1.70
2021-09-11 22:45:31;4.21;87;15.10;1;1.70
2021-09-11 22:50:33;4.21;88;14.80;1;1.70
2021-09-11 22:55:30;4.21;89;14.60;1;1.30
2021-09-11 23:00:31;4.21;89;14.70;1;1.60
2021-09-11 23:05:33;4.21;91;14.30;1;0.00
2021-09-11 23:10:30;4.21;90;14.60;1;1.60
2021-09-11 23:15:31;4.21;90;14.50;1;1.30
2021-09-11 23:20:33;4.21;89;14.70;1;1.80
2021-09-11 23:25:30;4.21;89;14.70;1;1.40
2021-09-11 23:30:31;4.21;89;14.90;1;2.39
2021-09-11 23:35:33;4.21;89;15.10;1;2.69
2021-09-11 23:40:29;4.21;89;15.10;1;1.90
2021-09-11 23:45:31;4.21;88;15.20;1;1.40
2021-09-11 23:50:32;4.21;89;15.00;1;1.90
2021-09-11 23:55:29;4.21;89;15.10;1;1.90
