2021-10-08 00:00:31;4.21;79;10.10;0;0.00
2021-10-08 00:05:32;4.20;79;9.90;0;0.00
2021-10-08 00:10:33;4.20;80;9.60;0;0.00
2021-10-08 00:15:33;4.20;81;9.50;0;0.00
2021-10-08 00:20:29;4.20;80;9.60;0;0.00
2021-10-08 00:25:30;4.21;81;9.50;0;0.00
2021-10-08 00:30:31;4.20;81;9.50;0;0.00
2021-10-08 00:35:31;4.20;81;9.50;0;0.00
2021-10-08 00:40:32;4.20;82;9.40;0;0.00
2021-10-08 00:45:33;4.20;83;9.40;0;0.00
2021-10-08 00:50:33;4.20;81;10.20;0;0.00
2021-10-08 00:55:29;4.20;82;10.00;0;0.00
2021-10-08 01:00:30;4.20;82;9.80;0;0.00
2021-10-08 01:05:31;4.20;83;9.80;0;0.00
2021-10-08 01:10:31;4.20;83;10.00;0;0.00
2021-10-08 01:15:32;4.20;83;10.20;0;0.00
2021-10-08 01:20:33;4.20;82;10.40;0;0.00
2021-10-08 01:25:33;4.20;81;10.60;0;0.00
2021-10-08 01:30:29;4.20;81;10.50;0;0.00
2021-10-08 01:35:30;4.20;81;10.60;0;0.00
2021-10-08 01:40:31;4.20;80;10.70;0;0.00
2021-10-08 01:45:32;4.20;81;10.70;0;0.00
2021-10-08 01:50:32;4.20;80;10.90;0;0.00
2021-10-08 01:55:33;4.20;79;11.00;0;0.00
2021-10-08 02:00:34;4.20;78;11.30;0;0.00
2021-10-08 02:05:30;4.20;78;11.40;0;0.00
2021-10-08 02:10:31;4.20;78;11.40;0;0.00
2021-10-08 02:15:32;4.20;79;11.20;0;0.00
2021-10-08 02:20:32;4.20;80;11.10;0;0.00
2021-10-08 02:25:33;4.20;80;11.10;0;0.00
2021-10-08 02:30:30;4.20;79;11.30;0;0.00
2021-10-08 02:35:30;4.20;79;11.30;0;0.00
2021-10-08 02:40:31;4.20;79;11.30;0;0.00
2021-10-08 02:45:32;4.20;77;11.70;0;0.00
2021-10-08 02:50:33;4.20;76;11.90;0;0.00
2021-10-08 02:55:34;4.20;75;11.90;0;0.00
2021-10-08 03:00:30;4.20;74;12.00;0;0.00
2021-10-08 03:05:31;4.20;74;12.10;0;0.00
2021-10-08 03:10:32;4.20;74;12.20;0;0.00
2021-10-08 03:15:33;4.20;74;12.10;0;0.00
2021-10-08 03:20:34;4.20;75;12.00;0;0.00
2021-10-08 03:25:30;4.20;75;12.00;0;0.00
2021-10-08 03:30:31;4.20;75;12.00;0;0.00
2021-10-08 03:35:32;4.20;75;12.00;0;0.00
2021-10-08 03:40:33;4.20;75;12.00;0;0.00
2021-10-08 03:45:30;4.20;74;12.10;0;1.20
2021-10-08 03:50:31;4.20;74;12.00;0;0.00
2021-10-08 03:55:31;4.20;74;12.00;0;0.00
2021-10-08 04:00:32;4.20;73;12.00;0;0.00
2021-10-08 04:05:33;4.20;74;11.90;0;0.00
2021-10-08 04:10:30;4.20;74;11.80;0;0.00
2021-10-08 04:15:31;4.20;73;11.90;0;0.00
2021-10-08 04:20:32;4.20;72;12.10;0;0.00
2021-10-08 04:25:33;4.20;71;12.20;0;0.00
2021-10-08 04:30:34;4.20;72;12.10;0;0.00
2021-10-08 04:35:30;4.20;72;12.00;0;0.00
2021-10-08 04:40:31;4.20;73;11.90;0;0.00
2021-10-08 04:45:32;4.20;73;11.80;0;0.00
2021-10-08 04:50:33;4.20;73;11.90;0;0.00
2021-10-08 04:55:30;4.20;73;12.00;0;1.20
2021-10-08 05:00:30;4.20;73;11.90;0;0.00
2021-10-08 05:05:31;4.20;74;11.90;0;0.00
2021-10-08 05:10:32;4.20;74;12.00;0;1.10
2021-10-08 05:15:33;4.20;73;12.10;0;1.30
2021-10-08 05:20:30;4.20;74;12.10;0;0.00
2021-10-08 05:25:31;4.20;74;12.00;0;1.10
2021-10-08 05:30:32;4.20;74;12.10;0;1.30
2021-10-08 05:35:33;4.20;74;12.10;0;1.10
2021-10-08 05:40:34;4.19;74;12.10;0;1.30
2021-10-08 05:45:30;4.20;74;12.10;0;1.60
2021-10-08 05:50:31;4.19;74;12.10;0;1.20
2021-10-08 05:55:32;4.20;74;12.10;0;1.60
2021-10-08 06:00:33;4.19;74;12.10;0;1.70
2021-10-08 06:05:34;4.20;75;12.10;0;1.40
2021-10-08 06:10:30;4.19;75;12.10;0;1.60
2021-10-08 06:15:31;4.19;75;12.10;0;1.10
2021-10-08 06:20:32;4.19;75;12.10;0;1.20
2021-10-08 06:25:33;4.19;76;12.10;0;0.00
2021-10-08 06:30:30;4.19;76;12.10;0;0.00
2021-10-08 06:35:31;4.19;75;12.20;0;1.10
2021-10-08 06:40:32;4.19;75;12.30;0;1.30
2021-10-08 06:45:33;4.19;76;12.10;0;0.00
2021-10-08 06:50:34;4.19;76;12.10;0;0.00
2021-10-08 06:55:30;4.19;77;12.00;0;0.00
2021-10-08 07:00:31;4.19;77;12.10;0;0.00
2021-10-08 07:05:32;4.19;77;12.10;0;0.00
2021-10-08 07:10:33;4.19;78;12.20;0;0.00
2021-10-08 07:15:30;4.19;77;12.20;0;0.00
2021-10-08 07:20:31;4.19;76;12.40;0;0.00
2021-10-08 07:25:32;4.19;77;12.40;0;0.00
2021-10-08 07:30:33;4.20;77;12.50;0;0.00
2021-10-08 07:35:34;4.20;77;12.60;0;0.00
2021-10-08 07:40:30;4.20;76;12.80;0;0.00
2021-10-08 07:45:31;4.20;76;12.90;0;1.20
2021-10-08 07:50:32;4.20;75;13.00;0;1.60
2021-10-08 07:55:34;4.20;75;13.20;0;1.50
2021-10-08 08:00:30;4.20;76;13.20;0;0.00
2021-10-08 08:05:31;4.20;75;13.30;0;2.00
2021-10-08 08:10:32;4.20;75;13.50;0;1.80
2021-10-08 08:15:34;4.20;74;13.70;0;0.00
2021-10-08 08:20:30;4.21;73;13.90;0;1.30
2021-10-08 08:25:31;4.21;73;14.00;0;1.20
2021-10-08 08:30:33;4.21;73;14.20;0;1.40
2021-10-08 08:35:34;4.21;73;14.00;0;1.30
2021-10-08 08:40:31;4.21;73;14.10;0;1.50
2021-10-08 08:45:32;4.21;73;14.00;0;1.70
2021-10-08 08:50:33;4.21;72;14.20;0;1.30
2021-10-08 08:55:30;4.21;73;14.20;0;1.20
2021-10-08 09:00:31;4.21;73;14.40;0;1.40
2021-10-08 09:05:32;4.21;73;14.30;0;1.60
2021-10-08 09:10:34;4.21;72;14.40;0;2.19
2021-10-08 09:15:31;4.21;72;14.70;0;0.00
2021-10-08 09:20:32;4.21;73;14.70;0;0.00
2021-10-08 09:25:33;4.21;72;15.00;0;1.50
2021-10-08 09:30:30;4.21;72;14.80;0;1.40
2021-10-08 09:35:32;4.21;72;14.80;0;1.70
2021-10-08 09:40:33;4.21;73;14.90;0;1.10
2021-10-08 09:45:34;4.21;72;15.20;0;0.00
2021-10-08 09:50:31;4.21;72;15.30;0;0.00
2021-10-08 09:55:33;4.21;71;15.70;0;1.30
2021-10-08 10:00:34;4.21;71;15.70;0;1.50
2021-10-08 10:05:31;4.21;71;15.60;0;0.00
2021-10-08 10:10:32;4.21;70;16.20;0;0.00
2021-10-08 10:15:34;4.21;70;16.20;0;0.00
2021-10-08 10:20:31;4.21;70;16.60;0;0.00
2021-10-08 10:25:32;4.21;70;16.40;0;1.10
2021-10-08 10:30:34;4.21;69;16.50;0;0.00
2021-10-08 10:35:31;4.22;69;16.60;0;0.00
2021-10-08 10:40:33;4.21;70;16.70;0;0.00
2021-10-08 10:45:34;4.22;70;17.20;0;0.00
2021-10-08 10:50:32;4.22;69;17.20;0;0.00
2021-10-08 10:55:33;4.22;70;17.00;0;0.00
2021-10-08 11:00:30;4.22;70;17.00;0;0.00
2021-10-08 11:05:32;4.22;71;16.60;0;0.00
2021-10-08 11:10:34;4.22;70;16.90;0;1.10
2021-10-08 11:15:31;4.22;70;16.90;0;0.00
2021-10-08 11:20:33;4.22;69;17.10;0;0.00
2021-10-08 11:25:35;4.22;70;17.10;0;0.00
2021-10-08 11:30:32;4.22;70;17.30;0;0.00
2021-10-08 11:35:33;4.22;69;17.40;0;0.00
2021-10-08 11:40:31;4.22;68;17.70;0;1.10
2021-10-08 11:45:32;4.22;69;18.00;0;0.00
2021-10-08 11:50:34;4.22;67;18.60;0;0.00
2021-10-08 11:55:32;4.22;66;18.60;0;0.00
2021-10-08 12:00:34;4.22;66;18.80;0;0.00
2021-10-08 12:05:31;4.22;66;18.50;0;1.40
2021-10-08 12:10:33;4.22;65;19.00;0;0.00
2021-10-08 12:15:35;4.22;65;18.70;0;0.00
2021-10-08 12:20:33;4.22;64;19.80;0;0.00
2021-10-08 12:25:35;4.22;63;19.50;0;1.50
2021-10-08 12:30:32;4.22;64;19.20;0;0.00
2021-10-08 12:35:35;4.22;64;19.50;0;0.00
2021-10-08 12:40:32;4.22;63;19.50;0;0.00
2021-10-08 12:45:34;4.22;63;20.00;0;1.20
2021-10-08 12:50:32;4.22;63;19.50;0;1.60
2021-10-08 12:55:34;4.22;63;19.80;0;0.00
2021-10-08 13:00:32;4.22;63;20.50;0;0.00
2021-10-08 13:05:34;4.22;61;20.80;0;0.00
2021-10-08 13:10:32;4.22;61;20.20;0;1.30
2021-10-08 13:15:34;4.22;61;20.60;0;1.20
2021-10-08 13:20:32;4.22;61;20.50;0;0.00
2021-10-08 13:25:34;4.23;61;20.50;0;0.00
2021-10-08 13:30:32;4.22;60;20.80;0;0.00
2021-10-08 13:35:35;4.23;60;21.40;0;0.00
2021-10-08 13:40:32;4.23;57;21.10;0;1.40
2021-10-08 13:45:35;4.23;59;21.60;0;0.00
2021-10-08 13:50:33;4.23;59;21.70;0;1.60
2021-10-08 13:55:35;4.23;60;21.10;0;0.00
2021-10-08 14:00:33;4.23;57;22.50;0;1.40
2021-10-08 14:05:36;4.23;59;21.50;0;1.80
2021-10-08 14:10:34;4.23;58;22.00;0;0.00
2021-10-08 14:15:32;4.23;57;21.40;0;1.40
2021-10-08 14:20:34;4.23;59;21.70;0;1.20
2021-10-08 14:25:32;4.23;57;22.40;0;0.00
2021-10-08 14:30:35;4.23;58;21.50;0;1.50
2021-10-08 14:35:33;4.23;57;21.30;0;1.30
2021-10-08 14:40:35;4.23;59;21.40;0;0.00
2021-10-08 14:45:33;4.23;57;21.60;0;1.80
2021-10-08 14:50:31;4.23;58;22.20;0;0.00
2021-10-08 14:55:34;4.23;56;22.80;0;1.60
2021-10-08 15:00:32;4.23;57;22.30;0;1.10
2021-10-08 15:05:34;4.23;56;23.10;0;1.20
2021-10-08 15:10:32;4.23;55;23.40;0;0.00
2021-10-08 15:15:35;4.23;57;22.60;0;2.39
2021-10-08 15:20:33;4.23;57;22.20;0;1.90
2021-10-08 15:25:36;4.23;56;22.80;0;1.30
2021-10-08 15:30:34;4.23;57;23.50;0;0.00
2021-10-08 15:35:32;4.23;57;23.10;0;1.10
2021-10-08 15:40:35;4.23;56;23.00;0;2.29
2021-10-08 15:45:33;4.23;57;22.90;0;0.00
2021-10-08 15:50:35;4.23;58;22.30;0;0.00
2021-10-08 15:55:34;4.23;55;22.30;0;1.50
2021-10-08 16:00:32;4.23;56;22.30;0;0.00
2021-10-08 16:05:34;4.23;55;22.20;0;1.80
2021-10-08 16:10:32;4.23;56;22.20;0;0.00
2021-10-08 16:15:35;4.24;56;22.20;0;0.00
2021-10-08 16:20:33;4.23;57;22.30;0;1.50
2021-10-08 16:25:35;4.23;57;22.50;0;2.89
2021-10-08 16:30:33;4.23;56;22.30;0;2.09
2021-10-08 16:35:35;4.23;57;21.90;0;2.19
2021-10-08 16:40:33;4.23;56;22.20;0;2.59
2021-10-08 16:45:31;4.23;57;21.90;0;2.29
2021-10-08 16:50:33;4.23;57;22.10;0;1.60
2021-10-08 16:55:31;4.23;57;21.80;0;1.30
2021-10-08 17:00:34;4.23;56;21.90;0;1.10
2021-10-08 17:05:31;4.24;58;21.60;0;1.50
2021-10-08 17:10:34;4.23;57;21.70;0;1.60
2021-10-08 17:15:31;4.23;57;21.60;0;2.29
2021-10-08 17:20:34;4.23;57;21.50;0;1.90
2021-10-08 17:25:31;4.23;58;21.60;0;1.90
2021-10-08 17:30:34;4.23;57;21.90;0;2.09
2021-10-08 17:35:31;4.23;57;21.90;0;2.59
2021-10-08 17:40:34;4.24;57;22.00;0;3.48
2021-10-08 17:45:31;4.24;56;22.10;0;3.28
2021-10-08 17:50:34;4.23;57;21.60;0;2.00
2021-10-08 17:55:31;4.23;57;21.30;0;3.18
2021-10-08 18:00:34;4.24;57;21.30;0;2.59
2021-10-08 18:05:31;4.24;57;21.10;0;2.49
2021-10-08 18:10:34;4.24;58;20.90;0;1.90
2021-10-08 18:15:31;4.24;58;21.10;0;2.00
2021-10-08 18:20:33;4.24;57;21.00;0;2.39
2021-10-08 18:25:31;4.23;57;20.80;0;2.69
2021-10-08 18:30:33;4.24;58;20.70;0;1.60
2021-10-08 18:35:35;4.23;59;20.50;0;1.90
2021-10-08 18:40:33;4.23;60;20.10;0;1.30
2021-10-08 18:45:35;4.23;59;20.00;0;1.20
2021-10-08 18:50:32;4.23;60;19.70;0;1.60
2021-10-08 18:55:34;4.23;60;19.50;0;0.00
2021-10-08 19:00:32;4.23;61;19.30;0;1.40
2021-10-08 19:05:33;4.23;62;18.80;0;0.00
2021-10-08 19:10:31;4.23;64;18.30;0;0.00
2021-10-08 19:15:33;4.23;65;17.80;0;0.00
2021-10-08 19:20:34;4.23;65;17.80;0;0.00
2021-10-08 19:25:32;4.23;66;17.70;0;0.00
2021-10-08 19:30:33;4.23;66;17.60;0;0.00
2021-10-08 19:35:30;4.22;66;17.60;0;0.00
2021-10-08 19:40:32;4.23;66;17.60;0;0.00
2021-10-08 19:45:34;4.23;66;17.60;0;0.00
2021-10-08 19:50:31;4.22;65;17.90;0;1.70
2021-10-08 19:55:32;4.22;65;18.00;0;0.00
2021-10-08 20:00:34;4.22;65;17.90;0;0.00
2021-10-08 20:05:31;4.22;66;17.70;0;0.00
2021-10-08 20:10:32;4.22;66;17.50;0;0.00
2021-10-08 20:15:34;4.22;67;17.40;0;0.00
2021-10-08 20:20:31;4.22;68;17.30;0;0.00
2021-10-08 20:25:33;4.22;68;17.20;0;0.00
2021-10-08 20:30:34;4.22;69;17.10;0;0.00
2021-10-08 20:35:31;4.22;70;16.80;0;0.00
2021-10-08 20:40:33;4.22;71;16.50;0;0.00
2021-10-08 20:45:34;4.22;72;16.40;0;0.00
2021-10-08 20:50:31;4.22;72;16.10;0;0.00
2021-10-08 20:55:33;4.22;73;15.80;0;0.00
2021-10-08 21:00:34;4.22;74;15.50;0;0.00
2021-10-08 21:05:31;4.22;75;15.20;0;0.00
2021-10-08 21:10:32;4.22;75;15.10;0;0.00
2021-10-08 21:15:33;4.22;75;15.00;0;0.00
2021-10-08 21:20:30;4.22;74;15.20;0;0.00
2021-10-08 21:25:32;4.22;74;15.10;0;0.00
2021-10-08 21:30:33;4.22;74;15.10;0;0.00
2021-10-08 21:35:34;4.22;74;15.00;0;0.00
2021-10-08 21:40:31;4.22;74;15.10;0;0.00
2021-10-08 21:45:32;4.22;76;14.60;0;0.00
2021-10-08 21:50:33;4.22;76;14.50;0;0.00
2021-10-08 21:55:30;4.21;76;14.70;0;0.00
2021-10-08 22:00:31;4.21;76;14.60;0;0.00
2021-10-08 22:05:32;4.21;78;14.20;0;0.00
2021-10-08 22:10:33;4.21;78;14.20;0;0.00
2021-10-08 22:15:30;4.22;79;14.00;0;0.00
2021-10-08 22:20:31;4.21;80;13.80;0;0.00
2021-10-08 22:25:32;4.21;80;13.80;0;0.00
2021-10-08 22:30:34;4.21;81;13.50;0;0.00
2021-10-08 22:35:30;4.21;81;13.30;0;0.00
2021-10-08 22:40:31;4.21;82;13.10;0;0.00
2021-10-08 22:45:32;4.21;83;13.00;0;0.00
2021-10-08 22:50:34;4.21;83;12.90;0;0.00
2021-10-08 22:55:30;4.21;83;13.00;0;0.00
2021-10-08 23:00:31;4.21;83;13.00;0;0.00
2021-10-08 23:05:32;4.21;83;12.90;0;0.00
2021-10-08 23:10:33;4.21;85;12.50;0;0.00
2021-10-08 23:15:30;4.21;85;12.20;0;0.00
2021-10-08 23:20:31;4.21;85;12.20;0;0.00
2021-10-08 23:25:32;4.21;86;11.90;0;0.00
2021-10-08 23:30:33;4.21;85;12.30;0;0.00
2021-10-08 23:35:34;4.21;85;12.40;0;0.00
2021-10-08 23:40:30;4.21;86;12.30;0;0.00
2021-10-08 23:45:31;4.21;86;12.40;0;0.00
2021-10-08 23:50:32;4.21;86;12.20;0;1.10
2021-10-08 23:55:33;4.21;86;12.20;0;0.00
