2021-11-29 00:00:32;4.15;84;16.80;54;1.40
2021-11-29 00:05:33;4.15;84;16.80;0;1.40
2021-11-29 00:10:30;4.15;84;16.90;0;2.00
2021-11-29 00:15:32;4.15;84;16.60;0;1.40
2021-11-29 00:20:33;4.15;84;16.40;0;1.10
2021-11-29 00:25:30;4.15;84;16.40;0;1.60
2021-11-29 00:30:32;4.15;83;16.40;0;1.40
2021-11-29 00:35:34;4.15;84;16.50;0;1.20
2021-11-29 00:40:31;4.15;84;16.60;0;1.70
2021-11-29 00:45:32;4.15;84;16.70;0;1.50
2021-11-29 00:50:34;4.15;84;16.70;0;1.80
2021-11-29 00:55:31;4.15;84;16.70;0;1.50
2021-11-29 01:00:32;4.15;84;16.60;0;1.30
2021-11-29 01:05:34;4.15;83;16.50;0;1.40
2021-11-29 01:10:31;4.15;83;16.30;0;1.30
2021-11-29 01:15:32;4.15;83;16.30;0;1.40
2021-11-29 01:20:34;4.15;82;16.20;0;0.00
2021-11-29 01:25:31;4.15;82;16.10;0;1.30
2021-11-29 01:30:32;4.15;82;16.10;0;1.30
2021-11-29 01:35:34;4.14;82;16.00;0;0.00
2021-11-29 01:40:31;4.15;81;16.00;0;0.00
2021-11-29 01:45:32;4.15;81;15.80;0;1.40
2021-11-29 01:50:34;4.14;80;15.80;0;0.00
2021-11-29 01:55:31;4.15;79;15.70;0;0.00
2021-11-29 02:00:32;4.15;79;15.80;0;0.00
2021-11-29 02:05:34;4.14;79;15.60;0;1.40
2021-11-29 02:10:31;4.14;79;15.60;0;0.00
2021-11-29 02:15:32;4.14;78;15.50;0;1.40
2021-11-29 02:20:34;4.14;78;15.40;0;1.70
2021-11-29 02:25:30;4.14;78;15.50;0;1.60
2021-11-29 02:30:32;4.14;78;15.40;0;1.40
2021-11-29 02:35:33;4.14;78;15.30;0;1.30
2021-11-29 02:40:30;4.14;77;15.40;0;1.50
2021-11-29 02:45:32;4.14;77;15.60;0;1.30
2021-11-29 02:50:33;4.14;78;15.60;0;1.50
2021-11-29 02:55:34;4.14;77;15.50;0;1.40
2021-11-29 03:00:31;4.14;78;15.50;0;1.70
2021-11-29 03:05:33;4.14;77;15.40;0;1.60
2021-11-29 03:10:34;4.14;76;15.30;0;0.00
2021-11-29 03:15:31;4.14;75;15.30;0;1.30
2021-11-29 03:20:32;4.14;76;15.30;0;1.10
2021-11-29 03:25:34;4.14;75;15.20;0;0.00
2021-11-29 03:30:31;4.14;74;15.10;0;1.60
2021-11-29 03:35:32;4.14;75;15.30;0;1.40
2021-11-29 03:40:33;4.14;76;15.30;0;1.40
2021-11-29 03:45:30;4.14;76;15.40;0;1.70
2021-11-29 03:50:32;4.14;76;15.30;0;1.10
2021-11-29 03:55:33;4.14;76;15.30;0;1.70
2021-11-29 04:00:30;4.14;77;15.40;0;1.30
2021-11-29 04:05:31;4.14;77;15.40;0;1.30
2021-11-29 04:10:33;4.14;77;15.20;0;1.20
2021-11-29 04:15:34;4.14;76;15.10;0;0.00
2021-11-29 04:20:31;4.14;75;14.90;0;1.20
2021-11-29 04:25:32;4.14;74;14.80;0;0.00
2021-11-29 04:30:34;4.14;73;14.70;0;0.00
2021-11-29 04:35:31;4.14;72;14.50;0;0.00
2021-11-29 04:40:32;4.14;70;14.40;0;1.20
2021-11-29 04:45:33;4.14;68;14.40;0;1.20
2021-11-29 04:50:30;4.13;68;14.40;0;0.00
2021-11-29 04:55:31;4.13;67;14.40;0;1.10
2021-11-29 05:00:33;4.13;68;14.30;0;0.00
2021-11-29 05:05:34;4.13;68;14.30;0;0.00
2021-11-29 05:10:31;4.13;66;14.20;0;0.00
2021-11-29 05:15:32;4.13;67;14.30;0;0.00
2021-11-29 05:20:33;4.13;67;14.30;0;0.00
2021-11-29 05:25:30;4.13;67;14.30;0;1.10
2021-11-29 05:30:31;4.13;69;14.50;0;0.00
2021-11-29 05:35:33;4.13;70;14.40;0;0.00
2021-11-29 05:40:34;4.13;69;14.30;0;0.00
2021-11-29 05:45:31;4.13;68;14.20;0;0.00
2021-11-29 05:50:32;4.13;67;14.00;0;0.00
2021-11-29 05:55:33;4.13;66;14.00;0;0.00
2021-11-29 06:00:30;4.13;67;14.10;0;1.10
2021-11-29 06:05:31;4.13;67;13.90;0;0.00
2021-11-29 06:10:32;4.13;65;13.90;0;0.00
2021-11-29 06:15:34;4.13;65;14.00;0;0.00
2021-11-29 06:20:30;4.13;64;14.00;0;0.00
2021-11-29 06:25:32;4.13;63;14.10;0;0.00
2021-11-29 06:30:33;4.13;64;14.40;0;0.00
2021-11-29 06:35:34;4.13;70;14.90;0;0.00
2021-11-29 06:40:31;4.13;74;15.10;0;1.40
2021-11-29 06:45:32;4.13;75;15.30;0;1.30
2021-11-29 06:50:34;4.13;77;15.80;0;1.20
2021-11-29 06:55:30;4.13;80;16.20;0;1.60
2021-11-29 07:00:32;4.13;81;16.50;0;1.50
2021-11-29 07:05:33;4.13;82;16.60;0;1.70
2021-11-29 07:10:30;4.13;82;16.90;0;1.70
2021-11-29 07:15:32;4.14;83;17.10;0;1.60
2021-11-29 07:20:33;4.14;83;17.30;0;2.00
2021-11-29 07:25:30;4.14;83;17.60;0;2.29
2021-11-29 07:30:32;4.14;83;17.60;0;1.90
2021-11-29 07:35:34;4.14;83;17.80;0;2.19
2021-11-29 07:40:31;4.14;84;18.00;0;2.00
2021-11-29 07:45:33;4.14;83;18.10;0;2.09
2021-11-29 07:50:34;4.14;84;18.40;0;2.29
2021-11-29 07:55:32;4.14;84;18.50;0;2.89
2021-11-29 08:00:33;4.14;84;18.80;0;2.49
2021-11-29 08:05:31;4.14;84;19.10;0;1.70
2021-11-29 08:10:33;4.15;84;19.00;0;2.19
2021-11-29 08:15:35;4.15;83;19.20;0;2.59
2021-11-29 08:20:32;4.16;83;19.50;0;2.09
2021-11-29 08:25:34;4.16;83;19.50;0;2.09
2021-11-29 08:30:32;4.16;83;19.80;0;2.49
2021-11-29 08:35:34;4.16;83;20.10;0;2.59
2021-11-29 08:40:31;4.16;82;20.20;0;2.69
2021-11-29 08:45:33;4.16;82;20.40;0;2.69
2021-11-29 08:50:31;4.17;82;21.00;0;2.99
2021-11-29 08:55:33;4.17;83;21.00;0;2.99
2021-11-29 09:00:31;4.17;81;21.20;0;2.49
2021-11-29 09:05:33;4.17;81;21.50;0;2.29
2021-11-29 09:10:31;4.17;81;22.00;0;3.18
2021-11-29 09:15:34;4.17;80;22.20;0;1.90
2021-11-29 09:20:31;4.17;79;22.50;0;3.38
2021-11-29 09:25:34;4.17;79;22.50;0;2.89
2021-11-29 09:30:32;4.17;79;22.60;0;2.79
2021-11-29 09:35:34;4.17;77;22.90;0;2.29
2021-11-29 09:40:32;4.17;77;23.60;0;3.68
2021-11-29 09:45:35;4.17;76;23.30;0;3.88
2021-11-29 09:50:33;4.17;76;23.40;0;3.28
2021-11-29 09:55:31;4.18;77;23.60;0;3.28
2021-11-29 10:00:34;4.18;74;23.60;0;2.99
2021-11-29 10:05:32;4.18;76;23.80;0;3.78
2021-11-29 10:10:35;4.18;73;23.90;0;2.89
2021-11-29 10:15:33;4.18;74;23.50;0;4.67
2021-11-29 10:20:31;4.18;71;23.70;0;3.58
2021-11-29 10:25:34;4.18;74;24.20;0;2.49
2021-11-29 10:30:32;4.18;72;24.60;0;3.97
2021-11-29 10:35:35;4.18;70;24.30;0;3.08
2021-11-29 10:40:34;4.18;69;24.50;0;3.58
2021-11-29 10:45:32;4.18;70;24.80;0;4.17
2021-11-29 10:50:35;4.18;68;24.60;0;3.97
2021-11-29 10:55:33;4.18;70;25.00;0;5.36
2021-11-29 11:00:32;4.18;66;24.80;0;3.08
2021-11-29 11:05:35;4.18;64;25.00;0;3.68
2021-11-29 11:10:33;4.18;63;25.30;0;4.77
2021-11-29 11:15:36;4.18;62;25.10;0;5.46
2021-11-29 11:20:35;4.18;62;25.30;0;4.37
2021-11-29 11:25:33;4.19;63;25.40;0;3.97
2021-11-29 11:30:36;4.19;63;25.70;0;3.48
2021-11-29 11:35:35;4.19;63;25.80;0;3.68
2021-11-29 11:40:33;4.19;60;25.80;0;4.57
2021-11-29 11:45:32;4.19;60;25.90;0;4.27
2021-11-29 11:50:35;4.19;65;26.10;0;3.08
2021-11-29 11:55:33;4.19;62;25.80;0;2.99
2021-11-29 12:00:32;4.19;61;26.30;0;2.99
2021-11-29 12:05:35;4.19;62;25.50;0;2.39
2021-11-29 12:10:34;4.19;63;26.70;0;7.44
2021-11-29 12:15:32;4.19;61;26.30;0;4.07
2021-11-29 12:20:36;4.19;58;26.30;0;3.78
2021-11-29 12:25:34;4.19;58;26.50;0;2.69
2021-11-29 12:30:33;4.19;60;26.90;0;2.49
2021-11-29 12:35:36;4.19;59;26.70;0;5.36
2021-11-29 12:40:35;4.19;60;26.80;0;2.99
2021-11-29 12:45:34;4.19;59;27.30;0;4.37
2021-11-29 12:50:32;4.19;61;26.50;0;2.19
2021-11-29 12:55:36;4.19;61;27.00;0;3.28
2021-11-29 13:00:35;4.19;61;26.70;0;2.09
2021-11-29 13:05:33;4.19;59;26.90;0;5.76
2021-11-29 13:10:32;4.19;59;26.90;0;4.07
2021-11-29 13:15:35;4.20;60;27.40;0;2.49
2021-11-29 13:20:34;4.19;59;27.00;0;3.78
2021-11-29 13:25:33;4.20;59;27.70;0;3.08
2021-11-29 13:30:36;4.20;57;27.70;0;4.17
2021-11-29 13:35:35;4.20;55;27.80;0;2.89
2021-11-29 13:40:34;4.20;55;27.40;0;3.38
2021-11-29 13:45:33;4.20;56;27.70;0;5.66
2021-11-29 13:50:36;4.20;57;28.40;0;4.37
2021-11-29 13:55:35;4.20;55;27.80;0;2.59
2021-11-29 14:00:34;4.20;57;28.10;0;3.68
2021-11-29 14:05:33;4.20;57;27.90;0;4.96
2021-11-29 14:10:32;4.20;58;28.10;0;5.26
2021-11-29 14:15:31;4.20;56;28.00;0;3.68
2021-11-29 14:20:35;4.20;56;27.60;0;2.89
2021-11-29 14:25:33;4.20;56;28.70;0;2.59
2021-11-29 14:30:32;4.20;56;28.20;0;3.97
2021-11-29 14:35:36;4.20;59;28.10;0;1.80
2021-11-29 14:40:35;4.20;55;28.20;0;4.07
2021-11-29 14:45:34;4.20;58;28.60;0;2.49
2021-11-29 14:50:33;4.20;56;28.10;0;4.17
2021-11-29 14:55:36;4.20;56;28.20;0;2.39
2021-11-29 15:00:36;4.20;57;28.80;0;2.49
2021-11-29 15:05:34;4.20;58;28.80;0;4.77
2021-11-29 15:10:33;4.20;54;28.20;0;3.38
2021-11-29 15:15:32;4.20;56;28.20;0;3.88
2021-11-29 15:20:36;4.20;57;28.80;0;2.00
2021-11-29 15:25:35;4.20;57;28.90;0;4.96
2021-11-29 15:30:34;4.20;53;28.70;0;2.09
2021-11-29 15:35:33;4.20;54;28.80;0;2.00
2021-11-29 15:40:32;4.20;55;28.80;0;3.18
2021-11-29 15:45:36;4.20;54;29.10;0;1.60
2021-11-29 15:50:35;4.20;55;29.10;0;1.60
2021-11-29 15:55:34;4.20;54;29.10;0;2.59
2021-11-29 16:00:33;4.20;55;29.00;0;3.58
2021-11-29 16:05:36;4.20;55;29.40;0;2.39
2021-11-29 16:10:36;4.20;55;29.30;0;2.89
2021-11-29 16:15:35;4.20;51;29.30;0;2.00
2021-11-29 16:20:34;4.21;52;29.00;0;3.58
2021-11-29 16:25:33;4.20;53;29.40;0;1.30
2021-11-29 16:30:36;4.21;52;29.30;0;2.79
2021-11-29 16:35:35;4.21;51;29.50;0;2.39
2021-11-29 16:40:34;4.21;50;29.50;0;1.90
2021-11-29 16:45:34;4.21;50;29.50;0;2.99
2021-11-29 16:50:33;4.21;51;29.50;0;3.58
2021-11-29 16:55:36;4.21;52;29.50;0;1.20
2021-11-29 17:00:35;4.21;51;29.30;0;1.10
2021-11-29 17:05:34;4.21;53;29.60;0;1.60
2021-11-29 17:10:34;4.21;53;29.40;0;1.10
2021-11-29 17:15:33;4.21;51;29.10;0;1.90
2021-11-29 17:20:36;4.21;52;29.30;0;2.19
2021-11-29 17:25:35;4.21;55;29.30;0;1.50
2021-11-29 17:30:34;4.21;52;28.90;0;2.39
2021-11-29 17:35:33;4.21;50;29.10;0;1.60
2021-11-29 17:40:32;4.21;51;29.00;0;2.00
2021-11-29 17:45:36;4.21;51;28.90;0;1.30
2021-11-29 17:50:35;4.21;54;29.10;0;0.00
2021-11-29 17:55:34;4.21;53;29.00;0;0.00
2021-11-29 18:00:33;4.21;55;28.90;0;1.10
2021-11-29 18:05:36;4.21;55;28.90;0;1.20
2021-11-29 18:10:35;4.21;55;28.80;0;0.00
2021-11-29 18:15:34;4.21;56;28.70;0;0.00
2021-11-29 18:20:33;4.21;55;28.50;0;1.30
2021-11-29 18:25:36;4.20;55;28.30;0;1.70
2021-11-29 18:30:35;4.21;54;28.30;0;0.00
2021-11-29 18:35:34;4.21;58;28.20;0;0.00
2021-11-29 18:40:33;4.20;58;28.00;0;0.00
2021-11-29 18:45:36;4.20;59;27.80;0;0.00
2021-11-29 18:50:35;4.20;60;29.00;0;0.00
2021-11-29 18:55:34;4.20;62;28.90;0;0.00
2021-11-29 19:00:33;4.20;59;29.70;0;0.00
2021-11-29 19:05:36;4.20;63;28.70;0;0.00
2021-11-29 19:10:35;4.20;61;27.90;0;0.00
2021-11-29 19:15:33;4.20;63;27.30;0;0.00
2021-11-29 19:20:32;4.20;64;27.40;0;0.00
2021-11-29 19:25:35;4.20;66;26.80;0;0.00
2021-11-29 19:30:34;4.20;65;26.20;0;0.00
2021-11-29 19:35:32;4.20;69;25.20;0;0.00
2021-11-29 19:40:35;4.20;73;23.90;0;0.00
2021-11-29 19:45:33;4.19;73;23.10;0;0.00
2021-11-29 19:50:31;4.19;73;22.80;0;0.00
2021-11-29 19:55:34;4.19;74;22.20;0;0.00
2021-11-29 20:00:32;4.19;73;21.70;0;0.00
2021-11-29 20:05:35;4.19;79;21.60;0;0.00
2021-11-29 20:10:33;4.19;78;21.20;0;0.00
2021-11-29 20:15:35;4.19;78;21.30;0;0.00
2021-11-29 20:20:33;4.18;78;21.40;0;0.00
2021-11-29 20:25:35;4.18;77;21.20;0;0.00
2021-11-29 20:30:33;4.18;80;20.90;0;0.00
2021-11-29 20:35:35;4.18;82;20.20;0;0.00
2021-11-29 20:40:32;4.18;83;20.10;0;0.00
2021-11-29 20:45:30;4.18;83;19.90;0;0.00
2021-11-29 20:50:32;4.17;84;19.40;0;0.00
2021-11-29 20:55:34;4.17;81;19.50;0;0.00
2021-11-29 21:00:31;4.17;81;19.30;0;0.00
2021-11-29 21:05:33;4.17;80;19.60;0;0.00
2021-11-29 21:10:35;4.17;78;20.60;0;0.00
2021-11-29 21:15:32;4.17;76;21.20;0;0.00
2021-11-29 21:20:34;4.17;75;21.30;0;0.00
2021-11-29 21:25:31;4.17;75;21.20;0;0.00
2021-11-29 21:30:33;4.17;75;21.10;0;0.00
2021-11-29 21:35:31;4.17;76;20.90;0;0.00
2021-11-29 21:40:32;4.17;81;19.80;0;0.00
2021-11-29 21:45:34;4.17;84;18.70;0;0.00
2021-11-29 21:50:32;4.17;85;18.20;0;0.00
2021-11-29 21:55:33;4.17;85;17.40;0;0.00
2021-11-29 22:00:31;4.17;85;17.40;0;0.00
2021-11-29 22:05:32;4.16;85;17.30;0;0.00
2021-11-29 22:10:34;4.17;84;17.10;0;0.00
2021-11-29 22:15:31;4.17;84;17.10;0;0.00
2021-11-29 22:20:33;4.16;85;16.80;0;0.00
2021-11-29 22:25:30;4.16;85;16.60;0;0.00
2021-11-29 22:30:32;4.16;84;16.50;0;0.00
2021-11-29 22:35:34;4.16;84;16.20;0;0.00
2021-11-29 22:40:31;4.16;83;15.90;0;0.00
2021-11-29 22:45:32;4.16;81;16.00;0;0.00
2021-11-29 22:50:34;4.16;84;17.00;0;0.00
2021-11-29 22:55:31;4.16;84;16.70;0;0.00
2021-11-29 23:00:32;4.16;83;16.60;0;0.00
2021-11-29 23:05:34;4.16;83;16.70;0;0.00
2021-11-29 23:10:31;4.16;84;16.80;0;0.00
2021-11-29 23:15:32;4.16;83;16.40;0;0.00
2021-11-29 23:20:34;4.16;82;16.00;0;0.00
2021-11-29 23:25:31;4.15;83;16.30;0;0.00
2021-11-29 23:30:33;4.16;84;17.00;0;0.00
2021-11-29 23:35:34;4.16;84;16.60;0;0.00
2021-11-29 23:40:31;4.15;83;16.20;0;0.00
2021-11-29 23:45:33;4.15;83;16.10;0;0.00
2021-11-29 23:50:34;4.15;84;16.70;0;0.00
2021-11-29 23:55:31;4.15;84;16.20;0;0.00
