2021-04-14 00:03:33;4.22;1;13.10;1;0.00
2021-04-14 00:33:34;4.21;25;12.60;0;0.00
2021-04-14 01:03:34;4.21;54;11.40;0;0.00
2021-04-14 01:33:33;4.21;99;11.90;0;0.00
2021-04-14 02:03:33;4.21;99;12.30;0;0.00
2021-04-14 02:33:37;4.21;99;12.20;0;0.00
2021-04-14 03:03:32;4.21;99;11.90;0;0.00
2021-04-14 03:33:37;4.20;99;11.80;0;0.00
2021-04-14 04:03:37;4.21;99;12.30;0;0.00
2021-04-14 04:33:36;4.21;99;12.10;0;0.00
2021-04-14 05:03:36;4.20;99;12.10;0;0.00
2021-04-14 05:33:36;4.21;99;12.20;0;0.00
2021-04-14 06:03:36;4.21;99;12.20;0;0.00
2021-04-14 06:33:36;4.20;99;12.10;0;0.00
2021-04-14 07:03:36;4.20;99;12.00;0;0.00
2021-04-14 07:33:36;4.20;99;12.20;0;0.00
2021-04-14 08:03:35;4.21;99;12.80;1;0.00
2021-04-14 08:33:36;4.21;14;14.90;1;0.00
2021-04-14 09:03:38;4.21;1;17.00;1;0.00
2021-04-14 09:33:38;4.21;1;18.40;1;1.40
2021-04-14 10:03:39;4.22;1;19.90;1;2.09
2021-04-14 10:33:42;4.22;1;21.70;1;1.30
2021-04-14 11:03:42;4.22;1;22.50;1;2.29
2021-04-14 11:33:43;4.22;1;23.60;1;3.28
2021-04-14 12:03:45;4.23;1;24.90;1;1.30
2021-04-14 12:33:43;4.23;1;25.70;1;1.50
2021-04-14 13:03:47;4.23;1;25.10;1;2.19
2021-04-14 13:33:46;4.23;1;25.60;1;2.29
2021-04-14 14:03:45;4.23;1;27.00;1;1.20
2021-04-14 14:33:46;4.23;1;25.50;1;1.30
2021-04-14 15:03:46;4.24;1;25.10;1;0.00
2021-04-14 15:33:46;4.23;1;25.60;1;1.20
2021-04-14 16:03:47;4.24;1;27.20;1;0.00
2021-04-14 16:33:47;4.24;1;26.00;1;1.90
2021-04-14 17:03:47;4.24;1;25.40;1;1.60
2021-04-14 17:33:46;4.24;1;24.60;1;1.20
2021-04-14 18:03:44;4.24;1;24.30;1;0.00
2021-04-14 18:33:45;4.24;1;22.30;1;0.00
2021-04-14 19:03:39;4.24;1;21.10;1;0.00
2021-04-14 19:33:42;4.23;1;20.10;1;0.00
2021-04-14 20:03:39;4.23;1;19.10;1;0.00
2021-04-14 20:33:40;4.23;1;18.70;1;0.00
2021-04-14 21:03:40;4.23;1;18.00;1;0.00
2021-04-14 21:33:40;4.23;1;17.50;1;0.00
2021-04-14 22:03:39;4.22;1;17.00;1;0.00
2021-04-14 22:33:38;4.22;20;16.80;1;0.00
2021-04-14 23:03:37;4.22;1;17.60;1;0.00
2021-04-14 23:33:36;4.22;1;16.90;1;0.00
