2021-08-15 00:03:31;4.20;5;4.30;1;0.00
2021-08-15 00:33:31;4.19;12;4.30;0;0.00
2021-08-15 01:03:31;4.19;17;3.70;0;0.00
2021-08-15 01:33:30;4.19;60;3.30;0;0.00
2021-08-15 02:03:30;4.19;99;3.50;0;0.00
2021-08-15 02:33:29;4.19;99;3.10;0;0.00
2021-08-15 03:03:29;4.19;99;2.30;0;0.00
2021-08-15 03:33:28;4.19;99;2.50;0;0.00
2021-08-15 04:03:32;4.19;99;2.70;0;0.00
2021-08-15 04:33:31;4.18;99;3.40;0;0.00
2021-08-15 05:03:30;4.19;99;2.40;0;0.00
2021-08-15 05:33:29;4.19;99;1.70;0;0.00
2021-08-15 06:03:28;4.18;99;2.80;0;0.00
2021-08-15 06:33:31;4.18;99;1.10;0;0.00
2021-08-15 07:03:29;4.18;99;1.10;0;0.00
2021-08-15 07:33:28;4.18;99;1.60;0;0.00
2021-08-15 08:03:31;4.18;99;1.90;0;0.00
2021-08-15 08:33:30;4.19;99;4.60;0;0.00
2021-08-15 09:03:31;4.20;1;9.00;0;0.00
2021-08-15 09:33:33;4.20;1;10.90;0;0.00
2021-08-15 10:03:34;4.21;1;13.00;0;1.60
2021-08-15 10:33:36;4.21;1;14.70;0;2.09
2021-08-15 11:03:39;4.21;1;16.50;0;1.60
2021-08-15 11:33:39;4.21;1;17.60;0;1.40
2021-08-15 12:03:40;4.22;1;18.20;0;1.90
2021-08-15 12:33:38;4.22;1;19.20;0;1.90
2021-08-15 13:03:41;4.22;1;20.00;0;0.00
2021-08-15 13:33:40;4.22;1;20.70;0;0.00
2021-08-15 14:03:40;4.23;1;21.30;0;1.50
2021-08-15 14:33:45;4.23;1;20.80;0;1.40
2021-08-15 15:03:41;4.23;1;21.40;0;1.50
2021-08-15 15:33:41;4.23;1;21.70;0;3.18
2021-08-15 16:03:42;4.23;1;21.60;0;1.10
2021-08-15 16:33:42;4.23;1;20.40;0;2.29
2021-08-15 17:03:41;4.23;1;20.30;0;0.00
2021-08-15 17:33:39;4.23;1;19.50;0;1.40
2021-08-15 18:03:41;4.23;1;17.10;0;0.00
2021-08-15 18:33:36;4.23;1;15.30;0;0.00
2021-08-15 19:03:35;4.22;1;14.60;0;0.00
2021-08-15 19:33:37;4.22;1;13.20;0;0.00
2021-08-15 20:03:33;4.22;1;12.50;0;0.00
2021-08-15 20:33:34;4.22;1;11.90;0;0.00
2021-08-15 21:03:33;4.21;1;11.30;0;0.00
2021-08-15 21:33:33;4.21;1;11.30;0;0.00
2021-08-15 22:03:32;4.21;1;10.00;0;0.00
2021-08-15 22:33:36;4.21;1;9.60;0;0.00
2021-08-15 23:03:34;4.21;1;9.50;0;0.00
2021-08-15 23:33:33;4.21;1;10.30;0;0.00
