2021-02-17 00:03:37;4.22;74;17.00;0;0.00
2021-02-17 00:33:37;4.22;82;16.50;0;0.00
2021-02-17 01:03:40;4.22;80;15.90;0;0.00
2021-02-17 01:33:39;4.22;82;15.50;0;0.00
2021-02-17 02:03:37;4.22;85;15.20;0;0.00
2021-02-17 02:33:40;4.21;84;15.40;0;0.00
2021-02-17 03:03:38;4.21;88;14.50;0;0.00
2021-02-17 03:33:35;4.21;86;14.40;0;0.00
2021-02-17 04:03:37;4.21;90;14.60;0;0.00
2021-02-17 04:33:35;4.21;88;14.40;0;0.00
2021-02-17 05:03:37;4.21;99;13.10;0;0.00
2021-02-17 05:33:38;4.21;99;13.50;0;0.00
2021-02-17 06:03:35;4.21;83;14.20;0;0.00
2021-02-17 06:33:36;4.21;84;13.50;0;0.00
2021-02-17 07:03:38;4.21;82;13.90;0;0.00
2021-02-17 07:33:32;4.21;69;15.10;1;0.00
2021-02-17 08:03:39;4.21;60;17.30;1;0.00
2021-02-17 08:33:38;4.22;54;19.40;1;0.00
2021-02-17 09:03:40;4.22;44;21.50;1;0.00
2021-02-17 09:33:43;4.22;31;23.40;1;0.00
2021-02-17 10:03:44;4.22;23;25.20;1;1.40
2021-02-17 10:33:47;4.23;17;26.10;1;1.70
2021-02-17 11:03:47;4.23;16;27.30;1;0.00
2021-02-17 11:33:48;4.23;15;27.90;1;2.19
2021-02-17 12:03:50;4.23;12;28.30;1;2.09
2021-02-17 12:33:47;4.23;14;29.00;1;1.10
2021-02-17 13:03:51;4.24;11;30.50;1;1.40
2021-02-17 13:33:50;4.24;13;29.10;1;2.00
2021-02-17 14:03:49;4.24;14;30.60;1;0.00
2021-02-17 14:33:53;4.24;10;29.80;1;0.00
2021-02-17 15:03:48;4.24;12;31.30;1;0.00
2021-02-17 15:33:53;4.24;13;30.60;1;2.49
2021-02-17 16:03:49;4.24;9;31.20;1;1.10
2021-02-17 16:33:54;4.24;7;30.80;1;0.00
2021-02-17 17:03:50;4.24;9;31.30;1;0.00
2021-02-17 17:33:50;4.24;7;32.20;1;0.00
2021-02-17 18:03:49;4.25;9;30.50;1;1.30
2021-02-17 18:33:47;4.25;8;29.50;1;1.40
2021-02-17 19:03:49;4.25;14;28.90;1;0.00
2021-02-17 19:33:49;4.25;19;27.50;1;0.00
2021-02-17 20:03:46;4.24;38;22.20;1;0.00
2021-02-17 20:33:40;4.24;45;20.70;1;0.00
2021-02-17 21:03:42;4.23;38;20.50;1;0.00
2021-02-17 21:33:39;4.23;49;18.90;1;0.00
2021-02-17 22:03:39;4.23;55;17.90;1;0.00
2021-02-17 22:33:39;4.23;54;17.80;1;0.00
2021-02-17 23:03:39;4.22;60;17.10;1;0.00
2021-02-17 23:33:38;4.22;54;17.90;1;0.00
