2021-05-30 00:03:30;3.84;1;4.90;0;0.00
2021-05-30 00:33:30;3.84;1;4.90;0;0.00
2021-05-30 01:03:31;3.84;1;5.10;0;0.00
2021-05-30 01:33:32;3.84;1;5.50;0;0.00
2021-05-30 02:03:33;3.84;1;5.50;0;0.00
2021-05-30 02:33:33;3.84;1;5.00;0;0.00
2021-05-30 03:03:29;3.84;1;4.30;0;0.00
2021-05-30 03:33:29;3.84;1;3.80;0;0.00
2021-05-30 04:03:29;3.84;1;3.10;0;0.00
2021-05-30 04:33:29;3.83;1;3.60;0;0.00
2021-05-30 05:03:33;3.84;1;2.90;0;0.00
2021-05-30 05:33:32;3.83;1;2.70;0;0.00
2021-05-30 06:03:32;3.83;1;2.60;0;0.00
2021-05-30 06:33:31;3.83;1;2.30;0;0.00
2021-05-30 07:03:30;3.83;1;3.30;0;0.00
2021-05-30 07:33:29;3.83;1;2.90;0;0.00
2021-05-30 08:03:32;3.83;1;2.10;0;0.00
2021-05-30 08:33:31;3.83;1;5.40;0;0.00
2021-05-30 09:03:32;3.83;1;6.70;0;0.00
2021-05-30 09:33:34;3.83;1;10.10;0;0.00
2021-05-30 10:03:33;3.83;1;10.80;0;0.00
2021-05-30 10:33:37;3.83;1;13.00;0;0.00
2021-05-30 11:03:34;3.83;1;14.40;0;1.10
2021-05-30 11:33:36;3.83;1;15.40;0;1.70
2021-05-30 12:03:38;3.83;1;16.30;0;2.29
2021-05-30 12:33:37;3.83;1;17.00;0;1.40
2021-05-30 13:03:38;3.83;1;17.40;0;1.90
2021-05-30 13:33:39;3.83;1;17.30;0;1.90
2021-05-30 14:03:40;3.83;1;18.50;0;1.60
2021-05-30 14:33:42;3.83;1;18.60;0;1.60
2021-05-30 15:03:41;3.82;1;19.10;0;1.10
2021-05-30 15:33:44;3.83;1;19.30;0;1.20
2021-05-30 16:03:41;3.82;1;19.10;0;2.00
2021-05-30 16:33:38;3.82;1;18.40;0;2.29
2021-05-30 17:03:40;3.83;1;18.00;0;1.40
2021-05-30 17:33:40;3.83;1;15.80;0;1.20
2021-05-30 18:03:39;3.83;1;12.60;0;0.00
2021-05-30 18:33:36;3.83;1;11.10;0;0.00
2021-05-30 19:03:36;3.82;1;10.40;0;0.00
2021-05-30 19:33:35;3.83;1;10.00;0;0.00
2021-05-30 20:03:34;3.82;1;8.80;0;0.00
2021-05-30 20:33:32;3.83;1;8.40;0;0.00
2021-05-30 21:03:35;3.82;1;8.40;0;1.20
2021-05-30 21:33:33;3.82;1;8.50;0;0.00
2021-05-30 22:03:35;3.82;1;7.40;0;0.00
2021-05-30 22:33:33;3.82;1;7.10;0;0.00
2021-05-30 23:03:35;3.82;1;7.00;0;0.00
2021-05-30 23:33:32;3.82;1;6.10;0;0.00
