2021-05-17 00:03:37;3.97;99;10.60;0;0.00
2021-05-17 00:33:36;3.97;99;10.20;0;0.00
2021-05-17 01:03:35;3.97;99;9.40;0;0.00
2021-05-17 01:33:34;3.97;99;10.50;0;0.00
2021-05-17 02:03:33;3.97;99;10.10;0;0.00
2021-05-17 02:33:36;3.97;99;9.10;0;0.00
2021-05-17 03:03:34;3.96;99;8.70;0;0.00
2021-05-17 03:33:32;3.97;99;9.00;0;0.00
2021-05-17 04:03:35;3.97;99;9.20;0;0.00
2021-05-17 04:33:33;3.97;99;8.70;0;0.00
2021-05-17 05:03:36;3.96;99;8.30;0;0.00
2021-05-17 05:33:34;3.96;99;8.80;0;0.00
2021-05-17 06:03:32;3.96;99;8.20;0;0.00
2021-05-17 06:33:34;3.97;99;8.20;0;0.00
2021-05-17 07:03:32;3.96;99;7.70;0;0.00
2021-05-17 07:33:34;3.96;99;7.60;0;0.00
2021-05-17 08:03:32;3.96;99;7.90;0;0.00
2021-05-17 08:33:34;3.96;99;9.40;0;0.00
2021-05-17 09:03:33;3.96;99;12.10;0;0.00
2021-05-17 09:33:34;3.96;16;14.10;0;0.00
2021-05-17 10:03:37;3.96;1;17.10;0;0.00
2021-05-17 10:33:42;3.96;1;20.20;0;0.00
2021-05-17 11:03:40;3.96;1;20.80;0;0.00
2021-05-17 11:33:42;3.96;1;21.80;0;0.00
2021-05-17 12:03:41;3.96;1;21.70;0;1.20
2021-05-17 12:33:41;3.96;1;22.50;0;1.10
2021-05-17 13:03:43;3.95;1;22.90;0;0.00
2021-05-17 13:33:45;3.95;1;23.30;0;0.00
2021-05-17 14:03:45;3.95;1;24.10;0;0.00
2021-05-17 14:33:49;3.95;1;24.70;0;0.00
2021-05-17 15:03:48;3.95;1;23.00;0;0.00
2021-05-17 15:33:47;3.95;1;24.10;0;0.00
2021-05-17 16:03:46;3.95;1;23.60;0;0.00
2021-05-17 16:33:44;3.95;1;22.50;0;0.00
2021-05-17 17:03:44;3.95;1;22.60;0;0.00
2021-05-17 17:33:44;3.96;1;21.00;0;0.00
2021-05-17 18:03:42;3.96;1;18.90;0;0.00
2021-05-17 18:33:38;3.96;1;17.00;0;0.00
2021-05-17 19:03:37;3.96;1;15.40;0;0.00
2021-05-17 19:33:39;3.96;1;14.60;0;0.00
2021-05-17 20:03:36;3.96;1;15.20;0;0.00
2021-05-17 20:33:38;3.96;2;13.20;0;0.00
2021-05-17 21:03:34;3.96;7;12.80;0;0.00
2021-05-17 21:33:35;3.96;5;12.60;0;0.00
2021-05-17 22:03:35;3.96;56;11.40;0;0.00
2021-05-17 22:33:35;3.96;38;11.90;0;0.00
2021-05-17 23:03:35;3.96;99;10.80;0;0.00
2021-05-17 23:33:34;3.96;99;11.20;0;0.00
