2021-05-05 00:03:34;4.08;1;11.90;0;2.49
2021-05-05 00:33:34;4.08;1;11.80;0;2.00
2021-05-05 01:03:35;4.08;1;11.70;0;3.08
2021-05-05 01:33:35;4.08;1;11.60;0;3.08
2021-05-05 02:03:36;4.08;1;11.50;0;3.18
2021-05-05 02:33:36;4.08;1;11.30;0;1.80
2021-05-05 03:03:36;4.07;1;11.30;0;1.30
2021-05-05 03:33:36;4.07;1;11.10;0;1.70
2021-05-05 04:03:36;4.08;1;11.10;0;1.70
2021-05-05 04:33:36;4.08;1;11.00;0;1.60
2021-05-05 05:03:36;4.08;1;10.80;0;0.00
2021-05-05 05:33:36;4.08;1;10.80;0;0.00
2021-05-05 06:03:36;4.08;1;10.60;0;1.10
2021-05-05 06:33:35;4.08;1;10.40;0;1.60
2021-05-05 07:03:35;4.08;1;10.20;0;1.20
2021-05-05 07:33:34;4.07;1;10.20;0;0.00
2021-05-05 08:03:34;4.08;1;10.30;0;0.00
2021-05-05 08:33:33;4.08;1;10.70;0;0.00
2021-05-05 09:03:33;4.08;1;11.50;0;0.00
2021-05-05 09:33:38;4.08;1;11.90;0;0.00
2021-05-05 10:03:34;4.08;1;12.60;0;0.00
2021-05-05 10:33:36;4.08;1;14.40;0;0.00
2021-05-05 11:03:38;4.07;1;14.10;0;0.00
2021-05-05 11:33:37;4.08;1;15.40;0;0.00
2021-05-05 12:03:41;4.08;1;15.50;0;0.00
2021-05-05 12:33:41;4.08;1;15.70;0;1.10
2021-05-05 13:03:40;4.08;1;15.00;0;0.00
2021-05-05 13:33:39;4.08;1;15.50;0;0.00
2021-05-05 14:03:38;4.08;1;15.70;0;0.00
2021-05-05 14:33:37;4.08;1;15.20;0;1.10
2021-05-05 15:03:36;4.08;1;15.50;0;0.00
2021-05-05 15:33:39;4.08;1;15.90;0;1.20
2021-05-05 16:03:39;4.07;1;15.90;0;1.70
2021-05-05 16:33:38;4.08;1;15.40;0;0.00
2021-05-05 17:03:36;4.08;1;15.20;0;0.00
2021-05-05 17:33:39;4.08;1;14.80;0;0.00
2021-05-05 18:03:37;4.08;1;14.30;0;0.00
2021-05-05 18:33:38;4.08;1;13.40;0;0.00
2021-05-05 19:03:35;4.08;1;12.60;0;0.00
2021-05-05 19:33:36;4.07;1;12.10;0;0.00
2021-05-05 20:03:36;4.08;1;11.80;0;0.00
2021-05-05 20:33:36;4.07;1;11.10;0;0.00
2021-05-05 21:03:36;4.07;1;10.50;0;0.00
2021-05-05 21:33:35;4.07;1;8.80;0;0.00
2021-05-05 22:03:34;4.07;1;8.20;0;0.00
2021-05-05 22:33:31;4.07;1;7.40;0;0.00
2021-05-05 23:03:33;4.07;1;6.50;0;0.00
2021-05-05 23:33:30;4.07;1;6.50;0;0.00
