2021-12-30 00:00:32;4.18;64;23.60;0;0.00
2021-12-30 00:05:34;4.18;65;23.00;0;0.00
2021-12-30 00:10:32;4.18;66;22.90;0;0.00
2021-12-30 00:15:34;4.18;67;22.60;0;0.00
2021-12-30 00:20:32;4.18;66;23.20;0;0.00
2021-12-30 00:25:34;4.18;68;22.40;0;0.00
2021-12-30 00:30:32;4.18;67;22.70;0;0.00
2021-12-30 00:35:34;4.18;66;22.90;0;0.00
2021-12-30 00:40:32;4.18;66;23.10;0;0.00
2021-12-30 00:45:30;4.18;66;22.80;0;0.00
2021-12-30 00:50:32;4.18;67;22.40;0;0.00
2021-12-30 00:55:34;4.18;66;22.80;0;0.00
2021-12-30 01:00:32;4.18;68;22.20;0;0.00
2021-12-30 01:05:30;4.18;70;21.70;0;0.00
2021-12-30 01:10:32;4.18;68;22.50;0;0.00
2021-12-30 01:15:34;4.18;70;21.70;0;0.00
2021-12-30 01:20:32;4.18;71;21.20;0;0.00
2021-12-30 01:25:34;4.18;70;21.20;0;0.00
2021-12-30 01:30:32;4.18;69;21.50;0;0.00
2021-12-30 01:35:34;4.18;70;21.40;0;0.00
2021-12-30 01:40:32;4.18;66;22.60;0;0.00
2021-12-30 01:45:34;4.18;66;22.60;0;0.00
2021-12-30 01:50:32;4.17;70;21.50;0;0.00
2021-12-30 01:55:34;4.18;68;21.80;0;0.00
2021-12-30 02:00:31;4.17;69;21.60;0;0.00
2021-12-30 02:05:34;4.17;69;21.50;0;0.00
2021-12-30 02:10:31;4.17;69;21.60;0;0.00
2021-12-30 02:15:33;4.17;68;21.90;0;0.00
2021-12-30 02:20:31;4.17;70;21.30;0;0.00
2021-12-30 02:25:33;4.17;73;20.20;0;0.00
2021-12-30 02:30:31;4.17;72;20.60;0;0.00
2021-12-30 02:35:33;4.17;70;21.10;0;0.00
2021-12-30 02:40:31;4.17;71;21.00;0;0.00
2021-12-30 02:45:33;4.17;76;19.50;0;0.00
2021-12-30 02:50:35;4.17;73;20.20;0;0.00
2021-12-30 02:55:32;4.17;72;20.60;0;0.00
2021-12-30 03:00:30;4.17;75;19.90;0;0.00
2021-12-30 03:05:32;4.17;75;19.70;0;0.00
2021-12-30 03:10:34;4.17;74;20.00;0;0.00
2021-12-30 03:15:32;4.17;75;19.70;0;0.00
2021-12-30 03:20:34;4.17;75;19.60;0;0.00
2021-12-30 03:25:31;4.17;74;19.80;0;0.00
2021-12-30 03:30:33;4.17;74;19.70;0;0.00
2021-12-30 03:35:31;4.17;75;19.50;0;0.00
2021-12-30 03:40:33;4.17;73;19.90;0;0.00
2021-12-30 03:45:35;4.17;73;19.90;0;0.00
2021-12-30 03:50:32;4.17;73;20.10;0;0.00
2021-12-30 03:55:34;4.17;71;20.60;0;0.00
2021-12-30 04:00:32;4.16;72;20.30;0;1.20
2021-12-30 04:05:34;4.16;71;20.50;0;1.10
2021-12-30 04:10:31;4.16;70;20.80;0;1.30
2021-12-30 04:15:33;4.16;68;21.40;0;1.30
2021-12-30 04:20:31;4.17;67;21.80;0;1.10
2021-12-30 04:25:33;4.17;66;22.00;0;1.10
2021-12-30 04:30:35;4.17;67;21.80;0;0.00
2021-12-30 04:35:33;4.16;67;21.50;0;0.00
2021-12-30 04:40:35;4.16;66;21.80;0;1.30
2021-12-30 04:45:32;4.17;66;21.80;0;1.20
2021-12-30 04:50:35;4.16;66;21.70;0;1.60
2021-12-30 04:55:32;4.16;64;22.30;0;1.40
2021-12-30 05:00:34;4.16;64;22.50;0;1.50
2021-12-30 05:05:32;4.16;64;22.50;0;1.50
2021-12-30 05:10:30;4.16;65;22.00;0;1.10
2021-12-30 05:15:32;4.17;68;21.20;0;0.00
2021-12-30 05:20:34;4.16;68;20.90;0;1.20
2021-12-30 05:25:32;4.17;67;21.30;0;1.30
2021-12-30 05:30:34;4.17;66;21.60;0;1.30
2021-12-30 05:35:32;4.16;67;21.30;0;1.10
2021-12-30 05:40:34;4.17;68;21.00;0;0.00
2021-12-30 05:45:32;4.16;68;20.90;0;1.30
2021-12-30 05:50:34;4.16;68;21.00;0;1.30
2021-12-30 05:55:31;4.16;69;20.70;0;1.10
2021-12-30 06:00:34;4.16;70;20.40;0;0.00
2021-12-30 06:05:31;4.16;71;20.20;0;0.00
2021-12-30 06:10:33;4.16;72;20.00;0;0.00
2021-12-30 06:15:31;4.16;71;20.10;0;0.00
2021-12-30 06:20:33;4.16;70;20.50;0;1.40
2021-12-30 06:25:35;4.16;70;20.80;0;1.20
2021-12-30 06:30:33;4.16;70;20.90;0;1.20
2021-12-30 06:35:35;4.16;70;21.00;0;1.30
2021-12-30 06:40:32;4.16;70;21.10;0;0.00
2021-12-30 06:45:34;4.16;70;21.30;0;0.00
2021-12-30 06:50:32;4.16;69;21.80;0;1.10
2021-12-30 06:55:34;4.16;68;22.30;0;1.30
2021-12-30 07:00:32;4.16;68;22.70;0;0.00
2021-12-30 07:05:34;4.16;67;22.90;0;0.00
2021-12-30 07:10:32;4.16;66;23.30;0;1.20
2021-12-30 07:15:34;4.16;65;23.80;0;1.80
2021-12-30 07:20:32;4.16;64;24.00;0;1.80
2021-12-30 07:25:30;4.17;64;24.40;0;2.39
2021-12-30 07:30:33;4.17;63;24.80;0;2.69
2021-12-30 07:35:35;4.17;63;25.10;0;1.90
2021-12-30 07:40:33;4.17;62;25.30;0;2.00
2021-12-30 07:45:32;4.17;62;25.80;0;2.79
2021-12-30 07:50:34;4.17;62;25.90;0;2.09
2021-12-30 07:55:33;4.17;60;26.20;0;2.79
2021-12-30 08:00:36;4.17;60;26.60;0;2.89
2021-12-30 08:05:34;4.17;60;27.00;0;2.29
2021-12-30 08:10:32;4.17;60;27.20;0;2.29
2021-12-30 08:15:35;4.17;59;27.80;0;2.09
2021-12-30 08:20:34;4.18;58;27.90;0;2.09
2021-12-30 08:25:33;4.18;58;28.50;0;1.80
2021-12-30 08:30:36;4.18;57;28.90;0;3.18
2021-12-30 08:35:35;4.18;57;29.40;0;1.60
2021-12-30 08:40:33;4.18;56;29.00;0;3.88
2021-12-30 08:45:32;4.19;57;29.30;0;2.99
2021-12-30 08:50:36;4.19;55;29.90;0;2.29
2021-12-30 08:55:35;4.19;56;29.80;0;3.28
2021-12-30 09:00:34;4.19;56;30.20;0;3.48
2021-12-30 09:05:33;4.19;56;30.40;0;4.07
2021-12-30 09:10:37;4.19;56;30.70;0;2.59
2021-12-30 09:15:36;4.19;56;30.70;0;3.28
2021-12-30 09:20:35;4.19;56;30.70;0;2.79
2021-12-30 09:25:34;4.19;54;31.30;0;3.78
2021-12-30 09:30:33;4.19;54;32.10;0;2.59
2021-12-30 09:35:33;4.20;56;31.70;0;2.09
2021-12-30 09:40:32;4.20;54;31.60;0;3.68
2021-12-30 09:45:36;4.20;54;31.90;0;1.70
2021-12-30 09:50:36;4.20;55;31.80;0;2.79
2021-12-30 09:55:35;4.20;55;32.10;0;2.39
2021-12-30 10:00:35;4.20;54;32.70;0;2.29
2021-12-30 10:05:34;4.20;53;33.50;0;3.18
2021-12-30 10:10:34;4.20;53;33.40;0;1.60
2021-12-30 10:15:34;4.20;52;34.00;0;0.00
2021-12-30 10:20:33;4.20;53;33.50;0;1.20
2021-12-30 10:25:33;4.20;52;34.00;0;1.10
2021-12-30 10:30:33;4.20;52;33.80;0;2.00
2021-12-30 10:35:38;4.20;51;34.30;0;2.69
2021-12-30 10:40:33;4.20;51;34.80;0;1.60
2021-12-30 10:45:38;4.20;50;35.00;0;1.20
2021-12-30 10:50:33;4.20;48;35.50;0;1.40
2021-12-30 10:55:38;4.20;50;35.40;0;1.20
2021-12-30 11:00:33;4.20;47;35.90;0;1.90
2021-12-30 11:05:34;4.20;49;35.60;0;0.00
2021-12-30 11:10:34;4.21;46;36.60;0;1.70
2021-12-30 11:15:34;4.21;45;36.10;0;0.00
2021-12-30 11:20:35;4.21;47;36.60;0;1.30
2021-12-30 11:25:35;4.21;45;36.80;0;2.00
2021-12-30 11:30:36;4.21;44;36.60;0;0.00
2021-12-30 11:35:36;4.21;45;37.20;0;2.19
2021-12-30 11:40:37;4.21;42;37.10;0;0.00
2021-12-30 11:45:37;4.21;42;37.70;0;1.60
2021-12-30 11:50:33;4.21;44;38.10;0;1.90
2021-12-30 11:55:34;4.21;42;37.80;0;0.00
2021-12-30 12:00:35;4.21;41;37.40;0;1.20
2021-12-30 12:05:36;4.21;40;37.40;0;1.60
2021-12-30 12:10:37;4.21;40;37.80;0;1.10
2021-12-30 12:15:33;4.21;38;38.40;0;0.00
2021-12-30 12:20:39;4.21;40;38.60;0;0.00
2021-12-30 12:25:35;4.21;42;38.30;0;2.19
2021-12-30 12:30:36;4.21;40;38.40;0;2.00
2021-12-30 12:35:37;4.21;40;38.50;0;1.30
2021-12-30 12:40:38;4.22;39;38.60;0;1.20
2021-12-30 12:45:34;4.21;38;38.50;0;1.60
2021-12-30 12:50:35;4.22;38;38.20;0;0.00
2021-12-30 12:55:37;4.22;36;38.60;0;0.00
2021-12-30 13:00:38;4.22;37;38.70;0;0.00
2021-12-30 13:05:34;4.22;38;39.70;0;1.30
2021-12-30 13:10:35;4.22;38;39.90;0;0.00
2021-12-30 13:15:37;4.22;36;40.60;0;0.00
2021-12-30 13:20:38;4.22;35;40.10;0;0.00
2021-12-30 13:25:34;4.22;35;39.90;0;0.00
2021-12-30 13:30:36;4.22;36;39.20;0;0.00
2021-12-30 13:35:37;4.22;37;39.80;0;0.00
2021-12-30 13:40:34;4.22;34;39.70;0;1.40
2021-12-30 13:45:35;4.22;34;39.20;0;0.00
2021-12-30 13:50:37;4.22;35;40.00;0;0.00
2021-12-30 13:55:38;4.22;36;39.50;0;0.00
2021-12-30 14:00:35;4.22;37;39.30;0;1.60
2021-12-30 14:05:36;4.22;36;40.00;0;0.00
2021-12-30 14:10:33;4.22;35;40.10;0;1.30
2021-12-30 14:15:35;4.22;35;40.60;0;1.40
2021-12-30 14:20:36;4.22;35;40.00;0;0.00
2021-12-30 14:25:37;4.22;36;39.80;0;0.00
2021-12-30 14:30:34;4.22;36;41.00;0;0.00
2021-12-30 14:35:36;4.22;35;41.00;0;0.00
2021-12-30 14:40:37;4.22;35;41.00;0;1.30
2021-12-30 14:45:34;4.23;35;40.70;0;0.00
2021-12-30 14:50:36;4.22;35;40.70;0;2.19
2021-12-30 14:55:37;4.22;35;41.40;0;0.00
2021-12-30 15:00:34;4.22;35;40.00;0;1.40
2021-12-30 15:05:35;4.23;35;40.70;0;0.00
2021-12-30 15:10:37;4.23;35;41.10;0;2.19
2021-12-30 15:15:38;4.23;35;41.10;0;0.00
2021-12-30 15:20:35;4.23;35;40.20;0;1.50
2021-12-30 15:25:37;4.23;33;41.00;0;0.00
2021-12-30 15:30:38;4.23;35;41.40;0;0.00
2021-12-30 15:35:35;4.23;34;41.70;0;0.00
2021-12-30 15:40:36;4.23;36;40.60;0;0.00
2021-12-30 15:45:33;4.23;35;40.70;0;2.39
2021-12-30 15:50:35;4.23;35;40.60;0;0.00
2021-12-30 15:55:36;4.23;35;40.70;0;0.00
2021-12-30 16:00:38;4.23;34;40.20;0;0.00
2021-12-30 16:05:34;4.23;36;40.80;0;0.00
2021-12-30 16:10:36;4.23;36;41.20;0;0.00
2021-12-30 16:15:37;4.23;36;39.80;0;1.70
2021-12-30 16:20:34;4.23;35;40.20;0;2.09
2021-12-30 16:25:35;4.23;35;38.80;0;2.99
2021-12-30 16:30:36;4.23;34;39.60;0;2.79
2021-12-30 16:35:38;4.23;34;40.20;0;0.00
2021-12-30 16:40:34;4.23;35;40.00;0;1.50
2021-12-30 16:45:35;4.23;33;40.50;0;0.00
2021-12-30 16:50:36;4.23;32;40.20;0;0.00
2021-12-30 16:55:38;4.23;33;39.80;0;0.00
2021-12-30 17:00:34;4.23;33;39.50;0;1.20
2021-12-30 17:05:35;4.23;31;39.60;0;1.90
2021-12-30 17:10:36;4.23;34;39.60;0;0.00
2021-12-30 17:15:37;4.23;34;39.80;0;2.69
2021-12-30 17:20:34;4.23;38;40.10;0;0.00
2021-12-30 17:25:35;4.23;36;39.90;0;1.40
2021-12-30 17:30:36;4.23;36;39.40;0;2.00
2021-12-30 17:35:37;4.23;42;38.50;0;1.20
2021-12-30 17:40:33;4.23;48;36.60;0;4.87
2021-12-30 17:45:34;4.23;49;36.10;0;2.59
2021-12-30 17:50:35;4.23;49;35.80;0;2.59
2021-12-30 17:55:36;4.23;50;35.30;0;3.88
2021-12-30 18:00:36;4.23;50;35.00;0;3.18
2021-12-30 18:05:37;4.23;49;35.00;0;1.90
2021-12-30 18:10:37;4.23;50;34.50;0;2.69
2021-12-30 18:15:37;4.23;50;34.40;0;2.00
2021-12-30 18:20:33;4.23;51;34.30;0;1.90
2021-12-30 18:25:38;4.23;51;34.20;0;2.00
2021-12-30 18:30:33;4.23;51;34.00;0;4.67
2021-12-30 18:35:38;4.23;54;33.80;0;3.68
2021-12-30 18:40:33;4.23;54;33.60;0;3.28
2021-12-30 18:45:37;4.23;54;33.00;0;2.59
2021-12-30 18:50:33;4.23;53;32.60;0;2.39
2021-12-30 18:55:37;4.23;53;32.10;0;4.27
2021-12-30 19:00:32;4.23;54;31.80;0;1.80
2021-12-30 19:05:36;4.23;54;31.60;0;3.48
2021-12-30 19:10:36;4.23;53;31.50;0;1.70
2021-12-30 19:15:35;4.23;51;31.60;0;1.40
2021-12-30 19:20:35;4.22;51;31.60;0;1.30
2021-12-30 19:25:34;4.23;51;31.40;0;1.40
2021-12-30 19:30:33;4.22;51;31.30;0;1.20
2021-12-30 19:35:33;4.22;51;31.30;0;1.30
2021-12-30 19:40:37;4.22;51;31.40;0;0.00
2021-12-30 19:45:36;4.22;51;31.10;0;1.80
2021-12-30 19:50:35;4.22;51;31.00;0;0.00
2021-12-30 19:55:34;4.22;52;30.80;0;0.00
2021-12-30 20:00:33;4.22;51;30.60;0;0.00
2021-12-30 20:05:32;4.22;51;30.50;0;1.90
2021-12-30 20:10:36;4.22;50;30.60;0;0.00
2021-12-30 20:15:31;4.22;51;30.30;0;1.40
2021-12-30 20:20:34;4.22;51;30.20;0;0.00
2021-12-30 20:25:33;4.22;52;30.00;0;0.00
2021-12-30 20:30:32;4.22;52;29.80;0;0.00
2021-12-30 20:35:31;4.22;52;29.70;0;0.00
2021-12-30 20:40:35;4.21;52;29.60;0;0.00
2021-12-30 20:45:34;4.21;53;29.30;0;0.00
2021-12-30 20:50:32;4.21;55;28.70;0;0.00
2021-12-30 20:55:31;4.21;56;28.30;0;0.00
2021-12-30 21:00:35;4.21;57;27.90;0;0.00
2021-12-30 21:05:33;4.21;57;27.80;0;0.00
2021-12-30 21:10:32;4.21;58;27.40;0;0.00
2021-12-30 21:15:31;4.21;58;27.30;0;0.00
2021-12-30 21:20:34;4.21;58;27.30;0;0.00
2021-12-30 21:25:33;4.21;58;27.40;0;0.00
2021-12-30 21:30:36;4.21;58;27.70;0;0.00
2021-12-30 21:35:34;4.21;60;27.20;0;0.00
2021-12-30 21:40:33;4.21;61;26.80;0;0.00
2021-12-30 21:45:36;4.21;61;26.80;0;0.00
2021-12-30 21:50:34;4.21;61;26.90;0;0.00
2021-12-30 21:55:33;4.20;61;26.50;0;0.00
2021-12-30 22:00:36;4.20;62;26.40;0;0.00
2021-12-30 22:05:34;4.20;62;26.30;0;0.00
2021-12-30 22:10:33;4.20;61;26.70;0;0.00
2021-12-30 22:15:31;4.20;61;26.50;0;0.00
2021-12-30 22:20:34;4.20;64;25.70;0;0.00
2021-12-30 22:25:32;4.20;63;25.70;0;0.00
2021-12-30 22:30:31;4.20;64;25.60;0;0.00
2021-12-30 22:35:33;4.20;63;25.60;0;0.00
2021-12-30 22:40:32;4.20;63;25.90;0;0.00
2021-12-30 22:45:34;4.20;64;25.60;0;0.00
2021-12-30 22:50:33;4.20;66;24.90;0;0.00
2021-12-30 22:55:36;4.20;66;24.80;0;1.50
2021-12-30 23:00:34;4.20;66;25.20;0;0.00
2021-12-30 23:05:32;4.19;67;25.00;0;0.00
2021-12-30 23:10:35;4.20;69;24.20;0;0.00
2021-12-30 23:15:33;4.19;69;24.00;0;0.00
2021-12-30 23:20:36;4.19;68;24.40;0;0.00
2021-12-30 23:25:34;4.19;68;24.50;0;0.00
2021-12-30 23:30:32;4.19;68;24.60;0;0.00
2021-12-30 23:35:35;4.19;68;24.50;0;0.00
2021-12-30 23:40:33;4.19;70;24.10;0;0.00
2021-12-30 23:45:35;4.19;69;24.10;0;1.30
2021-12-30 23:50:33;4.19;68;24.60;0;0.00
2021-12-30 23:55:31;4.19;69;24.30;0;0.00
