2021-02-13 00:03:40;4.23;76;20.20;0;0.00
2021-02-13 00:33:42;4.23;97;19.20;0;0.00
2021-02-13 01:03:38;4.23;99;18.80;0;0.00
2021-02-13 01:33:39;4.23;99;18.50;0;0.00
2021-02-13 02:03:39;4.23;99;18.60;0;0.00
2021-02-13 02:33:40;4.22;99;18.10;0;0.00
2021-02-13 03:03:40;4.22;99;17.80;0;0.00
2021-02-13 03:33:40;4.22;99;17.20;0;0.00
2021-02-13 04:03:40;4.22;99;17.00;0;0.00
2021-02-13 04:33:39;4.22;99;17.10;0;0.00
2021-02-13 05:03:39;4.22;99;17.40;0;0.00
2021-02-13 05:33:38;4.22;99;16.70;0;0.00
2021-02-13 06:03:37;4.22;99;17.10;0;0.00
2021-02-13 06:33:36;4.21;99;16.40;0;0.00
2021-02-13 07:03:40;4.21;99;16.50;0;0.00
2021-02-13 07:33:40;4.21;83;19.10;0;0.00
2021-02-13 08:03:40;4.22;74;20.90;0;0.00
2021-02-13 08:33:43;4.22;58;23.80;0;0.00
2021-02-13 09:03:43;4.22;50;24.70;0;0.00
2021-02-13 09:33:44;4.23;48;26.00;0;0.00
2021-02-13 10:03:47;4.23;47;27.40;0;0.00
2021-02-13 10:33:48;4.23;40;28.30;0;0.00
2021-02-13 11:03:50;4.23;31;30.10;0;1.90
2021-02-13 11:33:48;4.23;26;30.50;0;1.70
2021-02-13 12:03:53;4.24;28;31.50;0;0.00
2021-02-13 12:33:53;4.24;28;30.30;0;0.00
2021-02-13 13:03:53;4.24;24;31.20;0;0.00
2021-02-13 13:33:50;4.24;29;32.40;0;2.89
2021-02-13 14:03:51;4.24;27;30.60;0;2.49
2021-02-13 14:33:51;4.24;34;28.70;0;1.70
2021-02-13 15:03:50;4.24;31;30.40;0;0.00
2021-02-13 15:33:48;4.25;31;29.00;0;0.00
2021-02-13 16:03:49;4.25;40;26.70;0;1.80
2021-02-13 16:33:45;4.24;27;29.90;0;2.09
2021-02-13 17:03:48;4.24;29;30.30;0;1.60
2021-02-13 17:33:52;4.24;26;30.70;0;0.00
2021-02-13 18:03:51;4.25;26;30.30;0;1.90
2021-02-13 18:33:50;4.25;26;30.20;0;1.30
2021-02-13 19:03:47;4.25;31;29.60;0;0.00
2021-02-13 19:33:48;4.25;45;24.90;0;4.07
2021-02-13 20:03:47;4.24;56;22.90;0;1.60
2021-02-13 20:33:43;4.24;67;21.70;0;0.00
2021-02-13 21:03:41;4.24;67;21.20;0;0.00
2021-02-13 21:33:40;4.24;68;21.00;0;0.00
2021-02-13 22:03:42;4.23;72;20.00;0;0.00
2021-02-13 22:33:39;4.23;78;19.70;0;0.00
2021-02-13 23:03:40;4.23;87;18.90;0;0.00
2021-02-13 23:33:41;4.23;81;19.30;0;0.00
