2021-08-26 00:00:33;4.10;76;2.80;0;0.00
2021-08-26 00:05:33;4.10;78;2.40;0;0.00
2021-08-26 00:10:29;4.10;76;3.00;0;0.00
2021-08-26 00:15:33;4.10;75;2.90;0;0.00
2021-08-26 00:20:29;4.10;75;3.30;0;0.00
2021-08-26 00:25:34;4.10;73;3.80;0;0.00
2021-08-26 00:30:29;4.10;75;3.10;0;0.00
2021-08-26 00:35:29;4.10;76;3.20;0;0.00
2021-08-26 00:40:29;4.10;75;3.50;0;0.00
2021-08-26 00:45:30;4.10;74;3.50;0;0.00
2021-08-26 00:50:30;4.10;75;3.30;0;0.00
2021-08-26 00:55:30;4.10;75;3.20;0;0.00
2021-08-26 01:00:30;4.10;75;3.60;0;0.00
2021-08-26 01:05:30;4.10;74;3.50;0;0.00
2021-08-26 01:10:30;4.10;75;3.40;0;0.00
2021-08-26 01:15:30;4.10;75;3.20;0;0.00
2021-08-26 01:20:30;4.10;74;3.30;0;0.00
2021-08-26 01:25:31;4.10;77;2.40;0;0.00
2021-08-26 01:30:31;4.10;79;1.80;0;0.00
2021-08-26 01:35:31;4.10;79;2.10;0;0.00
2021-08-26 01:40:31;4.09;77;3.00;0;0.00
2021-08-26 01:45:31;4.09;75;3.30;0;0.00
2021-08-26 01:50:31;4.09;74;3.80;0;0.00
2021-08-26 01:55:31;4.09;73;3.80;0;0.00
2021-08-26 02:00:31;4.09;74;3.90;0;0.00
2021-08-26 02:05:31;4.09;72;4.30;0;0.00
2021-08-26 02:10:31;4.09;73;3.80;0;0.00
2021-08-26 02:15:32;4.09;76;3.30;0;0.00
2021-08-26 02:20:32;4.09;76;3.10;0;0.00
2021-08-26 02:25:32;4.09;75;3.30;0;0.00
2021-08-26 02:30:32;4.09;75;3.50;0;0.00
2021-08-26 02:35:32;4.09;74;3.40;0;0.00
2021-08-26 02:40:32;4.09;76;2.60;0;0.00
2021-08-26 02:45:32;4.09;77;2.10;0;0.00
2021-08-26 02:50:32;4.09;80;1.80;0;0.00
2021-08-26 02:55:32;4.09;78;2.20;0;0.00
2021-08-26 03:00:32;4.09;79;1.90;0;0.00
2021-08-26 03:05:32;4.09;79;2.10;0;0.00
2021-08-26 03:10:32;4.09;79;2.00;0;0.00
2021-08-26 03:15:32;4.09;79;1.70;0;0.00
2021-08-26 03:20:33;4.09;79;2.00;0;0.00
2021-08-26 03:25:33;4.09;79;2.20;0;0.00
2021-08-26 03:30:33;4.09;78;2.80;0;0.00
2021-08-26 03:35:33;4.09;77;3.20;0;0.00
2021-08-26 03:40:33;4.09;75;3.40;0;0.00
2021-08-26 03:45:33;4.09;76;3.30;0;0.00
2021-08-26 03:50:33;4.09;74;3.90;0;0.00
2021-08-26 03:55:33;4.09;76;3.40;0;0.00
2021-08-26 04:00:33;4.09;76;3.10;0;0.00
2021-08-26 04:05:33;4.09;77;3.30;0;0.00
2021-08-26 04:10:33;4.09;76;3.00;0;0.00
2021-08-26 04:15:33;4.09;78;2.50;0;0.00
2021-08-26 04:20:33;4.09;77;2.20;0;0.00
2021-08-26 04:25:29;4.09;78;2.80;0;0.00
2021-08-26 04:30:33;4.09;81;1.10;0;0.00
2021-08-26 04:35:29;4.09;82;0.50;0;0.00
2021-08-26 04:40:33;4.09;84;0.20;0;0.00
2021-08-26 04:45:29;4.09;84;0.20;0;0.00
2021-08-26 04:50:33;4.09;84;0.50;0;0.00
2021-08-26 04:55:29;4.09;83;0.50;0;0.00
2021-08-26 05:00:33;4.09;84;0.30;0;0.00
2021-08-26 05:05:29;4.09;84;0.30;0;0.00
2021-08-26 05:10:33;4.09;84;0.70;0;0.00
2021-08-26 05:15:29;4.08;84;0.60;0;0.00
2021-08-26 05:20:33;4.09;84;0.50;0;0.00
2021-08-26 05:25:29;4.09;84;0.60;0;0.00
2021-08-26 05:30:33;4.09;84;0.80;0;0.00
2021-08-26 05:35:29;4.08;84;0.80;0;0.00
2021-08-26 05:40:33;4.08;84;0.50;0;0.00
2021-08-26 05:45:29;4.09;84;0.70;0;0.00
2021-08-26 05:50:33;4.08;83;0.70;0;0.00
2021-08-26 05:55:29;4.09;83;0.30;0;0.00
2021-08-26 06:00:33;4.08;85;0.10;0;0.00
2021-08-26 06:05:29;4.08;85;-0.20;0;0.00
2021-08-26 06:10:33;4.08;85;0.40;0;0.00
2021-08-26 06:15:33;4.08;86;0.20;0;0.00
2021-08-26 06:20:33;4.08;84;0.50;0;0.00
2021-08-26 06:25:33;4.08;84;0.60;0;0.00
2021-08-26 06:30:33;4.08;85;0.10;0;0.00
2021-08-26 06:35:33;4.08;84;0.30;0;0.00
2021-08-26 06:40:33;4.08;84;0.60;0;0.00
2021-08-26 06:45:33;4.08;85;0.00;0;0.00
2021-08-26 06:50:33;4.08;85;0.00;0;0.00
2021-08-26 06:55:33;4.08;85;0.20;0;0.00
2021-08-26 07:00:33;4.08;84;0.40;0;0.00
2021-08-26 07:05:32;4.08;84;0.20;0;0.00
2021-08-26 07:10:32;4.08;85;-0.10;0;0.00
2021-08-26 07:15:32;4.08;85;0.00;0;0.00
2021-08-26 07:20:32;4.08;84;0.00;0;0.00
2021-08-26 07:25:32;4.08;84;-0.20;0;0.00
2021-08-26 07:30:32;4.08;85;-0.40;0;0.00
2021-08-26 07:35:32;4.08;85;-0.10;0;0.00
2021-08-26 07:40:32;4.08;84;0.10;0;0.00
2021-08-26 07:45:32;4.08;82;0.70;0;0.00
2021-08-26 07:50:32;4.08;82;1.30;0;0.00
2021-08-26 07:55:32;4.08;79;1.70;0;0.00
2021-08-26 08:00:32;4.09;82;1.20;0;0.00
2021-08-26 08:05:32;4.09;81;2.10;0;0.00
2021-08-26 08:10:32;4.10;79;2.30;0;0.00
2021-08-26 08:15:32;4.10;79;2.90;0;0.00
2021-08-26 08:20:32;4.10;77;3.60;0;0.00
2021-08-26 08:25:32;4.11;74;4.70;0;0.00
2021-08-26 08:30:32;4.11;69;5.90;0;0.00
2021-08-26 08:35:33;4.11;70;6.60;0;0.00
2021-08-26 08:40:33;4.11;75;5.70;0;0.00
2021-08-26 08:45:33;4.12;75;5.90;0;0.00
2021-08-26 08:50:29;4.12;77;6.70;0;0.00
2021-08-26 08:55:30;4.13;73;8.20;0;0.00
2021-08-26 09:00:30;4.13;66;9.00;0;0.00
2021-08-26 09:05:31;4.13;65;9.50;0;0.00
2021-08-26 09:10:32;4.13;64;9.80;0;0.00
2021-08-26 09:15:32;4.13;64;10.20;0;0.00
2021-08-26 09:20:33;4.13;61;10.60;0;1.40
2021-08-26 09:25:30;4.14;61;11.20;0;0.00
2021-08-26 09:30:31;4.14;61;11.20;0;1.20
2021-08-26 09:35:32;4.14;60;12.00;0;2.09
2021-08-26 09:40:33;4.14;60;12.70;0;1.20
2021-08-26 09:45:34;4.14;60;13.00;0;0.00
2021-08-26 09:50:31;4.14;61;13.00;0;2.29
2021-08-26 09:55:32;4.15;61;13.30;0;2.39
2021-08-26 10:00:33;4.15;60;14.20;0;1.30
2021-08-26 10:05:30;4.15;61;13.80;0;1.70
2021-08-26 10:10:32;4.15;61;13.90;0;2.99
2021-08-26 10:15:33;4.15;59;14.60;0;2.49
2021-08-26 10:20:30;4.15;59;14.50;0;1.80
2021-08-26 10:25:32;4.15;59;14.60;0;3.88
2021-08-26 10:30:33;4.16;59;15.20;0;1.30
2021-08-26 10:35:30;4.15;57;15.30;0;1.80
2021-08-26 10:40:32;4.16;56;15.50;0;1.30
2021-08-26 10:45:34;4.16;57;16.40;0;1.70
2021-08-26 10:50:31;4.16;56;16.20;0;2.79
2021-08-26 10:55:33;4.16;53;16.70;0;1.70
2021-08-26 11:00:34;4.16;53;16.90;0;2.79
2021-08-26 11:05:32;4.16;51;17.20;0;1.50
2021-08-26 11:10:33;4.16;47;17.80;0;1.90
2021-08-26 11:15:31;4.16;44;18.10;0;2.19
2021-08-26 11:20:33;4.16;47;18.10;0;1.90
2021-08-26 11:25:35;4.16;48;17.80;0;1.70
2021-08-26 11:30:32;4.17;46;18.00;0;1.90
2021-08-26 11:35:34;4.16;46;18.80;0;1.60
2021-08-26 11:40:32;4.17;44;18.40;0;1.50
2021-08-26 11:45:34;4.17;43;19.40;0;2.99
2021-08-26 11:50:31;4.17;42;19.50;0;2.39
2021-08-26 11:55:33;4.17;43;19.60;0;2.39
2021-08-26 12:00:31;4.17;42;19.50;0;1.50
2021-08-26 12:05:33;4.17;42;19.60;0;1.10
2021-08-26 12:10:31;4.17;42;19.20;0;3.38
2021-08-26 12:15:33;4.17;42;19.50;0;2.99
2021-08-26 12:20:31;4.17;40;20.00;0;3.78
2021-08-26 12:25:33;4.17;42;19.90;0;1.70
2021-08-26 12:30:31;4.17;40;20.40;0;1.70
2021-08-26 12:35:33;4.17;40;20.60;0;2.59
2021-08-26 12:40:31;4.17;42;20.30;0;2.59
2021-08-26 12:45:34;4.17;40;20.60;0;1.20
2021-08-26 12:50:31;4.17;40;21.10;0;1.60
2021-08-26 12:55:34;4.17;39;20.70;0;1.40
2021-08-26 13:00:32;4.18;37;21.30;0;2.39
2021-08-26 13:05:34;4.18;38;21.30;0;2.59
2021-08-26 13:10:32;4.18;38;20.80;0;2.29
2021-08-26 13:15:35;4.18;37;21.10;0;1.20
2021-08-26 13:20:33;4.18;38;21.00;0;2.09
2021-08-26 13:25:35;4.18;38;21.60;0;2.09
2021-08-26 13:30:33;4.18;37;21.60;0;1.90
2021-08-26 13:35:36;4.18;38;21.40;0;4.07
2021-08-26 13:40:34;4.18;38;21.30;0;2.00
2021-08-26 13:45:32;4.18;36;21.10;0;2.99
2021-08-26 13:50:34;4.18;35;21.40;0;2.49
2021-08-26 13:55:32;4.18;36;21.80;0;3.18
2021-08-26 14:00:35;4.18;35;21.80;0;2.69
2021-08-26 14:05:33;4.18;37;21.90;0;4.37
2021-08-26 14:10:36;4.18;36;21.90;0;3.88
2021-08-26 14:15:34;4.18;35;21.90;0;2.79
2021-08-26 14:20:32;4.18;37;22.30;0;0.00
2021-08-26 14:25:34;4.18;36;21.90;0;2.19
2021-08-26 14:30:32;4.18;35;22.20;0;4.27
2021-08-26 14:35:35;4.18;36;21.90;0;2.09
2021-08-26 14:40:33;4.18;36;21.90;0;2.49
2021-08-26 14:45:31;4.18;36;21.70;0;5.56
2021-08-26 14:50:34;4.18;36;22.40;0;4.77
2021-08-26 14:55:32;4.18;36;21.70;0;2.49
2021-08-26 15:00:35;4.18;37;21.90;0;1.60
2021-08-26 15:05:33;4.18;36;22.20;0;1.90
2021-08-26 15:10:36;4.19;36;21.90;0;3.28
2021-08-26 15:15:34;4.19;36;22.20;0;3.38
2021-08-26 15:20:32;4.19;36;22.00;0;1.40
2021-08-26 15:25:35;4.19;33;22.40;0;3.18
2021-08-26 15:30:33;4.19;36;22.40;0;1.60
2021-08-26 15:35:35;4.19;37;22.50;0;1.80
2021-08-26 15:40:33;4.19;35;22.50;0;2.39
2021-08-26 15:45:32;4.19;35;22.50;0;2.19
2021-08-26 15:50:34;4.19;35;22.40;0;2.79
2021-08-26 15:55:32;4.19;36;22.80;0;2.09
2021-08-26 16:00:35;4.19;35;22.50;0;2.59
2021-08-26 16:05:33;4.19;36;22.00;0;2.19
2021-08-26 16:10:31;4.19;37;22.30;0;2.29
2021-08-26 16:15:34;4.19;37;22.20;0;2.79
2021-08-26 16:20:32;4.19;37;22.40;0;1.60
2021-08-26 16:25:35;4.19;36;22.50;0;2.19
2021-08-26 16:30:33;4.19;35;22.10;0;2.79
2021-08-26 16:35:35;4.19;36;22.30;0;0.00
2021-08-26 16:40:33;4.19;36;22.20;0;2.59
2021-08-26 16:45:31;4.19;37;22.10;0;2.19
2021-08-26 16:50:34;4.19;37;22.10;0;2.49
2021-08-26 16:55:32;4.19;35;22.10;0;2.19
2021-08-26 17:00:35;4.19;37;22.00;0;1.90
2021-08-26 17:05:32;4.19;37;21.90;0;2.69
2021-08-26 17:10:35;4.19;37;21.70;0;1.70
2021-08-26 17:15:33;4.19;38;21.80;0;2.09
2021-08-26 17:20:35;4.19;37;21.50;0;2.00
2021-08-26 17:25:33;4.19;37;21.50;0;1.90
2021-08-26 17:30:31;4.19;38;21.30;0;1.40
2021-08-26 17:35:34;4.19;38;21.20;0;1.20
2021-08-26 17:40:31;4.19;38;21.20;0;1.50
2021-08-26 17:45:34;4.19;38;20.70;0;1.60
2021-08-26 17:50:32;4.19;38;20.50;0;0.00
2021-08-26 17:55:34;4.19;40;20.30;0;1.20
2021-08-26 18:00:32;4.19;40;20.10;0;0.00
2021-08-26 18:05:34;4.19;41;19.70;0;0.00
2021-08-26 18:10:31;4.18;44;18.90;0;0.00
2021-08-26 18:15:34;4.18;45;18.30;0;0.00
2021-08-26 18:20:31;4.18;49;17.10;0;0.00
2021-08-26 18:25:33;4.17;50;16.30;0;0.00
2021-08-26 18:30:35;4.18;53;15.70;0;0.00
2021-08-26 18:35:32;4.17;53;15.10;0;0.00
2021-08-26 18:40:34;4.17;54;14.80;0;0.00
2021-08-26 18:45:31;4.17;56;13.70;0;0.00
2021-08-26 18:50:33;4.17;57;13.30;0;0.00
2021-08-26 18:55:34;4.17;54;13.90;0;0.00
2021-08-26 19:00:31;4.16;53;14.30;0;0.00
2021-08-26 19:05:32;4.16;54;13.90;0;0.00
2021-08-26 19:10:34;4.16;54;13.60;0;0.00
2021-08-26 19:15:31;4.16;58;12.50;0;0.00
2021-08-26 19:20:32;4.16;59;12.10;0;0.00
2021-08-26 19:25:33;4.15;58;12.50;0;0.00
2021-08-26 19:30:34;4.15;59;12.00;0;0.00
2021-08-26 19:35:31;4.15;60;11.70;0;0.00
2021-08-26 19:40:32;4.15;60;11.50;0;0.00
2021-08-26 19:45:33;4.15;62;10.60;0;0.00
2021-08-26 19:50:30;4.15;63;10.20;0;0.00
2021-08-26 19:55:31;4.15;59;11.10;0;0.00
2021-08-26 20:00:32;4.14;60;10.80;0;0.00
2021-08-26 20:05:33;4.14;60;10.90;0;0.00
2021-08-26 20:10:34;4.14;59;11.20;0;0.00
2021-08-26 20:15:30;4.14;59;10.90;0;0.00
2021-08-26 20:20:31;4.14;62;9.80;0;0.00
2021-08-26 20:25:32;4.14;62;9.80;0;0.00
2021-08-26 20:30:33;4.14;60;9.80;0;0.00
2021-08-26 20:35:34;4.14;60;9.70;0;0.00
2021-08-26 20:40:30;4.14;61;9.20;0;0.00
2021-08-26 20:45:31;4.13;63;8.70;0;0.00
2021-08-26 20:50:32;4.14;64;8.50;0;0.00
2021-08-26 20:55:32;4.13;63;8.30;0;0.00
2021-08-26 21:00:33;4.13;63;8.60;0;0.00
2021-08-26 21:05:30;4.13;65;7.80;0;0.00
2021-08-26 21:10:30;4.13;63;8.40;0;0.00
2021-08-26 21:15:31;4.13;63;8.60;0;0.00
2021-08-26 21:20:32;4.13;60;9.20;0;0.00
2021-08-26 21:25:32;4.13;56;10.60;0;0.00
2021-08-26 21:30:33;4.13;57;10.10;0;0.00
2021-08-26 21:35:29;4.13;59;9.40;0;0.00
2021-08-26 21:40:30;4.13;59;9.60;0;0.00
2021-08-26 21:45:31;4.13;60;9.20;0;0.00
2021-08-26 21:50:32;4.13;61;8.80;0;0.00
2021-08-26 21:55:32;4.13;62;8.40;0;0.00
2021-08-26 22:00:33;4.13;62;8.60;0;0.00
2021-08-26 22:05:34;4.13;62;8.70;0;0.00
2021-08-26 22:10:30;4.13;66;7.50;0;0.00
2021-08-26 22:15:30;4.13;68;6.80;0;0.00
2021-08-26 22:20:31;4.13;66;7.60;0;0.00
2021-08-26 22:25:32;4.13;65;8.00;0;0.00
2021-08-26 22:30:32;4.13;62;9.30;0;0.00
2021-08-26 22:35:33;4.13;60;9.90;0;1.10
2021-08-26 22:40:34;4.13;59;10.00;0;0.00
2021-08-26 22:45:30;4.13;60;9.60;0;1.30
2021-08-26 22:50:31;4.13;61;9.50;0;0.00
2021-08-26 22:55:31;4.13;60;9.90;0;0.00
2021-08-26 23:00:32;4.13;60;9.70;0;0.00
2021-08-26 23:05:33;4.13;63;9.00;0;0.00
2021-08-26 23:10:34;4.13;62;8.80;0;0.00
2021-08-26 23:15:30;4.13;65;8.00;0;0.00
2021-08-26 23:20:31;4.13;66;8.00;0;0.00
2021-08-26 23:25:32;4.13;66;7.80;0;0.00
2021-08-26 23:30:32;4.13;65;7.80;0;0.00
2021-08-26 23:35:33;4.13;62;8.20;0;0.00
2021-08-26 23:40:34;4.13;61;8.50;0;0.00
2021-08-26 23:45:30;4.12;64;7.70;0;0.00
2021-08-26 23:50:30;4.12;65;7.70;0;0.00
2021-08-26 23:55:31;4.12;66;7.20;0;0.00
