2021-09-08 00:00:31;4.19;98;15.50;1;3.68
2021-09-08 00:05:33;4.19;98;15.50;0;3.58
2021-09-08 00:10:30;4.19;98;15.40;0;3.18
2021-09-08 00:15:32;4.19;98;15.40;0;4.17
2021-09-08 00:20:33;4.19;98;15.40;0;4.47
2021-09-08 00:25:30;4.19;98;15.50;0;6.25
2021-09-08 00:30:32;4.19;98;15.40;0;3.28
2021-09-08 00:35:33;4.19;98;15.30;0;4.27
2021-09-08 00:40:30;4.19;98;15.20;0;3.58
2021-09-08 00:45:32;4.19;98;15.10;0;4.47
2021-09-08 00:50:33;4.19;98;15.10;0;3.97
2021-09-08 00:55:30;4.19;98;15.10;0;2.79
2021-09-08 01:00:32;4.19;98;15.00;0;4.96
2021-09-08 01:05:33;4.19;98;15.00;0;3.58
2021-09-08 01:10:30;4.19;98;15.20;0;5.66
2021-09-08 01:15:32;4.19;98;15.20;0;4.47
2021-09-08 01:20:33;4.19;98;15.10;0;5.46
2021-09-08 01:25:30;4.19;98;15.10;0;5.66
2021-09-08 01:30:32;4.19;98;15.10;0;6.25
2021-09-08 01:35:33;4.19;98;14.90;0;4.67
2021-09-08 01:40:30;4.19;98;14.80;0;4.57
2021-09-08 01:45:32;4.19;98;14.80;0;4.07
2021-09-08 01:50:33;4.19;98;15.00;0;3.18
2021-09-08 01:55:30;4.19;98;15.10;0;4.27
2021-09-08 02:00:31;4.19;98;15.20;0;4.67
2021-09-08 02:05:33;4.19;98;15.20;0;5.46
2021-09-08 02:10:30;4.19;98;15.30;0;4.17
2021-09-08 02:15:31;4.19;98;15.30;0;3.97
2021-09-08 02:20:33;4.19;98;15.30;0;3.48
2021-09-08 02:25:30;4.19;98;15.20;0;4.47
2021-09-08 02:30:31;4.19;98;15.10;0;6.35
2021-09-08 02:35:33;4.19;98;15.00;0;5.76
2021-09-08 02:40:30;4.19;98;14.80;0;6.05
2021-09-08 02:45:31;4.19;98;14.70;0;5.66
2021-09-08 02:50:33;4.19;98;14.60;0;3.48
2021-09-08 02:55:30;4.19;98;14.70;0;4.37
2021-09-08 03:00:31;4.19;97;14.70;0;5.16
2021-09-08 03:05:33;4.19;97;14.70;0;4.57
2021-09-08 03:10:30;4.19;97;14.40;0;4.87
2021-09-08 03:15:31;4.19;96;14.30;0;6.05
2021-09-08 03:20:33;4.19;97;14.20;0;3.28
2021-09-08 03:25:30;4.19;95;14.20;0;4.27
2021-09-08 03:30:31;4.19;95;14.00;0;3.97
2021-09-08 03:35:32;4.19;96;13.70;0;5.16
2021-09-08 03:40:29;4.19;97;13.40;0;4.67
2021-09-08 03:45:31;4.19;96;13.40;0;3.68
2021-09-08 03:50:32;4.19;95;13.10;0;4.67
2021-09-08 03:55:33;4.19;97;13.00;0;3.28
2021-09-08 04:00:30;4.19;96;12.80;0;3.58
2021-09-08 04:05:32;4.19;96;12.70;0;4.57
2021-09-08 04:10:33;4.19;96;12.60;0;2.59
2021-09-08 04:15:30;4.19;95;12.50;0;3.88
2021-09-08 04:20:31;4.18;95;12.50;0;4.96
2021-09-08 04:25:32;4.19;95;12.30;0;6.45
2021-09-08 04:30:29;4.18;96;12.20;0;4.96
2021-09-08 04:35:30;4.18;96;12.30;0;4.27
2021-09-08 04:40:31;4.18;96;12.30;0;4.47
2021-09-08 04:45:33;4.18;96;12.20;0;4.87
2021-09-08 04:50:29;4.18;96;12.10;0;3.88
2021-09-08 04:55:30;4.18;96;12.10;0;3.38
2021-09-08 05:00:32;4.18;96;12.00;0;3.48
2021-09-08 05:05:33;4.18;95;11.90;0;5.36
2021-09-08 05:10:30;4.18;95;11.90;0;5.66
2021-09-08 05:15:31;4.18;95;11.80;0;4.67
2021-09-08 05:20:32;4.18;94;11.80;0;5.76
2021-09-08 05:25:33;4.18;94;11.80;0;4.47
2021-09-08 05:30:30;4.18;94;11.70;0;4.27
2021-09-08 05:35:31;4.18;95;11.70;0;2.79
2021-09-08 05:40:32;4.18;94;11.70;0;3.28
2021-09-08 05:45:33;4.18;94;11.70;0;3.88
2021-09-08 05:50:30;4.18;94;11.60;0;3.18
2021-09-08 05:55:31;4.18;94;11.60;0;3.88
2021-09-08 06:00:32;4.18;94;11.60;0;4.87
2021-09-08 06:05:29;4.18;94;11.50;0;4.27
2021-09-08 06:10:30;4.18;93;11.50;0;4.67
2021-09-08 06:15:31;4.18;93;11.40;0;6.15
2021-09-08 06:20:32;4.18;94;11.30;0;4.07
2021-09-08 06:25:29;4.18;94;11.30;0;4.87
2021-09-08 06:30:30;4.18;94;11.30;0;3.08
2021-09-08 06:35:31;4.18;94;11.30;0;3.88
2021-09-08 06:40:32;4.18;94;11.30;0;4.27
2021-09-08 06:45:29;4.18;94;11.20;0;3.48
2021-09-08 06:50:30;4.18;94;11.20;0;3.97
2021-09-08 06:55:31;4.18;95;11.20;0;2.39
2021-09-08 07:00:32;4.18;94;11.20;0;3.48
2021-09-08 07:05:29;4.18;94;11.20;0;3.38
2021-09-08 07:10:30;4.18;94;11.20;0;3.48
2021-09-08 07:15:31;4.18;94;11.20;0;2.89
2021-09-08 07:20:32;4.18;94;11.20;0;4.07
2021-09-08 07:25:33;4.18;94;11.20;0;2.59
2021-09-08 07:30:30;4.18;94;11.20;0;3.28
2021-09-08 07:35:31;4.18;93;11.30;0;3.78
2021-09-08 07:40:32;4.18;93;11.20;0;4.17
2021-09-08 07:45:33;4.18;93;11.30;0;3.38
2021-09-08 07:50:30;4.18;92;11.30;0;3.78
2021-09-08 07:55:31;4.18;93;11.30;0;2.39
2021-09-08 08:00:32;4.18;92;11.30;0;3.28
2021-09-08 08:05:33;4.18;93;11.40;0;2.89
2021-09-08 08:10:30;4.18;93;11.40;0;2.39
2021-09-08 08:15:31;4.18;93;11.40;0;2.59
2021-09-08 08:20:32;4.18;92;11.30;0;3.38
2021-09-08 08:25:33;4.19;92;11.50;0;2.39
2021-09-08 08:30:30;4.19;91;11.60;0;2.49
2021-09-08 08:35:31;4.19;92;11.70;0;2.49
2021-09-08 08:40:32;4.19;91;11.80;0;2.69
2021-09-08 08:45:29;4.19;91;11.90;0;4.17
2021-09-08 08:50:30;4.19;91;11.90;0;2.00
2021-09-08 08:55:31;4.19;89;12.00;0;2.29
2021-09-08 09:00:32;4.19;89;12.20;0;3.38
2021-09-08 09:05:29;4.19;90;12.10;0;2.99
2021-09-08 09:10:30;4.20;88;12.30;0;2.49
2021-09-08 09:15:32;4.20;88;12.20;0;4.17
2021-09-08 09:20:33;4.19;88;12.30;0;2.89
2021-09-08 09:25:30;4.20;88;12.40;0;5.36
2021-09-08 09:30:31;4.20;88;12.40;0;4.17
2021-09-08 09:35:32;4.20;86;12.90;0;3.78
2021-09-08 09:40:29;4.20;86;13.30;0;1.80
2021-09-08 09:45:30;4.20;86;13.50;0;2.89
2021-09-08 09:50:32;4.20;86;13.30;0;4.07
2021-09-08 09:55:33;4.20;86;13.10;0;3.28
2021-09-08 10:00:30;4.20;86;13.30;0;4.57
2021-09-08 10:05:32;4.20;86;13.30;0;2.59
2021-09-08 10:10:33;4.20;86;13.30;0;3.08
2021-09-08 10:15:30;4.20;86;13.30;0;2.99
2021-09-08 10:20:31;4.20;84;13.50;0;4.37
2021-09-08 10:25:33;4.20;86;14.00;0;2.79
2021-09-08 10:30:30;4.20;82;14.00;0;3.28
2021-09-08 10:35:31;4.20;82;14.80;0;3.48
2021-09-08 10:40:33;4.20;83;14.20;0;3.58
2021-09-08 10:45:30;4.20;80;14.80;0;3.48
2021-09-08 10:50:31;4.20;81;14.70;0;3.68
2021-09-08 10:55:33;4.20;82;14.20;0;4.57
2021-09-08 11:00:30;4.20;82;14.00;0;3.68
2021-09-08 11:05:32;4.20;81;14.10;0;3.88
2021-09-08 11:10:33;4.20;81;14.50;0;5.76
2021-09-08 11:15:30;4.20;82;14.70;0;4.17
2021-09-08 11:20:32;4.20;82;14.30;0;4.17
2021-09-08 11:25:29;4.20;82;14.50;0;4.57
2021-09-08 11:30:31;4.20;81;15.60;0;2.79
2021-09-08 11:35:32;4.21;81;15.20;0;2.49
2021-09-08 11:40:30;4.21;81;15.00;0;4.47
2021-09-08 11:45:31;4.21;83;14.50;0;3.97
2021-09-08 11:50:33;4.21;83;14.90;0;4.17
2021-09-08 11:55:30;4.21;84;15.20;0;2.19
2021-09-08 12:00:32;4.21;82;15.30;0;4.07
2021-09-08 12:05:33;4.21;83;15.10;0;3.97
2021-09-08 12:10:31;4.21;83;14.80;0;2.89
2021-09-08 12:15:32;4.21;85;14.50;0;4.96
2021-09-08 12:20:29;4.21;85;14.50;0;3.68
2021-09-08 12:25:31;4.21;86;14.90;0;3.97
2021-09-08 12:30:33;4.21;86;15.10;0;3.97
2021-09-08 12:35:30;4.21;87;14.80;0;3.88
2021-09-08 12:40:32;4.21;90;14.40;0;2.99
2021-09-08 12:45:33;4.21;87;15.00;0;6.05
2021-09-08 12:50:30;4.21;87;15.20;0;3.48
2021-09-08 12:55:32;4.21;88;14.90;0;7.34
2021-09-08 13:00:34;4.21;87;15.10;0;7.24
2021-09-08 13:05:31;4.21;86;15.00;0;7.04
2021-09-08 13:10:32;4.21;85;15.30;0;5.76
2021-09-08 13:15:29;4.21;84;15.50;0;6.85
2021-09-08 13:20:31;4.21;85;15.70;0;5.95
2021-09-08 13:25:33;4.21;83;15.80;0;6.65
2021-09-08 13:30:30;4.21;82;15.80;0;7.04
2021-09-08 13:35:32;4.21;86;16.10;0;6.15
2021-09-08 13:40:34;4.21;86;15.50;0;6.45
2021-09-08 13:45:31;4.21;84;15.10;0;7.54
2021-09-08 13:50:33;4.21;87;14.80;0;6.25
2021-09-08 13:55:30;4.21;86;15.40;0;4.87
2021-09-08 14:00:31;4.21;81;16.50;0;5.46
2021-09-08 14:05:33;4.21;77;17.20;0;5.26
2021-09-08 14:10:30;4.21;81;17.00;0;3.97
2021-09-08 14:15:32;4.21;81;15.70;0;5.46
2021-09-08 14:20:30;4.21;82;15.60;0;5.66
2021-09-08 14:25:31;4.21;81;15.50;0;5.06
2021-09-08 14:30:33;4.21;80;15.30;0;4.47
2021-09-08 14:35:30;4.21;79;15.90;0;6.05
2021-09-08 14:40:32;4.21;78;15.70;0;6.25
2021-09-08 14:45:29;4.21;79;15.90;0;5.95
2021-09-08 14:50:31;4.21;79;15.70;0;8.53
2021-09-08 14:55:33;4.21;77;16.20;0;5.16
2021-09-08 15:00:30;4.21;78;16.60;0;5.16
2021-09-08 15:05:32;4.21;77;15.80;0;6.05
2021-09-08 15:10:34;4.21;76;16.20;0;4.67
2021-09-08 15:15:31;4.21;77;15.80;0;5.86
2021-09-08 15:20:33;4.21;76;16.00;0;6.35
2021-09-08 15:25:30;4.21;77;15.80;0;5.46
2021-09-08 15:30:32;4.22;77;16.00;0;4.27
2021-09-08 15:35:34;4.22;77;16.10;0;6.05
2021-09-08 15:40:31;4.22;77;16.10;0;4.87
2021-09-08 15:45:33;4.21;77;15.70;0;5.66
2021-09-08 15:50:30;4.22;77;16.00;0;6.75
2021-09-08 15:55:32;4.21;77;15.90;0;5.46
2021-09-08 16:00:34;4.21;75;16.30;0;6.15
2021-09-08 16:05:31;4.21;77;15.80;0;4.27
2021-09-08 16:10:33;4.22;76;16.10;0;6.65
2021-09-08 16:15:30;4.21;77;15.50;0;6.85
2021-09-08 16:20:32;4.21;78;15.40;0;4.37
2021-09-08 16:25:34;4.21;78;15.30;0;4.47
2021-09-08 16:30:31;4.21;77;15.30;0;5.06
2021-09-08 16:35:32;4.21;78;15.30;0;3.58
2021-09-08 16:40:30;4.21;79;15.10;0;3.28
2021-09-08 16:45:31;4.21;77;15.30;0;5.76
2021-09-08 16:50:33;4.22;75;16.00;0;5.76
2021-09-08 16:55:30;4.21;76;15.60;0;5.16
2021-09-08 17:00:32;4.21;76;15.40;0;8.13
2021-09-08 17:05:33;4.22;76;15.80;0;6.05
2021-09-08 17:10:30;4.21;75;15.40;0;5.95
2021-09-08 17:15:32;4.21;77;15.30;0;6.65
2021-09-08 17:20:29;4.21;77;15.30;0;6.75
2021-09-08 17:25:31;4.21;77;15.20;0;5.16
2021-09-08 17:30:33;4.21;78;15.10;0;4.07
2021-09-08 17:35:30;4.21;76;15.20;0;4.37
2021-09-08 17:40:31;4.21;76;15.10;0;4.67
2021-09-08 17:45:33;4.21;75;15.10;0;9.52
2021-09-08 17:50:30;4.21;76;15.10;0;6.55
2021-09-08 17:55:32;4.21;77;14.90;0;6.25
2021-09-08 18:00:33;4.21;77;14.90;0;8.43
2021-09-08 18:05:30;4.21;77;14.80;0;5.95
2021-09-08 18:10:32;4.21;78;14.70;0;5.66
2021-09-08 18:15:33;4.21;77;14.80;0;5.76
2021-09-08 18:20:30;4.21;79;14.50;0;4.37
2021-09-08 18:25:32;4.21;78;14.40;0;6.15
2021-09-08 18:30:34;4.21;80;14.20;0;6.85
2021-09-08 18:35:31;4.21;79;14.20;0;7.14
2021-09-08 18:40:32;4.21;79;14.10;0;6.75
2021-09-08 18:45:34;4.21;80;13.90;0;5.46
2021-09-08 18:50:30;4.21;80;13.90;0;6.05
2021-09-08 18:55:32;4.21;80;13.90;0;3.78
2021-09-08 19:00:33;4.21;82;13.60;0;3.38
2021-09-08 19:05:30;4.21;82;13.50;0;3.18
2021-09-08 19:10:32;4.21;81;13.60;0;3.18
2021-09-08 19:15:33;4.21;80;13.50;0;3.97
2021-09-08 19:20:30;4.20;81;13.10;0;6.45
2021-09-08 19:25:31;4.20;82;13.00;0;6.85
2021-09-08 19:30:33;4.20;82;13.00;0;4.96
2021-09-08 19:35:30;4.20;82;13.00;0;5.86
2021-09-08 19:40:31;4.20;83;12.90;0;4.27
2021-09-08 19:45:32;4.20;84;12.60;0;6.15
2021-09-08 19:50:29;4.20;84;12.60;0;5.46
2021-09-08 19:55:30;4.20;84;12.40;0;3.38
2021-09-08 20:00:32;4.20;84;12.50;0;4.47
2021-09-08 20:05:33;4.20;84;12.60;0;4.77
2021-09-08 20:10:30;4.20;84;12.60;0;5.76
2021-09-08 20:15:31;4.20;84;12.70;0;4.37
2021-09-08 20:20:32;4.20;84;12.60;0;5.56
2021-09-08 20:25:29;4.20;83;12.70;0;4.77
2021-09-08 20:30:30;4.20;83;12.70;0;6.35
2021-09-08 20:35:31;4.20;84;12.70;0;7.93
2021-09-08 20:40:33;4.20;84;12.70;0;5.26
2021-09-08 20:45:29;4.20;83;12.60;0;5.86
2021-09-08 20:50:31;4.20;83;12.60;0;5.76
2021-09-08 20:55:32;4.20;83;12.50;0;8.13
2021-09-08 21:00:33;4.20;83;12.40;0;6.45
2021-09-08 21:05:30;4.20;84;12.40;0;5.06
2021-09-08 21:10:31;4.20;83;12.40;0;4.37
2021-09-08 21:15:33;4.20;83;12.40;0;5.36
2021-09-08 21:20:29;4.20;84;12.30;0;5.36
2021-09-08 21:25:31;4.20;83;12.40;0;7.14
2021-09-08 21:30:32;4.20;83;12.40;0;5.76
2021-09-08 21:35:33;4.20;82;12.50;0;5.36
2021-09-08 21:40:30;4.20;82;12.40;0;4.37
2021-09-08 21:45:31;4.20;82;12.50;0;7.24
2021-09-08 21:50:32;4.19;82;12.40;0;4.77
2021-09-08 21:55:29;4.19;82;12.40;0;10.11
2021-09-08 22:00:30;4.20;82;12.40;0;4.77
2021-09-08 22:05:32;4.20;82;12.40;0;5.95
2021-09-08 22:10:33;4.20;82;12.30;0;6.05
2021-09-08 22:15:29;4.19;82;12.30;0;6.85
2021-09-08 22:20:31;4.20;83;12.30;0;6.65
2021-09-08 22:25:32;4.19;83;12.30;0;3.78
2021-09-08 22:30:33;4.19;83;12.30;0;6.35
2021-09-08 22:35:30;4.19;83;12.30;0;6.25
2021-09-08 22:40:31;4.19;83;12.20;0;5.56
2021-09-08 22:45:32;4.19;84;12.20;0;3.97
2021-09-08 22:50:29;4.19;84;12.20;0;4.27
2021-09-08 22:55:30;4.19;84;12.20;0;3.88
2021-09-08 23:00:32;4.19;84;12.20;0;8.23
2021-09-08 23:05:33;4.19;86;12.00;0;3.58
2021-09-08 23:10:30;4.19;87;11.90;0;5.46
2021-09-08 23:15:31;4.19;87;11.80;0;4.96
2021-09-08 23:20:32;4.19;87;11.90;0;3.68
2021-09-08 23:25:33;4.19;87;11.90;0;5.56
2021-09-08 23:30:30;4.19;87;12.00;0;5.95
2021-09-08 23:35:31;4.19;86;12.10;0;7.74
2021-09-08 23:40:32;4.19;86;12.00;0;4.47
2021-09-08 23:45:29;4.19;86;12.10;0;5.56
2021-09-08 23:50:30;4.19;85;12.20;0;6.45
2021-09-08 23:55:31;4.19;86;12.10;0;3.88
