2021-05-16 00:03:34;3.98;1;10.10;0;0.00
2021-05-16 00:33:34;3.98;23;9.50;0;0.00
2021-05-16 01:03:32;3.98;1;10.30;0;0.00
2021-05-16 01:33:36;3.98;30;9.80;0;0.00
2021-05-16 02:03:35;3.98;49;9.90;0;0.00
2021-05-16 02:33:33;3.98;13;9.80;0;0.00
2021-05-16 03:03:32;3.98;34;10.30;0;0.00
2021-05-16 03:33:35;3.98;26;9.80;0;0.00
2021-05-16 04:03:34;3.98;7;10.30;0;0.00
2021-05-16 04:33:33;3.97;9;10.40;0;0.00
2021-05-16 05:03:33;3.98;52;9.80;0;0.00
2021-05-16 05:33:36;3.98;91;9.30;0;0.00
2021-05-16 06:03:35;3.98;99;9.00;0;0.00
2021-05-16 06:33:34;3.98;88;9.10;0;0.00
2021-05-16 07:03:32;3.98;98;9.40;0;0.00
2021-05-16 07:33:35;3.98;99;8.90;0;0.00
2021-05-16 08:03:34;3.97;99;8.30;0;0.00
2021-05-16 08:33:32;3.97;99;10.10;0;0.00
2021-05-16 09:03:36;3.97;22;11.60;0;0.00
2021-05-16 09:33:36;3.97;1;13.60;0;0.00
2021-05-16 10:03:38;3.97;1;17.40;0;0.00
2021-05-16 10:33:38;3.97;1;18.80;0;0.00
2021-05-16 11:03:39;3.97;1;21.40;0;0.00
2021-05-16 11:33:42;3.97;1;22.10;0;0.00
2021-05-16 12:03:41;3.97;1;23.10;0;0.00
2021-05-16 12:33:43;3.97;1;24.70;0;0.00
2021-05-16 13:03:45;3.97;1;24.90;0;0.00
2021-05-16 13:33:44;3.97;1;22.30;0;0.00
2021-05-16 14:03:48;3.96;1;25.10;0;0.00
2021-05-16 14:33:48;3.96;1;25.80;0;0.00
2021-05-16 15:03:49;3.96;1;25.40;0;1.10
2021-05-16 15:33:49;3.97;1;24.20;0;0.00
2021-05-16 16:03:48;3.96;1;24.80;0;0.00
2021-05-16 16:33:46;3.97;1;23.10;0;0.00
2021-05-16 17:03:42;3.97;1;24.30;0;0.00
2021-05-16 17:33:43;3.97;1;22.00;0;0.00
2021-05-16 18:03:41;3.97;1;20.10;0;0.00
2021-05-16 18:33:42;3.97;1;18.50;0;0.00
2021-05-16 19:03:37;3.97;1;16.30;0;0.00
2021-05-16 19:33:36;3.97;1;16.40;0;0.00
2021-05-16 20:03:38;3.97;1;15.20;0;0.00
2021-05-16 20:33:35;3.97;1;13.60;0;0.00
2021-05-16 21:03:36;3.97;1;13.10;0;0.00
2021-05-16 21:33:37;3.97;1;13.30;0;0.00
2021-05-16 22:03:38;3.97;1;13.00;0;0.00
2021-05-16 22:33:33;3.97;46;12.30;0;0.00
2021-05-16 23:03:33;3.97;41;11.20;0;0.00
2021-05-16 23:33:33;3.97;80;11.10;0;0.00
