2021-10-29 00:00:35;4.18;67;21.80;0;0.00
2021-10-29 00:05:33;4.18;68;21.50;0;0.00
2021-10-29 00:10:35;4.18;69;21.10;0;0.00
2021-10-29 00:15:33;4.18;72;20.40;0;0.00
2021-10-29 00:20:35;4.18;70;20.80;0;0.00
2021-10-29 00:25:32;4.18;70;21.00;0;1.10
2021-10-29 00:30:35;4.18;70;20.90;0;0.00
2021-10-29 00:35:32;4.18;69;21.20;0;0.00
2021-10-29 00:40:34;4.18;68;21.60;0;1.30
2021-10-29 00:45:32;4.18;68;21.70;0;0.00
2021-10-29 00:50:34;4.18;68;21.40;0;0.00
2021-10-29 00:55:32;4.18;69;21.20;0;0.00
2021-10-29 01:00:34;4.18;70;20.90;0;0.00
2021-10-29 01:05:32;4.18;72;20.40;0;0.00
2021-10-29 01:10:34;4.18;71;20.60;0;1.10
2021-10-29 01:15:31;4.18;69;21.30;0;1.20
2021-10-29 01:20:34;4.17;70;21.10;0;1.10
2021-10-29 01:25:31;4.18;72;20.60;0;0.00
2021-10-29 01:30:33;4.17;74;19.90;0;0.00
2021-10-29 01:35:31;4.17;74;19.80;0;0.00
2021-10-29 01:40:33;4.17;75;19.50;0;0.00
2021-10-29 01:45:35;4.17;75;19.60;0;0.00
2021-10-29 01:50:33;4.17;75;19.80;0;0.00
2021-10-29 01:55:35;4.17;74;20.00;0;0.00
2021-10-29 02:00:32;4.17;73;20.30;0;0.00
2021-10-29 02:05:34;4.17;73;20.30;0;0.00
2021-10-29 02:10:32;4.17;73;20.30;0;0.00
2021-10-29 02:15:34;4.17;74;20.00;0;0.00
2021-10-29 02:20:31;4.17;75;19.70;0;0.00
2021-10-29 02:25:33;4.17;75;19.60;0;0.00
2021-10-29 02:30:31;4.17;76;19.50;0;0.00
2021-10-29 02:35:33;4.17;76;19.40;0;0.00
2021-10-29 02:40:35;4.17;75;19.60;0;0.00
2021-10-29 02:45:32;4.17;76;19.40;0;0.00
2021-10-29 02:50:34;4.17;77;19.20;0;0.00
2021-10-29 02:55:31;4.17;76;19.30;0;0.00
2021-10-29 03:00:33;4.17;76;19.20;0;0.00
2021-10-29 03:05:31;4.17;76;19.40;0;0.00
2021-10-29 03:10:33;4.17;76;19.50;0;0.00
2021-10-29 03:15:35;4.16;81;17.90;0;0.00
2021-10-29 03:20:32;4.17;80;18.20;0;0.00
2021-10-29 03:25:34;4.16;79;18.50;0;0.00
2021-10-29 03:30:31;4.16;78;18.80;0;0.00
2021-10-29 03:35:33;4.16;78;19.00;0;0.00
2021-10-29 03:40:30;4.16;78;18.70;0;0.00
2021-10-29 03:45:32;4.16;79;18.50;0;0.00
2021-10-29 03:50:34;4.16;81;18.00;0;0.00
2021-10-29 03:55:31;4.16;81;17.90;0;0.00
2021-10-29 04:00:33;4.16;84;17.30;0;0.00
2021-10-29 04:05:31;4.16;84;17.20;0;0.00
2021-10-29 04:10:32;4.16;83;17.40;0;0.00
2021-10-29 04:15:34;4.16;80;18.30;0;1.10
2021-10-29 04:20:31;4.16;81;18.10;0;0.00
2021-10-29 04:25:33;4.16;78;18.80;0;0.00
2021-10-29 04:30:30;4.16;79;18.60;0;1.20
2021-10-29 04:35:32;4.16;80;18.40;0;0.00
2021-10-29 04:40:34;4.16;80;18.30;0;0.00
2021-10-29 04:45:31;4.16;80;18.20;0;0.00
2021-10-29 04:50:33;4.16;82;17.80;0;0.00
2021-10-29 04:55:35;4.16;81;18.10;0;0.00
2021-10-29 05:00:32;4.16;82;17.80;0;0.00
2021-10-29 05:05:34;4.16;83;17.60;0;1.10
2021-10-29 05:10:31;4.16;83;17.60;0;0.00
2021-10-29 05:15:33;4.16;82;17.90;0;1.50
2021-10-29 05:20:35;4.16;82;18.00;0;1.10
2021-10-29 05:25:32;4.16;82;18.10;0;1.30
2021-10-29 05:30:34;4.16;83;17.90;0;1.20
2021-10-29 05:35:31;4.15;84;17.70;0;0.00
2021-10-29 05:40:33;4.15;84;17.60;0;0.00
2021-10-29 05:45:34;4.15;84;17.50;0;0.00
2021-10-29 05:50:32;4.16;84;17.50;0;0.00
2021-10-29 05:55:33;4.15;85;17.40;0;0.00
2021-10-29 06:00:30;4.15;85;17.20;0;0.00
2021-10-29 06:05:32;4.15;85;17.50;0;0.00
2021-10-29 06:10:34;4.15;83;17.80;0;1.40
2021-10-29 06:15:31;4.15;84;17.70;0;1.10
2021-10-29 06:20:33;4.15;85;17.50;0;0.00
2021-10-29 06:25:35;4.15;85;17.50;0;0.00
2021-10-29 06:30:32;4.15;85;17.60;0;0.00
2021-10-29 06:35:34;4.15;84;17.90;0;1.20
2021-10-29 06:40:31;4.15;83;18.10;0;0.00
2021-10-29 06:45:32;4.15;83;18.20;0;0.00
2021-10-29 06:50:34;4.15;83;18.50;0;0.00
2021-10-29 06:55:31;4.15;81;18.90;0;0.00
2021-10-29 07:00:33;4.15;80;19.20;0;0.00
2021-10-29 07:05:31;4.15;80;19.40;0;0.00
2021-10-29 07:10:32;4.15;79;19.80;0;0.00
2021-10-29 07:15:34;4.15;79;20.10;0;0.00
2021-10-29 07:20:32;4.16;78;20.30;0;0.00
2021-10-29 07:25:34;4.16;79;20.20;0;1.50
2021-10-29 07:30:31;4.16;78;20.60;0;1.10
2021-10-29 07:35:33;4.16;76;21.00;0;1.70
2021-10-29 07:40:31;4.16;76;21.30;0;1.70
2021-10-29 07:45:33;4.16;75;21.80;0;1.30
2021-10-29 07:50:31;4.16;75;22.00;0;2.00
2021-10-29 07:55:33;4.16;73;22.20;0;2.29
2021-10-29 08:00:31;4.16;72;22.70;0;2.69
2021-10-29 08:05:33;4.16;71;23.30;0;2.69
2021-10-29 08:10:31;4.17;70;23.40;0;2.00
2021-10-29 08:15:34;4.17;69;23.70;0;3.18
2021-10-29 08:20:32;4.18;69;23.80;0;2.99
2021-10-29 08:25:34;4.18;68;24.00;0;2.99
2021-10-29 08:30:32;4.18;68;24.40;0;3.18
2021-10-29 08:35:35;4.18;67;24.70;0;3.38
2021-10-29 08:40:33;4.18;67;24.80;0;2.29
2021-10-29 08:45:31;4.18;66;25.30;0;3.58
2021-10-29 08:50:34;4.18;67;25.00;0;2.99
2021-10-29 08:55:33;4.18;66;26.10;0;2.09
2021-10-29 09:00:36;4.18;66;25.60;0;3.38
2021-10-29 09:05:34;4.19;65;26.10;0;2.29
2021-10-29 09:10:32;4.19;66;26.00;0;1.50
2021-10-29 09:15:36;4.18;64;26.40;0;3.68
2021-10-29 09:20:34;4.19;66;26.60;0;2.69
2021-10-29 09:25:33;4.19;66;26.60;0;2.29
2021-10-29 09:30:36;4.19;65;27.00;0;1.90
2021-10-29 09:35:34;4.19;64;26.60;0;2.39
2021-10-29 09:40:33;4.19;63;27.40;0;2.49
2021-10-29 09:45:32;4.19;64;27.30;0;3.08
2021-10-29 09:50:35;4.19;63;27.50;0;3.58
2021-10-29 09:55:34;4.19;63;27.80;0;2.79
2021-10-29 10:00:33;4.19;63;28.50;0;2.49
2021-10-29 10:05:32;4.19;63;28.10;0;2.89
2021-10-29 10:10:35;4.19;61;28.50;0;2.89
2021-10-29 10:15:34;4.19;61;28.80;0;2.09
2021-10-29 10:20:33;4.19;61;28.40;0;2.19
2021-10-29 10:25:32;4.20;60;28.70;0;2.09
2021-10-29 10:30:36;4.20;62;29.40;0;1.80
2021-10-29 10:35:35;4.20;59;29.60;0;2.49
2021-10-29 10:40:34;4.20;60;29.40;0;2.39
2021-10-29 10:45:34;4.20;60;30.10;0;1.60
2021-10-29 10:50:33;4.20;58;30.40;0;0.00
2021-10-29 10:55:37;4.20;58;30.70;0;1.10
2021-10-29 11:00:36;4.20;59;31.00;0;1.90
2021-10-29 11:05:35;4.20;56;31.30;0;0.00
2021-10-29 11:10:35;4.20;57;30.50;0;0.00
2021-10-29 11:15:34;4.20;58;31.30;0;1.30
2021-10-29 11:20:34;4.20;54;31.80;0;0.00
2021-10-29 11:25:33;4.20;54;32.30;0;0.00
2021-10-29 11:30:33;4.20;57;32.00;0;1.20
2021-10-29 11:35:37;4.20;55;32.60;0;2.19
2021-10-29 11:40:33;4.20;54;32.50;0;0.00
2021-10-29 11:45:37;4.20;53;33.20;0;0.00
2021-10-29 11:50:37;4.20;53;32.30;0;0.00
2021-10-29 11:55:37;4.20;54;32.70;0;1.10
2021-10-29 12:00:36;4.21;52;33.30;0;1.30
2021-10-29 12:05:36;4.20;54;33.80;0;1.20
2021-10-29 12:10:36;4.21;53;33.30;0;1.70
2021-10-29 12:15:36;4.21;50;33.40;0;0.00
2021-10-29 12:20:36;4.21;52;33.50;0;0.00
2021-10-29 12:25:36;4.21;50;34.00;0;0.00
2021-10-29 12:30:36;4.21;53;34.60;0;0.00
2021-10-29 12:35:37;4.21;50;34.50;0;0.00
2021-10-29 12:40:37;4.21;49;34.10;0;0.00
2021-10-29 12:45:37;4.21;50;33.90;0;1.20
2021-10-29 12:50:33;4.21;49;34.10;0;0.00
2021-10-29 12:55:38;4.21;46;33.90;0;1.90
2021-10-29 13:00:33;4.21;46;33.50;0;0.00
2021-10-29 13:05:33;4.21;47;35.30;0;0.00
2021-10-29 13:10:34;4.21;42;33.90;0;0.00
2021-10-29 13:15:34;4.21;45;34.80;0;0.00
2021-10-29 13:20:34;4.21;44;34.90;0;0.00
2021-10-29 13:25:35;4.21;46;34.90;0;0.00
2021-10-29 13:30:35;4.21;45;34.90;0;2.69
2021-10-29 13:35:35;4.21;45;34.20;0;1.60
2021-10-29 13:40:36;4.21;43;34.80;0;0.00
2021-10-29 13:45:36;4.21;46;35.30;0;0.00
2021-10-29 13:50:36;4.22;45;35.30;0;0.00
2021-10-29 13:55:37;4.22;46;35.30;0;0.00
2021-10-29 14:00:37;4.22;47;35.20;0;0.00
2021-10-29 14:05:37;4.22;43;35.90;0;0.00
2021-10-29 14:10:33;4.22;42;34.70;0;0.00
2021-10-29 14:15:34;4.22;40;34.90;0;0.00
2021-10-29 14:20:34;4.22;41;35.80;0;0.00
2021-10-29 14:25:34;4.22;44;35.30;0;0.00
2021-10-29 14:30:35;4.22;42;35.30;0;0.00
2021-10-29 14:35:35;4.22;43;35.30;0;0.00
2021-10-29 14:40:36;4.22;41;35.30;0;1.40
2021-10-29 14:45:36;4.22;42;35.40;0;0.00
2021-10-29 14:50:36;4.22;42;35.40;0;0.00
2021-10-29 14:55:37;4.22;42;35.10;0;0.00
2021-10-29 15:00:37;4.22;44;35.30;0;0.00
2021-10-29 15:05:33;4.22;46;35.70;0;0.00
2021-10-29 15:10:38;4.22;44;35.10;0;0.00
2021-10-29 15:15:34;4.22;46;35.70;0;0.00
2021-10-29 15:20:34;4.22;38;35.00;0;1.80
2021-10-29 15:25:34;4.22;44;36.20;0;0.00
2021-10-29 15:30:35;4.22;41;35.50;0;1.40
2021-10-29 15:35:35;4.22;40;35.80;0;0.00
2021-10-29 15:40:35;4.22;44;35.60;0;0.00
2021-10-29 15:45:35;4.22;40;35.40;0;0.00
2021-10-29 15:50:36;4.22;41;35.00;0;1.20
2021-10-29 15:55:36;4.22;42;34.60;0;1.40
2021-10-29 16:00:36;4.22;42;35.40;0;0.00
2021-10-29 16:05:36;4.22;42;35.00;0;1.30
2021-10-29 16:10:37;4.22;44;35.00;0;0.00
2021-10-29 16:15:37;4.22;45;35.60;0;0.00
2021-10-29 16:20:37;4.22;45;34.70;0;0.00
2021-10-29 16:25:37;4.22;47;35.00;0;0.00
2021-10-29 16:30:37;4.22;44;34.80;0;0.00
2021-10-29 16:35:33;4.22;45;35.00;0;0.00
2021-10-29 16:40:37;4.22;45;34.80;0;1.10
2021-10-29 16:45:33;4.22;44;34.20;0;1.10
2021-10-29 16:50:37;4.22;45;34.40;0;1.20
2021-10-29 16:55:33;4.22;45;34.40;0;0.00
2021-10-29 17:00:37;4.23;44;34.80;0;0.00
2021-10-29 17:05:33;4.22;43;34.60;0;2.19
2021-10-29 17:10:37;4.22;44;34.40;0;0.00
2021-10-29 17:15:33;4.23;45;34.30;0;0.00
2021-10-29 17:20:37;4.22;44;34.20;0;0.00
2021-10-29 17:25:37;4.22;45;34.00;0;0.00
2021-10-29 17:30:37;4.23;46;34.00;0;0.00
2021-10-29 17:35:36;4.22;45;33.60;0;0.00
2021-10-29 17:40:36;4.23;47;33.60;0;0.00
2021-10-29 17:45:36;4.23;46;33.80;0;0.00
2021-10-29 17:50:36;4.23;46;33.80;0;1.20
2021-10-29 17:55:35;4.22;47;33.40;0;0.00
2021-10-29 18:00:35;4.22;47;33.40;0;0.00
2021-10-29 18:05:35;4.23;47;33.00;0;0.00
2021-10-29 18:10:34;4.22;49;32.60;0;0.00
2021-10-29 18:15:34;4.22;51;32.40;0;0.00
2021-10-29 18:20:33;4.22;51;32.30;0;0.00
2021-10-29 18:25:33;4.22;51;32.20;0;0.00
2021-10-29 18:30:37;4.22;52;31.80;0;0.00
2021-10-29 18:35:36;4.22;53;31.70;0;0.00
2021-10-29 18:40:35;4.22;54;31.60;0;0.00
2021-10-29 18:45:35;4.22;55;31.00;0;0.00
#EQ3t;v;h;t;p;a2021-10-29 18:47:06;4.22;57;30.80;0;0.00
2021-10-29 18:50:19;4.22;57;30.30;0;0.00
2021-10-29 18:55:37;4.22;60;29.10;0;0.00
2021-10-29 19:00:36;4.22;62;28.20;0;0.00
2021-10-29 19:05:30;4.22;64;27.30;0;0.00
2021-10-29 19:10:34;4.22;62;27.20;0;0.00
2021-10-29 19:15:33;4.21;64;26.70;0;0.00
2021-10-29 19:20:36;4.21;64;26.10;0;0.00
2021-10-29 19:25:35;4.21;65;25.80;0;0.00
2021-10-29 19:30:33;4.21;65;25.60;0;0.00
2021-10-29 19:35:36;4.21;67;25.50;0;0.00
2021-10-29 19:40:34;4.21;68;25.00;0;0.00
2021-10-29 19:45:33;4.21;68;24.60;0;0.00
2021-10-29 19:50:35;4.21;67;24.60;0;0.00
2021-10-29 19:55:34;4.20;67;24.50;0;0.00
2021-10-29 20:00:32;4.20;68;24.30;0;0.00
2021-10-29 20:05:34;4.20;69;24.00;0;0.00
2021-10-29 20:10:32;4.20;70;23.60;0;0.00
2021-10-29 20:15:35;4.20;69;23.70;0;0.00
2021-10-29 20:20:33;4.20;69;23.80;0;0.00
2021-10-29 20:25:35;4.20;68;23.80;0;0.00
2021-10-29 20:30:33;4.20;68;23.70;0;0.00
2021-10-29 20:35:31;4.20;68;23.50;0;0.00
2021-10-29 20:40:34;4.20;68;23.50;0;0.00
2021-10-29 20:45:31;4.20;67;23.50;0;0.00
2021-10-29 20:50:34;4.20;70;23.10;0;0.00
2021-10-29 20:55:32;4.20;70;22.70;0;0.00
2021-10-29 21:00:34;4.19;69;23.00;0;0.00
2021-10-29 21:05:32;4.19;70;22.70;0;0.00
2021-10-29 21:10:34;4.19;69;23.20;0;0.00
2021-10-29 21:15:32;4.19;67;23.60;0;0.00
2021-10-29 21:20:34;4.19;68;23.50;0;0.00
2021-10-29 21:25:32;4.19;72;22.80;0;0.00
2021-10-29 21:30:34;4.19;68;23.70;0;0.00
2021-10-29 21:35:32;4.19;72;22.80;0;0.00
2021-10-29 21:40:34;4.19;79;21.40;0;0.00
2021-10-29 21:45:32;4.19;79;21.40;0;0.00
2021-10-29 21:50:34;4.19;79;21.40;0;0.00
2021-10-29 21:55:32;4.19;75;22.20;0;0.00
2021-10-29 22:00:34;4.19;71;23.40;0;0.00
2021-10-29 22:05:32;4.19;70;23.50;0;0.00
2021-10-29 22:10:34;4.19;70;23.50;0;0.00
2021-10-29 22:15:32;4.19;70;23.40;0;0.00
2021-10-29 22:20:34;4.19;71;23.30;0;0.00
2021-10-29 22:25:32;4.19;71;23.30;0;0.00
2021-10-29 22:30:34;4.18;72;23.00;0;0.00
2021-10-29 22:35:32;4.18;73;22.70;0;0.00
2021-10-29 22:40:34;4.19;73;23.00;0;0.00
2021-10-29 22:45:32;4.18;73;23.20;0;0.00
2021-10-29 22:50:35;4.18;72;23.60;0;0.00
2021-10-29 22:55:32;4.18;74;23.00;0;0.00
2021-10-29 23:00:35;4.18;75;22.60;0;0.00
2021-10-29 23:05:32;4.18;77;22.20;0;0.00
2021-10-29 23:10:35;4.18;79;21.90;0;0.00
2021-10-29 23:15:32;4.18;80;21.60;0;0.00
2021-10-29 23:20:35;4.18;82;21.20;0;0.00
2021-10-29 23:25:32;4.18;79;21.80;0;0.00
2021-10-29 23:30:35;4.18;77;22.60;0;0.00
2021-10-29 23:35:32;4.18;76;22.90;0;0.00
2021-10-29 23:40:35;4.18;75;23.10;0;0.00
2021-10-29 23:45:32;4.18;75;23.10;0;0.00
2021-10-29 23:50:30;4.18;76;22.90;0;0.00
2021-10-29 23:55:32;4.18;78;22.50;0;0.00