2021-11-27 00:00:34;4.17;83;19.00;0;0.00
2021-11-27 00:05:31;4.17;81;18.70;0;0.00
2021-11-27 00:10:33;4.17;79;18.50;0;0.00
2021-11-27 00:15:31;4.17;78;18.60;0;0.00
2021-11-27 00:20:32;4.17;80;18.80;0;0.00
2021-11-27 00:25:34;4.17;83;19.00;0;0.00
2021-11-27 00:30:31;4.16;83;18.80;0;0.00
2021-11-27 00:35:33;4.16;82;18.80;0;0.00
2021-11-27 00:40:31;4.16;82;18.90;0;0.00
2021-11-27 00:45:32;4.16;84;19.10;0;0.00
2021-11-27 00:50:34;4.16;83;18.80;0;0.00
2021-11-27 00:55:31;4.16;83;18.90;0;0.00
2021-11-27 01:00:33;4.16;83;18.80;0;0.00
2021-11-27 01:05:31;4.16;81;18.70;0;0.00
2021-11-27 01:10:32;4.16;80;18.50;0;0.00
2021-11-27 01:15:34;4.16;79;18.30;0;0.00
2021-11-27 01:20:31;4.16;77;18.40;0;0.00
2021-11-27 01:25:33;4.16;77;18.40;0;0.00
2021-11-27 01:30:35;4.16;78;18.40;0;0.00
2021-11-27 01:35:32;4.16;77;18.50;0;0.00
2021-11-27 01:40:34;4.16;78;18.60;0;0.00
2021-11-27 01:45:31;4.16;78;18.30;0;0.00
2021-11-27 01:50:33;4.16;77;18.00;0;0.00
2021-11-27 01:55:34;4.16;76;18.00;0;0.00
2021-11-27 02:00:32;4.16;74;17.80;0;0.00
2021-11-27 02:05:33;4.16;71;17.70;0;0.00
2021-11-27 02:10:30;4.15;68;17.60;0;0.00
2021-11-27 02:15:32;4.15;67;17.50;0;0.00
2021-11-27 02:20:34;4.15;64;17.40;0;0.00
2021-11-27 02:25:31;4.15;61;17.50;0;0.00
2021-11-27 02:30:33;4.15;61;17.40;0;0.00
2021-11-27 02:35:30;4.15;60;17.30;0;0.00
2021-11-27 02:40:31;4.15;61;17.50;0;0.00
2021-11-27 02:45:33;4.16;57;17.90;0;0.00
2021-11-27 02:50:35;4.16;64;18.20;0;0.00
2021-11-27 02:55:32;4.16;71;18.30;0;0.00
2021-11-27 03:00:33;4.15;78;18.80;0;0.00
2021-11-27 03:05:31;4.15;83;18.90;0;0.00
2021-11-27 03:10:32;4.15;84;19.00;0;0.00
2021-11-27 03:15:34;4.15;85;19.20;0;0.00
2021-11-27 03:20:31;4.15;85;19.10;0;0.00
2021-11-27 03:25:33;4.15;85;18.90;0;0.00
2021-11-27 03:30:35;4.15;85;18.90;0;0.00
2021-11-27 03:35:32;4.16;85;18.90;0;0.00
2021-11-27 03:40:34;4.16;85;18.80;0;0.00
2021-11-27 03:45:31;4.15;85;18.80;0;0.00
2021-11-27 03:50:32;4.15;85;18.60;0;0.00
2021-11-27 03:55:34;4.15;85;18.60;0;0.00
2021-11-27 04:00:31;4.15;85;18.50;0;0.00
2021-11-27 04:05:33;4.15;85;18.60;0;0.00
2021-11-27 04:10:30;4.15;84;18.20;0;0.00
2021-11-27 04:15:32;4.15;83;18.20;0;0.00
2021-11-27 04:20:34;4.15;84;18.40;0;0.00
2021-11-27 04:25:31;4.15;83;18.00;0;0.00
2021-11-27 04:30:33;4.15;82;18.00;0;0.00
2021-11-27 04:35:34;4.15;83;18.20;0;0.00
2021-11-27 04:40:32;4.15;82;18.20;0;0.00
2021-11-27 04:45:33;4.15;78;17.60;0;0.00
2021-11-27 04:50:30;4.15;80;18.20;0;0.00
2021-11-27 04:55:32;4.15;82;18.10;0;0.00
2021-11-27 05:00:34;4.15;82;18.00;0;0.00
2021-11-27 05:05:31;4.15;82;17.70;0;0.00
2021-11-27 05:10:33;4.15;81;17.50;0;0.00
2021-11-27 05:15:34;4.15;83;17.50;0;0.00
2021-11-27 05:20:32;4.15;83;17.60;0;0.00
2021-11-27 05:25:33;4.15;83;17.70;0;0.00
2021-11-27 05:30:30;4.15;84;17.60;0;0.00
2021-11-27 05:35:32;4.15;84;17.50;0;0.00
2021-11-27 05:40:34;4.15;85;17.70;0;0.00
2021-11-27 05:45:31;4.15;85;17.60;0;0.00
2021-11-27 05:50:32;4.15;85;17.60;0;0.00
2021-11-27 05:55:34;4.15;86;17.80;0;0.00
2021-11-27 06:00:31;4.15;86;18.10;0;0.00
2021-11-27 06:05:33;4.15;86;18.20;0;0.00
2021-11-27 06:10:30;4.15;86;18.00;0;0.00
2021-11-27 06:15:32;4.15;86;18.10;0;0.00
2021-11-27 06:20:33;4.15;86;18.10;0;0.00
2021-11-27 06:25:30;4.15;86;18.30;0;0.00
2021-11-27 06:30:32;4.15;86;18.20;0;0.00
2021-11-27 06:35:34;4.15;86;18.30;0;1.30
2021-11-27 06:40:31;4.15;86;18.40;0;1.10
2021-11-27 06:45:33;4.15;86;18.60;0;0.00
2021-11-27 06:50:35;4.15;86;18.80;0;0.00
2021-11-27 06:55:32;4.15;85;19.20;0;1.20
2021-11-27 07:00:34;4.15;85;19.40;0;0.00
2021-11-27 07:05:31;4.15;85;19.70;0;1.20
2021-11-27 07:10:33;4.15;85;19.90;0;1.40
2021-11-27 07:15:35;4.15;85;20.20;0;1.80
2021-11-27 07:20:32;4.15;85;20.50;0;1.50
2021-11-27 07:25:34;4.15;84;20.70;0;2.29
2021-11-27 07:30:32;4.15;84;20.90;0;2.09
2021-11-27 07:35:34;4.15;85;21.20;0;1.50
2021-11-27 07:40:31;4.15;83;21.40;0;2.00
2021-11-27 07:45:34;4.16;83;21.70;0;1.50
2021-11-27 07:50:31;4.16;82;22.10;0;1.50
2021-11-27 07:55:33;4.16;83;22.40;0;1.40
2021-11-27 08:00:31;4.16;82;22.80;0;1.90
2021-11-27 08:05:34;4.16;81;23.00;0;1.90
2021-11-27 08:10:31;4.17;79;23.40;0;2.89
2021-11-27 08:15:34;4.17;78;23.50;0;2.99
2021-11-27 08:20:32;4.17;79;23.80;0;2.49
2021-11-27 08:25:35;4.17;77;24.30;0;3.48
2021-11-27 08:30:33;4.17;79;23.90;0;2.79
2021-11-27 08:35:35;4.17;80;24.10;0;1.80
2021-11-27 08:40:33;4.18;78;24.40;0;1.80
2021-11-27 08:45:32;4.18;77;25.00;0;2.69
2021-11-27 08:50:34;4.18;77;24.80;0;3.08
2021-11-27 08:55:32;4.18;77;25.30;0;2.79
2021-11-27 09:00:35;4.18;75;25.70;0;1.80
2021-11-27 09:05:34;4.18;74;25.90;0;2.39
2021-11-27 09:10:32;4.18;75;25.70;0;3.78
2021-11-27 09:15:35;4.18;76;26.20;0;2.09
2021-11-27 09:20:33;4.18;72;26.50;0;2.89
2021-11-27 09:25:32;4.18;75;26.40;0;2.59
2021-11-27 09:30:35;4.18;74;26.40;0;2.79
2021-11-27 09:35:34;4.19;73;26.70;0;3.08
2021-11-27 09:40:32;4.19;72;27.20;0;2.49
2021-11-27 09:45:35;4.19;71;27.70;0;3.68
2021-11-27 09:50:34;4.19;71;27.30;0;3.28
2021-11-27 09:55:33;4.19;71;27.30;0;2.89
2021-11-27 10:00:36;4.19;70;27.20;0;3.28
2021-11-27 10:05:35;4.19;72;27.60;0;3.38
2021-11-27 10:10:34;4.19;71;27.60;0;3.18
2021-11-27 10:15:32;4.19;71;27.40;0;2.59
2021-11-27 10:20:36;4.19;70;28.10;0;2.49
2021-11-27 10:25:35;4.19;69;29.00;0;2.09
2021-11-27 10:30:34;4.19;69;28.50;0;4.37
2021-11-27 10:35:32;4.19;69;28.70;0;2.49
2021-11-27 10:40:36;4.19;69;28.10;0;3.48
2021-11-27 10:45:35;4.19;69;28.80;0;2.99
2021-11-27 10:50:34;4.19;68;28.60;0;2.29
2021-11-27 10:55:33;4.19;70;29.10;0;2.00
2021-11-27 11:00:36;4.20;69;28.90;0;2.39
2021-11-27 11:05:35;4.20;66;29.40;0;3.78
2021-11-27 11:10:35;4.19;67;29.30;0;3.48
2021-11-27 11:15:34;4.20;65;29.10;0;3.08
2021-11-27 11:20:33;4.20;67;29.40;0;3.38
2021-11-27 11:25:37;4.20;64;29.70;0;1.80
2021-11-27 11:30:36;4.20;66;30.30;0;2.49
2021-11-27 11:35:35;4.20;65;30.20;0;3.58
2021-11-27 11:40:34;4.20;65;30.00;0;2.59
2021-11-27 11:45:33;4.20;65;30.50;0;1.40
2021-11-27 11:50:33;4.20;64;30.00;0;1.80
2021-11-27 11:55:37;4.20;61;30.00;0;3.08
2021-11-27 12:00:36;4.20;64;29.80;0;3.48
2021-11-27 12:05:35;4.20;62;29.80;0;2.89
2021-11-27 12:10:35;4.20;64;30.70;0;2.79
2021-11-27 12:15:34;4.20;62;30.60;0;2.19
2021-11-27 12:20:33;4.20;62;30.60;0;2.69
2021-11-27 12:25:33;4.20;61;30.20;0;2.39
2021-11-27 12:30:37;4.20;63;30.10;0;2.49
2021-11-27 12:35:36;4.20;60;30.30;0;3.97
2021-11-27 12:40:35;4.20;60;30.00;0;2.99
2021-11-27 12:45:35;4.20;61;30.20;0;2.19
2021-11-27 12:50:34;4.20;60;30.60;0;1.20
2021-11-27 12:55:33;4.20;59;30.70;0;2.89
2021-11-27 13:00:33;4.20;59;31.20;0;2.99
2021-11-27 13:05:37;4.20;60;30.50;0;3.68
2021-11-27 13:10:36;4.21;60;31.30;0;2.00
2021-11-27 13:15:36;4.21;61;31.00;0;3.58
2021-11-27 13:20:35;4.21;61;30.10;0;3.78
2021-11-27 13:25:35;4.21;61;30.80;0;2.00
2021-11-27 13:30:34;4.20;61;30.60;0;4.27
2021-11-27 13:35:33;4.21;59;30.70;0;4.57
2021-11-27 13:40:33;4.21;59;31.00;0;2.59
2021-11-27 13:45:37;4.21;60;31.20;0;2.59
2021-11-27 13:50:36;4.21;58;31.20;0;2.29
2021-11-27 13:55:36;4.21;59;31.80;0;2.49
2021-11-27 14:00:35;4.21;59;31.20;0;2.59
2021-11-27 14:05:35;4.21;61;31.20;0;3.08
2021-11-27 14:10:34;4.21;58;31.60;0;3.58
2021-11-27 14:15:34;4.21;57;31.20;0;3.18
2021-11-27 14:20:33;4.21;57;30.90;0;3.58
2021-11-27 14:25:33;4.21;60;31.50;0;2.39
2021-11-27 14:30:37;4.21;61;31.80;0;2.89
2021-11-27 14:35:36;4.21;58;31.60;0;5.36
2021-11-27 14:40:36;4.21;59;31.30;0;3.28
2021-11-27 14:45:36;4.21;59;31.00;0;2.19
2021-11-27 14:50:35;4.21;58;31.60;0;3.78
2021-11-27 14:55:35;4.21;60;31.20;0;2.39
2021-11-27 15:00:34;4.21;61;31.00;0;2.89
2021-11-27 15:05:34;4.21;61;31.50;0;2.89
2021-11-27 15:10:33;4.21;61;30.70;0;3.08
2021-11-27 15:15:37;4.21;59;31.60;0;3.08
2021-11-27 15:20:36;4.21;61;31.00;0;1.90
2021-11-27 15:25:36;4.21;62;30.70;0;3.48
2021-11-27 15:30:35;4.21;62;31.10;0;3.38
2021-11-27 15:35:35;4.21;61;30.90;0;2.19
2021-11-27 15:40:34;4.21;62;31.10;0;1.60
2021-11-27 15:45:34;4.21;63;30.60;0;2.79
2021-11-27 15:50:33;4.21;61;30.60;0;1.90
2021-11-27 15:55:37;4.21;61;31.00;0;3.28
2021-11-27 16:00:36;4.21;63;31.30;0;2.69
2021-11-27 16:05:36;4.21;63;31.60;0;2.69
2021-11-27 16:10:35;4.21;61;31.10;0;2.69
2021-11-27 16:15:34;4.21;63;30.40;0;3.88
2021-11-27 16:20:34;4.21;62;31.00;0;2.19
2021-11-27 16:25:33;4.21;65;30.80;0;2.19
2021-11-27 16:30:33;4.21;63;30.30;0;2.59
2021-11-27 16:35:37;4.21;63;30.90;0;1.50
2021-11-27 16:40:36;4.21;63;30.60;0;2.89
2021-11-27 16:45:35;4.21;64;30.10;0;1.70
2021-11-27 16:50:34;4.21;65;30.90;0;3.88
2021-11-27 16:55:34;4.22;64;30.30;0;3.18
2021-11-27 17:00:33;4.21;64;30.80;0;2.69
2021-11-27 17:05:37;4.21;64;30.50;0;1.40
2021-11-27 17:10:36;4.21;64;30.50;0;2.79
2021-11-27 17:15:35;4.21;64;30.30;0;2.89
2021-11-27 17:20:34;4.21;64;30.30;0;2.09
2021-11-27 17:25:33;4.21;63;30.50;0;1.80
2021-11-27 17:30:33;4.21;65;29.80;0;3.38
2021-11-27 17:35:36;4.21;66;29.90;0;2.69
2021-11-27 17:40:36;4.21;65;29.80;0;2.00
2021-11-27 17:45:35;4.21;66;29.70;0;1.90
2021-11-27 17:50:34;4.21;65;29.70;0;2.29
2021-11-27 17:55:33;4.21;66;29.50;0;1.80
2021-11-27 18:00:36;4.21;66;29.50;0;1.70
2021-11-27 18:05:35;4.21;66;29.20;0;2.49
2021-11-27 18:10:34;4.21;66;29.30;0;1.70
2021-11-27 18:15:33;4.21;67;29.20;0;1.40
2021-11-27 18:20:32;4.21;68;29.10;0;1.10
2021-11-27 18:25:36;4.21;68;29.00;0;2.49
2021-11-27 18:30:35;4.21;68;28.80;0;1.90
2021-11-27 18:35:34;4.21;69;28.70;0;1.50
2021-11-27 18:40:32;4.21;68;28.70;0;1.40
2021-11-27 18:45:36;4.21;69;28.60;0;1.20
2021-11-27 18:50:35;4.21;68;28.70;0;1.40
2021-11-27 18:55:33;4.21;69;28.40;0;1.10
2021-11-27 19:00:32;4.21;69;28.30;0;0.00
2021-11-27 19:05:36;4.21;69;28.10;0;0.00
2021-11-27 19:10:34;4.21;70;28.00;0;0.00
2021-11-27 19:15:33;4.21;70;27.70;0;1.10
2021-11-27 19:20:36;4.21;71;27.50;0;0.00
2021-11-27 19:25:35;4.20;73;27.10;0;0.00
2021-11-27 19:30:33;4.20;74;26.80;0;0.00
2021-11-27 19:35:32;4.20;75;26.60;0;0.00
2021-11-27 19:40:35;4.20;74;26.70;0;0.00
2021-11-27 19:45:34;4.20;75;26.60;0;0.00
2021-11-27 19:50:32;4.20;74;26.50;0;0.00
2021-11-27 19:55:35;4.20;75;26.20;0;0.00
2021-11-27 20:00:33;4.20;75;26.10;0;0.00
2021-11-27 20:05:32;4.20;76;25.80;0;0.00
2021-11-27 20:10:35;4.20;77;25.70;0;0.00
2021-11-27 20:15:33;4.20;78;25.40;0;0.00
2021-11-27 20:20:36;4.20;79;25.00;0;0.00
2021-11-27 20:25:34;4.19;78;25.30;0;0.00
2021-11-27 20:30:32;4.19;80;24.90;0;0.00
2021-11-27 20:35:35;4.19;81;24.60;0;0.00
2021-11-27 20:40:33;4.19;81;24.80;0;0.00
2021-11-27 20:45:31;4.19;80;24.80;0;0.00
2021-11-27 20:50:34;4.19;80;24.90;0;0.00
2021-11-27 20:55:32;4.19;80;24.80;0;0.00
2021-11-27 21:00:35;4.19;80;24.80;0;0.00
2021-11-27 21:05:33;4.19;80;24.70;0;0.00
2021-11-27 21:10:35;4.19;79;24.90;0;0.00
2021-11-27 21:15:34;4.19;80;24.80;0;0.00
2021-11-27 21:20:32;4.19;80;24.70;0;0.00
2021-11-27 21:25:34;4.19;79;24.80;0;0.00
2021-11-27 21:30:32;4.19;79;24.90;0;0.00
2021-11-27 21:35:35;4.19;79;24.90;0;0.00
2021-11-27 21:40:33;4.19;79;25.00;0;0.00
2021-11-27 21:45:31;4.19;80;24.70;0;0.00
2021-11-27 21:50:34;4.19;81;24.50;0;0.00
2021-11-27 21:55:32;4.19;81;24.40;0;0.00
2021-11-27 22:00:35;4.19;80;24.50;0;0.00
2021-11-27 22:05:33;4.18;80;24.80;0;1.40
2021-11-27 22:10:31;4.19;99;23.30;1;0.00
2021-11-27 22:15:34;4.19;85;22.70;1;0.00
2021-11-27 22:20:31;4.18;85;22.70;1;0.00
2021-11-27 22:25:34;4.18;85;22.50;1;0.00
2021-11-27 22:30:32;4.18;84;22.40;1;0.00
2021-11-27 22:35:34;4.18;85;22.50;1;0.00
2021-11-27 22:40:32;4.18;85;22.40;1;0.00
2021-11-27 22:45:34;4.18;84;22.20;1;0.00
2021-11-27 22:50:32;4.18;85;22.10;1;0.00
2021-11-27 22:55:35;4.18;85;22.30;1;0.00
2021-11-27 23:00:32;4.18;85;22.40;1;0.00
2021-11-27 23:05:35;4.18;85;22.50;1;0.00
2021-11-27 23:10:32;4.18;85;22.60;1;0.00
2021-11-27 23:15:35;4.18;85;22.60;1;0.00
2021-11-27 23:20:32;4.18;86;22.50;1;0.00
2021-11-27 23:25:35;4.18;86;22.50;1;0.00
2021-11-27 23:30:32;4.17;84;22.80;1;0.00
2021-11-27 23:35:35;4.17;84;23.00;1;0.00
2021-11-27 23:40:32;4.17;84;23.10;1;0.00
2021-11-27 23:45:35;4.18;84;23.10;1;0.00
2021-11-27 23:50:33;4.17;84;23.10;1;0.00
2021-11-27 23:55:35;4.17;83;23.20;1;0.00
