2021-03-04 00:03:42;4.22;99;20.30;23;0.00
2021-03-04 00:33:39;4.22;99;20.40;0;0.00
2021-03-04 01:03:41;4.22;93;20.60;0;0.00
2021-03-04 01:33:39;4.21;92;20.60;0;0.00
2021-03-04 02:03:41;4.21;99;20.50;0;1.20
2021-03-04 02:33:43;4.21;99;20.50;0;0.00
2021-03-04 03:03:41;4.21;99;20.60;0;0.00
2021-03-04 03:33:43;4.21;97;20.50;0;1.70
2021-03-04 04:03:40;4.21;95;20.60;0;1.30
2021-03-04 04:33:43;4.21;99;20.70;0;0.00
2021-03-04 05:03:40;4.21;99;20.50;0;0.00
2021-03-04 05:33:42;4.21;99;20.40;0;0.00
2021-03-04 06:03:40;4.21;99;20.30;0;0.00
2021-03-04 06:33:42;4.21;99;20.40;0;0.00
2021-03-04 07:03:39;4.20;99;20.00;0;0.00
2021-03-04 07:33:41;4.20;99;20.50;0;0.00
2021-03-04 08:03:43;4.21;99;20.90;0;0.00
2021-03-04 08:33:41;4.21;90;21.70;0;1.20
2021-03-04 09:03:44;4.21;75;22.10;0;0.00
2021-03-04 09:33:43;4.21;70;22.40;0;0.00
2021-03-04 10:03:42;4.22;56;22.90;0;0.00
2021-03-04 10:33:42;4.21;53;21.80;0;0.00
2021-03-04 11:03:19;4.21;69;20.50;9;1.60
2021-03-04 11:33:41;4.22;42;21.60;10;1.50
2021-03-04 12:03:44;4.21;19;24.10;10;1.20
2021-03-04 12:33:45;4.22;1;26.80;10;0.00
2021-03-04 13:03:44;4.22;1;27.40;10;0.00
2021-03-04 13:33:49;4.22;1;28.10;10;1.60
2021-03-04 14:03:50;4.22;1;27.50;10;2.19
2021-03-04 14:33:46;4.23;1;28.50;10;2.29
2021-03-04 15:03:48;4.23;1;28.20;10;2.29
2021-03-04 15:33:49;4.23;1;29.60;10;1.40
2021-03-04 16:03:48;4.23;1;31.10;11;1.20
2021-03-04 16:33:52;4.23;1;30.90;11;0.00
2021-03-04 17:03:48;4.23;32;22.80;13;2.29
2021-03-04 17:33:30;4.22;76;22.00;19;0.00
2021-03-04 18:03:44;4.23;70;22.20;19;0.00
2021-03-04 18:33:44;4.23;44;22.90;19;0.00
2021-03-04 19:03:44;4.22;34;23.80;19;0.00
2021-03-04 19:33:44;4.22;35;23.50;19;0.00
2021-03-04 20:03:43;4.22;42;23.00;19;0.00
2021-03-04 20:33:42;4.22;50;22.80;19;0.00
2021-03-04 21:03:41;4.22;70;22.50;19;0.00
2021-03-04 21:33:40;4.22;80;22.40;19;0.00
2021-03-04 22:03:43;4.22;83;21.70;19;0.00
2021-03-04 22:33:42;4.21;93;21.40;19;0.00
2021-03-04 23:03:40;4.21;99;21.30;19;0.00
2021-03-04 23:33:42;4.21;92;21.60;19;0.00
