2022-07-20 00:00:31;4.17;82;8.40;0;0.00
2022-07-20 00:05:32;4.17;82;8.10;0;0.00
2022-07-20 00:10:32;4.17;82;8.30;0;0.00
2022-07-20 00:15:32;4.17;82;8.30;0;0.00
2022-07-20 00:20:33;4.17;83;7.90;0;0.00
2022-07-20 00:25:33;4.17;83;7.90;0;0.00
2022-07-20 00:30:33;4.17;83;7.90;0;0.00
2022-07-20 00:35:29;4.17;83;7.70;0;0.00
2022-07-20 00:40:29;4.17;83;7.20;0;0.00
2022-07-20 00:45:30;4.17;83;6.70;0;0.00
2022-07-20 00:50:30;4.17;82;6.70;0;0.00
2022-07-20 00:55:30;4.17;82;6.80;0;0.00
2022-07-20 01:00:31;4.17;81;7.10;0;0.00
2022-07-20 01:05:31;4.17;81;7.50;0;0.00
2022-07-20 01:10:31;4.17;81;7.10;0;0.00
2022-07-20 01:15:31;4.17;81;6.80;0;0.00
2022-07-20 01:20:32;4.17;82;5.70;0;0.00
2022-07-20 01:25:32;4.17;80;5.30;0;0.00
2022-07-20 01:30:32;4.17;78;5.80;0;0.00
2022-07-20 01:35:32;4.17;78;6.10;0;0.00
2022-07-20 01:40:32;4.17;78;6.60;0;0.00
2022-07-20 01:45:33;4.17;78;6.80;0;0.00
2022-07-20 01:50:33;4.17;78;5.90;0;0.00
2022-07-20 01:55:33;4.17;78;5.40;0;0.00
2022-07-20 02:00:33;4.17;73;6.20;0;0.00
2022-07-20 02:05:29;4.17;76;6.90;0;0.00
2022-07-20 02:10:34;4.16;76;6.80;0;0.00
2022-07-20 02:15:29;4.17;76;6.80;0;0.00
2022-07-20 02:20:29;4.17;76;6.30;0;0.00
2022-07-20 02:25:30;4.16;75;6.10;0;0.00
2022-07-20 02:30:30;4.17;75;6.10;0;0.00
2022-07-20 02:35:30;4.17;74;6.30;0;0.00
2022-07-20 02:40:30;4.17;74;6.40;0;0.00
2022-07-20 02:45:30;4.17;74;6.30;0;0.00
2022-07-20 02:50:31;4.16;74;6.20;0;0.00
2022-07-20 02:55:31;4.17;73;6.00;0;0.00
2022-07-20 03:00:31;4.17;72;5.90;0;0.00
2022-07-20 03:05:31;4.16;70;5.80;0;0.00
2022-07-20 03:10:32;4.16;69;6.10;0;0.00
2022-07-20 03:15:32;4.16;68;5.60;0;0.00
2022-07-20 03:20:32;4.16;66;5.50;0;0.00
2022-07-20 03:25:32;4.16;66;5.60;0;0.00
2022-07-20 03:30:32;4.16;64;5.20;0;0.00
2022-07-20 03:35:32;4.16;62;4.70;0;0.00
2022-07-20 03:40:33;4.16;57;4.50;0;0.00
2022-07-20 03:45:33;4.16;49;4.70;0;0.00
2022-07-20 03:50:33;4.16;42;5.00;0;0.00
2022-07-20 03:55:33;4.16;35;5.60;0;0.00
2022-07-20 04:00:33;4.16;39;5.60;0;0.00
2022-07-20 04:05:29;4.16;40;5.70;0;0.00
2022-07-20 04:10:33;4.16;40;5.50;0;0.00
2022-07-20 04:15:29;4.16;39;5.40;0;0.00
2022-07-20 04:20:29;4.16;36;5.60;0;0.00
2022-07-20 04:25:29;4.16;44;5.10;0;0.00
2022-07-20 04:30:30;4.16;37;5.00;0;0.00
2022-07-20 04:35:30;4.16;38;4.80;0;0.00
2022-07-20 04:40:30;4.16;35;4.90;0;0.00
2022-07-20 04:45:30;4.16;32;5.10;0;0.00
2022-07-20 04:50:30;4.16;28;5.30;0;0.00
2022-07-20 04:55:30;4.16;31;5.10;0;0.00
2022-07-20 05:00:30;4.16;30;5.00;0;0.00
2022-07-20 05:05:30;4.16;21;5.90;0;0.00
2022-07-20 05:10:31;4.16;27;5.90;0;0.00
2022-07-20 05:15:31;4.16;25;5.80;0;0.00
2022-07-20 05:20:31;4.16;27;5.40;0;0.00
2022-07-20 05:25:31;4.16;21;5.50;0;0.00
2022-07-20 05:30:31;4.16;26;5.00;0;0.00
2022-07-20 05:35:31;4.16;17;5.00;0;0.00
2022-07-20 05:40:31;4.16;15;5.00;0;0.00
2022-07-20 05:45:31;4.16;10;5.20;0;0.00
2022-07-20 05:50:31;4.16;6;5.50;0;0.00
2022-07-20 05:55:32;4.16;7;5.60;0;0.00
2022-07-20 06:00:32;4.16;4;5.80;0;0.00
2022-07-20 06:05:32;4.16;6;5.50;0;0.00
2022-07-20 06:10:32;4.16;8;5.40;0;0.00
2022-07-20 06:15:32;4.16;6;5.40;0;0.00
2022-07-20 06:20:32;4.16;9;5.30;0;0.00
2022-07-20 06:25:32;4.16;13;4.50;0;0.00
2022-07-20 06:30:32;4.16;99;5.10;0;0.00
2022-07-20 06:35:33;4.16;99;5.20;0;0.00
2022-07-20 06:40:33;4.16;99;5.10;0;0.00
2022-07-20 06:45:33;4.16;99;5.00;0;0.00
2022-07-20 06:50:33;4.16;99;5.00;0;0.00
2022-07-20 06:55:33;4.16;99;5.00;0;0.00
2022-07-20 07:00:33;4.16;99;5.00;0;0.00
2022-07-20 07:05:29;4.16;99;4.30;0;0.00
2022-07-20 07:10:33;4.16;99;4.60;0;0.00
2022-07-20 07:15:29;4.16;99;4.60;0;0.00
2022-07-20 07:20:34;4.15;99;4.70;0;0.00
2022-07-20 07:25:29;4.15;99;5.10;0;0.00
2022-07-20 07:30:34;4.16;99;5.00;0;0.00
2022-07-20 07:35:29;4.15;99;5.00;0;0.00
2022-07-20 07:40:29;4.16;99;4.90;0;0.00
2022-07-20 07:45:29;4.15;99;4.80;0;0.00
2022-07-20 07:50:30;4.15;99;4.80;0;0.00
2022-07-20 07:55:30;4.15;99;4.50;0;0.00
2022-07-20 08:00:30;4.15;99;4.40;0;0.00
2022-07-20 08:05:30;4.15;99;4.50;0;0.00
2022-07-20 08:10:30;4.16;99;5.10;0;0.00
2022-07-20 08:15:30;4.16;99;5.30;0;0.00
2022-07-20 08:20:30;4.17;99;5.20;0;0.00
2022-07-20 08:25:30;4.17;99;5.00;0;0.00
2022-07-20 08:30:31;4.17;99;5.50;0;0.00
2022-07-20 08:35:31;4.18;99;5.80;0;0.00
2022-07-20 08:40:31;4.17;99;6.10;0;0.00
2022-07-20 08:45:31;4.18;99;6.60;0;0.00
2022-07-20 08:50:31;4.18;99;7.20;0;0.00
2022-07-20 08:55:32;4.18;99;7.60;0;1.20
2022-07-20 09:00:32;4.18;99;8.00;0;1.20
2022-07-20 09:05:32;4.18;13;8.30;0;1.10
2022-07-20 09:10:33;4.18;15;8.70;0;1.50
2022-07-20 09:15:33;4.18;19;9.20;0;1.50
2022-07-20 09:20:29;4.18;30;9.70;0;1.70
2022-07-20 09:25:30;4.18;36;10.00;0;1.60
2022-07-20 09:30:31;4.18;42;10.50;0;2.79
2022-07-20 09:35:31;4.18;45;11.10;0;1.70
2022-07-20 09:40:32;4.18;51;11.70;0;2.79
2022-07-20 09:45:33;4.18;54;12.10;0;1.50
2022-07-20 09:50:34;4.19;58;12.50;0;1.90
2022-07-20 09:55:30;4.18;60;12.90;0;1.40
2022-07-20 10:00:31;4.19;63;13.50;0;0.00
2022-07-20 10:05:32;4.19;65;14.10;0;2.69
2022-07-20 10:10:33;4.19;67;14.60;0;1.80
2022-07-20 10:15:34;4.19;68;14.90;0;2.09
2022-07-20 10:20:31;4.19;69;15.20;0;0.00
2022-07-20 10:25:32;4.19;70;15.50;0;1.90
2022-07-20 10:30:33;4.19;71;15.80;0;1.60
2022-07-20 10:35:34;4.19;70;15.90;0;1.80
2022-07-20 10:40:31;4.19;71;16.20;0;2.00
2022-07-20 10:45:32;4.19;72;16.50;0;2.19
2022-07-20 10:50:34;4.20;71;16.90;0;1.30
2022-07-20 10:55:30;4.20;71;17.20;0;1.90
2022-07-20 11:00:32;4.20;72;17.30;0;2.00
2022-07-20 11:05:33;4.20;72;17.70;0;2.00
2022-07-20 11:10:30;4.20;72;17.80;0;1.10
2022-07-20 11:15:31;4.20;71;18.30;0;1.30
2022-07-20 11:20:33;4.20;72;18.80;0;1.40
2022-07-20 11:25:35;4.20;71;19.20;0;1.40
2022-07-20 11:30:32;4.20;71;19.00;0;2.99
2022-07-20 11:35:33;4.20;71;19.40;0;2.09
2022-07-20 11:40:30;4.20;71;19.70;0;1.30
2022-07-20 11:45:32;4.20;71;19.40;0;2.09
2022-07-20 11:50:34;4.20;71;19.70;0;2.19
2022-07-20 11:55:31;4.20;71;19.80;0;1.40
2022-07-20 12:00:33;4.20;71;19.70;0;1.90
2022-07-20 12:05:35;4.20;72;19.60;0;1.80
2022-07-20 12:10:32;4.20;72;19.50;0;2.99
2022-07-20 12:15:34;4.20;71;19.90;0;2.00
2022-07-20 12:20:31;4.20;71;19.80;0;1.90
2022-07-20 12:25:33;4.20;71;20.20;0;1.10
2022-07-20 12:30:35;4.20;71;20.20;0;2.29
2022-07-20 12:35:32;4.21;70;20.90;0;2.19
2022-07-20 12:40:34;4.20;70;21.20;0;2.19
2022-07-20 12:45:32;4.20;70;20.60;0;0.00
2022-07-20 12:50:34;4.21;70;20.80;0;1.20
2022-07-20 12:55:31;4.21;71;21.10;0;1.70
2022-07-20 13:00:34;4.20;69;20.90;0;1.40
2022-07-20 13:05:31;4.21;70;20.70;0;1.40
2022-07-20 13:10:33;4.21;70;21.00;0;0.00
2022-07-20 13:15:31;4.21;70;20.80;0;2.19
2022-07-20 13:20:33;4.21;70;20.90;0;2.29
2022-07-20 13:25:35;4.21;69;20.90;0;2.09
2022-07-20 13:30:33;4.21;70;21.10;0;1.30
2022-07-20 13:35:35;4.21;68;21.30;0;1.30
2022-07-20 13:40:32;4.21;69;21.70;0;1.40
2022-07-20 13:45:34;4.21;67;21.90;0;2.49
2022-07-20 13:50:32;4.21;67;22.00;0;2.69
2022-07-20 13:55:34;4.21;68;21.80;0;2.00
2022-07-20 14:00:32;4.21;68;21.60;0;1.40
2022-07-20 14:05:34;4.21;68;21.60;0;1.50
2022-07-20 14:10:32;4.21;68;21.50;0;1.70
2022-07-20 14:15:34;4.21;69;21.80;0;0.00
2022-07-20 14:20:32;4.21;68;22.00;0;1.40
2022-07-20 14:25:34;4.21;69;21.70;0;2.19
2022-07-20 14:30:32;4.21;69;22.20;0;1.20
2022-07-20 14:35:34;4.21;68;22.10;0;1.30
2022-07-20 14:40:31;4.21;69;22.30;0;1.20
2022-07-20 14:45:34;4.21;68;22.10;0;1.10
2022-07-20 14:50:31;4.21;69;22.30;0;0.00
2022-07-20 14:55:34;4.21;68;22.70;0;0.00
2022-07-20 15:00:32;4.21;67;23.00;0;2.00
2022-07-20 15:05:34;4.22;67;22.80;0;0.00
2022-07-20 15:10:32;4.21;68;22.90;0;1.20
2022-07-20 15:15:34;4.21;68;22.70;0;2.09
2022-07-20 15:20:32;4.22;67;23.00;0;2.19
2022-07-20 15:25:34;4.21;67;23.20;0;1.80
2022-07-20 15:30:32;4.21;69;22.90;0;0.00
2022-07-20 15:35:34;4.21;68;22.90;0;1.30
2022-07-20 15:40:32;4.21;67;23.20;0;1.40
2022-07-20 15:45:35;4.22;67;23.20;0;1.10
2022-07-20 15:50:33;4.22;67;23.20;0;0.00
2022-07-20 15:55:35;4.22;69;22.70;0;2.09
2022-07-20 16:00:33;4.22;69;23.10;0;0.00
2022-07-20 16:05:35;4.22;69;22.80;0;2.99
2022-07-20 16:10:33;4.22;70;22.50;0;0.00
2022-07-20 16:15:35;4.22;70;22.70;0;1.40
2022-07-20 16:20:33;4.22;70;22.60;0;1.80
2022-07-20 16:25:35;4.22;71;22.20;0;2.09
2022-07-20 16:30:33;4.22;71;22.20;0;2.59
2022-07-20 16:35:35;4.22;72;22.20;0;1.70
2022-07-20 16:40:33;4.22;73;21.90;0;1.70
2022-07-20 16:45:35;4.22;72;21.80;0;2.89
2022-07-20 16:50:32;4.22;73;21.70;0;2.09
2022-07-20 16:55:35;4.22;73;21.70;0;1.60
2022-07-20 17:00:32;4.22;73;21.60;0;1.80
2022-07-20 17:05:34;4.22;74;21.40;0;1.20
2022-07-20 17:10:32;4.22;74;21.30;0;1.30
2022-07-20 17:15:34;4.22;75;21.10;0;0.00
2022-07-20 17:20:31;4.22;75;21.00;0;1.10
2022-07-20 17:25:33;4.22;75;21.10;0;1.30
2022-07-20 17:30:31;4.22;76;20.80;0;0.00
2022-07-20 17:35:33;4.22;76;20.50;0;0.00
2022-07-20 17:40:35;4.22;76;20.40;0;0.00
2022-07-20 17:45:32;4.22;77;20.00;0;0.00
2022-07-20 17:50:34;4.21;77;19.70;0;0.00
2022-07-20 17:55:31;4.21;77;19.40;0;0.00
2022-07-20 18:00:33;4.21;77;19.10;0;0.00
2022-07-20 18:05:35;4.21;78;18.90;0;0.00
2022-07-20 18:10:32;4.21;78;18.70;0;0.00
2022-07-20 18:15:33;4.21;78;18.70;0;0.00
2022-07-20 18:20:31;4.21;78;18.30;0;0.00
2022-07-20 18:25:32;4.21;78;18.10;0;0.00
2022-07-20 18:30:34;4.21;79;17.10;0;0.00
2022-07-20 18:35:31;4.20;78;17.20;0;0.00
2022-07-20 18:40:32;4.20;78;17.50;0;0.00
2022-07-20 18:45:33;4.20;77;17.50;0;0.00
2022-07-20 18:50:30;4.20;78;17.10;0;0.00
2022-07-20 18:55:32;4.20;78;16.60;0;0.00
2022-07-20 19:00:33;4.20;77;16.50;0;0.00
2022-07-20 19:05:34;4.20;77;16.10;0;0.00
2022-07-20 19:10:31;4.20;75;16.00;0;0.00
2022-07-20 19:15:32;4.20;75;15.80;0;0.00
2022-07-20 19:20:34;4.20;74;16.10;0;0.00
2022-07-20 19:25:30;4.20;74;15.70;0;0.00
2022-07-20 19:30:31;4.20;74;15.20;0;0.00
2022-07-20 19:35:33;4.19;73;15.00;0;0.00
2022-07-20 19:40:34;4.19;72;14.70;0;0.00
2022-07-20 19:45:30;4.19;68;14.90;0;0.00
2022-07-20 19:50:31;4.19;67;14.70;0;0.00
2022-07-20 19:55:32;4.19;65;14.70;0;0.00
2022-07-20 20:00:34;4.19;63;14.60;0;0.00
2022-07-20 20:05:30;4.19;64;14.10;0;0.00
2022-07-20 20:10:31;4.19;57;14.40;0;0.00
2022-07-20 20:15:32;4.19;59;14.60;0;0.00
2022-07-20 20:20:33;4.19;63;14.40;0;0.00
2022-07-20 20:25:30;4.19;62;14.30;0;0.00
2022-07-20 20:30:31;4.19;61;14.30;0;0.00
2022-07-20 20:35:32;4.19;64;13.60;0;0.00
2022-07-20 20:40:33;4.19;61;13.10;0;0.00
2022-07-20 20:45:33;4.19;60;12.80;0;0.00
2022-07-20 20:50:30;4.19;59;12.30;0;0.00
2022-07-20 20:55:31;4.19;57;12.20;0;0.00
2022-07-20 21:00:32;4.19;43;13.00;0;0.00
2022-07-20 21:05:33;4.19;46;13.00;0;0.00
2022-07-20 21:10:33;4.19;45;12.90;0;0.00
2022-07-20 21:15:30;4.19;46;12.70;0;0.00
2022-07-20 21:20:31;4.19;44;12.60;0;0.00
2022-07-20 21:25:31;4.18;41;12.50;0;0.00
2022-07-20 21:30:32;4.19;36;12.80;0;0.00
2022-07-20 21:35:33;4.19;26;13.30;0;0.00
2022-07-20 21:40:29;4.19;22;13.60;0;0.00
2022-07-20 21:45:30;4.19;28;13.60;0;0.00
2022-07-20 21:50:31;4.19;35;12.80;0;0.00
2022-07-20 21:55:32;4.18;31;12.70;0;0.00
2022-07-20 22:00:33;4.19;27;12.90;0;0.00
2022-07-20 22:05:34;4.19;13;13.50;0;0.00
2022-07-20 22:10:30;4.19;19;13.90;0;0.00
2022-07-20 22:15:31;4.18;22;13.90;0;0.00
2022-07-20 22:20:32;4.19;25;13.90;0;0.00
2022-07-20 22:25:33;4.18;27;13.80;0;0.00
2022-07-20 22:30:34;4.18;27;13.70;0;0.00
2022-07-20 22:35:30;4.19;23;13.90;0;0.00
2022-07-20 22:40:31;4.19;29;13.90;0;0.00
2022-07-20 22:45:32;4.19;32;13.40;0;0.00
2022-07-20 22:50:33;4.19;26;13.30;0;0.00
2022-07-20 22:55:34;4.19;20;13.50;0;0.00
2022-07-20 23:00:30;4.19;24;13.40;0;0.00
2022-07-20 23:05:31;4.18;21;13.30;0;0.00
2022-07-20 23:10:32;4.19;28;12.90;0;0.00
2022-07-20 23:15:33;4.19;22;12.60;0;0.00
2022-07-20 23:20:34;4.18;8;13.00;0;0.00
2022-07-20 23:25:30;4.19;4;13.40;0;0.00
2022-07-20 23:30:31;4.19;7;13.40;0;0.00
2022-07-20 23:35:32;4.18;8;13.70;0;0.00
2022-07-20 23:40:33;4.19;9;13.70;0;0.00
2022-07-20 23:45:34;4.19;13;13.30;0;0.00
2022-07-20 23:50:30;4.18;10;13.40;0;0.00
2022-07-20 23:55:31;4.19;13;13.00;0;0.00
