2022-02-14 00:00:30;4.13;99;14.10;0;0.00
2022-02-14 00:05:32;4.13;99;13.80;0;0.00
2022-02-14 00:10:33;4.13;99;13.90;0;0.00
2022-02-14 00:15:34;4.13;99;14.00;0;0.00
2022-02-14 00:20:31;4.12;99;13.80;0;0.00
2022-02-14 00:25:32;4.12;99;13.60;0;0.00
2022-02-14 00:30:33;4.12;99;13.20;0;0.00
2022-02-14 00:35:30;4.12;99;13.10;0;0.00
2022-02-14 00:40:31;4.13;99;12.70;0;0.00
2022-02-14 00:45:32;4.12;99;12.60;0;0.00
2022-02-14 00:50:33;4.12;99;12.10;0;0.00
2022-02-14 00:55:30;4.12;99;12.10;0;0.00
2022-02-14 01:00:31;4.12;99;12.40;0;0.00
2022-02-14 01:05:32;4.12;99;12.40;0;0.00
2022-02-14 01:10:33;4.12;99;12.40;0;0.00
2022-02-14 01:15:30;4.12;99;12.30;0;0.00
2022-02-14 01:20:31;4.12;99;12.60;0;0.00
2022-02-14 01:25:32;4.12;99;12.40;0;0.00
2022-02-14 01:30:33;4.12;99;12.30;0;0.00
2022-02-14 01:35:34;4.12;99;12.20;0;0.00
2022-02-14 01:40:31;4.12;99;12.00;0;0.00
2022-02-14 01:45:32;4.12;99;12.10;0;0.00
2022-02-14 01:50:33;4.12;99;12.20;0;0.00
2022-02-14 01:55:34;4.12;99;12.30;0;0.00
2022-02-14 02:00:30;4.12;99;12.40;0;0.00
2022-02-14 02:05:31;4.12;99;12.60;0;0.00
2022-02-14 02:10:32;4.12;99;12.50;0;0.00
2022-02-14 02:15:33;4.11;99;12.40;0;0.00
2022-02-14 02:20:30;4.11;99;12.30;0;0.00
2022-02-14 02:25:31;4.11;99;12.10;0;0.00
2022-02-14 02:30:32;4.11;99;12.50;0;0.00
2022-02-14 02:35:33;4.11;99;12.60;0;0.00
2022-02-14 02:40:34;4.11;99;12.70;0;0.00
2022-02-14 02:45:31;4.11;99;12.80;0;0.00
2022-02-14 02:50:32;4.11;99;12.30;0;0.00
2022-02-14 02:55:33;4.11;99;11.80;0;0.00
2022-02-14 03:00:34;4.11;99;12.00;0;0.00
2022-02-14 03:05:30;4.12;99;12.10;0;0.00
2022-02-14 03:10:31;4.12;99;11.70;0;0.00
2022-02-14 03:15:32;4.12;99;11.30;0;0.00
2022-02-14 03:20:33;4.11;99;11.10;0;0.00
2022-02-14 03:25:30;4.11;99;10.90;0;0.00
2022-02-14 03:30:31;4.11;99;11.10;0;0.00
2022-02-14 03:35:32;4.11;99;11.40;0;0.00
2022-02-14 03:40:33;4.11;99;11.70;0;0.00
2022-02-14 03:45:34;4.11;99;11.80;0;0.00
2022-02-14 03:50:30;4.11;99;11.50;0;0.00
2022-02-14 03:55:31;4.11;99;11.20;0;0.00
2022-02-14 04:00:32;4.11;99;11.00;0;0.00
2022-02-14 04:05:33;4.11;99;10.90;0;0.00
2022-02-14 04:10:34;4.11;99;11.00;0;0.00
2022-02-14 04:15:30;4.10;99;11.00;0;0.00
2022-02-14 04:20:31;4.11;99;11.20;0;0.00
2022-02-14 04:25:32;4.11;99;11.20;0;0.00
2022-02-14 04:30:33;4.11;99;11.10;0;0.00
2022-02-14 04:35:34;4.11;99;11.00;0;0.00
2022-02-14 04:40:30;4.11;99;11.10;0;0.00
2022-02-14 04:45:31;4.11;99;11.40;0;0.00
2022-02-14 04:50:32;4.11;99;11.80;0;0.00
2022-02-14 04:55:33;4.11;99;11.90;0;0.00
2022-02-14 05:00:30;4.10;99;11.50;0;0.00
2022-02-14 05:05:31;4.10;99;11.10;0;0.00
2022-02-14 05:10:32;4.10;99;11.20;0;0.00
2022-02-14 05:15:33;4.11;99;11.60;0;0.00
2022-02-14 05:20:33;4.11;99;11.80;0;0.00
2022-02-14 05:25:30;4.11;99;12.20;0;0.00
2022-02-14 05:30:31;4.11;99;12.10;0;0.00
2022-02-14 05:35:32;4.11;99;12.20;0;0.00
2022-02-14 05:40:33;4.11;99;12.20;0;0.00
2022-02-14 05:45:29;4.11;99;12.50;0;0.00
2022-02-14 05:50:30;4.11;99;12.70;0;0.00
2022-02-14 05:55:31;4.11;99;12.80;0;0.00
2022-02-14 06:00:32;4.11;99;12.50;0;0.00
2022-02-14 06:05:33;4.11;99;11.90;0;0.00
2022-02-14 06:10:30;4.11;99;11.70;0;0.00
2022-02-14 06:15:31;4.11;99;11.20;0;0.00
2022-02-14 06:20:32;4.11;99;11.10;0;0.00
2022-02-14 06:25:33;4.11;99;11.00;0;0.00
2022-02-14 06:30:29;4.11;99;11.20;0;0.00
2022-02-14 06:35:30;4.11;99;11.60;0;0.00
2022-02-14 06:40:31;4.11;99;11.70;0;0.00
2022-02-14 06:45:32;4.11;99;12.40;0;0.00
2022-02-14 06:50:29;4.11;99;12.30;0;0.00
2022-02-14 06:55:34;4.10;99;12.00;0;0.00
2022-02-14 07:00:31;4.11;99;11.60;0;0.00
2022-02-14 07:05:31;4.11;99;11.20;0;0.00
2022-02-14 07:10:33;4.11;99;11.20;0;0.00
2022-02-14 07:15:34;4.11;99;11.90;0;0.00
2022-02-14 07:20:30;4.11;99;13.00;0;0.00
2022-02-14 07:25:31;4.11;99;14.30;0;0.00
2022-02-14 07:30:32;4.11;99;15.30;0;0.00
2022-02-14 07:35:29;4.11;99;15.50;0;0.00
2022-02-14 07:40:34;4.11;99;15.80;0;0.00
2022-02-14 07:45:31;4.11;99;16.20;0;0.00
2022-02-14 07:50:32;4.11;99;17.30;0;0.00
2022-02-14 07:55:29;4.11;99;17.70;0;0.00
2022-02-14 08:00:31;4.12;99;18.10;0;0.00
2022-02-14 08:05:32;4.12;99;19.00;0;0.00
2022-02-14 08:10:34;4.12;99;18.90;0;0.00
2022-02-14 08:15:31;4.12;99;18.60;0;0.00
2022-02-14 08:20:33;4.12;99;17.90;0;1.20
2022-02-14 08:25:35;4.12;99;18.00;0;0.00
2022-02-14 08:30:32;4.13;99;18.30;0;0.00
2022-02-14 08:35:34;4.13;99;18.80;0;1.20
2022-02-14 08:40:31;4.13;99;19.40;0;0.00
2022-02-14 08:45:33;4.13;99;19.90;0;0.00
2022-02-14 08:50:31;4.14;27;21.00;0;1.30
2022-02-14 08:55:33;4.14;29;21.20;0;0.00
2022-02-14 09:00:30;4.14;50;21.60;0;1.90
2022-02-14 09:05:33;4.14;50;22.20;0;1.60
2022-02-14 09:10:35;4.15;49;22.50;0;1.50
2022-02-14 09:15:33;4.15;49;22.50;0;1.30
2022-02-14 09:20:31;4.15;49;22.70;0;1.90
2022-02-14 09:25:33;4.15;48;23.20;0;1.30
2022-02-14 09:30:31;4.16;50;23.70;0;0.00
2022-02-14 09:35:34;4.16;56;23.80;0;2.19
2022-02-14 09:40:32;4.16;56;24.10;0;1.10
2022-02-14 09:45:35;4.16;57;25.00;0;2.29
2022-02-14 09:50:33;4.16;59;24.70;0;1.30
2022-02-14 09:55:36;4.16;59;24.60;0;1.40
2022-02-14 10:00:34;4.16;59;25.00;0;2.69
2022-02-14 10:05:32;4.16;59;25.60;0;0.00
2022-02-14 10:10:35;4.16;60;25.90;0;2.29
2022-02-14 10:15:34;4.17;61;25.50;0;1.70
2022-02-14 10:20:32;4.16;61;26.30;0;2.09
2022-02-14 10:25:31;4.16;60;26.50;0;1.30
2022-02-14 10:30:34;4.17;61;26.10;0;1.20
2022-02-14 10:35:32;4.17;61;26.10;0;1.60
2022-02-14 10:40:36;4.17;61;26.50;0;1.20
2022-02-14 10:45:34;4.17;60;27.40;0;2.49
2022-02-14 10:50:33;4.17;62;27.00;0;1.70
2022-02-14 10:55:32;4.17;59;26.90;0;0.00
2022-02-14 11:00:35;4.17;60;27.30;0;2.59
2022-02-14 11:05:34;4.17;60;28.10;0;1.70
2022-02-14 11:10:33;4.17;59;27.80;0;2.00
2022-02-14 11:15:37;4.17;59;27.80;0;2.59
2022-02-14 11:20:35;4.17;58;28.20;0;1.20
2022-02-14 11:25:34;4.17;59;28.50;0;2.99
2022-02-14 11:30:34;4.17;59;28.30;0;0.00
2022-02-14 11:35:33;4.18;60;28.40;0;1.60
2022-02-14 11:40:36;4.18;58;28.40;0;1.50
2022-02-14 11:45:35;4.18;56;28.70;0;0.00
2022-02-14 11:50:34;4.18;59;28.70;0;2.19
2022-02-14 11:55:34;4.18;58;29.00;0;1.30
2022-02-14 12:00:33;4.18;60;29.40;0;1.10
2022-02-14 12:05:36;4.18;56;29.60;0;1.40
2022-02-14 12:10:36;4.18;57;29.60;0;0.00
2022-02-14 12:15:35;4.18;55;29.40;0;0.00
2022-02-14 12:20:34;4.18;55;30.00;0;1.20
2022-02-14 12:25:34;4.18;58;29.90;0;1.40
2022-02-14 12:30:33;4.18;55;30.20;0;1.40
2022-02-14 12:35:32;4.18;55;29.90;0;0.00
2022-02-14 12:40:36;4.18;57;30.00;0;1.80
2022-02-14 12:45:36;4.18;55;30.70;0;1.20
2022-02-14 12:50:35;4.18;56;30.60;0;2.00
2022-02-14 12:55:35;4.18;53;30.70;0;0.00
2022-02-14 13:00:34;4.19;54;30.60;0;1.40
2022-02-14 13:05:34;4.19;56;30.00;0;1.50
2022-02-14 13:10:33;4.19;55;31.30;0;1.80
2022-02-14 13:15:33;4.19;55;30.90;0;1.20
2022-02-14 13:20:32;4.19;54;31.70;0;1.60
2022-02-14 13:25:36;4.19;56;31.00;0;1.50
2022-02-14 13:30:36;4.19;55;31.40;0;1.60
2022-02-14 13:35:36;4.19;55;30.90;0;2.19
2022-02-14 13:40:35;4.19;54;31.90;0;1.70
2022-02-14 13:45:35;4.19;54;31.70;0;0.00
2022-02-14 13:50:34;4.19;53;31.60;0;0.00
2022-02-14 13:55:34;4.19;53;32.00;0;1.60
2022-02-14 14:00:34;4.19;54;31.90;0;1.80
2022-02-14 14:05:33;4.19;52;32.30;0;0.00
2022-02-14 14:10:33;4.19;53;31.70;0;0.00
2022-02-14 14:15:33;4.19;54;32.60;0;2.09
2022-02-14 14:20:37;4.19;54;32.40;0;1.70
2022-02-14 14:25:32;4.19;53;31.90;0;1.60
2022-02-14 14:30:37;4.19;53;32.30;0;0.00
2022-02-14 14:35:36;4.19;53;32.10;0;0.00
2022-02-14 14:40:36;4.19;54;32.20;0;2.49
2022-02-14 14:45:31;4.19;52;32.10;0;0.00
2022-02-14 14:50:36;4.19;51;32.70;0;1.40
2022-02-14 14:55:36;4.19;52;32.40;0;0.00
2022-02-14 15:00:35;4.19;54;33.00;0;1.60
2022-02-14 15:05:35;4.20;53;32.60;0;1.90
2022-02-14 15:10:35;4.19;53;33.40;0;0.00
2022-02-14 15:15:35;4.20;52;33.70;0;0.00
2022-02-14 15:20:35;4.20;53;33.00;0;1.10
2022-02-14 15:25:35;4.19;55;32.60;0;1.30
2022-02-14 15:30:35;4.20;52;33.10;0;1.10
2022-02-14 15:35:35;4.20;52;33.00;0;0.00
2022-02-14 15:40:34;4.20;51;34.00;0;0.00
2022-02-14 15:45:34;4.20;52;33.40;0;0.00
2022-02-14 15:50:34;4.20;52;33.30;0;1.60
2022-02-14 15:55:34;4.20;54;33.50;0;1.60
2022-02-14 16:00:34;4.20;53;32.80;0;2.19
2022-02-14 16:05:34;4.20;53;32.90;0;0.00
2022-02-14 16:10:34;4.20;53;32.90;0;0.00
2022-02-14 16:15:33;4.20;53;33.10;0;0.00
2022-02-14 16:20:33;4.20;51;33.70;0;0.00
2022-02-14 16:25:33;4.20;52;33.90;0;1.30
2022-02-14 16:30:33;4.20;53;33.50;0;0.00
2022-02-14 16:35:37;4.20;54;32.90;0;1.10
2022-02-14 16:40:33;4.20;53;33.10;0;0.00
2022-02-14 16:45:37;4.20;53;33.80;0;0.00
2022-02-14 16:50:37;4.20;53;32.80;0;1.80
2022-02-14 16:55:32;4.20;54;32.90;0;1.10
2022-02-14 17:00:36;4.20;52;33.40;0;0.00
2022-02-14 17:05:36;4.20;53;33.10;0;1.30
2022-02-14 17:10:36;4.20;53;33.50;0;1.60
2022-02-14 17:15:35;4.20;52;33.30;0;0.00
2022-02-14 17:20:35;4.20;54;33.10;0;0.00
2022-02-14 17:25:35;4.20;53;33.20;0;0.00
2022-02-14 17:30:34;4.20;51;33.50;0;0.00
2022-02-14 17:35:34;4.20;53;32.80;0;0.00
2022-02-14 17:40:34;4.20;52;32.90;0;0.00
2022-02-14 17:45:33;4.20;52;33.80;0;1.30
2022-02-14 17:50:33;4.20;52;32.70;0;0.00
2022-02-14 17:55:32;4.20;53;32.80;0;0.00
2022-02-14 18:00:37;4.20;53;32.90;0;0.00
2022-02-14 18:05:36;4.20;55;32.60;0;2.49
2022-02-14 18:10:36;4.20;55;32.10;0;1.30
2022-02-14 18:15:35;4.20;53;32.20;0;0.00
2022-02-14 18:20:35;4.20;54;32.50;0;0.00
2022-02-14 18:25:34;4.20;53;32.50;0;0.00
2022-02-14 18:30:34;4.20;52;33.00;0;0.00
2022-02-14 18:35:33;4.20;55;32.40;0;0.00
2022-02-14 18:40:32;4.20;56;31.60;0;1.40
2022-02-14 18:45:36;4.20;59;31.10;0;0.00
2022-02-14 18:50:36;4.20;59;31.10;0;0.00
2022-02-14 18:55:35;4.20;60;31.10;0;0.00
2022-02-14 19:00:34;4.20;59;31.20;0;0.00
2022-02-14 19:05:34;4.20;61;31.10;0;0.00
2022-02-14 19:10:33;4.19;61;30.80;0;0.00
2022-02-14 19:15:36;4.20;61;31.10;0;0.00
2022-02-14 19:20:35;4.20;62;30.60;0;0.00
2022-02-14 19:25:35;4.19;62;29.80;0;0.00
2022-02-14 19:30:34;4.19;60;29.10;0;0.00
2022-02-14 19:35:33;4.19;61;28.60;0;0.00
2022-02-14 19:40:36;4.19;60;28.30;0;0.00
2022-02-14 19:45:35;4.19;56;27.50;0;0.00
2022-02-14 19:50:33;4.19;57;27.20;0;0.00
2022-02-14 19:55:32;4.19;57;26.90;0;0.00
2022-02-14 20:00:31;4.18;52;26.50;0;0.00
2022-02-14 20:05:34;4.18;52;26.10;0;0.00
2022-02-14 20:10:32;4.18;50;25.80;0;0.00
2022-02-14 20:15:35;4.18;37;25.20;0;0.00
2022-02-14 20:20:33;4.18;25;24.70;0;0.00
2022-02-14 20:25:32;4.18;40;24.90;0;0.00
2022-02-14 20:30:35;4.18;44;25.00;0;0.00
2022-02-14 20:35:33;4.18;50;25.00;0;0.00
2022-02-14 20:40:35;4.18;31;24.30;0;0.00
2022-02-14 20:45:33;4.18;14;23.80;0;0.00
2022-02-14 20:50:31;4.17;8;23.40;0;0.00
2022-02-14 20:55:34;4.17;22;23.40;0;0.00
2022-02-14 21:00:32;4.17;23;23.50;0;0.00
2022-02-14 21:05:34;4.17;30;23.30;0;0.00
2022-02-14 21:10:32;4.17;32;23.40;0;0.00
2022-02-14 21:15:35;4.17;37;23.60;0;0.00
2022-02-14 21:20:33;4.17;33;23.30;0;0.00
2022-02-14 21:25:35;4.17;99;22.00;0;0.00
2022-02-14 21:30:33;4.17;99;21.00;0;0.00
2022-02-14 21:35:31;4.17;99;20.80;0;0.00
2022-02-14 21:40:33;4.16;99;20.60;0;0.00
2022-02-14 21:45:35;4.16;99;21.10;0;0.00
2022-02-14 21:50:33;4.16;99;22.20;0;0.00
2022-02-14 21:55:35;4.16;99;21.90;0;0.00
2022-02-14 22:00:32;4.16;99;21.20;0;0.00
2022-02-14 22:05:30;4.16;99;21.40;0;0.00
2022-02-14 22:10:32;4.16;99;21.40;0;0.00
2022-02-14 22:15:34;4.16;99;21.90;0;0.00
2022-02-14 22:20:32;4.16;99;21.60;0;0.00
2022-02-14 22:25:34;4.16;99;20.70;0;0.00
2022-02-14 22:30:32;4.16;99;20.30;0;0.00
2022-02-14 22:35:34;4.16;99;20.60;0;0.00
2022-02-14 22:40:31;4.16;99;20.80;0;0.00
2022-02-14 22:45:34;4.16;99;20.60;0;0.00
2022-02-14 22:50:31;4.16;99;20.70;0;0.00
2022-02-14 22:55:33;4.16;99;20.80;0;0.00
2022-02-14 23:00:31;4.15;99;21.10;0;0.00
2022-02-14 23:05:33;4.15;13;21.30;0;0.00
2022-02-14 23:10:30;4.15;21;21.60;0;0.00
2022-02-14 23:15:32;4.15;99;20.70;0;0.00
2022-02-14 23:20:34;4.15;99;20.20;0;0.00
2022-02-14 23:25:32;4.15;99;20.10;0;1.10
2022-02-14 23:30:34;4.15;99;19.50;0;0.00
2022-02-14 23:35:31;4.15;99;19.20;0;0.00
2022-02-14 23:40:33;4.15;99;18.80;0;0.00
2022-02-14 23:45:31;4.15;99;18.90;0;0.00
2022-02-14 23:50:33;4.15;99;19.30;0;0.00
2022-02-14 23:55:35;4.15;99;19.10;0;0.00
