2022-01-28 00:00:33;4.20;69;18.40;146;0.00
2022-01-28 00:05:30;4.20;69;18.30;0;0.00
2022-01-28 00:10:32;4.20;69;18.30;0;0.00
2022-01-28 00:15:34;4.20;70;18.30;0;0.00
2022-01-28 00:20:31;4.20;70;18.20;0;0.00
2022-01-28 00:25:33;4.20;70;18.10;0;0.00
2022-01-28 00:30:30;4.20;69;18.00;0;0.00
2022-01-28 00:35:32;4.20;67;17.70;0;0.00
2022-01-28 00:40:33;4.20;65;17.50;0;0.00
2022-01-28 00:45:31;4.20;64;17.40;0;0.00
2022-01-28 00:50:32;4.20;63;17.40;0;0.00
2022-01-28 00:55:30;4.20;63;17.30;0;0.00
2022-01-28 01:00:31;4.20;60;17.10;0;0.00
2022-01-28 01:05:33;4.20;58;17.10;0;0.00
2022-01-28 01:10:30;4.19;56;17.00;0;0.00
2022-01-28 01:15:32;4.19;53;16.80;0;0.00
2022-01-28 01:20:33;4.19;50;16.70;0;0.00
2022-01-28 01:25:31;4.19;46;16.60;0;0.00
2022-01-28 01:30:32;4.19;40;16.40;0;0.00
2022-01-28 01:35:29;4.19;34;16.30;0;0.00
2022-01-28 01:40:31;4.19;27;16.20;0;0.00
2022-01-28 01:45:32;4.20;17;16.00;0;0.00
2022-01-28 01:50:29;4.19;6;15.80;0;0.00
2022-01-28 01:55:31;4.19;6;16.10;0;0.00
2022-01-28 02:00:33;4.19;9;16.00;0;0.00
2022-01-28 02:05:30;4.19;99;15.80;0;0.00
2022-01-28 02:10:31;4.19;99;15.80;0;0.00
2022-01-28 02:15:33;4.19;99;16.00;0;0.00
2022-01-28 02:20:30;4.19;3;15.90;0;0.00
2022-01-28 02:25:31;4.19;2;15.90;0;0.00
2022-01-28 02:30:33;4.19;5;15.80;0;0.00
2022-01-28 02:35:30;4.19;1;15.70;0;0.00
2022-01-28 02:40:31;4.19;99;15.50;0;0.00
2022-01-28 02:45:33;4.19;99;15.60;0;0.00
2022-01-28 02:50:30;4.19;99;15.50;0;0.00
2022-01-28 02:55:31;4.19;99;15.60;0;0.00
2022-01-28 03:00:33;4.19;99;15.50;0;0.00
2022-01-28 03:05:30;4.19;99;15.40;0;0.00
2022-01-28 03:10:31;4.19;99;15.40;0;0.00
2022-01-28 03:15:33;4.19;99;15.40;0;0.00
2022-01-28 03:20:30;4.19;99;15.50;0;0.00
2022-01-28 03:25:31;4.19;99;15.50;0;0.00
2022-01-28 03:30:33;4.19;99;15.40;0;0.00
2022-01-28 03:35:30;4.19;99;15.50;0;0.00
2022-01-28 03:40:31;4.19;99;15.40;0;0.00
2022-01-28 03:45:33;4.19;99;15.40;0;0.00
2022-01-28 03:50:30;4.19;99;15.40;0;0.00
2022-01-28 03:55:31;4.19;99;15.40;0;0.00
2022-01-28 04:00:33;4.19;99;15.40;0;0.00
2022-01-28 04:05:29;4.19;99;15.40;0;0.00
2022-01-28 04:10:31;4.19;99;15.30;0;0.00
2022-01-28 04:15:32;4.19;99;15.40;0;0.00
2022-01-28 04:20:29;4.18;99;15.30;0;0.00
2022-01-28 04:25:31;4.18;99;15.20;0;0.00
2022-01-28 04:30:32;4.19;99;15.20;0;0.00
2022-01-28 04:35:34;4.18;99;15.20;0;0.00
2022-01-28 04:40:30;4.19;99;15.20;0;0.00
2022-01-28 04:45:32;4.19;99;15.10;0;0.00
2022-01-28 04:50:33;4.18;99;15.10;0;0.00
2022-01-28 04:55:30;4.18;99;15.00;0;0.00
2022-01-28 05:00:31;4.18;99;14.90;0;0.00
2022-01-28 05:05:33;4.18;99;14.70;0;0.00
2022-01-28 05:10:30;4.19;99;14.60;0;0.00
2022-01-28 05:15:31;4.19;99;14.50;0;0.00
2022-01-28 05:20:32;4.19;99;14.50;0;0.00
2022-01-28 05:25:29;4.18;99;14.30;0;0.00
2022-01-28 05:30:31;4.19;99;14.30;0;0.00
2022-01-28 05:35:32;4.19;99;14.30;0;0.00
2022-01-28 05:40:33;4.18;99;14.40;0;0.00
2022-01-28 05:45:30;4.18;99;14.40;0;0.00
2022-01-28 05:50:31;4.18;99;14.30;0;0.00
2022-01-28 05:55:33;4.19;99;14.40;0;0.00
2022-01-28 06:00:29;4.18;99;14.40;0;0.00
2022-01-28 06:05:31;4.18;99;14.30;0;0.00
2022-01-28 06:10:32;4.18;99;14.20;0;0.00
2022-01-28 06:15:33;4.18;99;14.10;0;0.00
2022-01-28 06:20:30;4.18;99;14.00;0;0.00
2022-01-28 06:25:31;4.18;99;14.00;0;0.00
2022-01-28 06:30:33;4.18;99;14.00;0;0.00
2022-01-28 06:35:29;4.17;99;14.00;0;0.00
2022-01-28 06:40:31;4.18;99;13.90;0;0.00
2022-01-28 06:45:32;4.18;99;13.90;0;0.00
2022-01-28 06:50:33;4.18;99;14.00;0;0.00
2022-01-28 06:55:30;4.18;99;14.10;0;0.00
2022-01-28 07:00:31;4.17;99;14.20;0;0.00
2022-01-28 07:05:33;4.18;99;14.30;0;0.00
2022-01-28 07:10:29;4.18;99;14.50;0;0.00
2022-01-28 07:15:31;4.18;99;14.80;0;0.00
2022-01-28 07:20:32;4.18;99;15.20;0;0.00
2022-01-28 07:25:33;4.18;99;16.10;0;0.00
2022-01-28 07:30:30;4.18;99;17.10;0;0.00
2022-01-28 07:35:32;4.18;52;17.70;0;0.00
2022-01-28 07:40:33;4.18;64;18.00;0;0.00
2022-01-28 07:45:30;4.19;68;18.60;0;0.00
2022-01-28 07:50:32;4.19;69;18.00;0;0.00
2022-01-28 07:55:33;4.19;70;18.40;0;0.00
2022-01-28 08:00:30;4.19;71;18.50;0;0.00
2022-01-28 08:05:32;4.19;72;18.90;0;0.00
2022-01-28 08:10:29;4.19;72;18.90;0;0.00
2022-01-28 08:15:31;4.19;72;19.20;0;0.00
2022-01-28 08:20:33;4.19;73;18.80;0;1.10
2022-01-28 08:25:31;4.19;74;19.40;0;1.50
2022-01-28 08:30:32;4.19;74;19.60;0;0.00
2022-01-28 08:35:30;4.19;75;19.90;0;1.30
2022-01-28 08:40:32;4.20;75;19.90;0;1.10
2022-01-28 08:45:34;4.20;76;20.30;0;0.00
2022-01-28 08:50:32;4.20;76;20.60;0;0.00
2022-01-28 08:55:34;4.20;76;20.90;0;1.20
2022-01-28 09:00:31;4.20;77;21.00;0;0.00
2022-01-28 09:05:34;4.20;76;21.50;0;0.00
2022-01-28 09:10:31;4.20;77;21.10;0;0.00
2022-01-28 09:15:34;4.20;76;21.50;0;0.00
2022-01-28 09:20:31;4.20;77;21.90;0;1.10
2022-01-28 09:25:34;4.20;78;21.60;0;1.30
2022-01-28 09:30:32;4.20;77;22.00;0;1.60
2022-01-28 09:35:34;4.20;76;22.40;0;1.20
2022-01-28 09:40:32;4.20;75;22.60;0;0.00
2022-01-28 09:45:34;4.21;77;22.70;0;1.50
2022-01-28 09:50:32;4.21;76;23.00;0;0.00
2022-01-28 09:55:34;4.20;76;23.40;0;1.40
2022-01-28 10:00:32;4.21;75;23.80;0;0.00
2022-01-28 10:05:35;4.21;74;23.60;0;0.00
2022-01-28 10:10:33;4.21;75;23.50;0;0.00
2022-01-28 10:15:35;4.21;75;24.20;0;0.00
2022-01-28 10:20:33;4.21;75;24.30;0;0.00
2022-01-28 10:25:31;4.21;75;24.40;0;0.00
2022-01-28 10:30:34;4.21;74;24.60;0;0.00
2022-01-28 10:35:32;4.21;74;24.90;0;0.00
2022-01-28 10:40:35;4.21;74;24.60;0;1.30
2022-01-28 10:45:33;4.21;73;24.10;0;1.10
2022-01-28 10:50:31;4.21;72;25.00;0;0.00
2022-01-28 10:55:34;4.21;75;24.50;0;0.00
2022-01-28 11:00:32;4.21;72;25.00;0;0.00
2022-01-28 11:05:35;4.21;73;24.90;0;0.00
2022-01-28 11:10:34;4.21;73;25.80;0;0.00
2022-01-28 11:15:32;4.21;71;25.00;0;1.10
2022-01-28 11:20:35;4.21;75;25.80;0;0.00
2022-01-28 11:25:34;4.21;70;25.60;0;0.00
2022-01-28 11:30:32;4.21;70;25.70;0;1.30
2022-01-28 11:35:35;4.22;72;25.70;0;2.09
2022-01-28 11:40:34;4.22;69;25.00;0;0.00
2022-01-28 11:45:32;4.21;72;24.70;0;0.00
2022-01-28 11:50:35;4.22;70;25.80;0;0.00
2022-01-28 11:55:34;4.22;70;26.40;0;0.00
2022-01-28 12:00:32;4.22;68;25.90;0;0.00
2022-01-28 12:05:35;4.22;73;25.40;0;0.00
2022-01-28 12:10:34;4.21;71;25.40;0;0.00
2022-01-28 12:15:33;4.22;71;25.70;0;0.00
2022-01-28 12:20:36;4.22;72;25.70;0;0.00
2022-01-28 12:25:34;4.22;72;25.70;0;0.00
2022-01-28 12:30:33;4.22;73;25.50;0;0.00
2022-01-28 12:35:32;4.22;74;26.50;0;0.00
2022-01-28 12:40:35;4.22;73;26.30;0;0.00
2022-01-28 12:45:34;4.22;69;27.00;0;0.00
2022-01-28 12:50:32;4.22;68;27.00;0;0.00
2022-01-28 12:55:36;4.22;67;26.70;0;0.00
2022-01-28 13:00:35;4.22;71;27.00;0;0.00
2022-01-28 13:05:33;4.22;69;26.10;0;0.00
2022-01-28 13:10:32;4.22;69;26.80;0;0.00
2022-01-28 13:15:36;4.22;68;27.80;0;0.00
2022-01-28 13:20:34;4.22;70;27.10;0;1.30
2022-01-28 13:25:33;4.22;71;27.40;0;0.00
2022-01-28 13:30:32;4.22;69;27.40;0;0.00
2022-01-28 13:35:35;4.22;66;27.80;0;0.00
2022-01-28 13:40:34;4.22;70;27.00;0;1.40
2022-01-28 13:45:33;4.22;72;26.40;0;1.50
2022-01-28 13:50:32;4.22;69;27.20;0;0.00
2022-01-28 13:55:35;4.22;69;27.50;0;0.00
2022-01-28 14:00:34;4.22;66;27.40;0;0.00
2022-01-28 14:05:33;4.22;67;27.00;0;0.00
2022-01-28 14:10:37;4.22;66;27.30;0;0.00
2022-01-28 14:15:35;4.23;65;28.30;0;0.00
2022-01-28 14:20:34;4.23;68;28.70;0;0.00
2022-01-28 14:25:33;4.22;68;29.00;0;0.00
2022-01-28 14:30:37;4.23;69;28.80;0;0.00
2022-01-28 14:35:36;4.23;69;28.50;0;0.00
2022-01-28 14:40:34;4.22;71;28.60;0;0.00
2022-01-28 14:45:33;4.22;67;28.60;0;0.00
2022-01-28 14:50:32;4.22;65;28.20;0;0.00
2022-01-28 14:55:36;4.23;68;27.80;0;0.00
2022-01-28 15:00:35;4.22;65;28.60;0;0.00
2022-01-28 15:05:34;4.22;65;28.10;0;1.70
2022-01-28 15:10:33;4.23;63;27.70;0;0.00
2022-01-28 15:15:37;4.23;68;27.40;0;0.00
2022-01-28 15:20:35;4.23;66;27.80;0;1.60
2022-01-28 15:25:34;4.23;67;28.60;0;0.00
2022-01-28 15:30:33;4.23;67;28.60;0;0.00
2022-01-28 15:35:32;4.23;66;28.70;0;0.00
2022-01-28 15:40:36;4.23;62;28.60;0;0.00
2022-01-28 15:45:35;4.23;63;29.30;0;0.00
2022-01-28 15:50:34;4.23;71;29.00;0;0.00
2022-01-28 15:55:33;4.23;65;28.20;0;0.00
2022-01-28 16:00:36;4.23;66;28.90;0;0.00
2022-01-28 16:05:35;4.23;64;28.50;0;0.00
2022-01-28 16:10:34;4.23;67;28.70;0;0.00
2022-01-28 16:15:33;4.23;64;29.00;0;1.70
2022-01-28 16:20:32;4.23;66;28.60;0;0.00
2022-01-28 16:25:36;4.23;65;28.80;0;0.00
2022-01-28 16:30:34;4.23;65;28.10;0;0.00
2022-01-28 16:35:33;4.23;66;29.30;0;0.00
2022-01-28 16:40:32;4.23;69;28.90;0;0.00
2022-01-28 16:45:36;4.23;65;28.90;0;0.00
2022-01-28 16:50:35;4.23;64;29.20;0;0.00
2022-01-28 16:55:34;4.23;64;29.10;0;0.00
2022-01-28 17:00:33;4.23;64;29.50;0;0.00
2022-01-28 17:05:36;4.23;61;30.00;0;1.10
2022-01-28 17:10:35;4.23;62;29.60;0;0.00
2022-01-28 17:15:34;4.23;63;30.10;0;0.00
2022-01-28 17:20:33;4.23;64;29.30;0;0.00
2022-01-28 17:25:36;4.23;64;29.40;0;0.00
2022-01-28 17:30:35;4.23;63;30.00;0;0.00
2022-01-28 17:35:34;4.23;67;28.40;0;0.00
2022-01-28 17:40:33;4.23;67;29.40;0;0.00
2022-01-28 17:45:32;4.23;67;29.40;0;0.00
2022-01-28 17:50:35;4.23;63;29.90;0;0.00
2022-01-28 17:55:34;4.23;64;29.90;0;0.00
2022-01-28 18:00:33;4.23;63;29.10;0;0.00
2022-01-28 18:05:32;4.23;63;29.00;0;0.00
2022-01-28 18:10:35;4.23;66;28.40;0;0.00
2022-01-28 18:15:34;4.23;65;29.10;0;0.00
2022-01-28 18:20:33;4.23;65;29.00;0;0.00
2022-01-28 18:25:36;4.23;66;29.00;0;0.00
2022-01-28 18:30:35;4.23;66;29.20;0;0.00
2022-01-28 18:35:34;4.23;65;28.70;0;0.00
2022-01-28 18:40:32;4.24;64;29.20;0;0.00
2022-01-28 18:45:36;4.24;67;28.80;0;0.00
2022-01-28 18:50:34;4.24;69;28.50;0;0.00
2022-01-28 18:55:33;4.23;69;28.70;0;0.00
2022-01-28 19:00:36;4.23;68;28.60;0;0.00
2022-01-28 19:05:34;4.23;69;28.50;0;0.00
2022-01-28 19:10:33;4.23;69;28.30;0;0.00
2022-01-28 19:15:36;4.23;69;27.80;0;0.00
2022-01-28 19:20:34;4.23;69;28.20;0;0.00
2022-01-28 19:25:33;4.23;72;27.70;0;0.00
2022-01-28 19:30:36;4.23;72;27.60;0;0.00
2022-01-28 19:35:34;4.23;73;27.30;0;0.00
2022-01-28 19:40:32;4.23;74;27.00;0;0.00
2022-01-28 19:45:35;4.23;76;26.30;0;0.00
2022-01-28 19:50:33;4.23;78;25.50;0;0.00
2022-01-28 19:55:32;4.23;79;24.80;0;0.00
2022-01-28 20:00:34;4.23;80;24.10;0;0.00
2022-01-28 20:05:32;4.22;81;23.60;0;0.00
2022-01-28 20:10:35;4.22;82;23.10;0;0.00
2022-01-28 20:15:33;4.22;81;22.60;0;0.00
2022-01-28 20:20:35;4.22;81;22.30;0;0.00
2022-01-28 20:25:33;4.22;81;22.20;0;0.00
2022-01-28 20:30:35;4.22;81;21.90;0;0.00
2022-01-28 20:35:32;4.22;81;21.80;0;0.00
2022-01-28 20:40:34;4.22;81;21.70;0;0.00
2022-01-28 20:45:32;4.22;81;21.70;0;0.00
2022-01-28 20:50:34;4.22;80;21.50;0;0.00
2022-01-28 20:55:31;4.22;80;21.30;0;0.00
2022-01-28 21:00:33;4.22;80;21.30;0;0.00
2022-01-28 21:05:31;4.22;80;21.20;0;0.00
2022-01-28 21:10:33;4.22;71;20.90;0;0.00
2022-01-28 21:15:34;4.21;65;20.40;0;0.00
2022-01-28 21:20:32;4.21;62;20.00;0;0.00
2022-01-28 21:25:33;4.21;60;19.90;0;0.00
2022-01-28 21:30:31;4.21;54;20.10;0;0.00
2022-01-28 21:35:32;4.21;42;20.20;0;0.00
2022-01-28 21:40:34;4.21;38;20.00;0;0.00
2022-01-28 21:45:31;4.21;43;19.80;0;0.00
2022-01-28 21:50:33;4.21;35;20.10;0;0.00
2022-01-28 21:55:35;4.21;48;20.10;0;0.00
2022-01-28 22:00:32;4.21;59;20.10;0;0.00
2022-01-28 22:05:34;4.21;59;20.20;0;0.00
2022-01-28 22:10:31;4.21;62;20.10;0;0.00
2022-01-28 22:15:32;4.21;65;20.00;0;0.00
2022-01-28 22:20:34;4.21;68;20.00;0;0.00
2022-01-28 22:25:31;4.21;69;20.00;0;0.00
2022-01-28 22:30:33;4.21;61;19.90;0;0.00
2022-01-28 22:35:34;4.21;56;19.60;0;0.00
2022-01-28 22:40:31;4.21;53;19.50;0;0.00
2022-01-28 22:45:33;4.21;53;19.50;0;0.00
2022-01-28 22:50:35;4.21;58;19.40;0;0.00
2022-01-28 22:55:32;4.21;63;19.40;0;0.00
2022-01-28 23:00:33;4.21;59;19.50;0;0.00
2022-01-28 23:05:30;4.21;52;19.40;0;0.00
2022-01-28 23:10:32;4.21;56;19.20;0;0.00
2022-01-28 23:15:33;4.21;60;19.10;0;0.00
2022-01-28 23:20:30;4.21;61;19.20;0;0.00
2022-01-28 23:25:32;4.21;63;19.10;0;0.00
2022-01-28 23:30:34;4.20;63;18.80;0;0.00
2022-01-28 23:35:31;4.20;59;18.80;0;0.00
2022-01-28 23:40:32;4.20;61;18.90;0;0.00
2022-01-28 23:45:34;4.20;64;18.90;0;0.00
2022-01-28 23:50:30;4.20;64;18.70;0;0.00
2022-01-28 23:55:32;4.20;64;18.70;0;0.00
