2022-01-04 00:00:35;4.19;78;25.20;0;0.00
2022-01-04 00:05:33;4.19;78;25.00;0;0.00
2022-01-04 00:10:31;4.19;79;24.40;0;0.00
2022-01-04 00:15:34;4.19;79;24.00;0;0.00
2022-01-04 00:20:32;4.19;79;23.80;0;0.00
2022-01-04 00:25:35;4.19;79;23.60;0;0.00
2022-01-04 00:30:33;4.19;79;23.90;0;0.00
2022-01-04 00:35:35;4.19;79;23.70;0;0.00
2022-01-04 00:40:33;4.19;79;23.60;0;0.00
2022-01-04 00:45:31;4.19;79;23.30;0;0.00
2022-01-04 00:50:34;4.19;80;22.70;0;0.00
2022-01-04 00:55:32;4.18;80;22.50;0;0.00
2022-01-04 01:00:34;4.18;79;22.90;0;0.00
2022-01-04 01:05:32;4.18;79;22.90;0;0.00
2022-01-04 01:10:34;4.18;79;23.20;0;0.00
2022-01-04 01:15:32;4.18;79;23.70;0;0.00
2022-01-04 01:20:30;4.18;78;23.70;0;0.00
2022-01-04 01:25:33;4.18;79;23.50;0;0.00
2022-01-04 01:30:35;4.18;79;23.10;0;0.00
2022-01-04 01:35:33;4.18;79;23.10;0;0.00
2022-01-04 01:40:31;4.18;79;23.10;0;0.00
2022-01-04 01:45:33;4.18;79;23.20;0;0.00
2022-01-04 01:50:31;4.18;79;23.00;0;0.00
2022-01-04 01:55:34;4.18;79;23.20;0;0.00
2022-01-04 02:00:32;4.18;79;22.90;0;0.00
2022-01-04 02:05:34;4.18;79;22.60;0;0.00
2022-01-04 02:10:32;4.18;79;22.60;0;0.00
2022-01-04 02:15:34;4.18;79;22.40;0;0.00
2022-01-04 02:20:32;4.18;79;22.30;0;0.00
2022-01-04 02:25:35;4.18;79;22.20;0;0.00
2022-01-04 02:30:32;4.18;79;22.20;0;0.00
2022-01-04 02:35:30;4.17;79;22.10;0;0.00
2022-01-04 02:40:32;4.17;79;22.20;0;0.00
2022-01-04 02:45:35;4.17;79;22.50;0;0.00
2022-01-04 02:50:33;4.18;79;22.50;0;0.00
2022-01-04 02:55:30;4.17;79;22.20;0;0.00
2022-01-04 03:00:33;4.17;78;22.30;0;0.00
2022-01-04 03:05:35;4.18;78;22.30;0;0.00
2022-01-04 03:10:33;4.17;78;22.30;0;0.00
2022-01-04 03:15:31;4.17;78;22.50;0;0.00
2022-01-04 03:20:33;4.17;78;22.70;0;0.00
2022-01-04 03:25:35;4.17;78;22.80;0;0.00
2022-01-04 03:30:33;4.17;78;23.00;0;0.00
2022-01-04 03:35:31;4.17;78;23.10;0;0.00
2022-01-04 03:40:33;4.17;78;23.20;0;0.00
2022-01-04 03:45:31;4.17;78;23.40;0;0.00
2022-01-04 03:50:34;4.17;78;23.40;0;0.00
2022-01-04 03:55:32;4.17;78;23.40;0;0.00
2022-01-04 04:00:34;4.17;78;23.30;0;0.00
2022-01-04 04:05:29;4.17;78;23.10;1;0.00
2022-01-04 04:10:23;4.17;68;22.30;4;1.10
2022-01-04 04:15:34;4.17;67;22.30;5;1.50
2022-01-04 04:20:32;4.17;71;22.70;5;1.40
2022-01-04 04:25:34;4.17;70;22.60;5;1.20
2022-01-04 04:30:32;4.17;68;22.60;5;2.39
2022-01-04 04:35:34;4.17;72;22.90;5;2.39
2022-01-04 04:40:30;4.17;76;23.60;6;1.60
2022-01-04 04:45:17;4.17;65;22.30;12;1.70
2022-01-04 04:49:59;4.17;32;21.60;26;0.00
2022-01-04 04:54:59;4.17;0;21.50;46;1.40
2022-01-04 05:00:16;4.17;99;21.50;55;3.78
2022-01-04 05:05:24;4.17;99;21.60;60;5.95
2022-01-04 05:10:25;4.17;10;21.60;62;6.65
2022-01-04 05:15:33;4.16;30;21.80;64;4.27
2022-01-04 05:20:35;4.17;41;21.90;64;4.47
2022-01-04 05:25:33;4.17;38;21.80;64;3.18
2022-01-04 05:30:29;4.17;42;21.80;65;3.28
2022-01-04 05:35:14;4.17;11;21.00;76;1.60
2022-01-04 05:40:18;4.17;99;20.70;87;1.50
2022-01-04 05:45:17;4.16;99;20.50;95;5.95
2022-01-04 05:50:25;4.16;99;20.50;97;3.88
2022-01-04 05:55:29;4.16;99;20.70;98;5.46
2022-01-04 06:00:32;4.16;99;21.00;98;3.97
2022-01-04 06:05:34;4.16;99;21.30;98;4.47
2022-01-04 06:10:31;4.16;99;21.30;98;3.97
2022-01-04 06:15:34;4.16;99;21.30;98;3.48
2022-01-04 06:20:31;4.16;99;21.30;98;4.07
2022-01-04 06:25:30;4.16;99;21.50;99;4.77
2022-01-04 06:30:32;4.16;99;21.60;99;4.87
2022-01-04 06:35:33;4.16;99;21.50;100;4.17
2022-01-04 06:40:35;4.16;99;21.30;100;2.89
2022-01-04 06:45:32;4.16;99;21.20;101;3.28
2022-01-04 06:50:34;4.16;99;21.20;101;3.48
2022-01-04 06:55:32;4.16;99;21.30;101;3.97
2022-01-04 07:00:34;4.16;99;21.40;102;4.27
2022-01-04 07:05:31;4.16;99;21.40;102;3.68
2022-01-04 07:10:34;4.16;99;21.50;102;2.39
2022-01-04 07:15:27;4.16;99;21.50;103;1.80
2022-01-04 07:20:32;4.16;99;21.30;104;2.49
2022-01-04 07:25:34;4.16;99;21.40;104;2.89
2022-01-04 07:30:31;4.16;99;21.40;105;1.90
2022-01-04 07:35:34;4.16;99;21.50;105;2.29
2022-01-04 07:40:31;4.16;99;21.40;105;2.09
2022-01-04 07:45:33;4.16;99;21.50;105;2.89
2022-01-04 07:50:31;4.16;99;21.50;105;4.77
2022-01-04 07:55:33;4.16;99;21.70;105;2.79
2022-01-04 08:00:31;4.16;99;21.70;105;2.09
2022-01-04 08:05:33;4.16;99;21.60;105;3.88
2022-01-04 08:10:35;4.16;99;21.60;105;3.38
2022-01-04 08:15:33;4.16;99;21.60;105;4.07
2022-01-04 08:20:31;4.16;99;21.70;105;4.07
2022-01-04 08:25:33;4.16;99;21.70;105;3.48
2022-01-04 08:30:35;4.16;99;21.70;105;5.16
2022-01-04 08:35:33;4.16;99;21.60;105;2.39
2022-01-04 08:40:27;4.16;99;21.50;106;3.48
2022-01-04 08:45:34;4.16;99;21.60;106;2.79
2022-01-04 08:50:32;4.16;99;21.60;106;2.39
2022-01-04 08:55:34;4.16;99;21.60;106;1.60
2022-01-04 09:00:32;4.16;99;21.40;107;1.80
2022-01-04 09:05:34;4.16;99;21.40;107;1.70
2022-01-04 09:10:32;4.16;99;21.40;107;2.29
2022-01-04 09:15:32;4.16;99;21.50;108;0.00
2022-01-04 09:20:30;4.16;99;21.50;108;0.00
2022-01-04 09:25:32;4.16;99;21.80;108;0.00
2022-01-04 09:30:34;4.16;99;22.00;108;1.30
2022-01-04 09:35:32;4.17;99;22.30;108;1.80
2022-01-04 09:40:34;4.17;99;22.50;108;1.90
2022-01-04 09:45:32;4.17;99;22.60;108;2.39
2022-01-04 09:50:34;4.17;99;22.70;108;2.00
2022-01-04 09:55:32;4.17;99;22.80;108;2.19
2022-01-04 10:00:30;4.17;99;23.00;108;2.09
2022-01-04 10:05:33;4.17;99;23.40;108;2.69
2022-01-04 10:10:35;4.17;99;23.50;108;2.39
2022-01-04 10:15:33;4.17;99;23.50;108;3.18
2022-01-04 10:20:35;4.17;99;23.50;108;3.08
2022-01-04 10:25:33;4.17;99;23.60;108;3.58
2022-01-04 10:30:31;4.17;99;23.80;108;2.39
2022-01-04 10:35:34;4.18;6;24.10;108;1.50
2022-01-04 10:40:32;4.18;3;24.60;108;1.70
2022-01-04 10:45:35;4.18;20;25.10;108;2.69
2022-01-04 10:50:33;4.18;33;25.70;108;2.39
2022-01-04 10:55:31;4.18;39;26.20;108;2.89
2022-01-04 11:00:34;4.18;45;26.80;108;2.19
2022-01-04 11:05:32;4.18;51;27.70;108;2.09
2022-01-04 11:10:35;4.18;59;28.20;108;1.10
2022-01-04 11:15:34;4.18;60;29.30;108;0.00
2022-01-04 11:20:33;4.19;41;26.50;108;1.50
2022-01-04 11:25:36;4.19;31;26.10;108;1.90
2022-01-04 11:30:35;4.19;37;26.50;108;0.00
2022-01-04 11:35:33;4.19;53;27.10;108;0.00
2022-01-04 11:40:32;4.19;52;27.20;108;0.00
2022-01-04 11:45:35;4.19;29;26.30;108;0.00
2022-01-04 11:50:34;4.18;28;26.00;108;0.00
2022-01-04 11:55:32;4.19;33;25.90;108;0.00
2022-01-04 12:00:36;4.19;40;26.20;108;0.00
2022-01-04 12:05:34;4.19;48;26.50;108;0.00
2022-01-04 12:10:33;4.18;51;26.80;108;0.00
2022-01-04 12:15:36;4.19;38;26.40;108;0.00
2022-01-04 12:20:34;4.19;38;25.70;108;0.00
2022-01-04 12:25:33;4.19;29;25.90;108;0.00
2022-01-04 12:30:31;4.19;42;26.30;108;0.00
2022-01-04 12:35:34;4.19;41;26.30;108;0.00
2022-01-04 12:40:33;4.19;37;25.90;108;2.19
2022-01-04 12:45:36;4.19;26;25.60;108;2.99
2022-01-04 12:50:34;4.19;15;25.30;108;2.99
2022-01-04 12:55:33;4.19;14;24.80;108;3.48
2022-01-04 13:00:36;4.19;14;24.90;108;2.99
2022-01-04 13:05:34;4.19;16;24.90;108;2.29
2022-01-04 13:10:32;4.19;10;25.20;108;2.79
2022-01-04 13:15:35;4.19;24;25.60;108;1.90
2022-01-04 13:20:34;4.19;41;25.90;108;1.80
2022-01-04 13:25:32;4.19;42;26.60;108;1.60
2022-01-04 13:30:35;4.19;51;27.30;108;0.00
2022-01-04 13:35:34;4.19;55;27.50;108;0.00
2022-01-04 13:40:32;4.19;56;27.70;108;0.00
2022-01-04 13:45:36;4.19;61;28.20;108;0.00
2022-01-04 13:50:34;4.19;64;28.90;108;0.00
2022-01-04 13:55:33;4.19;62;29.20;108;0.00
2022-01-04 14:00:32;4.20;64;30.00;108;0.00
2022-01-04 14:05:31;4.20;64;29.90;108;0.00
2022-01-04 14:10:35;4.20;64;29.70;108;0.00
2022-01-04 14:15:34;4.20;64;29.90;108;0.00
2022-01-04 14:20:33;4.20;65;30.20;108;0.00
2022-01-04 14:25:33;4.20;65;31.00;108;0.00
2022-01-04 14:30:37;4.20;65;30.50;108;0.00
2022-01-04 14:35:36;4.20;65;31.10;108;0.00
2022-01-04 14:40:36;4.20;64;30.50;108;0.00
2022-01-04 14:45:36;4.20;65;30.90;108;0.00
2022-01-04 14:50:35;4.20;65;30.00;108;1.10
2022-01-04 14:55:35;4.20;64;30.80;108;0.00
2022-01-04 15:00:34;4.20;64;32.40;108;0.00
2022-01-04 15:05:34;4.20;64;30.80;108;0.00
2022-01-04 15:10:34;4.20;65;31.10;108;0.00
2022-01-04 15:15:34;4.20;64;31.10;108;0.00
2022-01-04 15:20:33;4.21;64;31.10;108;0.00
2022-01-04 15:25:33;4.21;64;31.60;108;0.00
2022-01-04 15:30:33;4.21;65;31.70;108;0.00
2022-01-04 15:35:37;4.21;64;32.10;108;0.00
2022-01-04 15:40:32;4.21;64;31.20;108;1.20
2022-01-04 15:45:32;4.21;64;30.70;108;0.00
2022-01-04 15:50:36;4.21;64;30.40;108;0.00
2022-01-04 15:55:36;4.21;63;30.40;108;0.00
2022-01-04 16:00:31;4.21;64;32.30;108;0.00
2022-01-04 16:05:35;4.21;64;31.80;108;1.30
2022-01-04 16:10:35;4.21;64;31.80;108;0.00
2022-01-04 16:15:35;4.21;64;31.80;108;0.00
2022-01-04 16:20:34;4.21;64;31.80;108;0.00
2022-01-04 16:25:34;4.21;64;30.40;108;0.00
2022-01-04 16:30:34;4.21;65;29.40;108;0.00
2022-01-04 16:35:33;4.21;63;29.40;108;0.00
2022-01-04 16:40:33;4.21;64;29.50;108;0.00
2022-01-04 16:45:37;4.21;63;30.10;108;0.00
2022-01-04 16:50:36;4.21;64;30.80;108;0.00
2022-01-04 16:55:35;4.21;64;31.60;108;0.00
2022-01-04 17:00:35;4.21;64;31.50;108;0.00
2022-01-04 17:05:34;4.21;64;31.90;108;0.00
2022-01-04 17:10:33;4.21;64;30.50;108;1.10
2022-01-04 17:15:33;4.21;64;31.40;108;1.60
2022-01-04 17:20:32;4.21;64;31.20;108;0.00
2022-01-04 17:25:36;4.21;65;31.10;108;1.10
2022-01-04 17:30:36;4.21;65;30.50;108;1.40
2022-01-04 17:35:35;4.21;64;31.40;108;1.10
2022-01-04 17:40:35;4.21;64;30.60;108;1.10
2022-01-04 17:45:34;4.21;64;29.60;108;1.80
2022-01-04 17:50:33;4.21;64;29.90;108;0.00
2022-01-04 17:55:33;4.21;65;30.60;108;1.80
2022-01-04 18:00:37;4.21;65;30.30;108;1.60
2022-01-04 18:05:36;4.21;64;30.50;108;1.20
2022-01-04 18:10:35;4.21;64;30.50;108;1.10
2022-01-04 18:15:35;4.21;65;30.50;108;1.40
2022-01-04 18:20:34;4.21;64;29.50;108;2.39
2022-01-04 18:25:33;4.21;64;30.40;108;2.69
2022-01-04 18:30:37;4.21;65;29.80;108;1.90
2022-01-04 18:35:31;4.21;65;29.70;108;2.19
2022-01-04 18:40:35;4.21;65;29.50;108;2.00
2022-01-04 18:45:34;4.21;65;29.30;108;2.09
2022-01-04 18:50:33;4.21;64;29.20;108;1.50
2022-01-04 18:55:32;4.21;65;29.30;108;1.20
2022-01-04 19:00:36;4.21;65;29.30;108;0.00
2022-01-04 19:05:35;4.21;65;29.10;108;0.00
2022-01-04 19:10:34;4.21;65;28.90;108;1.20
2022-01-04 19:15:33;4.21;64;28.80;108;1.10
2022-01-04 19:20:36;4.20;64;28.70;108;1.20
2022-01-04 19:25:35;4.21;65;28.40;108;0.00
2022-01-04 19:30:34;4.21;65;28.20;108;0.00
2022-01-04 19:35:33;4.20;65;28.00;108;1.80
2022-01-04 19:40:32;4.20;65;27.80;108;0.00
2022-01-04 19:45:35;4.20;66;27.50;108;0.00
2022-01-04 19:50:34;4.20;66;27.10;108;0.00
2022-01-04 19:55:33;4.20;66;26.80;108;0.00
2022-01-04 20:00:36;4.20;65;26.20;108;0.00
2022-01-04 20:05:35;4.20;64;25.80;108;0.00
2022-01-04 20:10:33;4.20;62;25.40;108;0.00
2022-01-04 20:15:36;4.20;60;25.10;108;0.00
2022-01-04 20:20:34;4.20;58;24.70;108;0.00
2022-01-04 20:25:33;4.20;52;24.30;108;0.00
2022-01-04 20:30:31;4.19;46;24.10;108;0.00
2022-01-04 20:35:34;4.20;46;23.90;108;0.00
2022-01-04 20:40:32;4.19;46;23.60;108;0.00
2022-01-04 20:45:34;4.19;39;23.10;108;0.00
2022-01-04 20:50:33;4.19;40;23.10;108;0.00
2022-01-04 20:55:35;4.19;44;23.10;108;0.00
2022-01-04 21:00:33;4.19;45;22.90;108;0.00
2022-01-04 21:05:35;4.18;48;22.90;108;0.00
2022-01-04 21:10:33;4.18;48;22.80;108;0.00
2022-01-04 21:15:31;4.18;48;22.90;108;0.00
2022-01-04 21:20:34;4.18;48;22.90;108;0.00
2022-01-04 21:25:31;4.18;47;22.70;108;0.00
2022-01-04 21:30:34;4.18;46;22.50;108;0.00
2022-01-04 21:35:32;4.18;46;22.50;108;0.00
2022-01-04 21:40:34;4.18;47;22.50;108;0.00
2022-01-04 21:45:32;4.18;48;22.60;108;0.00
2022-01-04 21:50:34;4.18;46;22.50;108;0.00
2022-01-04 21:55:32;4.18;42;22.20;108;0.00
2022-01-04 22:00:34;4.18;40;21.90;108;0.00
2022-01-04 22:05:32;4.18;41;21.90;108;0.00
2022-01-04 22:10:34;4.18;39;22.00;108;0.00
2022-01-04 22:15:31;4.18;39;21.90;108;0.00
2022-01-04 22:20:34;4.18;38;21.70;108;0.00
2022-01-04 22:25:31;4.18;37;21.70;108;0.00
2022-01-04 22:30:33;4.17;37;21.70;108;0.00
2022-01-04 22:35:31;4.17;37;21.60;108;0.00
2022-01-04 22:40:33;4.17;38;21.60;108;0.00
2022-01-04 22:45:31;4.17;40;21.60;108;0.00
2022-01-04 22:50:33;4.17;35;21.30;108;0.00
2022-01-04 22:55:35;4.17;34;21.20;108;0.00
2022-01-04 23:00:32;4.17;29;20.90;108;0.00
2022-01-04 23:05:30;4.17;25;20.90;108;0.00
2022-01-04 23:10:32;4.17;25;20.80;108;0.00
2022-01-04 23:15:34;4.17;22;20.60;108;0.00
2022-01-04 23:20:32;4.17;0;20.20;108;0.00
2022-01-04 23:25:34;4.17;99;20.20;108;0.00
2022-01-04 23:30:31;4.17;99;20.30;108;0.00
2022-01-04 23:35:33;4.17;0;20.40;108;0.00
2022-01-04 23:40:31;4.17;99;20.40;108;0.00
2022-01-04 23:45:33;4.17;99;20.30;108;0.00
2022-01-04 23:50:35;4.17;99;20.50;108;0.00
2022-01-04 23:55:32;4.17;10;20.60;108;0.00
