2022-10-27 00:00:31;4.18;43;13.90;33;0.00
2022-10-27 00:05:32;4.18;42;13.70;0;0.00
2022-10-27 00:10:33;4.18;42;14.00;0;0.00
2022-10-27 00:15:34;4.18;42;14.30;0;0.00
2022-10-27 00:20:30;4.18;44;14.30;0;0.00
2022-10-27 00:25:31;4.18;44;14.00;0;0.00
2022-10-27 00:30:32;4.18;44;14.20;0;0.00
2022-10-27 00:35:33;4.18;44;14.10;0;0.00
2022-10-27 00:40:34;4.17;44;13.90;0;0.00
2022-10-27 00:45:30;4.18;42;13.70;0;0.00
2022-10-27 00:50:31;4.18;39;13.60;0;0.00
2022-10-27 00:55:32;4.18;38;13.80;0;0.00
2022-10-27 01:00:33;4.18;39;13.60;0;0.00
2022-10-27 01:05:30;4.17;37;13.50;0;0.00
2022-10-27 01:10:31;4.17;39;13.80;0;0.00
2022-10-27 01:15:32;4.17;41;13.60;0;0.00
2022-10-27 01:20:33;4.18;41;13.50;0;0.00
2022-10-27 01:25:34;4.18;40;13.40;0;0.00
2022-10-27 01:30:30;4.17;38;13.50;0;0.00
2022-10-27 01:35:31;4.18;38;13.60;0;0.00
2022-10-27 01:40:32;4.18;37;13.60;0;0.00
2022-10-27 01:45:33;4.18;39;13.70;0;0.00
2022-10-27 01:50:30;4.18;39;13.70;0;0.00
2022-10-27 01:55:31;4.18;39;13.60;0;0.00
2022-10-27 02:00:32;4.17;38;13.50;0;0.00
2022-10-27 02:05:33;4.18;39;13.60;0;0.00
2022-10-27 02:10:34;4.18;40;13.70;0;0.00
2022-10-27 02:15:30;4.18;40;13.80;0;0.00
2022-10-27 02:20:31;4.18;42;13.90;0;0.00
2022-10-27 02:25:32;4.17;44;14.20;0;0.00
2022-10-27 02:30:33;4.17;50;14.30;0;0.00
2022-10-27 02:35:34;4.17;50;14.00;0;1.40
2022-10-27 02:40:30;4.17;49;13.70;0;1.30
2022-10-27 02:45:31;4.17;49;13.50;0;1.10
2022-10-27 02:50:32;4.17;48;13.30;0;0.00
2022-10-27 02:55:34;4.17;47;13.30;0;0.00
2022-10-27 03:00:30;4.17;47;13.70;0;0.00
2022-10-27 03:05:31;4.17;50;14.00;0;0.00
2022-10-27 03:10:32;4.17;53;14.30;0;0.00
2022-10-27 03:15:33;4.17;56;14.50;0;0.00
2022-10-27 03:20:34;4.17;56;14.40;0;0.00
2022-10-27 03:25:30;4.17;57;14.50;0;0.00
2022-10-27 03:30:31;4.17;58;14.60;0;0.00
2022-10-27 03:35:32;4.17;59;14.80;0;0.00
2022-10-27 03:40:34;4.17;60;14.80;0;0.00
2022-10-27 03:45:30;4.17;60;14.40;0;0.00
2022-10-27 03:50:31;4.17;58;13.90;0;0.00
2022-10-27 03:55:32;4.17;56;13.50;0;0.00
2022-10-27 04:00:33;4.17;52;13.30;0;0.00
2022-10-27 04:05:30;4.17;54;13.90;0;0.00
2022-10-27 04:10:31;4.17;56;13.80;0;0.00
2022-10-27 04:15:32;4.17;55;13.60;0;0.00
2022-10-27 04:20:33;4.17;54;13.50;0;0.00
2022-10-27 04:25:34;4.17;54;13.60;0;0.00
2022-10-27 04:30:30;4.17;55;13.80;0;0.00
2022-10-27 04:35:31;4.17;55;13.90;0;0.00
2022-10-27 04:40:32;4.17;55;13.70;0;0.00
2022-10-27 04:45:33;4.17;53;13.10;0;0.00
2022-10-27 04:50:34;4.17;49;12.70;0;0.00
2022-10-27 04:55:30;4.17;44;12.50;0;0.00
2022-10-27 05:00:31;4.17;42;12.30;0;0.00
2022-10-27 05:05:32;4.16;39;12.20;0;0.00
2022-10-27 05:10:33;4.17;37;12.10;0;0.00
2022-10-27 05:15:29;4.17;33;12.10;0;0.00
2022-10-27 05:20:30;4.16;30;12.10;0;0.00
2022-10-27 05:25:31;4.16;30;12.10;0;0.00
2022-10-27 05:30:32;4.16;32;12.30;0;0.00
2022-10-27 05:35:33;4.17;33;12.30;0;0.00
2022-10-27 05:40:34;4.16;32;12.10;0;0.00
2022-10-27 05:45:30;4.16;30;12.00;0;0.00
2022-10-27 05:50:31;4.16;27;11.90;0;0.00
2022-10-27 05:55:32;4.17;28;12.10;0;0.00
2022-10-27 06:00:33;4.16;30;11.90;0;0.00
2022-10-27 06:05:33;4.17;28;11.80;0;0.00
2022-10-27 06:10:30;4.16;25;11.80;0;0.00
2022-10-27 06:15:31;4.16;23;11.80;0;0.00
2022-10-27 06:20:31;4.16;22;11.90;0;0.00
2022-10-27 06:25:32;4.17;24;12.00;0;0.00
2022-10-27 06:30:33;4.17;22;12.00;0;0.00
2022-10-27 06:35:34;4.16;21;12.10;0;0.00
2022-10-27 06:40:30;4.17;22;12.30;0;0.00
2022-10-27 06:45:31;4.16;25;12.60;0;0.00
2022-10-27 06:50:32;4.16;29;13.00;0;0.00
2022-10-27 06:55:33;4.16;32;13.30;0;0.00
2022-10-27 07:00:34;4.16;35;13.70;0;0.00
2022-10-27 07:05:30;4.17;36;14.00;0;0.00
2022-10-27 07:10:31;4.17;40;14.40;0;0.00
2022-10-27 07:15:32;4.17;42;14.90;0;0.00
2022-10-27 07:20:33;4.17;45;15.10;0;0.00
2022-10-27 07:25:30;4.18;45;15.40;0;0.00
2022-10-27 07:30:31;4.18;46;15.80;0;0.00
2022-10-27 07:35:32;4.18;48;16.10;0;1.10
2022-10-27 07:40:34;4.18;51;16.50;0;0.00
2022-10-27 07:45:30;4.18;52;17.10;0;0.00
2022-10-27 07:50:32;4.18;61;17.50;0;0.00
2022-10-27 07:55:33;4.18;63;18.00;0;0.00
2022-10-27 08:00:30;4.18;64;18.20;0;0.00
2022-10-27 08:05:32;4.18;64;18.60;0;0.00
2022-10-27 08:10:33;4.18;65;19.00;0;0.00
2022-10-27 08:15:30;4.19;66;19.40;0;1.20
2022-10-27 08:20:32;4.20;67;19.70;0;0.00
2022-10-27 08:25:34;4.19;67;20.20;0;0.00
2022-10-27 08:30:31;4.20;67;20.70;0;0.00
2022-10-27 08:35:33;4.20;66;21.20;0;0.00
2022-10-27 08:40:30;4.20;65;21.50;0;1.10
2022-10-27 08:45:32;4.19;64;22.20;0;1.90
2022-10-27 08:50:35;4.20;62;22.10;0;1.80
2022-10-27 08:55:32;4.20;65;22.70;0;0.00
2022-10-27 09:00:34;4.20;60;22.80;0;0.00
2022-10-27 09:05:32;4.20;60;23.20;0;1.30
2022-10-27 09:10:34;4.20;60;23.50;0;0.00
2022-10-27 09:15:32;4.20;59;23.60;0;0.00
2022-10-27 09:20:35;4.20;59;24.00;0;0.00
2022-10-27 09:25:33;4.20;60;24.60;0;0.00
2022-10-27 09:30:35;4.20;59;24.80;0;0.00
2022-10-27 09:35:33;4.20;54;24.90;0;0.00
2022-10-27 09:40:31;4.20;54;25.10;0;0.00
2022-10-27 09:45:34;4.20;52;25.20;0;0.00
2022-10-27 09:50:32;4.20;52;25.70;0;0.00
2022-10-27 09:55:35;4.20;52;25.70;0;0.00
2022-10-27 10:00:33;4.21;52;25.80;0;0.00
2022-10-27 10:05:32;4.21;48;26.30;0;0.00
2022-10-27 10:10:35;4.20;51;26.50;0;0.00
2022-10-27 10:15:33;4.20;50;26.60;0;0.00
2022-10-27 10:20:32;4.20;44;26.30;0;0.00
2022-10-27 10:25:35;4.20;47;26.40;0;0.00
2022-10-27 10:30:34;4.21;52;26.50;0;0.00
2022-10-27 10:35:32;4.21;50;26.50;0;0.00
2022-10-27 10:40:35;4.21;47;27.20;0;2.00
2022-10-27 10:45:34;4.21;47;26.70;0;0.00
2022-10-27 10:50:33;4.20;46;26.80;0;1.80
2022-10-27 10:55:36;4.21;46;27.30;0;0.00
2022-10-27 11:00:35;4.21;49;27.70;0;0.00
2022-10-27 11:05:33;4.21;50;27.10;0;0.00
2022-10-27 11:10:32;4.21;50;27.60;0;1.20
2022-10-27 11:15:36;4.21;48;27.30;0;0.00
2022-10-27 11:20:34;4.21;49;27.70;0;0.00
2022-10-27 11:25:33;4.21;49;27.40;0;0.00
2022-10-27 11:30:36;4.21;50;27.80;0;2.00
2022-10-27 11:35:35;4.21;50;27.70;0;1.30
2022-10-27 11:40:34;4.21;50;27.40;0;0.00
2022-10-27 11:45:33;4.21;48;27.20;0;0.00
2022-10-27 11:50:36;4.21;49;27.90;0;1.10
2022-10-27 11:55:35;4.21;49;27.70;0;0.00
2022-10-27 12:00:34;4.21;49;28.00;0;0.00
2022-10-27 12:05:33;4.21;51;28.40;0;0.00
2022-10-27 12:10:37;4.21;49;28.30;0;0.00
2022-10-27 12:15:35;4.21;48;28.50;0;0.00
2022-10-27 12:20:34;4.21;49;28.70;0;2.09
2022-10-27 12:25:33;4.22;49;28.50;0;1.40
2022-10-27 12:30:32;4.21;49;29.00;0;1.30
2022-10-27 12:35:36;4.22;49;28.60;0;1.60
2022-10-27 12:40:35;4.21;50;28.30;0;0.00
2022-10-27 12:45:34;4.22;49;29.10;0;1.60
2022-10-27 12:50:33;4.21;51;29.20;0;1.10
2022-10-27 12:55:36;4.22;49;28.60;0;1.10
2022-10-27 13:00:35;4.22;50;29.70;0;0.00
2022-10-27 13:05:35;4.22;48;29.30;0;1.70
2022-10-27 13:10:34;4.21;50;29.40;0;1.70
2022-10-27 13:15:33;4.21;50;28.90;0;1.20
2022-10-27 13:20:36;4.22;51;29.60;0;0.00
2022-10-27 13:25:35;4.21;50;29.60;0;1.70
2022-10-27 13:30:34;4.21;48;29.60;0;1.60
2022-10-27 13:35:33;4.22;49;29.60;0;0.00
2022-10-27 13:40:32;4.22;47;29.80;0;0.00
2022-10-27 13:45:36;4.22;49;29.10;0;2.59
2022-10-27 13:50:35;4.21;49;29.40;0;1.30
2022-10-27 13:55:34;4.21;48;29.60;0;1.80
2022-10-27 14:00:33;4.21;49;30.40;0;0.00
2022-10-27 14:05:32;4.22;47;30.70;0;1.10
2022-10-27 14:10:36;4.22;47;30.10;0;0.00
2022-10-27 14:15:35;4.22;49;30.20;0;1.50
2022-10-27 14:20:34;4.22;47;30.00;0;1.50
2022-10-27 14:25:33;4.22;49;29.60;0;2.69
2022-10-27 14:30:33;4.21;48;30.70;0;0.00
2022-10-27 14:35:36;4.22;48;30.50;0;0.00
2022-10-27 14:40:35;4.22;48;30.70;0;1.40
2022-10-27 14:45:35;4.22;47;30.40;0;1.10
2022-10-27 14:50:34;4.22;48;30.70;0;1.70
2022-10-27 14:55:33;4.22;48;30.40;0;1.50
2022-10-27 15:00:37;4.22;46;30.50;0;0.00
2022-10-27 15:05:36;4.22;47;31.00;0;1.10
2022-10-27 15:10:35;4.22;47;31.30;0;0.00
2022-10-27 15:15:34;4.22;47;30.90;0;2.19
2022-10-27 15:20:34;4.22;47;31.30;0;0.00
2022-10-27 15:25:33;4.22;46;30.60;0;0.00
2022-10-27 15:30:37;4.22;46;31.00;0;1.30
2022-10-27 15:35:36;4.22;48;30.80;0;2.29
2022-10-27 15:40:35;4.22;45;31.00;0;0.00
2022-10-27 15:45:34;4.22;46;30.90;0;0.00
2022-10-27 15:50:33;4.22;46;31.40;0;0.00
2022-10-27 15:55:33;4.22;46;30.60;0;0.00
2022-10-27 16:00:36;4.22;44;31.70;0;0.00
2022-10-27 16:05:36;4.22;45;31.10;0;0.00
2022-10-27 16:10:35;4.22;47;31.20;0;1.70
2022-10-27 16:15:34;4.22;45;31.10;0;0.00
2022-10-27 16:20:33;4.22;45;31.00;0;0.00
2022-10-27 16:25:32;4.22;45;31.20;0;0.00
2022-10-27 16:30:36;4.22;46;31.40;0;0.00
2022-10-27 16:35:35;4.22;45;31.20;0;0.00
2022-10-27 16:40:35;4.23;48;31.50;0;1.30
2022-10-27 16:45:34;4.23;46;31.20;0;0.00
2022-10-27 16:50:33;4.22;46;30.90;0;0.00
2022-10-27 16:55:37;4.23;46;31.90;0;0.00
2022-10-27 17:00:36;4.23;47;31.60;0;0.00
2022-10-27 17:05:35;4.23;47;31.50;0;1.10
2022-10-27 17:10:34;4.22;46;31.20;0;0.00
2022-10-27 17:15:33;4.23;47;31.00;0;0.00
2022-10-27 17:20:32;4.23;46;31.40;0;0.00
2022-10-27 17:25:36;4.22;46;31.50;0;0.00
2022-10-27 17:30:35;4.22;45;31.40;0;0.00
2022-10-27 17:35:34;4.22;46;31.30;0;0.00
2022-10-27 17:40:33;4.22;48;31.10;0;0.00
2022-10-27 17:45:32;4.22;47;30.90;0;0.00
2022-10-27 17:50:36;4.23;46;31.90;0;0.00
2022-10-27 17:55:35;4.23;46;31.80;0;0.00
2022-10-27 18:00:34;4.23;46;31.90;0;0.00
2022-10-27 18:05:33;4.22;46;31.30;0;0.00
2022-10-27 18:10:36;4.22;47;31.50;0;0.00
2022-10-27 18:15:35;4.23;48;31.50;0;0.00
2022-10-27 18:20:34;4.22;52;31.30;0;0.00
2022-10-27 18:25:33;4.22;51;31.20;0;0.00
2022-10-27 18:30:36;4.22;55;29.80;0;0.00
2022-10-27 18:35:35;4.22;56;29.30;0;0.00
2022-10-27 18:40:34;4.22;57;28.80;0;0.00
2022-10-27 18:45:32;4.22;58;28.60;0;0.00
2022-10-27 18:50:36;4.21;62;28.20;0;0.00
2022-10-27 18:55:34;4.21;61;27.90;0;0.00
2022-10-27 19:00:33;4.21;66;27.20;0;0.00
2022-10-27 19:05:36;4.21;66;26.20;0;0.00
2022-10-27 19:10:34;4.21;67;25.70;0;0.00
2022-10-27 19:15:32;4.21;69;25.20;0;0.00
2022-10-27 19:20:35;4.21;71;24.10;0;0.00
2022-10-27 19:25:33;4.22;70;23.70;0;0.00
2022-10-27 19:30:35;4.21;71;23.40;0;0.00
2022-10-27 19:35:33;4.21;72;23.00;0;0.00
2022-10-27 19:40:31;4.21;73;22.50;0;0.00
2022-10-27 19:45:33;4.21;74;22.30;0;0.00
2022-10-27 19:50:31;4.21;75;21.80;0;0.00
2022-10-27 19:55:33;4.21;75;21.80;0;0.00
2022-10-27 20:00:31;4.20;75;21.40;0;0.00
2022-10-27 20:05:33;4.21;75;21.50;0;0.00
2022-10-27 20:10:35;4.21;74;21.40;0;0.00
2022-10-27 20:15:32;4.21;75;21.40;0;0.00
2022-10-27 20:20:34;4.21;75;21.20;0;0.00
2022-10-27 20:25:32;4.21;75;21.10;0;0.00
2022-10-27 20:30:34;4.21;76;20.90;0;0.00
2022-10-27 20:35:31;4.21;76;20.50;0;0.00
2022-10-27 20:40:33;4.21;77;20.20;0;0.00
2022-10-27 20:45:35;4.20;75;20.70;0;0.00
2022-10-27 20:50:32;4.20;76;20.70;0;0.00
2022-10-27 20:55:34;4.20;75;20.90;0;0.00
2022-10-27 21:00:31;4.21;76;20.40;0;0.00
2022-10-27 21:05:33;4.21;76;20.20;0;0.00
2022-10-27 21:10:30;4.20;77;19.90;0;0.00
2022-10-27 21:15:32;4.20;76;20.30;0;0.00
2022-10-27 21:20:34;4.20;75;20.50;0;0.00
2022-10-27 21:25:31;4.20;75;20.50;0;0.00
2022-10-27 21:30:33;4.20;76;19.90;0;0.00
2022-10-27 21:35:35;4.20;77;19.20;0;0.00
2022-10-27 21:40:32;4.20;76;18.90;0;0.00
2022-10-27 21:45:34;4.20;75;19.10;0;0.00
2022-10-27 21:50:31;4.20;75;19.00;0;0.00
2022-10-27 21:55:32;4.20;75;18.60;0;0.00
2022-10-27 22:00:34;4.20;74;18.90;0;0.00
2022-10-27 22:05:31;4.20;74;19.30;0;0.00
2022-10-27 22:10:33;4.20;73;20.10;0;0.00
2022-10-27 22:15:34;4.20;72;20.80;0;0.00
2022-10-27 22:20:32;4.19;72;20.90;0;1.10
2022-10-27 22:25:33;4.20;72;20.80;0;0.00
2022-10-27 22:30:30;4.19;73;20.30;0;0.00
2022-10-27 22:35:32;4.20;74;19.80;0;0.00
2022-10-27 22:40:34;4.20;74;19.60;0;0.00
2022-10-27 22:45:31;4.19;74;19.70;0;0.00
2022-10-27 22:50:33;4.20;74;19.70;0;0.00
2022-10-27 22:55:35;4.20;74;19.60;0;0.00
2022-10-27 23:00:32;4.20;74;19.30;0;0.00
2022-10-27 23:05:34;4.20;75;19.10;0;0.00
2022-10-27 23:10:31;4.20;75;18.70;0;0.00
2022-10-27 23:15:32;4.19;76;18.50;0;0.00
2022-10-27 23:20:34;4.19;76;18.30;0;0.00
2022-10-27 23:25:31;4.19;76;18.20;0;0.00
2022-10-27 23:30:33;4.19;75;18.40;0;0.00
2022-10-27 23:35:34;4.19;75;18.60;0;0.00
2022-10-27 23:40:31;4.19;74;19.10;0;0.00
2022-10-27 23:45:33;4.19;73;19.30;0;0.00
2022-10-27 23:50:34;4.19;74;19.20;0;0.00
2022-10-27 23:55:31;4.19;74;19.20;0;0.00
