2022-02-10 00:00:31;4.15;73;18.40;0;0.00
2022-02-10 00:05:33;4.15;74;18.20;0;0.00
2022-02-10 00:10:30;4.14;72;17.90;0;0.00
2022-02-10 00:15:32;4.14;69;17.40;0;0.00
2022-02-10 00:20:34;4.14;65;17.40;0;0.00
2022-02-10 00:25:31;4.14;68;17.80;0;0.00
2022-02-10 00:30:32;4.14;69;17.90;0;0.00
2022-02-10 00:35:34;4.14;69;17.70;0;0.00
2022-02-10 00:40:31;4.14;71;17.60;0;0.00
2022-02-10 00:45:33;4.14;73;17.70;0;0.00
2022-02-10 00:50:34;4.14;67;16.60;0;0.00
2022-02-10 00:55:31;4.14;64;16.20;0;0.00
2022-02-10 01:00:33;4.14;64;16.20;0;0.00
2022-02-10 01:05:35;4.14;63;16.40;0;0.00
2022-02-10 01:10:32;4.14;66;16.80;0;0.00
2022-02-10 01:15:33;4.14;68;16.70;0;0.00
2022-02-10 01:20:30;4.14;69;16.60;0;0.00
2022-02-10 01:25:32;4.14;67;16.40;0;0.00
2022-02-10 01:30:33;4.14;66;16.60;0;0.00
2022-02-10 01:35:30;4.13;67;16.80;0;0.00
2022-02-10 01:40:32;4.13;67;16.50;0;0.00
2022-02-10 01:45:33;4.13;65;16.10;0;0.00
2022-02-10 01:50:30;4.13;62;15.60;0;0.00
2022-02-10 01:55:32;4.13;54;15.30;0;0.00
2022-02-10 02:00:33;4.13;42;15.50;0;0.00
2022-02-10 02:05:30;4.13;62;16.50;0;0.00
2022-02-10 02:10:31;4.13;67;16.90;0;0.00
2022-02-10 02:15:33;4.13;71;17.50;0;0.00
2022-02-10 02:20:34;4.13;71;17.40;0;0.00
2022-02-10 02:25:31;4.13;72;17.80;0;0.00
2022-02-10 02:30:33;4.13;74;18.60;0;0.00
2022-02-10 02:35:34;4.13;74;18.60;0;0.00
2022-02-10 02:40:31;4.13;74;18.50;0;0.00
2022-02-10 02:45:33;4.13;75;18.20;0;0.00
2022-02-10 02:50:34;4.13;74;18.10;0;0.00
2022-02-10 02:55:32;4.13;74;17.90;0;0.00
2022-02-10 03:00:33;4.13;74;17.90;0;0.00
2022-02-10 03:05:30;4.13;74;17.50;0;0.00
2022-02-10 03:10:32;4.13;72;17.00;0;0.00
2022-02-10 03:15:34;4.13;70;16.60;0;0.00
2022-02-10 03:20:31;4.13;66;16.20;0;0.00
2022-02-10 03:25:32;4.13;57;16.00;0;0.00
2022-02-10 03:30:34;4.13;57;16.20;0;0.00
2022-02-10 03:35:31;4.13;61;16.50;0;0.00
2022-02-10 03:40:32;4.13;65;16.70;0;0.00
2022-02-10 03:45:34;4.13;66;16.90;0;0.00
2022-02-10 03:50:31;4.13;69;17.00;0;0.00
2022-02-10 03:55:32;4.13;69;17.10;0;0.00
2022-02-10 04:00:34;4.13;68;17.00;0;0.00
2022-02-10 04:05:31;4.13;67;16.70;0;0.00
2022-02-10 04:10:32;4.13;62;16.00;0;0.00
2022-02-10 04:15:34;4.13;60;15.80;0;0.00
2022-02-10 04:20:31;4.13;57;16.00;0;0.00
2022-02-10 04:25:32;4.13;64;16.00;0;0.00
2022-02-10 04:30:29;4.13;58;15.70;0;0.00
2022-02-10 04:35:31;4.13;34;15.20;0;0.00
2022-02-10 04:40:32;4.13;36;15.50;0;0.00
2022-02-10 04:45:34;4.13;54;15.50;0;0.00
2022-02-10 04:50:31;4.13;54;15.50;0;0.00
2022-02-10 04:55:32;4.13;49;15.60;0;0.00
2022-02-10 05:00:34;4.13;53;15.50;0;0.00
2022-02-10 05:05:31;4.13;50;15.30;0;0.00
2022-02-10 05:10:32;4.13;35;15.20;0;0.00
2022-02-10 05:15:33;4.13;40;15.60;0;0.00
2022-02-10 05:20:30;4.13;44;15.30;0;0.00
2022-02-10 05:25:32;4.13;45;15.60;0;0.00
2022-02-10 05:30:33;4.12;50;15.60;0;0.00
2022-02-10 05:35:30;4.13;51;15.80;0;0.00
2022-02-10 05:40:31;4.13;52;15.90;0;0.00
2022-02-10 05:45:33;4.13;57;16.10;0;0.00
2022-02-10 05:50:34;4.12;61;16.40;0;0.00
2022-02-10 05:55:31;4.12;61;16.30;0;0.00
2022-02-10 06:00:33;4.13;57;16.00;0;0.00
2022-02-10 06:05:30;4.13;55;15.80;0;0.00
2022-02-10 06:10:31;4.13;53;15.70;0;0.00
2022-02-10 06:15:33;4.13;55;15.80;0;0.00
2022-02-10 06:20:34;4.13;53;15.90;0;0.00
2022-02-10 06:25:31;4.12;53;15.80;0;0.00
2022-02-10 06:30:33;4.12;50;15.70;0;0.00
2022-02-10 06:35:34;4.13;47;15.80;0;0.00
2022-02-10 06:40:31;4.12;49;15.70;0;0.00
2022-02-10 06:45:32;4.12;39;15.40;0;0.00
2022-02-10 06:50:34;4.13;35;15.40;0;0.00
2022-02-10 06:55:31;4.12;27;15.30;0;0.00
2022-02-10 07:00:32;4.13;25;15.40;0;0.00
2022-02-10 07:05:34;4.12;27;15.50;0;0.00
2022-02-10 07:10:30;4.12;32;15.80;0;0.00
2022-02-10 07:15:32;4.12;32;16.00;0;0.00
2022-02-10 07:20:33;4.12;49;16.80;0;0.00
2022-02-10 07:25:30;4.12;58;17.20;0;0.00
2022-02-10 07:30:32;4.12;63;17.70;0;0.00
2022-02-10 07:35:33;4.13;65;17.90;0;1.10
2022-02-10 07:40:31;4.13;63;18.10;0;0.00
2022-02-10 07:45:32;4.13;64;18.40;0;0.00
2022-02-10 07:50:34;4.13;66;18.70;0;1.20
2022-02-10 07:55:31;4.13;65;18.80;0;1.20
2022-02-10 08:00:33;4.13;66;19.10;0;0.00
2022-02-10 08:05:30;4.13;69;19.70;0;1.50
2022-02-10 08:10:32;4.13;69;19.70;0;1.10
2022-02-10 08:15:34;4.13;69;20.20;0;2.00
2022-02-10 08:20:32;4.13;71;20.40;0;1.70
2022-02-10 08:25:34;4.13;71;20.70;0;1.20
2022-02-10 08:30:31;4.13;72;21.00;0;0.00
2022-02-10 08:35:33;4.14;73;21.30;0;1.70
2022-02-10 08:40:31;4.14;72;21.90;0;1.30
2022-02-10 08:45:33;4.14;73;22.30;0;1.50
2022-02-10 08:50:31;4.14;73;22.80;0;1.70
2022-02-10 08:55:34;4.15;72;23.30;0;2.19
2022-02-10 09:00:31;4.15;70;23.90;0;2.29
2022-02-10 09:05:34;4.15;71;24.20;0;2.09
2022-02-10 09:10:32;4.15;71;24.50;0;3.18
2022-02-10 09:15:35;4.16;70;24.70;0;2.69
2022-02-10 09:20:33;4.16;70;24.90;0;3.68
2022-02-10 09:25:36;4.16;69;24.90;0;4.27
2022-02-10 09:30:34;4.16;68;25.20;0;3.78
2022-02-10 09:35:32;4.16;68;25.40;0;3.18
2022-02-10 09:40:35;4.16;69;25.70;0;2.00
2022-02-10 09:45:33;4.16;67;26.20;0;3.58
2022-02-10 09:50:32;4.17;68;26.40;0;4.07
2022-02-10 09:55:35;4.17;66;26.80;0;3.58
2022-02-10 10:00:33;4.17;66;27.20;0;2.79
2022-02-10 10:05:32;4.17;64;27.30;0;3.08
2022-02-10 10:10:35;4.17;64;27.50;0;3.38
2022-02-10 10:15:34;4.17;65;27.80;0;3.58
2022-02-10 10:20:32;4.17;64;28.20;0;2.79
2022-02-10 10:25:36;4.17;62;28.60;0;4.27
2022-02-10 10:30:35;4.17;63;28.40;0;2.99
2022-02-10 10:35:33;4.17;62;28.90;0;1.70
2022-02-10 10:40:32;4.17;62;29.00;0;3.78
2022-02-10 10:45:36;4.18;61;29.30;0;3.48
2022-02-10 10:50:35;4.17;61;29.60;0;2.69
2022-02-10 10:55:34;4.18;60;29.70;0;3.88
2022-02-10 11:00:33;4.18;59;29.40;0;3.18
2022-02-10 11:05:37;4.18;59;29.70;0;3.78
2022-02-10 11:10:36;4.18;60;30.40;0;4.07
2022-02-10 11:15:35;4.18;58;30.30;0;3.28
2022-02-10 11:20:34;4.18;59;31.20;0;2.79
2022-02-10 11:25:33;4.18;58;31.10;0;5.36
2022-02-10 11:30:33;4.18;57;31.20;0;2.00
2022-02-10 11:35:36;4.18;56;30.90;0;4.17
2022-02-10 11:40:31;4.18;58;31.90;0;2.59
2022-02-10 11:45:35;4.18;56;31.90;0;2.79
2022-02-10 11:50:35;4.18;57;31.80;0;3.28
2022-02-10 11:55:34;4.18;56;32.30;0;3.08
2022-02-10 12:00:34;4.18;55;31.80;0;3.48
2022-02-10 12:05:33;4.19;55;32.10;0;2.99
2022-02-10 12:10:33;4.18;55;32.50;0;3.18
2022-02-10 12:15:37;4.19;53;32.60;0;2.29
2022-02-10 12:20:36;4.18;54;32.80;0;2.09
2022-02-10 12:25:36;4.19;55;32.80;0;2.29
2022-02-10 12:30:31;4.19;54;32.90;0;2.49
2022-02-10 12:35:36;4.19;55;33.30;0;1.70
2022-02-10 12:40:35;4.19;54;33.50;0;2.39
2022-02-10 12:45:35;4.19;51;33.50;0;1.80
2022-02-10 12:50:35;4.19;51;33.90;0;4.27
2022-02-10 12:55:35;4.19;52;33.70;0;2.59
2022-02-10 13:00:34;4.19;50;33.70;0;3.18
2022-02-10 13:05:34;4.19;52;33.80;0;2.79
2022-02-10 13:10:34;4.19;50;34.20;0;3.88
2022-02-10 13:15:34;4.19;51;34.10;0;2.79
2022-02-10 13:20:34;4.19;51;34.10;0;2.69
2022-02-10 13:25:34;4.19;49;34.20;0;2.79
2022-02-10 13:30:34;4.19;49;34.50;0;2.89
2022-02-10 13:35:34;4.19;49;34.60;0;1.60
2022-02-10 13:40:34;4.19;50;34.30;0;2.79
2022-02-10 13:45:34;4.19;51;34.60;0;1.90
2022-02-10 13:50:34;4.19;52;34.70;0;2.49
2022-02-10 13:55:34;4.19;50;34.60;0;1.20
2022-02-10 14:00:34;4.19;49;34.50;0;1.70
2022-02-10 14:05:34;4.19;52;35.40;0;1.30
2022-02-10 14:10:34;4.20;50;34.90;0;2.39
2022-02-10 14:15:34;4.20;51;35.00;0;3.58
2022-02-10 14:20:34;4.20;52;35.10;0;3.28
2022-02-10 14:25:34;4.20;50;34.90;0;4.47
2022-02-10 14:30:34;4.20;50;35.20;0;0.00
2022-02-10 14:35:34;4.20;50;35.00;0;2.19
2022-02-10 14:40:34;4.20;49;35.60;0;2.79
2022-02-10 14:45:34;4.20;49;35.80;0;1.50
2022-02-10 14:50:35;4.20;49;35.40;0;1.40
2022-02-10 14:55:35;4.20;46;35.60;0;1.50
2022-02-10 15:00:35;4.20;46;35.50;0;1.10
2022-02-10 15:05:35;4.20;50;35.80;0;1.50
2022-02-10 15:10:35;4.20;48;35.50;0;1.60
2022-02-10 15:15:36;4.20;45;35.20;0;1.20
2022-02-10 15:20:36;4.20;47;35.60;0;1.80
2022-02-10 15:25:36;4.20;47;35.80;0;1.60
2022-02-10 15:30:36;4.20;46;36.00;0;0.00
2022-02-10 15:35:36;4.20;46;36.40;0;0.00
2022-02-10 15:40:32;4.20;45;36.20;0;1.40
2022-02-10 15:45:37;4.20;48;35.80;0;1.30
2022-02-10 15:50:37;4.20;48;35.30;0;2.09
2022-02-10 15:55:37;4.20;46;35.80;0;1.30
2022-02-10 16:00:33;4.20;46;35.90;0;1.30
2022-02-10 16:05:33;4.20;45;36.20;0;0.00
2022-02-10 16:10:38;4.20;49;35.90;0;3.48
2022-02-10 16:15:33;4.20;45;35.60;0;0.00
2022-02-10 16:20:33;4.20;48;36.30;0;1.30
2022-02-10 16:25:34;4.20;46;35.60;0;2.49
2022-02-10 16:30:34;4.20;49;35.50;0;1.90
2022-02-10 16:35:34;4.20;45;35.40;0;0.00
2022-02-10 16:40:34;4.21;48;35.80;0;1.40
2022-02-10 16:45:34;4.21;48;35.80;0;2.49
2022-02-10 16:50:34;4.20;46;35.60;0;3.38
2022-02-10 16:55:34;4.20;46;35.30;0;2.19
2022-02-10 17:00:35;4.21;46;35.60;0;1.10
2022-02-10 17:05:35;4.20;46;35.70;0;2.59
2022-02-10 17:10:35;4.21;47;35.40;0;1.80
2022-02-10 17:15:35;4.21;48;35.50;0;2.29
2022-02-10 17:20:35;4.21;50;35.70;0;0.00
2022-02-10 17:25:35;4.21;48;35.50;0;0.00
2022-02-10 17:30:35;4.21;51;35.30;0;1.40
2022-02-10 17:35:35;4.21;46;35.20;0;2.39
2022-02-10 17:40:35;4.21;47;35.10;0;0.00
2022-02-10 17:45:35;4.21;48;35.40;0;0.00
2022-02-10 17:50:35;4.21;48;34.80;0;1.90
2022-02-10 17:55:35;4.21;49;34.70;0;0.00
2022-02-10 18:00:35;4.21;48;34.90;0;0.00
2022-02-10 18:05:35;4.21;51;34.60;0;0.00
2022-02-10 18:10:34;4.21;50;34.50;0;1.10
2022-02-10 18:15:34;4.21;52;34.50;0;0.00
2022-02-10 18:20:34;4.21;52;34.20;0;1.10
2022-02-10 18:25:34;4.21;51;34.00;0;0.00
2022-02-10 18:30:34;4.21;49;34.10;0;0.00
2022-02-10 18:35:33;4.21;52;33.90;0;0.00
2022-02-10 18:40:33;4.21;54;33.70;0;0.00
2022-02-10 18:45:37;4.20;55;33.30;0;0.00
2022-02-10 18:50:32;4.20;55;32.90;0;0.00
2022-02-10 18:55:36;4.20;55;32.80;0;0.00
2022-02-10 19:00:31;4.20;54;32.70;0;0.00
2022-02-10 19:05:36;4.20;54;32.90;0;0.00
2022-02-10 19:10:35;4.20;57;32.60;0;0.00
2022-02-10 19:15:34;4.20;56;32.40;0;0.00
2022-02-10 19:20:34;4.20;57;32.30;0;0.00
2022-02-10 19:25:33;4.20;61;31.50;0;0.00
2022-02-10 19:30:32;4.20;60;31.00;0;0.00
2022-02-10 19:35:36;4.20;60;30.90;0;0.00
2022-02-10 19:40:31;4.20;60;30.30;0;0.00
2022-02-10 19:45:34;4.20;62;29.60;0;0.00
2022-02-10 19:50:33;4.20;64;28.90;0;0.00
2022-02-10 19:55:32;4.20;64;28.50;0;0.00
2022-02-10 20:00:36;4.19;64;28.50;0;0.00
2022-02-10 20:05:35;4.19;66;27.90;0;0.00
2022-02-10 20:10:33;4.19;65;28.00;0;0.00
2022-02-10 20:15:32;4.19;64;28.10;0;0.00
2022-02-10 20:20:35;4.19;62;28.40;0;0.00
2022-02-10 20:25:34;4.19;64;28.10;0;0.00
2022-02-10 20:30:32;4.19;64;27.80;0;0.00
2022-02-10 20:35:35;4.19;63;27.90;0;0.00
2022-02-10 20:40:34;4.18;65;27.30;0;0.00
2022-02-10 20:45:32;4.18;67;26.50;0;0.00
2022-02-10 20:50:35;4.18;68;25.90;0;0.00
2022-02-10 20:55:34;4.18;69;25.50;0;0.00
2022-02-10 21:00:32;4.18;71;25.00;0;0.00
2022-02-10 21:05:35;4.18;71;24.90;0;0.00
2022-02-10 21:10:33;4.18;71;24.80;0;0.00
2022-02-10 21:15:36;4.18;70;24.80;0;0.00
2022-02-10 21:20:34;4.18;69;25.30;0;0.00
2022-02-10 21:25:32;4.17;69;25.30;0;0.00
2022-02-10 21:30:30;4.18;71;24.80;0;0.00
2022-02-10 21:35:33;4.17;72;24.30;0;0.00
2022-02-10 21:40:36;4.17;73;23.80;0;0.00
2022-02-10 21:45:33;4.17;71;23.90;0;0.00
2022-02-10 21:50:31;4.17;71;23.90;0;0.00
2022-02-10 21:55:34;4.17;72;23.90;0;0.00
2022-02-10 22:00:32;4.17;74;23.50;0;0.00
2022-02-10 22:05:34;4.17;74;23.10;0;0.00
2022-02-10 22:10:32;4.17;75;22.60;0;0.00
2022-02-10 22:15:30;4.17;76;22.00;0;0.00
2022-02-10 22:20:32;4.16;77;21.70;0;0.00
2022-02-10 22:25:35;4.16;76;22.00;0;0.00
2022-02-10 22:30:32;4.16;75;22.30;0;0.00
2022-02-10 22:35:30;4.16;75;22.30;0;0.00
2022-02-10 22:40:32;4.16;75;22.60;0;0.00
2022-02-10 22:45:35;4.16;75;22.30;0;0.00
2022-02-10 22:50:32;4.16;74;23.10;0;0.00
2022-02-10 22:55:35;4.16;73;23.30;0;0.00
2022-02-10 23:00:32;4.16;74;23.20;0;0.00
2022-02-10 23:05:35;4.16;74;23.20;0;0.00
2022-02-10 23:10:32;4.16;75;23.10;0;0.00
2022-02-10 23:15:35;4.16;75;23.00;0;0.00
2022-02-10 23:20:32;4.16;76;22.90;0;0.00
2022-02-10 23:25:35;4.16;76;22.90;0;0.00
2022-02-10 23:30:32;4.16;76;22.90;0;0.00
2022-02-10 23:35:35;4.16;77;22.30;0;0.00
2022-02-10 23:40:33;4.16;77;22.10;0;0.00
2022-02-10 23:45:35;4.16;76;22.30;0;0.00
2022-02-10 23:50:33;4.16;76;22.30;0;0.00
2022-02-10 23:55:35;4.16;76;22.30;0;0.00
