2022-05-27 00:00:33;4.16;99;13.70;0;0.00
2022-05-27 00:05:30;4.16;99;13.60;0;0.00
2022-05-27 00:10:31;4.16;99;13.70;0;0.00
2022-05-27 00:15:32;4.16;99;13.60;0;0.00
2022-05-27 00:20:29;4.16;99;13.60;0;0.00
2022-05-27 00:25:30;4.16;99;13.60;0;0.00
2022-05-27 00:30:32;4.16;99;13.60;0;0.00
2022-05-27 00:35:33;4.16;99;13.50;0;0.00
2022-05-27 00:40:30;4.16;99;13.50;0;0.00
2022-05-27 00:45:31;4.16;99;13.50;0;0.00
2022-05-27 00:50:32;4.16;99;13.50;0;0.00
2022-05-27 00:55:29;4.16;99;13.50;0;0.00
2022-05-27 01:00:30;4.16;99;13.60;0;0.00
2022-05-27 01:05:31;4.16;99;13.70;0;0.00
2022-05-27 01:10:33;4.16;99;13.60;0;0.00
2022-05-27 01:15:29;4.16;99;13.70;0;0.00
2022-05-27 01:20:31;4.16;99;13.70;0;0.00
2022-05-27 01:25:32;4.16;99;13.70;0;0.00
2022-05-27 01:30:33;4.16;99;13.60;0;0.00
2022-05-27 01:35:30;4.16;99;13.60;0;0.00
2022-05-27 01:40:31;4.16;99;13.50;0;0.00
2022-05-27 01:45:32;4.16;99;13.50;0;0.00
2022-05-27 01:50:29;4.16;99;13.50;0;0.00
2022-05-27 01:55:30;4.16;99;13.50;0;1.60
2022-05-27 02:00:32;4.16;99;13.50;0;0.00
2022-05-27 02:05:33;4.16;99;13.40;0;0.00
2022-05-27 02:10:30;4.16;99;13.40;0;0.00
2022-05-27 02:15:31;4.16;99;13.40;0;0.00
2022-05-27 02:20:32;4.16;99;13.30;0;0.00
2022-05-27 02:25:29;4.16;99;13.30;0;1.20
2022-05-27 02:30:30;4.16;99;13.30;0;0.00
2022-05-27 02:35:31;4.15;99;13.30;0;1.10
2022-05-27 02:40:33;4.16;99;13.30;0;0.00
2022-05-27 02:45:29;4.15;99;13.30;0;1.20
2022-05-27 02:50:31;4.15;99;13.20;0;1.30
2022-05-27 02:55:32;4.16;99;13.20;0;1.10
2022-05-27 03:00:33;4.16;99;13.20;0;1.60
2022-05-27 03:05:30;4.15;99;13.20;0;0.00
2022-05-27 03:10:31;4.15;99;13.10;0;1.20
2022-05-27 03:15:32;4.16;99;13.10;0;0.00
2022-05-27 03:20:33;4.16;99;13.10;0;1.40
2022-05-27 03:25:30;4.15;99;13.10;0;1.20
2022-05-27 03:30:31;4.16;99;13.00;0;1.30
2022-05-27 03:35:32;4.15;99;13.00;0;0.00
2022-05-27 03:40:29;4.16;99;13.00;0;0.00
2022-05-27 03:45:30;4.16;99;12.90;0;0.00
2022-05-27 03:50:31;4.15;99;12.90;0;0.00
2022-05-27 03:55:33;4.15;99;12.90;0;0.00
2022-05-27 04:00:29;4.15;99;12.90;0;0.00
2022-05-27 04:05:31;4.15;99;12.90;0;0.00
2022-05-27 04:10:32;4.15;99;12.90;0;0.00
2022-05-27 04:15:33;4.16;99;12.90;0;0.00
2022-05-27 04:20:30;4.15;99;12.90;0;0.00
2022-05-27 04:25:31;4.15;99;12.90;0;0.00
2022-05-27 04:30:32;4.15;99;12.90;0;0.00
2022-05-27 04:35:29;4.15;99;12.90;0;1.30
2022-05-27 04:40:30;4.15;99;12.90;0;0.00
2022-05-27 04:45:31;4.15;99;12.90;0;0.00
2022-05-27 04:50:32;4.15;99;12.90;0;0.00
2022-05-27 04:55:29;4.15;99;12.90;0;0.00
2022-05-27 05:00:30;4.15;99;12.90;0;0.00
2022-05-27 05:05:31;4.15;99;12.90;0;0.00
2022-05-27 05:10:33;4.15;99;12.90;0;1.30
2022-05-27 05:15:29;4.15;99;12.90;0;1.20
2022-05-27 05:20:30;4.15;99;12.80;0;0.00
2022-05-27 05:25:32;4.15;99;12.90;0;0.00
2022-05-27 05:30:33;4.15;99;12.80;0;0.00
2022-05-27 05:35:29;4.15;99;12.80;0;0.00
2022-05-27 05:40:31;4.15;99;12.80;0;0.00
2022-05-27 05:45:32;4.15;99;12.80;0;0.00
2022-05-27 05:50:33;4.15;99;12.80;0;0.00
2022-05-27 05:55:30;4.15;99;12.70;0;0.00
2022-05-27 06:00:31;4.15;99;12.70;0;0.00
2022-05-27 06:05:32;4.15;99;12.70;0;0.00
2022-05-27 06:10:33;4.15;99;12.70;0;1.20
2022-05-27 06:15:30;4.15;99;12.70;0;0.00
2022-05-27 06:20:31;4.15;99;12.70;0;1.10
2022-05-27 06:25:32;4.15;99;12.60;0;0.00
2022-05-27 06:30:29;4.15;99;12.60;0;0.00
2022-05-27 06:35:30;4.15;99;12.50;0;0.00
2022-05-27 06:40:31;4.15;99;12.40;0;0.00
2022-05-27 06:45:32;4.15;99;12.40;0;0.00
2022-05-27 06:50:29;4.15;99;12.30;0;0.00
2022-05-27 06:55:30;4.15;99;12.30;0;0.00
2022-05-27 07:00:31;4.15;99;12.20;0;0.00
2022-05-27 07:05:32;4.15;99;12.20;0;1.60
2022-05-27 07:10:29;4.15;99;12.20;0;0.00
2022-05-27 07:15:30;4.15;99;12.30;0;0.00
2022-05-27 07:20:31;4.15;99;12.20;0;0.00
2022-05-27 07:25:32;4.15;99;12.20;0;0.00
2022-05-27 07:30:29;4.15;99;12.20;0;0.00
2022-05-27 07:35:30;4.15;99;12.20;0;0.00
2022-05-27 07:40:31;4.15;99;12.20;0;0.00
2022-05-27 07:45:32;4.15;99;12.10;0;1.20
2022-05-27 07:50:33;4.15;99;12.10;0;2.39
2022-05-27 07:55:30;4.15;99;12.00;0;0.00
2022-05-27 08:00:31;4.15;99;12.00;0;0.00
2022-05-27 08:05:32;4.15;99;12.00;0;1.50
2022-05-27 08:10:33;4.15;99;12.00;0;1.60
2022-05-27 08:15:30;4.15;99;12.00;0;0.00
2022-05-27 08:20:31;4.15;99;12.00;0;0.00
2022-05-27 08:25:32;4.15;99;12.00;0;0.00
2022-05-27 08:30:33;4.15;99;12.10;0;0.00
2022-05-27 08:35:29;4.15;99;12.10;0;0.00
2022-05-27 08:40:30;4.15;99;12.20;0;0.00
2022-05-27 08:45:31;4.15;99;12.30;0;1.10
2022-05-27 08:50:33;4.15;99;12.40;0;1.40
2022-05-27 08:55:29;4.15;99;12.40;0;1.30
2022-05-27 09:00:30;4.16;99;12.60;0;1.50
2022-05-27 09:05:31;4.16;99;12.80;0;1.50
2022-05-27 09:10:33;4.16;99;12.90;0;1.60
2022-05-27 09:15:29;4.15;99;12.80;0;2.19
2022-05-27 09:20:31;4.16;99;12.80;0;1.60
2022-05-27 09:25:32;4.16;99;13.00;0;1.50
2022-05-27 09:30:33;4.16;99;13.10;0;1.30
2022-05-27 09:35:30;4.16;99;13.20;0;1.90
2022-05-27 09:40:31;4.16;99;13.30;0;1.40
2022-05-27 09:45:32;4.16;99;13.20;0;0.00
2022-05-27 09:50:29;4.17;99;13.40;0;1.30
2022-05-27 09:55:30;4.16;99;13.50;0;2.19
2022-05-27 10:00:32;4.17;99;13.60;0;0.00
2022-05-27 10:05:33;4.16;99;13.60;0;1.60
2022-05-27 10:10:30;4.17;99;13.80;0;1.20
2022-05-27 10:15:31;4.17;99;13.60;0;1.40
2022-05-27 10:20:32;4.16;99;13.80;0;2.19
2022-05-27 10:25:29;4.17;99;13.60;0;2.09
2022-05-27 10:30:31;4.16;99;13.50;0;1.30
2022-05-27 10:35:32;4.17;99;13.50;0;1.70
2022-05-27 10:40:33;4.16;99;13.40;0;1.80
2022-05-27 10:45:30;4.17;99;13.40;0;2.00
2022-05-27 10:50:32;4.17;99;13.40;0;1.50
2022-05-27 10:55:33;4.16;99;13.50;0;1.40
2022-05-27 11:00:30;4.17;99;13.40;0;1.30
2022-05-27 11:05:31;4.17;99;13.50;0;1.50
2022-05-27 11:10:32;4.17;99;13.50;0;1.80
2022-05-27 11:15:29;4.17;99;13.60;0;1.60
2022-05-27 11:20:31;4.17;99;13.80;0;1.40
2022-05-27 11:25:32;4.17;99;14.20;0;1.20
2022-05-27 11:30:33;4.17;99;13.90;0;1.60
2022-05-27 11:35:30;4.17;99;13.90;0;2.09
2022-05-27 11:40:32;4.17;99;13.90;0;1.70
2022-05-27 11:45:33;4.17;99;13.90;0;1.50
2022-05-27 11:50:30;4.17;99;14.20;0;2.19
2022-05-27 11:55:31;4.18;99;14.00;0;1.90
2022-05-27 12:00:33;4.17;99;14.10;0;1.60
2022-05-27 12:05:30;4.18;99;14.10;0;1.90
2022-05-27 12:10:31;4.18;99;14.50;0;1.70
2022-05-27 12:15:33;4.17;99;14.30;0;1.80
2022-05-27 12:20:29;4.18;99;14.30;0;2.29
2022-05-27 12:25:31;4.18;99;14.40;0;1.40
2022-05-27 12:30:32;4.18;99;14.30;0;1.90
2022-05-27 12:35:29;4.18;99;14.50;0;1.40
2022-05-27 12:40:31;4.18;99;14.70;0;1.50
2022-05-27 12:45:32;4.18;99;14.70;0;2.09
2022-05-27 12:50:29;4.18;99;14.70;0;0.00
2022-05-27 12:55:31;4.18;0;14.90;0;2.19
2022-05-27 13:00:32;4.18;10;15.00;0;1.30
2022-05-27 13:05:29;4.18;19;15.30;0;0.00
2022-05-27 13:10:31;4.18;28;15.40;0;2.09
2022-05-27 13:15:32;4.19;24;15.30;0;1.60
2022-05-27 13:20:29;4.18;28;15.50;0;1.40
2022-05-27 13:25:31;4.18;34;15.40;0;0.00
2022-05-27 13:30:32;4.19;35;15.60;0;1.70
2022-05-27 13:35:30;4.19;39;15.80;0;2.09
2022-05-27 13:40:31;4.19;49;15.90;0;1.60
2022-05-27 13:45:33;4.19;50;16.40;0;2.09
2022-05-27 13:50:30;4.19;51;16.50;0;0.00
2022-05-27 13:55:32;4.19;56;17.10;0;1.80
2022-05-27 14:00:34;4.19;60;16.60;0;2.09
2022-05-27 14:05:31;4.19;61;16.60;0;0.00
2022-05-27 14:10:33;4.19;63;17.20;0;0.00
2022-05-27 14:15:30;4.19;66;17.00;0;1.40
2022-05-27 14:20:32;4.19;64;17.60;0;2.00
2022-05-27 14:25:34;4.19;69;17.60;0;0.00
2022-05-27 14:30:31;4.19;67;17.80;0;1.10
2022-05-27 14:35:33;4.19;72;17.80;0;1.80
2022-05-27 14:40:31;4.19;72;17.50;0;0.00
2022-05-27 14:45:33;4.19;72;18.30;0;0.00
2022-05-27 14:50:30;4.20;73;18.60;0;0.00
2022-05-27 14:55:32;4.19;74;19.40;0;0.00
2022-05-27 15:00:30;4.19;76;18.90;0;0.00
2022-05-27 15:05:32;4.20;76;19.40;0;0.00
2022-05-27 15:10:30;4.20;76;19.40;0;0.00
2022-05-27 15:15:32;4.19;78;17.80;0;0.00
2022-05-27 15:20:30;4.19;77;17.40;0;1.30
2022-05-27 15:25:32;4.19;77;17.20;0;0.00
2022-05-27 15:30:30;4.19;77;17.30;0;0.00
2022-05-27 15:35:32;4.20;76;17.30;0;0.00
2022-05-27 15:40:34;4.20;76;17.60;0;0.00
2022-05-27 15:45:31;4.20;76;17.70;0;0.00
2022-05-27 15:50:33;4.19;76;17.70;0;0.00
2022-05-27 15:55:31;4.20;77;17.70;0;0.00
2022-05-27 16:00:33;4.20;76;18.20;0;0.00
2022-05-27 16:05:30;4.20;77;17.80;0;0.00
2022-05-27 16:10:32;4.20;77;17.50;0;1.20
2022-05-27 16:15:30;4.20;77;17.20;0;0.00
2022-05-27 16:20:32;4.19;77;17.10;0;1.20
2022-05-27 16:25:34;4.19;75;16.80;0;0.00
2022-05-27 16:30:31;4.19;74;16.70;0;0.00
2022-05-27 16:35:33;4.19;73;16.60;0;0.00
2022-05-27 16:40:30;4.19;71;16.80;0;0.00
2022-05-27 16:45:32;4.19;72;16.70;0;0.00
2022-05-27 16:50:34;4.19;72;16.50;0;0.00
2022-05-27 16:55:31;4.19;72;16.40;0;0.00
2022-05-27 17:00:33;4.19;73;16.20;0;0.00
2022-05-27 17:05:30;4.19;72;16.10;0;0.00
2022-05-27 17:10:32;4.18;72;15.90;0;0.00
2022-05-27 17:15:33;4.18;72;15.80;0;0.00
2022-05-27 17:20:30;4.19;71;15.70;0;0.00
2022-05-27 17:25:32;4.18;71;15.60;0;0.00
2022-05-27 17:30:33;4.18;70;15.50;0;0.00
2022-05-27 17:35:30;4.18;70;15.40;0;0.00
2022-05-27 17:40:32;4.18;68;15.40;0;0.00
2022-05-27 17:45:34;4.18;66;15.30;0;0.00
2022-05-27 17:50:31;4.18;65;15.30;0;0.00
2022-05-27 17:55:32;4.18;64;15.20;0;0.00
2022-05-27 18:00:34;4.18;59;15.10;0;0.00
2022-05-27 18:05:30;4.18;56;15.00;0;0.00
2022-05-27 18:10:32;4.18;53;14.90;0;0.00
2022-05-27 18:15:33;4.18;50;14.90;0;0.00
2022-05-27 18:20:30;4.18;46;14.80;0;0.00
2022-05-27 18:25:32;4.18;39;14.60;0;0.00
2022-05-27 18:30:33;4.18;30;14.50;0;0.00
2022-05-27 18:35:30;4.18;22;14.40;0;0.00
2022-05-27 18:40:31;4.18;13;14.30;0;0.00
2022-05-27 18:45:33;4.18;7;14.30;0;0.00
2022-05-27 18:50:29;4.18;99;14.20;0;0.00
2022-05-27 18:55:31;4.18;99;14.20;0;0.00
2022-05-27 19:00:32;4.18;99;14.10;0;0.00
2022-05-27 19:05:33;4.18;99;14.10;0;0.00
2022-05-27 19:10:30;4.18;99;14.00;0;0.00
2022-05-27 19:15:31;4.18;99;14.00;0;0.00
2022-05-27 19:20:33;4.18;99;13.90;0;0.00
2022-05-27 19:25:29;4.18;99;14.00;0;0.00
2022-05-27 19:30:31;4.17;99;13.90;0;0.00
2022-05-27 19:35:32;4.17;99;13.80;0;0.00
2022-05-27 19:40:33;4.17;99;13.80;0;0.00
2022-05-27 19:45:30;4.17;99;14.00;0;0.00
2022-05-27 19:50:31;4.17;99;14.00;0;0.00
2022-05-27 19:55:33;4.17;99;14.10;0;0.00
2022-05-27 20:00:29;4.17;99;14.30;0;0.00
2022-05-27 20:05:31;4.17;0;14.30;0;0.00
2022-05-27 20:10:32;4.17;2;14.30;0;0.00
2022-05-27 20:15:33;4.17;2;14.20;0;0.00
2022-05-27 20:20:30;4.17;5;14.30;0;0.00
2022-05-27 20:25:31;4.17;3;14.20;0;0.00
2022-05-27 20:30:33;4.17;99;14.00;0;0.00
2022-05-27 20:35:29;4.17;99;13.90;0;0.00
2022-05-27 20:40:31;4.17;99;13.90;0;0.00
2022-05-27 20:45:32;4.17;99;13.70;0;0.00
2022-05-27 20:50:33;4.17;99;13.60;0;0.00
2022-05-27 20:55:30;4.17;99;13.50;0;0.00
2022-05-27 21:00:31;4.17;99;13.40;0;0.00
2022-05-27 21:05:32;4.17;99;13.50;0;0.00
2022-05-27 21:10:29;4.17;99;13.50;0;0.00
2022-05-27 21:15:30;4.17;99;13.50;0;0.00
2022-05-27 21:20:32;4.17;99;13.30;0;0.00
2022-05-27 21:25:33;4.17;99;13.20;0;0.00
2022-05-27 21:30:29;4.17;99;13.10;0;0.00
2022-05-27 21:35:31;4.17;99;13.10;0;0.00
2022-05-27 21:40:32;4.17;99;13.10;0;0.00
2022-05-27 21:45:33;4.17;99;12.90;0;0.00
2022-05-27 21:50:30;4.17;99;12.70;0;0.00
2022-05-27 21:55:31;4.17;99;12.80;0;0.00
2022-05-27 22:00:32;4.17;99;12.80;0;0.00
2022-05-27 22:05:33;4.17;99;12.70;0;0.00
2022-05-27 22:10:30;4.17;99;12.70;0;0.00
2022-05-27 22:15:31;4.17;99;12.60;0;0.00
2022-05-27 22:20:32;4.17;99;12.50;0;0.00
2022-05-27 22:25:33;4.17;99;12.40;0;0.00
2022-05-27 22:30:30;4.16;99;12.50;0;0.00
2022-05-27 22:35:31;4.16;99;12.50;0;0.00
2022-05-27 22:40:32;4.16;99;12.20;0;0.00
2022-05-27 22:45:33;4.16;99;12.20;0;0.00
2022-05-27 22:50:30;4.16;99;12.20;0;0.00
2022-05-27 22:55:31;4.16;99;12.10;0;0.00
2022-05-27 23:00:32;4.16;99;11.90;0;0.00
2022-05-27 23:05:33;4.16;99;11.80;0;0.00
2022-05-27 23:10:29;4.16;99;11.90;0;0.00
2022-05-27 23:15:30;4.16;99;12.10;0;0.00
2022-05-27 23:20:31;4.16;99;12.00;0;0.00
2022-05-27 23:25:32;4.16;99;12.00;0;0.00
2022-05-27 23:30:29;4.16;99;12.00;0;0.00
2022-05-27 23:35:30;4.16;99;12.10;0;0.00
2022-05-27 23:40:31;4.16;99;12.00;0;0.00
2022-05-27 23:45:32;4.16;99;12.00;0;0.00
2022-05-27 23:50:33;4.16;99;12.00;0;0.00
2022-05-27 23:55:29;4.16;99;12.00;0;0.00
