2022-05-29 00:00:33;4.16;99;13.10;0;1.30
2022-05-29 00:05:30;4.16;99;13.10;0;2.19
2022-05-29 00:10:31;4.16;99;13.20;0;1.90
2022-05-29 00:15:32;4.16;99;13.30;0;2.69
2022-05-29 00:20:33;4.16;99;13.30;0;1.30
2022-05-29 00:25:30;4.16;99;13.30;0;3.18
2022-05-29 00:30:31;4.16;99;13.20;0;2.39
2022-05-29 00:35:32;4.16;99;13.20;0;2.29
2022-05-29 00:40:29;4.16;99;13.20;0;2.19
2022-05-29 00:45:30;4.16;99;13.20;0;2.59
2022-05-29 00:50:31;4.16;99;13.10;0;1.80
2022-05-29 00:55:33;4.16;99;13.10;0;2.00
2022-05-29 01:00:29;4.16;99;13.10;0;1.50
2022-05-29 01:05:30;4.16;99;13.10;0;1.60
2022-05-29 01:10:32;4.16;99;13.00;0;0.00
2022-05-29 01:15:33;4.16;99;12.90;0;1.20
2022-05-29 01:20:30;4.16;99;13.00;0;0.00
2022-05-29 01:25:31;4.16;99;12.90;0;0.00
2022-05-29 01:30:32;4.16;99;12.90;0;1.30
2022-05-29 01:35:33;4.15;99;12.80;0;1.10
2022-05-29 01:40:30;4.16;99;12.70;0;0.00
2022-05-29 01:45:31;4.16;99;12.50;0;0.00
2022-05-29 01:50:32;4.15;99;12.50;0;1.20
2022-05-29 01:55:29;4.15;99;12.40;0;1.50
2022-05-29 02:00:30;4.16;99;12.40;0;2.00
2022-05-29 02:05:31;4.15;99;12.30;0;1.90
2022-05-29 02:10:32;4.15;99;12.20;0;1.40
2022-05-29 02:15:29;4.15;99;12.10;0;1.30
2022-05-29 02:20:30;4.15;99;12.00;0;1.40
2022-05-29 02:25:31;4.15;99;12.00;0;1.20
2022-05-29 02:30:32;4.15;99;12.00;0;1.80
2022-05-29 02:35:29;4.15;99;11.80;0;1.80
2022-05-29 02:40:30;4.15;99;11.60;0;1.70
2022-05-29 02:45:31;4.15;99;11.40;0;1.70
2022-05-29 02:50:32;4.15;99;11.40;0;1.70
2022-05-29 02:55:33;4.15;99;11.20;0;1.50
2022-05-29 03:00:30;4.15;99;11.00;0;1.60
2022-05-29 03:05:31;4.15;99;11.00;0;1.70
2022-05-29 03:10:32;4.15;99;10.90;0;1.30
2022-05-29 03:15:33;4.15;99;11.00;0;1.30
2022-05-29 03:20:29;4.15;99;11.10;0;2.19
2022-05-29 03:25:30;4.15;99;11.20;0;1.50
2022-05-29 03:30:31;4.15;99;11.30;0;1.90
2022-05-29 03:35:32;4.15;99;11.30;0;1.20
2022-05-29 03:40:33;4.15;99;11.40;0;0.00
2022-05-29 03:45:29;4.15;99;11.40;0;1.80
2022-05-29 03:50:30;4.15;99;11.40;0;1.10
2022-05-29 03:55:31;4.15;99;11.40;0;2.00
2022-05-29 04:00:33;4.15;99;11.30;0;1.30
2022-05-29 04:05:29;4.15;99;11.20;0;1.90
2022-05-29 04:10:30;4.15;99;11.10;0;1.20
2022-05-29 04:15:31;4.15;99;11.00;0;1.40
2022-05-29 04:20:32;4.15;99;10.80;0;1.70
2022-05-29 04:25:29;4.15;99;10.50;0;0.00
2022-05-29 04:30:30;4.15;99;10.20;0;0.00
2022-05-29 04:35:31;4.15;99;9.90;0;0.00
2022-05-29 04:40:32;4.15;99;9.70;0;0.00
2022-05-29 04:45:32;4.15;99;9.50;0;1.30
2022-05-29 04:50:29;4.15;99;9.30;0;0.00
2022-05-29 04:55:30;4.15;99;9.20;0;1.50
2022-05-29 05:00:30;4.15;99;8.90;0;1.20
2022-05-29 05:05:31;4.15;99;8.80;0;1.20
2022-05-29 05:10:32;4.15;99;8.70;0;1.40
2022-05-29 05:15:33;4.15;99;8.60;0;1.30
2022-05-29 05:20:29;4.15;99;8.60;0;1.10
2022-05-29 05:25:30;4.15;99;8.40;0;0.00
2022-05-29 05:30:30;4.14;99;8.50;0;1.10
2022-05-29 05:35:31;4.15;99;8.50;0;1.10
2022-05-29 05:40:32;4.14;99;8.60;0;1.10
2022-05-29 05:45:32;4.15;99;8.60;0;1.30
2022-05-29 05:50:28;4.15;99;8.60;0;0.00
2022-05-29 05:55:29;4.15;99;8.50;0;0.00
2022-05-29 06:00:30;4.14;99;8.10;0;0.00
2022-05-29 06:05:30;4.14;99;7.50;0;0.00
2022-05-29 06:10:31;4.15;99;7.60;0;0.00
2022-05-29 06:15:32;4.15;99;7.10;0;0.00
2022-05-29 06:20:32;4.14;99;7.10;0;0.00
2022-05-29 06:25:28;4.14;99;7.30;0;0.00
2022-05-29 06:30:29;4.14;99;7.50;0;0.00
2022-05-29 06:35:30;4.14;99;7.60;0;0.00
2022-05-29 06:40:30;4.14;99;7.70;0;0.00
2022-05-29 06:45:31;4.14;99;7.80;0;1.10
2022-05-29 06:50:31;4.14;99;7.90;0;0.00
2022-05-29 06:55:32;4.14;99;8.00;0;0.00
2022-05-29 07:00:33;4.14;99;8.00;0;0.00
2022-05-29 07:05:29;4.14;99;8.00;0;0.00
2022-05-29 07:10:29;4.14;99;7.90;0;0.00
2022-05-29 07:15:30;4.14;99;7.80;0;0.00
2022-05-29 07:20:31;4.14;99;7.50;0;0.00
2022-05-29 07:25:31;4.14;99;7.30;0;0.00
2022-05-29 07:30:32;4.14;99;7.10;0;0.00
2022-05-29 07:35:32;4.14;99;7.10;0;0.00
2022-05-29 07:40:28;4.14;99;7.20;0;0.00
2022-05-29 07:45:29;4.14;99;7.10;0;0.00
2022-05-29 07:50:30;4.14;99;7.00;0;0.00
2022-05-29 07:55:30;4.14;99;6.90;0;0.00
2022-05-29 08:00:31;4.14;99;7.00;0;1.30
2022-05-29 08:05:31;4.14;99;7.20;0;1.70
2022-05-29 08:10:32;4.14;99;7.40;0;2.09
2022-05-29 08:15:33;4.14;99;7.60;0;2.79
2022-05-29 08:20:29;4.15;99;7.90;0;2.09
2022-05-29 08:25:29;4.16;99;8.10;0;2.00
2022-05-29 08:30:30;4.16;99;8.40;0;2.09
2022-05-29 08:35:30;4.16;99;8.70;0;1.80
2022-05-29 08:40:31;4.17;99;9.00;0;1.80
2022-05-29 08:45:32;4.17;99;9.20;0;2.99
2022-05-29 08:50:33;4.17;99;9.40;0;3.18
2022-05-29 08:55:29;4.17;99;9.50;0;2.79
2022-05-29 09:00:30;4.17;99;9.60;0;2.99
2022-05-29 09:05:31;4.17;99;9.90;0;2.29
2022-05-29 09:10:32;4.17;99;10.10;0;2.00
2022-05-29 09:15:33;4.17;99;10.30;0;2.99
2022-05-29 09:20:29;4.17;99;10.60;0;2.79
2022-05-29 09:25:30;4.18;4;10.80;0;4.47
2022-05-29 09:30:31;4.18;12;10.90;0;2.39
2022-05-29 09:35:32;4.18;20;11.10;0;3.28
2022-05-29 09:40:29;4.17;33;11.50;0;2.09
2022-05-29 09:45:30;4.18;48;11.60;0;3.78
2022-05-29 09:50:31;4.18;59;11.70;0;3.58
2022-05-29 09:55:32;4.18;63;11.90;0;4.17
2022-05-29 10:00:29;4.18;68;12.00;0;3.38
2022-05-29 10:05:30;4.18;72;12.10;0;3.78
2022-05-29 10:10:31;4.18;74;12.40;0;3.48
2022-05-29 10:15:33;4.18;76;12.60;0;3.28
2022-05-29 10:20:29;4.18;77;12.50;0;4.87
2022-05-29 10:25:31;4.18;78;12.80;0;4.47
2022-05-29 10:30:32;4.18;78;13.00;0;2.99
2022-05-29 10:35:33;4.18;78;13.30;0;3.18
2022-05-29 10:40:30;4.18;78;13.60;0;3.58
2022-05-29 10:45:31;4.18;77;13.80;0;4.57
2022-05-29 10:50:33;4.18;76;13.80;0;3.48
2022-05-29 10:55:29;4.18;76;13.70;0;3.68
2022-05-29 11:00:31;4.18;75;13.60;0;4.07
2022-05-29 11:05:32;4.18;75;13.50;0;5.26
2022-05-29 11:10:29;4.18;76;13.80;0;5.56
2022-05-29 11:15:30;4.19;76;13.90;0;3.68
2022-05-29 11:20:31;4.18;75;13.90;0;3.88
2022-05-29 11:25:32;4.19;74;14.30;0;3.38
2022-05-29 11:30:33;4.19;73;14.10;0;4.57
2022-05-29 11:35:30;4.19;72;14.00;0;6.05
2022-05-29 11:40:31;4.19;74;14.20;0;3.18
2022-05-29 11:45:32;4.18;74;14.10;0;4.17
2022-05-29 11:50:33;4.19;73;14.10;0;4.07
2022-05-29 11:55:30;4.18;74;14.20;0;2.79
2022-05-29 12:00:31;4.19;72;14.30;0;2.99
2022-05-29 12:05:32;4.19;72;14.30;0;3.58
2022-05-29 12:10:33;4.19;71;14.20;0;3.18
2022-05-29 12:15:30;4.19;71;14.40;0;3.48
2022-05-29 12:20:31;4.19;68;14.50;0;3.18
2022-05-29 12:25:32;4.19;69;14.60;0;2.69
2022-05-29 12:30:34;4.19;68;15.10;0;2.89
2022-05-29 12:35:30;4.19;67;14.50;0;2.89
2022-05-29 12:40:32;4.19;68;14.70;0;3.58
2022-05-29 12:45:33;4.19;65;14.90;0;2.99
2022-05-29 12:50:30;4.19;67;14.90;0;2.29
2022-05-29 12:55:31;4.19;65;15.50;0;4.17
2022-05-29 13:00:33;4.19;65;15.10;0;2.39
2022-05-29 13:05:34;4.19;65;14.90;0;2.89
2022-05-29 13:10:31;4.19;66;15.50;0;3.58
2022-05-29 13:15:33;4.19;63;14.90;0;3.28
2022-05-29 13:20:34;4.19;64;15.20;0;2.49
2022-05-29 13:25:31;4.19;59;14.70;0;4.17
2022-05-29 13:30:33;4.19;62;15.10;0;2.69
2022-05-29 13:35:34;4.19;63;15.30;0;2.69
2022-05-29 13:40:31;4.19;62;15.60;0;3.18
2022-05-29 13:45:33;4.19;62;15.40;0;3.58
2022-05-29 13:50:34;4.19;60;15.10;0;2.79
2022-05-29 13:55:31;4.19;60;15.30;0;3.48
2022-05-29 14:00:33;4.19;60;15.00;0;2.49
2022-05-29 14:05:35;4.20;58;15.30;0;2.69
2022-05-29 14:10:32;4.20;57;14.90;0;2.39
2022-05-29 14:15:33;4.20;58;15.20;0;2.59
2022-05-29 14:20:30;4.19;55;15.00;0;3.58
2022-05-29 14:25:32;4.20;57;15.20;0;2.19
2022-05-29 14:30:33;4.20;55;15.30;0;4.67
2022-05-29 14:35:30;4.20;56;15.10;0;2.29
2022-05-29 14:40:32;4.20;56;15.00;0;2.39
2022-05-29 14:45:34;4.19;56;15.20;0;3.18
2022-05-29 14:50:30;4.20;54;15.00;0;3.28
2022-05-29 14:55:32;4.20;55;15.20;0;3.28
2022-05-29 15:00:34;4.20;56;15.40;0;2.79
2022-05-29 15:05:31;4.20;55;15.10;0;3.48
2022-05-29 15:10:32;4.20;56;15.40;0;1.90
2022-05-29 15:15:34;4.20;56;15.30;0;2.99
2022-05-29 15:20:31;4.20;55;15.10;0;2.00
2022-05-29 15:25:32;4.20;55;15.30;0;2.00
2022-05-29 15:30:34;4.20;54;15.20;0;1.50
2022-05-29 15:35:31;4.20;56;15.40;0;1.20
2022-05-29 15:40:32;4.20;55;15.40;0;2.59
2022-05-29 15:45:34;4.20;55;15.20;0;2.89
2022-05-29 15:50:31;4.20;54;15.10;0;2.29
2022-05-29 15:55:32;4.20;55;14.90;0;2.29
2022-05-29 16:00:34;4.20;53;14.90;0;3.28
2022-05-29 16:05:30;4.20;53;14.90;0;3.78
2022-05-29 16:10:32;4.20;56;15.00;0;2.49
2022-05-29 16:15:33;4.20;56;14.60;0;2.59
2022-05-29 16:20:30;4.20;55;14.50;0;2.59
2022-05-29 16:25:31;4.20;56;14.40;0;1.50
2022-05-29 16:30:33;4.20;54;14.30;0;1.90
2022-05-29 16:35:34;4.20;55;14.30;0;3.08
2022-05-29 16:40:31;4.20;55;14.00;0;3.58
2022-05-29 16:45:32;4.20;55;14.20;0;3.08
2022-05-29 16:50:33;4.20;57;14.00;0;1.50
2022-05-29 16:55:30;4.20;56;13.90;0;2.89
2022-05-29 17:00:31;4.20;56;13.80;0;2.59
2022-05-29 17:05:33;4.20;56;13.50;0;2.69
2022-05-29 17:10:34;4.20;57;13.50;0;2.29
2022-05-29 17:15:31;4.20;56;13.20;0;1.50
2022-05-29 17:20:32;4.20;57;13.10;0;1.50
2022-05-29 17:25:33;4.20;57;12.90;0;1.60
2022-05-29 17:30:34;4.19;57;12.50;0;1.90
2022-05-29 17:35:31;4.19;59;12.30;0;1.60
2022-05-29 17:40:32;4.19;60;12.20;0;1.50
2022-05-29 17:45:33;4.19;60;12.00;0;2.29
2022-05-29 17:50:34;4.19;61;11.60;0;1.40
2022-05-29 17:55:30;4.18;63;11.10;0;1.20
2022-05-29 18:00:31;4.18;64;10.80;0;0.00
2022-05-29 18:05:32;4.18;65;10.40;0;0.00
2022-05-29 18:10:33;4.18;67;9.90;0;1.30
2022-05-29 18:15:33;4.18;69;9.60;0;0.00
2022-05-29 18:20:29;4.18;70;9.10;0;0.00
2022-05-29 18:25:30;4.18;71;9.00;0;0.00
2022-05-29 18:30:31;4.18;73;8.50;0;0.00
2022-05-29 18:35:31;4.18;75;8.00;0;0.00
2022-05-29 18:40:32;4.17;76;7.60;0;0.00
2022-05-29 18:45:32;4.17;77;7.50;0;0.00
2022-05-29 18:50:33;4.17;77;7.70;0;0.00
2022-05-29 18:55:33;4.17;78;7.70;0;0.00
2022-05-29 19:00:29;4.17;79;7.40;0;0.00
2022-05-29 19:05:34;4.17;80;7.00;0;0.00
2022-05-29 19:10:30;4.17;81;6.70;0;0.00
2022-05-29 19:15:30;4.17;80;6.70;0;1.30
2022-05-29 19:20:30;4.17;80;6.80;0;0.00
2022-05-29 19:25:31;4.17;81;6.60;0;1.10
2022-05-29 19:30:31;4.17;82;6.60;0;0.00
2022-05-29 19:35:31;4.17;83;6.50;0;0.00
2022-05-29 19:40:32;4.17;82;6.40;0;0.00
2022-05-29 19:45:32;4.17;82;6.30;0;0.00
2022-05-29 19:50:32;4.17;83;6.10;0;0.00
2022-05-29 19:55:32;4.17;83;5.90;0;0.00
2022-05-29 20:00:32;4.17;83;5.80;0;0.00
2022-05-29 20:05:33;4.17;84;5.80;0;0.00
2022-05-29 20:10:33;4.16;84;5.90;0;0.00
2022-05-29 20:15:33;4.16;84;6.10;0;0.00
2022-05-29 20:20:33;4.16;84;5.90;0;0.00
2022-05-29 20:25:29;4.16;84;5.60;0;0.00
2022-05-29 20:30:33;4.16;85;5.50;0;0.00
2022-05-29 20:35:29;4.16;85;5.40;0;0.00
2022-05-29 20:40:34;4.16;85;5.40;0;0.00
2022-05-29 20:45:29;4.16;85;5.50;0;0.00
2022-05-29 20:50:29;4.16;84;5.40;0;0.00
2022-05-29 20:55:30;4.16;85;5.10;0;0.00
2022-05-29 21:00:30;4.16;86;5.30;0;0.00
2022-05-29 21:05:30;4.16;85;5.50;0;0.00
2022-05-29 21:10:30;4.16;85;5.50;0;0.00
2022-05-29 21:15:30;4.16;85;5.40;0;0.00
2022-05-29 21:20:30;4.16;86;5.10;0;0.00
2022-05-29 21:25:30;4.16;85;5.30;0;0.00
2022-05-29 21:30:30;4.16;85;5.40;0;0.00
2022-05-29 21:35:30;4.16;85;5.20;0;0.00
2022-05-29 21:40:31;4.16;85;5.30;0;0.00
2022-05-29 21:45:31;4.16;86;4.80;0;0.00
2022-05-29 21:50:31;4.16;86;4.70;0;0.00
2022-05-29 21:55:31;4.16;86;4.60;0;0.00
2022-05-29 22:00:31;4.16;86;4.40;0;0.00
2022-05-29 22:05:31;4.16;86;4.40;0;0.00
2022-05-29 22:10:31;4.15;86;4.30;0;0.00
2022-05-29 22:15:31;4.16;88;4.00;0;0.00
2022-05-29 22:20:31;4.15;87;4.10;0;0.00
2022-05-29 22:25:31;4.15;87;3.80;0;0.00
2022-05-29 22:30:31;4.15;87;3.80;0;0.00
2022-05-29 22:35:31;4.16;88;3.20;0;0.00
2022-05-29 22:40:31;4.15;88;3.20;0;0.00
2022-05-29 22:45:31;4.15;87;3.10;0;0.00
2022-05-29 22:50:31;4.15;87;3.10;0;0.00
2022-05-29 22:55:31;4.15;87;2.80;0;0.00
2022-05-29 23:00:31;4.15;86;2.80;0;0.00
2022-05-29 23:05:31;4.15;86;2.80;0;0.00
2022-05-29 23:10:31;4.15;87;2.30;0;0.00
2022-05-29 23:15:31;4.15;85;2.50;0;0.00
2022-05-29 23:20:31;4.15;85;2.50;0;0.00
2022-05-29 23:25:31;4.15;84;2.40;0;0.00
2022-05-29 23:30:31;4.15;84;2.40;0;0.00
2022-05-29 23:35:31;4.15;84;2.00;0;0.00
2022-05-29 23:40:31;4.15;83;1.60;0;0.00
2022-05-29 23:45:30;4.15;79;1.70;0;0.00
2022-05-29 23:50:30;4.15;78;1.70;0;0.00
2022-05-29 23:55:30;4.15;78;1.70;0;0.00
