2022-04-29 00:00:32;4.18;70;8.40;6;0.00
2022-04-29 00:05:32;4.18;69;8.40;0;0.00
2022-04-29 00:10:33;4.18;69;8.30;0;0.00
2022-04-29 00:15:33;4.18;69;8.30;0;0.00
2022-04-29 00:20:33;4.17;69;8.30;0;0.00
2022-04-29 00:25:29;4.17;69;8.20;0;0.00
2022-04-29 00:30:30;4.17;68;8.10;0;0.00
2022-04-29 00:35:30;4.17;67;7.90;0;0.00
2022-04-29 00:40:30;4.17;65;7.70;0;0.00
2022-04-29 00:45:31;4.18;64;7.70;0;0.00
2022-04-29 00:50:31;4.17;64;7.70;0;0.00
2022-04-29 00:55:31;4.18;64;7.80;0;0.00
2022-04-29 01:00:32;4.18;64;7.90;0;0.00
2022-04-29 01:05:32;4.18;64;7.90;0;0.00
2022-04-29 01:10:32;4.17;64;8.00;0;0.00
2022-04-29 01:15:33;4.17;64;7.80;0;0.00
2022-04-29 01:20:33;4.17;62;7.70;0;0.00
2022-04-29 01:25:29;4.17;62;7.80;0;0.00
2022-04-29 01:30:34;4.17;63;8.00;0;0.00
2022-04-29 01:35:30;4.17;64;8.00;0;0.00
2022-04-29 01:40:30;4.17;63;7.70;0;0.00
2022-04-29 01:45:31;4.17;62;7.60;0;0.00
2022-04-29 01:50:32;4.17;62;7.70;0;0.00
2022-04-29 01:55:32;4.17;63;7.80;0;0.00
2022-04-29 02:00:28;4.17;63;7.90;0;0.00
2022-04-29 02:05:29;4.17;63;7.80;0;0.00
2022-04-29 02:10:30;4.17;64;8.00;0;0.00
2022-04-29 02:15:30;4.17;65;8.00;0;0.00
2022-04-29 02:20:31;4.17;66;7.90;0;0.00
2022-04-29 02:25:32;4.17;65;7.80;0;0.00
2022-04-29 02:30:32;4.17;66;7.90;0;0.00
2022-04-29 02:35:29;4.17;66;7.90;0;0.00
2022-04-29 02:40:29;4.17;67;8.00;0;0.00
2022-04-29 02:45:30;4.17;67;8.00;0;0.00
2022-04-29 02:50:31;4.17;67;8.10;0;0.00
2022-04-29 02:55:31;4.17;67;8.10;0;0.00
2022-04-29 03:00:32;4.17;67;8.20;0;0.00
2022-04-29 03:05:33;4.17;67;8.00;0;0.00
2022-04-29 03:10:29;4.17;66;7.90;0;0.00
2022-04-29 03:15:29;4.16;65;7.80;0;0.00
2022-04-29 03:20:30;4.17;65;7.80;0;0.00
2022-04-29 03:25:31;4.17;64;7.70;0;0.00
2022-04-29 03:30:31;4.17;63;7.50;0;0.00
2022-04-29 03:35:32;4.17;63;7.50;0;0.00
2022-04-29 03:40:33;4.17;63;7.50;0;0.00
2022-04-29 03:45:29;4.17;62;7.50;0;0.00
2022-04-29 03:50:29;4.17;62;7.40;0;0.00
2022-04-29 03:55:30;4.17;62;7.50;0;0.00
2022-04-29 04:00:31;4.17;61;7.40;0;0.00
2022-04-29 04:05:32;4.17;60;7.40;0;0.00
2022-04-29 04:10:32;4.16;60;7.40;0;0.00
2022-04-29 04:15:28;4.17;62;7.60;0;0.00
2022-04-29 04:20:29;4.17;63;7.50;0;0.00
2022-04-29 04:25:30;4.16;63;7.40;0;0.00
2022-04-29 04:30:30;4.17;63;7.40;0;0.00
2022-04-29 04:35:31;4.17;65;7.70;0;0.00
2022-04-29 04:40:31;4.17;67;8.00;0;0.00
2022-04-29 04:45:32;4.16;67;8.00;0;0.00
2022-04-29 04:50:28;4.16;67;7.80;0;0.00
2022-04-29 04:55:29;4.17;66;7.80;0;0.00
2022-04-29 05:00:29;4.16;67;7.80;0;0.00
2022-04-29 05:05:30;4.17;67;7.70;0;0.00
2022-04-29 05:10:31;4.17;67;7.80;0;0.00
2022-04-29 05:15:31;4.17;67;7.60;0;0.00
2022-04-29 05:20:32;4.17;67;7.50;0;0.00
2022-04-29 05:25:32;4.17;66;7.10;0;0.00
2022-04-29 05:30:28;4.17;64;6.90;0;0.00
2022-04-29 05:35:29;4.17;63;6.90;0;0.00
2022-04-29 05:40:30;4.17;62;6.80;0;0.00
2022-04-29 05:45:30;4.17;60;6.50;0;0.00
2022-04-29 05:50:31;4.16;58;6.40;0;0.00
2022-04-29 05:55:31;4.16;55;6.30;0;0.00
2022-04-29 06:00:32;4.16;54;6.10;0;0.00
2022-04-29 06:05:32;4.16;50;6.00;0;0.00
2022-04-29 06:10:28;4.16;46;5.70;0;0.00
2022-04-29 06:15:29;4.16;41;5.60;0;0.00
2022-04-29 06:20:29;4.16;37;5.70;0;0.00
2022-04-29 06:25:30;4.16;38;5.70;0;0.00
2022-04-29 06:30:30;4.16;38;5.70;0;0.00
2022-04-29 06:35:31;4.16;39;5.70;0;0.00
2022-04-29 06:40:31;4.16;40;5.70;0;0.00
2022-04-29 06:45:31;4.16;39;5.50;0;0.00
2022-04-29 06:50:32;4.16;37;5.30;0;0.00
2022-04-29 06:55:32;4.16;34;5.20;0;0.00
2022-04-29 07:00:28;4.16;32;5.10;0;0.00
2022-04-29 07:05:29;4.16;32;4.90;0;0.00
2022-04-29 07:10:29;4.16;28;4.70;0;0.00
2022-04-29 07:15:29;4.16;22;4.50;0;0.00
2022-04-29 07:20:30;4.16;18;4.50;0;0.00
2022-04-29 07:25:30;4.16;13;4.40;0;0.00
2022-04-29 07:30:30;4.16;7;4.40;0;0.00
2022-04-29 07:35:31;4.16;2;4.30;0;0.00
2022-04-29 07:40:31;4.16;99;4.40;0;0.00
2022-04-29 07:45:31;4.16;99;5.00;0;0.00
2022-04-29 07:50:32;4.17;99;5.30;0;0.00
2022-04-29 07:55:32;4.17;6;5.60;0;0.00
2022-04-29 08:00:32;4.17;17;5.90;0;0.00
2022-04-29 08:05:28;4.18;21;6.40;0;0.00
2022-04-29 08:10:29;4.18;33;6.60;0;0.00
2022-04-29 08:15:29;4.18;43;7.10;0;0.00
2022-04-29 08:20:30;4.18;52;7.70;0;0.00
2022-04-29 08:25:30;4.18;59;8.20;0;0.00
2022-04-29 08:30:31;4.18;62;8.70;0;0.00
2022-04-29 08:35:32;4.18;65;9.30;0;0.00
2022-04-29 08:40:32;4.18;67;9.70;0;0.00
2022-04-29 08:45:29;4.18;68;10.20;0;0.00
2022-04-29 08:50:29;4.18;69;11.30;0;0.00
2022-04-29 08:55:30;4.18;69;11.90;0;0.00
2022-04-29 09:00:31;4.19;70;12.30;0;0.00
2022-04-29 09:05:32;4.18;70;12.20;0;0.00
2022-04-29 09:10:29;4.19;71;12.10;0;0.00
2022-04-29 09:15:30;4.19;70;12.40;0;0.00
2022-04-29 09:20:31;4.19;71;13.00;0;0.00
2022-04-29 09:25:33;4.19;69;13.00;0;0.00
2022-04-29 09:30:29;4.19;69;12.90;0;0.00
2022-04-29 09:35:31;4.19;70;13.30;0;0.00
2022-04-29 09:40:32;4.19;71;13.70;0;0.00
2022-04-29 09:45:33;4.19;69;13.70;0;0.00
2022-04-29 09:50:30;4.19;69;13.50;0;0.00
2022-04-29 09:55:31;4.19;69;13.80;0;1.30
2022-04-29 10:00:32;4.19;67;14.10;0;0.00
2022-04-29 10:05:34;4.19;67;14.00;0;0.00
2022-04-29 10:10:30;4.19;69;14.40;0;0.00
2022-04-29 10:15:31;4.19;69;14.00;0;0.00
2022-04-29 10:20:33;4.20;69;14.40;0;0.00
2022-04-29 10:25:34;4.20;69;14.40;0;0.00
2022-04-29 10:30:31;4.19;69;14.50;0;0.00
2022-04-29 10:35:32;4.20;67;14.50;0;0.00
2022-04-29 10:40:33;4.20;68;14.70;0;0.00
2022-04-29 10:45:30;4.20;66;14.50;0;0.00
2022-04-29 10:50:31;4.19;67;14.60;0;0.00
2022-04-29 10:55:33;4.20;66;14.90;0;0.00
2022-04-29 11:00:34;4.20;64;14.90;0;0.00
2022-04-29 11:05:31;4.20;65;15.10;0;0.00
2022-04-29 11:10:32;4.20;64;14.80;0;0.00
2022-04-29 11:15:33;4.20;64;15.10;0;1.10
2022-04-29 11:20:30;4.20;64;15.30;0;0.00
2022-04-29 11:25:31;4.20;66;15.50;0;0.00
2022-04-29 11:30:33;4.20;64;16.60;0;1.30
2022-04-29 11:35:34;4.20;63;16.50;0;0.00
2022-04-29 11:40:31;4.20;61;16.40;0;0.00
2022-04-29 11:45:33;4.20;61;16.90;0;0.00
2022-04-29 11:50:34;4.20;61;17.60;0;0.00
2022-04-29 11:55:31;4.20;59;17.50;0;0.00
2022-04-29 12:00:33;4.20;60;18.00;0;0.00
2022-04-29 12:05:34;4.20;61;17.10;0;0.00
2022-04-29 12:10:32;4.20;59;16.80;0;0.00
2022-04-29 12:15:33;4.20;61;16.70;0;0.00
2022-04-29 12:20:30;4.20;62;17.60;0;0.00
2022-04-29 12:25:32;4.20;61;16.80;0;0.00
2022-04-29 12:30:34;4.20;64;16.60;0;0.00
2022-04-29 12:35:31;4.20;64;17.30;0;0.00
2022-04-29 12:40:33;4.20;63;17.60;0;0.00
2022-04-29 12:45:34;4.21;61;17.70;0;0.00
2022-04-29 12:50:32;4.20;61;17.40;0;0.00
2022-04-29 12:55:33;4.21;63;17.50;0;0.00
2022-04-29 13:00:31;4.21;61;18.00;0;0.00
2022-04-29 13:05:32;4.21;61;18.10;0;0.00
2022-04-29 13:10:34;4.21;60;17.80;0;0.00
2022-04-29 13:15:31;4.21;60;18.00;0;0.00
2022-04-29 13:20:33;4.21;59;18.20;0;0.00
2022-04-29 13:25:31;4.21;59;18.00;0;0.00
2022-04-29 13:30:32;4.21;60;18.20;0;0.00
2022-04-29 13:35:34;4.21;59;17.80;0;0.00
2022-04-29 13:40:32;4.21;62;18.40;0;0.00
2022-04-29 13:45:34;4.21;61;18.10;0;0.00
2022-04-29 13:50:31;4.21;60;18.90;0;0.00
2022-04-29 13:55:33;4.21;60;18.60;0;0.00
2022-04-29 14:00:35;4.21;60;19.10;0;0.00
2022-04-29 14:05:32;4.21;58;19.40;0;0.00
2022-04-29 14:10:34;4.21;59;19.00;0;0.00
2022-04-29 14:15:32;4.21;59;18.80;0;0.00
2022-04-29 14:20:34;4.21;59;19.00;0;0.00
2022-04-29 14:25:31;4.21;56;18.60;0;0.00
2022-04-29 14:30:34;4.21;57;19.00;0;0.00
2022-04-29 14:35:31;4.21;59;19.10;0;1.50
2022-04-29 14:40:33;4.21;56;19.00;0;0.00
2022-04-29 14:45:31;4.21;59;19.40;0;0.00
2022-04-29 14:50:33;4.21;56;19.00;0;0.00
2022-04-29 14:55:35;4.21;57;19.50;0;0.00
2022-04-29 15:00:32;4.21;57;19.30;0;0.00
2022-04-29 15:05:34;4.21;58;19.70;0;0.00
2022-04-29 15:10:32;4.21;58;19.40;0;0.00
2022-04-29 15:15:34;4.21;58;18.80;0;0.00
2022-04-29 15:20:32;4.21;59;19.10;0;0.00
2022-04-29 15:25:34;4.21;57;19.60;0;0.00
2022-04-29 15:30:31;4.21;57;19.10;0;0.00
2022-04-29 15:35:33;4.21;57;19.40;0;0.00
2022-04-29 15:40:31;4.22;57;19.30;0;0.00
2022-04-29 15:45:33;4.21;57;19.30;0;0.00
2022-04-29 15:50:35;4.21;58;19.20;0;0.00
2022-04-29 15:55:32;4.21;58;18.60;0;0.00
2022-04-29 16:00:34;4.21;58;18.30;0;1.20
2022-04-29 16:05:32;4.21;59;19.00;0;0.00
2022-04-29 16:10:34;4.21;57;19.70;0;0.00
2022-04-29 16:15:31;4.22;57;20.10;0;0.00
2022-04-29 16:20:33;4.21;56;19.70;0;0.00
2022-04-29 16:25:31;4.22;59;18.80;0;0.00
2022-04-29 16:30:33;4.21;60;19.20;0;0.00
2022-04-29 16:35:34;4.22;60;19.10;0;0.00
2022-04-29 16:40:32;4.21;59;19.10;0;0.00
2022-04-29 16:45:34;4.22;63;17.90;0;0.00
2022-04-29 16:50:31;4.21;62;17.20;0;0.00
2022-04-29 16:55:33;4.22;64;17.00;0;0.00
2022-04-29 17:00:35;4.22;66;16.80;0;0.00
2022-04-29 17:05:32;4.21;66;16.80;0;0.00
2022-04-29 17:10:33;4.22;66;16.80;0;0.00
2022-04-29 17:15:30;4.22;67;16.70;0;0.00
2022-04-29 17:20:32;4.21;67;16.70;0;0.00
2022-04-29 17:25:33;4.21;66;16.60;0;0.00
2022-04-29 17:30:30;4.21;66;16.50;0;0.00
2022-04-29 17:35:32;4.21;66;16.30;0;0.00
2022-04-29 17:40:33;4.21;67;16.30;0;0.00
2022-04-29 17:45:30;4.20;67;16.10;0;0.00
2022-04-29 17:50:32;4.20;68;16.00;0;0.00
2022-04-29 17:55:33;4.20;67;15.90;0;0.00
2022-04-29 18:00:34;4.20;68;15.80;0;0.00
2022-04-29 18:05:31;4.20;69;15.60;0;0.00
2022-04-29 18:10:32;4.20;70;15.50;0;0.00
2022-04-29 18:15:34;4.20;71;15.30;0;0.00
2022-04-29 18:20:30;4.20;72;15.20;0;0.00
2022-04-29 18:25:32;4.20;73;15.10;0;0.00
2022-04-29 18:30:33;4.20;73;15.00;0;0.00
2022-04-29 18:35:34;4.20;73;15.00;0;0.00
2022-04-29 18:40:31;4.20;74;14.90;0;0.00
2022-04-29 18:45:32;4.20;74;14.80;0;0.00
2022-04-29 18:50:33;4.20;75;14.50;0;0.00
2022-04-29 18:55:30;4.20;76;14.40;0;0.00
2022-04-29 19:00:31;4.20;76;14.30;0;0.00
2022-04-29 19:05:32;4.20;77;14.30;0;0.00
2022-04-29 19:10:33;4.20;77;14.10;0;0.00
2022-04-29 19:15:30;4.20;77;14.00;0;0.00
2022-04-29 19:20:31;4.20;77;13.90;0;0.00
2022-04-29 19:25:32;4.20;77;13.90;0;0.00
2022-04-29 19:30:33;4.20;77;13.90;0;0.00
2022-04-29 19:35:30;4.20;77;13.80;0;0.00
2022-04-29 19:40:31;4.20;77;13.70;0;0.00
2022-04-29 19:45:32;4.20;77;13.60;0;0.00
2022-04-29 19:50:33;4.20;77;13.40;0;0.00
2022-04-29 19:55:34;4.20;78;13.20;0;0.00
2022-04-29 20:00:30;4.19;77;13.00;0;0.00
2022-04-29 20:05:31;4.19;77;12.90;0;0.00
2022-04-29 20:10:32;4.19;77;12.80;0;0.00
2022-04-29 20:15:33;4.19;77;12.70;0;0.00
2022-04-29 20:20:29;4.19;76;12.40;0;0.00
2022-04-29 20:25:30;4.19;76;12.20;0;0.00
2022-04-29 20:30:31;4.19;75;12.00;0;0.00
2022-04-29 20:35:32;4.19;75;11.80;0;0.00
2022-04-29 20:40:33;4.19;75;11.50;0;0.00
2022-04-29 20:45:34;4.19;73;11.40;0;0.00
2022-04-29 20:50:30;4.19;72;11.00;0;0.00
2022-04-29 20:55:30;4.19;71;10.60;0;0.00
2022-04-29 21:00:31;4.19;69;10.80;0;0.00
2022-04-29 21:05:32;4.19;67;10.90;0;0.00
2022-04-29 21:10:32;4.19;67;10.90;0;0.00
2022-04-29 21:15:33;4.19;68;10.90;0;0.00
2022-04-29 21:20:29;4.19;67;10.80;0;0.00
2022-04-29 21:25:30;4.19;67;10.70;0;0.00
2022-04-29 21:30:30;4.19;66;10.80;0;0.00
2022-04-29 21:35:31;4.19;66;10.90;0;0.00
2022-04-29 21:40:32;4.19;66;11.00;0;0.00
2022-04-29 21:45:32;4.18;66;10.90;0;0.00
2022-04-29 21:50:33;4.18;66;10.90;0;0.00
2022-04-29 21:55:34;4.18;66;10.90;0;0.00
2022-04-29 22:00:30;4.18;66;10.90;0;0.00
2022-04-29 22:05:30;4.18;65;10.90;0;0.00
2022-04-29 22:10:31;4.18;63;10.90;0;0.00
2022-04-29 22:15:32;4.18;62;11.00;0;0.00
2022-04-29 22:20:32;4.18;64;11.10;0;0.00
2022-04-29 22:25:33;4.18;64;11.10;0;0.00
2022-04-29 22:30:34;4.18;64;11.00;0;0.00
2022-04-29 22:35:30;4.18;64;10.80;0;0.00
2022-04-29 22:40:30;4.18;64;10.80;0;0.00
2022-04-29 22:45:31;4.18;63;10.80;0;0.00
2022-04-29 22:50:32;4.18;63;10.80;0;0.00
2022-04-29 22:55:32;4.18;64;11.00;0;0.00
2022-04-29 23:00:33;4.18;64;11.00;0;0.00
2022-04-29 23:05:34;4.18;64;10.90;0;0.00
2022-04-29 23:10:30;4.18;64;10.80;0;0.00
2022-04-29 23:15:30;4.18;64;10.80;0;0.00
2022-04-29 23:20:31;4.18;63;10.80;0;0.00
2022-04-29 23:25:32;4.18;61;10.70;0;0.00
2022-04-29 23:30:32;4.18;61;10.70;0;0.00
2022-04-29 23:35:33;4.18;60;10.70;0;0.00
2022-04-29 23:40:29;4.18;61;10.70;0;0.00
2022-04-29 23:45:30;4.18;61;10.60;0;0.00
2022-04-29 23:50:31;4.18;61;10.60;0;0.00
2022-04-29 23:55:31;4.18;60;10.50;0;0.00
