2022-05-18 00:00:29;4.17;71;5.60;0;0.00
2022-05-18 00:05:30;4.16;69;5.60;0;0.00
2022-05-18 00:10:30;4.16;67;5.70;0;0.00
2022-05-18 00:15:31;4.16;70;6.00;0;0.00
2022-05-18 00:20:31;4.16;71;6.20;0;0.00
2022-05-18 00:25:32;4.17;75;6.70;0;0.00
2022-05-18 00:30:32;4.16;75;6.50;0;0.00
2022-05-18 00:35:28;4.16;74;6.40;0;0.00
2022-05-18 00:40:29;4.16;73;6.30;0;0.00
2022-05-18 00:45:29;4.16;74;6.30;0;0.00
2022-05-18 00:50:30;4.16;73;6.40;0;0.00
2022-05-18 00:55:30;4.16;73;6.40;0;0.00
2022-05-18 01:00:31;4.16;74;6.60;0;0.00
2022-05-18 01:05:32;4.16;74;6.60;0;0.00
2022-05-18 01:10:32;4.16;75;6.80;0;0.00
2022-05-18 01:15:33;4.16;75;6.70;0;0.00
2022-05-18 01:20:29;4.16;75;6.80;0;0.00
2022-05-18 01:25:29;4.16;75;6.90;0;0.00
2022-05-18 01:30:30;4.16;75;6.90;0;0.00
2022-05-18 01:35:30;4.16;74;6.60;0;0.00
2022-05-18 01:40:31;4.16;75;6.70;0;0.00
2022-05-18 01:45:31;4.16;74;5.80;0;0.00
2022-05-18 01:50:32;4.16;68;5.70;0;0.00
2022-05-18 01:55:33;4.16;68;5.10;0;0.00
2022-05-18 02:00:29;4.16;60;4.50;0;0.00
2022-05-18 02:05:29;4.16;49;4.20;0;0.00
2022-05-18 02:10:29;4.16;35;4.10;0;0.00
2022-05-18 02:15:30;4.16;28;3.90;0;0.00
2022-05-18 02:20:30;4.16;20;3.90;0;0.00
2022-05-18 02:25:31;4.16;17;3.80;0;0.00
2022-05-18 02:30:31;4.16;14;3.80;0;0.00
2022-05-18 02:35:31;4.16;11;3.80;0;0.00
2022-05-18 02:40:32;4.16;7;3.70;0;0.00
2022-05-18 02:45:32;4.16;99;3.70;0;0.00
2022-05-18 02:50:32;4.16;99;3.80;0;0.00
2022-05-18 02:55:28;4.16;99;3.80;0;0.00
2022-05-18 03:00:33;4.16;99;3.90;0;0.00
2022-05-18 03:05:29;4.16;1;3.80;0;0.00
2022-05-18 03:10:29;4.16;99;3.80;0;0.00
2022-05-18 03:15:29;4.16;99;3.80;0;0.00
2022-05-18 03:20:30;4.16;99;3.70;0;0.00
2022-05-18 03:25:30;4.16;99;3.70;0;0.00
2022-05-18 03:30:30;4.15;99;3.70;0;0.00
2022-05-18 03:35:31;4.15;99;3.80;0;0.00
2022-05-18 03:40:31;4.15;99;3.80;0;0.00
2022-05-18 03:45:31;4.15;99;3.70;0;0.00
2022-05-18 03:50:31;4.15;99;3.60;0;0.00
2022-05-18 03:55:32;4.15;99;3.40;0;0.00
2022-05-18 04:00:32;4.15;99;3.30;0;0.00
2022-05-18 04:05:32;4.15;99;3.20;0;0.00
2022-05-18 04:10:28;4.15;99;3.10;0;0.00
2022-05-18 04:15:28;4.15;99;2.90;0;0.00
2022-05-18 04:20:29;4.15;99;2.90;0;0.00
2022-05-18 04:25:29;4.15;99;3.00;0;0.00
2022-05-18 04:30:29;4.15;99;3.20;0;0.00
2022-05-18 04:35:30;4.15;99;3.40;0;0.00
2022-05-18 04:40:30;4.15;99;3.70;0;0.00
2022-05-18 04:45:30;4.15;99;4.20;0;0.00
2022-05-18 04:50:30;4.15;99;4.30;0;0.00
2022-05-18 04:55:31;4.15;99;4.30;0;0.00
2022-05-18 05:00:31;4.15;99;4.20;0;0.00
2022-05-18 05:05:31;4.15;99;4.10;0;0.00
2022-05-18 05:10:31;4.15;99;4.10;0;0.00
2022-05-18 05:15:32;4.15;99;4.30;0;0.00
2022-05-18 05:20:32;4.15;3;4.30;0;0.00
2022-05-18 05:25:32;4.15;0;4.30;0;0.00
2022-05-18 05:30:28;4.15;99;4.30;0;0.00
2022-05-18 05:35:28;4.15;5;4.30;0;0.00
2022-05-18 05:40:29;4.15;0;4.20;0;0.00
2022-05-18 05:45:29;4.15;99;4.20;0;0.00
2022-05-18 05:50:29;4.15;99;4.50;0;0.00
2022-05-18 05:55:29;4.15;99;4.60;0;0.00
2022-05-18 06:00:29;4.15;99;4.70;0;0.00
2022-05-18 06:05:29;4.15;99;4.70;0;0.00
2022-05-18 06:10:29;4.15;99;4.80;0;0.00
2022-05-18 06:15:29;4.15;99;4.90;0;0.00
2022-05-18 06:20:30;4.15;99;5.00;0;0.00
2022-05-18 06:25:30;4.15;99;5.00;0;0.00
2022-05-18 06:30:30;4.15;99;5.10;0;0.00
2022-05-18 06:35:31;4.15;5;5.30;0;0.00
2022-05-18 06:40:31;4.15;7;5.40;0;0.00
2022-05-18 06:45:32;4.15;9;5.50;0;0.00
2022-05-18 06:50:32;4.15;11;5.50;0;0.00
2022-05-18 06:55:28;4.15;16;5.50;0;0.00
2022-05-18 07:00:29;4.15;17;5.50;0;0.00
2022-05-18 07:05:29;4.15;13;5.50;0;0.00
2022-05-18 07:10:30;4.15;14;5.60;0;0.00
2022-05-18 07:15:30;4.15;16;5.60;0;0.00
2022-05-18 07:20:31;4.15;17;5.70;0;0.00
2022-05-18 07:25:31;4.15;17;5.80;0;0.00
2022-05-18 07:30:31;4.15;17;5.80;0;0.00
2022-05-18 07:35:32;4.15;21;5.90;0;0.00
2022-05-18 07:40:32;4.15;21;5.90;0;0.00
2022-05-18 07:45:28;4.15;20;6.00;0;0.00
2022-05-18 07:50:29;4.15;20;6.10;0;0.00
2022-05-18 07:55:29;4.15;22;6.20;0;0.00
2022-05-18 08:00:30;4.16;24;6.30;0;0.00
2022-05-18 08:05:30;4.16;26;6.40;0;0.00
2022-05-18 08:10:31;4.17;28;6.60;0;0.00
2022-05-18 08:15:32;4.17;34;6.80;0;0.00
2022-05-18 08:20:32;4.17;40;6.80;0;0.00
2022-05-18 08:25:28;4.17;39;6.70;0;0.00
2022-05-18 08:30:29;4.18;42;6.80;0;0.00
2022-05-18 08:35:30;4.18;44;6.90;0;0.00
2022-05-18 08:40:30;4.18;45;7.10;0;0.00
2022-05-18 08:45:31;4.18;48;7.30;0;0.00
2022-05-18 08:50:32;4.18;52;7.50;0;0.00
2022-05-18 08:55:32;4.18;54;7.70;0;0.00
2022-05-18 09:00:29;4.18;56;8.10;0;0.00
2022-05-18 09:05:30;4.18;60;8.40;0;0.00
2022-05-18 09:10:30;4.18;62;8.50;0;0.00
2022-05-18 09:15:31;4.18;63;8.40;0;0.00
2022-05-18 09:20:32;4.18;65;8.60;0;0.00
2022-05-18 09:25:33;4.18;67;9.30;0;0.00
2022-05-18 09:30:29;4.18;69;9.60;0;0.00
2022-05-18 09:35:30;4.18;73;9.60;0;0.00
2022-05-18 09:40:31;4.18;73;9.70;0;0.00
2022-05-18 09:45:32;4.18;75;9.80;0;0.00
2022-05-18 09:50:29;4.18;74;10.20;0;0.00
2022-05-18 09:55:30;4.19;76;10.70;0;0.00
2022-05-18 10:00:31;4.19;78;10.70;0;0.00
2022-05-18 10:05:32;4.19;77;11.00;0;0.00
2022-05-18 10:10:33;4.19;78;11.00;0;0.00
2022-05-18 10:15:30;4.18;78;11.20;0;0.00
2022-05-18 10:20:31;4.18;78;11.10;0;0.00
2022-05-18 10:25:32;4.19;78;11.20;0;0.00
2022-05-18 10:30:29;4.19;78;11.30;0;0.00
2022-05-18 10:35:30;4.19;78;11.30;0;0.00
2022-05-18 10:40:31;4.19;78;11.60;0;0.00
2022-05-18 10:45:33;4.19;78;11.60;0;0.00
2022-05-18 10:50:29;4.19;78;11.70;0;0.00
2022-05-18 10:55:30;4.19;77;11.80;0;0.00
2022-05-18 11:00:32;4.19;78;12.40;0;0.00
2022-05-18 11:05:33;4.19;77;12.30;0;0.00
2022-05-18 11:10:30;4.19;77;12.50;0;0.00
2022-05-18 11:15:31;4.19;76;12.60;0;0.00
2022-05-18 11:20:32;4.19;78;12.60;0;0.00
2022-05-18 11:25:29;4.19;78;12.60;0;0.00
2022-05-18 11:30:30;4.19;77;13.10;0;0.00
2022-05-18 11:35:32;4.19;76;13.30;0;0.00
2022-05-18 11:40:33;4.19;77;13.00;0;0.00
2022-05-18 11:45:30;4.19;77;13.60;0;0.00
2022-05-18 11:50:31;4.19;77;13.50;0;0.00
2022-05-18 11:55:33;4.19;76;13.60;0;0.00
2022-05-18 12:00:30;4.19;76;14.30;0;0.00
2022-05-18 12:05:31;4.19;74;14.10;0;0.00
2022-05-18 12:10:33;4.19;74;14.80;0;0.00
2022-05-18 12:15:30;4.19;76;14.10;0;0.00
2022-05-18 12:20:31;4.19;74;14.70;0;0.00
2022-05-18 12:25:33;4.19;73;14.90;0;0.00
2022-05-18 12:30:30;4.19;75;14.20;0;0.00
2022-05-18 12:35:32;4.19;74;14.60;0;0.00
2022-05-18 12:40:33;4.19;74;15.00;0;0.00
2022-05-18 12:45:30;4.20;74;14.30;0;0.00
2022-05-18 12:50:32;4.20;73;14.60;0;0.00
2022-05-18 12:55:33;4.20;74;14.30;0;0.00
2022-05-18 13:00:30;4.20;75;14.50;0;0.00
2022-05-18 13:05:32;4.20;73;15.70;0;0.00
2022-05-18 13:10:34;4.20;73;15.10;0;0.00
2022-05-18 13:15:31;4.20;72;15.70;0;0.00
2022-05-18 13:20:32;4.20;72;15.00;0;0.00
2022-05-18 13:25:34;4.20;72;14.70;0;0.00
2022-05-18 13:30:31;4.20;71;14.90;0;0.00
2022-05-18 13:35:33;4.20;71;15.50;0;0.00
2022-05-18 13:40:34;4.20;70;15.80;0;0.00
2022-05-18 13:45:31;4.20;73;15.60;0;0.00
2022-05-18 13:50:33;4.20;72;15.20;0;0.00
2022-05-18 13:55:30;4.20;71;15.50;0;0.00
2022-05-18 14:00:32;4.20;71;16.10;0;0.00
2022-05-18 14:05:34;4.20;71;15.80;0;0.00
2022-05-18 14:10:31;4.20;70;15.90;0;0.00
2022-05-18 14:15:33;4.20;70;15.40;0;0.00
2022-05-18 14:20:35;4.20;70;15.70;0;0.00
2022-05-18 14:25:32;4.20;72;15.30;0;0.00
2022-05-18 14:30:34;4.20;71;15.70;0;0.00
2022-05-18 14:35:31;4.20;70;15.00;0;0.00
2022-05-18 14:40:33;4.20;71;16.30;0;0.00
2022-05-18 14:45:34;4.20;70;15.80;0;0.00
2022-05-18 14:50:31;4.20;70;16.20;0;0.00
2022-05-18 14:55:33;4.20;68;17.20;0;0.00
2022-05-18 15:00:30;4.20;71;16.00;0;0.00
2022-05-18 15:05:32;4.20;70;16.20;0;0.00
2022-05-18 15:10:34;4.20;68;15.70;0;0.00
2022-05-18 15:15:31;4.20;70;16.00;0;0.00
2022-05-18 15:20:33;4.20;69;15.80;0;0.00
2022-05-18 15:25:35;4.20;68;15.90;0;0.00
2022-05-18 15:30:32;4.20;68;16.30;0;0.00
2022-05-18 15:35:33;4.21;69;15.70;0;0.00
2022-05-18 15:40:31;4.20;70;16.10;0;0.00
2022-05-18 15:45:32;4.20;68;16.50;0;0.00
2022-05-18 15:50:34;4.20;66;16.90;0;0.00
2022-05-18 15:55:31;4.20;68;15.90;0;0.00
2022-05-18 16:00:33;4.21;69;16.40;0;0.00
2022-05-18 16:05:34;4.20;68;16.10;0;0.00
2022-05-18 16:10:31;4.21;68;15.90;0;0.00
2022-05-18 16:15:33;4.20;68;16.00;0;0.00
2022-05-18 16:20:35;4.21;70;16.40;0;0.00
2022-05-18 16:25:32;4.21;70;15.90;0;0.00
2022-05-18 16:30:33;4.21;68;16.20;0;0.00
2022-05-18 16:35:30;4.21;70;15.90;0;0.00
2022-05-18 16:40:32;4.21;69;15.80;0;0.00
2022-05-18 16:45:33;4.21;68;15.90;0;0.00
2022-05-18 16:50:30;4.21;68;15.80;0;0.00
2022-05-18 16:55:32;4.21;69;15.60;0;0.00
2022-05-18 17:00:33;4.21;68;15.70;0;0.00
2022-05-18 17:05:30;4.20;70;15.40;0;0.00
2022-05-18 17:10:32;4.21;70;15.30;0;0.00
2022-05-18 17:15:33;4.21;69;15.30;0;0.00
2022-05-18 17:20:30;4.21;70;15.10;0;0.00
2022-05-18 17:25:31;4.21;71;14.80;0;0.00
2022-05-18 17:30:33;4.20;72;14.60;0;0.00
2022-05-18 17:35:34;4.21;72;14.40;0;0.00
2022-05-18 17:40:31;4.21;74;14.40;0;0.00
2022-05-18 17:45:32;4.20;75;14.00;0;0.00
2022-05-18 17:50:33;4.20;75;13.80;0;0.00
2022-05-18 17:55:30;4.20;75;13.50;0;0.00
2022-05-18 18:00:31;4.20;76;13.20;0;0.00
2022-05-18 18:05:32;4.19;77;12.50;0;0.00
2022-05-18 18:10:33;4.19;79;12.10;0;0.00
2022-05-18 18:15:34;4.19;80;11.70;0;0.00
2022-05-18 18:20:30;4.19;81;11.30;0;0.00
2022-05-18 18:25:31;4.19;82;10.90;0;0.00
2022-05-18 18:30:32;4.19;83;10.40;0;0.00
2022-05-18 18:35:32;4.19;84;10.20;0;0.00
2022-05-18 18:40:33;4.19;84;10.00;0;0.00
2022-05-18 18:45:33;4.19;84;10.10;0;0.00
2022-05-18 18:50:29;4.18;84;9.80;0;0.00
2022-05-18 18:55:30;4.18;85;9.40;0;0.00
2022-05-18 19:00:30;4.18;85;9.30;0;0.00
2022-05-18 19:05:31;4.18;85;9.40;0;0.00
2022-05-18 19:10:31;4.18;85;9.10;0;0.00
2022-05-18 19:15:32;4.18;85;9.10;0;0.00
2022-05-18 19:20:32;4.18;85;9.10;0;0.00
2022-05-18 19:25:33;4.18;85;8.80;0;0.00
2022-05-18 19:30:33;4.18;85;8.60;0;0.00
2022-05-18 19:35:33;4.18;85;8.30;0;0.00
2022-05-18 19:40:29;4.18;85;8.10;0;0.00
2022-05-18 19:45:34;4.18;84;8.00;0;0.00
2022-05-18 19:50:30;4.18;84;7.80;0;0.00
2022-05-18 19:55:30;4.18;83;7.70;0;0.00
2022-05-18 20:00:30;4.18;82;7.50;0;0.00
2022-05-18 20:05:30;4.17;82;7.40;0;0.00
2022-05-18 20:10:31;4.17;81;7.20;0;0.00
2022-05-18 20:15:31;4.17;80;7.10;0;0.00
2022-05-18 20:20:31;4.17;79;7.10;0;0.00
2022-05-18 20:25:31;4.17;78;7.30;0;0.00
2022-05-18 20:30:32;4.17;78;7.20;0;0.00
2022-05-18 20:35:32;4.17;77;7.20;0;0.00
2022-05-18 20:40:32;4.17;77;7.00;0;0.00
2022-05-18 20:45:32;4.17;76;6.90;0;0.00
2022-05-18 20:50:32;4.17;76;6.70;0;0.00
2022-05-18 20:55:32;4.17;74;7.00;0;0.00
2022-05-18 21:00:33;4.17;74;6.80;0;0.00
2022-05-18 21:05:33;4.17;73;6.80;0;0.00
2022-05-18 21:10:33;4.17;70;7.00;0;0.00
2022-05-18 21:15:33;4.17;71;7.00;0;0.00
2022-05-18 21:20:29;4.17;70;6.90;0;0.00
2022-05-18 21:25:33;4.17;71;6.80;0;0.00
2022-05-18 21:30:29;4.17;71;6.70;0;0.00
2022-05-18 21:35:34;4.17;71;6.30;0;0.00
2022-05-18 21:40:29;4.17;76;4.30;0;0.00
2022-05-18 21:45:29;4.17;72;4.00;0;0.00
2022-05-18 21:50:30;4.17;65;4.20;0;0.00
2022-05-18 21:55:30;4.17;52;5.00;0;0.00
2022-05-18 22:00:30;4.17;51;5.10;0;0.00
2022-05-18 22:05:30;4.17;61;3.50;0;0.00
2022-05-18 22:10:30;4.17;55;3.20;0;0.00
2022-05-18 22:15:30;4.16;48;3.10;0;0.00
2022-05-18 22:20:30;4.16;38;3.10;0;0.00
2022-05-18 22:25:30;4.16;27;3.30;0;0.00
2022-05-18 22:30:30;4.16;15;3.30;0;0.00
2022-05-18 22:35:30;4.16;15;3.00;0;0.00
2022-05-18 22:40:30;4.16;0;3.00;0;0.00
2022-05-18 22:45:29;4.16;99;3.10;0;0.00
2022-05-18 22:50:29;4.16;99;3.30;0;0.00
2022-05-18 22:55:29;4.16;99;3.40;0;0.00
2022-05-18 23:00:29;4.16;99;3.00;0;0.00
2022-05-18 23:05:29;4.16;99;2.90;0;0.00
2022-05-18 23:10:29;4.16;99;3.00;0;0.00
2022-05-18 23:15:34;4.16;99;2.80;0;0.00
2022-05-18 23:20:29;4.16;99;3.00;0;0.00
2022-05-18 23:25:33;4.16;99;3.00;0;0.00
2022-05-18 23:30:29;4.16;99;3.10;0;0.00
2022-05-18 23:35:33;4.16;99;3.20;0;0.00
2022-05-18 23:40:28;4.16;99;3.30;0;0.00
2022-05-18 23:45:33;4.16;99;3.00;0;0.00
2022-05-18 23:50:33;4.16;99;3.00;0;0.00
2022-05-18 23:55:33;4.16;99;3.30;0;0.00
