2022-05-13 00:00:32;4.18;99;11.00;1;0.00
2022-05-13 00:05:33;4.18;99;11.00;0;0.00
2022-05-13 00:10:29;4.18;99;11.10;0;0.00
2022-05-13 00:15:30;4.18;99;10.90;0;0.00
2022-05-13 00:20:31;4.18;99;10.80;0;0.00
2022-05-13 00:25:32;4.18;99;10.80;0;0.00
2022-05-13 00:30:33;4.18;99;10.90;0;0.00
2022-05-13 00:35:29;4.18;99;11.00;0;0.00
2022-05-13 00:40:30;4.18;99;10.90;0;0.00
2022-05-13 00:45:31;4.18;99;10.80;0;0.00
2022-05-13 00:50:32;4.18;99;11.00;0;0.00
2022-05-13 00:55:29;4.18;99;11.00;0;0.00
2022-05-13 01:00:30;4.17;99;10.90;0;0.00
2022-05-13 01:05:31;4.17;99;11.00;0;0.00
2022-05-13 01:10:32;4.17;99;10.90;0;0.00
2022-05-13 01:15:33;4.17;99;10.80;0;0.00
2022-05-13 01:20:29;4.17;99;10.80;0;0.00
2022-05-13 01:25:30;4.17;99;10.90;0;0.00
2022-05-13 01:30:31;4.17;99;10.90;0;0.00
2022-05-13 01:35:32;4.17;99;10.80;0;0.00
2022-05-13 01:40:33;4.17;99;10.70;0;0.00
2022-05-13 01:45:29;4.17;99;10.60;0;0.00
2022-05-13 01:50:30;4.17;99;10.40;0;0.00
2022-05-13 01:55:31;4.17;99;10.20;0;0.00
2022-05-13 02:00:32;4.17;99;10.20;0;0.00
2022-05-13 02:05:28;4.17;99;10.30;0;0.00
2022-05-13 02:10:29;4.17;99;10.20;0;0.00
2022-05-13 02:15:30;4.17;99;10.20;0;0.00
2022-05-13 02:20:31;4.17;99;10.30;0;0.00
2022-05-13 02:25:32;4.17;99;10.20;0;0.00
2022-05-13 02:30:28;4.17;99;10.00;0;0.00
2022-05-13 02:35:29;4.17;99;10.00;0;0.00
2022-05-13 02:40:30;4.17;99;10.00;0;0.00
2022-05-13 02:45:31;4.17;99;10.00;0;0.00
2022-05-13 02:50:32;4.17;99;10.10;0;0.00
2022-05-13 02:55:33;4.17;99;10.20;0;0.00
2022-05-13 03:00:29;4.17;99;10.00;0;0.00
2022-05-13 03:05:30;4.17;99;9.80;0;0.00
2022-05-13 03:10:31;4.17;99;10.00;0;0.00
2022-05-13 03:15:32;4.17;99;10.00;0;0.00
2022-05-13 03:20:33;4.17;99;10.40;0;0.00
2022-05-13 03:25:29;4.17;99;10.40;0;0.00
2022-05-13 03:30:30;4.17;99;10.50;0;0.00
2022-05-13 03:35:31;4.17;99;10.50;0;0.00
2022-05-13 03:40:32;4.17;99;10.40;0;0.00
2022-05-13 03:45:33;4.17;99;10.40;0;0.00
2022-05-13 03:50:29;4.16;99;10.30;0;0.00
2022-05-13 03:55:30;4.16;99;10.30;0;0.00
2022-05-13 04:00:31;4.16;99;10.40;0;0.00
2022-05-13 04:05:32;4.16;99;10.10;0;0.00
2022-05-13 04:10:28;4.16;99;9.80;0;0.00
2022-05-13 04:15:29;4.16;99;9.60;0;0.00
2022-05-13 04:20:30;4.16;99;9.40;0;0.00
2022-05-13 04:25:31;4.16;99;9.60;0;0.00
2022-05-13 04:30:32;4.16;99;10.10;0;0.00
2022-05-13 04:35:33;4.16;99;9.80;0;0.00
2022-05-13 04:40:29;4.16;99;9.60;0;0.00
2022-05-13 04:45:30;4.16;99;9.40;0;0.00
2022-05-13 04:50:31;4.16;99;9.30;0;0.00
2022-05-13 04:55:32;4.16;99;9.30;0;0.00
2022-05-13 05:00:33;4.16;99;9.40;0;0.00
2022-05-13 05:05:29;4.16;99;9.50;0;0.00
2022-05-13 05:10:30;4.16;99;9.20;0;0.00
2022-05-13 05:15:31;4.16;99;9.20;0;0.00
2022-05-13 05:20:31;4.16;99;9.20;0;0.00
2022-05-13 05:25:32;4.16;99;9.20;0;0.00
2022-05-13 05:30:28;4.16;99;9.20;0;0.00
2022-05-13 05:35:29;4.16;99;9.20;0;0.00
2022-05-13 05:40:30;4.16;99;9.00;0;0.00
2022-05-13 05:45:31;4.16;99;8.90;0;0.00
2022-05-13 05:50:32;4.16;99;9.00;0;0.00
2022-05-13 05:55:32;4.16;99;9.10;0;0.00
2022-05-13 06:00:29;4.16;99;9.30;0;0.00
2022-05-13 06:05:29;4.16;99;9.70;0;0.00
2022-05-13 06:10:30;4.16;99;9.70;0;0.00
2022-05-13 06:15:31;4.16;99;9.80;0;0.00
2022-05-13 06:20:32;4.16;99;9.80;0;0.00
2022-05-13 06:25:33;4.16;99;9.70;0;0.00
2022-05-13 06:30:29;4.16;99;9.60;0;0.00
2022-05-13 06:35:30;4.16;99;9.30;0;0.00
2022-05-13 06:40:31;4.16;99;9.20;0;0.00
2022-05-13 06:45:31;4.16;99;9.00;0;0.00
2022-05-13 06:50:32;4.16;99;9.10;0;0.00
2022-05-13 06:55:28;4.16;99;9.20;0;0.00
2022-05-13 07:00:29;4.16;99;8.80;0;0.00
2022-05-13 07:05:30;4.16;99;8.60;0;0.00
2022-05-13 07:10:31;4.16;99;8.60;0;0.00
2022-05-13 07:15:32;4.16;99;8.60;0;0.00
2022-05-13 07:20:32;4.16;99;8.50;0;0.00
2022-05-13 07:25:29;4.16;99;8.50;0;0.00
2022-05-13 07:30:29;4.16;99;8.20;0;0.00
2022-05-13 07:35:30;4.16;99;8.20;0;0.00
2022-05-13 07:40:31;4.16;99;8.30;0;0.00
2022-05-13 07:45:32;4.16;99;8.40;0;0.00
2022-05-13 07:50:32;4.16;99;8.40;0;0.00
2022-05-13 07:55:28;4.16;99;8.30;0;0.00
2022-05-13 08:00:29;4.16;99;8.40;0;0.00
2022-05-13 08:05:30;4.16;99;8.70;0;0.00
2022-05-13 08:10:31;4.16;99;9.20;0;0.00
2022-05-13 08:15:31;4.16;99;9.30;0;0.00
2022-05-13 08:20:32;4.17;99;9.20;0;0.00
2022-05-13 08:25:28;4.17;99;9.10;0;0.00
2022-05-13 08:30:29;4.17;99;9.30;0;0.00
2022-05-13 08:35:30;4.17;99;9.40;0;0.00
2022-05-13 08:40:31;4.17;99;9.70;0;0.00
2022-05-13 08:45:32;4.18;99;10.00;0;0.00
2022-05-13 08:50:33;4.18;99;10.10;0;0.00
2022-05-13 08:55:29;4.18;99;10.20;0;0.00
2022-05-13 09:00:30;4.18;99;10.50;0;0.00
2022-05-13 09:05:31;4.18;99;10.60;0;0.00
2022-05-13 09:10:32;4.18;99;10.80;0;0.00
2022-05-13 09:15:33;4.18;99;10.80;0;0.00
2022-05-13 09:20:29;4.18;99;11.00;0;0.00
2022-05-13 09:25:30;4.18;99;11.20;0;0.00
2022-05-13 09:30:31;4.18;99;11.50;0;0.00
2022-05-13 09:35:32;4.19;99;11.70;0;0.00
2022-05-13 09:40:29;4.19;99;11.90;0;0.00
2022-05-13 09:45:30;4.19;99;12.20;0;0.00
2022-05-13 09:50:31;4.19;99;12.60;0;0.00
2022-05-13 09:55:32;4.19;99;13.10;0;0.00
2022-05-13 10:00:29;4.18;99;13.80;0;0.00
2022-05-13 10:05:30;4.19;99;13.90;0;0.00
2022-05-13 10:10:31;4.19;99;14.10;0;0.00
2022-05-13 10:15:33;4.19;99;14.30;0;0.00
2022-05-13 10:20:30;4.19;99;14.50;0;0.00
2022-05-13 10:25:31;4.19;99;14.60;0;0.00
2022-05-13 10:30:32;4.19;99;15.00;0;0.00
2022-05-13 10:35:29;4.19;99;15.20;0;0.00
2022-05-13 10:40:31;4.19;99;15.50;0;0.00
2022-05-13 10:45:32;4.19;99;15.70;0;0.00
2022-05-13 10:50:29;4.19;99;16.10;0;0.00
2022-05-13 10:55:31;4.19;99;16.10;0;1.40
2022-05-13 11:00:33;4.19;99;16.70;0;0.00
2022-05-13 11:05:30;4.19;99;16.60;0;2.09
2022-05-13 11:10:32;4.19;99;16.50;0;1.80
2022-05-13 11:15:33;4.20;99;16.90;0;0.00
2022-05-13 11:20:30;4.20;99;16.90;0;2.19
2022-05-13 11:25:32;4.19;99;17.10;0;1.20
2022-05-13 11:30:29;4.20;99;17.60;0;0.00
2022-05-13 11:35:31;4.20;99;17.60;0;0.00
2022-05-13 11:40:33;4.20;99;17.70;0;0.00
2022-05-13 11:45:30;4.20;99;17.80;0;0.00
2022-05-13 11:50:32;4.20;5;17.80;0;0.00
2022-05-13 11:55:34;4.20;11;18.40;0;0.00
2022-05-13 12:00:31;4.20;28;18.30;0;0.00
2022-05-13 12:05:33;4.20;23;18.40;0;0.00
2022-05-13 12:10:31;4.20;22;18.20;0;0.00
2022-05-13 12:15:33;4.20;16;18.40;0;0.00
2022-05-13 12:20:30;4.20;30;18.30;0;0.00
2022-05-13 12:25:32;4.20;36;18.60;0;0.00
2022-05-13 12:30:34;4.20;31;18.80;0;0.00
2022-05-13 12:35:32;4.20;37;18.80;0;1.30
2022-05-13 12:40:34;4.20;40;19.50;0;0.00
2022-05-13 12:45:31;4.20;40;19.20;0;0.00
2022-05-13 12:50:33;4.20;32;19.50;0;0.00
2022-05-13 12:55:31;4.20;49;19.40;0;0.00
2022-05-13 13:00:33;4.20;53;19.60;0;0.00
2022-05-13 13:05:31;4.20;57;19.60;0;0.00
2022-05-13 13:10:33;4.21;59;19.80;0;0.00
2022-05-13 13:15:31;4.21;54;19.80;0;0.00
2022-05-13 13:20:33;4.21;55;20.20;0;0.00
2022-05-13 13:25:31;4.21;61;20.60;0;0.00
2022-05-13 13:30:33;4.20;63;20.60;0;0.00
2022-05-13 13:35:31;4.20;64;20.60;0;0.00
2022-05-13 13:40:33;4.20;67;20.90;0;0.00
2022-05-13 13:45:31;4.20;67;21.10;0;0.00
2022-05-13 13:50:34;4.20;69;21.50;0;0.00
2022-05-13 13:55:31;4.21;70;22.10;0;0.00
2022-05-13 14:00:34;4.21;71;21.30;0;0.00
2022-05-13 14:05:32;4.20;70;21.10;0;0.00
2022-05-13 14:10:34;4.21;71;21.40;0;0.00
2022-05-13 14:15:32;4.21;71;21.50;0;0.00
2022-05-13 14:20:30;4.21;72;21.60;0;0.00
2022-05-13 14:25:33;4.21;73;21.50;0;0.00
2022-05-13 14:30:31;4.21;72;21.70;0;0.00
2022-05-13 14:35:34;4.21;73;21.00;0;0.00
2022-05-13 14:40:31;4.21;72;20.90;0;0.00
2022-05-13 14:45:34;4.21;72;20.90;0;0.00
2022-05-13 14:50:32;4.21;72;21.20;0;0.00
2022-05-13 14:55:34;4.21;72;21.20;0;0.00
2022-05-13 15:00:32;4.21;73;21.60;0;0.00
2022-05-13 15:05:30;4.21;73;21.50;0;0.00
2022-05-13 15:10:33;4.21;73;21.40;0;0.00
2022-05-13 15:15:31;4.21;73;21.40;0;0.00
2022-05-13 15:20:33;4.21;73;21.60;0;0.00
2022-05-13 15:25:31;4.21;73;21.60;0;0.00
2022-05-13 15:30:34;4.21;74;21.50;0;0.00
2022-05-13 15:35:32;4.21;73;22.00;0;0.00
2022-05-13 15:40:34;4.21;75;21.30;0;0.00
2022-05-13 15:45:32;4.21;74;21.60;0;0.00
2022-05-13 15:50:34;4.21;74;21.70;0;0.00
2022-05-13 15:55:32;4.21;74;21.60;0;0.00
2022-05-13 16:00:30;4.21;74;21.40;0;0.00
2022-05-13 16:05:33;4.21;74;21.70;0;0.00
2022-05-13 16:10:31;4.21;74;21.70;0;0.00
2022-05-13 16:15:33;4.21;75;21.30;0;0.00
2022-05-13 16:20:31;4.21;74;21.10;0;0.00
2022-05-13 16:25:33;4.21;74;21.00;0;0.00
2022-05-13 16:30:31;4.21;74;21.10;0;0.00
2022-05-13 16:35:33;4.21;74;21.20;0;0.00
2022-05-13 16:40:31;4.21;74;21.00;0;0.00
2022-05-13 16:45:33;4.21;74;20.80;0;0.00
2022-05-13 16:50:31;4.21;74;20.80;0;0.00
2022-05-13 16:55:33;4.21;74;20.70;0;0.00
2022-05-13 17:00:31;4.21;74;20.60;0;0.00
2022-05-13 17:05:33;4.21;73;20.50;0;0.00
2022-05-13 17:10:31;4.21;72;20.30;0;0.00
2022-05-13 17:15:33;4.21;68;20.00;0;0.00
2022-05-13 17:20:31;4.21;61;19.80;0;0.00
2022-05-13 17:25:33;4.21;59;19.50;0;0.00
2022-05-13 17:30:30;4.21;50;19.20;0;0.00
2022-05-13 17:35:32;4.21;41;18.90;0;0.00
2022-05-13 17:40:30;4.21;27;18.60;0;0.00
2022-05-13 17:45:32;4.21;16;18.30;0;0.00
2022-05-13 17:50:34;4.20;1;17.90;0;0.00
2022-05-13 17:55:31;4.20;99;17.50;0;0.00
2022-05-13 18:00:33;4.20;99;17.10;0;0.00
2022-05-13 18:05:30;4.20;99;16.80;0;0.00
2022-05-13 18:10:32;4.20;99;16.70;0;0.00
2022-05-13 18:15:33;4.20;99;16.40;0;0.00
2022-05-13 18:20:31;4.20;99;16.10;0;0.00
2022-05-13 18:25:32;4.20;99;15.80;0;0.00
2022-05-13 18:30:29;4.20;99;15.60;0;0.00
2022-05-13 18:35:31;4.20;99;15.40;0;0.00
2022-05-13 18:40:32;4.19;99;14.90;0;0.00
2022-05-13 18:45:29;4.19;99;15.00;0;0.00
2022-05-13 18:50:30;4.19;99;14.90;0;0.00
2022-05-13 18:55:32;4.19;99;14.70;0;0.00
2022-05-13 19:00:33;4.19;99;14.60;0;0.00
2022-05-13 19:05:30;4.19;99;14.60;0;0.00
2022-05-13 19:10:31;4.19;99;14.60;0;0.00
2022-05-13 19:15:33;4.19;99;14.60;0;0.00
2022-05-13 19:20:29;4.19;99;14.50;0;0.00
2022-05-13 19:25:31;4.19;99;14.30;0;0.00
2022-05-13 19:30:32;4.19;99;14.10;0;0.00
2022-05-13 19:35:33;4.19;99;13.90;0;0.00
2022-05-13 19:40:30;4.19;99;13.70;0;0.00
2022-05-13 19:45:31;4.19;99;13.60;0;0.00
2022-05-13 19:50:32;4.19;99;13.60;0;0.00
2022-05-13 19:55:29;4.19;99;13.50;0;0.00
2022-05-13 20:00:30;4.19;99;13.40;0;0.00
2022-05-13 20:05:31;4.18;99;13.40;0;0.00
2022-05-13 20:10:33;4.19;99;13.50;0;0.00
2022-05-13 20:15:29;4.18;99;13.30;0;0.00
2022-05-13 20:20:30;4.18;99;13.30;0;0.00
2022-05-13 20:25:32;4.18;99;13.20;0;0.00
2022-05-13 20:30:33;4.18;99;13.20;0;0.00
2022-05-13 20:35:29;4.18;99;13.10;0;0.00
2022-05-13 20:40:31;4.18;99;13.00;0;0.00
2022-05-13 20:45:32;4.18;99;12.90;0;0.00
2022-05-13 20:50:33;4.18;99;12.80;0;0.00
2022-05-13 20:55:29;4.18;99;12.80;0;0.00
2022-05-13 21:00:31;4.18;99;12.70;0;0.00
2022-05-13 21:05:32;4.18;99;12.70;0;0.00
2022-05-13 21:10:33;4.18;99;12.60;0;0.00
2022-05-13 21:15:29;4.18;99;12.50;0;0.00
2022-05-13 21:20:30;4.18;99;12.30;0;0.00
2022-05-13 21:25:31;4.18;99;12.10;0;0.00
2022-05-13 21:30:33;4.18;99;12.30;0;0.00
2022-05-13 21:35:29;4.18;99;12.60;0;0.00
2022-05-13 21:40:30;4.18;99;12.50;0;0.00
2022-05-13 21:45:31;4.18;99;12.70;0;0.00
2022-05-13 21:50:32;4.18;99;12.70;0;0.00
2022-05-13 21:55:29;4.18;99;12.60;0;0.00
2022-05-13 22:00:30;4.18;99;12.90;0;0.00
2022-05-13 22:05:31;4.18;99;13.00;0;0.00
2022-05-13 22:10:32;4.18;99;13.00;0;0.00
2022-05-13 22:15:33;4.18;99;12.70;0;0.00
2022-05-13 22:20:29;4.18;99;12.00;0;0.00
2022-05-13 22:25:30;4.18;99;12.10;0;0.00
2022-05-13 22:30:32;4.18;99;12.10;0;0.00
2022-05-13 22:35:33;4.18;99;11.20;0;0.00
2022-05-13 22:40:29;4.18;99;10.80;0;0.00
2022-05-13 22:45:30;4.18;99;11.20;0;0.00
2022-05-13 22:50:31;4.17;99;11.50;0;0.00
2022-05-13 22:55:32;4.17;99;11.20;0;0.00
2022-05-13 23:00:33;4.17;99;11.20;0;0.00
2022-05-13 23:05:29;4.17;99;10.30;0;0.00
2022-05-13 23:10:30;4.17;99;9.90;0;0.00
2022-05-13 23:15:31;4.17;99;10.20;0;0.00
2022-05-13 23:20:32;4.17;99;10.90;0;0.00
2022-05-13 23:25:29;4.17;99;10.30;0;0.00
2022-05-13 23:30:29;4.17;99;9.50;0;0.00
2022-05-13 23:35:30;4.17;99;9.60;0;0.00
2022-05-13 23:40:31;4.17;99;9.80;0;0.00
2022-05-13 23:45:32;4.17;99;10.30;0;0.00
2022-05-13 23:50:33;4.17;99;10.70;0;0.00
2022-05-13 23:55:29;4.17;99;11.00;0;0.00
