2022-10-17 00:00:30;4.17;19;12.60;1;0.00
2022-10-17 00:05:31;4.16;8;12.70;0;0.00
2022-10-17 00:10:31;4.16;6;13.10;0;0.00
2022-10-17 00:15:32;4.17;12;13.00;0;0.00
2022-10-17 00:20:33;4.16;11;12.80;0;0.00
2022-10-17 00:25:29;4.17;10;12.60;0;0.00
2022-10-17 00:30:30;4.17;8;12.30;0;0.00
2022-10-17 00:35:31;4.17;1;12.10;0;0.00
2022-10-17 00:40:32;4.17;99;12.20;0;0.00
2022-10-17 00:45:33;4.16;99;12.20;0;0.00
2022-10-17 00:50:33;4.16;99;12.30;0;0.00
2022-10-17 00:55:30;4.16;99;12.30;0;0.00
2022-10-17 01:00:30;4.16;99;12.20;0;0.00
2022-10-17 01:05:31;4.16;99;12.20;0;0.00
2022-10-17 01:10:32;4.16;99;12.00;0;0.00
2022-10-17 01:15:33;4.16;99;11.90;0;0.00
2022-10-17 01:20:33;4.16;99;11.80;0;0.00
2022-10-17 01:25:30;4.16;99;11.50;0;0.00
2022-10-17 01:30:30;4.16;99;11.20;0;0.00
2022-10-17 01:35:31;4.16;99;11.20;0;0.00
2022-10-17 01:40:32;4.16;99;11.40;0;0.00
2022-10-17 01:45:32;4.16;99;11.00;0;0.00
2022-10-17 01:50:33;4.16;99;10.80;0;0.00
2022-10-17 01:55:29;4.16;99;10.90;0;0.00
2022-10-17 02:00:30;4.16;99;11.10;0;0.00
2022-10-17 02:05:31;4.16;99;11.00;0;0.00
2022-10-17 02:10:31;4.15;99;10.80;0;0.00
2022-10-17 02:15:32;4.16;99;11.00;0;0.00
2022-10-17 02:20:33;4.16;99;11.20;0;0.00
2022-10-17 02:25:33;4.16;99;11.30;0;0.00
2022-10-17 02:30:29;4.16;99;11.20;0;0.00
2022-10-17 02:35:30;4.16;99;11.10;0;0.00
2022-10-17 02:40:31;4.16;99;10.80;0;0.00
2022-10-17 02:45:31;4.16;99;11.00;0;0.00
2022-10-17 02:50:32;4.15;99;10.90;0;0.00
2022-10-17 02:55:33;4.15;99;11.00;0;0.00
2022-10-17 03:00:33;4.16;99;10.90;0;0.00
2022-10-17 03:05:29;4.16;99;11.20;0;0.00
2022-10-17 03:10:30;4.15;99;11.10;0;0.00
2022-10-17 03:15:31;4.15;99;11.40;0;0.00
2022-10-17 03:20:31;4.16;99;11.50;0;0.00
2022-10-17 03:25:32;4.15;99;11.50;0;0.00
2022-10-17 03:30:33;4.16;99;11.70;0;0.00
2022-10-17 03:35:33;4.15;99;11.60;0;0.00
2022-10-17 03:40:30;4.15;99;11.70;0;0.00
2022-10-17 03:45:30;4.15;99;11.70;0;0.00
2022-10-17 03:50:31;4.16;99;11.60;0;0.00
2022-10-17 03:55:32;4.16;99;11.70;0;0.00
2022-10-17 04:00:32;4.15;99;11.70;0;0.00
2022-10-17 04:05:33;4.16;99;11.70;0;0.00
2022-10-17 04:10:29;4.15;99;11.70;0;0.00
2022-10-17 04:15:30;4.15;99;11.50;0;0.00
2022-10-17 04:20:31;4.16;99;11.50;0;0.00
2022-10-17 04:25:32;4.16;99;11.50;0;0.00
2022-10-17 04:30:32;4.16;99;11.30;0;0.00
2022-10-17 04:35:33;4.15;99;11.30;0;0.00
2022-10-17 04:40:34;4.15;99;11.20;0;0.00
2022-10-17 04:45:30;4.15;99;11.30;0;0.00
2022-10-17 04:50:31;4.15;99;11.20;0;0.00
2022-10-17 04:55:31;4.15;99;11.10;0;0.00
2022-10-17 05:00:32;4.16;99;11.30;0;0.00
2022-10-17 05:05:33;4.15;99;11.20;0;0.00
2022-10-17 05:10:33;4.15;99;11.20;0;0.00
2022-10-17 05:15:29;4.15;99;11.30;0;0.00
2022-10-17 05:20:30;4.16;99;11.30;0;0.00
2022-10-17 05:25:31;4.16;99;11.20;0;0.00
2022-10-17 05:30:32;4.16;99;11.30;0;0.00
2022-10-17 05:35:32;4.16;99;11.30;0;0.00
2022-10-17 05:40:33;4.15;99;11.30;0;0.00
2022-10-17 05:45:34;4.15;99;11.40;0;0.00
2022-10-17 05:50:30;4.16;99;11.50;0;0.00
2022-10-17 05:55:31;4.15;99;11.40;0;0.00
2022-10-17 06:00:31;4.16;99;11.50;0;0.00
2022-10-17 06:05:32;4.15;99;11.50;0;0.00
2022-10-17 06:10:33;4.15;99;11.40;0;0.00
2022-10-17 06:15:29;4.15;99;11.40;0;0.00
2022-10-17 06:20:30;4.15;99;11.40;0;0.00
2022-10-17 06:25:31;4.15;99;11.40;0;0.00
2022-10-17 06:30:33;4.15;99;11.50;0;0.00
2022-10-17 06:35:29;4.15;99;11.60;0;0.00
2022-10-17 06:40:30;4.15;99;11.70;0;0.00
2022-10-17 06:45:31;4.15;99;11.80;0;0.00
2022-10-17 06:50:32;4.16;99;11.80;0;0.00
2022-10-17 06:55:29;4.16;99;12.00;0;0.00
2022-10-17 07:00:30;4.15;99;12.20;0;0.00
2022-10-17 07:05:31;4.16;99;12.30;0;0.00
2022-10-17 07:10:32;4.16;99;13.00;0;0.00
2022-10-17 07:15:33;4.16;99;13.30;0;0.00
2022-10-17 07:20:30;4.17;99;13.70;0;0.00
2022-10-17 07:25:31;4.17;99;13.70;0;0.00
2022-10-17 07:30:32;4.17;99;13.50;0;0.00
2022-10-17 07:35:33;4.17;99;13.50;0;0.00
2022-10-17 07:40:30;4.17;99;13.90;0;0.00
2022-10-17 07:45:31;4.18;99;14.50;0;0.00
2022-10-17 07:50:32;4.17;99;15.00;0;0.00
2022-10-17 07:55:29;4.18;99;14.70;0;0.00
2022-10-17 08:00:31;4.18;99;14.90;0;2.09
2022-10-17 08:05:32;4.18;99;15.40;0;2.29
2022-10-17 08:10:29;4.18;99;15.10;0;1.20
2022-10-17 08:15:31;4.19;99;14.90;0;1.10
2022-10-17 08:20:32;4.18;99;14.80;0;1.50
2022-10-17 08:25:34;4.18;99;15.10;0;1.40
2022-10-17 08:30:31;4.19;99;15.20;0;1.20
2022-10-17 08:35:32;4.18;99;15.30;0;1.60
2022-10-17 08:40:29;4.19;99;15.40;0;0.00
2022-10-17 08:45:31;4.19;99;15.50;0;1.80
2022-10-17 08:50:32;4.18;99;15.70;0;1.70
2022-10-17 08:55:29;4.19;99;15.70;0;1.80
2022-10-17 09:00:31;4.19;1;15.90;0;2.19
2022-10-17 09:05:33;4.19;99;16.10;0;0.00
2022-10-17 09:10:30;4.19;4;16.00;0;1.60
2022-10-17 09:15:32;4.19;9;16.20;0;1.30
2022-10-17 09:20:33;4.19;15;16.80;0;1.30
2022-10-17 09:25:30;4.19;22;17.30;0;1.60
2022-10-17 09:30:32;4.19;24;17.50;0;2.29
2022-10-17 09:35:30;4.19;37;18.30;0;1.20
2022-10-17 09:40:31;4.19;36;18.20;0;2.09
2022-10-17 09:45:33;4.19;42;17.40;0;2.00
2022-10-17 09:50:31;4.19;43;18.10;0;1.40
2022-10-17 09:55:33;4.20;45;18.10;0;1.20
2022-10-17 10:00:34;4.19;43;17.50;0;1.60
2022-10-17 10:05:32;4.20;46;18.70;0;1.90
2022-10-17 10:10:33;4.19;48;19.20;0;1.70
2022-10-17 10:15:31;4.20;50;19.40;0;1.20
2022-10-17 10:20:33;4.20;51;18.90;0;2.00
2022-10-17 10:25:35;4.20;51;18.40;0;1.50
2022-10-17 10:30:32;4.20;51;18.40;0;1.50
2022-10-17 10:35:34;4.20;52;19.30;0;1.90
2022-10-17 10:40:31;4.20;55;19.40;0;2.49
2022-10-17 10:45:33;4.20;55;19.70;0;2.19
2022-10-17 10:50:31;4.20;54;19.80;0;0.00
2022-10-17 10:55:33;4.20;55;19.60;0;2.09
2022-10-17 11:00:35;4.20;56;20.30;0;1.90
2022-10-17 11:05:33;4.20;55;20.70;0;1.10
2022-10-17 11:10:35;4.20;56;20.10;0;1.80
2022-10-17 11:15:33;4.20;56;20.30;0;1.80
2022-10-17 11:20:35;4.20;57;20.20;0;2.19
2022-10-17 11:25:33;4.20;57;20.80;0;1.50
2022-10-17 11:30:35;4.20;57;20.40;0;3.18
2022-10-17 11:35:33;4.20;59;20.70;0;1.90
2022-10-17 11:40:35;4.20;58;20.40;0;0.00
2022-10-17 11:45:33;4.20;57;20.90;0;0.00
2022-10-17 11:50:35;4.20;57;21.30;0;1.70
2022-10-17 11:55:33;4.20;58;20.50;0;0.00
2022-10-17 12:00:35;4.20;59;20.40;0;1.80
2022-10-17 12:05:33;4.20;59;20.50;0;0.00
2022-10-17 12:10:35;4.20;59;20.80;0;0.00
2022-10-17 12:15:33;4.20;58;21.20;0;0.00
2022-10-17 12:20:35;4.20;59;21.50;0;2.29
2022-10-17 12:25:33;4.20;58;21.60;0;0.00
2022-10-17 12:30:35;4.20;58;22.10;0;0.00
2022-10-17 12:35:33;4.21;59;21.40;0;0.00
2022-10-17 12:40:35;4.20;60;21.70;0;0.00
2022-10-17 12:45:33;4.20;59;22.10;0;0.00
2022-10-17 12:50:31;4.20;60;21.80;0;2.00
2022-10-17 12:55:34;4.20;59;22.10;0;0.00
2022-10-17 13:00:32;4.20;60;22.30;0;0.00
2022-10-17 13:05:34;4.21;59;21.90;0;0.00
2022-10-17 13:10:32;4.20;60;22.00;0;0.00
2022-10-17 13:15:35;4.21;60;22.00;0;2.09
2022-10-17 13:20:32;4.20;60;22.10;0;1.50
2022-10-17 13:25:35;4.21;60;22.20;0;1.80
2022-10-17 13:30:33;4.21;60;22.30;0;2.29
2022-10-17 13:35:35;4.20;59;22.70;0;2.00
2022-10-17 13:40:33;4.20;60;22.60;0;2.29
2022-10-17 13:45:31;4.21;61;22.60;0;2.19
2022-10-17 13:50:34;4.20;60;22.70;0;0.00
2022-10-17 13:55:32;4.20;62;21.70;0;1.80
2022-10-17 14:00:34;4.20;60;22.60;0;1.50
2022-10-17 14:05:32;4.21;62;22.00;0;0.00
2022-10-17 14:10:35;4.21;61;22.10;0;2.09
2022-10-17 14:15:32;4.21;62;21.80;0;2.49
2022-10-17 14:20:35;4.20;63;21.80;0;2.00
2022-10-17 14:25:33;4.21;62;21.70;0;1.50
2022-10-17 14:30:35;4.21;61;21.60;0;1.70
2022-10-17 14:35:33;4.21;62;21.50;0;2.79
2022-10-17 14:40:35;4.21;62;21.50;0;1.90
2022-10-17 14:45:33;4.21;62;21.50;0;2.09
2022-10-17 14:50:35;4.21;62;22.30;0;1.30
2022-10-17 14:55:33;4.21;62;21.90;0;1.80
2022-10-17 15:00:31;4.21;62;22.30;0;0.00
2022-10-17 15:05:33;4.21;61;22.70;0;2.99
2022-10-17 15:10:31;4.21;61;22.20;0;1.40
2022-10-17 15:15:34;4.21;60;23.30;0;1.60
2022-10-17 15:20:31;4.21;60;22.90;0;1.30
2022-10-17 15:25:34;4.21;62;22.30;0;0.00
2022-10-17 15:30:32;4.21;62;21.50;0;1.20
2022-10-17 15:35:34;4.21;62;22.40;0;1.20
2022-10-17 15:40:32;4.21;61;22.70;0;2.39
2022-10-17 15:45:35;4.21;62;22.90;0;1.10
2022-10-17 15:50:33;4.21;62;23.10;0;1.70
2022-10-17 15:55:35;4.21;61;23.60;0;0.00
2022-10-17 16:00:33;4.21;61;23.50;0;2.69
2022-10-17 16:05:31;4.21;61;23.20;0;1.90
2022-10-17 16:10:34;4.21;61;22.80;0;2.19
2022-10-17 16:15:32;4.21;63;21.70;0;0.00
2022-10-17 16:20:34;4.21;62;22.80;0;1.40
2022-10-17 16:25:32;4.21;62;22.60;0;2.29
2022-10-17 16:30:35;4.21;63;22.00;0;2.69
2022-10-17 16:35:33;4.21;61;23.30;0;2.69
2022-10-17 16:40:35;4.21;61;22.90;0;1.80
2022-10-17 16:45:33;4.21;61;22.10;0;1.60
2022-10-17 16:50:35;4.21;61;22.30;0;1.80
2022-10-17 16:55:33;4.21;61;21.90;0;1.70
2022-10-17 17:00:31;4.21;63;21.60;0;1.50
2022-10-17 17:05:33;4.21;63;21.50;0;3.58
2022-10-17 17:10:31;4.21;63;21.70;0;1.40
2022-10-17 17:15:33;4.21;62;21.60;0;2.29
2022-10-17 17:20:31;4.21;63;21.60;0;1.70
2022-10-17 17:25:33;4.21;63;21.50;0;1.60
2022-10-17 17:30:35;4.21;64;21.30;0;2.59
2022-10-17 17:35:33;4.21;64;21.30;0;1.50
2022-10-17 17:40:35;4.21;65;21.10;0;2.29
2022-10-17 17:45:32;4.21;64;21.10;0;1.70
2022-10-17 17:50:34;4.20;64;21.00;0;0.00
2022-10-17 17:55:32;4.21;65;21.10;0;1.10
2022-10-17 18:00:34;4.21;65;21.20;0;0.00
2022-10-17 18:05:31;4.20;65;21.20;0;1.40
2022-10-17 18:10:33;4.21;64;21.00;0;2.49
2022-10-17 18:15:31;4.20;65;21.00;0;0.00
2022-10-17 18:20:33;4.21;65;21.10;0;0.00
2022-10-17 18:25:35;4.21;64;21.30;0;0.00
2022-10-17 18:30:32;4.21;64;21.50;0;2.29
2022-10-17 18:35:34;4.21;65;21.50;0;0.00
2022-10-17 18:40:31;4.20;65;21.20;0;3.08
2022-10-17 18:45:33;4.20;64;21.20;0;0.00
2022-10-17 18:50:31;4.20;65;20.90;0;0.00
2022-10-17 18:55:33;4.20;66;20.60;0;1.20
2022-10-17 19:00:35;4.20;66;20.40;0;1.60
2022-10-17 19:05:32;4.19;66;20.30;0;0.00
2022-10-17 19:10:34;4.20;66;20.10;0;0.00
2022-10-17 19:15:31;4.20;66;19.90;0;0.00
2022-10-17 19:20:33;4.20;66;19.60;0;0.00
2022-10-17 19:25:31;4.20;66;19.40;0;0.00
2022-10-17 19:30:32;4.19;66;19.30;0;0.00
2022-10-17 19:35:34;4.19;66;19.20;0;0.00
2022-10-17 19:40:31;4.19;65;19.20;0;0.00
2022-10-17 19:45:33;4.18;65;19.10;0;0.00
2022-10-17 19:50:35;4.19;65;18.90;0;0.00
2022-10-17 19:55:32;4.19;64;18.70;0;0.00
2022-10-17 20:00:34;4.19;63;18.60;0;0.00
2022-10-17 20:05:31;4.19;63;18.60;0;0.00
2022-10-17 20:10:32;4.19;62;18.40;0;0.00
2022-10-17 20:15:34;4.19;61;18.20;0;0.00
2022-10-17 20:20:31;4.19;60;18.00;0;0.00
2022-10-17 20:25:32;4.18;60;17.90;0;0.00
2022-10-17 20:30:34;4.18;59;17.80;0;0.00
2022-10-17 20:35:31;4.18;58;17.60;0;0.00
2022-10-17 20:40:33;4.19;56;17.60;0;0.00
2022-10-17 20:45:34;4.19;56;17.70;0;0.00
2022-10-17 20:50:31;4.19;55;17.40;0;0.00
2022-10-17 20:55:32;4.19;54;17.10;0;0.00
2022-10-17 21:00:34;4.19;52;16.80;0;0.00
2022-10-17 21:05:31;4.19;50;16.70;0;0.00
2022-10-17 21:10:32;4.19;51;17.10;0;0.00
2022-10-17 21:15:33;4.19;52;17.00;0;0.00
2022-10-17 21:20:30;4.19;52;16.80;0;0.00
2022-10-17 21:25:32;4.18;50;16.40;0;0.00
2022-10-17 21:30:33;4.19;48;16.20;0;0.00
2022-10-17 21:35:34;4.19;45;16.10;0;0.00
2022-10-17 21:40:31;4.18;44;16.10;0;0.00
2022-10-17 21:45:32;4.18;43;15.90;0;0.00
2022-10-17 21:50:33;4.18;41;15.70;0;0.00
2022-10-17 21:55:30;4.18;38;15.70;0;0.00
2022-10-17 22:00:31;4.18;37;15.40;0;0.00
2022-10-17 22:05:32;4.18;34;15.30;0;0.00
2022-10-17 22:10:34;4.18;32;15.30;0;0.00
2022-10-17 22:15:30;4.18;30;14.80;0;0.00
2022-10-17 22:20:31;4.18;22;14.90;0;0.00
2022-10-17 22:25:32;4.18;20;15.00;0;0.00
2022-10-17 22:30:33;4.18;22;14.80;0;0.00
2022-10-17 22:35:30;4.18;20;14.70;0;0.00
2022-10-17 22:40:31;4.18;16;14.60;0;0.00
2022-10-17 22:45:32;4.18;14;14.50;0;0.00
2022-10-17 22:50:33;4.18;11;14.60;0;0.00
2022-10-17 22:55:34;4.18;12;14.40;0;0.00
2022-10-17 23:00:30;4.18;8;14.40;0;0.00
2022-10-17 23:05:31;4.18;8;14.00;0;0.00
2022-10-17 23:10:32;4.18;1;14.00;0;0.00
2022-10-17 23:15:33;4.18;99;14.30;0;0.00
2022-10-17 23:20:30;4.18;99;14.30;0;0.00
2022-10-17 23:25:31;4.18;99;14.30;0;0.00
2022-10-17 23:30:32;4.17;99;14.50;0;0.00
2022-10-17 23:35:33;4.17;99;14.60;0;0.00
2022-10-17 23:40:34;4.18;99;14.80;0;0.00
2022-10-17 23:45:30;4.18;99;14.70;0;0.00
2022-10-17 23:50:31;4.17;99;14.70;0;0.00
2022-10-17 23:55:32;4.17;99;14.90;0;0.00
