2022-01-20 00:00:33;4.22;99;24.40;1;0.00
2022-01-20 00:05:31;4.22;99;24.30;0;0.00
2022-01-20 00:10:33;4.22;99;24.20;0;0.00
2022-01-20 00:15:31;4.22;99;24.20;0;0.00
2022-01-20 00:20:34;4.22;99;24.20;0;0.00
2022-01-20 00:25:32;4.22;99;24.20;0;0.00
2022-01-20 00:30:35;4.22;99;24.30;0;0.00
2022-01-20 00:35:33;4.22;99;24.40;0;0.00
2022-01-20 00:40:31;4.22;99;24.50;0;0.00
2022-01-20 00:45:33;4.22;99;24.60;0;0.00
2022-01-20 00:50:31;4.22;99;24.60;0;0.00
2022-01-20 00:55:34;4.22;99;24.70;0;0.00
2022-01-20 01:00:32;4.22;99;24.80;0;0.00
2022-01-20 01:05:35;4.22;99;24.80;0;0.00
2022-01-20 01:10:33;4.22;99;24.90;0;0.00
2022-01-20 01:15:31;4.22;99;24.90;0;0.00
2022-01-20 01:20:33;4.22;99;24.90;0;0.00
2022-01-20 01:25:32;4.22;99;24.80;0;0.00
2022-01-20 01:30:34;4.22;99;24.70;0;0.00
2022-01-20 01:35:32;4.22;99;24.60;0;0.00
2022-01-20 01:40:30;4.21;99;24.60;0;0.00
2022-01-20 01:45:33;4.21;99;24.60;0;0.00
2022-01-20 01:50:31;4.21;99;24.70;0;0.00
2022-01-20 01:55:34;4.21;99;24.80;0;0.00
2022-01-20 02:00:32;4.22;99;24.90;0;0.00
2022-01-20 02:05:30;4.21;99;24.90;0;0.00
2022-01-20 02:10:33;4.21;99;25.00;0;0.00
2022-01-20 02:15:31;4.21;99;25.00;0;0.00
2022-01-20 02:20:34;4.21;99;24.90;0;0.00
2022-01-20 02:25:32;4.21;99;24.90;0;0.00
2022-01-20 02:30:35;4.21;99;24.90;0;0.00
2022-01-20 02:35:33;4.21;99;24.90;0;0.00
2022-01-20 02:40:31;4.21;99;24.80;0;0.00
2022-01-20 02:45:34;4.21;99;24.90;0;0.00
2022-01-20 02:50:32;4.21;99;24.90;0;0.00
2022-01-20 02:55:35;4.21;99;24.80;0;0.00
2022-01-20 03:00:33;4.21;99;24.90;0;0.00
2022-01-20 03:05:31;4.21;99;24.90;0;0.00
2022-01-20 03:10:34;4.21;99;24.80;0;0.00
2022-01-20 03:15:32;4.21;99;24.70;0;0.00
2022-01-20 03:20:35;4.21;99;24.80;0;0.00
2022-01-20 03:25:33;4.21;99;24.70;0;0.00
2022-01-20 03:30:31;4.21;99;24.70;0;0.00
2022-01-20 03:35:34;4.21;99;24.60;0;0.00
2022-01-20 03:40:32;4.21;99;24.70;0;0.00
2022-01-20 03:45:34;4.21;99;24.70;0;0.00
2022-01-20 03:50:32;4.21;99;24.70;0;0.00
2022-01-20 03:55:31;4.21;99;24.70;0;0.00
2022-01-20 04:00:33;4.21;99;24.60;0;0.00
2022-01-20 04:05:32;4.21;99;24.60;0;0.00
2022-01-20 04:10:34;4.21;99;24.60;0;0.00
2022-01-20 04:15:33;4.21;99;24.60;0;0.00
2022-01-20 04:20:31;4.21;99;24.50;0;0.00
2022-01-20 04:25:33;4.21;99;24.40;0;0.00
2022-01-20 04:30:31;4.21;99;24.30;0;0.00
2022-01-20 04:35:34;4.21;99;24.30;0;0.00
2022-01-20 04:40:32;4.21;99;24.20;0;0.00
2022-01-20 04:45:30;4.21;99;24.10;0;0.00
2022-01-20 04:50:33;4.21;99;24.10;0;0.00
2022-01-20 04:55:31;4.21;99;24.20;0;0.00
2022-01-20 05:00:34;4.21;99;24.20;0;0.00
2022-01-20 05:05:32;4.21;99;24.30;0;0.00
2022-01-20 05:10:34;4.21;99;24.20;0;0.00
2022-01-20 05:15:32;4.21;99;24.10;0;0.00
2022-01-20 05:20:30;4.21;99;24.10;0;0.00
2022-01-20 05:25:33;4.21;99;24.10;0;0.00
2022-01-20 05:30:31;4.20;99;24.00;0;0.00
2022-01-20 05:35:33;4.21;99;23.90;0;0.00
2022-01-20 05:40:31;4.20;99;23.80;0;0.00
2022-01-20 05:45:34;4.21;99;23.80;0;0.00
2022-01-20 05:50:32;4.20;99;23.80;0;0.00
2022-01-20 05:55:34;4.20;99;23.80;0;0.00
2022-01-20 06:00:32;4.20;99;23.80;0;0.00
2022-01-20 06:05:30;4.20;99;23.80;0;0.00
2022-01-20 06:10:33;4.20;99;23.70;0;0.00
2022-01-20 06:15:31;4.20;99;23.70;0;0.00
2022-01-20 06:20:33;4.20;99;23.70;0;0.00
2022-01-20 06:25:31;4.20;99;23.70;0;0.00
2022-01-20 06:30:34;4.20;99;23.70;0;0.00
2022-01-20 06:35:32;4.20;99;23.70;0;0.00
2022-01-20 06:40:34;4.20;99;23.80;0;0.00
2022-01-20 06:45:32;4.20;99;23.90;0;0.00
2022-01-20 06:50:30;4.20;99;23.90;0;0.00
2022-01-20 06:55:33;4.20;99;24.00;0;0.00
2022-01-20 07:00:31;4.20;99;24.10;0;0.00
2022-01-20 07:05:33;4.20;99;24.20;0;0.00
2022-01-20 07:10:31;4.20;99;24.40;0;0.00
2022-01-20 07:15:34;4.21;99;24.70;0;0.00
2022-01-20 07:20:32;4.20;99;25.00;0;0.00
2022-01-20 07:25:34;4.21;99;25.50;0;0.00
2022-01-20 07:30:33;4.21;99;26.30;0;0.00
2022-01-20 07:35:31;4.21;99;26.80;0;0.00
2022-01-20 07:40:33;4.21;99;27.20;0;0.00
2022-01-20 07:45:32;4.21;99;27.50;0;0.00
2022-01-20 07:50:35;4.21;99;27.50;0;0.00
2022-01-20 07:55:33;4.21;99;27.90;0;0.00
2022-01-20 08:00:31;4.21;99;27.90;0;0.00
2022-01-20 08:05:34;4.21;99;28.40;0;0.00
2022-01-20 08:10:33;4.21;99;28.90;0;0.00
2022-01-20 08:15:32;4.21;99;29.00;0;0.00
2022-01-20 08:20:35;4.21;99;29.10;0;0.00
2022-01-20 08:25:33;4.21;99;28.70;0;0.00
2022-01-20 08:30:32;4.21;99;28.90;0;0.00
2022-01-20 08:35:31;4.22;99;29.40;0;0.00
2022-01-20 08:40:34;4.22;99;29.40;0;0.00
2022-01-20 08:45:33;4.22;99;29.90;0;0.00
2022-01-20 08:50:32;4.22;99;30.40;0;0.00
2022-01-20 08:55:31;4.22;99;30.20;0;0.00
2022-01-20 09:00:35;4.22;8;30.70;0;0.00
2022-01-20 09:05:34;4.22;4;30.90;0;0.00
2022-01-20 09:10:33;4.22;11;31.00;0;0.00
2022-01-20 09:15:32;4.22;15;30.60;0;0.00
2022-01-20 09:20:31;4.22;28;31.40;0;0.00
2022-01-20 09:25:35;4.22;17;31.60;0;0.00
2022-01-20 09:30:35;4.22;35;32.30;0;0.00
2022-01-20 09:35:34;4.22;44;32.40;0;0.00
2022-01-20 09:40:34;4.22;50;32.20;0;0.00
2022-01-20 09:45:33;4.22;49;32.30;0;0.00
2022-01-20 09:50:33;4.22;47;32.40;0;0.00
2022-01-20 09:55:32;4.22;55;32.40;0;0.00
2022-01-20 10:00:32;4.22;55;32.30;0;0.00
2022-01-20 10:05:36;4.22;52;33.00;0;0.00
2022-01-20 10:10:31;4.22;61;32.80;0;0.00
2022-01-20 10:15:36;4.22;54;33.10;0;0.00
2022-01-20 10:20:35;4.22;58;32.70;0;0.00
2022-01-20 10:25:35;4.22;57;32.90;0;0.00
2022-01-20 10:30:35;4.22;58;33.10;0;0.00
2022-01-20 10:35:35;4.22;57;32.80;0;0.00
2022-01-20 10:40:35;4.22;63;32.60;0;0.00
2022-01-20 10:45:35;4.22;53;32.10;0;0.00
2022-01-20 10:50:34;4.23;62;32.90;0;0.00
2022-01-20 10:55:34;4.23;62;33.00;0;0.00
2022-01-20 11:00:34;4.23;58;32.60;0;0.00
2022-01-20 11:05:34;4.23;64;33.40;0;0.00
2022-01-20 11:10:34;4.23;61;33.60;0;0.00
2022-01-20 11:15:34;4.23;64;33.80;0;0.00
2022-01-20 11:20:34;4.23;60;34.60;0;0.00
2022-01-20 11:25:34;4.23;64;34.10;0;0.00
2022-01-20 11:30:34;4.23;66;33.70;0;0.00
2022-01-20 11:35:34;4.23;65;34.80;0;0.00
2022-01-20 11:40:34;4.23;64;34.70;0;0.00
2022-01-20 11:45:34;4.23;64;34.50;0;0.00
2022-01-20 11:50:34;4.23;65;34.30;0;0.00
2022-01-20 11:55:34;4.23;65;35.30;0;0.00
2022-01-20 12:00:34;4.23;65;34.60;0;0.00
2022-01-20 12:05:34;4.23;65;35.30;0;0.00
2022-01-20 12:10:34;4.23;66;35.10;0;0.00
2022-01-20 12:15:34;4.23;66;35.50;0;0.00
2022-01-20 12:20:34;4.23;65;35.40;0;0.00
2022-01-20 12:25:35;4.23;67;35.30;0;0.00
2022-01-20 12:30:35;4.23;66;34.90;0;0.00
2022-01-20 12:35:35;4.23;66;35.50;0;0.00
2022-01-20 12:40:35;4.23;64;35.00;0;0.00
2022-01-20 12:45:35;4.23;68;35.60;0;0.00
2022-01-20 12:50:35;4.23;68;35.50;0;0.00
2022-01-20 12:55:35;4.23;66;36.20;0;0.00
2022-01-20 13:00:35;4.23;67;36.30;0;0.00
2022-01-20 13:05:35;4.23;66;35.70;0;0.00
2022-01-20 13:10:35;4.24;66;36.10;0;0.00
2022-01-20 13:15:35;4.24;68;35.50;0;0.00
2022-01-20 13:20:35;4.24;66;36.30;0;0.00
2022-01-20 13:25:35;4.24;67;36.00;0;0.00
2022-01-20 13:30:35;4.24;67;37.20;0;0.00
2022-01-20 13:35:35;4.24;65;36.90;0;0.00
2022-01-20 13:40:36;4.24;67;36.50;0;0.00
2022-01-20 13:45:36;4.24;66;36.80;0;0.00
2022-01-20 13:50:36;4.24;66;36.80;0;0.00
2022-01-20 13:55:36;4.24;66;36.10;0;0.00
2022-01-20 14:00:36;4.24;67;37.20;0;0.00
2022-01-20 14:05:36;4.24;65;36.40;0;0.00
2022-01-20 14:10:37;4.24;67;36.50;0;0.00
2022-01-20 14:15:37;4.24;65;36.90;0;0.00
2022-01-20 14:20:37;4.24;65;37.10;0;0.00
2022-01-20 14:25:37;4.24;65;37.50;0;0.00
2022-01-20 14:30:37;4.24;65;37.80;0;0.00
2022-01-20 14:35:33;4.24;66;37.60;0;0.00
2022-01-20 14:40:38;4.24;66;36.90;0;0.00
2022-01-20 14:45:33;4.24;66;37.60;0;0.00
2022-01-20 14:50:33;4.24;64;37.40;0;0.00
2022-01-20 14:55:34;4.24;65;37.70;0;0.00
2022-01-20 15:00:34;4.24;65;37.90;0;0.00
2022-01-20 15:05:34;4.24;65;37.70;0;0.00
2022-01-20 15:10:34;4.24;66;37.90;0;0.00
2022-01-20 15:15:35;4.24;66;37.70;0;0.00
2022-01-20 15:20:35;4.24;66;37.50;0;0.00
2022-01-20 15:25:35;4.24;63;38.00;0;0.00
2022-01-20 15:30:35;4.24;64;37.30;0;0.00
2022-01-20 15:35:36;4.24;64;37.90;0;0.00
2022-01-20 15:40:36;4.24;66;38.20;0;0.00
2022-01-20 15:45:36;4.24;65;37.70;0;0.00
2022-01-20 15:50:36;4.24;64;38.30;0;0.00
2022-01-20 15:55:37;4.24;65;37.80;0;0.00
2022-01-20 16:00:37;4.24;64;38.10;0;0.00
2022-01-20 16:05:37;4.24;65;39.00;0;0.00
2022-01-20 16:10:33;4.24;65;38.10;0;0.00
2022-01-20 16:15:38;4.25;64;38.60;0;0.00
2022-01-20 16:20:34;4.24;64;38.60;0;0.00
2022-01-20 16:25:34;4.24;64;38.50;0;0.00
2022-01-20 16:30:34;4.25;65;38.20;0;0.00
2022-01-20 16:35:35;4.24;65;38.00;0;0.00
2022-01-20 16:40:35;4.25;62;38.80;0;0.00
2022-01-20 16:45:35;4.25;62;38.70;0;0.00
2022-01-20 16:50:36;4.25;64;38.60;0;0.00
2022-01-20 16:55:36;4.25;66;37.70;0;0.00
2022-01-20 17:00:36;4.25;67;37.80;0;0.00
2022-01-20 17:05:37;4.25;66;37.50;0;0.00
2022-01-20 17:10:37;4.25;66;37.40;0;0.00
2022-01-20 17:15:37;4.25;66;37.40;0;0.00
2022-01-20 17:20:37;4.25;64;37.10;0;0.00
2022-01-20 17:25:37;4.25;65;37.20;0;0.00
2022-01-20 17:30:37;4.25;65;36.80;0;0.00
2022-01-20 17:35:37;4.25;64;37.50;0;0.00
2022-01-20 17:40:37;4.25;64;37.70;0;0.00
2022-01-20 17:45:37;4.25;65;38.10;0;0.00
2022-01-20 17:50:37;4.25;62;38.10;0;0.00
2022-01-20 17:55:37;4.25;64;38.20;0;0.00
2022-01-20 18:00:33;4.25;66;37.50;0;0.00
2022-01-20 18:05:37;4.25;68;37.00;0;0.00
2022-01-20 18:10:33;4.25;68;36.40;0;0.00
2022-01-20 18:15:37;4.25;68;35.70;0;0.00
2022-01-20 18:20:33;4.25;67;35.40;0;0.00
2022-01-20 18:25:37;4.25;67;35.20;0;0.00
2022-01-20 18:30:37;4.25;67;35.00;0;0.00
2022-01-20 18:35:36;4.25;67;34.90;0;0.00
2022-01-20 18:40:36;4.25;61;34.40;0;0.00
2022-01-20 18:45:35;4.25;58;34.20;0;0.00
2022-01-20 18:50:35;4.25;56;34.10;0;0.00
2022-01-20 18:55:34;4.25;61;34.10;0;0.00
2022-01-20 19:00:34;4.25;56;34.00;0;0.00
2022-01-20 19:05:33;4.25;52;33.90;0;0.00
2022-01-20 19:10:33;4.25;51;33.90;0;0.00
2022-01-20 19:15:37;4.25;42;33.70;0;0.00
2022-01-20 19:20:36;4.25;55;33.60;0;0.00
2022-01-20 19:25:35;4.25;55;33.60;0;0.00
2022-01-20 19:30:34;4.25;55;33.40;0;0.00
2022-01-20 19:35:34;4.25;55;33.10;0;0.00
2022-01-20 19:40:33;4.24;38;32.80;0;0.00
2022-01-20 19:45:36;4.24;15;32.50;0;0.00
2022-01-20 19:50:36;4.24;18;32.20;0;0.00
2022-01-20 19:55:35;4.25;1;32.10;0;0.00
2022-01-20 20:00:34;4.24;29;32.20;0;0.00
2022-01-20 20:05:33;4.25;35;32.20;0;0.00
2022-01-20 20:10:36;4.24;39;32.10;0;0.00
2022-01-20 20:15:35;4.24;29;32.00;0;0.00
2022-01-20 20:20:34;4.24;3;31.70;0;0.00
2022-01-20 20:25:33;4.24;15;31.50;0;0.00
2022-01-20 20:30:36;4.24;29;31.60;0;0.00
2022-01-20 20:35:35;4.24;31;31.70;0;0.00
2022-01-20 20:40:34;4.24;5;31.40;0;0.00
2022-01-20 20:45:33;4.24;16;31.30;0;0.00
2022-01-20 20:50:36;4.24;6;31.10;0;0.00
2022-01-20 20:55:35;4.24;23;31.20;0;0.00
2022-01-20 21:00:34;4.24;24;31.10;0;0.00
2022-01-20 21:05:32;4.24;6;31.00;0;0.00
2022-01-20 21:10:36;4.24;17;31.00;0;0.00
2022-01-20 21:15:34;4.24;2;30.80;0;0.00
2022-01-20 21:20:33;4.24;33;31.40;0;0.00
2022-01-20 21:25:32;4.24;25;31.30;0;0.00
2022-01-20 21:30:35;4.24;38;31.20;0;0.00
2022-01-20 21:35:34;4.24;42;31.40;0;0.00
2022-01-20 21:40:33;4.24;34;31.10;0;0.00
2022-01-20 21:45:36;4.24;16;30.70;0;0.00
2022-01-20 21:50:35;4.24;38;30.90;0;0.00
2022-01-20 21:55:33;4.24;45;30.90;0;0.00
2022-01-20 22:00:32;4.24;47;30.80;0;0.00
2022-01-20 22:05:35;4.24;47;30.60;0;0.00
2022-01-20 22:10:34;4.24;46;30.50;0;0.00
2022-01-20 22:15:33;4.24;48;30.60;0;0.00
2022-01-20 22:20:36;4.24;47;30.40;0;0.00
2022-01-20 22:25:35;4.24;45;30.20;0;0.00
2022-01-20 22:30:33;4.24;41;30.00;0;0.00
2022-01-20 22:35:32;4.24;38;30.00;0;0.00
2022-01-20 22:40:35;4.24;29;29.70;0;0.00
2022-01-20 22:45:34;4.24;23;29.50;0;0.00
2022-01-20 22:50:33;4.23;15;29.50;0;0.00
2022-01-20 22:55:36;4.23;13;29.40;0;0.00
2022-01-20 23:00:34;4.23;99;29.10;0;0.00
2022-01-20 23:05:33;4.24;99;29.00;0;0.00
2022-01-20 23:10:36;4.23;99;28.90;0;0.00
2022-01-20 23:15:34;4.23;99;28.80;0;0.00
2022-01-20 23:20:33;4.23;99;28.70;0;0.00
2022-01-20 23:25:36;4.23;99;28.50;0;0.00
2022-01-20 23:30:34;4.23;99;28.50;0;0.00
2022-01-20 23:35:33;4.23;99;28.30;0;0.00
2022-01-20 23:40:36;4.23;99;28.10;0;0.00
2022-01-20 23:45:34;4.23;99;28.30;0;0.00
2022-01-20 23:50:32;4.23;99;28.00;0;0.00
2022-01-20 23:55:36;4.23;99;28.30;0;0.00
