2022-08-22 00:00:29;4.14;82;5.80;0;0.00
2022-08-22 00:05:30;4.15;82;6.10;0;0.00
2022-08-22 00:10:30;4.15;82;6.10;0;0.00
2022-08-22 00:15:30;4.15;82;6.00;0;0.00
2022-08-22 00:20:30;4.15;82;6.20;0;0.00
2022-08-22 00:25:31;4.15;82;5.80;0;0.00
2022-08-22 00:30:31;4.15;83;5.80;0;0.00
2022-08-22 00:35:31;4.15;83;5.40;0;0.00
2022-08-22 00:40:31;4.15;83;5.80;0;0.00
2022-08-22 00:45:31;4.15;83;6.10;0;0.00
2022-08-22 00:50:32;4.15;82;6.10;0;0.00
2022-08-22 00:55:32;4.14;82;6.40;0;0.00
2022-08-22 01:00:32;4.14;83;6.30;0;0.00
2022-08-22 01:05:32;4.14;83;6.10;0;0.00
2022-08-22 01:10:32;4.14;83;6.10;0;0.00
2022-08-22 01:15:32;4.14;83;6.10;0;0.00
2022-08-22 01:20:33;4.14;83;6.10;0;0.00
2022-08-22 01:25:33;4.14;83;6.00;0;0.00
2022-08-22 01:30:33;4.14;83;6.00;0;0.00
2022-08-22 01:35:33;4.14;83;6.00;0;0.00
2022-08-22 01:40:29;4.14;83;5.90;0;0.00
2022-08-22 01:45:34;4.14;83;5.80;0;0.00
2022-08-22 01:50:29;4.14;83;5.60;0;0.00
2022-08-22 01:55:29;4.14;83;5.40;0;0.00
2022-08-22 02:00:30;4.14;83;5.20;0;0.00
2022-08-22 02:05:30;4.14;82;4.80;0;0.00
2022-08-22 02:10:30;4.14;82;4.10;0;0.00
2022-08-22 02:15:30;4.14;81;4.00;0;0.00
2022-08-22 02:20:30;4.14;78;4.40;0;0.00
2022-08-22 02:25:30;4.14;78;4.40;0;0.00
2022-08-22 02:30:30;4.14;77;4.50;0;0.00
2022-08-22 02:35:30;4.14;77;4.70;0;0.00
2022-08-22 02:40:30;4.14;78;4.90;0;0.00
2022-08-22 02:45:30;4.14;79;3.30;0;0.00
2022-08-22 02:50:31;4.13;78;2.50;0;0.00
2022-08-22 02:55:31;4.13;75;2.50;0;0.00
2022-08-22 03:00:31;4.13;73;2.40;0;0.00
2022-08-22 03:05:31;4.13;71;2.30;0;0.00
2022-08-22 03:10:30;4.13;71;2.30;0;0.00
2022-08-22 03:15:30;4.13;70;1.90;0;0.00
2022-08-22 03:20:30;4.13;71;1.40;0;0.00
2022-08-22 03:25:30;4.13;68;1.50;0;0.00
2022-08-22 03:30:30;4.13;69;1.10;0;0.00
2022-08-22 03:35:30;4.13;69;0.80;0;0.00
2022-08-22 03:40:30;4.13;65;1.20;0;0.00
2022-08-22 03:45:30;4.13;65;0.90;0;0.00
2022-08-22 03:50:30;4.13;64;0.80;0;0.00
2022-08-22 03:55:30;4.13;59;0.90;0;0.00
2022-08-22 04:00:29;4.13;57;1.50;0;0.00
2022-08-22 04:05:29;4.13;58;1.50;0;0.00
2022-08-22 04:10:29;4.13;59;1.60;0;0.00
2022-08-22 04:15:29;4.13;59;1.20;0;0.00
2022-08-22 04:20:29;4.13;58;1.20;0;0.00
2022-08-22 04:25:33;4.13;55;1.40;0;0.00
2022-08-22 04:30:29;4.13;54;1.50;0;0.00
2022-08-22 04:35:33;4.13;55;1.50;0;0.00
2022-08-22 04:40:33;4.13;54;1.60;0;0.00
2022-08-22 04:45:33;4.12;53;1.70;0;0.00
2022-08-22 04:50:33;4.13;52;2.10;0;0.00
2022-08-22 04:55:32;4.12;53;2.20;0;0.00
2022-08-22 05:00:32;4.13;54;1.90;0;0.00
2022-08-22 05:05:32;4.13;54;1.90;0;0.00
2022-08-22 05:10:32;4.13;54;1.90;0;0.00
2022-08-22 05:15:32;4.13;54;1.80;0;0.00
2022-08-22 05:20:32;4.13;55;1.60;0;0.00
2022-08-22 05:25:32;4.13;55;1.40;0;0.00
2022-08-22 05:30:31;4.13;53;1.40;0;0.00
2022-08-22 05:35:31;4.13;52;1.50;0;0.00
2022-08-22 05:40:31;4.13;50;1.70;0;0.00
2022-08-22 05:45:31;4.13;47;2.00;0;0.00
2022-08-22 05:50:31;4.13;47;2.20;0;0.00
2022-08-22 05:55:31;4.13;49;2.10;0;0.00
2022-08-22 06:00:31;4.13;48;2.40;0;0.00
2022-08-22 06:05:30;4.13;51;2.10;0;0.00
2022-08-22 06:10:30;4.13;47;2.50;0;0.00
2022-08-22 06:15:30;4.13;46;2.90;0;0.00
2022-08-22 06:20:30;4.13;48;3.10;0;0.00
2022-08-22 06:25:30;4.13;50;3.00;0;0.00
2022-08-22 06:30:30;4.13;52;2.90;0;0.00
2022-08-22 06:35:30;4.13;51;2.80;0;0.00
2022-08-22 06:40:30;4.13;53;2.50;0;0.00
2022-08-22 06:45:30;4.13;53;2.20;0;0.00
2022-08-22 06:50:29;4.13;51;2.20;0;0.00
2022-08-22 06:55:29;4.13;48;2.40;0;0.00
2022-08-22 07:00:29;4.13;49;2.40;0;0.00
2022-08-22 07:05:29;4.13;46;2.60;0;0.00
2022-08-22 07:10:29;4.13;45;2.80;0;0.00
2022-08-22 07:15:29;4.12;44;3.10;0;0.00
2022-08-22 07:20:29;4.13;47;2.90;0;0.00
2022-08-22 07:25:34;4.12;47;2.80;0;0.00
2022-08-22 07:30:29;4.12;45;2.80;0;0.00
2022-08-22 07:35:33;4.12;45;2.80;0;0.00
2022-08-22 07:40:29;4.12;46;2.60;0;0.00
2022-08-22 07:45:33;4.12;45;2.50;0;0.00
2022-08-22 07:50:29;4.12;44;2.70;0;0.00
2022-08-22 07:55:33;4.13;46;2.50;0;0.00
2022-08-22 08:00:28;4.13;47;2.20;0;0.00
2022-08-22 08:05:33;4.13;46;2.30;0;0.00
2022-08-22 08:10:33;4.14;46;2.40;0;0.00
2022-08-22 08:15:33;4.15;47;2.80;0;0.00
2022-08-22 08:20:33;4.15;49;3.40;0;0.00
2022-08-22 08:25:33;4.14;55;3.60;0;0.00
2022-08-22 08:30:33;4.14;57;3.60;0;0.00
2022-08-22 08:35:33;4.16;56;4.00;0;0.00
2022-08-22 08:40:33;4.16;56;4.70;0;0.00
2022-08-22 08:45:29;4.16;56;5.80;0;0.00
2022-08-22 08:50:33;4.17;64;6.50;0;0.00
2022-08-22 08:55:29;4.17;68;7.20;0;0.00
2022-08-22 09:00:29;4.16;70;7.80;0;0.00
2022-08-22 09:05:30;4.16;71;8.20;0;0.00
2022-08-22 09:10:30;4.17;70;8.60;0;0.00
2022-08-22 09:15:31;4.16;71;9.10;0;0.00
2022-08-22 09:20:31;4.15;72;9.10;0;0.00
2022-08-22 09:25:32;4.17;72;9.30;0;0.00
2022-08-22 09:30:32;4.17;72;10.40;0;0.00
2022-08-22 09:35:33;4.17;74;11.00;0;0.00
2022-08-22 09:40:34;4.17;75;11.30;0;0.00
2022-08-22 09:45:30;4.17;75;11.60;0;1.20
2022-08-22 09:50:31;4.17;74;12.20;0;1.20
2022-08-22 09:55:32;4.17;74;12.30;0;1.20
2022-08-22 10:00:33;4.18;74;12.40;0;0.00
2022-08-22 10:05:34;4.18;74;12.70;0;1.10
2022-08-22 10:10:30;4.18;74;12.90;0;1.10
2022-08-22 10:15:31;4.18;74;13.00;0;2.19
2022-08-22 10:20:33;4.18;74;13.40;0;1.30
2022-08-22 10:25:34;4.18;73;14.00;0;0.00
2022-08-22 10:30:31;4.18;73;14.20;0;1.70
2022-08-22 10:35:32;4.18;72;15.00;0;0.00
2022-08-22 10:40:33;4.18;73;14.60;0;0.00
2022-08-22 10:45:30;4.18;73;15.10;0;0.00
2022-08-22 10:50:32;4.18;71;15.40;0;0.00
2022-08-22 10:55:33;4.18;71;15.30;0;0.00
2022-08-22 11:00:30;4.18;70;15.70;0;0.00
2022-08-22 11:05:32;4.18;72;15.80;0;0.00
2022-08-22 11:10:33;4.18;69;16.40;0;1.10
2022-08-22 11:15:31;4.19;70;17.10;0;0.00
2022-08-22 11:20:32;4.19;70;17.00;0;1.20
2022-08-22 11:25:34;4.19;68;17.20;0;1.10
2022-08-22 11:30:31;4.19;67;17.00;0;0.00
2022-08-22 11:35:33;4.18;68;17.70;0;1.50
2022-08-22 11:40:35;4.19;66;18.10;0;0.00
2022-08-22 11:45:32;4.19;68;18.10;0;2.00
2022-08-22 11:50:34;4.19;66;17.90;0;0.00
2022-08-22 11:55:31;4.19;66;18.60;0;1.30
2022-08-22 12:00:33;4.19;65;18.50;0;0.00
2022-08-22 12:05:31;4.19;66;18.90;0;1.40
2022-08-22 12:10:33;4.19;65;18.80;0;0.00
2022-08-22 12:15:35;4.19;65;18.70;0;1.70
2022-08-22 12:20:32;4.19;65;18.80;0;0.00
2022-08-22 12:25:34;4.19;64;19.00;0;0.00
2022-08-22 12:30:32;4.19;64;19.10;0;2.49
2022-08-22 12:35:34;4.19;63;18.90;0;0.00
2022-08-22 12:40:31;4.19;63;19.00;0;0.00
2022-08-22 12:45:34;4.19;62;19.20;0;0.00
2022-08-22 12:50:31;4.19;60;19.80;0;1.30
2022-08-22 12:55:33;4.19;60;20.00;0;1.60
2022-08-22 13:00:31;4.19;61;19.50;0;0.00
2022-08-22 13:05:33;4.19;62;20.00;0;1.70
2022-08-22 13:10:31;4.19;60;20.10;0;1.50
2022-08-22 13:15:33;4.20;60;20.50;0;1.50
2022-08-22 13:20:35;4.19;60;19.50;0;1.60
2022-08-22 13:25:33;4.19;61;19.80;0;1.20
2022-08-22 13:30:35;4.19;62;20.40;0;2.00
2022-08-22 13:35:33;4.20;59;20.10;0;0.00
2022-08-22 13:40:35;4.19;60;20.30;0;0.00
2022-08-22 13:45:33;4.20;59;20.50;0;0.00
2022-08-22 13:50:35;4.20;58;21.70;0;1.40
2022-08-22 13:55:33;4.19;60;20.70;0;2.19
2022-08-22 14:00:31;4.19;58;20.80;0;0.00
2022-08-22 14:05:34;4.19;58;21.10;0;1.80
2022-08-22 14:10:31;4.20;58;21.00;0;1.60
2022-08-22 14:15:34;4.19;58;20.80;0;3.28
2022-08-22 14:20:32;4.20;57;20.90;0;0.00
2022-08-22 14:25:34;4.19;56;20.80;0;1.10
2022-08-22 14:30:32;4.20;57;21.20;0;2.49
2022-08-22 14:35:35;4.20;57;20.90;0;0.00
2022-08-22 14:40:32;4.20;57;20.80;0;0.00
2022-08-22 14:45:35;4.20;58;21.60;0;1.90
2022-08-22 14:50:33;4.20;58;21.40;0;0.00
2022-08-22 14:55:35;4.20;55;21.70;0;1.40
2022-08-22 15:00:33;4.20;56;21.70;0;0.00
2022-08-22 15:05:31;4.20;54;21.80;0;2.00
2022-08-22 15:10:34;4.20;55;21.70;0;2.00
2022-08-22 15:15:32;4.20;55;21.40;0;2.00
2022-08-22 15:20:34;4.20;54;21.30;0;1.40
2022-08-22 15:25:32;4.20;55;21.60;0;0.00
2022-08-22 15:30:34;4.20;56;21.40;0;2.29
2022-08-22 15:35:32;4.20;55;21.20;0;1.40
2022-08-22 15:40:35;4.20;56;21.50;0;0.00
2022-08-22 15:45:33;4.20;53;21.40;0;2.09
2022-08-22 15:50:35;4.20;54;21.50;0;1.90
2022-08-22 15:55:33;4.20;54;21.30;0;1.60
2022-08-22 16:00:35;4.20;56;21.30;0;2.00
2022-08-22 16:05:33;4.20;56;21.40;0;1.50
2022-08-22 16:10:35;4.20;55;21.20;0;2.49
2022-08-22 16:15:33;4.20;56;21.30;0;2.19
2022-08-22 16:20:31;4.20;56;21.30;0;2.69
2022-08-22 16:25:33;4.20;57;21.30;0;1.30
2022-08-22 16:30:31;4.20;57;20.80;0;1.60
2022-08-22 16:35:33;4.20;58;20.80;0;2.19
2022-08-22 16:40:31;4.20;57;20.60;0;1.10
2022-08-22 16:45:33;4.20;59;20.70;0;1.40
2022-08-22 16:50:31;4.20;57;20.60;0;1.60
2022-08-22 16:55:33;4.20;59;20.50;0;1.90
2022-08-22 17:00:31;4.20;58;20.40;0;2.09
2022-08-22 17:05:33;4.20;58;20.60;0;2.19
2022-08-22 17:10:35;4.20;59;20.20;0;1.60
2022-08-22 17:15:33;4.20;60;20.30;0;1.70
2022-08-22 17:20:35;4.20;59;20.20;0;1.60
2022-08-22 17:25:32;4.20;57;20.20;0;2.00
2022-08-22 17:30:34;4.20;58;20.00;0;1.70
2022-08-22 17:35:32;4.20;58;19.80;0;2.00
2022-08-22 17:40:34;4.20;59;19.40;0;3.08
2022-08-22 17:45:31;4.20;60;19.40;0;1.20
2022-08-22 17:50:33;4.20;60;19.00;0;1.50
2022-08-22 17:55:30;4.20;61;18.60;0;1.50
2022-08-22 18:00:32;4.19;62;18.20;0;0.00
2022-08-22 18:05:34;4.20;64;17.80;0;0.00
2022-08-22 18:10:31;4.20;65;17.50;0;0.00
2022-08-22 18:15:33;4.19;66;16.90;0;0.00
2022-08-22 18:20:35;4.19;66;16.50;0;0.00
2022-08-22 18:25:32;4.19;67;16.10;0;0.00
2022-08-22 18:30:33;4.18;68;15.60;0;0.00
2022-08-22 18:35:30;4.18;68;15.30;0;0.00
2022-08-22 18:40:31;4.18;70;14.60;0;0.00
2022-08-22 18:45:33;4.18;73;13.60;0;0.00
2022-08-22 18:50:34;4.17;70;14.20;0;0.00
2022-08-22 18:55:31;4.17;70;14.20;0;0.00
2022-08-22 19:00:32;4.18;69;14.20;0;0.00
2022-08-22 19:05:33;4.18;69;14.40;0;0.00
2022-08-22 19:10:34;4.17;71;13.60;0;0.00
2022-08-22 19:15:30;4.17;73;12.70;0;0.00
2022-08-22 19:20:31;4.17;74;11.80;0;0.00
2022-08-22 19:25:32;4.16;75;12.00;0;0.00
2022-08-22 19:30:33;4.17;75;11.90;0;0.00
2022-08-22 19:35:29;4.16;77;10.80;0;0.00
2022-08-22 19:40:30;4.16;79;10.40;0;0.00
2022-08-22 19:45:31;4.16;79;10.30;0;0.00
2022-08-22 19:50:32;4.16;78;10.50;0;0.00
2022-08-22 19:55:33;4.16;79;10.20;0;0.00
2022-08-22 20:00:33;4.16;79;10.10;0;0.00
2022-08-22 20:05:29;4.16;80;10.30;0;0.00
2022-08-22 20:10:30;4.16;78;11.10;0;0.00
2022-08-22 20:15:31;4.16;78;11.40;0;0.00
2022-08-22 20:20:31;4.16;74;12.50;0;0.00
2022-08-22 20:25:32;4.16;73;12.50;0;0.00
2022-08-22 20:30:33;4.16;73;12.60;0;0.00
2022-08-22 20:35:34;4.16;73;12.40;0;0.00
2022-08-22 20:40:30;4.16;74;12.40;0;0.00
2022-08-22 20:45:30;4.16;77;10.40;0;0.00
2022-08-22 20:50:31;4.16;76;11.40;0;0.00
2022-08-22 20:55:32;4.16;76;11.50;0;0.00
2022-08-22 21:00:33;4.16;76;11.40;0;0.00
2022-08-22 21:05:33;4.16;76;11.70;0;0.00
2022-08-22 21:10:30;4.16;75;11.90;0;0.00
2022-08-22 21:15:30;4.16;76;11.00;0;0.00
2022-08-22 21:20:31;4.16;80;10.00;0;0.00
2022-08-22 21:25:32;4.16;78;10.60;0;0.00
2022-08-22 21:30:32;4.16;77;11.00;0;0.00
2022-08-22 21:35:33;4.16;77;11.10;0;0.00
2022-08-22 21:40:34;4.16;77;10.80;0;0.00
2022-08-22 21:45:30;4.15;78;10.00;0;0.00
2022-08-22 21:50:31;4.16;80;9.70;0;0.00
2022-08-22 21:55:31;4.15;80;9.60;0;0.00
2022-08-22 22:00:32;4.16;80;9.60;0;0.00
2022-08-22 22:05:32;4.15;79;9.90;0;0.00
2022-08-22 22:10:33;4.15;80;9.80;0;0.00
2022-08-22 22:15:34;4.15;79;10.20;0;0.00
2022-08-22 22:20:30;4.15;80;10.00;0;0.00
2022-08-22 22:25:30;4.15;79;10.40;0;0.00
2022-08-22 22:30:31;4.15;79;10.40;0;0.00
2022-08-22 22:35:31;4.15;79;10.30;0;0.00
2022-08-22 22:40:32;4.15;79;10.40;0;0.00
2022-08-22 22:45:33;4.15;79;10.20;0;0.00
2022-08-22 22:50:33;4.15;79;10.00;0;0.00
2022-08-22 22:55:29;4.15;81;9.60;0;0.00
2022-08-22 23:00:30;4.15;82;9.10;0;0.00
2022-08-22 23:05:30;4.15;83;8.60;0;0.00
2022-08-22 23:10:31;4.15;81;8.90;0;0.00
2022-08-22 23:15:31;4.15;82;8.90;0;0.00
2022-08-22 23:20:32;4.15;81;9.40;0;0.00
2022-08-22 23:25:33;4.16;81;8.60;0;0.00
2022-08-22 23:30:33;4.15;83;8.10;0;0.00
2022-08-22 23:35:34;4.14;82;8.50;0;0.00
2022-08-22 23:40:29;4.15;81;9.10;0;0.00
2022-08-22 23:45:30;4.15;81;9.10;0;0.00
2022-08-22 23:50:30;4.15;81;8.70;0;0.00
2022-08-22 23:55:31;4.15;82;8.30;0;0.00
