2022-10-08 00:00:31;4.19;67;18.90;0;1.20
2022-10-08 00:05:33;4.18;67;19.10;0;1.70
2022-10-08 00:10:34;4.19;66;19.30;0;1.50
2022-10-08 00:15:32;4.19;66;19.50;0;1.80
2022-10-08 00:20:33;4.18;65;19.80;0;1.50
2022-10-08 00:25:30;4.19;65;20.00;0;0.00
2022-10-08 00:30:32;4.19;64;20.30;0;1.80
2022-10-08 00:35:34;4.18;64;20.30;0;2.89
2022-10-08 00:40:31;4.18;64;20.50;0;3.38
2022-10-08 00:45:33;4.18;63;20.50;0;2.49
2022-10-08 00:50:35;4.18;64;20.50;0;2.00
2022-10-08 00:55:32;4.18;64;20.40;0;2.49
2022-10-08 01:00:34;4.18;64;20.50;0;2.19
2022-10-08 01:05:31;4.18;64;20.30;0;4.07
2022-10-08 01:10:33;4.19;64;20.10;0;2.19
2022-10-08 01:15:35;4.18;65;20.00;0;3.08
2022-10-08 01:20:32;4.18;65;19.90;0;1.90
2022-10-08 01:25:34;4.18;65;19.80;0;2.29
2022-10-08 01:30:31;4.18;65;19.70;0;2.49
2022-10-08 01:35:33;4.18;66;19.70;0;2.59
2022-10-08 01:40:34;4.18;66;19.50;0;1.80
2022-10-08 01:45:32;4.18;66;19.40;0;3.08
2022-10-08 01:50:33;4.18;67;19.30;0;1.90
2022-10-08 01:55:31;4.18;67;19.20;0;2.29
2022-10-08 02:00:32;4.18;67;19.30;0;1.80
2022-10-08 02:05:34;4.18;67;19.10;0;2.19
2022-10-08 02:10:31;4.18;67;19.10;0;2.49
2022-10-08 02:15:33;4.18;67;18.90;0;1.60
2022-10-08 02:20:34;4.18;68;18.70;0;3.38
2022-10-08 02:25:32;4.18;68;18.60;0;3.18
2022-10-08 02:30:33;4.17;67;18.80;0;2.29
2022-10-08 02:35:30;4.18;68;18.70;0;2.49
2022-10-08 02:40:32;4.18;67;18.70;0;3.18
2022-10-08 02:45:33;4.17;68;18.60;0;2.09
2022-10-08 02:50:31;4.18;68;18.50;0;3.78
2022-10-08 02:55:32;4.18;68;18.40;0;1.70
2022-10-08 03:00:34;4.17;68;18.40;0;3.88
2022-10-08 03:05:31;4.17;68;18.30;0;1.60
2022-10-08 03:10:32;4.18;68;18.20;0;3.28
2022-10-08 03:15:34;4.18;69;18.10;0;2.69
2022-10-08 03:20:31;4.18;69;18.10;0;2.19
2022-10-08 03:25:33;4.17;69;18.00;0;1.20
2022-10-08 03:30:34;4.17;69;18.00;0;2.79
2022-10-08 03:35:31;4.18;69;17.90;0;3.08
2022-10-08 03:40:33;4.17;69;17.70;0;1.80
2022-10-08 03:45:34;4.17;69;17.80;0;2.09
2022-10-08 03:50:31;4.18;69;17.70;0;1.50
2022-10-08 03:55:33;4.18;69;17.70;0;2.19
2022-10-08 04:00:34;4.17;70;17.40;0;1.70
2022-10-08 04:05:31;4.17;70;17.40;0;1.20
2022-10-08 04:10:33;4.17;70;17.10;0;1.80
2022-10-08 04:15:30;4.17;70;17.10;0;1.40
2022-10-08 04:20:31;4.17;70;17.00;0;1.30
2022-10-08 04:25:33;4.17;71;16.80;0;1.60
2022-10-08 04:30:34;4.17;71;16.80;0;2.39
2022-10-08 04:35:31;4.17;71;16.70;0;1.30
2022-10-08 04:40:33;4.17;71;16.70;0;1.50
2022-10-08 04:45:34;4.17;71;16.60;0;3.48
2022-10-08 04:50:31;4.17;71;16.70;0;1.90
2022-10-08 04:55:32;4.17;71;16.70;0;1.20
2022-10-08 05:00:34;4.17;71;16.70;0;1.90
2022-10-08 05:05:30;4.17;70;16.90;0;1.70
2022-10-08 05:10:32;4.17;70;17.10;0;0.00
2022-10-08 05:15:33;4.17;70;17.20;0;2.59
2022-10-08 05:20:30;4.17;68;18.00;0;2.29
2022-10-08 05:25:32;4.17;65;19.10;0;3.58
2022-10-08 05:30:33;4.17;65;19.20;0;1.90
2022-10-08 05:35:30;4.17;66;19.00;0;2.89
2022-10-08 05:40:32;4.17;66;18.70;0;2.39
2022-10-08 05:45:33;4.17;65;19.20;0;2.09
2022-10-08 05:50:30;4.17;66;18.80;0;0.00
2022-10-08 05:55:32;4.17;67;18.50;0;1.70
2022-10-08 06:00:33;4.17;67;18.60;0;4.37
2022-10-08 06:05:31;4.17;66;18.90;0;1.20
2022-10-08 06:10:32;4.17;65;19.10;0;0.00
2022-10-08 06:15:34;4.17;64;19.40;0;1.10
2022-10-08 06:20:31;4.17;64;19.40;0;1.30
2022-10-08 06:25:33;4.17;64;19.30;0;0.00
2022-10-08 06:30:34;4.17;65;19.00;0;0.00
2022-10-08 06:35:31;4.17;67;18.30;0;0.00
2022-10-08 06:40:33;4.16;68;17.90;0;0.00
2022-10-08 06:45:35;4.17;68;17.70;0;0.00
2022-10-08 06:50:32;4.17;69;17.30;0;0.00
2022-10-08 06:55:33;4.17;70;17.10;0;0.00
2022-10-08 07:00:35;4.17;71;16.50;0;0.00
2022-10-08 07:05:31;4.17;72;15.90;0;0.00
2022-10-08 07:10:33;4.17;71;16.30;0;0.00
2022-10-08 07:15:34;4.17;72;16.40;0;0.00
2022-10-08 07:20:31;4.17;70;17.20;0;0.00
2022-10-08 07:25:32;4.17;70;17.30;0;0.00
2022-10-08 07:30:34;4.17;70;17.50;0;0.00
2022-10-08 07:35:31;4.17;70;17.40;0;0.00
2022-10-08 07:40:32;4.18;71;17.40;0;0.00
2022-10-08 07:45:34;4.18;71;17.80;0;0.00
2022-10-08 07:50:30;4.18;67;19.00;0;1.40
2022-10-08 07:55:32;4.18;66;19.50;0;0.00
2022-10-08 08:00:34;4.18;64;19.80;0;2.49
2022-10-08 08:05:31;4.18;65;19.60;0;2.39
2022-10-08 08:10:32;4.18;65;19.60;0;4.07
2022-10-08 08:15:34;4.18;65;19.40;0;4.67
2022-10-08 08:20:31;4.18;63;19.60;0;5.86
2022-10-08 08:25:33;4.18;61;19.40;0;5.06
2022-10-08 08:30:30;4.19;59;19.60;0;6.15
2022-10-08 08:35:32;4.20;58;19.90;0;5.66
2022-10-08 08:40:34;4.19;58;20.00;0;6.15
2022-10-08 08:45:31;4.20;59;20.00;0;4.47
2022-10-08 08:50:33;4.19;59;20.40;0;6.15
2022-10-08 08:55:31;4.19;59;20.10;0;4.27
2022-10-08 09:00:33;4.19;58;20.00;0;8.03
2022-10-08 09:05:35;4.20;56;20.10;0;7.83
2022-10-08 09:10:32;4.20;58;20.30;0;4.07
2022-10-08 09:15:34;4.20;58;20.30;0;5.36
2022-10-08 09:20:32;4.20;53;20.20;0;5.46
2022-10-08 09:25:34;4.20;52;20.70;0;6.05
2022-10-08 09:30:31;4.20;52;20.30;0;4.96
2022-10-08 09:35:33;4.20;49;20.20;0;7.83
2022-10-08 09:40:31;4.20;48;20.20;0;7.64
2022-10-08 09:45:33;4.20;49;20.20;0;8.03
2022-10-08 09:50:35;4.20;48;20.30;0;6.15
2022-10-08 09:55:33;4.20;49;20.50;0;4.47
2022-10-08 10:00:35;4.20;50;20.70;0;4.47
2022-10-08 10:05:32;4.20;50;20.70;0;3.18
2022-10-08 10:10:35;4.20;47;21.00;0;5.26
2022-10-08 10:15:32;4.20;48;20.70;0;7.04
2022-10-08 10:20:34;4.20;50;21.10;0;3.88
2022-10-08 10:25:32;4.20;50;21.10;0;6.45
2022-10-08 10:30:34;4.20;45;21.20;0;5.86
2022-10-08 10:35:32;4.20;46;21.10;0;5.95
2022-10-08 10:40:34;4.20;46;21.10;0;6.05
2022-10-08 10:45:32;4.20;44;21.00;0;8.03
2022-10-08 10:50:34;4.20;44;21.20;0;5.36
2022-10-08 10:55:32;4.20;43;21.20;0;4.27
2022-10-08 11:00:34;4.20;43;21.70;0;4.57
2022-10-08 11:05:32;4.20;42;21.70;0;6.15
2022-10-08 11:10:35;4.20;42;21.60;0;4.07
2022-10-08 11:15:32;4.20;43;21.50;0;7.24
2022-10-08 11:20:35;4.21;43;21.80;0;5.56
2022-10-08 11:25:33;4.20;43;21.90;0;3.97
2022-10-08 11:30:35;4.20;42;21.50;0;5.26
2022-10-08 11:35:33;4.20;42;21.50;0;4.57
2022-10-08 11:40:35;4.21;41;21.30;0;4.77
2022-10-08 11:45:33;4.21;43;21.60;0;4.77
2022-10-08 11:50:31;4.21;42;21.10;0;4.77
2022-10-08 11:55:34;4.21;43;21.20;0;6.15
2022-10-08 12:00:31;4.21;44;21.40;0;5.26
2022-10-08 12:05:34;4.21;43;21.40;0;4.27
2022-10-08 12:10:32;4.21;44;21.00;0;4.27
2022-10-08 12:15:34;4.20;42;21.00;0;4.77
2022-10-08 12:20:32;4.21;40;22.00;0;5.66
2022-10-08 12:25:34;4.21;39;21.90;0;4.57
2022-10-08 12:30:32;4.21;38;21.60;0;4.27
2022-10-08 12:35:35;4.20;37;21.80;0;5.86
2022-10-08 12:40:33;4.20;39;22.00;0;4.17
2022-10-08 12:45:35;4.20;36;20.80;0;7.34
2022-10-08 12:50:33;4.21;37;21.10;0;6.35
2022-10-08 12:55:35;4.20;37;21.60;0;5.06
2022-10-08 13:00:33;4.20;36;21.20;0;6.94
2022-10-08 13:05:31;4.21;36;21.30;0;3.88
2022-10-08 13:10:34;4.21;35;21.30;0;5.66
2022-10-08 13:15:32;4.21;35;21.00;0;8.33
2022-10-08 13:20:34;4.20;33;21.00;0;7.64
2022-10-08 13:25:32;4.20;34;21.00;0;4.47
2022-10-08 13:30:34;4.21;34;20.30;0;9.02
2022-10-08 13:35:32;4.21;36;21.50;0;4.57
2022-10-08 13:40:34;4.21;35;21.10;0;4.67
2022-10-08 13:45:32;4.20;35;21.40;0;4.96
2022-10-08 13:50:34;4.21;36;21.10;0;5.16
2022-10-08 13:55:32;4.21;35;21.20;0;5.16
2022-10-08 14:00:34;4.21;35;21.20;0;4.67
2022-10-08 14:05:32;4.21;35;21.50;0;5.46
2022-10-08 14:10:35;4.21;35;21.00;0;4.37
2022-10-08 14:15:32;4.21;34;20.80;0;7.04
2022-10-08 14:20:35;4.21;33;20.60;0;4.47
2022-10-08 14:25:33;4.20;32;20.80;0;3.68
2022-10-08 14:30:35;4.21;33;20.80;0;5.56
2022-10-08 14:35:33;4.21;34;21.40;0;5.56
2022-10-08 14:40:35;4.21;35;21.40;0;4.07
2022-10-08 14:45:33;4.20;34;21.10;0;6.25
2022-10-08 14:50:35;4.21;34;20.80;0;4.17
2022-10-08 14:55:33;4.21;34;20.50;0;5.56
2022-10-08 15:00:35;4.21;34;20.50;0;7.44
2022-10-08 15:05:33;4.21;34;20.60;0;5.26
2022-10-08 15:10:35;4.21;35;20.30;0;5.86
2022-10-08 15:15:33;4.21;35;20.50;0;5.26
2022-10-08 15:20:35;4.21;36;20.10;0;4.37
2022-10-08 15:25:33;4.21;36;20.90;0;3.48
2022-10-08 15:30:35;4.21;34;20.40;0;4.96
2022-10-08 15:35:33;4.21;35;20.50;0;4.87
2022-10-08 15:40:35;4.21;34;20.20;0;3.97
2022-10-08 15:45:33;4.21;35;20.00;0;7.14
2022-10-08 15:50:35;4.21;35;19.80;0;3.68
2022-10-08 15:55:33;4.21;36;19.90;0;5.36
2022-10-08 16:00:35;4.21;36;19.60;0;6.94
2022-10-08 16:05:32;4.21;37;19.90;0;3.68
2022-10-08 16:10:34;4.21;37;19.90;0;5.26
2022-10-08 16:15:32;4.21;36;20.30;0;7.24
2022-10-08 16:20:34;4.21;36;19.80;0;4.87
2022-10-08 16:25:32;4.21;36;19.80;0;5.16
2022-10-08 16:30:34;4.21;37;20.10;0;5.66
2022-10-08 16:35:31;4.21;37;20.10;0;3.18
2022-10-08 16:40:33;4.20;38;20.30;0;4.87
2022-10-08 16:45:31;4.21;36;19.60;0;6.15
2022-10-08 16:50:33;4.21;37;19.40;0;4.87
2022-10-08 16:55:35;4.21;37;19.70;0;6.05
2022-10-08 17:00:33;4.21;37;19.20;0;4.87
2022-10-08 17:05:35;4.21;38;19.30;0;3.78
2022-10-08 17:10:32;4.21;38;19.00;0;5.16
2022-10-08 17:15:34;4.21;38;19.20;0;4.47
2022-10-08 17:20:31;4.21;39;18.90;0;3.48
2022-10-08 17:25:33;4.21;39;18.70;0;4.47
2022-10-08 17:30:31;4.21;38;18.70;0;6.05
2022-10-08 17:35:32;4.21;38;18.60;0;4.67
2022-10-08 17:40:34;4.21;38;18.60;0;5.56
2022-10-08 17:45:32;4.21;39;18.60;0;5.06
2022-10-08 17:50:33;4.21;39;18.30;0;5.95
2022-10-08 17:55:31;4.20;40;18.30;0;5.36
2022-10-08 18:00:32;4.21;40;18.10;0;2.89
2022-10-08 18:05:34;4.21;40;17.90;0;2.79
2022-10-08 18:10:31;4.20;41;17.90;0;2.89
2022-10-08 18:15:33;4.20;41;17.60;0;3.38
2022-10-08 18:20:35;4.20;41;17.50;0;3.68
2022-10-08 18:25:32;4.20;40;17.40;0;3.88
2022-10-08 18:30:34;4.20;41;17.20;0;3.68
2022-10-08 18:35:31;4.20;40;17.20;0;3.78
2022-10-08 18:40:32;4.20;41;17.00;0;4.67
2022-10-08 18:45:34;4.20;42;16.60;0;3.48
2022-10-08 18:50:31;4.20;41;16.60;0;2.99
2022-10-08 18:55:32;4.19;42;16.40;0;3.18
2022-10-08 19:00:34;4.19;43;16.10;0;4.57
2022-10-08 19:05:31;4.19;43;16.00;0;3.08
2022-10-08 19:10:32;4.19;44;15.50;0;2.59
2022-10-08 19:15:34;4.19;45;15.40;0;2.00
2022-10-08 19:20:30;4.19;45;15.20;0;2.99
2022-10-08 19:25:32;4.18;45;15.00;0;2.89
2022-10-08 19:30:33;4.19;45;14.80;0;2.09
2022-10-08 19:35:34;4.19;46;14.80;0;3.18
2022-10-08 19:40:31;4.19;47;14.70;0;3.08
2022-10-08 19:45:32;4.19;47;14.70;0;3.18
2022-10-08 19:50:33;4.18;48;14.40;0;2.49
2022-10-08 19:55:30;4.18;49;14.20;0;2.99
2022-10-08 20:00:31;4.18;50;14.10;0;2.49
2022-10-08 20:05:33;4.18;50;14.00;0;2.69
2022-10-08 20:10:34;4.18;51;13.60;0;2.29
2022-10-08 20:15:30;4.18;51;13.80;0;2.39
2022-10-08 20:20:31;4.18;52;13.50;0;1.50
2022-10-08 20:25:32;4.18;52;13.40;0;1.80
2022-10-08 20:30:34;4.18;53;13.20;0;1.60
2022-10-08 20:35:30;4.18;54;12.90;0;1.40
2022-10-08 20:40:31;4.18;54;12.80;0;1.30
2022-10-08 20:45:32;4.17;56;12.30;0;1.30
2022-10-08 20:50:33;4.18;56;12.10;0;1.40
2022-10-08 20:55:30;4.18;57;12.00;0;1.60
2022-10-08 21:00:31;4.17;57;11.90;0;1.20
2022-10-08 21:05:32;4.18;58;11.70;0;2.19
2022-10-08 21:10:32;4.17;59;11.40;0;1.50
2022-10-08 21:15:33;4.17;60;10.90;0;0.00
2022-10-08 21:20:30;4.17;62;10.50;0;0.00
2022-10-08 21:25:31;4.17;63;10.00;0;1.10
2022-10-08 21:30:31;4.17;64;9.70;0;0.00
2022-10-08 21:35:32;4.17;64;9.60;0;0.00
2022-10-08 21:40:33;4.17;64;9.40;0;0.00
2022-10-08 21:45:34;4.17;65;9.40;0;0.00
2022-10-08 21:50:30;4.17;65;9.40;0;0.00
2022-10-08 21:55:30;4.16;66;9.20;0;0.00
2022-10-08 22:00:31;4.16;67;8.80;0;0.00
2022-10-08 22:05:32;4.17;68;8.70;0;0.00
2022-10-08 22:10:32;4.17;68;8.40;0;0.00
2022-10-08 22:15:33;4.17;70;7.90;0;0.00
2022-10-08 22:20:33;4.17;70;8.10;0;0.00
2022-10-08 22:25:29;4.17;69;8.20;0;0.00
2022-10-08 22:30:30;4.17;69;8.40;0;0.00
2022-10-08 22:35:30;4.16;69;8.30;0;0.00
2022-10-08 22:40:31;4.16;70;7.70;0;0.00
2022-10-08 22:45:31;4.17;71;7.40;0;0.00
2022-10-08 22:50:32;4.16;71;7.40;0;0.00
2022-10-08 22:55:32;4.16;72;7.20;0;0.00
2022-10-08 23:00:32;4.16;72;7.40;0;0.00
2022-10-08 23:05:33;4.16;71;7.30;0;0.00
2022-10-08 23:10:33;4.16;72;7.30;0;0.00
2022-10-08 23:15:29;4.16;73;7.00;0;0.00
2022-10-08 23:20:30;4.16;73;6.90;0;0.00
2022-10-08 23:25:30;4.16;73;6.90;0;0.00
2022-10-08 23:30:30;4.16;74;6.70;0;0.00
2022-10-08 23:35:31;4.16;74;6.70;0;0.00
2022-10-08 23:40:31;4.15;74;6.60;0;0.00
2022-10-08 23:45:31;4.16;74;6.50;0;0.00
2022-10-08 23:50:32;4.15;74;6.70;0;0.00
2022-10-08 23:55:32;4.16;74;6.60;0;0.00
