2022-02-07 00:00:31;4.20;99;13.00;0;0.00
2022-02-07 00:05:32;4.20;99;13.60;0;0.00
2022-02-07 00:10:33;4.20;99;13.40;0;0.00
2022-02-07 00:15:30;4.20;11;13.90;0;0.00
2022-02-07 00:20:31;4.20;21;13.90;0;0.00
2022-02-07 00:25:32;4.20;23;13.90;0;0.00
2022-02-07 00:30:33;4.20;25;13.70;0;0.00
2022-02-07 00:35:34;4.20;11;13.30;0;0.00
2022-02-07 00:40:30;4.20;99;13.20;0;0.00
2022-02-07 00:45:31;4.20;99;13.30;0;0.00
2022-02-07 00:50:32;4.20;0;13.20;0;0.00
2022-02-07 00:55:33;4.20;99;13.20;0;0.00
2022-02-07 01:00:34;4.20;0;13.30;0;0.00
2022-02-07 01:05:30;4.20;8;13.30;0;0.00
2022-02-07 01:10:31;4.20;3;13.00;0;0.00
2022-02-07 01:15:32;4.20;99;12.90;0;0.00
2022-02-07 01:20:33;4.20;99;13.10;0;0.00
2022-02-07 01:25:30;4.20;1;13.30;0;0.00
2022-02-07 01:30:30;4.20;99;12.30;0;0.00
2022-02-07 01:35:31;4.20;99;11.80;0;0.00
2022-02-07 01:40:32;4.20;99;11.60;0;0.00
2022-02-07 01:45:33;4.20;99;11.60;0;0.00
2022-02-07 01:50:30;4.20;99;11.70;0;0.00
2022-02-07 01:55:30;4.20;99;11.60;0;0.00
2022-02-07 02:00:31;4.20;99;11.90;0;0.00
2022-02-07 02:05:32;4.20;99;12.20;0;0.00
2022-02-07 02:10:33;4.19;99;12.70;0;0.00
2022-02-07 02:15:34;4.20;99;12.60;0;0.00
2022-02-07 02:20:30;4.20;99;12.50;0;0.00
2022-02-07 02:25:31;4.19;99;12.30;0;0.00
2022-02-07 02:30:32;4.19;99;12.00;0;0.00
2022-02-07 02:35:33;4.19;99;12.00;0;0.00
2022-02-07 02:40:34;4.20;99;11.80;0;0.00
2022-02-07 02:45:30;4.19;99;11.80;0;0.00
2022-02-07 02:50:31;4.19;99;11.80;0;0.00
2022-02-07 02:55:32;4.19;99;11.90;0;0.00
2022-02-07 03:00:33;4.19;99;11.80;0;0.00
2022-02-07 03:05:33;4.20;99;11.70;0;0.00
2022-02-07 03:10:30;4.19;99;11.50;0;0.00
2022-02-07 03:15:30;4.19;99;11.50;0;0.00
2022-02-07 03:20:31;4.19;99;11.50;0;0.00
2022-02-07 03:25:32;4.20;99;11.30;0;0.00
2022-02-07 03:30:33;4.19;99;11.30;0;0.00
2022-02-07 03:35:34;4.19;99;11.00;0;0.00
2022-02-07 03:40:30;4.19;99;11.00;0;0.00
2022-02-07 03:45:31;4.19;99;11.10;0;0.00
2022-02-07 03:50:32;4.19;99;11.60;0;0.00
2022-02-07 03:55:32;4.19;99;11.50;0;0.00
2022-02-07 04:00:33;4.19;99;11.20;0;0.00
2022-02-07 04:05:29;4.19;99;11.30;0;0.00
2022-02-07 04:10:30;4.19;99;10.80;0;0.00
2022-02-07 04:15:31;4.19;99;10.60;0;0.00
2022-02-07 04:20:32;4.19;99;10.70;0;0.00
2022-02-07 04:25:33;4.19;99;11.00;0;0.00
2022-02-07 04:30:33;4.19;99;10.80;0;0.00
2022-02-07 04:35:30;4.19;99;10.90;0;0.00
2022-02-07 04:40:30;4.19;99;10.70;0;0.00
2022-02-07 04:45:31;4.19;99;11.00;0;0.00
2022-02-07 04:50:32;4.19;99;10.90;0;0.00
2022-02-07 04:55:32;4.19;99;10.40;0;0.00
2022-02-07 05:00:33;4.19;99;10.60;0;0.00
2022-02-07 05:05:29;4.18;99;10.50;0;0.00
2022-02-07 05:10:30;4.18;99;10.40;0;0.00
2022-02-07 05:15:31;4.18;99;10.60;0;0.00
2022-02-07 05:20:31;4.18;99;10.70;0;0.00
2022-02-07 05:25:32;4.19;99;10.30;0;0.00
2022-02-07 05:30:33;4.18;99;10.60;0;0.00
2022-02-07 05:35:33;4.19;99;10.00;0;0.00
2022-02-07 05:40:29;4.18;99;9.60;0;0.00
2022-02-07 05:45:30;4.18;99;9.60;0;0.00
2022-02-07 05:50:31;4.19;99;9.60;0;0.00
2022-02-07 05:55:31;4.19;99;9.50;0;0.00
2022-02-07 06:00:32;4.19;99;9.50;0;0.00
2022-02-07 06:05:33;4.18;99;9.50;0;0.00
2022-02-07 06:10:33;4.18;99;9.60;0;0.00
2022-02-07 06:15:29;4.19;99;9.40;0;0.00
2022-02-07 06:20:30;4.18;99;9.50;0;0.00
2022-02-07 06:25:30;4.19;99;9.30;0;0.00
2022-02-07 06:30:31;4.18;99;9.10;0;0.00
2022-02-07 06:35:31;4.19;99;9.10;0;0.00
2022-02-07 06:40:32;4.18;99;9.30;0;0.00
2022-02-07 06:45:33;4.18;99;9.30;0;0.00
2022-02-07 06:50:33;4.18;99;9.30;0;0.00
2022-02-07 06:55:29;4.18;99;9.20;0;0.00
2022-02-07 07:00:30;4.18;99;9.40;0;0.00
2022-02-07 07:05:30;4.18;99;9.60;0;0.00
2022-02-07 07:10:31;4.18;99;10.00;0;0.00
2022-02-07 07:15:31;4.18;99;10.50;0;0.00
2022-02-07 07:20:32;4.18;99;11.70;0;0.00
2022-02-07 07:25:33;4.18;99;12.60;0;0.00
2022-02-07 07:30:33;4.18;99;13.00;0;0.00
2022-02-07 07:35:30;4.18;99;13.20;0;0.00
2022-02-07 07:40:30;4.19;99;13.80;0;0.00
2022-02-07 07:45:31;4.19;10;14.10;0;0.00
2022-02-07 07:50:32;4.19;12;14.50;0;0.00
2022-02-07 07:55:33;4.19;25;14.90;0;0.00
2022-02-07 08:00:30;4.19;26;15.20;0;0.00
2022-02-07 08:05:31;4.19;16;15.60;0;0.00
2022-02-07 08:10:32;4.19;26;15.80;0;0.00
2022-02-07 08:15:33;4.19;26;16.30;0;0.00
2022-02-07 08:20:30;4.19;38;16.80;0;0.00
2022-02-07 08:25:31;4.19;36;17.40;0;0.00
2022-02-07 08:30:33;4.19;57;17.70;0;1.20
2022-02-07 08:35:34;4.20;62;17.90;0;1.20
2022-02-07 08:40:31;4.20;62;18.40;0;0.00
2022-02-07 08:45:33;4.20;68;19.10;0;0.00
2022-02-07 08:50:34;4.20;70;19.30;0;0.00
2022-02-07 08:55:31;4.20;70;19.60;0;0.00
2022-02-07 09:00:33;4.20;70;20.20;0;1.10
2022-02-07 09:05:31;4.21;72;20.70;0;1.30
2022-02-07 09:10:32;4.20;71;21.40;0;0.00
2022-02-07 09:15:34;4.21;70;21.40;0;1.20
2022-02-07 09:20:32;4.21;72;21.50;0;0.00
2022-02-07 09:25:34;4.21;70;21.80;0;0.00
2022-02-07 09:30:32;4.21;70;22.30;0;0.00
2022-02-07 09:35:34;4.21;68;22.70;0;0.00
2022-02-07 09:40:32;4.21;69;22.80;0;0.00
2022-02-07 09:45:34;4.21;64;23.10;0;1.30
2022-02-07 09:50:32;4.21;65;23.00;0;2.29
2022-02-07 09:55:34;4.21;64;23.30;0;1.70
2022-02-07 10:00:32;4.21;61;23.70;0;0.00
2022-02-07 10:05:35;4.21;65;23.30;0;0.00
2022-02-07 10:10:33;4.21;63;24.30;0;0.00
2022-02-07 10:15:35;4.21;65;24.30;0;0.00
2022-02-07 10:20:33;4.21;64;24.20;0;0.00
2022-02-07 10:25:32;4.22;63;24.80;0;0.00
2022-02-07 10:30:34;4.21;64;24.70;0;0.00
2022-02-07 10:35:33;4.22;64;24.40;0;0.00
2022-02-07 10:40:35;4.22;63;24.20;0;0.00
2022-02-07 10:45:34;4.22;65;24.60;0;2.09
2022-02-07 10:50:32;4.22;63;24.80;0;1.20
2022-02-07 10:55:35;4.22;63;24.30;0;0.00
2022-02-07 11:00:33;4.22;62;24.80;0;0.00
2022-02-07 11:05:32;4.22;62;24.80;0;0.00
2022-02-07 11:10:35;4.22;59;24.90;0;0.00
2022-02-07 11:15:33;4.22;63;25.20;0;1.50
2022-02-07 11:20:36;4.22;63;24.70;0;0.00
2022-02-07 11:25:34;4.22;59;25.00;0;0.00
2022-02-07 11:30:33;4.22;61;25.60;0;1.20
2022-02-07 11:35:36;4.22;60;25.50;0;0.00
2022-02-07 11:40:34;4.22;61;25.60;0;1.50
2022-02-07 11:45:33;4.22;61;25.60;0;2.99
2022-02-07 11:50:36;4.22;59;25.70;0;0.00
2022-02-07 11:55:34;4.22;56;26.80;0;0.00
2022-02-07 12:00:33;4.22;59;25.70;0;1.60
2022-02-07 12:05:36;4.22;61;25.70;0;1.80
2022-02-07 12:10:35;4.22;60;25.90;0;0.00
2022-02-07 12:15:33;4.22;58;26.90;0;0.00
2022-02-07 12:20:32;4.22;59;25.80;0;0.00
2022-02-07 12:25:35;4.22;62;26.80;0;1.60
2022-02-07 12:30:34;4.22;59;27.10;0;0.00
2022-02-07 12:35:33;4.22;62;26.70;0;0.00
2022-02-07 12:40:36;4.22;58;27.30;0;0.00
2022-02-07 12:45:35;4.22;59;27.10;0;1.30
2022-02-07 12:50:34;4.22;57;26.70;0;1.60
2022-02-07 12:55:32;4.23;61;26.90;0;2.89
2022-02-07 13:00:36;4.22;61;27.30;0;0.00
2022-02-07 13:05:34;4.22;60;27.00;0;1.30
2022-02-07 13:10:33;4.23;61;26.70;0;2.59
2022-02-07 13:15:32;4.23;59;26.80;0;0.00
2022-02-07 13:20:35;4.23;64;26.90;0;0.00
2022-02-07 13:25:34;4.23;58;27.10;0;0.00
2022-02-07 13:30:33;4.23;60;27.10;0;1.80
2022-02-07 13:35:36;4.23;57;28.00;0;1.80
2022-02-07 13:40:35;4.23;62;27.60;0;1.20
2022-02-07 13:45:34;4.23;64;27.90;0;0.00
2022-02-07 13:50:33;4.23;61;27.80;0;0.00
2022-02-07 13:55:36;4.23;63;28.40;0;0.00
2022-02-07 14:00:35;4.23;57;27.60;0;1.10
2022-02-07 14:05:34;4.23;58;28.00;0;1.30
2022-02-07 14:10:33;4.23;58;28.20;0;1.70
2022-02-07 14:15:36;4.23;57;28.40;0;1.10
2022-02-07 14:20:35;4.23;60;28.60;0;0.00
2022-02-07 14:25:34;4.23;62;28.70;0;0.00
2022-02-07 14:30:33;4.23;63;28.00;0;2.00
2022-02-07 14:35:36;4.23;61;29.20;0;0.00
2022-02-07 14:40:35;4.23;59;29.90;0;0.00
2022-02-07 14:45:34;4.23;59;28.30;0;1.80
2022-02-07 14:50:33;4.23;57;28.70;0;1.40
2022-02-07 14:55:32;4.23;59;29.50;0;0.00
2022-02-07 15:00:36;4.23;58;29.00;0;2.09
2022-02-07 15:05:35;4.23;54;28.50;0;0.00
2022-02-07 15:10:34;4.23;55;29.40;0;0.00
2022-02-07 15:15:33;4.23;61;29.60;0;0.00
2022-02-07 15:20:36;4.23;59;29.60;0;0.00
2022-02-07 15:25:35;4.23;54;28.40;0;0.00
2022-02-07 15:30:34;4.23;60;29.40;0;0.00
2022-02-07 15:35:33;4.23;60;30.00;0;0.00
2022-02-07 15:40:33;4.23;62;29.80;0;1.20
2022-02-07 15:45:36;4.23;61;29.20;0;0.00
2022-02-07 15:50:35;4.23;59;29.60;0;0.00
2022-02-07 15:55:34;4.24;59;28.90;0;1.70
2022-02-07 16:00:33;4.24;58;29.30;0;1.60
2022-02-07 16:05:32;4.24;58;29.70;0;1.30
2022-02-07 16:10:36;4.24;59;29.50;0;1.50
2022-02-07 16:15:35;4.24;61;29.90;0;0.00
2022-02-07 16:20:34;4.24;55;29.80;0;0.00
2022-02-07 16:25:33;4.24;59;29.50;0;0.00
2022-02-07 16:30:37;4.24;59;29.10;0;0.00
2022-02-07 16:35:36;4.24;60;28.70;0;0.00
2022-02-07 16:40:35;4.24;60;29.30;0;0.00
2022-02-07 16:45:33;4.24;61;28.60;0;1.40
2022-02-07 16:50:32;4.24;59;29.00;0;1.30
2022-02-07 16:55:36;4.24;59;28.90;0;0.00
2022-02-07 17:00:35;4.24;60;29.20;0;0.00
2022-02-07 17:05:34;4.24;61;28.80;0;0.00
2022-02-07 17:10:33;4.24;60;29.10;0;0.00
2022-02-07 17:15:36;4.24;61;29.30;0;0.00
2022-02-07 17:20:35;4.24;58;30.60;0;0.00
2022-02-07 17:25:34;4.24;61;29.30;0;0.00
2022-02-07 17:30:33;4.24;61;29.30;0;0.00
2022-02-07 17:35:36;4.24;59;30.20;0;0.00
2022-02-07 17:40:35;4.24;59;30.00;0;0.00
2022-02-07 17:45:34;4.24;60;29.10;0;0.00
2022-02-07 17:50:33;4.24;62;29.20;0;0.00
2022-02-07 17:55:36;4.24;62;29.00;0;0.00
2022-02-07 18:00:35;4.24;61;29.40;0;0.00
2022-02-07 18:05:34;4.24;62;29.00;0;0.00
2022-02-07 18:10:33;4.24;61;29.20;0;0.00
2022-02-07 18:15:36;4.24;62;28.30;0;0.00
2022-02-07 18:20:35;4.24;62;28.60;0;0.00
2022-02-07 18:25:34;4.24;61;28.80;0;0.00
2022-02-07 18:30:32;4.24;62;28.50;0;0.00
2022-02-07 18:35:36;4.24;62;28.80;0;0.00
2022-02-07 18:40:34;4.24;63;28.70;0;0.00
2022-02-07 18:45:33;4.24;64;28.50;0;0.00
2022-02-07 18:50:36;4.24;64;28.60;0;0.00
2022-02-07 18:55:35;4.24;64;28.50;0;0.00
2022-02-07 19:00:33;4.24;66;28.40;0;0.00
2022-02-07 19:05:32;4.24;66;28.20;0;0.00
2022-02-07 19:10:35;4.24;67;27.40;0;0.00
2022-02-07 19:15:33;4.24;67;27.70;0;0.00
2022-02-07 19:20:32;4.24;69;27.30;0;0.00
2022-02-07 19:25:35;4.24;69;26.70;0;0.00
2022-02-07 19:30:33;4.24;72;26.10;0;0.00
2022-02-07 19:35:36;4.23;72;25.90;0;0.00
2022-02-07 19:40:34;4.23;73;25.40;0;0.00
2022-02-07 19:45:32;4.24;73;24.80;0;0.00
2022-02-07 19:50:35;4.24;74;24.20;0;0.00
2022-02-07 19:55:33;4.23;74;23.40;0;0.00
2022-02-07 20:00:35;4.23;73;22.70;0;0.00
2022-02-07 20:05:33;4.23;72;22.10;0;0.00
2022-02-07 20:10:31;4.23;70;21.80;0;0.00
2022-02-07 20:15:33;4.23;68;21.40;0;0.00
2022-02-07 20:20:31;4.23;65;21.00;0;0.00
2022-02-07 20:25:33;4.23;64;20.90;0;0.00
2022-02-07 20:30:35;4.23;61;20.60;0;0.00
2022-02-07 20:35:33;4.23;59;20.40;0;0.00
2022-02-07 20:40:34;4.23;56;20.30;0;0.00
2022-02-07 20:45:32;4.23;54;20.10;0;0.00
2022-02-07 20:50:34;4.23;56;20.20;0;0.00
2022-02-07 20:55:31;4.23;52;20.00;0;0.00
2022-02-07 21:00:33;4.23;50;19.90;0;0.00
2022-02-07 21:05:35;4.23;50;19.80;0;0.00
2022-02-07 21:10:32;4.23;44;19.60;0;0.00
2022-02-07 21:15:33;4.23;43;19.60;0;0.00
2022-02-07 21:20:31;4.23;42;19.50;0;0.00
2022-02-07 21:25:32;4.22;40;19.50;0;0.00
2022-02-07 21:30:34;4.22;40;19.40;0;0.00
2022-02-07 21:35:31;4.22;39;19.40;0;0.00
2022-02-07 21:40:33;4.22;36;19.30;0;0.00
2022-02-07 21:45:34;4.22;36;19.20;0;0.00
2022-02-07 21:50:31;4.22;31;19.10;0;0.00
2022-02-07 21:55:33;4.22;31;18.90;0;0.00
2022-02-07 22:00:35;4.22;29;18.80;0;0.00
2022-02-07 22:05:32;4.22;27;18.80;0;0.00
2022-02-07 22:10:33;4.22;24;18.80;0;0.00
2022-02-07 22:15:30;4.22;23;18.80;0;0.00
2022-02-07 22:20:32;4.22;23;18.80;0;0.00
2022-02-07 22:25:33;4.22;17;18.60;0;0.00
2022-02-07 22:30:30;4.22;8;18.60;0;0.00
2022-02-07 22:35:32;4.22;16;18.80;0;0.00
2022-02-07 22:40:34;4.22;19;18.70;0;0.00
2022-02-07 22:45:31;4.22;13;18.70;0;0.00
2022-02-07 22:50:32;4.21;9;18.60;0;0.00
2022-02-07 22:55:34;4.21;5;18.50;0;0.00
2022-02-07 23:00:31;4.21;99;18.20;0;0.00
2022-02-07 23:05:32;4.21;99;18.10;0;0.00
2022-02-07 23:10:34;4.22;99;18.10;0;0.00
2022-02-07 23:15:31;4.22;99;18.00;0;0.00
2022-02-07 23:20:32;4.22;99;17.80;0;0.00
2022-02-07 23:25:34;4.22;99;17.80;0;0.00
2022-02-07 23:30:30;4.22;99;17.60;0;0.00
2022-02-07 23:35:32;4.22;99;17.50;0;0.00
2022-02-07 23:40:33;4.22;99;17.30;0;0.00
2022-02-07 23:45:30;4.22;99;17.00;0;0.00
2022-02-07 23:50:32;4.22;99;16.90;0;0.00
2022-02-07 23:55:33;4.21;99;16.60;0;0.00
