2022-03-07 00:00:35;4.14;42;23.50;1;0.00
2022-03-07 00:05:33;4.14;41;23.50;0;0.00
2022-03-07 00:10:35;4.14;40;23.50;0;0.00
2022-03-07 00:15:33;4.14;44;23.50;0;1.40
2022-03-07 00:20:35;4.14;48;23.80;0;0.00
2022-03-07 00:25:33;4.14;49;23.80;0;1.30
2022-03-07 00:30:35;4.14;48;23.70;0;0.00
2022-03-07 00:35:33;4.14;48;23.70;0;0.00
2022-03-07 00:40:31;4.14;47;23.60;0;0.00
2022-03-07 00:45:33;4.14;46;23.50;0;0.00
2022-03-07 00:50:31;4.14;45;23.50;0;0.00
2022-03-07 00:55:34;4.14;44;23.60;0;0.00
2022-03-07 01:00:32;4.14;45;23.70;0;0.00
2022-03-07 01:05:34;4.14;44;23.70;0;0.00
2022-03-07 01:10:32;4.14;44;23.70;0;0.00
2022-03-07 01:15:34;4.14;44;23.80;0;0.00
2022-03-07 01:20:32;4.14;43;23.80;0;0.00
2022-03-07 01:25:34;4.14;44;23.80;0;0.00
2022-03-07 01:30:32;4.14;44;23.70;0;1.10
2022-03-07 01:35:35;4.13;43;23.60;0;0.00
2022-03-07 01:40:33;4.13;41;23.50;0;0.00
2022-03-07 01:45:35;4.13;39;23.50;0;0.00
2022-03-07 01:50:33;4.13;37;23.50;0;0.00
2022-03-07 01:55:35;4.13;37;23.50;0;0.00
2022-03-07 02:00:33;4.13;37;23.50;0;0.00
2022-03-07 02:05:35;4.13;37;23.60;0;0.00
2022-03-07 02:10:33;4.13;38;23.60;0;0.00
2022-03-07 02:15:31;4.13;38;23.50;0;0.00
2022-03-07 02:20:34;4.13;36;23.40;0;0.00
2022-03-07 02:25:31;4.13;34;23.30;0;0.00
2022-03-07 02:30:34;4.13;32;23.30;0;0.00
2022-03-07 02:35:32;4.13;30;23.30;0;0.00
2022-03-07 02:40:34;4.13;30;23.40;0;0.00
2022-03-07 02:45:32;4.13;32;23.40;0;0.00
2022-03-07 02:50:34;4.13;33;23.50;0;0.00
2022-03-07 02:55:32;4.13;32;23.40;0;0.00
2022-03-07 03:00:34;4.13;29;23.30;0;0.00
2022-03-07 03:05:32;4.13;28;23.30;0;0.00
2022-03-07 03:10:34;4.13;26;23.30;0;0.00
2022-03-07 03:15:32;4.13;26;23.30;0;0.00
2022-03-07 03:20:30;4.13;24;23.20;0;0.00
2022-03-07 03:25:32;4.13;22;23.10;0;0.00
2022-03-07 03:30:35;4.13;22;23.00;0;0.00
2022-03-07 03:35:32;4.13;18;23.00;0;0.00
2022-03-07 03:40:35;4.13;14;23.00;0;0.00
2022-03-07 03:45:33;4.13;13;23.00;0;0.00
2022-03-07 03:50:35;4.13;12;23.00;0;0.00
2022-03-07 03:55:33;4.13;12;23.00;0;0.00
2022-03-07 04:00:35;4.13;12;23.00;0;0.00
2022-03-07 04:05:33;4.13;12;22.90;0;0.00
2022-03-07 04:10:35;4.13;11;22.90;0;0.00
2022-03-07 04:15:33;4.13;10;22.80;0;0.00
2022-03-07 04:20:35;4.13;5;22.90;0;0.00
2022-03-07 04:25:33;4.13;4;22.90;0;0.00
2022-03-07 04:30:30;4.13;3;22.90;0;0.00
2022-03-07 04:35:33;4.13;3;22.80;0;0.00
2022-03-07 04:40:35;4.13;1;22.70;0;0.00
2022-03-07 04:45:33;4.13;99;22.70;0;0.00
2022-03-07 04:50:35;4.13;99;22.60;0;0.00
2022-03-07 04:55:33;4.13;99;22.70;0;0.00
2022-03-07 05:00:35;4.13;99;22.70;0;0.00
2022-03-07 05:05:33;4.13;99;22.70;0;0.00
2022-03-07 05:10:35;4.13;99;22.80;0;0.00
2022-03-07 05:15:33;4.13;99;22.90;0;0.00
2022-03-07 05:20:35;4.13;99;23.00;0;0.00
2022-03-07 05:25:33;4.13;99;23.10;0;0.00
2022-03-07 05:30:35;4.13;99;23.10;0;0.00
2022-03-07 05:35:33;4.13;99;23.10;0;0.00
2022-03-07 05:40:30;4.13;99;23.10;0;0.00
2022-03-07 05:45:33;4.13;99;23.10;0;0.00
2022-03-07 05:50:35;4.13;99;23.10;0;0.00
2022-03-07 05:55:33;4.13;99;23.20;0;0.00
2022-03-07 06:00:28;4.13;99;23.20;1;0.00
2022-03-07 06:05:34;4.13;99;23.20;2;0.00
2022-03-07 06:10:29;4.13;99;23.20;3;0.00
2022-03-07 06:15:31;4.13;99;23.10;4;0.00
2022-03-07 06:20:33;4.13;99;23.10;4;1.10
2022-03-07 06:25:28;4.13;99;23.00;6;0.00
2022-03-07 06:30:28;4.13;33;19.00;8;7.14
2022-03-07 06:35:12;4.13;99;17.00;20;4.57
2022-03-07 06:40:09;4.12;99;16.80;32;2.49
2022-03-07 06:45:21;4.12;99;16.70;39;4.07
2022-03-07 06:50:24;4.12;99;16.70;42;3.78
2022-03-07 06:55:26;4.12;99;16.60;46;5.46
2022-03-07 07:00:27;4.12;99;16.60;50;3.38
2022-03-07 07:05:18;4.12;99;16.50;59;2.09
2022-03-07 07:10:15;4.12;99;16.40;69;4.57
2022-03-07 07:15:21;4.12;99;16.40;76;2.69
2022-03-07 07:20:18;4.11;99;16.40;84;0.00
2022-03-07 07:25:24;4.11;99;16.40;88;0.00
2022-03-07 07:30:32;4.12;99;16.50;89;0.00
2022-03-07 07:35:32;4.12;99;16.50;90;1.20
2022-03-07 07:40:31;4.11;99;16.50;91;0.00
2022-03-07 07:45:33;4.11;99;16.50;91;1.40
2022-03-07 07:50:31;4.11;99;16.60;92;0.00
2022-03-07 07:55:31;4.11;99;16.60;93;0.00
2022-03-07 08:00:26;4.11;99;16.60;95;0.00
2022-03-07 08:05:32;4.11;99;16.60;95;0.00
2022-03-07 08:10:30;4.11;99;16.70;96;0.00
2022-03-07 08:15:32;4.11;99;16.70;96;0.00
2022-03-07 08:20:31;4.11;99;16.70;97;0.00
2022-03-07 08:25:32;4.11;99;16.60;97;0.00
2022-03-07 08:30:33;4.11;99;16.70;98;0.00
2022-03-07 08:35:22;4.11;99;16.70;103;0.00
2022-03-07 08:40:23;4.11;99;16.70;108;0.00
2022-03-07 08:45:33;4.11;99;16.60;110;0.00
2022-03-07 08:50:30;4.11;99;16.60;110;0.00
2022-03-07 08:55:32;4.11;99;16.50;110;0.00
2022-03-07 09:00:30;4.11;99;16.60;111;0.00
2022-03-07 09:05:28;4.11;99;16.60;113;0.00
2022-03-07 09:10:30;4.11;99;16.60;113;0.00
2022-03-07 09:15:32;4.11;99;16.70;113;0.00
2022-03-07 09:20:33;4.11;99;16.80;113;0.00
2022-03-07 09:25:35;4.11;99;16.70;113;0.00
2022-03-07 09:30:32;4.11;99;16.90;113;0.00
2022-03-07 09:35:33;4.11;99;16.80;113;0.00
2022-03-07 09:40:30;4.11;99;16.90;113;0.00
2022-03-07 09:45:32;4.11;99;16.90;113;0.00
2022-03-07 09:50:33;4.11;99;17.00;113;0.00
2022-03-07 09:55:31;4.11;99;17.10;113;0.00
2022-03-07 10:00:32;4.11;99;17.10;113;0.00
2022-03-07 10:05:34;4.11;99;17.20;113;0.00
2022-03-07 10:10:31;4.11;99;17.30;113;0.00
2022-03-07 10:15:32;4.12;99;17.30;113;0.00
2022-03-07 10:20:30;4.12;99;17.80;113;0.00
2022-03-07 10:25:31;4.12;99;17.80;113;0.00
2022-03-07 10:30:33;4.13;99;17.90;113;0.00
2022-03-07 10:35:30;4.13;99;17.90;113;0.00
2022-03-07 10:40:32;4.13;99;18.20;113;0.00
2022-03-07 10:45:34;4.13;99;18.00;113;0.00
2022-03-07 10:50:31;4.13;99;17.80;113;0.00
2022-03-07 10:55:33;4.13;99;18.00;113;0.00
2022-03-07 11:00:35;4.13;99;18.00;113;0.00
2022-03-07 11:05:32;4.13;99;18.20;113;0.00
2022-03-07 11:10:34;4.13;99;18.30;113;0.00
2022-03-07 11:15:31;4.13;99;18.00;113;0.00
2022-03-07 11:20:33;4.13;99;18.60;113;0.00
2022-03-07 11:25:31;4.13;99;18.30;113;0.00
2022-03-07 11:30:33;4.13;99;18.80;113;0.00
2022-03-07 11:35:35;4.14;99;18.80;113;0.00
2022-03-07 11:40:32;4.14;99;18.60;113;0.00
2022-03-07 11:45:34;4.13;99;18.80;113;0.00
2022-03-07 11:50:32;4.14;99;18.80;113;0.00
2022-03-07 11:55:34;4.14;99;19.40;113;0.00
2022-03-07 12:00:31;4.14;99;20.00;113;0.00
2022-03-07 12:05:33;4.14;99;20.30;113;0.00
2022-03-07 12:10:31;4.14;99;20.60;113;0.00
2022-03-07 12:15:33;4.14;99;20.60;113;0.00
2022-03-07 12:20:31;4.14;3;20.80;113;0.00
2022-03-07 12:25:33;4.14;48;21.00;113;0.00
2022-03-07 12:30:35;4.14;60;21.40;113;0.00
2022-03-07 12:35:33;4.15;63;21.30;113;0.00
2022-03-07 12:40:31;4.15;64;21.70;113;0.00
2022-03-07 12:45:33;4.15;66;22.30;113;0.00
2022-03-07 12:50:35;4.15;68;22.00;113;0.00
2022-03-07 12:55:33;4.15;70;22.10;113;0.00
2022-03-07 13:00:35;4.15;69;21.90;113;0.00
2022-03-07 13:05:33;4.15;69;21.90;113;0.00
2022-03-07 13:10:31;4.15;69;22.30;113;0.00
2022-03-07 13:15:33;4.15;69;22.60;113;0.00
2022-03-07 13:20:31;4.15;69;22.60;113;0.00
2022-03-07 13:25:34;4.16;70;23.00;113;0.00
2022-03-07 13:30:32;4.16;69;23.30;113;0.00
2022-03-07 13:35:34;4.15;71;22.80;113;0.00
2022-03-07 13:40:32;4.16;71;23.40;113;0.00
2022-03-07 13:45:35;4.16;72;23.30;113;0.00
2022-03-07 13:50:33;4.16;72;23.50;113;0.00
2022-03-07 13:55:35;4.16;72;23.20;113;0.00
2022-03-07 14:00:33;4.16;72;23.30;113;0.00
2022-03-07 14:05:31;4.16;73;23.50;113;0.00
2022-03-07 14:10:34;4.16;72;23.70;113;0.00
2022-03-07 14:15:32;4.16;74;23.90;113;0.00
2022-03-07 14:20:35;4.16;73;24.00;113;0.00
2022-03-07 14:25:33;4.16;74;23.90;113;1.10
2022-03-07 14:30:35;4.16;74;24.10;113;0.00
2022-03-07 14:35:34;4.16;74;24.30;113;0.00
2022-03-07 14:40:32;4.16;74;24.40;113;0.00
2022-03-07 14:45:35;4.16;73;24.30;113;0.00
2022-03-07 14:50:33;4.16;73;24.10;113;0.00
2022-03-07 14:55:36;4.16;73;24.70;113;0.00
2022-03-07 15:00:34;4.16;73;25.00;113;0.00
2022-03-07 15:05:32;4.16;73;25.30;113;1.10
2022-03-07 15:10:35;4.16;74;25.30;113;0.00
2022-03-07 15:15:34;4.17;74;26.10;113;0.00
2022-03-07 15:20:32;4.16;74;26.20;113;0.00
2022-03-07 15:25:35;4.17;73;25.90;113;0.00
2022-03-07 15:30:34;4.17;74;25.40;113;0.00
2022-03-07 15:35:32;4.17;75;25.30;113;0.00
2022-03-07 15:40:36;4.17;73;25.40;113;0.00
2022-03-07 15:45:34;4.17;73;25.70;113;0.00
2022-03-07 15:50:33;4.17;75;25.80;113;0.00
2022-03-07 15:55:36;4.17;74;26.00;113;1.80
2022-03-07 16:00:35;4.17;73;25.70;113;1.10
2022-03-07 16:05:33;4.17;75;25.50;113;1.90
2022-03-07 16:10:32;4.17;74;26.80;113;0.00
2022-03-07 16:15:35;4.17;74;26.30;113;1.20
2022-03-07 16:20:34;4.17;75;25.60;113;0.00
2022-03-07 16:25:32;4.17;73;26.40;113;0.00
2022-03-07 16:30:35;4.17;74;26.40;113;1.40
2022-03-07 16:35:34;4.17;74;26.00;113;1.20
2022-03-07 16:40:33;4.17;74;25.90;113;0.00
2022-03-07 16:45:36;4.17;74;26.40;113;0.00
2022-03-07 16:50:34;4.17;73;26.60;113;0.00
2022-03-07 16:55:33;4.17;74;26.30;113;1.80
2022-03-07 17:00:36;4.17;74;26.50;113;0.00
2022-03-07 17:05:35;4.17;73;26.50;113;0.00
2022-03-07 17:10:33;4.17;74;27.20;113;0.00
2022-03-07 17:15:32;4.17;75;27.10;113;0.00
2022-03-07 17:20:35;4.17;74;26.90;113;0.00
2022-03-07 17:25:34;4.17;74;27.20;113;0.00
2022-03-07 17:30:32;4.17;74;27.00;113;0.00
2022-03-07 17:35:35;4.17;72;27.40;113;0.00
2022-03-07 17:40:34;4.18;72;27.50;113;0.00
2022-03-07 17:45:33;4.17;72;28.50;113;0.00
2022-03-07 17:50:36;4.18;73;27.90;113;0.00
2022-03-07 17:55:34;4.17;73;27.90;113;0.00
2022-03-07 18:00:33;4.18;74;28.00;113;0.00
2022-03-07 18:05:36;4.17;74;27.60;113;0.00
2022-03-07 18:10:35;4.17;75;27.20;113;0.00
2022-03-07 18:15:33;4.17;74;26.90;113;0.00
2022-03-07 18:20:32;4.17;74;27.30;113;0.00
2022-03-07 18:25:35;4.17;73;27.60;113;0.00
2022-03-07 18:30:33;4.17;74;27.00;113;0.00
2022-03-07 18:35:32;4.17;74;26.70;113;0.00
2022-03-07 18:40:35;4.17;76;26.40;113;0.00
2022-03-07 18:45:33;4.17;76;26.40;113;0.00
2022-03-07 18:50:36;4.17;76;26.30;113;0.00
2022-03-07 18:55:34;4.16;76;26.30;113;0.00
2022-03-07 19:00:32;4.16;77;25.90;113;0.00
2022-03-07 19:05:35;4.16;77;25.80;113;0.00
2022-03-07 19:10:33;4.16;78;25.20;113;0.00
2022-03-07 19:15:31;4.16;78;25.00;113;0.00
2022-03-07 19:20:34;4.16;78;24.20;113;0.00
2022-03-07 19:25:32;4.16;77;23.50;113;0.00
2022-03-07 19:30:34;4.16;77;22.90;113;0.00
2022-03-07 19:35:32;4.15;76;22.50;113;0.00
2022-03-07 19:40:30;4.15;75;22.20;113;0.00
2022-03-07 19:45:32;4.15;74;22.10;113;0.00
2022-03-07 19:50:35;4.15;73;21.80;113;0.00
2022-03-07 19:55:32;4.15;70;21.60;113;0.00
2022-03-07 20:00:34;4.15;64;21.40;113;0.00
2022-03-07 20:05:32;4.15;56;21.40;113;0.00
2022-03-07 20:10:34;4.15;54;21.00;113;0.00
2022-03-07 20:15:31;4.15;51;20.80;113;0.00
2022-03-07 20:20:33;4.15;50;20.30;113;0.00
2022-03-07 20:25:31;4.14;45;20.00;113;0.00
2022-03-07 20:30:33;4.14;35;19.90;113;0.00
2022-03-07 20:35:30;4.14;29;19.70;113;0.00
2022-03-07 20:40:32;4.14;21;19.80;113;0.00
2022-03-07 20:45:34;4.14;23;19.40;113;0.00
2022-03-07 20:50:31;4.14;8;19.60;113;0.00
2022-03-07 20:55:33;4.14;3;19.90;113;0.00
2022-03-07 21:00:30;4.14;6;19.70;113;0.00
2022-03-07 21:05:32;4.14;7;19.60;113;0.00
2022-03-07 21:10:34;4.14;6;19.60;113;0.00
2022-03-07 21:15:31;4.14;2;19.50;113;0.00
2022-03-07 21:20:33;4.14;13;18.70;113;0.00
2022-03-07 21:25:30;4.14;1;19.10;113;0.00
2022-03-07 21:30:32;4.14;1;19.00;113;0.00
2022-03-07 21:35:34;4.14;2;18.70;113;0.00
2022-03-07 21:40:31;4.13;99;18.80;113;0.00
2022-03-07 21:45:33;4.13;99;18.70;113;0.00
2022-03-07 21:50:34;4.13;99;18.60;113;0.00
2022-03-07 21:55:32;4.13;99;18.30;113;0.00
2022-03-07 22:00:33;4.13;99;18.50;113;0.00
2022-03-07 22:05:30;4.13;99;18.20;113;0.00
2022-03-07 22:10:32;4.13;99;18.30;113;0.00
2022-03-07 22:15:34;4.13;99;18.60;113;0.00
2022-03-07 22:20:31;4.13;99;18.00;113;0.00
2022-03-07 22:25:33;4.13;99;17.80;113;0.00
2022-03-07 22:30:34;4.13;99;18.10;113;0.00
2022-03-07 22:35:31;4.13;99;18.00;113;0.00
2022-03-07 22:40:33;4.13;99;17.70;113;0.00
2022-03-07 22:45:34;4.13;99;17.80;113;0.00
2022-03-07 22:50:32;4.13;99;17.70;113;0.00
2022-03-07 22:55:33;4.13;99;17.60;113;0.00
2022-03-07 23:00:30;4.13;99;17.60;113;0.00
2022-03-07 23:05:32;4.13;99;17.50;113;0.00
2022-03-07 23:10:33;4.13;99;17.70;113;0.00
2022-03-07 23:15:31;4.13;99;17.30;113;0.00
2022-03-07 23:20:32;4.13;99;17.10;113;0.00
2022-03-07 23:25:34;4.13;99;17.20;113;0.00
2022-03-07 23:30:31;4.13;99;17.40;113;0.00
2022-03-07 23:35:32;4.13;99;17.10;113;0.00
2022-03-07 23:40:34;4.13;99;17.20;113;0.00
2022-03-07 23:45:31;4.13;99;17.50;113;0.00
2022-03-07 23:50:32;4.13;99;17.50;113;0.00
2022-03-07 23:55:34;4.13;99;17.40;113;0.00
