2022-12-20 00:00:33;4.23;71;22.60;0;0.00
2022-12-20 00:05:35;4.23;72;22.30;0;0.00
2022-12-20 00:10:33;4.22;72;22.20;0;0.00
2022-12-20 00:15:35;4.22;73;21.90;0;0.00
2022-12-20 00:20:32;4.22;73;21.80;0;0.00
2022-12-20 00:25:34;4.22;73;21.50;0;0.00
2022-12-20 00:30:32;4.23;73;21.40;0;0.00
2022-12-20 00:35:34;4.22;73;21.40;0;0.00
2022-12-20 00:40:31;4.22;73;21.30;0;0.00
2022-12-20 00:45:33;4.22;73;21.30;0;0.00
2022-12-20 00:50:35;4.22;74;21.00;0;0.00
2022-12-20 00:55:32;4.22;73;21.10;0;0.00
2022-12-20 01:00:34;4.22;73;21.00;0;0.00
2022-12-20 01:05:32;4.22;73;21.10;0;0.00
2022-12-20 01:10:34;4.22;73;21.40;0;0.00
2022-12-20 01:15:31;4.22;73;21.20;0;0.00
2022-12-20 01:20:33;4.22;73;21.00;0;0.00
2022-12-20 01:25:35;4.22;73;20.90;0;0.00
2022-12-20 01:30:32;4.22;73;20.90;0;0.00
2022-12-20 01:35:34;4.22;73;20.70;0;0.00
2022-12-20 01:40:31;4.22;74;20.50;0;0.00
2022-12-20 01:45:33;4.22;73;20.50;0;0.00
2022-12-20 01:50:35;4.22;73;20.50;0;0.00
2022-12-20 01:55:32;4.22;73;20.50;0;0.00
2022-12-20 02:00:34;4.22;73;20.70;0;0.00
2022-12-20 02:05:31;4.22;73;20.50;0;0.00
2022-12-20 02:10:33;4.22;73;20.30;0;0.00
2022-12-20 02:15:35;4.22;73;20.20;0;0.00
2022-12-20 02:20:32;4.22;73;20.10;0;0.00
2022-12-20 02:25:34;4.22;73;20.30;0;0.00
2022-12-20 02:30:31;4.22;73;20.50;0;0.00
2022-12-20 02:35:33;4.22;73;20.30;0;0.00
2022-12-20 02:40:35;4.22;73;20.40;0;0.00
2022-12-20 02:45:32;4.22;73;20.40;0;0.00
2022-12-20 02:50:34;4.22;72;20.60;0;0.00
2022-12-20 02:55:31;4.22;72;20.30;0;0.00
2022-12-20 03:00:33;4.22;72;20.30;0;0.00
2022-12-20 03:05:35;4.21;72;20.40;0;0.00
2022-12-20 03:10:32;4.21;71;20.70;0;0.00
2022-12-20 03:15:34;4.21;72;20.60;0;0.00
2022-12-20 03:20:31;4.21;72;20.40;0;0.00
2022-12-20 03:25:33;4.21;72;20.20;0;0.00
2022-12-20 03:30:35;4.21;72;20.30;0;0.00
2022-12-20 03:35:32;4.21;72;20.20;0;0.00
2022-12-20 03:40:34;4.21;73;20.20;0;0.00
2022-12-20 03:45:31;4.21;72;20.20;0;0.00
2022-12-20 03:50:33;4.21;73;20.10;0;0.00
2022-12-20 03:55:35;4.21;73;20.10;0;0.00
2022-12-20 04:00:32;4.21;73;20.30;0;0.00
2022-12-20 04:05:34;4.21;72;20.60;0;0.00
2022-12-20 04:10:31;4.21;72;20.60;0;0.00
2022-12-20 04:15:33;4.21;72;20.60;0;0.00
2022-12-20 04:20:31;4.21;72;20.50;0;0.00
2022-12-20 04:25:33;4.21;73;20.40;0;0.00
2022-12-20 04:30:34;4.21;73;20.30;0;0.00
2022-12-20 04:35:32;4.21;73;20.20;0;0.00
2022-12-20 04:40:34;4.21;73;20.10;0;0.00
2022-12-20 04:45:31;4.21;73;20.00;0;0.00
2022-12-20 04:50:33;4.21;73;20.10;0;0.00
2022-12-20 04:55:35;4.21;73;20.20;0;0.00
2022-12-20 05:00:32;4.21;73;20.30;0;1.10
2022-12-20 05:05:34;4.21;73;20.10;0;0.00
2022-12-20 05:10:31;4.21;73;19.80;0;0.00
2022-12-20 05:15:33;4.20;73;19.90;0;0.00
2022-12-20 05:20:31;4.21;73;19.70;0;0.00
2022-12-20 05:25:32;4.21;73;19.50;0;0.00
2022-12-20 05:30:34;4.21;73;19.20;0;0.00
2022-12-20 05:35:32;4.21;73;19.10;0;0.00
2022-12-20 05:40:33;4.20;72;19.00;0;0.00
2022-12-20 05:45:31;4.20;71;18.50;0;0.00
2022-12-20 05:50:32;4.21;69;18.30;0;0.00
2022-12-20 05:55:34;4.21;68;18.20;0;0.00
2022-12-20 06:00:31;4.21;67;18.60;0;0.00
2022-12-20 06:05:33;4.21;68;19.00;0;0.00
2022-12-20 06:10:30;4.20;68;18.90;0;0.00
2022-12-20 06:15:32;4.21;67;18.70;0;0.00
2022-12-20 06:20:34;4.20;67;18.90;0;0.00
2022-12-20 06:25:31;4.20;67;19.20;0;0.00
2022-12-20 06:30:33;4.21;67;19.40;0;0.00
2022-12-20 06:35:34;4.21;67;19.60;0;0.00
2022-12-20 06:40:32;4.21;67;19.70;0;0.00
2022-12-20 06:45:33;4.21;67;20.20;0;1.30
2022-12-20 06:50:31;4.21;67;20.80;0;0.00
2022-12-20 06:55:33;4.21;68;21.30;0;0.00
2022-12-20 07:00:35;4.21;68;21.70;0;0.00
2022-12-20 07:05:32;4.21;68;21.90;0;0.00
2022-12-20 07:10:34;4.21;68;22.10;0;1.10
2022-12-20 07:15:32;4.21;68;22.40;0;1.70
2022-12-20 07:20:34;4.21;68;22.60;0;1.50
2022-12-20 07:25:31;4.21;68;22.80;0;2.09
2022-12-20 07:30:34;4.21;68;23.20;0;2.59
2022-12-20 07:35:31;4.21;68;23.30;0;2.09
2022-12-20 07:40:34;4.21;68;23.60;0;1.40
2022-12-20 07:45:32;4.21;68;23.70;0;1.80
2022-12-20 07:50:34;4.21;67;23.90;0;4.07
2022-12-20 07:55:32;4.22;67;24.40;0;1.70
2022-12-20 08:00:35;4.21;67;24.40;0;2.39
2022-12-20 08:05:33;4.22;66;25.00;0;2.00
2022-12-20 08:10:35;4.22;66;25.30;0;4.67
2022-12-20 08:15:33;4.22;67;25.40;0;3.08
2022-12-20 08:20:32;4.22;66;25.80;0;2.09
2022-12-20 08:25:34;4.22;66;26.00;0;2.59
2022-12-20 08:30:33;4.22;65;26.30;0;2.69
2022-12-20 08:35:35;4.22;65;26.60;0;2.49
2022-12-20 08:40:34;4.22;64;26.70;0;2.39
2022-12-20 08:45:32;4.22;64;26.70;0;1.50
2022-12-20 08:50:35;4.22;65;27.00;0;2.39
2022-12-20 08:55:34;4.22;64;27.10;0;2.19
2022-12-20 09:00:32;4.22;65;27.40;0;2.59
2022-12-20 09:05:35;4.22;64;27.40;0;2.39
2022-12-20 09:10:34;4.22;64;27.60;0;2.79
2022-12-20 09:15:32;4.22;63;27.80;0;2.00
2022-12-20 09:20:36;4.22;63;28.30;0;2.49
2022-12-20 09:25:34;4.22;63;28.20;0;1.30
2022-12-20 09:30:33;4.23;63;28.90;0;1.90
2022-12-20 09:35:36;4.22;62;29.20;0;1.80
2022-12-20 09:40:35;4.23;63;29.20;0;2.89
2022-12-20 09:45:34;4.23;61;29.50;0;2.29
2022-12-20 09:50:33;4.23;62;29.20;0;1.80
2022-12-20 09:55:36;4.23;61;29.90;0;2.39
2022-12-20 10:00:35;4.23;61;30.10;0;1.40
2022-12-20 10:05:34;4.23;61;30.10;0;2.39
2022-12-20 10:10:33;4.23;60;30.10;0;1.70
2022-12-20 10:15:32;4.23;61;30.50;0;2.29
2022-12-20 10:20:36;4.23;60;30.20;0;1.30
2022-12-20 10:25:35;4.23;59;30.70;0;2.00
2022-12-20 10:30:34;4.23;58;30.70;0;0.00
2022-12-20 10:35:34;4.23;57;31.30;0;0.00
2022-12-20 10:40:33;4.23;58;31.40;0;2.00
2022-12-20 10:45:37;4.23;58;32.00;0;3.08
2022-12-20 10:50:36;4.23;56;31.90;0;2.19
2022-12-20 10:55:35;4.23;56;31.90;0;2.29
2022-12-20 11:00:35;4.23;56;31.70;0;2.09
2022-12-20 11:05:34;4.23;57;32.00;0;2.49
2022-12-20 11:10:33;4.23;56;32.30;0;1.60
2022-12-20 11:15:33;4.23;57;32.40;0;0.00
2022-12-20 11:20:37;4.23;55;32.70;0;0.00
2022-12-20 11:25:37;4.23;54;33.20;0;2.00
2022-12-20 11:30:36;4.23;55;32.70;0;2.39
2022-12-20 11:35:36;4.23;55;33.20;0;0.00
2022-12-20 11:40:35;4.23;53;33.40;0;0.00
2022-12-20 11:45:35;4.23;50;34.30;0;0.00
2022-12-20 11:50:35;4.24;51;33.70;0;1.80
2022-12-20 11:55:35;4.23;52;34.00;0;1.90
2022-12-20 12:00:34;4.23;53;33.30;0;0.00
2022-12-20 12:05:34;4.24;51;34.10;0;2.09
2022-12-20 12:10:34;4.23;52;33.60;0;1.40
2022-12-20 12:15:34;4.23;52;32.80;0;1.60
2022-12-20 12:20:34;4.24;51;34.00;0;1.70
2022-12-20 12:25:33;4.23;52;34.30;0;0.00
2022-12-20 12:30:33;4.24;48;34.90;0;0.00
2022-12-20 12:35:33;4.24;48;34.60;0;0.00
2022-12-20 12:40:33;4.24;49;34.90;0;1.60
2022-12-20 12:45:33;4.24;48;34.70;0;0.00
2022-12-20 12:50:33;4.24;49;35.40;0;0.00
2022-12-20 12:55:33;4.24;49;35.60;0;0.00
2022-12-20 13:00:34;4.24;49;35.70;0;0.00
2022-12-20 13:05:34;4.24;50;35.20;0;0.00
2022-12-20 13:10:34;4.24;48;35.70;0;0.00
2022-12-20 13:15:34;4.24;49;35.00;0;0.00
2022-12-20 13:20:34;4.24;49;34.70;0;0.00
2022-12-20 13:25:35;4.24;49;34.60;0;1.30
2022-12-20 13:30:35;4.24;49;35.00;0;0.00
2022-12-20 13:35:35;4.24;49;35.20;0;0.00
2022-12-20 13:40:35;4.24;48;35.50;0;2.00
2022-12-20 13:45:35;4.24;51;33.40;0;2.49
2022-12-20 13:50:36;4.24;48;35.60;0;0.00
2022-12-20 13:55:36;4.24;48;35.60;0;0.00
2022-12-20 14:00:36;4.24;49;33.90;0;0.00
2022-12-20 14:05:36;4.24;50;33.90;0;0.00
2022-12-20 14:10:36;4.24;50;33.40;0;0.00
2022-12-20 14:15:36;4.24;47;34.90;0;0.00
2022-12-20 14:20:36;4.24;48;35.30;0;0.00
2022-12-20 14:25:36;4.24;47;34.80;0;0.00
2022-12-20 14:30:36;4.24;48;33.90;0;0.00
2022-12-20 14:35:36;4.24;50;34.20;0;0.00
2022-12-20 14:40:36;4.24;47;35.10;0;0.00
2022-12-20 14:45:36;4.24;48;34.20;0;0.00
2022-12-20 14:50:36;4.24;46;35.20;0;0.00
2022-12-20 14:55:36;4.25;46;34.90;0;0.00
2022-12-20 15:00:36;4.25;47;34.30;0;0.00
2022-12-20 15:05:35;4.24;47;34.70;0;1.20
2022-12-20 15:10:35;4.24;48;35.70;0;0.00
2022-12-20 15:15:35;4.25;45;35.80;0;0.00
2022-12-20 15:20:35;4.25;45;35.90;0;0.00
2022-12-20 15:25:36;4.25;44;35.60;0;1.80
2022-12-20 15:30:36;4.25;45;35.20;0;0.00
2022-12-20 15:35:36;4.24;48;35.00;0;2.59
2022-12-20 15:40:36;4.25;46;35.40;0;0.00
2022-12-20 15:45:36;4.25;46;35.50;0;1.30
2022-12-20 15:50:36;4.25;46;35.30;0;0.00
2022-12-20 15:55:36;4.24;46;35.10;0;0.00
2022-12-20 16:00:37;4.25;45;35.50;0;0.00
2022-12-20 16:05:37;4.25;47;35.20;0;0.00
2022-12-20 16:10:37;4.25;45;35.00;0;1.80
2022-12-20 16:15:37;4.25;45;35.20;0;0.00
2022-12-20 16:20:37;4.25;46;35.40;0;0.00
2022-12-20 16:25:37;4.25;45;35.50;0;0.00
2022-12-20 16:30:37;4.25;44;35.80;0;0.00
2022-12-20 16:35:37;4.25;46;35.50;0;0.00
2022-12-20 16:40:37;4.25;46;35.20;0;0.00
2022-12-20 16:45:37;4.25;44;35.20;0;0.00
2022-12-20 16:50:37;4.25;45;35.20;0;0.00
2022-12-20 16:55:37;4.25;45;35.20;0;0.00
2022-12-20 17:00:37;4.25;45;35.10;0;1.20
2022-12-20 17:05:37;4.25;45;35.40;0;0.00
2022-12-20 17:10:37;4.25;44;35.60;0;0.00
2022-12-20 17:15:37;4.25;44;35.40;0;0.00
2022-12-20 17:20:37;4.25;44;35.40;0;0.00
2022-12-20 17:25:37;4.25;45;34.90;0;0.00
2022-12-20 17:30:37;4.25;43;35.30;0;1.40
2022-12-20 17:35:37;4.25;43;35.00;0;0.00
2022-12-20 17:40:37;4.25;42;34.90;0;0.00
2022-12-20 17:45:36;4.25;43;34.60;0;0.00
2022-12-20 17:50:36;4.25;43;35.00;0;0.00
2022-12-20 17:55:36;4.25;43;35.10;0;0.00
2022-12-20 18:00:36;4.25;43;35.00;0;0.00
2022-12-20 18:05:36;4.25;43;34.80;0;0.00
2022-12-20 18:10:35;4.25;43;34.80;0;0.00
2022-12-20 18:15:35;4.25;43;34.70;0;0.00
2022-12-20 18:20:35;4.25;42;35.40;0;0.00
2022-12-20 18:25:35;4.25;42;34.80;0;0.00
2022-12-20 18:30:34;4.25;41;34.70;0;0.00
2022-12-20 18:35:34;4.25;41;34.50;0;0.00
2022-12-20 18:40:34;4.25;41;34.80;0;0.00
2022-12-20 18:45:33;4.25;41;34.20;0;0.00
2022-12-20 18:50:33;4.25;43;34.40;0;0.00
2022-12-20 18:55:37;4.25;43;34.20;0;0.00
2022-12-20 19:00:32;4.25;44;34.00;0;0.00
2022-12-20 19:05:36;4.25;44;34.00;0;0.00
2022-12-20 19:10:36;4.25;43;33.70;0;0.00
2022-12-20 19:15:35;4.25;44;33.40;0;0.00
2022-12-20 19:20:35;4.25;46;33.10;0;0.00
2022-12-20 19:25:34;4.25;47;32.20;0;0.00
2022-12-20 19:30:33;4.25;48;31.70;0;0.00
2022-12-20 19:35:33;4.25;48;31.60;0;0.00
2022-12-20 19:40:36;4.25;49;31.30;0;0.00
2022-12-20 19:45:35;4.25;50;30.90;0;0.00
2022-12-20 19:50:34;4.25;52;30.40;0;0.00
2022-12-20 19:55:33;4.25;51;30.40;0;0.00
2022-12-20 20:00:32;4.25;52;30.20;0;0.00
2022-12-20 20:05:35;4.25;53;29.70;0;0.00
2022-12-20 20:10:34;4.25;55;28.70;0;0.00
2022-12-20 20:15:33;4.25;56;28.50;0;0.00
2022-12-20 20:20:36;4.25;56;28.30;0;0.00
2022-12-20 20:25:35;4.25;56;28.30;0;0.00
2022-12-20 20:30:33;4.25;57;28.00;0;0.00
2022-12-20 20:35:36;4.25;57;28.10;0;0.00
2022-12-20 20:40:35;4.25;57;27.90;0;0.00
2022-12-20 20:45:33;4.25;58;27.60;0;0.00
2022-12-20 20:50:36;4.24;58;27.50;0;0.00
2022-12-20 20:55:34;4.24;58;27.40;0;0.00
2022-12-20 21:00:32;4.24;58;27.30;0;0.00
2022-12-20 21:05:35;4.24;59;26.90;0;0.00
2022-12-20 21:10:33;4.24;60;26.70;0;0.00
2022-12-20 21:15:32;4.24;59;26.80;0;0.00
2022-12-20 21:20:34;4.24;59;26.80;0;0.00
2022-12-20 21:25:33;4.24;59;26.80;0;0.00
2022-12-20 21:30:35;4.24;60;26.60;0;0.00
2022-12-20 21:35:33;4.24;61;26.10;0;0.00
2022-12-20 21:40:31;4.24;61;26.00;0;0.00
2022-12-20 21:45:34;4.24;60;26.30;0;0.00
2022-12-20 21:50:32;4.24;62;25.60;0;0.00
2022-12-20 21:55:35;4.24;62;25.50;0;0.00
2022-12-20 22:00:33;4.24;60;25.90;0;0.00
2022-12-20 22:05:35;4.24;60;26.00;0;0.00
2022-12-20 22:10:33;4.24;61;25.90;0;0.00
2022-12-20 22:15:31;4.24;61;25.80;0;0.00
2022-12-20 22:20:34;4.24;61;25.70;0;0.00
2022-12-20 22:25:32;4.24;62;25.60;0;0.00
2022-12-20 22:30:34;4.24;63;25.20;0;0.00
2022-12-20 22:35:32;4.24;64;24.60;0;0.00
2022-12-20 22:40:35;4.23;66;24.00;0;0.00
2022-12-20 22:45:33;4.23;66;24.10;0;0.00
2022-12-20 22:50:35;4.24;66;24.10;0;0.00
2022-12-20 22:55:33;4.23;66;24.10;0;0.00
2022-12-20 23:00:35;4.24;67;23.50;0;0.00
2022-12-20 23:05:33;4.24;67;23.60;0;0.00
2022-12-20 23:10:31;4.23;68;23.10;0;0.00
2022-12-20 23:15:33;4.23;68;23.00;0;0.00
2022-12-20 23:20:31;4.23;70;22.20;0;0.00
2022-12-20 23:25:33;4.23;70;22.20;0;0.00
2022-12-20 23:30:31;4.23;68;23.00;0;0.00
2022-12-20 23:35:33;4.23;68;23.10;0;0.00
2022-12-20 23:40:31;4.23;68;23.10;0;0.00
2022-12-20 23:45:33;4.23;68;23.00;0;0.00
2022-12-20 23:50:35;4.23;69;22.60;0;0.00
2022-12-20 23:55:33;4.23;70;22.20;0;0.00
