2022-07-03 00:00:32;4.15;81;4.50;4;0.00
2022-07-03 00:05:32;4.15;81;4.90;0;0.00
2022-07-03 00:10:32;4.15;80;4.80;0;0.00
2022-07-03 00:15:32;4.15;81;5.00;0;0.00
2022-07-03 00:20:32;4.15;81;5.30;0;0.00
2022-07-03 00:25:32;4.15;80;5.30;0;0.00
2022-07-03 00:30:32;4.15;80;5.50;0;0.00
2022-07-03 00:35:32;4.15;81;5.30;0;0.00
2022-07-03 00:40:32;4.15;81;4.90;0;0.00
2022-07-03 00:45:32;4.15;81;4.80;0;0.00
2022-07-03 00:50:32;4.15;81;4.80;0;0.00
2022-07-03 00:55:32;4.15;81;4.60;0;0.00
2022-07-03 01:00:32;4.15;82;4.60;0;0.00
2022-07-03 01:05:32;4.15;81;4.40;0;0.00
2022-07-03 01:10:32;4.15;82;4.40;0;0.00
2022-07-03 01:15:32;4.15;82;4.10;0;0.00
2022-07-03 01:20:32;4.15;82;3.80;0;0.00
2022-07-03 01:25:32;4.15;82;3.50;0;0.00
2022-07-03 01:30:32;4.16;82;2.80;0;0.00
2022-07-03 01:35:32;4.15;83;1.60;0;0.00
2022-07-03 01:40:32;4.15;82;0.90;0;0.00
2022-07-03 01:45:32;4.15;80;0.90;0;0.00
2022-07-03 01:50:31;4.14;78;1.40;0;0.00
2022-07-03 01:55:31;4.14;77;1.70;0;0.00
2022-07-03 02:00:31;4.15;78;1.80;0;0.00
2022-07-03 02:05:31;4.15;77;2.40;0;0.00
2022-07-03 02:10:31;4.15;79;2.00;0;0.00
2022-07-03 02:15:31;4.15;78;2.60;0;0.00
2022-07-03 02:20:31;4.15;78;3.00;0;0.00
2022-07-03 02:25:31;4.15;79;2.00;0;0.00
2022-07-03 02:30:30;4.15;78;1.90;0;0.00
2022-07-03 02:35:30;4.15;78;2.00;0;0.00
2022-07-03 02:40:30;4.15;79;1.60;0;0.00
2022-07-03 02:45:30;4.15;79;1.30;0;0.00
2022-07-03 02:50:30;4.15;78;1.50;0;0.00
2022-07-03 02:55:30;4.15;77;1.90;0;0.00
2022-07-03 03:00:29;4.15;78;1.60;0;0.00
2022-07-03 03:05:29;4.15;78;1.70;0;0.00
2022-07-03 03:10:29;4.15;78;1.70;0;0.00
2022-07-03 03:15:29;4.14;78;1.60;0;0.00
2022-07-03 03:20:33;4.15;78;1.80;0;0.00
2022-07-03 03:25:29;4.14;78;1.10;0;0.00
2022-07-03 03:30:33;4.14;78;0.90;0;0.00
2022-07-03 03:35:33;4.14;77;1.00;0;0.00
2022-07-03 03:40:33;4.14;76;1.30;0;0.00
2022-07-03 03:45:32;4.14;77;1.10;0;0.00
2022-07-03 03:50:32;4.14;76;0.70;0;0.00
2022-07-03 03:55:32;4.14;75;1.20;0;0.00
2022-07-03 04:00:32;4.14;76;1.10;0;0.00
2022-07-03 04:05:32;4.14;75;1.20;0;0.00
2022-07-03 04:10:32;4.14;75;1.40;0;0.00
2022-07-03 04:15:32;4.14;75;1.40;0;0.00
2022-07-03 04:20:31;4.14;75;1.30;0;0.00
2022-07-03 04:25:31;4.14;75;1.20;0;0.00
2022-07-03 04:30:31;4.14;75;1.20;0;0.00
2022-07-03 04:35:31;4.14;75;1.10;0;0.00
2022-07-03 04:40:30;4.14;75;0.80;0;0.00
2022-07-03 04:45:30;4.14;75;0.80;0;0.00
2022-07-03 04:50:30;4.14;74;0.60;0;0.00
2022-07-03 04:55:30;4.14;73;0.60;0;0.00
2022-07-03 05:00:29;4.14;72;0.90;0;0.00
2022-07-03 05:05:29;4.14;72;1.00;0;0.00
2022-07-03 05:10:29;4.14;74;0.40;0;0.00
2022-07-03 05:15:33;4.14;73;0.30;0;0.00
2022-07-03 05:20:28;4.13;71;0.70;0;0.00
2022-07-03 05:25:33;4.13;71;0.40;0;0.00
2022-07-03 05:30:32;4.13;71;0.30;0;0.00
2022-07-03 05:35:32;4.14;70;0.30;0;0.00
2022-07-03 05:40:32;4.14;70;0.00;0;0.00
2022-07-03 05:45:32;4.14;68;0.00;0;0.00
2022-07-03 05:50:31;4.14;66;0.10;0;0.00
2022-07-03 05:55:31;4.14;66;-0.10;0;0.00
2022-07-03 06:00:31;4.14;66;-0.10;0;0.00
2022-07-03 06:05:30;4.14;66;0.00;0;0.00
2022-07-03 06:10:30;4.14;64;-0.10;0;0.00
2022-07-03 06:15:30;4.14;62;0.30;0;0.00
2022-07-03 06:20:30;4.14;64;0.10;0;0.00
2022-07-03 06:25:29;4.14;63;0.10;0;0.00
2022-07-03 06:30:29;4.13;62;0.10;0;0.00
2022-07-03 06:35:33;4.13;62;0.40;0;1.20
2022-07-03 06:40:28;4.14;61;0.60;0;1.50
2022-07-03 06:45:33;4.13;63;0.40;0;1.10
2022-07-03 06:50:32;4.14;62;0.40;0;0.00
2022-07-03 06:55:32;4.13;62;0.50;0;0.00
2022-07-03 07:00:32;4.14;62;0.30;0;0.00
2022-07-03 07:05:32;4.13;61;0.30;0;0.00
2022-07-03 07:10:31;4.14;60;0.40;0;0.00
2022-07-03 07:15:31;4.14;60;0.50;0;0.00
2022-07-03 07:20:31;4.13;60;0.70;0;0.00
2022-07-03 07:25:31;4.14;60;0.70;0;0.00
2022-07-03 07:30:30;4.13;64;0.10;0;0.00
2022-07-03 07:35:30;4.13;63;-0.40;0;0.00
2022-07-03 07:40:30;4.14;64;-0.90;0;0.00
2022-07-03 07:45:29;4.14;62;-1.20;0;0.00
2022-07-03 07:50:29;4.14;60;-1.00;0;0.00
2022-07-03 07:55:29;4.13;57;-0.60;0;0.00
2022-07-03 08:00:33;4.13;55;-0.50;0;0.00
2022-07-03 08:05:33;4.13;51;0.00;0;0.00
2022-07-03 08:10:32;4.13;54;0.10;0;0.00
2022-07-03 08:15:32;4.13;54;0.10;0;0.00
2022-07-03 08:20:32;4.13;55;0.20;0;0.00
2022-07-03 08:25:32;4.13;54;0.30;0;0.00
2022-07-03 08:30:31;4.14;53;0.90;0;0.00
2022-07-03 08:35:31;4.14;55;0.90;0;0.00
2022-07-03 08:40:31;4.15;57;0.90;0;0.00
2022-07-03 08:45:31;4.16;57;1.10;0;0.00
2022-07-03 08:50:30;4.15;57;1.40;0;0.00
2022-07-03 08:55:30;4.15;56;1.80;0;0.00
2022-07-03 09:00:30;4.15;59;1.70;0;0.00
2022-07-03 09:05:30;4.16;56;2.00;0;0.00
2022-07-03 09:10:30;4.15;55;2.50;0;0.00
2022-07-03 09:15:30;4.16;56;2.80;0;0.00
2022-07-03 09:20:30;4.16;55;3.40;0;1.10
2022-07-03 09:25:30;4.16;56;3.80;0;0.00
2022-07-03 09:30:30;4.17;58;4.30;0;0.00
2022-07-03 09:35:30;4.17;60;4.90;0;1.10
2022-07-03 09:40:30;4.17;63;5.50;0;0.00
2022-07-03 09:45:30;4.17;64;5.60;0;0.00
2022-07-03 09:50:30;4.17;65;5.80;0;0.00
2022-07-03 09:55:30;4.17;66;6.00;0;0.00
2022-07-03 10:00:31;4.17;66;6.40;0;0.00
2022-07-03 10:05:31;4.17;66;7.00;0;1.10
2022-07-03 10:10:31;4.18;68;7.40;0;1.40
2022-07-03 10:15:32;4.18;70;8.10;0;1.10
2022-07-03 10:20:32;4.17;70;8.30;0;0.00
2022-07-03 10:25:33;4.18;72;9.10;0;0.00
2022-07-03 10:30:33;4.18;73;9.50;0;0.00
2022-07-03 10:35:29;4.18;73;11.00;0;0.00
2022-07-03 10:40:30;4.18;74;11.50;0;0.00
2022-07-03 10:45:31;4.18;74;11.60;0;0.00
2022-07-03 10:50:32;4.18;73;12.60;0;0.00
2022-07-03 10:55:32;4.18;72;13.00;0;0.00
2022-07-03 11:00:33;4.18;74;12.70;0;0.00
2022-07-03 11:05:30;4.18;73;13.40;0;1.10
2022-07-03 11:10:31;4.18;71;14.20;0;1.10
2022-07-03 11:15:32;4.19;70;14.30;0;0.00
2022-07-03 11:20:33;4.18;71;13.80;0;0.00
2022-07-03 11:25:34;4.19;72;13.50;0;0.00
2022-07-03 11:30:31;4.19;72;13.80;0;0.00
2022-07-03 11:35:32;4.19;69;15.20;0;0.00
2022-07-03 11:40:33;4.18;69;15.40;0;0.00
2022-07-03 11:45:34;4.19;67;16.00;0;0.00
2022-07-03 11:50:31;4.19;68;15.00;0;0.00
2022-07-03 11:55:32;4.19;69;15.50;0;0.00
2022-07-03 12:00:34;4.19;67;15.60;0;0.00
2022-07-03 12:05:31;4.19;67;15.50;0;0.00
2022-07-03 12:10:32;4.19;67;15.50;0;0.00
2022-07-03 12:15:34;4.19;63;16.60;0;0.00
2022-07-03 12:20:30;4.19;63;16.50;0;0.00
2022-07-03 12:25:32;4.19;64;17.50;0;0.00
2022-07-03 12:30:34;4.19;61;17.70;0;0.00
2022-07-03 12:35:31;4.19;58;18.40;0;0.00
2022-07-03 12:40:32;4.19;55;18.50;0;0.00
2022-07-03 12:45:34;4.19;58;18.10;0;1.30
2022-07-03 12:50:31;4.20;59;17.90;0;0.00
2022-07-03 12:55:33;4.19;59;18.10;0;0.00
2022-07-03 13:00:31;4.20;55;18.20;0;0.00
2022-07-03 13:05:33;4.19;57;17.50;0;1.80
2022-07-03 13:10:35;4.19;55;18.60;0;0.00
2022-07-03 13:15:32;4.19;55;18.70;0;0.00
2022-07-03 13:20:34;4.20;54;19.10;0;0.00
2022-07-03 13:25:32;4.20;56;18.80;0;0.00
2022-07-03 13:30:34;4.20;56;18.50;0;1.30
2022-07-03 13:35:31;4.20;55;18.80;0;0.00
2022-07-03 13:40:33;4.20;56;19.60;0;0.00
2022-07-03 13:45:31;4.20;54;19.20;0;0.00
2022-07-03 13:50:33;4.20;54;19.30;0;0.00
2022-07-03 13:55:35;4.20;53;19.50;0;0.00
2022-07-03 14:00:33;4.20;53;19.30;0;0.00
2022-07-03 14:05:35;4.20;51;20.20;0;1.20
2022-07-03 14:10:32;4.20;51;19.90;0;0.00
2022-07-03 14:15:35;4.20;51;20.00;0;0.00
2022-07-03 14:20:32;4.20;50;19.80;0;1.20
2022-07-03 14:25:34;4.20;51;19.90;0;0.00
2022-07-03 14:30:32;4.20;50;20.10;0;0.00
2022-07-03 14:35:34;4.20;50;19.90;0;0.00
2022-07-03 14:40:32;4.20;49;20.20;0;0.00
2022-07-03 14:45:34;4.20;50;20.30;0;0.00
2022-07-03 14:50:32;4.20;49;20.10;0;0.00
2022-07-03 14:55:34;4.20;50;19.90;0;0.00
2022-07-03 15:00:32;4.20;50;19.70;0;0.00
2022-07-03 15:05:34;4.20;49;19.40;0;0.00
2022-07-03 15:10:31;4.20;50;19.80;0;0.00
2022-07-03 15:15:34;4.21;49;20.10;0;1.30
2022-07-03 15:20:31;4.21;49;20.30;0;0.00
2022-07-03 15:25:33;4.20;47;20.20;0;1.40
2022-07-03 15:30:31;4.21;48;20.30;0;0.00
2022-07-03 15:35:33;4.21;48;20.40;0;0.00
2022-07-03 15:40:35;4.20;48;20.60;0;0.00
2022-07-03 15:45:33;4.20;48;20.70;0;0.00
2022-07-03 15:50:35;4.21;48;20.60;0;2.00
2022-07-03 15:55:32;4.21;48;20.30;0;0.00
2022-07-03 16:00:35;4.21;49;20.40;0;0.00
2022-07-03 16:05:32;4.21;48;20.30;0;0.00
2022-07-03 16:10:34;4.21;47;20.30;0;0.00
2022-07-03 16:15:32;4.21;46;20.20;0;0.00
2022-07-03 16:20:34;4.21;47;19.40;0;0.00
2022-07-03 16:25:31;4.20;48;19.30;0;0.00
2022-07-03 16:30:33;4.21;51;19.50;0;0.00
2022-07-03 16:35:30;4.21;51;19.50;0;0.00
2022-07-03 16:40:32;4.21;50;19.40;0;0.00
2022-07-03 16:45:34;4.21;48;19.40;0;0.00
2022-07-03 16:50:31;4.21;47;19.30;0;0.00
2022-07-03 16:55:33;4.20;47;19.30;0;1.20
2022-07-03 17:00:31;4.21;46;19.30;0;0.00
2022-07-03 17:05:32;4.20;47;19.10;0;0.00
2022-07-03 17:10:34;4.20;48;19.00;0;0.00
2022-07-03 17:15:31;4.20;49;18.90;0;0.00
2022-07-03 17:20:33;4.20;49;18.80;0;0.00
2022-07-03 17:25:35;4.20;48;18.70;0;0.00
2022-07-03 17:30:32;4.20;49;18.60;0;0.00
2022-07-03 17:35:34;4.20;49;18.50;0;0.00
2022-07-03 17:40:31;4.20;49;18.40;0;0.00
2022-07-03 17:45:32;4.19;49;18.30;0;0.00
2022-07-03 17:50:34;4.19;50;18.10;0;0.00
2022-07-03 17:55:31;4.19;50;18.00;0;0.00
2022-07-03 18:00:33;4.19;52;17.70;0;0.00
2022-07-03 18:05:34;4.19;52;17.50;0;0.00
2022-07-03 18:10:31;4.19;54;17.20;0;0.00
2022-07-03 18:15:33;4.19;55;16.90;0;0.00
2022-07-03 18:20:34;4.19;56;16.70;0;1.10
2022-07-03 18:25:31;4.19;55;16.90;0;0.00
2022-07-03 18:30:32;4.19;55;16.80;0;0.00
2022-07-03 18:35:34;4.19;55;17.00;0;0.00
2022-07-03 18:40:31;4.19;55;16.90;0;0.00
2022-07-03 18:45:32;4.18;55;16.90;0;0.00
2022-07-03 18:50:34;4.19;55;16.90;0;0.00
2022-07-03 18:55:30;4.19;56;16.80;0;0.00
2022-07-03 19:00:32;4.19;56;16.70;0;0.00
2022-07-03 19:05:33;4.19;57;16.50;0;0.00
2022-07-03 19:10:30;4.18;59;16.20;0;0.00
2022-07-03 19:15:31;4.19;61;15.40;0;0.00
2022-07-03 19:20:33;4.19;62;14.80;0;0.00
2022-07-03 19:25:34;4.19;63;14.20;0;0.00
2022-07-03 19:30:31;4.19;63;14.00;0;0.00
2022-07-03 19:35:32;4.19;63;14.10;0;0.00
2022-07-03 19:40:33;4.19;64;13.90;0;0.00
2022-07-03 19:45:34;4.19;64;13.90;0;0.00
2022-07-03 19:50:30;4.19;65;14.00;0;0.00
2022-07-03 19:55:31;4.19;66;14.00;0;0.00
2022-07-03 20:00:32;4.18;66;13.90;0;0.00
2022-07-03 20:05:33;4.18;67;13.90;0;0.00
2022-07-03 20:10:30;4.18;68;13.80;0;0.00
2022-07-03 20:15:31;4.18;68;13.50;0;0.00
2022-07-03 20:20:32;4.18;69;12.90;0;0.00
2022-07-03 20:25:33;4.18;69;12.40;0;0.00
2022-07-03 20:30:34;4.18;69;12.30;0;0.00
2022-07-03 20:35:30;4.17;69;12.20;0;0.00
2022-07-03 20:40:31;4.18;69;12.20;0;0.00
2022-07-03 20:45:32;4.17;69;12.20;0;0.00
2022-07-03 20:50:33;4.17;69;12.20;0;0.00
2022-07-03 20:55:33;4.18;69;11.80;0;0.00
2022-07-03 21:00:30;4.17;70;11.50;0;0.00
2022-07-03 21:05:30;4.17;70;11.40;0;0.00
2022-07-03 21:10:31;4.17;70;11.60;0;0.00
2022-07-03 21:15:32;4.17;70;11.80;0;0.00
2022-07-03 21:20:33;4.17;71;11.70;0;0.00
2022-07-03 21:25:33;4.17;72;11.60;0;0.00
2022-07-03 21:30:29;4.17;73;11.60;0;0.00
2022-07-03 21:35:30;4.17;72;11.80;0;0.00
2022-07-03 21:40:31;4.17;70;12.30;0;0.00
2022-07-03 21:45:32;4.17;68;12.60;0;0.00
2022-07-03 21:50:32;4.17;71;12.60;0;0.00
2022-07-03 21:55:33;4.17;72;12.00;0;0.00
2022-07-03 22:00:30;4.17;70;12.10;0;0.00
2022-07-03 22:05:30;4.17;71;12.10;0;0.00
2022-07-03 22:10:31;4.17;71;12.10;0;0.00
2022-07-03 22:15:32;4.17;71;12.10;0;0.00
2022-07-03 22:20:33;4.17;72;12.00;0;0.00
2022-07-03 22:25:34;4.17;73;12.10;0;0.00
2022-07-03 22:30:30;4.17;72;12.50;0;0.00
2022-07-03 22:35:31;4.17;71;12.90;0;0.00
2022-07-03 22:40:32;4.17;71;13.00;0;0.00
2022-07-03 22:45:32;4.17;71;13.10;0;0.00
2022-07-03 22:50:33;4.17;72;13.10;0;0.00
2022-07-03 22:55:30;4.17;72;13.30;0;0.00
2022-07-03 23:00:31;4.17;72;13.20;0;0.00
2022-07-03 23:05:32;4.17;73;13.20;0;0.00
2022-07-03 23:10:33;4.17;74;13.10;0;0.00
2022-07-03 23:15:33;4.17;74;13.20;0;0.00
2022-07-03 23:20:30;4.17;74;13.20;0;0.00
2022-07-03 23:25:31;4.17;75;13.20;0;0.00
2022-07-03 23:30:32;4.17;75;13.00;0;0.00
2022-07-03 23:35:33;4.17;76;13.00;0;0.00
2022-07-03 23:40:34;4.17;76;13.00;0;0.00
2022-07-03 23:45:30;4.17;77;13.00;0;0.00
2022-07-03 23:50:31;4.17;77;13.00;0;0.00
2022-07-03 23:55:32;4.17;77;12.90;0;1.30
