2022-08-31 00:00:32;4.15;80;15.50;0;1.50
2022-08-31 00:05:34;4.15;80;15.40;0;1.50
2022-08-31 00:10:30;4.16;81;15.40;0;1.50
2022-08-31 00:15:32;4.16;81;15.40;0;2.00
2022-08-31 00:20:33;4.16;81;15.40;0;1.70
2022-08-31 00:25:34;4.16;81;15.30;0;1.90
2022-08-31 00:30:31;4.15;81;15.20;0;1.20
2022-08-31 00:35:32;4.16;81;15.10;0;1.60
2022-08-31 00:40:33;4.16;81;15.00;0;1.10
2022-08-31 00:45:30;4.16;81;14.90;0;1.30
2022-08-31 00:50:31;4.16;81;14.80;0;1.20
2022-08-31 00:55:32;4.16;81;14.80;0;0.00
2022-08-31 01:00:34;4.15;80;14.60;0;0.00
2022-08-31 01:05:30;4.16;80;14.70;0;1.20
2022-08-31 01:10:31;4.15;80;14.70;0;1.20
2022-08-31 01:15:33;4.15;80;14.50;0;0.00
2022-08-31 01:20:34;4.16;80;14.20;0;0.00
2022-08-31 01:25:30;4.15;79;14.00;0;0.00
2022-08-31 01:30:32;4.15;79;14.00;0;0.00
2022-08-31 01:35:33;4.15;78;13.80;0;0.00
2022-08-31 01:40:34;4.15;77;13.70;0;0.00
2022-08-31 01:45:30;4.15;76;13.40;0;0.00
2022-08-31 01:50:31;4.15;75;13.20;0;0.00
2022-08-31 01:55:32;4.15;73;13.00;0;0.00
2022-08-31 02:00:34;4.15;72;13.00;0;0.00
2022-08-31 02:05:30;4.15;72;13.10;0;0.00
2022-08-31 02:10:31;4.15;71;13.00;0;0.00
2022-08-31 02:15:32;4.15;70;12.70;0;0.00
2022-08-31 02:20:33;4.15;68;12.50;0;0.00
2022-08-31 02:25:30;4.15;67;12.30;0;0.00
2022-08-31 02:30:30;4.15;64;12.20;0;0.00
2022-08-31 02:35:31;4.14;62;12.30;0;0.00
2022-08-31 02:40:32;4.14;60;12.40;0;0.00
2022-08-31 02:45:33;4.15;60;12.50;0;0.00
2022-08-31 02:50:30;4.14;61;12.50;0;0.00
2022-08-31 02:55:31;4.15;59;12.50;0;0.00
2022-08-31 03:00:32;4.15;58;12.50;0;0.00
2022-08-31 03:05:33;4.14;59;12.60;0;0.00
2022-08-31 03:10:34;4.15;58;12.40;0;0.00
2022-08-31 03:15:30;4.14;56;12.10;0;0.00
2022-08-31 03:20:31;4.14;52;11.80;0;0.00
2022-08-31 03:25:32;4.14;47;11.60;0;0.00
2022-08-31 03:30:33;4.14;43;11.40;0;0.00
2022-08-31 03:35:33;4.14;41;11.10;0;0.00
2022-08-31 03:40:30;4.14;32;11.20;0;0.00
2022-08-31 03:45:30;4.14;32;11.30;0;0.00
2022-08-31 03:50:31;4.14;28;11.20;0;0.00
2022-08-31 03:55:32;4.14;22;11.20;0;0.00
2022-08-31 04:00:33;4.14;19;11.10;0;0.00
2022-08-31 04:05:34;4.14;16;11.00;0;0.00
2022-08-31 04:10:30;4.14;15;11.00;0;0.00
2022-08-31 04:15:31;4.14;14;10.70;0;0.00
2022-08-31 04:20:32;4.14;7;10.70;0;0.00
2022-08-31 04:25:33;4.14;8;10.80;0;0.00
2022-08-31 04:30:33;4.14;8;10.90;0;0.00
2022-08-31 04:35:29;4.14;8;10.90;0;0.00
2022-08-31 04:40:30;4.14;6;11.10;0;0.00
2022-08-31 04:45:31;4.14;12;11.30;0;0.00
2022-08-31 04:50:32;4.14;15;11.40;0;0.00
2022-08-31 04:55:32;4.14;14;11.30;0;0.00
2022-08-31 05:00:33;4.14;16;11.30;0;0.00
2022-08-31 05:05:29;4.14;14;11.20;0;0.00
2022-08-31 05:10:30;4.14;14;10.90;0;0.00
2022-08-31 05:15:31;4.14;14;11.10;0;0.00
2022-08-31 05:20:32;4.14;13;11.00;0;0.00
2022-08-31 05:25:32;4.14;13;10.90;0;0.00
2022-08-31 05:30:33;4.14;7;11.10;0;0.00
2022-08-31 05:35:29;4.14;8;11.30;0;0.00
2022-08-31 05:40:30;4.14;14;11.20;0;0.00
2022-08-31 05:45:31;4.14;10;10.90;0;0.00
2022-08-31 05:50:32;4.14;9;10.60;0;0.00
2022-08-31 05:55:32;4.14;99;10.60;0;0.00
2022-08-31 06:00:33;4.14;99;10.30;0;0.00
2022-08-31 06:05:34;4.14;99;10.30;0;0.00
2022-08-31 06:10:30;4.14;99;10.40;0;0.00
2022-08-31 06:15:30;4.14;99;10.60;0;0.00
2022-08-31 06:20:31;4.14;99;10.50;0;0.00
2022-08-31 06:25:32;4.14;99;10.80;0;0.00
2022-08-31 06:30:32;4.14;99;10.60;0;0.00
2022-08-31 06:35:33;4.14;99;10.60;0;0.00
2022-08-31 06:40:29;4.14;99;10.60;0;0.00
2022-08-31 06:45:30;4.14;99;10.50;0;0.00
2022-08-31 06:50:31;4.14;99;10.60;0;0.00
2022-08-31 06:55:31;4.14;99;10.00;0;1.10
2022-08-31 07:00:32;4.14;99;9.70;0;0.00
2022-08-31 07:05:33;4.14;99;10.00;0;0.00
2022-08-31 07:10:33;4.14;99;9.80;0;0.00
2022-08-31 07:15:29;4.14;99;9.70;0;0.00
2022-08-31 07:20:30;4.14;99;9.50;0;0.00
2022-08-31 07:25:31;4.13;99;9.60;0;0.00
2022-08-31 07:30:31;4.13;99;9.60;0;0.00
2022-08-31 07:35:32;4.14;99;9.70;0;0.00
2022-08-31 07:40:33;4.14;99;9.80;0;0.00
2022-08-31 07:45:33;4.14;99;10.10;0;0.00
2022-08-31 07:50:29;4.13;99;10.50;0;0.00
2022-08-31 07:55:30;4.14;99;11.10;0;1.20
2022-08-31 08:00:31;4.14;99;11.40;0;0.00
2022-08-31 08:05:31;4.14;99;11.60;0;0.00
2022-08-31 08:10:32;4.15;99;11.90;0;0.00
2022-08-31 08:15:33;4.15;99;12.20;0;0.00
2022-08-31 08:20:34;4.15;99;12.60;0;1.70
2022-08-31 08:25:30;4.15;99;12.90;0;1.30
2022-08-31 08:30:31;4.16;0;13.20;0;2.09
2022-08-31 08:35:32;4.16;16;13.60;0;1.60
2022-08-31 08:40:33;4.16;28;14.10;0;1.90
2022-08-31 08:45:34;4.16;37;14.40;0;2.09
2022-08-31 08:50:30;4.16;45;14.70;0;2.39
2022-08-31 08:55:31;4.17;49;15.20;0;2.69
2022-08-31 09:00:33;4.17;56;15.60;0;2.89
2022-08-31 09:05:34;4.17;59;15.90;0;2.89
2022-08-31 09:10:31;4.18;62;16.20;0;2.99
2022-08-31 09:15:32;4.18;63;16.60;0;2.29
2022-08-31 09:20:33;4.17;66;16.70;0;3.28
2022-08-31 09:25:30;4.18;67;16.40;0;3.68
2022-08-31 09:30:32;4.17;67;17.00;0;3.38
2022-08-31 09:35:33;4.18;69;17.30;0;3.18
2022-08-31 09:40:30;4.18;69;17.70;0;1.80
2022-08-31 09:45:32;4.18;71;18.30;0;2.59
2022-08-31 09:50:33;4.18;71;18.50;0;4.27
2022-08-31 09:55:31;4.18;72;18.70;0;3.68
2022-08-31 10:00:32;4.18;72;19.50;0;4.77
2022-08-31 10:05:34;4.18;72;19.30;0;2.79
2022-08-31 10:10:31;4.18;72;19.80;0;2.69
2022-08-31 10:15:33;4.19;71;20.30;0;2.79
2022-08-31 10:20:31;4.18;72;20.40;0;2.29
2022-08-31 10:25:33;4.19;72;20.40;0;2.39
2022-08-31 10:30:35;4.19;72;20.70;0;2.69
2022-08-31 10:35:32;4.19;71;20.90;0;3.08
2022-08-31 10:40:34;4.19;72;21.30;0;3.68
2022-08-31 10:45:32;4.19;72;21.00;0;1.70
2022-08-31 10:50:34;4.19;71;21.50;0;3.58
2022-08-31 10:55:32;4.19;71;21.50;0;2.29
2022-08-31 11:00:34;4.19;71;21.60;0;2.49
2022-08-31 11:05:32;4.19;70;21.70;0;1.70
2022-08-31 11:10:34;4.19;69;22.30;0;2.99
2022-08-31 11:15:32;4.19;70;22.20;0;2.99
2022-08-31 11:20:34;4.19;70;22.50;0;3.18
2022-08-31 11:25:32;4.19;70;22.70;0;3.28
2022-08-31 11:30:34;4.19;70;22.90;0;2.59
2022-08-31 11:35:32;4.19;69;23.20;0;2.59
2022-08-31 11:40:35;4.20;69;23.60;0;3.18
2022-08-31 11:45:33;4.20;68;23.60;0;2.69
2022-08-31 11:50:35;4.20;67;23.40;0;2.99
2022-08-31 11:55:33;4.19;67;24.10;0;1.50
2022-08-31 12:00:31;4.19;68;24.20;0;2.00
2022-08-31 12:05:34;4.20;67;24.70;0;1.90
2022-08-31 12:10:32;4.19;66;24.80;0;2.59
2022-08-31 12:15:35;4.19;66;25.00;0;3.48
2022-08-31 12:20:33;4.20;65;25.00;0;2.79
2022-08-31 12:25:31;4.19;65;25.10;0;2.49
2022-08-31 12:30:34;4.19;65;25.20;0;1.60
2022-08-31 12:35:32;4.20;65;24.90;0;2.49
2022-08-31 12:40:35;4.20;64;25.50;0;2.19
2022-08-31 12:45:34;4.20;64;25.80;0;2.19
2022-08-31 12:50:32;4.20;64;25.90;0;2.09
2022-08-31 12:55:35;4.20;63;26.10;0;1.90
2022-08-31 13:00:34;4.20;62;26.10;0;2.89
2022-08-31 13:05:32;4.20;64;26.20;0;1.30
2022-08-31 13:10:35;4.20;63;26.60;0;2.19
2022-08-31 13:15:33;4.20;62;26.30;0;2.79
2022-08-31 13:20:32;4.20;62;26.20;0;3.88
2022-08-31 13:25:35;4.20;60;27.00;0;3.68
2022-08-31 13:30:33;4.20;63;26.00;0;2.29
2022-08-31 13:35:32;4.20;61;26.90;0;1.80
2022-08-31 13:40:35;4.20;62;26.60;0;2.89
2022-08-31 13:45:33;4.20;61;26.80;0;2.79
2022-08-31 13:50:32;4.20;60;26.90;0;1.20
2022-08-31 13:55:35;4.20;60;27.20;0;2.29
2022-08-31 14:00:33;4.20;61;27.70;0;1.70
2022-08-31 14:05:32;4.20;60;27.50;0;2.39
2022-08-31 14:10:35;4.20;59;27.30;0;2.29
2022-08-31 14:15:34;4.21;62;27.80;0;2.19
2022-08-31 14:20:32;4.20;60;27.30;0;2.09
2022-08-31 14:25:36;4.20;60;27.70;0;2.49
2022-08-31 14:30:34;4.20;60;27.50;0;4.07
2022-08-31 14:35:33;4.20;60;27.40;0;2.29
2022-08-31 14:40:36;4.20;59;27.70;0;4.37
2022-08-31 14:45:35;4.21;59;27.40;0;2.39
2022-08-31 14:50:33;4.21;58;28.10;0;3.18
2022-08-31 14:55:32;4.20;59;28.00;0;1.20
2022-08-31 15:00:35;4.21;59;28.30;0;2.59
2022-08-31 15:05:34;4.21;59;28.60;0;1.50
2022-08-31 15:10:33;4.21;57;28.50;0;1.90
2022-08-31 15:15:36;4.20;58;28.20;0;2.79
2022-08-31 15:20:35;4.21;58;28.10;0;2.49
2022-08-31 15:25:34;4.20;59;28.10;0;2.00
2022-08-31 15:30:32;4.21;58;28.30;0;2.00
2022-08-31 15:35:36;4.21;58;28.20;0;1.20
2022-08-31 15:40:34;4.21;59;28.10;0;2.69
2022-08-31 15:45:33;4.21;58;28.30;0;2.59
2022-08-31 15:50:36;4.20;59;27.90;0;1.70
2022-08-31 15:55:35;4.21;60;27.80;0;1.90
2022-08-31 16:00:34;4.21;60;27.70;0;2.59
2022-08-31 16:05:32;4.21;58;27.70;0;1.70
2022-08-31 16:10:36;4.21;59;27.70;0;2.99
2022-08-31 16:15:34;4.21;60;27.60;0;2.00
2022-08-31 16:20:33;4.21;60;27.80;0;2.19
2022-08-31 16:25:36;4.21;60;27.50;0;2.29
2022-08-31 16:30:35;4.21;60;27.40;0;3.68
2022-08-31 16:35:33;4.20;60;27.30;0;2.49
2022-08-31 16:40:32;4.21;61;27.20;0;1.50
2022-08-31 16:45:35;4.21;60;27.30;0;3.28
2022-08-31 16:50:34;4.21;61;27.40;0;2.49
2022-08-31 16:55:32;4.21;59;27.00;0;3.58
2022-08-31 17:00:35;4.21;59;27.10;0;2.19
2022-08-31 17:05:34;4.21;60;27.00;0;2.69
2022-08-31 17:10:32;4.21;60;26.90;0;2.09
2022-08-31 17:15:35;4.21;61;27.00;0;1.30
2022-08-31 17:20:34;4.21;62;26.90;0;1.30
2022-08-31 17:25:32;4.21;61;26.60;0;1.30
2022-08-31 17:30:35;4.21;62;26.40;0;1.60
2022-08-31 17:35:33;4.21;61;26.60;0;1.50
2022-08-31 17:40:32;4.21;61;26.40;0;2.09
2022-08-31 17:45:35;4.21;60;26.30;0;2.89
2022-08-31 17:50:33;4.20;61;26.20;0;2.09
2022-08-31 17:55:36;4.20;62;25.90;0;1.70
2022-08-31 18:00:34;4.21;62;25.80;0;1.40
2022-08-31 18:05:32;4.20;63;25.60;0;1.80
2022-08-31 18:10:35;4.20;63;25.40;0;1.80
2022-08-31 18:15:33;4.20;65;25.00;0;1.50
2022-08-31 18:20:36;4.20;64;24.90;0;2.00
2022-08-31 18:25:33;4.19;66;24.40;0;1.20
2022-08-31 18:30:31;4.19;66;24.00;0;2.00
2022-08-31 18:35:34;4.20;67;23.90;0;1.40
2022-08-31 18:40:32;4.20;67;23.60;0;1.30
2022-08-31 18:45:34;4.19;68;23.30;0;1.10
2022-08-31 18:50:32;4.19;68;23.20;0;0.00
2022-08-31 18:55:34;4.20;69;22.90;0;0.00
2022-08-31 19:00:32;4.19;70;22.50;0;0.00
2022-08-31 19:05:34;4.19;71;22.00;0;0.00
2022-08-31 19:10:31;4.19;72;21.60;0;0.00
2022-08-31 19:15:34;4.19;73;21.20;0;0.00
2022-08-31 19:20:31;4.19;74;20.90;0;0.00
2022-08-31 19:25:33;4.19;75;20.60;0;0.00
2022-08-31 19:30:35;4.19;75;20.40;0;0.00
2022-08-31 19:35:32;4.19;76;19.80;0;0.00
2022-08-31 19:40:34;4.18;77;19.30;0;0.00
2022-08-31 19:45:31;4.18;78;18.80;0;0.00
2022-08-31 19:50:33;4.19;77;19.10;0;0.00
2022-08-31 19:55:30;4.19;77;19.20;0;0.00
2022-08-31 20:00:32;4.19;78;18.90;0;0.00
2022-08-31 20:05:34;4.19;78;19.00;0;0.00
2022-08-31 20:10:31;4.19;78;18.90;0;0.00
2022-08-31 20:15:32;4.18;78;18.60;0;0.00
2022-08-31 20:20:34;4.19;78;18.60;0;0.00
2022-08-31 20:25:31;4.19;78;18.60;0;0.00
2022-08-31 20:30:33;4.19;78;18.50;0;0.00
2022-08-31 20:35:34;4.18;78;18.40;0;0.00
2022-08-31 20:40:31;4.18;79;18.30;0;0.00
2022-08-31 20:45:33;4.18;79;18.20;0;0.00
2022-08-31 20:50:34;4.18;79;18.10;0;0.00
2022-08-31 20:55:31;4.18;79;18.20;0;0.00
2022-08-31 21:00:33;4.18;79;18.00;0;0.00
2022-08-31 21:05:34;4.17;79;17.90;0;0.00
2022-08-31 21:10:31;4.17;79;17.90;0;0.00
2022-08-31 21:15:33;4.18;79;17.90;0;0.00
2022-08-31 21:20:34;4.18;79;17.90;0;0.00
2022-08-31 21:25:31;4.18;79;17.80;0;0.00
2022-08-31 21:30:32;4.18;79;18.00;0;0.00
2022-08-31 21:35:34;4.18;79;17.80;0;0.00
2022-08-31 21:40:31;4.17;80;17.50;0;0.00
2022-08-31 21:45:32;4.18;80;17.30;0;0.00
2022-08-31 21:50:34;4.17;80;17.20;0;0.00
2022-08-31 21:55:31;4.18;80;17.20;0;0.00
2022-08-31 22:00:32;4.18;80;17.30;0;0.00
2022-08-31 22:05:34;4.18;79;17.60;0;0.00
2022-08-31 22:10:30;4.18;79;17.90;0;1.30
2022-08-31 22:15:32;4.17;78;18.40;0;0.00
2022-08-31 22:20:33;4.17;78;18.60;0;0.00
2022-08-31 22:25:30;4.17;78;18.80;0;0.00
2022-08-31 22:30:32;4.18;78;18.90;0;0.00
2022-08-31 22:35:33;4.17;78;19.10;0;0.00
2022-08-31 22:40:30;4.18;78;19.00;0;1.30
2022-08-31 22:45:32;4.17;77;19.20;0;0.00
2022-08-31 22:50:34;4.17;77;19.40;0;1.30
2022-08-31 22:55:31;4.17;78;19.20;0;1.50
2022-08-31 23:00:32;4.18;78;19.10;0;1.10
2022-08-31 23:05:34;4.18;78;19.10;0;1.10
2022-08-31 23:10:31;4.17;78;19.10;0;1.30
2022-08-31 23:15:33;4.18;78;19.20;0;0.00
2022-08-31 23:20:35;4.18;78;19.30;0;1.20
2022-08-31 23:25:32;4.17;78;19.20;0;1.20
2022-08-31 23:30:33;4.18;78;19.20;0;1.10
2022-08-31 23:35:31;4.18;78;19.10;0;0.00
2022-08-31 23:40:32;4.18;78;19.10;0;1.20
2022-08-31 23:45:34;4.17;78;19.10;0;0.00
2022-08-31 23:50:31;4.18;78;19.10;0;0.00
2022-08-31 23:55:33;4.17;78;19.10;0;0.00
