2022-03-20 00:00:30;4.08;78;14.50;1;0.00
2022-03-20 00:05:32;4.08;77;14.50;0;0.00
2022-03-20 00:10:33;4.09;77;14.50;0;0.00
2022-03-20 00:15:34;4.09;77;14.60;0;0.00
2022-03-20 00:20:31;4.08;77;14.60;0;0.00
2022-03-20 00:25:32;4.08;77;14.50;0;0.00
2022-03-20 00:30:34;4.08;77;14.50;0;0.00
2022-03-20 00:35:30;4.09;77;14.50;0;0.00
2022-03-20 00:40:32;4.08;77;14.50;0;0.00
2022-03-20 00:45:33;4.08;78;14.40;0;0.00
2022-03-20 00:50:34;4.08;77;14.40;0;0.00
2022-03-20 00:55:31;4.08;77;14.50;0;0.00
2022-03-20 01:00:32;4.08;77;14.40;0;0.00
2022-03-20 01:05:34;4.08;78;14.40;0;0.00
2022-03-20 01:10:30;4.08;78;14.30;0;0.00
2022-03-20 01:15:32;4.08;78;14.30;0;0.00
2022-03-20 01:20:33;4.08;78;14.30;0;0.00
2022-03-20 01:25:34;4.08;78;14.30;0;0.00
2022-03-20 01:30:31;4.08;78;14.30;0;0.00
2022-03-20 01:35:32;4.08;78;14.30;0;0.00
2022-03-20 01:40:34;4.08;78;14.30;0;0.00
2022-03-20 01:45:30;4.08;78;14.20;0;0.00
2022-03-20 01:50:32;4.08;78;14.20;0;0.00
2022-03-20 01:55:33;4.08;78;14.10;0;0.00
2022-03-20 02:00:34;4.08;78;14.00;0;0.00
2022-03-20 02:05:31;4.08;78;14.00;0;0.00
2022-03-20 02:10:32;4.08;78;13.90;0;0.00
2022-03-20 02:15:33;4.08;78;13.90;0;0.00
2022-03-20 02:20:30;4.08;78;13.90;0;0.00
2022-03-20 02:25:31;4.08;77;13.90;0;0.00
2022-03-20 02:30:33;4.08;77;13.80;0;0.00
2022-03-20 02:35:34;4.08;77;13.80;0;0.00
2022-03-20 02:40:31;4.08;77;13.90;0;0.00
2022-03-20 02:45:32;4.08;77;13.80;0;0.00
2022-03-20 02:50:33;4.08;76;13.70;0;0.00
2022-03-20 02:55:34;4.08;76;13.70;0;0.00
2022-03-20 03:00:31;4.07;76;13.70;0;0.00
2022-03-20 03:05:32;4.07;76;13.70;0;0.00
2022-03-20 03:10:33;4.07;76;13.60;0;0.00
2022-03-20 03:15:30;4.07;76;13.60;0;0.00
2022-03-20 03:20:31;4.07;75;13.60;0;0.00
2022-03-20 03:25:33;4.07;75;13.60;0;0.00
2022-03-20 03:30:34;4.07;75;13.60;0;0.00
2022-03-20 03:35:30;4.07;74;13.60;0;0.00
2022-03-20 03:40:32;4.08;74;13.60;0;0.00
2022-03-20 03:45:33;4.07;73;13.50;0;0.00
2022-03-20 03:50:34;4.08;73;13.40;0;0.00
2022-03-20 03:55:31;4.07;72;13.40;0;0.00
2022-03-20 04:00:32;4.08;72;13.40;0;0.00
2022-03-20 04:05:33;4.07;71;13.40;0;0.00
2022-03-20 04:10:34;4.08;71;13.30;0;0.00
2022-03-20 04:15:31;4.07;70;13.30;0;0.00
2022-03-20 04:20:32;4.07;70;13.30;0;0.00
2022-03-20 04:25:33;4.07;70;13.30;0;0.00
2022-03-20 04:30:30;4.07;70;13.40;0;0.00
2022-03-20 04:35:31;4.07;70;13.40;0;0.00
2022-03-20 04:40:32;4.07;70;13.30;0;0.00
2022-03-20 04:45:33;4.07;69;13.20;0;0.00
2022-03-20 04:50:30;4.07;68;13.20;0;0.00
2022-03-20 04:55:31;4.07;68;13.10;0;0.00
2022-03-20 05:00:32;4.07;67;13.00;0;0.00
2022-03-20 05:05:33;4.07;66;13.00;0;0.00
2022-03-20 05:10:30;4.07;66;13.00;0;0.00
2022-03-20 05:15:31;4.07;66;12.90;0;0.00
2022-03-20 05:20:32;4.07;65;12.90;0;0.00
2022-03-20 05:25:29;4.07;65;12.70;0;0.00
2022-03-20 05:30:35;4.07;64;12.70;0;0.00
2022-03-20 05:35:31;4.07;63;12.70;0;0.00
2022-03-20 05:40:32;4.07;62;12.70;0;0.00
2022-03-20 05:45:33;4.07;62;12.70;0;0.00
2022-03-20 05:50:30;4.07;62;12.60;0;0.00
2022-03-20 05:55:31;4.07;62;12.60;0;0.00
2022-03-20 06:00:32;4.07;62;12.70;0;0.00
2022-03-20 06:05:33;4.06;62;12.70;0;0.00
2022-03-20 06:10:30;4.07;62;12.60;0;0.00
2022-03-20 06:15:31;4.07;62;12.70;0;0.00
2022-03-20 06:20:32;4.07;62;12.70;0;0.00
2022-03-20 06:25:33;4.07;61;12.70;0;0.00
2022-03-20 06:30:34;4.07;61;12.60;0;0.00
2022-03-20 06:35:31;4.07;60;12.60;0;0.00
2022-03-20 06:40:32;4.06;60;12.50;0;0.00
2022-03-20 06:45:33;4.06;59;12.40;0;0.00
2022-03-20 06:50:34;4.07;58;12.50;0;0.00
2022-03-20 06:55:30;4.07;58;12.40;0;0.00
2022-03-20 07:00:31;4.06;57;12.40;0;0.00
2022-03-20 07:05:33;4.06;56;12.30;0;0.00
2022-03-20 07:10:34;4.06;56;12.30;0;0.00
2022-03-20 07:15:30;4.07;54;12.40;0;0.00
2022-03-20 07:20:31;4.06;54;12.50;0;0.00
2022-03-20 07:25:32;4.06;54;12.50;0;0.00
2022-03-20 07:30:33;4.07;53;12.60;0;0.00
2022-03-20 07:35:30;4.07;53;12.70;0;0.00
2022-03-20 07:40:31;4.06;53;12.80;0;0.00
2022-03-20 07:45:32;4.06;55;12.90;0;0.00
2022-03-20 07:50:33;4.07;56;13.10;0;0.00
2022-03-20 07:55:30;4.07;57;13.30;0;0.00
2022-03-20 08:00:31;4.07;59;13.40;0;0.00
2022-03-20 08:05:32;4.07;61;13.60;0;0.00
2022-03-20 08:10:33;4.07;62;13.60;0;0.00
2022-03-20 08:15:34;4.07;62;13.70;0;0.00
2022-03-20 08:20:31;4.07;63;13.80;0;0.00
2022-03-20 08:25:32;4.08;63;13.90;0;0.00
2022-03-20 08:30:33;4.09;67;15.30;0;0.00
2022-03-20 08:35:30;4.08;72;16.10;0;0.00
2022-03-20 08:40:31;4.09;72;15.50;0;0.00
2022-03-20 08:45:33;4.08;72;15.40;0;1.20
2022-03-20 08:50:34;4.08;73;14.90;0;0.00
2022-03-20 08:55:31;4.10;72;15.00;0;0.00
2022-03-20 09:00:32;4.11;72;16.10;0;1.20
2022-03-20 09:05:34;4.11;72;17.10;0;0.00
2022-03-20 09:10:31;4.12;73;17.20;0;0.00
2022-03-20 09:15:33;4.12;73;17.10;0;1.80
2022-03-20 09:20:34;4.12;73;17.90;0;1.30
2022-03-20 09:25:31;4.13;73;18.00;0;0.00
2022-03-20 09:30:33;4.11;74;16.90;0;1.50
2022-03-20 09:35:31;4.11;74;17.00;0;1.90
2022-03-20 09:40:32;4.11;75;16.90;0;0.00
2022-03-20 09:45:34;4.11;75;17.10;0;2.39
2022-03-20 09:50:31;4.11;75;17.00;0;2.29
2022-03-20 09:55:33;4.11;74;17.40;0;3.28
2022-03-20 10:00:31;4.12;73;17.60;0;2.89
2022-03-20 10:05:32;4.12;72;17.80;0;4.87
2022-03-20 10:10:34;4.11;73;17.80;0;2.00
2022-03-20 10:15:32;4.12;73;17.90;0;2.09
2022-03-20 10:20:33;4.12;73;17.90;0;2.69
2022-03-20 10:25:31;4.12;72;18.40;0;2.19
2022-03-20 10:30:33;4.12;72;18.30;0;2.69
2022-03-20 10:35:35;4.12;71;18.50;0;3.38
2022-03-20 10:40:32;4.13;72;18.60;0;2.99
2022-03-20 10:45:34;4.12;72;18.20;0;2.00
2022-03-20 10:50:31;4.12;72;18.60;0;2.39
2022-03-20 10:55:33;4.14;70;18.90;0;1.70
2022-03-20 11:00:31;4.12;70;18.90;0;1.80
2022-03-20 11:05:33;4.13;72;19.60;0;1.90
2022-03-20 11:10:35;4.14;70;20.10;0;2.89
2022-03-20 11:15:33;4.13;69;19.90;0;2.59
2022-03-20 11:20:35;4.14;70;20.00;0;2.59
2022-03-20 11:25:33;4.14;68;20.30;0;2.89
2022-03-20 11:30:35;4.14;68;20.40;0;2.79
2022-03-20 11:35:33;4.13;68;19.90;0;2.79
2022-03-20 11:40:35;4.13;69;19.70;0;1.30
2022-03-20 11:45:33;4.14;68;21.10;0;1.20
2022-03-20 11:50:35;4.14;68;21.10;0;2.59
2022-03-20 11:55:33;4.14;68;20.90;0;1.50
2022-03-20 12:00:35;4.14;67;22.00;0;1.30
2022-03-20 12:05:33;4.14;65;21.60;0;0.00
2022-03-20 12:10:31;4.14;66;22.10;0;0.00
2022-03-20 12:15:34;4.14;67;21.70;0;3.97
2022-03-20 12:20:32;4.15;67;21.30;0;2.09
2022-03-20 12:25:34;4.14;66;21.00;0;1.80
2022-03-20 12:30:32;4.14;66;20.70;0;1.90
2022-03-20 12:35:35;4.14;66;20.80;0;1.40
2022-03-20 12:40:33;4.14;67;21.10;0;1.30
2022-03-20 12:45:35;4.14;67;20.90;0;2.49
2022-03-20 12:50:33;4.15;66;20.90;0;3.18
2022-03-20 12:55:31;4.14;66;21.30;0;1.90
2022-03-20 13:00:34;4.14;65;21.40;0;1.40
2022-03-20 13:05:32;4.14;66;21.50;0;0.00
2022-03-20 13:10:34;4.14;65;21.40;0;1.10
2022-03-20 13:15:32;4.14;64;22.00;0;1.40
2022-03-20 13:20:35;4.14;65;21.60;0;0.00
2022-03-20 13:25:32;4.14;65;21.10;0;1.60
2022-03-20 13:30:35;4.14;64;21.70;0;0.00
2022-03-20 13:35:33;4.14;64;22.50;0;1.30
2022-03-20 13:40:35;4.15;63;21.80;0;2.39
2022-03-20 13:45:33;4.15;62;22.20;0;1.20
2022-03-20 13:50:32;4.15;65;22.60;0;1.70
2022-03-20 13:55:34;4.15;63;22.90;0;2.19
2022-03-20 14:00:32;4.15;61;22.80;0;1.30
2022-03-20 14:05:35;4.15;63;22.20;0;3.48
2022-03-20 14:10:33;4.15;61;22.90;0;3.28
2022-03-20 14:15:31;4.15;63;22.20;0;1.30
2022-03-20 14:20:34;4.15;62;22.30;0;1.70
2022-03-20 14:25:32;4.15;62;22.60;0;2.19
2022-03-20 14:30:35;4.15;63;22.40;0;2.00
2022-03-20 14:35:33;4.15;63;22.70;0;2.09
2022-03-20 14:40:31;4.15;62;23.10;0;2.00
2022-03-20 14:45:34;4.15;63;22.90;0;1.90
2022-03-20 14:50:32;4.15;62;22.70;0;0.00
2022-03-20 14:55:35;4.15;63;22.40;0;0.00
2022-03-20 15:00:33;4.15;61;23.00;0;2.99
2022-03-20 15:05:36;4.15;60;23.40;0;1.50
2022-03-20 15:10:34;4.15;58;22.90;0;2.09
2022-03-20 15:15:32;4.15;59;22.80;0;3.28
2022-03-20 15:20:35;4.15;60;22.60;0;1.70
2022-03-20 15:25:33;4.15;59;22.60;0;1.70
2022-03-20 15:30:31;4.15;60;23.20;0;0.00
2022-03-20 15:35:34;4.15;56;22.60;0;2.69
2022-03-20 15:40:32;4.15;59;22.40;0;3.58
2022-03-20 15:45:35;4.14;60;22.50;0;2.89
2022-03-20 15:50:33;4.15;57;22.80;0;1.50
2022-03-20 15:55:31;4.15;60;22.70;0;2.09
2022-03-20 16:00:34;4.15;57;23.30;0;2.99
2022-03-20 16:05:32;4.15;58;23.40;0;1.70
2022-03-20 16:10:35;4.15;60;23.10;0;2.89
2022-03-20 16:15:33;4.15;59;23.00;0;3.18
2022-03-20 16:20:35;4.15;59;22.90;0;1.60
2022-03-20 16:25:33;4.15;57;23.00;0;2.09
2022-03-20 16:30:32;4.15;61;22.50;0;1.20
2022-03-20 16:35:34;4.15;58;22.80;0;2.09
2022-03-20 16:40:32;4.15;59;22.30;0;2.29
2022-03-20 16:45:35;4.15;60;23.40;0;1.10
2022-03-20 16:50:33;4.15;61;23.10;0;2.49
2022-03-20 16:55:36;4.14;62;22.50;0;2.09
2022-03-20 17:00:34;4.14;62;22.40;0;1.80
2022-03-20 17:05:32;4.14;62;22.30;0;1.30
2022-03-20 17:10:34;4.15;61;23.30;0;0.00
2022-03-20 17:15:32;4.15;60;23.60;0;1.80
2022-03-20 17:20:35;4.15;61;23.70;0;0.00
2022-03-20 17:25:33;4.14;60;23.60;0;1.30
2022-03-20 17:30:36;4.15;62;23.10;0;0.00
2022-03-20 17:35:34;4.15;63;23.40;0;0.00
2022-03-20 17:40:32;4.13;63;23.20;0;1.40
2022-03-20 17:45:34;4.14;64;22.30;0;1.20
2022-03-20 17:50:32;4.13;64;22.60;0;1.70
2022-03-20 17:55:35;4.13;66;22.90;0;1.40
2022-03-20 18:00:33;4.13;65;22.90;0;1.30
2022-03-20 18:05:35;4.13;65;22.40;0;1.50
2022-03-20 18:10:33;4.13;67;22.20;0;0.00
2022-03-20 18:15:31;4.14;66;22.70;0;0.00
2022-03-20 18:20:33;4.13;68;22.30;0;0.00
2022-03-20 18:25:31;4.13;68;22.00;0;0.00
2022-03-20 18:30:34;4.13;70;21.90;0;1.50
2022-03-20 18:35:32;4.13;71;21.70;0;0.00
2022-03-20 18:40:34;4.13;71;21.50;0;0.00
2022-03-20 18:45:32;4.13;72;21.30;0;0.00
2022-03-20 18:50:34;4.12;74;21.00;0;0.00
2022-03-20 18:55:32;4.12;73;20.90;0;0.00
2022-03-20 19:00:34;4.12;74;20.70;0;0.00
2022-03-20 19:05:31;4.12;74;20.40;0;0.00
2022-03-20 19:10:34;4.12;75;20.10;0;0.00
2022-03-20 19:15:31;4.12;76;19.80;0;0.00
2022-03-20 19:20:33;4.11;77;19.50;0;0.00
2022-03-20 19:25:31;4.11;78;19.10;0;0.00
2022-03-20 19:30:33;4.12;77;19.20;0;1.10
2022-03-20 19:35:35;4.12;77;19.10;0;0.00
2022-03-20 19:40:32;4.12;77;19.00;0;0.00
2022-03-20 19:45:34;4.11;77;19.00;0;0.00
2022-03-20 19:50:31;4.11;78;18.90;0;0.00
2022-03-20 19:55:33;4.11;78;18.90;0;0.00
2022-03-20 20:00:30;4.11;78;18.70;0;0.00
2022-03-20 20:05:32;4.11;78;18.50;0;0.00
2022-03-20 20:10:34;4.11;78;18.40;0;0.00
2022-03-20 20:15:31;4.11;78;18.30;0;0.00
2022-03-20 20:20:33;4.11;78;18.40;0;0.00
2022-03-20 20:25:30;4.10;78;18.30;0;0.00
2022-03-20 20:30:32;4.11;78;18.30;0;0.00
2022-03-20 20:35:30;4.11;77;18.30;0;0.00
2022-03-20 20:40:31;4.10;77;18.30;0;0.00
2022-03-20 20:45:33;4.10;78;18.10;0;0.00
2022-03-20 20:50:30;4.11;79;17.80;0;0.00
2022-03-20 20:55:32;4.10;79;17.80;0;0.00
2022-03-20 21:00:34;4.10;79;17.60;0;0.00
2022-03-20 21:05:31;4.10;79;17.30;0;0.00
2022-03-20 21:10:33;4.10;79;17.10;0;0.00
2022-03-20 21:15:34;4.10;79;17.00;0;0.00
2022-03-20 21:20:31;4.10;79;16.80;0;0.00
2022-03-20 21:25:33;4.10;79;16.80;0;0.00
2022-03-20 21:30:35;4.10;79;16.70;0;0.00
2022-03-20 21:35:32;4.09;79;16.50;0;0.00
2022-03-20 21:40:33;4.09;79;16.30;0;0.00
2022-03-20 21:45:30;4.10;78;16.20;0;0.00
2022-03-20 21:50:32;4.10;78;16.30;0;0.00
2022-03-20 21:55:33;4.10;78;16.30;0;0.00
2022-03-20 22:00:30;4.09;78;16.30;0;0.00
2022-03-20 22:05:32;4.10;78;16.30;0;0.00
2022-03-20 22:10:33;4.09;78;16.30;0;0.00
2022-03-20 22:15:30;4.09;78;16.30;0;0.00
2022-03-20 22:20:32;4.09;78;16.30;0;0.00
2022-03-20 22:25:33;4.09;78;16.40;0;0.00
2022-03-20 22:30:30;4.09;78;16.30;0;0.00
2022-03-20 22:35:32;4.09;78;16.30;0;0.00
2022-03-20 22:40:33;4.09;78;16.30;0;0.00
2022-03-20 22:45:30;4.09;77;16.70;0;1.20
2022-03-20 22:50:32;4.09;77;16.70;0;0.00
2022-03-20 22:55:33;4.09;77;16.70;0;0.00
2022-03-20 23:00:30;4.09;77;16.70;0;0.00
2022-03-20 23:05:32;4.09;77;16.70;0;0.00
2022-03-20 23:10:33;4.09;77;16.70;0;0.00
2022-03-20 23:15:30;4.09;78;16.60;0;1.50
2022-03-20 23:20:32;4.09;77;16.60;0;0.00
2022-03-20 23:25:34;4.09;78;16.50;0;0.00
2022-03-20 23:30:30;4.09;78;16.50;0;0.00
2022-03-20 23:35:32;4.09;78;16.40;0;0.00
2022-03-20 23:40:34;4.09;78;16.30;0;0.00
2022-03-20 23:45:31;4.09;78;16.40;0;0.00
2022-03-20 23:50:32;4.09;78;16.40;0;0.00
2022-03-20 23:55:34;4.09;78;16.30;0;0.00
