2023-01-10 00:00:35;4.23;65;22.90;0;0.00
2023-01-10 00:05:33;4.23;60;24.80;0;0.00
2023-01-10 00:10:35;4.23;60;24.90;0;0.00
2023-01-10 00:15:33;4.23;62;24.30;0;0.00
2023-01-10 00:20:35;4.23;62;24.20;0;0.00
2023-01-10 00:25:33;4.23;64;23.80;0;0.00
2023-01-10 00:30:35;4.23;65;23.20;0;0.00
2023-01-10 00:35:33;4.23;65;23.40;0;0.00
2023-01-10 00:40:35;4.22;64;23.70;0;0.00
2023-01-10 00:45:33;4.23;64;23.60;0;0.00
2023-01-10 00:50:35;4.23;65;23.50;0;0.00
2023-01-10 00:55:33;4.22;65;23.60;0;0.00
2023-01-10 01:00:35;4.22;66;23.30;0;0.00
2023-01-10 01:05:33;4.22;67;23.10;0;0.00
2023-01-10 01:10:35;4.22;67;23.10;0;0.00
2023-01-10 01:15:33;4.22;67;23.10;0;0.00
2023-01-10 01:20:35;4.22;68;23.00;0;0.00
2023-01-10 01:25:32;4.22;67;23.40;0;0.00
2023-01-10 01:30:35;4.22;66;23.90;0;0.00
2023-01-10 01:35:32;4.22;65;24.10;0;0.00
2023-01-10 01:40:35;4.22;67;23.40;0;0.00
2023-01-10 01:45:32;4.22;69;22.60;0;0.00
2023-01-10 01:50:34;4.22;70;22.20;0;0.00
2023-01-10 01:55:32;4.22;70;22.30;0;0.00
2023-01-10 02:00:34;4.22;70;22.50;0;0.00
2023-01-10 02:05:32;4.22;70;22.40;0;0.00
2023-01-10 02:10:34;4.22;69;22.70;0;0.00
2023-01-10 02:15:32;4.22;70;22.50;0;0.00
2023-01-10 02:20:34;4.22;71;22.30;0;0.00
2023-01-10 02:25:31;4.22;70;22.60;0;0.00
2023-01-10 02:30:34;4.22;70;22.40;0;0.00
2023-01-10 02:35:31;4.22;73;21.40;0;0.00
2023-01-10 02:40:33;4.22;75;20.90;0;0.00
2023-01-10 02:45:31;4.22;71;21.90;0;0.00
2023-01-10 02:50:33;4.22;70;22.40;0;0.00
2023-01-10 02:55:35;4.22;70;22.60;0;0.00
2023-01-10 03:00:33;4.22;70;22.50;0;0.00
2023-01-10 03:05:35;4.22;71;22.30;0;0.00
2023-01-10 03:10:32;4.22;73;21.40;0;0.00
2023-01-10 03:15:35;4.22;72;21.60;0;0.00
2023-01-10 03:20:32;4.22;70;22.40;0;0.00
2023-01-10 03:25:34;4.22;71;22.30;0;0.00
2023-01-10 03:30:32;4.22;73;21.60;0;0.00
2023-01-10 03:35:34;4.22;74;20.80;0;0.00
2023-01-10 03:40:32;4.22;73;21.50;0;0.00
2023-01-10 03:45:34;4.22;72;21.70;0;0.00
2023-01-10 03:50:31;4.22;72;21.60;0;0.00
2023-01-10 03:55:33;4.22;72;21.70;0;0.00
2023-01-10 04:00:31;4.22;73;21.20;0;0.00
2023-01-10 04:05:33;4.22;74;20.70;0;0.00
2023-01-10 04:10:35;4.22;75;20.30;0;0.00
2023-01-10 04:15:32;4.21;75;20.30;0;0.00
2023-01-10 04:20:34;4.21;75;20.30;0;0.00
2023-01-10 04:25:32;4.21;73;21.20;0;0.00
2023-01-10 04:30:34;4.21;72;21.60;0;0.00
2023-01-10 04:35:31;4.21;73;21.30;0;0.00
2023-01-10 04:40:33;4.21;70;22.60;0;0.00
2023-01-10 04:45:31;4.21;73;21.50;0;0.00
2023-01-10 04:50:33;4.21;72;21.80;0;0.00
2023-01-10 04:55:35;4.21;72;22.00;0;0.00
2023-01-10 05:00:32;4.21;73;21.30;0;0.00
2023-01-10 05:05:34;4.21;73;21.20;0;0.00
2023-01-10 05:10:32;4.21;74;21.10;0;0.00
2023-01-10 05:15:34;4.21;73;21.40;0;0.00
2023-01-10 05:20:31;4.21;73;21.50;0;0.00
2023-01-10 05:25:33;4.21;74;21.00;0;0.00
2023-01-10 05:30:31;4.21;75;20.40;0;0.00
2023-01-10 05:35:33;4.21;75;19.60;0;0.00
2023-01-10 05:40:35;4.21;74;19.80;0;0.00
2023-01-10 05:45:32;4.21;74;20.00;0;0.00
2023-01-10 05:50:34;4.21;74;20.20;0;0.00
2023-01-10 05:55:32;4.21;74;19.90;0;0.00
2023-01-10 06:00:34;4.21;73;19.20;0;0.00
2023-01-10 06:05:31;4.21;71;19.20;0;0.00
2023-01-10 06:10:33;4.21;72;19.90;0;0.00
2023-01-10 06:15:35;4.21;72;20.30;0;0.00
2023-01-10 06:20:32;4.21;72;20.20;0;0.00
2023-01-10 06:25:34;4.21;72;20.00;0;0.00
2023-01-10 06:30:31;4.21;72;19.70;0;0.00
2023-01-10 06:35:33;4.21;71;19.60;0;0.00
2023-01-10 06:40:30;4.20;71;20.00;0;0.00
2023-01-10 06:45:32;4.20;70;19.70;0;0.00
2023-01-10 06:50:34;4.21;70;20.00;0;0.00
2023-01-10 06:55:31;4.21;70;20.20;0;0.00
2023-01-10 07:00:33;4.21;71;20.80;0;0.00
2023-01-10 07:05:31;4.21;70;21.50;0;0.00
2023-01-10 07:10:33;4.21;70;22.40;0;0.00
2023-01-10 07:15:35;4.21;69;23.50;0;0.00
2023-01-10 07:20:32;4.21;69;23.50;0;0.00
2023-01-10 07:25:34;4.21;69;24.00;0;0.00
2023-01-10 07:30:32;4.21;69;24.20;0;0.00
2023-01-10 07:35:34;4.21;69;24.30;0;0.00
2023-01-10 07:40:32;4.21;69;24.30;0;0.00
2023-01-10 07:45:35;4.22;68;24.80;0;0.00
2023-01-10 07:50:33;4.22;67;24.90;0;0.00
2023-01-10 07:55:35;4.22;66;25.50;0;0.00
2023-01-10 08:00:33;4.22;65;25.80;0;0.00
2023-01-10 08:05:31;4.21;65;26.30;0;0.00
2023-01-10 08:10:34;4.21;65;26.50;0;0.00
2023-01-10 08:15:32;4.22;64;26.60;0;1.50
2023-01-10 08:20:35;4.22;64;26.80;0;1.60
2023-01-10 08:25:34;4.22;62;27.40;0;1.70
2023-01-10 08:30:32;4.22;62;27.70;0;1.50
2023-01-10 08:35:35;4.22;61;28.20;0;1.20
2023-01-10 08:40:34;4.22;60;28.60;0;1.80
2023-01-10 08:45:32;4.22;60;28.80;0;1.50
2023-01-10 08:50:36;4.22;60;29.00;0;0.00
2023-01-10 08:55:34;4.22;59;29.30;0;0.00
2023-01-10 09:00:33;4.22;58;29.60;0;0.00
2023-01-10 09:05:32;4.22;58;29.60;0;0.00
2023-01-10 09:10:35;4.22;57;30.70;0;0.00
2023-01-10 09:15:34;4.23;57;30.90;0;0.00
2023-01-10 09:20:33;4.23;54;31.60;0;0.00
2023-01-10 09:25:32;4.23;55;31.90;0;0.00
2023-01-10 09:30:36;4.22;57;32.00;0;0.00
2023-01-10 09:35:35;4.23;55;32.50;0;0.00
2023-01-10 09:40:35;4.23;51;33.10;0;1.50
2023-01-10 09:45:34;4.23;53;33.10;0;0.00
2023-01-10 09:50:34;4.23;50;33.70;0;0.00
2023-01-10 09:55:33;4.23;50;34.30;0;0.00
2023-01-10 10:00:37;4.23;49;34.60;0;1.60
2023-01-10 10:05:32;4.23;49;34.50;0;1.70
2023-01-10 10:10:37;4.23;49;34.90;0;0.00
2023-01-10 10:15:36;4.23;48;35.20;0;1.40
2023-01-10 10:20:36;4.23;47;35.70;0;0.00
2023-01-10 10:25:36;4.23;47;35.70;0;2.19
2023-01-10 10:30:36;4.23;46;35.80;0;1.90
2023-01-10 10:35:36;4.23;46;35.70;0;0.00
2023-01-10 10:40:36;4.23;46;36.00;0;1.80
2023-01-10 10:45:36;4.23;46;36.20;0;0.00
2023-01-10 10:50:36;4.23;46;36.80;0;0.00
2023-01-10 10:55:36;4.23;46;36.20;0;0.00
2023-01-10 11:00:36;4.23;45;36.20;0;1.30
2023-01-10 11:05:36;4.23;46;36.60;0;0.00
2023-01-10 11:10:36;4.23;44;36.80;0;2.69
2023-01-10 11:15:37;4.24;45;36.60;0;0.00
2023-01-10 11:20:37;4.23;45;37.30;0;1.70
2023-01-10 11:25:37;4.23;44;36.90;0;1.10
2023-01-10 11:30:33;4.24;43;37.30;0;0.00
2023-01-10 11:35:38;4.24;43;37.60;0;0.00
2023-01-10 11:40:34;4.24;42;37.90;0;1.60
2023-01-10 11:45:34;4.23;40;37.90;0;0.00
2023-01-10 11:50:35;4.23;42;37.80;0;3.08
2023-01-10 11:55:35;4.23;41;37.60;0;1.80
2023-01-10 12:00:36;4.24;42;37.70;0;2.00
2023-01-10 12:05:37;4.24;43;38.10;0;2.00
2023-01-10 12:10:37;4.24;43;38.50;0;0.00
2023-01-10 12:15:33;4.24;40;38.40;0;0.00
2023-01-10 12:20:34;4.24;42;38.30;0;0.00
2023-01-10 12:25:35;4.23;40;38.30;0;0.00
2023-01-10 12:30:36;4.24;41;38.50;0;0.00
2023-01-10 12:35:36;4.23;40;39.40;0;0.00
2023-01-10 12:40:37;4.23;38;39.00;0;0.00
2023-01-10 12:45:34;4.24;40;38.00;0;0.00
2023-01-10 12:50:34;4.24;41;38.00;0;0.00
2023-01-10 12:55:35;4.24;39;38.70;0;0.00
2023-01-10 13:00:36;4.24;41;37.80;0;0.00
2023-01-10 13:05:37;4.24;40;39.00;0;0.00
2023-01-10 13:10:38;4.24;39;38.50;0;0.00
2023-01-10 13:15:34;4.24;38;39.10;0;1.50
2023-01-10 13:20:35;4.24;39;39.80;0;0.00
2023-01-10 13:25:36;4.24;38;39.50;0;0.00
2023-01-10 13:30:37;4.24;38;39.10;0;0.00
2023-01-10 13:35:38;4.24;40;38.90;0;1.30
2023-01-10 13:40:34;4.24;40;37.90;0;0.00
2023-01-10 13:45:35;4.24;40;38.10;0;0.00
2023-01-10 13:50:36;4.24;42;37.90;0;0.00
2023-01-10 13:55:37;4.24;40;37.20;0;0.00
2023-01-10 14:00:37;4.24;40;37.40;0;0.00
2023-01-10 14:05:33;4.24;40;38.80;0;0.00
2023-01-10 14:10:38;4.24;38;39.20;0;0.00
2023-01-10 14:15:34;4.24;38;39.30;0;0.00
2023-01-10 14:20:35;4.24;38;39.70;0;0.00
2023-01-10 14:25:36;4.24;37;39.60;0;0.00
2023-01-10 14:30:37;4.24;38;39.20;0;0.00
2023-01-10 14:35:38;4.24;37;40.40;0;0.00
2023-01-10 14:40:34;4.24;37;40.50;0;0.00
2023-01-10 14:45:36;4.24;37;40.50;0;0.00
2023-01-10 14:50:37;4.24;39;39.90;0;0.00
2023-01-10 14:55:38;4.24;38;39.00;0;1.90
2023-01-10 15:00:35;4.25;39;38.00;0;0.00
2023-01-10 15:05:36;4.25;39;38.30;0;0.00
2023-01-10 15:10:36;4.25;39;39.80;0;0.00
2023-01-10 15:15:37;4.24;38;39.20;0;0.00
2023-01-10 15:20:34;4.25;37;40.10;0;0.00
2023-01-10 15:25:35;4.24;37;40.00;0;0.00
2023-01-10 15:30:36;4.24;36;40.10;0;0.00
2023-01-10 15:35:37;4.24;36;40.90;0;0.00
2023-01-10 15:40:38;4.24;38;38.90;0;0.00
2023-01-10 15:45:34;4.25;38;38.30;0;0.00
2023-01-10 15:50:35;4.25;41;37.90;0;0.00
2023-01-10 15:55:36;4.25;39;37.80;0;0.00
2023-01-10 16:00:37;4.25;38;39.30;0;0.00
2023-01-10 16:05:38;4.24;38;39.50;0;0.00
2023-01-10 16:10:34;4.25;37;39.80;0;0.00
2023-01-10 16:15:34;4.24;37;39.90;0;0.00
2023-01-10 16:20:35;4.25;36;40.50;0;0.00
2023-01-10 16:25:36;4.25;37;40.80;0;0.00
2023-01-10 16:30:37;4.25;37;40.60;0;0.00
2023-01-10 16:35:34;4.25;37;40.30;0;0.00
2023-01-10 16:40:35;4.25;37;40.80;0;0.00
2023-01-10 16:45:36;4.25;37;40.60;0;0.00
2023-01-10 16:50:37;4.25;36;40.80;0;0.00
2023-01-10 16:55:38;4.25;36;40.50;0;0.00
2023-01-10 17:00:34;4.25;36;39.90;0;0.00
2023-01-10 17:05:35;4.25;36;40.30;0;0.00
2023-01-10 17:10:36;4.25;37;40.50;0;0.00
2023-01-10 17:15:37;4.25;36;40.90;0;0.00
2023-01-10 17:20:34;4.25;35;41.30;0;0.00
2023-01-10 17:25:35;4.25;36;40.00;0;0.00
2023-01-10 17:30:36;4.25;37;40.00;0;0.00
2023-01-10 17:35:37;4.25;38;39.80;0;0.00
2023-01-10 17:40:38;4.25;38;40.20;0;0.00
2023-01-10 17:45:34;4.25;37;40.30;0;0.00
2023-01-10 17:50:35;4.25;37;39.70;0;0.00
2023-01-10 17:55:36;4.25;38;39.40;0;0.00
2023-01-10 18:00:37;4.25;39;39.20;0;0.00
2023-01-10 18:05:38;4.25;38;39.30;0;0.00
2023-01-10 18:10:34;4.25;39;39.00;0;0.00
2023-01-10 18:15:34;4.25;38;39.00;0;0.00
2023-01-10 18:20:35;4.25;39;38.90;0;0.00
2023-01-10 18:25:35;4.25;39;38.60;0;0.00
2023-01-10 18:30:36;4.25;39;38.60;0;0.00
2023-01-10 18:35:36;4.25;39;38.70;0;0.00
2023-01-10 18:40:37;4.25;39;38.40;0;0.00
2023-01-10 18:45:37;4.25;39;38.40;0;0.00
2023-01-10 18:50:33;4.25;39;38.30;0;0.00
2023-01-10 18:55:38;4.25;40;38.40;0;0.00
2023-01-10 19:00:34;4.25;40;38.10;0;0.00
2023-01-10 19:05:34;4.25;40;37.90;0;0.00
2023-01-10 19:10:34;4.25;41;37.60;0;0.00
2023-01-10 19:15:34;4.25;42;37.30;0;0.00
2023-01-10 19:20:35;4.25;42;37.00;0;0.00
2023-01-10 19:25:35;4.25;42;36.70;0;0.00
2023-01-10 19:30:35;4.25;43;36.40;0;0.00
2023-01-10 19:35:35;4.25;43;35.80;0;0.00
2023-01-10 19:40:34;4.25;45;35.40;0;0.00
2023-01-10 19:45:34;4.25;44;35.30;0;0.00
2023-01-10 19:50:34;4.25;45;35.00;0;0.00
2023-01-10 19:55:34;4.25;44;34.80;0;0.00
2023-01-10 20:00:33;4.25;44;34.60;0;0.00
2023-01-10 20:05:33;4.25;45;34.30;0;0.00
2023-01-10 20:10:37;4.25;44;34.20;0;0.00
2023-01-10 20:15:36;4.25;45;33.90;0;0.00
2023-01-10 20:20:36;4.25;46;33.60;0;0.00
2023-01-10 20:25:35;4.25;47;33.10;0;0.00
2023-01-10 20:30:34;4.25;48;32.60;0;0.00
2023-01-10 20:35:34;4.25;47;32.60;0;0.00
2023-01-10 20:40:33;4.25;47;32.50;0;0.00
2023-01-10 20:45:37;4.25;48;32.40;0;0.00
2023-01-10 20:50:36;4.25;48;32.40;0;0.00
2023-01-10 20:55:35;4.25;49;31.90;0;0.00
2023-01-10 21:00:34;4.25;49;31.40;0;0.00
2023-01-10 21:05:33;4.25;50;31.00;0;0.00
2023-01-10 21:10:37;4.25;52;30.10;0;0.00
2023-01-10 21:15:35;4.25;52;29.90;0;0.00
2023-01-10 21:20:34;4.25;53;29.50;0;0.00
2023-01-10 21:25:33;4.24;55;28.80;0;0.00
2023-01-10 21:30:36;4.24;56;28.40;0;0.00
2023-01-10 21:35:35;4.24;55;29.10;0;0.00
2023-01-10 21:40:34;4.24;56;28.70;0;0.00
2023-01-10 21:45:32;4.24;55;28.70;0;0.00
2023-01-10 21:50:35;4.24;56;28.50;0;0.00
2023-01-10 21:55:34;4.24;57;27.80;0;0.00
2023-01-10 22:00:32;4.24;57;27.80;0;0.00
2023-01-10 22:05:35;4.24;55;28.60;0;0.00
2023-01-10 22:10:34;4.24;55;28.50;0;0.00
2023-01-10 22:15:32;4.24;57;27.90;0;0.00
2023-01-10 22:20:35;4.24;61;26.80;0;0.00
2023-01-10 22:25:34;4.24;59;27.40;0;0.00
2023-01-10 22:30:32;4.24;58;27.80;0;0.00
2023-01-10 22:35:35;4.24;60;27.00;0;0.00
2023-01-10 22:40:33;4.24;59;27.60;0;0.00
2023-01-10 22:45:32;4.24;59;27.40;0;0.00
2023-01-10 22:50:34;4.24;59;27.50;0;0.00
2023-01-10 22:55:33;4.24;60;27.30;0;0.00
2023-01-10 23:00:36;4.24;62;26.80;0;0.00
2023-01-10 23:05:34;4.24;63;26.20;0;0.00
2023-01-10 23:10:32;4.24;63;26.10;0;0.00
2023-01-10 23:15:35;4.24;63;26.00;0;0.00
2023-01-10 23:20:33;4.24;64;25.70;0;0.00
2023-01-10 23:25:36;4.24;65;25.70;0;0.00
2023-01-10 23:30:34;4.23;64;25.60;0;0.00
2023-01-10 23:35:32;4.24;63;26.20;0;0.00
2023-01-10 23:40:35;4.23;62;26.30;0;0.00
2023-01-10 23:45:33;4.23;63;26.00;0;0.00
2023-01-10 23:50:35;4.23;64;25.70;0;0.00
2023-01-10 23:55:34;4.23;63;25.90;0;0.00
