2021-10-08 00:03:43;1;121;121;121;121;121;121;121;121;121;121;
2021-10-08 00:03:43;2;123;123;123;123;123;123;122;123;123;123;
2021-10-08 00:03:43;3;25;25;25;25;25;25;25;25;25;25;
2021-10-08 00:03:43;4;120;120;120;120;120;120;120;120;120;120;
2021-10-08 00:03:43;5;120;120;120;120;120;120;120;120;120;120;
2021-10-08 00:03:43;ht;99;9.80
2021-10-08 00:03:43;v;3.76
2021-10-08 00:33:44;1;123;123;123;123;123;123;123;122;123;123;
2021-10-08 00:33:44;2;2;2;1;1;2;2;1;1;1;1;
2021-10-08 00:33:44;3;24;25;24;25;24;25;25;25;25;25;
2021-10-08 00:33:44;4;120;120;120;120;120;120;120;120;120;120;
2021-10-08 00:33:44;5;120;120;121;120;121;121;121;121;121;121;
2021-10-08 00:33:44;ht;99;8.90
2021-10-08 00:33:44;v;3.76
2021-10-08 01:03:40;1;119;119;119;119;119;119;119;119;119;119;
2021-10-08 01:03:40;2;1;1;2;2;1;2;1;1;1;1;
2021-10-08 01:03:40;3;25;25;25;25;24;25;25;25;25;24;
2021-10-08 01:03:40;4;122;122;123;122;123;122;123;122;123;123;
2021-10-08 01:03:40;5;119;119;119;119;119;119;119;119;119;119;
2021-10-08 01:03:40;ht;99;8.40
2021-10-08 01:03:40;v;3.75
2021-10-08 01:33:40;1;124;124;124;124;124;124;124;124;124;124;
2021-10-08 01:33:40;2;123;123;123;123;123;123;123;123;123;123;
2021-10-08 01:33:40;3;24;24;24;24;24;24;24;24;24;24;
2021-10-08 01:33:40;4;121;121;121;121;121;121;121;121;121;121;
2021-10-08 01:33:40;5;116;116;116;116;116;116;116;116;116;116;
2021-10-08 01:33:40;ht;99;9.60
2021-10-08 01:33:40;v;3.75
2021-10-08 02:03:41;1;115;115;114;115;115;115;115;115;115;115;
2021-10-08 02:03:41;2;119;119;119;119;119;119;119;119;119;119;
2021-10-08 02:03:41;3;26;25;25;26;26;26;25;26;26;26;
2021-10-08 02:03:41;4;121;121;121;121;121;121;121;121;121;121;
2021-10-08 02:03:41;5;120;120;120;120;120;120;120;120;120;120;
2021-10-08 02:03:41;ht;99;10.10
2021-10-08 02:03:41;v;3.76
2021-10-08 02:33:43;1;105;105;104;105;104;104;104;105;105;105;
2021-10-08 02:33:43;2;2;1;2;2;2;1;2;2;2;1;
2021-10-08 02:33:43;3;25;25;25;25;25;26;25;25;25;25;
2021-10-08 02:33:43;4;120;120;120;120;120;120;120;120;120;120;
2021-10-08 02:33:43;5;111;111;111;111;111;111;111;111;111;112;
2021-10-08 02:33:43;ht;99;10.70
2021-10-08 02:33:43;v;3.75
2021-10-08 03:03:45;1;112;113;113;113;113;113;113;113;113;113;
2021-10-08 03:03:45;2;129;129;129;129;129;128;129;129;129;129;
2021-10-08 03:03:45;3;27;27;27;27;27;27;27;27;27;27;
2021-10-08 03:03:45;4;119;119;119;119;119;119;119;119;119;119;
2021-10-08 03:03:45;5;109;109;109;108;108;108;108;108;108;108;
2021-10-08 03:03:45;ht;99;11.80
2021-10-08 03:03:45;v;3.75
2021-10-08 03:33:43;1;113;112;112;112;112;112;112;112;112;112;
2021-10-08 03:33:43;2;124;124;124;125;124;124;125;124;125;124;
2021-10-08 03:33:43;3;26;26;26;27;27;27;27;27;27;27;
2021-10-08 03:33:43;4;120;120;120;120;120;120;120;120;120;120;
2021-10-08 03:33:43;5;2;2;2;2;2;2;2;2;1;2;
2021-10-08 03:33:43;ht;99;11.80
2021-10-08 03:33:43;v;3.76
2021-10-08 04:03:45;1;117;117;117;117;117;117;117;117;117;117;
2021-10-08 04:03:45;2;121;121;121;121;121;121;121;121;121;121;
2021-10-08 04:03:45;3;26;26;26;26;26;26;26;26;26;26;
2021-10-08 04:03:45;4;129;129;129;129;129;129;129;129;129;129;
2021-10-08 04:03:45;5;123;123;123;123;123;123;123;123;123;123;
2021-10-08 04:03:45;ht;99;11.30
2021-10-08 04:03:45;v;3.75
2021-10-08 04:33:43;1;116;116;116;116;116;116;116;116;116;116;
2021-10-08 04:33:43;2;122;122;122;122;122;122;122;122;121;122;
2021-10-08 04:33:43;3;26;26;26;26;26;26;26;26;26;26;
2021-10-08 04:33:43;4;126;127;127;127;127;127;127;127;127;127;
2021-10-08 04:33:43;5;109;109;109;109;109;109;109;109;109;109;
2021-10-08 04:33:43;ht;99;11.50
2021-10-08 04:33:43;v;3.75
2021-10-08 05:03:41;1;126;125;125;125;126;125;126;125;125;125;
2021-10-08 05:03:41;2;123;123;123;123;123;123;122;122;123;122;
2021-10-08 05:03:41;3;27;26;26;26;26;26;26;27;27;26;
2021-10-08 05:03:41;4;123;124;124;125;125;125;125;125;126;126;
2021-10-08 05:03:41;5;108;108;108;108;108;108;108;108;108;108;
2021-10-08 05:03:41;ht;99;11.60
2021-10-08 05:03:41;v;3.75
2021-10-08 05:33:44;1;113;113;113;113;113;113;113;113;113;113;
2021-10-08 05:33:44;2;118;118;118;118;117;117;117;117;117;117;
2021-10-08 05:33:44;3;27;27;26;27;27;27;26;26;26;27;
2021-10-08 05:33:44;4;126;126;126;126;126;126;126;126;126;127;
2021-10-08 05:33:44;5;108;107;108;108;108;108;108;108;108;108;
2021-10-08 05:33:44;ht;99;11.80
2021-10-08 05:33:44;v;3.76
2021-10-08 06:03:42;1;102;102;102;102;102;102;102;102;102;102;
2021-10-08 06:03:42;2;120;120;120;120;120;120;120;120;120;120;
2021-10-08 06:03:42;3;26;26;26;26;26;26;26;26;26;26;
2021-10-08 06:03:42;4;122;122;122;122;122;123;122;122;122;122;
2021-10-08 06:03:42;5;110;110;110;110;110;110;110;110;110;110;
2021-10-08 06:03:42;ht;99;11.80
2021-10-08 06:03:42;v;3.75
2021-10-08 06:33:45;1;100;99;100;99;100;99;100;100;99;100;
2021-10-08 06:33:45;2;118;118;118;118;118;118;118;117;118;118;
2021-10-08 06:33:45;3;26;26;27;26;26;26;26;26;26;26;
2021-10-08 06:33:45;4;121;122;121;121;121;121;121;121;121;121;
2021-10-08 06:33:45;5;1;1;1;1;1;1;1;1;1;1;
2021-10-08 06:33:45;ht;99;11.70
2021-10-08 06:33:45;v;3.75
2021-10-08 07:03:43;1;104;104;105;104;103;104;103;103;103;103;
2021-10-08 07:03:43;2;136;136;136;136;136;136;136;136;136;136;
2021-10-08 07:03:43;3;27;27;26;27;27;27;27;27;27;27;
2021-10-08 07:03:43;4;119;119;119;119;119;119;119;119;119;119;
2021-10-08 07:03:43;5;118;118;118;118;118;118;118;118;118;118;
2021-10-08 07:03:43;ht;99;11.80
2021-10-08 07:03:43;v;3.76
2021-10-08 07:33:42;1;103;104;103;103;103;103;103;104;103;103;
2021-10-08 07:33:42;2;2;1;2;1;2;1;2;2;1;1;
2021-10-08 07:33:42;3;26;26;27;26;26;26;26;26;26;26;
2021-10-08 07:33:42;4;132;132;132;132;132;132;132;132;132;132;
2021-10-08 07:33:42;5;1;1;1;1;1;1;1;1;1;1;
2021-10-08 07:33:42;ht;99;12.30
2021-10-08 07:33:42;v;3.75
2021-10-08 08:03:45;1;104;103;103;103;104;103;103;103;103;103;
2021-10-08 08:03:45;2;114;114;114;114;114;113;114;114;114;113;
2021-10-08 08:03:45;3;28;28;28;28;28;28;28;28;28;28;
2021-10-08 08:03:45;4;114;114;114;114;114;114;114;114;114;114;
2021-10-08 08:03:45;5;98;98;98;98;98;98;98;98;98;98;
2021-10-08 08:03:45;ht;99;12.90
2021-10-08 08:03:45;v;3.75
2021-10-08 08:33:44;1;110;110;110;110;110;110;110;110;110;110;
2021-10-08 08:33:44;2;115;115;115;115;115;115;115;115;115;115;
2021-10-08 08:33:44;3;41;41;41;41;41;41;41;41;41;41;
2021-10-08 08:33:44;4;128;127;128;128;128;128;128;128;128;128;
2021-10-08 08:33:44;5;108;108;107;107;107;107;107;107;107;107;
2021-10-08 08:33:44;ht;99;13.70
2021-10-08 08:33:44;v;3.75
2021-10-08 09:03:44;1;110;110;110;110;110;110;110;110;110;110;
2021-10-08 09:03:44;2;118;118;118;118;117;118;118;118;118;118;
2021-10-08 09:03:44;3;30;30;29;30;30;30;30;29;30;30;
2021-10-08 09:03:44;4;119;119;119;119;119;119;119;119;119;119;
2021-10-08 09:03:44;5;100;100;101;100;100;101;101;100;100;100;
2021-10-08 09:03:44;ht;99;14.10
2021-10-08 09:03:44;v;3.76
2021-10-08 09:33:44;1;103;103;103;103;103;102;102;103;102;103;
2021-10-08 09:33:44;2;117;116;117;117;117;117;117;117;117;117;
2021-10-08 09:33:44;3;27;26;27;26;27;27;27;27;27;26;
2021-10-08 09:33:44;4;119;119;119;119;119;119;119;119;119;119;
2021-10-08 09:33:44;5;110;110;110;110;110;110;110;110;110;110;
2021-10-08 09:33:44;ht;99;14.80
2021-10-08 09:33:44;v;3.75
2021-10-08 10:03:45;1;103;103;103;103;103;103;103;103;103;103;
2021-10-08 10:03:45;2;116;116;116;115;116;116;116;116;116;116;
2021-10-08 10:03:45;3;93;93;93;93;93;93;93;93;93;93;
2021-10-08 10:03:45;4;120;120;120;120;120;120;120;120;120;120;
2021-10-08 10:03:45;5;108;108;108;108;108;108;108;108;108;108;
2021-10-08 10:03:45;ht;99;15.70
2021-10-08 10:03:45;v;3.75
2021-10-08 10:33:46;1;102;102;102;102;102;102;102;102;102;102;
2021-10-08 10:33:46;2;116;116;116;117;116;116;117;116;117;116;
2021-10-08 10:33:46;3;92;92;92;92;92;92;92;92;92;92;
2021-10-08 10:33:46;4;124;124;124;124;124;124;124;124;124;125;
2021-10-08 10:33:46;5;109;109;109;109;109;109;109;109;109;109;
2021-10-08 10:33:46;ht;99;16.40
2021-10-08 10:33:46;v;3.76
2021-10-08 11:03:48;1;112;112;112;112;112;112;112;112;112;112;
2021-10-08 11:03:48;2;118;118;118;118;118;118;118;118;118;118;
2021-10-08 11:03:48;3;34;34;34;34;34;33;34;34;34;34;
2021-10-08 11:03:48;4;121;121;121;121;121;121;122;121;121;121;
2021-10-08 11:03:48;5;107;107;107;107;107;107;107;107;107;107;
2021-10-08 11:03:48;ht;99;16.40
2021-10-08 11:03:48;v;3.75
2021-10-08 11:33:45;1;109;109;109;108;108;109;108;108;109;109;
2021-10-08 11:33:45;2;118;118;118;118;118;118;118;118;118;118;
2021-10-08 11:33:45;3;33;33;34;34;33;34;34;33;33;33;
2021-10-08 11:33:45;4;122;122;122;122;122;122;123;122;122;123;
2021-10-08 11:33:45;5;98;98;98;98;98;98;98;98;98;98;
2021-10-08 11:33:45;ht;99;16.90
2021-10-08 11:33:45;v;3.75
2021-10-08 12:03:48;1;99;98;99;98;99;99;99;98;98;98;
2021-10-08 12:03:48;2;113;113;113;113;113;114;113;113;113;113;
2021-10-08 12:03:48;3;93;93;93;93;93;93;93;93;93;93;
2021-10-08 12:03:48;4;118;118;118;118;118;118;118;118;118;118;
2021-10-08 12:03:48;5;115;115;115;115;115;115;115;115;115;115;
2021-10-08 12:03:48;ht;99;18.20
2021-10-08 12:03:48;v;3.75
2021-10-08 12:33:47;1;116;116;116;116;116;116;116;116;116;116;
2021-10-08 12:33:47;2;116;116;116;116;116;116;116;116;116;115;
2021-10-08 12:33:47;3;90;90;90;90;90;90;90;90;90;90;
2021-10-08 12:33:47;4;120;120;120;120;120;120;120;120;120;120;
2021-10-08 12:33:47;5;96;95;96;96;96;96;96;96;96;96;
2021-10-08 12:33:47;ht;99;19.00
2021-10-08 12:33:47;v;3.76
2021-10-08 13:03:47;1;117;117;117;117;117;117;116;117;117;117;
2021-10-08 13:03:47;2;117;117;117;117;117;117;117;117;117;117;
2021-10-08 13:03:47;3;25;25;25;25;25;25;25;25;25;25;
2021-10-08 13:03:47;4;113;113;112;113;113;113;113;113;113;113;
2021-10-08 13:03:47;5;97;97;97;97;97;97;97;97;97;97;
2021-10-08 13:03:47;ht;98;20.40
2021-10-08 13:03:47;v;3.75
2021-10-08 13:33:52;1;99;99;99;98;99;98;98;98;99;99;
2021-10-08 13:33:52;2;118;118;118;118;118;118;118;118;118;118;
2021-10-08 13:33:52;3;27;27;27;27;27;27;27;27;26;27;
2021-10-08 13:33:52;4;119;119;119;119;119;119;119;119;119;119;
2021-10-08 13:33:52;5;1;1;1;1;1;1;1;1;1;1;
2021-10-08 13:33:52;ht;95;20.70
2021-10-08 13:33:52;v;3.75
2021-10-08 14:03:49;1;115;115;115;115;115;115;115;115;115;115;
2021-10-08 14:03:49;2;122;122;122;122;122;121;122;121;121;121;
2021-10-08 14:03:49;3;25;25;24;24;25;24;25;24;25;25;
2021-10-08 14:03:49;4;125;125;125;125;125;125;125;125;125;125;
2021-10-08 14:03:49;5;2;2;2;2;2;2;2;2;2;2;
2021-10-08 14:03:49;ht;93;21.40
2021-10-08 14:03:49;v;3.76
2021-10-08 14:33:52;1;2;2;1;2;2;2;2;2;2;2;
2021-10-08 14:33:52;2;122;122;122;122;122;122;122;122;122;122;
2021-10-08 14:33:52;3;25;25;25;25;25;25;25;25;25;25;
2021-10-08 14:33:52;4;119;118;118;118;118;118;118;118;118;118;
2021-10-08 14:33:52;5;122;121;121;121;121;121;121;122;122;122;
2021-10-08 14:33:52;ht;94;21.00
2021-10-08 14:33:52;v;3.75
2021-10-08 15:03:49;1;115;115;115;115;115;115;115;115;115;115;
2021-10-08 15:03:49;2;121;120;120;120;120;120;120;121;120;120;
2021-10-08 15:03:49;3;25;25;25;25;25;25;25;25;24;25;
2021-10-08 15:03:49;4;118;118;118;118;118;118;118;118;118;118;
2021-10-08 15:03:49;5;104;104;104;104;104;104;104;104;104;104;
2021-10-08 15:03:49;ht;92;22.30
2021-10-08 15:03:49;v;3.75
2021-10-08 15:33:52;1;108;108;108;110;109;110;110;110;110;110;
2021-10-08 15:33:52;2;119;118;118;119;119;119;119;119;119;118;
2021-10-08 15:33:52;3;25;25;25;25;25;25;25;25;25;25;
2021-10-08 15:33:52;4;115;115;115;115;115;115;115;115;115;115;
2021-10-08 15:33:52;5;110;111;111;111;111;111;111;111;111;111;
2021-10-08 15:33:52;ht;90;22.10
2021-10-08 15:33:52;v;3.76
2021-10-08 16:03:50;1;2;1;2;2;2;2;2;2;2;1;
2021-10-08 16:03:50;2;120;120;120;120;120;120;120;120;120;120;
2021-10-08 16:03:50;3;25;25;25;25;25;25;25;25;25;25;
2021-10-08 16:03:50;4;108;108;108;108;108;108;108;108;109;108;
2021-10-08 16:03:50;5;101;101;101;101;101;101;101;101;101;101;
2021-10-08 16:03:50;ht;88;21.60
2021-10-08 16:03:50;v;3.75
2021-10-08 16:33:52;1;97;97;96;96;96;96;96;97;96;97;
2021-10-08 16:33:52;2;110;110;110;110;110;110;110;110;110;110;
2021-10-08 16:33:52;3;25;25;25;25;25;25;25;25;25;25;
2021-10-08 16:33:52;4;131;131;131;131;131;131;131;131;131;131;
2021-10-08 16:33:52;5;99;99;99;99;99;99;99;99;99;99;
2021-10-08 16:33:52;ht;90;21.50
2021-10-08 16:33:52;v;3.75
2021-10-08 17:03:49;1;111;111;110;111;111;111;111;111;111;111;
2021-10-08 17:03:49;2;108;108;108;108;108;108;108;108;108;108;
2021-10-08 17:03:49;3;25;25;25;25;25;25;24;25;25;25;
2021-10-08 17:03:49;4;120;120;120;120;120;120;120;119;119;119;
2021-10-08 17:03:49;5;106;106;106;106;106;106;106;106;106;106;
2021-10-08 17:03:49;ht;89;21.10
2021-10-08 17:03:49;v;3.75
2021-10-08 17:33:50;1;103;103;103;103;103;103;103;103;103;103;
2021-10-08 17:33:50;2;110;110;110;110;110;110;110;110;110;110;
2021-10-08 17:33:50;3;1;1;1;1;1;1;1;1;1;1;
2021-10-08 17:33:50;4;117;118;117;118;118;118;118;118;118;118;
2021-10-08 17:33:50;5;96;96;96;96;96;96;96;96;96;96;
2021-10-08 17:33:50;ht;89;21.30
2021-10-08 17:33:50;v;3.76
2021-10-08 18:03:50;1;110;110;110;110;110;110;110;110;110;110;
2021-10-08 18:03:50;2;108;108;108;108;108;108;108;108;107;108;
2021-10-08 18:03:50;3;87;87;87;87;87;87;87;87;87;87;
2021-10-08 18:03:50;4;115;115;115;115;115;115;115;115;115;115;
2021-10-08 18:03:50;5;105;105;105;105;105;105;105;105;105;105;
2021-10-08 18:03:50;ht;89;20.60
2021-10-08 18:03:50;v;3.75
2021-10-08 18:33:51;1;112;112;112;112;112;112;111;111;112;112;
2021-10-08 18:33:51;2;2;2;2;2;2;2;2;2;2;2;
2021-10-08 18:33:51;3;1;1;1;2;1;2;1;1;1;1;
2021-10-08 18:33:51;4;114;114;114;115;114;114;114;114;114;114;
2021-10-08 18:33:51;5;101;101;101;101;101;101;101;101;101;101;
2021-10-08 18:33:51;ht;90;20.10
2021-10-08 18:33:51;v;3.75
2021-10-08 19:03:50;1;118;118;118;118;118;118;118;118;118;118;
2021-10-08 19:03:50;2;116;116;116;116;116;116;116;116;116;116;
2021-10-08 19:03:50;3;90;90;90;90;90;90;90;90;90;90;
2021-10-08 19:03:50;4;114;114;114;114;114;114;114;115;115;114;
2021-10-08 19:03:50;5;98;98;98;98;98;98;99;98;98;99;
2021-10-08 19:03:50;ht;93;18.00
2021-10-08 19:03:50;v;3.76
2021-10-08 19:33:48;1;112;112;112;111;112;112;112;112;112;112;
2021-10-08 19:33:48;2;118;118;118;118;118;118;118;118;118;118;
2021-10-08 19:33:48;3;41;40;41;41;40;41;41;40;40;41;
2021-10-08 19:33:48;4;138;138;138;138;138;138;138;138;138;138;
2021-10-08 19:33:48;5;98;98;98;98;98;98;98;98;98;98;
2021-10-08 19:33:48;ht;97;16.80
2021-10-08 19:33:48;v;3.75
2021-10-08 20:03:46;1;121;121;121;121;121;121;121;121;121;121;
2021-10-08 20:03:46;2;138;138;138;138;138;138;138;138;138;138;
2021-10-08 20:03:46;3;137;137;137;137;137;137;137;137;137;137;
2021-10-08 20:03:46;4;138;138;138;138;138;138;138;138;138;138;
2021-10-08 20:03:46;5;120;119;119;119;119;119;119;119;119;119;
2021-10-08 20:03:46;ht;97;17.00
2021-10-08 20:03:46;v;3.75
2021-10-08 20:33:47;1;100;100;100;100;100;100;100;100;100;100;
2021-10-08 20:33:47;2;134;134;134;134;135;134;134;134;134;134;
2021-10-08 20:33:47;3;41;40;41;41;41;41;41;41;41;41;
2021-10-08 20:33:47;4;130;130;129;130;129;129;130;129;129;129;
2021-10-08 20:33:47;5;2;2;2;2;2;2;1;2;2;2;
2021-10-08 20:33:47;ht;99;16.20
2021-10-08 20:33:47;v;3.75
2021-10-08 21:03:48;1;105;104;105;105;105;104;105;105;105;105;
2021-10-08 21:03:48;2;2;2;1;2;2;2;2;1;1;1;
2021-10-08 21:03:48;3;117;117;117;117;117;117;117;117;117;117;
2021-10-08 21:03:48;4;128;128;128;128;128;128;128;128;128;128;
2021-10-08 21:03:48;5;119;119;120;119;120;120;120;120;119;120;
2021-10-08 21:03:48;ht;99;14.00
2021-10-08 21:03:48;v;3.75
2021-10-08 21:33:43;1;124;124;124;124;124;124;124;124;124;124;
2021-10-08 21:33:43;2;117;117;117;117;117;117;117;117;117;117;
2021-10-08 21:33:43;3;25;25;25;25;25;25;24;25;24;24;
2021-10-08 21:33:43;4;124;124;123;123;123;123;123;123;123;123;
2021-10-08 21:33:43;5;120;120;120;120;120;120;120;120;120;120;
2021-10-08 21:33:43;ht;99;12.50
2021-10-08 21:33:43;v;3.75
2021-10-08 22:03:42;1;117;117;117;117;117;117;117;117;117;117;
2021-10-08 22:03:42;2;126;126;125;126;125;126;126;126;126;125;
2021-10-08 22:03:42;3;26;26;26;26;26;27;26;26;26;26;
2021-10-08 22:03:42;4;123;123;123;123;123;123;123;123;123;123;
2021-10-08 22:03:42;5;116;116;116;116;116;116;116;116;116;116;
2021-10-08 22:03:42;ht;99;11.80
2021-10-08 22:03:42;v;3.74
2021-10-08 22:33:45;1;118;118;118;118;118;118;118;118;118;118;
2021-10-08 22:33:45;2;123;123;123;123;123;123;123;123;123;123;
2021-10-08 22:33:45;3;31;32;31;31;31;32;32;31;32;31;
2021-10-08 22:33:45;4;125;125;125;125;125;125;125;125;125;125;
2021-10-08 22:33:45;5;120;120;120;120;120;120;120;120;120;120;
2021-10-08 22:33:45;ht;99;11.20
2021-10-08 22:33:45;v;3.75
2021-10-08 23:03:43;1;117;117;117;117;117;117;117;117;117;117;
2021-10-08 23:03:43;2;2;2;1;1;2;1;1;2;1;1;
2021-10-08 23:03:43;3;25;25;25;25;25;25;25;25;25;25;
2021-10-08 23:03:43;4;122;123;122;122;122;122;122;122;122;122;
2021-10-08 23:03:43;5;120;120;120;120;120;120;120;120;120;120;
2021-10-08 23:03:43;ht;99;10.30
2021-10-08 23:03:43;v;3.74
2021-10-08 23:33:45;1;117;117;117;117;117;117;117;117;117;117;
2021-10-08 23:33:45;2;1;1;1;2;1;1;1;1;1;2;
2021-10-08 23:33:45;3;25;25;25;25;25;25;25;25;25;25;
2021-10-08 23:33:45;4;125;124;124;124;124;124;124;124;124;124;
2021-10-08 23:33:45;5;122;122;122;122;122;122;122;122;122;122;
2021-10-08 23:33:45;ht;99;10.80
2021-10-08 23:33:45;v;3.74
