2021-04-18 00:04:19;4.13;132.77;99;15.60
2021-04-18 00:34:20;4.13;132.77;99;15.90
2021-04-18 01:04:21;4.13;134.54;99;17.20
2021-04-18 01:34:18;4.13;133.73;99;17.20
2021-04-18 02:04:20;4.13;133.41;99;16.30
2021-04-18 02:34:22;4.13;135.50;99;16.80
2021-04-18 03:04:19;4.13;135.18;99;16.90
2021-04-18 03:34:21;4.13;133.41;99;17.10
2021-04-18 04:04:19;4.13;134.54;99;16.80
2021-04-18 04:34:21;4.13;134.54;99;16.90
2021-04-18 05:04:23;4.13;132.77;99;16.90
2021-04-18 05:34:20;4.13;132.44;99;17.30
2021-04-18 06:04:22;4.13;134.22;99;16.60
2021-04-18 06:34:20;4.13;133.89;99;16.50
2021-04-18 07:04:21;4.13;133.89;99;17.10
2021-04-18 07:34:19;4.13;134.22;99;17.00
2021-04-18 08:04:21;4.13;134.22;99;18.40
2021-04-18 08:34:24;4.13;133.73;99;20.40
2021-04-18 09:04:25;4.13;132.44;99;21.10
2021-04-18 09:34:26;4.13;132.12;99;22.80
2021-04-18 10:04:25;4.13;133.89;99;25.30
2021-04-18 10:34:27;4.13;132.44;97;26.10
2021-04-18 11:04:30;4.13;133.89;91;28.00
2021-04-18 11:34:29;4.13;132.44;94;27.30
2021-04-18 12:04:32;4.13;132.44;86;30.00
2021-04-18 12:34:33;4.13;132.77;83;30.30
2021-04-18 13:04:31;4.14;133.41;84;29.00
2021-04-18 13:34:33;4.14;135.50;80;30.70
2021-04-18 14:04:35;4.14;134.54;78;31.20
2021-04-18 14:34:33;4.14;136.47;80;30.20
2021-04-18 15:04:31;4.14;136.15;81;30.20
2021-04-18 15:34:33;4.14;135.83;81;29.40
2021-04-18 16:04:35;4.14;135.83;85;27.50
2021-04-18 16:34:30;4.14;135.50;83;28.90
2021-04-18 17:04:30;4.14;133.73;84;28.30
2021-04-18 17:34:31;4.14;134.86;86;27.20
2021-04-18 18:04:30;4.14;133.41;95;25.70
2021-04-18 18:34:28;4.14;135.18;99;23.10
2021-04-18 19:04:27;4.14;135.50;99;21.30
2021-04-18 19:34:24;4.14;135.18;99;21.20
2021-04-18 20:04:25;4.14;135.18;99;20.40
2021-04-18 20:34:25;4.14;135.18;99;19.20
2021-04-18 21:04:24;4.14;133.41;99;19.30
2021-04-18 21:34:23;4.14;135.50;99;18.70
2021-04-18 22:04:22;4.14;135.50;99;19.10
2021-04-18 22:34:21;4.14;135.50;99;18.90
2021-04-18 23:04:24;4.14;134.22;99;18.70
2021-04-18 23:34:23;4.13;134.54;99;18.10
