2021-12-04 00:00:34;4.18;77;21.90;4;0.00
2021-12-04 00:05:31;4.18;78;21.60;0;0.00
2021-12-04 00:10:34;4.18;78;21.50;0;0.00
2021-12-04 00:15:31;4.17;77;21.70;0;0.00
2021-12-04 00:20:34;4.17;76;21.80;0;0.00
2021-12-04 00:25:31;4.17;75;21.90;0;0.00
2021-12-04 00:30:33;4.17;75;21.90;0;0.00
2021-12-04 00:35:31;4.17;75;21.90;0;0.00
2021-12-04 00:40:33;4.17;77;21.40;0;0.00
2021-12-04 00:45:31;4.17;79;20.70;0;0.00
2021-12-04 00:50:33;4.17;80;20.20;0;0.00
2021-12-04 00:55:31;4.17;81;20.10;0;0.00
2021-12-04 01:00:33;4.17;82;19.70;0;0.00
2021-12-04 01:05:35;4.17;83;19.50;0;0.00
2021-12-04 01:10:32;4.17;82;19.60;0;0.00
2021-12-04 01:15:34;4.17;82;19.50;0;0.00
2021-12-04 01:20:32;4.17;83;19.30;0;0.00
2021-12-04 01:25:34;4.16;82;19.60;0;0.00
2021-12-04 01:30:31;4.17;83;19.50;0;0.00
2021-12-04 01:35:33;4.16;83;19.30;0;0.00
2021-12-04 01:40:30;4.16;84;19.00;0;0.00
2021-12-04 01:45:32;4.16;84;18.90;0;0.00
2021-12-04 01:50:30;4.17;84;19.20;0;0.00
2021-12-04 01:55:32;4.16;84;19.20;0;0.00
2021-12-04 02:00:34;4.16;83;19.60;0;0.00
2021-12-04 02:05:31;4.16;84;19.40;0;0.00
2021-12-04 02:10:33;4.16;83;19.80;0;0.00
2021-12-04 02:15:35;4.16;81;20.30;0;0.00
2021-12-04 02:20:32;4.16;82;20.50;0;0.00
2021-12-04 02:25:34;4.16;85;19.80;0;0.00
2021-12-04 02:30:32;4.16;85;19.60;0;0.00
2021-12-04 02:35:34;4.16;85;19.20;0;0.00
2021-12-04 02:40:31;4.16;82;19.40;0;0.00
2021-12-04 02:45:33;4.16;78;18.80;0;0.00
2021-12-04 02:50:31;4.16;78;18.70;0;0.00
2021-12-04 02:55:33;4.16;79;18.80;0;0.00
2021-12-04 03:00:35;4.16;80;18.90;0;0.00
2021-12-04 03:05:32;4.16;80;18.90;0;0.00
2021-12-04 03:10:34;4.16;81;19.00;0;0.00
2021-12-04 03:15:31;4.16;81;19.00;0;0.00
2021-12-04 03:20:33;4.16;82;19.10;0;0.00
2021-12-04 03:25:30;4.16;82;19.20;0;0.00
2021-12-04 03:30:32;4.16;82;19.20;0;0.00
2021-12-04 03:35:34;4.16;83;19.60;0;0.00
2021-12-04 03:40:28;4.16;83;19.70;1;0.00
2021-12-04 03:45:34;4.16;83;19.20;1;0.00
2021-12-04 03:50:31;4.16;82;18.80;2;0.00
2021-12-04 03:55:33;4.16;83;18.90;2;0.00
2021-12-04 04:00:35;4.15;82;18.70;2;0.00
2021-12-04 04:05:32;4.16;82;18.70;2;0.00
2021-12-04 04:10:34;4.16;82;18.90;2;0.00
2021-12-04 04:15:31;4.16;83;19.60;2;0.00
2021-12-04 04:20:33;4.15;83;19.60;2;0.00
2021-12-04 04:25:31;4.15;84;19.50;2;0.00
2021-12-04 04:30:32;4.15;83;19.20;2;0.00
2021-12-04 04:35:34;4.15;83;19.20;2;0.00
2021-12-04 04:40:32;4.15;83;19.30;2;0.00
2021-12-04 04:45:34;4.15;83;19.60;2;0.00
2021-12-04 04:50:31;4.15;83;19.70;2;0.00
2021-12-04 04:55:33;4.15;83;19.70;2;0.00
2021-12-04 05:00:35;4.15;83;19.50;2;0.00
2021-12-04 05:05:32;4.15;83;19.50;2;0.00
2021-12-04 05:10:34;4.15;83;19.40;2;0.00
2021-12-04 05:15:31;4.15;83;19.20;2;0.00
2021-12-04 05:20:33;4.15;81;19.20;2;0.00
2021-12-04 05:25:31;4.15;80;19.10;2;1.10
2021-12-04 05:30:32;4.15;82;19.20;2;1.20
2021-12-04 05:35:32;4.15;79;18.80;4;1.20
2021-12-04 05:40:24;4.15;71;18.50;6;2.19
2021-12-04 05:45:35;4.15;73;18.60;6;1.20
2021-12-04 05:50:29;4.15;73;18.50;7;1.30
2021-12-04 05:55:35;4.15;71;18.30;7;1.10
2021-12-04 06:00:32;4.15;65;18.30;7;0.00
2021-12-04 06:05:34;4.15;74;18.40;7;1.20
2021-12-04 06:10:24;4.15;69;18.20;9;0.00
2021-12-04 06:15:35;4.15;64;18.10;9;0.00
2021-12-04 06:20:32;4.15;58;18.10;9;0.00
2021-12-04 06:25:34;4.15;58;18.20;9;1.10
2021-12-04 06:30:31;4.15;56;18.10;9;0.00
2021-12-04 06:35:33;4.15;61;17.80;9;0.00
2021-12-04 06:40:30;4.15;58;17.70;9;0.00
2021-12-04 06:45:32;4.15;55;17.70;9;0.00
2021-12-04 06:50:34;4.15;59;17.60;9;0.00
2021-12-04 06:55:31;4.15;58;17.70;9;0.00
2021-12-04 07:00:33;4.15;55;17.70;9;0.00
2021-12-04 07:05:30;4.15;48;17.90;9;0.00
2021-12-04 07:10:32;4.15;51;17.90;9;1.30
2021-12-04 07:15:29;4.15;51;18.00;9;0.00
2021-12-04 07:20:31;4.15;53;18.00;9;0.00
2021-12-04 07:25:33;4.15;50;18.10;9;0.00
2021-12-04 07:30:30;4.15;50;18.20;9;0.00
2021-12-04 07:35:32;4.15;53;18.40;9;1.10
2021-12-04 07:40:34;4.15;54;18.40;9;1.10
2021-12-04 07:45:31;4.15;65;18.20;9;0.00
2021-12-04 07:50:33;4.15;72;18.60;9;0.00
2021-12-04 07:55:31;4.15;73;18.60;9;0.00
2021-12-04 08:00:33;4.15;77;18.80;9;0.00
2021-12-04 08:05:35;4.15;77;19.10;9;0.00
2021-12-04 08:10:32;4.15;80;19.20;9;0.00
2021-12-04 08:15:34;4.16;80;19.50;9;0.00
2021-12-04 08:20:31;4.16;79;19.70;9;0.00
2021-12-04 08:25:33;4.16;81;19.70;9;0.00
2021-12-04 08:30:31;4.16;81;20.00;9;0.00
2021-12-04 08:35:33;4.16;82;20.30;9;0.00
2021-12-04 08:40:35;4.16;82;20.40;9;0.00
2021-12-04 08:45:32;4.16;81;20.50;9;0.00
2021-12-04 08:50:34;4.16;81;20.50;9;0.00
2021-12-04 08:55:32;4.16;82;20.20;9;0.00
2021-12-04 09:00:34;4.16;82;20.40;9;0.00
2021-12-04 09:05:32;4.17;81;21.30;9;0.00
2021-12-04 09:10:34;4.17;82;22.10;9;0.00
2021-12-04 09:15:32;4.17;82;22.50;9;0.00
2021-12-04 09:20:34;4.17;82;22.00;9;0.00
2021-12-04 09:25:32;4.17;82;22.00;9;0.00
2021-12-04 09:30:30;4.17;80;22.20;9;0.00
2021-12-04 09:35:32;4.17;81;22.20;9;0.00
2021-12-04 09:40:35;4.17;80;22.60;9;0.00
2021-12-04 09:45:33;4.17;80;22.70;9;0.00
2021-12-04 09:50:31;4.18;79;22.90;9;0.00
2021-12-04 09:55:33;4.18;78;23.50;9;0.00
2021-12-04 10:00:31;4.18;76;24.30;9;0.00
2021-12-04 10:05:34;4.18;76;24.60;9;0.00
2021-12-04 10:10:32;4.18;75;26.50;9;0.00
2021-12-04 10:15:35;4.18;72;25.30;9;0.00
2021-12-04 10:20:34;4.18;74;25.70;9;0.00
2021-12-04 10:25:32;4.18;73;26.10;9;0.00
2021-12-04 10:30:31;4.18;75;24.60;9;2.19
2021-12-04 10:35:34;4.19;73;25.40;9;0.00
2021-12-04 10:40:33;4.19;75;25.40;9;0.00
2021-12-04 10:45:36;4.19;72;26.20;9;0.00
2021-12-04 10:50:35;4.19;75;24.80;9;1.80
2021-12-04 10:55:33;4.19;76;25.60;9;0.00
2021-12-04 11:00:32;4.19;72;25.80;9;0.00
2021-12-04 11:05:35;4.19;74;26.30;9;1.70
2021-12-04 11:10:34;4.19;74;25.50;9;0.00
2021-12-04 11:15:33;4.19;75;25.40;9;1.40
2021-12-04 11:20:36;4.19;73;26.90;9;1.40
2021-12-04 11:25:30;4.19;74;26.40;9;0.00
2021-12-04 11:30:34;4.19;69;26.40;9;2.00
2021-12-04 11:35:33;4.19;72;27.20;9;2.59
2021-12-04 11:40:36;4.19;73;27.10;9;0.00
2021-12-04 11:45:35;4.19;72;26.50;9;2.29
2021-12-04 11:50:34;4.19;72;26.70;9;0.00
2021-12-04 11:55:33;4.19;70;28.00;9;0.00
2021-12-04 12:00:36;4.19;69;28.60;9;1.30
2021-12-04 12:05:30;4.19;68;28.20;9;2.00
2021-12-04 12:10:34;4.20;69;28.20;9;1.30
2021-12-04 12:15:33;4.19;68;27.80;9;0.00
2021-12-04 12:20:32;4.20;69;28.50;9;1.60
2021-12-04 12:25:31;4.20;71;27.70;9;2.69
2021-12-04 12:30:35;4.20;72;27.90;9;1.40
2021-12-04 12:35:34;4.20;67;28.20;9;1.60
2021-12-04 12:40:33;4.20;68;28.60;9;1.80
2021-12-04 12:45:32;4.20;68;28.20;9;1.40
2021-12-04 12:50:36;4.20;65;28.80;9;0.00
2021-12-04 12:55:35;4.20;64;29.30;9;0.00
2021-12-04 13:00:35;4.20;68;28.80;9;0.00
2021-12-04 13:05:34;4.20;65;29.60;9;1.50
2021-12-04 13:10:33;4.20;67;29.50;9;1.60
2021-12-04 13:15:33;4.20;68;29.80;9;0.00
2021-12-04 13:20:32;4.20;64;29.60;9;1.60
2021-12-04 13:25:36;4.20;64;29.60;9;0.00
2021-12-04 13:30:35;4.20;64;29.60;9;2.39
2021-12-04 13:35:35;4.20;66;30.10;9;1.20
2021-12-04 13:40:34;4.20;64;30.20;9;1.60
2021-12-04 13:45:34;4.20;65;29.60;9;1.40
2021-12-04 13:50:33;4.20;62;29.60;9;0.00
2021-12-04 13:55:33;4.20;62;29.30;9;1.40
2021-12-04 14:00:32;4.21;63;30.30;9;1.20
2021-12-04 14:05:36;4.20;59;30.00;9;1.60
2021-12-04 14:10:36;4.21;61;29.90;9;1.40
2021-12-04 14:15:35;4.21;58;29.90;9;3.18
2021-12-04 14:20:34;4.21;60;29.90;9;2.09
2021-12-04 14:25:34;4.21;60;30.70;9;1.20
2021-12-04 14:30:33;4.21;52;30.60;9;1.80
2021-12-04 14:35:33;4.21;59;30.30;9;2.29
2021-12-04 14:40:32;4.21;59;29.60;9;0.00
2021-12-04 14:45:36;4.21;63;29.00;9;2.69
2021-12-04 14:50:36;4.21;57;29.80;9;1.50
2021-12-04 14:55:35;4.21;60;30.00;9;1.10
2021-12-04 15:00:35;4.21;60;30.50;9;1.80
2021-12-04 15:05:34;4.21;58;30.40;9;1.30
2021-12-04 15:10:34;4.21;63;30.60;9;0.00
2021-12-04 15:15:33;4.21;61;29.90;9;0.00
2021-12-04 15:20:37;4.21;63;29.50;9;2.89
2021-12-04 15:25:32;4.21;61;30.10;9;0.00
2021-12-04 15:30:36;4.21;61;31.60;9;1.10
2021-12-04 15:35:35;4.21;62;31.10;9;0.00
2021-12-04 15:40:35;4.21;64;29.70;9;1.20
2021-12-04 15:45:34;4.21;59;30.60;9;1.60
2021-12-04 15:50:34;4.21;61;31.50;9;0.00
2021-12-04 15:55:33;4.21;62;31.10;9;1.30
2021-12-04 16:00:33;4.21;61;30.60;9;1.80
2021-12-04 16:05:37;4.21;60;30.10;9;1.10
2021-12-04 16:10:36;4.21;59;31.50;9;0.00
2021-12-04 16:15:31;4.21;63;31.10;9;0.00
2021-12-04 16:20:35;4.21;63;29.70;9;0.00
2021-12-04 16:25:35;4.21;64;29.90;9;0.00
2021-12-04 16:30:34;4.21;61;30.70;9;1.70
2021-12-04 16:35:34;4.21;62;30.10;9;1.60
2021-12-04 16:40:33;4.21;63;31.10;9;0.00
2021-12-04 16:45:37;4.21;62;30.50;9;0.00
2021-12-04 16:50:36;4.21;61;30.30;9;0.00
2021-12-04 16:55:31;4.21;61;30.20;9;1.60
2021-12-04 17:00:35;4.21;62;30.00;9;0.00
2021-12-04 17:05:34;4.21;59;30.40;9;1.40
2021-12-04 17:10:34;4.21;60;30.10;9;0.00
2021-12-04 17:15:33;4.21;61;30.30;9;0.00
2021-12-04 17:20:37;4.21;60;30.10;9;0.00
2021-12-04 17:25:36;4.21;60;30.00;9;0.00
2021-12-04 17:30:31;4.21;61;29.70;9;1.10
2021-12-04 17:35:35;4.21;61;29.90;9;1.90
2021-12-04 17:40:34;4.21;60;29.60;9;1.20
2021-12-04 17:45:33;4.21;62;29.90;9;0.00
2021-12-04 17:50:32;4.21;60;29.90;9;1.70
2021-12-04 17:55:36;4.21;61;29.70;9;0.00
2021-12-04 18:00:35;4.21;61;29.40;9;1.40
2021-12-04 18:05:34;4.21;63;29.60;9;0.00
2021-12-04 18:10:33;4.21;62;29.40;9;1.50
2021-12-04 18:15:32;4.21;63;29.50;9;0.00
2021-12-04 18:20:36;4.21;62;29.70;9;1.30
2021-12-04 18:25:35;4.21;64;28.80;9;0.00
2021-12-04 18:30:34;4.21;65;29.00;9;0.00
2021-12-04 18:35:33;4.21;64;28.50;9;0.00
2021-12-04 18:40:32;4.21;65;29.00;9;0.00
2021-12-04 18:45:36;4.21;65;28.60;9;0.00
2021-12-04 18:50:35;4.21;66;27.60;9;0.00
2021-12-04 18:55:33;4.21;66;27.10;9;0.00
2021-12-04 19:00:32;4.21;69;26.70;9;0.00
2021-12-04 19:05:35;4.21;70;26.20;9;0.00
2021-12-04 19:10:34;4.21;71;25.90;9;0.00
2021-12-04 19:15:33;4.21;72;25.60;9;0.00
2021-12-04 19:20:36;4.20;73;25.80;9;0.00
2021-12-04 19:25:34;4.20;72;26.30;9;0.00
2021-12-04 19:30:33;4.20;73;26.00;9;0.00
2021-12-04 19:35:35;4.20;73;25.80;9;0.00
2021-12-04 19:40:34;4.20;74;25.50;9;0.00
2021-12-04 19:45:32;4.20;75;25.20;9;0.00
2021-12-04 19:50:35;4.20;76;24.40;9;0.00
2021-12-04 19:55:33;4.20;78;23.90;9;0.00
2021-12-04 20:00:31;4.19;79;23.40;9;0.00
2021-12-04 20:05:34;4.19;80;23.10;9;0.00
2021-12-04 20:10:32;4.19;80;23.00;9;0.00
2021-12-04 20:15:35;4.19;77;23.40;9;0.00
2021-12-04 20:20:33;4.19;77;23.20;9;0.00
2021-12-04 20:25:31;4.19;79;22.70;9;0.00
2021-12-04 20:30:33;4.19;79;22.20;9;0.00
2021-12-04 20:35:31;4.19;80;22.00;9;0.00
2021-12-04 20:40:33;4.19;81;21.60;9;0.00
2021-12-04 20:45:31;4.19;81;21.60;9;0.00
2021-12-04 20:50:33;4.18;81;21.40;9;0.00
2021-12-04 20:55:31;4.18;82;21.10;9;0.00
2021-12-04 21:00:33;4.18;82;21.10;9;0.00
2021-12-04 21:05:31;4.18;82;20.90;9;0.00
2021-12-04 21:10:33;4.18;83;20.70;9;0.00
2021-12-04 21:15:31;4.18;83;20.60;9;0.00
2021-12-04 21:20:33;4.18;83;20.60;9;0.00
2021-12-04 21:25:35;4.18;82;20.60;9;0.00
2021-12-04 21:30:33;4.18;82;20.50;9;0.00
2021-12-04 21:35:35;4.18;82;20.50;9;0.00
2021-12-04 21:40:32;4.18;82;20.60;9;0.00
2021-12-04 21:45:30;4.18;82;20.50;9;0.00
2021-12-04 21:50:32;4.18;83;20.20;9;0.00
2021-12-04 21:55:34;4.18;83;20.00;9;0.00
2021-12-04 22:00:31;4.17;83;19.90;9;0.00
2021-12-04 22:05:33;4.17;83;19.90;9;0.00
2021-12-04 22:10:35;4.17;84;19.70;9;0.00
2021-12-04 22:15:32;4.17;84;19.60;9;0.00
2021-12-04 22:20:34;4.17;83;19.70;9;0.00
2021-12-04 22:25:32;4.17;83;19.60;9;0.00
2021-12-04 22:30:34;4.17;84;19.50;9;0.00
2021-12-04 22:35:31;4.17;84;19.40;9;0.00
2021-12-04 22:40:33;4.17;84;19.40;9;0.00
2021-12-04 22:45:35;4.17;84;19.30;9;0.00
2021-12-04 22:50:32;4.17;84;19.20;9;0.00
2021-12-04 22:55:34;4.17;84;19.00;9;0.00
2021-12-04 23:00:31;4.17;84;18.80;9;0.00
2021-12-04 23:05:33;4.17;84;18.70;9;0.00
2021-12-04 23:10:35;4.17;84;18.80;9;0.00
2021-12-04 23:15:32;4.17;84;19.00;9;0.00
2021-12-04 23:20:29;4.16;84;18.80;9;0.00
2021-12-04 23:25:31;4.16;84;18.80;9;0.00
2021-12-04 23:30:33;4.16;84;18.70;9;0.00
2021-12-04 23:35:35;4.16;85;18.50;9;0.00
2021-12-04 23:40:32;4.16;85;18.40;9;0.00
2021-12-04 23:45:34;4.16;84;18.60;9;0.00
2021-12-04 23:50:31;4.16;85;18.60;9;0.00
2021-12-04 23:55:33;4.16;84;18.80;9;0.00
