2021-12-10 00:00:32;4.17;75;19.80;6;0.00
2021-12-10 00:05:34;4.16;75;20.20;0;0.00
2021-12-10 00:10:32;4.16;77;20.30;0;0.00
2021-12-10 00:15:34;4.16;78;20.40;0;0.00
2021-12-10 00:20:31;4.16;78;20.30;0;0.00
2021-12-10 00:25:33;4.16;77;20.30;0;0.00
2021-12-10 00:30:31;4.16;76;20.10;0;0.00
2021-12-10 00:35:33;4.16;76;20.10;0;0.00
2021-12-10 00:40:35;4.16;76;20.20;0;0.00
2021-12-10 00:45:32;4.16;76;20.20;0;0.00
2021-12-10 00:50:34;4.16;77;20.30;0;0.00
2021-12-10 00:55:32;4.16;77;20.40;0;0.00
2021-12-10 01:00:34;4.16;77;20.20;0;0.00
2021-12-10 01:05:31;4.16;76;20.10;0;0.00
2021-12-10 01:10:33;4.16;75;19.90;0;0.00
2021-12-10 01:15:31;4.16;75;19.70;0;0.00
2021-12-10 01:20:33;4.16;74;19.60;0;0.00
2021-12-10 01:25:35;4.16;72;19.40;0;0.00
2021-12-10 01:30:32;4.16;73;19.50;0;0.00
2021-12-10 01:35:34;4.16;72;19.30;0;0.00
2021-12-10 01:40:32;4.16;72;19.10;0;0.00
2021-12-10 01:45:34;4.16;70;19.10;0;0.00
2021-12-10 01:50:31;4.16;70;19.10;0;0.00
2021-12-10 01:55:33;4.16;69;19.00;0;0.00
2021-12-10 02:00:35;4.16;67;18.80;0;0.00
2021-12-10 02:05:32;4.16;63;18.80;0;0.00
2021-12-10 02:10:29;4.15;63;18.60;0;0.00
2021-12-10 02:15:31;4.15;60;18.60;0;0.00
2021-12-10 02:20:33;4.15;59;18.60;0;0.00
2021-12-10 02:25:30;4.15;58;18.50;0;0.00
2021-12-10 02:30:32;4.15;58;18.20;0;0.00
2021-12-10 02:35:34;4.15;54;18.40;0;0.00
2021-12-10 02:40:31;4.16;52;18.40;0;0.00
2021-12-10 02:45:33;4.15;50;18.50;0;0.00
2021-12-10 02:50:30;4.15;50;18.50;0;0.00
2021-12-10 02:55:32;4.15;51;18.50;0;0.00
2021-12-10 03:00:34;4.15;51;18.60;0;0.00
2021-12-10 03:05:31;4.15;53;18.60;0;0.00
2021-12-10 03:10:33;4.15;55;19.00;0;0.00
2021-12-10 03:15:35;4.15;60;19.00;0;0.00
2021-12-10 03:20:32;4.15;64;19.10;0;0.00
2021-12-10 03:25:34;4.15;66;19.10;0;0.00
2021-12-10 03:30:31;4.15;66;19.10;0;0.00
2021-12-10 03:35:33;4.15;66;19.30;0;0.00
2021-12-10 03:40:35;4.15;67;19.30;0;0.00
2021-12-10 03:45:32;4.15;67;19.30;0;0.00
2021-12-10 03:50:34;4.15;69;19.50;0;0.00
2021-12-10 03:55:31;4.15;71;19.50;0;0.00
2021-12-10 04:00:33;4.15;72;19.50;0;0.00
2021-12-10 04:05:30;4.15;73;19.50;0;0.00
2021-12-10 04:10:32;4.15;74;19.50;0;0.00
2021-12-10 04:15:34;4.15;75;19.60;0;0.00
2021-12-10 04:20:31;4.15;76;19.60;0;0.00
2021-12-10 04:25:33;4.15;76;19.70;0;0.00
2021-12-10 04:30:31;4.15;76;19.60;0;0.00
2021-12-10 04:35:33;4.15;77;19.70;0;0.00
2021-12-10 04:40:35;4.15;73;19.80;0;0.00
2021-12-10 04:45:32;4.15;69;19.70;0;0.00
2021-12-10 04:50:34;4.15;70;19.70;0;0.00
2021-12-10 04:55:31;4.15;78;19.90;0;0.00
2021-12-10 05:00:33;4.15;80;20.10;0;0.00
2021-12-10 05:05:31;4.15;80;20.20;0;0.00
2021-12-10 05:10:33;4.15;81;20.10;0;0.00
2021-12-10 05:15:35;4.15;80;20.10;0;0.00
2021-12-10 05:20:32;4.15;80;20.00;0;0.00
2021-12-10 05:25:34;4.15;79;19.80;0;0.00
2021-12-10 05:30:31;4.15;81;20.00;0;1.10
2021-12-10 05:35:33;4.15;80;19.80;0;1.30
2021-12-10 05:40:31;4.15;80;19.90;0;0.00
2021-12-10 05:45:33;4.15;81;20.00;0;0.00
2021-12-10 05:50:35;4.15;81;20.10;0;1.10
2021-12-10 05:55:32;4.15;81;20.00;0;0.00
2021-12-10 06:00:30;4.15;82;19.80;0;0.00
2021-12-10 06:05:32;4.15;82;19.80;0;0.00
2021-12-10 06:10:34;4.15;81;19.90;0;0.00
2021-12-10 06:15:31;4.15;81;20.00;0;0.00
2021-12-10 06:20:33;4.15;82;19.70;0;0.00
2021-12-10 06:25:31;4.15;82;19.70;0;0.00
2021-12-10 06:30:33;4.15;82;19.50;0;0.00
2021-12-10 06:35:35;4.15;80;19.50;0;0.00
2021-12-10 06:40:32;4.15;80;19.50;0;1.40
2021-12-10 06:45:34;4.15;80;19.60;0;0.00
2021-12-10 06:50:31;4.15;81;19.70;0;0.00
2021-12-10 06:55:33;4.15;81;19.60;0;0.00
2021-12-10 07:00:31;4.15;81;19.70;0;0.00
2021-12-10 07:05:33;4.15;81;19.90;0;0.00
2021-12-10 07:10:35;4.15;81;20.10;0;0.00
2021-12-10 07:15:32;4.16;81;20.20;0;0.00
2021-12-10 07:20:34;4.15;81;20.60;0;0.00
2021-12-10 07:25:32;4.15;81;20.70;0;0.00
2021-12-10 07:30:34;4.16;81;21.00;0;0.00
2021-12-10 07:35:32;4.16;81;20.80;0;0.00
2021-12-10 07:40:34;4.16;82;20.70;0;0.00
2021-12-10 07:45:31;4.16;82;20.80;0;0.00
2021-12-10 07:50:33;4.16;82;21.00;0;0.00
2021-12-10 07:55:31;4.16;81;21.00;0;0.00
2021-12-10 08:00:33;4.16;81;20.90;0;0.00
2021-12-10 08:05:31;4.16;82;20.80;0;0.00
2021-12-10 08:10:33;4.16;82;21.00;0;0.00
2021-12-10 08:15:31;4.16;81;21.20;0;0.00
2021-12-10 08:20:33;4.17;81;21.80;0;0.00
2021-12-10 08:25:35;4.17;81;21.90;0;0.00
2021-12-10 08:30:33;4.17;80;22.30;0;0.00
2021-12-10 08:35:31;4.17;80;22.10;0;1.40
2021-12-10 08:40:33;4.17;81;21.90;0;0.00
2021-12-10 08:45:31;4.17;81;21.90;0;0.00
2021-12-10 08:50:34;4.17;81;21.90;0;0.00
2021-12-10 08:55:32;4.17;80;22.30;0;0.00
2021-12-10 09:00:34;4.17;80;22.50;0;0.00
2021-12-10 09:05:32;4.17;81;22.20;0;0.00
2021-12-10 09:10:34;4.17;80;22.20;0;0.00
2021-12-10 09:15:32;4.17;81;22.30;0;0.00
2021-12-10 09:20:35;4.17;81;22.40;0;0.00
2021-12-10 09:25:33;4.17;82;22.30;0;0.00
2021-12-10 09:30:30;4.17;82;22.40;0;0.00
2021-12-10 09:35:33;4.17;82;22.10;0;0.00
2021-12-10 09:40:35;4.17;82;21.90;0;0.00
2021-12-10 09:45:33;4.17;83;21.90;0;0.00
2021-12-10 09:50:31;4.17;82;22.20;0;0.00
2021-12-10 09:55:34;4.18;81;22.70;0;0.00
2021-12-10 10:00:32;4.18;82;22.30;0;0.00
2021-12-10 10:05:34;4.18;82;22.30;0;0.00
2021-12-10 10:10:32;4.17;82;22.20;0;0.00
2021-12-10 10:15:34;4.17;82;22.20;0;0.00
2021-12-10 10:20:32;4.18;81;22.10;0;0.00
2021-12-10 10:25:35;4.17;81;22.70;0;0.00
2021-12-10 10:30:33;4.18;82;23.00;0;0.00
2021-12-10 10:35:35;4.18;80;23.10;0;0.00
2021-12-10 10:40:33;4.18;81;23.00;0;0.00
2021-12-10 10:45:35;4.18;81;23.70;0;0.00
2021-12-10 10:50:33;4.18;78;24.90;0;0.00
2021-12-10 10:55:31;4.18;79;24.70;0;1.20
2021-12-10 11:00:34;4.18;80;24.10;0;0.00
2021-12-10 11:05:32;4.18;79;23.90;0;0.00
2021-12-10 11:10:30;4.18;80;23.90;0;0.00
2021-12-10 11:15:33;4.18;80;24.30;0;0.00
2021-12-10 11:20:36;4.18;79;23.90;0;0.00
2021-12-10 11:25:34;4.18;79;23.90;0;0.00
2021-12-10 11:30:32;4.18;79;24.30;0;0.00
2021-12-10 11:35:35;4.18;78;24.60;0;0.00
2021-12-10 11:40:33;4.18;79;24.00;0;0.00
2021-12-10 11:45:32;4.19;78;24.00;0;0.00
2021-12-10 11:50:34;4.19;77;24.80;0;0.00
2021-12-10 11:55:33;4.19;76;25.30;0;0.00
2021-12-10 12:00:36;4.18;77;25.20;0;0.00
2021-12-10 12:05:34;4.19;77;25.10;0;0.00
2021-12-10 12:10:32;4.19;78;24.90;0;0.00
2021-12-10 12:15:35;4.19;79;23.90;0;1.20
2021-12-10 12:20:34;4.19;79;24.00;0;1.20
2021-12-10 12:25:32;4.19;79;24.30;0;0.00
2021-12-10 12:30:35;4.19;78;24.30;0;0.00
2021-12-10 12:35:33;4.19;81;24.40;0;0.00
2021-12-10 12:40:32;4.19;82;24.50;0;1.80
2021-12-10 12:45:35;4.19;81;24.00;0;1.40
2021-12-10 12:50:33;4.19;80;24.40;0;0.00
2021-12-10 12:55:36;4.19;78;24.30;0;0.00
2021-12-10 13:00:34;4.19;79;24.50;0;0.00
2021-12-10 13:05:33;4.19;79;24.20;0;0.00
2021-12-10 13:10:35;4.19;80;24.20;0;0.00
2021-12-10 13:15:34;4.19;80;25.00;0;0.00
