#EQ3t;v;h;t;p;a2021-11-24 14:08:05;4.22;49;35.10;0;0.00
2021-11-24 14:10:10;4.21;49;35.70;0;2.29
2021-11-24 14:15:38;4.21;48;35.80;0;3.97
2021-11-24 14:20:34;4.21;49;35.30;0;4.17
2021-11-24 14:25:34;4.22;50;35.70;0;2.49
2021-11-24 14:30:34;4.21;48;35.80;0;2.59
2021-11-24 14:35:34;4.22;48;35.70;0;3.78
2021-11-24 14:40:34;4.21;48;36.20;0;2.19
2021-11-24 14:45:35;4.22;49;36.00;0;2.49
2021-11-24 14:50:35;4.22;50;35.30;0;2.99
2021-11-24 14:55:35;4.22;48;35.90;0;3.18
2021-11-24 15:00:35;4.22;49;35.40;0;4.67
2021-11-24 15:05:35;4.22;49;35.20;0;3.68
2021-11-24 15:10:36;4.22;50;35.70;0;2.59
2021-11-24 15:15:36;4.22;48;35.70;0;3.97
2021-11-24 15:20:36;4.22;50;36.20;0;2.09
2021-11-24 15:25:36;4.22;50;35.30;0;3.08
2021-11-24 15:30:36;4.22;50;35.30;0;5.56
2021-11-24 15:35:37;4.22;49;35.80;0;3.97
2021-11-24 15:40:37;4.22;48;35.90;0;4.17
2021-11-24 15:45:37;4.22;50;36.10;0;2.59
2021-11-24 15:50:37;4.22;49;35.70;0;4.67
2021-11-24 15:55:37;4.22;49;35.80;0;2.79
2021-11-24 16:00:33;4.22;50;35.90;0;2.59
2021-11-24 16:05:38;4.22;49;35.90;0;4.47
2021-11-24 16:10:33;4.22;49;35.90;0;2.00
2021-11-24 16:15:38;4.22;49;36.00;0;2.99
2021-11-24 16:20:33;4.22;49;35.90;0;3.78
2021-11-24 16:25:33;4.22;48;36.00;0;3.58
2021-11-24 16:30:34;4.22;49;35.80;0;2.49
2021-11-24 16:35:34;4.22;49;36.00;0;3.38
2021-11-24 16:40:34;4.22;49;35.60;0;3.08
2021-11-24 16:45:34;4.22;48;35.70;0;3.38
2021-11-24 16:50:34;4.22;48;35.50;0;3.28
2021-11-24 16:55:34;4.22;48;35.50;0;4.57
2021-11-24 17:00:34;4.22;49;35.50;0;3.68
2021-11-24 17:05:34;4.22;49;35.50;0;3.38
2021-11-24 17:10:34;4.22;49;35.30;0;3.88
2021-11-24 17:15:34;4.22;49;35.50;0;3.68
2021-11-24 17:20:34;4.22;49;35.40;0;2.69
2021-11-24 17:25:34;4.22;49;35.10;0;2.79
2021-11-24 17:30:34;4.22;50;35.10;0;3.58
2021-11-24 17:35:34;4.22;50;35.20;0;1.90
2021-11-24 17:40:34;4.22;49;35.00;0;4.07
2021-11-24 17:45:34;4.22;51;35.00;0;2.29
2021-11-24 17:50:34;4.22;51;34.80;0;3.28
2021-11-24 17:55:34;4.22;51;34.90;0;2.79
2021-11-24 18:00:34;4.22;52;34.70;0;2.79
2021-11-24 18:05:34;4.22;51;34.50;0;2.99
2021-11-24 18:10:34;4.22;51;34.40;0;3.78
2021-11-24 18:15:33;4.22;52;34.30;0;2.69
2021-11-24 18:20:33;4.22;50;34.30;0;4.67
2021-11-24 18:25:33;4.22;52;34.10;0;2.99
2021-11-24 18:30:37;4.22;52;34.00;0;3.18
2021-11-24 18:35:33;4.22;52;33.80;0;3.08
2021-11-24 18:40:37;4.22;52;33.70;0;4.07
2021-11-24 18:45:36;4.22;53;33.50;0;3.28
2021-11-24 18:50:36;4.22;54;33.30;0;2.39
2021-11-24 18:55:36;4.22;53;33.20;0;3.18
2021-11-24 19:00:35;4.22;54;33.10;0;3.08
2021-11-24 19:05:35;4.22;53;33.00;0;3.97
2021-11-24 19:10:34;4.22;55;32.50;0;2.00
2021-11-24 19:15:34;4.22;55;32.50;0;2.69
2021-11-24 19:20:33;4.22;55;32.30;0;2.19
2021-11-24 19:25:33;4.22;55;32.00;0;2.39
2021-11-24 19:30:37;4.22;56;31.70;0;2.29
2021-11-24 19:35:36;4.22;57;31.40;0;2.29
2021-11-24 19:40:36;4.21;57;31.30;0;2.79
2021-11-24 19:45:35;4.22;57;31.10;0;2.09
2021-11-24 19:50:34;4.21;57;31.00;0;2.09
2021-11-24 19:55:33;4.21;58;30.70;0;1.70
2021-11-24 20:00:32;4.21;58;30.60;0;2.09
2021-11-24 20:05:36;4.21;58;30.60;0;2.79
2021-11-24 20:10:35;4.21;58;30.50;0;2.39
2021-11-24 20:15:34;4.21;59;30.30;0;2.19
2021-11-24 20:20:33;4.21;59;30.20;0;2.49
2021-11-24 20:25:37;4.21;60;29.80;0;2.09
2021-11-24 20:30:36;4.21;60;29.70;0;2.09
2021-11-24 20:35:34;4.21;60;29.50;0;1.70
2021-11-24 20:40:33;4.21;61;29.30;0;2.39
2021-11-24 20:45:32;4.21;62;29.10;0;2.00
2021-11-24 20:50:36;4.21;62;28.90;0;2.09
2021-11-24 20:55:34;4.21;62;29.00;0;2.39
2021-11-24 21:00:33;4.20;63;28.70;0;1.50
2021-11-24 21:05:32;4.20;63;28.80;0;1.70
2021-11-24 21:10:35;4.20;65;28.40;0;1.20
2021-11-24 21:15:34;4.20;66;28.00;0;1.30
2021-11-24 21:20:33;4.20;65;28.20;0;1.60
2021-11-24 21:25:36;4.20;65;28.20;0;1.80
2021-11-24 21:30:35;4.20;66;27.90;0;1.30
2021-11-24 21:35:33;4.20;66;27.80;0;1.60
2021-11-24 21:40:32;4.20;67;27.80;0;1.70
2021-11-24 21:45:35;4.20;67;27.70;0;1.20
2021-11-24 21:50:34;4.20;68;27.60;0;1.30
2021-11-24 21:55:32;4.20;68;27.60;0;1.20
2021-11-24 22:00:35;4.20;68;27.60;0;1.40
2021-11-24 22:05:34;4.20;67;27.90;0;1.90
2021-11-24 22:10:33;4.20;68;27.90;0;2.00
2021-11-24 22:15:36;4.20;68;27.90;0;2.49
2021-11-24 22:20:34;4.20;68;28.10;0;1.80
2021-11-24 22:25:33;4.20;68;28.10;0;1.60
2021-11-24 22:30:31;4.20;69;27.90;0;1.70
2021-11-24 22:35:34;4.20;69;28.00;0;1.80
2021-11-24 22:40:33;4.19;68;28.10;0;1.70
2021-11-24 22:45:36;4.20;69;28.10;0;1.80
2021-11-24 22:50:35;4.19;69;28.20;0;2.00
2021-11-24 22:55:33;4.19;69;28.00;0;2.00
2021-11-24 23:00:32;4.19;70;28.00;0;1.30
2021-11-24 23:05:35;4.19;69;28.20;0;1.70
2021-11-24 23:10:34;4.19;70;28.10;0;2.89
2021-11-24 23:15:32;4.19;70;28.10;0;1.90
2021-11-24 23:20:35;4.19;69;28.20;0;2.09
2021-11-24 23:25:34;4.19;69;28.30;0;4.57
2021-11-24 23:30:33;4.19;69;28.30;0;1.70
2021-11-24 23:35:31;4.19;69;28.30;0;2.79
2021-11-24 23:40:34;4.19;69;28.30;0;3.08
2021-11-24 23:45:33;4.19;69;28.30;0;3.08
2021-11-24 23:50:36;4.19;68;28.30;0;2.29
2021-11-24 23:55:35;4.19;68;28.50;0;3.18
