2021-1-18 0:2:34;4.30;99;14.40;11;0.385;0.072;23.71;74.7;0.070;26.7271;25.345;27.246;25.833;373;373;373;373;374;373;374;374;374;374;255;255;255;255;255;255;255;255;255;255;244;244;244;244;244;244;244;244;244;244
2021-1-18 0:32:33;4.30;99;14.10;11;0.390;0.071;23.51;74.3;0.070;27.2391;25.202;27.768;25.687;375;375;376;376;376;376;376;376;376;376;255;255;255;255;255;255;255;255;255;255;244;244;244;244;244;244;244;244;244;244
2021-1-18 1:2:32;4.29;99;13.80;11;0.392;0.070;23.71;74.7;0.069;27.4271;24.766;27.960;25.242;377;377;377;377;377;377;377;377;377;377;255;255;255;255;255;255;255;255;255;255;244;244;244;244;244;244;244;244;244;244
2021-1-18 1:32:31;4.29;99;13.70;11;0.390;0.071;23.51;74.3;0.070;27.2321;25.197;27.756;25.712;368;368;368;368;368;368;368;368;368;368;255;255;255;255;255;255;255;255;255;255;244;244;244;244;244;245;244;244;245;245
2021-1-18 2:2:34;4.29;99;13.30;11;0.397;0.070;23.71;74.7;0.068;27.9211;24.617;28.458;25.120;368;367;368;368;368;368;368;368;368;368;255;255;255;255;255;255;255;255;255;255;245;245;244;244;245;245;244;244;245;245
2021-1-18 2:32:33;4.28;99;13.20;11;0.390;0.071;23.51;74.3;0.070;27.2321;25.197;27.756;25.712;368;368;368;368;368;368;368;368;368;368;255;255;255;255;255;255;255;255;255;255;244;245;245;244;244;244;245;244;244;244
2021-1-18 3:2:31;4.28;99;12.70;11;0.382;0.073;23.51;74.3;0.072;26.5131;25.784;27.023;26.311;367;367;367;367;368;368;368;368;368;368;255;255;255;255;255;255;255;255;255;255;244;244;244;244;244;244;244;244;244;244
2021-1-18 3:32:33;4.27;99;12.50;11;0.390;0.071;23.51;74.3;0.070;27.2321;25.197;27.756;25.712;368;368;368;368;368;368;368;368;368;368;255;255;255;255;255;255;255;255;255;255;244;244;244;244;244;244;245;244;244;245
2021-1-18 4:2:31;4.27;99;11.60;11;0.390;0.071;23.51;74.3;0.070;27.2321;25.197;27.756;25.712;362;362;363;363;363;363;363;363;363;363;255;255;255;255;255;255;255;255;255;255;245;245;244;244;245;244;244;245;244;244
2021-1-18 4:32:33;4.27;99;11.40;11;0.390;0.071;23.51;74.3;0.070;27.2321;25.197;27.756;25.712;363;363;363;363;363;363;363;363;363;363;255;255;255;255;255;255;255;255;255;255;244;245;245;244;244;244;244;245;245;244
2021-1-18 5:2:29;4.27;99;11.30;11;0.390;0.071;23.51;74.3;0.070;27.2321;25.197;27.756;25.712;362;362;362;362;362;362;362;362;362;362;255;255;255;255;255;255;255;255;255;255;245;245;245;245;245;245;245;244;245;244
2021-1-18 5:32:30;4.27;99;11.20;11;0.390;0.071;23.51;74.3;0.070;27.2321;25.197;27.756;25.712;358;358;358;358;358;358;358;358;358;359;255;255;255;255;255;255;255;255;255;255;244;244;244;244;244;244;244;244;244;244
2021-1-18 6:2:31;4.27;99;10.70;11;0.390;0.072;23.51;74.3;0.070;27.2251;25.192;27.743;25.738;359;359;359;359;359;359;359;360;360;360;255;255;255;255;255;255;255;255;255;255;244;244;244;244;244;244;244;244;244;244
2021-1-18 6:32:28;4.26;99;11.20;11;0.390;0.072;23.51;74.3;0.070;27.2251;25.192;27.743;25.738;359;359;359;359;359;359;359;359;359;359;255;255;255;255;255;255;255;255;255;255;244;244;244;244;244;244;244;244;244;244
2021-1-18 7:2:28;4.27;99;14.70;11;0.390;0.072;23.51;74.3;0.070;27.2251;25.192;27.743;25.738;351;351;351;351;351;351;351;351;351;351;255;255;255;255;255;255;255;255;255;255;244;244;244;244;244;244;244;244;244;244
2021-1-18 7:32:30;4.28;99;17.60;11;0.390;0.072;23.51;74.3;0.070;27.2251;25.192;27.743;25.738;343;343;343;343;343;343;343;343;343;343;255;255;255;255;255;255;255;255;255;255;244;244;244;244;244;244;244;244;244;244
2021-1-18 8:2:34;4.29;99;20.50;11;0.390;0.072;23.51;74.3;0.070;27.2251;25.192;27.743;25.738;329;329;329;329;329;329;329;329;329;329;255;254;255;255;255;255;254;254;255;254;244;244;244;244;244;244;244;244;244;244
2021-1-18 8:32:35;4.30;99;26.60;11;0.392;0.070;23.51;74.3;0.069;27.4131;24.756;27.935;25.292;321;321;321;321;322;322;322;322;322;322;255;254;255;255;255;254;254;255;255;254;244;244;244;244;244;244;244;244;244;244
2021-1-18 9:2:39;4.33;99;28.20;11;0.392;0.070;23.31;73.9;0.069;27.4131;24.756;27.935;25.292;325;325;326;326;326;326;326;326;326;326;254;255;254;254;254;254;254;255;254;255;244;244;244;244;244;244;244;243;244;244
2021-1-18 9:32:41;4.35;99;28.70;11;0.390;0.072;23.51;74.3;0.070;27.2181;25.187;27.731;25.763;335;335;335;336;336;336;336;336;336;336;254;254;254;255;254;254;254;254;254;254;244;244;244;244;244;244;244;244;244;244
2021-1-18 10:2:42;4.36;99;28.80;11;0.392;0.070;23.51;74.3;0.069;27.4061;24.751;27.923;25.317;345;345;345;345;345;345;345;345;345;345;254;254;254;254;254;254;254;254;254;254;244;244;244;244;244;244;244;244;244;244
2021-1-18 10:32:45;4.37;96;29.50;11;0.392;0.070;23.31;73.9;0.069;27.4061;24.751;27.923;25.317;335;335;335;335;335;335;336;336;336;336;254;254;254;254;254;254;254;254;254;254;244;244;244;244;244;244;243;244;244;244
2021-1-18 11:2:47;4.38;52;30.90;11;0.384;0.072;23.31;73.9;0.070;26.7061;25.330;27.210;25.909;347;347;347;348;348;348;348;348;348;348;254;254;254;254;254;254;254;254;254;254;244;244;243;243;243;243;243;243;243;243
2021-1-18 11:32:50;4.38;50;30.90;11;0.392;0.070;23.31;73.9;0.069;27.4061;24.751;27.923;25.317;352;352;352;352;352;352;352;352;352;352;254;254;254;254;254;254;254;254;254;254;244;244;244;244;244;244;244;244;244;244
2021-1-18 12:1:48;4.39;53;31.60;11;0.384;0.072;23.31;73.9;0.070;26.7061;25.330;27.210;25.909;363;363;363;363;363;363;363;363;363;363;255;255;255;254;255;254;255;255;255;255;244;244;244;244;244;244;244;244;244;244
2021-1-18 12:32:56;4.39;83;31.80;11;0.399;0.069;23.31;73.9;0.067;28.0761;24.178;28.606;24.731;374;374;374;374;374;374;374;374;374;375;255;254;255;254;255;255;255;254;254;255;244;244;244;244;244;244;244;244;244;244
2021-1-18 13:2:49;4.40;60;32.90;11;0.392;0.070;23.31;73.9;0.069;27.4061;24.751;27.923;25.317;387;387;387;387;387;387;387;387;388;388;255;255;255;255;255;255;255;255;255;255;244;244;244;244;244;244;244;244;244;244
2021-1-18 13:32:52;4.40;58;32.40;11;0.384;0.072;23.31;73.9;0.070;26.7061;25.330;27.210;25.909;384;383;384;384;384;384;384;384;384;384;255;255;255;255;255;255;254;255;255;254;244;244;244;244;244;244;244;244;244;244
2021-1-18 14:2:51;4.40;50;32.70;11;0.384;0.072;23.31;73.9;0.070;26.7061;25.330;27.210;25.909;393;393;393;394;394;394;394;394;394;394;255;255;255;255;255;255;255;255;255;255;244;244;244;244;244;244;244;244;244;244
2021-1-18 14:32:51;4.40;50;33.60;11;0.384;0.072;23.31;73.9;0.070;26.7061;25.330;27.210;25.909;383;383;383;383;383;383;383;383;383;383;255;255;255;255;255;255;255;255;255;255;244;244;244;244;244;244;244;244;244;244
2021-1-18 15:2:52;4.41;41;33.30;11;0.392;0.070;23.31;73.9;0.069;27.3991;24.746;27.910;25.342;393;393;393;393;393;393;393;394;394;394;255;255;255;255;255;255;255;255;255;255;244;244;244;244;244;244;244;244;244;244
2021-1-18 15:32:52;4.41;38;33.70;11;0.398;0.069;23.31;73.9;0.067;28.0691;24.173;28.593;24.756;385;385;385;385;386;386;386;386;386;386;255;255;255;255;255;255;255;255;255;255;244;244;244;244;244;244;244;244;244;244
2021-1-18 16:2:54;4.41;40;33.00;11;0.392;0.070;23.31;73.9;0.069;27.3991;24.746;27.910;25.342;394;394;394;394;394;394;394;394;394;395;255;255;255;255;255;255;255;255;255;255;244;244;244;244;244;244;244;244;244;244
2021-1-18 16:32:55;4.41;40;33.00;11;0.384;0.072;23.31;73.9;0.070;26.6991;25.325;27.198;25.935;395;395;395;395;395;395;395;395;395;395;255;255;254;255;255;255;255;255;255;255;244;244;244;244;244;244;244;244;244;244
2021-1-18 17:2:52;4.41;36;32.60;11;0.392;0.070;23.31;73.9;0.069;27.3991;24.746;27.910;25.342;396;396;396;396;396;396;396;396;396;396;255;255;255;255;255;255;255;255;255;255;244;244;244;244;244;244;244;244;244;244
2021-1-18 17:32:53;4.40;35;31.90;11;0.384;0.072;23.31;73.9;0.070;26.7061;25.330;27.210;25.909;380;380;380;380;380;380;380;380;380;380;255;255;255;255;255;255;255;255;255;255;244;244;244;244;244;244;244;244;244;244
2021-1-18 18:2:53;4.40;50;31.80;11;0.392;0.070;23.31;73.9;0.069;27.3991;24.746;27.910;25.342;380;380;380;380;380;380;381;380;381;381;255;255;254;255;254;255;255;255;255;255;244;244;244;244;244;244;244;244;244;244
2021-1-18 18:32:51;4.40;72;29.80;11;0.392;0.070;23.31;73.9;0.069;27.3991;24.746;27.910;25.342;367;367;367;367;367;367;367;367;367;367;255;255;255;255;255;255;255;255;255;255;244;244;244;244;244;244;244;244;244;244
2021-1-18 19:2:48;4.39;85;29.20;11;0.392;0.070;23.31;73.9;0.069;27.3991;24.746;27.910;25.342;355;355;355;355;355;355;355;355;356;356;254;255;255;254;255;254;254;255;254;255;244;244;244;244;244;244;244;244;244;244
2021-1-18 19:32:47;4.38;99;27.10;11;0.392;0.070;23.31;73.9;0.069;27.3991;24.746;27.910;25.342;335;335;335;335;335;335;335;335;336;336;255;255;255;254;255;255;255;254;254;254;244;244;244;244;244;244;244;244;244;244
2021-1-18 20:2:47;4.36;99;24.00;11;0.392;0.070;23.31;73.9;0.069;27.3991;24.746;27.910;25.342;349;349;349;350;350;350;350;350;350;350;255;255;255;255;255;255;255;255;255;255;244;244;244;244;244;244;244;244;244;244
2021-1-18 20:32:39;4.35;99;20.50;11;0.392;0.070;23.31;73.9;0.069;27.3991;24.746;27.910;25.342;363;363;363;363;363;363;363;363;363;363;255;255;255;255;255;255;255;255;255;255;244;244;244;244;244;244;244;244;244;244
2021-1-18 21:2:41;4.33;99;18.70;11;0.392;0.070;23.31;73.9;0.069;27.3991;24.746;27.910;25.342;367;368;367;368;368;368;368;368;368;368;255;255;255;255;255;255;255;255;255;255;244;244;244;244;244;244;244;244;244;244
2021-1-18 21:32:36;4.33;99;18.20;11;0.392;0.070;23.31;73.9;0.069;27.3991;24.746;27.910;25.342;368;368;368;368;368;368;368;368;368;368;255;255;255;255;255;255;255;255;255;255;244;244;244;244;244;244;244;244;244;244
2021-1-18 22:2:34;4.32;99;17.60;11;0.392;0.070;23.31;73.9;0.069;27.3991;24.746;27.910;25.342;365;365;365;365;366;366;366;366;366;366;255;255;255;255;255;255;255;255;255;255;244;244;244;244;244;244;244;244;244;244
2021-1-18 22:32:36;4.31;99;17.00;11;0.392;0.070;23.31;73.9;0.069;27.4061;24.751;27.923;25.317;357;357;357;357;357;357;357;357;357;357;255;255;255;255;255;255;255;255;255;255;244;244;244;244;244;244;244;244;244;244
2021-1-18 23:2:34;4.31;99;16.70;11;0.392;0.070;23.31;73.9;0.069;27.3991;24.746;27.910;25.342;349;349;349;349;349;349;349;349;349;349;255;255;255;255;255;255;255;255;255;255;244;244;244;244;244;244;244;244;244;244
2021-1-18 23:32:35;4.30;99;16.10;11;0.392;0.070;23.31;73.9;0.069;27.3991;24.746;27.910;25.342;350;350;350;350;350;350;350;350;350;350;255;255;255;255;255;255;255;255;255;255;243;243;243;243;243;243;243;243;243;243
