2021-3-8 0:2:32;4.31;99;14.60;11;0.335;0.058;23.31;73.9;0.057;22.2001;20.326;22.610;20.840;211;211;211;211;211;211;211;211;211;211;239;239;239;239;239;239;239;239;239;239;216;216;216;216;216;216;216;216;216;216
2021-3-8 0:32:32;4.30;99;13.80;11;0.328;0.059;23.31;73.9;0.058;21.6191;20.768;22.018;21.293;212;211;211;212;212;211;211;212;211;212;239;240;240;240;240;240;240;239;240;240;216;216;216;216;216;216;216;216;216;216
2021-3-8 1:2:35;4.30;99;13.50;11;0.328;0.059;23.31;73.9;0.058;21.6191;20.768;22.018;21.293;212;211;212;212;212;211;212;212;211;212;240;240;240;240;240;240;240;240;240;240;216;216;216;216;216;216;216;216;216;216
2021-3-8 1:32:30;4.30;99;13.40;11;0.328;0.059;23.31;73.9;0.058;21.6191;20.768;22.018;21.293;212;212;212;212;212;212;212;212;212;212;240;240;240;240;240;240;240;240;240;240;216;216;216;216;216;216;216;216;216;216
2021-3-8 2:2:33;4.30;99;14.00;11;0.328;0.059;23.01;73.4;0.058;21.6191;20.768;22.018;21.293;211;212;212;212;211;212;212;212;212;212;239;239;239;239;239;239;239;239;239;239;216;216;216;216;216;216;216;216;216;216
2021-3-8 2:32:32;4.30;99;13.80;11;0.330;0.058;23.31;73.9;0.057;21.8011;20.435;22.204;20.952;211;211;212;212;211;211;212;211;211;212;239;239;239;239;239;239;239;239;239;240;216;216;216;216;216;216;216;216;216;216
2021-3-8 3:2:35;4.30;99;14.10;11;0.336;0.057;23.01;73.4;0.056;22.3641;19.994;22.773;20.524;212;212;212;212;212;212;211;212;211;212;239;240;240;239;239;239;240;239;239;239;216;216;216;216;216;216;216;216;216;216
2021-3-8 3:32:34;4.30;99;13.50;11;0.330;0.058;23.01;73.4;0.057;21.8011;20.435;22.204;20.952;212;212;212;212;211;212;212;212;212;212;240;240;240;240;240;240;240;240;240;240;216;216;216;216;216;216;216;216;216;216
2021-3-8 4:2:33;4.30;99;13.00;11;0.330;0.058;23.01;73.4;0.057;21.8011;20.435;22.204;20.952;212;212;212;211;212;212;212;212;212;212;274;274;274;273;273;273;272;272;271;271;216;216;216;216;216;216;216;216;216;216
2021-3-8 4:32:32;4.30;99;12.80;11;0.323;0.060;23.31;73.9;0.058;21.2101;20.876;21.602;21.404;212;212;212;212;212;211;212;211;211;212;900;901;901;901;900;901;901;900;900;900;216;216;216;216;216;216;216;216;216;216
2021-3-8 5:2:34;4.29;99;13.50;11;0.330;0.058;23.01;73.4;0.057;21.8011;20.435;22.204;20.952;212;212;212;212;212;212;212;212;211;212;938;938;938;939;939;939;939;939;939;939;216;216;216;216;216;216;216;216;216;216
2021-3-8 5:32:32;4.29;99;12.90;11;0.330;0.058;23.01;73.4;0.057;21.8011;20.435;22.204;20.952;212;212;212;211;211;212;212;212;212;212;903;903;903;904;904;904;905;905;905;905;216;216;216;216;216;216;216;216;216;216
2021-3-8 6:2:30;4.29;99;12.40;11;0.330;0.058;23.31;73.9;0.057;21.8011;20.435;22.204;20.952;212;212;211;211;211;211;212;212;212;212;922;923;923;923;924;924;924;924;924;924;217;217;217;216;216;217;216;217;216;216
2021-3-8 6:32:33;4.29;99;12.70;11;0.330;0.058;23.31;73.9;0.057;21.8011;20.435;22.204;20.952;212;212;212;212;212;212;212;212;212;212;945;946;946;946;946;946;946;946;946;946;217;217;217;217;217;217;217;217;217;216
2021-3-8 7:2:31;4.29;99;13.70;11;0.330;0.058;23.31;73.9;0.057;21.8011;20.435;22.204;20.952;212;212;212;211;212;212;211;212;212;211;900;900;900;900;900;900;900;900;900;900;217;217;217;217;217;216;217;217;216;216
2021-3-8 7:32:34;4.30;99;15.70;11;0.330;0.058;23.01;73.4;0.057;21.7961;20.431;22.195;20.973;212;212;211;212;212;212;212;212;212;211;898;898;898;898;898;898;898;898;898;898;217;217;217;216;217;216;216;216;216;216
2021-3-8 8:2:34;4.31;99;21.50;11;0.323;0.060;23.01;73.4;0.058;21.2061;20.872;21.594;21.426;212;212;212;212;212;211;212;212;212;212;905;906;906;906;906;906;906;905;905;906;217;216;216;216;216;216;217;216;216;216
2021-3-8 8:32:36;4.33;99;26.50;11;0.330;0.058;23.01;73.4;0.057;21.7961;20.431;22.195;20.973;212;212;212;211;212;212;212;212;212;212;563;565;566;567;568;569;570;571;572;573;216;216;216;216;216;216;216;216;216;216
2021-3-8 9:2:41;4.35;60;33.20;11;0.323;0.060;23.01;73.4;0.058;21.2061;20.872;21.594;21.426;212;212;212;212;212;212;212;212;212;212;915;915;915;915;915;916;916;916;916;916;216;216;216;216;216;216;216;216;216;216
2021-3-8 9:32:41;4.37;48;38.00;11;0.338;0.056;23.01;73.4;0.055;22.5251;19.670;22.937;20.191;212;212;212;212;212;212;212;212;212;212;919;919;919;919;918;918;918;918;918;918;217;216;216;216;216;216;216;216;216;216
2021-3-8 10:2:45;4.39;38;41.90;11;0.325;0.059;23.01;73.4;0.057;21.3951;20.539;21.786;21.083;212;212;212;212;212;212;212;212;212;212;929;929;929;929;929;929;929;929;929;929;216;216;216;216;216;216;216;216;216;216
2021-3-8 10:32:49;4.41;34;39.20;11;0.332;0.057;23.01;73.4;0.056;21.9711;20.102;22.373;20.635;212;212;211;212;212;212;212;212;211;211;288;288;287;287;286;286;286;286;286;286;216;216;216;216;216;216;216;216;216;216
2021-3-8 11:2:52;4.41;30;42.20;11;0.325;0.059;23.01;73.4;0.057;21.3951;20.539;21.786;21.083;212;212;212;212;212;212;212;212;212;212;903;903;903;903;903;903;903;903;903;902;216;216;216;216;216;216;216;216;216;216
2021-3-8 11:32:58;4.43;31;42.40;11;0.325;0.059;23.01;73.4;0.057;21.3951;20.539;21.786;21.083;212;211;211;212;212;211;211;211;211;211;239;239;239;239;239;239;239;239;239;239;216;216;216;216;216;216;216;216;216;216
2021-3-8 12:2:59;4.44;32;43.30;11;0.325;0.059;23.01;73.4;0.057;21.3951;20.539;21.786;21.083;212;212;212;212;212;212;212;212;212;212;239;239;239;239;239;239;239;239;239;239;216;216;216;216;216;216;216;216;216;216
2021-3-8 12:33:3;4.44;28;39.00;11;0.325;0.059;23.01;73.4;0.057;21.3951;20.539;21.786;21.083;212;212;212;212;212;212;212;212;212;212;239;238;239;239;238;239;239;238;239;239;216;216;216;216;216;216;216;216;216;216
2021-3-8 13:3:3;4.44;28;39.10;11;0.325;0.059;23.01;73.4;0.057;21.3951;20.539;21.786;21.083;213;212;212;212;212;212;212;212;212;212;908;908;908;908;908;908;908;908;908;908;216;216;216;216;216;216;216;216;216;216
2021-3-8 13:32:58;4.44;36;39.10;11;0.324;0.058;23.01;73.4;0.057;21.3131;20.477;21.703;21.020;212;212;212;212;212;212;212;212;212;212;891;891;891;891;891;891;891;891;891;891;216;216;216;216;216;216;216;216;216;216
2021-3-8 14:3:1;4.44;37;38.50;11;0.331;0.057;23.01;73.4;0.056;21.8871;20.043;22.288;20.574;213;212;212;212;212;212;212;212;212;212;894;894;894;894;894;894;894;894;894;894;216;216;216;216;216;216;216;216;216;216
2021-3-8 14:32:58;4.44;33;41.30;11;0.324;0.058;23.01;73.4;0.057;21.3131;20.477;21.703;21.020;213;213;213;213;213;213;213;213;213;213;878;878;878;878;878;878;878;878;878;878;216;216;216;216;216;216;216;216;216;216
2021-3-8 15:3:1;4.44;35;39.50;11;0.331;0.057;23.01;73.4;0.056;21.8871;20.043;22.288;20.574;213;213;213;213;213;213;213;213;213;213;807;808;809;809;810;810;810;811;811;811;216;216;216;216;216;216;216;216;216;216
2021-3-8 15:33:0;4.44;25;42.00;11;0.331;0.057;23.01;73.4;0.056;21.8871;20.043;22.288;20.574;213;213;213;213;213;213;213;213;213;213;880;879;879;878;878;877;877;877;876;876;216;216;216;216;216;216;216;216;216;216
2021-3-8 16:3:3;4.44;35;40.40;11;0.331;0.057;23.01;73.4;0.056;21.8821;20.039;22.279;20.595;213;213;212;213;212;213;213;212;213;213;897;897;898;898;898;898;898;898;898;898;216;216;216;216;216;216;216;216;216;216
2021-3-8 16:33:2;4.43;42;34.00;11;0.324;0.058;23.01;73.4;0.057;21.3131;20.477;21.703;21.020;212;212;212;212;212;212;212;212;212;212;895;895;895;895;895;895;895;895;895;895;216;216;216;216;216;216;216;216;216;216
2021-3-8 17:2:55;4.42;36;33.80;11;0.326;0.058;23.01;73.4;0.056;21.4891;20.146;21.879;20.705;212;212;212;212;212;212;212;212;212;212;883;883;884;883;884;883;884;883;884;883;216;216;216;216;216;216;216;216;216;216
2021-3-8 17:32:56;4.41;37;33.30;11;0.319;0.059;23.01;73.4;0.057;20.9101;20.583;21.293;21.129;212;212;212;212;212;212;212;212;212;212;775;772;768;765;762;759;759;767;777;787;216;216;216;216;216;216;216;216;216;216
2021-3-8 18:2:53;4.41;41;31.00;11;0.326;0.058;23.01;73.4;0.056;21.4891;20.146;21.879;20.705;212;212;212;212;212;212;212;212;212;212;856;856;857;857;857;858;858;859;859;859;216;216;216;216;216;216;216;216;216;216
2021-3-8 18:32:48;4.40;46;28.70;11;0.326;0.058;23.01;73.4;0.056;21.4941;20.150;21.887;20.684;212;212;212;212;212;212;212;212;212;212;854;854;854;854;854;854;854;854;854;854;216;216;216;216;216;216;216;216;216;216
2021-3-8 19:2:49;4.38;59;26.20;11;0.326;0.058;23.01;73.4;0.056;21.4891;20.146;21.879;20.705;212;212;212;212;212;212;212;212;212;212;916;916;917;916;917;916;916;916;916;916;216;216;216;216;216;216;216;216;216;216
2021-3-8 19:32:43;4.37;99;22.90;11;0.330;0.057;23.01;73.4;0.056;21.7991;19.980;22.194;20.534;212;212;212;212;212;212;212;212;212;212;937;937;937;937;937;937;937;937;937;937;216;216;216;216;216;216;216;216;216;216
2021-3-8 20:2:43;4.36;99;21.10;11;0.322;0.058;23.01;73.4;0.056;21.0941;20.252;21.476;20.814;212;212;212;212;212;212;212;212;212;212;910;910;911;911;911;911;912;912;912;912;216;216;216;216;216;216;216;216;216;216
2021-3-8 20:32:40;4.35;99;19.60;11;0.332;0.056;23.01;73.4;0.055;21.9661;19.659;22.364;20.204;212;212;212;212;212;212;212;212;212;212;938;939;939;939;939;939;939;939;939;939;217;216;216;216;216;216;216;216;216;216
2021-3-8 21:2:41;4.34;99;18.10;11;0.325;0.057;23.01;73.4;0.056;21.4081;20.087;21.795;20.644;212;212;212;212;212;212;212;212;212;212;931;931;931;931;931;931;931;931;931;931;217;217;217;216;217;216;216;216;216;216
2021-3-8 21:32:36;4.33;99;17.40;11;0.325;0.057;23.01;73.4;0.056;21.4121;20.090;21.804;20.623;212;212;212;212;212;212;212;212;212;212;935;935;935;935;935;935;935;935;935;935;217;217;217;217;217;217;217;217;216;217
2021-3-8 22:2:38;4.33;99;16.90;11;0.325;0.057;23.01;73.4;0.056;21.4081;20.087;21.795;20.644;212;212;212;212;212;212;212;212;212;212;919;919;919;919;919;919;919;919;919;919;215;215;215;215;215;215;215;215;215;215
2021-3-8 22:32:36;4.33;99;17.00;11;0.325;0.057;23.01;73.4;0.056;21.4081;20.087;21.795;20.644;212;212;212;212;212;212;212;212;212;212;900;900;900;900;900;900;900;900;900;900;216;215;215;215;215;215;215;215;215;215
2021-3-8 23:2:34;4.33;99;16.80;11;0.325;0.057;23.01;73.4;0.056;21.4081;20.087;21.795;20.644;212;212;212;212;212;212;212;212;212;212;929;930;931;932;932;933;933;933;934;934;214;214;214;214;214;214;214;214;214;214
2021-3-8 23:32:36;4.33;99;17.00;11;0.325;0.057;23.01;73.4;0.056;21.4081;20.087;21.795;20.644;212;212;212;212;212;212;212;212;212;212;941;941;941;941;941;941;941;941;941;941;215;215;215;215;215;215;215;215;215;215
