2021-4-5 0:2:35;4.30;99;15.80;11;0.279;0.044;21.11;70.0;0.042;17.6301;15.049;17.876;15.883;236;236;236;236;236;236;236;236;236;236;952;952;952;952;952;952;952;952;952;952;226;226;226;226;226;226;226;226;226;226
2021-4-5 0:32:36;4.29;99;15.80;11;0.279;0.044;21.11;70.0;0.042;17.6301;15.049;17.876;15.883;234;234;234;234;234;234;234;234;234;234;944;945;945;945;945;945;945;944;945;945;227;227;227;227;227;227;227;227;227;227
2021-4-5 1:2:36;4.29;99;15.70;11;0.279;0.044;21.11;70.0;0.042;17.6271;15.047;17.871;15.899;233;233;233;233;233;233;233;233;233;233;951;951;951;951;951;951;951;951;951;951;228;228;228;228;228;228;228;228;228;228
2021-4-5 1:32:33;4.28;99;16.10;11;0.279;0.044;21.11;70.0;0.042;17.6301;15.049;17.876;15.883;232;232;232;232;232;232;232;232;232;232;947;947;947;947;947;947;947;947;947;947;227;227;227;227;227;227;227;227;227;227
2021-4-5 2:2:33;4.28;99;15.80;11;0.279;0.044;21.11;70.0;0.042;17.6301;15.049;17.876;15.883;231;231;231;231;231;231;231;231;231;231;944;945;945;945;945;945;945;945;945;945;227;227;227;227;227;227;227;227;227;227
2021-4-5 2:32:34;4.28;99;15.60;11;0.279;0.044;21.11;70.0;0.042;17.6301;15.049;17.876;15.883;230;230;230;230;230;230;230;230;230;230;944;945;945;945;945;945;945;945;945;945;227;227;227;227;227;227;227;227;227;227
2021-4-5 3:2:34;4.28;99;16.00;11;0.279;0.044;21.11;70.0;0.042;17.6271;15.047;17.871;15.899;229;229;229;229;229;229;229;229;229;229;940;940;940;940;940;940;940;941;941;941;226;226;226;226;226;226;226;226;226;226
2021-4-5 3:32:35;4.28;99;15.70;11;0.279;0.044;21.11;70.0;0.042;17.6301;15.049;17.876;15.883;229;229;229;229;229;229;229;229;229;229;294;295;295;295;295;295;295;295;295;295;226;226;226;226;226;226;226;226;226;226
2021-4-5 4:2:35;4.28;99;16.20;11;0.279;0.044;21.11;70.0;0.042;17.6301;15.049;17.876;15.883;228;228;228;229;228;229;229;228;229;229;942;942;942;942;942;942;942;942;942;942;226;226;226;226;226;226;225;225;226;226
2021-4-5 4:32:36;4.28;99;15.90;11;0.286;0.043;21.11;70.0;0.040;18.1841;14.501;18.435;15.322;228;228;228;228;228;228;228;228;228;228;950;950;950;950;950;950;950;950;950;950;227;227;227;227;227;227;227;227;227;227
2021-4-5 5:2:36;4.28;99;15.80;11;0.279;0.044;21.11;70.0;0.042;17.6301;15.049;17.876;15.883;227;227;227;227;227;227;227;227;227;227;938;938;938;938;938;938;938;938;938;938;226;226;226;226;226;226;226;226;226;226
2021-4-5 5:32:36;4.27;99;15.60;11;0.279;0.044;21.11;70.0;0.042;17.6301;15.049;17.876;15.883;227;227;227;227;227;227;227;227;227;227;928;929;928;928;928;928;928;928;928;928;227;227;227;227;227;227;227;227;227;227
2021-4-5 6:2:37;4.28;99;17.50;11;0.279;0.044;21.11;70.0;0.042;17.6301;15.049;17.876;15.883;227;227;227;227;227;227;227;227;227;227;915;915;915;915;915;915;915;915;914;915;227;227;227;227;227;226;227;226;227;227
2021-4-5 6:32:34;4.28;99;17.70;11;0.284;0.043;21.11;70.0;0.041;18.0541;14.732;18.303;15.567;226;226;226;226;226;226;226;226;226;226;917;917;917;917;917;917;917;917;917;917;226;226;226;226;226;226;226;226;226;226
2021-4-5 7:2:36;4.29;99;17.60;11;0.279;0.044;21.11;70.0;0.042;17.6271;15.047;17.871;15.899;226;226;226;226;226;226;226;226;226;226;945;945;945;945;945;945;945;946;946;946;226;226;226;226;226;226;226;226;226;226
2021-4-5 7:32:38;4.29;99;18.40;11;0.279;0.044;21.11;70.0;0.042;17.6301;15.049;17.876;15.883;226;225;225;225;225;225;225;225;225;225;946;946;946;946;946;946;946;946;946;946;226;226;226;226;226;226;226;226;226;226
2021-4-5 8:2:36;4.29;99;18.30;11;0.279;0.044;21.11;70.0;0.042;17.6301;15.049;17.876;15.883;225;225;225;225;225;225;225;225;225;225;949;950;950;950;950;950;950;950;950;950;225;225;225;225;225;225;225;225;225;225
2021-4-5 8:32:38;4.29;99;18.80;11;0.279;0.044;21.11;70.0;0.042;17.6301;15.049;17.876;15.883;225;225;225;225;225;225;225;225;225;225;950;950;950;950;950;950;950;950;950;950;227;227;227;227;227;227;226;226;227;227
2021-4-5 9:2:37;4.29;99;18.90;11;0.279;0.044;21.11;70.0;0.042;17.6301;15.049;17.876;15.883;224;224;224;224;224;224;224;224;224;224;949;949;949;949;949;949;949;949;949;949;227;227;226;227;226;227;227;226;227;226
2021-4-5 9:32:36;4.29;99;19.20;11;0.279;0.044;21.11;70.0;0.042;17.6301;15.049;17.876;15.883;224;224;224;224;224;224;224;224;224;224;951;951;951;951;951;951;951;951;951;951;227;227;227;227;227;227;227;227;227;227
2021-4-5 10:2:40;4.29;99;19.60;11;0.279;0.044;21.11;70.0;0.042;17.6301;15.049;17.876;15.883;224;224;224;224;224;224;224;224;224;224;938;940;941;942;942;942;942;942;942;942;227;227;227;227;227;227;227;227;227;227
2021-4-5 10:32:39;4.30;99;20.00;11;0.279;0.044;21.11;70.0;0.042;17.6301;15.049;17.876;15.883;224;223;223;224;224;224;224;224;224;224;950;950;950;950;950;950;950;950;950;950;227;227;227;227;227;227;227;227;227;227
2021-4-5 11:2:39;4.30;99;20.10;11;0.279;0.044;21.11;70.0;0.042;17.6271;15.047;17.871;15.899;223;223;223;223;223;223;223;223;223;223;951;951;951;951;951;951;951;951;951;951;228;227;227;227;227;227;227;227;227;227
2021-4-5 11:32:39;4.30;99;20.00;11;0.279;0.044;21.11;70.0;0.042;17.6301;15.049;17.876;15.883;223;223;223;223;223;223;223;223;223;223;950;950;950;950;950;950;950;950;950;950;228;227;227;227;227;227;227;227;227;227
2021-4-5 12:2:39;4.30;99;20.40;11;0.279;0.044;21.11;70.0;0.042;17.6301;15.049;17.876;15.883;223;223;223;223;223;223;223;223;223;223;949;950;950;950;950;950;950;950;950;950;228;228;228;228;228;228;228;228;228;228
2021-4-5 12:32:40;4.31;99;22.60;11;0.284;0.043;21.11;70.0;0.041;18.0541;14.732;18.303;15.567;223;223;223;223;223;223;223;223;223;223;950;950;950;950;950;950;950;950;950;950;228;228;228;228;228;228;228;228;228;228
2021-4-5 13:2:42;4.33;99;24.40;11;0.279;0.044;21.11;70.0;0.042;17.6301;15.049;17.876;15.883;223;223;223;223;223;223;223;223;223;223;944;944;944;944;944;944;944;944;944;944;227;227;227;227;227;227;227;227;227;227
2021-4-5 13:32:41;4.33;99;25.30;11;0.279;0.044;21.11;70.0;0.042;17.6301;15.049;17.876;15.883;223;223;223;223;223;223;223;223;223;223;950;950;950;950;950;950;950;950;950;950;227;227;227;227;227;227;227;227;227;227
2021-4-5 14:2:41;4.33;99;25.80;11;0.279;0.044;21.11;70.0;0.042;17.6301;15.049;17.876;15.883;223;223;223;223;222;223;223;223;223;223;941;942;942;942;942;942;942;942;942;942;228;228;228;228;228;228;228;227;227;227
2021-4-5 14:32:42;4.33;99;25.00;11;0.286;0.043;21.11;70.0;0.040;18.1841;14.501;18.435;15.322;222;222;222;222;222;222;222;222;222;222;951;952;952;952;952;952;952;952;952;952;227;227;227;227;227;227;227;227;227;227
2021-4-5 15:2:43;4.35;84;28.90;11;0.279;0.044;21.11;70.0;0.042;17.6301;15.049;17.876;15.883;223;222;222;222;222;222;222;222;223;222;948;948;948;948;948;948;948;948;948;948;228;228;228;228;228;228;228;228;228;228
2021-4-5 15:32:47;4.37;53;34.50;11;0.279;0.044;21.11;70.0;0.042;17.6301;15.049;17.876;15.883;223;222;222;222;222;222;222;222;222;222;950;950;950;950;950;950;950;950;950;950;228;228;228;228;227;227;227;227;227;227
2021-4-5 16:2:51;4.36;58;31.10;11;0.279;0.044;21.11;70.0;0.042;17.6301;15.049;17.876;15.883;223;222;222;223;222;223;223;222;222;222;911;911;911;911;911;911;911;911;911;911;228;228;228;228;228;228;228;228;228;228
2021-4-5 16:32:50;4.37;51;32.80;11;0.279;0.044;21.11;70.0;0.042;17.6301;15.049;17.876;15.883;222;222;222;222;222;222;222;222;222;222;950;950;950;950;950;950;950;950;950;950;228;228;228;228;228;228;228;228;228;228
2021-4-5 17:2:48;4.37;64;29.30;11;0.279;0.044;21.11;70.0;0.042;17.6301;15.049;17.876;15.883;222;222;222;222;222;222;222;222;222;222;949;949;949;949;949;949;949;949;949;949;229;229;228;228;229;229;228;228;229;229
2021-4-5 17:32:46;4.36;69;28.00;11;0.279;0.044;21.11;70.0;0.042;17.6271;15.047;17.871;15.899;222;222;222;222;222;222;222;222;222;222;947;948;948;948;948;948;948;948;948;948;229;229;229;229;229;229;229;229;229;229
2021-4-5 18:2:47;4.35;75;27.10;11;0.279;0.044;21.11;70.0;0.042;17.6301;15.049;17.876;15.883;222;222;222;222;222;222;222;222;222;222;947;948;948;948;948;948;948;948;948;948;229;229;229;229;229;229;229;229;229;229
2021-4-5 18:32:45;4.33;97;24.60;11;0.279;0.044;21.11;70.0;0.042;17.6301;15.049;17.876;15.883;222;221;221;222;222;222;221;222;221;222;952;952;952;952;952;952;952;952;952;952;229;228;228;228;228;228;228;228;228;228
2021-4-5 19:2:41;4.32;99;21.10;11;0.284;0.043;21.11;70.0;0.041;18.0541;14.732;18.303;15.567;221;221;221;221;221;221;221;221;221;221;953;953;953;953;953;953;953;953;953;953;229;228;228;228;228;228;228;228;228;228
2021-4-5 19:32:39;4.31;99;18.60;11;0.284;0.043;21.11;70.0;0.041;18.0541;14.732;18.303;15.567;221;221;221;221;221;221;221;221;221;221;951;952;952;952;952;952;952;952;952;952;228;228;228;228;228;228;228;228;228;228
2021-4-5 20:2:39;4.30;99;17.70;11;0.279;0.044;21.11;70.0;0.042;17.6271;15.047;17.871;15.899;221;221;221;221;221;221;221;221;221;221;947;947;947;947;947;947;947;947;947;947;228;228;228;228;228;228;228;228;228;228
2021-4-5 20:32:38;4.30;99;17.40;11;0.279;0.044;21.11;70.0;0.042;17.6301;15.049;17.876;15.883;221;221;221;221;221;221;221;221;221;221;950;950;950;950;950;950;950;950;950;950;229;229;229;229;229;229;229;229;229;229
2021-4-5 21:2:37;4.29;99;16.50;11;0.284;0.043;21.11;70.0;0.041;18.0541;14.732;18.303;15.567;221;221;221;221;221;221;221;221;221;221;949;949;949;950;950;950;950;950;949;950;229;229;229;229;228;229;229;228;229;229
2021-4-5 21:32:34;4.28;99;16.10;11;0.284;0.043;21.11;70.0;0.041;18.0541;14.732;18.303;15.567;221;221;221;221;221;221;221;221;221;221;954;954;954;954;954;954;954;954;954;954;228;228;228;228;228;228;228;228;228;228
2021-4-5 22:2:35;4.28;99;16.60;11;0.279;0.044;21.11;70.0;0.042;17.6271;15.047;17.871;15.899;221;221;221;221;221;221;221;221;221;221;953;953;953;953;953;953;953;953;953;953;229;229;228;228;228;228;228;228;228;228
2021-4-5 22:32:36;4.27;99;15.70;11;0.279;0.044;21.11;70.0;0.042;17.6301;15.049;17.876;15.883;221;221;221;221;221;221;221;221;221;221;953;953;953;953;953;954;954;954;954;954;229;229;229;229;229;229;229;229;229;229
2021-4-5 23:2:37;4.27;99;15.20;11;0.279;0.044;21.11;70.0;0.042;17.6301;15.049;17.876;15.883;220;221;220;220;221;221;220;220;221;220;946;947;947;947;947;947;947;947;947;947;230;230;230;230;230;230;230;230;230;230
2021-4-5 23:32:33;4.27;99;15.20;11;0.279;0.044;21.11;70.0;0.042;17.6271;15.047;17.871;15.899;221;220;220;220;220;220;220;220;220;220;945;945;945;945;944;943;943;942;945;947;229;229;229;229;229;229;229;229;229;229
