2021-4-16 0:2:35;4.30;99;16.50;11;0.396;0.077;20.31;68.5;0.072;27.8531;25.781;28.186;27.579;293;293;293;293;293;293;293;293;293;293;849;849;849;849;849;849;849;849;849;849;311;311;311;311;311;311;311;311;311;311
2021-4-16 0:32:36;4.29;99;16.30;11;0.392;0.077;20.31;68.5;0.072;27.4571;26.023;27.785;27.839;293;293;293;293;293;293;293;292;293;293;848;849;848;849;849;849;849;849;848;849;314;314;314;314;314;314;314;314;314;314
2021-4-16 1:2:33;4.29;99;15.70;11;0.384;0.079;20.31;68.5;0.074;26.7071;26.630;27.026;28.488;291;290;290;290;290;290;290;290;290;290;849;849;849;849;849;849;849;849;849;849;317;317;317;317;317;316;316;317;317;316
2021-4-16 1:32:33;4.28;99;15.50;11;0.396;0.077;20.31;68.5;0.072;27.8531;25.781;28.186;27.579;291;291;291;291;291;291;291;291;291;291;849;849;849;849;849;849;849;849;850;849;316;316;316;316;316;315;316;315;316;316
2021-4-16 2:2:33;4.28;99;15.60;11;0.384;0.079;20.31;68.5;0.074;26.7071;26.630;27.026;28.488;305;305;304;305;304;305;304;305;304;305;849;849;849;849;849;849;850;849;849;850;310;310;310;310;310;310;310;310;310;310
2021-4-16 2:32:33;4.28;99;15.40;11;0.392;0.077;20.31;68.5;0.072;27.4571;26.023;27.785;27.839;303;303;303;303;303;303;303;303;303;303;849;849;849;849;849;849;849;849;849;849;310;309;309;310;309;310;309;309;310;309
2021-4-16 3:2:33;4.28;99;15.00;11;0.384;0.079;20.31;68.5;0.074;26.7071;26.630;27.026;28.488;300;300;300;300;300;300;300;300;300;300;850;850;850;850;850;850;850;850;850;850;317;317;317;317;317;317;317;317;317;317
2021-4-16 3:32:33;4.27;99;14.90;11;0.396;0.077;20.31;68.5;0.072;27.8531;25.781;28.186;27.579;298;298;298;298;298;298;298;298;298;298;849;850;850;850;850;850;850;850;850;850;323;323;323;323;323;323;323;323;323;323
2021-4-16 4:2:33;4.27;99;14.30;11;0.396;0.077;20.31;68.5;0.072;27.8531;25.781;28.186;27.579;296;296;296;296;296;296;296;296;296;296;849;849;849;849;849;849;849;849;849;849;316;316;316;316;316;316;316;316;316;316
2021-4-16 4:32:32;4.27;99;14.50;11;0.396;0.077;20.31;68.5;0.072;27.8531;25.781;28.186;27.579;296;296;296;296;296;296;296;296;296;296;849;850;850;850;850;850;850;850;850;850;304;304;304;304;304;304;304;303;304;304
2021-4-16 5:2:35;4.27;99;14.30;11;0.384;0.079;20.31;68.5;0.074;26.7071;26.630;27.026;28.488;294;294;294;294;294;294;294;294;294;294;850;850;850;850;850;850;850;850;850;850;312;312;312;312;312;312;312;312;312;312
2021-4-16 5:32:35;4.27;99;15.80;11;0.389;0.078;20.31;68.5;0.073;27.1191;26.385;27.443;28.226;292;292;292;292;292;292;292;292;292;292;849;850;850;849;850;850;850;850;850;850;308;308;308;308;308;308;308;308;308;308
2021-4-16 6:2:34;4.27;99;15.10;11;0.396;0.077;20.31;68.5;0.072;27.8601;25.785;28.198;27.554;291;290;290;290;291;290;290;290;291;290;849;849;849;849;849;849;849;849;849;849;315;315;315;315;315;315;315;315;315;315
2021-4-16 6:32:34;4.27;99;14.60;11;0.384;0.079;20.31;68.5;0.074;26.7071;26.630;27.026;28.488;289;289;289;289;289;289;289;289;289;289;849;849;849;849;849;849;849;849;849;849;306;306;306;306;306;306;306;306;306;306
2021-4-16 7:2:33;4.27;99;14.30;11;0.396;0.077;20.31;68.5;0.072;27.8531;25.781;28.186;27.579;287;287;287;287;287;287;287;287;287;287;849;849;849;850;850;849;850;850;850;850;301;301;301;301;301;301;301;301;301;301
2021-4-16 7:32:32;4.27;99;14.70;11;0.396;0.077;20.31;68.5;0.072;27.8531;25.781;28.186;27.579;284;284;284;284;284;284;284;283;284;284;849;849;850;850;850;850;850;850;850;850;317;317;317;317;317;317;317;317;317;317
2021-4-16 8:2:36;4.28;99;18.40;11;0.384;0.079;20.31;68.5;0.074;26.7071;26.630;27.026;28.488;284;284;284;284;284;284;284;284;284;284;849;849;849;849;849;849;849;849;849;849;308;308;308;308;308;308;308;308;308;308
2021-4-16 8:32:37;4.30;99;23.00;11;0.384;0.079;20.31;68.5;0.074;26.7131;26.635;27.037;28.462;285;285;285;285;285;285;285;285;285;285;849;849;849;849;849;849;849;849;849;849;299;299;299;299;299;299;299;299;299;299
2021-4-16 9:2:36;4.33;70;27.80;11;0.389;0.078;20.31;68.5;0.073;27.1251;26.390;27.454;28.200;284;284;284;284;284;284;284;284;284;284;849;849;849;849;849;849;849;849;849;849;300;300;299;300;300;300;300;300;300;299
2021-4-16 9:32:39;4.35;64;30.10;11;0.389;0.078;20.31;68.5;0.073;27.1251;26.390;27.454;28.200;284;284;284;284;284;284;284;284;284;284;848;848;848;848;848;848;848;848;848;849;306;306;306;306;306;306;306;306;306;306
2021-4-16 10:2:44;4.37;52;32.20;11;0.396;0.077;20.31;68.5;0.072;27.8601;25.785;28.198;27.554;285;285;285;285;285;285;285;285;285;285;847;847;847;847;847;847;847;847;847;847;313;313;313;313;313;313;313;313;313;313
2021-4-16 10:32:45;4.38;55;31.70;11;0.389;0.078;20.31;68.5;0.073;27.1251;26.390;27.454;28.200;287;287;287;287;287;287;287;287;287;287;847;847;847;847;847;847;847;847;847;847;311;311;311;311;311;311;311;311;311;311
2021-4-16 11:2:48;4.38;56;31.00;11;0.396;0.077;20.31;68.5;0.072;27.8601;25.785;28.198;27.554;287;287;287;287;288;288;287;287;287;287;846;846;846;846;846;846;846;846;846;846;310;310;310;310;310;310;310;310;310;310
2021-4-16 11:32:53;4.38;54;31.20;11;0.396;0.077;20.31;68.5;0.072;27.8601;25.785;28.198;27.554;290;290;290;290;290;290;290;290;290;290;846;846;846;846;846;846;846;846;846;846;308;308;308;308;308;308;308;308;308;308
2021-4-16 12:2:50;4.39;52;32.40;11;0.389;0.078;20.31;68.5;0.073;27.1251;26.390;27.454;28.200;290;290;289;289;289;289;289;289;289;289;845;845;845;845;845;845;845;845;845;845;303;303;303;303;303;303;303;303;303;303
2021-4-16 12:32:54;4.40;47;34.10;11;0.391;0.077;20.31;68.5;0.072;27.3351;25.932;27.666;27.711;290;289;289;290;290;290;289;290;289;290;844;845;844;845;844;844;844;844;844;844;311;312;312;311;311;311;311;311;312;311
2021-4-16 13:2:55;4.39;46;32.70;11;0.391;0.077;20.31;68.5;0.072;27.3351;25.932;27.666;27.711;290;289;290;289;289;290;289;290;290;290;845;845;845;845;845;845;845;845;845;845;306;306;306;306;306;306;306;306;306;306
2021-4-16 13:32:54;4.40;44;33.80;11;0.391;0.077;20.31;68.5;0.072;27.3351;25.932;27.666;27.711;289;289;289;289;289;289;289;289;289;288;844;844;844;844;844;844;844;844;844;844;309;309;309;309;309;309;309;309;309;309
2021-4-16 14:2:54;4.40;40;35.60;11;0.398;0.075;20.31;68.5;0.070;28.0501;25.336;28.390;27.074;290;290;290;290;290;290;290;290;290;290;843;843;843;844;844;844;844;844;844;844;317;317;317;317;317;317;317;317;317;317
2021-4-16 14:32:56;4.40;43;33.50;11;0.391;0.077;20.31;68.5;0.072;27.3351;25.932;27.666;27.711;291;291;291;291;291;291;291;291;291;291;843;843;843;843;843;843;843;843;843;843;315;315;315;315;315;315;315;315;315;315
2021-4-16 15:2:57;4.40;42;34.10;11;0.391;0.077;20.31;68.5;0.072;27.3351;25.932;27.666;27.711;291;291;291;291;291;291;291;291;291;291;842;842;842;843;843;843;843;843;843;842;308;308;307;307;308;308;308;307;308;307
2021-4-16 15:32:53;4.40;44;34.00;11;0.391;0.077;20.51;68.9;0.072;27.3351;25.932;27.666;27.711;283;283;283;283;283;283;283;283;283;283;842;842;843;843;843;843;843;843;843;843;308;308;308;308;308;308;308;308;308;308
2021-4-16 16:2:52;4.39;43;33.30;11;0.391;0.077;20.31;68.5;0.072;27.3351;25.932;27.666;27.711;289;289;290;289;290;289;289;289;289;290;842;842;842;842;842;842;842;842;842;842;304;304;304;304;304;304;304;304;304;304
2021-4-16 16:32:51;4.39;48;31.80;11;0.391;0.077;20.31;68.5;0.072;27.3351;25.932;27.666;27.711;290;290;290;290;290;290;290;290;290;290;842;843;843;843;843;843;843;843;843;843;311;311;311;311;311;311;311;311;311;311
2021-4-16 17:2:52;4.38;50;30.50;11;0.391;0.077;20.31;68.5;0.072;27.3351;25.932;27.666;27.711;290;289;289;289;290;290;289;290;289;289;842;842;842;842;842;842;842;842;842;842;317;317;317;317;317;317;317;317;317;317
2021-4-16 17:32:51;4.37;54;29.10;11;0.391;0.077;20.31;68.5;0.072;27.3351;25.932;27.666;27.711;288;288;288;288;288;288;288;288;289;288;841;842;842;842;842;842;841;842;842;842;313;313;313;312;312;312;312;312;312;312
2021-4-16 18:2:48;4.36;68;27.00;11;0.391;0.077;20.31;68.5;0.072;27.3351;25.932;27.666;27.711;286;286;286;286;286;286;286;286;286;286;842;842;842;842;842;842;842;842;842;842;323;323;323;323;323;323;323;323;323;323
2021-4-16 18:32:47;4.34;99;24.20;11;0.383;0.079;20.51;68.9;0.074;26.5881;26.535;26.910;28.355;283;283;283;283;283;283;283;283;283;283;843;843;843;843;843;843;843;843;843;843;319;319;319;319;319;319;319;319;319;319
2021-4-16 19:2:43;4.33;99;21.80;11;0.393;0.076;20.31;68.5;0.071;27.5341;25.483;27.868;27.230;282;282;281;281;281;282;281;282;282;282;844;844;844;844;844;844;844;844;844;844;316;316;316;316;316;316;316;316;316;316
2021-4-16 19:32:41;4.33;99;21.00;11;0.385;0.077;20.51;68.9;0.073;26.8141;26.083;27.143;27.840;280;280;280;280;280;280;280;280;280;280;843;843;843;843;844;843;843;843;843;843;322;322;322;322;322;322;322;322;322;322
2021-4-16 20:2:37;4.32;99;20.10;11;0.393;0.076;20.31;68.5;0.071;27.5341;25.483;27.868;27.230;279;279;279;279;279;279;279;279;279;279;843;844;844;844;844;844;844;844;844;844;321;321;321;321;321;321;321;321;321;321
2021-4-16 20:32:37;4.31;99;18.60;11;0.391;0.077;20.31;68.5;0.072;27.3351;25.932;27.666;27.711;278;278;278;278;278;278;278;278;278;278;844;845;845;845;845;845;845;845;845;845;318;318;318;318;318;318;318;318;318;318
2021-4-16 21:2:36;4.30;99;18.30;11;0.393;0.076;20.51;68.9;0.071;27.5341;25.483;27.868;27.230;276;276;276;276;276;276;276;276;276;276;844;845;845;845;845;845;845;844;845;845;320;320;320;320;320;320;320;320;320;320
2021-4-16 21:32:38;4.30;99;17.60;11;0.393;0.076;20.51;68.9;0.071;27.5341;25.483;27.868;27.230;276;276;276;276;276;276;276;276;276;276;845;845;845;845;845;845;845;845;845;845;322;322;322;322;322;322;322;322;322;322
2021-4-16 22:2:36;4.30;99;16.70;11;0.385;0.077;20.51;68.9;0.072;26.8071;26.078;27.132;27.866;275;275;275;275;275;275;275;275;275;275;844;845;845;845;845;845;845;845;845;845;322;322;321;321;321;321;321;321;321;321
2021-4-16 22:32:37;4.29;99;16.10;11;0.393;0.076;20.31;68.5;0.071;27.5341;25.483;27.868;27.230;273;273;273;273;273;273;273;273;273;273;845;845;845;845;845;845;845;845;845;845;319;319;319;319;319;319;318;319;319;319
2021-4-16 23:2:34;4.29;99;16.10;11;0.383;0.079;20.51;68.9;0.074;26.5941;26.541;26.921;28.329;273;272;272;272;272;272;272;272;272;272;845;845;845;845;845;845;845;845;845;845;313;313;313;313;313;313;313;313;313;313
2021-4-16 23:32:34;4.28;99;16.00;11;0.385;0.077;20.51;68.9;0.072;26.8071;26.078;27.132;27.866;272;272;272;272;272;272;272;272;272;272;845;845;845;845;845;845;845;845;845;845;313;314;313;313;313;313;313;313;313;313
