2021-3-12 0:2:36;4.33;99;17.50;11;0.317;0.052;23.01;73.4;0.051;20.7381;18.169;21.114;18.673;217;217;216;217;216;217;217;217;217;216;935;935;935;935;936;935;936;936;936;936;219;219;219;219;219;219;219;219;219;219
2021-3-12 0:32:34;4.32;99;17.20;11;0.311;0.053;23.01;73.4;0.052;20.2211;18.560;20.587;19.075;217;217;217;217;217;217;216;217;217;216;937;937;937;937;937;937;937;937;937;937;219;219;219;219;219;219;219;219;219;219
2021-3-12 1:2:37;4.32;99;16.60;11;0.319;0.051;23.01;73.4;0.050;20.8901;17.880;21.268;18.376;217;217;217;217;217;217;217;217;217;217;939;939;939;939;939;936;932;928;924;922;219;219;219;219;219;219;219;219;219;219
2021-3-12 1:32:35;4.32;99;17.20;11;0.307;0.053;23.01;73.4;0.052;19.8591;18.657;20.218;19.175;217;217;217;217;217;217;217;217;217;217;944;944;944;944;944;944;944;944;944;944;219;219;219;219;219;219;219;219;219;219
2021-3-12 2:2:37;4.32;99;17.20;11;0.307;0.053;23.01;73.4;0.052;19.8591;18.657;20.218;19.175;217;217;217;217;217;217;217;217;217;217;935;935;935;935;935;935;935;935;935;935;219;219;219;219;219;219;219;219;219;219
2021-3-12 2:32:34;4.31;99;16.60;11;0.313;0.052;23.01;73.4;0.051;20.3841;18.267;20.753;18.774;217;217;217;217;217;217;217;217;217;217;893;895;896;897;898;899;900;901;903;904;219;219;219;219;219;219;219;219;219;219
2021-3-12 3:2:36;4.31;99;17.30;11;0.313;0.052;23.01;73.4;0.051;20.3841;18.267;20.753;18.774;217;217;217;217;217;217;217;217;217;217;241;241;241;241;241;241;241;241;241;241;219;219;219;219;219;219;219;219;219;219
2021-3-12 3:32:38;4.31;99;16.00;11;0.313;0.052;23.01;73.4;0.051;20.3841;18.267;20.753;18.774;217;217;217;217;217;217;217;217;217;217;241;241;241;241;241;241;241;241;241;241;219;219;219;219;219;219;219;219;219;219
2021-3-12 4:2:35;4.30;99;15.70;11;0.319;0.051;23.01;73.4;0.050;20.8861;17.877;21.260;18.395;217;217;217;217;217;217;217;217;217;217;240;240;240;240;240;240;240;240;240;240;219;219;219;219;219;219;219;219;219;219
2021-3-12 4:32:36;4.30;99;15.40;11;0.307;0.053;23.01;73.4;0.052;19.8591;18.657;20.218;19.175;217;217;217;217;217;217;217;217;217;217;919;918;918;917;918;920;921;923;924;922;219;219;219;219;219;219;219;219;219;219
2021-3-12 5:2:37;4.30;99;15.70;11;0.307;0.053;23.01;73.4;0.052;19.8591;18.657;20.218;19.175;217;217;217;217;217;217;217;217;217;217;240;240;240;240;240;240;240;240;240;240;219;219;219;219;219;219;219;219;219;219
2021-3-12 5:32:33;4.30;99;16.30;11;0.313;0.052;23.01;73.4;0.051;20.3841;18.267;20.753;18.774;217;217;217;217;217;217;217;217;217;217;239;240;239;240;240;239;240;240;240;239;219;219;219;219;219;219;219;219;219;219
2021-3-12 6:2:34;4.30;99;15.60;11;0.307;0.053;23.01;73.4;0.052;19.8591;18.657;20.218;19.175;217;217;217;217;217;217;217;217;217;217;239;240;240;239;240;239;240;240;239;240;219;219;219;219;219;219;219;219;219;219
2021-3-12 6:32:35;4.30;99;15.40;11;0.313;0.052;23.01;73.4;0.051;20.3841;18.267;20.753;18.774;217;217;217;217;217;217;217;217;217;217;240;240;240;240;240;240;240;240;240;240;219;219;219;219;219;219;219;219;219;219
2021-3-12 7:2:36;4.30;99;16.00;11;0.309;0.052;23.01;73.4;0.051;20.0271;18.364;20.390;18.873;217;217;217;217;217;217;217;217;217;217;239;239;239;239;239;239;239;240;239;239;219;219;219;219;219;219;219;219;219;219
2021-3-12 7:32:32;4.30;99;19.50;11;0.309;0.052;23.01;73.4;0.051;20.0271;18.364;20.390;18.873;217;217;217;217;217;217;217;217;217;217;239;239;239;239;239;239;239;239;239;239;219;219;219;219;219;219;219;219;219;219
2021-3-12 8:2:35;4.32;99;22.80;11;0.309;0.052;23.01;73.4;0.051;20.0271;18.364;20.390;18.873;217;217;217;217;217;217;217;217;217;217;239;239;239;239;239;239;239;239;239;239;219;219;219;219;219;219;219;219;219;219
2021-3-12 8:32:39;4.34;84;27.50;11;0.309;0.052;23.01;73.4;0.051;20.0271;18.364;20.390;18.873;217;217;217;217;217;217;217;217;217;217;239;239;239;239;239;239;239;239;239;239;219;219;219;219;219;219;219;219;219;219
2021-3-12 9:2:42;4.36;91;26.00;11;0.315;0.051;23.01;73.4;0.050;20.5411;17.978;20.913;18.476;217;217;217;217;217;217;217;217;217;217;239;239;239;239;239;240;239;239;239;239;219;219;219;219;219;219;219;219;219;219
2021-3-12 9:32:43;4.37;90;26.10;11;0.309;0.052;23.01;73.4;0.051;20.0271;18.364;20.390;18.873;217;217;217;217;217;217;217;217;217;217;239;239;239;239;239;238;239;239;239;239;219;219;219;219;219;219;219;219;219;219
2021-3-12 10:2:46;4.38;73;27.90;11;0.317;0.051;23.01;73.4;0.049;20.6921;17.691;21.066;18.182;217;217;217;217;217;217;217;217;217;217;239;239;239;239;239;239;239;239;239;239;219;219;219;219;219;219;219;219;219;219
2021-3-12 10:32:46;4.39;53;33.10;11;0.309;0.052;23.01;73.4;0.051;20.0271;18.364;20.390;18.873;217;217;217;217;217;217;217;217;217;217;940;940;940;940;940;940;940;940;940;940;219;219;219;219;219;219;219;219;219;219
2021-3-12 11:2:50;4.39;48;33.10;11;0.311;0.052;23.01;73.4;0.050;20.1901;18.074;20.555;18.575;217;217;217;217;217;217;217;217;217;217;939;939;939;939;939;939;939;939;939;939;219;219;219;219;219;219;219;219;219;219
2021-3-12 11:32:50;4.40;48;34.90;11;0.311;0.052;23.01;73.4;0.050;20.1901;18.074;20.555;18.575;218;217;217;217;217;218;217;217;217;217;923;923;923;923;923;923;923;924;923;924;219;219;219;219;219;219;219;219;219;219
2021-3-12 12:2:52;4.41;45;36.40;11;0.314;0.051;23.01;73.4;0.050;20.4681;17.928;20.839;18.426;218;218;218;218;218;218;218;217;218;218;911;911;911;911;911;911;911;912;912;912;219;219;219;219;219;219;219;219;219;219
2021-3-12 12:32:51;4.41;49;35.00;11;0.314;0.051;23.01;73.4;0.050;20.4681;17.928;20.839;18.426;218;218;218;218;218;218;217;217;217;218;940;941;941;941;941;941;941;941;941;941;219;219;219;219;219;219;219;219;219;219
2021-3-12 13:2:54;4.41;47;35.60;11;0.308;0.052;23.01;73.4;0.051;19.9561;18.313;20.318;18.821;218;218;218;218;217;218;218;218;218;218;940;940;940;940;940;940;940;940;940;940;219;219;219;219;219;219;219;219;219;219
2021-3-12 13:32:53;4.41;58;32.90;11;0.308;0.052;23.01;73.4;0.051;19.9561;18.313;20.318;18.821;218;218;218;218;218;218;218;218;218;218;921;921;921;921;920;920;920;920;920;920;219;219;219;219;219;219;219;219;219;219
2021-3-12 14:2:51;4.41;49;33.10;11;0.308;0.052;23.01;73.4;0.051;19.9561;18.313;20.318;18.821;218;218;218;218;218;218;218;218;218;218;926;927;927;927;927;927;927;927;927;927;219;219;219;219;219;219;219;219;219;219
2021-3-12 14:32:53;4.41;56;32.60;11;0.308;0.052;23.01;73.4;0.051;19.9561;18.313;20.318;18.821;218;218;218;218;218;218;218;218;218;218;922;922;922;922;922;922;922;922;922;922;219;219;219;219;219;219;219;219;219;219
2021-3-12 15:2:52;4.41;48;34.50;11;0.314;0.051;23.01;73.4;0.050;20.4641;17.926;20.831;18.444;218;218;218;218;218;218;218;218;218;218;937;937;937;937;937;937;937;938;938;938;219;219;219;219;219;219;219;219;219;219
2021-3-12 15:32:56;4.42;46;35.30;11;0.308;0.052;23.01;73.4;0.051;19.9561;18.313;20.318;18.821;218;218;218;218;218;218;218;218;218;218;945;945;945;945;946;946;946;946;946;946;219;219;219;219;219;219;219;219;219;219
2021-3-12 16:2:57;4.42;51;33.40;11;0.308;0.052;23.01;73.4;0.051;19.9561;18.313;20.318;18.821;218;218;218;218;218;218;218;218;218;218;890;890;890;889;889;889;889;889;889;888;220;219;220;219;219;220;219;219;219;219
2021-3-12 16:32:52;4.41;63;29.40;11;0.304;0.053;23.01;73.4;0.051;19.5991;18.409;19.954;18.919;218;218;218;218;218;218;218;218;218;218;932;932;932;932;932;932;932;932;932;932;220;219;219;219;219;219;219;219;219;219
2021-3-12 17:2:51;4.40;81;28.50;11;0.310;0.051;23.01;73.4;0.050;20.1181;18.025;20.483;18.524;218;218;218;218;218;218;218;218;218;218;916;916;916;916;916;916;916;916;916;917;219;219;219;219;219;219;219;219;219;219
2021-3-12 17:32:49;4.39;91;27.20;11;0.310;0.051;23.01;73.4;0.050;20.1181;18.025;20.483;18.524;218;218;218;218;218;218;218;218;218;218;929;930;929;929;930;930;930;930;930;930;220;219;219;219;219;219;219;219;219;219
2021-3-12 18:2:44;4.38;99;25.70;11;0.310;0.051;23.01;73.4;0.050;20.1181;18.025;20.483;18.524;218;218;218;218;218;218;218;218;218;218;922;923;923;923;923;924;924;924;924;924;219;219;219;219;219;219;219;219;219;219
2021-3-12 18:32:47;4.37;99;24.60;11;0.304;0.053;23.01;73.4;0.051;19.5991;18.409;19.954;18.919;218;218;218;218;218;218;218;218;218;218;929;929;929;929;929;929;929;929;929;929;220;220;219;219;219;219;220;220;219;219
2021-3-12 19:2:44;4.36;99;23.40;11;0.304;0.053;23.01;73.4;0.051;19.5991;18.409;19.954;18.919;218;219;219;218;218;218;218;218;218;218;889;889;889;889;889;889;889;889;889;889;220;220;220;220;220;220;220;220;220;220
2021-3-12 19:32:40;4.35;99;22.40;11;0.310;0.051;23.01;73.4;0.050;20.1181;18.025;20.483;18.524;218;218;218;218;218;218;218;218;218;218;937;937;937;937;937;937;936;937;937;936;220;220;219;219;219;220;219;220;220;219
2021-3-12 20:2:44;4.35;99;21.80;11;0.304;0.053;23.01;73.4;0.051;19.5991;18.409;19.954;18.919;218;218;218;218;218;218;218;218;218;218;931;931;931;931;931;931;931;931;931;931;220;220;219;220;220;219;219;220;220;219
2021-3-12 20:32:42;4.35;99;21.40;11;0.304;0.053;23.01;73.4;0.051;19.5991;18.409;19.954;18.919;218;218;218;218;218;218;218;218;218;218;923;923;923;923;924;924;924;924;925;922;220;220;219;220;220;220;220;220;220;220
2021-3-12 21:2:40;4.35;99;21.00;11;0.304;0.053;23.01;73.4;0.051;19.5991;18.409;19.954;18.919;218;218;218;218;218;218;218;218;218;218;936;936;936;936;936;936;936;936;936;936;220;220;220;219;220;220;219;220;220;220
2021-3-12 21:32:42;4.34;99;20.80;11;0.306;0.052;23.01;73.4;0.050;19.7671;18.120;20.125;18.622;218;218;218;218;218;218;218;218;218;218;796;796;797;797;798;798;799;799;799;799;220;220;220;220;220;220;220;220;220;220
2021-3-12 22:2:39;4.34;99;21.00;11;0.306;0.052;23.01;73.4;0.050;19.7671;18.120;20.125;18.622;218;218;218;218;218;218;218;218;218;218;803;804;804;804;804;804;804;804;804;803;220;220;220;220;220;220;220;220;219;220
2021-3-12 22:32:40;4.34;99;21.00;11;0.306;0.052;23.01;73.4;0.050;19.7671;18.120;20.125;18.622;218;218;218;218;218;218;218;218;218;218;243;243;243;243;243;243;243;243;243;243;219;220;220;220;220;220;220;220;220;220
2021-3-12 23:2:38;4.33;99;20.70;11;0.306;0.052;22.81;73.0;0.050;19.7631;18.117;20.117;18.641;218;218;218;218;218;218;218;218;218;218;242;242;242;242;242;242;241;242;241;241;220;220;220;219;220;220;219;220;220;220
2021-3-12 23:32:39;4.33;99;20.40;11;0.299;0.053;23.01;73.4;0.051;19.2391;18.503;19.588;19.016;218;218;218;218;218;218;218;218;218;218;755;755;755;755;755;755;755;755;755;755;220;220;220;220;220;220;219;220;220;220
