2021-3-10 0:2:38;4.33;99;16.70;11;0.323;0.056;23.01;73.4;0.054;21.2071;19.440;21.591;19.979;213;213;213;213;213;213;213;213;213;213;939;940;940;940;940;940;940;940;940;939;217;217;217;217;217;217;217;217;217;217
2021-3-10 0:32:35;4.32;99;16.70;11;0.323;0.056;23.01;73.4;0.054;21.2071;19.440;21.591;19.979;213;213;213;213;213;213;213;213;213;213;927;927;927;926;926;926;926;926;926;926;217;217;217;217;217;217;217;217;217;217
2021-3-10 1:2:37;4.32;99;16.20;11;0.325;0.055;23.01;73.4;0.053;21.3731;19.129;21.760;19.660;213;213;213;213;213;213;213;213;213;213;241;241;241;241;241;241;241;241;241;241;217;217;217;217;217;217;217;217;217;217
2021-3-10 1:32:34;4.32;99;16.00;11;0.318;0.056;23.01;73.4;0.054;20.8271;19.543;21.204;20.085;213;213;213;213;213;213;213;213;213;213;240;240;240;240;240;240;240;240;240;240;217;217;217;217;217;217;217;217;217;217
2021-3-10 2:2:35;4.31;99;16.20;11;0.318;0.056;23.01;73.4;0.054;20.8271;19.543;21.204;20.085;213;213;213;213;214;213;213;213;213;213;929;929;929;929;929;929;929;929;929;929;217;217;217;217;217;217;217;217;217;217
2021-3-10 2:32:36;4.31;99;15.80;11;0.318;0.056;23.01;73.4;0.054;20.8271;19.543;21.204;20.085;213;213;213;213;213;213;213;213;213;213;240;239;239;240;240;240;240;239;240;240;217;217;217;217;217;217;217;217;217;217
2021-3-10 3:2:33;4.31;99;15.60;11;0.318;0.056;23.01;73.4;0.054;20.8271;19.543;21.204;20.085;214;213;213;213;213;213;213;213;213;214;239;239;239;239;239;239;239;239;239;239;217;217;217;217;217;217;217;217;217;217
2021-3-10 3:32:33;4.31;99;15.30;11;0.318;0.056;23.01;73.4;0.054;20.8271;19.543;21.204;20.085;213;213;213;213;213;213;213;213;213;213;933;934;934;935;935;936;936;936;936;936;217;217;217;217;217;217;217;217;217;217
2021-3-10 4:2:34;4.30;99;15.20;11;0.318;0.056;23.01;73.4;0.054;20.8271;19.543;21.204;20.085;213;213;213;213;213;213;213;213;213;213;933;933;933;933;933;933;933;933;933;933;217;217;217;217;217;217;217;217;217;217
2021-3-10 4:32:34;4.30;99;14.50;11;0.318;0.056;23.01;73.4;0.054;20.8271;19.543;21.204;20.085;213;213;213;213;213;213;213;213;213;213;943;944;944;944;944;944;944;944;944;944;217;217;217;217;217;217;217;217;217;217
2021-3-10 5:2:34;4.30;99;14.30;11;0.318;0.056;23.01;73.4;0.054;20.8271;19.543;21.204;20.085;213;213;213;213;213;213;213;213;213;213;926;925;925;925;924;923;922;922;921;922;217;217;217;217;217;217;217;217;217;217
2021-3-10 5:32:33;4.30;99;13.80;11;0.318;0.056;23.01;73.4;0.054;20.8271;19.543;21.204;20.085;213;213;213;213;213;213;213;213;213;213;937;937;937;938;937;938;938;938;938;937;218;217;217;217;217;217;217;217;217;217
2021-3-10 6:2:33;4.30;99;13.80;11;0.318;0.056;23.01;73.4;0.054;20.8271;19.543;21.204;20.085;213;213;213;213;213;213;213;213;213;213;921;921;921;922;922;922;922;922;922;922;218;217;217;217;217;217;217;217;217;217
2021-3-10 6:32:32;4.30;99;13.60;11;0.318;0.056;23.01;73.4;0.054;20.8271;19.543;21.204;20.085;213;213;213;213;213;213;213;213;213;213;930;930;930;930;930;930;930;930;930;930;218;217;218;218;218;217;217;217;217;217
2021-3-10 7:2:31;4.30;99;14.40;11;0.318;0.056;23.01;73.4;0.054;20.8271;19.543;21.204;20.085;213;213;213;213;213;213;213;213;213;213;940;940;940;940;940;940;940;940;940;940;218;218;217;217;217;217;217;218;217;217
2021-3-10 7:32:34;4.30;99;18.80;11;0.318;0.056;23.01;73.4;0.054;20.8271;19.543;21.204;20.085;213;213;213;213;213;213;213;213;213;213;925;925;925;925;926;926;926;926;926;926;218;217;218;217;217;217;218;217;218;217
2021-3-10 8:2:36;4.32;99;24.00;11;0.322;0.055;23.01;73.4;0.054;21.1281;19.384;21.511;19.921;214;213;213;213;213;213;213;213;213;213;944;944;944;944;944;944;944;944;944;944;218;218;217;217;217;218;217;217;218;217
2021-3-10 8:32:39;4.33;99;25.20;11;0.322;0.055;23.01;73.4;0.054;21.1281;19.384;21.511;19.921;214;214;213;213;213;214;214;213;213;213;929;930;930;930;930;930;930;930;930;930;218;217;218;217;217;217;217;217;217;217
2021-3-10 9:2:41;4.35;90;28.40;11;0.314;0.056;23.01;73.4;0.055;20.4441;19.645;20.814;20.189;213;213;214;213;213;213;213;213;213;213;932;932;932;932;932;932;932;932;932;932;217;217;217;217;217;217;217;217;217;217
2021-3-10 9:32:42;4.38;52;32.30;11;0.324;0.054;23.01;73.4;0.053;21.2941;19.075;21.680;19.603;213;213;213;214;213;213;213;213;213;213;906;906;906;906;906;906;907;907;908;909;217;217;217;217;217;217;217;217;217;217
2021-3-10 10:2:48;4.39;48;34.60;11;0.318;0.056;23.01;73.4;0.054;20.7501;19.486;21.125;20.026;214;213;214;213;214;213;213;213;213;213;924;925;925;926;922;923;924;925;926;926;217;217;217;217;217;217;217;217;217;217
2021-3-10 10:32:52;4.40;39;35.90;11;0.318;0.056;23.01;73.4;0.054;20.7501;19.486;21.125;20.026;213;213;213;213;213;213;213;213;213;213;240;240;240;240;240;240;240;240;240;240;217;217;217;217;217;217;217;217;217;217
2021-3-10 11:2:54;4.41;37;38.40;11;0.318;0.056;23.01;73.4;0.054;20.7501;19.486;21.125;20.026;213;213;213;213;213;213;213;213;213;213;495;495;495;495;495;495;495;495;495;495;217;217;217;217;216;217;217;216;217;217
2021-3-10 11:32:55;4.41;34;38.50;11;0.324;0.055;23.01;73.4;0.053;21.2901;19.071;21.671;19.623;214;214;214;214;214;214;214;214;214;214;916;917;917;917;917;917;917;917;917;917;217;217;217;217;217;217;217;217;217;217
2021-3-10 12:2:57;4.42;30;38.90;11;0.324;0.054;23.01;73.4;0.053;21.2941;19.075;21.680;19.603;213;213;213;213;213;213;213;213;213;213;240;240;240;240;240;240;240;240;240;240;217;217;217;217;217;217;217;217;217;217
2021-3-10 12:32:56;4.42;27;40.60;11;0.318;0.056;23.01;73.4;0.054;20.7501;19.486;21.125;20.026;213;213;213;213;213;213;213;213;213;213;245;245;245;245;244;245;245;245;244;244;217;217;217;217;217;217;217;217;217;217
2021-3-10 13:2:58;4.43;29;39.70;11;0.320;0.055;23.01;73.4;0.053;20.9211;19.177;21.300;19.708;214;214;214;214;214;213;214;214;214;214;239;239;239;239;239;239;239;239;239;239;217;217;217;217;217;217;217;217;217;217
2021-3-10 13:32:59;4.43;30;39.40;11;0.320;0.055;23.01;73.4;0.053;20.9171;19.174;21.292;19.729;214;214;214;214;214;214;214;214;214;214;239;239;239;239;239;239;239;239;239;239;217;217;217;217;217;217;217;217;217;217
2021-3-10 14:3:1;4.44;27;40.50;11;0.320;0.055;23.01;73.4;0.053;20.9171;19.174;21.292;19.729;214;214;214;214;214;214;214;214;214;214;932;932;932;932;932;932;932;932;932;932;217;217;217;218;217;217;217;217;217;217
2021-3-10 14:33:0;4.44;26;38.20;11;0.320;0.055;23.01;73.4;0.053;20.9211;19.177;21.300;19.708;215;214;214;214;214;214;214;214;214;214;935;935;935;935;935;935;935;935;935;936;218;217;218;217;217;217;217;217;217;217
2021-3-10 15:3:2;4.44;29;39.50;11;0.320;0.055;23.01;73.4;0.053;20.9171;19.174;21.292;19.729;215;214;214;214;214;214;214;214;214;214;929;929;929;929;929;929;930;929;929;929;218;217;217;217;217;217;217;217;217;217
2021-3-10 15:33:0;4.44;26;39.30;11;0.313;0.056;23.01;73.4;0.054;20.3641;19.584;20.729;20.151;214;214;214;214;214;214;214;214;214;214;240;240;240;240;240;240;240;240;240;240;217;217;217;217;217;217;217;217;217;217
2021-3-10 16:3:1;4.43;27;37.60;11;0.315;0.055;23.01;73.4;0.054;20.5461;19.278;20.918;19.812;214;214;214;214;214;214;214;214;214;214;239;239;239;239;239;239;239;239;239;239;217;217;217;217;217;217;217;217;217;217
2021-3-10 16:32:57;4.43;28;38.70;11;0.319;0.055;23.01;73.4;0.053;20.8441;19.122;21.222;19.652;214;214;214;214;214;214;214;214;214;214;239;239;239;239;239;239;239;239;239;239;217;217;217;217;217;217;217;217;217;217
2021-3-10 17:2:57;4.43;27;37.80;11;0.319;0.055;23.01;73.4;0.053;20.8441;19.122;21.222;19.652;214;214;214;214;214;214;214;214;214;214;239;239;239;239;239;239;239;239;239;239;217;217;217;217;217;217;217;217;217;217
2021-3-10 17:32:56;4.42;33;35.00;11;0.319;0.055;23.01;73.4;0.053;20.8441;19.122;21.222;19.652;214;214;214;214;214;214;214;214;214;214;239;239;239;239;239;239;239;239;239;239;217;217;217;217;217;217;217;217;217;217
2021-3-10 18:2:56;4.41;37;33.20;11;0.321;0.054;23.01;73.4;0.052;21.0091;18.818;21.389;19.340;214;214;214;214;214;214;214;214;214;214;239;239;239;239;239;239;239;239;239;239;217;217;217;217;217;217;217;217;217;217
2021-3-10 18:32:54;4.41;45;30.40;11;0.321;0.054;23.01;73.4;0.052;21.0091;18.818;21.389;19.340;214;214;214;214;214;214;214;214;214;214;239;239;239;239;239;239;239;239;239;239;217;218;217;217;217;218;217;217;218;217
2021-3-10 19:2:48;4.39;54;27.30;11;0.314;0.055;23.01;73.4;0.053;20.4711;19.223;20.841;19.756;214;214;214;214;214;214;214;214;214;214;239;239;239;239;239;239;239;239;239;239;218;217;218;218;218;218;218;218;218;217
2021-3-10 19:32:44;4.38;79;24.20;11;0.314;0.055;23.01;73.4;0.053;20.4711;19.223;20.841;19.756;214;214;214;214;214;214;214;214;214;214;239;239;239;239;239;239;239;239;239;239;218;218;218;218;218;218;218;218;218;218
2021-3-10 20:2:45;4.36;99;22.40;11;0.314;0.055;23.01;73.4;0.053;20.4711;19.223;20.841;19.756;214;214;214;214;214;214;214;214;214;214;239;239;239;239;239;239;239;239;239;239;218;218;218;218;218;218;218;218;218;218
2021-3-10 20:32:40;4.35;99;21.50;11;0.314;0.055;23.01;73.4;0.053;20.4711;19.223;20.841;19.756;215;214;214;214;214;214;214;214;215;214;930;930;930;930;930;930;930;930;930;930;218;218;218;218;218;218;218;218;218;218
2021-3-10 21:2:42;4.35;99;19.70;11;0.314;0.055;23.01;73.4;0.053;20.4711;19.223;20.841;19.756;214;214;214;214;214;214;214;214;214;214;908;908;909;908;908;908;908;909;909;909;218;218;218;218;218;218;218;218;218;218
2021-3-10 21:32:38;4.34;99;18.60;11;0.314;0.055;23.01;73.4;0.053;20.4711;19.223;20.841;19.756;214;214;214;214;214;214;214;214;214;214;935;935;935;935;935;935;935;935;935;935;218;218;218;218;218;218;218;218;218;218
2021-3-10 22:2:38;4.33;99;17.90;11;0.314;0.055;23.01;73.4;0.053;20.4711;19.223;20.841;19.756;215;214;214;214;215;214;214;214;214;214;933;933;933;933;933;933;933;933;933;933;218;218;218;218;218;218;218;218;218;218
2021-3-10 22:32:37;4.33;99;17.20;11;0.314;0.055;23.01;73.4;0.053;20.4711;19.223;20.841;19.756;215;215;214;215;214;215;214;215;214;214;915;916;916;915;916;916;916;916;916;916;218;218;218;218;218;218;218;218;218;218
2021-3-10 23:2:35;4.33;99;17.10;11;0.316;0.054;23.01;73.4;0.053;20.6411;18.918;21.015;19.443;215;215;215;215;215;215;215;214;215;215;948;948;948;948;948;948;948;948;948;948;218;218;218;218;218;218;218;218;218;218
2021-3-10 23:32:37;4.32;99;16.60;11;0.316;0.054;23.01;73.4;0.053;20.6411;18.918;21.015;19.443;215;215;215;215;215;215;215;215;215;215;949;949;949;949;949;949;949;949;949;949;218;218;218;218;218;218;218;218;218;218
