2021-1-6 0:2:35;4.29;99;17.80;11;0.421;0.076;23.91;75.1;0.075;30.3011;27.104;30.919;27.460;228;228;228;228;228;228;228;228;228;228;257;257;257;257;257;257;257;257;257;257;242;242;242;242;242;242;242;242;242;242
2021-1-6 0:32:37;4.26;99;17.30;11;0.421;0.076;23.91;75.1;0.075;30.3011;27.104;30.919;27.460;228;228;228;228;228;228;228;228;228;228;257;257;257;257;257;257;257;257;257;257;242;242;242;242;242;242;242;242;242;242
2021-1-6 1:2:35;4.25;99;17.10;11;0.421;0.076;23.91;75.1;0.075;30.3011;27.104;30.919;27.460;228;228;228;228;228;228;228;228;228;228;257;257;257;257;257;257;257;257;257;257;242;242;242;242;242;242;242;242;242;242
2021-1-6 1:32:37;4.25;99;17.60;11;0.421;0.076;23.91;75.1;0.075;30.2931;27.098;30.904;27.487;228;228;228;228;228;228;228;228;228;228;257;257;257;257;257;257;257;257;257;257;242;242;242;242;242;242;243;243;242;242
2021-1-6 2:2:35;4.25;99;17.30;11;0.421;0.076;23.91;75.1;0.075;30.3011;27.104;30.919;27.460;229;229;229;229;229;229;229;229;229;229;257;257;257;257;257;257;257;257;257;257;243;243;243;242;243;242;243;242;243;243
2021-1-6 2:32:37;4.26;99;17.20;11;0.421;0.076;23.91;75.1;0.075;30.2931;27.098;30.904;27.487;228;228;228;228;228;228;228;228;228;228;257;257;257;257;257;257;257;257;257;257;243;243;243;243;243;243;243;243;243;243
2021-1-6 3:2:34;4.26;99;17.40;11;0.425;0.076;23.91;75.1;0.075;30.7001;26.831;31.320;27.216;228;228;228;228;228;228;228;228;228;228;257;257;257;257;257;257;257;257;257;257;243;243;243;243;243;243;243;243;243;243
2021-1-6 3:32:36;4.26;99;17.10;11;0.428;0.075;23.91;75.1;0.074;31.0261;26.444;31.653;26.823;228;228;228;228;228;228;228;228;228;228;257;257;257;257;257;257;257;257;257;257;243;243;243;243;243;243;243;243;243;243
2021-1-6 4:2:34;4.26;99;16.80;11;0.421;0.076;23.91;75.1;0.075;30.2931;27.098;30.904;27.487;228;228;228;228;228;228;228;228;228;228;257;257;257;257;257;257;257;257;257;257;243;243;243;243;243;243;243;243;243;243
2021-1-6 4:32:35;4.25;99;16.40;11;0.425;0.076;23.91;75.1;0.075;30.7001;26.831;31.320;27.216;228;228;228;228;228;228;228;228;228;228;257;257;257;257;257;257;257;257;257;257;243;243;243;243;243;243;243;243;243;243
2021-1-6 5:2:36;4.25;99;15.90;11;0.425;0.076;23.91;75.1;0.075;30.7001;26.831;31.320;27.216;229;228;228;228;228;228;228;228;228;228;257;257;257;257;257;257;257;257;257;257;243;243;243;243;243;243;243;243;243;243
2021-1-6 5:32:33;4.25;99;15.50;11;0.425;0.076;23.91;75.1;0.075;30.7001;26.831;31.320;27.216;228;228;228;228;228;228;228;228;228;228;257;257;257;257;257;257;257;257;257;257;243;243;243;243;243;243;243;243;243;243
2021-1-6 6:2:34;4.25;99;15.60;11;0.425;0.076;23.91;75.1;0.075;30.7001;26.831;31.320;27.216;229;228;228;228;228;228;228;228;228;228;257;257;257;257;257;257;257;257;257;257;243;243;243;243;243;243;243;243;243;243
2021-1-6 6:32:34;4.24;99;16.00;11;0.413;0.078;23.91;75.1;0.077;29.5251;27.760;30.122;28.158;228;228;228;229;228;229;229;228;228;228;257;257;257;257;257;257;257;257;257;257;243;243;243;243;243;243;243;243;243;243
2021-1-6 7:2:35;4.24;99;17.10;11;0.425;0.076;23.91;75.1;0.075;30.7001;26.831;31.320;27.216;228;228;228;228;228;228;228;228;228;228;257;257;257;257;257;257;257;257;257;257;243;243;243;244;243;243;243;243;244;244
2021-1-6 7:32:32;4.25;99;17.70;11;0.425;0.076;23.91;75.1;0.075;30.6921;26.825;31.305;27.242;228;228;228;228;228;228;228;228;228;228;257;257;257;257;257;257;257;257;257;257;243;244;243;243;243;244;244;243;244;244
2021-1-6 8:2:35;4.27;99;19.20;11;0.425;0.076;23.91;75.1;0.075;30.7001;26.831;31.320;27.216;227;227;227;227;227;227;227;227;227;227;256;257;257;257;257;257;256;257;257;257;244;243;244;244;243;244;244;243;244;244
2021-1-6 8:32:38;4.27;99;19.60;11;0.425;0.076;23.91;75.1;0.075;30.7001;26.831;31.320;27.216;227;227;227;227;227;227;227;227;227;227;256;256;257;257;256;256;257;256;257;257;244;244;244;244;244;243;244;244;244;244
2021-1-6 9:2:38;4.29;99;21.70;11;0.425;0.076;23.71;74.7;0.075;30.6921;26.825;31.305;27.242;227;227;227;227;227;227;227;227;227;227;257;257;256;257;257;256;257;256;257;257;244;244;244;244;244;244;244;244;244;244
2021-1-6 9:32:40;4.31;99;23.70;11;0.425;0.076;23.71;74.7;0.075;30.6921;26.825;31.305;27.242;227;227;227;227;227;227;227;227;227;227;257;257;257;256;257;257;256;256;256;256;244;244;244;244;244;244;244;244;244;244
2021-1-6 10:2:39;4.33;99;23.70;11;0.425;0.076;23.71;74.7;0.075;30.6921;26.825;31.305;27.242;227;227;227;227;227;227;227;227;227;227;256;257;257;256;256;256;257;256;256;257;244;244;244;244;244;244;244;244;244;244
2021-1-6 10:32:44;4.35;99;24.90;11;0.427;0.074;23.71;74.7;0.073;30.8641;26.339;31.481;26.749;227;227;227;227;227;227;227;227;227;227;256;256;256;256;257;256;256;256;256;257;244;244;244;244;244;244;244;244;244;244
2021-1-6 11:2:42;4.35;99;25.50;11;0.427;0.074;23.71;74.7;0.073;30.8641;26.339;31.481;26.749;227;227;227;227;227;227;227;227;227;227;256;256;256;256;256;256;256;256;256;257;244;244;245;245;245;244;244;245;245;245
2021-1-6 11:32:45;4.35;99;27.30;11;0.419;0.076;23.71;74.7;0.075;30.1331;26.989;30.736;27.409;227;227;227;227;227;227;227;227;227;227;256;256;256;256;256;256;256;256;256;256;245;244;244;245;244;245;244;244;244;245
2021-1-6 12:2:45;4.36;99;27.40;11;0.427;0.074;23.71;74.7;0.073;30.8641;26.339;31.481;26.749;228;228;228;227;227;227;228;228;228;228;256;256;256;256;256;256;256;256;256;256;245;245;245;245;245;245;245;245;245;245
2021-1-6 12:32:46;4.36;95;27.70;11;0.427;0.074;23.71;74.7;0.073;30.8641;26.339;31.481;26.749;228;228;228;228;228;228;228;228;228;228;256;256;256;256;256;256;256;256;256;256;245;245;245;245;245;245;245;245;245;245
2021-1-6 13:2:49;4.37;92;28.40;11;0.419;0.076;23.71;74.7;0.075;30.1331;26.989;30.736;27.409;229;229;229;229;229;229;229;229;229;229;256;256;256;256;256;256;257;256;256;256;245;245;245;245;245;245;245;245;245;245
2021-1-6 13:32:48;4.36;99;28.70;11;0.419;0.076;23.71;74.7;0.075;30.1331;26.989;30.736;27.409;229;229;229;229;229;229;229;229;229;229;256;256;256;256;256;256;256;256;256;256;245;245;245;245;245;245;245;245;245;245
2021-1-6 14:2:46;4.36;89;27.10;11;0.427;0.074;23.71;74.7;0.073;30.8641;26.339;31.481;26.749;229;229;229;229;229;229;229;229;229;229;256;256;256;256;256;256;256;256;256;256;245;245;245;245;245;245;245;245;245;245
2021-1-6 14:32:48;4.36;99;25.50;11;0.419;0.076;23.71;74.7;0.075;30.1331;26.989;30.736;27.409;229;229;229;229;229;229;229;228;228;229;256;256;256;256;256;256;256;256;256;256;245;245;245;245;245;245;245;245;245;245
2021-1-6 15:2:45;4.37;87;30.40;11;0.419;0.076;23.71;74.7;0.075;30.1331;26.989;30.736;27.409;230;230;230;230;230;230;230;230;230;230;256;256;256;256;256;256;256;256;256;256;245;245;245;245;245;245;246;245;245;245
2021-1-6 15:32:49;4.37;96;29.10;11;0.412;0.078;23.71;74.7;0.077;29.3701;27.645;29.957;28.076;230;230;230;230;230;230;230;230;230;230;256;256;256;256;256;256;256;256;256;256;245;246;245;245;246;245;246;245;246;245
2021-1-6 16:2:48;4.37;99;27.10;11;0.419;0.076;23.71;74.7;0.075;30.1331;26.989;30.736;27.409;229;229;229;229;229;229;229;229;229;229;256;256;256;256;256;256;256;256;256;256;246;246;246;246;246;246;246;246;246;246
2021-1-6 16:32:46;4.36;95;27.30;11;0.419;0.076;23.91;75.1;0.075;30.1331;26.989;30.736;27.409;229;229;229;229;229;229;229;229;229;229;256;256;256;256;256;256;256;256;256;256;246;246;246;246;246;246;246;246;246;246
2021-1-6 17:2:47;4.36;93;27.70;11;0.419;0.076;23.71;74.7;0.075;30.1331;26.989;30.736;27.409;229;229;229;229;229;229;229;229;229;229;256;256;256;256;256;256;256;256;256;256;246;246;246;246;246;246;246;246;246;246
2021-1-6 17:32:49;4.36;82;30.20;11;0.419;0.076;23.71;74.7;0.075;30.1331;26.989;30.736;27.409;229;229;229;229;229;229;229;229;229;229;256;256;256;256;256;256;256;256;256;256;246;246;246;246;246;246;246;246;246;246
2021-1-6 18:2:47;4.35;90;25.80;11;0.412;0.078;23.71;74.7;0.077;29.3701;27.645;29.957;28.076;228;228;228;228;228;228;228;228;228;228;256;256;256;256;256;256;256;256;256;256;246;246;246;246;246;246;246;246;246;246
2021-1-6 18:32:47;4.35;82;26.10;11;0.419;0.076;23.71;74.7;0.075;30.1331;26.989;30.736;27.409;228;228;228;228;228;228;228;228;228;228;256;256;256;256;256;256;256;256;256;256;246;246;246;246;246;246;246;246;246;246
2021-1-6 19:2:46;4.33;81;26.90;11;0.419;0.076;23.91;75.1;0.075;30.1331;26.989;30.736;27.409;227;227;227;227;227;227;227;227;227;227;256;256;256;256;256;256;256;256;256;256;246;246;246;246;246;246;246;246;246;246
2021-1-6 19:32:45;4.33;79;26.10;11;0.421;0.075;23.71;74.7;0.074;30.3151;26.502;30.922;26.915;227;227;227;227;227;227;227;227;227;227;256;256;256;256;256;256;256;256;256;256;246;246;246;246;246;246;246;246;246;246
2021-1-6 20:2:44;4.32;99;23.60;11;0.419;0.076;23.71;74.7;0.075;30.1331;26.989;30.736;27.409;228;228;228;228;228;228;228;228;228;228;256;257;256;256;256;256;256;257;257;256;246;247;246;246;246;246;246;246;247;246
2021-1-6 20:32:40;4.30;99;19.40;11;0.421;0.075;23.91;75.1;0.074;30.3151;26.502;30.922;26.915;229;229;229;229;229;229;229;229;229;229;256;257;256;257;257;257;257;256;257;257;246;247;246;247;246;247;246;246;247;246
2021-1-6 21:2:37;4.30;99;18.40;11;0.412;0.078;23.71;74.7;0.077;29.3781;27.652;29.972;28.048;230;230;230;230;230;230;230;230;230;230;257;257;257;257;257;257;257;256;257;257;247;247;247;247;247;247;247;247;247;247
2021-1-6 21:32:36;4.29;99;18.80;11;0.414;0.077;23.91;75.1;0.075;29.5731;27.150;30.165;27.573;229;229;229;229;229;229;229;229;229;229;257;257;256;257;257;257;257;257;257;257;247;247;247;247;247;247;247;247;247;247
2021-1-6 22:2:35;4.28;99;18.70;11;0.421;0.075;23.91;75.1;0.074;30.3241;26.508;30.936;26.888;230;229;229;230;229;230;229;229;229;230;257;256;257;257;257;257;257;257;257;257;247;247;247;247;247;247;247;247;247;247
2021-1-6 22:32:38;4.27;99;17.90;11;0.412;0.078;23.91;75.1;0.077;29.3701;27.645;29.957;28.076;229;230;230;230;230;230;229;230;230;230;257;257;257;257;257;257;257;257;257;257;247;247;247;247;247;247;247;247;247;247
2021-1-6 23:2:37;4.27;99;17.50;11;0.419;0.076;23.91;75.1;0.075;30.1331;26.989;30.736;27.409;230;229;229;230;229;229;229;229;229;229;257;257;257;257;257;257;257;257;257;257;247;247;247;247;247;247;247;247;247;247
2021-1-6 23:32:35;4.27;99;16.50;11;0.414;0.077;23.91;75.1;0.075;29.5811;27.156;30.179;27.546;230;230;230;230;230;230;230;230;230;230;257;257;257;257;257;257;257;257;257;257;247;247;247;247;247;247;247;247;247;247
