2021-2-4 0:2:40;4.33;99;18.00;11;0.437;0.095;22.81;73.0;0.092;31.8891;33.036;32.455;34.032;257;257;257;257;257;257;257;257;257;257;294;294;294;294;294;294;294;294;294;294;211;211;211;211;211;211;211;211;211;211
2021-2-4 0:32:38;4.32;99;17.90;11;0.446;0.092;23.01;73.4;0.090;32.8561;32.218;33.438;33.190;255;255;255;255;255;255;255;255;255;255;287;287;287;287;287;287;287;287;287;287;214;214;214;214;214;214;214;214;214;214
2021-2-4 1:2:37;4.32;99;17.40;11;0.437;0.095;22.81;73.0;0.092;31.8991;33.045;32.471;34.001;254;253;253;253;253;253;253;253;253;253;286;286;286;286;286;286;286;286;286;286;214;214;214;214;214;214;214;214;214;214
2021-2-4 1:32:35;4.31;99;17.20;11;0.446;0.092;22.81;73.0;0.090;32.8661;32.226;33.455;33.159;250;250;250;250;250;250;250;250;250;250;284;284;284;284;284;284;284;284;284;284;212;212;212;212;212;212;212;212;212;212
2021-2-4 2:2:37;4.31;99;17.20;11;0.446;0.092;22.81;73.0;0.090;32.8661;32.226;33.455;33.159;246;246;246;246;246;246;246;246;246;246;282;282;282;282;282;282;282;282;282;282;213;213;213;213;213;213;213;213;213;213
2021-2-4 2:32:35;4.31;99;17.50;11;0.437;0.095;22.81;73.0;0.092;31.8991;33.045;32.471;34.001;246;246;246;246;246;246;246;246;246;246;279;279;278;279;279;278;279;279;279;278;216;217;216;216;217;216;217;217;216;216
2021-2-4 3:2:37;4.31;99;17.40;11;0.437;0.095;22.81;73.0;0.092;31.8991;33.045;32.471;34.001;247;247;247;247;247;247;247;247;247;247;274;274;274;274;274;274;274;274;274;274;214;214;214;214;214;214;214;214;214;214
2021-2-4 3:32:35;4.31;99;16.90;11;0.446;0.092;22.81;73.0;0.090;32.8661;32.226;33.455;33.159;244;244;244;244;244;244;244;244;244;244;272;272;272;272;272;272;272;272;272;272;216;215;216;216;215;216;216;215;216;216
2021-2-4 4:2:37;4.31;99;16.50;11;0.446;0.092;23.01;73.4;0.090;32.8661;32.226;33.455;33.159;244;244;244;244;244;244;244;244;244;244;270;270;270;270;270;270;270;270;270;270;217;216;217;217;217;216;217;217;217;216
2021-2-4 4:32:34;4.30;99;16.10;11;0.446;0.092;22.81;73.0;0.090;32.8661;32.226;33.455;33.159;242;242;242;242;242;242;242;242;242;242;270;270;270;270;270;270;270;270;270;270;219;219;219;219;219;219;219;219;219;219
2021-2-4 5:2:35;4.30;99;15.80;11;0.446;0.092;22.81;73.0;0.090;32.8661;32.226;33.455;33.159;241;241;241;241;241;241;241;241;241;241;269;269;269;269;269;269;269;269;269;269;216;216;216;216;216;216;216;216;216;216
2021-2-4 5:32:36;4.30;99;15.40;11;0.437;0.095;22.81;73.0;0.092;31.8991;33.045;32.471;34.001;239;239;239;239;239;239;239;239;239;239;269;269;269;269;269;269;269;269;269;269;219;219;219;219;219;219;219;219;219;219
2021-2-4 6:2:37;4.30;99;15.40;11;0.437;0.095;22.81;73.0;0.092;31.8991;33.045;32.471;34.001;235;235;235;235;235;235;235;235;235;235;271;271;271;271;271;271;271;271;271;271;219;219;219;219;219;219;219;219;219;219
2021-2-4 6:32:33;4.30;99;15.30;11;0.446;0.092;22.81;73.0;0.090;32.8661;32.226;33.455;33.159;232;232;232;232;232;232;232;232;232;232;271;271;271;271;271;271;271;271;271;271;219;219;219;219;219;219;219;219;219;219
2021-2-4 7:2:34;4.30;99;16.10;11;0.446;0.092;23.01;73.4;0.090;32.8661;32.226;33.455;33.159;234;234;234;234;234;234;234;234;234;234;271;271;271;271;271;271;271;271;271;271;218;218;218;218;218;218;218;218;218;218
2021-2-4 7:32:34;4.30;99;17.30;11;0.437;0.095;22.81;73.0;0.092;31.8991;33.045;32.471;34.001;236;236;236;236;236;236;236;236;236;236;271;271;271;271;271;271;271;271;271;271;217;217;217;217;216;217;217;217;216;216
2021-2-4 8:2:36;4.31;99;19.00;11;0.446;0.092;22.81;73.0;0.090;32.8661;32.226;33.455;33.159;241;241;241;241;241;241;241;241;241;241;270;270;270;270;270;270;270;270;270;270;220;220;220;220;220;220;220;220;220;220
2021-2-4 8:32:39;4.32;99;21.30;11;0.446;0.092;22.81;73.0;0.090;32.8661;32.226;33.455;33.159;245;245;245;245;245;245;245;245;245;245;270;269;269;269;269;269;269;270;269;270;217;217;217;217;217;217;217;217;217;217
2021-2-4 9:2:38;4.33;99;24.80;11;0.437;0.095;22.81;73.0;0.092;31.8991;33.045;32.471;34.001;248;247;247;247;247;247;247;247;247;247;269;269;269;269;269;269;269;269;269;269;217;217;217;217;217;217;217;217;217;217
2021-2-4 9:32:39;4.35;99;27.20;11;0.437;0.095;22.81;73.0;0.092;31.8991;33.045;32.471;34.001;250;250;250;250;250;250;250;250;250;250;269;269;269;269;269;269;269;269;269;269;216;216;216;216;216;216;216;216;216;216
2021-2-4 10:2:42;4.36;96;30.60;11;0.437;0.095;22.81;73.0;0.092;31.8991;33.045;32.471;34.001;251;251;251;251;251;251;251;251;251;251;269;269;269;269;269;269;269;269;268;269;213;213;213;213;213;213;213;213;213;213
2021-2-4 10:32:43;4.37;89;31.50;11;0.437;0.095;22.81;73.0;0.092;31.8991;33.045;32.471;34.001;236;236;236;235;235;235;235;235;235;235;268;268;268;268;268;268;268;268;268;268;211;211;212;212;211;211;211;212;212;212
2021-2-4 11:2:47;4.38;91;33.70;11;0.437;0.095;23.01;73.4;0.092;31.8991;33.045;32.471;34.001;252;252;252;252;252;252;252;252;252;252;273;273;273;273;273;273;273;273;273;273;212;212;212;212;212;212;212;212;212;212
2021-2-4 11:32:50;4.39;62;33.90;11;0.446;0.092;23.01;73.4;0.090;32.8661;32.226;33.455;33.159;252;252;252;252;252;252;252;252;252;252;274;274;274;274;274;274;274;274;274;274;213;213;212;213;213;212;213;212;212;213
2021-2-4 12:2:50;4.40;52;33.90;11;0.439;0.093;22.81;73.0;0.090;32.1711;32.416;32.747;33.354;254;254;254;254;254;254;254;254;254;254;271;271;271;271;271;271;271;271;271;271;211;211;211;211;211;211;211;211;211;211
2021-2-4 12:32:52;4.40;77;35.70;11;0.437;0.095;22.81;73.0;0.092;31.8991;33.045;32.471;34.001;257;257;257;256;257;257;256;257;257;257;270;270;270;270;270;270;270;270;270;270;213;213;213;213;213;213;213;213;213;213
2021-2-4 13:2:56;4.40;48;36.30;11;0.437;0.095;22.81;73.0;0.092;31.8991;33.045;32.471;34.001;259;259;259;259;259;259;259;259;259;259;268;268;268;268;269;268;268;268;268;268;213;213;213;213;213;213;213;213;213;213
2021-2-4 13:32:57;4.41;53;37.20;11;0.446;0.092;22.81;73.0;0.090;32.8661;32.226;33.455;33.159;255;255;255;255;255;255;255;255;255;255;268;268;268;268;268;268;268;268;268;268;210;210;210;210;210;210;210;210;210;210
2021-2-4 14:2:55;4.41;72;34.20;11;0.446;0.092;23.01;73.4;0.090;32.8661;32.226;33.455;33.159;259;259;259;259;259;259;259;259;259;259;312;312;312;312;312;312;312;312;312;312;213;213;213;213;213;213;213;213;213;213
2021-2-4 14:32:58;4.41;50;34.20;11;0.439;0.093;22.81;73.0;0.090;32.1711;32.416;32.747;33.354;254;254;254;254;254;254;254;254;254;254;296;296;296;296;296;296;296;296;296;296;213;213;213;213;213;213;213;213;213;213
2021-2-4 15:2:55;4.41;56;35.60;11;0.439;0.093;23.01;73.4;0.090;32.1711;32.416;32.747;33.354;252;252;252;252;252;252;252;252;252;252;288;288;288;288;288;288;288;288;288;288;210;210;210;210;210;210;210;210;210;210
2021-2-4 15:32:56;4.41;47;36.50;11;0.439;0.093;23.01;73.4;0.090;32.1711;32.416;32.747;33.354;253;253;253;253;253;253;253;253;253;253;284;284;285;284;285;284;285;285;285;284;213;213;213;213;213;213;213;213;213;213
2021-2-4 16:2:58;4.41;47;36.10;11;0.430;0.095;23.01;73.4;0.092;31.1851;33.233;31.743;34.195;251;251;251;250;251;250;250;251;251;251;284;284;284;284;284;284;284;284;284;284;213;212;213;213;213;212;212;212;212;212
2021-2-4 16:32:54;4.41;47;32.80;11;0.439;0.093;22.81;73.0;0.090;32.1711;32.416;32.747;33.354;249;249;249;249;249;249;249;249;249;249;284;284;284;284;284;284;284;284;284;284;211;211;211;211;211;211;211;211;211;211
2021-2-4 17:2:53;4.41;41;34.60;11;0.439;0.093;23.01;73.4;0.090;32.1711;32.416;32.747;33.354;248;248;248;248;248;248;248;248;248;248;285;285;285;285;285;285;285;285;285;285;211;211;211;211;211;211;211;211;211;211
2021-2-4 17:32:53;4.41;44;35.50;11;0.439;0.093;22.81;73.0;0.090;32.1711;32.416;32.747;33.354;247;247;247;247;247;247;247;247;247;247;284;284;284;284;284;284;284;284;284;284;210;210;210;210;210;210;210;210;210;210
2021-2-4 18:2:51;4.40;45;33.40;11;0.448;0.090;23.01;73.4;0.088;33.1061;31.611;33.699;32.526;247;247;247;247;247;247;247;247;247;247;284;284;284;284;284;284;284;284;284;284;210;210;210;210;210;210;210;210;210;210
2021-2-4 18:32:53;4.39;55;30.90;11;0.439;0.093;22.81;73.0;0.090;32.1711;32.416;32.747;33.354;247;247;247;247;247;247;247;247;247;247;285;285;285;285;285;285;285;285;285;285;212;212;212;212;212;212;212;212;212;212
2021-2-4 19:2:48;4.39;58;30.70;11;0.439;0.093;23.01;73.4;0.090;32.1711;32.416;32.747;33.354;248;248;248;248;248;248;248;248;248;248;285;285;285;285;285;285;285;285;285;285;212;212;212;212;212;212;212;212;213;212
2021-2-4 19:32:50;4.38;74;28.00;11;0.430;0.095;23.01;73.4;0.092;31.1851;33.233;31.743;34.195;250;250;250;250;250;250;250;250;250;250;286;286;286;286;286;286;286;286;286;286;210;210;210;210;210;210;210;210;210;210
2021-2-4 20:2:44;4.35;99;22.30;11;0.439;0.093;23.01;73.4;0.090;32.1711;32.416;32.747;33.354;251;251;251;251;251;251;251;251;251;251;287;287;287;287;287;287;287;287;287;287;211;211;211;211;211;211;211;211;211;211
2021-2-4 20:32:39;4.34;99;19.10;11;0.439;0.093;23.01;73.4;0.090;32.1711;32.416;32.747;33.354;251;251;251;251;251;251;251;251;251;251;287;288;288;288;288;287;287;288;288;288;211;211;211;211;211;211;211;211;211;211
2021-2-4 21:2:41;4.33;99;17.90;11;0.430;0.095;23.01;73.4;0.092;31.1851;33.233;31.743;34.195;253;253;253;253;253;253;253;253;253;253;288;288;288;288;288;288;288;288;288;288;212;212;212;212;212;212;212;212;212;212
2021-2-4 21:32:36;4.33;99;17.20;11;0.430;0.095;23.01;73.4;0.092;31.1851;33.233;31.743;34.195;250;250;250;250;250;250;250;250;250;250;289;288;288;289;288;289;288;288;289;288;211;211;211;211;211;211;211;211;211;211
2021-2-4 22:2:35;4.32;99;16.50;11;0.430;0.095;23.01;73.4;0.092;31.1851;33.233;31.743;34.195;249;249;249;249;249;249;249;249;249;249;289;290;290;290;290;290;290;290;290;290;212;212;212;212;212;212;212;212;212;212
2021-2-4 22:32:37;4.31;99;16.60;11;0.430;0.095;23.01;73.4;0.092;31.1851;33.233;31.743;34.195;245;245;245;245;245;245;245;245;245;245;288;288;288;288;288;288;288;288;288;288;213;213;213;213;213;213;213;213;213;213
2021-2-4 23:2:35;4.31;99;16.10;11;0.439;0.093;23.01;73.4;0.090;32.1811;32.424;32.764;33.323;239;239;239;239;239;239;239;239;239;239;288;288;288;288;288;288;289;288;288;288;213;213;213;213;213;213;213;213;213;213
2021-2-4 23:32:37;4.31;99;16.00;11;0.430;0.095;23.01;73.4;0.092;31.1941;33.241;31.759;34.163;241;241;241;241;241;241;241;241;241;241;289;289;289;289;289;289;289;289;289;289;211;211;211;211;211;211;211;211;211;211
