2021-1-15 0:2:38;4.34;99;22.00;11;0.381;0.070;24.21;75.5;0.070;26.3541;25.002;26.907;25.238;283;283;283;283;283;283;283;283;283;283;255;255;255;255;255;255;255;255;255;255;250;250;250;250;250;250;250;250;250;250
2021-1-15 0:32:40;4.34;99;22.70;11;0.381;0.070;24.21;75.5;0.070;26.3541;25.002;26.907;25.238;285;284;285;285;285;285;285;285;285;285;255;255;255;255;255;255;255;255;255;255;250;250;250;250;250;250;250;250;250;250
2021-1-15 1:2:38;4.33;99;22.20;11;0.392;0.068;24.21;75.5;0.067;27.4131;24.206;27.988;24.435;284;284;284;284;284;284;284;284;284;284;255;255;255;255;255;255;255;255;255;255;250;250;250;250;250;250;250;250;250;250
2021-1-15 1:32:40;4.33;99;22.80;11;0.385;0.070;24.21;75.5;0.069;26.7361;24.773;27.296;25.007;283;283;283;283;283;283;283;283;283;283;255;255;255;255;255;255;255;255;255;255;250;250;250;250;250;250;250;250;250;250
2021-1-15 2:2:38;4.34;99;23.50;11;0.385;0.070;24.21;75.5;0.069;26.7361;24.773;27.296;25.007;280;280;280;280;280;280;280;280;280;280;255;255;255;255;255;255;255;255;255;255;250;250;250;250;250;250;250;250;250;250
2021-1-15 2:32:42;4.34;99;24.10;11;0.385;0.070;24.21;75.5;0.069;26.7361;24.773;27.296;25.007;275;275;275;275;275;275;275;275;275;275;254;255;255;255;255;255;255;255;255;255;250;250;250;250;250;250;251;250;250;250
2021-1-15 3:2:41;4.34;99;23.70;11;0.385;0.069;24.21;75.5;0.069;26.7431;24.778;27.309;24.982;277;277;277;277;277;277;277;277;277;277;255;255;255;255;255;255;255;255;255;255;251;251;251;251;251;251;251;251;251;251
2021-1-15 3:32:41;4.34;99;23.30;11;0.392;0.068;24.21;75.5;0.067;27.4131;24.206;27.988;24.435;278;278;278;278;278;278;278;278;278;278;255;255;255;255;255;255;255;255;255;255;250;250;250;250;250;250;250;251;250;251
2021-1-15 4:2:40;4.34;99;23.30;11;0.392;0.068;24.21;75.5;0.067;27.4131;24.206;27.988;24.435;278;278;278;278;278;278;278;278;278;278;255;255;255;255;255;255;255;255;255;255;250;251;251;250;250;251;250;250;251;250
2021-1-15 4:32:39;4.33;99;22.90;11;0.392;0.068;24.21;75.5;0.067;27.4201;24.211;28.001;24.410;277;277;277;277;277;277;277;277;277;277;255;255;255;254;254;255;254;254;255;254;250;250;250;250;250;250;250;250;250;250
2021-1-15 5:2:38;4.33;99;22.50;11;0.392;0.068;24.21;75.5;0.067;27.4201;24.211;28.001;24.410;282;282;282;282;281;282;282;281;281;281;255;255;255;255;255;255;255;255;254;255;250;250;250;250;250;250;250;250;250;250
2021-1-15 5:32:41;4.33;99;22.10;11;0.388;0.069;24.21;75.5;0.068;27.0451;24.433;27.612;24.663;285;285;285;285;285;285;285;285;285;285;255;255;255;255;255;255;255;255;255;255;250;250;250;250;250;250;250;250;250;250
2021-1-15 6:2:40;4.33;99;22.00;11;0.381;0.070;24.41;75.9;0.070;26.3611;25.007;26.919;25.213;287;287;287;287;287;287;287;287;287;287;255;255;255;255;255;255;255;255;255;255;250;250;250;250;250;250;250;250;250;250
2021-1-15 6:32:38;4.33;99;21.80;11;0.392;0.068;24.21;75.5;0.067;27.4131;24.206;27.988;24.435;291;291;291;291;291;291;291;291;291;291;255;255;255;255;255;255;255;255;255;255;250;250;250;250;250;250;250;250;250;250
2021-1-15 7:2:40;4.33;99;23.00;11;0.392;0.068;24.21;75.5;0.067;27.4201;24.211;28.001;24.410;287;287;287;287;287;287;287;287;287;287;255;255;255;255;255;255;255;255;255;255;250;250;250;250;250;250;250;250;250;250
2021-1-15 7:32:38;4.34;99;24.00;11;0.392;0.068;24.21;75.5;0.067;27.4201;24.211;28.001;24.410;275;275;275;275;275;275;275;275;275;275;255;255;255;255;255;255;255;255;255;255;250;250;250;250;250;250;250;250;250;250
2021-1-15 8:2:43;4.35;99;24.00;11;0.385;0.069;24.41;75.9;0.069;26.7431;24.778;27.309;24.982;270;270;270;270;270;270;270;270;270;270;255;255;255;255;255;255;255;255;255;255;250;250;250;250;250;250;250;250;250;250
2021-1-15 8:32:44;4.35;99;26.50;11;0.385;0.069;24.41;75.9;0.069;26.7431;24.778;27.309;24.982;269;269;269;269;269;269;269;269;269;269;255;255;255;255;255;255;255;255;255;255;250;250;250;250;250;250;250;250;250;250
2021-1-15 9:2:41;4.36;99;26.80;11;0.385;0.069;24.21;75.5;0.069;26.7431;24.778;27.309;24.982;269;269;269;269;269;269;269;269;269;269;254;254;254;255;254;254;254;254;254;254;250;250;250;250;250;250;250;250;250;250
2021-1-15 9:32:45;4.36;99;28.10;11;0.392;0.068;24.21;75.5;0.067;27.4201;24.211;28.001;24.410;273;273;273;273;273;273;273;273;273;273;255;255;255;255;255;255;255;255;255;255;250;250;250;250;250;250;250;250;250;250
2021-1-15 10:2:44;4.36;99;25.90;11;0.392;0.068;24.41;75.9;0.067;27.4201;24.211;28.001;24.410;269;269;269;269;269;269;269;269;269;269;255;255;255;255;255;255;255;255;255;255;250;250;250;250;250;250;250;250;250;250
2021-1-15 10:32:43;4.35;99;19.10;11;0.385;0.069;24.41;75.9;0.069;26.7431;24.778;27.309;24.982;286;286;286;286;286;286;286;286;286;286;255;255;255;255;255;255;255;255;255;255;250;250;250;250;250;250;250;250;250;250
2021-1-15 11:2:39;4.33;99;18.40;11;0.385;0.069;24.41;75.9;0.069;26.7431;24.778;27.309;24.982;310;310;310;310;310;310;310;310;310;310;255;255;255;255;255;255;255;255;255;255;251;250;251;251;251;251;251;251;251;251
2021-1-15 11:32:39;4.32;99;18.50;11;0.385;0.069;24.41;75.9;0.069;26.7501;24.783;27.321;24.957;321;321;321;321;321;321;321;321;321;321;255;255;255;255;255;255;255;255;255;255;243;242;243;243;242;243;243;242;242;243
2021-1-15 12:2:35;4.32;99;18.60;11;0.381;0.070;24.41;75.9;0.070;26.3611;25.007;26.919;25.213;319;319;319;319;320;320;320;320;320;320;255;255;255;255;255;255;255;255;255;255;245;245;245;245;245;245;245;245;245;245
2021-1-15 12:32:39;4.32;99;18.90;11;0.381;0.070;24.21;75.5;0.070;26.3541;25.002;26.907;25.238;319;319;319;319;319;319;319;319;319;319;255;255;255;255;255;255;255;255;255;255;245;245;245;245;245;245;245;245;245;245
2021-1-15 13:2:39;4.32;99;19.20;11;0.381;0.070;24.21;75.5;0.070;26.3541;25.002;26.907;25.238;317;317;317;317;317;317;317;317;317;317;255;255;255;255;255;255;255;255;255;255;245;244;244;245;244;244;244;244;245;245
2021-1-15 13:32:39;4.32;99;19.40;11;0.381;0.070;24.21;75.5;0.070;26.3541;25.002;26.907;25.238;321;321;321;321;321;321;321;321;322;322;255;255;255;255;255;255;255;255;255;255;244;244;244;244;244;245;245;244;244;244
2021-1-15 14:2:39;4.32;99;19.40;11;0.392;0.068;24.21;75.5;0.067;27.4061;24.201;27.975;24.460;319;319;319;319;319;319;319;319;319;319;255;255;255;255;255;255;255;255;255;255;244;245;245;244;245;245;245;245;245;244
2021-1-15 14:32:35;4.32;99;19.40;11;0.380;0.070;24.21;75.5;0.069;26.3471;24.996;26.894;25.263;317;317;317;317;317;317;317;317;318;318;255;255;255;255;255;255;255;255;255;255;245;245;244;245;244;244;245;245;245;245
2021-1-15 15:2:36;4.32;99;19.50;11;0.388;0.069;24.21;75.5;0.068;27.0381;24.428;27.600;24.688;310;310;310;310;310;310;310;310;310;310;255;255;255;255;255;255;255;255;255;255;244;244;244;245;245;244;244;244;244;244
2021-1-15 15:32:36;4.32;99;19.40;11;0.388;0.069;24.21;75.5;0.068;27.0381;24.428;27.600;24.688;304;304;304;304;304;304;304;304;304;304;255;255;255;255;255;255;255;255;255;255;245;245;245;245;245;245;245;245;245;245
2021-1-15 16:2:37;4.34;99;20.10;11;0.380;0.070;24.21;75.5;0.069;26.3471;24.996;26.894;25.263;290;290;290;290;290;290;290;290;290;290;255;255;255;255;255;255;255;255;255;255;244;244;244;244;244;244;244;244;244;244
2021-1-15 16:32:39;4.34;99;20.90;11;0.388;0.069;24.21;75.5;0.068;27.0381;24.428;27.600;24.688;284;284;284;284;284;284;285;285;284;285;255;254;255;255;254;255;255;255;255;255;241;241;241;241;241;241;241;241;241;241
2021-1-15 17:2:42;4.34;99;20.60;11;0.388;0.069;24.21;75.5;0.068;27.0381;24.428;27.600;24.688;282;282;282;282;282;282;282;282;282;282;255;255;255;254;254;255;255;255;255;255;241;241;241;241;241;241;241;241;241;241
2021-1-15 17:32:40;4.34;99;20.60;11;0.388;0.069;24.21;75.5;0.068;27.0381;24.428;27.600;24.688;281;281;281;281;281;281;281;281;281;281;255;255;255;255;255;255;255;255;255;255;241;241;241;241;241;241;241;241;241;241
2021-1-15 18:2:38;4.35;99;22.50;11;0.388;0.069;24.21;75.5;0.068;27.0381;24.428;27.600;24.688;278;278;278;278;278;278;278;278;278;278;255;255;255;255;255;255;255;254;255;255;242;242;242;242;242;242;242;242;242;242
2021-1-15 18:32:43;4.35;99;23.30;11;0.378;0.071;24.21;75.5;0.071;26.1411;25.432;26.684;25.703;281;281;281;281;280;281;281;281;281;281;255;254;255;255;255;255;254;254;255;255;242;242;242;242;242;242;242;242;242;242
2021-1-15 19:2:44;4.35;99;22.70;11;0.388;0.069;24.21;75.5;0.068;27.0381;24.428;27.600;24.688;278;278;278;278;278;278;278;278;278;278;255;255;255;255;254;254;254;255;255;255;242;242;242;242;242;242;242;242;242;242
2021-1-15 19:32:41;4.35;99;22.30;11;0.388;0.069;24.21;75.5;0.068;27.0381;24.428;27.600;24.688;278;278;278;278;278;278;278;278;278;278;254;254;254;254;254;254;254;254;254;254;242;242;242;242;242;242;242;242;242;242
2021-1-15 20:2:41;4.34;99;20.60;11;0.386;0.070;24.21;75.5;0.069;26.8511;24.856;27.409;25.121;291;291;291;291;291;291;291;291;291;291;254;254;254;254;254;254;254;254;254;254;242;242;242;242;242;242;242;242;242;242
2021-1-15 20:32:39;4.33;99;19.20;11;0.388;0.069;24.21;75.5;0.068;27.0381;24.428;27.600;24.688;314;314;314;314;314;314;314;314;314;314;254;254;254;254;254;254;254;254;254;254;242;242;242;242;242;242;242;242;242;242
2021-1-15 21:2:39;4.32;99;17.70;11;0.386;0.070;24.21;75.5;0.069;26.8511;24.856;27.409;25.121;330;330;330;330;330;330;330;330;330;330;255;255;254;255;254;255;254;255;255;254;242;242;242;242;242;242;242;242;242;242
2021-1-15 21:32:34;4.32;99;17.20;11;0.393;0.068;24.21;75.5;0.068;27.5311;24.286;28.103;24.545;342;342;342;342;343;343;343;343;343;343;255;255;255;255;255;255;255;255;255;255;242;242;242;242;242;242;242;242;242;242
2021-1-15 22:2:36;4.31;99;17.30;11;0.388;0.069;24.21;75.5;0.068;27.0381;24.428;27.600;24.688;346;346;346;346;346;346;346;346;346;346;255;255;255;255;255;255;255;255;255;255;242;242;242;242;242;242;242;242;242;242
2021-1-15 22:32:34;4.30;99;17.20;11;0.386;0.070;24.21;75.5;0.069;26.8511;24.856;27.409;25.121;349;349;349;349;349;349;349;349;349;349;255;255;255;255;255;255;255;255;255;255;242;242;242;242;242;242;242;242;242;242
2021-1-15 23:2:36;4.30;99;16.80;11;0.386;0.070;24.21;75.5;0.069;26.8511;24.856;27.409;25.121;351;351;351;351;351;351;352;352;352;352;255;255;255;255;255;255;255;255;255;255;242;243;242;242;242;242;242;242;242;242
2021-1-15 23:32:34;4.30;99;17.50;11;0.391;0.069;24.21;75.5;0.069;27.3521;24.714;27.920;24.977;350;351;350;350;351;351;351;351;351;351;254;254;254;254;254;254;254;254;254;254;242;242;242;242;242;242;242;242;242;242
