2021-4-14 0:2:32;4.26;99;10.40;11;0.403;0.078;20.31;68.5;0.073;28.4621;26.287;28.807;28.090;275;275;275;275;275;275;275;275;275;275;852;852;852;852;852;852;852;852;852;852;308;308;308;308;308;308;308;308;308;308
2021-4-14 0:32:32;4.24;99;10.40;11;0.395;0.080;20.51;68.9;0.075;27.7131;26.909;28.048;28.754;276;276;276;276;276;276;276;276;276;276;852;853;853;853;852;853;852;853;853;853;306;306;306;306;306;306;306;306;306;306
2021-4-14 1:2:28;4.24;99;10.10;11;0.395;0.080;20.31;68.5;0.075;27.7131;26.909;28.048;28.754;276;276;276;276;276;276;276;276;276;276;853;853;853;853;853;853;853;853;853;853;307;307;307;306;307;306;306;307;307;306
2021-4-14 1:32:32;4.24;99;9.70;11;0.395;0.080;20.31;68.5;0.075;27.7131;26.909;28.048;28.754;274;274;274;274;274;274;274;274;274;274;853;853;853;853;853;853;853;853;853;853;306;306;306;306;306;306;306;306;306;306
2021-4-14 2:2:32;4.24;99;10.10;11;0.403;0.078;20.51;68.9;0.073;28.4621;26.287;28.807;28.090;276;276;276;276;276;276;276;276;276;276;852;853;853;853;853;853;853;853;853;853;306;306;306;306;306;306;306;306;306;306
2021-4-14 2:32:31;4.24;99;10.00;11;0.403;0.078;20.31;68.5;0.073;28.4621;26.287;28.807;28.090;276;276;276;276;276;276;276;276;276;276;853;853;853;853;853;853;853;853;853;853;302;302;302;302;302;302;302;302;302;302
2021-4-14 3:2:31;4.24;99;10.00;11;0.395;0.080;20.31;68.5;0.075;27.7131;26.909;28.048;28.754;276;276;276;276;275;276;275;275;276;275;852;852;853;852;853;852;852;852;853;853;307;307;307;307;306;306;307;306;307;306
2021-4-14 3:32:31;4.24;99;9.80;11;0.395;0.080;20.31;68.5;0.075;27.7131;26.909;28.048;28.754;274;274;274;274;274;274;274;274;274;274;853;853;853;853;853;853;853;853;853;853;281;281;281;281;281;281;281;281;281;281
2021-4-14 4:2:30;4.24;99;10.60;11;0.395;0.080;20.31;68.5;0.075;27.7131;26.909;28.048;28.754;275;274;275;275;275;275;275;275;275;275;853;853;853;853;853;853;853;853;853;853;294;294;294;294;294;294;294;294;294;294
2021-4-14 4:32:30;4.24;99;10.60;11;0.395;0.080;20.31;68.5;0.075;27.7131;26.909;28.048;28.754;275;274;275;274;274;275;274;275;274;274;852;853;853;853;853;853;853;853;853;853;273;273;272;273;273;273;273;272;273;273
2021-4-14 5:2:30;4.24;99;11.20;11;0.395;0.080;20.31;68.5;0.075;27.7131;26.909;28.048;28.754;273;273;273;273;273;273;273;273;273;273;853;853;853;853;853;853;853;853;853;853;307;306;306;306;306;306;306;307;306;306
2021-4-14 5:32:30;4.24;99;10.90;11;0.395;0.080;20.51;68.9;0.075;27.7131;26.909;28.048;28.754;274;274;274;274;274;274;274;274;274;274;853;853;853;853;853;853;853;853;853;853;306;306;306;306;306;306;306;306;306;306
2021-4-14 6:2:30;4.24;99;11.20;11;0.403;0.078;20.31;68.5;0.073;28.4621;26.287;28.807;28.090;274;273;273;273;273;273;274;274;273;273;853;853;853;853;853;853;853;853;853;853;268;267;268;267;267;267;267;267;267;268
2021-4-14 6:32:30;4.24;99;10.90;11;0.404;0.077;20.31;68.5;0.072;28.6531;25.824;29.000;27.596;271;271;271;271;271;271;271;271;271;271;852;853;852;853;853;853;853;852;852;853;264;264;264;264;264;264;264;264;264;264
2021-4-14 7:2:31;4.24;99;11.30;11;0.395;0.080;20.31;68.5;0.075;27.7131;26.909;28.048;28.754;271;271;271;271;271;271;271;271;271;271;853;853;853;853;853;853;853;853;853;853;268;268;268;268;268;268;268;268;268;268
2021-4-14 7:32:31;4.24;99;11.80;11;0.397;0.079;20.31;68.5;0.073;27.9241;26.438;28.262;28.251;271;271;271;271;271;271;271;271;271;271;855;855;855;855;856;855;855;855;856;856;266;266;266;266;266;266;266;266;266;266
2021-4-14 8:2:32;4.25;99;14.60;11;0.404;0.077;20.31;68.5;0.072;28.6531;25.824;29.000;27.596;272;272;272;272;272;272;272;272;272;272;855;855;855;855;855;855;855;855;855;855;304;304;304;304;304;304;304;304;304;304
2021-4-14 8:32:34;4.28;99;17.50;11;0.397;0.079;20.31;68.5;0.073;27.9241;26.438;28.262;28.251;275;274;275;275;275;275;275;275;275;275;854;854;854;854;854;854;854;854;854;854;299;299;299;299;299;299;299;299;299;299
2021-4-14 9:2:35;4.29;99;19.70;11;0.397;0.079;20.31;68.5;0.073;27.9241;26.438;28.262;28.251;278;278;278;278;278;278;278;278;278;278;854;854;854;854;854;854;854;854;854;854;289;288;288;288;288;288;288;288;288;288
2021-4-14 9:32:37;4.31;97;21.30;11;0.397;0.079;20.31;68.5;0.073;27.9241;26.438;28.262;28.251;280;279;279;280;279;280;279;279;279;280;854;854;854;854;854;854;854;854;854;854;290;290;290;290;290;290;290;290;290;290
2021-4-14 10:2:37;4.33;80;23.10;11;0.397;0.079;20.31;68.5;0.073;27.9241;26.438;28.262;28.251;281;281;281;281;281;281;281;281;281;281;853;853;853;853;853;853;853;853;853;853;293;293;293;293;293;293;293;293;293;293
2021-4-14 10:32:40;4.35;69;25.20;11;0.397;0.079;20.31;68.5;0.073;27.9241;26.438;28.262;28.251;282;282;282;282;282;282;282;282;282;282;853;853;853;853;853;853;853;853;853;853;290;290;290;290;290;290;290;290;290;290
2021-4-14 11:2:46;4.35;62;26.70;11;0.397;0.079;20.31;68.5;0.073;27.9171;26.433;28.251;28.278;283;283;283;283;283;283;283;283;283;283;852;852;852;852;852;852;852;852;852;852;286;286;286;286;286;286;286;286;286;286
2021-4-14 11:32:45;4.38;51;31.20;11;0.397;0.079;20.31;68.5;0.073;27.9171;26.433;28.251;28.278;286;285;286;285;286;286;285;286;285;285;851;851;851;851;851;851;851;851;851;851;286;286;286;286;286;286;286;286;286;286
2021-4-14 12:2:46;4.38;54;28.20;11;0.397;0.079;20.31;68.5;0.073;27.9171;26.433;28.251;28.278;285;285;285;285;285;285;285;285;285;285;850;851;851;851;851;851;851;851;851;851;287;287;287;287;287;287;287;287;287;287
2021-4-14 12:32:48;4.38;46;31.30;11;0.397;0.079;20.31;68.5;0.073;27.9171;26.433;28.251;28.278;285;285;285;285;285;285;285;285;285;285;851;851;851;851;851;851;851;851;851;851;287;287;287;287;287;287;287;287;287;287
2021-4-14 13:2:51;4.38;45;30.80;11;0.397;0.079;20.31;68.5;0.073;27.9171;26.433;28.251;28.278;286;286;286;286;286;286;286;286;286;286;850;850;851;851;851;850;851;851;851;850;294;294;294;294;294;294;294;294;294;294
2021-4-14 13:32:50;4.38;48;30.60;11;0.389;0.080;20.31;68.5;0.075;27.1551;27.053;27.479;28.941;286;286;286;286;286;286;286;286;286;286;849;849;849;850;849;849;849;849;849;850;302;302;302;302;302;302;302;302;302;302
2021-4-14 14:2:49;4.38;43;34.10;11;0.389;0.080;20.31;68.5;0.075;27.1551;27.053;27.479;28.941;287;287;287;287;287;287;287;287;287;287;849;849;849;849;849;849;849;849;849;849;301;301;301;302;301;301;301;301;301;301
2021-4-14 14:32:51;4.38;47;29.30;11;0.401;0.078;20.31;68.5;0.073;28.3201;26.184;28.658;28.011;287;287;287;287;287;287;287;287;287;287;848;848;848;848;848;848;848;848;848;848;306;306;306;306;306;306;306;306;306;306
2021-4-14 15:2:50;4.38;50;28.40;11;0.393;0.080;20.31;68.5;0.075;27.5741;26.802;27.903;28.672;287;287;287;287;287;287;287;287;287;287;848;848;848;848;848;848;848;848;848;849;308;308;308;308;308;308;308;308;308;308
2021-4-14 15:32:49;4.38;45;30.50;11;0.391;0.079;20.31;68.5;0.074;27.3771;26.583;27.704;28.437;287;287;287;287;287;287;287;287;287;287;848;848;848;848;848;848;848;848;848;848;308;308;308;308;308;308;308;308;308;308
2021-4-14 16:2:48;4.38;45;30.40;11;0.396;0.078;20.31;68.5;0.073;27.7851;26.335;28.117;28.172;288;288;288;288;288;288;288;288;288;288;847;847;847;847;847;847;847;847;847;847;307;307;307;307;307;307;307;307;307;307
2021-4-14 16:32:51;4.38;48;28.70;11;0.396;0.078;20.31;68.5;0.073;27.7851;26.335;28.117;28.172;287;287;288;288;287;287;287;288;287;287;847;847;847;847;847;847;848;848;847;847;278;278;278;278;278;278;278;278;278;278
2021-4-14 17:2:48;4.35;53;27.00;11;0.396;0.078;20.31;68.5;0.073;27.7851;26.335;28.117;28.172;287;287;287;287;287;287;287;287;287;287;847;847;847;847;847;847;847;847;847;847;280;280;280;280;280;280;280;280;280;280
2021-4-14 17:32:47;4.35;61;24.90;11;0.396;0.078;20.31;68.5;0.073;27.7851;26.335;28.117;28.172;286;285;286;286;285;286;286;285;285;285;847;847;847;847;847;847;847;847;847;847;283;283;283;283;283;283;283;283;283;283
2021-4-14 18:2:45;4.35;70;24.20;11;0.396;0.078;20.31;68.5;0.073;27.7851;26.335;28.117;28.172;285;285;285;285;285;285;285;285;285;285;847;847;847;847;847;847;847;847;847;847;306;306;306;306;306;306;306;306;306;306
2021-4-14 18:32:40;4.33;95;22.10;11;0.396;0.078;20.31;68.5;0.073;27.7851;26.335;28.117;28.172;284;284;284;284;284;284;284;284;284;284;847;847;847;847;847;847;847;847;847;847;282;282;282;282;282;282;282;282;282;282
2021-4-14 19:2:38;4.32;99;20.20;11;0.403;0.077;20.31;68.5;0.072;28.5101;25.725;28.851;27.520;282;282;282;282;282;282;282;282;282;282;847;847;847;847;848;847;847;847;847;847;301;301;301;301;301;301;301;301;301;301
2021-4-14 19:32:39;4.31;99;18.80;11;0.396;0.078;20.31;68.5;0.073;27.7851;26.335;28.117;28.172;281;281;281;281;281;281;281;281;281;281;847;847;847;847;847;847;847;847;847;847;299;298;298;298;298;298;298;298;298;298
2021-4-14 20:2:38;4.30;99;18.80;11;0.396;0.078;20.31;68.5;0.073;27.7851;26.335;28.117;28.172;280;280;280;280;280;280;280;280;280;280;847;847;847;847;847;848;848;848;848;848;291;290;290;290;291;291;291;291;290;290
2021-4-14 20:32:37;4.30;99;17.80;11;0.396;0.078;20.31;68.5;0.073;27.7851;26.335;28.117;28.172;279;279;279;279;279;279;279;279;279;279;847;847;847;847;847;847;847;847;847;847;312;312;312;312;312;312;312;312;312;312
2021-4-14 21:2:35;4.30;99;16.80;11;0.396;0.078;20.31;68.5;0.073;27.7851;26.335;28.117;28.172;278;278;278;278;278;278;278;278;278;278;847;847;847;848;848;847;848;848;848;848;312;312;312;312;312;312;312;312;312;312
2021-4-14 21:32:36;4.29;99;16.20;11;0.396;0.078;20.31;68.5;0.073;27.7851;26.335;28.117;28.172;277;277;277;277;277;277;277;277;277;277;848;848;848;848;848;848;848;848;848;848;314;314;314;314;314;314;314;314;315;314
2021-4-14 22:2:37;4.29;99;16.20;11;0.396;0.078;20.31;68.5;0.073;27.7851;26.335;28.117;28.172;276;275;275;276;276;275;275;275;276;276;848;848;848;848;848;848;848;848;848;848;323;323;323;323;323;323;323;323;323;323
2021-4-14 22:32:33;4.29;99;15.80;11;0.396;0.078;20.31;68.5;0.073;27.7851;26.335;28.117;28.172;276;276;276;276;276;276;276;276;276;276;848;848;848;849;848;849;848;848;849;849;303;303;304;303;303;303;303;303;304;303
2021-4-14 23:2:33;4.29;99;15.90;11;0.396;0.078;20.31;68.5;0.073;27.7851;26.335;28.117;28.172;276;276;276;276;276;276;276;276;276;276;848;848;848;848;848;848;848;848;848;848;308;308;308;308;308;308;308;308;308;308
2021-4-14 23:32:34;4.28;99;15.70;11;0.396;0.078;20.31;68.5;0.073;27.7851;26.335;28.117;28.172;275;274;275;275;274;275;274;275;274;275;847;847;847;847;847;847;847;847;847;847;310;310;310;310;310;310;310;310;310;310
