2021-1-16 0:2:35;4.30;99;16.20;11;0.386;0.070;24.21;75.5;0.069;26.8511;24.856;27.409;25.121;353;352;352;353;353;353;353;353;353;353;254;254;254;254;255;254;255;255;254;254;242;242;242;242;242;242;242;242;242;242
2021-1-16 0:32:36;4.30;99;16.30;11;0.391;0.069;24.21;75.5;0.069;27.3521;24.714;27.920;24.977;352;352;352;352;352;352;352;352;352;352;255;255;255;255;255;255;255;255;255;255;242;242;242;242;242;242;242;242;242;242
2021-1-16 1:2:33;4.29;99;15.30;11;0.384;0.071;24.21;75.5;0.070;26.6541;25.291;27.208;25.561;349;349;349;349;349;349;349;349;349;350;255;255;254;254;255;254;255;254;254;254;242;242;242;242;242;242;242;242;242;242
2021-1-16 1:32:33;4.30;99;15.90;11;0.391;0.069;24.21;75.5;0.069;27.3521;24.714;27.920;24.977;348;348;348;348;348;348;348;348;348;348;255;255;255;255;255;255;255;255;255;255;242;242;242;242;242;242;242;242;242;243
2021-1-16 2:2:34;4.30;99;16.50;11;0.391;0.069;24.21;75.5;0.069;27.3521;24.714;27.920;24.977;341;341;341;341;341;341;342;341;342;342;255;255;255;255;255;255;255;255;255;255;242;242;242;242;242;242;242;242;242;242
2021-1-16 2:32:36;4.30;99;16.70;11;0.391;0.069;24.21;75.5;0.069;27.3521;24.714;27.920;24.977;341;341;341;341;341;341;341;341;341;341;255;254;255;255;255;255;255;255;255;254;242;242;242;242;242;242;242;242;242;242
2021-1-16 3:2:33;4.30;99;17.10;11;0.384;0.071;24.21;75.5;0.070;26.6541;25.291;27.208;25.561;336;336;336;336;336;336;336;336;336;336;255;255;255;255;255;255;255;255;255;255;242;242;242;242;242;242;242;242;242;242
2021-1-16 3:32:35;4.30;99;17.20;11;0.384;0.071;24.21;75.5;0.070;26.6541;25.291;27.208;25.561;335;335;335;335;335;335;335;335;335;335;255;255;255;255;255;255;255;255;255;255;242;242;242;242;242;242;242;242;242;242
2021-1-16 4:2:37;4.30;99;17.20;11;0.384;0.071;24.21;75.5;0.070;26.6541;25.291;27.208;25.561;330;330;330;330;330;330;330;331;331;330;255;255;255;255;255;255;255;255;255;255;242;242;242;242;242;242;242;242;242;242
2021-1-16 4:32:35;4.30;99;17.30;11;0.391;0.070;24.21;75.5;0.069;27.3451;24.709;27.908;25.003;330;330;330;330;330;330;330;330;330;330;255;255;255;255;255;255;255;255;255;255;242;242;242;242;242;242;242;243;242;242
2021-1-16 5:2:34;4.30;99;17.00;11;0.391;0.070;24.21;75.5;0.069;27.3451;24.709;27.908;25.003;327;327;327;327;327;327;327;327;327;327;255;255;255;255;255;255;255;255;255;255;242;242;243;242;242;243;243;242;243;242
2021-1-16 5:32:36;4.30;99;17.10;11;0.391;0.070;24.21;75.5;0.069;27.3451;24.709;27.908;25.003;324;324;324;324;324;324;324;324;324;324;255;255;255;255;255;255;255;255;255;255;242;243;243;243;243;243;242;243;243;243
2021-1-16 6:2:34;4.30;99;17.00;11;0.391;0.070;24.21;75.5;0.069;27.3451;24.709;27.908;25.003;324;324;324;324;324;324;324;324;324;324;254;254;255;254;254;254;254;254;254;254;243;243;243;243;243;243;243;243;243;243
2021-1-16 6:32:36;4.30;99;17.10;11;0.391;0.070;24.21;75.5;0.069;27.3451;24.709;27.908;25.003;317;317;317;318;317;318;317;318;318;318;255;255;255;255;255;255;255;255;255;255;243;243;243;243;243;243;243;243;243;243
2021-1-16 7:2:34;4.30;99;18.00;11;0.384;0.071;24.21;75.5;0.070;26.6471;25.286;27.195;25.587;304;304;304;304;304;304;304;304;304;304;255;255;255;255;255;255;255;254;255;255;243;243;243;243;243;243;243;243;243;243
2021-1-16 7:32:38;4.31;99;18.60;11;0.391;0.070;24.21;75.5;0.069;27.3451;24.709;27.908;25.003;290;290;290;290;290;290;290;290;290;290;255;255;255;255;255;255;255;255;255;255;243;243;243;243;243;243;243;243;243;243
2021-1-16 8:2:38;4.32;99;19.40;11;0.391;0.070;24.21;75.5;0.069;27.3451;24.709;27.908;25.003;280;280;280;280;280;280;280;280;280;280;254;255;255;255;255;255;255;255;255;254;242;242;242;242;242;242;242;242;242;242
2021-1-16 8:32:39;4.34;99;21.80;11;0.391;0.070;23.91;75.1;0.069;27.3451;24.709;27.908;25.003;277;277;277;277;277;277;277;277;277;277;254;255;255;255;254;254;254;254;254;255;243;243;243;243;243;243;243;243;243;243
2021-1-16 9:2:41;4.35;99;25.10;11;0.391;0.070;24.21;75.5;0.069;27.3451;24.709;27.908;25.003;278;278;278;278;278;278;278;278;278;278;255;254;254;254;254;254;254;255;254;254;243;243;243;243;243;243;243;243;243;243
2021-1-16 9:32:42;4.35;99;25.60;11;0.391;0.070;24.21;75.5;0.069;27.3451;24.709;27.908;25.003;284;284;285;284;284;284;285;285;285;285;255;254;255;255;254;255;254;255;254;254;243;243;243;243;243;243;243;243;243;243
2021-1-16 10:2:44;4.36;99;22.60;11;0.391;0.070;24.21;75.5;0.069;27.3451;24.709;27.908;25.003;280;280;280;280;280;280;280;280;280;280;254;254;254;255;254;254;254;254;254;254;243;243;243;243;243;243;243;243;243;243
2021-1-16 10:32:42;4.35;99;23.00;11;0.389;0.071;23.91;75.1;0.070;27.1571;25.143;27.716;25.442;271;271;271;271;271;271;271;271;271;271;254;254;255;254;254;254;254;254;254;254;243;243;243;243;243;243;243;243;243;243
2021-1-16 11:2:43;4.35;99;22.80;11;0.389;0.071;24.21;75.5;0.070;27.1501;25.138;27.703;25.468;267;267;267;267;267;267;267;267;267;267;254;254;254;254;254;254;254;254;254;254;243;243;243;243;243;243;243;243;243;243
2021-1-16 11:32:44;4.35;99;21.50;11;0.389;0.071;23.91;75.1;0.070;27.1501;25.138;27.703;25.468;266;265;266;266;266;266;266;266;266;266;254;254;254;254;254;255;254;254;254;254;243;243;243;243;243;243;243;243;243;243
2021-1-16 12:2:40;4.35;99;22.50;11;0.389;0.071;23.91;75.1;0.070;27.1501;25.138;27.703;25.468;266;266;266;266;266;266;266;266;266;266;254;255;254;255;254;254;254;254;255;254;243;243;243;243;243;243;243;243;243;243
2021-1-16 12:32:40;4.35;99;21.90;11;0.389;0.071;23.91;75.1;0.070;27.1501;25.138;27.703;25.468;264;264;264;264;264;264;264;264;264;264;254;255;255;254;255;255;254;254;254;254;243;243;243;243;243;243;243;243;243;243
2021-1-16 13:2:39;4.35;99;21.70;11;0.396;0.069;24.21;75.5;0.068;27.8361;24.560;28.404;24.882;273;273;273;273;273;273;273;273;273;273;254;254;255;254;254;254;254;254;254;254;243;243;243;243;243;243;243;243;243;243
2021-1-16 13:32:42;4.34;99;21.50;11;0.385;0.071;23.91;75.1;0.071;26.7621;25.372;27.308;25.705;282;281;282;282;281;282;282;282;282;282;254;254;255;255;254;254;254;254;255;255;243;243;243;243;243;243;243;243;243;243
2021-1-16 14:2:41;4.35;99;22.20;11;0.396;0.069;23.91;75.1;0.068;27.8361;24.560;28.404;24.882;283;283;283;283;283;283;283;283;283;283;254;254;254;255;255;255;254;254;254;254;243;243;243;243;243;243;243;243;243;243
2021-1-16 14:32:40;4.35;99;22.30;11;0.396;0.069;23.91;75.1;0.068;27.8361;24.560;28.404;24.882;277;277;277;277;277;277;277;277;277;277;254;255;255;255;254;254;254;254;255;254;243;243;243;243;243;243;243;243;243;243
2021-1-16 15:2:39;4.36;99;23.90;11;0.392;0.070;23.91;75.1;0.069;27.4631;24.791;28.023;25.116;276;276;276;276;276;276;276;276;276;276;255;254;255;254;255;254;254;254;255;254;243;243;243;243;243;243;243;243;243;243
2021-1-16 15:32:45;4.37;99;27.40;11;0.392;0.070;23.91;75.1;0.069;27.4631;24.791;28.023;25.116;287;287;287;287;287;287;287;287;287;287;254;254;254;254;254;254;254;254;254;254;243;243;243;243;243;243;243;243;243;243
2021-1-16 16:2:46;4.38;99;26.70;11;0.392;0.070;23.91;75.1;0.069;27.4631;24.791;28.023;25.116;317;316;317;317;317;317;317;317;317;317;254;254;254;254;254;254;254;254;254;254;243;243;243;243;243;243;243;243;243;243
2021-1-16 16:32:47;4.38;99;26.90;11;0.385;0.071;23.91;75.1;0.071;26.7621;25.372;27.308;25.705;318;318;318;318;318;318;318;318;318;318;255;254;255;254;254;254;254;254;254;254;243;243;243;243;243;243;243;243;243;243
2021-1-16 17:2:48;4.38;99;26.40;11;0.385;0.071;23.91;75.1;0.071;26.7621;25.372;27.308;25.705;319;319;319;319;319;319;319;319;319;320;255;254;254;254;254;254;254;254;254;255;243;243;243;243;243;243;243;243;243;243
2021-1-16 17:32:43;4.38;99;27.10;11;0.385;0.071;23.91;75.1;0.071;26.7621;25.372;27.308;25.705;316;316;316;316;316;316;316;316;316;317;254;254;254;254;254;254;255;254;254;254;243;243;243;243;243;243;243;243;243;243
2021-1-16 18:2:47;4.37;99;25.80;11;0.392;0.070;23.91;75.1;0.069;27.4631;24.791;28.023;25.116;311;311;311;311;311;311;311;311;311;311;254;254;254;254;254;254;255;254;254;255;243;243;243;243;243;243;243;243;243;243
2021-1-16 18:32:45;4.37;99;24.70;11;0.385;0.072;23.91;75.1;0.071;26.7551;25.366;27.296;25.730;307;307;307;307;307;307;307;307;307;308;255;254;255;255;254;254;254;255;254;254;244;243;244;244;243;243;244;244;244;243
2021-1-16 19:2:44;4.37;99;27.30;11;0.385;0.071;23.91;75.1;0.071;26.7621;25.372;27.308;25.705;316;316;316;316;316;316;316;316;316;316;254;255;255;254;254;255;255;255;255;255;244;244;244;244;244;244;244;244;244;244
2021-1-16 19:32:43;4.37;99;26.10;11;0.385;0.072;23.91;75.1;0.071;26.7551;25.366;27.296;25.730;315;314;314;315;314;314;315;315;315;315;254;254;255;255;254;254;255;254;254;254;244;244;244;244;244;244;244;244;244;244
2021-1-16 20:2:45;4.35;99;23.20;11;0.385;0.072;23.91;75.1;0.071;26.7551;25.366;27.296;25.730;311;311;311;311;311;311;311;311;311;311;254;254;254;255;254;255;254;254;254;255;244;244;244;244;244;244;244;244;244;244
2021-1-16 20:32:41;4.35;99;21.90;11;0.392;0.070;23.91;75.1;0.069;27.4561;24.786;28.011;25.142;327;327;327;327;327;327;327;328;328;328;255;254;254;254;254;254;255;254;254;254;244;244;244;244;244;244;244;244;244;244
2021-1-16 21:2:39;4.34;99;21.20;11;0.392;0.070;24.21;75.5;0.069;27.4561;24.786;28.011;25.142;339;339;339;339;339;339;339;339;339;340;255;254;254;254;254;255;255;255;254;254;244;244;244;244;244;244;244;244;244;244
2021-1-16 21:32:40;4.34;99;20.10;11;0.385;0.072;23.91;75.1;0.071;26.7551;25.366;27.296;25.730;350;350;350;350;350;350;350;350;350;350;255;255;254;255;254;255;255;255;254;254;244;244;244;244;244;244;244;244;244;244
2021-1-16 22:2:36;4.33;99;19.20;11;0.385;0.072;23.91;75.1;0.071;26.7551;25.366;27.296;25.730;366;366;366;366;366;366;366;366;366;366;255;255;255;255;255;255;255;255;255;254;244;244;244;244;244;244;244;244;244;244
2021-1-16 22:32:36;4.32;99;18.80;11;0.392;0.070;23.91;75.1;0.069;27.4561;24.786;28.011;25.142;374;374;374;374;374;374;374;374;374;374;255;254;254;255;254;254;255;254;254;254;243;243;243;242;243;243;243;243;243;243
2021-1-16 23:2:35;4.32;99;18.70;11;0.385;0.072;23.91;75.1;0.071;26.7551;25.366;27.296;25.730;374;374;374;374;374;374;374;374;374;374;255;255;255;255;254;255;254;255;255;255;244;244;244;244;244;244;244;244;244;244
2021-1-16 23:32:38;4.32;99;18.20;11;0.385;0.072;23.91;75.1;0.071;26.7551;25.366;27.296;25.730;378;378;378;378;378;378;378;378;378;378;254;255;255;254;255;255;255;255;254;255;244;244;244;244;244;244;244;244;244;244
