2021-4-4 0:2:34;4.27;99;14.70;11;0.279;0.044;21.11;70.0;0.042;17.6301;15.049;17.876;15.883;218;218;218;218;218;218;218;218;218;218;948;948;948;948;948;948;948;948;948;948;226;226;225;225;225;225;225;225;225;225
2021-4-4 0:32:34;4.22;99;14.60;11;0.279;0.044;21.11;70.0;0.042;17.6301;15.049;17.876;15.883;218;218;218;218;218;218;218;218;218;218;931;931;931;931;931;931;931;931;931;931;226;225;225;225;225;225;225;225;225;225
2021-4-4 1:2:34;4.23;99;14.30;11;0.284;0.043;21.11;70.0;0.041;18.0541;14.732;18.303;15.567;218;218;218;218;218;218;218;218;218;218;937;938;939;940;941;942;943;943;944;944;226;225;225;225;225;225;225;225;225;225
2021-4-4 1:32:33;4.27;99;13.80;11;0.279;0.044;21.11;70.0;0.042;17.6301;15.049;17.876;15.883;218;218;218;218;218;218;218;218;218;218;946;946;946;946;947;946;947;946;947;946;226;225;225;225;225;225;225;225;225;225
2021-4-4 2:2:32;4.26;99;13.60;11;0.284;0.043;21.11;70.0;0.041;18.0571;14.734;18.309;15.551;218;218;218;218;218;218;218;218;218;218;945;945;945;945;945;945;945;945;945;945;226;225;226;226;226;225;225;226;226;226
2021-4-4 2:32:35;4.24;99;13.50;11;0.279;0.044;21.11;70.0;0.042;17.6301;15.049;17.876;15.883;218;218;218;218;218;218;218;218;218;218;947;947;947;947;947;948;947;947;947;947;226;225;225;225;225;225;225;225;225;225
2021-4-4 3:2:34;4.24;99;12.90;11;0.279;0.044;21.11;70.0;0.042;17.6301;15.049;17.876;15.883;218;218;218;218;218;218;218;218;218;218;946;947;947;947;947;947;947;947;947;947;225;225;225;225;225;225;225;225;225;225
2021-4-4 3:32:32;4.24;99;13.20;11;0.284;0.043;21.11;70.0;0.041;18.0571;14.734;18.309;15.551;218;218;218;218;218;218;218;218;218;218;948;949;949;949;949;949;949;949;949;949;226;226;225;226;226;225;226;225;225;225
2021-4-4 4:2:35;4.24;99;13.40;11;0.284;0.043;21.11;70.0;0.041;18.0571;14.734;18.309;15.551;218;218;218;218;218;218;218;218;218;218;951;951;951;951;951;951;951;951;951;951;225;225;225;225;225;225;225;225;225;225
2021-4-4 4:32:33;4.24;99;13.60;11;0.279;0.044;21.11;70.0;0.042;17.6301;15.049;17.876;15.883;218;218;218;218;218;218;218;218;218;218;948;948;948;948;948;948;948;948;948;948;225;225;225;225;225;225;225;225;225;225
2021-4-4 5:2:32;4.24;99;13.10;11;0.279;0.044;21.11;70.0;0.042;17.6301;15.049;17.876;15.883;218;218;218;218;218;218;218;218;218;218;946;945;945;945;945;945;946;945;945;946;225;224;225;225;224;225;225;224;224;224
2021-4-4 5:32:34;4.24;99;12.10;11;0.279;0.044;21.11;70.0;0.042;17.6301;15.049;17.876;15.883;218;218;218;218;218;218;218;218;218;218;952;953;953;953;953;953;953;953;953;953;226;225;225;225;225;225;225;225;225;225
2021-4-4 6:2:32;4.24;99;12.20;11;0.279;0.044;21.11;70.0;0.042;17.6301;15.049;17.876;15.883;218;218;218;218;218;218;218;218;218;218;941;942;941;942;941;942;942;942;942;942;226;226;226;226;226;226;226;226;226;226
2021-4-4 6:32:30;4.22;99;12.50;11;0.279;0.044;21.11;70.0;0.042;17.6301;15.049;17.876;15.883;218;218;218;218;218;218;218;218;218;218;953;953;953;953;953;953;953;953;953;953;226;226;226;226;226;226;226;226;226;226
2021-4-4 7:2:32;4.24;99;12.40;11;0.284;0.043;21.11;70.0;0.041;18.0541;14.732;18.303;15.567;218;218;218;218;218;218;218;218;218;218;948;948;948;948;948;948;948;948;948;948;226;226;226;226;226;226;226;226;226;226
2021-4-4 7:32:34;4.23;99;13.90;11;0.279;0.044;21.11;70.0;0.042;17.6301;15.049;17.876;15.883;218;218;218;218;218;218;218;218;218;218;945;945;945;945;945;945;945;945;945;946;225;225;225;225;225;225;225;225;225;225
2021-4-4 8:2:32;4.27;99;19.90;11;0.284;0.043;21.11;70.0;0.041;18.0571;14.734;18.309;15.551;218;218;218;218;218;218;218;218;218;218;952;952;952;953;953;953;953;953;953;953;225;225;225;225;225;225;225;225;225;225
2021-4-4 8:32:33;4.27;99;21.80;11;0.279;0.044;21.11;70.0;0.042;17.6301;15.049;17.876;15.883;218;218;218;218;218;218;218;218;218;218;949;950;950;949;950;950;950;950;950;950;226;225;225;225;225;225;225;225;225;225
2021-4-4 9:2:37;4.30;98;23.60;11;0.279;0.044;21.11;70.0;0.042;17.6301;15.049;17.876;15.883;218;218;218;218;218;218;218;218;218;218;951;952;952;952;952;951;952;952;952;952;225;225;225;225;225;225;225;225;225;225
2021-4-4 9:32:38;4.33;91;25.00;11;0.279;0.044;21.11;70.0;0.042;17.6301;15.049;17.876;15.883;222;222;222;222;222;222;222;222;222;222;950;950;950;950;950;950;950;950;950;950;225;225;225;225;225;225;225;225;225;225
2021-4-4 10:2:43;4.34;72;27.20;11;0.279;0.044;21.11;70.0;0.042;17.6271;15.047;17.871;15.899;225;225;225;225;225;225;225;225;225;225;945;945;945;945;945;945;945;945;945;945;225;225;225;225;225;225;225;225;225;225
2021-4-4 10:32:46;4.37;57;30.30;11;0.279;0.044;21.11;70.0;0.042;17.6301;15.049;17.876;15.883;226;226;226;226;226;226;226;226;226;226;405;405;405;405;404;404;404;404;404;404;225;225;225;225;225;225;225;225;225;225
2021-4-4 11:2:49;4.38;49;31.30;11;0.279;0.044;21.11;70.0;0.042;17.6301;15.049;17.876;15.883;228;228;228;228;228;228;228;228;228;228;946;946;946;946;946;946;946;946;946;946;226;226;225;225;225;225;225;225;225;225
2021-4-4 11:32:49;4.38;44;32.10;11;0.279;0.044;21.11;70.0;0.042;17.6301;15.049;17.876;15.883;230;229;230;230;230;230;230;229;229;229;938;938;938;938;938;938;938;938;938;938;226;226;226;226;226;225;226;225;226;226
2021-4-4 12:2:51;4.38;41;33.00;11;0.279;0.044;21.11;70.0;0.042;17.6301;15.049;17.876;15.883;231;231;231;231;231;231;231;231;231;231;938;938;938;939;939;939;939;939;939;939;225;225;225;225;225;225;225;225;225;225
2021-4-4 12:32:54;4.39;39;33.20;11;0.279;0.044;21.11;70.0;0.042;17.6301;15.049;17.876;15.883;235;235;235;235;235;235;235;235;235;235;928;928;928;926;925;923;922;920;921;921;225;225;225;225;225;225;225;225;225;225
2021-4-4 13:2:54;4.39;38;34.00;11;0.279;0.044;21.11;70.0;0.042;17.6301;15.049;17.876;15.883;237;237;237;237;237;237;237;237;237;237;939;940;940;940;940;940;940;940;940;940;225;225;225;225;225;225;225;225;225;225
2021-4-4 13:32:55;4.39;38;34.30;11;0.279;0.044;21.11;70.0;0.042;17.6301;15.049;17.876;15.883;246;246;246;246;246;246;246;246;246;246;917;917;917;915;916;914;915;914;914;913;225;225;225;225;225;225;225;225;225;225
2021-4-4 14:2:56;4.39;34;35.40;11;0.279;0.044;21.11;70.0;0.042;17.6301;15.049;17.876;15.883;312;312;312;312;312;312;312;312;312;312;945;945;945;945;945;945;945;945;945;945;225;225;225;225;225;225;225;224;224;225
2021-4-4 14:32:54;4.39;35;34.60;11;0.279;0.044;21.11;70.0;0.042;17.6271;15.047;17.871;15.899;318;318;318;318;319;318;318;318;318;318;947;947;947;947;948;948;948;948;948;948;225;225;225;225;225;225;225;225;225;225
2021-4-4 15:2:55;4.39;36;33.70;11;0.279;0.044;21.11;70.0;0.042;17.6271;15.047;17.871;15.899;313;313;313;313;313;313;313;313;313;313;940;941;940;940;941;941;941;941;941;940;226;225;225;225;225;225;225;225;225;225
2021-4-4 15:32:56;4.39;37;33.50;11;0.286;0.043;21.11;70.0;0.040;18.1841;14.501;18.435;15.322;311;311;311;311;311;311;311;311;311;311;942;942;942;942;942;942;942;942;942;942;226;226;226;226;226;226;226;226;226;225
2021-4-4 16:2:52;4.39;38;33.10;11;0.279;0.044;21.11;70.0;0.042;17.6271;15.047;17.871;15.899;311;311;311;311;311;311;311;311;311;311;937;937;937;937;937;937;937;937;936;936;226;225;225;225;225;225;225;225;225;225
2021-4-4 16:32:56;4.38;38;32.30;11;0.279;0.044;21.11;70.0;0.042;17.6271;15.047;17.871;15.899;313;313;313;313;313;313;313;313;313;313;922;922;922;923;923;923;923;923;923;923;225;225;225;225;225;225;225;225;225;225
2021-4-4 17:2:54;4.38;41;31.20;11;0.279;0.044;21.11;70.0;0.042;17.6301;15.049;17.876;15.883;311;311;311;311;311;311;311;311;311;311;917;919;920;920;921;921;921;923;923;921;225;225;225;225;225;225;225;225;225;225
2021-4-4 17:32:51;4.38;44;30.30;11;0.279;0.044;21.11;70.0;0.042;17.6271;15.047;17.871;15.899;310;310;310;310;310;310;310;310;310;310;926;927;927;927;927;927;927;928;927;927;225;225;225;225;225;225;225;225;225;225
2021-4-4 18:2:49;4.36;50;28.40;11;0.286;0.043;21.11;70.0;0.040;18.1841;14.501;18.435;15.322;310;310;310;310;310;310;310;310;310;310;919;919;919;919;919;919;919;919;919;919;225;225;225;225;225;225;225;225;225;225
2021-4-4 18:32:46;4.34;59;26.10;11;0.279;0.044;21.11;70.0;0.042;17.6271;15.047;17.871;15.899;307;307;307;307;307;307;307;307;307;307;922;922;922;922;922;922;922;922;922;922;226;226;226;226;226;226;226;226;226;226
2021-4-4 19:2:44;4.33;96;22.40;11;0.279;0.044;21.11;70.0;0.042;17.6301;15.049;17.876;15.883;305;305;305;305;305;305;305;305;305;305;950;950;950;950;950;950;950;950;951;950;226;226;226;226;226;226;226;226;226;226
2021-4-4 19:32:43;4.33;99;19.50;11;0.279;0.044;21.11;70.0;0.042;17.6271;15.047;17.871;15.899;298;298;298;298;298;298;298;298;298;298;942;942;942;942;942;943;943;943;943;943;226;226;226;226;226;226;226;226;226;226
2021-4-4 20:2:40;4.32;99;18.20;11;0.279;0.044;21.11;70.0;0.042;17.6301;15.049;17.876;15.883;290;290;290;290;290;290;290;290;290;290;949;949;949;949;949;949;949;949;949;949;227;226;226;226;226;226;226;226;226;226
2021-4-4 20:32:39;4.31;99;17.90;11;0.279;0.044;21.11;70.0;0.042;17.6301;15.049;17.876;15.883;282;282;282;282;282;282;282;282;282;282;945;945;945;945;945;945;945;945;945;945;226;226;226;226;226;226;226;226;226;226
2021-4-4 21:2:38;4.31;99;17.60;11;0.279;0.044;21.11;70.0;0.042;17.6271;15.047;17.871;15.899;272;272;272;272;272;272;272;272;272;272;951;951;952;951;952;951;951;951;951;951;227;226;226;226;226;226;226;226;226;226
2021-4-4 21:32:36;4.30;99;17.20;11;0.279;0.044;21.11;70.0;0.042;17.6301;15.049;17.876;15.883;260;259;259;259;260;259;259;260;259;259;948;948;948;948;948;948;948;948;948;948;226;226;226;226;226;226;226;226;226;226
2021-4-4 22:2:34;4.30;99;16.70;11;0.279;0.044;21.11;70.0;0.042;17.6271;15.047;17.871;15.899;250;250;250;250;250;250;250;250;250;250;948;948;948;948;948;948;948;948;948;949;227;226;227;227;227;227;227;227;227;227
2021-4-4 22:32:36;4.30;99;16.30;11;0.279;0.044;21.11;70.0;0.042;17.6271;15.047;17.871;15.899;245;245;245;245;245;245;245;245;245;245;942;942;942;942;942;942;942;942;942;942;226;226;226;226;226;226;226;226;226;226
2021-4-4 23:2:37;4.29;99;16.20;11;0.279;0.044;21.11;70.0;0.042;17.6301;15.049;17.876;15.883;241;241;241;240;241;241;241;241;241;241;942;943;943;943;942;942;941;941;941;941;226;226;226;226;226;226;226;226;226;226
2021-4-4 23:32:34;4.29;99;15.90;11;0.284;0.043;21.11;70.0;0.041;18.0541;14.732;18.303;15.567;238;238;238;238;238;238;238;238;238;238;950;950;950;950;950;950;950;950;950;950;227;226;226;226;226;227;226;226;226;226
