2020-11-30 00:03:45;3.75;97;20.70;38;6.41
2020-11-30 00:33:42;3.75;91;21.50;0;6.41
2020-11-30 01:03:44;3.75;79;22.10;0;6.41
2020-11-30 01:33:46;3.75;75;22.00;0;6.41
2020-11-30 02:03:43;3.75;74;21.30;0;6.33
2020-11-30 02:33:45;3.75;77;20.40;0;6.41
2020-11-30 03:03:46;3.75;79;20.20;0;6.41
2020-11-30 03:33:43;3.75;79;19.90;0;6.33
2020-11-30 04:03:44;3.75;79;19.90;0;6.41
2020-11-30 04:33:44;3.75;76;19.80;0;6.41
2020-11-30 05:03:45;3.75;70;19.70;0;6.41
2020-11-30 05:33:41;3.75;65;19.30;0;6.41
2020-11-30 06:03:42;3.74;63;18.40;0;6.41
2020-11-30 06:33:42;3.75;63;18.20;0;6.41
2020-11-30 07:03:42;3.75;59;18.60;0;6.41
2020-11-30 07:33:42;3.74;57;18.90;0;6.41
#EQ3t;v;h;t;p;2020-11-30 07:58:11;3.74;50;19.40;0;6.41
2020-11-30 08:00:19;3.74;49;19.50;0;6.41
2020-11-30 08:34:13;3.74;37;22.30;0;6.41
2020-11-30 09:03:39;3.74;34;23.90;0;6.41
2020-11-30 09:33:48;3.74;31;24.70;0;6.41
2020-11-30 10:03:48;3.74;28;25.70;0;6.33
2020-11-30 10:33:49;3.74;28;26.40;0;6.41
2020-11-30 11:03:52;3.74;25;27.40;0;6.33
2020-11-30 11:33:51;3.74;24;28.60;0;6.41
2020-11-30 12:03:52;3.74;25;28.80;0;6.33
2020-11-30 12:33:54;3.74;24;29.50;0;6.33
2020-11-30 13:03:51;3.73;23;29.80;0;6.33
2020-11-30 13:33:55;3.73;21;30.40;0;6.41
2020-11-30 14:03:54;3.74;22;31.10;0;6.33
