2021-12-29 00:00:33;4.19;60;25.80;0;0.00
2021-12-29 00:05:31;4.19;57;26.60;0;0.00
2021-12-29 00:10:33;4.19;57;26.50;0;0.00
2021-12-29 00:15:31;4.19;57;26.50;0;0.00
2021-12-29 00:20:34;4.18;61;25.30;0;0.00
2021-12-29 00:25:32;4.18;65;24.20;0;0.00
2021-12-29 00:30:34;4.18;67;23.70;0;0.00
2021-12-29 00:35:32;4.19;65;24.00;0;0.00
2021-12-29 00:40:35;4.18;66;23.90;0;0.00
2021-12-29 00:45:33;4.18;66;24.00;0;0.00
2021-12-29 00:50:35;4.19;65;24.10;0;0.00
2021-12-29 00:55:33;4.18;66;23.80;0;0.00
2021-12-29 01:00:31;4.18;65;23.80;0;0.00
2021-12-29 01:05:34;4.18;62;24.40;0;0.00
2021-12-29 01:10:32;4.18;61;25.10;0;0.00
2021-12-29 01:15:34;4.18;62;24.80;0;0.00
2021-12-29 01:20:32;4.18;64;24.20;0;0.00
2021-12-29 01:25:34;4.19;71;22.40;0;0.00
2021-12-29 01:30:32;4.18;69;22.40;0;0.00
2021-12-29 01:35:35;4.18;69;22.40;0;0.00
2021-12-29 01:40:33;4.18;68;22.60;0;0.00
2021-12-29 01:45:35;4.18;68;22.50;0;0.00
2021-12-29 01:50:33;4.18;70;22.10;0;0.00
2021-12-29 01:55:35;4.18;69;21.90;0;0.00
2021-12-29 02:00:33;4.18;69;22.20;0;0.00
2021-12-29 02:05:35;4.18;68;22.30;0;0.00
2021-12-29 02:10:33;4.18;71;21.80;0;0.00
2021-12-29 02:15:31;4.18;71;21.70;0;0.00
2021-12-29 02:20:33;4.18;72;21.70;0;0.00
2021-12-29 02:25:31;4.18;78;20.20;0;0.00
2021-12-29 02:30:33;4.17;76;20.30;0;0.00
2021-12-29 02:35:35;4.18;69;22.10;0;0.00
2021-12-29 02:40:33;4.17;70;22.00;0;0.00
2021-12-29 02:45:35;4.17;73;20.90;0;0.00
2021-12-29 02:50:33;4.17;73;21.00;0;0.00
2021-12-29 02:55:35;4.17;72;21.00;0;0.00
2021-12-29 03:00:33;4.17;74;20.80;0;0.00
2021-12-29 03:05:35;4.17;76;20.30;0;0.00
2021-12-29 03:10:32;4.17;72;20.70;0;0.00
2021-12-29 03:15:30;4.17;70;21.00;0;0.00
2021-12-29 03:20:32;4.17;70;21.40;0;0.00
2021-12-29 03:25:34;4.17;74;20.90;0;0.00
2021-12-29 03:30:32;4.17;74;20.30;0;0.00
2021-12-29 03:35:34;4.17;75;20.30;0;0.00
2021-12-29 03:40:31;4.17;79;19.60;0;0.00
2021-12-29 03:45:33;4.17;79;19.40;0;0.00
2021-12-29 03:50:31;4.17;80;19.00;0;0.00
2021-12-29 03:55:33;4.17;79;19.00;0;0.00
2021-12-29 04:00:35;4.16;80;18.80;0;0.00
2021-12-29 04:05:32;4.16;76;19.80;0;0.00
2021-12-29 04:10:34;4.16;75;20.40;0;0.00
2021-12-29 04:15:31;4.16;76;19.90;0;0.00
2021-12-29 04:20:33;4.17;78;19.50;0;0.00
2021-12-29 04:25:31;4.16;80;19.00;0;0.00
2021-12-29 04:30:33;4.16;80;18.70;0;0.00
2021-12-29 04:35:30;4.16;76;19.70;0;0.00
2021-12-29 04:40:32;4.16;79;19.00;0;1.20
2021-12-29 04:45:34;4.16;78;19.30;0;0.00
2021-12-29 04:50:31;4.16;80;18.70;0;0.00
2021-12-29 04:55:33;4.16;78;19.20;0;0.00
2021-12-29 05:00:31;4.16;81;18.20;0;0.00
2021-12-29 05:05:33;4.16;80;18.40;0;0.00
2021-12-29 05:10:30;4.16;78;19.00;0;0.00
2021-12-29 05:15:32;4.16;78;18.80;0;0.00
2021-12-29 05:20:34;4.16;79;18.70;0;0.00
2021-12-29 05:25:31;4.16;79;18.70;0;0.00
2021-12-29 05:30:33;4.16;80;18.30;0;0.00
2021-12-29 05:35:35;4.16;82;17.40;0;0.00
2021-12-29 05:40:32;4.16;78;18.90;0;0.00
2021-12-29 05:45:34;4.16;80;18.20;0;0.00
2021-12-29 05:50:31;4.16;81;17.90;0;0.00
2021-12-29 05:55:33;4.16;80;18.20;0;0.00
2021-12-29 06:00:30;4.16;77;19.20;0;0.00
2021-12-29 06:05:32;4.16;78;19.10;0;0.00
2021-12-29 06:10:30;4.16;77;19.40;0;0.00
2021-12-29 06:15:31;4.16;78;19.00;0;0.00
2021-12-29 06:20:33;4.15;79;18.90;0;0.00
2021-12-29 06:25:31;4.15;77;19.30;0;0.00
2021-12-29 06:30:33;4.15;75;20.00;0;0.00
2021-12-29 06:35:34;4.15;77;19.60;0;0.00
2021-12-29 06:40:32;4.16;80;19.00;0;0.00
2021-12-29 06:45:34;4.16;79;19.20;0;0.00
2021-12-29 06:50:31;4.16;76;20.30;0;0.00
2021-12-29 06:55:33;4.16;75;21.00;0;0.00
2021-12-29 07:00:35;4.16;75;21.30;0;0.00
2021-12-29 07:05:32;4.16;74;22.10;0;0.00
2021-12-29 07:10:30;4.16;72;22.60;0;0.00
2021-12-29 07:15:32;4.16;69;23.30;0;0.00
2021-12-29 07:20:34;4.16;70;23.00;0;0.00
2021-12-29 07:25:32;4.16;70;23.10;0;0.00
2021-12-29 07:30:35;4.16;70;23.60;0;0.00
2021-12-29 07:35:32;4.16;69;24.70;0;0.00
2021-12-29 07:40:35;4.17;66;25.30;0;0.00
2021-12-29 07:45:33;4.17;65;25.60;0;0.00
2021-12-29 07:50:36;4.17;67;25.90;0;0.00
2021-12-29 07:55:34;4.17;65;26.70;0;1.30
2021-12-29 08:00:32;4.17;64;26.90;0;1.10
2021-12-29 08:05:35;4.17;64;27.60;0;1.20
2021-12-29 08:10:33;4.17;62;28.00;0;0.00
2021-12-29 08:15:32;4.17;62;28.00;0;0.00
2021-12-29 08:20:35;4.18;60;29.00;0;1.50
2021-12-29 08:25:33;4.18;60;29.30;0;0.00
2021-12-29 08:30:32;4.18;58;29.50;0;1.10
2021-12-29 08:35:35;4.18;56;29.80;0;2.00
2021-12-29 08:40:34;4.19;55;30.00;0;1.80
2021-12-29 08:45:33;4.19;54;30.50;0;1.90
2021-12-29 08:50:37;4.19;54;30.30;0;3.08
2021-12-29 08:55:36;4.19;54;30.80;0;1.80
2021-12-29 09:00:35;4.19;54;31.30;0;1.70
2021-12-29 09:05:34;4.19;52;31.10;0;1.70
2021-12-29 09:10:33;4.19;52;31.60;0;2.00
2021-12-29 09:15:37;4.19;50;31.60;0;2.19
2021-12-29 09:20:31;4.20;52;32.10;0;2.29
2021-12-29 09:25:35;4.19;52;32.20;0;2.49
2021-12-29 09:30:35;4.19;51;32.70;0;2.59
2021-12-29 09:35:34;4.20;49;32.40;0;2.89
2021-12-29 09:40:34;4.20;50;32.60;0;3.18
2021-12-29 09:45:33;4.20;49;32.70;0;2.09
2021-12-29 09:50:33;4.20;50;33.20;0;2.19
2021-12-29 09:55:37;4.20;49;33.70;0;2.39
2021-12-29 10:00:37;4.20;49;33.50;0;2.49
2021-12-29 10:05:36;4.20;50;33.70;0;1.70
2021-12-29 10:10:36;4.20;49;34.20;0;1.70
2021-12-29 10:15:36;4.20;48;34.10;0;2.09
2021-12-29 10:20:36;4.20;49;34.50;0;2.19
2021-12-29 10:25:35;4.20;48;34.60;0;1.70
2021-12-29 10:30:35;4.20;48;34.80;0;1.60
2021-12-29 10:35:35;4.20;49;35.00;0;1.50
2021-12-29 10:40:35;4.20;47;35.30;0;1.40
2021-12-29 10:45:35;4.20;47;35.70;0;2.49
2021-12-29 10:50:35;4.20;45;35.70;0;2.69
2021-12-29 10:55:35;4.20;45;36.80;0;1.20
2021-12-29 11:00:36;4.20;44;36.20;0;4.87
2021-12-29 11:05:36;4.21;45;36.80;0;1.70
2021-12-29 11:10:36;4.21;43;37.20;0;1.90
2021-12-29 11:15:32;4.21;42;37.40;0;2.79
2021-12-29 11:20:37;4.21;42;37.00;0;2.59
2021-12-29 11:25:37;4.21;41;37.30;0;3.48
2021-12-29 11:30:33;4.21;41;37.20;0;1.90
2021-12-29 11:35:34;4.21;41;37.70;0;2.59
2021-12-29 11:40:34;4.21;39;38.00;0;4.27
2021-12-29 11:45:35;4.21;39;37.40;0;2.19
2021-12-29 11:50:35;4.21;38;37.80;0;1.30
2021-12-29 11:55:36;4.21;38;38.10;0;2.00
2021-12-29 12:00:36;4.21;39;37.90;0;2.49
2021-12-29 12:05:37;4.21;39;38.10;0;2.59
2021-12-29 12:10:38;4.21;39;39.00;0;2.19
2021-12-29 12:15:34;4.21;37;38.60;0;2.29
2021-12-29 12:20:35;4.21;38;38.80;0;1.80
2021-12-29 12:25:35;4.22;39;38.50;0;1.70
2021-12-29 12:30:36;4.22;37;39.20;0;1.90
2021-12-29 12:35:32;4.21;38;38.80;0;1.60
2021-12-29 12:40:38;4.22;36;39.40;0;3.28
2021-12-29 12:45:34;4.22;38;38.90;0;3.58
2021-12-29 12:50:35;4.22;36;38.60;0;4.17
2021-12-29 12:55:36;4.22;36;38.80;0;0.00
2021-12-29 13:00:37;4.22;37;39.30;0;2.09
2021-12-29 13:05:38;4.22;36;38.80;0;1.80
2021-12-29 13:10:34;4.22;35;39.30;0;2.29
2021-12-29 13:15:35;4.22;35;39.30;0;2.39
2021-12-29 13:20:36;4.22;38;39.40;0;1.90
2021-12-29 13:25:37;4.22;37;39.60;0;0.00
2021-12-29 13:30:33;4.22;37;39.10;0;2.59
2021-12-29 13:35:39;4.22;37;39.40;0;2.39
2021-12-29 13:40:35;4.22;35;39.60;0;1.30
2021-12-29 13:45:36;4.22;36;39.40;0;2.39
2021-12-29 13:50:37;4.22;37;39.40;0;1.40
2021-12-29 13:55:34;4.22;36;39.30;0;1.70
2021-12-29 14:00:35;4.22;35;39.60;0;2.59
2021-12-29 14:05:36;4.22;36;39.60;0;1.70
2021-12-29 14:10:37;4.22;35;39.40;0;1.70
2021-12-29 14:15:38;4.22;37;39.80;0;2.19
2021-12-29 14:20:34;4.22;35;39.70;0;4.07
2021-12-29 14:25:35;4.22;35;40.10;0;2.09
2021-12-29 14:30:36;4.22;35;39.60;0;1.80
2021-12-29 14:35:37;4.22;35;39.90;0;1.50
2021-12-29 14:40:34;4.22;34;39.30;0;2.19
2021-12-29 14:45:35;4.22;34;40.20;0;1.40
2021-12-29 14:50:36;4.22;34;40.20;0;2.99
2021-12-29 14:55:37;4.22;36;38.80;0;3.08
2021-12-29 15:00:38;4.22;34;39.00;0;2.79
2021-12-29 15:05:34;4.23;34;39.70;0;2.09
2021-12-29 15:10:36;4.22;34;39.50;0;2.99
2021-12-29 15:15:37;4.23;35;40.00;0;2.69
2021-12-29 15:20:38;4.23;36;40.50;0;2.49
2021-12-29 15:25:34;4.23;36;40.20;0;2.39
2021-12-29 15:30:35;4.23;36;40.60;0;3.48
2021-12-29 15:35:36;4.23;34;40.10;0;2.00
2021-12-29 15:40:37;4.23;35;39.90;0;1.90
2021-12-29 15:45:34;4.23;36;40.20;0;3.18
2021-12-29 15:50:35;4.23;35;40.10;0;2.89
2021-12-29 15:55:36;4.23;36;39.70;0;3.58
2021-12-29 16:00:37;4.23;35;40.20;0;2.69
2021-12-29 16:05:38;4.23;37;40.00;0;2.09
2021-12-29 16:10:34;4.23;35;39.50;0;2.49
2021-12-29 16:15:35;4.23;36;40.50;0;1.30
2021-12-29 16:20:36;4.23;34;40.10;0;2.59
2021-12-29 16:25:33;4.23;34;40.40;0;2.89
2021-12-29 16:30:39;4.23;36;39.70;0;1.40
2021-12-29 16:35:35;4.23;36;39.70;0;3.38
2021-12-29 16:40:36;4.23;34;39.40;0;3.58
2021-12-29 16:45:37;4.23;34;39.20;0;4.27
2021-12-29 16:50:38;4.23;34;39.20;0;2.89
2021-12-29 16:55:34;4.23;34;39.30;0;2.89
2021-12-29 17:00:35;4.23;35;39.20;0;3.88
2021-12-29 17:05:36;4.23;36;39.00;0;2.39
2021-12-29 17:10:37;4.23;35;38.80;0;2.79
2021-12-29 17:15:37;4.23;35;38.90;0;3.48
2021-12-29 17:20:34;4.23;36;38.80;0;3.68
2021-12-29 17:25:34;4.23;35;39.20;0;2.79
2021-12-29 17:30:35;4.23;36;38.50;0;3.88
2021-12-29 17:35:36;4.23;36;38.60;0;3.58
2021-12-29 17:40:36;4.23;34;38.60;0;4.37
2021-12-29 17:45:37;4.23;36;38.20;0;3.97
2021-12-29 17:50:33;4.23;36;38.20;0;3.68
2021-12-29 17:55:34;4.23;36;38.20;0;2.69
2021-12-29 18:00:34;4.23;37;38.10;0;3.97
2021-12-29 18:05:35;4.23;37;37.80;0;3.08
2021-12-29 18:10:35;4.23;37;37.80;0;3.78
2021-12-29 18:15:36;4.23;38;37.90;0;2.79
2021-12-29 18:20:36;4.23;37;38.00;0;1.40
2021-12-29 18:25:37;4.23;38;37.70;0;3.38
2021-12-29 18:30:37;4.23;40;37.20;0;2.49
2021-12-29 18:35:33;4.23;39;37.10;0;2.79
2021-12-29 18:40:34;4.23;40;37.00;0;2.89
2021-12-29 18:45:34;4.23;41;36.90;0;1.60
2021-12-29 18:50:34;4.23;39;36.70;0;2.99
2021-12-29 18:55:34;4.23;40;36.50;0;1.90
2021-12-29 19:00:35;4.23;41;36.10;0;2.79
2021-12-29 19:05:35;4.23;42;36.00;0;2.19
2021-12-29 19:10:35;4.23;42;35.70;0;1.80
2021-12-29 19:15:35;4.23;44;35.20;0;1.30
2021-12-29 19:20:35;4.23;44;34.90;0;1.40
2021-12-29 19:25:35;4.23;46;34.40;0;0.00
2021-12-29 19:30:35;4.23;48;33.50;0;0.00
2021-12-29 19:35:35;4.23;50;33.00;0;0.00
2021-12-29 19:40:35;4.23;51;32.20;0;0.00
2021-12-29 19:45:34;4.23;53;31.50;0;0.00
2021-12-29 19:50:34;4.22;54;31.00;0;0.00
2021-12-29 19:55:33;4.22;54;30.60;0;0.00
2021-12-29 20:00:33;4.22;54;30.70;0;0.00
2021-12-29 20:05:37;4.22;54;30.40;0;0.00
2021-12-29 20:10:36;4.22;54;30.00;0;0.00
2021-12-29 20:15:35;4.22;54;29.90;0;0.00
2021-12-29 20:20:34;4.22;53;29.90;0;0.00
2021-12-29 20:25:33;4.22;54;29.60;0;0.00
2021-12-29 20:30:36;4.21;53;29.60;0;0.00
2021-12-29 20:35:35;4.22;53;29.40;0;0.00
2021-12-29 20:40:34;4.21;54;29.00;0;0.00
2021-12-29 20:45:33;4.21;54;28.60;0;0.00
2021-12-29 20:50:36;4.21;55;28.10;0;0.00
2021-12-29 20:55:35;4.21;56;28.00;0;0.00
2021-12-29 21:00:33;4.21;55;28.20;0;0.00
2021-12-29 21:05:32;4.21;55;28.00;0;0.00
2021-12-29 21:10:35;4.21;55;27.80;0;0.00
2021-12-29 21:15:33;4.21;55;27.60;0;0.00
2021-12-29 21:20:32;4.20;52;28.80;0;0.00
2021-12-29 21:25:35;4.20;51;29.20;0;0.00
2021-12-29 21:30:33;4.20;53;28.30;0;0.00
2021-12-29 21:35:32;4.20;56;27.20;0;0.00
2021-12-29 21:40:35;4.20;58;26.20;0;0.00
2021-12-29 21:45:33;4.20;59;25.90;0;0.00
2021-12-29 21:50:36;4.20;60;25.70;0;0.00
2021-12-29 21:55:34;4.20;59;25.70;0;0.00
2021-12-29 22:00:32;4.20;62;25.50;0;0.00
2021-12-29 22:05:35;4.20;63;24.90;0;0.00
2021-12-29 22:10:33;4.20;66;24.50;0;0.00
2021-12-29 22:15:31;4.20;59;25.10;0;0.00
2021-12-29 22:20:34;4.20;63;25.30;0;0.00
2021-12-29 22:25:32;4.20;63;24.60;0;0.00
2021-12-29 22:30:35;4.19;66;24.30;0;0.00
2021-12-29 22:35:33;4.19;66;24.00;0;0.00
2021-12-29 22:40:35;4.19;67;23.80;0;0.00
2021-12-29 22:45:33;4.19;68;23.40;0;0.00
2021-12-29 22:50:31;4.19;68;23.10;0;0.00
2021-12-29 22:55:34;4.19;69;22.90;0;0.00
2021-12-29 23:00:31;4.19;70;22.70;0;0.00
2021-12-29 23:05:34;4.19;71;22.30;0;0.00
2021-12-29 23:10:32;4.19;73;21.50;0;0.00
2021-12-29 23:15:34;4.19;72;21.60;0;0.00
2021-12-29 23:20:32;4.19;69;22.70;0;0.00
2021-12-29 23:25:34;4.18;71;22.20;0;0.00
2021-12-29 23:30:32;4.19;72;22.00;0;0.00
2021-12-29 23:35:34;4.19;67;23.20;0;0.00
2021-12-29 23:40:32;4.18;67;23.30;0;0.00
2021-12-29 23:45:34;4.19;66;23.10;0;0.00
2021-12-29 23:50:32;4.19;69;22.60;0;0.00
2021-12-29 23:55:34;4.18;68;22.50;0;0.00
