2022-01-02 00:00:33;4.15;26;19.20;6;0.00
2022-01-02 00:05:30;4.15;26;19.00;0;0.00
2022-01-02 00:10:32;4.15;24;19.00;0;0.00
2022-01-02 00:15:34;4.15;21;19.10;0;0.00
2022-01-02 00:20:32;4.15;22;19.10;0;0.00
2022-01-02 00:25:34;4.15;21;19.10;0;0.00
2022-01-02 00:30:31;4.15;20;19.00;0;0.00
2022-01-02 00:35:33;4.15;20;19.10;0;0.00
2022-01-02 00:40:35;4.15;21;19.00;0;0.00
2022-01-02 00:45:32;4.15;20;19.10;0;0.00
2022-01-02 00:50:34;4.15;21;19.10;0;0.00
2022-01-02 00:55:31;4.15;22;19.00;0;0.00
2022-01-02 01:00:33;4.14;23;19.00;0;0.00
2022-01-02 01:05:30;4.15;23;18.90;0;0.00
2022-01-02 01:10:32;4.15;23;18.90;0;0.00
2022-01-02 01:15:34;4.14;22;19.00;0;0.00
2022-01-02 01:20:31;4.15;23;18.80;0;0.00
2022-01-02 01:25:33;4.14;22;18.70;0;0.00
2022-01-02 01:30:31;4.14;22;18.80;0;0.00
2022-01-02 01:35:33;4.14;22;18.80;0;0.00
2022-01-02 01:40:30;4.14;20;18.70;0;0.00
2022-01-02 01:45:32;4.14;21;18.60;0;0.00
2022-01-02 01:50:34;4.14;18;18.70;0;0.00
2022-01-02 01:55:31;4.14;17;18.70;0;0.00
2022-01-02 02:00:33;4.14;17;18.80;0;0.00
2022-01-02 02:05:35;4.14;18;18.70;0;0.00
2022-01-02 02:10:32;4.14;19;18.80;0;0.00
2022-01-02 02:15:34;4.14;21;18.60;0;0.00
2022-01-02 02:20:31;4.14;24;18.10;0;0.00
2022-01-02 02:25:33;4.14;23;18.10;0;0.00
2022-01-02 02:30:35;4.14;21;17.90;0;0.00
2022-01-02 02:35:32;4.14;19;18.30;0;0.00
2022-01-02 02:40:34;4.14;20;17.80;0;0.00
2022-01-02 02:45:31;4.14;19;17.50;0;0.00
2022-01-02 02:50:33;4.14;13;17.70;0;0.00
2022-01-02 02:55:34;4.14;11;17.60;0;0.00
2022-01-02 03:00:32;4.14;6;18.10;0;0.00
2022-01-02 03:05:33;4.14;6;18.20;0;0.00
2022-01-02 03:10:31;4.14;7;18.20;0;0.00
2022-01-02 03:15:32;4.14;8;17.90;0;0.00
2022-01-02 03:20:34;4.14;8;17.80;0;0.00
2022-01-02 03:25:31;4.14;8;17.70;0;0.00
2022-01-02 03:30:33;4.14;6;17.80;0;0.00
2022-01-02 03:35:30;4.14;3;18.00;0;1.10
2022-01-02 03:40:32;4.14;1;18.20;0;0.00
2022-01-02 03:45:34;4.14;0;18.20;0;0.00
2022-01-02 03:50:31;4.14;99;18.30;0;0.00
2022-01-02 03:55:33;4.14;0;18.20;0;0.00
2022-01-02 04:00:35;4.14;0;18.10;0;0.00
2022-01-02 04:05:32;4.14;0;18.00;0;0.00
2022-01-02 04:10:34;4.14;99;18.00;0;0.00
2022-01-02 04:15:31;4.14;99;17.80;0;0.00
2022-01-02 04:20:33;4.14;99;17.80;0;0.00
2022-01-02 04:25:35;4.14;99;17.80;0;0.00
2022-01-02 04:30:32;4.14;99;17.70;0;0.00
2022-01-02 04:35:34;4.14;99;17.80;0;0.00
2022-01-02 04:40:31;4.14;99;17.70;0;0.00
2022-01-02 04:45:33;4.14;99;17.70;0;0.00
2022-01-02 04:50:34;4.14;99;17.70;0;0.00
2022-01-02 04:55:32;4.14;99;17.50;0;0.00
2022-01-02 05:00:33;4.13;99;17.30;0;0.00
2022-01-02 05:05:30;4.14;99;17.30;0;0.00
2022-01-02 05:10:32;4.13;99;17.20;0;0.00
2022-01-02 05:15:34;4.14;99;17.30;0;0.00
2022-01-02 05:20:31;4.14;99;17.20;0;0.00
2022-01-02 05:25:33;4.13;99;17.00;0;0.00
2022-01-02 05:30:30;4.13;99;17.10;0;0.00
2022-01-02 05:35:32;4.13;99;17.10;0;0.00
2022-01-02 05:40:33;4.13;99;17.20;0;0.00
2022-01-02 05:45:30;4.13;99;16.90;0;0.00
2022-01-02 05:50:32;4.13;99;16.80;0;0.00
2022-01-02 05:55:34;4.13;99;16.80;0;0.00
2022-01-02 06:00:31;4.13;99;16.80;0;0.00
2022-01-02 06:05:32;4.13;99;16.90;0;0.00
2022-01-02 06:10:28;4.13;99;16.80;1;0.00
2022-01-02 06:15:35;4.13;99;17.00;1;0.00
2022-01-02 06:20:32;4.13;99;17.30;1;0.00
2022-01-02 06:25:33;4.13;99;17.40;1;0.00
2022-01-02 06:30:31;4.13;99;17.40;1;0.00
2022-01-02 06:35:32;4.13;99;17.50;1;0.00
2022-01-02 06:40:34;4.13;99;17.60;1;0.00
2022-01-02 06:45:31;4.13;99;17.90;1;0.00
2022-01-02 06:50:33;4.14;99;18.20;1;0.00
2022-01-02 06:55:35;4.14;99;19.00;1;0.00
2022-01-02 07:00:32;4.14;99;19.40;1;0.00
2022-01-02 07:05:34;4.14;99;19.90;1;0.00
2022-01-02 07:10:31;4.14;99;20.50;1;0.00
2022-01-02 07:15:33;4.14;24;20.40;1;0.00
2022-01-02 07:20:35;4.14;57;20.60;1;0.00
2022-01-02 07:25:32;4.14;65;20.80;1;0.00
2022-01-02 07:30:34;4.14;65;21.00;1;0.00
2022-01-02 07:35:32;4.14;67;21.30;1;0.00
2022-01-02 07:40:34;4.14;70;21.60;1;0.00
2022-01-02 07:45:31;4.14;69;21.70;1;1.20
2022-01-02 07:50:33;4.14;71;22.00;1;1.30
2022-01-02 07:55:31;4.14;71;22.20;1;1.40
2022-01-02 08:00:33;4.14;73;22.20;1;1.50
2022-01-02 08:05:31;4.15;75;22.50;1;1.80
2022-01-02 08:10:34;4.15;75;22.90;1;1.60
2022-01-02 08:15:31;4.15;74;23.20;1;1.10
2022-01-02 08:20:34;4.15;75;23.20;1;1.90
2022-01-02 08:25:32;4.15;76;23.70;1;1.50
2022-01-02 08:30:34;4.16;75;24.30;1;0.00
2022-01-02 08:35:33;4.16;75;24.60;1;1.40
2022-01-02 08:40:35;4.16;76;24.80;1;0.00
2022-01-02 08:45:33;4.16;76;25.20;1;0.00
2022-01-02 08:50:32;4.16;76;25.50;1;1.50
2022-01-02 08:55:34;4.16;76;25.30;1;1.10
2022-01-02 09:00:33;4.16;76;25.10;1;0.00
2022-01-02 09:05:31;4.17;77;25.00;1;1.30
2022-01-02 09:10:34;4.17;77;26.20;1;1.40
2022-01-02 09:15:33;4.17;77;25.10;1;0.00
2022-01-02 09:20:31;4.17;76;25.90;1;1.10
2022-01-02 09:25:34;4.17;75;25.90;1;1.90
2022-01-02 09:30:33;4.17;75;26.70;1;1.40
2022-01-02 09:35:36;4.18;75;26.80;1;1.20
2022-01-02 09:40:34;4.18;75;27.40;1;1.50
2022-01-02 09:45:33;4.18;75;27.30;1;0.00
2022-01-02 09:50:36;4.18;76;27.20;1;1.20
2022-01-02 09:55:35;4.18;75;27.70;1;1.60
2022-01-02 10:00:34;4.18;73;28.10;1;0.00
2022-01-02 10:05:33;4.18;72;28.30;1;1.10
2022-01-02 10:10:36;4.18;73;28.90;1;2.39
2022-01-02 10:15:35;4.18;73;28.30;1;1.80
2022-01-02 10:20:34;4.18;72;29.20;1;0.00
2022-01-02 10:25:33;4.18;72;29.50;1;1.70
2022-01-02 10:30:32;4.18;71;29.20;1;2.00
2022-01-02 10:35:36;4.18;72;30.20;1;0.00
2022-01-02 10:40:35;4.19;71;29.20;1;1.20
2022-01-02 10:45:34;4.19;69;31.30;1;1.70
2022-01-02 10:50:34;4.19;71;29.70;1;0.00
2022-01-02 10:55:33;4.19;70;30.50;1;0.00
2022-01-02 11:00:32;4.19;69;31.00;1;0.00
2022-01-02 11:05:36;4.19;69;30.80;1;0.00
2022-01-02 11:10:36;4.19;68;31.40;1;2.29
2022-01-02 11:15:35;4.19;67;31.50;1;1.70
2022-01-02 11:20:35;4.19;66;31.70;1;2.19
2022-01-02 11:25:35;4.19;68;31.40;1;3.28
2022-01-02 11:30:34;4.19;66;31.60;1;1.30
2022-01-02 11:35:34;4.19;65;31.60;1;3.08
2022-01-02 11:40:33;4.19;67;31.60;1;3.97
2022-01-02 11:45:33;4.19;66;32.20;1;3.28
2022-01-02 11:50:37;4.20;64;32.00;1;3.88
2022-01-02 11:55:32;4.20;65;31.80;1;1.60
2022-01-02 12:00:37;4.20;64;33.10;1;2.59
2022-01-02 12:05:36;4.20;65;32.90;1;1.50
2022-01-02 12:10:36;4.20;63;33.20;1;0.00
2022-01-02 12:15:31;4.20;65;32.70;1;2.29
2022-01-02 12:20:36;4.20;64;32.80;1;3.68
2022-01-02 12:25:36;4.20;64;33.40;1;2.69
2022-01-02 12:30:35;4.20;63;32.90;1;0.00
2022-01-02 12:35:35;4.20;63;34.10;1;2.79
2022-01-02 12:40:35;4.20;63;33.60;1;3.28
2022-01-02 12:45:35;4.20;63;33.60;1;1.60
2022-01-02 12:50:35;4.20;62;34.00;1;0.00
2022-01-02 12:55:35;4.20;61;33.90;1;1.70
2022-01-02 13:00:35;4.20;63;34.40;1;1.80
2022-01-02 13:05:35;4.20;62;34.10;1;1.20
2022-01-02 13:10:35;4.20;62;34.30;1;1.90
2022-01-02 13:15:35;4.20;62;34.40;1;3.38
2022-01-02 13:20:36;4.20;62;34.00;1;2.39
2022-01-02 13:25:36;4.21;63;34.20;1;1.10
2022-01-02 13:30:36;4.21;61;34.80;1;4.07
2022-01-02 13:35:36;4.21;61;34.30;1;0.00
2022-01-02 13:40:36;4.21;60;35.10;1;1.10
2022-01-02 13:45:36;4.21;62;34.40;1;1.60
2022-01-02 13:50:32;4.21;61;34.40;1;2.59
2022-01-02 13:55:37;4.21;61;35.00;1;4.17
2022-01-02 14:00:37;4.21;60;35.10;1;2.39
2022-01-02 14:05:37;4.21;61;34.80;1;1.70
2022-01-02 14:10:33;4.21;62;35.00;1;0.00
2022-01-02 14:15:37;4.21;61;36.00;1;3.18
2022-01-02 14:20:33;4.21;60;35.20;1;1.60
2022-01-02 14:25:38;4.21;59;35.50;1;1.90
2022-01-02 14:30:34;4.21;60;35.20;1;2.59
2022-01-02 14:35:34;4.21;59;36.30;1;3.18
2022-01-02 14:40:34;4.21;58;36.20;1;1.80
2022-01-02 14:45:35;4.21;59;35.60;1;1.40
2022-01-02 14:50:35;4.21;58;36.00;1;0.00
2022-01-02 14:55:35;4.21;60;35.80;1;2.89
2022-01-02 15:00:36;4.21;60;35.30;1;1.20
2022-01-02 15:05:36;4.21;59;35.90;1;1.50
2022-01-02 15:10:36;4.21;59;36.00;1;2.89
2022-01-02 15:15:37;4.22;59;36.00;1;0.00
2022-01-02 15:20:37;4.21;60;35.90;1;2.00
2022-01-02 15:25:33;4.21;59;35.80;1;2.19
2022-01-02 15:30:38;4.21;60;35.80;1;2.29
2022-01-02 15:35:34;4.22;60;36.40;1;1.20
2022-01-02 15:40:34;4.22;59;35.70;1;2.29
2022-01-02 15:45:34;4.22;59;36.60;1;1.50
2022-01-02 15:50:35;4.22;59;36.30;1;1.90
2022-01-02 15:55:35;4.22;59;36.10;1;2.69
2022-01-02 16:00:35;4.22;59;36.00;1;2.19
2022-01-02 16:05:36;4.22;60;36.40;1;0.00
2022-01-02 16:10:36;4.22;57;36.30;1;2.59
2022-01-02 16:15:36;4.22;58;35.80;1;2.59
2022-01-02 16:20:37;4.22;58;36.00;1;2.00
2022-01-02 16:25:33;4.22;59;35.70;1;3.18
2022-01-02 16:30:37;4.22;58;36.10;1;3.08
2022-01-02 16:35:33;4.22;59;36.10;1;3.78
2022-01-02 16:40:38;4.22;59;36.20;1;2.00
2022-01-02 16:45:34;4.22;60;35.60;1;1.90
2022-01-02 16:50:34;4.22;58;36.30;1;5.36
2022-01-02 16:55:34;4.22;59;36.20;1;2.00
2022-01-02 17:00:34;4.22;60;36.40;1;1.90
2022-01-02 17:05:35;4.22;59;35.90;1;2.29
2022-01-02 17:10:35;4.22;60;35.90;1;2.09
2022-01-02 17:15:35;4.22;59;36.00;1;1.90
2022-01-02 17:20:36;4.22;57;36.40;1;1.90
2022-01-02 17:25:36;4.22;60;36.30;1;2.99
2022-01-02 17:30:36;4.22;59;36.40;1;0.00
2022-01-02 17:35:36;4.22;58;36.00;1;1.90
2022-01-02 17:40:32;4.22;59;36.20;1;2.69
2022-01-02 17:45:37;4.22;60;35.90;1;1.20
2022-01-02 17:50:37;4.22;60;35.40;1;0.00
2022-01-02 17:55:33;4.22;61;35.30;1;0.00
2022-01-02 18:00:33;4.22;61;35.00;1;0.00
2022-01-02 18:05:38;4.22;60;35.80;1;0.00
2022-01-02 18:10:33;4.22;58;36.60;1;0.00
2022-01-02 18:15:38;4.22;60;34.80;1;0.00
2022-01-02 18:20:33;4.22;62;34.70;1;0.00
2022-01-02 18:25:33;4.22;61;34.30;1;0.00
2022-01-02 18:30:38;4.22;65;34.30;1;0.00
2022-01-02 18:35:33;4.22;62;34.00;1;0.00
2022-01-02 18:40:33;4.22;64;34.30;1;0.00
2022-01-02 18:45:37;4.22;61;34.40;1;0.00
2022-01-02 18:50:37;4.22;62;34.40;1;0.00
2022-01-02 18:55:36;4.22;63;34.00;1;0.00
2022-01-02 19:00:32;4.22;64;34.00;1;0.00
2022-01-02 19:05:36;4.22;62;34.10;1;0.00
2022-01-02 19:10:35;4.22;63;34.00;1;0.00
2022-01-02 19:15:35;4.22;66;33.70;1;0.00
2022-01-02 19:20:35;4.22;66;33.40;1;0.00
2022-01-02 19:25:34;4.22;67;33.20;1;0.00
2022-01-02 19:30:34;4.22;68;33.00;1;0.00
2022-01-02 19:35:33;4.21;68;32.80;1;0.00
2022-01-02 19:40:33;4.21;68;31.30;1;0.00
2022-01-02 19:45:37;4.21;72;28.70;1;0.00
2022-01-02 19:50:36;4.21;74;27.90;1;0.00
2022-01-02 19:55:35;4.21;74;27.70;1;0.00
2022-01-02 20:00:34;4.21;74;27.30;1;1.70
2022-01-02 20:05:33;4.21;75;27.00;1;0.00
2022-01-02 20:10:36;4.21;74;27.00;1;0.00
2022-01-02 20:15:35;4.21;74;27.00;1;0.00
2022-01-02 20:20:34;4.21;74;26.90;1;0.00
2022-01-02 20:25:32;4.20;74;26.70;1;1.10
2022-01-02 20:30:36;4.21;74;26.60;1;0.00
2022-01-02 20:35:34;4.20;75;26.50;1;0.00
2022-01-02 20:40:33;4.20;75;26.30;1;0.00
2022-01-02 20:45:36;4.20;75;26.30;1;0.00
2022-01-02 20:50:34;4.20;75;26.20;1;0.00
2022-01-02 20:55:33;4.20;76;26.20;1;0.00
2022-01-02 21:00:36;4.20;76;26.10;1;0.00
2022-01-02 21:05:34;4.20;76;26.20;1;0.00
2022-01-02 21:10:32;4.20;76;26.10;1;0.00
2022-01-02 21:15:31;4.20;77;26.10;1;0.00
2022-01-02 21:20:34;4.20;77;26.00;1;0.00
2022-01-02 21:25:32;4.20;77;26.10;1;0.00
2022-01-02 21:30:35;4.19;77;26.20;1;0.00
2022-01-02 21:35:33;4.20;77;26.00;1;0.00
2022-01-02 21:40:31;4.19;77;25.90;1;0.00
2022-01-02 21:45:34;4.19;78;25.90;1;0.00
2022-01-02 21:50:33;4.20;78;25.60;1;0.00
2022-01-02 21:55:35;4.19;78;25.50;1;0.00
2022-01-02 22:00:34;4.19;78;25.40;1;0.00
2022-01-02 22:05:32;4.19;78;25.20;1;0.00
2022-01-02 22:10:35;4.19;78;25.00;1;0.00
2022-01-02 22:15:33;4.19;78;25.10;1;0.00
2022-01-02 22:20:36;4.19;79;24.80;1;1.60
2022-01-02 22:25:34;4.19;78;25.00;1;0.00
2022-01-02 22:30:32;4.19;78;25.10;1;0.00
2022-01-02 22:35:35;4.19;78;24.90;1;0.00
2022-01-02 22:40:33;4.19;78;24.90;1;1.10
2022-01-02 22:45:36;4.19;78;25.00;1;0.00
2022-01-02 22:50:34;4.19;78;24.80;1;0.00
2022-01-02 22:55:32;4.19;78;24.70;1;0.00
2022-01-02 23:00:35;4.19;78;24.80;1;1.70
2022-01-02 23:05:33;4.19;78;25.10;1;0.00
2022-01-02 23:10:31;4.19;78;25.10;1;0.00
2022-01-02 23:15:34;4.19;78;25.00;1;0.00
2022-01-02 23:20:32;4.19;78;24.70;1;0.00
2022-01-02 23:25:35;4.19;79;24.40;1;0.00
2022-01-02 23:30:33;4.19;78;24.60;1;0.00
2022-01-02 23:35:35;4.19;76;25.90;1;1.10
2022-01-02 23:40:33;4.19;77;25.70;1;0.00
2022-01-02 23:45:32;4.18;77;25.30;1;0.00
2022-01-02 23:50:34;4.18;77;25.60;1;0.00
2022-01-02 23:55:32;4.18;77;25.60;1;0.00
