2021-09-27 00:00:32;4.16;70;17.90;0;1.20
2021-09-27 00:05:33;4.16;70;18.10;0;1.60
2021-09-27 00:10:30;4.16;69;18.30;0;1.80
2021-09-27 00:15:32;4.16;71;17.90;0;1.90
2021-09-27 00:20:34;4.16;72;17.70;0;1.50
2021-09-27 00:25:31;4.16;72;17.70;0;1.20
2021-09-27 00:30:33;4.16;73;17.50;0;1.70
2021-09-27 00:35:34;4.16;73;17.50;0;2.09
2021-09-27 00:40:31;4.16;74;17.20;0;1.20
2021-09-27 00:45:33;4.16;74;17.20;0;0.00
2021-09-27 00:50:35;4.16;75;17.20;0;0.00
2021-09-27 00:55:32;4.16;75;17.10;0;0.00
2021-09-27 01:00:33;4.16;76;16.90;0;0.00
2021-09-27 01:05:31;4.16;77;16.40;0;0.00
2021-09-27 01:10:32;4.16;79;15.70;0;0.00
2021-09-27 01:15:34;4.16;82;14.90;0;0.00
2021-09-27 01:20:31;4.16;83;14.80;0;0.00
2021-09-27 01:25:32;4.16;83;14.90;0;0.00
2021-09-27 01:30:34;4.15;82;15.20;0;0.00
2021-09-27 01:35:31;4.16;83;15.10;0;0.00
2021-09-27 01:40:32;4.15;83;15.10;0;0.00
2021-09-27 01:45:34;4.15;83;15.20;0;0.00
2021-09-27 01:50:30;4.15;83;15.30;0;0.00
2021-09-27 01:55:32;4.15;83;15.40;0;0.00
2021-09-27 02:00:33;4.15;83;15.30;0;0.00
2021-09-27 02:05:30;4.15;84;15.10;0;0.00
2021-09-27 02:10:32;4.15;84;15.00;0;0.00
2021-09-27 02:15:33;4.15;84;15.10;0;0.00
2021-09-27 02:20:34;4.15;85;15.10;0;0.00
2021-09-27 02:25:31;4.15;84;15.30;0;0.00
2021-09-27 02:30:33;4.15;86;14.60;0;0.00
2021-09-27 02:35:34;4.15;84;15.20;0;0.00
2021-09-27 02:40:31;4.15;86;14.50;0;0.00
2021-09-27 02:45:32;4.15;88;13.50;0;0.00
2021-09-27 02:50:34;4.15;89;13.60;0;0.00
2021-09-27 02:55:30;4.15;89;13.50;0;0.00
2021-09-27 03:00:32;4.15;90;13.30;0;0.00
2021-09-27 03:05:33;4.15;90;13.40;0;1.20
2021-09-27 03:10:30;4.14;90;13.80;0;1.40
2021-09-27 03:15:31;4.15;89;14.40;0;1.10
2021-09-27 03:20:32;4.15;89;14.50;0;1.20
2021-09-27 03:25:34;4.14;88;14.70;0;1.40
2021-09-27 03:30:31;4.15;88;14.70;0;1.20
2021-09-27 03:35:32;4.15;87;15.10;0;0.00
2021-09-27 03:40:33;4.14;87;15.10;0;1.10
2021-09-27 03:45:30;4.14;88;14.90;0;1.10
2021-09-27 03:50:31;4.15;88;14.80;0;0.00
2021-09-27 03:55:33;4.14;88;14.80;0;1.20
2021-09-27 04:00:34;4.14;88;14.90;0;1.10
2021-09-27 04:05:31;4.14;87;15.20;0;1.10
2021-09-27 04:10:32;4.14;88;14.80;0;1.40
2021-09-27 04:15:34;4.14;89;14.80;0;1.50
2021-09-27 04:20:31;4.15;88;15.00;0;1.60
2021-09-27 04:25:32;4.14;89;14.90;0;1.70
2021-09-27 04:30:33;4.14;88;15.00;0;1.20
2021-09-27 04:35:30;4.14;87;15.30;0;1.30
2021-09-27 04:40:32;4.14;86;15.60;0;1.70
2021-09-27 04:45:33;4.14;86;15.70;0;1.50
2021-09-27 04:50:34;4.14;86;15.60;0;1.50
2021-09-27 04:55:31;4.14;86;15.50;0;1.40
2021-09-27 05:00:33;4.14;86;15.40;0;1.10
2021-09-27 05:05:34;4.14;87;15.30;0;1.20
2021-09-27 05:10:31;4.14;87;15.40;0;1.10
2021-09-27 05:15:33;4.14;87;15.40;0;0.00
2021-09-27 05:20:34;4.14;89;14.70;0;0.00
2021-09-27 05:25:31;4.14;89;14.50;0;0.00
2021-09-27 05:30:32;4.14;90;14.40;0;1.20
2021-09-27 05:35:34;4.14;90;14.40;0;0.00
2021-09-27 05:40:31;4.14;90;14.40;0;0.00
2021-09-27 05:45:32;4.14;90;14.40;0;0.00
2021-09-27 05:50:33;4.14;90;14.10;0;0.00
2021-09-27 05:55:30;4.14;91;13.80;0;0.00
2021-09-27 06:00:32;4.14;92;13.80;0;0.00
2021-09-27 06:05:33;4.14;92;13.80;0;0.00
2021-09-27 06:10:34;4.14;91;13.80;0;0.00
2021-09-27 06:15:31;4.14;92;13.50;0;0.00
2021-09-27 06:20:32;4.14;93;13.30;0;0.00
2021-09-27 06:25:34;4.14;93;13.10;0;0.00
2021-09-27 06:30:30;4.14;95;12.60;0;0.00
2021-09-27 06:35:32;4.14;96;12.50;0;0.00
2021-09-27 06:40:33;4.14;95;13.00;0;0.00
2021-09-27 06:45:34;4.14;95;12.80;0;0.00
2021-09-27 06:50:31;4.13;96;12.40;0;0.00
2021-09-27 06:55:32;4.14;96;12.30;0;0.00
2021-09-27 07:00:33;4.13;96;12.40;0;0.00
2021-09-27 07:05:34;4.13;95;12.50;0;0.00
2021-09-27 07:10:31;4.13;97;11.90;0;0.00
2021-09-27 07:15:32;4.13;98;11.80;0;0.00
2021-09-27 07:20:33;4.13;98;12.60;0;1.60
2021-09-27 07:25:34;4.13;97;12.70;0;0.00
2021-09-27 07:30:31;4.13;97;12.80;0;0.00
2021-09-27 07:35:32;4.13;97;13.20;0;0.00
2021-09-27 07:40:33;4.13;95;13.80;0;0.00
2021-09-27 07:45:30;4.14;95;14.00;0;0.00
2021-09-27 07:50:31;4.14;94;14.40;0;0.00
2021-09-27 07:55:32;4.14;93;14.70;0;1.50
2021-09-27 08:00:34;4.14;91;15.30;0;1.40
2021-09-27 08:05:31;4.14;91;15.60;0;1.40
2021-09-27 08:10:32;4.14;89;16.00;0;1.30
2021-09-27 08:15:34;4.15;88;16.50;0;1.10
2021-09-27 08:20:31;4.15;87;16.80;0;1.10
2021-09-27 08:25:32;4.15;86;17.30;0;1.10
2021-09-27 08:30:34;4.16;84;17.60;0;1.30
2021-09-27 08:35:31;4.16;82;18.20;0;1.10
2021-09-27 08:40:33;4.16;81;18.60;0;0.00
2021-09-27 08:45:35;4.16;81;18.80;0;0.00
2021-09-27 08:50:32;4.16;78;19.30;0;0.00
2021-09-27 08:55:34;4.16;75;20.40;0;0.00
2021-09-27 09:00:32;4.17;74;20.60;0;0.00
2021-09-27 09:05:34;4.17;73;20.50;0;0.00
2021-09-27 09:10:32;4.17;71;21.50;0;0.00
2021-09-27 09:15:34;4.17;70;21.90;0;0.00
2021-09-27 09:20:32;4.17;67;22.60;0;0.00
2021-09-27 09:25:34;4.17;68;22.60;0;0.00
2021-09-27 09:30:32;4.17;70;21.60;0;0.00
2021-09-27 09:35:35;4.18;70;21.70;0;0.00
2021-09-27 09:40:33;4.18;70;21.90;0;0.00
2021-09-27 09:45:36;4.18;71;22.10;0;0.00
2021-09-27 09:50:34;4.18;69;22.70;0;0.00
2021-09-27 09:55:32;4.18;69;23.00;0;0.00
2021-09-27 10:00:35;4.18;69;23.30;0;0.00
2021-09-27 10:05:33;4.18;67;23.80;0;0.00
2021-09-27 10:10:32;4.18;66;23.80;0;0.00
2021-09-27 10:15:35;4.18;64;24.60;0;0.00
2021-09-27 10:20:33;4.18;65;24.10;0;0.00
2021-09-27 10:25:36;4.18;65;24.00;0;0.00
2021-09-27 10:30:35;4.19;64;24.60;0;0.00
2021-09-27 10:35:33;4.18;65;24.60;0;0.00
2021-09-27 10:40:32;4.19;63;25.60;0;0.00
2021-09-27 10:45:35;4.19;63;24.80;0;0.00
2021-09-27 10:50:34;4.19;62;25.60;0;0.00
2021-09-27 10:55:32;4.19;62;25.90;0;0.00
2021-09-27 11:00:36;4.19;62;26.40;0;1.30
2021-09-27 11:05:34;4.19;61;26.00;0;0.00
2021-09-27 11:10:33;4.19;62;26.10;0;2.00
2021-09-27 11:15:32;4.19;62;25.60;0;0.00
2021-09-27 11:20:35;4.19;59;26.10;0;1.90
2021-09-27 11:25:34;4.19;60;27.00;0;1.10
2021-09-27 11:30:33;4.19;58;27.30;0;0.00
2021-09-27 11:35:32;4.19;57;28.10;0;0.00
2021-09-27 11:40:36;4.19;58;27.80;0;0.00
2021-09-27 11:45:35;4.19;60;26.00;0;0.00
2021-09-27 11:50:34;4.19;58;27.30;0;1.70
2021-09-27 11:55:33;4.19;57;27.10;0;1.70
2021-09-27 12:00:36;4.19;58;27.60;0;0.00
2021-09-27 12:05:36;4.19;55;28.50;0;0.00
2021-09-27 12:10:35;4.20;55;28.10;0;2.29
2021-09-27 12:15:34;4.20;55;27.70;0;0.00
2021-09-27 12:20:33;4.20;53;28.80;0;0.00
2021-09-27 12:25:32;4.20;52;29.10;0;0.00
2021-09-27 12:30:36;4.20;54;28.60;0;1.40
2021-09-27 12:35:35;4.20;54;28.60;0;0.00
2021-09-27 12:40:35;4.20;54;28.60;0;0.00
2021-09-27 12:45:34;4.20;54;28.70;0;1.10
2021-09-27 12:50:34;4.20;53;29.10;0;0.00
2021-09-27 12:55:33;4.20;54;28.90;0;2.00
2021-09-27 13:00:37;4.20;53;29.20;0;0.00
2021-09-27 13:05:36;4.20;54;28.70;0;0.00
2021-09-27 13:10:36;4.20;54;28.90;0;0.00
2021-09-27 13:15:35;4.20;53;29.00;0;0.00
2021-09-27 13:20:35;4.20;53;29.40;0;1.40
2021-09-27 13:25:34;4.20;52;29.80;0;0.00
2021-09-27 13:30:34;4.20;52;29.90;0;0.00
2021-09-27 13:35:34;4.20;50;30.60;0;0.00
2021-09-27 13:40:33;4.20;52;30.80;0;1.50
2021-09-27 13:45:33;4.20;50;30.50;0;0.00
2021-09-27 13:50:37;4.21;50;30.90;0;0.00
2021-09-27 13:55:32;4.21;50;30.20;0;0.00
2021-09-27 14:00:36;4.21;50;30.70;0;0.00
2021-09-27 14:05:36;4.21;53;30.00;0;1.30
2021-09-27 14:10:36;4.21;54;30.80;0;0.00
2021-09-27 14:15:36;4.21;50;31.00;0;1.20
2021-09-27 14:20:35;4.21;53;30.50;0;0.00
2021-09-27 14:25:35;4.21;49;31.20;0;0.00
2021-09-27 14:30:35;4.21;52;30.40;0;1.20
2021-09-27 14:35:35;4.21;50;30.50;0;0.00
2021-09-27 14:40:34;4.21;49;31.10;0;0.00
2021-09-27 14:45:34;4.21;47;31.70;0;0.00
2021-09-27 14:50:34;4.21;50;30.90;0;0.00
2021-09-27 14:55:34;4.21;49;31.40;0;0.00
2021-09-27 15:00:34;4.21;48;30.90;0;0.00
2021-09-27 15:05:33;4.21;48;31.70;0;0.00
2021-09-27 15:10:33;4.21;51;30.90;0;0.00
2021-09-27 15:15:33;4.21;50;30.80;0;0.00
2021-09-27 15:20:37;4.21;47;30.90;0;0.00
2021-09-27 15:25:33;4.21;45;32.00;0;0.00
2021-09-27 15:30:37;4.21;51;31.50;0;0.00
2021-09-27 15:35:37;4.21;49;30.70;0;0.00
2021-09-27 15:40:37;4.21;48;31.30;0;0.00
2021-09-27 15:45:36;4.21;48;30.60;0;0.00
2021-09-27 15:50:36;4.22;51;30.50;0;1.20
2021-09-27 15:55:36;4.22;50;30.30;0;0.00
2021-09-27 16:00:36;4.21;50;30.90;0;0.00
2021-09-27 16:05:35;4.22;52;31.00;0;1.20
2021-09-27 16:10:35;4.22;49;31.60;0;1.60
2021-09-27 16:15:34;4.21;48;31.10;0;0.00
2021-09-27 16:20:34;4.21;50;31.30;0;0.00
2021-09-27 16:25:34;4.22;51;30.90;0;0.00
2021-09-27 16:30:33;4.22;51;30.80;0;0.00
2021-09-27 16:35:33;4.22;51;31.20;0;0.00
2021-09-27 16:40:37;4.22;50;31.50;0;0.00
2021-09-27 16:45:37;4.22;52;30.40;0;0.00
2021-09-27 16:50:36;4.21;52;31.10;0;0.00
2021-09-27 16:55:36;4.22;49;30.90;0;0.00
2021-09-27 17:00:35;4.22;50;30.70;0;0.00
2021-09-27 17:05:35;4.22;51;30.70;0;0.00
2021-09-27 17:10:34;4.22;51;30.20;0;0.00
2021-09-27 17:15:33;4.22;50;30.30;0;0.00
2021-09-27 17:20:33;4.22;51;30.20;0;0.00
2021-09-27 17:25:36;4.22;50;29.80;0;1.10
2021-09-27 17:30:36;4.22;51;30.10;0;0.00
2021-09-27 17:35:35;4.22;50;29.80;0;0.00
2021-09-27 17:40:34;4.22;51;29.50;0;1.20
2021-09-27 17:45:33;4.22;51;29.40;0;1.20
2021-09-27 17:50:32;4.22;51;29.20;0;0.00
2021-09-27 17:55:36;4.21;50;29.10;0;0.00
2021-09-27 18:00:35;4.22;50;28.80;0;0.00
2021-09-27 18:05:34;4.22;50;28.60;0;0.00
2021-09-27 18:10:33;4.22;51;28.30;0;0.00
2021-09-27 18:15:36;4.21;53;28.00;0;0.00
2021-09-27 18:20:35;4.21;54;27.70;0;0.00
2021-09-27 18:25:34;4.21;56;27.40;0;0.00
2021-09-27 18:30:32;4.21;57;27.20;0;0.00
2021-09-27 18:35:36;4.21;59;26.80;0;0.00
2021-09-27 18:40:34;4.21;60;26.20;0;0.00
2021-09-27 18:45:33;4.21;62;25.70;0;0.00
2021-09-27 18:50:36;4.21;64;25.20;0;0.00
2021-09-27 18:55:34;4.21;65;24.60;0;0.00
2021-09-27 19:00:32;4.21;66;24.20;0;0.00
2021-09-27 19:05:35;4.21;67;23.70;0;0.00
2021-09-27 19:10:33;4.20;69;23.00;0;0.00
2021-09-27 19:15:31;4.20;70;22.60;0;0.00
2021-09-27 19:20:34;4.20;70;22.50;0;0.00
2021-09-27 19:25:32;4.20;70;22.40;0;0.00
2021-09-27 19:30:35;4.20;71;22.10;0;0.00
2021-09-27 19:35:32;4.20;68;22.70;0;0.00
2021-09-27 19:40:35;4.20;69;22.60;0;0.00
2021-09-27 19:45:33;4.19;69;22.70;0;0.00
2021-09-27 19:50:35;4.19;71;22.30;0;0.00
2021-09-27 19:55:33;4.19;72;22.00;0;0.00
2021-09-27 20:00:35;4.19;72;22.20;0;0.00
2021-09-27 20:05:33;4.19;73;22.10;0;0.00
2021-09-27 20:10:35;4.19;74;22.00;0;0.00
2021-09-27 20:15:33;4.19;75;21.90;0;0.00
2021-09-27 20:20:35;4.19;75;22.00;0;1.10
2021-09-27 20:25:33;4.19;75;22.10;0;1.10
2021-09-27 20:30:35;4.19;75;22.20;0;1.30
2021-09-27 20:35:33;4.19;76;22.00;0;1.50
2021-09-27 20:40:35;4.19;76;21.90;0;1.20
2021-09-27 20:45:33;4.19;77;21.80;0;1.40
2021-09-27 20:50:35;4.19;77;21.60;0;0.00
2021-09-27 20:55:33;4.19;78;21.60;0;0.00
2021-09-27 21:00:35;4.18;78;21.40;0;0.00
2021-09-27 21:05:33;4.19;79;21.20;0;0.00
2021-09-27 21:10:35;4.19;79;21.30;0;0.00
2021-09-27 21:15:32;4.18;79;21.30;0;0.00
2021-09-27 21:20:35;4.18;80;21.10;0;0.00
2021-09-27 21:25:32;4.18;80;21.30;0;0.00
2021-09-27 21:30:34;4.18;80;21.20;0;0.00
2021-09-27 21:35:32;4.18;81;20.90;0;1.20
2021-09-27 21:40:34;4.18;81;20.90;0;0.00
2021-09-27 21:45:32;4.18;81;20.80;0;0.00
2021-09-27 21:50:34;4.18;81;20.80;0;0.00
2021-09-27 21:55:31;4.18;82;20.70;0;1.40
2021-09-27 22:00:33;4.18;82;20.60;0;0.00
2021-09-27 22:05:31;4.18;81;20.80;0;1.20
2021-09-27 22:10:33;4.18;81;20.90;0;0.00
2021-09-27 22:15:35;4.18;81;20.80;0;0.00
2021-09-27 22:20:33;4.18;81;20.70;0;0.00
2021-09-27 22:25:35;4.18;81;20.70;0;0.00
2021-09-27 22:30:32;4.18;82;20.30;0;0.00
2021-09-27 22:35:34;4.18;82;20.40;0;0.00
2021-09-27 22:40:32;4.18;82;20.30;0;0.00
2021-09-27 22:45:34;4.18;83;20.30;0;0.00
2021-09-27 22:50:31;4.18;84;19.90;0;1.90
2021-09-27 22:55:33;4.18;84;19.90;0;1.10
2021-09-27 23:00:31;4.18;85;19.80;0;0.00
2021-09-27 23:05:33;4.17;86;19.70;0;2.00
2021-09-27 23:10:35;4.18;86;19.70;0;1.50
2021-09-27 23:15:32;4.17;87;19.60;0;0.00
2021-09-27 23:20:34;4.17;87;19.70;0;1.80
2021-09-27 23:25:32;4.17;87;19.70;0;2.09
2021-09-27 23:30:34;4.17;88;19.50;0;1.90
2021-09-27 23:35:31;4.17;89;19.40;0;2.69
2021-09-27 23:40:33;4.17;90;19.20;0;2.00
2021-09-27 23:45:35;4.17;91;19.10;0;2.29
2021-09-27 23:50:32;4.17;92;19.00;0;2.19
2021-09-27 23:55:34;4.17;93;18.80;0;2.19
