2021-09-20 00:00:32;4.16;96;18.20;0;1.50
2021-09-20 00:05:33;4.16;96;18.10;0;1.90
2021-09-20 00:10:31;4.16;96;18.10;0;2.09
2021-09-20 00:15:32;4.16;96;18.10;0;2.00
2021-09-20 00:20:34;4.16;96;18.00;0;1.50
2021-09-20 00:25:32;4.16;96;18.00;0;1.90
2021-09-20 00:30:33;4.16;96;18.00;0;1.50
2021-09-20 00:35:31;4.16;97;17.90;0;2.29
2021-09-20 00:40:32;4.16;97;17.90;0;2.39
2021-09-20 00:45:34;4.16;97;17.80;0;2.09
2021-09-20 00:50:31;4.16;97;17.80;0;2.49
2021-09-20 00:55:33;4.16;97;17.80;0;3.08
2021-09-20 01:00:30;4.15;96;17.90;0;2.00
2021-09-20 01:05:32;4.16;96;18.00;0;2.00
2021-09-20 01:10:34;4.15;96;17.90;0;1.50
2021-09-20 01:15:31;4.15;96;17.90;0;2.39
2021-09-20 01:20:33;4.16;96;17.90;0;1.70
2021-09-20 01:25:35;4.16;96;18.00;0;1.70
2021-09-20 01:30:32;4.15;96;18.00;0;1.60
2021-09-20 01:35:34;4.15;96;18.00;0;1.70
2021-09-20 01:40:31;4.15;96;18.00;0;2.00
2021-09-20 01:45:33;4.15;96;18.00;0;2.09
2021-09-20 01:50:34;4.15;96;18.00;0;2.09
2021-09-20 01:55:32;4.15;96;17.90;0;2.09
2021-09-20 02:00:33;4.15;96;17.90;0;2.00
2021-09-20 02:05:31;4.15;96;17.90;0;2.19
2021-09-20 02:10:32;4.15;96;17.80;0;2.09
2021-09-20 02:15:34;4.15;96;17.70;0;2.49
2021-09-20 02:20:31;4.15;97;17.70;0;2.89
2021-09-20 02:25:33;4.15;97;17.60;0;2.19
2021-09-20 02:30:30;4.15;97;17.50;0;2.99
2021-09-20 02:35:32;4.15;97;17.50;0;3.08
2021-09-20 02:40:34;4.15;97;17.50;0;1.90
2021-09-20 02:45:31;4.15;97;17.50;0;2.69
2021-09-20 02:50:33;4.15;97;17.40;0;2.99
2021-09-20 02:55:35;4.15;97;17.40;0;2.29
2021-09-20 03:00:32;4.15;97;17.50;0;2.99
2021-09-20 03:05:33;4.15;97;17.50;0;2.59
2021-09-20 03:10:31;4.15;97;17.50;0;2.09
2021-09-20 03:15:32;4.15;97;17.50;0;3.08
2021-09-20 03:20:34;4.15;97;17.40;0;3.28
2021-09-20 03:25:31;4.15;97;17.40;0;2.89
2021-09-20 03:30:33;4.15;97;17.40;0;2.59
2021-09-20 03:35:35;4.15;97;17.30;0;4.17
2021-09-20 03:40:32;4.15;97;17.20;0;3.08
2021-09-20 03:45:34;4.15;97;17.20;0;2.59
2021-09-20 03:50:31;4.15;97;17.20;0;3.58
2021-09-20 03:55:32;4.15;97;17.20;0;2.69
2021-09-20 04:00:34;4.15;97;17.10;0;2.89
2021-09-20 04:05:31;4.15;96;17.10;0;2.69
2021-09-20 04:10:33;4.15;96;17.10;0;3.78
2021-09-20 04:15:35;4.15;96;17.00;0;4.37
2021-09-20 04:20:32;4.15;97;16.90;0;2.99
2021-09-20 04:25:33;4.15;97;16.90;0;2.59
2021-09-20 04:30:31;4.15;97;16.80;0;2.99
2021-09-20 04:35:32;4.15;97;16.70;0;3.18
2021-09-20 04:40:34;4.15;97;16.70;0;2.99
2021-09-20 04:45:31;4.15;97;16.60;0;3.18
2021-09-20 04:50:33;4.14;98;16.40;0;3.97
2021-09-20 04:55:34;4.15;98;16.40;0;3.28
2021-09-20 05:00:31;4.14;98;16.20;0;3.08
2021-09-20 05:05:33;4.14;98;16.10;0;2.49
2021-09-20 05:10:35;4.14;98;16.20;0;2.39
2021-09-20 05:15:32;4.14;98;16.10;0;3.18
2021-09-20 05:20:33;4.14;98;16.10;0;3.28
2021-09-20 05:25:30;4.14;98;16.10;0;2.09
2021-09-20 05:30:32;4.14;98;16.00;0;2.89
2021-09-20 05:35:33;4.14;98;16.00;0;2.09
2021-09-20 05:40:30;4.14;98;15.90;0;2.39
2021-09-20 05:45:32;4.14;98;15.80;0;2.09
2021-09-20 05:50:33;4.14;98;15.80;0;1.80
2021-09-20 05:55:30;4.14;98;15.70;0;2.69
2021-09-20 06:00:32;4.14;98;15.70;0;2.09
2021-09-20 06:05:33;4.14;98;15.70;0;2.19
2021-09-20 06:10:30;4.14;98;15.80;0;1.40
2021-09-20 06:15:32;4.14;98;15.80;0;3.28
2021-09-20 06:20:33;4.14;98;15.80;0;3.58
2021-09-20 06:25:30;4.14;98;15.90;0;3.58
2021-09-20 06:30:32;4.14;98;15.90;0;2.89
2021-09-20 06:35:33;4.14;98;15.80;0;1.80
2021-09-20 06:40:30;4.14;98;15.80;0;1.70
2021-09-20 06:45:32;4.14;98;15.80;0;2.00
2021-09-20 06:50:33;4.14;98;15.80;0;2.99
2021-09-20 06:55:31;4.14;98;15.80;0;2.79
2021-09-20 07:00:32;4.14;98;15.80;0;2.89
2021-09-20 07:05:34;4.14;98;15.90;0;3.18
2021-09-20 07:10:30;4.14;98;15.80;0;2.59
2021-09-20 07:15:32;4.14;98;15.90;0;2.49
2021-09-20 07:20:34;4.14;98;16.00;0;2.19
2021-09-20 07:25:30;4.14;98;16.10;0;3.28
2021-09-20 07:30:32;4.14;98;16.20;0;2.79
2021-09-20 07:35:34;4.14;97;16.30;0;4.07
2021-09-20 07:40:31;4.14;97;16.40;0;3.58
2021-09-20 07:45:32;4.14;97;16.50;0;2.99
2021-09-20 07:50:34;4.14;97;16.60;0;3.18
2021-09-20 07:55:31;4.14;96;16.70;0;3.38
2021-09-20 08:00:32;4.14;96;16.80;0;3.08
2021-09-20 08:05:34;4.14;96;16.80;0;5.76
2021-09-20 08:10:31;4.14;96;16.90;0;3.38
2021-09-20 08:15:33;4.14;95;16.90;0;4.87
2021-09-20 08:20:34;4.14;95;16.90;0;4.17
2021-09-20 08:25:31;4.15;95;17.10;0;2.69
2021-09-20 08:30:33;4.15;94;17.10;0;2.99
2021-09-20 08:35:30;4.15;94;17.30;0;4.37
2021-09-20 08:40:32;4.15;93;17.30;0;3.78
2021-09-20 08:45:34;4.15;93;17.70;0;2.29
2021-09-20 08:50:31;4.15;92;17.60;0;5.06
2021-09-20 08:55:33;4.15;93;17.40;0;2.99
2021-09-20 09:00:35;4.15;93;17.40;0;4.57
2021-09-20 09:05:32;4.15;92;17.60;0;6.45
2021-09-20 09:10:34;4.15;93;17.30;0;3.28
2021-09-20 09:15:31;4.16;91;17.80;0;5.56
2021-09-20 09:20:33;4.16;92;17.40;0;3.97
2021-09-20 09:25:35;4.16;92;17.60;0;3.68
2021-09-20 09:30:32;4.16;91;18.10;0;4.27
2021-09-20 09:35:34;4.16;89;18.40;0;4.17
2021-09-20 09:40:31;4.16;89;18.40;0;2.59
2021-09-20 09:45:33;4.16;89;18.20;0;3.58
2021-09-20 09:50:35;4.16;89;18.00;0;3.78
2021-09-20 09:55:32;4.17;88;18.20;0;4.67
2021-09-20 10:00:34;4.17;86;18.60;0;6.45
2021-09-20 10:05:32;4.17;87;18.80;0;4.77
2021-09-20 10:10:34;4.17;85;19.00;0;5.16
2021-09-20 10:15:31;4.17;85;19.30;0;4.47
2021-09-20 10:20:33;4.17;83;19.90;0;5.16
2021-09-20 10:25:31;4.17;84;19.80;0;4.17
2021-09-20 10:30:33;4.17;83;19.80;0;4.96
2021-09-20 10:35:35;4.17;83;19.60;0;5.16
2021-09-20 10:40:33;4.17;83;19.70;0;5.16
2021-09-20 10:45:35;4.17;81;20.20;0;5.76
2021-09-20 10:50:32;4.17;81;20.50;0;5.16
2021-09-20 10:55:35;4.17;79;20.90;0;2.89
2021-09-20 11:00:32;4.17;78;21.60;0;2.19
2021-09-20 11:05:35;4.17;77;21.70;0;5.06
2021-09-20 11:10:33;4.17;79;20.60;0;3.18
2021-09-20 11:15:35;4.18;76;21.60;0;4.87
2021-09-20 11:20:33;4.18;77;22.20;0;2.59
2021-09-20 11:25:35;4.18;73;22.70;0;4.67
2021-09-20 11:30:33;4.18;71;23.00;0;4.96
2021-09-20 11:35:31;4.18;72;22.90;0;2.69
2021-09-20 11:40:34;4.18;73;21.80;0;4.67
2021-09-20 11:45:32;4.18;70;22.60;0;4.87
2021-09-20 11:50:35;4.18;67;23.10;0;3.58
2021-09-20 11:55:33;4.18;68;23.00;0;5.26
2021-09-20 12:00:36;4.18;67;23.20;0;6.85
2021-09-20 12:05:34;4.18;66;23.10;0;4.77
2021-09-20 12:10:32;4.18;65;23.40;0;4.77
2021-09-20 12:15:35;4.18;62;23.50;0;4.96
2021-09-20 12:20:33;4.18;62;24.00;0;3.38
2021-09-20 12:25:32;4.18;61;23.70;0;6.35
2021-09-20 12:30:34;4.18;64;23.10;0;4.17
2021-09-20 12:35:33;4.18;63;22.90;0;3.88
2021-09-20 12:40:36;4.18;62;23.40;0;5.66
2021-09-20 12:45:34;4.19;62;23.70;0;5.16
2021-09-20 12:50:32;4.19;62;23.70;0;6.15
2021-09-20 12:55:35;4.19;63;23.80;0;3.88
2021-09-20 13:00:34;4.19;62;23.60;0;2.99
2021-09-20 13:05:32;4.19;62;24.70;0;4.07
2021-09-20 13:10:35;4.19;62;23.60;0;3.58
2021-09-20 13:15:33;4.19;62;24.30;0;3.68
2021-09-20 13:20:32;4.19;64;22.90;0;4.77
2021-09-20 13:25:35;4.19;63;24.20;0;3.38
2021-09-20 13:30:33;4.19;63;24.30;0;5.36
2021-09-20 13:35:32;4.19;62;24.00;0;3.48
2021-09-20 13:40:35;4.19;63;24.10;0;4.47
2021-09-20 13:45:33;4.19;63;24.10;0;4.37
2021-09-20 13:50:32;4.19;63;23.80;0;4.87
2021-09-20 13:55:35;4.19;63;24.10;0;4.77
2021-09-20 14:00:33;4.19;63;24.60;0;5.26
2021-09-20 14:05:32;4.19;63;23.70;0;3.88
2021-09-20 14:10:35;4.19;63;23.80;0;4.37
2021-09-20 14:15:33;4.19;63;24.30;0;3.58
2021-09-20 14:20:36;4.19;63;24.00;0;4.37
2021-09-20 14:25:35;4.19;64;23.80;0;5.86
2021-09-20 14:30:33;4.19;64;24.00;0;3.48
2021-09-20 14:35:36;4.19;63;24.30;0;7.14
2021-09-20 14:40:35;4.19;64;24.70;0;5.76
2021-09-20 14:45:33;4.19;64;23.70;0;4.96
2021-09-20 14:50:36;4.19;62;24.10;0;5.56
2021-09-20 14:55:34;4.19;62;24.20;0;4.17
2021-09-20 15:00:33;4.19;63;23.70;0;3.68
2021-09-20 15:05:36;4.20;63;24.00;0;6.05
2021-09-20 15:10:34;4.19;64;23.70;0;6.85
2021-09-20 15:15:33;4.19;63;23.60;0;5.36
2021-09-20 15:20:36;4.20;63;24.00;0;3.48
2021-09-20 15:25:34;4.19;62;23.80;0;4.17
2021-09-20 15:30:32;4.20;64;23.40;0;4.37
2021-09-20 15:35:35;4.20;63;23.90;0;5.36
2021-09-20 15:40:33;4.19;63;23.40;0;5.16
2021-09-20 15:45:32;4.20;62;23.90;0;5.76
2021-09-20 15:50:35;4.19;62;23.80;0;6.05
2021-09-20 15:55:33;4.19;63;23.70;0;4.57
2021-09-20 16:00:31;4.19;63;23.70;0;5.95
2021-09-20 16:05:34;4.20;62;23.90;0;5.26
2021-09-20 16:10:33;4.20;62;23.70;0;4.27
2021-09-20 16:15:35;4.20;62;23.90;0;4.87
2021-09-20 16:20:34;4.20;61;23.60;0;4.57
2021-09-20 16:25:32;4.19;63;23.10;0;4.17
2021-09-20 16:30:35;4.20;63;23.40;0;4.57
2021-09-20 16:35:33;4.20;62;23.50;0;6.15
2021-09-20 16:40:31;4.20;62;23.20;0;5.76
2021-09-20 16:45:34;4.20;63;23.20;0;5.26
2021-09-20 16:50:32;4.20;64;23.00;0;5.76
2021-09-20 16:55:35;4.20;66;22.20;0;5.26
2021-09-20 17:00:33;4.20;64;22.60;0;6.65
2021-09-20 17:05:31;4.20;65;22.70;0;4.77
2021-09-20 17:10:34;4.20;65;22.50;0;5.46
2021-09-20 17:15:32;4.20;65;22.40;0;5.36
2021-09-20 17:20:35;4.20;65;22.50;0;5.66
2021-09-20 17:25:33;4.20;66;22.40;0;3.18
2021-09-20 17:30:35;4.20;66;22.30;0;4.57
2021-09-20 17:35:33;4.19;66;22.10;0;3.18
2021-09-20 17:40:31;4.20;65;21.90;0;4.17
2021-09-20 17:45:34;4.19;64;21.90;0;3.78
2021-09-20 17:50:32;4.19;65;21.70;0;5.36
2021-09-20 17:55:34;4.20;66;21.70;0;2.89
2021-09-20 18:00:32;4.19;67;21.70;0;1.30
2021-09-20 18:05:35;4.19;67;21.40;0;1.40
2021-09-20 18:10:32;4.19;68;21.20;0;2.69
2021-09-20 18:15:35;4.19;68;20.90;0;2.39
2021-09-20 18:20:33;4.19;69;20.70;0;2.29
2021-09-20 18:25:35;4.19;69;20.60;0;0.00
2021-09-20 18:30:33;4.19;69;20.40;0;3.58
2021-09-20 18:35:35;4.19;70;20.20;0;2.19
2021-09-20 18:40:33;4.18;70;20.20;0;1.40
2021-09-20 18:45:35;4.18;71;20.00;0;1.90
2021-09-20 18:50:32;4.18;71;19.90;0;0.00
2021-09-20 18:55:35;4.18;72;19.80;0;0.00
2021-09-20 19:00:32;4.18;72;19.60;0;1.50
2021-09-20 19:05:34;4.18;71;19.90;0;1.90
2021-09-20 19:10:32;4.18;71;19.90;0;2.59
2021-09-20 19:15:34;4.18;71;19.80;0;2.00
2021-09-20 19:20:31;4.18;72;19.70;0;2.19
2021-09-20 19:25:33;4.18;72;19.60;0;2.19
2021-09-20 19:30:31;4.18;73;19.20;0;2.99
2021-09-20 19:35:33;4.17;73;19.20;0;1.60
2021-09-20 19:40:35;4.18;72;19.20;0;2.59
2021-09-20 19:45:32;4.17;73;19.00;0;2.09
2021-09-20 19:50:34;4.17;73;18.90;0;2.09
2021-09-20 19:55:31;4.17;74;18.70;0;1.80
2021-09-20 20:00:33;4.17;75;18.40;0;2.09
2021-09-20 20:05:31;4.17;75;18.30;0;1.80
2021-09-20 20:10:33;4.17;76;18.00;0;2.29
2021-09-20 20:15:34;4.17;77;17.70;0;1.60
2021-09-20 20:20:32;4.17;78;17.60;0;1.80
2021-09-20 20:25:33;4.17;79;17.30;0;1.60
2021-09-20 20:30:31;4.17;79;17.20;0;1.40
2021-09-20 20:35:32;4.17;80;16.90;0;1.30
2021-09-20 20:40:34;4.17;81;16.80;0;0.00
2021-09-20 20:45:31;4.17;81;16.50;0;1.10
2021-09-20 20:50:33;4.17;81;16.30;0;1.10
2021-09-20 20:55:35;4.17;82;16.10;0;1.20
2021-09-20 21:00:32;4.16;82;16.20;0;1.20
2021-09-20 21:05:33;4.16;82;16.20;0;1.50
2021-09-20 21:10:30;4.16;82;16.20;0;1.50
2021-09-20 21:15:32;4.16;83;16.00;0;0.00
2021-09-20 21:20:34;4.16;83;15.80;0;0.00
2021-09-20 21:25:30;4.16;83;15.80;0;0.00
2021-09-20 21:30:32;4.16;83;15.70;0;0.00
2021-09-20 21:35:34;4.16;84;15.60;0;0.00
2021-09-20 21:40:30;4.16;84;15.50;0;0.00
2021-09-20 21:45:32;4.16;84;15.30;0;1.10
2021-09-20 21:50:33;4.16;86;14.90;0;1.20
2021-09-20 21:55:30;4.16;87;14.70;0;0.00
2021-09-20 22:00:32;4.16;89;14.30;0;0.00
2021-09-20 22:05:33;4.16;89;14.00;0;0.00
2021-09-20 22:10:30;4.16;90;13.80;0;0.00
2021-09-20 22:15:31;4.15;90;13.90;0;0.00
2021-09-20 22:20:33;4.15;89;14.00;0;1.30
2021-09-20 22:25:34;4.15;89;13.90;0;1.20
2021-09-20 22:30:31;4.15;89;14.00;0;1.50
2021-09-20 22:35:32;4.15;88;14.00;0;1.30
2021-09-20 22:40:34;4.15;88;14.00;0;1.50
2021-09-20 22:45:30;4.15;88;14.00;0;1.50
2021-09-20 22:50:32;4.15;88;13.90;0;1.70
2021-09-20 22:55:33;4.15;88;13.90;0;1.20
2021-09-20 23:00:34;4.15;89;13.80;0;1.80
2021-09-20 23:05:31;4.15;89;13.70;0;1.50
2021-09-20 23:10:32;4.15;89;13.60;0;1.10
2021-09-20 23:15:34;4.15;89;13.50;0;1.50
2021-09-20 23:20:30;4.15;89;13.60;0;1.30
2021-09-20 23:25:31;4.15;89;13.50;0;1.20
2021-09-20 23:30:33;4.15;89;13.50;0;1.70
2021-09-20 23:35:34;4.15;89;13.50;0;2.00
2021-09-20 23:40:31;4.15;88;13.90;0;1.70
2021-09-20 23:45:32;4.14;87;14.00;0;2.29
2021-09-20 23:50:33;4.14;87;14.00;0;1.90
2021-09-20 23:55:30;4.14;87;13.90;0;2.00
