2021-07-14 00:03:45;1;117;117;117;117;117;117;117;117;117;117;
2021-07-14 00:03:45;2;124;125;125;124;124;125;124;125;124;124;
2021-07-14 00:03:45;3;30;31;31;31;31;31;30;30;30;31;
2021-07-14 00:03:45;4;119;119;119;119;119;119;119;119;119;119;
2021-07-14 00:03:45;5;116;116;116;116;116;116;116;116;116;116;
2021-07-14 00:03:45;ht;99;12.30
2021-07-14 00:03:45;v;4.04
2021-07-14 00:33:44;1;118;118;118;118;118;118;118;118;118;119;
2021-07-14 00:33:44;2;124;124;124;124;124;124;124;123;123;124;
2021-07-14 00:33:44;3;30;30;30;30;30;30;30;30;30;30;
2021-07-14 00:33:44;4;120;120;120;120;120;120;120;120;120;120;
2021-07-14 00:33:44;5;117;117;118;117;118;117;117;117;117;117;
2021-07-14 00:33:44;ht;99;11.70
2021-07-14 00:33:44;v;4.04
2021-07-14 01:03:42;1;121;121;121;121;121;121;121;121;121;121;
2021-07-14 01:03:42;2;117;117;117;116;117;117;117;116;116;116;
2021-07-14 01:03:42;3;34;34;34;34;34;34;34;34;34;34;
2021-07-14 01:03:42;4;118;118;118;118;118;118;118;118;118;118;
2021-07-14 01:03:42;5;113;113;113;113;114;114;113;114;114;114;
2021-07-14 01:03:42;ht;99;11.40
2021-07-14 01:03:42;v;4.04
2021-07-14 01:33:44;1;121;121;121;121;121;121;121;121;121;121;
2021-07-14 01:33:44;2;127;127;127;127;127;127;127;127;127;127;
2021-07-14 01:33:44;3;36;36;36;36;36;36;36;36;36;36;
2021-07-14 01:33:44;4;121;121;121;121;121;120;120;120;120;120;
2021-07-14 01:33:44;5;117;116;117;117;117;116;116;116;116;116;
2021-07-14 01:33:44;ht;99;11.40
2021-07-14 01:33:44;v;4.04
2021-07-14 02:03:42;1;123;123;123;123;122;122;122;122;123;123;
2021-07-14 02:03:42;2;115;115;115;115;115;115;115;115;115;115;
2021-07-14 02:03:42;3;38;38;38;38;38;38;38;38;38;38;
2021-07-14 02:03:42;4;120;120;120;120;120;120;120;120;120;120;
2021-07-14 02:03:42;5;118;118;118;118;118;118;118;118;118;118;
2021-07-14 02:03:42;ht;99;11.10
2021-07-14 02:03:42;v;4.04
2021-07-14 02:33:44;1;117;117;117;117;117;117;117;117;117;117;
2021-07-14 02:33:44;2;127;127;127;127;127;127;127;126;127;127;
2021-07-14 02:33:44;3;39;39;39;39;39;39;39;39;39;39;
2021-07-14 02:33:44;4;122;122;122;122;122;122;122;122;122;122;
2021-07-14 02:33:44;5;117;116;117;117;117;117;117;117;117;117;
2021-07-14 02:33:44;ht;99;11.20
2021-07-14 02:33:44;v;4.04
2021-07-14 03:03:42;1;116;116;116;116;116;116;116;116;116;116;
2021-07-14 03:03:42;2;129;129;129;129;129;129;129;129;130;130;
2021-07-14 03:03:42;3;38;38;38;38;38;38;38;38;38;38;
2021-07-14 03:03:42;4;123;122;122;122;122;122;122;122;122;122;
2021-07-14 03:03:42;5;116;116;116;116;116;116;116;117;116;116;
2021-07-14 03:03:42;ht;99;11.20
2021-07-14 03:03:42;v;4.04
2021-07-14 03:33:44;1;117;117;117;117;117;117;117;117;117;117;
2021-07-14 03:33:44;2;125;125;125;124;124;124;124;124;124;124;
2021-07-14 03:33:44;3;38;38;38;38;38;38;38;38;38;39;
2021-07-14 03:33:44;4;121;121;121;121;121;121;121;121;121;121;
2021-07-14 03:33:44;5;115;115;115;115;115;115;115;115;115;115;
2021-07-14 03:33:44;ht;99;11.20
2021-07-14 03:33:44;v;4.04
2021-07-14 04:03:42;1;122;121;121;122;121;121;122;121;121;121;
2021-07-14 04:03:42;2;124;124;124;124;124;123;123;123;123;123;
2021-07-14 04:03:42;3;37;37;37;37;37;37;37;37;37;37;
2021-07-14 04:03:42;4;118;118;118;118;118;118;118;118;118;118;
2021-07-14 04:03:42;5;115;115;115;115;115;115;115;115;114;115;
2021-07-14 04:03:42;ht;99;11.00
2021-07-14 04:03:42;v;4.04
2021-07-14 04:33:44;1;123;122;122;122;122;122;123;122;122;123;
2021-07-14 04:33:44;2;120;121;121;121;121;121;121;121;121;121;
2021-07-14 04:33:44;3;36;36;36;36;36;36;36;36;36;36;
2021-07-14 04:33:44;4;128;128;128;128;128;128;128;128;128;128;
2021-07-14 04:33:44;5;114;114;115;115;115;115;115;115;115;114;
2021-07-14 04:33:44;ht;99;11.10
2021-07-14 04:33:44;v;4.04
2021-07-14 05:03:41;1;120;120;120;120;120;120;120;120;120;120;
2021-07-14 05:03:41;2;128;128;128;128;128;128;128;128;128;128;
2021-07-14 05:03:41;3;36;36;36;36;36;36;36;36;36;35;
2021-07-14 05:03:41;4;125;125;125;125;124;125;125;125;125;125;
2021-07-14 05:03:41;5;118;117;117;117;117;117;117;117;117;117;
2021-07-14 05:03:41;ht;99;11.30
2021-07-14 05:03:41;v;4.03
2021-07-14 05:33:43;1;122;122;122;122;122;122;122;122;122;122;
2021-07-14 05:33:43;2;114;114;114;114;114;114;114;114;114;114;
2021-07-14 05:33:43;3;31;31;31;31;31;31;31;31;31;31;
2021-07-14 05:33:43;4;127;127;127;127;127;127;127;127;127;127;
2021-07-14 05:33:43;5;126;126;126;126;126;126;126;126;126;126;
2021-07-14 05:33:43;ht;99;11.20
2021-07-14 05:33:43;v;4.04
2021-07-14 06:03:45;1;118;118;118;118;118;118;118;118;118;118;
2021-07-14 06:03:45;2;112;112;112;112;112;112;112;112;112;112;
2021-07-14 06:03:45;3;26;26;26;26;26;26;26;26;26;26;
2021-07-14 06:03:45;4;126;126;126;126;126;126;126;126;126;126;
2021-07-14 06:03:45;5;122;122;122;122;122;122;122;122;122;122;
2021-07-14 06:03:45;ht;99;11.20
2021-07-14 06:03:45;v;4.04
2021-07-14 06:33:43;1;121;121;121;121;121;121;121;121;121;121;
2021-07-14 06:33:43;2;135;135;135;135;135;135;135;135;135;135;
2021-07-14 06:33:43;3;24;24;24;24;24;24;24;23;24;24;
2021-07-14 06:33:43;4;124;125;125;125;125;125;125;125;125;125;
2021-07-14 06:33:43;5;122;123;122;123;123;122;123;122;123;123;
2021-07-14 06:33:43;ht;99;11.40
2021-07-14 06:33:43;v;4.04
2021-07-14 07:03:45;1;119;119;119;119;119;119;119;119;119;120;
2021-07-14 07:03:45;2;122;122;122;122;123;123;123;123;123;123;
2021-07-14 07:03:45;3;23;22;23;23;22;22;23;23;23;22;
2021-07-14 07:03:45;4;124;124;124;124;124;124;124;124;124;124;
2021-07-14 07:03:45;5;117;116;116;116;116;116;117;116;117;116;
2021-07-14 07:03:45;ht;99;11.50
2021-07-14 07:03:45;v;4.03
2021-07-14 07:33:42;1;124;124;124;124;124;124;124;124;124;124;
2021-07-14 07:33:42;2;127;127;127;127;127;127;127;127;127;127;
2021-07-14 07:33:42;3;22;22;22;22;22;22;22;22;22;22;
2021-07-14 07:33:42;4;127;127;127;127;127;127;127;127;127;127;
2021-07-14 07:33:42;5;122;122;122;122;122;122;122;122;122;122;
2021-07-14 07:33:42;ht;99;11.20
2021-07-14 07:33:42;v;4.04
2021-07-14 08:03:44;1;123;123;123;123;123;123;123;123;123;123;
2021-07-14 08:03:44;2;134;134;134;134;133;133;132;132;132;131;
2021-07-14 08:03:44;3;37;37;37;37;37;37;37;37;37;37;
2021-07-14 08:03:44;4;124;123;124;124;124;124;124;124;124;124;
2021-07-14 08:03:44;5;122;122;122;122;122;122;122;122;122;122;
2021-07-14 08:03:44;ht;99;11.20
2021-07-14 08:03:44;v;4.04
2021-07-14 08:33:42;1;118;118;119;118;118;118;118;118;118;118;
2021-07-14 08:33:42;2;115;115;115;115;114;115;115;115;115;115;
2021-07-14 08:33:42;3;42;42;42;42;42;42;42;42;42;42;
2021-07-14 08:33:42;4;126;126;127;126;126;126;126;127;126;127;
2021-07-14 08:33:42;5;116;116;115;116;116;116;116;116;116;116;
2021-07-14 08:33:42;ht;99;11.20
2021-07-14 08:33:42;v;4.04
2021-07-14 09:03:44;1;132;132;133;133;133;133;133;133;133;133;
2021-07-14 09:03:44;2;122;122;122;121;121;121;121;121;121;121;
2021-07-14 09:03:44;3;45;45;45;45;45;45;45;45;45;45;
2021-07-14 09:03:44;4;127;127;126;127;127;127;127;127;127;127;
2021-07-14 09:03:44;5;125;125;125;125;125;125;125;125;125;125;
2021-07-14 09:03:44;ht;99;11.10
2021-07-14 09:03:44;v;4.03
2021-07-14 09:33:41;1;139;139;138;138;138;139;138;138;138;138;
2021-07-14 09:33:41;2;122;122;122;122;122;122;121;122;122;122;
2021-07-14 09:33:41;3;49;49;49;49;49;49;49;49;49;49;
2021-07-14 09:33:41;4;117;117;117;117;117;117;117;117;117;117;
2021-07-14 09:33:41;5;125;125;125;125;125;125;125;125;125;125;
2021-07-14 09:33:41;ht;99;11.10
2021-07-14 09:33:41;v;4.04
2021-07-14 10:03:43;1;144;144;144;144;144;144;144;144;144;144;
2021-07-14 10:03:43;2;117;117;117;117;117;117;117;117;117;117;
2021-07-14 10:03:43;3;53;53;53;53;53;53;53;53;53;53;
2021-07-14 10:03:43;4;119;119;119;119;119;119;119;119;119;119;
2021-07-14 10:03:43;5;126;125;126;126;126;125;126;126;126;126;
2021-07-14 10:03:43;ht;99;11.10
2021-07-14 10:03:43;v;4.04
2021-07-14 10:33:45;1;135;134;135;135;134;135;135;135;135;135;
2021-07-14 10:33:45;2;127;127;127;127;127;127;127;127;127;127;
2021-07-14 10:33:45;3;60;60;60;60;60;60;60;60;60;60;
2021-07-14 10:33:45;4;1;1;1;2;1;1;1;1;1;1;
2021-07-14 10:33:45;5;114;114;114;114;114;114;114;114;115;114;
2021-07-14 10:33:45;ht;99;11.10
2021-07-14 10:33:45;v;4.03
2021-07-14 11:03:43;1;144;144;144;144;144;144;144;144;145;145;
2021-07-14 11:03:43;2;113;113;113;113;113;113;113;113;113;113;
2021-07-14 11:03:43;3;59;59;59;59;59;59;59;59;59;59;
2021-07-14 11:03:43;4;118;118;118;118;118;118;118;118;118;118;
2021-07-14 11:03:43;5;111;111;111;111;111;111;111;110;111;111;
2021-07-14 11:03:43;ht;99;11.40
2021-07-14 11:03:43;v;4.04
2021-07-14 11:33:45;1;142;141;142;142;142;141;142;142;142;141;
2021-07-14 11:33:45;2;113;113;112;113;113;113;113;113;113;113;
2021-07-14 11:33:45;3;55;55;55;56;55;55;55;55;55;55;
2021-07-14 11:33:45;4;127;127;127;127;127;127;127;127;127;127;
2021-07-14 11:33:45;5;114;114;113;113;114;114;113;113;113;113;
2021-07-14 11:33:45;ht;99;11.50
2021-07-14 11:33:45;v;4.04
2021-07-14 12:03:43;1;139;139;139;139;140;140;140;140;140;140;
2021-07-14 12:03:43;2;121;121;121;121;120;120;120;121;121;120;
2021-07-14 12:03:43;3;51;51;51;51;51;51;51;51;51;51;
2021-07-14 12:03:43;4;119;119;118;118;118;118;119;118;119;119;
2021-07-14 12:03:43;5;111;111;111;111;111;111;111;111;111;111;
2021-07-14 12:03:43;ht;99;11.60
2021-07-14 12:03:43;v;4.04
2021-07-14 12:33:45;1;135;135;135;135;135;135;135;135;135;134;
2021-07-14 12:33:45;2;126;125;125;125;125;125;125;125;126;126;
2021-07-14 12:33:45;3;64;64;64;64;64;64;64;64;64;64;
2021-07-14 12:33:45;4;122;122;121;121;122;122;121;122;121;121;
2021-07-14 12:33:45;5;110;110;110;110;110;110;110;110;110;110;
2021-07-14 12:33:45;ht;99;11.90
2021-07-14 12:33:45;v;4.04
2021-07-14 13:03:43;1;136;136;136;136;136;136;136;136;136;136;
2021-07-14 13:03:43;2;127;127;127;127;127;127;127;127;127;127;
2021-07-14 13:03:43;3;65;65;65;65;65;65;65;65;65;65;
2021-07-14 13:03:43;4;115;115;115;115;115;115;115;115;115;115;
2021-07-14 13:03:43;5;109;109;109;108;108;108;108;108;108;108;
2021-07-14 13:03:43;ht;99;12.40
2021-07-14 13:03:43;v;4.04
2021-07-14 13:33:42;1;138;137;138;138;137;138;137;137;138;137;
2021-07-14 13:33:42;2;125;125;124;124;124;123;123;122;122;122;
2021-07-14 13:33:42;3;54;54;54;54;54;54;54;54;54;54;
2021-07-14 13:33:42;4;127;127;127;127;127;127;127;127;127;127;
2021-07-14 13:33:42;5;106;106;106;106;106;106;105;106;106;106;
2021-07-14 13:33:42;ht;99;12.60
2021-07-14 13:33:42;v;4.04
2021-07-14 14:03:45;1;142;142;142;142;142;142;142;142;142;142;
2021-07-14 14:03:45;2;129;129;129;129;129;129;129;129;128;128;
2021-07-14 14:03:45;3;61;61;61;61;61;62;62;62;62;61;
2021-07-14 14:03:45;4;123;123;123;123;123;123;123;123;123;123;
2021-07-14 14:03:45;5;109;108;108;108;108;108;108;108;108;108;
2021-07-14 14:03:45;ht;99;12.40
2021-07-14 14:03:45;v;4.04
2021-07-14 14:33:44;1;148;148;148;148;148;148;148;148;148;148;
2021-07-14 14:33:44;2;113;113;113;113;113;113;113;113;113;113;
2021-07-14 14:33:44;3;65;65;65;65;65;65;65;65;65;65;
2021-07-14 14:33:44;4;120;120;120;120;120;120;120;120;120;120;
2021-07-14 14:33:44;5;107;107;106;106;107;107;107;107;106;107;
2021-07-14 14:33:44;ht;99;12.30
2021-07-14 14:33:44;v;4.04
2021-07-14 15:03:42;1;149;149;149;149;149;149;149;149;149;149;
2021-07-14 15:03:42;2;112;112;112;112;112;112;112;112;112;112;
2021-07-14 15:03:42;3;57;57;58;57;58;57;58;58;58;58;
2021-07-14 15:03:42;4;122;122;122;122;122;122;122;122;122;122;
2021-07-14 15:03:42;5;110;110;110;110;110;110;110;110;110;110;
2021-07-14 15:03:42;ht;99;12.60
2021-07-14 15:03:42;v;4.04
2021-07-14 15:33:45;1;146;146;146;146;146;146;146;146;146;146;
2021-07-14 15:33:45;2;114;114;114;113;114;114;113;113;114;113;
2021-07-14 15:33:45;3;63;63;63;63;63;63;63;63;64;63;
2021-07-14 15:33:45;4;117;118;117;117;117;118;118;118;118;117;
2021-07-14 15:33:45;5;111;111;111;111;111;111;111;111;111;111;
2021-07-14 15:33:45;ht;99;11.30
2021-07-14 15:33:45;v;4.04
2021-07-14 16:03:43;1;152;152;152;152;152;152;152;152;152;152;
2021-07-14 16:03:43;2;113;113;113;113;113;113;113;113;113;113;
2021-07-14 16:03:43;3;66;66;66;66;66;66;66;66;66;66;
2021-07-14 16:03:43;4;123;123;122;123;123;123;123;123;123;123;
2021-07-14 16:03:43;5;106;107;106;106;107;107;106;106;106;106;
2021-07-14 16:03:43;ht;99;10.80
2021-07-14 16:03:43;v;4.03
2021-07-14 16:33:45;1;148;148;148;148;149;149;149;149;149;149;
2021-07-14 16:33:45;2;114;114;114;114;114;114;114;114;114;114;
2021-07-14 16:33:45;3;59;59;59;59;59;59;59;59;59;59;
2021-07-14 16:33:45;4;126;126;126;126;126;126;126;126;126;126;
2021-07-14 16:33:45;5;106;106;106;107;106;106;107;106;106;106;
2021-07-14 16:33:45;ht;99;10.70
2021-07-14 16:33:45;v;4.04
2021-07-14 17:03:43;1;149;149;149;149;149;149;149;149;149;149;
2021-07-14 17:03:43;2;113;113;113;114;114;113;113;113;113;113;
2021-07-14 17:03:43;3;51;51;51;51;51;51;51;51;51;51;
2021-07-14 17:03:43;4;125;126;126;126;134;128;127;126;126;126;
2021-07-14 17:03:43;5;106;106;106;105;106;106;106;106;106;106;
2021-07-14 17:03:43;ht;99;10.80
2021-07-14 17:03:43;v;4.04
2021-07-14 17:33:45;1;148;148;148;148;148;148;148;148;148;148;
2021-07-14 17:33:45;2;114;114;114;114;114;114;114;114;114;114;
2021-07-14 17:33:45;3;44;44;44;44;43;44;43;44;44;44;
2021-07-14 17:33:45;4;117;117;116;116;116;117;117;116;116;116;
2021-07-14 17:33:45;5;113;113;113;113;113;113;113;113;113;113;
2021-07-14 17:33:45;ht;99;10.90
2021-07-14 17:33:45;v;4.04
2021-07-14 18:03:42;1;156;156;156;156;156;156;156;156;156;156;
2021-07-14 18:03:42;2;113;113;113;113;113;113;113;113;113;113;
2021-07-14 18:03:42;3;33;33;33;33;33;32;33;33;33;33;
2021-07-14 18:03:42;4;122;123;122;122;123;122;123;122;123;122;
2021-07-14 18:03:42;5;115;115;115;115;116;115;115;115;115;115;
2021-07-14 18:03:42;ht;99;10.80
2021-07-14 18:03:42;v;4.03
2021-07-14 18:33:44;1;144;144;144;144;144;144;144;144;144;144;
2021-07-14 18:33:44;2;114;113;114;113;113;113;113;113;114;114;
2021-07-14 18:33:44;3;24;24;24;24;24;24;24;24;24;24;
2021-07-14 18:33:44;4;123;123;123;123;123;123;123;123;123;123;
2021-07-14 18:33:44;5;128;127;127;128;128;127;127;128;128;128;
2021-07-14 18:33:44;ht;99;11.00
2021-07-14 18:33:44;v;4.04
2021-07-14 19:03:41;1;154;154;154;154;154;154;154;154;154;154;
2021-07-14 19:03:41;2;113;113;113;113;113;113;113;113;113;113;
2021-07-14 19:03:41;3;17;17;18;18;17;17;17;17;18;17;
2021-07-14 19:03:41;4;126;126;127;127;126;126;126;126;127;127;
2021-07-14 19:03:41;5;128;128;128;128;128;128;128;128;128;128;
2021-07-14 19:03:41;ht;99;11.00
2021-07-14 19:03:41;v;4.04
2021-07-14 19:33:43;1;150;150;150;150;149;150;150;149;150;150;
2021-07-14 19:33:43;2;113;113;113;113;113;113;113;113;112;113;
2021-07-14 19:33:43;3;16;16;16;16;15;16;16;16;15;16;
2021-07-14 19:33:43;4;125;125;125;124;124;125;125;124;124;125;
2021-07-14 19:33:43;5;125;125;125;125;125;125;125;125;125;125;
2021-07-14 19:33:43;ht;99;10.80
2021-07-14 19:33:43;v;4.03
2021-07-14 20:03:44;1;146;146;146;146;146;146;146;146;146;146;
2021-07-14 20:03:44;2;116;116;116;116;116;116;116;116;116;116;
2021-07-14 20:03:44;3;15;15;15;15;15;15;15;15;15;15;
2021-07-14 20:03:44;4;125;125;125;125;125;125;124;125;125;125;
2021-07-14 20:03:44;5;116;116;116;116;116;116;116;116;116;116;
2021-07-14 20:03:44;ht;99;10.60
2021-07-14 20:03:44;v;4.03
2021-07-14 20:33:41;1;147;147;147;147;147;148;148;148;148;148;
2021-07-14 20:33:41;2;114;114;114;114;114;114;114;114;114;114;
2021-07-14 20:33:41;3;15;15;14;15;15;14;15;15;15;15;
2021-07-14 20:33:41;4;123;123;123;123;123;123;123;123;123;123;
2021-07-14 20:33:41;5;126;126;126;126;126;126;126;126;126;126;
2021-07-14 20:33:41;ht;99;10.50
2021-07-14 20:33:41;v;4.03
2021-07-14 21:03:43;1;151;151;151;151;151;151;151;151;151;151;
2021-07-14 21:03:43;2;114;114;114;114;114;113;114;113;114;114;
2021-07-14 21:03:43;3;15;15;15;15;15;15;15;15;15;15;
2021-07-14 21:03:43;4;125;125;125;125;126;126;126;125;126;125;
2021-07-14 21:03:43;5;125;125;125;125;125;125;125;125;125;125;
2021-07-14 21:03:43;ht;99;10.50
2021-07-14 21:03:43;v;4.03
2021-07-14 21:33:44;1;157;157;157;157;157;157;157;157;157;157;
2021-07-14 21:33:44;2;112;113;113;112;112;112;112;113;113;112;
2021-07-14 21:33:44;3;15;15;15;15;15;15;15;15;15;15;
2021-07-14 21:33:44;4;124;124;124;124;124;124;124;124;124;124;
2021-07-14 21:33:44;5;122;121;121;121;121;121;122;121;121;122;
2021-07-14 21:33:44;ht;99;10.50
2021-07-14 21:33:44;v;4.03
2021-07-14 22:03:41;1;148;148;148;148;148;148;148;148;148;148;
2021-07-14 22:03:41;2;112;113;113;113;113;113;113;113;113;113;
2021-07-14 22:03:41;3;15;15;15;15;15;15;15;15;15;15;
2021-07-14 22:03:41;4;125;125;125;125;125;125;125;125;125;125;
2021-07-14 22:03:41;5;120;120;120;120;120;120;120;120;120;120;
2021-07-14 22:03:41;ht;99;10.40
2021-07-14 22:03:41;v;4.03
2021-07-14 22:33:42;1;150;150;150;150;150;150;150;150;150;150;
2021-07-14 22:33:42;2;112;112;112;112;112;112;112;112;112;112;
2021-07-14 22:33:42;3;15;15;15;15;15;15;15;15;15;15;
2021-07-14 22:33:42;4;124;124;124;124;124;124;124;124;124;124;
2021-07-14 22:33:42;5;123;123;124;124;123;124;124;124;124;123;
2021-07-14 22:33:42;ht;99;10.30
2021-07-14 22:33:42;v;4.03
2021-07-14 23:03:43;1;152;152;152;152;152;153;153;153;153;153;
2021-07-14 23:03:43;2;113;114;114;113;114;113;113;113;113;113;
2021-07-14 23:03:43;3;15;15;15;15;15;15;15;15;15;15;
2021-07-14 23:03:43;4;122;122;122;122;123;122;122;122;122;122;
2021-07-14 23:03:43;5;126;125;125;125;126;126;125;125;125;125;
2021-07-14 23:03:43;ht;99;10.40
2021-07-14 23:03:43;v;4.03
2021-07-14 23:33:40;1;149;149;149;149;149;149;149;149;149;149;
2021-07-14 23:33:40;2;113;113;113;113;113;113;113;113;113;113;
2021-07-14 23:33:40;3;15;14;14;15;14;15;14;15;14;14;
2021-07-14 23:33:40;4;125;125;125;125;125;125;126;125;126;126;
2021-07-14 23:33:40;5;125;125;125;125;125;125;125;125;125;125;
2021-07-14 23:33:40;ht;99;10.50
2021-07-14 23:33:40;v;4.03
