2021-07-22 00:03:42;1;122;122;122;122;122;122;122;122;122;122;
2021-07-22 00:03:42;2;118;118;118;118;118;118;118;118;118;118;
2021-07-22 00:03:42;3;51;50;51;51;51;51;51;51;51;51;
2021-07-22 00:03:42;4;130;130;130;130;130;130;130;130;130;130;
2021-07-22 00:03:42;5;128;127;128;127;128;127;128;128;128;127;
2021-07-22 00:03:42;ht;99;6.90
2021-07-22 00:03:42;v;3.95
2021-07-22 00:33:41;1;127;127;126;127;127;126;127;126;127;127;
2021-07-22 00:33:41;2;118;118;117;117;118;117;117;117;118;118;
2021-07-22 00:33:41;3;51;51;51;51;51;51;51;51;51;51;
2021-07-22 00:33:41;4;127;127;127;127;127;127;127;127;127;127;
2021-07-22 00:33:41;5;127;127;127;127;127;127;127;127;127;127;
2021-07-22 00:33:41;ht;99;6.60
2021-07-22 00:33:41;v;3.95
2021-07-22 01:03:41;1;119;119;119;119;119;119;119;119;119;119;
2021-07-22 01:03:41;2;117;117;118;117;117;117;117;117;117;117;
2021-07-22 01:03:41;3;51;51;51;51;51;51;51;51;51;51;
2021-07-22 01:03:41;4;125;126;126;126;126;126;125;125;125;125;
2021-07-22 01:03:41;5;129;128;128;129;128;129;129;129;129;129;
2021-07-22 01:03:41;ht;99;6.40
2021-07-22 01:03:41;v;3.95
2021-07-22 01:33:40;1;121;121;121;121;121;121;121;121;121;121;
2021-07-22 01:33:40;2;117;117;117;117;118;118;117;118;118;118;
2021-07-22 01:33:40;3;51;51;51;51;51;51;51;51;51;51;
2021-07-22 01:33:40;4;126;126;126;126;126;126;126;126;126;126;
2021-07-22 01:33:40;5;118;118;118;118;118;118;118;118;118;118;
2021-07-22 01:33:40;ht;99;5.60
2021-07-22 01:33:40;v;3.94
2021-07-22 02:03:39;1;121;121;121;121;120;120;120;121;121;121;
2021-07-22 02:03:39;2;118;118;118;118;118;118;118;118;118;118;
2021-07-22 02:03:39;3;52;52;52;52;52;52;52;52;52;52;
2021-07-22 02:03:39;4;127;127;127;127;127;127;127;127;127;127;
2021-07-22 02:03:39;5;144;144;144;144;145;144;144;144;145;144;
2021-07-22 02:03:39;ht;99;5.50
2021-07-22 02:03:39;v;3.95
2021-07-22 02:33:43;1;120;120;120;120;120;120;120;120;120;120;
2021-07-22 02:33:43;2;118;118;118;118;118;118;118;118;118;118;
2021-07-22 02:33:43;3;52;53;53;53;52;53;53;52;53;52;
2021-07-22 02:33:43;4;122;122;122;122;122;122;122;122;122;122;
2021-07-22 02:33:43;5;152;152;152;152;152;152;152;152;152;151;
2021-07-22 02:33:43;ht;99;7.40
2021-07-22 02:33:43;v;3.95
2021-07-22 03:03:42;1;120;120;120;120;120;120;120;120;120;119;
2021-07-22 03:03:42;2;118;117;118;117;118;117;118;117;117;118;
2021-07-22 03:03:42;3;51;51;51;51;51;51;51;51;51;51;
2021-07-22 03:03:42;4;128;128;128;128;128;128;128;128;128;128;
2021-07-22 03:03:42;5;114;114;114;114;114;114;114;114;114;114;
2021-07-22 03:03:42;ht;99;6.70
2021-07-22 03:03:42;v;3.94
2021-07-22 03:33:42;1;121;120;121;121;120;120;120;120;120;120;
2021-07-22 03:33:42;2;117;117;117;117;117;117;117;118;118;118;
2021-07-22 03:33:42;3;51;51;51;51;51;51;51;51;51;51;
2021-07-22 03:33:42;4;128;128;128;128;128;128;128;128;128;128;
2021-07-22 03:33:42;5;115;115;115;115;115;115;115;115;115;115;
2021-07-22 03:33:42;ht;99;5.50
2021-07-22 03:33:42;v;3.94
2021-07-22 04:03:41;1;120;119;120;119;120;119;120;120;120;119;
2021-07-22 04:03:41;2;118;118;118;117;118;118;118;118;118;118;
2021-07-22 04:03:41;3;52;52;52;53;52;53;53;52;52;53;
2021-07-22 04:03:41;4;128;128;128;128;128;128;128;128;128;128;
2021-07-22 04:03:41;5;118;118;119;118;118;119;118;118;118;118;
2021-07-22 04:03:41;ht;99;6.10
2021-07-22 04:03:41;v;3.95
2021-07-22 04:33:40;1;120;120;120;120;120;120;120;120;119;120;
2021-07-22 04:33:40;2;117;117;117;117;117;117;117;117;117;117;
2021-07-22 04:33:40;3;51;51;51;51;51;52;51;51;51;51;
2021-07-22 04:33:40;4;125;125;125;125;125;125;125;125;125;125;
2021-07-22 04:33:40;5;117;117;116;116;116;117;117;117;117;117;
2021-07-22 04:33:40;ht;99;6.10
2021-07-22 04:33:40;v;3.94
2021-07-22 05:03:39;1;117;117;117;117;117;117;117;117;117;117;
2021-07-22 05:03:39;2;117;117;118;117;117;117;117;117;117;118;
2021-07-22 05:03:39;3;50;50;50;50;50;50;50;50;50;50;
2021-07-22 05:03:39;4;122;122;123;122;123;122;122;123;123;122;
2021-07-22 05:03:39;5;114;114;114;114;114;114;114;114;114;114;
2021-07-22 05:03:39;ht;99;5.90
2021-07-22 05:03:39;v;3.94
2021-07-22 05:33:43;1;117;117;117;117;117;117;117;117;117;117;
2021-07-22 05:33:43;2;118;118;118;118;118;118;118;118;118;117;
2021-07-22 05:33:43;3;51;51;51;52;51;51;52;51;51;51;
2021-07-22 05:33:43;4;124;124;124;124;124;124;124;124;124;124;
2021-07-22 05:33:43;5;116;116;116;117;117;116;116;117;116;116;
2021-07-22 05:33:43;ht;99;5.30
2021-07-22 05:33:43;v;3.94
2021-07-22 06:03:42;1;119;119;119;119;119;119;119;119;119;119;
2021-07-22 06:03:42;2;116;117;116;116;116;117;116;116;116;117;
2021-07-22 06:03:42;3;51;51;52;52;52;52;52;52;52;52;
2021-07-22 06:03:42;4;121;121;121;121;121;121;121;121;121;121;
2021-07-22 06:03:42;5;115;115;115;115;115;115;115;115;115;115;
2021-07-22 06:03:42;ht;99;4.80
2021-07-22 06:03:42;v;3.94
2021-07-22 06:33:40;1;120;120;120;120;120;120;120;120;120;120;
2021-07-22 06:33:40;2;116;116;116;116;116;116;116;116;116;116;
2021-07-22 06:33:40;3;52;52;53;52;53;53;53;53;52;53;
2021-07-22 06:33:40;4;121;122;122;121;121;121;121;121;121;121;
2021-07-22 06:33:40;5;113;113;113;113;113;113;113;113;113;113;
2021-07-22 06:33:40;ht;99;5.20
2021-07-22 06:33:40;v;3.94
2021-07-22 07:03:39;1;121;121;121;121;121;121;120;121;121;121;
2021-07-22 07:03:39;2;117;117;117;116;116;116;116;117;116;116;
2021-07-22 07:03:39;3;52;52;52;52;52;52;52;52;52;52;
2021-07-22 07:03:39;4;122;123;123;123;123;123;122;122;123;122;
2021-07-22 07:03:39;5;134;134;134;134;134;134;134;134;134;134;
2021-07-22 07:03:39;ht;99;5.00
2021-07-22 07:03:39;v;3.94
2021-07-22 07:33:42;1;121;120;120;120;120;120;120;120;120;120;
2021-07-22 07:33:42;2;117;117;117;117;117;117;117;117;117;117;
2021-07-22 07:33:42;3;52;52;52;52;52;52;52;52;52;52;
2021-07-22 07:33:42;4;124;124;124;124;124;124;124;124;124;124;
2021-07-22 07:33:42;5;135;135;135;135;135;135;135;135;135;135;
2021-07-22 07:33:42;ht;99;4.30
2021-07-22 07:33:42;v;3.94
2021-07-22 08:03:41;1;122;122;122;122;122;122;122;122;122;122;
2021-07-22 08:03:41;2;115;115;116;115;115;116;115;115;115;115;
2021-07-22 08:03:41;3;53;53;53;53;53;53;53;53;53;53;
2021-07-22 08:03:41;4;126;126;125;125;125;125;126;126;126;126;
2021-07-22 08:03:41;5;142;142;142;141;141;141;142;141;141;141;
2021-07-22 08:03:41;ht;99;4.60
2021-07-22 08:03:41;v;3.94
2021-07-22 08:33:39;1;117;117;117;117;117;117;117;117;117;117;
2021-07-22 08:33:39;2;116;116;116;116;116;116;116;116;116;116;
2021-07-22 08:33:39;3;52;52;52;52;52;52;52;52;52;52;
2021-07-22 08:33:39;4;121;121;121;121;121;121;121;120;121;121;
2021-07-22 08:33:39;5;114;114;114;114;113;114;114;114;114;114;
2021-07-22 08:33:39;ht;99;6.50
2021-07-22 08:33:39;v;3.94
2021-07-22 09:03:43;1;125;125;125;125;125;125;125;125;125;125;
2021-07-22 09:03:43;2;114;113;113;113;113;113;113;113;113;113;
2021-07-22 09:03:43;3;50;50;50;50;49;49;50;50;50;50;
2021-07-22 09:03:43;4;120;120;121;120;120;121;120;121;120;120;
2021-07-22 09:03:43;5;110;110;111;110;110;110;110;110;110;111;
2021-07-22 09:03:43;ht;99;8.80
2021-07-22 09:03:43;v;3.94
2021-07-22 09:33:44;1;124;124;124;124;124;124;124;124;124;124;
2021-07-22 09:33:44;2;114;113;114;113;114;113;113;113;113;113;
2021-07-22 09:33:44;3;48;48;49;48;48;48;48;48;48;48;
2021-07-22 09:33:44;4;121;121;121;121;121;121;121;121;121;121;
2021-07-22 09:33:44;5;112;113;113;112;112;113;113;113;113;112;
2021-07-22 09:33:44;ht;99;10.10
2021-07-22 09:33:44;v;3.94
2021-07-22 10:03:41;1;124;124;124;124;124;124;124;124;124;124;
2021-07-22 10:03:41;2;116;115;115;115;115;115;116;115;115;115;
2021-07-22 10:03:41;3;45;45;45;45;45;45;45;45;45;45;
2021-07-22 10:03:41;4;121;121;121;121;121;122;121;121;121;121;
2021-07-22 10:03:41;5;117;117;118;118;118;118;118;118;118;118;
2021-07-22 10:03:41;ht;99;13.30
2021-07-22 10:03:41;v;3.95
2021-07-22 10:33:46;1;118;118;118;118;118;118;118;118;118;118;
2021-07-22 10:33:46;2;116;116;116;116;116;116;116;116;116;116;
2021-07-22 10:33:46;3;45;45;45;45;45;45;45;45;45;45;
2021-07-22 10:33:46;4;118;118;119;118;118;118;119;119;119;118;
2021-07-22 10:33:46;5;114;114;115;114;114;114;114;114;114;114;
2021-07-22 10:33:46;ht;99;15.90
2021-07-22 10:33:46;v;3.94
2021-07-22 11:03:47;1;125;125;125;125;125;125;125;125;125;125;
2021-07-22 11:03:47;2;116;116;116;116;116;116;116;116;116;116;
2021-07-22 11:03:47;3;43;43;43;43;43;43;43;43;43;43;
2021-07-22 11:03:47;4;120;120;120;120;120;120;120;120;120;120;
2021-07-22 11:03:47;5;111;112;112;112;112;112;112;112;111;112;
2021-07-22 11:03:47;ht;99;17.00
2021-07-22 11:03:47;v;3.95
2021-07-22 11:33:50;1;121;121;121;121;121;121;121;121;121;121;
2021-07-22 11:33:50;2;117;116;117;116;117;117;117;116;117;116;
2021-07-22 11:33:50;3;40;40;40;40;40;40;40;40;40;40;
2021-07-22 11:33:50;4;121;121;121;121;121;121;121;121;121;121;
2021-07-22 11:33:50;5;116;116;116;116;116;116;116;116;116;116;
2021-07-22 11:33:50;ht;99;18.90
2021-07-22 11:33:50;v;3.95
2021-07-22 12:03:49;1;115;115;114;114;114;114;114;114;114;114;
2021-07-22 12:03:49;2;115;115;115;115;115;115;115;115;115;115;
2021-07-22 12:03:49;3;41;41;41;41;41;41;41;41;41;41;
2021-07-22 12:03:49;4;120;120;120;120;120;120;120;120;120;120;
2021-07-22 12:03:49;5;114;114;114;114;114;114;114;114;114;114;
2021-07-22 12:03:49;ht;99;20.50
2021-07-22 12:03:49;v;3.95
2021-07-22 12:33:50;1;126;126;126;126;126;126;126;126;126;126;
2021-07-22 12:33:50;2;117;117;117;117;117;117;117;117;117;117;
2021-07-22 12:33:50;3;39;39;39;39;39;39;39;39;39;39;
2021-07-22 12:33:50;4;119;119;119;119;118;119;119;119;119;118;
2021-07-22 12:33:50;5;116;116;116;116;116;116;116;116;116;116;
2021-07-22 12:33:50;ht;98;22.10
2021-07-22 12:33:50;v;3.94
2021-07-22 13:03:53;1;113;113;113;113;113;113;113;113;113;113;
2021-07-22 13:03:53;2;118;118;118;118;119;119;119;119;119;119;
2021-07-22 13:03:53;3;38;38;38;38;38;38;38;38;38;38;
2021-07-22 13:03:53;4;117;117;117;118;117;117;117;117;117;117;
2021-07-22 13:03:53;5;113;113;113;113;113;113;113;113;113;113;
2021-07-22 13:03:53;ht;93;22.80
2021-07-22 13:03:53;v;3.95
2021-07-22 13:33:52;1;115;115;114;115;114;114;114;114;114;115;
2021-07-22 13:33:52;2;119;119;119;119;120;119;119;119;120;120;
2021-07-22 13:33:52;3;38;38;38;38;38;38;38;38;38;38;
2021-07-22 13:33:52;4;121;120;121;121;121;121;121;121;121;121;
2021-07-22 13:33:52;5;110;110;111;111;111;111;111;111;111;111;
2021-07-22 13:33:52;ht;89;23.40
2021-07-22 13:33:52;v;3.94
2021-07-22 14:03:51;1;114;114;114;114;113;113;113;113;113;113;
2021-07-22 14:03:51;2;122;122;122;121;122;122;121;121;122;122;
2021-07-22 14:03:51;3;37;37;37;37;37;37;37;37;37;37;
2021-07-22 14:03:51;4;119;119;119;119;119;119;119;119;119;119;
2021-07-22 14:03:51;5;114;114;114;114;114;114;115;114;114;114;
2021-07-22 14:03:51;ht;85;23.70
2021-07-22 14:03:51;v;3.94
2021-07-22 14:33:55;1;118;118;118;118;118;118;118;118;118;118;
2021-07-22 14:33:55;2;121;121;121;121;121;121;121;121;121;121;
2021-07-22 14:33:55;3;37;37;37;37;37;37;37;37;37;37;
2021-07-22 14:33:55;4;117;117;117;117;117;117;117;117;117;117;
2021-07-22 14:33:55;5;1;1;1;1;1;1;1;1;1;1;
2021-07-22 14:33:55;ht;85;23.60
2021-07-22 14:33:55;v;3.94
2021-07-22 15:03:55;1;122;122;122;121;121;121;121;121;121;121;
2021-07-22 15:03:55;2;121;121;121;121;121;121;121;121;121;120;
2021-07-22 15:03:55;3;37;37;37;37;37;37;37;37;37;37;
2021-07-22 15:03:55;4;117;117;117;117;117;117;117;117;117;117;
2021-07-22 15:03:55;5;1;2;2;1;2;1;2;1;1;1;
2021-07-22 15:03:55;ht;82;24.10
2021-07-22 15:03:55;v;3.94
2021-07-22 15:33:55;1;122;122;122;122;122;122;122;122;122;122;
2021-07-22 15:33:55;2;113;113;113;113;113;113;113;113;113;113;
2021-07-22 15:33:55;3;37;37;37;37;37;37;37;37;37;37;
2021-07-22 15:33:55;4;118;118;118;118;118;118;117;118;118;117;
2021-07-22 15:33:55;5;115;115;115;116;115;115;115;115;115;115;
2021-07-22 15:33:55;ht;80;24.00
2021-07-22 15:33:55;v;3.94
2021-07-22 16:03:55;1;120;120;120;120;119;120;119;119;119;119;
2021-07-22 16:03:55;2;121;122;121;122;122;122;122;122;122;122;
2021-07-22 16:03:55;3;37;37;37;37;37;37;37;37;37;37;
2021-07-22 16:03:55;4;118;118;118;119;118;118;118;118;118;118;
2021-07-22 16:03:55;5;118;118;118;118;118;118;118;118;118;117;
2021-07-22 16:03:55;ht;78;23.90
2021-07-22 16:03:55;v;3.94
2021-07-22 16:33:54;1;116;116;115;116;115;116;116;116;115;116;
2021-07-22 16:33:54;2;117;117;117;118;118;118;118;118;118;118;
2021-07-22 16:33:54;3;37;37;37;37;37;37;37;37;37;37;
2021-07-22 16:33:54;4;123;123;123;123;123;123;123;123;123;123;
2021-07-22 16:33:54;5;122;122;122;122;122;122;129;123;122;122;
2021-07-22 16:33:54;ht;79;23.10
2021-07-22 16:33:54;v;3.94
2021-07-22 17:03:54;1;115;115;115;115;115;115;115;115;115;115;
2021-07-22 17:03:54;2;117;117;117;117;117;117;117;117;117;117;
2021-07-22 17:03:54;3;38;38;38;37;38;38;38;38;38;38;
2021-07-22 17:03:54;4;126;126;126;126;125;126;126;126;125;126;
2021-07-22 17:03:54;5;110;111;110;110;111;110;110;111;110;110;
2021-07-22 17:03:54;ht;83;22.70
2021-07-22 17:03:54;v;3.94
2021-07-22 17:33:51;1;113;113;113;113;113;113;114;113;113;113;
2021-07-22 17:33:51;2;117;118;118;118;118;118;118;117;118;118;
2021-07-22 17:33:51;3;38;38;38;38;38;38;38;38;38;38;
2021-07-22 17:33:51;4;120;121;121;121;120;121;120;121;121;121;
2021-07-22 17:33:51;5;109;109;109;109;109;109;109;109;109;109;
2021-07-22 17:33:51;ht;98;19.00
2021-07-22 17:33:51;v;3.94
2021-07-22 18:03:50;1;128;128;128;128;128;128;128;128;128;128;
2021-07-22 18:03:50;2;121;121;121;121;121;121;121;121;121;121;
2021-07-22 18:03:50;3;40;40;40;40;40;40;40;40;40;40;
2021-07-22 18:03:50;4;122;122;122;122;122;122;122;122;122;122;
2021-07-22 18:03:50;5;115;115;115;114;115;115;114;114;114;114;
2021-07-22 18:03:50;ht;99;16.50
2021-07-22 18:03:50;v;3.94
2021-07-22 18:33:47;1;118;118;117;118;118;118;118;118;117;117;
2021-07-22 18:33:47;2;119;118;119;119;119;119;118;119;118;119;
2021-07-22 18:33:47;3;41;41;41;41;41;41;42;41;41;41;
2021-07-22 18:33:47;4;124;124;124;124;124;124;124;124;124;124;
2021-07-22 18:33:47;5;117;117;117;117;117;116;117;117;117;117;
2021-07-22 18:33:47;ht;99;15.40
2021-07-22 18:33:47;v;3.94
2021-07-22 19:03:47;1;118;118;118;118;118;118;118;118;118;118;
2021-07-22 19:03:47;2;118;118;119;118;118;119;119;118;119;119;
2021-07-22 19:03:47;3;42;42;42;42;42;42;42;42;42;42;
2021-07-22 19:03:47;4;127;127;127;127;127;127;127;127;127;127;
2021-07-22 19:03:47;5;114;114;114;114;114;114;114;114;115;115;
2021-07-22 19:03:47;ht;99;15.20
2021-07-22 19:03:47;v;3.94
2021-07-22 19:33:47;1;117;117;116;116;116;116;117;116;116;116;
2021-07-22 19:33:47;2;120;120;121;120;120;120;121;120;120;120;
2021-07-22 19:33:47;3;42;42;42;42;42;42;42;42;42;42;
2021-07-22 19:33:47;4;125;125;126;125;125;125;125;125;126;126;
2021-07-22 19:33:47;5;116;115;115;115;115;115;115;116;115;116;
2021-07-22 19:33:47;ht;99;14.20
2021-07-22 19:33:47;v;3.94
2021-07-22 20:03:47;1;125;125;125;125;125;125;125;125;124;124;
2021-07-22 20:03:47;2;115;114;114;115;114;115;115;115;114;115;
2021-07-22 20:03:47;3;44;44;44;44;44;44;44;44;44;44;
2021-07-22 20:03:47;4;124;124;124;124;124;124;124;124;124;124;
2021-07-22 20:03:47;5;119;118;119;118;119;119;119;119;118;119;
2021-07-22 20:03:47;ht;99;15.20
2021-07-22 20:03:47;v;3.94
2021-07-22 20:33:46;1;119;119;119;119;119;119;119;119;119;119;
2021-07-22 20:33:46;2;122;121;121;121;121;121;121;122;121;122;
2021-07-22 20:33:46;3;43;43;43;43;43;43;43;43;43;43;
2021-07-22 20:33:46;4;122;123;123;123;123;123;123;123;123;123;
2021-07-22 20:33:46;5;121;121;121;121;121;121;121;121;121;121;
2021-07-22 20:33:46;ht;99;13.50
2021-07-22 20:33:46;v;3.94
2021-07-22 21:03:45;1;116;116;115;115;115;116;116;115;116;115;
2021-07-22 21:03:45;2;122;123;123;122;122;122;122;122;122;122;
2021-07-22 21:03:45;3;45;45;45;45;45;45;45;45;45;45;
2021-07-22 21:03:45;4;123;123;123;123;123;123;123;123;123;123;
2021-07-22 21:03:45;5;120;119;119;119;120;119;119;119;119;119;
2021-07-22 21:03:45;ht;99;12.60
2021-07-22 21:03:45;v;3.94
2021-07-22 21:33:43;1;122;122;122;122;122;122;122;122;122;122;
2021-07-22 21:33:43;2;115;115;115;115;115;115;115;115;115;115;
2021-07-22 21:33:43;3;45;45;45;45;45;45;45;45;45;45;
2021-07-22 21:33:43;4;122;122;122;122;122;122;122;122;122;122;
2021-07-22 21:33:43;5;114;114;114;114;114;114;114;114;114;114;
2021-07-22 21:33:43;ht;99;13.40
2021-07-22 21:33:43;v;3.94
2021-07-22 22:03:42;1;120;120;120;120;120;120;119;120;120;119;
2021-07-22 22:03:42;2;120;120;120;120;120;120;120;120;120;120;
2021-07-22 22:03:42;3;45;45;45;45;45;45;45;45;45;45;
2021-07-22 22:03:42;4;126;126;126;126;126;126;126;126;126;126;
2021-07-22 22:03:42;5;122;122;123;122;122;122;122;123;122;123;
2021-07-22 22:03:42;ht;99;11.50
2021-07-22 22:03:42;v;3.94
2021-07-22 22:33:44;1;124;124;124;124;124;124;124;124;124;124;
2021-07-22 22:33:44;2;118;118;118;118;118;118;118;118;118;118;
2021-07-22 22:33:44;3;45;45;45;45;45;45;45;45;45;45;
2021-07-22 22:33:44;4;125;125;125;125;125;125;125;125;125;125;
2021-07-22 22:33:44;5;129;129;129;129;129;129;129;129;129;129;
2021-07-22 22:33:44;ht;99;11.00
2021-07-22 22:33:44;v;3.94
2021-07-22 23:03:42;1;118;118;118;118;117;117;117;117;117;117;
2021-07-22 23:03:42;2;116;116;116;116;116;116;116;116;116;116;
2021-07-22 23:03:42;3;46;46;46;46;46;46;46;46;45;46;
2021-07-22 23:03:42;4;124;124;124;124;124;124;124;124;124;124;
2021-07-22 23:03:42;5;118;118;118;118;118;118;118;118;118;118;
2021-07-22 23:03:42;ht;99;10.40
2021-07-22 23:03:42;v;3.94
2021-07-22 23:33:43;1;117;116;116;117;117;117;117;117;117;117;
2021-07-22 23:33:43;2;115;115;115;115;115;115;115;115;115;115;
2021-07-22 23:33:43;3;47;47;47;46;47;47;46;47;47;46;
2021-07-22 23:33:43;4;127;127;127;127;127;127;126;126;127;127;
2021-07-22 23:33:43;5;120;120;120;120;120;120;120;120;120;120;
2021-07-22 23:33:43;ht;99;10.30
2021-07-22 23:33:43;v;3.94
