2022-03-28 00:00:31;4.04;54;17.10;0;0.00
2022-03-28 00:05:33;4.03;53;16.80;0;0.00
2022-03-28 00:10:34;4.03;52;16.50;0;0.00
2022-03-28 00:15:31;4.04;50;16.00;0;0.00
2022-03-28 00:20:33;4.04;48;15.50;0;0.00
2022-03-28 00:25:34;4.04;41;15.30;0;0.00
2022-03-28 00:30:31;4.04;38;15.60;0;0.00
2022-03-28 00:35:33;4.03;39;15.60;0;0.00
2022-03-28 00:40:34;4.03;42;15.70;0;0.00
2022-03-28 00:45:31;4.03;40;15.20;0;0.00
2022-03-28 00:50:32;4.03;34;15.30;0;0.00
2022-03-28 00:55:33;4.03;31;15.50;0;0.00
2022-03-28 01:00:30;4.03;38;15.80;0;0.00
2022-03-28 01:05:32;4.02;39;15.70;0;0.00
2022-03-28 01:10:33;4.03;35;15.50;0;0.00
2022-03-28 01:15:34;4.03;36;15.70;0;0.00
2022-03-28 01:20:31;4.03;37;15.70;0;0.00
2022-03-28 01:25:33;4.03;38;16.10;0;0.00
2022-03-28 01:30:30;4.03;48;16.70;0;0.00
2022-03-28 01:35:31;4.03;51;16.50;0;0.00
2022-03-28 01:40:32;4.03;50;16.50;0;0.00
2022-03-28 01:45:34;4.02;48;15.90;0;0.00
2022-03-28 01:50:31;4.03;41;15.50;0;0.00
2022-03-28 01:55:32;4.03;34;15.30;0;0.00
2022-03-28 02:00:33;4.03;28;15.20;0;0.00
2022-03-28 02:05:30;4.03;25;15.60;0;0.00
2022-03-28 02:10:32;4.03;28;15.60;0;0.00
2022-03-28 02:15:33;4.02;28;15.70;0;0.00
2022-03-28 02:20:34;4.03;27;15.20;0;0.00
2022-03-28 02:25:31;4.02;21;15.10;0;0.00
2022-03-28 02:30:32;4.03;19;14.90;0;0.00
2022-03-28 02:35:34;4.02;16;15.20;0;0.00
2022-03-28 02:40:31;4.03;23;15.20;0;0.00
2022-03-28 02:45:32;4.02;23;15.00;0;0.00
2022-03-28 02:50:33;4.02;20;14.80;0;0.00
2022-03-28 02:55:30;4.02;16;14.80;0;0.00
2022-03-28 03:00:31;4.03;22;15.30;0;0.00
2022-03-28 03:05:33;4.03;29;15.20;0;0.00
2022-03-28 03:10:34;4.02;26;15.40;0;0.00
2022-03-28 03:15:31;4.03;36;15.80;0;0.00
2022-03-28 03:20:32;4.02;35;15.60;0;0.00
2022-03-28 03:25:34;4.03;33;15.60;0;0.00
2022-03-28 03:30:30;4.02;33;15.50;0;0.00
2022-03-28 03:35:32;4.03;33;15.50;0;0.00
2022-03-28 03:40:33;4.02;31;15.10;0;0.00
2022-03-28 03:45:34;4.02;23;15.00;0;0.00
2022-03-28 03:50:31;4.02;23;14.40;0;0.00
2022-03-28 03:55:32;4.02;17;14.00;0;0.00
2022-03-28 04:00:34;4.02;8;13.70;0;0.00
2022-03-28 04:05:30;4.02;99;14.00;0;0.00
2022-03-28 04:10:32;4.02;99;14.50;0;0.00
2022-03-28 04:15:33;4.02;17;15.10;0;0.00
2022-03-28 04:20:34;4.01;24;15.00;0;0.00
2022-03-28 04:25:31;4.02;23;14.50;0;0.00
2022-03-28 04:30:32;4.01;20;14.00;0;0.00
2022-03-28 04:35:29;4.02;99;14.30;0;0.00
2022-03-28 04:40:35;4.02;15;14.50;0;0.00
2022-03-28 04:45:31;4.02;12;14.00;0;0.00
2022-03-28 04:50:33;4.02;99;14.40;0;0.00
2022-03-28 04:55:34;4.02;99;14.50;0;0.00
2022-03-28 05:00:31;4.01;99;14.50;0;0.00
2022-03-28 05:05:32;4.02;99;14.60;0;0.00
2022-03-28 05:10:33;4.02;0;14.60;0;0.00
2022-03-28 05:15:30;4.02;1;14.50;0;0.00
2022-03-28 05:20:31;4.02;2;14.40;0;0.00
2022-03-28 05:25:32;4.01;1;14.40;0;0.00
2022-03-28 05:30:34;4.02;8;14.40;0;0.00
2022-03-28 05:35:30;4.02;7;13.70;0;0.00
2022-03-28 05:40:32;4.01;99;13.50;0;0.00
2022-03-28 05:45:33;4.01;99;13.30;0;0.00
2022-03-28 05:50:34;4.02;99;13.70;0;0.00
2022-03-28 05:55:31;4.02;99;13.80;0;0.00
2022-03-28 06:00:32;4.01;99;13.40;0;0.00
2022-03-28 06:05:33;4.01;99;13.30;0;0.00
2022-03-28 06:10:30;4.02;99;13.20;0;0.00
2022-03-28 06:15:31;4.02;99;13.80;0;0.00
2022-03-28 06:20:32;4.01;99;13.70;0;0.00
2022-03-28 06:25:33;4.01;99;13.80;0;0.00
2022-03-28 06:30:30;4.02;99;13.70;0;0.00
2022-03-28 06:35:31;4.01;99;13.60;0;0.00
2022-03-28 06:40:32;4.01;99;13.60;0;0.00
2022-03-28 06:45:33;4.01;99;13.40;0;0.00
2022-03-28 06:50:30;4.01;99;13.10;0;0.00
2022-03-28 06:55:31;4.01;99;13.20;0;0.00
2022-03-28 07:00:32;4.01;99;13.30;0;0.00
2022-03-28 07:05:33;4.01;99;13.20;0;0.00
2022-03-28 07:10:30;4.01;99;13.50;0;0.00
2022-03-28 07:15:31;4.01;99;14.00;0;0.00
2022-03-28 07:20:32;4.01;99;14.10;0;0.00
2022-03-28 07:25:33;4.01;99;14.30;0;1.20
2022-03-28 07:30:30;4.01;99;14.10;0;0.00
2022-03-28 07:35:31;4.01;99;14.10;0;0.00
2022-03-28 07:40:32;4.01;99;14.20;0;1.20
2022-03-28 07:45:34;4.02;99;14.30;0;1.10
2022-03-28 07:50:30;4.01;99;14.50;0;0.00
2022-03-28 07:55:32;4.01;99;14.70;0;0.00
2022-03-28 08:00:33;4.01;99;15.00;0;0.00
2022-03-28 08:05:34;4.01;99;15.30;0;0.00
2022-03-28 08:10:31;4.02;13;15.80;0;0.00
2022-03-28 08:15:32;4.02;29;16.70;0;1.10
2022-03-28 08:20:34;4.02;38;17.00;0;1.30
2022-03-28 08:25:30;4.04;41;17.40;0;1.50
2022-03-28 08:30:32;4.04;43;17.80;0;1.50
2022-03-28 08:35:34;4.05;45;18.00;0;1.40
2022-03-28 08:40:31;4.06;48;18.20;0;1.80
2022-03-28 08:45:32;4.06;50;18.50;0;2.39
2022-03-28 08:50:34;4.07;51;18.90;0;2.49
2022-03-28 08:55:31;4.07;52;19.30;0;1.70
2022-03-28 09:00:33;4.07;55;19.80;0;1.80
2022-03-28 09:05:35;4.08;57;20.00;0;2.89
2022-03-28 09:10:32;4.08;61;20.30;0;3.08
2022-03-28 09:15:34;4.08;61;20.70;0;2.19
2022-03-28 09:20:32;4.09;61;21.00;0;2.99
2022-03-28 09:25:34;4.09;63;21.30;0;2.89
2022-03-28 09:30:32;4.09;63;21.60;0;2.99
2022-03-28 09:35:34;4.09;66;22.00;0;3.78
2022-03-28 09:40:32;4.10;65;22.10;0;2.69
2022-03-28 09:45:34;4.10;66;22.30;0;2.59
2022-03-28 09:50:32;4.10;66;22.70;0;2.49
2022-03-28 09:55:34;4.11;67;22.70;0;4.27
2022-03-28 10:00:32;4.11;67;23.00;0;3.08
2022-03-28 10:05:34;4.11;68;23.10;0;4.17
2022-03-28 10:10:32;4.12;69;23.30;0;4.57
2022-03-28 10:15:35;4.12;67;23.90;0;3.18
2022-03-28 10:20:33;4.12;69;24.00;0;4.27
2022-03-28 10:25:36;4.13;69;24.00;0;3.68
2022-03-28 10:30:34;4.12;70;24.40;0;2.69
2022-03-28 10:35:32;4.12;69;24.50;0;3.48
2022-03-28 10:40:35;4.13;69;25.20;0;2.89
2022-03-28 10:45:33;4.13;69;25.40;0;5.16
2022-03-28 10:50:31;4.13;70;25.10;0;4.17
2022-03-28 10:55:34;4.13;71;25.60;0;3.97
2022-03-28 11:00:32;4.13;70;25.60;0;3.78
2022-03-28 11:05:35;4.13;71;25.90;0;2.89
2022-03-28 11:10:34;4.13;69;26.00;0;3.88
2022-03-28 11:15:32;4.13;70;26.10;0;5.56
2022-03-28 11:20:35;4.13;71;26.50;0;3.78
2022-03-28 11:25:34;4.14;71;26.30;0;2.59
2022-03-28 11:30:32;4.13;71;26.60;0;4.07
2022-03-28 11:35:35;4.13;70;27.20;0;3.28
2022-03-28 11:40:34;4.14;70;27.20;0;2.99
2022-03-28 11:45:32;4.13;70;26.90;0;3.18
2022-03-28 11:50:31;4.14;71;26.90;0;4.17
2022-03-28 11:55:34;4.13;70;27.80;0;2.89
2022-03-28 12:00:33;4.13;69;27.10;0;3.18
2022-03-28 12:05:32;4.14;70;27.40;0;3.38
2022-03-28 12:10:35;4.13;69;28.10;0;2.99
2022-03-28 12:15:34;4.13;70;28.20;0;3.48
2022-03-28 12:20:33;4.14;70;27.80;0;3.88
2022-03-28 12:25:36;4.13;71;28.10;0;2.99
2022-03-28 12:30:35;4.14;71;28.20;0;5.06
2022-03-28 12:35:34;4.14;70;28.10;0;3.08
2022-03-28 12:40:33;4.14;70;28.50;0;5.56
2022-03-28 12:45:36;4.14;69;27.80;0;4.27
2022-03-28 12:50:35;4.14;70;28.30;0;3.48
2022-03-28 12:55:34;4.14;69;28.50;0;3.58
2022-03-28 13:00:33;4.14;68;28.60;0;3.97
2022-03-28 13:05:36;4.14;68;28.60;0;3.88
2022-03-28 13:10:31;4.14;67;28.60;0;3.68
2022-03-28 13:15:34;4.14;68;28.60;0;2.79
2022-03-28 13:20:33;4.14;69;29.10;0;3.08
2022-03-28 13:25:37;4.14;67;28.70;0;4.37
2022-03-28 13:30:36;4.14;68;28.80;0;3.28
2022-03-28 13:35:34;4.14;67;28.70;0;4.07
2022-03-28 13:40:33;4.14;68;28.90;0;5.36
2022-03-28 13:45:32;4.14;70;29.20;0;2.79
2022-03-28 13:50:36;4.14;67;29.50;0;3.58
2022-03-28 13:55:35;4.14;68;29.60;0;2.59
2022-03-28 14:00:34;4.14;67;29.30;0;3.97
2022-03-28 14:05:33;4.14;67;29.40;0;3.38
2022-03-28 14:10:32;4.14;69;29.40;0;2.79
2022-03-28 14:15:36;4.14;70;29.80;0;1.80
2022-03-28 14:20:35;4.14;68;29.40;0;4.07
2022-03-28 14:25:34;4.14;70;29.80;0;2.19
2022-03-28 14:30:33;4.14;66;29.80;0;3.08
2022-03-28 14:35:32;4.14;68;29.40;0;4.77
2022-03-28 14:40:36;4.14;68;29.40;0;4.47
2022-03-28 14:45:35;4.14;68;29.70;0;2.89
2022-03-28 14:50:34;4.14;67;30.00;0;2.39
2022-03-28 14:55:33;4.14;70;30.10;0;2.59
2022-03-28 15:00:32;4.14;67;29.50;0;2.59
2022-03-28 15:05:36;4.14;67;29.80;0;2.69
2022-03-28 15:10:35;4.14;68;30.00;0;2.59
2022-03-28 15:15:34;4.14;68;29.70;0;4.07
2022-03-28 15:20:34;4.14;67;29.70;0;4.17
2022-03-28 15:25:33;4.14;69;30.00;0;2.29
2022-03-28 15:30:32;4.14;67;29.60;0;3.68
2022-03-28 15:35:36;4.14;69;29.80;0;2.99
2022-03-28 15:40:35;4.15;67;30.00;0;4.07
2022-03-28 15:45:34;4.14;69;29.70;0;2.19
2022-03-28 15:50:33;4.14;68;29.70;0;3.28
2022-03-28 15:55:37;4.14;67;29.80;0;2.59
2022-03-28 16:00:36;4.14;68;30.10;0;2.99
2022-03-28 16:05:35;4.14;68;29.60;0;4.57
2022-03-28 16:10:34;4.14;68;29.70;0;2.69
2022-03-28 16:15:33;4.14;68;29.50;0;2.99
2022-03-28 16:20:37;4.14;68;29.50;0;3.08
2022-03-28 16:25:36;4.14;69;29.60;0;2.49
2022-03-28 16:30:35;4.14;70;29.80;0;2.49
2022-03-28 16:35:34;4.14;69;29.70;0;2.49
2022-03-28 16:40:33;4.14;68;29.50;0;3.48
2022-03-28 16:45:36;4.14;69;29.60;0;2.00
2022-03-28 16:50:35;4.14;69;29.50;0;2.89
2022-03-28 16:55:34;4.14;70;29.50;0;3.88
2022-03-28 17:00:33;4.13;70;29.20;0;3.38
2022-03-28 17:05:32;4.13;69;29.30;0;2.79
2022-03-28 17:10:36;4.13;70;29.20;0;2.79
2022-03-28 17:15:35;4.13;70;29.30;0;2.49
2022-03-28 17:20:34;4.13;70;28.90;0;3.08
2022-03-28 17:25:33;4.12;70;28.90;0;3.78
2022-03-28 17:30:36;4.12;70;28.80;0;2.89
2022-03-28 17:35:35;4.12;71;28.80;0;2.99
2022-03-28 17:40:34;4.12;71;28.60;0;3.68
2022-03-28 17:45:33;4.11;72;28.40;0;2.09
2022-03-28 17:50:32;4.11;71;28.30;0;3.18
2022-03-28 17:55:35;4.12;72;28.20;0;3.08
2022-03-28 18:00:34;4.11;73;28.10;0;2.69
2022-03-28 18:05:32;4.11;73;27.90;0;2.69
2022-03-28 18:10:36;4.11;73;27.90;0;2.39
2022-03-28 18:15:34;4.10;73;27.80;0;1.80
2022-03-28 18:20:33;4.10;73;27.50;0;2.09
2022-03-28 18:25:36;4.10;74;27.30;0;1.50
2022-03-28 18:30:35;4.10;74;27.10;0;2.00
2022-03-28 18:35:33;4.09;75;26.80;0;1.50
2022-03-28 18:40:32;4.10;75;26.60;0;1.60
2022-03-28 18:45:35;4.09;76;26.20;0;1.80
2022-03-28 18:50:33;4.08;76;25.70;0;1.10
2022-03-28 18:55:36;4.08;77;25.20;0;1.10
2022-03-28 19:00:34;4.08;76;24.70;0;0.00
2022-03-28 19:05:33;4.08;75;24.30;0;1.20
2022-03-28 19:10:35;4.08;75;24.10;0;1.10
2022-03-28 19:15:33;4.08;75;23.90;0;1.50
2022-03-28 19:20:31;4.08;75;23.60;0;1.20
2022-03-28 19:25:34;4.07;74;23.40;0;1.30
2022-03-28 19:30:32;4.07;74;23.20;0;1.20
2022-03-28 19:35:34;4.07;73;22.90;0;1.20
2022-03-28 19:40:32;4.07;73;22.90;0;1.20
2022-03-28 19:45:35;4.07;73;22.80;0;1.20
2022-03-28 19:50:33;4.07;73;22.60;0;1.10
2022-03-28 19:55:35;4.07;72;22.20;0;0.00
2022-03-28 20:00:33;4.07;71;22.10;0;0.00
2022-03-28 20:05:35;4.07;71;22.10;0;0.00
2022-03-28 20:10:33;4.06;70;21.90;0;0.00
2022-03-28 20:15:35;4.06;70;22.00;0;0.00
2022-03-28 20:20:33;4.07;70;21.90;0;0.00
2022-03-28 20:25:35;4.07;69;21.60;0;0.00
2022-03-28 20:30:32;4.07;68;21.50;0;0.00
2022-03-28 20:35:35;4.07;68;21.50;0;0.00
2022-03-28 20:40:32;4.06;66;21.20;0;0.00
2022-03-28 20:45:34;4.06;65;21.10;0;0.00
2022-03-28 20:50:32;4.06;64;20.90;0;0.00
2022-03-28 20:55:34;4.06;61;20.50;0;0.00
2022-03-28 21:00:31;4.06;60;20.70;0;0.00
2022-03-28 21:05:33;4.06;60;20.70;0;0.00
2022-03-28 21:10:31;4.06;60;20.70;0;0.00
2022-03-28 21:15:33;4.06;60;20.70;0;0.00
2022-03-28 21:20:30;4.05;60;20.70;0;0.00
2022-03-28 21:25:32;4.06;59;20.60;0;0.00
2022-03-28 21:30:34;4.05;59;20.60;0;0.00
2022-03-28 21:35:32;4.05;59;20.50;0;0.00
2022-03-28 21:40:34;4.05;57;20.10;0;0.00
2022-03-28 21:45:31;4.05;52;19.90;0;0.00
2022-03-28 21:50:33;4.05;51;19.90;0;0.00
2022-03-28 21:55:30;4.06;55;20.30;0;0.00
2022-03-28 22:00:32;4.06;57;20.40;0;1.40
2022-03-28 22:05:34;4.06;57;20.20;0;1.20
2022-03-28 22:10:32;4.05;57;20.20;0;1.30
2022-03-28 22:15:34;4.05;57;20.00;0;1.30
2022-03-28 22:20:31;4.05;58;20.20;0;1.40
2022-03-28 22:25:33;4.05;58;20.20;0;1.10
2022-03-28 22:30:30;4.05;58;20.10;0;0.00
2022-03-28 22:35:32;4.05;57;19.90;0;0.00
2022-03-28 22:40:30;4.05;54;19.40;0;0.00
2022-03-28 22:45:32;4.04;49;19.00;0;0.00
2022-03-28 22:50:34;4.05;44;19.00;0;0.00
2022-03-28 22:55:31;4.05;45;19.10;0;0.00
2022-03-28 23:00:33;4.05;46;19.10;0;0.00
2022-03-28 23:05:35;4.05;45;19.00;0;0.00
2022-03-28 23:10:32;4.05;47;19.20;0;0.00
2022-03-28 23:15:34;4.05;47;19.10;0;0.00
2022-03-28 23:20:31;4.05;46;18.80;0;0.00
2022-03-28 23:25:33;4.05;43;18.40;0;0.00
2022-03-28 23:30:34;4.05;36;18.20;0;0.00
2022-03-28 23:35:32;4.04;28;18.10;0;0.00
2022-03-28 23:40:33;4.04;25;18.00;0;0.00
2022-03-28 23:45:31;4.05;16;18.10;0;0.00
2022-03-28 23:50:32;4.04;10;18.40;0;0.00
2022-03-28 23:55:34;4.04;28;19.10;0;0.00
