2022-03-30 00:00:32;4.03;69;16.40;0;3.38
2022-03-30 00:05:34;4.03;68;16.30;0;3.58
2022-03-30 00:10:31;4.04;68;16.30;0;2.79
2022-03-30 00:15:32;4.03;68;16.30;0;2.79
2022-03-30 00:20:34;4.03;68;16.10;0;2.59
2022-03-30 00:25:31;4.03;68;16.00;0;2.49
2022-03-30 00:30:32;4.03;68;15.80;0;2.99
2022-03-30 00:35:34;4.03;70;15.40;0;2.19
2022-03-30 00:40:31;4.03;70;15.40;0;2.79
2022-03-30 00:45:32;4.03;70;15.40;0;2.09
2022-03-30 00:50:29;4.03;70;15.20;0;2.09
2022-03-30 00:55:31;4.03;70;15.20;0;2.39
2022-03-30 01:00:32;4.03;70;15.00;0;2.39
2022-03-30 01:05:34;4.02;70;14.90;0;1.60
2022-03-30 01:10:30;4.02;71;14.80;0;2.19
2022-03-30 01:15:32;4.03;71;14.70;0;2.39
2022-03-30 01:20:33;4.02;71;14.50;0;1.40
2022-03-30 01:25:30;4.02;72;14.20;0;2.19
2022-03-30 01:30:31;4.02;71;14.20;0;2.49
2022-03-30 01:35:33;4.03;69;14.30;0;2.49
2022-03-30 01:40:34;4.03;68;14.30;0;1.80
2022-03-30 01:45:31;4.02;69;14.00;0;2.19
2022-03-30 01:50:32;4.02;70;13.90;0;2.69
2022-03-30 01:55:33;4.02;70;13.70;0;3.18
2022-03-30 02:00:30;4.02;71;13.50;0;2.29
2022-03-30 02:05:31;4.02;71;13.50;0;1.70
2022-03-30 02:10:33;4.02;71;13.50;0;1.60
2022-03-30 02:15:34;4.02;71;13.50;0;2.99
2022-03-30 02:20:31;4.02;70;13.60;0;4.27
2022-03-30 02:25:32;4.01;70;13.50;0;2.19
2022-03-30 02:30:33;4.01;71;13.50;0;2.79
2022-03-30 02:35:30;4.01;69;13.50;0;2.89
2022-03-30 02:40:31;4.01;67;13.70;0;2.89
2022-03-30 02:45:32;4.01;68;13.40;0;2.79
2022-03-30 02:50:34;4.01;68;13.20;0;3.38
2022-03-30 02:55:30;4.01;68;13.10;0;2.49
2022-03-30 03:00:31;4.02;69;12.90;0;2.49
2022-03-30 03:05:33;4.02;69;12.70;0;2.00
2022-03-30 03:10:29;4.02;69;12.70;0;2.19
2022-03-30 03:15:31;4.02;69;12.70;0;2.89
2022-03-30 03:20:32;4.01;68;12.70;0;6.85
2022-03-30 03:25:33;4.02;67;12.90;0;4.47
2022-03-30 03:30:34;4.02;68;12.70;0;1.80
2022-03-30 03:35:31;4.02;67;12.70;0;2.29
2022-03-30 03:40:32;4.02;67;12.90;0;2.69
2022-03-30 03:45:33;4.01;67;12.90;0;3.78
2022-03-30 03:50:34;4.01;66;13.10;0;2.69
2022-03-30 03:55:31;4.01;65;13.30;0;5.26
2022-03-30 04:00:32;4.01;64;13.40;0;3.18
2022-03-30 04:05:33;4.01;65;13.20;0;3.28
2022-03-30 04:10:30;4.01;66;13.10;0;3.48
2022-03-30 04:15:31;4.01;66;13.00;0;2.49
2022-03-30 04:20:32;4.01;66;13.10;0;2.49
2022-03-30 04:25:33;4.01;67;12.80;0;2.09
2022-03-30 04:30:30;4.01;67;12.80;0;2.69
2022-03-30 04:35:31;4.01;67;12.80;0;2.00
2022-03-30 04:40:32;4.01;67;12.70;0;2.19
2022-03-30 04:45:34;4.01;67;12.60;0;1.80
2022-03-30 04:50:30;4.01;67;12.50;0;2.00
2022-03-30 04:55:31;4.01;68;12.50;0;1.90
2022-03-30 05:00:33;4.01;69;12.30;0;1.70
2022-03-30 05:05:34;4.01;69;12.30;0;1.80
2022-03-30 05:10:30;4.01;70;12.20;0;2.89
2022-03-30 05:15:31;4.01;69;12.20;0;1.60
2022-03-30 05:20:32;4.01;70;12.10;0;2.09
2022-03-30 05:25:34;4.01;71;12.00;0;2.69
2022-03-30 05:30:30;4.00;70;12.10;0;2.00
2022-03-30 05:35:31;4.01;70;12.20;0;3.08
2022-03-30 05:40:32;4.01;70;12.20;0;3.88
2022-03-30 05:45:33;4.01;70;12.20;0;3.38
2022-03-30 05:50:30;4.01;71;12.10;0;2.00
2022-03-30 05:55:31;4.01;71;12.10;0;3.08
2022-03-30 06:00:32;4.00;72;11.80;0;2.79
2022-03-30 06:05:33;4.00;72;11.70;0;1.90
2022-03-30 06:10:30;4.00;72;11.70;0;2.39
2022-03-30 06:15:31;4.01;73;11.50;0;2.00
2022-03-30 06:20:32;4.01;73;11.50;0;1.50
2022-03-30 06:25:33;4.01;74;11.30;0;2.59
2022-03-30 06:30:34;4.00;73;11.30;0;2.19
2022-03-30 06:35:31;4.00;73;11.30;0;4.07
2022-03-30 06:40:32;4.01;74;11.20;0;2.89
2022-03-30 06:45:33;4.00;74;11.10;0;2.39
2022-03-30 06:50:34;4.01;74;11.10;0;3.08
2022-03-30 06:55:30;4.00;74;11.00;0;2.29
2022-03-30 07:00:31;4.01;75;11.00;0;2.19
2022-03-30 07:05:32;4.00;74;10.90;0;2.79
2022-03-30 07:10:33;4.00;74;10.90;0;1.70
2022-03-30 07:15:29;4.00;74;10.80;0;2.29
2022-03-30 07:20:30;4.00;75;10.70;0;2.99
2022-03-30 07:25:31;4.00;76;10.60;0;1.20
2022-03-30 07:30:32;4.00;76;10.70;0;1.80
2022-03-30 07:35:33;4.00;76;10.80;0;1.60
2022-03-30 07:40:30;3.99;76;10.80;0;1.80
2022-03-30 07:45:31;4.00;76;10.80;0;1.70
2022-03-30 07:50:32;4.00;76;10.70;0;2.19
2022-03-30 07:55:33;4.00;77;10.70;0;1.90
2022-03-30 08:00:34;4.01;77;10.60;0;1.10
2022-03-30 08:05:30;4.01;77;10.70;0;1.80
2022-03-30 08:10:31;4.01;77;10.60;0;2.09
2022-03-30 08:15:32;4.02;77;10.90;0;1.60
2022-03-30 08:20:33;4.02;76;11.20;0;1.40
2022-03-30 08:25:34;4.02;76;10.90;0;1.70
2022-03-30 08:30:30;4.02;77;11.10;0;1.50
2022-03-30 08:35:31;4.03;76;11.20;0;1.90
2022-03-30 08:40:32;4.03;75;11.50;0;1.70
2022-03-30 08:45:34;4.03;75;11.70;0;1.70
2022-03-30 08:50:30;4.03;76;11.70;0;3.38
2022-03-30 08:55:31;4.04;75;11.80;0;1.80
2022-03-30 09:00:32;4.04;74;12.00;0;2.00
2022-03-30 09:05:34;4.04;75;12.00;0;2.00
2022-03-30 09:10:30;4.04;74;12.40;0;1.40
2022-03-30 09:15:31;4.04;73;12.80;0;2.19
2022-03-30 09:20:33;4.03;73;12.30;0;2.79
2022-03-30 09:25:34;4.03;73;12.20;0;3.08
2022-03-30 09:30:31;4.04;73;12.40;0;2.89
2022-03-30 09:35:32;4.04;74;12.40;0;1.90
2022-03-30 09:40:33;4.03;73;12.30;0;2.29
2022-03-30 09:45:34;4.03;73;12.30;0;2.09
2022-03-30 09:50:31;4.03;74;12.50;0;2.59
2022-03-30 09:55:32;4.04;72;12.50;0;3.08
2022-03-30 10:00:33;4.03;72;12.60;0;2.19
2022-03-30 10:05:30;4.03;72;12.50;0;2.09
2022-03-30 10:10:31;4.04;72;12.60;0;1.50
2022-03-30 10:15:33;4.05;72;12.70;0;2.99
2022-03-30 10:20:34;4.05;69;13.40;0;3.68
2022-03-30 10:25:31;4.05;66;13.70;0;3.58
2022-03-30 10:30:32;4.06;66;13.70;0;2.09
2022-03-30 10:35:33;4.07;65;14.30;0;2.29
2022-03-30 10:40:30;4.12;62;15.90;0;3.58
2022-03-30 10:45:32;4.12;62;15.20;0;1.80
2022-03-30 10:50:33;4.09;62;16.80;0;2.49
2022-03-30 10:55:30;4.12;61;17.10;0;1.90
2022-03-30 11:00:32;4.12;59;16.80;0;4.17
2022-03-30 11:05:34;4.13;57;17.00;0;3.08
2022-03-30 11:10:31;4.13;55;16.70;0;2.29
2022-03-30 11:15:33;4.13;55;16.60;0;1.50
2022-03-30 11:20:30;4.11;55;17.60;0;1.30
2022-03-30 11:25:32;4.12;55;17.50;0;1.70
2022-03-30 11:30:34;4.12;52;17.40;0;3.38
2022-03-30 11:35:32;4.13;52;17.40;0;2.89
2022-03-30 11:40:34;4.13;55;17.40;0;1.60
2022-03-30 11:45:31;4.13;52;17.90;0;2.29
2022-03-30 11:50:33;4.13;51;17.40;0;5.76
2022-03-30 11:55:31;4.13;52;17.60;0;2.59
2022-03-30 12:00:33;4.13;54;17.60;0;4.57
2022-03-30 12:05:35;4.13;51;17.90;0;1.90
2022-03-30 12:10:33;4.13;51;17.90;0;2.09
2022-03-30 12:15:35;4.13;50;17.70;0;1.90
2022-03-30 12:20:32;4.13;51;18.00;0;2.00
2022-03-30 12:25:35;4.13;51;17.90;0;2.99
2022-03-30 12:30:32;4.13;54;17.90;0;3.18
2022-03-30 12:35:34;4.13;53;17.70;0;2.69
2022-03-30 12:40:32;4.13;56;18.50;0;2.29
2022-03-30 12:45:34;4.13;53;18.10;0;2.19
2022-03-30 12:50:32;4.13;52;17.50;0;3.28
2022-03-30 12:55:34;4.13;55;18.50;0;1.20
2022-03-30 13:00:32;4.13;56;18.30;0;1.40
2022-03-30 13:05:34;4.13;53;18.90;0;4.57
2022-03-30 13:10:32;4.13;54;18.70;0;2.00
2022-03-30 13:15:34;4.13;49;18.80;0;1.60
2022-03-30 13:20:32;4.13;48;18.20;0;4.27
2022-03-30 13:25:34;4.13;49;18.40;0;2.89
2022-03-30 13:30:31;4.13;50;19.00;0;4.07
2022-03-30 13:35:34;4.13;51;18.90;0;2.39
2022-03-30 13:40:32;4.13;52;19.10;0;2.99
2022-03-30 13:45:34;4.13;49;18.90;0;2.69
2022-03-30 13:50:32;4.13;51;18.80;0;5.56
2022-03-30 13:55:34;4.13;50;18.70;0;2.39
2022-03-30 14:00:32;4.13;52;18.70;0;1.80
2022-03-30 14:05:34;4.13;50;19.00;0;3.08
2022-03-30 14:10:32;4.13;51;19.10;0;0.00
2022-03-30 14:15:34;4.13;51;18.60;0;2.09
2022-03-30 14:20:32;4.13;52;19.10;0;1.10
2022-03-30 14:25:34;4.13;51;18.90;0;4.57
2022-03-30 14:30:32;4.13;54;18.90;0;2.69
2022-03-30 14:35:34;4.13;51;18.90;0;2.89
2022-03-30 14:40:32;4.13;52;19.30;0;1.40
2022-03-30 14:45:34;4.13;51;19.00;0;2.69
2022-03-30 14:50:32;4.13;51;18.80;0;3.28
2022-03-30 14:55:34;4.13;52;19.00;0;2.99
2022-03-30 15:00:32;4.13;50;19.00;0;3.88
2022-03-30 15:05:34;4.13;51;19.10;0;4.47
2022-03-30 15:10:32;4.13;50;18.90;0;4.57
2022-03-30 15:15:34;4.13;50;19.60;0;1.30
2022-03-30 15:20:32;4.13;51;19.50;0;1.70
2022-03-30 15:25:34;4.13;50;19.20;0;3.68
2022-03-30 15:30:32;4.13;53;19.30;0;2.39
2022-03-30 15:35:34;4.13;52;19.50;0;3.28
2022-03-30 15:40:32;4.13;53;19.30;0;4.07
2022-03-30 15:45:34;4.13;51;18.80;0;2.09
2022-03-30 15:50:32;4.13;52;19.30;0;1.20
2022-03-30 15:55:34;4.13;51;19.20;0;2.29
2022-03-30 16:00:32;4.13;50;19.40;0;2.00
2022-03-30 16:05:34;4.13;50;19.40;0;2.39
2022-03-30 16:10:32;4.13;51;19.30;0;2.89
2022-03-30 16:15:34;4.13;48;19.30;0;2.39
2022-03-30 16:20:32;4.13;52;19.30;0;2.19
2022-03-30 16:25:34;4.13;51;19.30;0;2.29
2022-03-30 16:30:32;4.12;50;19.20;0;2.29
2022-03-30 16:35:34;4.12;51;19.60;0;3.08
2022-03-30 16:40:32;4.12;50;19.30;0;1.50
2022-03-30 16:45:34;4.12;50;19.20;0;1.50
2022-03-30 16:50:32;4.12;49;19.10;0;3.28
2022-03-30 16:55:34;4.12;51;18.90;0;3.38
2022-03-30 17:00:31;4.11;50;18.90;0;2.00
2022-03-30 17:05:34;4.11;51;18.70;0;3.18
2022-03-30 17:10:31;4.11;51;18.60;0;3.18
2022-03-30 17:15:33;4.10;52;18.70;0;2.79
2022-03-30 17:20:31;4.10;52;19.10;0;1.30
2022-03-30 17:25:33;4.10;53;19.10;0;1.70
2022-03-30 17:30:35;4.10;52;18.90;0;1.20
2022-03-30 17:35:33;4.10;51;18.70;0;1.50
2022-03-30 17:40:35;4.09;52;18.60;0;2.69
2022-03-30 17:45:32;4.08;53;18.70;0;1.10
2022-03-30 17:50:34;4.09;54;18.80;0;1.40
2022-03-30 17:55:32;4.08;55;18.30;0;1.70
2022-03-30 18:00:34;4.08;56;18.10;0;1.50
2022-03-30 18:05:31;4.07;56;18.00;0;1.40
2022-03-30 18:10:33;4.07;54;17.80;0;2.00
2022-03-30 18:15:35;4.07;56;17.60;0;1.60
2022-03-30 18:20:32;4.06;60;17.30;0;0.00
2022-03-30 18:25:34;4.06;60;17.10;0;1.10
2022-03-30 18:30:31;4.06;60;16.90;0;0.00
2022-03-30 18:35:33;4.06;61;16.60;0;0.00
2022-03-30 18:40:35;4.06;62;16.30;0;0.00
2022-03-30 18:45:32;4.05;63;15.80;0;0.00
2022-03-30 18:50:34;4.04;65;15.30;0;0.00
2022-03-30 18:55:31;4.05;66;15.00;0;0.00
2022-03-30 19:00:32;4.04;66;14.50;0;0.00
2022-03-30 19:05:34;4.03;68;14.10;0;0.00
2022-03-30 19:10:30;4.04;69;13.90;0;0.00
2022-03-30 19:15:32;4.04;68;14.00;0;0.00
2022-03-30 19:20:33;4.04;68;14.10;0;0.00
2022-03-30 19:25:30;4.03;68;14.00;0;0.00
2022-03-30 19:30:31;4.04;71;13.10;0;0.00
2022-03-30 19:35:33;4.03;74;12.50;0;0.00
2022-03-30 19:40:34;4.03;76;12.30;0;0.00
2022-03-30 19:45:30;4.03;78;11.70;0;0.00
2022-03-30 19:50:31;4.03;79;11.30;0;0.00
2022-03-30 19:55:33;4.02;78;11.40;0;0.00
2022-03-30 20:00:34;4.03;79;10.90;0;0.00
2022-03-30 20:05:30;4.02;79;10.90;0;0.00
2022-03-30 20:10:31;4.02;80;10.70;0;0.00
2022-03-30 20:15:32;4.01;81;10.00;0;0.00
2022-03-30 20:20:33;4.01;81;9.80;0;0.00
2022-03-30 20:25:34;4.01;81;9.90;0;0.00
2022-03-30 20:30:30;4.01;81;9.70;0;0.00
2022-03-30 20:35:31;4.01;81;9.90;0;0.00
2022-03-30 20:40:32;4.01;81;9.80;0;0.00
2022-03-30 20:45:33;4.01;81;9.60;0;0.00
2022-03-30 20:50:34;4.01;80;10.00;0;0.00
2022-03-30 20:55:30;4.00;81;9.60;0;0.00
2022-03-30 21:00:31;4.01;81;9.40;0;0.00
2022-03-30 21:05:31;4.00;80;9.70;0;0.00
2022-03-30 21:10:32;4.01;79;10.20;0;0.00
2022-03-30 21:15:33;4.01;79;10.30;0;0.00
2022-03-30 21:20:34;4.00;79;10.30;0;0.00
2022-03-30 21:25:30;4.01;80;10.00;0;0.00
2022-03-30 21:30:31;4.01;80;10.10;0;0.00
2022-03-30 21:35:32;4.00;80;10.10;0;0.00
2022-03-30 21:40:33;4.00;79;10.20;0;0.00
2022-03-30 21:45:33;4.01;80;9.90;0;0.00
2022-03-30 21:50:30;4.01;81;9.40;0;0.00
2022-03-30 21:55:30;4.01;82;9.10;0;0.00
2022-03-30 22:00:31;4.00;82;8.90;0;0.00
2022-03-30 22:05:32;4.00;82;9.00;0;0.00
2022-03-30 22:10:33;4.00;81;9.00;0;0.00
2022-03-30 22:15:34;4.00;81;9.20;0;0.00
2022-03-30 22:20:30;4.00;82;8.80;0;0.00
2022-03-30 22:25:30;4.00;82;8.60;0;0.00
2022-03-30 22:30:31;4.00;82;8.40;0;0.00
2022-03-30 22:35:32;4.00;81;8.40;0;0.00
2022-03-30 22:40:33;4.00;81;8.40;0;0.00
2022-03-30 22:45:33;4.00;81;8.30;0;0.00
2022-03-30 22:50:29;3.99;81;8.30;0;0.00
2022-03-30 22:55:30;4.00;81;8.10;0;0.00
2022-03-30 23:00:31;3.99;81;8.00;0;0.00
2022-03-30 23:05:31;4.00;81;8.20;0;0.00
2022-03-30 23:10:32;4.00;81;8.30;0;0.00
2022-03-30 23:15:33;4.00;81;8.00;0;0.00
2022-03-30 23:20:33;4.00;81;7.90;0;0.00
2022-03-30 23:25:29;4.00;81;7.70;0;0.00
2022-03-30 23:30:30;4.00;81;7.90;0;0.00
2022-03-30 23:35:31;4.00;81;7.90;0;0.00
2022-03-30 23:40:31;4.00;81;7.80;0;0.00
2022-03-30 23:45:32;3.99;81;7.70;0;0.00
2022-03-30 23:50:32;3.99;81;7.70;0;0.00
2022-03-30 23:55:33;3.99;81;7.80;0;0.00
