2022-03-12 00:00:32;4.13;71;16.10;1;0.00
2022-03-12 00:05:33;4.12;71;15.90;0;0.00
2022-03-12 00:10:30;4.12;71;15.90;0;0.00
2022-03-12 00:15:31;4.12;71;15.80;0;0.00
2022-03-12 00:20:33;4.12;71;15.80;0;0.00
2022-03-12 00:25:34;4.12;71;15.80;0;0.00
2022-03-12 00:30:31;4.12;72;15.80;0;0.00
2022-03-12 00:35:32;4.12;72;15.70;0;0.00
2022-03-12 00:40:34;4.12;72;15.60;0;0.00
2022-03-12 00:45:31;4.12;72;15.50;0;0.00
2022-03-12 00:50:32;4.12;71;15.40;0;0.00
2022-03-12 00:55:33;4.12;71;15.40;0;0.00
2022-03-12 01:00:30;4.12;71;15.50;0;0.00
2022-03-12 01:05:31;4.12;71;15.40;0;0.00
2022-03-12 01:10:33;4.12;71;15.20;0;0.00
2022-03-12 01:15:34;4.12;71;15.00;0;0.00
2022-03-12 01:20:31;4.12;70;15.10;0;0.00
2022-03-12 01:25:32;4.12;70;15.20;0;0.00
2022-03-12 01:30:33;4.12;70;15.10;0;0.00
2022-03-12 01:35:30;4.12;70;15.10;0;0.00
2022-03-12 01:40:31;4.11;69;14.90;0;0.00
2022-03-12 01:45:33;4.11;68;14.90;0;0.00
2022-03-12 01:50:34;4.11;68;14.90;0;0.00
2022-03-12 01:55:31;4.11;67;14.80;0;0.00
2022-03-12 02:00:32;4.11;67;14.90;0;0.00
2022-03-12 02:05:33;4.11;67;14.90;0;0.00
2022-03-12 02:10:30;4.11;67;14.80;0;0.00
2022-03-12 02:15:31;4.11;67;14.60;0;0.00
2022-03-12 02:20:33;4.11;66;14.50;0;0.00
2022-03-12 02:25:34;4.11;64;14.40;0;0.00
2022-03-12 02:30:30;4.11;60;14.40;0;0.00
2022-03-12 02:35:32;4.11;59;14.40;0;0.00
2022-03-12 02:40:33;4.11;59;14.30;0;0.00
2022-03-12 02:45:34;4.11;57;14.30;0;0.00
2022-03-12 02:50:31;4.11;56;14.10;0;0.00
2022-03-12 02:55:32;4.11;55;14.00;0;0.00
2022-03-12 03:00:33;4.11;55;13.90;0;0.00
2022-03-12 03:05:30;4.11;55;13.80;0;0.00
2022-03-12 03:10:31;4.11;55;13.80;0;0.00
2022-03-12 03:15:32;4.11;53;14.00;0;0.00
2022-03-12 03:20:33;4.11;54;14.30;0;0.00
2022-03-12 03:25:30;4.11;55;14.20;0;0.00
2022-03-12 03:30:31;4.11;55;14.20;0;0.00
2022-03-12 03:35:33;4.11;55;14.10;0;0.00
2022-03-12 03:40:34;4.11;55;14.00;0;0.00
2022-03-12 03:45:30;4.11;54;14.00;0;0.00
2022-03-12 03:50:32;4.11;55;13.90;0;0.00
2022-03-12 03:55:33;4.11;55;13.90;0;0.00
2022-03-12 04:00:34;4.11;54;13.80;0;0.00
2022-03-12 04:05:31;4.11;53;13.70;0;0.00
2022-03-12 04:10:32;4.11;52;13.60;0;0.00
2022-03-12 04:15:33;4.11;51;13.50;0;0.00
2022-03-12 04:20:34;4.11;48;13.50;0;0.00
2022-03-12 04:25:31;4.11;48;13.40;0;0.00
2022-03-12 04:30:32;4.11;47;13.20;0;0.00
2022-03-12 04:35:33;4.11;45;13.30;0;0.00
2022-03-12 04:40:34;4.11;43;13.30;0;0.00
2022-03-12 04:45:31;4.11;41;13.40;0;0.00
2022-03-12 04:50:32;4.11;40;13.30;0;0.00
2022-03-12 04:55:33;4.10;39;13.30;0;0.00
2022-03-12 05:00:34;4.11;39;13.50;0;0.00
2022-03-12 05:05:31;4.10;41;13.50;0;0.00
2022-03-12 05:10:32;4.11;42;13.40;0;0.00
2022-03-12 05:15:33;4.11;44;13.10;0;0.00
2022-03-12 05:20:34;4.10;42;13.00;0;0.00
2022-03-12 05:25:31;4.10;40;13.00;0;0.00
2022-03-12 05:30:32;4.10;40;12.90;0;0.00
2022-03-12 05:35:33;4.10;38;13.00;0;0.00
2022-03-12 05:40:34;4.10;37;13.00;0;0.00
2022-03-12 05:45:31;4.10;36;12.90;0;0.00
2022-03-12 05:50:32;4.10;36;12.70;0;0.00
2022-03-12 05:55:33;4.10;34;12.70;0;0.00
2022-03-12 06:00:34;4.10;32;12.80;0;0.00
2022-03-12 06:05:30;4.10;31;12.90;0;0.00
2022-03-12 06:10:32;4.10;30;12.90;0;0.00
2022-03-12 06:15:33;4.10;29;13.10;0;0.00
2022-03-12 06:20:34;4.10;29;13.10;0;0.00
2022-03-12 06:25:30;4.10;30;13.00;0;0.00
2022-03-12 06:30:31;4.10;29;13.00;0;0.00
2022-03-12 06:35:32;4.10;29;12.90;0;0.00
2022-03-12 06:40:33;4.10;28;12.90;0;0.00
2022-03-12 06:45:30;4.10;28;12.80;0;0.00
2022-03-12 06:50:31;4.10;29;12.70;0;0.00
2022-03-12 06:55:32;4.10;28;12.90;0;0.00
2022-03-12 07:00:33;4.10;28;12.90;0;0.00
2022-03-12 07:05:30;4.10;28;13.00;0;0.00
2022-03-12 07:10:31;4.10;28;13.00;0;0.00
2022-03-12 07:15:32;4.10;28;12.90;0;0.00
2022-03-12 07:20:33;4.10;28;12.90;0;0.00
2022-03-12 07:25:34;4.10;28;13.00;0;0.00
2022-03-12 07:30:30;4.10;27;13.00;0;0.00
2022-03-12 07:35:32;4.10;27;13.20;0;0.00
2022-03-12 07:40:33;4.10;25;13.40;0;0.00
2022-03-12 07:45:34;4.10;25;13.70;0;0.00
2022-03-12 07:50:30;4.10;25;14.00;0;0.00
2022-03-12 07:55:31;4.10;24;15.30;0;0.00
2022-03-12 08:00:33;4.10;46;16.40;0;0.00
2022-03-12 08:05:29;4.10;63;17.10;0;0.00
2022-03-12 08:10:31;4.11;70;17.60;0;0.00
2022-03-12 08:15:32;4.11;73;18.00;0;0.00
2022-03-12 08:20:33;4.11;73;18.20;0;0.00
2022-03-12 08:25:30;4.11;73;18.80;0;0.00
2022-03-12 08:30:32;4.11;73;18.90;0;0.00
2022-03-12 08:35:33;4.12;73;19.00;0;0.00
2022-03-12 08:40:30;4.13;73;19.20;0;0.00
2022-03-12 08:45:32;4.13;75;19.00;0;1.40
2022-03-12 08:50:34;4.13;73;19.20;0;1.20
2022-03-12 08:55:31;4.13;74;19.30;0;1.10
2022-03-12 09:00:33;4.13;74;19.60;0;1.20
2022-03-12 09:05:34;4.14;73;19.80;0;0.00
2022-03-12 09:10:32;4.14;73;20.00;0;1.20
2022-03-12 09:15:34;4.14;73;19.90;0;2.00
2022-03-12 09:20:31;4.14;72;20.10;0;2.00
2022-03-12 09:25:33;4.14;74;20.60;0;2.49
2022-03-12 09:30:31;4.14;74;20.60;0;1.30
2022-03-12 09:35:33;4.15;74;20.70;0;1.40
2022-03-12 09:40:35;4.15;74;20.80;0;2.79
2022-03-12 09:45:33;4.15;74;20.90;0;2.99
2022-03-12 09:50:35;4.15;74;21.20;0;2.00
2022-03-12 09:55:33;4.15;74;21.50;0;2.29
2022-03-12 10:00:35;4.15;76;21.20;0;3.08
2022-03-12 10:05:33;4.15;75;21.40;0;2.09
2022-03-12 10:10:35;4.15;76;21.70;0;3.18
2022-03-12 10:15:33;4.15;75;22.20;0;1.10
2022-03-12 10:20:35;4.15;73;22.50;0;2.00
2022-03-12 10:25:33;4.15;75;22.40;0;1.50
2022-03-12 10:30:31;4.15;76;22.50;0;2.49
2022-03-12 10:35:34;4.15;74;23.00;0;1.50
2022-03-12 10:40:32;4.15;75;23.10;0;1.30
2022-03-12 10:45:35;4.16;73;22.90;0;1.20
2022-03-12 10:50:33;4.15;74;23.30;0;0.00
2022-03-12 10:55:35;4.16;73;23.80;0;1.70
2022-03-12 11:00:33;4.16;75;23.50;0;2.19
2022-03-12 11:05:32;4.16;74;23.70;0;1.10
2022-03-12 11:10:34;4.16;74;23.80;0;1.10
2022-03-12 11:15:33;4.16;77;23.70;0;1.80
2022-03-12 11:20:35;4.16;74;24.30;0;1.80
2022-03-12 11:25:34;4.16;74;24.40;0;1.60
2022-03-12 11:30:32;4.16;75;24.20;0;1.20
2022-03-12 11:35:35;4.16;73;24.90;0;1.80
2022-03-12 11:40:33;4.16;73;24.30;0;1.10
2022-03-12 11:45:32;4.16;72;24.30;0;2.00
2022-03-12 11:50:35;4.16;73;24.40;0;1.70
2022-03-12 11:55:33;4.16;73;24.80;0;1.80
2022-03-12 12:00:32;4.16;74;24.60;0;2.09
2022-03-12 12:05:35;4.16;75;24.70;0;1.50
2022-03-12 12:10:33;4.17;73;25.10;0;2.69
2022-03-12 12:15:36;4.16;71;25.00;0;1.30
2022-03-12 12:20:35;4.16;73;25.20;0;1.40
2022-03-12 12:25:33;4.17;72;24.80;0;1.70
2022-03-12 12:30:32;4.17;71;25.10;0;1.10
2022-03-12 12:35:35;4.17;70;25.40;0;1.60
2022-03-12 12:40:33;4.17;71;26.20;0;0.00
2022-03-12 12:45:32;4.17;72;26.10;0;1.20
2022-03-12 12:50:35;4.17;69;25.90;0;0.00
2022-03-12 12:55:34;4.17;67;26.30;0;0.00
2022-03-12 13:00:33;4.16;72;26.10;0;0.00
2022-03-12 13:05:36;4.17;69;26.00;0;0.00
2022-03-12 13:10:34;4.17;70;25.30;0;1.80
2022-03-12 13:15:33;4.17;67;26.60;0;0.00
2022-03-12 13:20:32;4.17;68;25.70;0;0.00
2022-03-12 13:25:35;4.17;70;26.80;0;1.10
2022-03-12 13:30:34;4.17;69;26.30;0;1.80
2022-03-12 13:35:32;4.17;68;26.60;0;0.00
2022-03-12 13:40:36;4.17;64;26.60;0;0.00
2022-03-12 13:45:34;4.17;66;26.40;0;0.00
2022-03-12 13:50:33;4.17;66;26.10;0;1.40
2022-03-12 13:55:32;4.17;67;27.00;0;1.30
2022-03-12 14:00:36;4.17;65;27.20;0;0.00
2022-03-12 14:05:34;4.17;65;26.80;0;1.10
2022-03-12 14:10:33;4.17;65;26.80;0;1.10
2022-03-12 14:15:32;4.17;65;27.00;0;1.90
2022-03-12 14:20:35;4.18;60;27.30;0;0.00
2022-03-12 14:25:34;4.17;65;27.60;0;0.00
2022-03-12 14:30:33;4.18;63;27.60;0;1.20
2022-03-12 14:35:32;4.17;65;27.50;0;0.00
2022-03-12 14:40:36;4.17;69;26.30;0;0.00
2022-03-12 14:45:35;4.18;67;27.10;0;2.00
2022-03-12 14:50:33;4.18;65;27.90;0;0.00
2022-03-12 14:55:32;4.18;62;28.40;0;0.00
2022-03-12 15:00:36;4.18;63;27.80;0;0.00
2022-03-12 15:05:35;4.17;67;25.60;0;0.00
2022-03-12 15:10:34;4.18;70;26.40;0;1.30
2022-03-12 15:15:32;4.17;67;25.30;0;0.00
2022-03-12 15:20:36;4.18;73;25.60;0;0.00
2022-03-12 15:25:34;4.18;64;28.50;0;0.00
2022-03-12 15:30:33;4.17;66;27.60;0;0.00
2022-03-12 15:35:36;4.18;68;25.80;0;1.10
2022-03-12 15:40:35;4.18;64;28.30;0;0.00
2022-03-12 15:45:34;4.17;63;28.00;0;0.00
2022-03-12 15:50:32;4.17;70;25.20;0;0.00
2022-03-12 15:55:36;4.17;76;24.50;0;0.00
2022-03-12 16:00:34;4.17;76;24.40;0;0.00
2022-03-12 16:05:32;4.17;73;25.20;0;0.00
2022-03-12 16:10:35;4.18;65;26.90;0;0.00
2022-03-12 16:15:34;4.18;63;28.10;0;0.00
2022-03-12 16:20:33;4.18;62;29.30;0;0.00
2022-03-12 16:25:31;4.18;63;28.20;0;1.60
2022-03-12 16:30:35;4.18;66;27.10;0;0.00
2022-03-12 16:35:33;4.18;65;27.50;0;0.00
2022-03-12 16:40:32;4.18;66;27.00;0;0.00
2022-03-12 16:45:36;4.18;61;28.40;0;0.00
2022-03-12 16:50:34;4.18;63;28.50;0;0.00
2022-03-12 16:55:33;4.18;66;28.20;0;0.00
2022-03-12 17:00:32;4.18;70;27.60;0;0.00
2022-03-12 17:05:35;4.18;67;27.30;0;0.00
2022-03-12 17:10:34;4.18;69;25.60;0;0.00
2022-03-12 17:15:33;4.18;69;26.20;0;0.00
2022-03-12 17:20:36;4.18;69;27.60;0;0.00
2022-03-12 17:25:35;4.18;66;27.30;0;0.00
2022-03-12 17:30:33;4.18;66;27.40;0;0.00
2022-03-12 17:35:32;4.18;67;27.30;0;0.00
2022-03-12 17:40:35;4.18;68;26.70;0;0.00
2022-03-12 17:45:34;4.18;67;26.50;0;0.00
2022-03-12 17:50:32;4.17;72;24.90;0;0.00
2022-03-12 17:55:35;4.18;71;26.60;0;0.00
2022-03-12 18:00:34;4.18;70;26.50;0;1.20
2022-03-12 18:05:32;4.18;69;26.20;0;0.00
2022-03-12 18:10:35;4.18;70;26.40;0;0.00
2022-03-12 18:15:33;4.18;68;26.10;0;0.00
2022-03-12 18:20:32;4.18;68;26.40;0;0.00
2022-03-12 18:25:35;4.18;69;26.50;0;0.00
2022-03-12 18:30:33;4.17;70;26.30;0;0.00
2022-03-12 18:35:31;4.17;71;26.10;0;0.00
2022-03-12 18:40:34;4.17;71;25.70;0;0.00
2022-03-12 18:45:32;4.17;73;25.20;0;0.00
2022-03-12 18:50:35;4.17;75;24.90;0;0.00
2022-03-12 18:55:33;4.17;75;24.60;0;0.00
2022-03-12 19:00:32;4.17;77;24.20;0;0.00
2022-03-12 19:05:34;4.17;77;23.70;0;0.00
2022-03-12 19:10:32;4.16;78;23.10;0;0.00
2022-03-12 19:15:35;4.16;79;22.50;0;0.00
2022-03-12 19:20:33;4.16;80;21.90;0;0.00
2022-03-12 19:25:35;4.16;81;21.30;0;0.00
2022-03-12 19:30:33;4.16;81;21.00;0;0.00
2022-03-12 19:35:35;4.16;81;20.70;0;0.00
2022-03-12 19:40:33;4.16;81;20.40;0;0.00
2022-03-12 19:45:30;4.15;81;20.30;0;0.00
2022-03-12 19:50:32;4.15;81;20.00;0;0.00
2022-03-12 19:55:34;4.15;81;19.80;0;0.00
2022-03-12 20:00:32;4.15;81;19.40;0;0.00
2022-03-12 20:05:34;4.15;80;19.20;0;0.00
2022-03-12 20:10:31;4.15;80;19.00;0;0.00
2022-03-12 20:15:33;4.15;80;18.70;0;0.00
2022-03-12 20:20:35;4.15;79;18.40;0;0.00
2022-03-12 20:25:32;4.14;78;18.20;0;0.00
2022-03-12 20:30:34;4.14;77;18.00;0;0.00
2022-03-12 20:35:31;4.14;76;17.90;0;0.00
2022-03-12 20:40:33;4.14;76;17.90;0;0.00
2022-03-12 20:45:34;4.14;76;17.80;0;0.00
2022-03-12 20:50:32;4.13;76;17.80;0;0.00
2022-03-12 20:55:33;4.14;76;17.70;0;0.00
2022-03-12 21:00:30;4.14;76;17.80;0;0.00
2022-03-12 21:05:32;4.14;76;17.80;0;0.00
2022-03-12 21:10:34;4.14;76;17.90;0;0.00
2022-03-12 21:15:31;4.13;77;17.90;0;0.00
2022-03-12 21:20:32;4.13;77;18.10;0;0.00
2022-03-12 21:25:34;4.13;77;18.00;0;0.00
2022-03-12 21:30:31;4.13;77;17.70;0;0.00
2022-03-12 21:35:32;4.13;77;17.40;0;0.00
2022-03-12 21:40:34;4.13;77;17.30;0;0.00
2022-03-12 21:45:31;4.13;77;17.10;0;0.00
2022-03-12 21:50:32;4.13;76;17.30;0;0.00
2022-03-12 21:55:34;4.13;77;17.70;0;0.00
2022-03-12 22:00:31;4.13;77;17.70;0;0.00
2022-03-12 22:05:33;4.13;77;17.40;0;0.00
2022-03-12 22:10:34;4.13;77;17.30;0;0.00
2022-03-12 22:15:31;4.13;77;17.40;0;0.00
2022-03-12 22:20:33;4.13;77;17.40;0;0.00
2022-03-12 22:25:34;4.13;77;17.40;0;0.00
2022-03-12 22:30:31;4.13;77;17.10;0;0.00
2022-03-12 22:35:33;4.13;77;16.90;0;0.00
2022-03-12 22:40:34;4.13;76;16.80;0;0.00
2022-03-12 22:45:31;4.13;77;16.80;0;0.00
2022-03-12 22:50:32;4.13;77;17.00;0;0.00
2022-03-12 22:55:34;4.13;77;17.10;0;0.00
2022-03-12 23:00:31;4.13;77;17.30;0;0.00
2022-03-12 23:05:32;4.13;77;17.40;0;0.00
2022-03-12 23:10:34;4.13;77;17.50;0;0.00
2022-03-12 23:15:31;4.13;77;17.60;0;0.00
2022-03-12 23:20:32;4.13;77;17.60;0;0.00
2022-03-12 23:25:34;4.13;77;17.40;0;0.00
2022-03-12 23:30:31;4.13;77;17.00;0;0.00
2022-03-12 23:35:32;4.13;77;16.60;0;0.00
2022-03-12 23:40:29;4.13;76;16.10;0;0.00
2022-03-12 23:45:31;4.13;73;16.00;0;0.00
2022-03-12 23:50:32;4.13;69;16.10;0;0.00
2022-03-12 23:55:33;4.13;68;16.20;0;0.00
