2022-03-18 00:00:32;4.12;68;21.70;0;0.00
2022-03-18 00:05:30;4.12;70;22.10;0;0.00
2022-03-18 00:10:32;4.12;70;22.30;0;0.00
2022-03-18 00:15:30;4.12;71;22.30;0;0.00
2022-03-18 00:20:32;4.12;70;22.20;0;0.00
2022-03-18 00:25:34;4.12;70;22.00;0;0.00
2022-03-18 00:30:32;4.12;70;21.90;0;0.00
2022-03-18 00:35:34;4.12;69;21.80;0;0.00
2022-03-18 00:40:32;4.12;70;22.00;0;0.00
2022-03-18 00:45:34;4.12;70;22.00;0;0.00
2022-03-18 00:50:32;4.12;69;21.60;0;0.00
2022-03-18 00:55:34;4.11;66;21.30;0;0.00
2022-03-18 01:00:31;4.12;64;21.30;0;0.00
2022-03-18 01:05:33;4.11;63;21.30;0;0.00
2022-03-18 01:10:31;4.12;61;21.10;0;0.00
2022-03-18 01:15:33;4.12;59;21.20;0;0.00
2022-03-18 01:20:31;4.12;59;21.30;0;0.00
2022-03-18 01:25:33;4.11;61;21.60;0;0.00
2022-03-18 01:30:35;4.11;63;21.80;0;0.00
2022-03-18 01:35:33;4.11;64;22.10;0;0.00
2022-03-18 01:40:35;4.11;66;22.20;0;0.00
2022-03-18 01:45:33;4.11;66;22.40;0;0.00
2022-03-18 01:50:35;4.11;66;22.40;0;0.00
2022-03-18 01:55:32;4.12;66;22.40;0;0.00
2022-03-18 02:00:35;4.12;66;22.30;0;0.00
2022-03-18 02:05:32;4.12;66;22.30;0;0.00
2022-03-18 02:10:35;4.12;66;22.30;0;0.00
2022-03-18 02:15:32;4.11;65;22.10;0;0.00
2022-03-18 02:20:35;4.11;66;22.30;0;0.00
2022-03-18 02:25:32;4.11;66;22.40;0;0.00
2022-03-18 02:30:35;4.11;66;22.50;0;0.00
2022-03-18 02:35:32;4.12;66;22.40;0;0.00
2022-03-18 02:40:35;4.11;66;22.30;0;0.00
2022-03-18 02:45:32;4.11;66;22.30;0;0.00
2022-03-18 02:50:35;4.11;65;22.30;0;0.00
2022-03-18 02:55:32;4.11;65;22.20;0;0.00
2022-03-18 03:00:35;4.11;66;22.30;0;0.00
2022-03-18 03:05:32;4.11;66;22.30;0;0.00
2022-03-18 03:10:30;4.12;65;22.20;0;0.00
2022-03-18 03:15:32;4.12;64;22.00;0;0.00
2022-03-18 03:20:35;4.11;64;22.00;0;0.00
2022-03-18 03:25:32;4.11;64;22.10;0;0.00
2022-03-18 03:30:34;4.11;63;22.00;0;0.00
2022-03-18 03:35:32;4.11;62;22.00;0;0.00
2022-03-18 03:40:34;4.11;61;22.00;0;0.00
2022-03-18 03:45:32;4.11;59;21.90;0;0.00
2022-03-18 03:50:34;4.11;59;22.00;0;0.00
2022-03-18 03:55:32;4.11;60;22.00;0;0.00
2022-03-18 04:00:34;4.11;61;22.10;0;0.00
2022-03-18 04:05:32;4.11;62;22.20;0;0.00
2022-03-18 04:10:34;4.11;61;22.20;0;0.00
2022-03-18 04:15:32;4.11;61;22.30;0;1.10
2022-03-18 04:20:34;4.11;63;22.40;0;1.60
2022-03-18 04:25:32;4.11;69;22.90;0;1.80
2022-03-18 04:30:34;4.11;70;22.90;0;2.59
2022-03-18 04:35:32;4.11;70;22.70;0;1.80
2022-03-18 04:40:34;4.11;70;22.50;0;2.19
2022-03-18 04:45:32;4.11;70;22.30;0;3.08
2022-03-18 04:50:34;4.11;69;21.70;0;2.29
2022-03-18 04:55:32;4.11;66;21.40;0;3.18
2022-03-18 05:00:34;4.11;65;21.30;0;5.16
2022-03-18 05:05:32;4.11;65;21.00;0;5.06
2022-03-18 05:10:34;4.11;66;20.70;0;4.67
2022-03-18 05:15:32;4.11;71;20.40;0;5.36
2022-03-18 05:20:34;4.11;73;20.10;0;6.94
2022-03-18 05:25:32;4.11;72;19.60;0;5.26
2022-03-18 05:30:34;4.11;72;19.40;0;9.52
2022-03-18 05:35:31;4.11;73;19.40;0;7.24
2022-03-18 05:40:33;4.11;72;19.00;0;4.37
2022-03-18 05:45:31;4.10;72;18.60;0;5.46
2022-03-18 05:50:33;4.10;72;17.80;0;6.65
2022-03-18 05:55:34;4.10;71;17.50;0;7.83
2022-03-18 06:00:32;4.10;71;17.30;0;4.77
2022-03-18 06:05:34;4.10;71;17.10;0;5.46
2022-03-18 06:10:31;4.10;71;17.20;0;4.37
2022-03-18 06:15:32;4.10;72;17.30;0;3.48
2022-03-18 06:20:34;4.10;73;17.40;0;5.86
2022-03-18 06:25:31;4.09;74;17.40;0;4.96
2022-03-18 06:30:33;4.09;74;17.40;0;4.57
2022-03-18 06:35:35;4.09;74;17.30;0;3.18
2022-03-18 06:40:32;4.10;74;17.30;0;4.96
2022-03-18 06:45:34;4.09;74;17.20;0;4.47
2022-03-18 06:50:31;4.09;74;17.20;0;4.07
2022-03-18 06:55:32;4.09;74;17.20;0;6.25
2022-03-18 07:00:34;4.09;74;17.30;0;4.87
2022-03-18 07:05:31;4.09;74;17.20;0;3.08
2022-03-18 07:10:33;4.09;74;17.30;0;4.27
2022-03-18 07:15:30;4.09;74;17.20;0;3.48
2022-03-18 07:20:32;4.09;74;17.30;0;3.48
2022-03-18 07:25:33;4.09;74;17.40;0;5.46
2022-03-18 07:30:30;4.09;75;17.30;0;4.47
2022-03-18 07:35:32;4.09;74;17.40;0;3.97
2022-03-18 07:40:34;4.09;75;17.40;0;5.06
2022-03-18 07:45:31;4.09;75;17.40;0;3.68
2022-03-18 07:50:33;4.09;75;17.30;0;4.57
2022-03-18 07:55:34;4.09;75;17.20;0;3.38
2022-03-18 08:00:31;4.09;75;17.30;0;3.58
2022-03-18 08:05:33;4.09;75;17.20;0;3.88
2022-03-18 08:10:30;4.09;75;17.20;0;2.99
2022-03-18 08:15:32;4.09;73;16.90;0;5.36
2022-03-18 08:20:32;4.09;68;16.50;1;2.19
2022-03-18 08:25:29;4.09;64;16.40;1;6.85
2022-03-18 08:30:31;4.09;62;16.40;1;4.27
2022-03-18 08:35:31;4.09;59;16.30;2;2.89
2022-03-18 08:40:32;4.09;57;16.30;2;4.07
2022-03-18 08:45:34;4.09;56;16.40;2;4.57
2022-03-18 08:50:31;4.09;57;16.40;2;4.07
2022-03-18 08:55:28;4.08;50;16.20;4;2.39
2022-03-18 09:00:31;4.08;40;16.00;7;2.00
2022-03-18 09:05:32;4.09;24;15.90;8;2.09
2022-03-18 09:10:30;4.09;12;16.00;9;2.09
2022-03-18 09:15:31;4.09;4;16.10;10;3.08
2022-03-18 09:20:33;4.09;99;16.20;10;2.49
2022-03-18 09:25:34;4.09;99;16.20;10;0.00
2022-03-18 09:30:31;4.09;99;16.20;10;1.10
2022-03-18 09:35:33;4.09;99;16.30;10;0.00
2022-03-18 09:40:30;4.09;99;16.30;10;0.00
2022-03-18 09:45:32;4.09;99;16.30;10;0.00
2022-03-18 09:50:33;4.09;99;16.40;10;0.00
2022-03-18 09:55:30;4.10;99;16.60;10;0.00
2022-03-18 10:00:28;4.10;99;16.60;11;0.00
2022-03-18 10:05:35;4.10;99;16.60;11;0.00
2022-03-18 10:10:32;4.10;99;16.50;11;0.00
2022-03-18 10:15:33;4.09;99;16.60;11;0.00
2022-03-18 10:20:30;4.09;99;16.70;11;0.00
2022-03-18 10:25:32;4.10;99;16.70;11;0.00
2022-03-18 10:30:34;4.10;99;16.80;11;0.00
2022-03-18 10:35:31;4.10;99;16.80;11;0.00
2022-03-18 10:40:32;4.10;99;17.20;11;0.00
2022-03-18 10:45:29;4.10;99;17.00;11;0.00
2022-03-18 10:50:31;4.10;99;17.00;12;0.00
2022-03-18 10:55:32;4.10;99;16.80;12;0.00
2022-03-18 11:00:34;4.10;99;16.80;12;0.00
2022-03-18 11:05:31;4.10;99;16.70;12;0.00
2022-03-18 11:10:33;4.10;99;16.70;12;0.00
2022-03-18 11:15:34;4.10;99;16.80;13;0.00
2022-03-18 11:20:31;4.10;99;16.60;13;0.00
2022-03-18 11:25:32;4.10;99;16.70;13;0.00
2022-03-18 11:30:34;4.10;99;16.50;14;2.00
2022-03-18 11:35:31;4.11;99;16.50;14;1.20
2022-03-18 11:40:32;4.11;99;16.50;14;1.10
2022-03-18 11:45:34;4.10;99;16.60;14;0.00
2022-03-18 11:50:31;4.10;99;16.60;14;0.00
2022-03-18 11:55:33;4.10;99;16.70;15;0.00
2022-03-18 12:00:34;4.10;99;16.80;15;1.90
2022-03-18 12:05:31;4.11;99;16.80;15;1.50
2022-03-18 12:10:33;4.11;99;16.90;15;1.40
2022-03-18 12:15:35;4.11;99;16.90;15;2.59
2022-03-18 12:20:32;4.11;99;16.90;15;1.80
2022-03-18 12:25:33;4.10;99;17.10;15;0.00
2022-03-18 12:30:31;4.11;99;16.90;15;0.00
2022-03-18 12:35:32;4.11;99;16.90;15;0.00
2022-03-18 12:40:34;4.11;99;17.10;15;1.90
2022-03-18 12:45:31;4.11;99;17.40;15;0.00
2022-03-18 12:50:33;4.12;99;17.60;15;1.90
2022-03-18 12:55:35;4.13;99;17.70;15;1.80
2022-03-18 13:00:32;4.11;99;17.40;15;2.39
2022-03-18 13:05:34;4.11;99;17.20;15;0.00
2022-03-18 13:10:31;4.11;99;17.30;15;2.09
2022-03-18 13:15:33;4.12;99;17.80;15;1.70
2022-03-18 13:20:35;4.12;99;18.10;15;1.10
2022-03-18 13:25:32;4.11;99;18.10;15;2.09
2022-03-18 13:30:34;4.12;99;18.40;15;1.60
2022-03-18 13:35:31;4.13;26;18.90;15;1.40
2022-03-18 13:40:33;4.13;39;19.60;15;1.90
2022-03-18 13:45:35;4.12;51;19.40;15;1.60
2022-03-18 13:50:32;4.12;51;19.30;15;1.10
2022-03-18 13:55:34;4.11;52;19.40;15;0.00
2022-03-18 14:00:32;4.12;51;19.00;15;1.30
2022-03-18 14:05:34;4.12;51;19.40;15;0.00
2022-03-18 14:10:31;4.12;53;19.40;15;1.60
2022-03-18 14:15:34;4.14;53;20.20;15;1.30
2022-03-18 14:20:31;4.14;59;20.50;15;3.48
2022-03-18 14:25:33;4.13;61;20.30;15;0.00
2022-03-18 14:30:31;4.14;64;20.90;15;2.79
2022-03-18 14:35:33;4.13;64;20.90;15;2.39
2022-03-18 14:40:35;4.14;65;21.10;15;3.08
2022-03-18 14:45:33;4.14;65;20.60;15;1.90
2022-03-18 14:50:35;4.13;65;20.60;15;2.19
2022-03-18 14:55:33;4.13;66;20.20;15;2.09
2022-03-18 15:00:35;4.13;66;20.10;15;2.39
2022-03-18 15:05:33;4.13;66;20.70;15;2.19
2022-03-18 15:10:35;4.14;65;21.20;15;0.00
2022-03-18 15:15:33;4.13;65;20.80;15;2.59
2022-03-18 15:20:35;4.13;65;19.50;15;2.69
2022-03-18 15:25:33;4.12;64;19.00;15;1.80
2022-03-18 15:30:35;4.12;63;18.80;15;2.89
2022-03-18 15:35:32;4.12;63;18.70;15;2.00
2022-03-18 15:40:35;4.12;63;18.70;15;2.59
2022-03-18 15:45:32;4.12;62;18.70;15;2.19
2022-03-18 15:50:34;4.12;62;18.90;15;1.50
2022-03-18 15:55:31;4.12;63;19.10;15;0.00
2022-03-18 16:00:33;4.13;63;19.30;15;0.00
2022-03-18 16:05:31;4.13;63;19.60;15;1.50
2022-03-18 16:10:33;4.12;64;19.70;15;1.40
2022-03-18 16:15:35;4.13;64;19.80;15;1.50
2022-03-18 16:20:32;4.13;63;20.00;15;1.20
2022-03-18 16:25:34;4.12;64;19.60;15;3.18
2022-03-18 16:30:32;4.13;64;19.30;15;2.09
2022-03-18 16:35:34;4.13;64;19.30;15;2.49
2022-03-18 16:40:32;4.12;64;19.20;15;1.50
2022-03-18 16:45:34;4.12;65;19.00;15;2.99
2022-03-18 16:50:31;4.12;64;19.00;15;1.20
2022-03-18 16:55:33;4.13;65;19.00;15;2.09
2022-03-18 17:00:35;4.12;65;19.00;15;2.19
2022-03-18 17:05:33;4.12;64;19.20;15;1.80
2022-03-18 17:10:35;4.12;65;19.30;15;2.69
2022-03-18 17:15:32;4.12;65;19.10;15;2.29
2022-03-18 17:20:34;4.12;65;19.10;15;1.60
2022-03-18 17:25:31;4.12;65;19.20;15;3.08
2022-03-18 17:30:33;4.12;65;19.20;15;1.90
2022-03-18 17:35:31;4.12;65;19.20;15;1.60
2022-03-18 17:40:33;4.13;66;19.20;15;1.60
2022-03-18 17:45:30;4.13;66;19.20;15;1.90
2022-03-18 17:50:32;4.12;66;19.00;15;1.60
2022-03-18 17:55:34;4.12;65;18.80;15;1.70
2022-03-18 18:00:32;4.12;65;18.70;15;0.00
2022-03-18 18:05:34;4.12;66;18.50;15;2.19
2022-03-18 18:10:31;4.12;66;18.40;15;2.29
2022-03-18 18:15:33;4.11;65;18.30;15;2.99
2022-03-18 18:20:35;4.12;65;18.20;15;2.19
2022-03-18 18:25:32;4.11;64;18.20;15;0.00
2022-03-18 18:30:34;4.11;64;18.20;15;0.00
2022-03-18 18:35:31;4.11;63;18.10;15;0.00
2022-03-18 18:40:33;4.11;63;18.10;15;1.10
2022-03-18 18:45:30;4.11;63;18.10;15;1.40
2022-03-18 18:50:32;4.11;64;18.00;15;0.00
2022-03-18 18:55:30;4.11;64;18.00;15;0.00
2022-03-18 19:00:31;4.11;64;17.90;15;1.10
2022-03-18 19:05:33;4.11;64;17.80;15;1.40
2022-03-18 19:10:30;4.11;64;17.80;15;1.10
2022-03-18 19:15:32;4.11;64;17.70;15;1.70
2022-03-18 19:20:34;4.11;63;17.70;15;1.50
2022-03-18 19:25:31;4.10;63;17.60;15;0.00
2022-03-18 19:30:33;4.10;62;17.60;15;1.10
2022-03-18 19:35:34;4.10;62;17.50;15;1.60
2022-03-18 19:40:32;4.10;61;17.40;15;0.00
2022-03-18 19:45:33;4.10;60;17.10;15;0.00
2022-03-18 19:50:30;4.10;58;16.90;15;0.00
2022-03-18 19:55:32;4.10;55;16.60;15;1.10
2022-03-18 20:00:34;4.10;52;16.40;15;1.40
2022-03-18 20:05:31;4.10;49;16.30;15;0.00
2022-03-18 20:10:32;4.10;46;16.10;15;1.20
2022-03-18 20:15:34;4.10;44;16.10;15;0.00
2022-03-18 20:20:31;4.10;42;16.00;15;0.00
2022-03-18 20:25:32;4.10;40;15.80;15;0.00
2022-03-18 20:30:34;4.10;39;15.80;15;0.00
2022-03-18 20:35:31;4.09;37;15.60;15;0.00
2022-03-18 20:40:32;4.09;35;15.50;15;0.00
2022-03-18 20:45:33;4.09;33;15.40;15;0.00
2022-03-18 20:50:30;4.09;31;15.40;15;0.00
2022-03-18 20:55:32;4.09;30;15.30;15;0.00
2022-03-18 21:00:33;4.09;29;15.20;15;0.00
2022-03-18 21:05:34;4.09;27;15.10;15;0.00
2022-03-18 21:10:31;4.09;26;14.90;15;0.00
2022-03-18 21:15:33;4.09;24;14.80;15;0.00
2022-03-18 21:20:29;4.09;22;14.60;15;0.00
2022-03-18 21:25:31;4.09;20;14.40;15;0.00
2022-03-18 21:30:32;4.09;16;14.30;15;0.00
2022-03-18 21:35:33;4.08;13;14.30;15;0.00
2022-03-18 21:40:30;4.09;10;14.30;15;0.00
2022-03-18 21:45:31;4.09;7;14.30;15;0.00
2022-03-18 21:50:33;4.08;6;14.30;15;0.00
2022-03-18 21:55:34;4.08;6;14.30;15;0.00
2022-03-18 22:00:30;4.09;7;14.20;15;0.00
2022-03-18 22:05:32;4.09;8;14.10;15;0.00
2022-03-18 22:10:33;4.08;8;14.00;15;0.00
2022-03-18 22:15:34;4.08;8;13.80;15;0.00
2022-03-18 22:20:31;4.08;8;13.70;15;0.00
2022-03-18 22:25:32;4.08;7;13.50;15;0.00
2022-03-18 22:30:33;4.08;6;13.40;15;0.00
2022-03-18 22:35:30;4.08;5;13.30;15;0.00
2022-03-18 22:40:31;4.08;3;13.20;15;0.00
2022-03-18 22:45:32;4.08;3;13.10;15;0.00
2022-03-18 22:50:33;4.08;4;12.90;15;0.00
2022-03-18 22:55:30;4.08;2;12.80;15;0.00
2022-03-18 23:00:31;4.08;1;12.70;15;0.00
2022-03-18 23:05:32;4.07;2;12.50;15;0.00
2022-03-18 23:10:33;4.07;1;12.40;15;0.00
2022-03-18 23:15:30;4.07;0;12.40;15;0.00
2022-03-18 23:20:31;4.08;99;12.40;15;0.00
2022-03-18 23:25:32;4.08;99;12.30;15;0.00
2022-03-18 23:30:33;4.07;99;12.30;15;0.00
2022-03-18 23:35:29;4.07;99;12.30;15;0.00
2022-03-18 23:40:30;4.07;99;12.20;15;0.00
2022-03-18 23:45:31;4.07;99;12.10;15;0.00
2022-03-18 23:50:32;4.07;99;12.10;15;0.00
2022-03-18 23:55:33;4.07;99;12.00;15;0.00
