2023-02-27 00:03:41;4.05;79.11
2023-02-27 00:18:42;4.05;78.79
2023-02-27 00:33:38;4.04;78.79
2023-02-27 00:48:39;4.04;78.79
2023-02-27 01:03:41;4.05;78.79
2023-02-27 01:18:42;4.05;79.11
2023-02-27 01:33:38;4.05;78.79
2023-02-27 01:48:40;4.04;78.79
2023-02-27 02:03:41;4.05;79.11
2023-02-27 02:18:43;4.04;78.79
2023-02-27 02:33:39;4.04;78.79
2023-02-27 02:48:40;4.04;78.79
2023-02-27 03:03:41;4.04;78.79
2023-02-27 03:18:37;4.04;79.11
2023-02-27 03:33:44;4.04;78.63
2023-02-27 03:48:40;4.04;79.11
2023-02-27 04:03:41;4.04;78.79
2023-02-27 04:18:42;4.04;78.79
2023-02-27 04:33:38;4.04;79.11
2023-02-27 04:48:39;4.04;78.63
2023-02-27 05:03:40;4.04;79.11
2023-02-27 05:18:41;4.04;78.79
2023-02-27 05:33:42;4.04;78.79
2023-02-27 05:48:38;4.04;78.63
2023-02-27 06:03:38;4.04;78.79
2023-02-27 06:18:39;4.04;78.63
2023-02-27 06:33:40;4.04;78.79
2023-02-27 06:48:41;4.04;78.63
2023-02-27 07:03:41;4.04;78.63
2023-02-27 07:18:37;4.04;78.79
2023-02-27 07:33:43;4.04;78.79
2023-02-27 07:48:38;4.04;78.63
2023-02-27 08:03:39;4.04;78.63
2023-02-27 08:18:39;4.04;78.79
2023-02-27 08:33:40;4.04;78.63
2023-02-27 08:48:40;4.04;78.63
2023-02-27 09:03:41;4.04;78.63
2023-02-27 09:18:42;4.04;78.79
2023-02-27 09:33:37;4.04;78.63
2023-02-27 09:48:38;4.04;78.31
2023-02-27 10:03:39;4.04;78.31
2023-02-27 10:18:40;4.04;78.63
2023-02-27 10:33:40;4.04;78.63
2023-02-27 10:48:41;4.04;78.31
2023-02-27 11:03:42;4.04;78.31
2023-02-27 11:18:37;4.04;78.63
2023-02-27 11:33:42;4.04;78.31
2023-02-27 11:48:36;4.04;78.31
2023-02-27 12:03:41;4.04;78.63
2023-02-27 12:18:40;4.04;78.31
2023-02-27 12:33:39;4.04;78.31
2023-02-27 12:48:38;4.04;77.99
2023-02-27 13:03:37;4.04;78.31
2023-02-27 13:18:41;4.04;78.31
2023-02-27 13:33:40;4.04;78.31
2023-02-27 13:48:39;4.04;77.99
2023-02-27 14:03:38;4.04;77.99
2023-02-27 14:18:36;4.04;77.99
2023-02-27 14:33:41;4.04;77.66
2023-02-27 14:48:40;4.04;77.99
2023-02-27 15:03:39;4.04;78.31
2023-02-27 15:18:38;4.04;78.31
2023-02-27 15:33:36;4.04;78.31
2023-02-27 15:48:40;4.04;78.31
2023-02-27 16:04:41;4.04;78.31
2023-02-27 16:18:21;4.04;77.99
2023-02-27 16:33:47;4.04;77.99
2023-02-27 16:48:36;4.03;77.99
2023-02-27 17:03:41;4.04;77.99
2023-02-27 17:18:40;4.04;77.99
2023-02-27 17:33:40;4.03;77.99
2023-02-27 17:48:39;4.03;77.99
2023-02-27 18:03:39;4.04;78.31
#EQ7-NFv2;2023-02-27 18:24:43;4.03;0.00
2023-02-27 18:33:27;4.04;83.30
#EQ7-NFv2;2023-02-27 18:49:17;4.03;80.72
2023-02-27 19:10:40;4.03;47.53
2023-02-27 19:19:16;4.10;101.83
2023-02-27 19:33:28;4.10;101.35
2023-02-27 19:48:44;4.11;101.35
2023-02-27 20:03:39;4.13;101.35
2023-02-27 20:18:40;4.13;101.35
2023-02-27 20:33:40;4.13;101.67
2023-02-27 20:48:41;4.13;101.03
2023-02-27 21:03:42;4.13;101.35
2023-02-27 21:18:37;4.14;101.35
2023-02-27 21:33:43;4.14;101.35
2023-02-27 21:48:39;4.15;101.03
2023-02-27 22:03:40;4.16;101.03
2023-02-27 22:18:40;4.15;101.35
2023-02-27 22:33:41;4.16;101.03
2023-02-27 22:48:37;4.15;101.67
2023-02-27 23:03:43;4.16;101.35
2023-02-27 23:18:39;4.16;101.03
2023-02-27 23:33:39;4.16;100.70
2023-02-27 23:48:40;4.16;100.70