2023-02-24 00:03:37;4.10;80.72
2023-02-24 00:18:37;4.10;80.56
2023-02-24 00:33:42;4.10;80.56
2023-02-24 00:48:37;4.10;80.72
2023-02-24 01:03:42;4.10;80.72
2023-02-24 01:18:36;4.10;80.72
2023-02-24 01:33:41;4.10;80.72
2023-02-24 01:48:41;4.10;80.72
2023-02-24 02:03:40;4.10;80.56
2023-02-24 02:18:40;4.10;80.56
2023-02-24 02:33:40;4.10;80.56
2023-02-24 02:48:39;4.10;80.56
2023-02-24 03:03:39;4.10;80.72
2023-02-24 03:18:38;4.10;80.72
2023-02-24 03:33:38;4.10;81.05
2023-02-24 03:48:37;4.10;80.72
2023-02-24 04:03:42;4.10;80.72
2023-02-24 04:18:36;4.10;80.72
2023-02-24 04:33:41;4.10;80.72
2023-02-24 04:48:41;4.10;80.72
2023-02-24 05:03:41;4.10;80.56
2023-02-24 05:18:40;4.10;81.05
2023-02-24 05:33:40;4.10;80.72
2023-02-24 05:48:39;4.10;80.56
2023-02-24 06:03:38;4.10;80.72
2023-02-24 06:18:38;4.09;80.72
2023-02-24 06:33:37;4.09;80.72
2023-02-24 06:48:41;4.10;80.72
2023-02-24 07:03:41;4.09;80.72
2023-02-24 07:18:40;4.09;80.56
2023-02-24 07:33:39;4.09;80.56
2023-02-24 07:48:39;4.09;80.56
2023-02-24 08:03:38;4.09;80.56
2023-02-24 08:18:38;4.09;80.72
2023-02-24 08:33:37;4.09;80.56
2023-02-24 08:48:37;4.09;80.56
2023-02-24 09:03:42;4.09;80.56
2023-02-24 09:18:37;4.09;80.72
2023-02-24 09:33:42;4.09;80.72
2023-02-24 09:48:36;4.09;80.72
2023-02-24 10:03:41;4.09;80.72
2023-02-24 10:18:41;4.09;80.72
2023-02-24 10:33:41;4.09;81.05
2023-02-24 10:48:41;4.09;80.56
2023-02-24 11:03:41;4.09;80.72
2023-02-24 11:18:41;4.09;80.72
2023-02-24 11:33:41;4.09;80.72
2023-02-24 11:48:41;4.09;80.56
2023-02-24 12:03:41;4.09;81.05
2023-02-24 12:18:41;4.09;80.72
2023-02-24 12:33:36;4.09;80.72
2023-02-24 12:48:42;4.09;80.72
2023-02-24 13:03:37;4.09;80.72
2023-02-24 13:18:42;4.09;80.72
2023-02-24 13:33:37;4.09;81.05
2023-02-24 13:48:43;4.09;81.05
2023-02-24 14:03:38;4.09;81.05
2023-02-24 14:18:38;4.09;81.05
2023-02-24 14:33:39;4.09;81.05
2023-02-24 14:48:39;4.09;81.05
2023-02-24 15:03:40;4.09;81.05
2023-02-24 15:18:41;4.09;80.72
2023-02-24 15:33:41;4.09;81.37
2023-02-24 15:48:42;4.09;81.05
2023-02-24 16:03:37;4.09;81.37
2023-02-24 16:18:43;4.09;80.72
2023-02-24 16:33:38;4.09;80.72
2023-02-24 16:48:39;4.09;80.72
2023-02-24 17:03:40;4.09;80.72
2023-02-24 17:18:40;4.08;80.56
2023-02-24 17:33:41;4.09;81.05
2023-02-24 17:48:41;4.08;80.72
2023-02-24 18:03:42;4.08;80.56
2023-02-24 18:18:37;4.08;80.56
2023-02-24 18:33:43;4.08;80.56
2023-02-24 18:48:39;4.08;80.56
2023-02-24 19:03:39;4.08;80.24
2023-02-24 19:18:40;4.08;80.24
2023-02-24 19:33:41;4.08;80.24
2023-02-24 19:48:42;4.08;80.56
2023-02-24 20:03:37;4.08;80.56
2023-02-24 20:18:43;4.08;80.56
2023-02-24 20:33:39;4.08;80.24
2023-02-24 20:48:40;4.08;80.24
2023-02-24 21:03:40;4.08;80.56
2023-02-24 21:18:41;4.08;80.72
2023-02-24 21:33:42;4.08;80.56
2023-02-24 21:48:37;4.08;80.56
2023-02-24 22:03:43;4.08;80.72
2023-02-24 22:18:39;4.08;80.56
2023-02-24 22:33:39;4.08;80.72
2023-02-24 22:48:40;4.08;80.56
2023-02-24 23:03:41;4.08;79.92
2023-02-24 23:18:41;4.08;80.72
2023-02-24 23:33:42;4.08;80.56
2023-02-24 23:48:37;4.08;80.56
