date,avg
2020-11-17 00:03:48,2.895431930124205
2020-11-17 00:33:45,2.9303488286331785
2020-11-17 01:03:47,2.9650659316432124
2020-11-17 01:33:48,2.9995047057880875
2020-11-17 02:03:44,3.033855017559326
2020-11-17 02:33:45,3.0680004228089626
2020-11-17 03:03:45,3.101959339900528
2020-11-17 03:33:45,3.13573172397677
2020-11-17 04:03:45,3.1693180250461905
2020-11-17 04:33:45,3.2027007154155203
2020-11-17 05:03:44,3.2359000629911505
2020-11-17 05:33:43,3.2689181314896905
2020-11-17 06:03:42,3.301829845250259
2020-11-17 06:33:45,3.3345274640116918
2020-11-17 07:03:46,3.3670857002859735
2020-11-17 07:33:49,3.399398591244519
2020-11-17 08:03:48,3.4315761927027975
2020-11-17 08:33:49,3.463602040833004
2020-11-17 09:03:51,3.495477552704269
2020-11-17 09:33:54,3.5271338951979656
2020-11-17 10:03:54,3.558625791721791
2020-11-17 10:33:54,3.5899894781020594
2020-11-17 11:03:56,3.6211222963944976
2020-11-17 11:33:54,3.6521814371703165
2020-11-17 12:03:57,3.6830132200072585
2020-11-17 12:33:56,3.713688234394115
2020-11-17 13:03:55,3.744292655192015
2020-11-17 13:33:59,3.7495699507213702
2020-11-17 13:39:11,3.7738165752071824
2020-11-17 14:03:08,3.8049895870256885
2020-11-17 14:34:04,3.834918941215477
2020-11-17 15:03:55,3.924382751206239
2020-11-17 16:34:02,3.983135316620193
2020-11-17 17:33:57,4.012304510562984
2020-11-17 18:03:55,4.041315505094539
2020-11-17 18:33:52,4.070233587079427
2020-11-17 19:03:52,4.099010994262824
2020-11-17 19:33:52,4.127616601208483
2020-11-17 20:03:50,4.156130301498175
2020-11-17 20:33:51,4.212645498036199
2020-11-17 21:33:47,4.240772394061004
2020-11-17 22:03:50,4.268697239946605
2020-11-17 22:33:49,4.296482117730249
2020-11-17 23:03:48,4.324111073998184
2020-11-17 23:33:46,4.351659771946059
2020-11-18 00:03:48,4.406281923698011
2020-11-18 01:03:49,4.433323353699719
2020-11-18 01:33:46,4.460308332194013
2020-11-18 02:03:49,4.487055676992664
2020-11-18 02:33:46,4.513727423862549
2020-11-18 03:03:48,4.540188158923029
2020-11-18 03:33:46,4.566553235748164
2020-11-18 04:03:48,4.592702898091115
2020-11-18 04:33:46,4.618750378827157
2020-11-18 05:03:48,4.695803112338846
2020-11-18 06:33:48,4.721120473494825
2020-11-18 07:03:47,4.7463041586925865
2020-11-18 07:33:50,4.771230647871832
2020-11-18 08:03:49,4.795953931484024
2020-11-18 08:33:49,4.8204390232007
2020-11-18 09:03:49,4.844657801664378
2020-11-18 09:33:49,4.868585949299915
2020-11-18 10:03:50,4.892172920598344
2020-11-18 10:33:52,4.915300936543239
2020-11-18 11:03:51,4.9379605852357225
2020-11-18 11:33:53,4.959965683942328
2020-11-18 12:03:52,5.00159563258535
2020-11-18 13:03:54,5.020873131606687
2020-11-18 13:33:57,5.03882814991231
2020-11-18 14:03:55,5.055317758974447
2020-11-18 14:33:55,5.0617333741228725
2020-11-18 15:03:55,5.067623678912939
2020-11-18 15:33:57,5.073034160847253
2020-11-18 16:03:54,5.0780512373072195
2020-11-18 16:33:55,5.082716603022935
2020-11-18 17:03:51,5.087076684371761
2020-11-18 17:33:52,5.091190942770144
2020-11-18 18:03:52,5.0951064437549896
2020-11-18 18:33:53,5.098866042208026
2020-11-18 19:03:54,5.098701364797616
2020-11-18 19:33:53,5.102790611377554
2020-11-18 20:03:50,5.106850526557413
2020-11-18 20:33:51,5.110855820066244
2020-11-18 21:03:50,5.114850286486394
2020-11-18 21:33:50,5.118842613566773
2020-11-18 22:03:48,5.122847916529471
2020-11-18 22:33:46,5.126892284202642
2020-11-18 23:03:48,5.1309712310568605
2020-11-18 23:33:45,5.135110750053243
2020-11-19 00:03:47,5.139305504587801
2020-11-19 00:33:49,5.143550163445424
2020-11-19 01:03:46,5.147868606159
2020-11-19 01:33:48,5.152242595814979
2020-11-19 02:03:44,5.156684842018478
2020-11-19 02:33:45,5.161184966045029
2020-11-19 03:03:46,5.16871811359075
2020-11-19 03:33:47,5.17355862762654
2020-11-19 04:03:47,5.178415042202192
2020-11-19 04:33:47,5.183380732750005
2020-11-19 05:03:43,5.188221198980021
2020-11-19 05:33:47,5.1931220477334605
2020-11-19 06:03:47,5.19803711343801
2020-11-19 06:33:47,5.198423755827058
2020-11-19 07:03:48,5.203104824495541
2020-11-19 07:33:45,5.2077799528545
2020-11-19 08:03:49,5.212515856788198
2020-11-19 08:33:50,5.217287325806282
2020-11-19 09:03:51,5.227022335777134
2020-11-19 10:03:53,5.2371364552160165
2020-11-19 11:03:54,5.235368527292972
2020-11-19 11:33:55,5.240429506923836
2020-11-19 12:03:53,5.245697600470365
2020-11-19 12:33:56,5.251108462350541
2020-11-19 13:03:55,5.2567467512965145
2020-11-19 13:33:59,5.262525386939009
2020-11-19 14:03:58,5.281228458068279
2020-11-19 15:33:58,5.287915316065889
2020-11-19 16:03:58,5.294874541065633
2020-11-19 16:33:57,5.3189808961986085
2020-11-19 17:33:57,5.326830723649085
2020-11-19 18:03:56,5.334967024055207
2020-11-19 18:33:55,5.343457118786584
2020-11-19 19:03:56,5.361554621380484
2020-11-19 19:33:52,5.389855009633253
2020-11-19 21:03:49,5.400041998294345
2020-11-19 21:33:48,5.454078022967353
2020-11-19 23:33:47,5.466635645807754
2020-11-20 00:03:49,5.501083218534668
2020-11-20 01:03:49,5.515161982958473
2020-11-20 01:33:46,5.5453234724522575
2020-11-20 02:33:44,5.561525056168573
2020-11-20 03:03:44,5.578364536897135
2020-11-20 03:33:43,5.595930210829467
2020-11-20 04:03:42,5.614275753927183
2020-11-20 04:33:46,5.633311183059838
2020-11-20 05:03:44,5.653151374108934
2020-11-20 05:33:43,5.673824695612936
2020-11-20 06:03:46,5.695194191939144
2020-11-20 06:33:45,5.717323277319702
2020-11-20 07:03:45,5.740206375963175
2020-11-20 07:33:47,5.763833864138808
2020-11-20 08:03:51,5.788073586859096
2020-11-20 08:33:51,5.812917656840028
2020-11-20 09:03:48,5.864500564367407
2020-11-20 10:03:51,5.8911392821214745
2020-11-20 10:33:56,5.918115727971429
2020-11-20 11:03:53,5.945575380274028
2020-11-20 11:33:55,5.973398539181015
2020-11-20 12:03:58,6.001464370030452
2020-11-20 12:33:58,6.058229555268221
2020-11-20 13:33:58,6.086813745990226
2020-11-20 14:03:58,6.114738497793999
2020-11-20 14:33:59,6.143295652671378
2020-11-20 15:03:59,6.171812685812577
2020-11-20 15:33:56,6.2003421817963895
2020-11-20 16:03:57,6.228788334442727
2020-11-20 16:33:58,6.256140501256588
2020-11-20 17:03:59,6.284298786132647
2020-11-20 17:33:59,6.340067069000097
2020-11-20 18:33:57,6.367614749246569
2020-11-20 19:03:54,6.394972027504853
2020-11-20 19:33:54,6.422045081357247
2020-11-20 20:03:52,6.448823140771447
2020-11-20 20:33:48,6.475362320832087
2020-11-20 21:03:47,6.501681240655438
2020-11-20 21:33:51,6.527617698867831
2020-11-20 22:03:49,6.552343150044076
2020-11-20 22:33:47,6.577737772527814
2020-11-20 23:03:49,6.602760352528111
2020-11-20 23:33:46,6.626482541856531
2020-11-21 00:03:48,6.650940434498677
2020-11-21 00:33:45,6.675185988289077
2020-11-21 01:03:47,6.699116251215528
2020-11-21 01:33:44,6.722848204499891
2020-11-21 02:03:44,6.7463505779314
2020-11-21 02:33:44,6.769642689802573
2020-11-21 03:03:44,6.792726664018834
2020-11-21 03:33:43,6.815665416333428
2020-11-21 04:03:43,6.8397282410391576
2020-11-21 04:33:47,6.884904904657016
2020-11-21 05:33:45,6.907357613397576
2020-11-21 06:03:44,6.929759524824544
2020-11-21 06:33:44,6.950926502304447
2020-11-21 07:03:45,6.995702249061795
2020-11-21 08:03:48,7.017087808524055
2020-11-21 08:33:50,7.040595994477128
2020-11-21 09:03:53,7.154598624838378
2020-11-21 11:33:56,7.177388095619923
2020-11-21 12:03:55,7.246330811038871
2020-11-21 13:33:57,7.29354163541402
2020-11-21 14:33:54,7.316860438716762
2020-11-21 15:03:55,7.341216014707976
2020-11-21 15:33:58,7.388209811512768
2020-11-21 16:33:58,7.412721710001534
2020-11-21 17:03:58,7.436380183323013
2020-11-21 17:33:57,7.460155614127726
2020-11-21 18:03:57,7.508001700664908
2020-11-21 19:03:55,7.532136036915803
2020-11-21 19:33:55,7.556396966362404
2020-11-21 20:03:53,7.580802258942146
2020-11-21 20:33:49,7.6054499813889915
2020-11-21 21:03:49,7.630300615793586
2020-11-21 21:33:49,7.655349936687838
2020-11-21 22:03:48,7.680609936386358
2020-11-21 22:33:46,7.706160987633227
2020-11-21 23:03:48,7.757889665689932
2020-11-22 00:03:46,7.784154827556803
2020-11-22 00:33:47,7.810607083986377
2020-11-22 01:03:44,7.83978835225451
2020-11-22 01:33:44,7.864373778885961
2020-11-22 02:03:45,7.891598441462067
2020-11-22 02:33:46,7.919033019479203
2020-11-22 03:03:46,7.946697033512735
2020-11-22 03:33:46,7.9745878817921625
2020-11-22 04:03:47,8.002697433552072
2020-11-22 04:33:46,8.031061728518543
2020-11-22 05:03:46,8.059644529250715
2020-11-22 05:33:46,8.088512660474043
2020-11-22 06:03:45,8.14717551945298
2020-11-22 07:03:47,8.207118826994346
2020-11-22 08:03:52,8.237472153470367
2020-11-22 08:33:50,8.268258538998685
2020-11-22 09:03:54,8.325954673346615
2020-11-22 10:03:57,8.357528511200217
2020-11-22 10:33:56,8.389404105464825
2020-11-22 11:03:55,8.42662449700637
2020-11-22 11:33:59,8.459079023411725
2020-11-22 12:03:55,8.491928642141735
2020-11-22 12:33:57,8.525019084200693
2020-11-22 13:03:59,8.558330095048241
2020-11-22 13:34:01,8.591795093241437
2020-11-22 14:03:59,8.625583114034015
2020-11-22 14:34:02,8.733154857030687
2020-11-22 16:04:02,8.802597074214013
2020-11-22 17:03:59,8.87310852937505
2020-11-22 18:03:58,8.955643181764657
2020-11-22 19:03:59,8.992173963233938
2020-11-22 19:33:58,9.034561225057503
2020-11-22 20:03:54,9.0719382215004
2020-11-22 20:33:53,9.115372250170266
2020-11-22 21:03:51,9.153648921376973
2020-11-22 21:33:52,9.19223431289254
2020-11-22 22:03:49,9.231281064854244
2020-11-22 22:33:48,9.276812056737047
2020-11-22 23:03:48,9.316761247051538
2020-11-22 23:33:46,9.351153192053227
2020-11-23 00:03:49,9.433228612996624
2020-11-23 01:03:45,9.517359766184128
2020-11-23 02:03:47,9.60335667273975
2020-11-23 03:03:44,9.64727238219638
2020-11-23 03:33:46,9.685113631840354
2020-11-23 04:03:47,9.723381283005883
2020-11-23 04:33:45,9.769010469335702
2020-11-23 05:03:48,9.815188658935691
2020-11-23 05:33:45,9.85560752965956
2020-11-23 06:03:46,9.903270294682766
2020-11-23 06:33:48,9.945284437839524
2020-11-23 07:03:47,9.99454988351027
2020-11-23 07:33:51,10.044366184425288
2020-11-23 08:03:48,10.095045761081119
2020-11-23 08:33:51,10.14633026514914
2020-11-23 09:03:51,10.20422964539796
2020-11-23 09:33:57,10.256603443210402
2020-11-23 10:03:54,10.30979629778934
2020-11-23 10:33:58,10.363389129686134
2020-11-23 11:03:57,10.41754788451298
2020-11-23 11:33:58,10.472241558772565
2020-11-23 12:04:00,10.527234053701768
2020-11-23 12:33:58,10.582730861801323
2020-11-23 13:04:01,10.638455557105177
2020-11-23 13:34:01,10.694391590909254
2020-11-23 14:04:00,10.750572305641338
2020-11-23 14:34:01,10.806880230256873
2020-11-23 15:04:02,10.8632644406567
2020-11-23 15:34:03,10.91967555230222
2020-11-23 16:04:04,10.974492416980908
2020-11-23 16:34:01,11.144248256180092
2020-11-23 18:04:02,11.200473503483565
2020-11-23 18:34:01,11.256451860084875
2020-11-23 19:03:59,11.312279202704977
2020-11-23 19:34:00,11.367602333121713
2020-11-23 20:03:53,11.422868383745207
2020-11-23 20:33:53,11.47782929157806
2020-11-23 21:03:52,11.532526756390649
2020-11-23 21:33:51,11.587060037724134
2020-11-23 22:03:53,11.641200670895918
2020-11-23 22:33:50,11.69296071745993
2020-11-23 23:03:51,11.746602798343144
2020-11-23 23:33:47,11.800397193292865
2020-11-24 00:03:52,11.85620699670317
2020-11-24 00:33:48,11.907292866438004
2020-11-24 01:03:48,11.960710107026777
2020-11-24 01:33:48,12.014116569516457
2020-11-24 02:03:48,12.06965740311804
2020-11-24 02:33:49,12.229868909458688
2020-11-24 04:03:51,12.283300640898654
2020-11-24 04:33:47,12.337133350488767
2020-11-24 05:03:52,12.39080975305464
2020-11-24 05:33:47,12.44493678917951
2020-11-24 06:03:51,12.498241882205086
2020-11-24 06:33:50,12.552836406332784
2020-11-24 07:03:51,12.7182702955123
2020-11-24 08:33:58,12.773838074306742
2020-11-24 09:03:59,12.82930205934869
2020-11-24 09:34:01,12.884905659121596
2020-11-24 10:04:00,12.940749013480962
2020-11-24 10:34:00,13.222316511448945
2020-11-24 13:04:03,13.392415844558375
2020-11-24 14:34:07,13.505457251147519
2020-11-24 15:34:06,13.561810419438514
2020-11-24 16:04:07,13.617948584791387
2020-11-24 16:34:08,13.786036270845457
2020-11-24 18:04:04,13.84120168771448
2020-11-24 18:34:00,13.896091602084685
2020-11-24 19:04:00,13.950403302851536
2020-11-24 19:33:57,14.0043647173752
2020-11-24 20:03:58,14.057732912283164
2020-11-24 20:33:58,14.110534683665097
2020-11-24 21:03:59,14.162678674927712
2020-11-24 21:34:00,14.213914018250405
2020-11-24 22:03:54,14.264570588273955
2020-11-24 22:33:56,14.31417557503989
2020-11-24 23:03:52,14.362972096940556
2020-11-24 23:33:53,14.400446182417257
2020-11-25 00:03:52,14.446331033443133
2020-11-25 00:33:51,14.491108802586346
2020-11-25 01:03:51,14.617629828881316
2020-11-25 02:33:52,14.680653930448646
2020-11-25 03:33:52,14.716681929742625
2020-11-25 04:03:52,14.75119763946413
2020-11-25 04:33:50,14.78437197043038
2020-11-25 05:03:53,14.815920484306226
2020-11-25 05:33:51,14.84596582566095
2020-11-25 06:03:48,14.874603554852849
2020-11-25 06:33:49,14.885891504905029
2020-11-25 07:03:49,14.911483323204378
2020-11-25 07:33:50,14.935639806648624
2020-11-25 08:03:50,14.958385779939464
2020-11-25 08:33:50,14.97970732426234
2020-11-25 09:03:50,14.999665356978642
2020-11-25 09:33:51,15.033601089222184
2020-11-25 10:03:52,15.050607132068272
2020-11-25 10:33:50,15.066388726298259
2020-11-25 11:03:54,15.066714668406615
2020-11-25 11:33:55,15.080531070254438
2020-11-25 12:03:56,15.093266421151665
2020-11-25 12:33:54,15.105142335092358
2020-11-25 13:03:59,15.116087251822263
2020-11-25 13:34:00,15.12620265377687
2020-11-25 14:03:58,15.135659112701235
2020-11-25 14:33:59,15.144532327553977
2020-11-25 15:04:01,15.168245154812695
2020-11-25 16:33:57,15.175576615661857
2020-11-25 17:03:59,15.18991963606039
2020-11-25 18:03:57,15.190532043727275
2020-11-25 18:33:57,15.19840060532124
2020-11-25 19:03:55,15.206465612713668
2020-11-25 19:33:53,15.21951652580915
2020-11-25 20:03:53,15.227558231059614
2020-11-25 20:33:51,15.235981649813683
2020-11-25 21:03:49,15.244901319792687
2020-11-25 21:33:50,15.251975769314626
2020-11-25 22:03:51,15.262483184352813
2020-11-25 22:33:47,15.285232904029815
2020-11-25 23:33:48,15.297455371440833
2020-11-26 00:03:48,15.310060277519094
2020-11-26 00:33:48,15.322912184872587
2020-11-26 01:03:47,15.336357386278106
2020-11-26 01:33:51,15.351779001772663
2020-11-26 02:03:50,15.366598844971607
2020-11-26 02:33:50,15.384108394382665
2020-11-26 03:03:49,15.400000939215069
2020-11-26 03:33:48,15.416174564641796
2020-11-26 04:03:46,15.429428275768814
2020-11-26 04:33:50,15.442104344690332
2020-11-26 05:03:48,15.45820599345977
2020-11-26 05:33:46,15.470096802872293
2020-11-26 06:03:48,15.486002550263795
2020-11-26 06:33:46,15.496778714654631
2020-11-26 07:03:50,15.512441882788105
2020-11-26 07:33:49,15.52811480740496
2020-11-26 08:03:50,15.54374447834142
2020-11-26 08:33:53,15.55213973438183
2020-11-26 09:03:52,15.567218192569959
2020-11-26 09:33:51,15.582209039491739
2020-11-26 10:03:52,15.620824199203847
2020-11-26 11:03:54,15.635978360785158
2020-11-26 11:33:55,15.650970943830675
2020-11-26 12:03:53,15.665873633672971
2020-11-26 12:33:56,15.680602045983612
2020-11-26 13:03:55,15.695184289171806
2020-11-26 13:33:54,15.709588725518275
2020-11-26 14:03:57,15.723755517410595
2020-11-26 14:33:55,15.75143833164032
2020-11-26 15:33:57,15.776137186794047
2020-11-26 16:03:56,15.789382051483503
2020-11-26 16:33:55,15.802318585718705
2020-11-26 17:03:59,15.803537591771358
2020-11-26 17:33:58,15.828352504756754
2020-11-26 19:03:56,15.85257563098799
2020-11-26 20:03:49,15.864768988994985
2020-11-26 20:33:50,15.877111553094124
2020-11-26 21:03:50,15.889728360452697
2020-11-26 21:33:50,15.913069523514174
2020-11-26 22:03:48,15.926160209247486
2020-11-26 22:33:47,15.953963791629876
2020-11-26 23:33:46,15.96888080869484
2020-11-27 00:03:48,15.984489602123698
2020-11-27 00:33:45,16.000983588669097
2020-11-27 01:03:46,16.03669726026134
2020-11-27 02:03:44,16.056046324659114
2020-11-27 02:33:44,16.076488640971462
2020-11-27 03:03:45,16.120726095935666
2020-11-27 04:03:46,16.144568169206174
2020-11-27 04:33:46,16.16963963703817
2020-11-27 05:03:46,16.19596655787152
2020-11-27 05:33:46,16.223558321924646
2020-11-27 06:03:46,16.252468607157077
2020-11-27 06:33:47,16.27836354294292
2020-11-27 07:03:48,16.310369890044107
2020-11-27 07:33:47,16.34378913672406
2020-11-27 08:03:48,16.412926468096767
2020-11-27 09:03:54,16.450753036932973
2020-11-27 09:33:55,16.489754005730383
2020-11-27 10:03:56,16.529803047803703
2020-11-27 10:33:55,16.612908155309675
2020-11-27 11:33:58,16.65566824448081
2020-11-27 12:03:59,16.699035722236044
2020-11-27 12:33:59,16.742798974611055
2020-11-27 13:03:56,16.78700564168033
2020-11-27 13:33:58,16.918889905392103
2020-11-27 15:03:59,16.961785418610944
2020-11-27 15:33:57,17.003854747898274
2020-11-27 16:04:00,17.04453289446817
2020-11-27 16:33:58,17.083923082106846
2020-11-27 17:04:00,17.157423426568435
2020-11-27 18:03:58,17.25184215336187
2020-11-27 19:33:54,17.302060665783202
2020-11-27 20:33:52,17.32275586980587
2020-11-27 21:03:52,17.340218108818306
2020-11-27 21:33:50,17.354315124918646
2020-11-27 22:03:53,17.364704942662463
2020-11-27 22:33:51,17.371202331036447
2020-11-27 23:03:50,17.373732886794585
2020-11-27 23:33:53,17.35045007577654
2020-11-28 00:03:51,17.342880934781242
2020-11-28 00:33:53,17.331028507161292
2020-11-28 01:03:51,17.321745433127205
2020-11-28 02:03:52,17.298422607679434
2020-11-28 02:33:50,17.271064870546528
2020-11-28 03:03:53,17.239763928050657
2020-11-28 03:33:51,17.20474941571168
2020-11-28 04:03:50,17.124817220149954
2020-11-28 05:03:51,17.080578722280208
2020-11-28 05:33:53,17.03406278557993
2020-11-28 06:03:51,16.98556871372018
2020-11-28 06:33:53,16.935682591526103
2020-11-28 07:03:51,16.833039215712198
2020-11-28 08:03:53,16.807047452567943
2020-11-28 08:33:53,16.75382602355859
2020-11-28 09:03:53,16.724392132495304
2020-11-28 09:33:54,16.670323830112416
2020-11-28 10:03:56,16.617027696072753
2020-11-28 10:33:55,16.564394430171212
2020-11-28 11:03:58,16.51284361132174
2020-11-28 11:33:57,16.445596251117024
2020-11-28 12:03:54,16.39728649362578
2020-11-28 12:33:55,16.303664773322136
2020-11-28 13:33:53,16.258246011616663
2020-11-28 14:03:50,16.213559705347116
2020-11-28 14:33:50,16.169657321823834
2020-11-28 15:03:49,16.13591961749757
2020-11-28 15:33:48,16.092483973439496
2020-11-28 16:03:47,16.049519781328513
2020-11-28 16:33:50,16.00719789778272
2020-11-28 17:03:49,15.965300560754402
2020-11-28 17:33:48,15.923768499009041
2020-11-28 18:03:48,15.882637807706276
2020-11-28 18:33:47,15.836347106643787
2020-11-28 19:03:48,15.790960284677492
2020-11-28 19:33:48,15.751132668041148
2020-11-28 20:03:48,15.71138622989061
2020-11-28 20:33:47,15.671576352798052
2020-11-28 21:03:50,15.631863116314626
2020-11-28 21:33:49,15.592133012684357
2020-11-28 22:03:47,15.552209056867408
2020-11-28 22:33:50,15.516663589543352
2020-11-28 23:03:48,15.472203201397765
2020-11-28 23:33:46,15.43179489395747
2020-11-29 00:03:48,15.391251383890847
2020-11-29 00:33:45,15.35027112078798
2020-11-29 01:03:47,15.313126615869702
2020-11-29 01:33:48,15.271431704852029
2020-11-29 02:03:45,15.229181034773571
2020-11-29 02:33:46,15.186429900429287
2020-11-29 03:03:47,15.143169565590267
2020-11-29 03:33:47,15.099399770113711
2020-11-29 04:03:43,15.05836940412576
2020-11-29 04:33:47,15.01305654562739
2020-11-29 05:03:43,14.963724005450423
2020-11-29 05:33:48,14.917235550549043
2020-11-29 06:03:43,14.869819045615783
2020-11-29 06:33:44,14.77405378127252
2020-11-29 07:33:47,14.723572240481268
2020-11-29 08:03:46,14.672040251893355
2020-11-29 08:33:50,14.619308037896385
2020-11-29 09:03:50,14.563590806618677
2020-11-29 09:33:53,14.510867470409952
2020-11-29 10:03:51,14.455103899201651
2020-11-29 10:33:52,14.398433002641598
2020-11-29 11:03:53,14.340946353977706
2020-11-29 11:33:55,14.282910471407556
2020-11-29 12:03:57,14.22472897919018
2020-11-29 12:33:55,14.166566402123337
2020-11-29 13:03:54,14.108856566989415
2020-11-29 13:33:56,14.052087674414889
2020-11-29 14:03:53,13.943205350417188
2020-11-29 15:03:52,13.892323129493509
2020-11-29 15:33:51,13.844514951781287
2020-11-29 16:03:53,13.800159096697318
2020-11-29 16:33:50,13.759728341914858
2020-11-29 17:03:52,13.72355970951871
2020-11-29 17:33:49,13.691864720972958
2020-11-29 18:03:49,13.664706751239166
2020-11-29 18:33:49,13.64227275950867
2020-11-29 19:03:48,13.624580659694377
2020-11-29 19:33:47,13.611464366934406
2020-11-29 20:03:46,13.602984293587497
2020-11-29 20:33:49,13.598780399638398
2020-11-29 21:03:47,13.598498654977139
2020-11-29 21:33:49,13.602212207521065
2020-11-29 22:03:46,13.60968422327165
2020-11-29 22:33:48,13.620563004455098
2020-11-29 23:03:45,13.634845748470452
2020-11-29 23:33:47,13.652353708740335
2020-11-30 00:03:49,13.672784760929392
2020-11-30 00:33:46,13.696366277709847
2020-11-30 01:03:48,13.752331619459145
2020-11-30 02:03:47,13.8056929554396
2020-11-30 02:33:49,13.856247394191206
2020-11-30 03:33:48,13.8957412936651
2020-11-30 04:03:46,13.937641809563038
2020-11-30 04:33:48,14.004015462430768
2020-11-30 05:03:46,14.050245962476723
2020-11-30 05:33:48,14.098248262378606
2020-11-30 06:03:46,14.148213390743438
2020-11-30 06:33:48,14.199860698476689
2020-11-30 07:03:46,14.275863248230209
2020-11-30 07:33:49,14.588172840703091
2020-11-30 10:03:51,14.67142925637484
2020-11-30 10:33:49,14.755720671554919
2020-11-30 11:03:51,14.84088708455098
2020-11-30 11:33:54,14.906740174187657
2020-11-30 12:03:53,14.97383197619907
2020-11-30 12:33:52,15.04220182618617
2020-11-30 13:03:52,15.182517947454732
2020-11-30 14:03:52,15.273983940642806
2020-11-30 14:33:53,15.347193650344297
2020-11-30 15:03:54,15.421630562725804
2020-11-30 15:33:56,15.497024276653807
2020-11-30 16:03:53,15.57378048967082
2020-11-30 16:33:55,15.651657290258488
2020-11-30 17:03:57,15.730433351161286
2020-11-30 17:33:54,15.810303428229165
2020-11-30 18:03:55,15.891216957565724
2020-11-30 18:33:56,16.05537254313718
2020-11-30 19:33:50,16.15970593502674
2020-11-30 20:03:52,16.243827132120025
2020-11-30 20:33:46,16.329113352026432
2020-11-30 21:03:50,16.41466703589009
2020-11-30 21:33:48,16.587607448295145
2020-11-30 22:33:47,16.76259492353346
2020-11-30 23:33:45,16.850925541083306
2020-12-01 00:03:46,16.918017750082605
2020-12-01 00:33:47,17.007628611080175
2020-12-01 01:03:44,17.09807849356103
2020-12-01 01:33:45,17.189232000527518
2020-12-01 02:03:45,17.281266493024727
2020-12-01 02:33:46,17.468321961509076
2020-12-01 03:33:48,17.563370644714002
2020-12-01 04:03:43,17.660083350186476
2020-12-01 04:33:44,17.75838464488605
2020-12-01 05:03:44,17.960502775905763
2020-12-01 06:03:44,18.064742513318304
2020-12-01 06:33:45,18.171399797961698
2020-12-01 07:03:47,18.28063544275286
2020-12-01 07:33:51,18.392247599066323
2020-12-01 08:03:51,18.50659178043518
2020-12-01 08:33:53,18.623312000392573
2020-12-01 09:03:52,18.86401316407936
2020-12-01 10:03:52,18.98764863626808
2020-12-01 10:33:55,19.112865277261008
2020-12-01 11:03:58,19.23888250114138
2020-12-01 11:33:57,19.365440361780998
2020-12-01 12:03:57,19.491843538697513
2020-12-01 12:33:58,19.617184519782175
2020-12-01 13:03:58,19.740798892553755
2020-12-01 13:33:59,19.86175721091996
2020-12-01 14:03:59,19.978968969962406
2020-12-01 14:33:55,20.20164577087886
2020-12-01 15:33:59,20.369367754623745
2020-12-01 16:33:58,20.463843551498233
2020-12-01 17:03:59,20.55476777773497
2020-12-01 17:33:54,20.642907906667055
2020-12-01 18:03:57,20.812507318857094
2020-12-01 19:03:58,20.894372533437704
2020-12-01 19:33:55,20.975165369537663
2020-12-01 20:03:55,21.091556105471735
2020-12-01 20:33:50,21.52562941134382
2020-12-01 23:33:51,21.603902367978982
2020-12-02 00:03:48,21.682380494385047
2020-12-02 00:33:50,21.761096779959665
2020-12-02 01:03:52,22.37671436694992
2020-12-02 04:33:47,22.456629914668486
2020-12-02 05:03:51,22.536213194483818
2020-12-02 05:33:47,22.58536681188481
2020-12-02 06:03:51,22.66494999387391
2020-12-02 06:33:47,22.824339273948954
2020-12-02 07:33:49,22.903652289666425
2020-12-02 08:03:51,22.98259224589412
2020-12-02 08:33:53,23.06070970294384
2020-12-02 09:03:49,23.13850817864506
2020-12-02 09:33:50,23.215450731727586
2020-12-02 10:03:51,23.291512215235343
2020-12-02 10:33:51,23.366265051461497
2020-12-02 11:03:46,23.440233406196715
2020-12-02 11:33:49,23.583834313849756
2020-12-02 12:33:48,23.721327217828527
2020-12-02 13:33:50,23.787541284407244
2020-12-02 14:03:51,23.851850662223352
2020-12-02 14:33:53,23.93863384269169
2020-12-02 15:03:50,23.99795005380771
2020-12-02 15:33:52,24.054703509330746
2020-12-02 16:03:48,24.109326760236193
2020-12-02 16:33:50,24.161716686140068
2020-12-02 17:03:52,24.211716080624456
2020-12-02 17:33:49,24.25959702521567
2020-12-02 18:03:50,24.30527990602132
2020-12-02 18:33:51,24.34882023475968
2020-12-02 19:03:51,24.390332802899696
2020-12-02 19:33:51,24.42964396882615
2020-12-02 20:03:47,24.467211516591398
2020-12-02 20:33:50,24.502868960453434
2020-12-02 21:03:49,24.536806767505155
2020-12-02 21:33:47,24.56930460335468
2020-12-02 22:03:49,24.600250738945572
2020-12-02 22:33:47,24.62997461048483
2020-12-02 23:03:49,24.658470397844436
2020-12-02 23:33:46,24.68606623016568
2020-12-03 00:03:48,24.71274088088531
2020-12-03 00:33:45,24.738837118351537
2020-12-03 01:03:46,24.76449059947245
2020-12-03 01:33:47,24.793875157042805
2020-12-03 02:03:44,24.821391184954344
2020-12-03 02:33:45,24.84911393818512
2020-12-03 03:03:46,24.87739073364161
2020-12-03 03:33:47,24.906441227056725
2020-12-03 04:03:47,24.936516978143192
2020-12-03 04:33:44,24.96800130624382
2020-12-03 05:03:44,25.001133540772017
2020-12-03 05:33:46,25.036083326930413
2020-12-03 06:03:47,25.073055278422217
2020-12-03 06:33:48,25.112128148912507
2020-12-03 07:03:46,25.15371435661377
2020-12-03 07:33:49,25.17765626275573
2020-12-03 08:03:49,25.323035195672283
2020-12-03 09:33:52,25.432299682469846
2020-12-03 10:33:52,25.511647380612104
2020-12-03 11:03:53,25.571881590938574
2020-12-03 11:33:55,25.63412489000913
2020-12-03 12:03:54,25.698296311316362
2020-12-03 12:33:58,25.763801924182427
2020-12-03 13:03:57,25.83089228801274
2020-12-03 13:33:57,25.8990563952239
2020-12-03 14:03:58,25.947123377753837
2020-12-03 14:33:58,25.996244882702012
2020-12-03 15:03:59,26.068364469880372
2020-12-03 15:33:59,26.21540335960352
2020-12-03 16:33:57,26.29035871966407
2020-12-03 17:03:57,26.344226314679666
2020-12-03 17:33:58,26.45406345253222
2020-12-03 18:33:56,26.532503861270463
2020-12-03 19:03:53,26.61180803095795
2020-12-03 19:33:54,26.691806297190723
2020-12-03 20:03:52,26.77219525673504
2020-12-03 20:33:49,26.87401001963017
2020-12-03 21:03:49,26.95512855948778
2020-12-03 21:33:49,27.016750673033442
2020-12-03 22:03:48,27.263369107464943
2020-12-03 23:33:48,27.345366919582524
2020-12-04 00:03:46,27.4272818497853
2020-12-04 00:33:49,27.508658739554466
2020-12-04 01:03:48,27.669911200479454
2020-12-04 02:03:49,27.749454955846865
2020-12-04 02:33:47,27.828423709165648
2020-12-04 03:03:50,27.89672110832946
2020-12-04 03:33:48,27.975078645799574
2020-12-04 04:03:45,28.052792830077713
2020-12-04 04:33:47,28.12956473982592
2020-12-04 05:03:48,28.205306890788595
2020-12-04 05:33:45,28.280390035825242
2020-12-04 06:03:47,28.354603247350184
2020-12-04 06:33:48,28.427874257909824
2020-12-04 07:03:45,28.50063125962505
2020-12-04 07:33:47,28.57276222000986
2020-12-04 08:03:49,28.644217866500256
2020-12-04 08:33:47,28.786254300508947
2020-12-04 09:33:47,28.852959642142416
2020-12-04 10:03:49,28.922956989670297
2020-12-04 10:33:46,28.993437413219485
2020-12-04 11:03:49,29.0641114639823
2020-12-04 11:33:48,29.13529870619606
2020-12-04 12:03:48,29.2070428389765
2020-12-04 12:33:47,29.279486192985757
2020-12-04 13:03:47,29.352683778217013
2020-12-04 13:33:47,29.501497627455855
2020-12-04 14:33:49,29.653384824636984
2020-12-04 15:33:50,29.730444284186557
2020-12-04 16:03:51,29.807988006365928
2020-12-04 16:33:48,29.88637552346645
2020-12-04 17:03:49,29.965262792240612
2020-12-04 17:33:50,30.044690904477555
2020-12-04 18:03:52,30.267513452295532
2020-12-04 19:33:49,30.347126176021124
2020-12-04 20:03:47,30.409810480889185
2020-12-04 20:33:48,30.488866225504665
2020-12-04 21:03:43,30.567862227130913
2020-12-04 21:33:42,30.6467325556996
2020-12-04 22:03:46,30.70702263270802
2020-12-04 22:33:44,30.784471170562426
2020-12-04 23:03:42,30.861538509328664
2020-12-04 23:33:45,30.93749953565588
2020-12-05 00:03:43,31.013009083489532
2020-12-05 00:33:45,31.106232158742273
2020-12-05 01:03:42,31.179685920340255
2020-12-05 01:33:44,31.25188285255048
2020-12-05 02:03:41,31.322609750178312
2020-12-05 02:33:43,31.588471661861817
2020-12-05 04:33:43,31.709456392935202
2020-12-05 05:33:42,31.76690314075957
2020-12-05 06:03:43,31.822089992571783
2020-12-05 06:33:44,31.87490134828673
2020-12-05 07:03:42,31.92576440070225
2020-12-05 07:33:47,31.974201643513055
2020-12-05 08:03:48,32.02031124155954
2020-12-05 08:33:45,32.06440292583625
2020-12-05 09:03:48,32.120324381043595
2020-12-05 09:33:48,32.159570162742824
2020-12-05 10:03:48,32.23299908217038
2020-12-05 11:03:50,32.30069815569683
2020-12-05 12:03:49,32.332955548951915
2020-12-05 12:33:52,32.36429305755122
2020-12-05 13:03:50,32.388114556440435
2020-12-05 13:33:54,32.42524352139469
2020-12-05 14:03:53,32.45504577017604
2020-12-05 14:33:52,32.484670278328096
2020-12-05 15:03:52,32.51426744377407
2020-12-05 15:33:52,32.5439416358028
2020-12-05 16:03:52,32.57603772322894
2020-12-05 16:33:52,32.60553432038024
2020-12-05 17:03:52,32.635424496352734
2020-12-05 17:33:51,32.66580054065779
2020-12-05 18:03:50,32.69686679656465
2020-12-05 18:33:54,32.72857916620565
2020-12-05 19:03:51,32.76403850666757
2020-12-05 19:33:48,32.799622344916905
2020-12-05 20:03:47,32.837375345537815
2020-12-05 20:33:45,32.87782157333018
2020-12-05 21:03:45,32.93324090197456
2020-12-05 21:33:46,32.98426045998936
2020-12-05 22:03:45,33.04068978253162
2020-12-05 22:33:45,33.10322328487754
2020-12-05 23:03:44,33.172865688784626
2020-12-05 23:33:44,33.30148186939127
2020-12-06 00:33:46,33.39192335242519
2020-12-06 01:03:45,33.535697393062264
2020-12-06 01:33:43,33.648627268108925
2020-12-06 02:03:42,33.770349004622
2020-12-06 02:33:44,33.89854342946165
2020-12-06 03:03:42,34.03314062472059
2020-12-06 03:33:44,34.17229722824335
2020-12-06 04:03:42,34.315489623406044
2020-12-06 04:33:44,34.46099543914321
2020-12-06 05:03:41,34.65942182187017
2020-12-06 05:33:43,34.75667451689661
2020-12-06 06:03:40,34.905484557842506
2020-12-06 06:33:43,35.05381561367408
2020-12-06 07:03:46,35.201748853932294
2020-12-06 07:33:47,35.49566935576638
2020-12-06 08:33:48,35.64155663407701
2020-12-06 09:03:48,35.93219584574626
2020-12-06 10:03:52,36.1863404257352
2020-12-06 11:03:54,36.51297626092233
2020-12-06 12:03:53,36.65927055985986
2020-12-06 12:33:54,36.841352352846975
2020-12-06 13:03:54,37.28434096353054
2020-12-06 14:33:54,37.43318015763232
2020-12-06 15:03:56,37.76662449393021
2020-12-06 16:03:56,37.91611217936188
2020-12-06 16:33:53,38.066308085747785
2020-12-06 17:03:55,38.21629519837316
2020-12-06 17:33:52,38.36685499709794
2020-12-06 18:03:54,38.551370950805214
2020-12-06 18:33:54,38.701730187751366
2020-12-06 19:03:53,38.85208208337672
2020-12-06 19:33:51,39.086158950051654
2020-12-06 20:33:46,39.27116152728475
2020-12-06 21:03:48,39.38971939524873
2020-12-06 21:33:46,39.54192987764582
2020-12-06 22:03:47,39.72658739683378
2020-12-06 22:33:48,39.87887808509645
2020-12-06 23:03:43,40.031703348537654
2020-12-06 23:33:43,40.21558525648821
2020-12-07 00:03:47,40.36871408815731
2020-12-07 00:33:42,40.522893093275776
2020-12-07 01:03:46,40.67722343863601
2020-12-07 01:33:45,40.83201207060372
2020-12-07 02:03:44,41.01585026733195
2020-12-07 02:33:43,41.17223367640898
2020-12-07 03:03:46,41.35656722154758
2020-12-07 03:33:45,41.51404683603104
2020-12-07 04:03:43,41.832143324663285
2020-12-07 05:03:44,42.01834276986502
2020-12-07 05:33:42,42.15506555638438
2020-12-07 06:03:44,42.31840196730157
2020-12-07 06:33:42,42.483823136975026
2020-12-07 07:03:47,42.65059046454644
2020-12-07 07:33:50,42.81875171386645
2020-12-07 08:03:49,42.98877388292885
2020-12-07 08:33:50,43.160624003889524
2020-12-07 09:03:51,43.334566501795464
2020-12-07 09:33:54,43.70519591094248
2020-12-07 10:33:53,44.0640919644195
2020-12-07 11:33:56,44.246147558523234
2020-12-07 12:03:53,44.61716200649867
2020-12-07 13:03:53,44.80608023891689
2020-12-07 13:33:56,45.00132167051663
2020-12-07 14:03:55,45.19113910667466
2020-12-07 14:33:55,45.38305211059696
2020-12-07 15:03:59,45.57287247809086
2020-12-07 15:33:59,45.763334340122924
2020-12-07 16:03:59,46.14445439219527
2020-12-07 17:03:58,46.511610387351624
2020-12-07 18:03:57,46.69746985106487
2020-12-07 18:33:55,46.88221181515404
2020-12-07 19:03:57,47.06467012239789
2020-12-07 19:33:53,47.23001970725139
2020-12-07 20:03:52,47.40792518076179
2020-12-07 20:33:48,47.7588871962752
2020-12-07 21:33:46,47.931773776586766
2020-12-07 22:03:49,48.10228368708498
2020-12-07 22:33:46,48.27144160591131
2020-12-07 23:03:48,48.60418522075656
2020-12-08 00:03:47,48.768049433055694
2020-12-08 00:33:45,48.93071369753163
2020-12-08 01:03:46,49.075324742336846
2020-12-08 01:33:47,49.23526521161974
2020-12-08 02:03:47,49.39364160991615
2020-12-08 02:33:43,49.84678924585734
2020-12-08 04:03:46,50.2904085725745
2020-12-08 05:33:44,50.42577442306744
2020-12-08 06:03:44,50.576190751203285
2020-12-08 06:33:44,50.725935597700506
2020-12-08 07:03:45,50.874961247523686
2020-12-08 07:33:48,51.33295146777217
2020-12-08 09:03:53,51.49488574427529
2020-12-08 09:33:53,51.62375422876284
2020-12-08 10:03:54,51.76821105925244
2020-12-08 10:33:56,52.038144652548425
2020-12-08 11:33:58,52.19707726581383
2020-12-08 12:03:58,52.3384836239241
2020-12-08 12:33:58,52.60182087121505
2020-12-08 13:34:01,52.72307657474917
2020-12-08 14:03:58,53.13556538129408
2020-12-08 15:34:01,53.271471097284035
2020-12-08 16:03:59,53.656651071083886
2020-12-08 17:33:57,53.789753700410515
2020-12-08 18:03:59,53.92200554892655
2020-12-08 18:34:00,54.034317227031444
2020-12-08 19:03:55,54.27535792220985
2020-12-08 20:03:54,54.74549491802695
2020-12-08 22:03:49,54.95652757851698
2020-12-08 23:03:47,55.16516682507972
2020-12-09 00:03:49,55.26852406549413
2020-12-09 00:33:47,55.371673528717466
2020-12-09 01:03:49,55.47415577897948
2020-12-09 01:33:46,55.576587850148336
2020-12-09 02:03:48,55.67849637496037
2020-12-09 02:33:46,55.78030986871828
2020-12-09 03:03:47,55.88165805996959
2020-12-09 03:33:44,56.18517613313272
2020-12-09 05:03:48,56.285672601844894
2020-12-09 05:33:44,56.38633039216201
2020-12-09 06:03:46,56.486763289018
2020-12-09 06:33:47,56.58691979476566
2020-12-09 07:03:46,56.68724718334401
2020-12-09 07:33:51,56.7872460393162
2020-12-09 08:03:53,57.086106731388654
2020-12-09 09:33:56,57.28464112194902
2020-12-09 10:34:00,57.48212517351469
2020-12-09 11:33:57,57.5808599244406
2020-12-09 12:04:00,57.67914911118699
2020-12-09 12:33:58,57.875585176851416
2020-12-09 13:34:01,58.071089095090095
2020-12-09 14:34:00,58.16864907586982
2020-12-09 15:04:01,58.266023693110384
2020-12-09 15:34:02,58.5569047652772
2020-12-09 17:04:03,58.65346133336644
2020-12-09 17:34:03,58.74976767924916
2020-12-09 18:04:02,58.84587502199012
2020-12-09 18:34:01,58.94172747431455
2020-12-09 19:03:59,59.037482048002104
2020-12-09 19:33:59,59.227942421788825
2020-12-09 20:33:51,59.32296088577948
2020-12-09 21:03:49,59.41797402700992
2020-12-09 21:33:51,59.6069699316255
2020-12-09 22:33:48,59.70126175686623
2020-12-09 23:03:49,59.795271936479395
2020-12-09 23:33:49,59.98248858919647
2020-12-10 00:33:47,60.1689612432762
2020-12-10 01:33:49,60.26167967649589
2020-12-10 02:03:47,60.813414433656575
2020-12-10 05:03:47,60.90459135103306
2020-12-10 05:33:49,60.99526113684904
2020-12-10 06:03:46,61.08592790907355
2020-12-10 06:33:48,61.17618874121638
2020-12-10 07:03:47,61.44604400902291
2020-12-10 08:33:56,61.535191025209016
2020-12-10 09:03:53,61.71317846915894
2020-12-10 10:03:56,61.89012196973427
2020-12-10 11:03:58,62.32827611564625
2020-12-10 13:34:04,62.50171458912469
2020-12-10 14:34:03,62.588206576391485
2020-12-10 15:04:05,62.674230149167
2020-12-10 15:34:02,62.84588683823178
2020-12-10 16:34:02,62.93142816081984
2020-12-10 17:04:03,63.10166494473579
2020-12-10 18:04:01,63.271045663094924
2020-12-10 19:03:59,63.523467724275555
