date,avg
2021-11-13 00:03:48,19.92656793164361
2021-11-13 00:33:47,19.820276079494356
2021-11-13 01:03:50,19.714600962665546
2021-11-13 01:33:49,19.60931901561674
2021-11-13 02:03:48,19.504501296522132
2021-11-13 02:33:46,19.39981072561092
2021-11-13 03:03:49,19.19229520821979
2021-11-13 04:03:45,19.088905967759555
2021-11-13 04:33:48,18.98624620731004
2021-11-13 05:03:46,18.883803040735277
2021-11-13 05:33:48,18.579587015232313
2021-11-13 07:03:46,18.47880229572464
2021-11-13 07:33:50,18.378623361478972
2021-11-13 08:03:51,17.884072480936503
2021-11-13 10:33:58,17.689330495679464
2021-11-13 11:33:58,17.59245344028604
2021-11-13 12:04:00,17.49612708172956
2021-11-13 12:33:59,17.399914136818463
2021-11-13 13:04:03,17.11409133545998
2021-11-13 14:34:03,17.019711066881587
2021-11-13 15:03:59,16.92517708490388
2021-11-13 15:34:04,16.83146820942506
2021-11-13 16:03:59,16.644364961232473
2021-11-13 17:03:59,16.551193441039544
2021-11-13 17:33:59,16.458298140055533
2021-11-13 18:03:58,15.996190187375877
2021-11-13 20:33:54,15.903861943468547
2021-11-13 21:03:56,15.81191688842564
2021-11-13 21:33:50,15.5344861004587
2021-11-13 23:03:49,15.441674768849639
2021-11-13 23:33:47,15.34854662878424
2021-11-14 00:03:46,15.254968750370544
2021-11-14 00:33:49,15.161513850514885
2021-11-14 01:03:47,15.068107135309182
2021-11-14 01:33:46,14.975026657298047
2021-11-14 02:03:49,14.883430905098258
2021-11-14 02:33:47,14.79380489557967
2021-11-14 03:03:50,14.70785568905903
2021-11-14 03:33:48,14.626387759141315
2021-11-14 04:03:47,14.57756729017758
2021-11-14 04:33:49,14.532853393044928
2021-11-14 05:03:47,14.49203960003659
2021-11-14 05:33:45,14.454890332883421
2021-11-14 06:03:48,14.42185453739121
2021-11-14 06:33:45,14.392534070088988
2021-11-14 07:03:47,14.367094799009095
2021-11-14 07:33:45,14.374118753801904
2021-11-14 08:03:47,14.356455706933394
2021-11-14 08:33:45,14.342536949641543
2021-11-14 09:03:48,14.332188458218402
2021-11-14 09:33:49,14.325174177915223
2021-11-14 10:03:50,14.293416750856855
2021-11-14 10:33:52,14.321613395825818
2021-11-14 11:03:51,14.331401297605513
2021-11-14 12:03:56,14.314994827613443
2021-11-14 12:33:53,14.304003419865364
2021-11-14 13:03:55,14.322832743547243
2021-11-14 13:33:57,14.32302429463598
2021-11-14 14:03:55,14.350106091310817
2021-11-14 14:33:54,14.380323664030952
2021-11-14 15:03:57,14.431328468422112
2021-11-14 15:33:56,14.465497147405362
2021-11-14 16:03:55,14.527898728000356
2021-11-14 17:03:56,14.570299556987665
2021-11-14 17:33:54,14.614363606507366
2021-11-14 18:03:56,14.699760811797908
2021-11-14 19:03:53,14.748507905720116
2021-11-14 19:33:51,14.79767200692252
2021-11-14 20:03:47,14.847227371154942
2021-11-14 20:33:50,14.897809633337955
2021-11-14 21:03:47,15.056500677068787
2021-11-14 22:33:46,15.106969182748692
2021-11-14 23:03:46,15.165553953519497
2021-11-14 23:33:46,15.261292209124546
2021-11-15 00:33:46,15.306168528520033
2021-11-15 01:03:46,15.464093687204572
2021-11-15 03:03:46,15.498181940768484
2021-11-15 03:33:46,15.530234713336244
2021-11-15 04:03:47,15.560204318605946
2021-11-15 04:33:47,15.588294059505406
2021-11-15 05:03:48,15.614344220352551
2021-11-15 05:33:44,15.660863166056016
2021-11-15 06:33:46,15.681248681228816
2021-11-15 07:03:48,15.69964647545635
2021-11-15 07:33:47,15.715890458472149
2021-11-15 08:03:48,15.729973454022167
2021-11-15 08:33:51,15.74167212653985
2021-11-15 09:03:54,15.751041914200334
2021-11-15 09:33:54,15.757787625729973
2021-11-15 10:03:55,15.761788180156518
2021-11-15 10:33:55,15.755416479507897
2021-11-15 12:03:57,15.746341804356785
2021-11-15 12:33:55,15.716997799836596
2021-11-15 13:33:57,15.696467900065777
2021-11-15 14:03:55,15.643660586852333
2021-11-15 15:03:59,15.611339754462428
2021-11-15 15:33:58,15.57528776764479
2021-11-15 16:03:58,15.535263462124536
2021-11-15 16:33:59,15.46489653554065
2021-11-15 17:03:59,15.394349062250196
2021-11-15 17:33:58,15.319627611864476
2021-11-15 18:33:56,15.265693549890555
2021-11-15 19:03:55,15.20933297992021
2021-11-15 19:33:57,15.150867183896322
2021-11-15 20:03:52,15.090669949412858
2021-11-15 20:33:50,15.028934437864025
2021-11-15 21:03:52,14.966525112525725
2021-11-15 21:33:48,14.903328672204939
2021-11-15 22:03:48,14.839928753435782
2021-11-15 22:33:48,14.779837203451155
2021-11-15 23:03:47,14.714286261002512
2021-11-15 23:33:46,14.649404598075243
2021-11-16 00:03:50,14.586036018228123
2021-11-16 00:33:46,14.523939981482949
2021-11-16 01:03:51,14.463984147824588
2021-11-16 01:33:51,14.392463906812274
2021-11-16 02:03:48,14.31733156136422
2021-11-16 02:33:49,14.27889866178618
2021-11-16 03:03:49,14.226824869466618
2021-11-16 03:33:48,14.177936308674672
2021-11-16 04:03:48,14.158203098260977
2021-11-16 04:33:47,14.11698767222778
2021-11-16 05:03:50,14.07884901352554
2021-11-16 05:33:48,14.04352063682562
2021-11-16 06:03:45,13.981577943344837
2021-11-16 06:33:47,13.951146567500558
2021-11-16 07:03:49,13.953315562183525
2021-11-16 07:33:47,13.928301404349261
2021-11-16 08:03:46,13.905412378007771
2021-11-16 08:33:50,13.884636168771594
2021-11-16 09:03:50,13.86582124418067
2021-11-16 09:33:50,13.848980293083445
2021-11-16 10:03:52,13.834026194850214
2021-11-16 10:33:48,13.821163096768375
2021-11-16 11:03:48,13.780615158444705
2021-11-16 11:33:48,13.77181942593621
2021-11-16 12:03:47,13.765851421435716
2021-11-16 12:33:51,13.731263485479637
2021-11-16 13:03:51,13.730404491299504
2021-11-16 13:33:52,13.732896554416302
2021-11-16 14:03:50,13.738531880839854
2021-11-16 14:33:51,13.748074589786464
2021-11-16 15:03:52,13.761307348603298
2021-11-16 15:33:50,13.778516246580747
2021-11-16 16:03:52,13.799553063723154
2021-11-16 16:33:49,13.966384761108063
2021-11-16 19:03:47,14.012053114440139
2021-11-16 19:33:46,14.061846672668908
2021-11-16 20:03:49,14.115782720170625
2021-11-16 20:33:46,14.236278610329702
2021-11-16 21:33:43,14.302928920168165
2021-11-16 22:03:43,14.373664850306032
2021-11-16 22:33:43,14.448678121837574
2021-11-16 23:03:47,14.52744388945237
2021-11-16 23:33:47,14.609881416225598
2021-11-17 00:03:43,14.707516988406638
2021-11-17 00:33:44,14.795506885063705
2021-11-17 01:03:44,14.886692850862035
2021-11-17 01:33:44,14.980668712482101
2021-11-17 02:03:43,15.175900092784687
2021-11-17 03:03:45,15.37834176651362
2021-11-17 04:03:45,15.58612003665673
2021-11-17 05:03:45,15.69145311516347
2021-11-17 05:33:42,15.798018442004832
2021-11-17 06:03:43,15.905467803259526
2021-11-17 06:33:43,16.01365336912509
2021-11-17 07:03:40,16.23366278854297
2021-11-17 08:03:44,16.345213172077905
2021-11-17 08:33:46,16.458040878599398
2021-11-17 09:03:49,16.57192654155644
2021-11-17 09:33:48,16.70146041989394
2021-11-17 10:03:49,16.818747736559466
2021-11-17 10:33:51,16.937532193748773
2021-11-17 11:03:53,17.05767414993384
2021-11-17 11:33:51,17.179792498810162
2021-11-17 12:03:53,17.31739101498227
2021-11-17 12:33:52,17.4424887184821
2021-11-17 13:03:50,17.58251672236359
2021-11-17 13:33:54,17.710669023290762
2021-11-17 14:03:53,17.840499293390593
2021-11-17 14:33:52,17.972024566899947
2021-11-17 15:03:52,18.105103436072575
2021-11-17 15:33:52,18.37530626211028
2021-11-17 16:33:51,18.65050661990755
2021-11-17 17:33:54,18.78935031414484
2021-11-17 18:03:53,18.925025823657926
2021-11-17 18:33:51,19.064094135386455
2021-11-17 19:03:52,19.20773801323198
2021-11-17 19:33:48,19.351842749481605
2021-11-17 20:03:46,19.492739890502854
2021-11-17 20:33:46,19.6327271720861
2021-11-17 21:03:41,19.77100541730957
2021-11-17 21:33:45,19.91746668444381
2021-11-17 22:03:43,20.051098866852158
2021-11-17 22:33:45,20.177820836343027
2021-11-17 23:03:43,20.295870855159528
2021-11-17 23:33:45,20.49472095492412
2021-11-18 00:33:44,20.57088461731657
2021-11-18 01:03:41,20.62969973139384
2021-11-18 01:33:42,20.669877591978064
2021-11-18 02:03:43,20.691128871328743
2021-11-18 02:33:43,20.693765365968112
2021-11-18 03:03:39,20.680768662315387
2021-11-18 03:33:40,20.755901811919305
2021-11-18 04:03:40,20.71800770821586
2021-11-18 04:33:40,20.668802575859022
2021-11-18 05:03:40,20.609644404633542
2021-11-18 05:33:40,20.54394849101145
2021-11-18 06:03:39,20.473236726675257
2021-11-18 06:33:39,20.39889516980824
2021-11-18 07:03:41,20.425767522889576
2021-11-18 07:33:45,20.345411203792494
2021-11-18 08:03:46,20.26461230168861
2021-11-18 08:33:49,20.102385507199184
2021-11-18 09:33:52,19.940686762779816
2021-11-18 10:33:55,19.8596518617186
2021-11-18 11:03:51,19.77836467810156
2021-11-18 11:33:53,19.613457937828944
2021-11-18 12:33:54,19.44488571442422
2021-11-18 13:33:56,19.111973937177627
2021-11-18 15:03:58,19.022636133549938
2021-11-18 15:33:57,18.931298335705193
2021-11-18 16:03:57,18.83705473173778
2021-11-18 16:33:56,18.805104049322555
2021-11-18 17:03:55,18.70160333954236
2021-11-18 17:33:55,18.593113650962035
2021-11-18 18:03:58,18.42229384754072
2021-11-18 18:33:55,18.307131005983237
2021-11-18 19:03:52,18.186390884006727
2021-11-18 19:33:51,18.05992270157792
2021-11-18 20:03:52,17.643786008789384
2021-11-18 21:33:46,17.491729657813792
2021-11-18 22:03:48,17.333685727265557
2021-11-18 22:33:44,17.168803558954508
2021-11-18 23:03:45,16.99814519488356
2021-11-18 23:33:45,16.83205034686779
2021-11-19 00:03:45,16.645755403617187
2021-11-19 00:33:44,16.456890407420058
2021-11-19 01:03:43,16.266790474012517
2021-11-19 01:33:47,16.07834844300951
2021-11-19 02:03:46,15.893090189740184
2021-11-19 02:33:44,15.712552524468668
2021-11-19 03:03:43,15.537891465732745
2021-11-19 03:33:47,15.371082201003084
2021-11-19 04:03:46,15.212299961719292
2021-11-19 04:33:44,15.061768921523703
2021-11-19 05:03:41,14.918655138384068
2021-11-19 05:33:43,14.783462747210386
2021-11-19 06:03:41,14.654831977318986
2021-11-19 06:33:43,14.532827374064093
2021-11-19 07:03:43,14.443483059480336
2021-11-19 07:33:49,14.3319533962147
2021-11-19 08:03:48,14.224799679111108
2021-11-19 08:33:50,14.096602685337096
2021-11-19 09:03:53,13.99850042420427
2021-11-19 09:33:54,13.904183216574447
2021-11-19 10:03:55,13.813402034015088
2021-11-19 10:33:58,13.749039558036111
2021-11-19 11:03:56,13.664617667642624
2021-11-19 11:33:56,13.561434522439743
2021-11-19 12:03:55,13.48370685786787
2021-11-19 12:33:56,13.40896860890941
2021-11-19 13:03:57,13.337253980659849
2021-11-19 13:33:57,13.182131733336883
2021-11-19 14:34:01,13.060155847303648
2021-11-19 15:34:00,13.004592198427265
2021-11-19 16:03:58,12.953265817833017
2021-11-19 16:34:00,12.907050721517622
2021-11-19 17:03:57,12.866490810069044
2021-11-19 17:33:59,12.805615226830561
2021-11-19 18:33:56,12.78655215311822
2021-11-19 19:03:55,12.81208670033392
2021-11-19 19:33:53,12.773821885880633
2021-11-19 20:03:52,12.780677000489938
2021-11-19 20:33:49,12.79641391618448
2021-11-19 21:03:50,12.820906896417968
2021-11-19 21:33:50,12.853884875383372
2021-11-19 22:03:49,12.89529963226913
2021-11-19 22:33:48,12.944759367494227
2021-11-19 23:03:47,13.001915641601853
2021-11-19 23:33:50,13.066425265960556
2021-11-20 00:03:48,13.13753318843874
2021-11-20 00:33:46,13.215310554129761
2021-11-20 01:03:49,13.298412579890028
2021-11-20 01:33:47,13.386962918417495
2021-11-20 02:03:50,13.479779656842274
2021-11-20 02:33:49,13.576976284906864
2021-11-20 03:03:47,13.678390933199124
2021-11-20 03:33:49,13.782989489810523
2021-11-20 04:03:46,13.891044001882928
2021-11-20 04:33:48,14.001623528392367
2021-11-20 05:03:46,14.114817514471863
2021-11-20 05:33:48,14.229523833137236
2021-11-20 06:03:44,14.346203783132113
2021-11-20 06:33:46,14.582787940745222
2021-11-20 07:33:48,14.70222831808666
2021-11-20 08:03:50,14.82228617721534
2021-11-20 08:33:53,14.942549098830144
2021-11-20 09:03:53,15.063286013376961
2021-11-20 09:33:55,15.464955534925384
2021-11-20 11:03:57,15.586121914280247
2021-11-20 11:33:58,15.708177763390383
2021-11-20 12:03:59,15.955520333635835
2021-11-20 13:03:59,16.081183720965907
2021-11-20 13:33:57,16.197035645474777
2021-11-20 14:04:00,16.338786528631914
2021-11-20 14:33:59,16.462504112640215
2021-11-20 15:04:02,16.59934795102806
2021-11-20 15:34:01,16.739262674146147
2021-11-20 16:04:00,16.88233056657828
2021-11-20 16:33:58,17.0290954077256
2021-11-20 17:04:01,17.17832370009007
2021-11-20 17:33:59,17.329665492144915
2021-11-20 18:04:01,17.64073370511999
2021-11-20 19:03:57,17.80008080767489
2021-11-20 19:33:55,17.961451405636815
2021-11-20 20:03:54,18.124165649494124
2021-11-20 20:33:52,18.287645338553716
2021-11-20 21:03:48,18.451944252623136
2021-11-20 21:33:48,18.61629479873692
2021-11-20 22:03:48,18.780277511877472
2021-11-20 22:33:47,18.944125496373275
2021-11-20 23:03:50,19.269188461345486
2021-11-21 00:03:46,19.431459876323913
2021-11-21 00:33:49,19.593152014812947
2021-11-21 01:03:48,19.75485846005857
2021-11-21 01:33:46,19.91741379474165
2021-11-21 02:03:49,20.08030604954139
2021-11-21 02:33:47,20.24455609064264
2021-11-21 03:03:49,20.409382826743954
2021-11-21 03:33:45,20.575815344834936
2021-11-21 04:03:47,20.75814995106589
2021-11-21 04:33:47,20.924138123063756
2021-11-21 05:03:43,21.08942232725752
2021-11-21 05:33:44,21.252590323473402
2021-11-21 06:03:44,21.413061837255444
2021-11-21 06:33:44,21.570358116616283
2021-11-21 07:03:46,21.722910694257813
2021-11-21 07:33:51,21.875360147934316
2021-11-21 08:03:53,22.02274430904236
2021-11-21 08:33:52,22.301506051625413
2021-11-21 09:33:55,22.674883523922944
2021-11-21 11:03:57,22.788112407159577
2021-11-21 11:33:59,22.8962002374443
2021-11-21 12:04:00,23.030222007022065
2021-11-21 12:33:58,23.098996346220254
2021-11-21 13:04:00,23.16066769157296
2021-11-21 13:33:59,23.31056514255592
2021-11-21 14:34:01,23.400989219839143
2021-11-21 15:04:00,23.49135210356627
2021-11-21 15:33:59,23.582018317146133
2021-11-21 16:04:03,23.638169453911257
2021-11-21 16:34:02,23.871346465927232
2021-11-21 18:03:58,24.04995459538308
2021-11-21 19:03:56,24.139382924209755
2021-11-21 19:33:55,24.228972118683966
2021-11-21 20:03:55,24.364665277726893
2021-11-21 20:33:48,24.456544053202393
2021-11-21 21:03:49,24.548082611800595
2021-11-21 21:33:49,24.639320993363686
2021-11-21 22:03:49,24.730157455032757
2021-11-21 22:33:48,24.820156072949167
2021-11-21 23:03:47,24.909654491629095
2021-11-21 23:33:51,24.997455040600787
2021-11-22 00:03:49,25.08341775090605
2021-11-22 00:33:47,25.16666140715985
2021-11-22 01:03:45,25.246855415740455
2021-11-22 01:33:48,25.32263762294595
2021-11-22 02:03:46,25.393495676483177
2021-11-22 02:33:49,25.45873214469002
2021-11-22 03:03:46,25.518363914548676
2021-11-22 03:33:47,25.571720381933545
2021-11-22 04:03:43,25.659528865653876
2021-11-22 05:03:44,25.69384419138979
2021-11-22 05:33:43,25.721663379782303
2021-11-22 06:03:43,25.74293551404971
2021-11-22 06:33:47,25.757698980657157
2021-11-22 07:03:49,25.76569137945719
2021-11-22 07:33:48,25.767169300730707
2021-11-22 08:03:51,25.76263040173294
2021-11-22 08:33:52,25.752775238680996
2021-11-22 09:03:54,25.735670932350722
2021-11-22 09:33:59,25.70154536717968
2021-11-22 10:33:57,25.68226199035722
2021-11-22 11:03:59,25.660694863988642
2021-11-22 11:33:58,25.63736787939076
2021-11-22 12:04:02,25.51769579019494
2021-11-22 14:34:03,25.47454903612772
2021-11-22 16:04:04,25.47441684117517
2021-11-22 16:34:00,25.463716868895727
2021-11-22 17:04:01,25.479285063480006
2021-11-22 19:04:00,25.48206658031032
2021-11-22 19:33:57,25.50451099918678
2021-11-22 20:03:57,25.512757484790562
2021-11-22 20:33:54,25.52370578000331
2021-11-22 21:03:55,25.55535121718167
2021-11-22 21:33:54,25.572341571070268
2021-11-22 22:03:52,25.573972962006124
2021-11-22 22:33:50,25.596887019838466
2021-11-22 23:03:51,25.60442750193363
2021-11-22 23:33:52,25.633824271838005
2021-11-23 00:03:49,25.6859277959539
2021-11-23 00:33:52,25.72249462922635
2021-11-23 01:03:49,25.76270294492697
2021-11-23 01:33:52,25.806065854750706
2021-11-23 02:03:49,25.852922693467413
2021-11-23 02:33:50,25.90305899685564
2021-11-23 03:03:51,25.95624799967789
2021-11-23 03:33:47,26.012685643057125
2021-11-23 04:03:48,26.090823418564007
2021-11-23 04:33:49,26.152809534768995
2021-11-23 05:03:50,26.235860120848724
2021-11-23 05:33:51,26.30218722064662
2021-11-23 06:03:51,26.38849138906886
2021-11-23 06:33:50,26.47562786671973
2021-11-23 07:03:50,26.5448942963904
2021-11-23 07:33:50,26.61822874403279
2021-11-23 08:03:50,26.691592049858173
2021-11-23 08:33:50,26.855623966515754
2021-11-23 09:33:51,26.944340806153065
2021-11-23 10:03:52,27.02012129782803
2021-11-23 10:33:50,27.251449808992373
2021-11-23 12:03:56,27.329028098560208
2021-11-23 12:33:55,27.56194414798349
2021-11-23 14:03:59,27.63896045076215
2021-11-23 14:34:00,27.715311660291537
2021-11-23 15:03:57,27.866149671086177
2021-11-23 16:04:01,28.077332917216804
2021-11-23 17:33:58,28.285503578855742
2021-11-23 19:03:54,28.416402238128793
2021-11-23 20:03:50,28.88767586215044
2021-11-23 23:33:48,28.9494020557164
2021-11-24 00:03:47,29.15515158753857
2021-11-24 01:33:45,29.217523328057556
2021-11-24 02:03:47,29.340978226688055
2021-11-24 03:03:46,29.401919284701936
2021-11-24 03:33:47,29.462043005675724
2021-11-24 04:03:47,29.521226494342525
2021-11-24 04:33:48,29.691506415156766
2021-11-24 06:03:47,29.745226228346528
2021-11-24 06:33:44,29.797412657507184
2021-11-24 07:03:47,29.84766281170857
2021-11-24 07:33:51,29.896054167971432
2021-11-24 08:03:52,29.942321519372168
2021-11-24 08:33:51,29.986749665840115
2021-11-24 09:03:55,30.10739938536584
2021-11-24 10:33:59,30.177838170768975
2021-11-24 11:33:57,30.322976396578383
2021-11-24 14:19:32,30.325780943987045
2021-11-24 14:31:35,30.34952224011112
2021-11-24 15:04:27,30.36972678176715
2021-11-24 15:33:56,30.47684202274061
2021-11-24 18:34:00,30.486398077417967
2021-11-24 19:03:57,30.498164381833643
2021-11-24 19:33:58,30.50512596264291
2021-11-24 20:03:58,30.51151439326962
2021-11-24 20:33:56,30.516140769190876
2021-11-24 21:03:53,30.522718388333406
2021-11-24 21:33:54,30.52750282445614
2021-11-24 22:03:55,30.53143973321744
2021-11-24 22:33:51,30.534742928193232
2021-11-24 23:03:57,30.53624086093529
2021-11-24 23:33:53,30.52663977642471
2021-11-25 02:03:52,30.523690269041673
2021-11-25 02:33:48,30.519914996101942
2021-11-25 03:03:49,30.509850012406954
2021-11-25 03:33:50,30.50487374296177
2021-11-25 04:03:50,30.499240496472893
2021-11-25 04:33:51,30.493005562882857
2021-11-25 05:03:51,30.486195019692502
2021-11-25 05:33:51,30.47879539112365
2021-11-25 06:03:47,30.470699618488624
2021-11-25 06:33:52,30.46193372076359
2021-11-25 07:03:47,30.45092977353013
2021-11-25 07:33:48,30.44186358418608
2021-11-25 08:03:48,30.4304788152742
2021-11-25 08:33:50,30.418101298993296
2021-11-25 09:03:52,30.404710113254236
2021-11-25 09:33:51,30.39014304172659
2021-11-25 10:03:54,30.374377090097784
2021-11-25 10:33:54,30.357304172678234
2021-11-25 11:03:54,30.32892743287166
2021-11-25 11:33:54,30.308336104739148
2021-11-25 12:03:55,30.297955988185453
2021-11-25 12:33:56,30.275611357055872
2021-11-25 13:03:52,30.264948750697535
2021-11-25 13:33:54,30.240479711063816
2021-11-25 14:03:55,30.229510587547097
2021-11-25 14:33:57,30.2187473175801
2021-11-25 15:03:53,30.189865188559047
2021-11-25 15:33:55,30.162024093218474
2021-11-25 16:03:56,30.082690532311243
2021-11-25 17:03:54,30.066632612886288
2021-11-25 17:33:55,30.050090852820542
2021-11-25 18:03:55,30.03279603178645
2021-11-25 18:33:51,29.99561594419776
2021-11-25 19:03:55,29.95739293262493
2021-11-25 19:33:49,29.917967949780568
2021-11-25 20:03:52,29.877674344711455
2021-11-25 20:33:49,29.794616735954076
2021-11-25 21:33:49,29.75222404636535
2021-11-25 22:03:49,29.709573583613334
2021-11-25 22:33:48,29.666775484435842
2021-11-25 23:03:47,29.624023240403183
2021-11-25 23:33:50,29.581582966849275
2021-11-26 00:03:47,29.545290013064367
2021-11-26 00:33:45,29.50499913404053
2021-11-26 01:03:46,29.458362202344908
2021-11-26 01:33:47,29.411943317699823
2021-11-26 02:03:47,29.320168441246377
2021-11-26 03:03:44,29.27492921601476
2021-11-26 03:33:44,29.230235691450915
2021-11-26 04:03:45,29.186211704247853
2021-11-26 04:33:46,29.143065094137775
2021-11-26 05:03:47,29.100947940743247
2021-11-26 05:33:47,29.060274470160994
2021-11-26 06:03:43,28.983185973882186
2021-11-26 07:03:46,28.947389371652907
2021-11-26 07:33:49,28.91369142548969
2021-11-26 08:03:49,28.882057428678014
2021-11-26 08:33:51,28.852678682712234
2021-11-26 09:03:50,28.778418415510544
2021-11-26 10:33:55,28.758751796385095
2021-11-26 11:03:59,28.741808595209456
2021-11-26 11:33:59,28.727855735408095
2021-11-26 12:03:56,28.716970023315213
2021-11-26 12:33:58,28.709417105419405
2021-11-26 13:04:01,28.707250435293435
2021-11-26 14:34:00,28.713440764599962
2021-11-26 15:03:58,28.75438792440919
2021-11-26 15:34:01,28.736702862227695
2021-11-26 16:03:59,28.75372928418804
2021-11-26 16:34:01,28.80279737750895
2021-11-26 17:03:59,28.852962034845348
2021-11-26 18:03:58,28.883435554200524
2021-11-26 18:33:58,28.917589450693065
2021-11-26 19:03:58,28.95551361679182
2021-11-26 19:33:55,28.997421419439846
2021-11-26 20:03:55,29.0197219641981
2021-11-26 20:33:53,29.070516407130473
2021-11-26 21:03:50,29.12563258384336
2021-11-26 21:33:51,29.18494181053111
2021-11-26 22:03:51,29.248253986365413
2021-11-26 22:33:47,29.31586392574994
2021-11-26 23:03:51,29.406216053395628
2021-11-26 23:33:50,29.480262873816265
2021-11-27 00:03:49,29.557765213602494
2021-11-27 00:33:47,29.638882910395164
2021-11-27 01:03:50,29.723089261579698
2021-11-27 01:33:47,29.79800543016183
2021-11-27 02:03:45,29.89002064454759
2021-11-27 02:33:47,29.995200530063503
2021-11-27 03:03:48,30.09166354068676
2021-11-27 03:33:46,30.19097750996788
2021-11-27 04:03:48,30.29244577757568
2021-11-27 04:33:45,30.39650164504531
2021-11-27 05:03:47,30.502667790924633
2021-11-27 05:33:48,30.602347928959663
2021-11-27 06:03:45,30.712386878572126
2021-11-27 06:33:46,30.82436395917084
2021-11-27 07:03:49,30.937946171359744
2021-11-27 07:33:49,31.053466546114958
2021-11-27 08:03:51,31.170789265797588
2021-11-27 08:33:54,31.279128122115218
2021-11-27 09:03:53,31.399556859217483
2021-11-27 09:33:54,31.52194503282296
2021-11-27 10:03:56,31.645887488726103
2021-11-27 10:33:54,31.77203119616277
2021-11-27 11:03:58,31.89946771000506
2021-11-27 11:33:57,32.02859190244581
2021-11-27 12:03:58,32.14664620199476
2021-11-27 12:33:59,32.278720563376986
2021-11-27 13:04:00,32.41160728339383
2021-11-27 13:33:57,32.54585441309123
2021-11-27 14:03:59,32.815692784963645
2021-11-27 15:03:58,32.95128320494604
2021-11-27 15:34:00,33.2226516104162
2021-11-27 16:33:57,33.35879903571557
2021-11-27 17:03:58,33.49511123773525
2021-11-27 17:33:58,33.63160262819978
2021-11-27 18:03:57,33.76828539272814
2021-11-27 18:33:55,33.905202907941316
2021-11-27 19:03:53,34.042529322181295
2021-11-27 19:33:54,34.1799045023588
2021-11-27 20:03:54,34.317242040795506
2021-11-27 20:33:53,34.454468054661284
2021-11-27 21:03:51,34.59188680583855
2021-11-27 21:33:53,34.72879596149016
2021-11-27 22:03:51,35.00186605432515
2021-11-27 23:03:49,35.137878721573124
2021-11-27 23:33:50,35.265071148815004
2021-11-28 00:03:51,35.39831984565137
2021-11-28 00:33:48,35.531128150126186
2021-11-28 01:03:48,35.663100535574294
2021-11-28 01:33:48,35.92371471648105
2021-11-28 02:33:49,36.05160328641916
2021-11-28 03:03:46,36.178075017493505
2021-11-28 03:33:48,36.30223193727444
2021-11-28 04:03:45,36.424424382667375
2021-11-28 04:33:46,36.54431519786811
2021-11-28 05:03:47,36.661765714556076
2021-11-28 05:33:48,36.776427831148716
2021-11-28 06:03:45,36.88881077293551
2021-11-28 06:33:46,36.99869397796432
2021-11-28 07:03:48,37.10559015678946
2021-11-28 07:33:44,37.210459223547225
2021-11-28 08:03:46,37.31294739506704
2021-11-28 08:33:49,37.41278322301589
2021-11-28 09:03:47,37.510866404395266
2021-11-28 09:33:51,37.606700072113725
2021-11-28 10:03:51,37.70053029125554
2021-11-28 10:33:48,37.792974757399094
2021-11-28 11:03:49,37.88394789795992
2021-11-28 11:33:50,37.97366172729757
2021-11-28 12:03:52,38.061872253508106
2021-11-28 12:33:50,38.149132522291666
2021-11-28 13:03:53,38.235010994485414
2021-11-28 13:33:52,38.31968713380392
2021-11-28 14:03:50,38.41172465657608
2021-11-28 14:33:54,38.492718922137286
2021-11-28 15:03:53,38.57257833488296
2021-11-28 15:33:53,38.65123049148046
2021-11-28 16:03:52,38.72882894233699
2021-11-28 16:33:52,38.80540346273435
2021-11-28 17:03:52,38.881070835236066
2021-11-28 17:33:51,38.95628298886512
2021-11-28 18:03:55,39.03080819797033
2021-11-28 18:33:53,39.105120261309054
2021-11-28 19:03:52,39.17921969923207
2021-11-28 19:33:49,39.253371611273025
2021-11-28 20:03:49,39.32741949379631
2021-11-28 20:33:48,39.40124338876422
2021-11-28 21:03:45,39.621871748140464
2021-11-28 22:33:45,39.6947300209523
2021-11-28 23:03:46,39.76710165510551
2021-11-28 23:33:47,39.90662701970215
2021-11-29 00:33:45,39.97788002206081
2021-11-29 01:03:46,40.051825343974926
2021-11-29 01:33:47,40.12229924699873
2021-11-29 02:03:47,40.19257099795653
2021-11-29 02:33:43,40.26330671862667
2021-11-29 03:03:48,40.33742551286526
2021-11-29 03:33:44,40.40897690957049
2021-11-29 04:03:44,40.48110822054104
2021-11-29 04:33:44,40.553880338700786
2021-11-29 05:03:43,40.62750528834972
2021-11-29 05:33:43,40.702264631770156
2021-11-29 06:03:47,40.777913064289216
2021-11-29 06:33:46,40.85490132360514
2021-11-29 07:03:47,40.93336320293064
2021-11-29 07:33:49,41.013276428100724
2021-11-29 08:03:48,41.09485767346455
2021-11-29 08:33:47,41.17829067243265
2021-11-29 09:03:48,41.2635072991693
2021-11-29 09:33:50,41.35047731592138
2021-11-29 10:03:53,41.43883432694939
2021-11-29 10:33:52,41.528587678237706
2021-11-29 11:03:51,41.62212995918766
2021-11-29 11:33:51,41.71303061544211
2021-11-29 12:03:52,41.80464637677388
2021-11-29 12:33:52,41.89691737259829
2021-11-29 13:03:54,41.989499607277864
2021-11-29 13:33:55,42.082328452213964
2021-11-29 14:03:57,42.17500400907899
2021-11-29 14:33:55,42.26781395195708
2021-11-29 15:03:57,42.36024429531664
2021-11-29 15:33:55,42.45267044294413
2021-11-29 16:03:58,42.544503195554206
2021-11-29 16:33:56,42.635132766299265
2021-11-29 17:03:55,42.72633883515375
2021-11-29 17:33:55,42.81706149939074
2021-11-29 18:03:58,42.906790450558034
2021-11-29 18:33:57,42.995440139080834
2021-11-29 19:03:54,43.08311733259704
2021-11-29 19:33:55,43.169304246761776
2021-11-29 20:03:53,43.253914448394816
2021-11-29 20:33:49,43.33982034361606
2021-11-29 21:03:48,43.42220940588424
2021-11-29 21:33:46,43.503193177166395
2021-11-29 22:03:49,43.58218151051009
2021-11-29 22:33:46,43.743217152353374
2021-11-29 23:33:48,43.807722498845024
2021-11-30 00:03:44,43.87862432411697
2021-11-30 00:33:45,44.077106218989385
2021-11-30 02:03:46,44.13838356171672
2021-11-30 02:33:46,44.197208825629005
2021-11-30 03:03:47,44.234187153676004
2021-11-30 03:33:46,44.28758278532062
2021-11-30 04:03:46,44.33895052310634
2021-11-30 04:33:46,44.38852212186634
2021-11-30 05:03:46,44.43640793415859
2021-11-30 05:33:46,44.48285348785731
2021-11-30 06:03:45,44.52822137311209
2021-11-30 06:33:45,44.572879697688684
2021-11-30 07:03:46,44.61726601288233
2021-11-30 07:33:49,44.66186232181143
2021-11-30 08:03:50,44.707188277313875
2021-11-30 08:33:53,44.8016736486388
2021-11-30 09:33:53,44.90396561947916
2021-11-30 10:33:55,44.95869363037004
2021-11-30 11:03:59,45.01576938267225
2021-11-30 11:33:59,45.07538456157473
2021-11-30 12:04:00,45.13729001065642
2021-11-30 12:33:56,45.2683166562889
2021-11-30 13:34:00,45.336623320701726
2021-11-30 14:03:57,45.40676577673165
2021-11-30 14:34:00,45.477944581487684
2021-11-30 15:03:57,45.550447540339505
2021-11-30 15:34:00,45.6980895734881
2021-11-30 16:34:01,45.77304525865411
2021-11-30 17:03:59,45.875052406822064
2021-11-30 17:34:00,45.952573527111305
2021-11-30 18:03:57,46.030872367603855
2021-11-30 18:33:57,46.109864174939254
2021-11-30 19:03:56,46.18937174449012
2021-11-30 19:33:53,46.269798195865945
2021-11-30 20:03:52,46.3508953737436
2021-11-30 20:33:48,46.43296525696937
2021-11-30 21:03:49,46.51573927993017
2021-11-30 21:33:48,46.599089441613245
2021-11-30 22:03:47,46.767297262517516
2021-11-30 23:03:49,46.93681199182583
2021-12-01 00:03:46,47.02202930740653
2021-12-01 00:33:48,47.083858422090174
2021-12-01 01:03:46,47.17110251816281
2021-12-01 01:33:48,47.258758858891085
2021-12-01 02:03:46,47.435265234767286
2021-12-01 03:03:45,47.5239345423887
2021-12-01 03:33:46,47.61266354418265
2021-12-01 04:03:48,47.701060118327646
2021-12-01 04:33:45,47.78942101745992
2021-12-01 05:03:47,47.877297201747936
2021-12-01 05:33:48,47.9643767946399
2021-12-01 06:03:45,48.05092014564114
2021-12-01 06:33:47,48.13649139110404
2021-12-01 07:03:49,48.22064775878442
2021-12-01 07:33:47,48.303550001458
2021-12-01 08:03:50,48.41246319615647
2021-12-01 08:33:49,48.49551397877081
2021-12-01 09:03:51,48.57582152845802
2021-12-01 09:33:54,48.65280498509058
2021-12-01 10:03:54,48.726035907170264
2021-12-01 10:33:55,48.79521982296622
2021-12-01 11:03:54,48.86002408786636
2021-12-01 11:33:58,48.92052925075871
2021-12-01 12:03:58,48.97635057966393
2021-12-01 12:33:58,49.07384633480047
2021-12-01 13:33:57,49.115470970195936
2021-12-01 14:04:00,49.152335414176946
2021-12-01 14:33:57,49.18439116788227
2021-12-01 15:03:58,49.212118927336334
2021-12-01 15:33:58,49.23515334104119
2021-12-01 16:03:59,49.25379946408825
2021-12-01 16:34:01,49.27803265885858
2021-12-01 17:33:59,49.28374093863969
2021-12-01 18:03:55,49.28535917426249
2021-12-01 18:33:55,49.28269664272068
2021-12-01 19:03:58,49.27603140896044
2021-12-01 19:33:55,49.26540715050247
2021-12-01 20:03:50,49.250938580650825
2021-12-01 20:33:52,49.23263194818221
2021-12-01 21:03:47,49.184558202368926
2021-12-01 22:03:51,49.1774167766694
2021-12-01 22:33:50,49.14123795330097
2021-12-01 23:03:49,49.10155182841781
2021-12-01 23:33:47,49.058599887375806
2021-12-02 00:03:50,49.012864271405036
2021-12-02 00:33:48,48.96453252601748
2021-12-02 01:03:45,48.91369926390816
2021-12-02 01:33:48,48.86103257549571
2021-12-02 02:03:45,48.806629760819476
2021-12-02 02:33:47,48.7509984095615
2021-12-02 03:03:49,48.6946333148841
2021-12-02 03:33:45,48.63741227958118
2021-12-02 04:03:46,48.579660379939014
2021-12-02 04:33:47,48.521473930108506
2021-12-02 05:03:47,48.4629579502738
2021-12-02 05:33:47,48.40421345512808
2021-12-02 06:03:46,48.34522133557782
2021-12-02 06:33:46,48.28610727407873
2021-12-02 07:03:47,48.22685480321575
2021-12-02 07:33:50,48.16769595504343
2021-12-02 08:03:51,48.1085748326093
2021-12-02 08:33:53,48.04970212370507
2021-12-02 09:03:51,47.99088382423529
2021-12-02 09:33:52,47.87387652043328
2021-12-02 10:33:56,47.81588976178188
2021-12-02 11:03:56,47.75346427440094
2021-12-02 11:33:56,47.69732187547775
2021-12-02 12:03:58,47.641694950319526
2021-12-02 12:34:01,47.5868239823855
2021-12-02 13:03:59,47.479797535606735
2021-12-02 14:04:01,47.42692843355206
2021-12-02 14:33:59,47.37529255651102
2021-12-02 15:03:58,47.32571421237328
2021-12-02 15:34:01,47.230100355383115
2021-12-02 16:33:57,47.185495229744596
2021-12-02 17:03:59,47.144682827894876
2021-12-02 17:33:57,47.10471705684026
2021-12-02 18:03:58,47.07087856064839
2021-12-02 18:33:58,47.0358281050473
2021-12-02 19:03:58,47.00296791449406
2021-12-02 19:33:56,46.97221856355535
2021-12-02 20:03:52,46.950778521140066
2021-12-02 20:33:50,46.92510243722427
2021-12-02 21:03:51,46.89276999352804
2021-12-02 21:33:51,46.87080284601699
2021-12-02 22:03:51,46.85130520599035
2021-12-02 22:33:51,46.83450423078382
2021-12-02 23:03:50,46.83574128357087
2021-12-02 23:33:50,46.827029981023735
2021-12-03 00:03:48,46.82178748953079
2021-12-03 00:33:47,46.82024652467287
2021-12-03 01:03:49,46.82243040554803
2021-12-03 01:33:47,46.82868945252572
2021-12-03 02:03:49,46.83880388635095
2021-12-03 02:33:46,46.88183464439832
2021-12-03 03:03:48,46.90146735547863
2021-12-03 03:33:45,46.925094468182415
2021-12-03 04:03:46,46.95236385284843
2021-12-03 04:33:47,46.983183805022016
2021-12-03 05:03:44,47.01767196107673
2021-12-03 05:33:44,47.05561883571824
2021-12-03 06:03:44,47.09694585281409
2021-12-03 06:33:45,47.14142441048849
2021-12-03 07:03:48,47.188697923319175
2021-12-03 07:33:47,47.23856207678282
2021-12-03 08:03:47,47.290849943504284
2021-12-03 08:33:49,47.345222717079054
2021-12-03 09:03:52,47.4013959744036
2021-12-03 09:33:52,47.459318621761554
2021-12-03 10:03:54,47.488845032984166
2021-12-03 10:33:56,47.580195291356326
2021-12-03 11:03:55,47.64321977083339
2021-12-03 11:33:59,47.77409675636507
2021-12-03 12:34:00,47.84221824607368
2021-12-03 13:03:57,47.91278257393654
2021-12-03 13:34:00,47.9591855973447
2021-12-03 14:03:58,48.19715186154967
2021-12-03 15:33:58,48.37315498550369
2021-12-03 16:33:59,48.66601542874112
2021-12-03 18:03:57,48.89527838132883
2021-12-03 19:03:55,49.00613877345086
2021-12-03 19:33:53,49.23785332138072
2021-12-03 20:33:55,49.357803447538615
2021-12-03 21:03:54,49.480199079687175
2021-12-03 21:33:53,49.604536685475715
2021-12-03 22:03:51,49.730433693520595
2021-12-03 22:33:48,49.98839104213107
2021-12-03 23:33:49,50.11604377524028
2021-12-04 00:03:49,50.24405923280251
2021-12-04 00:33:49,50.499733698644725
2021-12-04 01:33:45,50.62721638380325
2021-12-04 02:03:47,50.75357936382764
2021-12-04 02:33:45,51.00294667448725
2021-12-04 03:33:47,51.12525787777928
2021-12-04 04:03:50,51.24515467944178
2021-12-04 04:33:48,51.36277261521185
2021-12-04 05:03:47,51.47809604345305
2021-12-04 05:33:50,51.59026605914417
2021-12-04 06:03:48,51.69947873351717
2021-12-04 06:33:46,51.80580690496214
2021-12-04 07:03:49,51.90859746101458
2021-12-04 07:33:47,51.992240160837405
2021-12-04 08:03:46,52.087842667246306
2021-12-04 08:33:49,52.179977082180564
2021-12-04 09:03:49,52.26885837651222
2021-12-04 09:33:50,52.33567022403145
2021-12-04 10:03:51,52.39865026677349
2021-12-04 10:33:51,52.55444692573872
2021-12-04 11:33:55,52.628570597934065
2021-12-04 12:03:58,52.70015784475857
2021-12-04 12:33:57,52.7696462857927
2021-12-04 13:03:57,52.819136578133794
2021-12-04 13:33:58,52.88520860336697
2021-12-04 14:03:59,52.94966696406618
2021-12-04 14:34:00,53.02931161284605
2021-12-04 15:03:57,53.09054583598775
2021-12-04 15:33:58,53.15070096339033
2021-12-04 16:03:59,53.20986212493122
2021-12-04 16:34:00,53.268151991170264
2021-12-04 17:03:56,53.340412526963874
2021-12-04 17:33:57,53.52136643625164
2021-12-04 19:03:54,53.576484825315546
2021-12-04 19:33:55,53.641900601070496
2021-12-04 20:03:54,53.6961326415081
2021-12-04 20:33:51,53.75113321733532
2021-12-04 21:03:51,53.80683410521755
2021-12-04 21:33:46,53.86377844388624
2021-12-04 22:03:50,53.92168155387726
2021-12-04 22:33:49,54.04256837029075
2021-12-04 23:33:45,54.175425667834894
2021-12-05 00:33:45,54.24376530565632
2021-12-05 01:03:48,54.31193592212563
2021-12-05 01:33:46,54.37981570649211
2021-12-05 02:03:48,54.44682547746878
2021-12-05 02:33:45,54.51327348917413
2021-12-05 03:03:48,54.57873454735461
2021-12-05 03:33:46,54.64359880442807
2021-12-05 04:03:49,54.707556159527364
2021-12-05 04:33:47,54.77095333030512
2021-12-05 05:03:48,54.83360921041541
2021-12-05 05:33:45,54.89586799665007
2021-12-05 06:03:46,54.95765359657059
2021-12-05 06:33:47,55.019095642329354
2021-12-05 07:03:50,55.14087462779976
2021-12-05 08:03:53,55.20131950371899
2021-12-05 08:33:53,55.32176759603717
2021-12-05 09:33:56,55.38166194770959
2021-12-05 10:03:53,55.44169402426518
2021-12-05 10:33:56,55.741764937779664
2021-12-05 13:03:56,55.80212343143897
2021-12-05 13:33:57,55.8626178313426
2021-12-05 14:03:57,55.92337401073822
2021-12-05 14:33:59,56.04539453949545
2021-12-05 15:33:58,56.16856477219583
2021-12-05 16:34:00,56.23042005343039
2021-12-05 17:03:56,56.292697368304225
2021-12-05 17:33:55,56.35545109105978
2021-12-05 18:03:58,56.41838492448834
2021-12-05 18:33:56,56.481688587224276
2021-12-05 19:03:54,56.54548237634346
2021-12-05 19:33:55,56.60963623750841
2021-12-05 20:03:55,56.6741579422453
2021-12-05 20:33:54,56.739089137164385
2021-12-05 21:03:53,56.80439740489928
2021-12-05 21:33:51,56.8701202918348
2021-12-05 22:03:49,56.93636762451881
2021-12-05 22:33:50,57.002989728375546
2021-12-05 23:03:50,57.070017836254934
