datetime,timelinux,s2
2023-03-10 03:04:29,1.678417469,104.0
2023-03-10 03:34:26,1.678419266,108.0
2023-03-10 04:04:27,1.678421067,108.0
2023-03-10 04:34:29,1.678422869,105.0
2023-03-10 05:04:25,1.678424665,108.0
2023-03-10 05:34:26,1.678426466,105.0
2023-03-10 06:04:27,1.678428267,108.0
2023-03-10 06:34:24,1.678430064,108.0
2023-03-10 07:04:24,1.678431864,107.0
2023-03-10 07:34:24,1.678433664,100.0
2023-03-10 08:04:27,1.678435467,107.0
2023-03-10 08:34:32,1.678437272,106.0
2023-03-10 09:04:30,1.67843907,103.0
2023-03-10 09:34:35,1.678440875,105.0
2023-03-10 10:04:38,1.678442678,99.0
2023-03-10 10:34:38,1.678444478,104.0
2023-03-10 11:04:39,1.678446279,104.0
2023-03-10 11:34:40,1.67844808,105.0
2023-03-10 12:04:37,1.678449877,101.0
2023-03-10 12:34:39,1.678451679,104.0
2023-03-10 13:04:42,1.678453482,102.0
2023-03-10 13:34:40,1.67845528,103.0
2023-03-10 14:04:39,1.678457079,103.0
2023-03-10 14:34:43,1.678458883,104.0
2023-03-10 15:04:43,1.678460683,104.0
2023-03-10 15:34:43,1.678462483,102.0
2023-03-10 16:04:41,1.678464281,105.0
2023-03-10 16:34:38,1.678466078,105.0
2023-03-10 17:04:41,1.678467881,103.0
2023-03-10 17:34:39,1.678469679,104.0
2023-03-10 18:04:37,1.678471477,105.0
2023-03-10 18:34:39,1.678473279,106.0
2023-03-10 19:04:39,1.678475079,101.0
2023-03-10 19:34:32,1.678476872,100.0
2023-03-10 20:04:32,1.678478672,99.0
2023-03-10 20:34:30,1.67848047,101.0
2023-03-10 21:04:33,1.678482273,107.0
2023-03-10 21:34:30,1.67848407,101.0
2023-03-10 22:04:31,1.678485871,106.0
2023-03-10 22:34:31,1.678487671,106.0
2023-03-10 23:04:27,1.678489467,107.0
2023-03-10 23:34:31,1.678491271,107.0
2023-03-11 00:04:30,1.67849307,108.0
2023-03-11 00:34:29,1.678494869,107.0
2023-03-11 01:04:27,1.678496667,108.0
2023-03-11 01:34:26,1.678498466,107.0
2023-03-11 02:04:28,1.678500268,107.0
2023-03-11 02:34:26,1.678502066,108.0
2023-03-11 03:04:28,1.678503868,108.0
2023-03-11 03:34:26,1.678505666,106.0
2023-03-11 04:04:29,1.678507469,108.0
2023-03-11 04:34:27,1.678509267,108.0
2023-03-11 05:04:30,1.67851107,108.0
2023-03-11 05:34:27,1.678512867,109.0
2023-03-11 06:04:28,1.678514668,100.0
2023-03-11 06:34:24,1.678516464,96.0
2023-03-11 07:04:25,1.678518265,100.0
2023-03-11 07:34:26,1.678520066,106.0
2023-03-11 08:04:29,1.678521869,107.0
2023-03-11 08:34:29,1.678523669,4.0
2023-03-11 09:04:32,1.678525472,106.0
2023-03-11 09:34:32,1.678527272,102.0
2023-03-11 10:04:34,1.678529074,104.0
2023-03-11 10:34:37,1.678530877,104.0
2023-03-11 11:04:37,1.678532677,106.0
2023-03-11 11:34:37,1.678534477,104.0
2023-03-11 12:04:38,1.678536278,105.0
2023-03-11 12:34:40,1.67853808,105.0
2023-03-11 13:04:38,1.678539878,105.0
2023-03-11 13:34:41,1.678541681,104.0
2023-03-11 14:04:39,1.678543479,105.0
2023-03-11 14:34:39,1.678545279,103.0
2023-03-11 15:04:43,1.678547083,104.0
2023-03-11 15:34:39,1.678548879,103.0
2023-03-11 16:04:44,1.678550684,100.0
2023-03-11 16:34:39,1.678552479,104.0
2023-03-11 17:04:43,1.678554283,105.0
2023-03-11 17:34:42,1.678556082,101.0
2023-03-11 18:04:40,1.67855788,98.0
2023-03-11 18:34:38,1.678559678,106.0
2023-03-11 19:04:38,1.678561478,99.0
2023-03-11 19:34:37,1.678563277,100.0
2023-03-11 20:04:33,1.678565073,100.0
2023-03-11 20:34:33,1.678566873,104.0
2023-03-11 21:04:30,1.67856867,107.0
2023-03-11 21:34:31,1.678570471,103.0
2023-03-11 22:04:27,1.678572267,106.0
2023-03-11 22:34:31,1.678574071,106.0
2023-03-11 23:04:31,1.678575871,103.0
2023-03-11 23:34:30,1.67857767,107.0
2023-03-12 00:04:29,1.678579469,106.0
2023-03-12 00:34:28,1.678581268,105.0
2023-03-12 01:04:27,1.678583067,107.0
2023-03-12 01:34:30,1.67858487,105.0
2023-03-12 02:04:28,1.678586668,107.0
2023-03-12 02:34:26,1.678588466,105.0
2023-03-12 03:04:28,1.678590268,106.0
2023-03-12 03:34:26,1.678592066,105.0
2023-03-12 04:04:28,1.678593868,108.0
2023-03-12 04:34:25,1.678595665,108.0
2023-03-12 05:04:26,1.678597466,107.0
2023-03-12 05:34:28,1.678599268,108.0
2023-03-12 06:04:26,1.678601066,105.0
2023-03-12 06:34:27,1.678602867,104.0
2023-03-12 07:04:24,1.678604664,102.0
2023-03-12 07:34:26,1.678606466,103.0
2023-03-12 08:04:29,1.678608269,101.0
2023-03-12 08:34:28,1.678610068,107.0
2023-03-12 09:04:29,1.678611869,106.0
2023-03-12 09:34:32,1.678613672,106.0
2023-03-12 10:04:33,1.678615473,103.0
2023-03-12 10:34:35,1.678617275,95.0
2023-03-12 11:04:37,1.678619077,104.0
2023-03-12 11:34:37,1.678620877,105.0
2023-03-12 12:04:38,1.678622678,104.0
2023-03-12 12:34:39,1.678624479,105.0
2023-03-12 13:04:36,1.678626276,105.0
2023-03-12 13:34:39,1.678628079,105.0
2023-03-12 14:04:38,1.678629878,104.0
2023-03-12 14:34:40,1.67863168,103.0
2023-03-12 15:04:40,1.67863348,103.0
2023-03-12 15:34:40,1.67863528,103.0
2023-03-12 16:04:41,1.678637081,104.0
2023-03-12 16:34:41,1.678638881,101.0
2023-03-12 17:04:40,1.67864068,103.0
2023-03-12 17:34:39,1.678642479,101.0
2023-03-12 18:04:42,1.678644282,105.0
2023-03-12 18:34:38,1.678646078,105.0
2023-03-12 19:04:38,1.678647878,107.0
2023-03-12 19:34:35,1.678649675,97.0
2023-03-12 20:04:33,1.678651473,100.0
2023-03-12 20:34:31,1.678653271,85.0
2023-03-12 21:04:32,1.678655072,86.0
2023-03-12 21:34:28,1.678656868,121.0
2023-03-12 22:04:29,1.678658669,115.0
2023-03-12 22:34:29,1.678660469,99.0
2023-03-12 23:04:29,1.678662269,112.0
2023-03-12 23:34:29,1.678664069,120.0
2023-03-13 00:04:29,1.678665869,104.0
2023-03-13 00:34:28,1.678667668,108.0
2023-03-13 01:04:27,1.678669467,90.0
2023-03-13 01:34:26,1.678671266,84.0
2023-03-13 02:04:29,1.678673069,113.0
2023-03-13 02:34:27,1.678674867,78.0
2023-03-13 03:04:30,1.67867667,129.0
2023-03-13 03:34:28,1.678678468,107.0
2023-03-13 04:04:26,1.678680266,107.0
2023-03-13 04:34:30,1.67868207,105.0
2023-03-13 05:04:29,1.678683869,107.0
2023-03-13 05:34:29,1.678685669,106.0
2023-03-13 06:04:28,1.678687468,112.0
2023-03-13 06:34:26,1.678689266,105.0
2023-03-13 07:04:28,1.678691068,109.0
2023-03-13 07:34:26,1.678692866,106.0
2023-03-13 08:04:29,1.678694669,107.0
2023-03-13 08:34:29,1.678696469,107.0
2023-03-13 09:04:31,1.678698271,105.0
2023-03-13 09:34:34,1.678700074,102.0
2023-03-13 10:04:34,1.678701874,106.0
2023-03-13 10:34:36,1.678703676,105.0
2023-03-13 11:04:34,1.678705474,104.0
2023-03-13 11:34:39,1.678707279,105.0
2023-03-13 12:04:39,1.678709079,105.0
2023-03-13 12:34:36,1.678710876,105.0
2023-03-13 13:04:39,1.678712679,104.0
2023-03-13 13:34:42,1.678714482,106.0
2023-03-13 14:04:40,1.67871628,104.0
2023-03-13 14:34:40,1.67871808,105.0
2023-03-13 15:04:41,1.678719881,106.0
2023-03-13 15:34:39,1.678721679,104.0
2023-03-13 16:04:43,1.678723483,102.0
2023-03-13 16:34:43,1.678725283,102.0
2023-03-13 17:04:42,1.678727082,106.0
2023-03-13 17:34:42,1.678728882,99.0
2023-03-13 18:04:40,1.67873068,106.0
2023-03-13 18:34:37,1.678732477,105.0
2023-03-13 19:04:37,1.678734277,3.0
2023-03-13 19:34:34,1.678736074,122.0
2023-03-13 20:04:35,1.678737875,107.0
2023-03-13 20:34:33,1.678739673,108.0
2023-03-13 21:04:30,1.67874147,105.0
2023-03-13 21:34:33,1.678743273,103.0
2023-03-13 22:04:30,1.67874507,105.0
2023-03-13 22:34:31,1.678746871,104.0
2023-03-13 23:04:32,1.678748672,107.0
2023-03-13 23:34:28,1.678750468,107.0
2023-03-14 00:04:29,1.678752269,107.0
2023-03-14 00:34:30,1.67875407,107.0
2023-03-14 01:04:31,1.678755871,107.0
2023-03-14 01:34:32,1.678757672,107.0
2023-03-14 02:04:27,1.678759467,107.0
2023-03-14 02:34:27,1.678761267,107.0
2023-03-14 03:04:31,1.678763071,108.0
2023-03-14 03:34:30,1.67876487,107.0
2023-03-14 04:04:28,1.678766668,108.0
2023-03-14 04:34:27,1.678768467,107.0
2023-03-14 05:04:29,1.678770269,107.0
2023-03-14 05:34:27,1.678772067,106.0
2023-03-14 06:04:25,1.678773865,109.0
2023-03-14 06:34:27,1.678775667,107.0
2023-03-14 07:04:29,1.678777469,107.0
2023-03-14 07:34:27,1.678779267,106.0
2023-03-14 08:04:31,1.678781071,105.0
2023-03-14 08:34:32,1.678782872,106.0
2023-03-14 09:04:30,1.67878467,102.0
2023-03-14 09:34:34,1.678786474,100.0
2023-03-14 10:04:34,1.678788274,105.0
2023-03-14 10:34:36,1.678790076,106.0
2023-03-14 11:04:33,1.678791873,104.0
2023-03-14 11:34:36,1.678793676,105.0
2023-03-14 12:04:36,1.678795476,104.0
2023-03-14 12:34:35,1.678797275,104.0
2023-03-14 13:04:41,1.678799081,105.0
2023-03-14 13:34:36,1.678800876,105.0
2023-03-14 14:04:36,1.678802676,105.0
2023-03-14 14:34:38,1.678804478,107.0
2023-03-14 15:04:41,1.678806281,105.0
2023-03-14 15:34:35,1.678808075,106.0
2023-03-14 16:04:30,1.67880987,105.0
2023-03-14 16:34:32,1.678811672,104.0
2023-03-14 17:04:32,1.678813472,105.0
2023-03-14 17:34:32,1.678815272,104.0
2023-03-14 18:04:31,1.678817071,105.0
2023-03-14 18:34:34,1.678818874,105.0
2023-03-14 19:04:32,1.678820672,107.0
2023-03-14 19:34:29,1.678822469,106.0
2023-03-14 20:04:29,1.678824269,100.0
2023-03-14 20:34:29,1.678826069,98.0
2023-03-14 21:04:28,1.678827868,107.0
2023-03-14 21:34:26,1.678829666,107.0
2023-03-14 22:04:29,1.678831469,90.0
2023-03-14 22:34:27,1.678833267,107.0
2023-03-14 23:04:30,1.67883507,103.0
2023-03-14 23:34:28,1.678836868,107.0
2023-03-15 00:04:25,1.678838665,107.0
2023-03-15 00:34:27,1.678840467,106.0
2023-03-15 01:04:25,1.678842265,107.0
2023-03-15 01:34:28,1.678844068,107.0
2023-03-15 02:04:26,1.678845866,106.0
2023-03-15 02:34:28,1.678847668,106.0
2023-03-15 03:04:26,1.678849466,107.0
2023-03-15 03:34:28,1.678851268,107.0
2023-03-15 04:04:25,1.678853065,107.0
2023-03-15 04:34:26,1.678854866,107.0
2023-03-15 05:04:28,1.678856668,106.0
2023-03-15 05:34:24,1.678858464,106.0
2023-03-15 06:04:26,1.678860266,107.0
2023-03-15 06:34:27,1.678862067,107.0
2023-03-15 07:04:28,1.678863868,108.0
2023-03-15 07:34:25,1.678865665,113.0
2023-03-15 08:04:28,1.678867468,105.0
2023-03-15 08:34:28,1.678869268,103.0
2023-03-15 09:04:29,1.678871069,102.0
2023-03-15 09:34:31,1.678872871,104.0
2023-03-15 10:04:30,1.67887467,100.0
2023-03-15 10:34:34,1.678876474,105.0
2023-03-15 11:04:36,1.678878276,104.0
2023-03-15 11:34:34,1.678880074,103.0
2023-03-15 12:04:39,1.678881879,102.0
2023-03-15 12:34:39,1.678883679,105.0
2023-03-15 13:04:34,1.678885474,103.0
2023-03-15 13:34:40,1.67888728,105.0
2023-03-15 14:04:35,1.678889075,105.0
2023-03-15 14:34:36,1.678890876,104.0
2023-03-15 15:04:37,1.678892677,105.0
2023-03-15 15:34:38,1.678894478,105.0
2023-03-15 16:04:39,1.678896279,102.0
2023-03-15 16:34:37,1.678898077,118.0
2023-03-15 17:04:34,1.678899874,105.0
2023-03-15 17:34:36,1.678901676,106.0
2023-03-15 18:04:33,1.678903473,104.0
2023-03-15 18:34:35,1.678905275,106.0
2023-03-15 19:04:35,1.678907075,110.0
2023-03-15 19:34:30,1.67890887,73.0
2023-03-15 20:04:32,1.678910672,3.0
2023-03-15 20:34:30,1.67891247,104.0
2023-03-15 21:04:31,1.678914271,106.0
2023-03-15 21:34:32,1.678916072,104.0
2023-03-15 22:04:28,1.678917868,106.0
2023-03-15 22:34:28,1.678919668,105.0
2023-03-15 23:04:27,1.678921467,103.0
2023-03-15 23:34:30,1.67892327,104.0
2023-03-16 00:04:29,1.678925069,104.0
2023-03-16 00:34:26,1.678926866,107.0
2023-03-16 01:04:28,1.678928668,107.0
2023-03-16 01:34:24,1.678930464,107.0
2023-03-16 02:04:25,1.678932265,106.0
2023-03-16 02:34:26,1.678934066,108.0
2023-03-16 03:04:27,1.678935867,108.0
2023-03-16 03:34:28,1.678937668,108.0
2023-03-16 04:04:23,1.678939463,105.0
2023-03-16 04:34:24,1.678941264,107.0
2023-03-16 05:04:25,1.678943065,108.0
2023-03-16 05:34:26,1.678944866,108.0
2023-03-16 06:04:26,1.678946666,104.0
2023-03-16 06:34:27,1.678948467,108.0
2023-03-16 07:04:27,1.678950267,107.0
2023-03-16 07:34:28,1.678952068,108.0
2023-03-16 08:04:25,1.678953865,107.0
2023-03-16 08:34:28,1.678955668,106.0
2023-03-16 09:04:28,1.678957468,104.0
2023-03-16 09:34:30,1.67895927,102.0
2023-03-16 10:04:34,1.678961074,106.0
2023-03-16 10:34:34,1.678962874,104.0
2023-03-16 11:04:35,1.678964675,105.0
2023-03-16 11:34:37,1.678966477,105.0
2023-03-16 12:04:35,1.678968275,105.0
2023-03-16 12:34:37,1.678970077,104.0
2023-03-16 13:04:36,1.678971876,104.0
2023-03-16 13:34:35,1.678973675,105.0
2023-03-16 14:04:35,1.678975475,106.0
2023-03-16 14:34:38,1.678977278,105.0
2023-03-16 15:04:38,1.678979078,102.0
2023-03-16 15:34:39,1.678980879,104.0
2023-03-16 16:04:39,1.678982679,103.0
2023-03-16 16:34:36,1.678984476,104.0
2023-03-16 17:04:37,1.678986277,104.0
2023-03-16 17:34:36,1.678988076,106.0
2023-03-16 18:04:36,1.678989876,103.0
2023-03-16 18:34:35,1.678991675,105.0
2023-03-16 19:04:37,1.678993477,106.0
2023-03-16 19:34:32,1.678995272,93.0
2023-03-16 20:04:31,1.678997071,105.0
2023-03-16 20:34:32,1.678998872,99.0
2023-03-16 21:04:29,1.679000669,106.0
2023-03-16 21:34:29,1.679002469,105.0
2023-03-16 22:04:28,1.679004268,106.0
2023-03-16 22:34:28,1.679006068,106.0
2023-03-16 23:04:27,1.679007867,105.0
2023-03-16 23:34:30,1.67900967,107.0
2023-03-17 00:04:28,1.679011468,106.0
2023-03-17 00:34:25,1.679013265,108.0
2023-03-17 01:04:27,1.679015067,106.0
2023-03-17 01:34:29,1.679016869,106.0
2023-03-17 02:04:26,1.679018666,105.0
2023-03-17 02:34:28,1.679020468,107.0
2023-03-17 03:04:25,1.679022265,107.0
2023-03-17 03:34:27,1.679024067,107.0
2023-03-17 04:04:28,1.679025868,107.0
2023-03-17 04:34:24,1.679027664,107.0
2023-03-17 05:04:25,1.679029465,108.0
2023-03-17 05:34:26,1.679031266,109.0
2023-03-17 06:04:27,1.679033067,106.0
2023-03-17 06:34:27,1.679034867,107.0
2023-03-17 07:04:27,1.679036667,107.0
2023-03-17 07:34:27,1.679038467,101.0
2023-03-17 08:04:25,1.679040265,99.0
2023-03-17 08:34:31,1.679042071,129.0
2023-03-17 09:04:35,1.679043875,105.0
2023-03-17 09:34:36,1.679045676,106.0
2023-03-17 10:04:33,1.679047473,105.0
2023-03-17 10:34:36,1.679049276,93.0
2023-03-17 11:04:36,1.679051076,102.0
2023-03-17 11:34:35,1.679052875,104.0
2023-03-17 12:04:36,1.679054676,105.0
2023-03-17 12:34:36,1.679056476,104.0
2023-03-17 13:04:37,1.679058277,99.0
2023-03-17 13:34:35,1.679060075,104.0
2023-03-17 14:04:35,1.679061875,102.0
2023-03-17 14:34:35,1.679063675,104.0
2023-03-17 15:04:41,1.679065481,103.0
2023-03-17 15:34:38,1.679067278,105.0
2023-03-17 16:04:40,1.67906908,97.0
2023-03-17 16:34:37,1.679070877,104.0
2023-03-17 17:04:37,1.679072677,104.0
2023-03-17 17:34:37,1.679074477,104.0
2023-03-17 18:04:37,1.679076277,103.0
2023-03-17 18:34:35,1.679078075,103.0
2023-03-17 19:04:37,1.679079877,105.0
2023-03-17 19:34:32,1.679081672,106.0
2023-03-17 20:04:31,1.679083471,107.0
2023-03-17 20:34:33,1.679085273,106.0
2023-03-17 21:04:30,1.67908707,105.0
2023-03-17 21:34:31,1.679088871,105.0
2023-03-17 22:04:28,1.679090668,107.0
2023-03-17 22:34:29,1.679092469,107.0
2023-03-17 23:04:29,1.679094269,107.0
2023-03-17 23:34:29,1.679096069,107.0
2023-03-18 00:04:29,1.679097869,107.0
2023-03-18 00:34:29,1.679099669,107.0
2023-03-18 01:04:29,1.679101469,104.0
2023-03-18 01:34:28,1.679103268,107.0
2023-03-18 02:04:27,1.679105067,106.0
2023-03-18 02:34:30,1.67910687,106.0
2023-03-18 03:04:28,1.679108668,106.0
2023-03-18 03:34:26,1.679110466,106.0
2023-03-18 04:04:28,1.679112268,107.0
2023-03-18 04:34:25,1.679114065,107.0
2023-03-18 05:04:26,1.679115866,108.0
2023-03-18 05:34:27,1.679117667,104.0
2023-03-18 06:04:23,1.679119463,104.0
2023-03-18 06:34:24,1.679121264,106.0
2023-03-18 07:04:25,1.679123065,100.0
2023-03-18 07:34:26,1.679124866,106.0
2023-03-18 08:04:28,1.679126668,103.0
2023-03-18 08:34:28,1.679128468,106.0
2023-03-18 09:04:29,1.679130269,105.0
2023-03-18 09:34:32,1.679132072,106.0
2023-03-18 10:04:32,1.679133872,105.0
2023-03-18 10:34:33,1.679135673,106.0
2023-03-18 11:04:35,1.679137475,104.0
2023-03-18 11:34:38,1.679139278,103.0
2023-03-18 12:04:36,1.679141076,105.0
2023-03-18 12:34:36,1.679142876,103.0
2023-03-18 13:04:36,1.679144676,105.0
2023-03-18 13:34:36,1.679146476,104.0
2023-03-18 14:04:37,1.679148277,104.0
2023-03-18 14:34:37,1.679150077,106.0
2023-03-18 15:04:37,1.679151877,104.0
2023-03-18 15:34:37,1.679153677,103.0
2023-03-18 16:04:37,1.679155477,111.0
2023-03-18 16:34:39,1.679157279,105.0
2023-03-18 17:04:40,1.67915908,105.0
2023-03-18 17:34:37,1.679160877,105.0
2023-03-18 18:04:38,1.679162678,105.0
2023-03-18 18:34:38,1.679164478,105.0
2023-03-18 19:04:36,1.679166276,102.0
2023-03-18 19:34:32,1.679168072,104.0
2023-03-18 20:04:31,1.679169871,105.0
2023-03-18 20:34:29,1.679171669,106.0
2023-03-18 21:04:31,1.679173471,105.0
2023-03-18 21:34:28,1.679175268,107.0
2023-03-18 22:04:29,1.679177069,105.0
2023-03-18 22:34:30,1.67917887,105.0
2023-03-18 23:04:30,1.67918067,106.0
2023-03-18 23:34:30,1.67918247,106.0
2023-03-19 00:04:30,1.67918427,106.0
2023-03-19 00:34:29,1.679186069,107.0
2023-03-19 01:04:29,1.679187869,106.0
2023-03-19 01:34:28,1.679189668,104.0
2023-03-19 02:04:27,1.679191467,106.0
2023-03-19 02:34:31,1.679193271,107.0
2023-03-19 03:04:29,1.679195069,107.0
2023-03-19 03:34:27,1.679196867,107.0
2023-03-19 04:04:25,1.679198665,105.0
2023-03-19 04:34:28,1.679200468,106.0
2023-03-19 05:04:26,1.679202266,104.0
2023-03-19 05:34:28,1.679204068,107.0
2023-03-19 06:04:26,1.679205866,107.0
2023-03-19 06:34:28,1.679207668,106.0
2023-03-19 07:04:25,1.679209465,107.0
2023-03-19 07:34:27,1.679211267,106.0
2023-03-19 08:04:30,1.67921307,105.0
2023-03-19 08:34:31,1.679214871,104.0
2023-03-19 09:04:33,1.679216673,103.0
2023-03-19 09:34:32,1.679218472,105.0
2023-03-19 10:04:33,1.679220273,105.0
2023-03-19 10:34:34,1.679222074,104.0
2023-03-19 11:04:37,1.679223877,105.0
2023-03-19 11:34:36,1.679225676,105.0
2023-03-19 12:04:36,1.679227476,103.0
2023-03-19 12:34:36,1.679229276,104.0
2023-03-19 13:04:38,1.679231078,110.0
2023-03-19 13:34:40,1.67923288,104.0
2023-03-19 14:04:37,1.679234677,103.0
2023-03-19 14:34:39,1.679236479,104.0
2023-03-19 15:04:42,1.679238282,105.0
2023-03-19 15:34:40,1.67924008,104.0
2023-03-19 16:04:37,1.679241877,104.0
2023-03-19 16:34:39,1.679243679,106.0
2023-03-19 17:04:36,1.679245476,104.0
2023-03-19 17:34:38,1.679247278,106.0
2023-03-19 18:04:39,1.679249079,104.0
2023-03-19 18:34:38,1.679250878,102.0
2023-03-19 19:04:37,1.679252677,104.0
2023-03-19 19:34:35,1.679254475,104.0
2023-03-19 20:04:35,1.679256275,103.0
2023-03-19 20:34:34,1.679258074,104.0
2023-03-19 21:04:32,1.679259872,103.0
2023-03-19 21:34:29,1.679261669,102.0
2023-03-19 22:04:30,1.67926347,103.0
2023-03-19 22:34:30,1.67926527,106.0
2023-03-19 23:04:29,1.679267069,104.0
2023-03-19 23:34:28,1.679268868,105.0
2023-03-20 00:04:27,1.679270667,102.0
2023-03-20 00:34:30,1.67927247,106.0
2023-03-20 01:04:28,1.679274268,104.0
2023-03-20 01:34:26,1.679276066,105.0
2023-03-20 02:04:28,1.679277868,106.0
2023-03-20 02:34:26,1.679279666,105.0
2023-03-20 03:04:28,1.679281468,106.0
2023-03-20 03:34:26,1.679283266,105.0
2023-03-20 04:04:28,1.679285068,106.0
2023-03-20 04:34:26,1.679286866,102.0
2023-03-20 05:04:28,1.679288668,107.0
2023-03-20 05:34:26,1.679290466,107.0
2023-03-20 06:04:28,1.679292268,104.0
2023-03-20 06:34:26,1.679294066,106.0
2023-03-20 07:04:28,1.679295868,106.0
2023-03-20 07:34:26,1.679297666,110.0
2023-03-20 08:04:29,1.679299469,107.0
2023-03-20 08:34:28,1.679301268,107.0
2023-03-20 09:04:27,1.679303067,105.0
2023-03-20 09:34:28,1.679304868,104.0
2023-03-20 10:04:29,1.679306669,107.0
2023-03-20 10:34:30,1.67930847,105.0
2023-03-20 11:04:32,1.679310272,102.0
2023-03-20 11:34:29,1.679312069,104.0
2023-03-20 12:04:33,1.679313873,105.0
2023-03-20 12:34:33,1.679315673,104.0
2023-03-20 13:04:34,1.679317474,103.0
2023-03-20 13:34:35,1.679319275,106.0
2023-03-20 14:04:34,1.679321074,105.0
2023-03-20 14:34:38,1.679322878,3.0
2023-03-20 15:04:40,1.67932468,105.0
2023-03-20 15:34:38,1.679326478,104.0
2023-03-20 16:04:41,1.679328281,103.0
2023-03-20 16:34:38,1.679330078,105.0
2023-03-20 17:04:39,1.679331879,105.0
2023-03-20 17:34:34,1.679333674,102.0
2023-03-20 18:04:38,1.679335478,105.0
2023-03-20 18:34:36,1.679337276,103.0
2023-03-20 19:04:32,1.679339072,103.0
2023-03-20 19:34:31,1.679340871,104.0
2023-03-20 20:04:33,1.679342673,105.0
2023-03-20 20:34:30,1.67934447,105.0
2023-03-20 21:04:31,1.679346271,105.0
2023-03-20 21:34:27,1.679348067,105.0
2023-03-20 22:04:28,1.679349868,105.0
2023-03-20 22:34:28,1.679351668,106.0
2023-03-20 23:04:28,1.679353468,103.0
2023-03-20 23:34:28,1.679355268,105.0
2023-03-21 00:04:28,1.679357068,107.0
2023-03-21 00:34:27,1.679358867,106.0
2023-03-21 01:04:31,1.679360671,106.0
2023-03-21 01:34:26,1.679362466,103.0
2023-03-21 02:04:30,1.67936427,106.0
2023-03-21 02:34:29,1.679366069,107.0
2023-03-21 03:04:28,1.679367868,107.0
2023-03-21 03:34:26,1.679369666,106.0
2023-03-21 04:04:28,1.679371468,105.0
2023-03-21 04:34:26,1.679373266,107.0
2023-03-21 05:04:27,1.679375067,106.0
2023-03-21 05:34:25,1.679376865,104.0
2023-03-21 06:04:26,1.679378666,105.0
2023-03-21 06:34:28,1.679380468,106.0
2023-03-21 07:04:25,1.679382265,107.0
2023-03-21 07:34:27,1.679384067,106.0
2023-03-21 08:04:29,1.679385869,103.0
2023-03-21 08:34:28,1.679387668,106.0
2023-03-21 09:04:27,1.679389467,107.0
2023-03-21 09:34:30,1.67939127,99.0
2023-03-21 10:04:31,1.679393071,106.0
2023-03-21 10:34:33,1.679394873,103.0
2023-03-21 11:04:32,1.679396672,104.0
2023-03-21 11:34:29,1.679398469,105.0
2023-03-21 12:04:31,1.679400271,103.0
2023-03-21 12:34:30,1.67940207,103.0
2023-03-21 13:04:32,1.679403872,107.0
2023-03-21 13:34:29,1.679405669,105.0
2023-03-21 14:04:33,1.679407473,104.0
2023-03-21 14:34:31,1.679409271,105.0
2023-03-21 15:04:35,1.679411075,3.0
2023-03-21 15:34:35,1.679412875,3.0
2023-03-21 16:04:35,1.679414675,103.0
2023-03-21 16:34:34,1.679416474,101.0
2023-03-21 17:04:33,1.679418273,106.0
2023-03-21 17:34:32,1.679420072,108.0
2023-03-21 18:04:30,1.67942187,106.0
2023-03-21 18:34:32,1.679423672,95.0
2023-03-21 19:04:28,1.679425468,3.0
2023-03-21 19:34:28,1.679427268,3.0
2023-03-21 20:04:27,1.679429067,98.0
2023-03-21 20:34:26,1.679430866,114.0
2023-03-21 21:04:29,1.679432669,109.0
2023-03-21 21:34:27,1.679434467,107.0
2023-03-21 22:04:26,1.679436266,107.0
2023-03-21 22:34:28,1.679438068,106.0
2023-03-21 23:04:26,1.679439866,109.0
2023-03-21 23:34:28,1.679441668,102.0
2023-03-22 00:04:26,1.679443466,114.0
2023-03-22 00:34:28,1.679445268,106.0
2023-03-22 01:04:25,1.679447065,107.0
2023-03-22 01:34:26,1.679448866,107.0
2023-03-22 02:04:27,1.679450667,105.0
2023-03-22 02:34:24,1.679452464,115.0
2023-03-22 03:04:26,1.679454266,105.0
2023-03-22 03:34:26,1.679456066,103.0
2023-03-22 04:04:27,1.679457867,89.0
2023-03-22 04:34:27,1.679459667,103.0
2023-03-22 05:04:27,1.679461467,104.0
2023-03-22 05:34:27,1.679463267,102.0
2023-03-22 06:04:27,1.679465067,106.0
2023-03-22 06:34:27,1.679466867,108.0
2023-03-22 07:04:27,1.679468667,107.0
2023-03-22 07:34:23,1.679470463,101.0
2023-03-22 08:04:28,1.679472268,103.0
2023-03-22 08:34:23,1.679474063,105.0
2023-03-22 09:04:24,1.679475864,107.0
2023-03-22 09:34:24,1.679477664,106.0
2023-03-22 10:04:25,1.679479465,105.0
2023-03-22 10:34:25,1.679481265,105.0
2023-03-22 11:04:26,1.679483066,104.0
2023-03-22 11:34:26,1.679484866,103.0
2023-03-22 12:04:26,1.679486666,105.0
2023-03-22 12:34:27,1.679488467,115.0
2023-03-22 13:04:27,1.679490267,112.0
2023-03-22 13:34:23,1.679492063,109.0
2023-03-22 14:04:24,1.679493864,105.0
2023-03-22 14:34:25,1.679495665,105.0
2023-03-22 15:04:26,1.679497466,106.0
2023-03-22 15:34:27,1.679499267,107.0
2023-03-22 16:04:24,1.679501064,107.0
2023-03-22 16:34:25,1.679502865,107.0
2023-03-22 17:04:26,1.679504666,105.0
2023-03-22 17:34:27,1.679506467,106.0
2023-03-22 18:04:24,1.679508264,107.0
2023-03-22 18:34:25,1.679510065,102.0
2023-03-22 19:04:26,1.679511866,105.0
2023-03-22 19:34:27,1.679513667,103.0
2023-03-22 20:04:28,1.679515468,105.0
2023-03-22 20:34:24,1.679517264,105.0
2023-03-22 21:04:24,1.679519064,105.0
2023-03-22 21:34:25,1.679520865,108.0
2023-03-22 22:04:25,1.679522665,108.0
2023-03-22 22:34:26,1.679524466,107.0
2023-03-22 23:04:26,1.679526266,104.0
2023-03-22 23:34:26,1.679528066,107.0
2023-03-23 00:04:27,1.679529867,106.0
2023-03-23 00:34:27,1.679531667,107.0
2023-03-23 01:04:27,1.679533467,107.0
2023-03-23 01:34:27,1.679535267,108.0
2023-03-23 02:04:27,1.679537067,108.0
2023-03-23 02:34:23,1.679538863,107.0
2023-03-23 03:04:27,1.679540667,107.0
2023-03-23 03:34:23,1.679542463,106.0
2023-03-23 04:04:28,1.679544268,106.0
2023-03-23 04:34:23,1.679546063,108.0
2023-03-23 05:04:28,1.679547868,104.0
2023-03-23 05:34:23,1.679549663,108.0
2023-03-23 06:04:23,1.679551463,107.0
2023-03-23 06:34:23,1.679553263,107.0
2023-03-23 07:04:28,1.679555068,102.0
2023-03-23 07:34:23,1.679556863,107.0
2023-03-23 08:04:28,1.679558668,107.0
2023-03-23 08:34:23,1.679560463,105.0
2023-03-23 09:04:28,1.679562268,108.0
2023-03-23 09:34:23,1.679564063,113.0
2023-03-23 10:04:28,1.679565868,107.0
2023-03-23 10:34:23,1.679567663,102.0
2023-03-23 11:04:28,1.679569468,104.0
2023-03-23 11:34:23,1.679571263,107.0
2023-03-23 12:04:24,1.679573064,107.0
2023-03-23 12:34:24,1.679574864,106.0
2023-03-23 13:04:24,1.679576664,104.0
2023-03-23 13:34:25,1.679578465,105.0
2023-03-23 14:04:26,1.679580266,106.0
2023-03-23 14:34:28,1.679582068,105.0
2023-03-23 15:04:26,1.679583866,105.0
2023-03-23 15:34:28,1.679585668,106.0
2023-03-23 16:04:26,1.679587466,104.0
2023-03-23 16:34:29,1.679589269,104.0
2023-03-23 17:04:27,1.679591067,102.0
2023-03-23 17:34:26,1.679592866,103.0
2023-03-23 18:04:30,1.67959467,104.0
2023-03-23 18:34:28,1.679596468,106.0
2023-03-23 19:04:25,1.679598265,107.0
2023-03-23 19:34:27,1.679600067,107.0
2023-03-23 20:04:28,1.679601868,105.0
2023-03-23 20:34:24,1.679603664,106.0
2023-03-23 21:04:26,1.679605466,105.0
2023-03-23 21:34:26,1.679607266,106.0
2023-03-23 22:04:27,1.679609067,100.0
2023-03-23 22:34:27,1.679610867,105.0
2023-03-23 23:04:23,1.679612663,104.0
2023-03-23 23:34:27,1.679614467,107.0
2023-03-24 00:04:27,1.679616267,105.0
2023-03-24 00:34:26,1.679618066,106.0
2023-03-24 01:04:26,1.679619866,106.0
2023-03-24 01:34:26,1.679621666,107.0
2023-03-24 02:04:25,1.679623465,107.0
2023-03-24 02:34:25,1.679625265,107.0
2023-03-24 03:04:24,1.679627064,106.0
2023-03-24 03:34:23,1.679628863,106.0
2023-03-24 04:04:27,1.679630667,106.0
2023-03-24 04:34:22,1.679632462,107.0
2023-03-24 05:04:26,1.679634266,105.0
2023-03-24 05:34:25,1.679636065,107.0
2023-03-24 06:04:25,1.679637865,106.0
2023-03-24 06:34:24,1.679639664,105.0
2023-03-24 07:04:23,1.679641463,104.0
2023-03-24 07:34:23,1.679643263,107.0
2023-03-24 08:04:27,1.679645067,107.0
2023-03-24 08:34:23,1.679646863,107.0
2023-03-24 09:04:24,1.679648664,107.0
2023-03-24 09:34:26,1.679650466,107.0
2023-03-24 10:04:29,1.679652269,103.0
2023-03-24 10:34:27,1.679654067,107.0
2023-03-24 11:04:27,1.679655867,103.0
2023-03-24 11:34:32,1.679657672,105.0
2023-03-24 12:04:27,1.679659467,107.0
2023-03-24 12:34:31,1.679661271,107.0
2023-03-24 13:04:30,1.67966307,102.0
2023-03-24 13:34:30,1.67966487,98.0
2023-03-24 14:04:29,1.679666669,106.0
2023-03-24 14:34:29,1.679668469,106.0
2023-03-24 15:04:30,1.67967027,105.0
2023-03-24 15:34:29,1.679672069,102.0
2023-03-24 16:04:29,1.679673869,104.0
2023-03-24 16:34:29,1.679675669,103.0
2023-03-24 17:04:27,1.679677467,101.0
2023-03-24 17:34:26,1.679679266,105.0
2023-03-24 18:04:28,1.679681068,105.0
2023-03-24 18:34:25,1.679682865,105.0
2023-03-24 19:04:27,1.679684667,103.0
2023-03-24 19:34:24,1.679686464,106.0
2023-03-24 20:04:25,1.679688265,106.0
2023-03-24 20:34:26,1.679690066,107.0
2023-03-24 21:04:27,1.679691867,106.0
2023-03-24 21:34:24,1.679693664,102.0
2023-03-24 22:04:25,1.679695465,105.0
2023-03-24 22:34:25,1.679697265,105.0
2023-03-24 23:04:26,1.679699066,106.0
2023-03-24 23:34:27,1.679700867,105.0
2023-03-25 00:04:28,1.679702668,107.0
2023-03-25 00:34:24,1.679704464,106.0
2023-03-25 01:04:24,1.679706264,106.0
2023-03-25 01:34:24,1.679708064,107.0
2023-03-25 02:04:24,1.679709864,104.0
2023-03-25 02:34:24,1.679711664,103.0
2023-03-25 03:04:24,1.679713464,106.0
2023-03-25 03:34:24,1.679715264,106.0
2023-03-25 04:04:24,1.679717064,106.0
2023-03-25 04:34:24,1.679718864,107.0
2023-03-25 05:04:24,1.679720664,106.0
2023-03-25 05:34:24,1.679722464,108.0
2023-03-25 06:04:24,1.679724264,107.0
2023-03-25 06:34:23,1.679726063,106.0
2023-03-25 07:04:27,1.679727867,106.0
2023-03-25 07:34:27,1.679729667,106.0
2023-03-25 08:04:27,1.679731467,106.0
2023-03-25 08:34:27,1.679733267,103.0
2023-03-25 09:04:27,1.679735067,106.0
2023-03-25 09:34:24,1.679736864,106.0
2023-03-25 10:04:27,1.679738667,106.0
2023-03-25 10:34:31,1.679740471,105.0
2023-03-25 11:04:30,1.67974227,105.0
2023-03-25 11:34:31,1.679744071,106.0
2023-03-25 12:04:31,1.679745871,106.0
2023-03-25 12:34:28,1.679747668,106.0
2023-03-25 13:04:29,1.679749469,105.0
2023-03-25 13:34:31,1.679751271,105.0
2023-03-25 14:04:33,1.679753073,103.0
2023-03-25 14:34:31,1.679754871,102.0
2023-03-25 15:04:33,1.679756673,102.0
2023-03-25 15:34:30,1.67975847,104.0
2023-03-25 16:04:32,1.679760272,106.0
2023-03-25 16:34:30,1.67976207,105.0
2023-03-25 17:04:32,1.679763872,104.0
2023-03-25 17:34:29,1.679765669,105.0
2023-03-25 18:04:31,1.679767471,106.0
2023-03-25 18:34:32,1.679769272,104.0
2023-03-25 19:04:27,1.679771067,105.0
2023-03-25 19:34:25,1.679772865,106.0
2023-03-25 20:04:26,1.679774666,106.0
2023-03-25 20:34:27,1.679776467,106.0
2023-03-25 21:04:27,1.679778267,107.0
2023-03-25 21:34:27,1.679780067,103.0
2023-03-25 22:04:27,1.679781867,107.0
2023-03-25 22:34:26,1.679783666,107.0
2023-03-25 23:04:26,1.679785466,101.0
2023-03-25 23:34:25,1.679787265,104.0
2023-03-26 00:04:24,1.679789064,103.0
2023-03-26 00:34:23,1.679790863,105.0
2023-03-26 01:04:26,1.679792666,105.0
2023-03-26 01:34:25,1.679794465,103.0
2023-03-26 02:04:23,1.679796263,100.0
2023-03-26 02:34:22,1.679798062,102.0
2023-03-26 03:04:25,1.679799865,106.0
2023-03-26 03:34:23,1.679801663,107.0
2023-03-26 04:04:26,1.679803466,104.0
2023-03-26 04:34:24,1.679805264,105.0
2023-03-26 05:04:22,1.679807062,107.0
2023-03-26 05:34:25,1.679808865,108.0
2023-03-26 06:04:23,1.679810663,107.0
2023-03-26 06:34:25,1.679812465,108.0
2023-03-26 07:04:23,1.679814263,105.0
2023-03-26 07:34:25,1.679816065,106.0
2023-03-26 08:04:23,1.679817863,104.0
2023-03-26 08:34:26,1.679819666,108.0
2023-03-26 09:04:24,1.679821464,106.0
2023-03-26 09:34:23,1.679823263,107.0
2023-03-26 10:04:23,1.679825063,106.0
2023-03-26 10:34:27,1.679826867,106.0
2023-03-26 11:04:26,1.679828666,107.0
2023-03-26 11:34:26,1.679830466,106.0
2023-03-26 12:04:26,1.679832266,107.0
2023-03-26 12:34:28,1.679834068,104.0
2023-03-26 13:04:26,1.679835866,103.0
2023-03-26 13:34:29,1.679837669,100.0
2023-03-26 14:04:28,1.679839468,105.0
2023-03-26 14:34:28,1.679841268,104.0
2023-03-26 15:04:29,1.679843069,105.0
2023-03-26 15:34:29,1.679844869,104.0
2023-03-26 16:04:30,1.67984667,103.0
2023-03-26 16:34:31,1.679848471,98.0
2023-03-26 17:04:31,1.679850271,105.0
2023-03-26 17:34:31,1.679852071,107.0
2023-03-26 18:04:26,1.679853866,107.0
2023-03-26 18:34:29,1.679855669,107.0
2023-03-26 19:04:26,1.679857466,100.0
2023-03-26 19:34:26,1.679859266,106.0
2023-03-26 20:04:24,1.679861064,108.0
2023-03-26 20:34:21,1.679862861,108.0
2023-03-26 21:04:23,1.679864663,107.0
2023-03-26 21:34:24,1.679866464,102.0
2023-03-26 22:04:21,1.679868261,105.0
2023-03-26 22:34:22,1.679870062,106.0
2023-03-26 23:04:22,1.679871862,105.0
2023-03-26 23:34:23,1.679873663,106.0
2023-03-27 00:04:19,1.679875459,106.0
2023-03-27 00:34:24,1.679877264,106.0
2023-03-27 01:04:20,1.67987906,105.0
2023-03-27 01:34:20,1.67988086,106.0
2023-03-27 02:04:19,1.679882659,106.0
2023-03-27 02:34:19,1.679884459,106.0
2023-03-27 03:04:23,1.679886263,106.0
2023-03-27 03:34:18,1.679888058,105.0
2023-03-27 04:04:23,1.679889863,103.0
2023-03-27 04:34:22,1.679891662,106.0
2023-03-27 05:04:21,1.679893461,104.0
2023-03-27 05:34:20,1.67989526,106.0
2023-03-27 06:04:20,1.67989706,107.0
2023-03-27 06:34:19,1.679898859,106.0
2023-03-27 07:04:19,1.679900659,105.0
2023-03-27 07:34:23,1.679902463,104.0
2023-03-27 08:04:24,1.679904264,105.0
2023-03-27 08:34:21,1.679906061,106.0
2023-03-27 09:04:25,1.679907865,104.0
2023-03-27 09:34:24,1.679909664,107.0
2023-03-27 10:04:25,1.679911465,105.0
2023-03-27 10:34:27,1.679913267,107.0
2023-03-27 11:04:29,1.679915069,104.0
2023-03-27 11:34:28,1.679916868,106.0
2023-03-27 12:04:27,1.679918667,106.0
2023-03-27 12:34:32,1.679920472,106.0
2023-03-27 13:04:27,1.679922267,105.0
2023-03-27 13:34:28,1.679924068,104.0
2023-03-27 14:04:30,1.67992587,102.0
2023-03-27 14:34:31,1.679927671,103.0
2023-03-27 15:04:28,1.679929468,104.0
2023-03-27 15:34:29,1.679931269,104.0
2023-03-27 16:04:29,1.679933069,103.0
2023-03-27 16:34:29,1.679934869,104.0
2023-03-27 17:04:29,1.679936669,102.0
2023-03-27 17:34:29,1.679938469,105.0
2023-03-27 18:04:28,1.679940268,106.0
2023-03-27 18:34:26,1.679942066,103.0
2023-03-27 19:04:29,1.679943869,105.0
2023-03-27 19:34:27,1.679945667,107.0
2023-03-27 20:04:28,1.679947468,107.0
2023-03-27 20:34:25,1.679949265,106.0
2023-03-27 21:04:26,1.679951066,106.0
2023-03-27 21:34:27,1.679952867,106.0
2023-03-27 22:04:27,1.679954667,104.0
2023-03-27 22:34:27,1.679956467,107.0
2023-03-27 23:04:27,1.679958267,106.0
2023-03-27 23:34:26,1.679960066,106.0
2023-03-28 00:04:25,1.679961865,106.0
2023-03-28 00:34:23,1.679963663,107.0
2023-03-28 01:04:26,1.679965466,105.0
2023-03-28 01:34:23,1.679967263,107.0
2023-03-28 02:04:21,1.679969061,105.0
2023-03-28 02:34:23,1.679970863,108.0
2023-03-28 03:04:21,1.679972661,108.0
2023-03-28 03:34:22,1.679974462,108.0
2023-03-28 04:04:24,1.679976264,108.0
2023-03-28 04:34:22,1.679978062,107.0
2023-03-28 05:04:24,1.679979864,108.0
2023-03-28 05:34:21,1.679981661,106.0
2023-03-28 06:04:23,1.679983463,106.0
2023-03-28 06:34:25,1.679985265,102.0
2023-03-28 07:04:22,1.679987062,107.0
2023-03-28 07:34:24,1.679988864,107.0
2023-03-28 08:04:23,1.679990663,100.0
2023-03-28 08:34:27,1.679992467,105.0
2023-03-28 09:04:27,1.679994267,104.0
2023-03-28 09:34:28,1.679996068,106.0
2023-03-28 10:04:25,1.679997865,105.0
2023-03-28 10:34:28,1.679999668,101.0
2023-03-28 11:04:28,1.680001468,105.0
2023-03-28 11:34:28,1.680003268,104.0
2023-03-28 12:04:30,1.68000507,105.0
2023-03-28 12:34:32,1.680006872,100.0
2023-03-28 13:04:29,1.680008669,100.0
2023-03-28 13:34:33,1.680010473,101.0
2023-03-28 14:04:32,1.680012272,104.0
2023-03-28 14:34:31,1.680014071,102.0
2023-03-28 15:04:31,1.680015871,105.0
2023-03-28 15:34:36,1.680017676,103.0
2023-03-28 16:04:31,1.680019471,104.0
2023-03-28 16:34:36,1.680021276,101.0
2023-03-28 17:04:32,1.680023072,105.0
2023-03-28 17:34:31,1.680024871,105.0
2023-03-28 18:04:30,1.68002667,105.0
2023-03-28 18:34:33,1.680028473,107.0
2023-03-28 19:04:29,1.680030269,105.0
2023-03-28 19:34:28,1.680032068,103.0
2023-03-28 20:04:25,1.680033865,103.0
2023-03-28 20:34:27,1.680035667,105.0
2023-03-28 21:04:28,1.680037468,107.0
2023-03-28 21:34:24,1.680039264,105.0
2023-03-28 22:04:25,1.680041065,105.0
2023-03-28 22:34:26,1.680042866,105.0
2023-03-28 23:04:26,1.680044666,107.0
2023-03-28 23:34:27,1.680046467,107.0
2023-03-29 00:04:27,1.680048267,107.0
2023-03-29 00:34:23,1.680050063,105.0
2023-03-29 01:04:23,1.680051863,102.0
2023-03-29 01:34:23,1.680053663,104.0
2023-03-29 02:04:23,1.680055463,106.0
2023-03-29 02:34:24,1.680057264,106.0
2023-03-29 03:04:24,1.680059064,105.0
2023-03-29 03:34:24,1.680060864,107.0
2023-03-29 04:04:24,1.680062664,106.0
2023-03-29 04:34:24,1.680064464,105.0
2023-03-29 05:04:24,1.680066264,102.0
2023-03-29 05:34:23,1.680068063,103.0
2023-03-29 06:04:23,1.680069863,107.0
2023-03-29 06:34:23,1.680071663,107.0
2023-03-29 07:04:27,1.680073467,107.0
2023-03-29 07:34:26,1.680075266,103.0
2023-03-29 08:04:26,1.680077066,102.0
2023-03-29 08:34:27,1.680078867,99.0
2023-03-29 09:04:29,1.680080669,105.0
2023-03-29 09:34:28,1.680082468,102.0
2023-03-29 10:04:28,1.680084268,102.0
2023-03-29 10:34:30,1.68008607,104.0
2023-03-29 11:04:33,1.680087873,98.0
2023-03-29 11:34:32,1.680089672,102.0
2023-03-29 12:04:32,1.680091472,102.0
2023-03-29 12:34:33,1.680093273,104.0
2023-03-29 13:04:35,1.680095075,98.0
2023-03-29 13:34:37,1.680096877,105.0
2023-03-29 14:04:34,1.680098674,98.0
2023-03-29 14:34:37,1.680100477,103.0
2023-03-29 15:04:36,1.680102276,105.0
2023-03-29 15:34:34,1.680104074,101.0
2023-03-29 16:04:37,1.680105877,100.0
2023-03-29 16:34:34,1.680107674,105.0
2023-03-29 17:04:32,1.680109472,100.0
2023-03-29 17:34:30,1.68011127,102.0
2023-03-29 18:04:31,1.680113071,105.0
2023-03-29 18:34:32,1.680114872,104.0
2023-03-29 19:04:28,1.680116668,103.0
2023-03-29 19:34:27,1.680118467,106.0
2023-03-29 20:04:26,1.680120266,101.0
2023-03-29 20:34:29,1.680122069,107.0
2023-03-29 21:04:27,1.680123867,105.0
2023-03-29 21:34:29,1.680125669,104.0
2023-03-29 22:04:26,1.680127466,105.0
2023-03-29 22:34:27,1.680129267,106.0
2023-03-29 23:04:28,1.680131068,107.0
2023-03-29 23:34:24,1.680132864,106.0
2023-03-30 00:04:25,1.680134665,107.0
2023-03-30 00:34:25,1.680136465,104.0
2023-03-30 01:04:25,1.680138265,105.0
2023-03-30 01:34:25,1.680140065,105.0
2023-03-30 02:04:24,1.680141864,107.0
2023-03-30 02:34:24,1.680143664,103.0
2023-03-30 03:04:24,1.680145464,105.0
2023-03-30 03:34:23,1.680147263,106.0
2023-03-30 04:04:27,1.680149067,108.0
2023-03-30 04:34:26,1.680150866,107.0
2023-03-30 05:04:25,1.680152665,107.0
2023-03-30 05:34:24,1.680154464,106.0
2023-03-30 06:04:22,1.680156262,107.0
2023-03-30 06:34:26,1.680158066,107.0
2023-03-30 07:04:25,1.680159865,103.0
2023-03-30 07:34:23,1.680161663,101.0
2023-03-30 08:04:22,1.680163462,104.0
2023-03-30 08:34:26,1.680165266,103.0
2023-03-30 09:04:25,1.680167065,106.0
2023-03-30 09:34:25,1.680168865,105.0
2023-03-30 10:04:26,1.680170666,103.0
2023-03-30 10:34:26,1.680172466,102.0
2023-03-30 11:04:27,1.680174267,101.0
2023-03-30 11:34:27,1.680176067,107.0
2023-03-30 12:04:24,1.680177864,98.0
2023-03-30 12:34:25,1.680179665,99.0
2023-03-30 13:04:26,1.680181466,103.0
2023-03-30 13:34:29,1.680183269,107.0
2023-03-30 14:04:27,1.680185067,89.0
2023-03-30 14:34:30,1.68018687,105.0
2023-03-30 15:04:30,1.68018867,106.0
2023-03-30 15:34:30,1.68019047,106.0
2023-03-30 16:04:31,1.680192271,103.0
2023-03-30 16:34:32,1.680194072,105.0
2023-03-30 17:04:29,1.680195869,102.0
2023-03-30 17:34:30,1.68019767,104.0
2023-03-30 18:04:30,1.68019947,106.0
2023-03-30 18:34:28,1.680201268,104.0
2023-03-30 19:04:27,1.680203067,103.0
2023-03-30 19:34:29,1.680204869,101.0
2023-03-30 20:04:26,1.680206666,107.0
2023-03-30 20:34:28,1.680208468,106.0
2023-03-30 21:04:24,1.680210264,107.0
2023-03-30 21:34:24,1.680212064,107.0
2023-03-30 22:04:24,1.680213864,106.0
2023-03-30 22:34:23,1.680215663,107.0
2023-03-30 23:04:23,1.680217463,108.0
2023-03-30 23:34:23,1.680219263,102.0
2023-03-31 00:04:27,1.680221067,108.0
2023-03-31 00:34:26,1.680222866,107.0
2023-03-31 01:04:26,1.680224666,104.0
2023-03-31 01:34:25,1.680226465,105.0
2023-03-31 02:04:24,1.680228264,106.0
2023-03-31 02:34:24,1.680230064,105.0
2023-03-31 03:04:24,1.680231864,106.0
2023-03-31 03:34:24,1.680233664,105.0
2023-03-31 04:04:23,1.680235463,105.0
2023-03-31 04:34:23,1.680237263,108.0
2023-03-31 05:04:23,1.680239063,104.0
2023-03-31 05:34:28,1.680240868,104.0
2023-03-31 06:04:23,1.680242663,104.0
2023-03-31 06:34:28,1.680244468,100.0
2023-03-31 07:04:23,1.680246263,107.0
2023-03-31 07:34:28,1.680248068,100.0
2023-03-31 08:04:24,1.680249864,107.0
2023-03-31 08:34:24,1.680251664,108.0
2023-03-31 09:04:25,1.680253465,102.0
2023-03-31 09:34:26,1.680255266,100.0
2023-03-31 10:04:27,1.680257067,105.0
2023-03-31 10:34:28,1.680258868,99.0
2023-03-31 11:04:25,1.680260665,103.0
2023-03-31 11:34:28,1.680262468,103.0
2023-03-31 12:04:26,1.680264266,103.0
2023-03-31 12:34:30,1.68026607,104.0
2023-03-31 13:04:28,1.680267868,102.0
2023-03-31 13:34:27,1.680269667,108.0
2023-03-31 14:04:30,1.68027147,106.0
2023-03-31 14:34:29,1.680273269,105.0
2023-03-31 15:04:28,1.680275068,100.0
2023-03-31 15:34:27,1.680276867,105.0
2023-03-31 16:04:29,1.680278669,87.0
2023-03-31 16:34:27,1.680280467,108.0
2023-03-31 17:04:29,1.680282269,106.0
2023-03-31 17:34:26,1.680284066,104.0
2023-03-31 18:04:27,1.680285867,105.0
2023-03-31 18:34:28,1.680287668,107.0
2023-03-31 19:04:23,1.680289463,92.0
2023-03-31 19:34:27,1.680291267,107.0
2023-03-31 20:04:26,1.680293066,103.0
2023-03-31 20:34:24,1.680294864,106.0
2023-03-31 21:04:21,1.680296661,107.0
2023-03-31 21:34:23,1.680298463,106.0
2023-03-31 22:04:20,1.68030026,106.0
2023-03-31 22:34:22,1.680302062,106.0
2023-03-31 23:04:22,1.680303862,107.0
2023-03-31 23:34:22,1.680305662,105.0
2023-04-01 00:04:21,1.680307461,107.0
2023-04-01 00:34:21,1.680309261,106.0
2023-04-01 01:04:21,1.680311061,106.0
2023-04-01 01:34:22,1.680312862,105.0
2023-04-01 02:04:22,1.680314662,106.0
2023-04-01 02:34:23,1.680316463,108.0
2023-04-01 03:04:23,1.680318263,105.0
2023-04-01 03:34:19,1.680320059,105.0
2023-04-01 04:04:24,1.680321864,107.0
2023-04-01 04:34:19,1.680323659,105.0
2023-04-01 05:04:23,1.680325463,102.0
2023-04-01 05:34:18,1.680327258,107.0
2023-04-01 06:04:23,1.680329063,108.0
2023-04-01 06:34:22,1.680330862,108.0
2023-04-01 07:04:21,1.680332661,91.0
2023-04-01 07:34:19,1.680334459,94.0
2023-04-01 08:04:18,1.680336258,108.0
2023-04-01 08:34:24,1.680338064,108.0
2023-04-01 09:04:21,1.680339861,104.0
2023-04-01 09:34:23,1.680341663,109.0
2023-04-01 10:04:25,1.680343465,106.0
2023-04-01 10:34:24,1.680345264,108.0
2023-04-01 11:04:23,1.680347063,105.0
2023-04-01 11:34:28,1.680348868,105.0
2023-04-01 12:04:24,1.680350664,96.0
2023-04-01 12:34:25,1.680352465,104.0
2023-04-01 13:04:26,1.680354266,109.0
2023-04-01 13:34:28,1.680356068,105.0
2023-04-01 14:04:26,1.680357866,105.0
2023-04-01 14:34:29,1.680359669,102.0
2023-04-01 15:04:28,1.680361468,106.0
2023-04-01 15:34:27,1.680363267,104.0
2023-04-01 16:04:30,1.68036507,106.0
2023-04-01 16:34:29,1.680366869,107.0
2023-04-01 17:04:28,1.680368668,106.0
2023-04-01 17:34:27,1.680370467,102.0
2023-04-01 18:04:29,1.680372269,98.0
2023-04-01 18:34:25,1.680374065,103.0
2023-04-01 19:04:25,1.680375865,106.0
2023-04-01 19:34:23,1.680377663,105.0
2023-04-01 20:04:21,1.680379461,108.0
2023-04-01 20:34:22,1.680381262,99.0
2023-04-01 21:04:23,1.680383063,108.0
2023-04-01 21:34:20,1.68038486,103.0
2023-04-01 22:04:20,1.68038666,104.0
2023-04-01 22:34:20,1.68038846,102.0
2023-04-01 23:04:21,1.680390261,99.0
2023-04-01 23:34:22,1.680392062,107.0
2023-04-02 00:04:23,1.680393863,108.0
2023-04-02 00:34:24,1.680395664,106.0
2023-04-02 01:04:20,1.68039746,108.0
2023-04-02 01:34:22,1.680399262,105.0
2023-04-02 02:04:23,1.680401063,105.0
2023-04-02 02:34:20,1.68040286,107.0
2023-04-02 03:04:22,1.680404662,101.0
2023-04-02 03:34:24,1.680406464,106.0
2023-04-02 04:04:21,1.680408261,102.0
2023-04-02 04:34:23,1.680410063,105.0
2023-04-02 05:04:20,1.68041186,107.0
2023-04-02 05:34:22,1.680413662,103.0
2023-04-02 06:04:24,1.680415464,101.0
2023-04-02 06:34:20,1.68041726,109.0
2023-04-02 07:04:21,1.680419061,102.0
2023-04-02 07:34:22,1.680420862,100.0
2023-04-02 08:04:23,1.680422663,90.0
2023-04-02 08:34:21,1.680424461,88.0
2023-04-02 09:04:25,1.680426265,89.0
2023-04-02 09:34:25,1.680428065,91.0
2023-04-02 10:04:26,1.680429866,92.0
2023-04-02 10:34:28,1.680431668,88.0
2023-04-02 11:04:25,1.680433465,93.0
2023-04-02 11:34:28,1.680435268,95.0
2023-04-02 12:04:26,1.680437066,104.0
2023-04-02 12:34:30,1.68043887,97.0
2023-04-02 13:04:30,1.68044067,102.0
2023-04-02 13:34:30,1.68044247,101.0
2023-04-02 14:04:30,1.68044427,101.0
2023-04-02 14:34:31,1.680446071,104.0
2023-04-02 15:04:33,1.680447873,105.0
2023-04-02 15:34:30,1.68044967,105.0
2023-04-02 16:04:32,1.680451472,104.0
2023-04-02 16:34:29,1.680453269,103.0
2023-04-02 17:04:31,1.680455071,103.0
2023-04-02 17:34:33,1.680456873,100.0
2023-04-02 18:04:29,1.680458669,105.0
2023-04-02 18:34:29,1.680460469,101.0
2023-04-02 19:04:27,1.680462267,104.0
2023-04-02 19:34:24,1.680464064,106.0
2023-04-02 20:04:25,1.680465865,104.0
2023-04-02 20:34:25,1.680467665,102.0
2023-04-02 21:04:24,1.680469464,101.0
2023-04-02 21:34:22,1.680471262,103.0
2023-04-02 22:04:25,1.680473065,106.0
2023-04-02 22:34:23,1.680474863,103.0
2023-04-02 23:04:22,1.680476662,100.0
2023-04-02 23:34:24,1.680478464,106.0
2023-04-03 00:04:22,1.680480262,105.0
2023-04-03 00:34:25,1.680482065,107.0
2023-04-03 01:04:23,1.680483863,106.0
2023-04-03 01:34:26,1.680485666,108.0
2023-04-03 02:04:25,1.680487465,105.0
2023-04-03 02:34:24,1.680489264,107.0
2023-04-03 03:04:23,1.680491063,103.0
2023-04-03 03:34:26,1.680492866,106.0
2023-04-03 04:04:25,1.680494665,104.0
2023-04-03 04:34:24,1.680496464,98.0
2023-04-03 05:04:23,1.680498263,101.0
2023-04-03 05:34:26,1.680500066,105.0
2023-04-03 06:04:24,1.680501864,106.0
2023-04-03 06:34:22,1.680503662,106.0
2023-04-03 07:04:25,1.680505465,104.0
2023-04-03 07:34:23,1.680507263,108.0
2023-04-03 08:04:26,1.680509066,102.0
2023-04-03 08:34:24,1.680510864,89.0
2023-04-03 09:04:24,1.680512664,98.0
2023-04-03 09:34:23,1.680514463,107.0
2023-04-03 10:04:23,1.680516263,95.0
2023-04-03 10:34:24,1.680518064,104.0
2023-04-03 11:04:25,1.680519865,88.0
2023-04-03 11:34:26,1.680521666,88.0
2023-04-03 12:04:28,1.680523468,89.0
2023-04-03 12:34:25,1.680525265,86.0
2023-04-03 13:04:26,1.680527066,98.0
2023-04-03 13:34:27,1.680528867,86.0
2023-04-03 14:04:24,1.680530664,103.0
2023-04-03 14:34:25,1.680532465,105.0
2023-04-03 15:04:28,1.680534268,93.0
2023-04-03 15:34:27,1.680536067,106.0
2023-04-03 16:04:28,1.680537868,106.0
2023-04-03 16:34:24,1.680539664,84.0
2023-04-03 17:04:23,1.680541463,94.0
2023-04-03 17:34:22,1.680543262,89.0
2023-04-03 18:04:25,1.680545065,94.0
2023-04-03 18:34:24,1.680546864,88.0
2023-04-03 19:04:22,1.680548662,93.0
2023-04-03 19:34:25,1.680550465,92.0
2023-04-03 20:04:22,1.680552262,105.0
2023-04-03 20:34:24,1.680554064,101.0
2023-04-03 21:04:22,1.680555862,106.0
2023-04-03 21:34:24,1.680557664,104.0
2023-04-03 22:04:21,1.680559461,105.0
2023-04-03 22:34:23,1.680561263,102.0
2023-04-03 23:04:21,1.680563061,101.0
2023-04-03 23:34:23,1.680564863,104.0
2023-04-04 00:04:25,1.680566665,106.0
2023-04-04 00:34:22,1.680568462,106.0
2023-04-04 01:04:24,1.680570264,105.0
2023-04-04 01:34:22,1.680572062,105.0
2023-04-04 02:04:24,1.680573864,107.0
2023-04-04 02:34:22,1.680575662,102.0
2023-04-04 03:04:24,1.680577464,110.0
2023-04-04 03:34:22,1.680579262,124.0
2023-04-04 04:04:24,1.680581064,108.0
2023-04-04 04:34:21,1.680582861,94.0
2023-04-04 05:04:24,1.680584664,100.0
2023-04-04 05:34:21,1.680586461,91.0
2023-04-04 06:04:23,1.680588263,100.0
2023-04-04 06:34:25,1.680590065,93.0
2023-04-04 07:04:22,1.680591862,86.0
2023-04-04 07:34:24,1.680593664,2.0
2023-04-04 08:04:21,1.680595461,91.0
2023-04-04 08:34:23,1.680597263,85.0
2023-04-04 09:04:21,1.680599061,105.0
2023-04-04 09:34:24,1.680600864,94.0
2023-04-04 10:04:23,1.680602663,85.0
2023-04-04 10:34:26,1.680604466,98.0
2023-04-04 11:04:26,1.680606266,96.0
2023-04-04 11:34:27,1.680608067,91.0
2023-04-04 12:04:24,1.680609864,96.0
2023-04-04 12:34:25,1.680611665,90.0
2023-04-04 13:04:27,1.680613467,85.0
2023-04-04 13:34:29,1.680615269,85.0
2023-04-04 14:04:26,1.680617066,81.0
2023-04-04 14:34:28,1.680618868,86.0
2023-04-04 15:04:26,1.680620666,94.0
2023-04-04 15:34:28,1.680622468,85.0
2023-04-04 16:04:25,1.680624265,84.0
2023-04-04 16:34:26,1.680626066,85.0
2023-04-04 17:04:28,1.680627868,98.0
2023-04-04 17:34:24,1.680629664,107.0
2023-04-04 18:04:25,1.680631465,88.0
2023-04-04 18:34:25,1.680633265,94.0
2023-04-04 19:04:25,1.680635065,100.0
2023-04-04 19:34:24,1.680636864,113.0
2023-04-04 20:04:22,1.680638662,88.0
2023-04-04 20:34:25,1.680640465,106.0
2023-04-04 21:04:23,1.680642263,87.0
2023-04-04 21:34:24,1.680644064,101.0
2023-04-04 22:04:21,1.680645861,108.0
2023-04-04 22:34:23,1.680647663,104.0
2023-04-04 23:04:24,1.680649464,100.0
2023-04-04 23:34:21,1.680651261,108.0
2023-04-05 00:04:22,1.680653062,99.0
2023-04-05 00:34:23,1.680654863,102.0
2023-04-05 01:04:24,1.680656664,108.0
2023-04-05 01:34:20,1.68065846,101.0
2023-04-05 02:04:21,1.680660261,102.0
2023-04-05 02:34:22,1.680662062,99.0
2023-04-05 03:04:23,1.680663863,106.0
2023-04-05 03:34:24,1.680665664,88.0
2023-04-05 04:04:21,1.680667461,100.0
2023-04-05 04:34:22,1.680669262,85.0
2023-04-05 05:04:23,1.680671063,106.0
2023-04-05 05:34:24,1.680672864,89.0
2023-04-05 06:04:20,1.68067466,100.0
2023-04-05 06:34:21,1.680676461,104.0
2023-04-05 07:04:22,1.680678262,88.0
2023-04-05 07:34:23,1.680680063,85.0
2023-04-05 08:04:24,1.680681864,89.0
2023-04-05 08:34:21,1.680683661,86.0
2023-04-05 09:04:24,1.680685464,88.0
2023-04-05 09:34:22,1.680687262,86.0
2023-04-05 10:04:26,1.680689066,90.0
2023-04-05 10:34:26,1.680690866,89.0
2023-04-05 11:04:27,1.680692667,83.0
2023-04-05 11:34:27,1.680694467,88.0
2023-04-05 12:04:24,1.680696264,82.0
2023-04-05 12:34:26,1.680698066,83.0
2023-04-05 13:04:30,1.68069987,86.0
2023-04-05 13:34:31,1.680701671,87.0
2023-04-05 14:04:32,1.680703472,84.0
2023-04-05 14:34:29,1.680705269,85.0
2023-04-05 15:04:30,1.68070707,91.0
2023-04-05 15:34:31,1.680708871,87.0
2023-04-05 16:04:27,1.680710667,85.0
2023-04-05 16:34:31,1.680712471,83.0
2023-04-05 17:04:29,1.680714269,85.0
2023-04-05 17:34:27,1.680716067,83.0
2023-04-05 18:04:29,1.680717869,87.0
2023-04-05 18:34:26,1.680719666,87.0
2023-04-05 19:04:28,1.680721468,86.0
2023-04-05 19:34:24,1.680723264,82.0
2023-04-05 20:04:24,1.680725064,106.0
2023-04-05 20:34:25,1.680726865,83.0
2023-04-05 21:04:25,1.680728665,105.0
2023-04-05 21:34:25,1.680730465,103.0
2023-04-05 22:04:25,1.680732265,103.0
2023-04-05 22:34:25,1.680734065,105.0
2023-04-05 23:04:24,1.680735864,106.0
2023-04-05 23:34:23,1.680737663,102.0
2023-04-06 00:04:26,1.680739466,108.0
2023-04-06 00:34:24,1.680741264,102.0
2023-04-06 01:04:23,1.680743063,106.0
2023-04-06 01:34:26,1.680744866,101.0
2023-04-06 02:04:23,1.680746663,104.0
2023-04-06 02:34:21,1.680748461,83.0
2023-04-06 03:04:23,1.680750263,105.0
2023-04-06 03:34:21,1.680752061,106.0
2023-04-06 04:04:24,1.680753864,104.0
2023-04-06 04:34:21,1.680755661,107.0
2023-04-06 05:04:24,1.680757464,87.0
2023-04-06 05:34:22,1.680759262,118.0
2023-04-06 06:04:25,1.680761065,108.0
2023-04-06 06:34:23,1.680762863,86.0
2023-04-06 07:04:25,1.680764665,92.0
2023-04-06 07:34:22,1.680766462,92.0
2023-04-06 08:04:25,1.680768265,3.0
2023-04-06 08:34:23,1.680770063,94.0
2023-04-06 09:04:26,1.680771866,82.0
2023-04-06 09:34:27,1.680773667,86.0
2023-04-06 10:04:28,1.680775468,84.0
2023-04-06 10:34:25,1.680777265,83.0
2023-04-06 11:04:27,1.680779067,84.0
2023-04-06 11:34:29,1.680780869,84.0
2023-04-06 12:04:28,1.680782668,81.0
2023-04-06 12:34:29,1.680784469,82.0
2023-04-06 13:04:30,1.68078627,82.0
2023-04-06 13:34:31,1.680788071,83.0
2023-04-06 14:04:33,1.680789873,84.0
2023-04-06 14:34:30,1.68079167,82.0
2023-04-06 15:04:31,1.680793471,85.0
2023-04-06 15:34:32,1.680795272,81.0
2023-04-06 16:04:28,1.680797068,95.0
2023-04-06 16:34:29,1.680798869,86.0
2023-04-06 17:04:29,1.680800669,86.0
2023-04-06 17:34:29,1.680802469,86.0
2023-04-06 18:04:29,1.680804269,85.0
2023-04-06 18:34:28,1.680806068,88.0
2023-04-06 19:04:25,1.680807865,90.0
2023-04-06 19:34:25,1.680809665,90.0
2023-04-06 20:04:25,1.680811465,85.0
2023-04-06 20:34:24,1.680813264,96.0
2023-04-06 21:04:22,1.680815062,86.0
2023-04-06 21:34:26,1.680816866,98.0
2023-04-06 22:04:24,1.680818664,104.0
2023-04-06 22:34:23,1.680820463,94.0
2023-04-06 23:04:22,1.680822262,107.0
2023-04-06 23:34:25,1.680824065,101.0
2023-04-07 00:04:23,1.680825863,101.0
2023-04-07 00:34:25,1.680827665,108.0
2023-04-07 01:04:22,1.680829462,101.0
2023-04-07 01:34:24,1.680831264,84.0
2023-04-07 02:04:22,1.680833062,105.0
2023-04-07 02:34:24,1.680834864,107.0
2023-04-07 03:04:22,1.680836662,88.0
2023-04-07 03:34:23,1.680838463,82.0
2023-04-07 04:04:21,1.680840261,98.0
2023-04-07 04:34:22,1.680842062,83.0
2023-04-07 05:04:23,1.680843863,108.0
2023-04-07 05:34:20,1.68084566,80.0
2023-04-07 06:04:21,1.680847461,80.0
2023-04-07 06:34:22,1.680849262,81.0
2023-04-07 07:04:23,1.680851063,84.0
2023-04-07 07:34:24,1.680852864,78.0
2023-04-07 08:04:20,1.68085466,83.0
2023-04-07 08:34:23,1.680856463,83.0
2023-04-07 09:04:27,1.680858267,82.0
2023-04-07 09:34:27,1.680860067,79.0
2023-04-07 10:04:24,1.680861864,82.0
2023-04-07 10:34:27,1.680863667,82.0
2023-04-07 11:04:31,1.680865471,80.0
2023-04-07 11:34:30,1.68086727,81.0
2023-04-07 12:04:31,1.680869071,78.0
2023-04-07 12:34:33,1.680870873,79.0
2023-04-07 13:04:30,1.68087267,81.0
2023-04-07 13:34:33,1.680874473,82.0
2023-04-07 14:04:31,1.680876271,81.0
2023-04-07 14:34:33,1.680878073,86.0
2023-04-07 15:04:29,1.680879869,84.0
2023-04-07 15:34:31,1.680881671,83.0
2023-04-07 16:04:33,1.680883473,86.0
2023-04-07 16:34:28,1.680885268,85.0
2023-04-07 17:04:29,1.680887069,84.0
2023-04-07 17:34:30,1.68088887,84.0
2023-04-07 18:04:30,1.68089067,82.0
2023-04-07 18:34:28,1.680892468,82.0
2023-04-07 19:04:25,1.680894265,89.0
2023-04-07 19:34:24,1.680896064,86.0
2023-04-07 20:04:23,1.680897863,79.0
2023-04-07 20:34:26,1.680899666,87.0
2023-04-07 21:04:24,1.680901464,85.0
2023-04-07 21:34:21,1.680903261,2.0
2023-04-07 22:04:24,1.680905064,80.0
2023-04-07 22:34:21,1.680906861,103.0
2023-04-07 23:04:22,1.680908662,113.0
2023-04-07 23:34:23,1.680910463,116.0
2023-04-08 00:04:20,1.68091226,80.0
2023-04-08 00:34:20,1.68091406,80.0
2023-04-08 01:04:21,1.680915861,102.0
2023-04-08 01:34:22,1.680917662,86.0
2023-04-08 02:04:22,1.680919462,84.0
2023-04-08 02:34:22,1.680921262,79.0
2023-04-08 03:04:23,1.680923063,94.0
2023-04-08 03:34:23,1.680924863,84.0
2023-04-08 04:04:23,1.680926663,84.0
2023-04-08 04:34:24,1.680928464,83.0
2023-04-08 05:04:19,1.680930259,90.0
2023-04-08 05:34:19,1.680932059,82.0
2023-04-08 06:04:19,1.680933859,80.0
2023-04-08 06:34:23,1.680935663,86.0
2023-04-08 07:04:18,1.680937458,89.0
2023-04-08 07:34:22,1.680939262,84.0
2023-04-08 08:04:22,1.680941062,83.0
2023-04-08 08:34:24,1.680942864,86.0
2023-04-08 09:04:22,1.680944662,91.0
2023-04-08 09:34:27,1.680946467,83.0
2023-04-08 10:04:27,1.680948267,83.0
2023-04-08 10:34:28,1.680950068,91.0
2023-04-08 11:04:26,1.680951866,83.0
2023-04-08 11:34:29,1.680953669,76.0
2023-04-08 12:04:28,1.680955468,88.0
2023-04-08 12:34:27,1.680957267,84.0
2023-04-08 13:04:27,1.680959067,85.0
2023-04-08 13:34:28,1.680960868,87.0
2023-04-08 14:04:28,1.680962668,74.0
2023-04-08 14:34:30,1.68096447,85.0
2023-04-08 15:04:31,1.680966271,74.0
2023-04-08 15:34:32,1.680968072,84.0
2023-04-08 16:04:28,1.680969868,84.0
2023-04-08 16:34:29,1.680971669,75.0
2023-04-08 17:04:30,1.68097347,83.0
2023-04-08 17:34:29,1.680975269,84.0
2023-04-08 18:04:28,1.680977068,85.0
2023-04-08 18:34:26,1.680978866,77.0
2023-04-08 19:04:26,1.680980666,80.0
2023-04-08 19:34:24,1.680982464,80.0
2023-04-08 20:04:21,1.680984261,97.0
2023-04-08 20:34:23,1.680986063,113.0
2023-04-08 21:04:24,1.680987864,95.0
2023-04-08 21:34:20,1.68098966,77.0
2023-04-08 22:04:20,1.68099146,95.0
2023-04-08 22:34:20,1.68099326,77.0
2023-04-08 23:04:20,1.68099506,95.0
2023-04-08 23:34:20,1.68099686,80.0
2023-04-09 00:04:20,1.68099866,87.0
2023-04-09 00:34:20,1.68100046,89.0
2023-04-09 01:04:20,1.68100226,81.0
2023-04-09 01:34:19,1.681004059,83.0
2023-04-09 02:04:23,1.681005863,80.0
2023-04-09 02:34:18,1.681007658,78.0
2023-04-09 03:04:22,1.681009462,82.0
2023-04-09 03:34:21,1.681011261,80.0
2023-04-09 04:04:20,1.68101306,93.0
2023-04-09 04:34:19,1.681014859,81.0
2023-04-09 05:04:22,1.681016662,80.0
2023-04-09 05:34:20,1.68101846,83.0
2023-04-09 06:04:19,1.681020259,77.0
2023-04-09 06:34:23,1.681022063,83.0
2023-04-09 07:04:21,1.681023861,78.0
2023-04-09 07:34:19,1.681025659,80.0
2023-04-09 08:04:19,1.681027459,81.0
2023-04-09 08:34:24,1.681029264,79.0
2023-04-09 09:04:22,1.681031062,82.0
2023-04-09 09:34:26,1.681032866,78.0
2023-04-09 10:04:26,1.681034666,80.0
2023-04-09 10:34:28,1.681036468,88.0
2023-04-09 11:04:26,1.681038266,89.0
2023-04-09 11:34:30,1.68104007,81.0
2023-04-09 12:04:29,1.681041869,81.0
2023-04-09 12:34:29,1.681043669,85.0
2023-04-09 13:04:30,1.68104547,73.0
2023-04-09 13:34:31,1.681047271,83.0
2023-04-09 14:04:32,1.681049072,75.0
2023-04-09 14:34:29,1.681050869,80.0
2023-04-09 15:04:31,1.681052671,96.0
2023-04-09 15:34:29,1.681054469,81.0
2023-04-09 16:04:30,1.68105627,80.0
2023-04-09 16:34:32,1.681058072,84.0
2023-04-09 17:04:28,1.681059868,79.0
2023-04-09 17:34:29,1.681061669,79.0
2023-04-09 18:04:28,1.681063468,82.0
2023-04-09 18:34:26,1.681065266,91.0
2023-04-09 19:04:27,1.681067067,79.0
2023-04-09 19:34:26,1.681068866,88.0
2023-04-09 20:04:23,1.681070663,82.0
2023-04-09 20:34:21,1.681072461,83.0
2023-04-09 21:04:22,1.681074262,80.0
2023-04-09 21:34:23,1.681076063,84.0
2023-04-09 22:04:23,1.681077863,90.0
2023-04-09 22:34:19,1.681079659,82.0
2023-04-09 23:04:20,1.68108146,77.0
2023-04-09 23:34:20,1.68108326,86.0
2023-04-10 00:04:20,1.68108506,104.0
2023-04-10 00:34:20,1.68108686,80.0
2023-04-10 01:04:20,1.68108866,87.0
2023-04-10 01:34:20,1.68109046,81.0
2023-04-10 02:04:19,1.681092259,127.0
2023-04-10 02:34:19,1.681094059,85.0
2023-04-10 03:04:22,1.681095862,93.0
2023-04-10 03:34:21,1.681097661,93.0
2023-04-10 04:04:20,1.68109946,94.0
2023-04-10 04:34:18,1.681101258,81.0
2023-04-10 05:04:21,1.681103061,80.0
2023-04-10 05:34:20,1.68110486,82.0
2023-04-10 06:04:18,1.681106658,80.0
2023-04-10 06:34:21,1.681108461,87.0
2023-04-10 07:04:19,1.681110259,89.0
2023-04-10 07:34:22,1.681112062,85.0
2023-04-10 08:04:21,1.681113861,87.0
2023-04-10 08:34:22,1.681115662,74.0
2023-04-10 09:04:25,1.681117465,78.0
2023-04-10 09:34:26,1.681119266,85.0
2023-04-10 10:04:28,1.681121068,76.0
2023-04-10 10:34:26,1.681122866,78.0
2023-04-10 11:04:30,1.68112467,78.0
2023-04-10 11:34:30,1.68112647,82.0
2023-04-10 12:04:31,1.681128271,78.0
2023-04-10 12:34:32,1.681130072,92.0
2023-04-10 13:04:29,1.681131869,81.0
2023-04-10 13:34:32,1.681133672,77.0
2023-04-10 14:04:30,1.68113547,78.0
2023-04-10 14:34:33,1.681137273,81.0
2023-04-10 15:04:32,1.681139072,74.0
2023-04-10 15:34:31,1.681140871,76.0
2023-04-10 16:04:33,1.681142673,77.0
2023-04-10 16:34:30,1.68114447,85.0
2023-04-10 17:04:32,1.681146272,83.0
2023-04-10 17:34:29,1.681148069,78.0
2023-04-10 18:04:29,1.681149869,3.0
2023-04-10 18:34:27,1.681151667,74.0
2023-04-10 19:04:23,1.681153463,79.0
2023-04-10 19:34:23,1.681155263,80.0
2023-04-10 20:04:26,1.681157066,89.0
2023-04-10 20:34:24,1.681158864,82.0
2023-04-10 21:04:21,1.681160661,89.0
2023-04-10 21:34:23,1.681162463,84.0
2023-04-10 22:04:24,1.681164264,79.0
2023-04-10 22:34:20,1.68116606,82.0
2023-04-10 23:04:21,1.681167861,82.0
2023-04-10 23:34:22,1.681169662,80.0
2023-04-11 00:04:22,1.681171462,76.0
2023-04-11 00:34:23,1.681173263,77.0
2023-04-11 01:04:23,1.681175063,119.0
2023-04-11 01:34:23,1.681176863,40.0
2023-04-11 02:04:23,1.681178663,82.0
2023-04-11 02:34:23,1.681180463,102.0
2023-04-11 03:04:23,1.681182263,102.0
2023-04-11 03:34:23,1.681184063,70.0
2023-04-11 04:04:23,1.681185863,88.0
2023-04-11 04:34:19,1.681187659,87.0
2023-04-11 05:04:24,1.681189464,81.0
2023-04-11 05:34:19,1.681191259,84.0
2023-04-11 06:04:24,1.681193064,85.0
2023-04-11 06:34:19,1.681194859,80.0
2023-04-11 07:04:24,1.681196664,78.0
2023-04-11 07:34:20,1.68119846,76.0
2023-04-11 08:04:21,1.681200261,85.0
2023-04-11 08:34:24,1.681202064,75.0
2023-04-11 09:04:23,1.681203863,78.0
2023-04-11 09:34:23,1.681205663,82.0
2023-04-11 10:04:25,1.681207465,78.0
2023-04-11 10:34:27,1.681209267,83.0
2023-04-11 11:04:27,1.681211067,79.0
2023-04-11 11:34:32,1.681212872,78.0
2023-04-11 12:04:29,1.681214669,66.0
2023-04-11 12:34:31,1.681216471,82.0
2023-04-11 13:04:30,1.68121827,81.0
2023-04-11 13:34:33,1.681220073,78.0
2023-04-11 14:04:32,1.681221872,79.0
2023-04-11 14:34:32,1.681223672,89.0
2023-04-11 15:04:31,1.681225471,77.0
2023-04-11 15:34:31,1.681227271,84.0
2023-04-11 16:04:35,1.681229075,79.0
2023-04-11 16:34:34,1.681230874,73.0
2023-04-11 17:04:33,1.681232673,75.0
2023-04-11 17:34:31,1.681234471,79.0
2023-04-11 18:04:29,1.681236269,61.0
2023-04-11 18:34:29,1.681238069,72.0
2023-04-11 19:04:28,1.681239868,70.0
2023-04-11 19:34:26,1.681241666,74.0
2023-04-11 20:04:27,1.681243467,93.0
2023-04-11 20:34:24,1.681245264,76.0
2023-04-11 21:04:24,1.681247064,75.0
2023-04-11 21:34:24,1.681248864,113.0
2023-04-11 22:04:24,1.681250664,86.0
2023-04-11 22:34:24,1.681252464,84.0
2023-04-11 23:04:23,1.681254263,85.0
2023-04-11 23:34:23,1.681256063,75.0
2023-04-12 00:04:27,1.681257867,78.0
2023-04-12 00:34:26,1.681259666,75.0
2023-04-12 01:04:24,1.681261464,74.0
2023-04-12 01:34:23,1.681263263,77.0
2023-04-12 02:04:26,1.681265066,86.0
2023-04-12 02:34:24,1.681266864,81.0
2023-04-12 03:04:21,1.681268661,76.0
2023-04-12 03:34:24,1.681270464,77.0
2023-04-12 04:04:21,1.681272261,83.0
2023-04-12 04:34:23,1.681274063,78.0
2023-04-12 05:04:25,1.681275865,79.0
2023-04-12 05:34:22,1.681277662,90.0
2023-04-12 06:04:24,1.681279464,90.0
2023-04-12 06:34:21,1.681281261,80.0
2023-04-12 07:04:24,1.681283064,74.0
2023-04-12 07:34:23,1.681284863,78.0
2023-04-12 08:04:26,1.681286666,82.0
2023-04-12 08:34:26,1.681288466,75.0
2023-04-12 09:04:26,1.681290266,84.0
2023-04-12 09:34:27,1.681292067,80.0
2023-04-12 10:04:29,1.681293869,79.0
2023-04-12 10:34:27,1.681295667,71.0
2023-04-12 11:04:30,1.68129747,84.0
2023-04-12 11:34:30,1.68129927,90.0
2023-04-12 12:04:30,1.68130107,84.0
2023-04-12 12:34:30,1.68130287,80.0
2023-04-12 13:04:31,1.681304671,82.0
2023-04-12 13:34:31,1.681306471,82.0
2023-04-12 14:04:31,1.681308271,79.0
2023-04-12 14:34:30,1.68131007,81.0
2023-04-12 15:04:28,1.681311868,78.0
2023-04-12 15:34:25,1.681313665,79.0
2023-04-12 16:04:27,1.681315467,79.0
2023-04-12 16:34:27,1.681317267,80.0
2023-04-12 17:04:23,1.681319063,76.0
2023-04-12 17:34:23,1.681320863,80.0
2023-04-12 18:04:23,1.681322663,75.0
2023-04-12 18:34:27,1.681324467,92.0
2023-04-12 19:04:26,1.681326266,79.0
2023-04-12 19:34:24,1.681328064,76.0
2023-04-12 20:04:22,1.681329862,76.0
2023-04-12 20:34:24,1.681331664,81.0
2023-04-12 21:04:21,1.681333461,72.0
2023-04-12 21:34:21,1.681335261,84.0
2023-04-12 22:04:22,1.681337062,76.0
2023-04-12 22:34:23,1.681338863,85.0
2023-04-12 23:04:24,1.681340664,83.0
2023-04-12 23:34:20,1.68134246,76.0
2023-04-13 00:04:20,1.68134426,80.0
2023-04-13 00:34:21,1.681346061,78.0
2023-04-13 01:04:22,1.681347862,72.0
2023-04-13 01:34:22,1.681349662,79.0
2023-04-13 02:04:22,1.681351462,75.0
2023-04-13 02:34:22,1.681353262,89.0
2023-04-13 03:04:22,1.681355062,81.0
2023-04-13 03:34:23,1.681356863,75.0
2023-04-13 04:04:23,1.681358663,77.0
2023-04-13 04:34:23,1.681360463,76.0
2023-04-13 05:04:23,1.681362263,72.0
2023-04-13 05:34:23,1.681364063,73.0
2023-04-13 06:04:23,1.681365863,74.0
2023-04-13 06:34:22,1.681367662,78.0
2023-04-13 07:04:21,1.681369461,80.0
2023-04-13 07:34:21,1.681371261,78.0
2023-04-13 08:04:20,1.68137306,78.0
2023-04-13 08:34:19,1.681374859,74.0
2023-04-13 09:04:24,1.681376664,78.0
2023-04-13 09:34:20,1.68137846,82.0
2023-04-13 10:04:22,1.681380262,77.0
2023-04-13 10:34:23,1.681382063,75.0
2023-04-13 11:04:21,1.681383861,76.0
2023-04-13 11:34:23,1.681385663,79.0
2023-04-13 12:04:26,1.681387466,78.0
2023-04-13 12:34:24,1.681389264,77.0
2023-04-13 13:04:24,1.681391064,77.0
2023-04-13 13:34:24,1.681392864,73.0
2023-04-13 14:04:24,1.681394664,77.0
2023-04-13 14:34:24,1.681396464,72.0
2023-04-13 15:04:24,1.681398264,79.0
2023-04-13 15:34:24,1.681400064,76.0
2023-04-13 16:04:25,1.681401865,74.0
2023-04-13 16:34:25,1.681403665,79.0
2023-04-13 17:04:25,1.681405465,77.0
2023-04-13 17:34:24,1.681407264,76.0
2023-04-13 18:04:24,1.681409064,76.0
2023-04-13 18:34:21,1.681410861,73.0
2023-04-13 19:04:23,1.681412663,85.0
2023-04-13 19:34:23,1.681414463,73.0
2023-04-13 20:04:22,1.681416262,74.0
2023-04-13 20:34:22,1.681418062,84.0
2023-04-13 21:04:21,1.681419861,76.0
2023-04-13 21:34:21,1.681421661,86.0
2023-04-13 22:04:19,1.681423459,78.0
2023-04-13 22:34:18,1.681425258,82.0
2023-04-13 23:04:21,1.681427061,3.0
2023-04-13 23:34:19,1.681428859,76.0
2023-04-14 00:04:21,1.681430661,73.0
2023-04-14 00:34:19,1.681432459,73.0
2023-04-14 01:04:20,1.68143426,82.0
2023-04-14 01:34:17,1.681436057,75.0
2023-04-14 02:04:18,1.681437858,77.0
2023-04-14 02:34:19,1.681439659,75.0
2023-04-14 03:04:16,1.681441456,73.0
2023-04-14 03:34:17,1.681443257,87.0
2023-04-14 04:04:18,1.681445058,76.0
2023-04-14 04:34:20,1.68144686,77.0
2023-04-14 05:04:17,1.681448657,73.0
2023-04-14 05:34:20,1.68145046,79.0
2023-04-14 06:04:17,1.681452257,78.0
2023-04-14 06:34:20,1.68145406,92.0
2023-04-14 07:04:17,1.681455857,82.0
2023-04-14 07:34:19,1.681457659,82.0
2023-04-14 08:04:21,1.681459461,73.0
2023-04-14 08:34:19,1.681461259,75.0
2023-04-14 09:04:18,1.681463058,77.0
2023-04-14 09:34:22,1.681464862,74.0
2023-04-14 10:04:23,1.681466663,84.0
2023-04-14 10:34:21,1.681468461,78.0
2023-04-14 11:04:23,1.681470263,74.0
2023-04-14 11:34:22,1.681472062,78.0
2023-04-14 12:04:25,1.681473865,75.0
2023-04-14 12:34:25,1.681475665,82.0
2023-04-14 13:04:25,1.681477465,74.0
2023-04-14 13:34:25,1.681479265,77.0
2023-04-14 14:04:27,1.681481067,74.0
2023-04-14 14:34:28,1.681482868,75.0
2023-04-14 15:04:25,1.681484665,74.0
2023-04-14 15:34:27,1.681486467,75.0
2023-04-14 16:04:29,1.681488269,72.0
2023-04-14 16:34:27,1.681490067,72.0
2023-04-14 17:04:26,1.681491866,78.0
2023-04-14 17:34:25,1.681493665,77.0
2023-04-14 18:04:23,1.681495463,74.0
2023-04-14 18:34:25,1.681497265,73.0
2023-04-14 19:04:22,1.681499062,80.0
2023-04-14 19:34:23,1.681500863,74.0
2023-04-14 20:04:23,1.681502663,74.0
2023-04-14 20:34:23,1.681504463,78.0
2023-04-14 21:04:22,1.681506262,86.0
2023-04-14 21:34:21,1.681508061,73.0
2023-04-14 22:04:20,1.68150986,76.0
2023-04-14 22:34:18,1.681511658,3.0
2023-04-14 23:04:22,1.681513462,81.0
2023-04-14 23:34:20,1.68151526,76.0
2023-04-15 00:04:19,1.681517059,77.0
2023-04-15 00:34:22,1.681518862,77.0
2023-04-15 01:04:20,1.68152066,88.0
2023-04-15 01:34:19,1.681522459,87.0
2023-04-15 02:04:21,1.681524261,76.0
2023-04-15 02:34:19,1.681526059,79.0
2023-04-15 03:04:21,1.681527861,88.0
2023-04-15 03:34:18,1.681529658,75.0
2023-04-15 04:04:20,1.68153146,78.0
2023-04-15 04:34:17,1.681533257,75.0
2023-04-15 05:04:19,1.681535059,75.0
2023-04-15 05:34:20,1.68153686,74.0
2023-04-15 06:04:17,1.681538657,75.0
2023-04-15 06:34:19,1.681540459,85.0
2023-04-15 07:04:20,1.68154226,77.0
2023-04-15 07:34:17,1.681544057,76.0
2023-04-15 08:04:19,1.681545859,73.0
2023-04-15 08:34:22,1.681547662,72.0
2023-04-15 09:04:22,1.681549462,71.0
2023-04-15 09:34:22,1.681551262,74.0
2023-04-15 10:04:23,1.681553063,73.0
2023-04-15 10:34:20,1.68155486,73.0
2023-04-15 11:04:23,1.681556663,82.0
2023-04-15 11:34:27,1.681558467,76.0
2023-04-15 12:04:28,1.681560268,72.0
2023-04-15 12:34:25,1.681562065,73.0
2023-04-15 13:04:28,1.681563868,74.0
2023-04-15 13:34:26,1.681565666,73.0
2023-04-15 14:04:30,1.68156747,76.0
2023-04-15 14:34:30,1.68156927,81.0
2023-04-15 15:04:29,1.681571069,76.0
2023-04-15 15:34:28,1.681572868,74.0
2023-04-15 16:04:26,1.681574666,72.0
2023-04-15 16:34:28,1.681576468,77.0
2023-04-15 17:04:25,1.681578265,72.0
2023-04-15 17:34:26,1.681580066,79.0
2023-04-15 18:04:26,1.681581866,74.0
2023-04-15 18:34:25,1.681583665,72.0
2023-04-15 19:04:23,1.681585463,75.0
2023-04-15 19:34:21,1.681587261,85.0
2023-04-15 20:04:22,1.681589062,3.0
2023-04-15 20:34:23,1.681590863,74.0
2023-04-15 21:04:19,1.681592659,121.0
2023-04-15 21:34:24,1.681594464,73.0
2023-04-15 22:04:19,1.681596259,81.0
2023-04-15 22:34:24,1.681598064,73.0
2023-04-15 23:04:19,1.681599859,82.0
2023-04-15 23:34:25,1.681601665,78.0
2023-04-16 00:04:21,1.681603461,81.0
2023-04-16 00:34:22,1.681605262,81.0
2023-04-16 01:04:23,1.681607063,77.0
2023-04-16 01:34:24,1.681608864,76.0
2023-04-16 02:04:20,1.68161066,69.0
2023-04-16 02:34:21,1.681612461,96.0
2023-04-16 03:04:21,1.681614261,74.0
2023-04-16 03:34:22,1.681616062,73.0
2023-04-16 04:04:22,1.681617862,79.0
2023-04-16 04:34:22,1.681619662,89.0
2023-04-16 05:04:22,1.681621462,85.0
2023-04-16 05:34:22,1.681623262,74.0
2023-04-16 06:04:22,1.681625062,75.0
2023-04-16 06:34:21,1.681626861,69.0
2023-04-16 07:04:21,1.681628661,81.0
2023-04-16 07:34:21,1.681630461,72.0
2023-04-16 08:04:20,1.68163226,86.0
2023-04-16 08:34:20,1.68163406,71.0
2023-04-16 09:04:21,1.681635861,72.0
2023-04-16 09:34:22,1.681637662,76.0
2023-04-16 10:04:23,1.681639463,74.0
2023-04-16 10:34:21,1.681641261,74.0
2023-04-16 11:04:24,1.681643064,76.0
2023-04-16 11:34:21,1.681644861,76.0
2023-04-16 12:04:22,1.681646662,76.0
2023-04-16 12:34:24,1.681648464,76.0
2023-04-16 13:04:21,1.681650261,74.0
2023-04-16 13:34:24,1.681652064,75.0
2023-04-16 14:04:22,1.681653862,74.0
2023-04-16 14:34:25,1.681655665,73.0
2023-04-16 15:04:24,1.681657464,74.0
2023-04-16 15:34:23,1.681659263,77.0
2023-04-16 16:04:26,1.681661066,77.0
2023-04-16 16:34:25,1.681662865,71.0
2023-04-16 17:04:24,1.681664664,78.0
2023-04-16 17:34:22,1.681666462,72.0
2023-04-16 18:04:25,1.681668265,74.0
2023-04-16 18:34:22,1.681670062,82.0
2023-04-16 19:04:24,1.681671864,67.0
2023-04-16 19:34:21,1.681673661,78.0
2023-04-16 20:04:22,1.681675462,76.0
2023-04-16 20:34:23,1.681677263,74.0
2023-04-16 21:04:20,1.68167906,72.0
2023-04-16 21:34:20,1.68168086,72.0
2023-04-16 22:04:19,1.681682659,74.0
2023-04-16 22:34:18,1.681684458,70.0
2023-04-16 23:04:20,1.68168626,85.0
2023-04-16 23:34:18,1.681688058,103.0
2023-04-17 00:04:19,1.681689859,83.0
2023-04-17 00:34:16,1.681691656,73.0
2023-04-17 01:04:17,1.681693457,76.0
2023-04-17 01:34:19,1.681695259,77.0
2023-04-17 02:04:20,1.68169706,76.0
2023-04-17 02:34:15,1.681698855,75.0
2023-04-17 03:04:16,1.681700656,75.0
2023-04-17 03:34:16,1.681702456,78.0
2023-04-17 04:04:17,1.681704257,70.0
2023-04-17 04:34:17,1.681706057,75.0
2023-04-17 05:04:17,1.681707857,81.0
2023-04-17 05:34:17,1.681709657,77.0
2023-04-17 06:04:17,1.681711457,74.0
2023-04-17 06:34:16,1.681713256,76.0
2023-04-17 07:04:16,1.681715056,73.0
2023-04-17 07:34:16,1.681716856,70.0
2023-04-17 08:04:16,1.681718656,86.0
2023-04-17 08:34:17,1.681720457,74.0
2023-04-17 09:04:20,1.68172226,82.0
2023-04-17 09:34:20,1.68172406,79.0
2023-04-17 10:04:22,1.681725862,73.0
2023-04-17 10:34:24,1.681727664,91.0
2023-04-17 11:04:22,1.681729462,74.0
2023-04-17 11:34:26,1.681731266,73.0
2023-04-17 12:04:26,1.681733066,79.0
2023-04-17 12:34:26,1.681734866,74.0
2023-04-17 13:04:27,1.681736667,78.0
2023-04-17 13:34:24,1.681738464,81.0
2023-04-17 14:04:26,1.681740266,74.0
2023-04-17 14:34:28,1.681742068,73.0
2023-04-17 15:04:25,1.681743865,79.0
2023-04-17 15:34:28,1.681745668,74.0
2023-04-17 16:04:25,1.681747465,75.0
2023-04-17 16:34:28,1.681749268,75.0
2023-04-17 17:04:25,1.681751065,74.0
2023-04-17 17:34:26,1.681752866,74.0
2023-04-17 18:04:26,1.681754666,75.0
2023-04-17 18:34:25,1.681756465,78.0
2023-04-17 19:04:22,1.681758262,83.0
2023-04-17 19:34:21,1.681760061,69.0
2023-04-17 20:04:20,1.68176186,79.0
2023-04-17 20:34:18,1.681763658,77.0
2023-04-17 21:04:21,1.681765461,79.0
2023-04-17 21:34:19,1.681767259,72.0
2023-04-17 22:04:21,1.681769061,78.0
2023-04-17 22:34:18,1.681770858,79.0
2023-04-17 23:04:19,1.681772659,74.0
2023-04-17 23:34:16,1.681774456,79.0
2023-04-18 00:04:17,1.681776257,80.0
2023-04-18 00:34:18,1.681778058,73.0
2023-04-18 01:04:21,1.681779861,89.0
2023-04-18 01:34:19,1.681781659,78.0
2023-04-18 02:04:22,1.681783462,80.0
2023-04-18 02:34:21,1.681785261,84.0
2023-04-18 03:04:19,1.681787059,81.0
2023-04-18 03:34:22,1.681788862,85.0
2023-04-18 04:04:21,1.681790661,77.0
2023-04-18 04:34:18,1.681792458,75.0
2023-04-18 05:04:20,1.68179426,2.0
2023-04-18 05:34:17,1.681796057,116.0
2023-04-18 06:04:18,1.681797858,73.0
2023-04-18 06:34:19,1.681799659,81.0
2023-04-18 07:04:19,1.681801459,83.0
2023-04-18 07:34:15,1.681803255,90.0
2023-04-18 08:04:21,1.681805061,78.0
2023-04-18 08:34:18,1.681806858,73.0
2023-04-18 09:04:21,1.681808661,80.0
2023-04-18 09:34:21,1.681810461,81.0
2023-04-18 10:04:22,1.681812262,76.0
2023-04-18 10:34:25,1.681814065,82.0
2023-04-18 11:04:23,1.681815863,78.0
2023-04-18 11:34:26,1.681817666,75.0
2023-04-18 12:04:26,1.681819466,69.0
2023-04-18 12:34:27,1.681821267,66.0
2023-04-18 13:04:28,1.681823068,80.0
2023-04-18 13:34:24,1.681824864,67.0
2023-04-18 14:04:26,1.681826666,72.0
2023-04-18 14:34:28,1.681828468,66.0
2023-04-18 15:04:25,1.681830265,84.0
2023-04-18 15:34:27,1.681832067,73.0
2023-04-18 16:04:25,1.681833865,71.0
2023-04-18 16:34:26,1.681835666,69.0
2023-04-18 17:04:27,1.681837467,66.0
2023-04-18 17:34:28,1.681839268,71.0
2023-04-18 18:04:23,1.681841063,68.0
2023-04-18 18:34:26,1.681842866,77.0
2023-04-18 19:04:21,1.681844661,72.0
2023-04-18 19:34:20,1.68184646,86.0
2023-04-18 20:04:18,1.681848258,72.0
2023-04-18 20:34:20,1.68185006,77.0
2023-04-18 21:04:18,1.681851858,73.0
2023-04-18 21:34:19,1.681853659,79.0
2023-04-18 22:04:20,1.68185546,82.0
2023-04-18 22:34:16,1.681857256,69.0
2023-04-18 23:04:17,1.681859057,72.0
2023-04-18 23:34:18,1.681860858,74.0
2023-04-19 00:04:19,1.681862659,74.0
2023-04-19 00:34:21,1.681864461,78.0
2023-04-19 01:04:17,1.681866257,73.0
2023-04-19 01:34:19,1.681868059,75.0
2023-04-19 02:04:21,1.681869861,81.0
2023-04-19 02:34:20,1.68187166,111.0
2023-04-19 03:04:18,1.681873458,78.0
2023-04-19 03:34:21,1.681875261,75.0
2023-04-19 04:04:20,1.68187706,82.0
2023-04-19 04:34:20,1.68187886,65.0
2023-04-19 05:04:18,1.681880658,86.0
2023-04-19 05:34:21,1.681882461,72.0
2023-04-19 06:04:19,1.681884259,69.0
2023-04-19 06:34:21,1.681886061,74.0
2023-04-19 07:04:18,1.681887858,74.0
2023-04-19 07:34:20,1.68188966,63.0
2023-04-19 08:04:17,1.681891457,72.0
2023-04-19 08:34:20,1.68189326,75.0
2023-04-19 09:04:21,1.681895061,77.0
2023-04-19 09:34:22,1.681896862,81.0
2023-04-19 10:04:24,1.681898664,79.0
2023-04-19 10:34:24,1.681900464,81.0
2023-04-19 11:04:24,1.681902264,71.0
2023-04-19 11:34:25,1.681904065,79.0
2023-04-19 12:04:26,1.681905866,68.0
2023-04-19 12:34:29,1.681907669,69.0
2023-04-19 13:04:27,1.681909467,71.0
2023-04-19 13:34:30,1.68191127,76.0
2023-04-19 14:04:29,1.681913069,71.0
2023-04-19 14:34:28,1.681914868,80.0
2023-04-19 15:04:28,1.681916668,78.0
2023-04-19 15:34:27,1.681918467,77.0
2023-04-19 16:04:27,1.681920267,72.0
2023-04-19 16:34:30,1.68192207,72.0
2023-04-19 17:04:29,1.681923869,75.0
2023-04-19 17:34:27,1.681925667,76.0
2023-04-19 18:04:25,1.681927465,72.0
2023-04-19 18:34:25,1.681929265,73.0
2023-04-19 19:04:24,1.681931064,74.0
2023-04-19 19:34:21,1.681932861,71.0
2023-04-19 20:04:22,1.681934662,70.0
2023-04-19 20:34:22,1.681936462,73.0
2023-04-19 21:04:20,1.68193826,72.0
2023-04-19 21:34:19,1.681940059,73.0
2023-04-19 22:04:21,1.681941861,74.0
2023-04-19 22:34:18,1.681943658,73.0
2023-04-19 23:04:20,1.68194546,92.0
2023-04-19 23:34:16,1.681947256,73.0
2023-04-20 00:04:17,1.681949057,2.0
2023-04-20 00:34:18,1.681950858,72.0
2023-04-20 01:04:18,1.681952658,79.0
2023-04-20 01:34:18,1.681954458,71.0
2023-04-20 02:04:18,1.681956258,73.0
2023-04-20 02:34:18,1.681958058,74.0
2023-04-20 03:04:19,1.681959859,71.0
2023-04-20 03:34:18,1.681961658,70.0
2023-04-20 04:04:18,1.681963458,78.0
2023-04-20 04:34:18,1.681965258,84.0
2023-04-20 05:04:17,1.681967057,73.0
2023-04-20 05:34:16,1.681968856,73.0
2023-04-20 06:04:16,1.681970656,73.0
2023-04-20 06:34:15,1.681972455,75.0
2023-04-20 07:04:19,1.681974259,88.0
2023-04-20 07:34:18,1.681976058,76.0
2023-04-20 08:04:17,1.681977857,88.0
2023-04-20 08:34:18,1.681979658,76.0
2023-04-20 09:04:22,1.681981462,71.0
2023-04-20 09:34:23,1.681983263,70.0
2023-04-20 11:18:18,1.681989498,105.0
2023-04-20 11:32:25,1.681990345,107.0
2023-04-20 12:04:47,1.681992287,105.0
2023-04-20 12:34:20,1.68199406,105.0
2023-04-20 13:04:27,1.681995867,104.0
2023-04-20 13:34:29,1.681997669,106.0
2023-04-20 14:04:27,1.681999467,106.0
2023-04-20 14:34:29,1.682001269,102.0
2023-04-20 15:04:28,1.682003068,103.0
2023-04-20 15:34:26,1.682004866,104.0
2023-04-20 16:04:29,1.682006669,93.0
2023-04-20 16:34:27,1.682008467,105.0
2023-04-20 17:04:29,1.682010269,120.0
2023-04-20 17:34:26,1.682012066,107.0
2023-04-20 18:04:26,1.682013866,107.0
2023-04-20 18:34:25,1.682015665,107.0
2023-04-20 19:04:22,1.682017462,107.0
2023-04-20 19:34:21,1.682019261,109.0
2023-04-20 20:04:20,1.68202106,109.0
2023-04-20 20:34:17,1.682022857,107.0
2023-04-20 21:04:20,1.68202466,108.0
2023-04-20 21:34:18,1.682026458,108.0
2023-04-20 22:04:21,1.682028261,108.0
2023-04-20 22:34:19,1.682030059,108.0
2023-04-20 23:04:21,1.682031861,106.0
2023-04-20 23:34:17,1.682033657,109.0
2023-04-21 00:04:18,1.682035458,109.0
2023-04-21 00:34:19,1.682037259,108.0
2023-04-21 01:04:19,1.682039059,111.0
2023-04-21 01:34:15,1.682040855,109.0
2023-04-21 02:04:20,1.68204266,109.0
2023-04-21 02:34:16,1.682044456,108.0
