datetime,timelinux,s2
2023-12-05 03:04:25,1.701745465,108.0
2023-12-05 03:34:23,1.701747263,106.0
2023-12-05 04:04:25,1.701749065,104.0
2023-12-05 04:34:23,1.701750863,104.0
2023-12-05 05:04:25,1.701752665,108.0
2023-12-05 05:34:23,1.701754463,108.0
2023-12-05 06:04:25,1.701756265,106.0
2023-12-05 06:34:22,1.701758062,108.0
2023-12-05 07:04:24,1.701759864,104.0
2023-12-05 07:34:22,1.701761662,103.0
2023-12-05 08:04:27,1.701763467,100.0
2023-12-05 08:34:26,1.701765266,100.0
2023-12-05 09:04:27,1.701767067,100.0
2023-12-05 09:34:24,1.701768864,98.0
2023-12-05 10:04:26,1.701770666,101.0
2023-12-05 10:34:27,1.701772467,100.0
2023-12-05 11:04:28,1.701774268,99.0
2023-12-05 11:34:25,1.701776065,103.0
2023-12-05 12:04:29,1.701777869,97.0
2023-12-05 12:34:30,1.70177967,104.0
2023-12-05 13:04:31,1.701781471,102.0
2023-12-05 13:34:30,1.70178327,104.0
2023-12-05 14:04:32,1.701785072,2.0
2023-12-05 14:34:29,1.701786869,100.0
2023-12-05 15:04:29,1.701788669,102.0
2023-12-05 15:34:29,1.701790469,103.0
2023-12-05 16:04:30,1.70179227,102.0
2023-12-05 16:34:30,1.70179407,107.0
2023-12-05 17:04:30,1.70179587,103.0
2023-12-05 17:34:30,1.70179767,101.0
2023-12-05 18:04:29,1.701799469,102.0
2023-12-05 18:34:26,1.701801266,103.0
2023-12-05 19:04:28,1.701803068,85.0
2023-12-05 19:34:24,1.701804864,108.0
2023-12-05 20:04:24,1.701806664,107.0
2023-12-05 20:34:25,1.701808465,103.0
2023-12-05 21:04:25,1.701810265,102.0
2023-12-05 21:34:25,1.701812065,90.0
2023-12-05 22:04:25,1.701813865,106.0
2023-12-05 22:34:24,1.701815664,105.0
2023-12-05 23:04:24,1.701817464,108.0
2023-12-05 23:34:23,1.701819263,104.0
2023-12-06 00:04:27,1.701821067,2.0
2023-12-06 00:34:26,1.701822866,88.0
2023-12-06 01:04:25,1.701824665,104.0
2023-12-06 01:34:25,1.701826465,76.0
2023-12-06 02:04:24,1.701828264,91.0
2023-12-06 02:34:23,1.701830063,94.0
2023-12-06 03:04:26,1.701831866,105.0
2023-12-06 03:34:25,1.701833665,100.0
2023-12-06 04:04:24,1.701835464,93.0
2023-12-06 04:34:23,1.701837263,102.0
2023-12-06 05:04:26,1.701839066,106.0
2023-12-06 05:34:25,1.701840865,107.0
2023-12-06 06:04:23,1.701842663,105.0
2023-12-06 06:34:26,1.701844466,102.0
2023-12-06 07:04:25,1.701846265,106.0
2023-12-06 07:34:24,1.701848064,101.0
2023-12-06 08:04:24,1.701849864,107.0
2023-12-06 08:34:24,1.701851664,105.0
2023-12-06 09:04:24,1.701853464,103.0
2023-12-06 09:34:23,1.701855263,101.0
2023-12-06 10:04:23,1.701857063,96.0
2023-12-06 10:34:28,1.701858868,109.0
2023-12-06 11:04:24,1.701860664,100.0
2023-12-06 11:34:24,1.701862464,107.0
2023-12-06 12:04:25,1.701864265,107.0
2023-12-06 12:34:27,1.701866067,107.0
2023-12-06 13:04:30,1.70186787,105.0
2023-12-06 13:34:30,1.70186967,100.0
2023-12-06 14:04:28,1.701871468,94.0
2023-12-06 14:34:27,1.701873267,93.0
2023-12-06 15:04:31,1.701875071,107.0
2023-12-06 15:34:30,1.70187687,102.0
2023-12-06 16:04:30,1.70187867,2.0
2023-12-06 16:34:29,1.701880469,104.0
2023-12-06 17:04:27,1.701882267,94.0
2023-12-06 17:34:25,1.701884065,108.0
2023-12-06 18:04:28,1.701885868,93.0
2023-12-06 18:34:26,1.701887666,2.0
2023-12-06 19:04:30,1.70188947,103.0
2023-12-06 19:34:29,1.701891269,3.0
2023-12-06 20:04:26,1.701893066,2.0
2023-12-06 20:34:25,1.701894865,100.0
2023-12-06 21:04:24,1.701896664,110.0
2023-12-06 21:34:22,1.701898462,2.0
2023-12-06 22:04:24,1.701900264,2.0
2023-12-06 22:34:22,1.701902062,105.0
2023-12-06 23:04:24,1.701903864,108.0
2023-12-06 23:34:21,1.701905661,107.0
2023-12-07 00:04:23,1.701907463,108.0
2023-12-07 00:34:24,1.701909264,108.0
2023-12-07 01:04:20,1.70191106,107.0
2023-12-07 01:34:21,1.701912861,106.0
2023-12-07 02:04:22,1.701914662,108.0
2023-12-07 02:34:22,1.701916462,109.0
2023-12-07 03:04:22,1.701918262,109.0
2023-12-07 03:34:21,1.701920061,106.0
2023-12-07 04:04:20,1.70192186,105.0
2023-12-07 04:34:19,1.701923659,108.0
2023-12-07 05:04:19,1.701925459,104.0
2023-12-07 05:34:22,1.701927262,110.0
2023-12-07 06:04:21,1.701929061,107.0
2023-12-07 06:34:20,1.70193086,107.0
2023-12-07 07:04:23,1.701932663,106.0
2023-12-07 07:34:29,1.701934469,109.0
2023-12-07 08:04:28,1.701936268,107.0
2023-12-07 08:34:27,1.701938067,3.0
2023-12-07 09:04:28,1.701939868,104.0
2023-12-07 09:34:31,1.701941671,107.0
2023-12-07 10:04:34,1.701943474,106.0
2023-12-07 10:34:34,1.701945274,115.0
2023-12-07 11:04:36,1.701947076,99.0
2023-12-07 11:34:33,1.701948873,108.0
2023-12-07 12:04:35,1.701950675,113.0
2023-12-07 12:34:37,1.701952477,2.0
2023-12-07 13:04:34,1.701954274,103.0
2023-12-07 13:34:37,1.701956077,2.0
2023-12-07 14:04:34,1.701957874,2.0
2023-12-07 14:34:36,1.701959676,3.0
2023-12-07 15:04:33,1.701961473,2.0
2023-12-07 15:34:35,1.701963275,2.0
2023-12-07 16:04:35,1.701965075,102.0
2023-12-07 16:34:32,1.701966872,103.0
2023-12-07 17:04:32,1.701968672,99.0
2023-12-07 17:34:32,1.701970472,98.0
2023-12-07 18:04:32,1.701972272,102.0
2023-12-07 18:34:30,1.70197407,81.0
2023-12-07 19:04:33,1.701975873,110.0
2023-12-07 19:34:28,1.701977668,2.0
2023-12-07 20:04:26,1.701979466,96.0
2023-12-07 20:34:26,1.701981266,82.0
2023-12-07 21:04:24,1.701983064,118.0
2023-12-07 21:34:21,1.701984861,89.0
2023-12-07 22:04:23,1.701986663,86.0
2023-12-07 22:34:25,1.701988465,101.0
2023-12-07 23:04:21,1.701990261,2.0
2023-12-07 23:34:23,1.701992063,2.0
2023-12-08 00:04:24,1.701993864,3.0
2023-12-08 00:34:20,1.70199566,109.0
2023-12-08 01:04:21,1.701997461,109.0
2023-12-08 01:34:21,1.701999261,108.0
2023-12-08 02:04:22,1.702001062,107.0
2023-12-08 02:34:22,1.702002862,104.0
2023-12-08 03:04:22,1.702004662,108.0
2023-12-08 03:34:22,1.702006462,111.0
2023-12-08 04:04:22,1.702008262,110.0
2023-12-08 04:34:22,1.702010062,109.0
2023-12-08 05:04:21,1.702011861,105.0
2023-12-08 05:34:21,1.702013661,107.0
2023-12-08 06:04:21,1.702015461,103.0
2023-12-08 06:34:22,1.702017262,102.0
2023-12-08 07:04:25,1.702019065,108.0
2023-12-08 07:34:26,1.702020866,106.0
2023-12-08 08:04:29,1.702022669,104.0
2023-12-08 08:34:29,1.702024469,99.0
2023-12-08 09:04:30,1.70202627,2.0
2023-12-08 09:34:32,1.702028072,2.0
2023-12-08 10:04:30,1.70202987,96.0
2023-12-08 10:34:33,1.702031673,100.0
2023-12-08 11:04:32,1.702033472,106.0
2023-12-08 11:34:32,1.702035272,2.0
2023-12-08 12:04:31,1.702037071,2.0
2023-12-08 12:34:31,1.702038871,104.0
2023-12-08 13:04:36,1.702040676,2.0
2023-12-08 13:34:33,1.702042473,2.0
2023-12-08 14:04:34,1.702044274,107.0
2023-12-08 14:34:35,1.702046075,101.0
2023-12-08 15:04:36,1.702047876,102.0
2023-12-08 15:34:33,1.702049673,2.0
2023-12-08 16:04:34,1.702051474,107.0
2023-12-08 16:34:36,1.702053276,2.0
2023-12-08 17:04:32,1.702055072,104.0
2023-12-08 17:34:32,1.702056872,111.0
2023-12-08 18:04:32,1.702058672,2.0
2023-12-08 18:34:30,1.70206047,2.0
2023-12-08 19:04:32,1.702062272,2.0
2023-12-08 19:34:28,1.702064068,79.0
2023-12-08 20:04:26,1.702065866,2.0
2023-12-08 20:34:27,1.702067667,2.0
2023-12-08 21:04:25,1.702069465,108.0
2023-12-08 21:34:23,1.702071263,109.0
2023-12-08 22:04:25,1.702073065,99.0
2023-12-08 22:34:21,1.702074861,108.0
2023-12-08 23:04:22,1.702076662,102.0
2023-12-08 23:34:22,1.702078462,96.0
2023-12-09 00:04:23,1.702080263,104.0
2023-12-09 00:34:23,1.702082063,2.0
2023-12-09 01:04:23,1.702083863,107.0
2023-12-09 01:34:23,1.702085663,104.0
2023-12-09 02:04:19,1.702087459,98.0
2023-12-09 02:34:23,1.702089263,106.0
2023-12-09 03:04:19,1.702091059,109.0
2023-12-09 03:34:24,1.702092864,106.0
2023-12-09 04:04:20,1.70209466,109.0
2023-12-09 04:34:20,1.70209646,102.0
2023-12-09 05:04:21,1.702098261,107.0
2023-12-09 05:34:22,1.702100062,99.0
2023-12-09 06:04:22,1.702101862,106.0
2023-12-09 06:34:24,1.702103664,110.0
2023-12-09 07:04:23,1.702105463,104.0
2023-12-09 07:34:29,1.702107269,108.0
2023-12-09 08:04:25,1.702109065,2.0
2023-12-09 08:34:28,1.702110868,92.0
2023-12-09 09:04:26,1.702112666,94.0
2023-12-09 09:34:31,1.702114471,3.0
2023-12-09 10:04:32,1.702116272,92.0
2023-12-09 10:34:29,1.702118069,2.0
2023-12-09 11:04:32,1.702119872,91.0
2023-12-09 11:34:32,1.702121672,99.0
2023-12-09 12:04:34,1.702123474,2.0
2023-12-09 12:34:33,1.702125273,2.0
2023-12-09 13:04:29,1.702127069,103.0
2023-12-09 13:34:30,1.70212887,2.0
2023-12-09 14:04:31,1.702130671,2.0
2023-12-09 14:34:33,1.702132473,96.0
2023-12-09 15:04:31,1.702134271,109.0
2023-12-09 15:34:32,1.702136072,101.0
2023-12-09 16:04:33,1.702137873,86.0
2023-12-09 16:34:34,1.702139674,2.0
2023-12-09 17:04:31,1.702141471,2.0
2023-12-09 17:34:31,1.702143271,2.0
2023-12-09 18:04:31,1.702145071,3.0
2023-12-09 18:34:29,1.702146869,2.0
2023-12-09 19:04:31,1.702148671,2.0
2023-12-09 19:34:30,1.70215047,3.0
2023-12-09 20:04:27,1.702152267,108.0
2023-12-09 20:34:28,1.702154068,105.0
2023-12-09 21:04:23,1.702155863,100.0
2023-12-09 21:34:23,1.702157663,103.0
2023-12-09 22:04:26,1.702159466,2.0
2023-12-09 22:34:24,1.702161264,95.0
2023-12-09 23:04:22,1.702163062,94.0
2023-12-09 23:34:23,1.702164863,3.0
2023-12-10 00:04:20,1.70216666,111.0
2023-12-10 00:34:21,1.702168461,3.0
2023-12-10 01:04:22,1.702170262,2.0
2023-12-10 01:34:23,1.702172063,2.0
2023-12-10 02:04:23,1.702173863,2.0
2023-12-10 02:34:23,1.702175663,113.0
2023-12-10 03:04:19,1.702177459,103.0
2023-12-10 03:34:23,1.702179263,112.0
2023-12-10 04:04:18,1.702181058,112.0
2023-12-10 04:34:22,1.702182862,110.0
2023-12-10 05:04:22,1.702184662,62.0
2023-12-10 05:34:21,1.702186461,107.0
2023-12-10 06:04:20,1.70218826,93.0
2023-12-10 06:34:20,1.70219006,95.0
2023-12-10 07:04:22,1.702191862,93.0
2023-12-10 07:34:27,1.702193667,96.0
2023-12-10 08:04:30,1.70219547,96.0
2023-12-10 08:34:31,1.702197271,97.0
2023-12-10 09:04:34,1.702199074,106.0
2023-12-10 09:34:34,1.702200874,97.0
2023-12-10 10:04:35,1.702202675,106.0
2023-12-10 10:34:33,1.702204473,105.0
2023-12-10 11:04:36,1.702206276,91.0
2023-12-10 11:34:35,1.702208075,106.0
2023-12-10 12:04:39,1.702209879,101.0
2023-12-10 12:34:38,1.702211678,93.0
2023-12-10 13:04:38,1.702213478,96.0
2023-12-10 13:34:38,1.702215278,2.0
2023-12-10 14:04:38,1.702217078,2.0
2023-12-10 14:34:38,1.702218878,112.0
2023-12-10 15:04:38,1.702220678,3.0
2023-12-10 15:34:39,1.702222479,3.0
2023-12-10 16:04:39,1.702224279,102.0
2023-12-10 16:34:35,1.702226075,93.0
2023-12-10 17:04:40,1.70222788,2.0
2023-12-10 17:34:35,1.702229675,90.0
2023-12-10 18:04:38,1.702231478,104.0
2023-12-10 18:34:36,1.702233276,2.0
2023-12-10 19:04:32,1.702235072,2.0
2023-12-10 19:34:31,1.702236871,106.0
2023-12-10 20:04:27,1.702238667,92.0
2023-12-10 20:34:28,1.702240468,2.0
2023-12-10 21:04:23,1.702242263,102.0
2023-12-10 21:34:26,1.702244066,102.0
2023-12-10 22:04:25,1.702245865,113.0
2023-12-10 22:34:22,1.702247662,2.0
2023-12-10 23:04:24,1.702249464,2.0
2023-12-10 23:34:21,1.702251261,2.0
2023-12-11 00:04:23,1.702253063,2.0
2023-12-11 00:34:25,1.702254865,2.0
2023-12-11 01:04:21,1.702256661,2.0
2023-12-11 01:34:22,1.702258462,95.0
2023-12-11 02:04:23,1.702260263,110.0
2023-12-11 02:34:19,1.702262059,108.0
2023-12-11 03:04:20,1.70226386,110.0
2023-12-11 03:34:20,1.70226566,106.0
2023-12-11 04:04:20,1.70226746,105.0
2023-12-11 04:34:20,1.70226926,2.0
2023-12-11 05:04:20,1.70227106,102.0
2023-12-11 05:34:20,1.70227286,2.0
2023-12-11 06:04:21,1.702274661,105.0
2023-12-11 06:34:22,1.702276462,102.0
2023-12-11 07:04:26,1.702278266,91.0
2023-12-11 07:34:29,1.702280069,98.0
2023-12-11 08:04:28,1.702281868,99.0
2023-12-11 08:34:30,1.70228367,91.0
2023-12-11 09:04:33,1.702285473,99.0
2023-12-11 09:34:33,1.702287273,102.0
2023-12-11 10:04:34,1.702289074,104.0
2023-12-11 10:34:36,1.702290876,97.0
2023-12-11 11:04:34,1.702292674,97.0
2023-12-11 11:34:37,1.702294477,97.0
2023-12-11 12:04:36,1.702296276,102.0
2023-12-11 12:34:35,1.702298075,97.0
2023-12-11 13:04:35,1.702299875,2.0
2023-12-11 13:34:39,1.702301679,97.0
2023-12-11 14:04:34,1.702303474,102.0
2023-12-11 14:34:39,1.702305279,2.0
2023-12-11 15:04:35,1.702307075,2.0
2023-12-11 15:34:36,1.702308876,108.0
2023-12-11 16:04:37,1.702310677,3.0
2023-12-11 16:34:38,1.702312478,109.0
2023-12-11 17:04:39,1.702314279,94.0
2023-12-11 17:34:39,1.702316079,90.0
2023-12-11 18:04:38,1.702317878,3.0
2023-12-11 18:34:35,1.702319675,96.0
2023-12-11 19:04:32,1.702321472,3.0
2023-12-11 19:34:31,1.702323271,94.0
2023-12-11 20:04:32,1.702325072,92.0
2023-12-11 20:34:26,1.702326866,90.0
2023-12-11 21:04:27,1.702328667,107.0
2023-12-11 21:34:23,1.702330463,99.0
2023-12-11 22:04:24,1.702332264,106.0
2023-12-11 22:34:23,1.702334063,108.0
2023-12-11 23:04:27,1.702335867,108.0
2023-12-11 23:34:25,1.702337665,109.0
2023-12-12 00:04:23,1.702339463,109.0
2023-12-12 00:34:25,1.702341265,107.0
2023-12-12 01:04:23,1.702343063,108.0
2023-12-12 01:34:21,1.702344861,105.0
2023-12-12 02:04:24,1.702346664,104.0
2023-12-12 02:34:22,1.702348462,104.0
2023-12-12 03:04:24,1.702350264,103.0
2023-12-12 03:34:21,1.702352061,92.0
2023-12-12 04:04:24,1.702353864,89.0
2023-12-12 04:34:22,1.702355662,89.0
2023-12-12 05:04:25,1.702357465,92.0
2023-12-12 05:34:23,1.702359263,93.0
2023-12-12 06:04:26,1.702361066,89.0
2023-12-12 06:34:25,1.702362865,3.0
2023-12-12 07:04:27,1.702364667,91.0
2023-12-12 07:34:27,1.702366467,98.0
2023-12-12 08:04:29,1.702368269,94.0
2023-12-12 08:34:34,1.702370074,2.0
2023-12-12 09:04:35,1.702371875,3.0
2023-12-12 09:34:34,1.702373674,98.0
2023-12-12 10:04:38,1.702375478,88.0
2023-12-12 10:34:39,1.702377279,103.0
2023-12-12 11:04:40,1.70237908,93.0
2023-12-12 11:34:37,1.702380877,3.0
2023-12-12 12:04:40,1.70238268,3.0
2023-12-12 12:34:38,1.702384478,93.0
2023-12-12 13:04:42,1.702386282,104.0
2023-12-12 13:34:40,1.70238808,104.0
2023-12-12 14:04:40,1.70238988,2.0
2023-12-12 14:34:39,1.702391679,100.0
2023-12-12 15:04:39,1.702393479,92.0
2023-12-12 15:34:43,1.702395283,101.0
2023-12-12 16:04:41,1.702397081,96.0
2023-12-12 16:34:40,1.70239888,97.0
2023-12-12 17:04:38,1.702400678,98.0
2023-12-12 17:34:42,1.702402482,89.0
2023-12-12 18:04:40,1.70240428,90.0
2023-12-12 18:34:36,1.702406076,99.0
2023-12-12 19:04:34,1.702407874,2.0
2023-12-12 19:34:36,1.702409676,91.0
2023-12-12 20:04:31,1.702411471,3.0
2023-12-12 20:34:34,1.702413274,3.0
2023-12-12 21:04:31,1.702415071,102.0
2023-12-12 21:34:32,1.702416872,92.0
2023-12-12 22:04:29,1.702418669,2.0
2023-12-12 22:34:30,1.70242047,97.0
2023-12-12 23:04:31,1.702422271,3.0
2023-12-12 23:34:32,1.702424072,103.0
2023-12-13 00:04:28,1.702425868,104.0
2023-12-13 00:34:29,1.702427669,106.0
2023-12-13 01:04:30,1.70242947,2.0
2023-12-13 01:34:32,1.702431272,100.0
2023-12-13 02:04:28,1.702433068,104.0
2023-12-13 02:34:28,1.702434868,106.0
2023-12-13 03:04:29,1.702436669,105.0
2023-12-13 03:34:30,1.70243847,87.0
2023-12-13 04:04:30,1.70244027,101.0
2023-12-13 04:34:30,1.70244207,101.0
2023-12-13 05:04:30,1.70244387,89.0
2023-12-13 05:34:29,1.702445669,93.0
2023-12-13 06:04:25,1.702447465,95.0
2023-12-13 06:34:25,1.702449265,84.0
2023-12-13 07:04:24,1.702451064,102.0
2023-12-13 07:34:24,1.702452864,109.0
2023-12-13 08:04:24,1.702454664,86.0
2023-12-13 08:34:23,1.702456463,86.0
2023-12-13 09:04:23,1.702458263,93.0
2023-12-13 09:34:23,1.702460063,93.0
2023-12-13 10:04:28,1.702461868,106.0
2023-12-13 10:34:23,1.702463663,97.0
2023-12-13 11:04:27,1.702465467,100.0
2023-12-13 11:34:27,1.702467267,101.0
2023-12-13 12:04:26,1.702469066,97.0
2023-12-13 12:34:26,1.702470866,105.0
2023-12-13 13:04:27,1.702472667,93.0
2023-12-13 13:34:27,1.702474467,87.0
2023-12-13 14:04:27,1.702476267,101.0
2023-12-13 14:34:23,1.702478063,102.0
2023-12-13 15:04:24,1.702479864,85.0
2023-12-13 15:34:25,1.702481665,107.0
2023-12-13 16:04:27,1.702483467,88.0
2023-12-13 16:34:29,1.702485269,91.0
2023-12-13 17:04:26,1.702487066,93.0
2023-12-13 17:34:30,1.70248887,86.0
2023-12-13 18:04:29,1.702490669,78.0
2023-12-13 18:34:28,1.702492468,85.0
2023-12-13 19:04:28,1.702494268,83.0
2023-12-13 19:34:26,1.702496066,84.0
2023-12-13 20:04:29,1.702497869,112.0
2023-12-13 20:34:24,1.702499664,87.0
2023-12-13 21:04:24,1.702501464,91.0
2023-12-13 21:34:24,1.702503264,103.0
2023-12-13 22:04:24,1.702505064,88.0
2023-12-13 22:34:23,1.702506863,104.0
2023-12-13 23:04:27,1.702508667,88.0
2023-12-13 23:34:26,1.702510466,93.0
2023-12-14 00:04:25,1.702512265,92.0
2023-12-14 00:34:24,1.702514064,83.0
2023-12-14 01:04:22,1.702515862,92.0
2023-12-14 01:34:26,1.702517666,84.0
2023-12-14 02:04:25,1.702519465,87.0
2023-12-14 02:34:25,1.702521265,107.0
2023-12-14 03:04:24,1.702523064,86.0
2023-12-14 03:34:24,1.702524864,84.0
2023-12-14 04:04:23,1.702526663,95.0
2023-12-14 04:34:27,1.702528467,87.0
2023-12-14 05:04:22,1.702530262,107.0
2023-12-14 05:34:27,1.702532067,104.0
2023-12-14 06:04:27,1.702533867,100.0
2023-12-14 06:34:27,1.702535667,96.0
2023-12-14 07:04:27,1.702537467,88.0
2023-12-14 07:34:27,1.702539267,97.0
2023-12-14 08:04:27,1.702541067,84.0
2023-12-14 08:34:23,1.702542863,90.0
2023-12-14 09:04:28,1.702544668,96.0
2023-12-14 09:34:24,1.702546464,87.0
2023-12-14 10:04:26,1.702548266,84.0
2023-12-14 10:34:28,1.702550068,87.0
2023-12-14 11:04:27,1.702551867,92.0
2023-12-14 11:34:31,1.702553671,85.0
2023-12-14 12:04:34,1.702555474,105.0
2023-12-14 12:34:35,1.702557275,89.0
2023-12-14 13:04:38,1.702559078,88.0
2023-12-14 13:34:36,1.702560876,89.0
2023-12-14 14:04:35,1.702562675,87.0
2023-12-14 14:34:37,1.702564477,89.0
2023-12-14 15:04:33,1.702566273,87.0
2023-12-14 15:34:32,1.702568072,99.0
2023-12-14 16:04:30,1.70256987,96.0
2023-12-14 16:34:34,1.702571674,81.0
2023-12-14 17:04:34,1.702573474,92.0
2023-12-14 17:34:34,1.702575274,94.0
2023-12-14 18:04:35,1.702577075,81.0
2023-12-14 18:34:34,1.702578874,85.0
2023-12-14 19:04:33,1.702580673,86.0
2023-12-14 19:34:30,1.70258247,2.0
2023-12-14 20:04:30,1.70258427,94.0
2023-12-14 20:34:28,1.702586068,88.0
2023-12-14 21:04:25,1.702587865,82.0
2023-12-14 21:34:26,1.702589666,82.0
2023-12-14 22:04:27,1.702591467,83.0
2023-12-14 22:34:28,1.702593268,103.0
2023-12-14 23:04:23,1.702595063,93.0
2023-12-14 23:34:23,1.702596863,83.0
2023-12-15 00:04:24,1.702598664,81.0
2023-12-15 00:34:24,1.702600464,80.0
2023-12-15 01:04:25,1.702602265,89.0
2023-12-15 01:34:25,1.702604065,81.0
2023-12-15 02:04:26,1.702605866,88.0
2023-12-15 02:34:27,1.702607667,87.0
2023-12-15 03:04:28,1.702609468,89.0
2023-12-15 03:34:24,1.702611264,84.0
2023-12-15 04:04:26,1.702613066,90.0
2023-12-15 04:34:27,1.702614867,89.0
2023-12-15 05:04:28,1.702616668,93.0
2023-12-15 05:34:24,1.702618464,99.0
2023-12-15 06:04:25,1.702620265,91.0
2023-12-15 06:34:26,1.702622066,89.0
2023-12-15 07:04:27,1.702623867,89.0
2023-12-15 07:34:29,1.702625669,101.0
2023-12-15 08:04:27,1.702627467,100.0
2023-12-15 08:34:29,1.702629269,100.0
2023-12-15 09:04:27,1.702631067,87.0
2023-12-15 09:34:30,1.70263287,80.0
2023-12-15 10:04:29,1.702634669,86.0
2023-12-15 10:34:28,1.702636468,98.0
2023-12-15 11:04:27,1.702638267,85.0
2023-12-15 11:34:31,1.702640071,83.0
2023-12-15 12:04:27,1.702641867,89.0
2023-12-15 12:34:31,1.702643671,78.0
2023-12-15 13:04:25,1.702645465,85.0
2023-12-15 13:34:28,1.702647268,88.0
2023-12-15 14:04:29,1.702649069,86.0
2023-12-15 14:34:33,1.702650873,89.0
2023-12-15 15:04:31,1.702652671,91.0
2023-12-15 15:34:33,1.702654473,95.0
2023-12-15 16:04:33,1.702656273,88.0
2023-12-15 16:34:31,1.702658071,87.0
2023-12-15 17:04:34,1.702659874,88.0
2023-12-15 17:34:34,1.702661674,91.0
2023-12-15 18:04:34,1.702663474,2.0
2023-12-15 18:34:34,1.702665274,86.0
2023-12-15 19:04:32,1.702667072,87.0
2023-12-15 19:34:29,1.702668869,87.0
2023-12-15 20:04:29,1.702670669,81.0
2023-12-15 20:34:27,1.702672467,89.0
2023-12-15 21:04:30,1.70267427,88.0
2023-12-15 21:34:28,1.702676068,82.0
2023-12-15 22:04:25,1.702677865,85.0
2023-12-15 22:34:27,1.702679667,83.0
2023-12-15 23:04:24,1.702681464,2.0
2023-12-15 23:34:26,1.702683266,86.0
2023-12-16 00:04:28,1.702685068,90.0
2023-12-16 00:34:25,1.702686865,102.0
2023-12-16 01:04:27,1.702688667,107.0
2023-12-16 01:34:28,1.702690468,89.0
2023-12-16 02:04:25,1.702692265,103.0
2023-12-16 02:34:27,1.702694067,104.0
2023-12-16 03:04:28,1.702695868,90.0
2023-12-16 03:34:25,1.702697665,86.0
2023-12-16 04:04:26,1.702699466,86.0
2023-12-16 04:34:28,1.702701268,78.0
2023-12-16 05:04:25,1.702703065,85.0
2023-12-16 05:34:27,1.702704867,81.0
2023-12-16 06:04:28,1.702706668,81.0
2023-12-16 06:34:25,1.702708465,89.0
2023-12-16 07:04:26,1.702710266,84.0
2023-12-16 07:34:29,1.702712069,82.0
2023-12-16 08:04:27,1.702713867,87.0
2023-12-16 08:34:29,1.702715669,83.0
2023-12-16 09:04:27,1.702717467,84.0
2023-12-16 09:34:29,1.702719269,85.0
2023-12-16 10:04:28,1.702721068,87.0
2023-12-16 10:34:28,1.702722868,78.0
2023-12-16 11:04:32,1.702724672,86.0
2023-12-16 11:34:33,1.702726473,84.0
2023-12-16 12:04:34,1.702728274,86.0
2023-12-16 12:34:35,1.702730075,81.0
2023-12-16 13:04:36,1.702731876,85.0
2023-12-16 13:34:34,1.702733674,84.0
2023-12-16 14:04:36,1.702735476,83.0
2023-12-16 14:34:33,1.702737273,87.0
2023-12-16 15:04:38,1.702739078,83.0
2023-12-16 15:34:38,1.702740878,84.0
2023-12-16 16:04:38,1.702742678,79.0
2023-12-16 16:34:39,1.702744479,95.0
2023-12-16 17:04:39,1.702746279,83.0
2023-12-16 17:34:38,1.702748078,76.0
2023-12-16 18:04:38,1.702749878,87.0
2023-12-16 18:34:36,1.702751676,87.0
2023-12-16 19:04:33,1.702753473,85.0
2023-12-16 19:34:34,1.702755274,95.0
2023-12-16 20:04:32,1.702757072,81.0
2023-12-16 20:34:28,1.702758868,84.0
2023-12-16 21:04:29,1.702760669,87.0
2023-12-16 21:34:29,1.702762469,83.0
2023-12-16 22:04:29,1.702764269,79.0
2023-12-16 22:34:29,1.702766069,85.0
2023-12-16 23:04:29,1.702767869,89.0
2023-12-16 23:34:30,1.70276967,93.0
2023-12-17 00:04:30,1.70277147,82.0
2023-12-17 00:34:31,1.702773271,81.0
2023-12-17 01:04:32,1.702775072,85.0
2023-12-17 01:34:28,1.702776868,80.0
2023-12-17 02:04:29,1.702778669,80.0
2023-12-17 02:34:29,1.702780469,76.0
2023-12-17 03:04:29,1.702782269,81.0
2023-12-17 03:34:29,1.702784069,2.0
2023-12-17 04:04:28,1.702785868,2.0
2023-12-17 04:34:28,1.702787668,88.0
2023-12-17 05:04:27,1.702789467,80.0
2023-12-17 05:34:30,1.70279127,76.0
2023-12-17 06:04:29,1.702793069,87.0
2023-12-17 06:34:26,1.702794866,86.0
2023-12-17 07:04:28,1.702796668,83.0
2023-12-17 07:34:24,1.702798464,79.0
2023-12-17 08:04:25,1.702800265,85.0
2023-12-17 08:34:26,1.702802066,80.0
2023-12-17 09:04:27,1.702803867,83.0
2023-12-17 09:34:28,1.702805668,84.0
2023-12-17 10:04:24,1.702807464,83.0
2023-12-17 10:34:24,1.702809264,84.0
2023-12-17 11:04:24,1.702811064,86.0
2023-12-17 11:34:25,1.702812865,84.0
2023-12-17 12:04:28,1.702814668,80.0
2023-12-17 12:34:28,1.702816468,79.0
2023-12-17 13:04:28,1.702818268,91.0
2023-12-17 13:34:27,1.702820067,81.0
2023-12-17 14:04:27,1.702821867,80.0
2023-12-17 14:34:31,1.702823671,80.0
2023-12-17 15:04:26,1.702825466,83.0
2023-12-17 15:34:30,1.70282727,84.0
2023-12-17 16:04:30,1.70282907,87.0
2023-12-17 16:34:30,1.70283087,85.0
2023-12-17 17:04:29,1.702832669,80.0
2023-12-17 17:34:28,1.702834468,78.0
2023-12-17 18:04:25,1.702836265,81.0
2023-12-17 18:34:27,1.702838067,82.0
2023-12-17 19:04:29,1.702839869,86.0
2023-12-17 19:34:27,1.702841667,77.0
2023-12-17 20:04:26,1.702843466,81.0
2023-12-17 20:34:27,1.702845267,96.0
2023-12-17 21:04:24,1.702847064,82.0
2023-12-17 21:34:24,1.702848864,75.0
2023-12-17 22:04:24,1.702850664,2.0
2023-12-17 22:34:24,1.702852464,83.0
2023-12-17 23:04:24,1.702854264,85.0
2023-12-17 23:34:24,1.702856064,98.0
2023-12-18 00:04:24,1.702857864,90.0
2023-12-18 00:34:23,1.702859663,78.0
2023-12-18 01:04:23,1.702861463,83.0
2023-12-18 01:34:27,1.702863267,77.0
2023-12-18 02:04:22,1.702865062,80.0
2023-12-18 02:34:27,1.702866867,78.0
2023-12-18 03:04:26,1.702868666,79.0
2023-12-18 03:34:26,1.702870466,80.0
2023-12-18 04:04:26,1.702872266,81.0
2023-12-18 04:34:25,1.702874065,104.0
2023-12-18 05:04:25,1.702875865,107.0
2023-12-18 05:34:24,1.702877664,96.0
2023-12-18 06:04:23,1.702879463,91.0
2023-12-18 06:34:26,1.702881266,105.0
2023-12-18 07:04:25,1.702883065,107.0
2023-12-18 07:34:24,1.702884864,83.0
2023-12-18 08:04:23,1.702886663,95.0
2023-12-18 08:34:27,1.702888467,83.0
2023-12-18 09:04:26,1.702890266,85.0
2023-12-18 09:34:26,1.702892066,89.0
2023-12-18 10:04:26,1.702893866,105.0
2023-12-18 10:34:28,1.702895668,94.0
2023-12-18 11:04:26,1.702897466,85.0
2023-12-18 11:34:32,1.702899272,88.0
2023-12-18 12:04:30,1.70290107,81.0
2023-12-18 12:34:31,1.702902871,85.0
2023-12-18 13:04:27,1.702904667,75.0
2023-12-18 13:34:29,1.702906469,74.0
2023-12-18 14:04:33,1.702908273,76.0
2023-12-18 14:34:33,1.702910073,74.0
2023-12-18 15:04:31,1.702911871,83.0
2023-12-18 15:34:28,1.702913668,82.0
2023-12-18 16:04:28,1.702915468,83.0
2023-12-18 16:34:28,1.702917268,78.0
2023-12-18 17:04:28,1.702919068,78.0
2023-12-18 17:34:28,1.702920868,75.0
2023-12-18 18:04:27,1.702922667,87.0
2023-12-18 18:34:30,1.70292447,74.0
2023-12-18 19:04:28,1.702926268,80.0
2023-12-18 19:34:25,1.702928065,75.0
2023-12-18 20:04:26,1.702929866,88.0
2023-12-18 20:34:26,1.702931666,78.0
2023-12-18 21:04:26,1.702933466,83.0
2023-12-18 21:34:25,1.702935265,80.0
2023-12-18 22:04:23,1.702937063,83.0
2023-12-18 22:34:22,1.702938862,90.0
2023-12-18 23:04:25,1.702940665,74.0
2023-12-18 23:34:23,1.702942463,81.0
2023-12-19 00:04:25,1.702944265,79.0
2023-12-19 00:34:23,1.702946063,86.0
2023-12-19 01:04:25,1.702947865,77.0
2023-12-19 01:34:23,1.702949663,93.0
2023-12-19 02:04:25,1.702951465,83.0
2023-12-19 02:34:22,1.702953262,87.0
2023-12-19 03:04:24,1.702955064,74.0
2023-12-19 03:34:21,1.702956861,78.0
2023-12-19 04:04:23,1.702958663,81.0
2023-12-19 04:34:25,1.702960465,94.0
2023-12-19 05:04:22,1.702962262,70.0
2023-12-19 05:34:23,1.702964063,87.0
2023-12-19 06:04:20,1.70296586,78.0
2023-12-19 06:34:22,1.702967662,76.0
2023-12-19 07:04:23,1.702969463,83.0
2023-12-19 07:34:25,1.702971265,84.0
2023-12-19 08:04:22,1.702973062,81.0
2023-12-19 08:34:24,1.702974864,85.0
2023-12-19 09:04:22,1.702976662,76.0
2023-12-19 09:34:25,1.702978465,73.0
2023-12-19 10:04:23,1.702980263,79.0
2023-12-19 10:34:26,1.702982066,75.0
2023-12-19 11:04:25,1.702983865,85.0
2023-12-19 11:34:24,1.702985664,78.0
2023-12-19 12:04:26,1.702987466,77.0
2023-12-19 12:34:29,1.702989269,76.0
2023-12-19 13:04:27,1.702991067,78.0
2023-12-19 13:34:29,1.702992869,76.0
2023-12-19 14:04:27,1.702994667,79.0
2023-12-19 14:34:29,1.702996469,85.0
2023-12-19 15:04:28,1.702998268,84.0
2023-12-19 15:34:27,1.703000067,74.0
2023-12-19 16:04:32,1.703001872,79.0
2023-12-19 16:34:26,1.703003666,79.0
2023-12-19 17:04:30,1.70300547,82.0
2023-12-19 17:34:28,1.703007268,75.0
2023-12-19 18:04:25,1.703009065,75.0
2023-12-19 18:34:27,1.703010867,78.0
2023-12-19 19:04:29,1.703012669,78.0
2023-12-19 19:34:24,1.703014464,75.0
2023-12-19 20:04:24,1.703016264,78.0
2023-12-19 20:34:23,1.703018063,74.0
2023-12-19 21:04:25,1.703019865,73.0
2023-12-19 21:34:23,1.703021663,78.0
2023-12-19 22:04:21,1.703023461,72.0
2023-12-19 22:34:24,1.703025264,75.0
2023-12-19 23:04:22,1.703027062,76.0
2023-12-19 23:34:24,1.703028864,2.0
2023-12-20 00:04:23,1.703030663,72.0
2023-12-20 00:34:25,1.703032465,87.0
2023-12-20 01:04:23,1.703034263,73.0
2023-12-20 01:34:21,1.703036061,76.0
2023-12-20 02:04:23,1.703037863,81.0
2023-12-20 02:34:21,1.703039661,77.0
2023-12-20 03:04:23,1.703041463,82.0
2023-12-20 03:34:25,1.703043265,72.0
2023-12-20 04:04:22,1.703045062,76.0
2023-12-20 04:34:23,1.703046863,93.0
2023-12-20 05:04:20,1.70304866,101.0
2023-12-20 05:34:21,1.703050461,82.0
2023-12-20 06:04:23,1.703052263,74.0
2023-12-20 06:34:24,1.703054064,75.0
2023-12-20 07:04:21,1.703055861,70.0
2023-12-20 07:34:23,1.703057663,76.0
2023-12-20 08:04:26,1.703059466,69.0
2023-12-20 08:34:26,1.703061266,73.0
2023-12-20 09:04:29,1.703063069,73.0
2023-12-20 09:34:29,1.703064869,73.0
2023-12-20 10:04:30,1.70306667,73.0
2023-12-20 10:34:29,1.703068469,77.0
2023-12-20 11:04:27,1.703070267,76.0
2023-12-20 11:34:25,1.703072065,71.0
2023-12-20 12:04:28,1.703073868,78.0
2023-12-20 12:34:26,1.703075666,68.0
2023-12-20 13:04:30,1.70307747,70.0
2023-12-20 13:34:30,1.70307927,74.0
2023-12-20 14:04:30,1.70308107,70.0
2023-12-20 14:34:32,1.703082872,77.0
2023-12-20 15:04:28,1.703084668,75.0
2023-12-20 15:34:28,1.703086468,67.0
2023-12-20 16:04:27,1.703088267,77.0
2023-12-20 16:34:27,1.703090067,71.0
2023-12-20 17:04:28,1.703091868,74.0
2023-12-20 17:34:27,1.703093667,72.0
2023-12-20 18:04:32,1.703095472,74.0
2023-12-20 18:34:26,1.703097266,92.0
2023-12-20 19:04:28,1.703099068,89.0
2023-12-20 19:34:25,1.703100865,82.0
2023-12-20 20:04:26,1.703102666,67.0
2023-12-20 20:34:26,1.703104466,69.0
2023-12-20 21:04:26,1.703106266,69.0
2023-12-20 21:34:26,1.703108066,76.0
2023-12-20 22:04:26,1.703109866,86.0
2023-12-20 22:34:25,1.703111665,78.0
2023-12-20 23:04:25,1.703113465,68.0
2023-12-20 23:34:24,1.703115264,66.0
2023-12-21 00:04:24,1.703117064,75.0
2023-12-21 00:34:23,1.703118863,69.0
2023-12-21 01:04:27,1.703120667,75.0
2023-12-21 01:34:25,1.703122465,67.0
2023-12-21 02:04:23,1.703124263,65.0
2023-12-21 02:34:26,1.703126066,79.0
2023-12-21 03:04:24,1.703127864,74.0
2023-12-21 03:34:23,1.703129663,70.0
2023-12-21 04:04:25,1.703131465,74.0
2023-12-21 04:34:22,1.703133262,65.0
2023-12-21 05:04:24,1.703135064,72.0
2023-12-21 05:34:21,1.703136861,68.0
2023-12-21 06:04:23,1.703138663,82.0
2023-12-21 06:34:25,1.703140465,67.0
2023-12-21 07:04:25,1.703142265,69.0
2023-12-21 07:34:28,1.703144068,71.0
2023-12-21 08:04:28,1.703145868,72.0
2023-12-21 08:34:30,1.70314767,65.0
2023-12-21 09:04:32,1.703149472,65.0
2023-12-21 09:34:28,1.703151268,64.0
2023-12-21 10:04:29,1.703153069,64.0
2023-12-21 10:34:33,1.703154873,62.0
2023-12-21 11:04:32,1.703156672,67.0
2023-12-21 11:34:31,1.703158471,73.0
2023-12-21 12:04:34,1.703160274,66.0
2023-12-21 12:34:34,1.703162074,71.0
2023-12-21 13:04:34,1.703163874,67.0
2023-12-21 13:34:34,1.703165674,61.0
2023-12-21 14:04:35,1.703167475,80.0
2023-12-21 14:34:36,1.703169276,74.0
2023-12-21 15:04:32,1.703171072,76.0
2023-12-21 15:34:34,1.703172874,71.0
2023-12-21 16:04:35,1.703174675,64.0
2023-12-21 16:34:35,1.703176475,69.0
2023-12-21 17:04:30,1.70317827,68.0
2023-12-21 17:34:34,1.703180074,80.0
2023-12-21 18:04:32,1.703181872,72.0
2023-12-21 18:34:30,1.70318367,75.0
2023-12-21 19:04:32,1.703185472,64.0
2023-12-21 19:34:29,1.703187269,70.0
2023-12-21 20:04:28,1.703189068,77.0
2023-12-21 20:34:25,1.703190865,65.0
2023-12-21 21:04:26,1.703192666,70.0
2023-12-21 21:34:26,1.703194466,78.0
2023-12-21 22:04:25,1.703196265,67.0
2023-12-21 22:34:24,1.703198064,61.0
2023-12-21 23:04:23,1.703199863,81.0
2023-12-21 23:34:22,1.703201662,75.0
2023-12-22 00:04:26,1.703203466,65.0
2023-12-22 00:34:25,1.703205265,73.0
2023-12-22 01:04:25,1.703207065,67.0
2023-12-22 01:34:25,1.703208865,66.0
2023-12-22 02:04:24,1.703210664,66.0
2023-12-22 02:34:24,1.703212464,75.0
2023-12-22 03:04:24,1.703214264,64.0
2023-12-22 03:34:24,1.703216064,82.0
2023-12-22 04:04:23,1.703217863,77.0
2023-12-22 04:34:23,1.703219663,64.0
2023-12-22 05:04:23,1.703221463,75.0
2023-12-22 05:34:27,1.703223267,65.0
2023-12-22 06:04:27,1.703225067,61.0
2023-12-22 06:34:27,1.703226867,70.0
2023-12-22 07:04:27,1.703228667,70.0
2023-12-22 07:34:28,1.703230468,70.0
2023-12-22 08:04:26,1.703232266,64.0
2023-12-22 08:34:31,1.703234071,72.0
2023-12-22 09:04:34,1.703235874,65.0
2023-12-22 09:34:29,1.703237669,74.0
2023-12-22 10:04:30,1.70323947,66.0
2023-12-22 10:34:32,1.703241272,67.0
2023-12-22 11:04:31,1.703243071,68.0
2023-12-22 11:34:29,1.703244869,63.0
2023-12-22 12:04:30,1.70324667,69.0
2023-12-22 12:34:30,1.70324847,79.0
2023-12-22 13:04:31,1.703250271,67.0
2023-12-22 13:34:30,1.70325207,71.0
2023-12-22 14:04:32,1.703253872,64.0
2023-12-22 14:34:29,1.703255669,70.0
2023-12-22 15:04:29,1.703257469,69.0
2023-12-22 15:34:28,1.703259268,62.0
2023-12-22 16:04:31,1.703261071,66.0
2023-12-22 16:34:31,1.703262871,64.0
2023-12-22 17:04:32,1.703264672,71.0
2023-12-22 17:34:35,1.703266475,65.0
2023-12-22 18:04:38,1.703268278,66.0
2023-12-22 18:34:35,1.703270075,68.0
2023-12-22 19:04:32,1.703271872,65.0
2023-12-22 19:34:33,1.703273673,67.0
2023-12-22 20:04:31,1.703275471,64.0
2023-12-22 20:34:30,1.70327727,64.0
2023-12-22 21:04:27,1.703279067,66.0
2023-12-22 21:34:28,1.703280868,65.0
2023-12-22 22:04:24,1.703282664,69.0
2023-12-22 22:34:25,1.703284465,64.0
2023-12-22 23:04:26,1.703286266,64.0
2023-12-22 23:34:27,1.703288067,83.0
2023-12-23 00:04:28,1.703289868,61.0
2023-12-23 00:34:23,1.703291663,64.0
2023-12-23 01:04:23,1.703293463,77.0
2023-12-23 01:34:23,1.703295263,61.0
2023-12-23 02:04:23,1.703297063,75.0
2023-12-23 02:34:27,1.703298867,68.0
2023-12-23 03:04:26,1.703300666,84.0
2023-12-23 03:34:26,1.703302466,65.0
2023-12-23 04:04:25,1.703304265,61.0
2023-12-23 04:34:24,1.703306064,64.0
2023-12-23 05:04:23,1.703307863,82.0
2023-12-23 05:34:22,1.703309662,65.0
2023-12-23 06:04:26,1.703311466,65.0
2023-12-23 06:34:25,1.703313265,71.0
2023-12-23 07:04:27,1.703315067,62.0
2023-12-23 07:34:31,1.703316871,71.0
2023-12-23 08:04:29,1.703318669,66.0
2023-12-23 08:34:33,1.703320473,64.0
2023-12-23 09:04:35,1.703322275,64.0
2023-12-23 09:34:35,1.703324075,67.0
2023-12-23 10:04:42,1.703325882,65.0
2023-12-23 10:34:40,1.70332768,62.0
2023-12-23 11:04:38,1.703329478,62.0
2023-12-23 11:34:40,1.70333128,72.0
2023-12-23 12:04:38,1.703333078,60.0
2023-12-23 12:34:41,1.703334881,68.0
2023-12-23 13:04:40,1.70333668,55.0
2023-12-23 13:34:40,1.70333848,62.0
2023-12-23 14:04:39,1.703340279,62.0
2023-12-23 14:34:41,1.703342081,64.0
2023-12-23 15:04:41,1.703343881,63.0
2023-12-23 15:34:40,1.70334568,65.0
2023-12-23 16:04:38,1.703347478,64.0
2023-12-23 16:34:40,1.70334928,63.0
2023-12-23 17:04:37,1.703351077,63.0
2023-12-23 17:34:38,1.703352878,62.0
2023-12-23 18:04:39,1.703354679,65.0
2023-12-23 18:34:34,1.703356474,64.0
2023-12-23 19:04:37,1.703358277,66.0
2023-12-23 19:34:33,1.703360073,63.0
2023-12-23 20:04:30,1.70336187,75.0
2023-12-23 20:34:30,1.70336367,70.0
2023-12-23 21:04:29,1.703365469,59.0
2023-12-23 21:34:27,1.703367267,60.0
2023-12-23 22:04:29,1.703369069,67.0
2023-12-23 22:34:26,1.703370866,61.0
2023-12-23 23:04:28,1.703372668,65.0
2023-12-23 23:34:25,1.703374465,64.0
2023-12-24 00:04:27,1.703376267,62.0
2023-12-24 00:34:28,1.703378068,68.0
2023-12-24 01:04:25,1.703379865,58.0
2023-12-24 01:34:26,1.703381666,64.0
2023-12-24 02:04:27,1.703383467,73.0
2023-12-24 02:34:28,1.703385268,63.0
2023-12-24 03:04:24,1.703387064,62.0
2023-12-24 03:34:25,1.703388865,56.0
2023-12-24 04:04:26,1.703390666,61.0
2023-12-24 04:34:27,1.703392467,63.0
2023-12-24 05:04:28,1.703394268,73.0
2023-12-24 05:34:24,1.703396064,61.0
2023-12-24 06:04:25,1.703397865,52.0
2023-12-24 06:34:26,1.703399666,60.0
2023-12-24 07:04:27,1.703401467,62.0
2023-12-24 07:34:25,1.703403265,60.0
2023-12-24 08:04:28,1.703405068,61.0
2023-12-24 08:34:26,1.703406866,58.0
2023-12-24 09:04:30,1.70340867,61.0
2023-12-24 09:34:30,1.70341047,63.0
2023-12-24 10:04:31,1.703412271,58.0
2023-12-24 10:34:36,1.703414076,58.0
2023-12-24 11:04:36,1.703415876,65.0
2023-12-24 11:34:35,1.703417675,60.0
2023-12-24 12:04:36,1.703419476,59.0
2023-12-24 12:34:38,1.703421278,60.0
2023-12-24 13:04:40,1.70342308,68.0
2023-12-24 13:34:38,1.703424878,70.0
2023-12-24 14:04:39,1.703426679,65.0
2023-12-24 14:34:41,1.703428481,68.0
2023-12-24 15:04:36,1.703430276,73.0
2023-12-24 15:34:38,1.703432078,62.0
2023-12-24 16:04:41,1.703433881,65.0
2023-12-24 16:34:40,1.70343568,64.0
2023-12-24 17:04:38,1.703437478,61.0
2023-12-24 17:34:38,1.703439278,59.0
2023-12-24 18:04:39,1.703441079,64.0
2023-12-24 18:34:38,1.703442878,66.0
2023-12-24 19:04:37,1.703444677,64.0
2023-12-24 19:34:32,1.703446472,61.0
2023-12-24 20:04:31,1.703448271,64.0
2023-12-24 20:34:31,1.703450071,63.0
2023-12-24 21:04:26,1.703451866,69.0
2023-12-24 21:34:29,1.703453669,57.0
2023-12-24 22:04:28,1.703455468,61.0
2023-12-24 22:34:27,1.703457267,71.0
2023-12-24 23:04:29,1.703459069,63.0
2023-12-24 23:34:27,1.703460867,60.0
2023-12-25 00:04:29,1.703462669,60.0
2023-12-25 00:34:26,1.703464466,83.0
2023-12-25 01:04:26,1.703466266,83.0
2023-12-25 01:34:26,1.703468066,80.0
2023-12-25 02:04:26,1.703469866,98.0
2023-12-25 02:34:27,1.703471667,77.0
2023-12-25 03:04:27,1.703473467,85.0
2023-12-25 03:34:27,1.703475267,79.0
2023-12-25 04:04:27,1.703477067,80.0
2023-12-25 04:34:27,1.703478867,80.0
2023-12-25 05:04:27,1.703480667,76.0
2023-12-25 05:34:26,1.703482466,86.0
2023-12-25 06:04:26,1.703484266,3.0
2023-12-25 06:34:25,1.703486065,87.0
2023-12-25 07:04:27,1.703487867,82.0
2023-12-25 07:34:30,1.70348967,79.0
2023-12-25 08:04:29,1.703491469,82.0
2023-12-25 08:34:30,1.70349327,79.0
2023-12-25 09:04:33,1.703495073,86.0
2023-12-25 09:34:33,1.703496873,87.0
2023-12-25 10:04:34,1.703498674,79.0
2023-12-25 10:34:35,1.703500475,78.0
2023-12-25 11:04:36,1.703502276,81.0
2023-12-25 11:34:33,1.703504073,82.0
2023-12-25 12:04:35,1.703505875,77.0
2023-12-25 12:34:33,1.703507673,73.0
2023-12-25 13:04:34,1.703509474,76.0
2023-12-25 13:34:36,1.703511276,74.0
2023-12-25 14:04:34,1.703513074,82.0
2023-12-25 14:34:35,1.703514875,83.0
2023-12-25 15:04:32,1.703516672,76.0
2023-12-25 15:34:35,1.703518475,85.0
2023-12-25 16:04:35,1.703520275,79.0
2023-12-25 16:34:36,1.703522076,79.0
2023-12-25 17:04:33,1.703523873,74.0
2023-12-25 17:34:35,1.703525675,74.0
2023-12-25 18:04:36,1.703527476,79.0
2023-12-25 18:34:31,1.703529271,79.0
2023-12-25 19:04:30,1.70353107,70.0
2023-12-25 19:34:33,1.703532873,83.0
2023-12-25 20:04:28,1.703534668,78.0
2023-12-25 20:34:24,1.703536464,82.0
2023-12-25 21:04:23,1.703538263,75.0
2023-12-25 21:34:26,1.703540066,83.0
2023-12-25 22:04:25,1.703541865,72.0
2023-12-25 22:34:22,1.703543662,77.0
2023-12-25 23:04:25,1.703545465,78.0
2023-12-25 23:34:22,1.703547262,77.0
2023-12-26 00:04:24,1.703549064,84.0
2023-12-26 00:34:20,1.70355086,79.0
2023-12-26 01:04:22,1.703552662,88.0
2023-12-26 01:34:23,1.703554463,103.0
2023-12-26 02:04:24,1.703556264,79.0
2023-12-26 02:34:20,1.70355806,80.0
2023-12-26 03:04:21,1.703559861,80.0
2023-12-26 03:34:21,1.703561661,83.0
2023-12-26 04:04:22,1.703563462,83.0
2023-12-26 04:34:22,1.703565262,78.0
2023-12-26 05:04:23,1.703567063,77.0
2023-12-26 05:34:23,1.703568863,86.0
2023-12-26 06:04:23,1.703570663,75.0
2023-12-26 06:34:23,1.703572463,80.0
2023-12-26 07:04:23,1.703574263,76.0
2023-12-26 07:34:30,1.70357607,81.0
2023-12-26 08:04:29,1.703577869,77.0
2023-12-26 08:34:30,1.70357967,78.0
2023-12-26 09:04:31,1.703581471,79.0
2023-12-26 09:34:30,1.70358327,80.0
2023-12-26 10:04:34,1.703585074,77.0
2023-12-26 10:34:34,1.703586874,71.0
2023-12-26 11:04:36,1.703588676,71.0
2023-12-26 11:34:32,1.703590472,72.0
2023-12-26 12:04:34,1.703592274,79.0
2023-12-26 12:34:37,1.703594077,74.0
2023-12-26 13:04:34,1.703595874,76.0
2023-12-26 13:34:36,1.703597676,76.0
2023-12-26 14:04:34,1.703599474,75.0
2023-12-26 14:34:36,1.703601276,71.0
2023-12-26 15:04:33,1.703603073,76.0
2023-12-26 15:34:35,1.703604875,75.0
2023-12-26 16:04:33,1.703606673,70.0
2023-12-26 16:34:35,1.703608475,72.0
2023-12-26 17:04:36,1.703610276,66.0
2023-12-26 17:34:33,1.703612073,80.0
2023-12-26 18:04:33,1.703613873,77.0
2023-12-26 18:34:33,1.703615673,72.0
2023-12-26 19:04:33,1.703617473,67.0
2023-12-26 19:34:30,1.70361927,65.0
2023-12-26 20:04:28,1.703621068,70.0
2023-12-26 20:34:24,1.703622864,68.0
2023-12-26 21:04:24,1.703624664,77.0
2023-12-26 21:34:23,1.703626463,79.0
2023-12-26 22:04:26,1.703628266,76.0
2023-12-26 22:34:24,1.703630064,68.0
2023-12-26 23:04:21,1.703631861,83.0
2023-12-26 23:34:23,1.703633663,77.0
2023-12-27 00:04:21,1.703635461,68.0
2023-12-27 00:34:23,1.703637263,58.0
2023-12-27 01:04:25,1.703639065,88.0
2023-12-27 01:34:21,1.703640861,75.0
2023-12-27 02:04:23,1.703642663,89.0
2023-12-27 02:34:25,1.703644465,89.0
2023-12-27 03:04:21,1.703646261,74.0
2023-12-27 03:34:23,1.703648063,77.0
2023-12-27 04:04:24,1.703649864,83.0
2023-12-27 04:34:21,1.703651661,75.0
2023-12-27 05:04:22,1.703653462,78.0
2023-12-27 05:34:22,1.703655262,80.0
2023-12-27 06:04:23,1.703657063,86.0
2023-12-27 06:34:20,1.70365886,88.0
2023-12-27 07:04:24,1.703660664,75.0
2023-12-27 07:34:25,1.703662465,76.0
2023-12-27 08:04:29,1.703664269,72.0
2023-12-27 08:34:29,1.703666069,75.0
2023-12-27 09:04:31,1.703667871,85.0
2023-12-27 09:34:30,1.70366967,72.0
2023-12-27 10:04:35,1.703671475,73.0
2023-12-27 10:34:36,1.703673276,65.0
2023-12-27 11:04:33,1.703675073,75.0
2023-12-27 11:34:35,1.703676875,62.0
2023-12-27 12:04:33,1.703678673,67.0
2023-12-27 12:34:35,1.703680475,83.0
2023-12-27 13:04:33,1.703682273,73.0
2023-12-27 13:34:36,1.703684076,65.0
2023-12-27 14:04:34,1.703685874,64.0
2023-12-27 14:34:37,1.703687677,63.0
2023-12-27 15:04:35,1.703689475,70.0
2023-12-27 15:34:34,1.703691274,70.0
2023-12-27 16:04:37,1.703693077,62.0
2023-12-27 16:34:36,1.703694876,67.0
2023-12-27 17:04:35,1.703696675,59.0
2023-12-27 17:34:38,1.703698478,71.0
2023-12-27 18:04:36,1.703700276,62.0
2023-12-27 18:34:33,1.703702073,63.0
2023-12-27 19:04:34,1.703703874,75.0
2023-12-27 19:34:33,1.703705673,65.0
2023-12-27 20:04:29,1.703707469,63.0
2023-12-27 20:34:27,1.703709267,62.0
2023-12-27 21:04:28,1.703711068,69.0
2023-12-27 21:34:25,1.703712865,62.0
2023-12-27 22:04:25,1.703714665,65.0
2023-12-27 22:34:25,1.703716465,69.0
2023-12-27 23:04:25,1.703718265,72.0
2023-12-27 23:34:25,1.703720065,76.0
2023-12-28 00:04:24,1.703721864,60.0
2023-12-28 00:34:23,1.703723663,68.0
2023-12-28 01:04:22,1.703725462,74.0
2023-12-28 01:34:26,1.703727266,67.0
2023-12-28 02:04:25,1.703729065,64.0
2023-12-28 02:34:24,1.703730864,61.0
2023-12-28 03:04:22,1.703732662,61.0
2023-12-28 03:34:24,1.703734464,66.0
2023-12-28 04:04:22,1.703736262,70.0
2023-12-28 04:34:25,1.703738065,70.0
2023-12-28 05:04:23,1.703739863,81.0
2023-12-28 05:34:22,1.703741662,78.0
2023-12-28 06:04:25,1.703743465,71.0
2023-12-28 06:34:23,1.703745263,67.0
2023-12-28 07:04:24,1.703747064,58.0
2023-12-28 07:34:25,1.703748865,56.0
2023-12-28 08:04:26,1.703750666,57.0
2023-12-28 08:34:32,1.703752472,61.0
2023-12-28 09:04:29,1.703754269,56.0
2023-12-28 09:34:31,1.703756071,57.0
2023-12-28 10:04:32,1.703757872,55.0
2023-12-28 10:34:30,1.70375967,62.0
2023-12-28 11:04:35,1.703761475,60.0
2023-12-28 11:34:35,1.703763275,57.0
2023-12-28 12:04:36,1.703765076,58.0
2023-12-28 12:34:35,1.703766875,59.0
2023-12-28 13:04:38,1.703768678,56.0
2023-12-28 13:34:38,1.703770478,59.0
2023-12-28 14:04:39,1.703772279,56.0
2023-12-28 14:34:37,1.703774077,59.0
2023-12-28 15:04:39,1.703775879,56.0
2023-12-28 15:34:41,1.703777681,67.0
2023-12-28 16:04:40,1.70377948,64.0
2023-12-28 16:34:38,1.703781278,61.0
2023-12-28 17:04:41,1.703783081,55.0
2023-12-28 17:34:40,1.70378488,64.0
2023-12-28 18:04:35,1.703786675,54.0
2023-12-28 18:34:35,1.703788475,59.0
2023-12-28 19:04:29,1.703790269,62.0
2023-12-28 19:34:31,1.703792071,58.0
2023-12-28 20:04:28,1.703793868,59.0
2023-12-28 20:34:29,1.703795669,63.0
2023-12-28 21:04:29,1.703797469,56.0
2023-12-28 21:34:29,1.703799269,61.0
2023-12-28 22:04:27,1.703801067,91.0
2023-12-28 22:34:26,1.703802866,89.0
2023-12-28 23:04:25,1.703804665,86.0
2023-12-28 23:34:24,1.703806464,85.0
2023-12-29 00:04:24,1.703808264,87.0
2023-12-29 00:34:23,1.703810063,85.0
2023-12-29 01:04:27,1.703811867,84.0
2023-12-29 01:34:26,1.703813666,89.0
2023-12-29 02:04:25,1.703815465,80.0
2023-12-29 02:34:25,1.703817265,80.0
2023-12-29 03:04:24,1.703819064,80.0
2023-12-29 03:34:24,1.703820864,83.0
2023-12-29 04:04:23,1.703822663,85.0
2023-12-29 04:34:27,1.703824467,79.0
2023-12-29 05:04:26,1.703826266,79.0
2023-12-29 05:34:25,1.703828065,80.0
2023-12-29 06:04:24,1.703829864,78.0
2023-12-29 06:34:22,1.703831662,82.0
2023-12-29 07:04:26,1.703833466,80.0
2023-12-29 07:34:26,1.703835266,78.0
2023-12-29 08:04:30,1.70383707,88.0
2023-12-29 08:34:33,1.703838873,85.0
2023-12-29 09:04:34,1.703840674,83.0
2023-12-29 09:34:37,1.703842477,79.0
2023-12-29 10:04:37,1.703844277,88.0
2023-12-29 10:34:39,1.703846079,73.0
2023-12-29 11:04:43,1.703847883,82.0
2023-12-29 11:34:44,1.703849684,90.0
2023-12-29 12:04:41,1.703851481,69.0
2023-12-29 12:34:42,1.703853282,69.0
2023-12-29 13:04:42,1.703855082,74.0
2023-12-29 13:34:41,1.703856881,77.0
2023-12-29 14:04:39,1.703858679,80.0
2023-12-29 14:34:41,1.703860481,90.0
2023-12-29 15:04:39,1.703862279,79.0
2023-12-29 15:34:40,1.70386408,80.0
2023-12-29 16:04:36,1.703865876,83.0
2023-12-29 16:34:38,1.703867678,82.0
2023-12-29 17:04:40,1.70386948,79.0
2023-12-29 17:34:37,1.703871277,74.0
2023-12-29 18:04:37,1.703873077,79.0
2023-12-29 18:34:36,1.703874876,81.0
2023-12-29 19:04:34,1.703876674,92.0
2023-12-29 19:34:34,1.703878474,76.0
2023-12-29 20:04:28,1.703880268,76.0
2023-12-29 20:34:25,1.703882065,83.0
2023-12-29 21:04:25,1.703883865,86.0
2023-12-29 21:34:25,1.703885665,92.0
2023-12-29 22:04:25,1.703887465,82.0
2023-12-29 22:34:26,1.703889266,84.0
2023-12-29 23:04:27,1.703891067,82.0
2023-12-29 23:34:28,1.703892868,78.0
2023-12-30 00:04:23,1.703894663,79.0
2023-12-30 00:34:27,1.703896467,88.0
2023-12-30 01:04:25,1.703898265,86.0
2023-12-30 01:34:24,1.703900064,89.0
2023-12-30 02:04:23,1.703901863,85.0
2023-12-30 02:34:25,1.703903665,83.0
2023-12-30 03:04:22,1.703905462,85.0
2023-12-30 03:34:24,1.703907264,86.0
2023-12-30 04:04:21,1.703909061,84.0
2023-12-30 04:34:22,1.703910862,89.0
2023-12-30 05:04:23,1.703912663,94.0
2023-12-30 05:34:23,1.703914463,84.0
2023-12-30 06:04:20,1.70391626,81.0
2023-12-30 06:34:21,1.703918061,80.0
2023-12-30 07:04:24,1.703919864,79.0
2023-12-30 07:34:24,1.703921664,80.0
2023-12-30 08:04:26,1.703923466,81.0
2023-12-30 08:34:29,1.703925269,72.0
2023-12-30 09:04:27,1.703927067,70.0
2023-12-30 09:34:27,1.703928867,77.0
2023-12-30 10:04:33,1.703930673,71.0
2023-12-30 10:34:29,1.703932469,72.0
2023-12-30 11:04:32,1.703934272,77.0
2023-12-30 11:34:30,1.70393607,80.0
2023-12-30 12:04:33,1.703937873,80.0
2023-12-30 12:34:32,1.703939672,76.0
2023-12-30 13:04:30,1.70394147,78.0
2023-12-30 13:34:34,1.703943274,74.0
2023-12-30 14:04:33,1.703945073,64.0
2023-12-30 14:34:32,1.703946872,83.0
2023-12-30 15:04:31,1.703948671,76.0
2023-12-30 15:34:31,1.703950471,77.0
2023-12-30 16:04:31,1.703952271,70.0
2023-12-30 16:34:32,1.703954072,66.0
2023-12-30 17:04:32,1.703955872,63.0
2023-12-30 17:34:32,1.703957672,82.0
2023-12-30 18:04:32,1.703959472,67.0
2023-12-30 18:34:32,1.703961272,86.0
2023-12-30 19:04:30,1.70396307,79.0
2023-12-30 19:34:31,1.703964871,68.0
2023-12-30 20:04:28,1.703966668,73.0
2023-12-30 20:34:23,1.703968463,69.0
2023-12-30 21:04:26,1.703970266,97.0
2023-12-30 21:34:25,1.703972065,85.0
2023-12-30 22:04:22,1.703973862,80.0
2023-12-30 22:34:24,1.703975664,73.0
2023-12-30 23:04:21,1.703977461,80.0
2023-12-30 23:34:23,1.703979263,88.0
2023-12-31 00:04:21,1.703981061,89.0
2023-12-31 00:34:23,1.703982863,69.0
2023-12-31 01:04:25,1.703984665,77.0
2023-12-31 01:34:23,1.703986463,84.0
2023-12-31 02:04:21,1.703988261,3.0
2023-12-31 02:34:24,1.703990064,86.0
2023-12-31 03:04:22,1.703991862,3.0
2023-12-31 03:34:25,1.703993665,72.0
2023-12-31 04:04:22,1.703995462,92.0
2023-12-31 04:34:24,1.703997264,92.0
2023-12-31 05:04:20,1.70399906,94.0
2023-12-31 05:34:21,1.704000861,95.0
2023-12-31 06:04:22,1.704002662,94.0
2023-12-31 06:34:23,1.704004463,70.0
2023-12-31 07:04:21,1.704006261,67.0
2023-12-31 07:34:24,1.704008064,72.0
2023-12-31 08:04:22,1.704009862,76.0
2023-12-31 08:34:26,1.704011666,72.0
2023-12-31 09:04:25,1.704013465,70.0
2023-12-31 09:34:24,1.704015264,71.0
2023-12-31 10:04:23,1.704017063,70.0
2023-12-31 10:34:25,1.704018865,61.0
2023-12-31 11:04:27,1.704020667,67.0
2023-12-31 11:34:34,1.704022474,72.0
2023-12-31 12:04:33,1.704024273,79.0
2023-12-31 12:34:30,1.70402607,70.0
2023-12-31 13:04:34,1.704027874,65.0
2023-12-31 13:34:34,1.704029674,77.0
2023-12-31 14:04:34,1.704031474,74.0
2023-12-31 14:34:33,1.704033273,61.0
2023-12-31 15:04:34,1.704035074,71.0
2023-12-31 15:34:33,1.704036873,69.0
2023-12-31 16:04:34,1.704038674,61.0
2023-12-31 16:34:34,1.704040474,61.0
2023-12-31 17:04:33,1.704042273,63.0
2023-12-31 17:34:32,1.704044072,61.0
2023-12-31 18:04:30,1.70404587,58.0
2023-12-31 18:34:31,1.704047671,62.0
2023-12-31 19:04:31,1.704049471,75.0
2023-12-31 19:34:29,1.704051269,62.0
2023-12-31 20:04:26,1.704053066,62.0
2023-12-31 20:34:26,1.704054866,80.0
2023-12-31 21:04:26,1.704056666,72.0
2023-12-31 21:34:25,1.704058465,75.0
2023-12-31 22:04:24,1.704060264,80.0
2023-12-31 22:34:23,1.704062063,64.0
2023-12-31 23:04:25,1.704063865,74.0
2023-12-31 23:34:23,1.704065663,69.0
2024-01-01 00:04:21,1.704067461,78.0
2024-01-01 00:34:23,1.704069263,84.0
2024-01-01 01:04:21,1.704071061,79.0
2024-01-01 01:34:24,1.704072864,58.0
2024-01-01 02:04:22,1.704074662,79.0
2024-01-01 02:34:25,1.704076465,78.0
2024-01-01 03:04:23,1.704078263,66.0
2024-01-01 03:34:25,1.704080065,80.0
2024-01-01 04:04:23,1.704081863,89.0
2024-01-01 04:34:25,1.704083665,77.0
2024-01-01 05:04:23,1.704085463,79.0
2024-01-01 05:34:25,1.704087265,68.0
2024-01-01 06:04:23,1.704089063,64.0
2024-01-01 06:34:25,1.704090865,71.0
2024-01-01 07:04:23,1.704092663,64.0
2024-01-01 07:34:26,1.704094466,79.0
2024-01-01 08:04:25,1.704096265,61.0
2024-01-01 08:34:23,1.704098063,64.0
2024-01-01 09:04:23,1.704099863,75.0
2024-01-01 09:34:29,1.704101669,60.0
2024-01-01 10:04:26,1.704103466,71.0
2024-01-01 10:34:30,1.70410527,62.0
2024-01-01 11:04:31,1.704107071,60.0
2024-01-01 11:34:35,1.704108875,61.0
2024-01-01 12:04:34,1.704110674,60.0
2024-01-01 12:34:35,1.704112475,63.0
2024-01-01 13:04:37,1.704114277,61.0
2024-01-01 13:34:37,1.704116077,61.0
2024-01-01 14:04:38,1.704117878,66.0
2024-01-01 14:34:40,1.70411968,62.0
2024-01-01 15:04:37,1.704121477,62.0
2024-01-01 15:34:39,1.704123279,75.0
2024-01-01 16:04:41,1.704125081,70.0
2024-01-01 16:34:39,1.704126879,84.0
2024-01-01 17:04:43,1.704128683,62.0
2024-01-01 17:34:41,1.704130481,74.0
2024-01-01 18:04:39,1.704132279,61.0
2024-01-01 18:34:36,1.704134076,63.0
2024-01-01 19:04:36,1.704135876,64.0
2024-01-01 19:34:34,1.704137674,66.0
2024-01-01 20:04:30,1.70413947,68.0
2024-01-01 20:34:29,1.704141269,72.0
2024-01-01 21:04:25,1.704143065,68.0
2024-01-01 21:34:25,1.704144865,66.0
2024-01-01 22:04:24,1.704146664,65.0
2024-01-01 22:34:23,1.704148463,77.0
2024-01-01 23:04:22,1.704150262,84.0
2024-01-01 23:34:25,1.704152065,77.0
2024-01-02 00:04:23,1.704153863,65.0
2024-01-02 00:34:22,1.704155662,73.0
2024-01-02 01:04:25,1.704157465,74.0
2024-01-02 01:34:23,1.704159263,91.0
2024-01-02 02:04:25,1.704161065,78.0
2024-01-02 02:34:23,1.704162863,75.0
2024-01-02 03:04:25,1.704164665,75.0
2024-01-02 03:34:22,1.704166462,74.0
2024-01-02 04:04:24,1.704168264,79.0
2024-01-02 04:34:21,1.704170061,72.0
2024-01-02 05:04:23,1.704171863,73.0
2024-01-02 05:34:25,1.704173665,82.0
2024-01-02 06:04:22,1.704175462,64.0
2024-01-02 06:34:24,1.704177264,59.0
2024-01-02 07:04:24,1.704179064,62.0
2024-01-02 07:34:28,1.704180868,79.0
2024-01-02 08:04:30,1.70418267,62.0
2024-01-02 08:34:36,1.704184476,65.0
2024-01-02 09:04:33,1.704186273,69.0
2024-01-02 09:34:36,1.704188076,60.0
2024-01-02 10:04:37,1.704189877,74.0
2024-01-02 10:34:38,1.704191678,60.0
2024-01-02 11:04:41,1.704193481,67.0
2024-01-02 11:34:41,1.704195281,79.0
2024-01-02 12:04:42,1.704197082,73.0
2024-01-02 12:34:40,1.70419888,62.0
2024-01-02 13:04:39,1.704200679,76.0
2024-01-02 13:34:43,1.704202483,81.0
2024-01-02 14:04:41,1.704204281,68.0
2024-01-02 14:34:39,1.704206079,73.0
2024-01-02 15:04:39,1.704207879,77.0
2024-01-02 15:34:41,1.704209681,77.0
2024-01-02 16:04:40,1.70421148,77.0
2024-01-02 16:34:36,1.704213276,74.0
2024-01-02 17:04:37,1.704215077,63.0
2024-01-02 17:34:40,1.70421688,74.0
2024-01-02 18:04:38,1.704218678,75.0
2024-01-02 18:34:38,1.704220478,67.0
2024-01-02 19:04:35,1.704222275,67.0
2024-01-02 19:34:33,1.704224073,67.0
2024-01-02 20:04:29,1.704225869,72.0
2024-01-02 20:34:27,1.704227667,79.0
2024-01-02 21:04:28,1.704229468,96.0
2024-01-02 21:34:25,1.704231265,98.0
2024-01-02 22:04:25,1.704233065,88.0
2024-01-02 22:34:26,1.704234866,81.0
2024-01-02 23:04:27,1.704236667,78.0
2024-01-02 23:34:27,1.704238467,76.0
2024-01-03 00:04:27,1.704240267,77.0
2024-01-03 00:34:26,1.704242066,82.0
2024-01-03 01:04:26,1.704243866,85.0
2024-01-03 01:34:26,1.704245666,81.0
2024-01-03 02:04:25,1.704247465,82.0
2024-01-03 02:34:24,1.704249264,80.0
2024-01-03 03:04:23,1.704251063,82.0
2024-01-03 03:34:26,1.704252866,99.0
2024-01-03 04:04:24,1.704254664,2.0
2024-01-03 04:34:22,1.704256462,78.0
2024-01-03 05:04:25,1.704258265,85.0
2024-01-03 05:34:23,1.704260063,71.0
2024-01-03 06:04:25,1.704261865,64.0
2024-01-03 06:34:23,1.704263663,66.0
2024-01-03 07:04:24,1.704265464,75.0
2024-01-03 07:34:27,1.704267267,72.0
2024-01-03 08:04:33,1.704269073,72.0
2024-01-03 08:34:33,1.704270873,81.0
2024-01-03 09:04:36,1.704272676,85.0
2024-01-03 09:34:38,1.704274478,75.0
2024-01-03 10:04:43,1.704276283,71.0
2024-01-03 10:34:38,1.704278078,68.0
2024-01-03 11:04:43,1.704279883,76.0
2024-01-03 11:34:42,1.704281682,78.0
2024-01-03 12:04:43,1.704283483,75.0
2024-01-03 12:34:41,1.704285281,76.0
2024-01-03 13:04:36,1.704287076,83.0
2024-01-03 13:34:39,1.704288879,86.0
2024-01-03 14:04:42,1.704290682,65.0
2024-01-03 14:34:38,1.704292478,68.0
2024-01-03 15:04:38,1.704294278,69.0
2024-01-03 15:34:38,1.704296078,63.0
2024-01-03 16:04:39,1.704297879,73.0
2024-01-03 16:34:39,1.704299679,82.0
2024-01-03 17:04:34,1.704301474,70.0
2024-01-03 17:34:39,1.704303279,72.0
2024-01-03 18:04:39,1.704305079,78.0
2024-01-03 18:34:37,1.704306877,79.0
2024-01-03 19:04:35,1.704308675,66.0
2024-01-03 19:34:35,1.704310475,81.0
2024-01-03 20:04:31,1.704312271,64.0
2024-01-03 20:34:29,1.704314069,67.0
2024-01-03 21:04:27,1.704315867,74.0
2024-01-03 21:34:28,1.704317668,70.0
2024-01-03 22:04:24,1.704319464,67.0
2024-01-03 22:34:24,1.704321264,75.0
2024-01-03 23:04:25,1.704323065,71.0
2024-01-03 23:34:25,1.704324865,68.0
2024-01-04 00:04:25,1.704326665,64.0
2024-01-04 00:34:25,1.704328465,69.0
2024-01-04 01:04:24,1.704330264,68.0
2024-01-04 01:34:23,1.704332063,79.0
2024-01-04 02:04:23,1.704333863,81.0
2024-01-04 02:34:27,1.704335667,2.0
2024-01-04 03:04:22,1.704337462,87.0
2024-01-04 03:34:26,1.704339266,92.0
2024-01-04 04:04:25,1.704341065,70.0
2024-01-04 04:34:24,1.704342864,68.0
2024-01-04 05:04:24,1.704344664,69.0
2024-01-04 05:34:23,1.704346463,79.0
2024-01-04 06:04:26,1.704348266,70.0
2024-01-04 06:34:26,1.704350066,74.0
2024-01-04 07:04:26,1.704351866,63.0
2024-01-04 07:34:27,1.704353667,89.0
2024-01-04 08:04:26,1.704355466,62.0
2024-01-04 08:34:30,1.70435727,66.0
2024-01-04 09:04:30,1.70435907,78.0
2024-01-04 09:34:32,1.704360872,59.0
2024-01-04 10:04:33,1.704362673,80.0
2024-01-04 10:34:37,1.704364477,90.0
2024-01-04 11:04:39,1.704366279,73.0
2024-01-04 11:34:42,1.704368082,60.0
2024-01-04 12:04:42,1.704369882,67.0
2024-01-04 12:34:42,1.704371682,67.0
2024-01-04 13:04:42,1.704373482,61.0
2024-01-04 13:34:40,1.70437528,3.0
2024-01-04 14:04:38,1.704377078,68.0
2024-01-04 14:34:39,1.704378879,69.0
2024-01-04 15:04:40,1.70438068,62.0
2024-01-04 15:34:37,1.704382477,58.0
2024-01-04 16:04:38,1.704384278,66.0
2024-01-04 16:34:39,1.704386079,63.0
2024-01-04 17:04:40,1.70438788,60.0
2024-01-04 17:34:36,1.704389676,73.0
2024-01-04 18:04:36,1.704391476,87.0
2024-01-04 18:34:35,1.704393275,61.0
2024-01-04 19:04:37,1.704395077,83.0
2024-01-04 19:34:33,1.704396873,66.0
2024-01-04 20:04:29,1.704398669,58.0
2024-01-04 20:34:28,1.704400468,66.0
2024-01-04 21:04:25,1.704402265,75.0
2024-01-04 21:34:26,1.704404066,66.0
2024-01-04 22:04:27,1.704405867,67.0
2024-01-04 22:34:24,1.704407664,82.0
2024-01-04 23:04:24,1.704409464,79.0
2024-01-04 23:34:25,1.704411265,71.0
2024-01-05 00:04:25,1.704413065,64.0
2024-01-05 00:34:25,1.704414865,65.0
2024-01-05 01:04:25,1.704416665,63.0
2024-01-05 01:34:25,1.704418465,64.0
2024-01-05 02:04:25,1.704420265,65.0
2024-01-05 02:34:25,1.704422065,70.0
2024-01-05 03:04:24,1.704423864,66.0
2024-01-05 03:34:24,1.704425664,70.0
2024-01-05 04:04:24,1.704427464,75.0
2024-01-05 04:34:23,1.704429263,75.0
2024-01-05 05:04:22,1.704431062,71.0
2024-01-05 05:34:26,1.704432866,85.0
2024-01-05 06:04:25,1.704434665,70.0
2024-01-05 06:34:25,1.704436465,62.0
2024-01-05 07:04:25,1.704438265,59.0
2024-01-05 07:34:28,1.704440068,66.0
2024-01-05 08:04:27,1.704441867,73.0
2024-01-05 08:34:29,1.704443669,70.0
2024-01-05 09:04:31,1.704445471,78.0
2024-01-05 09:34:30,1.70444727,69.0
2024-01-05 10:04:39,1.704449079,71.0
2024-01-05 10:34:38,1.704450878,68.0
2024-01-05 11:04:42,1.704452682,64.0
2024-01-05 11:34:41,1.704454481,72.0
2024-01-05 12:04:37,1.704456277,65.0
2024-01-05 12:34:40,1.70445808,62.0
2024-01-05 13:04:36,1.704459876,63.0
2024-01-05 13:34:36,1.704461676,64.0
2024-01-05 14:04:38,1.704463478,70.0
2024-01-05 14:34:40,1.70446528,57.0
2024-01-05 15:04:38,1.704467078,65.0
2024-01-05 15:34:39,1.704468879,67.0
2024-01-05 16:04:36,1.704470676,63.0
2024-01-05 16:34:34,1.704472474,68.0
2024-01-05 17:04:38,1.704474278,71.0
2024-01-05 17:34:39,1.704476079,62.0
2024-01-05 18:04:38,1.704477878,65.0
2024-01-05 18:34:37,1.704479677,83.0
2024-01-05 19:04:35,1.704481475,66.0
2024-01-05 19:34:36,1.704483276,71.0
2024-01-05 20:04:29,1.704485069,71.0
2024-01-05 20:34:29,1.704486869,67.0
2024-01-05 21:04:26,1.704488666,73.0
2024-01-05 21:34:28,1.704490468,82.0
2024-01-05 22:04:24,1.704492264,65.0
2024-01-05 22:34:25,1.704494065,76.0
2024-01-05 23:04:25,1.704495865,80.0
2024-01-05 23:34:26,1.704497666,70.0
2024-01-06 00:04:26,1.704499466,85.0
2024-01-06 00:34:26,1.704501266,72.0
2024-01-06 01:04:26,1.704503066,70.0
2024-01-06 01:34:26,1.704504866,70.0
2024-01-06 02:04:25,1.704506665,67.0
2024-01-06 02:34:25,1.704508465,69.0
2024-01-06 03:04:24,1.704510264,70.0
2024-01-06 03:34:23,1.704512063,75.0
2024-01-06 04:04:22,1.704513862,66.0
2024-01-06 04:34:26,1.704515666,67.0
2024-01-06 05:04:26,1.704517466,75.0
2024-01-06 05:34:26,1.704519266,74.0
2024-01-06 06:04:26,1.704521066,64.0
2024-01-06 06:34:26,1.704522866,69.0
2024-01-06 07:04:26,1.704524666,73.0
2024-01-06 07:34:27,1.704526467,71.0
2024-01-06 08:04:28,1.704528268,75.0
2024-01-06 08:34:25,1.704530065,78.0
2024-01-06 09:04:29,1.704531869,69.0
2024-01-06 09:34:29,1.704533669,74.0
2024-01-06 10:04:31,1.704535471,71.0
2024-01-06 10:34:37,1.704537277,74.0
2024-01-06 11:04:34,1.704539074,74.0
2024-01-06 11:34:34,1.704540874,64.0
2024-01-06 12:04:35,1.704542675,72.0
2024-01-06 12:34:32,1.704544472,65.0
2024-01-06 13:04:35,1.704546275,64.0
2024-01-06 13:34:35,1.704548075,54.0
2024-01-06 14:04:32,1.704549872,63.0
2024-01-06 14:34:26,1.704551666,75.0
2024-01-06 15:04:31,1.704553471,65.0
2024-01-06 15:34:32,1.704555272,60.0
2024-01-06 16:04:34,1.704557074,58.0
2024-01-06 16:34:37,1.704558877,62.0
2024-01-06 17:04:36,1.704560676,57.0
2024-01-06 17:34:36,1.704562476,80.0
2024-01-06 18:04:34,1.704564274,60.0
2024-01-06 18:34:33,1.704566073,56.0
2024-01-06 19:04:30,1.70456787,56.0
2024-01-06 19:34:31,1.704569671,58.0
2024-01-06 20:04:31,1.704571471,60.0
2024-01-06 20:34:30,1.70457327,78.0
2024-01-06 21:04:28,1.704575068,57.0
2024-01-06 21:34:25,1.704576865,64.0
2024-01-06 22:04:27,1.704578667,62.0
2024-01-06 22:34:28,1.704580468,71.0
2024-01-06 23:04:24,1.704582264,66.0
2024-01-06 23:34:25,1.704584065,66.0
2024-01-07 00:04:26,1.704585866,85.0
2024-01-07 00:34:27,1.704587667,76.0
2024-01-07 01:04:28,1.704589468,84.0
2024-01-07 01:34:23,1.704591263,95.0
2024-01-07 02:04:27,1.704593067,89.0
2024-01-07 02:34:26,1.704594866,89.0
2024-01-07 03:04:25,1.704596665,79.0
2024-01-07 03:34:25,1.704598465,87.0
2024-01-07 04:04:24,1.704600264,81.0
2024-01-07 04:34:24,1.704602064,99.0
2024-01-07 05:04:23,1.704603863,77.0
2024-01-07 05:34:23,1.704605663,89.0
2024-01-07 06:04:27,1.704607467,73.0
2024-01-07 06:34:27,1.704609267,3.0
2024-01-07 07:04:26,1.704611066,81.0
2024-01-07 07:34:25,1.704612865,95.0
2024-01-07 08:04:25,1.704614665,82.0
2024-01-07 08:34:24,1.704616464,84.0
2024-01-07 09:04:24,1.704618264,81.0
2024-01-07 09:34:24,1.704620064,77.0
2024-01-07 10:04:25,1.704621865,74.0
2024-01-07 10:34:27,1.704623667,71.0
2024-01-07 11:04:30,1.70462547,74.0
2024-01-07 11:34:31,1.704627271,80.0
2024-01-07 12:04:32,1.704629072,75.0
2024-01-07 12:34:29,1.704630869,73.0
2024-01-07 13:04:29,1.704632669,68.0
2024-01-07 13:34:28,1.704634468,70.0
2024-01-07 14:04:32,1.704636272,80.0
2024-01-07 14:34:34,1.704638074,79.0
2024-01-07 15:04:36,1.704639876,78.0
2024-01-07 15:34:35,1.704641675,74.0
2024-01-07 16:04:40,1.70464348,76.0
2024-01-07 16:34:37,1.704645277,79.0
2024-01-07 17:04:38,1.704647078,79.0
2024-01-07 17:34:38,1.704648878,84.0
2024-01-07 18:04:34,1.704650674,78.0
2024-01-07 18:34:36,1.704652476,81.0
2024-01-07 19:04:34,1.704654274,84.0
2024-01-07 19:34:34,1.704656074,82.0
2024-01-07 20:04:32,1.704657872,69.0
2024-01-07 20:34:25,1.704659665,77.0
2024-01-07 21:04:26,1.704661466,84.0
2024-01-07 21:34:27,1.704663267,86.0
2024-01-07 22:04:27,1.704665067,82.0
2024-01-07 22:34:27,1.704666867,73.0
2024-01-07 23:04:23,1.704668663,95.0
2024-01-07 23:34:28,1.704670468,83.0
2024-01-08 00:04:23,1.704672263,95.0
2024-01-08 00:34:23,1.704674063,103.0
2024-01-08 01:04:26,1.704675866,84.0
2024-01-08 01:34:25,1.704677665,81.0
2024-01-08 02:04:24,1.704679464,83.0
2024-01-08 02:34:23,1.704681263,85.0
