datetime,timelinux,s3
2023-10-29 03:04:24,1.698548664,93.0
2023-10-29 03:34:25,1.698550465,98.0
2023-10-29 04:04:26,1.698552266,102.0
2023-10-29 04:34:26,1.698554066,107.0
2023-10-29 05:04:27,1.698555867,88.0
2023-10-29 05:34:27,1.698557667,93.0
2023-10-29 06:04:27,1.698559467,123.0
2023-10-29 06:34:27,1.698561267,116.0
2023-10-29 07:04:24,1.698563064,91.0
2023-10-29 07:34:27,1.698564867,92.0
2023-10-29 08:04:28,1.698566668,94.0
2023-10-29 08:34:30,1.69856847,96.0
2023-10-29 09:04:33,1.698570273,101.0
2023-10-29 09:34:34,1.698572074,92.0
2023-10-29 10:04:36,1.698573876,96.0
2023-10-29 10:34:36,1.698575676,112.0
2023-10-29 11:04:38,1.698577478,91.0
2023-10-29 11:34:41,1.698579281,105.0
2023-10-29 12:04:38,1.698581078,3.0
2023-10-29 12:34:41,1.698582881,105.0
2023-10-29 13:04:42,1.698584682,3.0
2023-10-29 13:34:44,1.698586484,95.0
2023-10-29 14:04:41,1.698588281,95.0
2023-10-29 14:34:43,1.698590083,95.0
2023-10-29 15:04:46,1.698591886,97.0
2023-10-29 15:34:41,1.698593681,106.0
2023-10-29 16:04:37,1.698595477,100.0
2023-10-29 16:34:35,1.698597275,96.0
2023-10-29 17:04:30,1.69859907,94.0
2023-10-29 17:34:32,1.698600872,92.0
2023-10-29 18:04:28,1.698602668,93.0
2023-10-29 18:34:29,1.698604469,104.0
2023-10-29 19:04:28,1.698606268,119.0
2023-10-29 19:34:26,1.698608066,94.0
2023-10-29 20:04:29,1.698609869,93.0
2023-10-29 20:34:27,1.698611667,107.0
2023-10-29 21:04:30,1.69861347,101.0
2023-10-29 21:34:27,1.698615267,101.0
2023-10-29 22:04:24,1.698617064,3.0
2023-10-29 22:34:25,1.698618865,113.0
2023-10-29 23:04:25,1.698620665,107.0
2023-10-29 23:34:25,1.698622465,98.0
2023-10-30 00:04:25,1.698624265,96.0
2023-10-30 00:34:25,1.698626065,100.0
2023-10-30 01:04:26,1.698627866,100.0
2023-10-30 01:34:26,1.698629666,103.0
2023-10-30 02:04:27,1.698631467,98.0
2023-10-30 02:34:27,1.698633267,98.0
2023-10-30 03:04:23,1.698635063,101.0
2023-10-30 03:34:28,1.698636868,107.0
2023-10-30 04:04:23,1.698638663,95.0
2023-10-30 04:34:23,1.698640463,89.0
2023-10-30 05:04:24,1.698642264,91.0
2023-10-30 05:34:24,1.698644064,91.0
2023-10-30 06:04:24,1.698645864,92.0
2023-10-30 06:34:25,1.698647665,95.0
2023-10-30 07:04:26,1.698649466,92.0
2023-10-30 07:34:27,1.698651267,91.0
2023-10-30 08:04:27,1.698653067,93.0
2023-10-30 08:34:26,1.698654866,92.0
2023-10-30 09:04:24,1.698656664,92.0
2023-10-30 09:34:21,1.698658461,92.0
2023-10-30 10:04:23,1.698660263,87.0
2023-10-30 10:34:21,1.698662061,97.0
2023-10-30 11:04:24,1.698663864,94.0
2023-10-30 11:34:22,1.698665662,92.0
2023-10-30 12:04:25,1.698667465,92.0
2023-10-30 12:34:24,1.698669264,91.0
2023-10-30 13:04:22,1.698671062,92.0
2023-10-30 13:34:25,1.698672865,92.0
2023-10-30 14:04:24,1.698674664,91.0
2023-10-30 14:34:24,1.698676464,94.0
2023-10-30 15:04:22,1.698678262,92.0
2023-10-30 15:34:26,1.698680066,92.0
2023-10-30 16:04:25,1.698681865,94.0
2023-10-30 16:34:24,1.698683664,91.0
2023-10-30 17:04:22,1.698685462,90.0
2023-10-30 17:34:26,1.698687266,90.0
2023-10-30 18:04:25,1.698689065,89.0
2023-10-30 18:34:23,1.698690863,103.0
2023-10-30 19:04:21,1.698692661,93.0
2023-10-30 19:34:24,1.698694464,102.0
2023-10-30 20:04:21,1.698696261,96.0
2023-10-30 20:34:23,1.698698063,101.0
2023-10-30 21:04:24,1.698699864,104.0
2023-10-30 21:34:21,1.698701661,105.0
2023-10-30 22:04:22,1.698703462,105.0
2023-10-30 22:34:23,1.698705263,104.0
2023-10-30 23:04:24,1.698707064,104.0
2023-10-30 23:34:20,1.69870886,106.0
2023-10-31 00:04:22,1.698710662,107.0
2023-10-31 00:34:24,1.698712464,99.0
2023-10-31 01:04:21,1.698714261,101.0
2023-10-31 01:34:22,1.698716062,104.0
2023-10-31 02:04:24,1.698717864,106.0
2023-10-31 02:34:20,1.69871966,105.0
2023-10-31 03:04:22,1.698721462,105.0
2023-10-31 03:34:23,1.698723263,101.0
2023-10-31 04:04:24,1.698725064,105.0
2023-10-31 04:34:20,1.69872686,105.0
2023-10-31 05:04:21,1.698728661,104.0
2023-10-31 05:34:22,1.698730462,102.0
2023-10-31 06:04:23,1.698732263,107.0
2023-10-31 06:34:24,1.698734064,106.0
2023-10-31 07:04:20,1.69873586,89.0
2023-10-31 07:34:21,1.698737661,94.0
2023-10-31 08:04:22,1.698739462,101.0
2023-10-31 08:34:24,1.698741264,89.0
2023-10-31 09:04:20,1.69874306,90.0
2023-10-31 09:34:22,1.698744862,105.0
2023-10-31 10:04:23,1.698746663,88.0
2023-10-31 10:34:20,1.69874846,91.0
2023-10-31 11:04:21,1.698750261,97.0
2023-10-31 11:34:22,1.698752062,92.0
2023-10-31 12:04:24,1.698753864,90.0
2023-10-31 12:34:20,1.69875566,93.0
2023-10-31 13:04:21,1.698757461,98.0
2023-10-31 13:34:22,1.698759262,89.0
2023-10-31 14:04:23,1.698761063,91.0
2023-10-31 14:34:19,1.698762859,91.0
2023-10-31 15:04:20,1.69876466,88.0
2023-10-31 15:34:21,1.698766461,91.0
2023-10-31 16:04:21,1.698768261,93.0
2023-10-31 16:34:21,1.698770061,90.0
2023-10-31 17:04:21,1.698771861,98.0
2023-10-31 17:34:21,1.698773661,102.0
2023-10-31 18:04:21,1.698775461,93.0
2023-10-31 18:34:20,1.69877726,95.0
2023-10-31 19:04:19,1.698779059,95.0
2023-10-31 19:34:23,1.698780863,94.0
2023-10-31 20:04:21,1.698782661,107.0
2023-10-31 20:34:20,1.69878446,101.0
2023-10-31 21:04:18,1.698786258,92.0
2023-10-31 21:34:22,1.698788062,93.0
2023-10-31 22:04:20,1.69878986,98.0
2023-10-31 22:34:18,1.698791658,101.0
2023-10-31 23:04:21,1.698793461,107.0
2023-10-31 23:34:20,1.69879526,96.0
2023-11-01 00:04:18,1.698797058,120.0
2023-11-01 00:34:20,1.69879886,109.0
2023-11-01 01:04:19,1.698800659,111.0
2023-11-01 01:34:21,1.698802461,108.0
2023-11-01 02:04:20,1.69880426,120.0
2023-11-01 02:34:18,1.698806058,92.0
2023-11-01 03:04:21,1.698807861,91.0
2023-11-01 03:34:19,1.698809659,107.0
2023-11-01 04:04:22,1.698811462,90.0
2023-11-01 04:34:20,1.69881326,93.0
2023-11-01 05:04:19,1.698815059,96.0
2023-11-01 05:34:22,1.698816862,93.0
2023-11-01 06:04:20,1.69881866,98.0
2023-11-01 06:34:18,1.698820458,94.0
2023-11-01 07:04:22,1.698822262,95.0
2023-11-01 07:34:20,1.69882406,124.0
2023-11-01 08:04:18,1.698825858,92.0
2023-11-01 08:34:22,1.698827662,93.0
2023-11-01 09:04:21,1.698829461,93.0
2023-11-01 09:34:20,1.69883126,92.0
2023-11-01 10:04:20,1.69883306,95.0
2023-11-01 10:34:19,1.698834859,93.0
2023-11-01 11:04:22,1.698836662,104.0
2023-11-01 11:34:22,1.698838462,94.0
2023-11-01 12:04:21,1.698840261,92.0
2023-11-01 12:34:21,1.698842061,94.0
2023-11-01 13:04:21,1.698843861,91.0
2023-11-01 13:34:20,1.69884566,88.0
2023-11-01 14:04:20,1.69884746,94.0
2023-11-01 14:34:19,1.698849259,110.0
2023-11-01 15:04:19,1.698851059,91.0
2023-11-01 15:34:23,1.698852863,93.0
2023-11-01 16:04:23,1.698854663,90.0
2023-11-01 16:34:23,1.698856463,90.0
2023-11-01 17:04:19,1.698858259,129.0
2023-11-01 17:34:20,1.69886006,91.0
2023-11-01 18:04:20,1.69886186,112.0
2023-11-01 18:34:21,1.698863661,122.0
2023-11-01 19:04:21,1.698865461,119.0
2023-11-01 19:34:21,1.698867261,92.0
2023-11-01 20:04:21,1.698869061,91.0
2023-11-01 20:34:21,1.698870861,122.0
2023-11-01 21:04:21,1.698872661,107.0
2023-11-01 21:34:21,1.698874461,101.0
2023-11-01 22:04:22,1.698876262,89.0
2023-11-01 22:34:22,1.698878062,104.0
2023-11-01 23:04:23,1.698879863,122.0
2023-11-01 23:34:23,1.698881663,104.0
2023-11-02 00:04:19,1.698883459,126.0
2023-11-02 00:34:20,1.69888526,121.0
2023-11-02 01:04:20,1.69888706,120.0
2023-11-02 01:34:21,1.698888861,115.0
2023-11-02 02:04:21,1.698890661,126.0
2023-11-02 02:34:22,1.698892462,95.0
2023-11-02 03:04:22,1.698894262,90.0
2023-11-02 03:34:22,1.698896062,119.0
2023-11-02 04:04:23,1.698897863,111.0
2023-11-02 04:34:23,1.698899663,97.0
2023-11-02 05:04:19,1.698901459,91.0
2023-11-02 05:34:24,1.698903264,117.0
2023-11-02 06:04:20,1.69890506,94.0
2023-11-02 06:34:21,1.698906861,117.0
2023-11-02 07:04:21,1.698908661,118.0
2023-11-02 07:34:22,1.698910462,2.0
2023-11-02 08:04:23,1.698912263,90.0
2023-11-02 08:34:23,1.698914063,87.0
2023-11-02 09:04:19,1.698915859,87.0
2023-11-02 09:34:24,1.698917664,110.0
2023-11-02 10:04:20,1.69891946,97.0
2023-11-02 10:34:21,1.698921261,90.0
2023-11-02 11:04:22,1.698923062,86.0
2023-11-02 11:34:23,1.698924863,95.0
2023-11-02 12:04:24,1.698926664,3.0
2023-11-02 12:34:20,1.69892846,91.0
2023-11-02 13:04:20,1.69893026,123.0
2023-11-02 13:34:20,1.69893206,93.0
2023-11-02 14:04:21,1.698933861,92.0
2023-11-02 14:34:21,1.698935661,96.0
2023-11-02 15:04:22,1.698937462,89.0
2023-11-02 15:34:23,1.698939263,112.0
2023-11-02 16:04:24,1.698941064,90.0
2023-11-02 16:34:21,1.698942861,90.0
2023-11-02 17:04:22,1.698944662,90.0
2023-11-02 17:34:24,1.698946464,89.0
2023-11-02 18:04:20,1.69894826,91.0
2023-11-02 18:34:20,1.69895006,91.0
2023-11-02 19:04:20,1.69895186,95.0
2023-11-02 19:34:19,1.698953659,103.0
2023-11-02 20:04:22,1.698955462,106.0
2023-11-02 20:34:21,1.698957261,108.0
2023-11-02 21:04:19,1.698959059,109.0
2023-11-02 21:34:22,1.698960862,93.0
2023-11-02 22:04:19,1.698962659,107.0
2023-11-02 22:34:21,1.698964461,101.0
2023-11-02 23:04:18,1.698966258,105.0
2023-11-02 23:34:20,1.69896806,109.0
2023-11-03 00:04:17,1.698969857,100.0
2023-11-03 00:34:19,1.698971659,111.0
2023-11-03 01:04:20,1.69897346,102.0
2023-11-03 01:34:17,1.698975257,107.0
2023-11-03 02:04:18,1.698977058,109.0
2023-11-03 02:34:20,1.69897886,2.0
2023-11-03 03:04:17,1.698980657,109.0
2023-11-03 03:34:18,1.698982458,85.0
2023-11-03 04:04:20,1.69898426,102.0
2023-11-03 04:34:16,1.698986056,104.0
2023-11-03 05:04:18,1.698987858,108.0
2023-11-03 05:34:19,1.698989659,93.0
2023-11-03 06:04:20,1.69899146,91.0
2023-11-03 06:34:17,1.698993257,110.0
2023-11-03 07:04:18,1.698995058,114.0
2023-11-03 07:34:21,1.698996861,98.0
2023-11-03 08:04:20,1.69899866,99.0
2023-11-03 08:34:20,1.69900046,105.0
2023-11-03 09:04:21,1.699002261,92.0
2023-11-03 09:34:23,1.699004063,98.0
2023-11-03 10:04:25,1.699005865,111.0
2023-11-03 10:34:23,1.699007663,119.0
2023-11-03 11:04:26,1.699009466,102.0
2023-11-03 11:34:26,1.699011266,93.0
2023-11-03 12:04:26,1.699013066,100.0
2023-11-03 12:34:26,1.699014866,94.0
2023-11-03 13:04:27,1.699016667,95.0
2023-11-03 13:34:27,1.699018467,85.0
2023-11-03 14:04:28,1.699020268,119.0
2023-11-03 14:34:25,1.699022065,92.0
2023-11-03 15:04:26,1.699023866,96.0
2023-11-03 15:34:28,1.699025668,91.0
2023-11-03 16:04:26,1.699027466,89.0
2023-11-03 16:34:29,1.699029269,86.0
2023-11-03 17:04:26,1.699031066,90.0
2023-11-03 17:34:29,1.699032869,107.0
2023-11-03 18:04:25,1.699034665,90.0
2023-11-03 18:34:26,1.699036466,96.0
2023-11-03 19:04:27,1.699038267,91.0
2023-11-03 19:34:25,1.699040065,92.0
2023-11-03 20:04:21,1.699041861,96.0
2023-11-03 20:34:21,1.699043661,100.0
2023-11-03 21:04:19,1.699045459,95.0
2023-11-03 21:34:17,1.699047257,96.0
2023-11-03 22:04:20,1.69904906,97.0
2023-11-03 22:34:18,1.699050858,95.0
2023-11-03 23:04:20,1.69905266,98.0
2023-11-03 23:34:17,1.699054457,97.0
2023-11-04 00:04:19,1.699056259,97.0
2023-11-04 00:34:20,1.69905806,97.0
2023-11-04 01:04:17,1.699059857,97.0
2023-11-04 01:34:18,1.699061658,92.0
2023-11-04 02:04:19,1.699063459,101.0
2023-11-04 02:34:20,1.69906526,98.0
2023-11-04 03:04:16,1.699067056,99.0
2023-11-04 03:34:17,1.699068857,90.0
2023-11-04 04:04:18,1.699070658,100.0
2023-11-04 04:34:18,1.699072458,96.0
2023-11-04 05:04:18,1.699074258,93.0
2023-11-04 05:34:19,1.699076059,93.0
2023-11-04 06:04:20,1.69907786,91.0
2023-11-04 06:34:16,1.699079656,98.0
2023-11-04 07:04:19,1.699081459,83.0
2023-11-04 07:34:25,1.699083265,123.0
2023-11-04 08:04:23,1.699085063,117.0
2023-11-04 08:34:27,1.699086867,93.0
2023-11-04 09:04:25,1.699088665,108.0
2023-11-04 09:34:29,1.699090469,90.0
2023-11-04 10:04:30,1.69909227,95.0
2023-11-04 10:34:33,1.699094073,96.0
2023-11-04 11:04:33,1.699095873,89.0
2023-11-04 11:34:33,1.699097673,89.0
2023-11-04 12:04:31,1.699099471,88.0
2023-11-04 12:34:29,1.699101269,118.0
2023-11-04 13:04:32,1.699103072,95.0
2023-11-04 13:34:30,1.69910487,89.0
2023-11-04 14:04:32,1.699106672,92.0
2023-11-04 14:34:30,1.69910847,90.0
2023-11-04 15:04:33,1.699110273,94.0
2023-11-04 15:34:31,1.699112071,89.0
2023-11-04 16:04:30,1.69911387,90.0
2023-11-04 16:34:33,1.699115673,97.0
2023-11-04 17:04:31,1.699117471,87.0
2023-11-04 17:34:33,1.699119273,92.0
2023-11-04 18:04:30,1.69912107,93.0
2023-11-04 18:34:30,1.69912287,92.0
2023-11-04 19:04:29,1.699124669,94.0
2023-11-04 19:34:25,1.699126465,88.0
2023-11-04 20:04:23,1.699128263,118.0
2023-11-04 20:34:24,1.699130064,104.0
2023-11-04 21:04:20,1.69913186,93.0
2023-11-04 21:34:19,1.699133659,90.0
2023-11-04 22:04:19,1.699135459,94.0
2023-11-04 22:34:18,1.699137258,105.0
2023-11-04 23:04:22,1.699139062,107.0
2023-11-04 23:34:20,1.69914086,123.0
2023-11-05 00:04:18,1.699142658,3.0
2023-11-05 00:34:21,1.699144461,118.0
2023-11-05 01:04:19,1.699146259,2.0
2023-11-05 01:34:21,1.699148061,122.0
2023-11-05 02:04:19,1.699149859,91.0
2023-11-05 02:34:21,1.699151661,3.0
2023-11-05 03:04:19,1.699153459,117.0
2023-11-05 03:34:21,1.699155261,132.0
2023-11-05 04:04:18,1.699157058,113.0
2023-11-05 04:34:20,1.69915886,94.0
2023-11-05 05:04:17,1.699160657,92.0
2023-11-05 05:34:18,1.699162458,91.0
2023-11-05 06:04:20,1.69916426,90.0
2023-11-05 06:34:18,1.699166058,92.0
2023-11-05 07:04:21,1.699167861,98.0
2023-11-05 07:34:20,1.69916966,87.0
2023-11-05 08:04:21,1.699171461,90.0
2023-11-05 08:34:23,1.699173263,90.0
2023-11-05 09:04:22,1.699175062,118.0
2023-11-05 09:34:25,1.699176865,90.0
2023-11-05 10:04:23,1.699178663,92.0
2023-11-05 10:34:23,1.699180463,92.0
2023-11-05 11:04:29,1.699182269,89.0
2023-11-05 11:34:29,1.699184069,92.0
2023-11-05 12:04:29,1.699185869,90.0
2023-11-05 12:34:27,1.699187667,88.0
2023-11-05 13:04:29,1.699189469,2.0
2023-11-05 13:34:31,1.699191271,90.0
2023-11-05 14:04:33,1.699193073,90.0
2023-11-05 14:34:31,1.699194871,88.0
2023-11-05 15:04:34,1.699196674,96.0
2023-11-05 15:34:33,1.699198473,88.0
2023-11-05 16:04:32,1.699200272,2.0
2023-11-05 16:34:31,1.699202071,92.0
2023-11-05 17:04:34,1.699203874,90.0
2023-11-05 17:34:32,1.699205672,89.0
2023-11-05 18:04:29,1.699207469,90.0
2023-11-05 18:34:30,1.69920927,85.0
2023-11-05 19:04:30,1.69921107,91.0
2023-11-05 19:34:27,1.699212867,88.0
2023-11-05 20:04:22,1.699214662,85.0
2023-11-05 20:34:25,1.699216465,96.0
2023-11-05 21:04:22,1.699218262,92.0
2023-11-05 21:34:23,1.699220063,92.0
2023-11-05 22:04:23,1.699221863,92.0
2023-11-05 22:34:19,1.699223659,88.0
2023-11-05 23:04:24,1.699225464,87.0
2023-11-05 23:34:19,1.699227259,87.0
2023-11-06 00:04:19,1.699229059,95.0
2023-11-06 00:34:24,1.699230864,91.0
2023-11-06 01:04:19,1.699232659,89.0
2023-11-06 01:34:23,1.699234463,87.0
2023-11-06 02:04:22,1.699236262,86.0
2023-11-06 02:34:21,1.699238061,87.0
2023-11-06 03:04:20,1.69923986,119.0
2023-11-06 03:34:19,1.699241659,98.0
2023-11-06 04:04:22,1.699243462,96.0
2023-11-06 04:34:21,1.699245261,93.0
2023-11-06 05:04:20,1.69924706,93.0
2023-11-06 05:34:18,1.699248858,2.0
2023-11-06 06:04:21,1.699250661,94.0
2023-11-06 06:34:20,1.69925246,90.0
2023-11-06 07:04:21,1.699254261,85.0
2023-11-06 07:34:25,1.699256065,85.0
2023-11-06 08:04:25,1.699257865,88.0
2023-11-06 08:34:28,1.699259668,91.0
2023-11-06 09:04:28,1.699261468,126.0
2023-11-06 09:34:30,1.69926327,92.0
2023-11-06 10:04:33,1.699265073,94.0
2023-11-06 10:34:31,1.699266871,2.0
2023-11-06 11:04:31,1.699268671,87.0
2023-11-06 11:34:32,1.699270472,88.0
2023-11-06 12:04:34,1.699272274,2.0
2023-11-06 12:34:35,1.699274075,84.0
2023-11-06 13:04:33,1.699275873,89.0
2023-11-06 13:34:35,1.699277675,97.0
2023-11-06 14:04:37,1.699279477,84.0
2023-11-06 14:34:35,1.699281275,86.0
2023-11-06 15:04:38,1.699283078,2.0
2023-11-06 15:34:36,1.699284876,2.0
2023-11-06 16:04:34,1.699286674,103.0
2023-11-06 16:34:37,1.699288477,82.0
2023-11-06 17:04:35,1.699290275,3.0
2023-11-06 17:34:37,1.699292077,86.0
2023-11-06 18:04:34,1.699293874,89.0
2023-11-06 18:34:34,1.699295674,82.0
2023-11-06 19:04:32,1.699297472,86.0
2023-11-06 19:34:29,1.699299269,2.0
2023-11-06 20:04:26,1.699301066,89.0
2023-11-06 20:34:27,1.699302867,96.0
2023-11-06 21:04:26,1.699304666,92.0
2023-11-06 21:34:26,1.699306466,85.0
2023-11-06 22:04:24,1.699308264,85.0
2023-11-06 22:34:22,1.699310062,87.0
2023-11-06 23:04:24,1.699311864,85.0
2023-11-06 23:34:22,1.699313662,87.0
2023-11-07 00:04:24,1.699315464,89.0
2023-11-07 00:34:21,1.699317261,95.0
2023-11-07 01:04:23,1.699319063,90.0
2023-11-07 01:34:24,1.699320864,93.0
2023-11-07 02:04:21,1.699322661,116.0
2023-11-07 02:34:23,1.699324463,114.0
2023-11-07 03:04:24,1.699326264,83.0
2023-11-07 03:34:22,1.699328062,84.0
2023-11-07 04:04:24,1.699329864,90.0
2023-11-07 04:34:21,1.699331661,92.0
2023-11-07 05:04:23,1.699333463,85.0
2023-11-07 05:34:24,1.699335264,93.0
2023-11-07 06:04:21,1.699337061,96.0
2023-11-07 06:34:23,1.699338863,86.0
2023-11-07 07:04:26,1.699340666,82.0
2023-11-07 07:34:28,1.699342468,80.0
2023-11-07 08:04:27,1.699344267,87.0
2023-11-07 08:34:33,1.699346073,86.0
2023-11-07 09:04:31,1.699347871,95.0
2023-11-07 09:34:36,1.699349676,89.0
2023-11-07 10:04:33,1.699351473,90.0
2023-11-07 10:34:37,1.699353277,89.0
2023-11-07 11:04:37,1.699355077,85.0
2023-11-07 11:34:38,1.699356878,89.0
2023-11-07 12:04:40,1.69935868,90.0
2023-11-07 12:34:38,1.699360478,90.0
2023-11-07 13:04:41,1.699362281,85.0
2023-11-07 13:34:40,1.69936408,87.0
2023-11-07 14:04:40,1.69936588,90.0
2023-11-07 14:34:40,1.69936768,3.0
2023-11-07 15:04:42,1.699369482,2.0
2023-11-07 15:34:44,1.699371284,2.0
2023-11-07 16:04:41,1.699373081,3.0
2023-11-07 16:34:43,1.699374883,92.0
2023-11-07 17:04:45,1.699376685,85.0
2023-11-07 17:34:42,1.699378482,3.0
2023-11-07 18:04:43,1.699380283,86.0
2023-11-07 18:34:42,1.699382082,2.0
2023-11-07 19:04:39,1.699383879,81.0
2023-11-07 19:34:37,1.699385677,89.0
2023-11-07 20:04:35,1.699387475,90.0
2023-11-07 20:34:35,1.699389275,86.0
2023-11-07 21:04:34,1.699391074,81.0
2023-11-07 21:34:31,1.699392871,80.0
2023-11-07 22:04:31,1.699394671,84.0
2023-11-07 22:34:27,1.699396467,2.0
2023-11-07 23:04:27,1.699398267,100.0
2023-11-07 23:34:27,1.699400067,87.0
2023-11-08 00:04:31,1.699401871,4.0
2023-11-08 00:34:30,1.69940367,80.0
2023-11-08 01:04:28,1.699405468,120.0
2023-11-08 01:34:25,1.699407265,89.0
2023-11-08 02:04:27,1.699409067,120.0
2023-11-08 02:34:28,1.699410868,84.0
2023-11-08 03:04:24,1.699412664,84.0
2023-11-08 03:34:24,1.699414464,80.0
2023-11-08 04:04:24,1.699416264,83.0
2023-11-08 04:34:25,1.699418065,78.0
2023-11-08 05:04:25,1.699419865,82.0
2023-11-08 05:34:24,1.699421664,85.0
2023-11-08 06:04:22,1.699423462,89.0
2023-11-08 06:34:25,1.699425265,83.0
2023-11-08 07:04:23,1.699427063,83.0
2023-11-08 07:34:22,1.699428862,91.0
2023-11-08 08:04:26,1.699430666,84.0
2023-11-08 08:34:26,1.699432466,85.0
2023-11-08 09:04:26,1.699434266,90.0
2023-11-08 09:34:27,1.699436067,90.0
2023-11-08 10:04:30,1.69943787,78.0
2023-11-08 10:34:30,1.69943967,88.0
2023-11-08 11:04:32,1.699441472,86.0
2023-11-08 11:34:31,1.699443271,80.0
2023-11-08 12:04:35,1.699445075,89.0
2023-11-08 12:34:35,1.699446875,78.0
2023-11-08 13:04:31,1.699448671,84.0
2023-11-08 13:34:36,1.699450476,83.0
2023-11-08 14:04:32,1.699452272,87.0
2023-11-08 14:34:33,1.699454073,94.0
2023-11-08 15:04:35,1.699455875,85.0
2023-11-08 15:34:36,1.699457676,90.0
2023-11-08 16:04:33,1.699459473,3.0
2023-11-08 16:34:35,1.699461275,86.0
2023-11-08 17:04:36,1.699463076,81.0
2023-11-08 17:34:31,1.699464871,90.0
2023-11-08 18:04:31,1.699466671,85.0
2023-11-08 18:34:34,1.699468474,90.0
2023-11-08 19:04:30,1.69947027,78.0
2023-11-08 19:34:30,1.69947207,84.0
2023-11-08 20:04:27,1.699473867,79.0
2023-11-08 20:34:24,1.699475664,86.0
2023-11-08 21:04:24,1.699477464,94.0
2023-11-08 21:34:25,1.699479265,107.0
2023-11-08 22:04:25,1.699481065,80.0
2023-11-08 22:34:24,1.699482864,87.0
2023-11-08 23:04:23,1.699484663,93.0
2023-11-08 23:34:25,1.699486465,90.0
2023-11-09 00:04:23,1.699488263,108.0
2023-11-09 00:34:25,1.699490065,87.0
2023-11-09 01:04:21,1.699491861,99.0
2023-11-09 01:34:23,1.699493663,95.0
2023-11-09 02:04:24,1.699495464,82.0
2023-11-09 02:34:20,1.69949726,96.0
2023-11-09 03:04:21,1.699499061,82.0
2023-11-09 03:34:22,1.699500862,3.0
2023-11-09 04:04:23,1.699502663,83.0
2023-11-09 04:34:19,1.699504459,80.0
2023-11-09 05:04:20,1.69950626,3.0
2023-11-09 05:34:20,1.69950806,91.0
2023-11-09 06:04:19,1.699509859,84.0
2023-11-09 06:34:19,1.699511659,91.0
2023-11-09 07:04:26,1.699513466,3.0
2023-11-09 07:34:26,1.699515266,82.0
2023-11-09 08:04:29,1.699517069,82.0
2023-11-09 08:34:28,1.699518868,80.0
2023-11-09 09:04:26,1.699520666,87.0
2023-11-09 09:34:30,1.69952247,80.0
2023-11-09 10:04:29,1.699524269,3.0
2023-11-09 10:34:29,1.699526069,82.0
2023-11-09 11:04:30,1.69952787,80.0
2023-11-09 11:34:35,1.699529675,86.0
2023-11-09 12:04:31,1.699531471,94.0
2023-11-09 12:34:32,1.699533272,88.0
2023-11-09 13:04:33,1.699535073,83.0
2023-11-09 13:34:34,1.699536874,83.0
2023-11-09 14:04:35,1.699538675,88.0
2023-11-09 14:34:32,1.699540472,83.0
2023-11-09 15:04:31,1.699542271,82.0
2023-11-09 15:34:34,1.699544074,85.0
2023-11-09 16:04:32,1.699545872,78.0
2023-11-09 16:34:33,1.699547673,83.0
2023-11-09 17:04:32,1.699549472,83.0
2023-11-09 17:34:32,1.699551272,85.0
2023-11-09 18:04:31,1.699553071,84.0
2023-11-09 18:34:34,1.699554874,80.0
2023-11-09 19:04:29,1.699556669,83.0
2023-11-09 19:34:29,1.699558469,77.0
2023-11-09 20:04:28,1.699560268,79.0
2023-11-09 20:34:26,1.699562066,89.0
2023-11-09 21:04:29,1.699563869,80.0
2023-11-09 21:34:26,1.699565666,86.0
2023-11-09 22:04:28,1.699567468,89.0
2023-11-09 22:34:25,1.699569265,91.0
2023-11-09 23:04:27,1.699571067,88.0
2023-11-09 23:34:29,1.699572869,91.0
2023-11-10 00:04:25,1.699574665,3.0
2023-11-10 00:34:27,1.699576467,124.0
2023-11-10 01:04:29,1.699578269,3.0
2023-11-10 01:34:25,1.699580065,92.0
2023-11-10 02:04:26,1.699581866,122.0
2023-11-10 02:34:28,1.699583668,3.0
2023-11-10 03:04:23,1.699585463,86.0
2023-11-10 03:34:24,1.699587264,97.0
2023-11-10 04:04:24,1.699589064,123.0
2023-11-10 04:34:23,1.699590863,122.0
2023-11-10 05:04:23,1.699592663,83.0
2023-11-10 05:34:27,1.699594467,86.0
2023-11-10 06:04:22,1.699596262,82.0
2023-11-10 06:34:26,1.699598066,77.0
2023-11-10 07:04:24,1.699599864,84.0
2023-11-10 07:34:23,1.699601663,91.0
2023-11-10 08:04:23,1.699603463,78.0
2023-11-10 08:34:27,1.699605267,78.0
2023-11-10 09:04:26,1.699607066,84.0
2023-11-10 09:34:26,1.699608866,83.0
2023-11-10 10:04:26,1.699610666,84.0
2023-11-10 10:34:27,1.699612467,82.0
2023-11-10 11:04:27,1.699614267,81.0
2023-11-10 11:34:24,1.699616064,82.0
2023-11-10 12:04:25,1.699617865,79.0
2023-11-10 12:34:26,1.699619666,80.0
2023-11-10 13:04:28,1.699621468,82.0
2023-11-10 13:34:26,1.699623266,83.0
2023-11-10 14:04:29,1.699625069,77.0
2023-11-10 14:34:27,1.699626867,80.0
2023-11-10 15:04:31,1.699628671,85.0
2023-11-10 15:34:30,1.69963047,78.0
2023-11-10 16:04:30,1.69963227,78.0
2023-11-10 16:34:31,1.699634071,80.0
2023-11-10 17:04:30,1.69963587,86.0
2023-11-10 17:34:30,1.69963767,76.0
2023-11-10 18:04:30,1.69963947,82.0
2023-11-10 18:34:29,1.699641269,86.0
2023-11-10 19:04:29,1.699643069,80.0
2023-11-10 19:34:28,1.699644868,81.0
2023-11-10 20:04:27,1.699646667,81.0
2023-11-10 20:34:30,1.69964847,3.0
2023-11-10 21:04:28,1.699650268,80.0
2023-11-10 21:34:25,1.699652065,89.0
2023-11-10 22:04:28,1.699653868,79.0
2023-11-10 22:34:25,1.699655665,79.0
2023-11-10 23:04:28,1.699657468,82.0
2023-11-10 23:34:25,1.699659265,89.0
2023-11-11 00:04:27,1.699661067,3.0
2023-11-11 00:34:25,1.699662865,81.0
2023-11-11 01:04:27,1.699664667,79.0
2023-11-11 01:34:29,1.699666469,82.0
2023-11-11 02:04:26,1.699668266,105.0
2023-11-11 02:34:28,1.699670068,97.0
2023-11-11 03:04:26,1.699671866,87.0
2023-11-11 03:34:28,1.699673668,80.0
2023-11-11 04:04:25,1.699675465,78.0
2023-11-11 04:34:25,1.699677265,95.0
2023-11-11 05:04:25,1.699679065,78.0
2023-11-11 05:34:24,1.699680864,87.0
2023-11-11 06:04:23,1.699682663,88.0
2023-11-11 06:34:26,1.699684466,82.0
2023-11-11 07:04:26,1.699686266,84.0
2023-11-11 07:34:27,1.699688067,83.0
2023-11-11 08:04:26,1.699689866,88.0
2023-11-11 08:34:31,1.699691671,85.0
2023-11-11 09:04:29,1.699693469,87.0
2023-11-11 09:34:32,1.699695272,80.0
2023-11-11 10:04:32,1.699697072,75.0
2023-11-11 10:34:34,1.699698874,84.0
2023-11-11 11:04:36,1.699700676,83.0
2023-11-11 11:34:34,1.699702474,3.0
2023-11-11 12:04:38,1.699704278,84.0
2023-11-11 12:34:38,1.699706078,82.0
2023-11-11 13:04:37,1.699707877,74.0
2023-11-11 13:34:37,1.699709677,81.0
2023-11-11 14:04:38,1.699711478,90.0
2023-11-11 14:34:37,1.699713277,79.0
2023-11-11 15:04:37,1.699715077,2.0
2023-11-11 15:34:37,1.699716877,77.0
2023-11-11 16:04:36,1.699718676,89.0
2023-11-11 16:34:36,1.699720476,2.0
2023-11-11 17:04:35,1.699722275,85.0
2023-11-11 17:34:38,1.699724078,79.0
2023-11-11 18:04:36,1.699725876,91.0
2023-11-11 18:34:32,1.699727672,82.0
2023-11-11 19:04:31,1.699729471,78.0
2023-11-11 19:34:28,1.699731268,77.0
2023-11-11 20:04:27,1.699733067,80.0
2023-11-11 20:34:29,1.699734869,75.0
2023-11-11 21:04:26,1.699736666,87.0
2023-11-11 21:34:27,1.699738467,2.0
2023-11-11 22:04:27,1.699740267,79.0
2023-11-11 22:34:27,1.699742067,2.0
2023-11-11 23:04:23,1.699743863,107.0
2023-11-11 23:34:27,1.699745667,80.0
2023-11-12 00:04:27,1.699747467,85.0
2023-11-12 00:34:26,1.699749266,82.0
2023-11-12 01:04:26,1.699751066,79.0
2023-11-12 01:34:26,1.699752866,101.0
2023-11-12 02:04:26,1.699754666,79.0
2023-11-12 02:34:27,1.699756467,82.0
2023-11-12 03:04:27,1.699758267,80.0
2023-11-12 03:34:28,1.699760068,86.0
2023-11-12 04:04:24,1.699761864,96.0
2023-11-12 04:34:24,1.699763664,81.0
2023-11-12 05:04:25,1.699765465,89.0
2023-11-12 05:34:25,1.699767265,79.0
2023-11-12 06:04:26,1.699769066,82.0
2023-11-12 06:34:26,1.699770866,89.0
2023-11-12 07:04:26,1.699772666,80.0
2023-11-12 07:34:24,1.699774464,77.0
2023-11-12 08:04:23,1.699776263,76.0
2023-11-12 08:34:27,1.699778067,79.0
2023-11-12 09:04:26,1.699779866,75.0
2023-11-12 09:34:27,1.699781667,78.0
2023-11-12 10:04:24,1.699783464,80.0
2023-11-12 10:34:29,1.699785269,86.0
2023-11-12 11:04:30,1.69978707,81.0
2023-11-12 11:34:33,1.699788873,80.0
2023-11-12 12:04:31,1.699790671,81.0
2023-11-12 12:34:34,1.699792474,77.0
2023-11-12 13:04:32,1.699794272,86.0
2023-11-12 13:34:30,1.69979607,82.0
2023-11-12 14:04:32,1.699797872,78.0
2023-11-12 14:34:28,1.699799668,85.0
2023-11-12 15:04:30,1.69980147,82.0
2023-11-12 15:34:32,1.699803272,79.0
2023-11-12 16:04:28,1.699805068,81.0
2023-11-12 16:34:29,1.699806869,81.0
2023-11-12 17:04:29,1.699808669,82.0
2023-11-12 17:34:29,1.699810469,75.0
2023-11-12 18:04:27,1.699812267,75.0
2023-11-12 18:34:26,1.699814066,81.0
2023-11-12 19:04:28,1.699815868,77.0
2023-11-12 19:34:25,1.699817665,81.0
2023-11-12 20:04:25,1.699819465,79.0
2023-11-12 20:34:26,1.699821266,81.0
2023-11-12 21:04:26,1.699823066,81.0
2023-11-12 21:34:26,1.699824866,84.0
2023-11-12 22:04:26,1.699826666,78.0
2023-11-12 22:34:26,1.699828466,2.0
2023-11-12 23:04:26,1.699830266,78.0
2023-11-12 23:34:25,1.699832065,118.0
2023-11-13 00:04:25,1.699833865,86.0
2023-11-13 00:34:24,1.699835664,88.0
2023-11-13 01:04:22,1.699837462,80.0
2023-11-13 01:34:25,1.699839265,85.0
2023-11-13 02:04:23,1.699841063,77.0
2023-11-13 02:34:21,1.699842861,91.0
2023-11-13 03:04:24,1.699844664,107.0
2023-11-13 03:34:21,1.699846461,87.0
2023-11-13 04:04:23,1.699848263,79.0
2023-11-13 04:34:20,1.69985006,79.0
2023-11-13 05:04:22,1.699851862,2.0
2023-11-13 05:34:23,1.699853663,106.0
2023-11-13 06:04:24,1.699855464,85.0
2023-11-13 06:34:20,1.69985726,81.0
2023-11-13 07:04:22,1.699859062,76.0
2023-11-13 07:34:23,1.699860863,79.0
2023-11-13 08:04:24,1.699862664,75.0
2023-11-13 08:34:20,1.69986446,81.0
2023-11-13 09:04:20,1.69986626,77.0
2023-11-13 09:34:21,1.699868061,84.0
2023-11-13 10:04:22,1.699869862,80.0
2023-11-13 10:34:26,1.699871666,78.0
2023-11-13 11:04:26,1.699873466,82.0
2023-11-13 11:34:28,1.699875268,80.0
2023-11-13 12:04:27,1.699877067,89.0
2023-11-13 12:34:27,1.699878867,81.0
2023-11-13 13:04:28,1.699880668,75.0
2023-11-13 13:34:31,1.699882471,79.0
2023-11-13 14:04:34,1.699884274,89.0
2023-11-13 14:34:32,1.699886072,82.0
2023-11-13 15:04:30,1.69988787,70.0
2023-11-13 15:34:32,1.699889672,80.0
2023-11-13 16:04:31,1.699891471,79.0
2023-11-13 16:34:33,1.699893273,85.0
2023-11-13 17:04:29,1.699895069,76.0
2023-11-13 17:34:31,1.699896871,76.0
2023-11-13 18:04:27,1.699898667,83.0
2023-11-13 18:34:30,1.69990047,75.0
2023-11-13 19:04:27,1.699902267,78.0
2023-11-13 19:34:28,1.699904068,82.0
2023-11-13 20:04:24,1.699905864,78.0
2023-11-13 20:34:24,1.699907664,78.0
2023-11-13 21:04:23,1.699909463,83.0
2023-11-13 21:34:22,1.699911262,83.0
2023-11-13 22:04:25,1.699913065,82.0
2023-11-13 22:34:23,1.699914863,84.0
2023-11-13 23:04:25,1.699916665,109.0
2023-11-13 23:34:22,1.699918462,111.0
2023-11-14 00:04:23,1.699920263,77.0
2023-11-14 00:34:20,1.69992206,78.0
2023-11-14 01:04:21,1.699923861,79.0
2023-11-14 01:34:22,1.699925662,79.0
2023-11-14 02:04:23,1.699927463,79.0
2023-11-14 02:34:23,1.699929263,92.0
2023-11-14 03:04:19,1.699931059,93.0
2023-11-14 03:34:20,1.69993286,94.0
2023-11-14 04:04:20,1.69993466,84.0
2023-11-14 04:34:19,1.699936459,2.0
2023-11-14 05:04:19,1.699938259,3.0
2023-11-14 05:34:23,1.699940063,81.0
2023-11-14 06:04:23,1.699941863,98.0
2023-11-14 06:34:23,1.699943663,82.0
2023-11-14 07:04:25,1.699945465,77.0
2023-11-14 07:34:23,1.699947263,85.0
2023-11-14 08:04:25,1.699949065,82.0
2023-11-14 08:34:23,1.699950863,77.0
2023-11-14 09:04:25,1.699952665,79.0
2023-11-14 09:34:25,1.699954465,83.0
2023-11-14 10:04:25,1.699956265,74.0
2023-11-14 10:34:29,1.699958069,81.0
2023-11-14 11:04:30,1.69995987,74.0
2023-11-14 11:34:33,1.699961673,69.0
2023-11-14 12:04:32,1.699963472,74.0
2023-11-14 12:34:30,1.69996527,76.0
2023-11-14 13:04:34,1.699967074,77.0
2023-11-14 13:34:33,1.699968873,82.0
2023-11-14 14:04:32,1.699970672,77.0
2023-11-14 14:34:31,1.699972471,81.0
2023-11-14 15:04:35,1.699974275,80.0
2023-11-14 15:34:35,1.699976075,87.0
2023-11-14 16:04:34,1.699977874,96.0
2023-11-14 16:34:34,1.699979674,79.0
2023-11-14 17:04:34,1.699981474,79.0
2023-11-14 17:34:34,1.699983274,88.0
2023-11-14 18:04:33,1.699985073,78.0
2023-11-14 18:34:31,1.699986871,82.0
2023-11-14 19:04:32,1.699988672,74.0
2023-11-14 19:34:27,1.699990467,79.0
2023-11-14 20:04:29,1.699992269,3.0
2023-11-14 20:34:25,1.699994065,74.0
2023-11-14 21:04:26,1.699995866,90.0
2023-11-14 21:34:27,1.699997667,89.0
2023-11-14 22:04:24,1.699999464,81.0
2023-11-14 22:34:25,1.700001265,8.0
2023-11-14 23:04:27,1.700003067,86.0
2023-11-14 23:34:28,1.700004868,102.0
2023-11-15 00:04:25,1.700006665,88.0
2023-11-15 00:34:26,1.700008466,78.0
2023-11-15 01:04:27,1.700010267,2.0
2023-11-15 01:34:28,1.700012068,82.0
2023-11-15 02:04:23,1.700013863,113.0
2023-11-15 02:34:24,1.700015664,81.0
2023-11-15 03:04:24,1.700017464,79.0
2023-11-15 03:34:23,1.700019263,3.0
2023-11-15 04:04:26,1.700021066,83.0
2023-11-15 04:34:23,1.700022863,100.0
2023-11-15 05:04:21,1.700024661,86.0
2023-11-15 05:34:24,1.700026464,102.0
2023-11-15 06:04:22,1.700028262,86.0
2023-11-15 06:34:24,1.700030064,86.0
2023-11-15 07:04:22,1.700031862,84.0
2023-11-15 07:34:25,1.700033665,75.0
2023-11-15 08:04:24,1.700035464,2.0
2023-11-15 08:34:23,1.700037263,84.0
2023-11-15 09:04:28,1.700039068,77.0
2023-11-15 09:34:23,1.700040863,83.0
2023-11-15 10:04:26,1.700042666,73.0
2023-11-15 10:34:30,1.70004447,78.0
2023-11-15 11:04:31,1.700046271,78.0
2023-11-15 11:34:29,1.700048069,77.0
2023-11-15 12:04:33,1.700049873,80.0
2023-11-15 12:34:35,1.700051675,79.0
2023-11-15 13:04:38,1.700053478,80.0
2023-11-15 13:34:36,1.700055276,81.0
2023-11-15 14:04:35,1.700057075,83.0
2023-11-15 14:34:39,1.700058879,74.0
2023-11-15 15:04:35,1.700060675,79.0
2023-11-15 15:34:40,1.70006248,73.0
2023-11-15 16:04:35,1.700064275,70.0
2023-11-15 16:34:38,1.700066078,75.0
2023-11-15 17:04:35,1.700067875,77.0
2023-11-15 17:34:31,1.700069671,78.0
2023-11-15 18:04:34,1.700071474,85.0
2023-11-15 18:34:31,1.700073271,80.0
2023-11-15 19:04:31,1.700075071,73.0
2023-11-15 19:34:25,1.700076865,72.0
2023-11-15 20:04:28,1.700078668,75.0
2023-11-15 20:34:24,1.700080464,78.0
2023-11-15 21:04:25,1.700082265,80.0
2023-11-15 21:34:25,1.700084065,3.0
2023-11-15 22:04:25,1.700085865,80.0
2023-11-15 22:34:24,1.700087664,100.0
2023-11-15 23:04:23,1.700089463,103.0
2023-11-15 23:34:22,1.700091262,103.0
2023-11-16 00:04:25,1.700093065,105.0
2023-11-16 00:34:24,1.700094864,83.0
2023-11-16 01:04:22,1.700096662,101.0
2023-11-16 01:34:25,1.700098465,106.0
2023-11-16 02:04:23,1.700100263,74.0
2023-11-16 02:34:22,1.700102062,86.0
2023-11-16 03:04:25,1.700103865,109.0
2023-11-16 03:34:23,1.700105663,115.0
2023-11-16 04:04:26,1.700107466,96.0
2023-11-16 04:34:25,1.700109265,78.0
2023-11-16 05:04:24,1.700111064,107.0
2023-11-16 05:34:22,1.700112862,80.0
2023-11-16 06:04:23,1.700114663,76.0
2023-11-16 06:34:20,1.70011646,74.0
2023-11-16 07:04:22,1.700118262,80.0
2023-11-16 07:34:24,1.700120064,75.0
2023-11-16 08:04:21,1.700121861,77.0
2023-11-16 08:34:24,1.700123664,69.0
2023-11-16 09:04:25,1.700125465,75.0
2023-11-16 09:34:29,1.700127269,79.0
2023-11-16 10:04:31,1.700129071,76.0
2023-11-16 10:34:33,1.700130873,80.0
2023-11-16 11:04:32,1.700132672,70.0
2023-11-16 11:34:31,1.700134471,74.0
2023-11-16 12:04:35,1.700136275,74.0
2023-11-16 12:34:33,1.700138073,74.0
2023-11-16 13:04:32,1.700139872,78.0
2023-11-16 13:34:30,1.70014167,73.0
2023-11-16 14:04:34,1.700143474,72.0
2023-11-16 14:34:32,1.700145272,88.0
2023-11-16 15:04:32,1.700147072,70.0
2023-11-16 15:34:32,1.700148872,75.0
2023-11-16 16:04:32,1.700150672,75.0
2023-11-16 16:34:32,1.700152472,73.0
2023-11-16 17:04:33,1.700154273,76.0
2023-11-16 17:34:33,1.700156073,77.0
2023-11-16 18:04:32,1.700157872,77.0
2023-11-16 18:34:29,1.700159669,78.0
2023-11-16 19:04:30,1.70016147,89.0
2023-11-16 19:34:29,1.700163269,79.0
2023-11-16 20:04:25,1.700165065,90.0
2023-11-16 20:34:24,1.700166864,79.0
2023-11-16 21:04:22,1.700168662,101.0
2023-11-16 21:34:25,1.700170465,76.0
2023-11-16 22:04:22,1.700172262,75.0
2023-11-16 22:34:25,1.700174065,76.0
2023-11-16 23:04:22,1.700175862,84.0
2023-11-16 23:34:24,1.700177664,81.0
2023-11-17 00:04:21,1.700179461,81.0
2023-11-17 00:34:23,1.700181263,87.0
2023-11-17 01:04:24,1.700183064,81.0
2023-11-17 01:34:21,1.700184861,81.0
2023-11-17 02:04:22,1.700186662,74.0
2023-11-17 02:34:23,1.700188463,116.0
2023-11-17 03:04:21,1.700190261,106.0
2023-11-17 03:34:23,1.700192063,3.0
2023-11-17 04:04:24,1.700193864,106.0
2023-11-17 04:34:22,1.700195662,75.0
2023-11-17 05:04:24,1.700197464,84.0
2023-11-17 05:34:22,1.700199262,76.0
2023-11-17 06:04:25,1.700201065,78.0
2023-11-17 06:34:23,1.700202863,78.0
2023-11-17 07:04:25,1.700204665,75.0
2023-11-17 07:34:23,1.700206463,78.0
2023-11-17 08:04:22,1.700208262,78.0
2023-11-17 08:34:27,1.700210067,75.0
2023-11-17 09:04:23,1.700211863,70.0
2023-11-17 09:34:27,1.700213667,71.0
2023-11-17 10:04:25,1.700215465,77.0
2023-11-17 10:34:23,1.700217263,71.0
2023-11-17 11:04:23,1.700219063,79.0
2023-11-17 11:34:29,1.700220869,78.0
2023-11-17 12:04:27,1.700222667,89.0
2023-11-17 12:34:34,1.700224474,74.0
2023-11-17 13:04:32,1.700226272,80.0
2023-11-17 13:34:31,1.700228071,71.0
2023-11-17 14:04:31,1.700229871,74.0
2023-11-17 14:34:36,1.700231676,73.0
2023-11-17 15:04:32,1.700233472,75.0
2023-11-17 15:34:33,1.700235273,74.0
2023-11-17 16:04:35,1.700237075,82.0
2023-11-17 16:34:37,1.700238877,75.0
2023-11-17 17:04:34,1.700240674,75.0
2023-11-17 17:34:36,1.700242476,78.0
2023-11-17 18:04:33,1.700244273,78.0
2023-11-17 18:34:34,1.700246074,79.0
2023-11-17 19:04:35,1.700247875,85.0
2023-11-17 19:34:32,1.700249672,78.0
2023-11-17 20:04:26,1.700251466,75.0
2023-11-17 20:34:27,1.700253267,79.0
2023-11-17 21:04:22,1.700255062,78.0
2023-11-17 21:34:26,1.700256866,76.0
2023-11-17 22:04:25,1.700258665,116.0
2023-11-17 22:34:24,1.700260464,83.0
2023-11-17 23:04:22,1.700262262,115.0
2023-11-17 23:34:25,1.700264065,73.0
2023-11-18 00:04:24,1.700265864,110.0
2023-11-18 00:34:22,1.700267662,71.0
2023-11-18 01:04:25,1.700269465,73.0
2023-11-18 01:34:24,1.700271264,74.0
2023-11-18 02:04:23,1.700273063,75.0
2023-11-18 02:34:23,1.700274863,3.0
2023-11-18 03:04:27,1.700276667,82.0
2023-11-18 03:34:25,1.700278465,3.0
2023-11-18 04:04:23,1.700280263,3.0
2023-11-18 04:34:21,1.700282061,74.0
2023-11-18 05:04:25,1.700283865,79.0
2023-11-18 05:34:23,1.700285663,80.0
2023-11-18 06:04:26,1.700287466,80.0
2023-11-18 06:34:24,1.700289264,74.0
2023-11-18 07:04:23,1.700291063,63.0
2023-11-18 07:34:26,1.700292866,77.0
2023-11-18 08:04:25,1.700294665,68.0
2023-11-18 08:34:25,1.700296465,72.0
2023-11-18 09:04:26,1.700298266,74.0
2023-11-18 09:34:29,1.700300069,71.0
2023-11-18 10:04:28,1.700301868,74.0
2023-11-18 10:34:27,1.700303667,76.0
2023-11-18 11:04:27,1.700305467,71.0
2023-11-18 11:34:31,1.700307271,72.0
2023-11-18 12:04:27,1.700309067,70.0
2023-11-18 12:34:32,1.700310872,77.0
2023-11-18 13:04:28,1.700312668,74.0
2023-11-18 13:34:29,1.700314469,72.0
2023-11-18 14:04:31,1.700316271,72.0
2023-11-18 14:34:33,1.700318073,68.0
2023-11-18 15:04:30,1.70031987,67.0
2023-11-18 15:34:32,1.700321672,70.0
2023-11-18 16:04:30,1.70032347,68.0
2023-11-18 16:34:31,1.700325271,2.0
2023-11-18 17:04:28,1.700327068,77.0
2023-11-18 17:34:29,1.700328869,69.0
2023-11-18 18:04:29,1.700330669,74.0
2023-11-18 18:34:28,1.700332468,73.0
2023-11-18 19:04:26,1.700334266,76.0
2023-11-18 19:34:26,1.700336066,72.0
2023-11-18 20:04:23,1.700337863,78.0
2023-11-18 20:34:23,1.700339663,73.0
2023-11-18 21:04:19,1.700341459,83.0
2023-11-18 21:34:23,1.700343263,82.0
2023-11-18 22:04:22,1.700345062,80.0
2023-11-18 22:34:22,1.700346862,75.0
2023-11-18 23:04:21,1.700348661,89.0
2023-11-18 23:34:20,1.70035046,111.0
2023-11-19 00:04:18,1.700352258,108.0
2023-11-19 00:34:21,1.700354061,85.0
2023-11-19 01:04:19,1.700355859,85.0
2023-11-19 01:34:21,1.700357661,85.0
2023-11-19 02:04:19,1.700359459,86.0
2023-11-19 02:34:17,1.700361257,89.0
2023-11-19 03:04:19,1.700363059,88.0
2023-11-19 03:34:21,1.700364861,81.0
2023-11-19 04:04:19,1.700366659,85.0
2023-11-19 04:34:21,1.700368461,82.0
2023-11-19 05:04:18,1.700370258,81.0
2023-11-19 05:34:20,1.70037206,82.0
2023-11-19 06:04:18,1.700373858,73.0
2023-11-19 06:34:21,1.700375661,66.0
2023-11-19 07:04:22,1.700377462,73.0
2023-11-19 07:34:25,1.700379265,87.0
2023-11-19 08:04:25,1.700381065,78.0
2023-11-19 08:34:25,1.700382865,67.0
2023-11-19 09:04:27,1.700384667,66.0
2023-11-19 09:34:29,1.700386469,66.0
2023-11-19 10:04:32,1.700388272,88.0
2023-11-19 10:34:30,1.70039007,86.0
2023-11-19 11:04:33,1.700391873,85.0
2023-11-19 11:34:34,1.700393674,73.0
2023-11-19 12:04:35,1.700395475,67.0
2023-11-19 12:34:37,1.700397277,69.0
2023-11-19 13:04:34,1.700399074,67.0
2023-11-19 13:34:36,1.700400876,62.0
2023-11-19 14:04:33,1.700402673,69.0
2023-11-19 14:34:35,1.700404475,67.0
2023-11-19 15:04:36,1.700406276,70.0
2023-11-19 15:34:33,1.700408073,76.0
2023-11-19 16:04:34,1.700409874,67.0
2023-11-19 16:34:35,1.700411675,75.0
2023-11-19 17:04:31,1.700413471,73.0
2023-11-19 17:34:31,1.700415271,73.0
2023-11-19 18:04:35,1.700417075,74.0
2023-11-19 18:34:33,1.700418873,76.0
2023-11-19 19:04:30,1.70042067,81.0
2023-11-19 19:34:29,1.700422469,73.0
2023-11-19 20:04:25,1.700424265,115.0
2023-11-19 20:34:24,1.700426064,68.0
2023-11-19 21:04:22,1.700427862,85.0
2023-11-19 21:34:24,1.700429664,86.0
2023-11-19 22:04:22,1.700431462,81.0
2023-11-19 22:34:24,1.700433264,2.0
2023-11-19 23:04:21,1.700435061,74.0
2023-11-19 23:34:22,1.700436862,85.0
2023-11-20 00:04:24,1.700438664,77.0
2023-11-20 00:34:20,1.70044046,80.0
2023-11-20 01:04:21,1.700442261,78.0
2023-11-20 01:34:22,1.700444062,79.0
2023-11-20 02:04:23,1.700445863,95.0
2023-11-20 02:34:24,1.700447664,83.0
2023-11-20 03:04:20,1.70044946,86.0
2023-11-20 03:34:21,1.700451261,85.0
2023-11-20 04:04:22,1.700453062,88.0
2023-11-20 04:34:23,1.700454863,85.0
2023-11-20 05:04:19,1.700456659,75.0
2023-11-20 05:34:20,1.70045846,76.0
2023-11-20 06:04:20,1.70046026,81.0
2023-11-20 06:34:21,1.700462061,78.0
2023-11-20 07:04:25,1.700463865,66.0
2023-11-20 07:34:26,1.700465666,74.0
2023-11-20 08:04:28,1.700467468,74.0
2023-11-20 08:34:27,1.700469267,66.0
2023-11-20 09:04:33,1.700471073,68.0
2023-11-20 09:34:30,1.70047287,74.0
2023-11-20 10:04:34,1.700474674,75.0
2023-11-20 10:34:34,1.700476474,75.0
2023-11-20 11:04:36,1.700478276,69.0
2023-11-20 11:34:34,1.700480074,75.0
2023-11-20 12:04:37,1.700481877,81.0
2023-11-20 12:34:35,1.700483675,75.0
2023-11-20 13:04:34,1.700485474,76.0
2023-11-20 13:34:38,1.700487278,74.0
2023-11-20 14:04:38,1.700489078,73.0
2023-11-20 14:34:38,1.700490878,75.0
2023-11-20 15:04:39,1.700492679,69.0
2023-11-20 15:34:39,1.700494479,64.0
2023-11-20 16:04:36,1.700496276,69.0
2023-11-20 16:34:37,1.700498077,68.0
2023-11-20 17:04:37,1.700499877,76.0
2023-11-20 17:34:38,1.700501678,72.0
2023-11-20 18:04:37,1.700503477,66.0
2023-11-20 18:34:33,1.700505273,71.0
2023-11-20 19:04:33,1.700507073,74.0
2023-11-20 19:34:30,1.70050887,67.0
2023-11-20 20:04:30,1.70051067,78.0
2023-11-20 20:34:29,1.700512469,73.0
2023-11-20 21:04:27,1.700514267,79.0
2023-11-20 21:34:30,1.70051607,76.0
2023-11-20 22:04:27,1.700517867,91.0
2023-11-20 22:34:29,1.700519669,76.0
2023-11-20 23:04:26,1.700521466,69.0
2023-11-20 23:34:28,1.700523268,78.0
2023-11-21 00:04:25,1.700525065,83.0
2023-11-21 00:34:27,1.700526867,81.0
2023-11-21 01:04:29,1.700528669,85.0
2023-11-21 01:34:26,1.700530466,83.0
2023-11-21 02:04:26,1.700532266,2.0
2023-11-21 02:34:27,1.700534067,2.0
2023-11-21 03:04:27,1.700535867,75.0
2023-11-21 03:34:27,1.700537667,92.0
2023-11-21 04:04:23,1.700539463,118.0
2023-11-21 04:34:27,1.700541267,74.0
2023-11-21 05:04:23,1.700543063,67.0
2023-11-21 05:34:27,1.700544867,75.0
2023-11-21 06:04:27,1.700546667,75.0
2023-11-21 06:34:28,1.700548468,67.0
2023-11-21 07:04:26,1.700550266,64.0
2023-11-21 07:34:31,1.700552071,63.0
2023-11-21 08:04:33,1.700553873,70.0
2023-11-21 08:34:33,1.700555673,65.0
2023-11-21 09:04:35,1.700557475,74.0
2023-11-21 09:34:34,1.700559274,62.0
2023-11-21 10:04:39,1.700561079,70.0
2023-11-21 10:34:37,1.700562877,63.0
2023-11-21 11:04:41,1.700564681,75.0
2023-11-21 11:34:40,1.70056648,68.0
2023-11-21 12:04:38,1.700568278,69.0
2023-11-21 12:34:40,1.70057008,70.0
2023-11-21 13:04:36,1.700571876,66.0
2023-11-21 13:34:34,1.700573674,65.0
2023-11-21 14:04:36,1.700575476,61.0
2023-11-21 14:34:32,1.700577272,64.0
2023-11-21 15:04:30,1.70057907,62.0
2023-11-21 15:34:33,1.700580873,69.0
2023-11-21 16:04:28,1.700582668,64.0
2023-11-21 16:34:26,1.700584466,72.0
2023-11-21 17:04:28,1.700586268,71.0
2023-11-21 17:34:25,1.700588065,68.0
2023-11-21 18:04:27,1.700589867,73.0
2023-11-21 18:34:28,1.700591668,78.0
2023-11-21 19:04:25,1.700593465,85.0
2023-11-21 19:34:25,1.700595265,79.0
2023-11-21 20:04:25,1.700597065,78.0
2023-11-21 20:34:24,1.700598864,86.0
2023-11-21 21:04:22,1.700600662,82.0
2023-11-21 21:34:25,1.700602465,81.0
2023-11-21 22:04:23,1.700604263,75.0
2023-11-21 22:34:21,1.700606061,2.0
2023-11-21 23:04:24,1.700607864,67.0
2023-11-21 23:34:22,1.700609662,85.0
2023-11-22 00:04:24,1.700611464,81.0
2023-11-22 00:34:22,1.700613262,81.0
2023-11-22 01:04:25,1.700615065,74.0
2023-11-22 01:34:22,1.700616862,80.0
2023-11-22 02:04:25,1.700618665,76.0
2023-11-22 02:34:23,1.700620463,79.0
2023-11-22 03:04:25,1.700622265,82.0
2023-11-22 03:34:23,1.700624063,74.0
2023-11-22 04:04:25,1.700625865,78.0
2023-11-22 04:34:23,1.700627663,80.0
2023-11-22 05:04:25,1.700629465,86.0
2023-11-22 05:34:23,1.700631263,80.0
2023-11-22 06:04:21,1.700633061,76.0
2023-11-22 06:34:24,1.700634864,79.0
2023-11-22 07:04:22,1.700636662,73.0
2023-11-22 07:34:25,1.700638465,72.0
2023-11-22 08:04:24,1.700640264,80.0
2023-11-22 08:34:23,1.700642063,79.0
2023-11-22 09:04:27,1.700643867,75.0
2023-11-22 09:34:23,1.700645663,69.0
2023-11-22 10:04:29,1.700647469,71.0
2023-11-22 10:34:28,1.700649268,73.0
2023-11-22 11:04:29,1.700651069,65.0
2023-11-22 11:34:31,1.700652871,71.0
2023-11-22 12:04:33,1.700654673,70.0
2023-11-22 12:34:29,1.700656469,74.0
2023-11-22 13:04:32,1.700658272,69.0
2023-11-22 13:34:30,1.70066007,65.0
2023-11-22 14:04:34,1.700661874,78.0
2023-11-22 14:34:33,1.700663673,77.0
2023-11-22 15:04:33,1.700665473,64.0
2023-11-22 15:34:32,1.700667272,68.0
2023-11-22 16:04:32,1.700669072,67.0
2023-11-22 16:34:32,1.700670872,82.0
2023-11-22 17:04:32,1.700672672,81.0
2023-11-22 17:34:31,1.700674471,68.0
2023-11-22 18:04:30,1.70067627,73.0
2023-11-22 18:34:33,1.700678073,77.0
2023-11-22 19:04:29,1.700679869,70.0
2023-11-22 19:34:28,1.700681668,60.0
2023-11-22 20:04:25,1.700683465,78.0
2023-11-22 20:34:24,1.700685264,3.0
2023-11-22 21:04:23,1.700687063,77.0
2023-11-22 21:34:26,1.700688866,84.0
2023-11-22 22:04:25,1.700690665,116.0
2023-11-22 22:34:23,1.700692463,70.0
2023-11-22 23:04:26,1.700694266,82.0
2023-11-22 23:34:24,1.700696064,82.0
2023-11-23 00:04:22,1.700697862,85.0
2023-11-23 00:34:24,1.700699664,79.0
2023-11-23 01:04:21,1.700701461,71.0
2023-11-23 01:34:23,1.700703263,71.0
2023-11-23 02:04:24,1.700705064,83.0
2023-11-23 02:34:20,1.70070686,66.0
2023-11-23 03:04:22,1.700708662,73.0
2023-11-23 03:34:23,1.700710463,85.0
2023-11-23 04:04:24,1.700712264,76.0
2023-11-23 04:34:21,1.700714061,88.0
2023-11-23 05:04:22,1.700715862,76.0
2023-11-23 05:34:22,1.700717662,77.0
2023-11-23 06:04:23,1.700719463,64.0
2023-11-23 06:34:24,1.700721264,61.0
2023-11-23 07:04:23,1.700723063,71.0
2023-11-23 07:34:29,1.700724869,62.0
2023-11-23 08:04:26,1.700726666,62.0
2023-11-23 08:34:31,1.700728471,67.0
2023-11-23 09:04:32,1.700730272,76.0
2023-11-23 09:34:30,1.70073207,79.0
2023-11-23 10:04:33,1.700733873,81.0
2023-11-23 10:34:33,1.700735673,68.0
2023-11-23 11:04:34,1.700737474,76.0
2023-11-23 11:34:35,1.700739275,72.0
2023-11-23 12:04:36,1.700741076,63.0
2023-11-23 12:34:32,1.700742872,64.0
2023-11-23 13:04:34,1.700744674,74.0
2023-11-23 13:34:35,1.700746475,67.0
2023-11-23 14:04:35,1.700748275,65.0
2023-11-23 14:34:31,1.700750071,71.0
2023-11-23 15:04:37,1.700751877,65.0
2023-11-23 15:34:34,1.700753674,71.0
2023-11-23 16:04:36,1.700755476,64.0
2023-11-23 16:34:33,1.700757273,74.0
2023-11-23 17:04:34,1.700759074,59.0
2023-11-23 17:34:35,1.700760875,78.0
2023-11-23 18:04:35,1.700762675,79.0
2023-11-23 18:34:34,1.700764474,59.0
2023-11-23 19:04:31,1.700766271,69.0
2023-11-23 19:34:31,1.700768071,62.0
2023-11-23 20:04:27,1.700769867,73.0
2023-11-23 20:34:26,1.700771666,76.0
2023-11-23 21:04:25,1.700773465,77.0
2023-11-23 21:34:23,1.700775263,72.0
2023-11-23 22:04:25,1.700777065,64.0
2023-11-23 22:34:23,1.700778863,71.0
2023-11-23 23:04:25,1.700780665,120.0
2023-11-23 23:34:23,1.700782463,65.0
2023-11-24 00:04:25,1.700784265,67.0
2023-11-24 00:34:22,1.700786062,77.0
2023-11-24 01:04:24,1.700787864,83.0
2023-11-24 01:34:20,1.70078966,118.0
2023-11-24 02:04:21,1.700791461,111.0
2023-11-24 02:34:22,1.700793262,110.0
2023-11-24 03:04:23,1.700795063,117.0
2023-11-24 03:34:20,1.70079686,119.0
2023-11-24 04:04:20,1.70079866,62.0
2023-11-24 04:34:21,1.700800461,67.0
2023-11-24 05:04:21,1.700802261,68.0
2023-11-24 05:34:21,1.700804061,71.0
2023-11-24 06:04:21,1.700805861,63.0
2023-11-24 06:34:22,1.700807662,60.0
2023-11-24 07:04:26,1.700809466,64.0
2023-11-24 07:34:30,1.70081127,61.0
2023-11-24 08:04:31,1.700813071,60.0
2023-11-24 08:34:31,1.700814871,64.0
2023-11-24 09:04:34,1.700816674,3.0
2023-11-24 09:34:38,1.700818478,64.0
2023-11-24 10:04:40,1.70082028,72.0
2023-11-24 10:34:39,1.700822079,62.0
2023-11-24 11:04:37,1.700823877,69.0
2023-11-24 11:34:38,1.700825678,65.0
2023-11-24 12:04:38,1.700827478,65.0
2023-11-24 12:34:38,1.700829278,69.0
2023-11-24 13:04:36,1.700831076,70.0
2023-11-24 13:34:35,1.700832875,66.0
2023-11-24 14:04:34,1.700834674,64.0
2023-11-24 14:34:37,1.700836477,70.0
2023-11-24 15:04:35,1.700838275,58.0
2023-11-24 15:34:37,1.700840077,64.0
2023-11-24 16:04:31,1.700841871,65.0
2023-11-24 16:34:30,1.70084367,74.0
2023-11-24 17:04:35,1.700845475,66.0
2023-11-24 17:34:36,1.700847276,65.0
2023-11-24 18:04:29,1.700849069,61.0
2023-11-24 18:34:30,1.70085087,58.0
2023-11-24 19:04:29,1.700852669,66.0
2023-11-24 19:34:28,1.700854468,80.0
2023-11-24 20:04:25,1.700856265,69.0
2023-11-24 20:34:26,1.700858066,75.0
2023-11-24 21:04:26,1.700859866,76.0
2023-11-24 21:34:26,1.700861666,80.0
2023-11-24 22:04:25,1.700863465,73.0
2023-11-24 22:34:25,1.700865265,67.0
2023-11-24 23:04:25,1.700867065,2.0
2023-11-24 23:34:25,1.700868865,66.0
2023-11-25 00:04:25,1.700870665,2.0
2023-11-25 00:34:25,1.700872465,65.0
2023-11-25 01:04:25,1.700874265,68.0
2023-11-25 01:34:24,1.700876064,72.0
2023-11-25 02:04:23,1.700877863,79.0
2023-11-25 02:34:26,1.700879666,73.0
2023-11-25 03:04:24,1.700881464,69.0
2023-11-25 03:34:23,1.700883263,75.0
2023-11-25 04:04:26,1.700885066,79.0
2023-11-25 04:34:24,1.700886864,76.0
2023-11-25 05:04:21,1.700888661,69.0
2023-11-25 05:34:23,1.700890463,102.0
2023-11-25 06:04:25,1.700892265,75.0
2023-11-25 06:34:23,1.700894063,69.0
2023-11-25 07:04:26,1.700895866,68.0
2023-11-25 07:34:26,1.700897666,66.0
2023-11-25 08:04:27,1.700899467,64.0
2023-11-25 08:34:29,1.700901269,68.0
2023-11-25 09:04:30,1.70090307,70.0
2023-11-25 09:34:31,1.700904871,68.0
2023-11-25 10:04:33,1.700906673,63.0
2023-11-25 10:34:33,1.700908473,70.0
2023-11-25 11:04:34,1.700910274,69.0
2023-11-25 11:34:36,1.700912076,70.0
2023-11-25 12:04:34,1.700913874,65.0
2023-11-25 12:34:34,1.700915674,67.0
2023-11-25 13:04:36,1.700917476,62.0
2023-11-25 13:34:34,1.700919274,65.0
2023-11-25 14:04:36,1.700921076,71.0
2023-11-25 14:34:34,1.700922874,62.0
2023-11-25 15:04:37,1.700924677,66.0
2023-11-25 15:34:36,1.700926476,63.0
2023-11-25 16:04:35,1.700928275,67.0
2023-11-25 16:34:38,1.700930078,67.0
2023-11-25 17:04:36,1.700931876,69.0
2023-11-25 17:34:30,1.70093367,70.0
2023-11-25 18:04:32,1.700935472,65.0
2023-11-25 18:34:31,1.700937271,64.0
2023-11-25 19:04:33,1.700939073,87.0
2023-11-25 19:34:28,1.700940868,78.0
2023-11-25 20:04:25,1.700942665,3.0
2023-11-25 20:34:24,1.700944464,84.0
2023-11-25 21:04:23,1.700946263,88.0
2023-11-25 21:34:25,1.700948065,67.0
2023-11-25 22:04:23,1.700949863,74.0
2023-11-25 22:34:21,1.700951661,79.0
2023-11-25 23:04:24,1.700953464,73.0
2023-11-25 23:34:21,1.700955261,75.0
2023-11-26 00:04:22,1.700957062,102.0
2023-11-26 00:34:24,1.700958864,66.0
2023-11-26 01:04:20,1.70096066,77.0
2023-11-26 01:34:21,1.700962461,78.0
2023-11-26 02:04:21,1.700964261,67.0
2023-11-26 02:34:22,1.700966062,74.0
2023-11-26 03:04:23,1.700967863,84.0
2023-11-26 03:34:23,1.700969663,70.0
2023-11-26 04:04:23,1.700971463,76.0
2023-11-26 04:34:19,1.700973259,88.0
2023-11-26 05:04:24,1.700975064,69.0
2023-11-26 05:34:19,1.700976859,66.0
2023-11-26 06:04:19,1.700978659,76.0
2023-11-26 06:34:21,1.700980461,90.0
2023-11-26 07:04:25,1.700982265,63.0
2023-11-26 07:34:27,1.700984067,65.0
2023-11-26 08:04:27,1.700985867,69.0
2023-11-26 08:34:33,1.700987673,69.0
2023-11-26 09:04:31,1.700989471,69.0
2023-11-26 09:34:31,1.700991271,71.0
2023-11-26 10:04:32,1.700993072,63.0
2023-11-26 10:34:34,1.700994874,67.0
2023-11-26 11:04:38,1.700996678,58.0
2023-11-26 11:34:37,1.700998477,66.0
2023-11-26 12:04:37,1.701000277,65.0
2023-11-26 12:34:36,1.701002076,65.0
2023-11-26 13:04:36,1.701003876,58.0
2023-11-26 13:34:36,1.701005676,55.0
2023-11-26 14:04:35,1.701007475,75.0
2023-11-26 14:34:35,1.701009275,53.0
2023-11-26 15:04:40,1.70101108,64.0
2023-11-26 15:34:35,1.701012875,74.0
2023-11-26 16:04:41,1.701014681,70.0
2023-11-26 16:34:36,1.701016476,64.0
2023-11-26 17:04:36,1.701018276,58.0
2023-11-26 17:34:35,1.701020075,57.0
2023-11-26 18:04:37,1.701021877,75.0
2023-11-26 18:34:34,1.701023674,60.0
2023-11-26 19:04:34,1.701025474,54.0
2023-11-26 19:34:31,1.701027271,63.0
2023-11-26 20:04:30,1.70102907,64.0
2023-11-26 20:34:26,1.701030866,63.0
2023-11-26 21:04:26,1.701032666,67.0
2023-11-26 21:34:26,1.701034466,80.0
2023-11-26 22:04:25,1.701036265,79.0
2023-11-26 22:34:25,1.701038065,85.0
2023-11-26 23:04:25,1.701039865,73.0
2023-11-26 23:34:24,1.701041664,75.0
2023-11-27 00:04:23,1.701043463,82.0
2023-11-27 00:34:27,1.701045267,79.0
2023-11-27 01:04:26,1.701047066,2.0
2023-11-27 01:34:24,1.701048864,81.0
2023-11-27 02:04:22,1.701050662,83.0
2023-11-27 02:34:25,1.701052465,85.0
2023-11-27 03:04:23,1.701054263,84.0
2023-11-27 03:34:26,1.701056066,82.0
2023-11-27 04:04:24,1.701057864,80.0
2023-11-27 04:34:22,1.701059662,82.0
2023-11-27 05:04:25,1.701061465,81.0
2023-11-27 05:34:23,1.701063263,77.0
2023-11-27 06:04:25,1.701065065,78.0
2023-11-27 06:34:24,1.701066864,80.0
2023-11-27 07:04:26,1.701068666,61.0
2023-11-27 07:34:32,1.701070472,55.0
2023-11-27 08:04:29,1.701072269,55.0
2023-11-27 08:34:34,1.701074074,53.0
2023-11-27 09:04:35,1.701075875,59.0
2023-11-27 09:34:37,1.701077677,63.0
2023-11-27 10:04:36,1.701079476,54.0
2023-11-27 10:34:36,1.701081276,57.0
2023-11-27 11:04:38,1.701083078,51.0
2023-11-27 11:34:40,1.70108488,62.0
2023-11-27 12:04:37,1.701086677,51.0
2023-11-27 12:34:38,1.701088478,57.0
2023-11-27 13:04:40,1.70109028,57.0
2023-11-27 13:34:36,1.701092076,57.0
2023-11-27 14:04:35,1.701093875,52.0
2023-11-27 14:34:40,1.70109568,58.0
2023-11-27 15:04:36,1.701097476,52.0
2023-11-27 15:34:35,1.701099275,56.0
2023-11-27 16:04:39,1.701101079,54.0
2023-11-27 16:34:35,1.701102875,61.0
2023-11-27 17:04:39,1.701104679,75.0
2023-11-27 17:34:37,1.701106477,59.0
2023-11-27 18:04:35,1.701108275,69.0
2023-11-27 18:34:33,1.701110073,9.0
2023-11-27 19:04:34,1.701111874,56.0
2023-11-27 19:34:33,1.701113673,56.0
2023-11-27 20:04:28,1.701115468,70.0
2023-11-27 20:34:28,1.701117268,72.0
2023-11-27 21:04:26,1.701119066,66.0
2023-11-27 21:34:30,1.70112087,73.0
2023-11-27 22:04:28,1.701122668,82.0
2023-11-27 22:34:26,1.701124466,88.0
2023-11-27 23:04:27,1.701126267,62.0
2023-11-27 23:34:24,1.701128064,69.0
2023-11-28 00:04:25,1.701129865,63.0
2023-11-28 00:34:26,1.701131666,74.0
2023-11-28 01:04:27,1.701133467,70.0
2023-11-28 01:34:27,1.701135267,59.0
2023-11-28 02:04:27,1.701137067,82.0
2023-11-28 02:34:27,1.701138867,79.0
2023-11-28 03:04:27,1.701140667,3.0
2023-11-28 03:34:26,1.701142466,69.0
2023-11-28 04:04:26,1.701144266,81.0
2023-11-28 04:34:25,1.701146065,68.0
2023-11-28 05:04:25,1.701147865,61.0
2023-11-28 05:34:24,1.701149664,62.0
2023-11-28 06:04:22,1.701151462,79.0
2023-11-28 06:34:26,1.701153266,67.0
2023-11-28 07:04:27,1.701155067,60.0
2023-11-28 07:34:31,1.701156871,56.0
2023-11-28 08:04:32,1.701158672,60.0
2023-11-28 08:34:30,1.70116047,59.0
2023-11-28 09:04:33,1.701162273,80.0
2023-11-28 09:34:33,1.701164073,67.0
2023-11-28 10:04:35,1.701165875,56.0
2023-11-28 10:34:33,1.701167673,57.0
2023-11-28 11:04:36,1.701169476,67.0
2023-11-28 11:34:35,1.701171275,69.0
2023-11-28 12:04:38,1.701173078,65.0
2023-11-28 12:34:37,1.701174877,65.0
2023-11-28 13:04:36,1.701176676,64.0
2023-11-28 13:34:36,1.701178476,74.0
2023-11-28 14:04:34,1.701180274,66.0
2023-11-28 14:34:38,1.701182078,80.0
2023-11-28 15:04:37,1.701183877,72.0
2023-11-28 15:34:36,1.701185676,73.0
2023-11-28 16:04:35,1.701187475,72.0
2023-11-28 16:34:39,1.701189279,79.0
2023-11-28 17:04:37,1.701191077,79.0
2023-11-28 17:34:36,1.701192876,79.0
2023-11-28 18:04:34,1.701194674,63.0
2023-11-28 18:34:36,1.701196476,62.0
2023-11-28 19:04:31,1.701198271,62.0
2023-11-28 19:34:30,1.70120007,77.0
2023-11-28 20:04:31,1.701201871,70.0
2023-11-28 20:34:26,1.701203666,79.0
2023-11-28 21:04:28,1.701205468,114.0
2023-11-28 21:34:26,1.701207266,70.0
2023-11-28 22:04:29,1.701209069,74.0
2023-11-28 22:34:26,1.701210866,86.0
2023-11-28 23:04:27,1.701212667,80.0
2023-11-28 23:34:24,1.701214464,82.0
2023-11-29 00:04:25,1.701216265,75.0
2023-11-29 00:34:25,1.701218065,81.0
2023-11-29 01:04:25,1.701219865,78.0
2023-11-29 01:34:25,1.701221665,84.0
2023-11-29 02:04:24,1.701223464,93.0
2023-11-29 02:34:24,1.701225264,81.0
2023-11-29 03:04:23,1.701227063,69.0
2023-11-29 03:34:27,1.701228867,76.0
2023-11-29 04:04:22,1.701230662,74.0
2023-11-29 04:34:26,1.701232466,66.0
2023-11-29 05:04:25,1.701234265,66.0
2023-11-29 05:34:25,1.701236065,72.0
2023-11-29 06:04:24,1.701237864,66.0
2023-11-29 06:34:25,1.701239665,66.0
2023-11-29 07:04:27,1.701241467,68.0
2023-11-29 07:34:28,1.701243268,72.0
2023-11-29 08:04:26,1.701245066,76.0
2023-11-29 08:34:29,1.701246869,64.0
2023-11-29 09:04:26,1.701248666,54.0
2023-11-29 09:34:28,1.701250468,65.0
2023-11-29 10:04:25,1.701252265,73.0
2023-11-29 10:34:28,1.701254068,54.0
2023-11-29 11:04:27,1.701255867,3.0
2023-11-29 11:34:31,1.701257671,58.0
2023-11-29 12:04:27,1.701259467,65.0
2023-11-29 12:34:30,1.70126127,51.0
2023-11-29 13:04:27,1.701263067,77.0
2023-11-29 13:34:25,1.701264865,52.0
2023-11-29 14:04:28,1.701266668,71.0
2023-11-29 14:34:26,1.701268466,66.0
2023-11-29 15:04:31,1.701270271,80.0
2023-11-29 15:34:29,1.701272069,58.0
2023-11-29 16:04:27,1.701273867,83.0
2023-11-29 16:34:26,1.701275666,70.0
2023-11-29 17:04:32,1.701277472,50.0
2023-11-29 17:34:30,1.70127927,61.0
2023-11-29 18:04:30,1.70128107,63.0
2023-11-29 18:34:31,1.701282871,67.0
2023-11-29 19:04:30,1.70128467,72.0
2023-11-29 19:34:29,1.701286469,64.0
2023-11-29 20:04:26,1.701288266,65.0
2023-11-29 20:34:27,1.701290067,83.0
2023-11-29 21:04:28,1.701291868,78.0
2023-11-29 21:34:23,1.701293663,82.0
2023-11-29 22:04:28,1.701295468,64.0
2023-11-29 22:34:23,1.701297263,56.0
2023-11-29 23:04:27,1.701299067,59.0
2023-11-29 23:34:22,1.701300862,3.0
2023-11-30 00:04:26,1.701302666,59.0
2023-11-30 00:34:25,1.701304465,3.0
2023-11-30 01:04:25,1.701306265,83.0
2023-11-30 01:34:24,1.701308064,83.0
2023-11-30 02:04:24,1.701309864,90.0
2023-11-30 02:34:23,1.701311663,84.0
2023-11-30 03:04:27,1.701313467,80.0
2023-11-30 03:34:25,1.701315265,81.0
2023-11-30 04:04:24,1.701317064,78.0
2023-11-30 04:34:23,1.701318863,81.0
2023-11-30 05:04:22,1.701320662,72.0
2023-11-30 05:34:26,1.701322466,66.0
2023-11-30 06:04:25,1.701324265,64.0
2023-11-30 06:34:24,1.701326064,72.0
2023-11-30 07:04:24,1.701327864,69.0
2023-11-30 07:34:26,1.701329666,66.0
2023-11-30 08:04:29,1.701331469,61.0
2023-11-30 08:34:26,1.701333266,60.0
2023-11-30 09:04:29,1.701335069,63.0
2023-11-30 09:34:28,1.701336868,59.0
2023-11-30 10:04:29,1.701338669,62.0
2023-11-30 10:34:37,1.701340477,62.0
2023-11-30 11:04:35,1.701342275,64.0
2023-11-30 11:34:38,1.701344078,62.0
2023-11-30 12:04:35,1.701345875,61.0
2023-11-30 12:34:39,1.701347679,60.0
2023-11-30 13:04:36,1.701349476,71.0
2023-11-30 13:34:37,1.701351277,70.0
2023-11-30 14:04:35,1.701353075,70.0
2023-11-30 14:34:38,1.701354878,73.0
2023-11-30 15:04:36,1.701356676,55.0
2023-11-30 15:34:34,1.701358474,60.0
2023-11-30 16:04:38,1.701360278,72.0
2023-11-30 16:34:37,1.701362077,72.0
2023-11-30 17:04:36,1.701363876,75.0
2023-11-30 17:34:35,1.701365675,66.0
2023-11-30 18:04:34,1.701367474,64.0
2023-11-30 18:34:35,1.701369275,72.0
2023-11-30 19:04:36,1.701371076,69.0
2023-11-30 19:34:30,1.70137287,69.0
2023-11-30 20:04:32,1.701374672,76.0
2023-11-30 20:34:26,1.701376466,65.0
2023-11-30 21:04:29,1.701378269,68.0
2023-11-30 21:34:27,1.701380067,64.0
2023-11-30 22:04:30,1.70138187,74.0
2023-11-30 22:34:27,1.701383667,77.0
2023-11-30 23:04:29,1.701385469,74.0
2023-11-30 23:34:26,1.701387266,82.0
2023-12-01 00:04:28,1.701389068,79.0
2023-12-01 00:34:24,1.701390864,84.0
2023-12-01 01:04:26,1.701392666,74.0
2023-12-01 01:34:27,1.701394467,73.0
2023-12-01 02:04:27,1.701396267,72.0
2023-12-01 02:34:23,1.701398063,74.0
2023-12-01 03:04:28,1.701399868,76.0
2023-12-01 03:34:24,1.701401664,79.0
2023-12-01 04:04:25,1.701403465,84.0
2023-12-01 04:34:26,1.701405266,72.0
2023-12-01 05:04:27,1.701407067,3.0
2023-12-01 05:34:24,1.701408864,76.0
2023-12-01 06:04:25,1.701410665,75.0
2023-12-01 06:34:27,1.701412467,77.0
2023-12-01 07:04:30,1.70141427,75.0
2023-12-01 07:34:29,1.701416069,81.0
2023-12-01 08:04:31,1.701417871,73.0
2023-12-01 08:34:34,1.701419674,80.0
2023-12-01 09:04:33,1.701421473,76.0
2023-12-01 09:34:34,1.701423274,75.0
2023-12-01 10:04:37,1.701425077,72.0
2023-12-01 10:34:38,1.701426878,77.0
2023-12-01 11:04:40,1.70142868,60.0
2023-12-01 11:34:38,1.701430478,64.0
2023-12-01 12:04:41,1.701432281,66.0
2023-12-01 12:34:40,1.70143408,59.0
2023-12-01 13:04:39,1.701435879,69.0
2023-12-01 13:34:43,1.701437683,71.0
2023-12-01 14:04:42,1.701439482,73.0
2023-12-01 14:34:42,1.701441282,69.0
2023-12-01 15:04:41,1.701443081,65.0
2023-12-01 15:34:41,1.701444881,70.0
2023-12-01 16:04:35,1.701446675,71.0
2023-12-01 16:34:31,1.701448471,67.0
2023-12-01 17:04:29,1.701450269,64.0
2023-12-01 17:34:27,1.701452067,69.0
2023-12-01 18:04:27,1.701453867,87.0
2023-12-01 18:34:27,1.701455667,80.0
2023-12-01 19:04:27,1.701457467,82.0
2023-12-01 19:34:26,1.701459266,74.0
2023-12-01 20:04:26,1.701461066,78.0
2023-12-01 20:34:26,1.701462866,70.0
2023-12-01 21:04:26,1.701464666,98.0
2023-12-01 21:34:25,1.701466465,84.0
2023-12-01 22:04:25,1.701468265,82.0
2023-12-01 22:34:24,1.701470064,78.0
2023-12-01 23:04:23,1.701471863,83.0
2023-12-01 23:34:27,1.701473667,70.0
2023-12-02 00:04:26,1.701475466,74.0
2023-12-02 00:34:25,1.701477265,74.0
2023-12-02 01:04:24,1.701479064,78.0
2023-12-02 01:34:23,1.701480863,74.0
2023-12-02 02:04:22,1.701482662,82.0
2023-12-02 02:34:26,1.701484466,72.0
2023-12-02 03:04:25,1.701486265,77.0
2023-12-02 03:34:24,1.701488064,77.0
2023-12-02 04:04:22,1.701489862,75.0
2023-12-02 04:34:26,1.701491666,3.0
2023-12-02 05:04:24,1.701493464,116.0
2023-12-02 05:34:23,1.701495263,76.0
2023-12-02 06:04:26,1.701497066,84.0
2023-12-02 06:34:25,1.701498865,85.0
2023-12-02 07:04:24,1.701500664,82.0
2023-12-02 07:34:23,1.701502463,81.0
2023-12-02 08:04:23,1.701504263,73.0
2023-12-02 08:34:24,1.701506064,65.0
2023-12-02 09:04:26,1.701507866,68.0
2023-12-02 09:34:29,1.701509669,61.0
2023-12-02 10:04:28,1.701511468,80.0
2023-12-02 10:34:26,1.701513266,66.0
2023-12-02 11:04:30,1.70151507,66.0
2023-12-02 11:34:31,1.701516871,61.0
2023-12-02 12:04:31,1.701518671,61.0
2023-12-02 12:34:36,1.701520476,66.0
2023-12-02 13:04:34,1.701522274,64.0
2023-12-02 13:34:36,1.701524076,83.0
2023-12-02 14:04:33,1.701525873,76.0
2023-12-02 14:34:34,1.701527674,65.0
2023-12-02 15:04:34,1.701529474,71.0
2023-12-02 15:34:35,1.701531275,65.0
2023-12-02 16:04:35,1.701533075,64.0
2023-12-02 16:34:38,1.701534878,62.0
2023-12-02 17:04:35,1.701536675,71.0
2023-12-02 17:34:35,1.701538475,71.0
2023-12-02 18:04:32,1.701540272,77.0
2023-12-02 18:34:33,1.701542073,72.0
2023-12-02 19:04:33,1.701543873,80.0
2023-12-02 19:34:30,1.70154567,71.0
2023-12-02 20:04:29,1.701547469,70.0
2023-12-02 20:34:26,1.701549266,64.0
2023-12-02 21:04:27,1.701551067,76.0
2023-12-02 21:34:26,1.701552866,73.0
2023-12-02 22:04:26,1.701554666,67.0
2023-12-02 22:34:25,1.701556465,73.0
2023-12-02 23:04:24,1.701558264,77.0
2023-12-02 23:34:23,1.701560063,62.0
2023-12-03 00:04:27,1.701561867,79.0
2023-12-03 00:34:26,1.701563666,68.0
2023-12-03 01:04:25,1.701565465,71.0
2023-12-03 01:34:24,1.701567264,3.0
2023-12-03 02:04:24,1.701569064,3.0
2023-12-03 02:34:23,1.701570863,70.0
2023-12-03 03:04:27,1.701572667,76.0
2023-12-03 03:34:26,1.701574466,88.0
2023-12-03 04:04:26,1.701576266,82.0
2023-12-03 04:34:25,1.701578065,80.0
2023-12-03 05:04:25,1.701579865,62.0
2023-12-03 05:34:25,1.701581665,65.0
2023-12-03 06:04:24,1.701583464,83.0
2023-12-03 06:34:22,1.701585262,66.0
2023-12-03 07:04:25,1.701587065,78.0
2023-12-03 07:34:24,1.701588864,71.0
2023-12-03 08:04:23,1.701590663,72.0
2023-12-03 08:34:22,1.701592462,71.0
2023-12-03 09:04:26,1.701594266,3.0
2023-12-03 09:34:25,1.701596065,69.0
2023-12-03 10:04:23,1.701597863,75.0
2023-12-03 10:34:25,1.701599665,64.0
2023-12-03 11:04:24,1.701601464,72.0
2023-12-03 11:34:22,1.701603262,72.0
2023-12-03 12:04:25,1.701605065,66.0
2023-12-03 12:34:23,1.701606863,65.0
2023-12-03 13:04:21,1.701608661,75.0
2023-12-03 13:34:23,1.701610463,78.0
2023-12-03 14:04:26,1.701612266,73.0
2023-12-03 14:34:27,1.701614067,73.0
2023-12-03 15:04:24,1.701615864,68.0
2023-12-03 15:34:26,1.701617666,67.0
2023-12-03 16:04:27,1.701619467,66.0
2023-12-03 16:34:27,1.701621267,64.0
2023-12-03 17:04:27,1.701623067,64.0
2023-12-03 17:34:27,1.701624867,60.0
2023-12-03 18:04:27,1.701626667,67.0
2023-12-03 18:34:26,1.701628466,69.0
2023-12-03 19:04:25,1.701630265,63.0
2023-12-03 19:34:24,1.701632064,80.0
2023-12-03 20:04:22,1.701633862,83.0
2023-12-03 20:34:25,1.701635665,84.0
2023-12-03 21:04:23,1.701637463,84.0
2023-12-03 21:34:22,1.701639262,77.0
2023-12-03 22:04:24,1.701641064,72.0
2023-12-03 22:34:22,1.701642862,81.0
2023-12-03 23:04:24,1.701644664,74.0
2023-12-03 23:34:22,1.701646462,76.0
2023-12-04 00:04:24,1.701648264,78.0
2023-12-04 00:34:21,1.701650061,83.0
2023-12-04 01:04:22,1.701651862,69.0
2023-12-04 01:34:23,1.701653663,116.0
2023-12-04 02:04:20,1.70165546,79.0
2023-12-04 02:34:21,1.701657261,73.0
