2021-12-27 00:00:32;4.17;75;19.40;0;0.00
2021-12-27 00:05:34;4.17;69;20.00;0;0.00
2021-12-27 00:10:31;4.17;74;19.90;0;0.00
2021-12-27 00:15:33;4.17;73;19.40;0;0.00
2021-12-27 00:20:31;4.17;69;20.00;0;0.00
2021-12-27 00:25:32;4.17;69;20.10;0;0.00
2021-12-27 00:30:34;4.17;70;20.10;0;0.00
2021-12-27 00:35:32;4.17;70;19.70;0;0.00
2021-12-27 00:40:34;4.17;70;20.00;0;0.00
2021-12-27 00:45:31;4.17;72;19.50;0;0.00
2021-12-27 00:50:33;4.17;79;17.80;0;0.00
2021-12-27 00:55:35;4.17;80;17.80;0;0.00
2021-12-27 01:00:32;4.17;80;17.60;0;0.00
2021-12-27 01:05:34;4.17;79;18.00;0;0.00
2021-12-27 01:10:31;4.17;76;18.80;0;0.00
2021-12-27 01:15:33;4.17;74;19.10;0;0.00
2021-12-27 01:20:30;4.16;74;19.20;0;0.00
2021-12-27 01:25:32;4.16;74;19.00;0;0.00
2021-12-27 01:30:34;4.16;73;18.90;0;0.00
2021-12-27 01:35:31;4.16;73;19.10;0;0.00
2021-12-27 01:40:33;4.16;72;19.40;0;0.00
2021-12-27 01:45:35;4.16;73;19.00;0;0.00
2021-12-27 01:50:32;4.16;73;18.90;0;0.00
2021-12-27 01:55:34;4.16;74;18.80;0;0.00
2021-12-27 02:00:31;4.16;75;18.50;0;0.00
2021-12-27 02:05:33;4.16;75;18.30;0;0.00
2021-12-27 02:10:34;4.16;75;18.30;0;0.00
2021-12-27 02:15:32;4.16;74;18.60;0;0.00
2021-12-27 02:20:33;4.16;74;18.50;0;0.00
2021-12-27 02:25:31;4.16;71;19.00;0;0.00
2021-12-27 02:30:32;4.16;71;18.90;0;0.00
2021-12-27 02:35:34;4.16;70;19.10;0;0.00
2021-12-27 02:40:31;4.16;69;19.50;0;0.00
2021-12-27 02:45:33;4.16;71;19.10;0;0.00
2021-12-27 02:50:35;4.16;75;17.90;0;0.00
2021-12-27 02:55:32;4.16;76;17.40;0;0.00
2021-12-27 03:00:34;4.16;79;16.90;0;0.00
2021-12-27 03:05:31;4.15;78;17.00;0;0.00
2021-12-27 03:10:33;4.15;80;16.80;0;0.00
2021-12-27 03:15:30;4.16;80;16.40;0;0.00
2021-12-27 03:20:31;4.15;80;16.10;0;0.00
2021-12-27 03:25:33;4.15;80;16.10;0;0.00
2021-12-27 03:30:35;4.16;81;15.90;0;0.00
2021-12-27 03:35:32;4.15;82;15.50;0;0.00
2021-12-27 03:40:33;4.15;80;16.00;0;0.00
2021-12-27 03:45:30;4.15;80;16.10;0;0.00
2021-12-27 03:50:32;4.15;80;15.90;0;0.00
2021-12-27 03:55:33;4.15;80;16.00;0;0.00
2021-12-27 04:00:30;4.15;80;16.00;0;0.00
2021-12-27 04:05:32;4.15;80;16.10;0;0.00
2021-12-27 04:10:33;4.15;79;16.10;0;0.00
2021-12-27 04:15:30;4.15;78;16.20;0;0.00
2021-12-27 04:20:32;4.15;78;16.20;0;0.00
2021-12-27 04:25:33;4.15;78;16.20;0;0.00
2021-12-27 04:30:30;4.15;79;15.90;0;0.00
2021-12-27 04:35:32;4.15;80;15.60;0;0.00
2021-12-27 04:40:33;4.15;79;15.90;0;0.00
2021-12-27 04:45:30;4.15;79;16.00;0;0.00
2021-12-27 04:50:32;4.15;78;16.10;0;0.00
2021-12-27 04:55:33;4.14;78;16.20;0;0.00
2021-12-27 05:00:30;4.14;79;15.90;0;0.00
2021-12-27 05:05:31;4.14;78;15.90;0;0.00
2021-12-27 05:10:33;4.14;80;15.50;0;0.00
2021-12-27 05:15:34;4.14;80;15.40;0;0.00
2021-12-27 05:20:31;4.14;79;15.60;0;0.00
2021-12-27 05:25:33;4.14;80;15.10;0;0.00
2021-12-27 05:30:30;4.14;81;14.90;0;0.00
2021-12-27 05:35:31;4.14;82;15.00;0;0.00
2021-12-27 05:40:32;4.14;82;14.90;0;0.00
2021-12-27 05:45:34;4.14;83;14.30;0;0.00
2021-12-27 05:50:31;4.14;82;14.60;0;0.00
2021-12-27 05:55:32;4.14;82;14.30;0;0.00
2021-12-27 06:00:33;4.14;82;14.10;0;0.00
2021-12-27 06:05:30;4.14;82;14.30;0;0.00
2021-12-27 06:10:32;4.14;82;14.40;0;0.00
2021-12-27 06:15:33;4.14;82;14.50;0;0.00
2021-12-27 06:20:34;4.14;81;14.90;0;0.00
2021-12-27 06:25:31;4.14;81;15.10;0;0.00
2021-12-27 06:30:33;4.14;81;15.40;0;0.00
2021-12-27 06:35:34;4.14;81;15.40;0;0.00
2021-12-27 06:40:31;4.14;80;16.40;0;0.00
2021-12-27 06:45:32;4.14;81;16.70;0;0.00
2021-12-27 06:50:29;4.14;77;17.90;0;0.00
2021-12-27 06:55:35;4.14;73;20.00;0;0.00
2021-12-27 07:00:32;4.14;77;19.70;0;0.00
2021-12-27 07:05:34;4.14;76;19.70;0;0.00
2021-12-27 07:10:31;4.14;74;20.30;0;0.00
2021-12-27 07:15:33;4.15;72;21.60;0;0.00
2021-12-27 07:20:34;4.15;70;22.30;0;0.00
2021-12-27 07:25:32;4.15;70;22.50;0;0.00
2021-12-27 07:30:34;4.15;68;23.50;0;0.00
2021-12-27 07:35:31;4.15;63;25.80;0;0.00
2021-12-27 07:40:34;4.15;65;25.60;0;0.00
2021-12-27 07:45:32;4.16;62;26.40;0;0.00
2021-12-27 07:50:34;4.16;59;26.80;0;0.00
2021-12-27 07:55:32;4.16;60;26.00;0;0.00
2021-12-27 08:00:34;4.16;59;26.70;0;0.00
2021-12-27 08:05:33;4.16;59;27.10;0;0.00
2021-12-27 08:10:35;4.16;58;27.00;0;0.00
2021-12-27 08:15:34;4.17;55;27.60;0;0.00
2021-12-27 08:20:32;4.17;56;27.90;0;0.00
2021-12-27 08:25:31;4.17;54;28.20;0;1.40
2021-12-27 08:30:34;4.17;54;28.60;0;1.10
2021-12-27 08:35:32;4.18;52;29.10;0;1.20
2021-12-27 08:40:36;4.18;55;29.50;0;1.30
2021-12-27 08:45:34;4.18;53;29.70;0;1.30
2021-12-27 08:50:33;4.18;51;30.10;0;1.30
2021-12-27 08:55:32;4.18;53;30.50;0;1.10
2021-12-27 09:00:36;4.18;52;30.60;0;0.00
2021-12-27 09:05:35;4.19;51;31.00;0;0.00
2021-12-27 09:10:34;4.19;51;31.60;0;1.70
2021-12-27 09:15:33;4.19;49;32.10;0;1.40
2021-12-27 09:20:32;4.19;48;32.00;0;2.09
2021-12-27 09:25:36;4.19;47;32.10;0;0.00
2021-12-27 09:30:35;4.19;47;32.30;0;1.50
2021-12-27 09:35:35;4.19;47;32.70;0;1.90
2021-12-27 09:40:34;4.19;47;32.90;0;2.89
2021-12-27 09:45:34;4.19;44;33.10;0;0.00
2021-12-27 09:50:33;4.19;46;33.30;0;2.19
2021-12-27 09:55:33;4.20;44;33.40;0;1.60
2021-12-27 10:00:33;4.20;43;34.30;0;2.09
2021-12-27 10:05:37;4.19;45;34.50;0;2.09
2021-12-27 10:10:37;4.20;42;34.30;0;1.30
2021-12-27 10:15:37;4.20;42;34.50;0;2.19
2021-12-27 10:20:32;4.20;41;34.70;0;2.49
2021-12-27 10:25:36;4.20;38;34.90;0;1.20
2021-12-27 10:30:36;4.20;43;34.40;0;2.59
2021-12-27 10:35:36;4.20;41;34.30;0;2.59
2021-12-27 10:40:32;4.20;39;34.70;0;0.00
2021-12-27 10:45:37;4.20;40;35.20;0;1.20
2021-12-27 10:50:37;4.20;37;35.10;0;1.20
2021-12-27 10:55:37;4.20;37;35.90;0;0.00
2021-12-27 11:00:32;4.20;37;35.10;0;1.60
2021-12-27 11:05:37;4.20;36;36.10;0;0.00
2021-12-27 11:10:33;4.20;37;35.60;0;0.00
2021-12-27 11:15:33;4.20;35;35.40;0;2.89
2021-12-27 11:20:34;4.20;35;35.40;0;2.39
2021-12-27 11:25:34;4.21;35;36.60;0;1.20
2021-12-27 11:30:34;4.21;35;36.00;0;0.00
2021-12-27 11:35:35;4.21;33;35.70;0;0.00
2021-12-27 11:40:35;4.21;35;36.10;0;1.80
2021-12-27 11:45:36;4.21;34;35.60;0;0.00
2021-12-27 11:50:36;4.21;34;36.60;0;2.19
2021-12-27 11:55:32;4.21;33;36.90;0;0.00
2021-12-27 12:00:37;4.21;36;36.50;0;1.50
2021-12-27 12:05:33;4.21;35;36.30;0;1.10
2021-12-27 12:10:34;4.21;35;36.70;0;1.50
2021-12-27 12:15:35;4.21;31;36.80;0;0.00
2021-12-27 12:20:35;4.21;32;36.60;0;0.00
2021-12-27 12:25:36;4.21;29;37.00;0;0.00
2021-12-27 12:30:37;4.21;32;37.20;0;1.50
2021-12-27 12:35:33;4.21;33;37.10;0;1.40
2021-12-27 12:40:38;4.21;32;37.10;0;1.30
2021-12-27 12:45:34;4.21;34;37.60;0;2.00
2021-12-27 12:50:35;4.21;30;38.30;0;0.00
2021-12-27 12:55:36;4.21;31;37.80;0;0.00
2021-12-27 13:00:37;4.22;34;36.80;0;2.09
2021-12-27 13:05:37;4.21;34;37.30;0;1.70
2021-12-27 13:10:34;4.22;32;36.90;0;0.00
2021-12-27 13:15:34;4.22;32;37.30;0;0.00
2021-12-27 13:20:35;4.22;32;37.90;0;0.00
2021-12-27 13:25:36;4.22;33;37.60;0;1.50
2021-12-27 13:30:32;4.22;34;37.70;0;1.30
2021-12-27 13:35:38;4.22;32;38.00;0;0.00
2021-12-27 13:40:34;4.22;31;38.60;0;0.00
2021-12-27 13:45:35;4.22;33;37.40;0;0.00
2021-12-27 13:50:36;4.22;32;37.70;0;0.00
2021-12-27 13:55:37;4.22;32;37.90;0;0.00
2021-12-27 14:00:38;4.22;32;38.10;0;1.10
2021-12-27 14:05:34;4.22;32;37.70;0;1.30
2021-12-27 14:10:35;4.22;32;38.80;0;0.00
2021-12-27 14:15:36;4.22;30;40.20;0;1.50
2021-12-27 14:20:37;4.22;32;37.90;0;2.00
2021-12-27 14:25:38;4.22;33;37.80;0;1.30
2021-12-27 14:30:34;4.22;32;38.60;0;1.10
2021-12-27 14:35:35;4.22;32;38.00;0;1.10
2021-12-27 14:40:36;4.22;32;38.90;0;0.00
2021-12-27 14:45:37;4.22;33;38.50;0;1.90
2021-12-27 14:50:34;4.22;33;37.90;0;3.08
2021-12-27 14:55:35;4.22;32;38.90;0;1.30
2021-12-27 15:00:36;4.22;30;38.90;0;0.00
2021-12-27 15:05:37;4.22;31;38.30;0;1.30
2021-12-27 15:10:33;4.22;31;39.30;0;2.29
2021-12-27 15:15:34;4.22;31;38.10;0;0.00
2021-12-27 15:20:35;4.22;31;38.70;0;1.20
2021-12-27 15:25:36;4.23;32;39.40;0;1.10
2021-12-27 15:30:37;4.22;32;39.20;0;1.30
2021-12-27 15:35:34;4.22;33;38.20;0;1.10
2021-12-27 15:40:35;4.23;31;37.90;0;0.00
2021-12-27 15:45:36;4.23;32;38.80;0;0.00
2021-12-27 15:50:37;4.23;34;38.40;0;0.00
2021-12-27 15:55:37;4.23;32;39.20;0;0.00
2021-12-27 16:00:34;4.22;33;40.30;0;0.00
2021-12-27 16:05:35;4.23;32;38.80;0;1.20
2021-12-27 16:10:36;4.23;31;38.90;0;0.00
2021-12-27 16:15:37;4.23;32;39.10;0;0.00
2021-12-27 16:20:38;4.23;31;38.90;0;1.60
2021-12-27 16:25:34;4.23;32;38.60;0;1.10
2021-12-27 16:30:35;4.23;34;38.70;0;1.90
2021-12-27 16:35:36;4.23;31;38.60;0;1.20
2021-12-27 16:40:37;4.23;32;39.40;0;0.00
2021-12-27 16:45:33;4.23;32;39.70;0;0.00
2021-12-27 16:50:34;4.23;34;38.20;0;1.80
2021-12-27 16:55:35;4.23;33;38.50;0;1.40
2021-12-27 17:00:36;4.23;31;38.50;0;0.00
2021-12-27 17:05:37;4.23;32;38.30;0;0.00
2021-12-27 17:10:38;4.23;31;38.90;0;0.00
2021-12-27 17:15:34;4.23;30;39.50;0;0.00
2021-12-27 17:20:34;4.23;34;38.00;0;0.00
2021-12-27 17:25:35;4.23;32;38.70;0;0.00
2021-12-27 17:30:36;4.23;31;38.70;0;0.00
2021-12-27 17:35:37;4.23;33;38.80;0;0.00
2021-12-27 17:40:33;4.23;31;39.70;0;0.00
2021-12-27 17:45:38;4.23;31;39.80;0;1.50
2021-12-27 17:50:35;4.23;32;38.10;0;1.10
2021-12-27 17:55:35;4.23;30;39.80;0;0.00
2021-12-27 18:00:36;4.23;36;37.80;0;1.30
2021-12-27 18:05:37;4.23;37;37.60;0;0.00
2021-12-27 18:10:37;4.23;34;38.10;0;0.00
2021-12-27 18:15:33;4.23;31;39.50;0;0.00
2021-12-27 18:20:34;4.23;33;38.60;0;0.00
2021-12-27 18:25:35;4.23;31;38.20;0;0.00
2021-12-27 18:30:35;4.23;32;38.40;0;0.00
2021-12-27 18:35:36;4.23;35;39.20;0;0.00
2021-12-27 18:40:36;4.23;33;39.70;0;0.00
2021-12-27 18:45:37;4.23;33;40.40;0;0.00
2021-12-27 18:50:37;4.23;38;40.00;0;0.00
2021-12-27 18:55:33;4.23;33;39.30;0;0.00
2021-12-27 19:00:34;4.23;34;39.60;0;0.00
2021-12-27 19:05:34;4.23;34;40.10;0;0.00
2021-12-27 19:10:35;4.23;37;38.50;0;0.00
2021-12-27 19:15:35;4.23;40;37.50;0;0.00
2021-12-27 19:20:36;4.23;42;37.80;0;0.00
2021-12-27 19:25:36;4.23;41;37.00;0;0.00
2021-12-27 19:30:36;4.23;41;36.90;0;0.00
2021-12-27 19:35:32;4.23;42;37.00;0;0.00
2021-12-27 19:40:36;4.23;43;35.80;0;0.00
2021-12-27 19:45:36;4.23;48;33.50;0;0.00
2021-12-27 19:50:36;4.22;47;32.60;0;0.00
2021-12-27 19:55:31;4.22;44;32.60;0;0.00
2021-12-27 20:00:36;4.22;49;32.00;0;0.00
2021-12-27 20:05:35;4.22;51;31.50;0;0.00
2021-12-27 20:10:34;4.22;48;30.50;0;0.00
2021-12-27 20:15:34;4.22;47;30.60;0;0.00
2021-12-27 20:20:33;4.22;51;29.40;0;0.00
2021-12-27 20:25:37;4.22;49;28.80;0;0.00
2021-12-27 20:30:35;4.22;48;29.30;0;0.00
2021-12-27 20:35:34;4.21;50;28.80;0;0.00
2021-12-27 20:40:33;4.22;50;29.20;0;0.00
2021-12-27 20:45:32;4.21;50;29.00;0;0.00
2021-12-27 20:50:35;4.21;49;29.00;0;0.00
2021-12-27 20:55:34;4.21;48;29.40;0;0.00
2021-12-27 21:00:33;4.21;52;28.70;0;0.00
2021-12-27 21:05:36;4.21;56;26.90;0;0.00
2021-12-27 21:10:34;4.21;55;26.60;0;0.00
2021-12-27 21:15:33;4.21;56;26.50;0;0.00
2021-12-27 21:20:36;4.20;54;26.80;0;0.00
2021-12-27 21:25:34;4.21;53;27.50;0;0.00
2021-12-27 21:30:32;4.20;52;27.50;0;0.00
2021-12-27 21:35:31;4.20;53;27.20;0;0.00
2021-12-27 21:40:34;4.20;52;27.30;0;0.00
2021-12-27 21:45:32;4.20;57;25.90;0;0.00
2021-12-27 21:50:35;4.20;58;25.40;0;0.00
2021-12-27 21:55:33;4.20;58;25.10;0;0.00
2021-12-27 22:00:32;4.20;59;25.10;0;0.00
2021-12-27 22:05:34;4.20;57;25.50;0;0.00
2021-12-27 22:10:33;4.20;57;25.60;0;0.00
2021-12-27 22:15:31;4.20;63;24.80;0;0.00
2021-12-27 22:20:33;4.20;62;24.30;0;0.00
2021-12-27 22:25:31;4.20;65;24.10;0;0.00
2021-12-27 22:30:34;4.20;62;24.30;0;0.00
2021-12-27 22:35:32;4.20;62;24.20;0;0.00
2021-12-27 22:40:35;4.19;60;24.30;0;0.00
2021-12-27 22:45:33;4.19;62;24.00;0;0.00
2021-12-27 22:50:31;4.19;59;24.00;0;0.00
2021-12-27 22:55:33;4.19;59;24.00;0;0.00
2021-12-27 23:00:31;4.19;60;24.40;0;0.00
2021-12-27 23:05:34;4.19;64;23.70;0;0.00
2021-12-27 23:10:32;4.19;63;23.30;0;0.00
2021-12-27 23:15:34;4.19;67;23.20;0;0.00
2021-12-27 23:20:32;4.19;68;22.50;0;0.00
2021-12-27 23:25:34;4.19;69;22.20;0;0.00
2021-12-27 23:30:32;4.19;66;23.10;0;0.00
2021-12-27 23:35:34;4.18;67;23.00;0;0.00
2021-12-27 23:40:32;4.18;64;23.50;0;0.00
2021-12-27 23:45:35;4.19;63;23.50;0;0.00
2021-12-27 23:50:32;4.18;68;22.70;0;0.00
2021-12-27 23:55:35;4.18;70;21.90;0;0.00
