2021-12-22 00:00:31;4.18;80;23.70;0;0.00
2021-12-22 00:05:34;4.18;80;23.70;0;0.00
2021-12-22 00:10:31;4.18;80;23.60;0;0.00
2021-12-22 00:15:34;4.18;80;23.60;0;0.00
2021-12-22 00:20:32;4.18;80;23.80;0;0.00
2021-12-22 00:25:34;4.18;80;23.30;0;0.00
2021-12-22 00:30:32;4.18;80;23.00;0;0.00
2021-12-22 00:35:35;4.18;80;23.10;0;0.00
2021-12-22 00:40:32;4.18;80;23.40;0;0.00
2021-12-22 00:45:30;4.18;80;23.50;0;0.00
2021-12-22 00:50:33;4.18;80;23.40;0;0.00
2021-12-22 00:55:35;4.18;80;23.50;0;0.00
2021-12-22 01:00:33;4.18;80;23.60;0;0.00
2021-12-22 01:05:31;4.18;80;23.40;0;0.00
2021-12-22 01:10:33;4.18;80;23.40;0;0.00
2021-12-22 01:15:31;4.18;80;23.50;0;0.00
2021-12-22 01:20:34;4.18;80;23.50;0;1.10
2021-12-22 01:25:32;4.18;80;23.70;0;0.00
2021-12-22 01:30:34;4.18;80;23.50;0;0.00
2021-12-22 01:35:32;4.18;80;23.50;0;0.00
2021-12-22 01:40:34;4.18;80;23.50;0;0.00
2021-12-22 01:45:32;4.18;80;23.50;0;0.00
2021-12-22 01:50:35;4.18;79;23.50;0;0.00
2021-12-22 01:55:33;4.18;79;23.60;0;0.00
2021-12-22 02:00:30;4.18;79;23.70;0;0.00
2021-12-22 02:05:33;4.18;79;23.50;0;0.00
2021-12-22 02:10:35;4.18;79;23.50;0;1.20
2021-12-22 02:15:33;4.18;79;23.50;0;0.00
2021-12-22 02:20:31;4.18;79;23.50;0;0.00
2021-12-22 02:25:34;4.18;79;23.50;0;0.00
2021-12-22 02:30:31;4.18;79;23.50;0;0.00
2021-12-22 02:35:34;4.17;79;23.30;0;0.00
2021-12-22 02:40:32;4.18;79;23.40;0;1.10
2021-12-22 02:45:34;4.17;79;23.20;0;0.00
2021-12-22 02:50:32;4.17;79;23.00;0;0.00
2021-12-22 02:55:34;4.17;78;22.90;0;0.00
2021-12-22 03:00:32;4.17;78;22.90;0;0.00
2021-12-22 03:05:35;4.17;78;22.90;0;0.00
2021-12-22 03:10:32;4.17;78;22.70;0;0.00
2021-12-22 03:15:30;4.17;77;22.70;0;0.00
2021-12-22 03:20:33;4.17;77;22.60;0;0.00
2021-12-22 03:25:35;4.17;77;22.70;0;0.00
2021-12-22 03:30:33;4.17;77;22.80;0;0.00
2021-12-22 03:35:31;4.17;77;22.80;0;0.00
2021-12-22 03:40:33;4.17;77;22.70;0;0.00
2021-12-22 03:45:35;4.17;78;22.90;0;1.50
2021-12-22 03:50:33;4.17;78;22.80;0;1.30
2021-12-22 03:55:31;4.17;77;22.60;0;0.00
2021-12-22 04:00:33;4.17;77;22.50;0;0.00
2021-12-22 04:05:31;4.17;77;22.70;0;0.00
2021-12-22 04:10:33;4.17;77;22.70;0;1.40
2021-12-22 04:15:31;4.17;77;22.70;0;0.00
2021-12-22 04:20:34;4.17;77;22.60;0;0.00
2021-12-22 04:25:31;4.17;77;22.60;0;0.00
2021-12-22 04:30:34;4.17;77;22.50;0;0.00
2021-12-22 04:35:32;4.17;77;22.60;0;0.00
2021-12-22 04:40:34;4.17;77;22.60;0;0.00
2021-12-22 04:45:32;4.17;77;22.60;0;1.40
2021-12-22 04:50:34;4.17;76;22.60;0;0.00
2021-12-22 04:55:32;4.17;76;22.50;0;0.00
2021-12-22 05:00:34;4.17;75;22.40;0;1.10
2021-12-22 05:05:32;4.17;75;22.40;0;0.00
2021-12-22 05:10:34;4.17;74;22.20;0;0.00
2021-12-22 05:15:32;4.17;74;22.30;0;0.00
2021-12-22 05:20:34;4.17;74;22.30;0;1.10
2021-12-22 05:25:32;4.17;73;22.20;0;1.20
2021-12-22 05:30:30;4.17;72;22.20;0;0.00
2021-12-22 05:35:32;4.16;70;22.10;0;1.10
2021-12-22 05:40:35;4.16;68;21.90;0;1.50
2021-12-22 05:45:32;4.16;67;21.90;0;0.00
2021-12-22 05:50:30;4.16;66;21.90;0;1.20
2021-12-22 05:55:32;4.16;66;21.80;0;0.00
2021-12-22 06:00:35;4.16;65;21.70;0;0.00
2021-12-22 06:05:32;4.16;64;21.70;0;0.00
2021-12-22 06:10:30;4.16;64;21.60;0;0.00
2021-12-22 06:15:32;4.16;63;21.50;0;1.70
2021-12-22 06:20:34;4.16;64;21.50;0;0.00
2021-12-22 06:25:32;4.16;65;21.50;0;1.10
2021-12-22 06:30:30;4.16;67;21.50;0;0.00
2021-12-22 06:35:32;4.16;67;21.60;0;0.00
2021-12-22 06:40:34;4.16;69;21.60;0;1.60
2021-12-22 06:45:32;4.16;72;21.70;0;1.30
2021-12-22 06:50:34;4.16;74;21.90;0;1.20
2021-12-22 06:55:32;4.16;76;22.00;0;1.50
2021-12-22 07:00:34;4.16;76;22.30;0;0.00
2021-12-22 07:05:32;4.16;77;22.30;0;1.30
2021-12-22 07:10:34;4.17;78;22.40;0;2.00
2021-12-22 07:15:32;4.17;78;22.80;0;1.20
2021-12-22 07:20:35;4.17;78;22.80;0;2.19
2021-12-22 07:25:33;4.17;78;22.80;0;1.80
2021-12-22 07:30:35;4.17;78;22.50;0;0.00
2021-12-22 07:35:33;4.17;78;22.40;0;1.90
2021-12-22 07:40:35;4.17;78;22.40;0;1.30
2021-12-22 07:45:33;4.17;79;22.80;0;1.90
2021-12-22 07:50:31;4.17;78;22.70;0;1.10
2021-12-22 07:55:34;4.17;78;23.00;0;1.20
2021-12-22 08:00:32;4.18;78;23.00;0;1.60
2021-12-22 08:05:34;4.18;78;23.00;0;1.60
2021-12-22 08:10:32;4.18;78;23.10;0;1.20
2021-12-22 08:15:35;4.18;78;23.20;0;1.80
2021-12-22 08:20:33;4.18;78;23.50;0;1.10
2021-12-22 08:25:31;4.18;78;23.70;0;1.40
2021-12-22 08:30:34;4.18;78;23.90;0;0.00
2021-12-22 08:35:32;4.18;78;23.90;0;1.30
2021-12-22 08:40:34;4.18;78;24.00;0;0.00
2021-12-22 08:45:33;4.18;77;24.20;0;0.00
2021-12-22 08:50:35;4.18;77;24.60;0;0.00
2021-12-22 08:55:34;4.18;77;24.60;0;0.00
2021-12-22 09:00:32;4.18;77;24.90;0;0.00
2021-12-22 09:05:35;4.19;77;25.00;0;0.00
2021-12-22 09:10:33;4.19;76;25.70;0;1.40
2021-12-22 09:15:36;4.19;76;25.80;0;1.30
2021-12-22 09:20:34;4.19;77;25.70;0;0.00
2021-12-22 09:25:33;4.19;76;25.80;0;0.00
2021-12-22 09:30:36;4.19;76;26.20;0;0.00
2021-12-22 09:35:34;4.19;75;26.70;0;0.00
2021-12-22 09:40:33;4.19;75;26.80;0;0.00
2021-12-22 09:45:36;4.19;74;27.60;0;1.10
2021-12-22 09:50:35;4.19;72;29.00;0;0.00
2021-12-22 09:55:34;4.19;71;29.80;0;0.00
2021-12-22 10:00:33;4.19;74;28.50;0;0.00
2021-12-22 10:05:36;4.19;71;29.60;0;0.00
2021-12-22 10:10:35;4.19;72;29.40;0;1.80
2021-12-22 10:15:34;4.19;71;30.90;0;0.00
2021-12-22 10:20:34;4.20;70;31.10;0;0.00
2021-12-22 10:25:33;4.20;70;31.20;0;0.00
2021-12-22 10:30:37;4.20;69;31.90;0;0.00
2021-12-22 10:35:36;4.20;69;32.10;0;0.00
2021-12-22 10:40:31;4.20;66;32.90;0;0.00
2021-12-22 10:45:36;4.20;65;33.30;0;0.00
2021-12-22 10:50:35;4.20;66;32.60;0;0.00
2021-12-22 10:55:35;4.20;66;32.90;0;0.00
2021-12-22 11:00:35;4.20;67;32.10;0;0.00
2021-12-22 11:05:34;4.20;68;32.50;0;1.10
2021-12-22 11:10:34;4.20;66;33.30;0;1.30
2021-12-22 11:15:34;4.20;65;33.10;0;1.30
2021-12-22 11:20:34;4.20;63;33.70;0;1.40
2021-12-22 11:25:34;4.20;61;34.20;0;0.00
2021-12-22 11:30:34;4.21;61;34.20;0;1.20
2021-12-22 11:35:34;4.20;63;33.60;0;0.00
2021-12-22 11:40:34;4.21;63;34.00;0;0.00
2021-12-22 11:45:34;4.21;60;33.70;0;0.00
2021-12-22 11:50:34;4.21;61;33.90;0;0.00
2021-12-22 11:55:34;4.21;60;34.10;0;1.80
2021-12-22 12:00:34;4.21;58;35.40;0;0.00
2021-12-22 12:05:34;4.21;56;35.20;0;1.40
2021-12-22 12:10:35;4.21;58;34.60;0;1.10
2021-12-22 12:15:35;4.21;58;34.60;0;0.00
2021-12-22 12:20:35;4.21;60;33.80;0;0.00
2021-12-22 12:25:35;4.21;60;33.90;0;0.00
2021-12-22 12:30:36;4.21;55;34.50;0;0.00
2021-12-22 12:35:36;4.21;55;34.90;0;1.20
2021-12-22 12:40:36;4.21;53;36.20;0;0.00
2021-12-22 12:45:36;4.21;54;35.80;0;0.00
2021-12-22 12:50:37;4.21;57;35.20;0;0.00
2021-12-22 12:55:33;4.21;55;35.70;0;0.00
2021-12-22 13:00:38;4.21;55;35.40;0;0.00
2021-12-22 13:05:34;4.21;54;36.00;0;0.00
2021-12-22 13:10:34;4.21;54;36.10;0;0.00
2021-12-22 13:15:35;4.21;55;36.00;0;1.20
2021-12-22 13:20:35;4.21;52;36.60;0;0.00
2021-12-22 13:25:36;4.21;52;36.20;0;1.10
2021-12-22 13:30:37;4.21;53;35.00;0;0.00
2021-12-22 13:35:37;4.22;54;35.30;0;1.30
2021-12-22 13:40:33;4.21;55;35.50;0;0.00
2021-12-22 13:45:34;4.22;54;34.90;0;1.60
2021-12-22 13:50:35;4.22;53;35.50;0;1.30
2021-12-22 13:55:35;4.22;51;36.00;0;0.00
2021-12-22 14:00:36;4.22;52;36.90;0;1.50
2021-12-22 14:05:36;4.22;52;35.10;0;0.00
2021-12-22 14:10:32;4.22;52;35.90;0;2.00
2021-12-22 14:15:37;4.22;53;34.80;0;0.00
2021-12-22 14:20:33;4.22;51;36.10;0;1.90
2021-12-22 14:25:34;4.22;50;37.40;0;0.00
2021-12-22 14:30:34;4.22;52;35.10;0;0.00
2021-12-22 14:35:35;4.22;52;36.20;0;0.00
2021-12-22 14:40:35;4.22;51;35.50;0;0.00
2021-12-22 14:45:36;4.22;52;35.70;0;0.00
2021-12-22 14:50:36;4.22;53;34.90;0;0.00
2021-12-22 14:55:37;4.22;52;35.80;0;0.00
2021-12-22 15:00:37;4.22;52;35.90;0;0.00
2021-12-22 15:05:33;4.22;54;36.10;0;0.00
2021-12-22 15:10:34;4.22;53;36.00;0;0.00
2021-12-22 15:15:34;4.22;52;35.30;0;0.00
2021-12-22 15:20:35;4.22;54;35.70;0;0.00
2021-12-22 15:25:35;4.22;53;36.90;0;0.00
2021-12-22 15:30:36;4.22;51;36.10;0;2.69
2021-12-22 15:35:36;4.22;51;36.00;0;1.90
2021-12-22 15:40:37;4.22;51;36.20;0;0.00
2021-12-22 15:45:33;4.22;53;35.90;0;1.80
2021-12-22 15:50:38;4.22;51;36.10;0;0.00
2021-12-22 15:55:34;4.22;51;36.50;0;0.00
2021-12-22 16:00:34;4.22;53;36.70;0;0.00
2021-12-22 16:05:35;4.22;50;37.40;0;0.00
2021-12-22 16:10:35;4.22;51;36.00;0;1.70
2021-12-22 16:15:36;4.22;50;36.00;0;1.10
2021-12-22 16:20:36;4.22;50;37.00;0;0.00
2021-12-22 16:25:32;4.23;49;36.50;0;2.29
2021-12-22 16:30:37;4.22;50;35.80;0;0.00
2021-12-22 16:35:33;4.22;50;36.00;0;1.50
2021-12-22 16:40:34;4.22;52;37.00;0;0.00
2021-12-22 16:45:34;4.22;49;36.80;0;1.20
2021-12-22 16:50:35;4.22;49;36.60;0;0.00
2021-12-22 16:55:35;4.22;50;36.40;0;1.40
2021-12-22 17:00:35;4.23;48;36.50;0;0.00
2021-12-22 17:05:36;4.22;49;36.20;0;0.00
2021-12-22 17:10:36;4.23;48;36.00;0;2.00
2021-12-22 17:15:37;4.22;49;35.90;0;1.20
2021-12-22 17:20:33;4.23;49;35.60;0;1.30
2021-12-22 17:25:37;4.23;50;35.50;0;0.00
2021-12-22 17:30:33;4.23;51;36.30;0;0.00
2021-12-22 17:35:33;4.23;52;36.50;0;0.00
2021-12-22 17:40:34;4.23;53;35.60;0;1.30
2021-12-22 17:45:34;4.23;54;35.60;0;0.00
2021-12-22 17:50:34;4.23;54;35.30;0;1.30
2021-12-22 17:55:35;4.23;55;35.40;0;1.90
2021-12-22 18:00:35;4.23;56;35.10;0;2.19
2021-12-22 18:05:35;4.23;57;34.70;0;0.00
2021-12-22 18:10:35;4.23;57;34.60;0;1.20
2021-12-22 18:15:35;4.23;57;34.40;0;0.00
2021-12-22 18:20:35;4.23;58;34.60;0;1.10
2021-12-22 18:25:36;4.23;58;34.10;0;0.00
2021-12-22 18:30:35;4.23;58;34.00;0;1.30
2021-12-22 18:35:35;4.23;58;33.50;0;0.00
2021-12-22 18:40:35;4.23;58;33.50;0;0.00
2021-12-22 18:45:35;4.23;59;33.50;0;1.20
2021-12-22 18:50:35;4.23;59;33.60;0;0.00
2021-12-22 18:55:35;4.23;58;33.20;0;0.00
2021-12-22 19:00:35;4.22;58;33.10;0;0.00
2021-12-22 19:05:34;4.22;58;33.00;0;0.00
2021-12-22 19:10:34;4.22;59;32.90;0;0.00
2021-12-22 19:15:34;4.22;60;32.50;0;0.00
2021-12-22 19:20:33;4.22;61;32.00;0;0.00
2021-12-22 19:25:33;4.22;61;31.60;0;0.00
2021-12-22 19:30:37;4.22;61;31.80;0;0.00
2021-12-22 19:35:32;4.22;62;31.60;0;0.00
2021-12-22 19:40:36;4.22;62;31.30;0;0.00
2021-12-22 19:45:35;4.22;63;30.90;0;0.00
2021-12-22 19:50:34;4.22;64;30.60;0;0.00
2021-12-22 19:55:34;4.22;64;30.30;0;0.00
2021-12-22 20:00:33;4.22;65;30.00;0;0.00
2021-12-22 20:05:36;4.22;66;29.90;0;0.00
2021-12-22 20:10:35;4.22;67;29.50;0;0.00
2021-12-22 20:15:34;4.21;68;29.20;0;0.00
2021-12-22 20:20:33;4.21;68;29.10;0;0.00
2021-12-22 20:25:32;4.21;68;28.90;0;0.00
2021-12-22 20:30:36;4.21;69;28.80;0;0.00
2021-12-22 20:35:34;4.21;69;28.60;0;0.00
2021-12-22 20:40:33;4.21;68;28.70;0;1.20
2021-12-22 20:45:36;4.21;69;28.60;0;0.00
2021-12-22 20:50:35;4.21;69;28.50;0;1.10
2021-12-22 20:55:34;4.21;69;28.40;0;0.00
2021-12-22 21:00:32;4.21;69;28.30;0;0.00
2021-12-22 21:05:35;4.21;68;28.30;0;0.00
2021-12-22 21:10:34;4.21;68;28.10;0;1.60
2021-12-22 21:15:33;4.21;69;28.00;0;0.00
2021-12-22 21:20:36;4.20;69;27.80;0;0.00
2021-12-22 21:25:34;4.20;69;27.70;0;0.00
2021-12-22 21:30:33;4.20;69;27.60;0;0.00
2021-12-22 21:35:31;4.20;69;27.50;0;0.00
2021-12-22 21:40:34;4.20;69;27.40;0;0.00
2021-12-22 21:45:33;4.20;70;27.20;0;0.00
2021-12-22 21:50:36;4.20;70;27.00;0;0.00
2021-12-22 21:55:34;4.20;71;26.80;0;0.00
2021-12-22 22:00:33;4.20;71;26.50;0;0.00
2021-12-22 22:05:36;4.20;72;26.40;0;0.00
2021-12-22 22:10:34;4.20;71;26.40;0;0.00
2021-12-22 22:15:32;4.20;72;26.20;0;0.00
2021-12-22 22:20:35;4.20;72;25.90;0;0.00
2021-12-22 22:25:33;4.20;73;25.70;0;0.00
2021-12-22 22:30:32;4.20;73;25.50;0;0.00
2021-12-22 22:35:35;4.20;74;25.20;0;0.00
2021-12-22 22:40:33;4.20;74;25.00;0;0.00
2021-12-22 22:45:35;4.20;75;24.60;0;0.00
2021-12-22 22:50:34;4.19;76;24.40;0;0.00
2021-12-22 22:55:32;4.19;76;24.30;0;0.00
2021-12-22 23:00:34;4.19;76;24.10;0;0.00
2021-12-22 23:05:32;4.19;77;23.90;0;0.00
2021-12-22 23:10:30;4.19;77;23.70;0;0.00
2021-12-22 23:15:33;4.19;77;23.50;0;0.00
2021-12-22 23:20:36;4.19;77;23.50;0;0.00
2021-12-22 23:25:33;4.19;78;23.40;0;0.00
2021-12-22 23:30:31;4.19;78;23.20;0;0.00
2021-12-22 23:35:34;4.19;78;23.20;0;0.00
2021-12-22 23:40:32;4.19;77;23.30;0;0.00
2021-12-22 23:45:34;4.19;78;23.20;0;0.00
2021-12-22 23:50:32;4.18;78;23.10;0;0.00
2021-12-22 23:55:34;4.18;78;22.80;0;0.00
