2021-08-12 00:04:12;4.10;159.03;76;2.90
2021-08-12 00:34:12;4.10;157.26;80;0.90
2021-08-12 01:04:12;4.10;156.93;75;1.70
2021-08-12 01:34:12;4.10;156.61;67;0.70
2021-08-12 02:04:12;4.10;158.38;65;0.60
2021-08-12 02:34:11;4.10;158.71;66;1.30
2021-08-12 03:04:11;4.10;159.03;77;0.20
2021-08-12 03:34:11;4.10;160.00;51;0.00
2021-08-12 04:04:10;4.10;158.71;36;-0.20
2021-08-12 04:34:09;4.10;159.67;55;0.60
2021-08-12 05:04:12;4.10;159.03;39;0.60
2021-08-12 05:34:11;4.10;158.71;46;-0.60
2021-08-12 06:04:10;4.10;158.22;48;-0.80
2021-08-12 06:34:09;4.10;156.61;47;-1.30
2021-08-12 07:04:12;4.10;158.38;49;-1.90
2021-08-12 07:34:10;4.09;157.58;34;-0.90
2021-08-12 08:04:09;4.10;157.58;47;-1.50
2021-08-12 08:34:12;4.10;159.35;80;1.00
2021-08-12 09:04:12;4.10;159.35;99;4.80
2021-08-12 09:34:15;4.10;158.38;99;8.00
2021-08-12 10:04:17;4.10;158.22;92;12.90
2021-08-12 10:34:21;4.11;158.22;83;13.70
2021-08-12 11:04:22;4.11;158.22;74;16.00
2021-08-12 11:34:20;4.11;158.71;79;14.50
2021-08-12 12:04:22;4.11;158.38;68;15.80
2021-08-12 12:34:21;4.11;156.61;72;15.80
2021-08-12 13:04:20;4.11;156.93;70;16.10
2021-08-12 13:34:24;4.12;159.35;69;16.80
2021-08-12 14:04:23;4.12;158.71;72;15.80
2021-08-12 14:34:21;4.12;160.96;71;15.70
2021-08-12 15:04:23;4.12;161.61;69;16.60
2021-08-12 15:34:22;4.12;159.35;69;17.30
2021-08-12 16:04:21;4.12;159.03;71;17.30
2021-08-12 16:34:25;4.12;157.90;72;16.60
2021-08-12 17:04:23;4.12;159.67;73;16.30
2021-08-12 17:34:21;4.12;158.22;74;16.20
2021-08-12 18:04:19;4.12;160.32;80;15.00
2021-08-12 18:34:20;4.12;160.64;86;13.20
2021-08-12 19:04:20;4.12;159.35;93;11.90
2021-08-12 19:34:18;4.12;160.96;99;10.50
2021-08-12 20:04:15;4.11;159.03;99;9.40
2021-08-12 20:34:16;4.11;157.26;99;8.90
2021-08-12 21:04:16;4.11;158.38;99;8.10
2021-08-12 21:34:16;4.11;156.61;99;7.80
2021-08-12 22:04:15;4.11;158.71;99;7.60
2021-08-12 22:34:14;4.11;158.71;99;8.10
2021-08-12 23:04:13;4.11;159.03;97;4.90
2021-08-12 23:34:16;4.11;159.35;88;4.50
