2021-08-01 00:04:14;4.11;160.96;99;5.70
2021-08-01 00:34:11;4.11;161.28;99;2.40
2021-08-01 01:04:13;4.11;161.61;99;2.60
2021-08-01 01:34:14;4.11;161.61;99;2.50
2021-08-01 02:04:10;4.11;160.64;99;2.40
2021-08-01 02:34:11;4.10;161.93;99;1.80
2021-08-01 03:04:12;4.10;158.71;99;0.70
2021-08-01 03:34:12;4.10;160.32;99;1.90
2021-08-01 04:04:12;4.10;158.38;99;0.20
2021-08-01 04:34:12;4.10;158.38;99;-0.10
2021-08-01 05:04:11;4.10;158.71;99;1.10
2021-08-01 05:34:11;4.10;160.32;99;0.80
2021-08-01 06:04:11;4.10;159.03;99;0.80
2021-08-01 06:34:10;4.10;158.71;99;0.30
2021-08-01 07:04:10;4.10;160.64;99;0.60
2021-08-01 07:34:09;4.10;160.64;99;0.30
2021-08-01 08:04:09;4.10;159.35;99;0.20
2021-08-01 08:34:13;4.10;160.96;99;1.90
2021-08-01 09:04:14;4.10;161.28;99;4.90
2021-08-01 09:34:13;4.10;160.00;97;7.60
2021-08-01 10:04:19;4.11;160.00;89;10.80
2021-08-01 10:34:18;4.11;159.67;83;12.60
2021-08-01 11:04:19;4.11;159.03;76;14.40
2021-08-01 11:34:21;4.11;158.38;73;15.60
2021-08-01 12:04:23;4.11;158.22;67;17.60
2021-08-01 12:34:22;4.12;158.38;63;18.70
2021-08-01 13:04:23;4.12;158.38;59;18.80
2021-08-01 13:34:25;4.12;160.96;54;19.80
2021-08-01 14:04:26;4.12;160.32;56;19.60
2021-08-01 14:34:23;4.12;162.41;56;19.60
2021-08-01 15:04:25;4.12;160.00;53;19.80
2021-08-01 15:34:26;4.12;160.96;53;20.20
2021-08-01 16:04:23;4.12;159.03;54;20.20
2021-08-01 16:34:25;4.12;160.96;53;19.80
2021-08-01 17:04:26;4.12;161.28;53;19.50
2021-08-01 17:34:22;4.12;160.32;56;19.00
2021-08-01 18:04:22;4.12;161.93;66;16.60
2021-08-01 18:34:20;4.12;160.64;70;15.00
2021-08-01 19:04:21;4.12;160.96;74;13.90
2021-08-01 19:34:20;4.12;162.41;83;11.00
2021-08-01 20:04:17;4.12;162.41;89;9.20
2021-08-01 20:34:14;4.12;161.93;95;7.80
2021-08-01 21:04:14;4.12;159.03;97;7.40
2021-08-01 21:34:13;4.11;160.32;99;6.60
2021-08-01 22:04:16;4.11;160.00;99;5.30
2021-08-01 22:34:15;4.11;160.00;99;6.10
2021-08-01 23:04:13;4.11;159.03;99;7.30
2021-08-01 23:34:16;4.11;159.03;99;4.50
