2021-08-23 00:03:42;1;132;132;132;132;132;132;132;132;132;132;
2021-08-23 00:03:42;2;113;114;113;114;113;113;114;114;113;113;
2021-08-23 00:03:42;3;52;52;52;52;52;52;52;52;52;52;
2021-08-23 00:03:42;4;117;117;117;117;117;117;117;117;117;117;
2021-08-23 00:03:42;5;120;120;120;120;120;120;120;120;120;120;
2021-08-23 00:03:42;ht;99;4.30
2021-08-23 00:03:42;v;3.93
2021-08-23 00:33:40;1;129;129;129;129;129;129;129;129;129;129;
2021-08-23 00:33:40;2;1;1;1;2;1;1;1;2;1;1;
2021-08-23 00:33:40;3;53;53;53;53;53;53;53;53;53;53;
2021-08-23 00:33:40;4;126;125;125;125;125;125;126;125;125;125;
2021-08-23 00:33:40;5;119;119;119;119;119;119;119;119;119;119;
2021-08-23 00:33:40;ht;99;5.00
2021-08-23 00:33:40;v;3.92
2021-08-23 01:03:38;1;125;125;125;125;125;125;124;124;125;125;
2021-08-23 01:03:38;2;1;1;1;1;1;1;1;1;1;1;
2021-08-23 01:03:38;3;52;52;52;52;52;52;52;52;52;52;
2021-08-23 01:03:38;4;128;128;128;128;128;128;128;128;128;128;
2021-08-23 01:03:38;5;123;122;122;122;123;122;122;122;122;123;
2021-08-23 01:03:38;ht;99;4.20
2021-08-23 01:03:38;v;3.92
2021-08-23 01:33:41;1;127;127;127;127;127;127;127;127;127;127;
2021-08-23 01:33:41;2;124;124;124;123;124;124;124;123;124;123;
2021-08-23 01:33:41;3;53;53;52;52;53;53;52;52;53;52;
2021-08-23 01:33:41;4;126;126;126;126;126;126;126;126;126;126;
2021-08-23 01:33:41;5;121;121;121;121;121;121;121;121;120;120;
2021-08-23 01:33:41;ht;99;2.60
2021-08-23 01:33:41;v;3.92
2021-08-23 02:03:38;1;122;122;122;122;122;122;122;122;122;122;
2021-08-23 02:03:38;2;124;124;124;124;124;124;124;124;124;124;
2021-08-23 02:03:38;3;53;53;53;53;53;53;53;53;53;53;
2021-08-23 02:03:38;4;126;126;126;126;126;127;127;127;127;127;
2021-08-23 02:03:38;5;122;121;122;122;121;121;121;122;121;122;
2021-08-23 02:03:38;ht;99;3.20
2021-08-23 02:03:38;v;3.92
2021-08-23 02:33:41;1;125;125;125;125;125;125;125;125;125;125;
2021-08-23 02:33:41;2;1;1;1;1;1;1;1;1;1;1;
2021-08-23 02:33:41;3;53;53;53;53;53;53;53;53;53;53;
2021-08-23 02:33:41;4;123;124;123;124;123;124;123;124;123;124;
2021-08-23 02:33:41;5;121;121;121;121;121;121;121;121;121;121;
2021-08-23 02:33:41;ht;99;3.50
2021-08-23 02:33:41;v;3.92
2021-08-23 03:03:38;1;232;232;232;232;232;232;232;232;232;232;
2021-08-23 03:03:38;2;1;1;1;1;1;1;1;1;1;1;
2021-08-23 03:03:38;3;53;53;53;53;53;53;53;53;53;53;
2021-08-23 03:03:38;4;123;123;122;123;122;123;123;123;123;123;
2021-08-23 03:03:38;5;120;120;120;120;120;120;120;120;120;120;
2021-08-23 03:03:38;ht;99;3.30
2021-08-23 03:03:38;v;3.92
2021-08-23 03:33:41;1;129;128;128;128;128;128;128;128;128;128;
2021-08-23 03:33:41;2;1;1;1;1;1;1;1;1;1;1;
2021-08-23 03:33:41;3;53;53;53;53;53;54;54;53;54;53;
2021-08-23 03:33:41;4;120;120;120;120;120;120;121;121;121;121;
2021-08-23 03:33:41;5;127;128;128;127;127;127;127;128;128;127;
2021-08-23 03:33:41;ht;99;3.00
2021-08-23 03:33:41;v;3.92
2021-08-23 04:03:38;1;125;124;125;125;125;125;125;125;124;125;
2021-08-23 04:03:38;2;132;132;132;132;132;132;132;132;132;132;
2021-08-23 04:03:38;3;53;54;54;54;54;54;54;54;53;54;
2021-08-23 04:03:38;4;122;121;121;121;121;121;121;121;121;121;
2021-08-23 04:03:38;5;121;121;121;121;121;120;121;120;121;121;
2021-08-23 04:03:38;ht;99;2.90
2021-08-23 04:03:38;v;3.92
2021-08-23 04:33:40;1;132;132;132;132;132;132;132;132;132;132;
2021-08-23 04:33:40;2;117;117;117;117;117;117;117;117;117;117;
2021-08-23 04:33:40;3;53;53;53;54;53;53;53;53;54;54;
2021-08-23 04:33:40;4;122;122;122;122;122;123;122;122;122;122;
2021-08-23 04:33:40;5;122;122;122;123;123;122;122;122;122;122;
2021-08-23 04:33:40;ht;99;2.60
2021-08-23 04:33:40;v;3.92
2021-08-23 05:03:38;1;126;126;126;126;126;126;126;126;126;126;
2021-08-23 05:03:38;2;124;125;125;125;125;125;125;124;125;124;
2021-08-23 05:03:38;3;54;54;54;54;54;54;54;54;54;54;
2021-08-23 05:03:38;4;124;124;123;123;124;123;124;123;124;123;
2021-08-23 05:03:38;5;123;122;122;122;123;122;122;122;122;122;
2021-08-23 05:03:38;ht;99;2.80
2021-08-23 05:03:38;v;3.91
2021-08-23 05:33:39;1;124;125;124;124;124;124;124;124;124;124;
2021-08-23 05:33:39;2;123;122;123;123;123;123;123;123;123;123;
2021-08-23 05:33:39;3;54;54;54;54;54;54;54;54;54;54;
2021-08-23 05:33:39;4;123;122;122;122;122;122;122;122;122;122;
2021-08-23 05:33:39;5;123;123;122;122;123;123;123;123;123;123;
2021-08-23 05:33:39;ht;99;3.00
2021-08-23 05:33:39;v;3.92
2021-08-23 06:03:37;1;118;119;119;119;119;119;119;119;119;119;
2021-08-23 06:03:37;2;1;1;1;1;2;1;1;1;1;1;
2021-08-23 06:03:37;3;54;54;54;54;54;54;54;54;54;54;
2021-08-23 06:03:37;4;120;119;119;119;119;119;119;119;120;119;
2021-08-23 06:03:37;5;122;121;121;121;121;121;121;121;121;121;
2021-08-23 06:03:37;ht;99;4.20
2021-08-23 06:03:37;v;3.91
2021-08-23 06:33:39;1;122;122;121;122;122;122;122;122;121;122;
2021-08-23 06:33:39;2;114;113;113;113;113;113;114;113;113;113;
2021-08-23 06:33:39;3;53;53;53;53;53;53;53;53;53;53;
2021-08-23 06:33:39;4;114;114;114;114;114;114;114;115;114;115;
2021-08-23 06:33:39;5;120;120;120;120;120;120;120;120;120;120;
2021-08-23 06:33:39;ht;99;4.50
2021-08-23 06:33:39;v;3.92
2021-08-23 07:03:38;1;124;124;124;124;124;124;124;124;124;124;
2021-08-23 07:03:38;2;1;2;1;2;1;2;1;1;1;2;
2021-08-23 07:03:38;3;53;52;52;52;52;53;52;53;52;52;
2021-08-23 07:03:38;4;121;121;121;121;121;121;121;121;122;122;
2021-08-23 07:03:38;5;127;128;128;128;127;127;127;128;127;127;
2021-08-23 07:03:38;ht;99;3.60
2021-08-23 07:03:38;v;3.92
2021-08-23 07:33:40;1;121;121;121;121;121;121;120;121;121;121;
2021-08-23 07:33:40;2;1;1;1;1;1;1;1;1;1;1;
2021-08-23 07:33:40;3;53;53;53;53;53;53;53;53;53;53;
2021-08-23 07:33:40;4;128;128;128;128;128;128;128;128;128;128;
2021-08-23 07:33:40;5;129;129;129;128;128;128;128;128;128;128;
2021-08-23 07:33:40;ht;99;3.40
2021-08-23 07:33:40;v;3.92
2021-08-23 08:03:38;1;122;122;122;122;122;122;122;122;122;122;
2021-08-23 08:03:38;2;1;2;1;1;1;1;1;1;1;1;
2021-08-23 08:03:38;3;54;53;53;54;54;53;53;53;53;54;
2021-08-23 08:03:38;4;121;121;121;121;121;122;122;122;121;122;
2021-08-23 08:03:38;5;124;123;124;123;123;124;123;124;123;123;
2021-08-23 08:03:38;ht;99;4.60
2021-08-23 08:03:38;v;3.91
2021-08-23 08:33:42;1;126;126;126;126;126;126;126;126;126;126;
2021-08-23 08:33:42;2;113;112;113;112;113;112;112;112;112;112;
2021-08-23 08:33:42;3;52;52;52;52;52;52;52;52;52;52;
2021-08-23 08:33:42;4;116;116;116;116;117;117;117;117;117;117;
2021-08-23 08:33:42;5;125;125;125;125;125;125;125;125;125;125;
2021-08-23 08:33:42;ht;99;7.10
2021-08-23 08:33:42;v;3.92
2021-08-23 09:03:42;1;126;126;126;126;126;126;126;126;126;126;
2021-08-23 09:03:42;2;115;115;115;115;114;114;114;114;114;114;
2021-08-23 09:03:42;3;49;49;49;49;49;49;49;49;49;49;
2021-08-23 09:03:42;4;122;122;122;122;122;122;122;122;122;122;
2021-08-23 09:03:42;5;118;118;118;118;118;118;118;118;118;119;
2021-08-23 09:03:42;ht;99;10.10
2021-08-23 09:03:42;v;3.93
2021-08-23 09:33:44;1;122;122;122;122;122;122;122;122;122;122;
2021-08-23 09:33:44;2;121;121;121;121;121;121;121;121;121;121;
2021-08-23 09:33:44;3;47;47;47;47;47;47;47;47;47;47;
2021-08-23 09:33:44;4;124;124;123;123;124;124;123;123;123;124;
2021-08-23 09:33:44;5;117;118;117;117;117;117;117;117;117;117;
2021-08-23 09:33:44;ht;95;11.70
2021-08-23 09:33:44;v;3.92
2021-08-23 10:03:42;1;121;121;121;121;121;121;121;121;121;121;
2021-08-23 10:03:42;2;115;115;115;115;115;115;114;115;114;114;
2021-08-23 10:03:42;3;46;46;46;46;46;46;46;46;46;46;
2021-08-23 10:03:42;4;118;119;119;119;119;119;119;118;118;118;
2021-08-23 10:03:42;5;117;117;117;117;117;117;117;117;117;117;
2021-08-23 10:03:42;ht;90;13.30
2021-08-23 10:03:42;v;3.92
2021-08-23 10:33:47;1;121;121;121;121;121;120;121;121;121;121;
2021-08-23 10:33:47;2;1;1;1;1;2;2;1;2;2;2;
2021-08-23 10:33:47;3;45;45;45;45;45;45;45;45;45;45;
2021-08-23 10:33:47;4;118;118;117;117;118;118;118;118;118;118;
2021-08-23 10:33:47;5;123;123;123;123;123;123;123;123;123;123;
2021-08-23 10:33:47;ht;74;15.30
2021-08-23 10:33:47;v;3.93
2021-08-23 11:03:44;1;114;114;114;113;114;114;114;114;114;114;
2021-08-23 11:03:44;2;116;116;116;116;116;116;116;116;116;116;
2021-08-23 11:03:44;3;44;44;44;44;44;44;44;44;44;44;
2021-08-23 11:03:44;4;132;132;132;132;132;132;132;132;132;132;
2021-08-23 11:03:44;5;123;122;122;122;123;122;122;122;122;123;
2021-08-23 11:03:44;ht;70;16.40
2021-08-23 11:03:44;v;3.92
2021-08-23 11:33:47;1;121;121;121;121;121;121;121;121;121;121;
2021-08-23 11:33:47;2;125;125;125;125;125;125;125;125;125;125;
2021-08-23 11:33:47;3;43;43;44;44;44;43;44;44;44;44;
2021-08-23 11:33:47;4;123;123;123;123;123;123;123;123;123;123;
2021-08-23 11:33:47;5;118;118;119;119;118;118;118;118;118;118;
2021-08-23 11:33:47;ht;56;18.00
2021-08-23 11:33:47;v;3.92
2021-08-23 12:03:51;1;117;117;117;117;117;117;117;117;117;117;
2021-08-23 12:03:51;2;114;114;114;114;114;114;114;114;114;114;
2021-08-23 12:03:51;3;43;43;43;43;43;43;43;43;43;43;
2021-08-23 12:03:51;4;121;121;121;121;121;121;121;121;121;121;
2021-08-23 12:03:51;5;123;123;123;123;123;123;123;123;123;123;
2021-08-23 12:03:51;ht;50;18.50
2021-08-23 12:03:51;v;3.93
2021-08-23 12:33:51;1;114;114;114;114;114;114;114;114;114;114;
2021-08-23 12:33:51;2;116;116;116;116;116;116;116;116;116;116;
2021-08-23 12:33:51;3;42;43;43;43;42;42;42;43;43;42;
2021-08-23 12:33:51;4;120;120;120;120;120;120;120;120;120;120;
2021-08-23 12:33:51;5;119;119;119;119;119;119;119;119;119;120;
2021-08-23 12:33:51;ht;52;18.80
2021-08-23 12:33:51;v;3.93
2021-08-23 13:03:51;1;122;122;122;122;122;122;122;122;122;122;
2021-08-23 13:03:51;2;106;106;106;106;106;106;106;106;105;105;
2021-08-23 13:03:51;3;42;42;42;42;42;42;42;42;42;42;
2021-08-23 13:03:51;4;122;122;122;122;122;122;122;122;122;122;
2021-08-23 13:03:51;5;122;122;122;122;122;122;122;122;122;123;
2021-08-23 13:03:51;ht;50;19.70
2021-08-23 13:03:51;v;3.92
2021-08-23 13:33:48;1;119;119;119;119;119;119;119;119;119;119;
2021-08-23 13:33:48;2;101;102;102;101;101;101;102;101;101;101;
2021-08-23 13:33:48;3;42;42;42;42;42;41;42;42;42;41;
2021-08-23 13:33:48;4;119;119;119;119;119;119;119;119;119;119;
2021-08-23 13:33:48;5;116;116;117;117;117;117;117;117;117;117;
2021-08-23 13:33:48;ht;52;19.90
2021-08-23 13:33:48;v;3.92
2021-08-23 14:03:49;1;121;121;121;121;121;121;121;121;121;121;
2021-08-23 14:03:49;2;117;116;117;117;117;116;117;117;116;117;
2021-08-23 14:03:49;3;41;41;41;41;41;41;41;41;41;41;
2021-08-23 14:03:49;4;116;116;116;116;116;116;117;117;117;117;
2021-08-23 14:03:49;5;122;122;122;122;122;122;122;122;122;122;
2021-08-23 14:03:49;ht;53;20.10
2021-08-23 14:03:49;v;3.93
2021-08-23 14:33:51;1;126;126;126;126;126;126;126;126;126;126;
2021-08-23 14:33:51;2;124;124;124;124;125;124;124;124;124;124;
2021-08-23 14:33:51;3;42;41;41;41;42;41;42;42;42;41;
2021-08-23 14:33:51;4;118;118;118;118;118;118;119;119;118;118;
2021-08-23 14:33:51;5;121;122;122;122;122;122;122;122;122;122;
2021-08-23 14:33:51;ht;48;20.40
2021-08-23 14:33:51;v;3.93
2021-08-23 15:03:52;1;117;117;117;117;117;117;117;117;117;117;
2021-08-23 15:03:52;2;120;120;120;120;120;120;120;120;120;120;
2021-08-23 15:03:52;3;42;41;42;42;42;42;42;42;42;42;
2021-08-23 15:03:52;4;121;121;121;121;121;121;121;121;121;121;
2021-08-23 15:03:52;5;119;120;120;120;119;120;119;119;120;119;
2021-08-23 15:03:52;ht;46;20.10
2021-08-23 15:03:52;v;3.92
2021-08-23 15:33:50;1;122;122;122;122;121;122;122;122;121;122;
2021-08-23 15:33:50;2;120;120;120;120;120;120;120;120;120;120;
2021-08-23 15:33:50;3;42;42;43;42;42;42;42;42;43;42;
2021-08-23 15:33:50;4;117;117;117;117;117;117;117;117;117;117;
2021-08-23 15:33:50;5;118;118;118;118;118;118;118;118;118;118;
2021-08-23 15:33:50;ht;47;20.30
2021-08-23 15:33:50;v;3.92
2021-08-23 16:03:51;1;123;123;123;123;123;123;123;123;123;123;
2021-08-23 16:03:51;2;119;119;119;119;119;119;119;119;119;119;
2021-08-23 16:03:51;3;42;42;42;42;42;42;42;42;42;42;
2021-08-23 16:03:51;4;118;119;119;118;119;118;118;118;118;118;
2021-08-23 16:03:51;5;117;117;117;117;117;117;117;117;117;117;
2021-08-23 16:03:51;ht;47;20.10
2021-08-23 16:03:51;v;3.93
2021-08-23 16:33:48;1;123;122;123;123;122;123;122;123;123;122;
2021-08-23 16:33:48;2;118;118;118;117;118;118;117;117;118;117;
2021-08-23 16:33:48;3;42;42;42;42;42;42;42;42;42;42;
2021-08-23 16:33:48;4;119;119;119;119;119;119;119;119;119;119;
2021-08-23 16:33:48;5;118;118;118;118;118;118;118;118;118;118;
2021-08-23 16:33:48;ht;47;19.70
2021-08-23 16:33:48;v;3.92
2021-08-23 17:03:49;1;120;120;120;120;120;120;120;120;120;120;
2021-08-23 17:03:49;2;117;117;117;117;117;117;117;117;117;117;
2021-08-23 17:03:49;3;42;42;42;42;42;42;42;42;42;42;
2021-08-23 17:03:49;4;120;120;120;120;121;121;121;121;121;121;
2021-08-23 17:03:49;5;118;118;118;118;118;118;118;118;118;118;
2021-08-23 17:03:49;ht;48;19.10
2021-08-23 17:03:49;v;3.92
2021-08-23 17:33:49;1;122;122;122;122;122;122;122;122;122;122;
2021-08-23 17:33:49;2;104;104;104;104;104;104;103;104;104;104;
2021-08-23 17:33:49;3;42;42;42;42;42;42;42;42;42;42;
2021-08-23 17:33:49;4;125;125;125;125;125;125;125;125;125;125;
2021-08-23 17:33:49;5;122;122;122;122;122;122;122;122;122;122;
2021-08-23 17:33:49;ht;49;18.30
2021-08-23 17:33:49;v;3.93
2021-08-23 18:03:49;1;125;125;125;125;125;125;125;125;125;125;
2021-08-23 18:03:49;2;131;131;131;131;131;131;131;131;131;131;
2021-08-23 18:03:49;3;42;42;42;42;42;42;42;42;42;42;
2021-08-23 18:03:49;4;120;120;120;120;120;120;120;120;120;120;
2021-08-23 18:03:49;5;119;118;119;119;118;119;119;119;119;119;
2021-08-23 18:03:49;ht;49;17.20
2021-08-23 18:03:49;v;3.92
2021-08-23 18:33:47;1;114;114;114;113;114;114;114;114;114;114;
2021-08-23 18:33:47;2;117;117;117;117;117;117;117;117;116;117;
2021-08-23 18:33:47;3;43;43;43;43;43;43;43;43;43;43;
2021-08-23 18:33:47;4;1;1;1;1;1;1;1;1;1;1;
2021-08-23 18:33:47;5;118;118;118;118;118;118;118;118;118;117;
2021-08-23 18:33:47;ht;49;15.80
2021-08-23 18:33:47;v;3.92
2021-08-23 19:03:48;1;117;117;117;117;117;117;117;117;117;117;
2021-08-23 19:03:48;2;107;107;107;108;107;108;107;108;107;107;
2021-08-23 19:03:48;3;44;44;44;44;44;44;44;44;44;44;
2021-08-23 19:03:48;4;124;124;124;124;124;124;124;124;124;124;
2021-08-23 19:03:48;5;127;127;127;127;127;127;127;127;127;127;
2021-08-23 19:03:48;ht;55;14.10
2021-08-23 19:03:48;v;3.92
2021-08-23 19:33:43;1;118;118;118;117;118;118;118;118;118;118;
2021-08-23 19:33:43;2;116;117;117;117;117;117;117;117;117;116;
2021-08-23 19:33:43;3;45;45;45;45;45;46;45;45;45;45;
2021-08-23 19:33:43;4;125;125;125;125;125;125;125;125;126;125;
2021-08-23 19:33:43;5;2;1;2;2;1;2;1;1;2;1;
2021-08-23 19:33:43;ht;65;11.10
2021-08-23 19:33:43;v;3.93
2021-08-23 20:03:42;1;117;117;117;117;117;117;117;117;117;117;
2021-08-23 20:03:42;2;121;121;121;121;120;121;120;121;121;121;
2021-08-23 20:03:42;3;48;48;48;48;48;48;48;48;48;48;
2021-08-23 20:03:42;4;120;119;119;119;119;119;119;119;119;120;
2021-08-23 20:03:42;5;119;119;119;119;119;119;119;119;119;119;
2021-08-23 20:03:42;ht;67;11.20
2021-08-23 20:03:42;v;3.92
2021-08-23 20:33:44;1;139;139;139;139;139;139;139;139;139;139;
2021-08-23 20:33:44;2;136;136;136;136;136;136;136;136;136;136;
2021-08-23 20:33:44;3;48;48;48;48;48;48;48;48;48;48;
2021-08-23 20:33:44;4;119;119;118;119;119;119;118;118;118;118;
2021-08-23 20:33:44;5;119;119;119;119;119;119;119;119;119;119;
2021-08-23 20:33:44;ht;73;10.10
2021-08-23 20:33:44;v;3.92
2021-08-23 21:03:41;1;139;138;138;138;138;139;138;138;139;138;
2021-08-23 21:03:41;2;134;134;134;134;134;134;134;134;134;134;
2021-08-23 21:03:41;3;49;49;49;49;49;49;49;49;49;49;
2021-08-23 21:03:41;4;120;120;120;120;120;120;121;121;121;121;
2021-08-23 21:03:41;5;125;125;125;125;125;125;125;125;125;125;
2021-08-23 21:03:41;ht;77;9.60
2021-08-23 21:03:41;v;3.92
2021-08-23 21:33:43;1;143;142;142;142;142;142;142;142;142;142;
2021-08-23 21:33:43;2;120;120;120;120;120;120;120;120;120;120;
2021-08-23 21:33:43;3;50;50;50;50;50;50;50;50;50;50;
2021-08-23 21:33:43;4;121;121;121;121;121;121;121;121;121;121;
2021-08-23 21:33:43;5;128;128;128;128;128;128;128;128;128;128;
2021-08-23 21:33:43;ht;79;10.40
2021-08-23 21:33:43;v;3.92
2021-08-23 22:03:45;1;118;118;118;118;118;118;118;118;117;118;
2021-08-23 22:03:45;2;114;114;114;114;113;114;113;113;114;113;
2021-08-23 22:03:45;3;49;49;49;49;49;49;49;49;49;49;
2021-08-23 22:03:45;4;122;121;121;121;121;121;121;122;122;121;
2021-08-23 22:03:45;5;133;133;133;133;133;133;133;133;133;133;
2021-08-23 22:03:45;ht;79;10.70
2021-08-23 22:03:45;v;3.92
2021-08-23 22:33:43;1;126;126;126;126;126;126;126;126;126;126;
2021-08-23 22:33:43;2;122;122;122;122;122;122;121;122;122;122;
2021-08-23 22:33:43;3;48;48;48;48;48;48;48;49;48;48;
2021-08-23 22:33:43;4;118;118;118;118;118;118;118;118;118;118;
2021-08-23 22:33:43;5;127;127;127;127;127;127;127;127;127;127;
2021-08-23 22:33:43;ht;80;10.90
2021-08-23 22:33:43;v;3.91
2021-08-23 23:03:45;1;139;139;139;139;139;139;139;139;139;139;
2021-08-23 23:03:45;2;122;121;120;121;121;120;121;121;120;120;
2021-08-23 23:03:45;3;49;49;49;49;49;49;49;49;49;49;
2021-08-23 23:03:45;4;118;118;118;118;118;118;118;118;118;118;
2021-08-23 23:03:45;5;119;119;119;119;119;119;119;119;119;119;
2021-08-23 23:03:45;ht;80;11.20
2021-08-23 23:03:45;v;3.92
2021-08-23 23:33:43;1;127;127;127;127;127;127;127;127;127;127;
2021-08-23 23:33:43;2;114;115;115;115;115;115;115;114;114;114;
2021-08-23 23:33:43;3;49;48;48;48;48;48;48;48;48;48;
2021-08-23 23:33:43;4;119;119;119;119;119;118;119;118;118;118;
2021-08-23 23:33:43;5;118;118;118;118;118;118;118;118;118;118;
2021-08-23 23:33:43;ht;90;10.40
2021-08-23 23:33:43;v;3.92
