2021-08-25 00:03:41;1;121;121;121;121;121;121;121;121;121;121;
2021-08-25 00:03:41;2;115;115;115;115;115;115;115;116;116;116;
2021-08-25 00:03:41;3;52;52;52;52;52;53;52;52;52;52;
2021-08-25 00:03:41;4;127;127;127;127;127;127;127;127;127;127;
2021-08-25 00:03:41;5;126;127;127;127;126;127;127;127;127;127;
2021-08-25 00:03:41;ht;99;5.20
2021-08-25 00:03:41;v;3.91
2021-08-25 00:33:39;1;123;123;123;123;123;123;123;123;123;123;
2021-08-25 00:33:39;2;116;116;116;116;115;116;116;116;115;115;
2021-08-25 00:33:39;3;52;52;52;52;52;52;52;52;52;52;
2021-08-25 00:33:39;4;125;125;125;125;125;125;125;124;125;125;
2021-08-25 00:33:39;5;130;130;130;130;130;130;130;130;130;130;
2021-08-25 00:33:39;ht;99;4.70
2021-08-25 00:33:39;v;3.91
2021-08-25 01:03:38;1;124;124;124;124;124;124;124;124;124;124;
2021-08-25 01:03:38;2;122;122;121;122;122;121;121;121;121;121;
2021-08-25 01:03:38;3;52;52;52;53;53;53;53;53;53;53;
2021-08-25 01:03:38;4;124;124;124;124;124;124;123;124;123;124;
2021-08-25 01:03:38;5;120;120;120;120;120;119;119;119;119;119;
2021-08-25 01:03:38;ht;99;5.80
2021-08-25 01:03:38;v;3.90
2021-08-25 01:33:42;1;125;125;125;125;125;125;125;125;125;125;
2021-08-25 01:33:42;2;119;119;119;118;119;118;119;118;119;119;
2021-08-25 01:33:42;3;52;52;52;52;52;52;52;52;52;52;
2021-08-25 01:33:42;4;125;125;125;124;125;124;125;125;124;124;
2021-08-25 01:33:42;5;131;131;131;131;131;131;131;131;131;131;
2021-08-25 01:33:42;ht;99;4.80
2021-08-25 01:33:42;v;3.90
2021-08-25 02:03:41;1;123;123;123;123;123;123;123;123;123;123;
2021-08-25 02:03:41;2;118;117;117;117;117;117;117;117;118;117;
2021-08-25 02:03:41;3;52;52;52;52;52;52;52;52;52;52;
2021-08-25 02:03:41;4;127;127;127;127;127;127;127;127;127;127;
2021-08-25 02:03:41;5;120;121;120;121;120;121;121;120;120;120;
2021-08-25 02:03:41;ht;99;4.40
2021-08-25 02:03:41;v;3.91
2021-08-25 02:33:39;1;123;123;123;123;123;123;123;123;122;123;
2021-08-25 02:33:39;2;118;118;118;117;118;117;117;118;118;118;
2021-08-25 02:33:39;3;52;52;52;52;52;53;52;52;52;52;
2021-08-25 02:33:39;4;119;119;119;119;119;119;119;119;119;119;
2021-08-25 02:33:39;5;131;131;131;131;131;131;131;131;131;131;
2021-08-25 02:33:39;ht;99;3.10
2021-08-25 02:33:39;v;3.91
2021-08-25 03:03:41;1;124;124;124;123;124;124;124;124;124;124;
2021-08-25 03:03:41;2;1;1;1;1;1;1;1;1;1;1;
2021-08-25 03:03:41;3;53;53;53;53;53;53;53;53;53;53;
2021-08-25 03:03:41;4;129;129;129;129;129;129;129;129;129;129;
2021-08-25 03:03:41;5;131;131;131;131;131;131;131;131;131;131;
2021-08-25 03:03:41;ht;99;2.60
2021-08-25 03:03:41;v;3.90
2021-08-25 03:33:39;1;124;124;124;124;124;124;124;124;124;124;
2021-08-25 03:33:39;2;1;1;1;1;1;1;1;1;1;1;
2021-08-25 03:33:39;3;54;54;54;54;54;54;54;54;54;54;
2021-08-25 03:33:39;4;121;122;121;121;122;122;122;122;121;121;
2021-08-25 03:33:39;5;131;131;131;131;131;131;131;131;131;131;
2021-08-25 03:33:39;ht;99;2.70
2021-08-25 03:33:39;v;3.90
2021-08-25 04:03:41;1;129;129;129;129;129;128;129;129;129;129;
2021-08-25 04:03:41;2;123;123;124;123;124;123;124;123;123;123;
2021-08-25 04:03:41;3;54;54;55;54;54;54;54;54;54;54;
2021-08-25 04:03:41;4;120;120;120;121;121;121;121;121;121;121;
2021-08-25 04:03:41;5;123;124;123;124;123;123;123;124;123;123;
2021-08-25 04:03:41;ht;99;3.40
2021-08-25 04:03:41;v;3.91
2021-08-25 04:33:39;1;126;126;126;126;126;126;126;126;126;126;
2021-08-25 04:33:39;2;122;121;121;121;121;121;121;121;121;121;
2021-08-25 04:33:39;3;54;54;54;54;54;54;54;54;54;54;
2021-08-25 04:33:39;4;123;123;123;123;124;123;123;124;124;123;
2021-08-25 04:33:39;5;121;121;121;121;121;121;121;121;121;121;
2021-08-25 04:33:39;ht;99;3.10
2021-08-25 04:33:39;v;3.90
2021-08-25 05:03:41;1;127;126;127;126;127;127;127;127;127;126;
2021-08-25 05:03:41;2;1;1;1;2;1;2;1;1;1;1;
2021-08-25 05:03:41;3;54;54;54;54;54;54;54;54;54;54;
2021-08-25 05:03:41;4;122;121;122;122;121;122;121;122;122;121;
2021-08-25 05:03:41;5;122;122;122;122;122;122;122;122;122;121;
2021-08-25 05:03:41;ht;99;3.30
2021-08-25 05:03:41;v;3.90
2021-08-25 05:33:38;1;126;126;126;126;126;126;126;126;126;126;
2021-08-25 05:33:38;2;1;1;1;1;1;1;1;1;1;1;
2021-08-25 05:33:38;3;54;54;54;54;54;54;54;54;54;54;
2021-08-25 05:33:38;4;125;125;125;125;125;125;125;125;125;125;
2021-08-25 05:33:38;5;123;123;123;123;123;123;123;123;123;123;
2021-08-25 05:33:38;ht;99;3.20
2021-08-25 05:33:38;v;3.90
2021-08-25 06:03:41;1;125;125;125;125;124;125;124;125;125;125;
2021-08-25 06:03:41;2;1;1;1;1;1;1;1;1;1;1;
2021-08-25 06:03:41;3;54;54;54;54;54;54;54;54;54;54;
2021-08-25 06:03:41;4;124;124;125;124;125;124;124;124;124;124;
2021-08-25 06:03:41;5;123;122;122;122;122;122;122;122;122;122;
2021-08-25 06:03:41;ht;99;3.00
2021-08-25 06:03:41;v;3.90
2021-08-25 06:33:38;1;121;121;121;121;121;121;120;120;120;121;
2021-08-25 06:33:38;2;115;115;115;115;115;115;115;115;115;115;
2021-08-25 06:33:38;3;54;54;54;54;54;54;54;54;54;54;
2021-08-25 06:33:38;4;125;125;125;125;125;125;125;125;125;125;
2021-08-25 06:33:38;5;125;125;126;125;125;125;125;125;125;125;
2021-08-25 06:33:38;ht;99;2.70
2021-08-25 06:33:38;v;3.90
2021-08-25 07:03:40;1;125;125;125;125;125;125;125;125;125;125;
2021-08-25 07:03:40;2;1;1;1;1;1;1;1;1;1;1;
2021-08-25 07:03:40;3;54;55;55;54;54;54;55;55;54;55;
2021-08-25 07:03:40;4;125;125;125;125;125;125;125;125;125;125;
2021-08-25 07:03:40;5;131;131;131;131;131;131;131;131;131;131;
2021-08-25 07:03:40;ht;99;2.40
2021-08-25 07:03:40;v;3.91
2021-08-25 07:33:38;1;121;121;121;121;121;120;121;120;121;121;
2021-08-25 07:33:38;2;1;1;1;1;1;1;1;1;1;1;
2021-08-25 07:33:38;3;55;55;55;55;55;55;55;55;55;55;
2021-08-25 07:33:38;4;120;120;120;120;121;120;120;120;120;120;
2021-08-25 07:33:38;5;132;132;132;132;132;132;132;132;132;132;
2021-08-25 07:33:38;ht;99;2.20
2021-08-25 07:33:38;v;3.90
2021-08-25 08:03:39;1;122;122;122;122;122;122;122;122;122;122;
2021-08-25 08:03:39;2;115;115;115;115;115;115;115;115;115;115;
2021-08-25 08:03:39;3;55;55;56;56;56;56;56;56;55;55;
2021-08-25 08:03:39;4;119;119;119;119;119;119;119;119;119;119;
2021-08-25 08:03:39;5;142;143;143;144;146;146;147;148;149;150;
2021-08-25 08:03:39;ht;99;3.70
2021-08-25 08:03:39;v;3.90
2021-08-25 08:33:38;1;119;118;119;119;119;119;119;119;119;119;
2021-08-25 08:33:38;2;1;1;1;1;1;1;1;1;1;1;
2021-08-25 08:33:38;3;53;53;53;53;53;53;53;53;53;53;
2021-08-25 08:33:38;4;129;129;129;129;129;129;129;129;129;129;
2021-08-25 08:33:38;5;132;132;132;132;132;132;132;132;132;132;
2021-08-25 08:33:38;ht;99;5.60
2021-08-25 08:33:38;v;3.90
2021-08-25 09:03:42;1;118;118;118;118;118;118;118;118;118;118;
2021-08-25 09:03:42;2;114;114;114;114;114;114;113;114;114;114;
2021-08-25 09:03:42;3;51;50;50;51;51;51;51;51;51;51;
2021-08-25 09:03:42;4;121;121;121;121;121;121;121;121;121;121;
2021-08-25 09:03:42;5;119;119;119;119;119;119;119;119;119;120;
2021-08-25 09:03:42;ht;99;7.40
2021-08-25 09:03:42;v;3.91
2021-08-25 09:33:42;1;118;117;118;118;118;118;118;118;117;118;
2021-08-25 09:33:42;2;104;104;104;105;104;104;104;104;104;104;
2021-08-25 09:33:42;3;49;49;49;49;49;49;49;49;49;49;
2021-08-25 09:33:42;4;118;118;118;118;118;117;117;118;117;117;
2021-08-25 09:33:42;5;119;119;119;119;119;119;119;119;119;120;
2021-08-25 09:33:42;ht;99;10.20
2021-08-25 09:33:42;v;3.90
2021-08-25 10:03:45;1;116;116;116;116;116;116;117;116;116;116;
2021-08-25 10:03:45;2;113;113;113;113;113;113;112;113;113;112;
2021-08-25 10:03:45;3;47;47;47;47;47;47;47;47;47;47;
2021-08-25 10:03:45;4;119;119;119;119;119;119;119;119;119;119;
2021-08-25 10:03:45;5;116;116;116;116;116;116;116;116;116;116;
2021-08-25 10:03:45;ht;99;12.00
2021-08-25 10:03:45;v;3.90
2021-08-25 10:33:44;1;117;117;117;117;117;117;117;117;117;117;
2021-08-25 10:33:44;2;112;112;112;112;111;112;112;112;112;112;
2021-08-25 10:33:44;3;46;46;46;46;46;46;46;46;46;46;
2021-08-25 10:33:44;4;124;124;124;124;124;124;124;124;124;123;
2021-08-25 10:33:44;5;130;130;129;130;130;130;129;130;130;130;
2021-08-25 10:33:44;ht;99;13.90
2021-08-25 10:33:44;v;3.91
2021-08-25 11:03:45;1;117;117;117;117;117;117;117;117;117;117;
2021-08-25 11:03:45;2;118;117;118;117;117;118;117;117;118;118;
2021-08-25 11:03:45;3;45;45;45;45;45;45;45;45;45;45;
2021-08-25 11:03:45;4;125;125;125;125;125;125;125;125;125;125;
2021-08-25 11:03:45;5;128;128;128;128;128;128;128;128;128;128;
2021-08-25 11:03:45;ht;99;15.90
2021-08-25 11:03:45;v;3.91
#2021-08-25 11:34:38;1;120;120;120;120;120;120;120;120;120;120;
2021-08-25 11:34:38;2;115;115;115;115;115;115;115;115;115;115;
2021-08-25 11:34:38;3;43;43;43;43;43;43;43;42;42;43;
2021-08-25 11:34:38;4;123;123;123;123;123;123;123;123;123;123;
2021-08-25 11:34:38;5;125;125;125;124;125;125;125;125;125;125;
2021-08-25 11:34:38;ht;95;17.90
2021-08-25 11:34:38;v;3.90
#2021-08-25 12:09:47;1;118;118;118;118;118;118;118;118;118;118;
2021-08-25 12:09:47;2;122;122;122;122;122;121;122;122;122;122;
2021-08-25 12:09:47;3;121;122;122;122;122;122;122;122;122;122;
2021-08-25 12:09:47;4;119;119;119;120;120;119;120;120;120;119;
2021-08-25 12:09:47;5;120;121;121;121;121;121;121;121;121;121;
2021-08-25 12:09:47;ht;81;19.00
2021-08-25 12:09:47;v;3.90
#2021-08-25 12:11:03;1;119;119;119;119;119;119;119;119;119;119;
2021-08-25 12:11:03;2;120;119;120;119;119;119;120;119;119;120;
2021-08-25 12:11:03;3;127;127;128;127;127;127;127;127;127;127;
2021-08-25 12:11:03;4;122;122;122;122;122;122;122;122;122;122;
2021-08-25 12:11:03;5;123;123;123;123;123;123;123;123;123;123;
2021-08-25 12:11:03;ht;81;18.60
2021-08-25 12:11:03;v;3.91
#2021-08-25 12:21:10;1;127;127;127;127;127;127;127;127;127;127;
2021-08-25 12:21:10;2;123;124;124;124;124;124;124;124;124;124;
2021-08-25 12:21:10;3;26;26;26;26;27;26;26;26;26;27;
2021-08-25 12:21:10;4;122;122;122;122;122;122;122;122;122;122;
2021-08-25 12:21:10;5;123;123;122;123;123;123;123;123;123;123;
2021-08-25 12:21:10;ht;79;18.40
2021-08-25 12:21:10;v;3.90
2021-08-25 12:31:18;1;124;124;124;124;124;124;124;124;124;124;
2021-08-25 12:31:18;2;127;127;127;127;127;127;127;127;127;127;
2021-08-25 12:31:18;3;26;26;26;26;26;26;26;26;26;26;
2021-08-25 12:31:18;4;119;119;119;119;119;119;119;119;119;119;
2021-08-25 12:31:18;5;128;128;128;128;128;128;128;128;128;128;
2021-08-25 12:31:18;ht;74;18.90
2021-08-25 12:31:18;v;3.90
2021-08-25 13:04:13;1;118;118;118;117;118;118;118;118;118;118;
2021-08-25 13:04:13;2;127;127;127;127;127;127;127;127;128;128;
2021-08-25 13:04:13;3;25;25;25;25;25;25;25;25;25;25;
2021-08-25 13:04:13;4;127;127;127;127;127;127;127;127;127;127;
2021-08-25 13:04:13;5;123;123;123;123;123;123;123;123;123;123;
2021-08-25 13:04:13;ht;66;18.90
2021-08-25 13:04:13;v;3.91
2021-08-25 13:33:46;1;122;122;122;122;122;122;122;122;122;122;
2021-08-25 13:33:46;2;123;122;122;122;122;122;122;122;122;122;
2021-08-25 13:33:46;3;25;25;24;25;25;24;25;24;25;24;
2021-08-25 13:33:46;4;114;114;114;114;114;114;114;114;113;113;
2021-08-25 13:33:46;5;125;125;125;125;125;125;125;125;125;125;
2021-08-25 13:33:46;ht;59;21.20
2021-08-25 13:33:46;v;3.91
2021-08-25 14:03:52;1;122;122;122;122;122;122;122;122;122;122;
2021-08-25 14:03:52;2;121;121;121;121;121;121;121;121;121;121;
2021-08-25 14:03:52;3;24;24;24;24;24;24;24;25;24;24;
2021-08-25 14:03:52;4;114;114;114;114;114;114;114;114;114;114;
2021-08-25 14:03:52;5;2;2;1;1;2;1;1;1;1;1;
2021-08-25 14:03:52;ht;55;20.70
2021-08-25 14:03:52;v;3.90
2021-08-25 14:33:49;1;119;119;119;119;119;119;119;119;119;119;
2021-08-25 14:33:49;2;115;115;115;115;115;115;115;115;115;115;
2021-08-25 14:33:49;3;24;24;24;25;24;24;25;25;24;24;
2021-08-25 14:33:49;4;122;121;121;121;121;121;121;121;121;121;
2021-08-25 14:33:49;5;122;122;122;122;122;122;122;122;122;122;
2021-08-25 14:33:49;ht;56;21.40
2021-08-25 14:33:49;v;3.90
2021-08-25 15:03:52;1;123;123;123;123;123;123;123;123;123;123;
2021-08-25 15:03:52;2;128;128;128;128;127;127;127;127;127;127;
2021-08-25 15:03:52;3;25;24;25;25;25;25;25;25;25;24;
2021-08-25 15:03:52;4;121;121;121;121;121;122;122;122;122;122;
2021-08-25 15:03:52;5;123;123;123;123;123;123;123;123;123;123;
2021-08-25 15:03:52;ht;54;21.30
2021-08-25 15:03:52;v;3.91
2021-08-25 15:33:50;1;120;120;120;120;120;120;120;120;120;120;
2021-08-25 15:33:50;2;133;132;132;132;133;133;133;132;132;132;
2021-08-25 15:33:50;3;25;24;24;24;24;24;24;25;24;24;
2021-08-25 15:33:50;4;115;116;116;116;116;115;115;115;116;115;
2021-08-25 15:33:50;5;1;1;1;2;1;1;1;1;1;2;
2021-08-25 15:33:50;ht;52;21.50
2021-08-25 15:33:50;v;3.91
2021-08-25 16:03:52;1;119;119;119;119;119;119;119;119;119;119;
2021-08-25 16:03:52;2;125;125;125;125;125;125;125;125;125;125;
2021-08-25 16:03:52;3;24;24;24;24;25;24;25;24;24;24;
2021-08-25 16:03:52;4;123;123;122;123;123;123;124;124;124;124;
2021-08-25 16:03:52;5;126;125;126;126;125;125;125;125;126;126;
2021-08-25 16:03:52;ht;52;20.90
2021-08-25 16:03:52;v;3.90
2021-08-25 16:33:50;1;119;119;119;119;119;119;119;119;119;119;
2021-08-25 16:33:50;2;122;122;121;122;122;122;122;122;122;122;
2021-08-25 16:33:50;3;25;25;25;25;25;25;25;25;25;25;
2021-08-25 16:33:50;4;125;125;125;125;125;125;125;125;125;125;
2021-08-25 16:33:50;5;122;122;122;122;122;122;122;122;122;122;
2021-08-25 16:33:50;ht;51;20.90
2021-08-25 16:33:50;v;3.91
2021-08-25 17:03:51;1;123;123;123;123;123;123;123;123;123;123;
2021-08-25 17:03:51;2;125;125;125;125;125;125;125;125;125;124;
2021-08-25 17:03:51;3;24;24;24;25;25;24;25;25;25;24;
2021-08-25 17:03:51;4;126;126;126;126;126;126;126;126;126;126;
2021-08-25 17:03:51;5;120;120;120;120;120;121;121;120;120;121;
2021-08-25 17:03:51;ht;49;20.50
2021-08-25 17:03:51;v;3.91
2021-08-25 17:33:47;1;121;121;121;121;121;121;121;121;121;121;
2021-08-25 17:33:47;2;120;120;120;120;120;120;120;120;120;120;
2021-08-25 17:33:47;3;25;24;24;24;24;24;24;24;24;24;
2021-08-25 17:33:47;4;118;118;118;117;118;117;118;118;118;118;
2021-08-25 17:33:47;5;123;123;123;123;123;123;123;122;123;123;
2021-08-25 17:33:47;ht;54;18.00
2021-08-25 17:33:47;v;3.90
2021-08-25 18:03:46;1;116;116;116;116;116;116;116;116;116;116;
2021-08-25 18:03:46;2;117;117;117;117;117;117;117;117;117;117;
2021-08-25 18:03:46;3;24;23;23;23;23;23;24;23;23;23;
2021-08-25 18:03:46;4;118;118;118;118;118;118;118;118;118;118;
2021-08-25 18:03:46;5;123;123;123;123;123;123;123;123;123;123;
2021-08-25 18:03:46;ht;58;16.80
2021-08-25 18:03:46;v;3.90
2021-08-25 18:33:48;1;123;123;123;123;123;123;123;123;123;123;
2021-08-25 18:33:48;2;142;141;142;141;142;142;141;141;141;141;
2021-08-25 18:33:48;3;24;23;23;24;24;24;24;23;24;24;
2021-08-25 18:33:48;4;126;126;126;126;126;126;126;127;127;127;
2021-08-25 18:33:48;5;124;125;124;125;125;125;125;125;124;125;
2021-08-25 18:33:48;ht;65;14.70
2021-08-25 18:33:48;v;3.91
2021-08-25 19:03:44;1;122;122;122;122;122;122;122;122;122;122;
2021-08-25 19:03:44;2;118;118;118;118;118;118;118;118;118;118;
2021-08-25 19:03:44;3;24;23;23;23;23;23;23;23;23;23;
2021-08-25 19:03:44;4;126;126;126;126;126;126;127;126;126;126;
2021-08-25 19:03:44;5;121;121;121;121;121;121;121;121;121;121;
2021-08-25 19:03:44;ht;76;12.30
2021-08-25 19:03:44;v;3.91
2021-08-25 19:33:43;1;124;124;124;124;124;124;124;124;124;124;
2021-08-25 19:33:43;2;122;122;122;122;121;121;122;122;122;122;
2021-08-25 19:33:43;3;23;23;23;23;23;23;23;23;23;23;
2021-08-25 19:33:43;4;119;119;119;119;119;119;119;119;119;120;
2021-08-25 19:33:43;5;127;127;127;127;127;127;127;127;127;127;
2021-08-25 19:33:43;ht;74;12.00
2021-08-25 19:33:43;v;3.90
2021-08-25 20:03:45;1;119;119;119;119;119;119;119;119;119;119;
2021-08-25 20:03:45;2;125;125;125;125;125;125;125;125;124;125;
2021-08-25 20:03:45;3;23;23;23;23;23;24;23;23;23;23;
2021-08-25 20:03:45;4;114;114;113;113;113;113;113;113;114;113;
2021-08-25 20:03:45;5;124;124;124;124;124;124;124;124;124;124;
2021-08-25 20:03:45;ht;73;12.20
2021-08-25 20:03:45;v;3.90
2021-08-25 20:33:43;1;118;118;118;117;118;118;118;118;118;118;
2021-08-25 20:33:43;2;123;123;123;123;123;123;123;123;123;123;
2021-08-25 20:33:43;3;23;24;23;23;23;24;24;23;23;24;
2021-08-25 20:33:43;4;114;114;114;114;115;115;115;115;115;115;
2021-08-25 20:33:43;5;130;130;130;130;130;130;130;130;130;130;
2021-08-25 20:33:43;ht;76;10.90
2021-08-25 20:33:43;v;3.90
2021-08-25 21:03:44;1;122;122;122;122;122;122;122;122;121;122;
2021-08-25 21:03:44;2;125;125;125;125;125;124;125;124;125;125;
2021-08-25 21:03:44;3;24;23;24;23;24;24;23;23;24;23;
2021-08-25 21:03:44;4;115;115;115;115;115;115;115;115;115;115;
2021-08-25 21:03:44;5;127;126;127;127;127;127;127;127;127;127;
2021-08-25 21:03:44;ht;80;9.80
2021-08-25 21:03:44;v;3.90
2021-08-25 21:33:41;1;121;121;121;121;121;121;121;121;120;121;
2021-08-25 21:33:41;2;136;136;136;136;136;136;136;136;136;136;
2021-08-25 21:33:41;3;24;23;23;24;23;23;24;23;23;24;
2021-08-25 21:33:41;4;120;120;120;120;120;120;120;120;120;120;
2021-08-25 21:33:41;5;128;129;128;128;128;128;128;128;128;128;
2021-08-25 21:33:41;ht;76;10.20
2021-08-25 21:33:41;v;3.89
2021-08-25 22:03:41;1;124;124;124;124;124;124;124;124;124;124;
2021-08-25 22:03:41;2;134;134;134;134;134;134;134;134;134;134;
2021-08-25 22:03:41;3;24;24;24;24;24;24;24;24;24;24;
2021-08-25 22:03:41;4;116;116;116;116;116;116;116;116;116;116;
2021-08-25 22:03:41;5;132;132;132;132;132;132;132;132;132;132;
2021-08-25 22:03:41;ht;92;6.10
2021-08-25 22:03:41;v;3.90
2021-08-25 22:33:41;1;125;125;125;125;125;125;125;125;125;125;
2021-08-25 22:33:41;2;2;1;1;1;1;1;2;2;1;1;
2021-08-25 22:33:41;3;27;27;27;28;27;28;28;28;28;28;
2021-08-25 22:33:41;4;115;115;115;115;114;115;115;115;115;115;
2021-08-25 22:33:41;5;133;133;133;133;133;133;133;133;133;133;
2021-08-25 22:33:41;ht;97;5.90
2021-08-25 22:33:41;v;3.90
2021-08-25 23:03:41;1;136;136;136;136;136;136;136;136;137;136;
2021-08-25 23:03:41;2;120;120;120;120;120;120;120;119;120;119;
2021-08-25 23:03:41;3;24;24;24;25;24;24;24;24;24;24;
2021-08-25 23:03:41;4;127;127;127;127;127;127;127;127;127;127;
2021-08-25 23:03:41;5;126;126;126;126;126;126;126;126;126;126;
2021-08-25 23:03:41;ht;96;6.50
2021-08-25 23:03:41;v;3.89
2021-08-25 23:33:40;1;126;126;126;126;126;126;126;126;126;126;
2021-08-25 23:33:40;2;120;121;121;121;121;121;121;121;121;121;
2021-08-25 23:33:40;3;23;23;23;23;23;23;24;24;24;24;
2021-08-25 23:33:40;4;127;127;127;127;127;127;127;127;127;127;
2021-08-25 23:33:40;5;130;130;130;130;130;130;130;130;130;130;
2021-08-25 23:33:40;ht;95;6.50
2021-08-25 23:33:40;v;3.89
