2020-10-28 00:03:16;4.05;-1319.92;49.80;22.50
2020-10-28 00:33:13;4.05;-1319.92;49.10;22.40
2020-10-28 01:03:16;4.05;-1319.92;48.70;22.30
2020-10-28 01:33:18;4.05;-1319.92;48.80;22.30
2020-10-28 02:03:15;4.05;-1319.92;48.50;22.10
2020-10-28 02:33:17;4.05;-1319.92;48.80;22.00
2020-10-28 03:03:14;4.05;-1319.92;49.20;21.80
2020-10-28 03:33:16;4.05;-1319.92;50.30;21.70
2020-10-28 04:03:13;4.05;-1319.92;51.20;21.60
2020-10-28 04:33:14;4.05;-1319.92;51.70;21.40
2020-10-28 05:03:15;4.05;-1319.92;53.60;21.20
2020-10-28 05:33:16;4.05;-1319.92;54.60;21.00
2020-10-28 06:03:12;4.05;-1319.92;55.80;20.70
2020-10-28 06:33:13;4.05;-1319.92;56.70;20.60
2020-10-28 07:03:14;4.05;-1319.92;54.40;21.60
2020-10-28 07:33:15;4.05;-1319.92;52.90;22.10
2020-10-28 08:03:17;4.05;-1319.92;45.90;24.90
2020-10-28 08:33:15;4.05;-1319.92;50.70;23.10
2020-10-28 09:03:18;4.05;-1319.92;51.20;22.90
2020-10-28 09:33:16;4.04;-1319.92;51.30;23.10
2020-10-28 10:03:15;4.05;-1319.92;50.70;23.20
2020-10-28 10:33:18;4.05;-1319.92;49.20;23.80
2020-10-28 11:03:19;4.04;-1319.92;41.60;26.20
2020-10-28 11:33:21;4.05;-1319.92;44.10;24.70
2020-10-28 12:03:17;4.04;-1319.92;43.50;24.50
2020-10-28 12:33:18;4.04;-1319.92;43.20;23.90
2020-10-28 13:03:17;4.04;-1319.92;39.30;23.80
2020-10-28 13:33:17;4.04;-1319.92;39.40;23.60
2020-10-28 14:03:16;4.04;-1319.92;40.50;23.30
2020-10-28 14:33:14;4.04;-1319.92;35.90;23.30
2020-10-28 15:03:17;4.04;-1319.92;44.50;23.60
2020-10-28 15:33:16;4.04;-1319.92;51.00;23.80
2020-10-28 16:03:17;4.04;-1319.92;51.40;27.80
2020-10-28 16:33:19;4.04;-1319.92;48.10;25.40
2020-10-28 17:03:19;4.04;-1319.92;47.80;24.90
2020-10-28 17:33:18;4.04;-1319.92;48.00;24.90
2020-10-28 18:03:18;4.04;-1319.92;47.80;24.90
2020-10-28 18:33:18;4.04;-1319.92;47.30;24.80
2020-10-28 19:03:17;4.04;-1319.92;47.10;24.80
2020-10-28 19:33:17;4.04;-1319.92;47.00;24.90
2020-10-28 20:03:17;4.04;-1319.92;46.90;24.70
#2020-10-28 20:27:32;4.04;-1319.92;47.10;24.70
2020-10-28 20:27:38;4.04;-1319.92;47.10;24.70
2020-10-28 20:27:44;4.04;-1319.92;47.10;24.70
2020-10-28 20:27:49;4.04;-1319.92;47.30;24.70
2020-10-28 20:27:55;4.04;-1319.92;47.40;24.80
2020-10-28 20:28:01;4.04;-1319.92;47.30;24.80
2020-10-28 20:28:07;4.04;-1319.92;47.30;24.80
#2020-10-28 20:28:20;4.04;-1319.92;47.20;24.80
2020-10-28 20:28:26;4.04;-1319.92;47.20;24.80
2020-10-28 20:28:31;4.04;-1319.92;47.20;24.90
2020-10-28 20:28:37;4.04;-1319.92;47.20;24.90
2020-10-28 20:28:43;4.04;-1319.92;47.10;24.90
2020-10-28 20:28:49;4.03;-1319.92;47.10;24.90
2020-10-28 20:28:55;4.03;-1319.92;47.00;24.90
2020-10-28 20:29:01;4.03;-1319.92;47.00;24.90
2020-10-28 20:29:07;4.04;-1319.92;46.90;24.90
2020-10-28 20:29:12;4.03;-1319.92;46.90;24.90
2020-10-28 20:29:18;4.03;-1319.92;46.90;24.90
2020-10-28 20:29:24;4.03;-1319.92;46.80;24.90
2020-10-28 20:29:30;4.03;-1319.92;46.80;24.90
2020-10-28 20:29:36;4.03;-1319.92;46.80;24.90
2020-10-28 20:29:42;4.03;-1319.92;46.80;24.90
2020-10-28 20:29:47;4.03;-1319.92;46.80;24.90
2020-10-28 20:29:53;4.03;-1319.92;46.80;24.90
2020-10-28 20:29:59;4.03;-1319.92;46.70;24.90
2020-10-28 20:30:05;4.03;-1319.92;46.70;24.90
2020-10-28 20:30:11;4.03;-1319.92;46.70;24.90
2020-10-28 20:30:17;4.03;-1319.92;46.70;24.90
2020-10-28 20:30:22;4.03;-1319.92;46.70;24.90
2020-10-28 20:30:28;4.03;-1319.92;46.70;24.90
2020-10-28 20:30:34;4.03;-1319.92;46.70;24.90
2020-10-28 20:30:40;4.03;-1319.92;46.70;24.90
2020-10-28 20:30:46;4.03;-1319.92;46.80;24.90
2020-10-28 20:30:52;4.03;-1319.92;46.80;24.90
2020-10-28 20:30:58;4.03;-1319.92;46.80;24.90
2020-10-28 20:31:03;4.03;-1319.92;46.80;24.90
2020-10-28 20:31:09;4.03;-1319.92;46.80;24.90
2020-10-28 20:31:15;4.03;-1319.92;46.90;24.90
2020-10-28 21:03:35;4.04;-1319.92;48.00;24.70
#2020-10-28 21:37:18;3.37;-1319.92;46.50;27.30
2020-10-28 21:37:24;3.38;-1319.92;46.70;27.20
2020-10-28 21:37:30;3.38;-1319.92;47.10;27.30
2020-10-28 21:37:36;3.38;-1319.92;47.60;27.40
2020-10-28 21:37:42;3.38;-1319.92;46.70;27.50
2020-10-28 21:37:47;3.39;-1319.92;47.40;27.50
2020-10-28 21:37:53;3.39;-1319.92;46.30;27.50
2020-10-28 21:37:59;3.38;-1319.92;45.60;27.60
2020-10-28 21:38:05;3.38;-1319.92;44.90;27.70
2020-10-28 21:38:11;3.39;-1319.92;45.40;27.70
2020-10-28 21:38:17;3.39;-1319.92;44.60;27.80
2020-10-28 21:38:22;3.39;-1319.92;44.40;27.80
2020-10-28 21:38:28;3.39;-1319.92;43.90;27.90
2020-10-28 21:38:34;3.39;-1319.92;43.30;27.90
2020-10-28 21:38:40;3.38;-1319.92;42.90;28.00
2020-10-28 21:38:46;3.38;-1319.92;42.50;28.00
2020-10-28 21:38:52;3.39;-1319.92;42.90;28.00
2020-10-28 21:38:57;3.38;-1319.92;42.70;28.10
2020-10-28 21:39:03;3.38;-1319.92;43.70;28.10
2020-10-28 21:39:09;3.39;-1319.92;43.30;28.20
2020-10-28 21:39:15;3.39;-1319.92;43.60;28.20
2020-10-28 21:39:21;3.36;-1319.92;43.20;28.20
2020-10-28 21:39:27;3.39;-1319.92;42.80;28.20
2020-10-28 21:39:33;3.38;-1319.92;43.00;28.30
2020-10-28 21:39:38;3.37;-1319.92;42.50;28.30
2020-10-28 21:39:44;3.39;-1319.92;42.40;28.30
#2020-10-28 21:40:37;3.73;-1319.92;42.50;28.40
2020-10-28 21:40:42;3.73;-1319.92;42.40;28.40
2020-10-28 21:40:48;3.71;-1319.92;41.80;28.30
2020-10-28 21:40:54;3.73;-1319.92;42.00;28.30
2020-10-28 21:41:00;3.72;-1319.92;41.70;28.30
2020-10-28 21:41:06;3.73;-1319.92;41.30;28.20
2020-10-28 21:41:12;3.73;-1319.92;42.30;28.20
2020-10-28 21:41:17;3.73;-1319.92;42.40;28.20
2020-10-28 21:41:23;3.73;-1319.92;42.00;28.10
2020-10-28 21:41:29;3.73;-1319.92;41.80;28.10
2020-10-28 21:41:35;3.72;-1319.92;41.60;28.10
2020-10-28 21:41:41;3.73;-1319.92;41.40;28.00
2020-10-28 21:41:47;3.72;-1319.92;41.50;28.00
2020-10-28 21:41:53;3.73;-1319.92;41.40;27.90
2020-10-28 21:41:58;3.73;-1319.92;41.50;27.90
2020-10-28 21:42:04;3.73;-1319.92;41.50;27.90
2020-10-28 21:42:10;3.73;-1319.92;41.60;27.80
2020-10-28 21:42:16;3.73;-1319.92;41.70;27.80
2020-10-28 21:42:22;3.73;-1319.92;41.90;27.70
2020-10-28 21:42:28;3.73;-1319.92;42.40;27.70
2020-10-28 21:42:33;3.73;-1319.92;42.40;27.70
2020-10-28 21:42:39;3.73;-1319.92;42.70;27.70
2020-10-28 21:42:45;3.73;-1319.92;42.40;27.60
2020-10-28 21:42:51;3.73;-1319.92;42.20;27.60
2020-10-28 21:42:57;3.73;-1319.92;42.00;27.50
2020-10-28 21:43:03;3.71;-1319.92;42.20;27.50
2020-10-28 21:43:08;3.73;-1319.92;42.30;27.50
2020-10-28 21:43:14;3.73;-1319.92;42.20;27.40
2020-10-28 21:43:20;3.73;-1319.92;42.30;27.40
2020-10-28 21:43:26;3.73;-1319.92;42.30;27.40
2020-10-28 21:43:32;3.71;-1319.92;42.40;27.30
