2020-12-24 00:03:46;1;127;127;127;127;127;127;127;127;127;127;
2020-12-24 00:03:46;2;122;122;122;122;122;122;122;122;122;122;
2020-12-24 00:03:46;3;51;51;51;51;51;51;51;51;51;51;
2020-12-24 00:03:46;4;124;124;124;124;124;124;124;124;124;124;
2020-12-24 00:03:46;5;136;136;136;136;136;136;136;136;135;136;
2020-12-24 00:03:46;ht;99;19.30
2020-12-24 00:03:46;v;4.15
2020-12-24 00:33:49;1;127;127;127;127;127;127;127;127;127;127;
2020-12-24 00:33:49;2;124;124;124;124;124;124;124;124;124;124;
2020-12-24 00:33:49;3;128;128;128;128;128;128;128;128;128;128;
2020-12-24 00:33:49;4;125;125;125;125;125;125;125;125;125;125;
2020-12-24 00:33:49;5;136;136;136;136;136;136;136;136;136;136;
2020-12-24 00:33:49;ht;99;17.30
2020-12-24 00:33:49;v;4.15
2020-12-24 01:03:47;1;127;127;127;127;127;127;127;127;127;127;
2020-12-24 01:03:47;2;122;122;122;122;122;122;122;122;122;122;
2020-12-24 01:03:47;3;54;54;55;55;54;54;54;54;54;53;
2020-12-24 01:03:47;4;125;125;125;125;125;125;125;125;125;125;
2020-12-24 01:03:47;5;134;134;134;134;135;134;134;135;134;135;
2020-12-24 01:03:47;ht;99;17.60
2020-12-24 01:03:47;v;4.15
2020-12-24 01:33:49;1;127;127;127;127;127;127;127;127;127;127;
2020-12-24 01:33:49;2;124;124;124;124;124;124;124;124;124;124;
2020-12-24 01:33:49;3;123;123;123;123;123;123;123;123;123;123;
2020-12-24 01:33:49;4;125;125;125;125;125;125;125;125;125;125;
2020-12-24 01:33:49;5;2;1;2;2;2;1;2;2;2;1;
2020-12-24 01:33:49;ht;99;17.60
2020-12-24 01:33:49;v;4.15
2020-12-24 02:03:46;1;127;127;127;127;127;127;127;127;127;127;
2020-12-24 02:03:46;2;124;124;124;124;124;124;124;124;124;124;
2020-12-24 02:03:46;3;40;39;39;40;39;40;39;40;39;39;
2020-12-24 02:03:46;4;126;126;126;126;126;126;126;126;126;126;
2020-12-24 02:03:46;5;2;2;2;2;2;2;2;2;2;2;
2020-12-24 02:03:46;ht;99;17.10
2020-12-24 02:03:46;v;4.15
2020-12-24 02:33:48;1;125;125;125;125;125;125;125;125;125;125;
2020-12-24 02:33:48;2;125;125;125;125;125;125;125;125;125;125;
2020-12-24 02:33:48;3;43;43;43;43;43;43;43;43;43;43;
2020-12-24 02:33:48;4;125;125;125;125;125;125;125;125;125;125;
2020-12-24 02:33:48;5;130;130;130;130;130;130;130;130;130;130;
2020-12-24 02:33:48;ht;99;17.60
2020-12-24 02:33:48;v;4.15
2020-12-24 03:03:45;1;127;127;127;127;127;127;127;127;127;127;
2020-12-24 03:03:45;2;121;121;121;121;122;122;121;121;121;121;
2020-12-24 03:03:45;3;40;40;40;40;40;40;40;40;40;40;
2020-12-24 03:03:45;4;125;125;125;125;125;125;125;125;125;125;
2020-12-24 03:03:45;5;127;127;127;127;127;127;127;127;127;127;
2020-12-24 03:03:45;ht;99;17.10
2020-12-24 03:03:45;v;4.15
2020-12-24 03:33:47;1;126;126;126;126;126;126;126;126;126;126;
2020-12-24 03:33:47;2;123;123;123;123;123;123;123;123;123;123;
2020-12-24 03:33:47;3;126;126;126;126;126;126;126;126;126;126;
2020-12-24 03:33:47;4;125;125;125;125;124;125;124;124;125;125;
2020-12-24 03:33:47;5;115;115;115;115;115;115;115;115;115;116;
2020-12-24 03:33:47;ht;99;16.70
2020-12-24 03:33:47;v;4.15
2020-12-24 04:03:44;1;122;122;122;122;122;122;122;122;122;122;
2020-12-24 04:03:44;2;123;123;123;123;123;123;123;123;123;123;
2020-12-24 04:03:44;3;125;125;124;124;125;125;125;125;125;125;
2020-12-24 04:03:44;4;125;125;125;125;125;125;125;125;125;125;
2020-12-24 04:03:44;5;134;135;134;135;135;134;134;134;135;134;
2020-12-24 04:03:44;ht;99;16.80
2020-12-24 04:03:44;v;4.15
2020-12-24 04:33:46;1;124;124;124;124;124;124;124;124;124;124;
2020-12-24 04:33:46;2;124;124;124;124;124;124;125;124;124;124;
2020-12-24 04:33:46;3;41;41;41;41;41;41;41;41;41;41;
2020-12-24 04:33:46;4;124;124;124;124;124;124;124;124;124;124;
2020-12-24 04:33:46;5;2;2;2;2;2;2;2;2;1;2;
2020-12-24 04:33:46;ht;99;16.50
2020-12-24 04:33:46;v;4.15
2020-12-24 05:03:47;1;125;125;125;125;125;125;125;125;125;125;
2020-12-24 05:03:47;2;123;122;122;123;122;122;122;122;122;122;
2020-12-24 05:03:47;3;112;112;112;112;112;112;112;112;112;112;
2020-12-24 05:03:47;4;125;125;125;124;124;125;125;124;125;125;
2020-12-24 05:03:47;5;1;1;1;1;1;1;1;1;1;1;
2020-12-24 05:03:47;ht;99;16.00
2020-12-24 05:03:47;v;4.15
2020-12-24 05:33:48;1;127;127;127;127;127;127;127;127;127;127;
2020-12-24 05:33:48;2;124;124;124;124;124;124;124;124;124;124;
2020-12-24 05:33:48;3;127;126;126;126;126;126;126;126;126;126;
2020-12-24 05:33:48;4;125;125;125;125;125;125;125;125;125;125;
2020-12-24 05:33:48;5;123;122;123;123;123;122;123;123;123;122;
2020-12-24 05:33:48;ht;99;15.90
2020-12-24 05:33:48;v;4.15
2020-12-24 06:03:44;1;125;125;125;125;125;125;125;125;125;125;
2020-12-24 06:03:44;2;124;123;124;123;123;123;124;124;123;123;
2020-12-24 06:03:44;3;40;39;39;40;40;40;40;40;40;40;
2020-12-24 06:03:44;4;125;125;125;125;125;125;125;125;125;125;
2020-12-24 06:03:44;5;130;130;130;130;130;130;130;130;130;130;
2020-12-24 06:03:44;ht;99;15.50
2020-12-24 06:03:44;v;4.15
2020-12-24 06:33:45;1;126;126;126;126;126;126;126;125;126;125;
2020-12-24 06:33:45;2;123;123;123;123;123;124;123;123;123;123;
2020-12-24 06:33:45;3;114;114;114;114;114;114;114;114;114;114;
2020-12-24 06:33:45;4;124;124;124;124;124;124;124;124;124;124;
2020-12-24 06:33:45;5;123;122;123;123;123;122;122;122;122;122;
2020-12-24 06:33:45;ht;99;17.20
2020-12-24 06:33:45;v;4.15
2020-12-24 07:03:47;1;120;120;120;120;120;120;120;120;120;119;
2020-12-24 07:03:47;2;122;123;123;122;122;123;122;123;123;123;
2020-12-24 07:03:47;3;109;109;109;109;109;109;108;109;109;109;
2020-12-24 07:03:47;4;124;124;124;124;124;124;124;124;124;124;
2020-12-24 07:03:47;5;121;122;121;121;121;121;121;121;121;122;
2020-12-24 07:03:47;ht;99;19.40
2020-12-24 07:03:47;v;4.14
2020-12-24 07:33:46;1;121;120;120;120;120;120;120;120;120;120;
2020-12-24 07:33:46;2;119;119;119;119;119;119;118;119;119;119;
2020-12-24 07:33:46;3;116;116;116;116;116;116;116;116;116;116;
2020-12-24 07:33:46;4;125;125;125;125;125;124;125;125;124;124;
2020-12-24 07:33:46;5;119;119;119;118;118;118;118;118;118;118;
2020-12-24 07:33:46;ht;99;21.20
2020-12-24 07:33:46;v;4.15
2020-12-24 08:03:51;1;124;124;124;124;124;124;124;124;124;124;
2020-12-24 08:03:51;2;122;122;122;122;122;122;122;122;122;122;
2020-12-24 08:03:51;3;127;127;127;127;127;127;127;127;127;127;
2020-12-24 08:03:51;4;124;124;124;124;124;124;124;124;124;123;
2020-12-24 08:03:51;5;113;113;113;113;113;112;113;113;113;113;
2020-12-24 08:03:51;ht;99;24.30
2020-12-24 08:03:51;v;4.15
2020-12-24 08:33:49;1;126;126;126;126;126;126;126;126;126;126;
2020-12-24 08:33:49;2;118;118;118;118;118;118;118;118;118;118;
2020-12-24 08:33:49;3;123;123;123;123;123;123;123;123;123;123;
2020-12-24 08:33:49;4;120;120;120;120;120;120;120;120;120;120;
2020-12-24 08:33:49;5;121;121;121;121;121;121;121;121;121;121;
2020-12-24 08:33:49;ht;99;25.40
2020-12-24 08:33:49;v;4.15
2020-12-24 09:03:54;1;121;121;120;121;121;121;121;121;121;121;
2020-12-24 09:03:54;2;121;121;121;121;121;121;121;121;121;121;
2020-12-24 09:03:54;3;129;134;134;132;129;127;127;130;137;136;
2020-12-24 09:03:54;4;120;120;120;120;120;120;120;120;120;120;
2020-12-24 09:03:54;5;134;134;134;134;134;134;134;134;134;134;
2020-12-24 09:03:54;ht;99;27.70
2020-12-24 09:03:54;v;4.15
2020-12-24 09:33:55;1;125;125;125;125;125;125;125;125;125;125;
2020-12-24 09:33:55;2;123;122;122;122;122;122;122;122;122;122;
2020-12-24 09:33:55;3;130;130;130;130;130;129;130;129;130;129;
2020-12-24 09:33:55;4;119;119;119;119;119;119;119;119;119;119;
2020-12-24 09:33:55;5;125;125;125;125;125;125;125;125;125;125;
2020-12-24 09:33:55;ht;99;28.50
2020-12-24 09:33:55;v;4.16
2020-12-24 10:03:54;1;126;126;126;126;126;126;126;126;126;126;
2020-12-24 10:03:54;2;120;120;120;120;120;120;120;120;126;122;
2020-12-24 10:03:54;3;106;112;108;106;105;104;114;124;124;122;
2020-12-24 10:03:54;4;121;121;121;121;121;121;121;121;121;121;
2020-12-24 10:03:54;5;114;114;114;114;114;114;114;114;114;114;
2020-12-24 10:03:54;ht;95;29.60
2020-12-24 10:03:54;v;4.16
2020-12-24 10:33:58;1;126;126;126;126;126;126;126;126;126;126;
2020-12-24 10:33:58;2;121;120;121;121;121;121;121;121;120;121;
2020-12-24 10:33:58;3;101;100;111;117;121;117;117;128;127;131;
2020-12-24 10:33:58;4;121;122;122;122;122;122;122;122;122;122;
2020-12-24 10:33:58;5;124;124;124;124;124;124;125;125;124;124;
2020-12-24 10:33:58;ht;86;31.00
2020-12-24 10:33:58;v;4.16
2020-12-24 11:03:58;1;125;125;125;125;125;125;125;125;125;125;
2020-12-24 11:03:58;2;121;121;121;121;125;124;121;121;121;121;
2020-12-24 11:03:58;3;92;92;92;92;92;92;101;107;113;109;
2020-12-24 11:03:58;4;122;122;123;123;123;123;123;123;122;123;
2020-12-24 11:03:58;5;114;113;114;113;113;113;113;114;113;114;
2020-12-24 11:03:58;ht;81;30.50
2020-12-24 11:03:58;v;4.16
2020-12-24 11:33:59;1;124;124;123;123;124;123;123;124;124;124;
2020-12-24 11:33:59;2;119;119;119;120;120;120;120;120;120;120;
2020-12-24 11:33:59;3;107;107;106;106;106;106;105;105;105;105;
2020-12-24 11:33:59;4;122;122;122;122;122;122;122;122;122;122;
2020-12-24 11:33:59;5;117;117;117;117;117;117;117;117;117;117;
2020-12-24 11:33:59;ht;83;31.40
2020-12-24 11:33:59;v;4.16
2020-12-24 12:03:56;1;125;125;125;124;124;125;124;125;125;125;
2020-12-24 12:03:56;2;118;118;123;121;118;118;118;118;118;118;
2020-12-24 12:03:56;3;131;130;130;130;131;131;130;130;131;130;
2020-12-24 12:03:56;4;121;121;121;121;121;121;121;121;121;121;
2020-12-24 12:03:56;5;123;123;123;123;123;123;123;123;123;123;
2020-12-24 12:03:56;ht;76;31.60
2020-12-24 12:03:56;v;4.16
2020-12-24 12:33:58;1;122;122;122;122;122;122;122;122;122;122;
2020-12-24 12:33:58;2;117;117;117;117;117;117;117;117;117;117;
2020-12-24 12:33:58;3;138;138;137;137;137;137;137;137;137;137;
2020-12-24 12:33:58;4;122;122;121;122;122;122;122;122;122;122;
2020-12-24 12:33:58;5;122;123;123;122;123;123;123;123;123;122;
2020-12-24 12:33:58;ht;77;32.40
2020-12-24 12:33:58;v;4.16
2020-12-24 13:04:01;1;127;126;127;126;127;127;127;127;127;127;
2020-12-24 13:04:01;2;115;115;114;114;114;115;115;120;117;115;
2020-12-24 13:04:01;3;125;125;126;126;126;126;126;126;126;126;
2020-12-24 13:04:01;4;121;121;121;121;121;121;121;121;121;121;
2020-12-24 13:04:01;5;2;1;1;2;1;1;1;1;1;2;
2020-12-24 13:04:01;ht;71;32.60
2020-12-24 13:04:01;v;4.16
2020-12-24 13:34:00;1;124;124;124;124;124;124;124;124;124;124;
2020-12-24 13:34:00;2;115;114;115;115;114;115;115;114;115;115;
2020-12-24 13:34:00;3;126;126;126;126;126;126;126;126;126;126;
2020-12-24 13:34:00;4;122;122;122;122;122;122;122;122;122;122;
2020-12-24 13:34:00;5;2;2;2;2;2;1;2;2;2;2;
2020-12-24 13:34:00;ht;74;32.70
2020-12-24 13:34:00;v;4.16
2020-12-24 14:04:00;1;126;126;125;126;126;126;126;126;125;126;
2020-12-24 14:04:00;2;114;114;113;113;114;114;113;114;113;113;
2020-12-24 14:04:00;3;141;141;141;141;141;141;141;141;141;141;
2020-12-24 14:04:00;4;122;122;122;122;122;122;122;122;122;122;
2020-12-24 14:04:00;5;1;1;1;1;2;2;2;2;2;2;
2020-12-24 14:04:00;ht;63;31.30
2020-12-24 14:04:00;v;4.16
2020-12-24 14:33:58;1;122;122;122;122;121;122;122;122;122;122;
2020-12-24 14:33:58;2;119;119;118;119;119;119;119;119;119;119;
2020-12-24 14:33:58;3;121;121;121;122;121;121;121;121;121;122;
2020-12-24 14:33:58;4;116;117;117;117;117;117;117;117;117;117;
2020-12-24 14:33:58;5;1;1;1;1;1;1;1;1;1;1;
2020-12-24 14:33:58;ht;78;30.80
2020-12-24 14:33:58;v;4.16
2020-12-24 15:04:00;1;125;125;125;125;125;125;125;125;125;125;
2020-12-24 15:04:00;2;123;123;123;123;123;123;122;123;123;123;
2020-12-24 15:04:00;3;117;117;117;117;116;116;116;116;116;116;
2020-12-24 15:04:00;4;121;121;121;121;121;121;121;121;121;121;
2020-12-24 15:04:00;5;124;124;124;124;124;124;124;124;124;123;
2020-12-24 15:04:00;ht;67;31.90
2020-12-24 15:04:00;v;4.16
2020-12-24 15:33:57;1;125;124;125;124;125;125;124;125;125;124;
2020-12-24 15:33:57;2;119;119;119;119;119;119;119;126;121;119;
2020-12-24 15:33:57;3;131;131;131;131;131;132;134;136;136;135;
2020-12-24 15:33:57;4;121;121;121;121;121;121;121;121;121;120;
2020-12-24 15:33:57;5;124;124;124;124;124;124;124;124;124;124;
2020-12-24 15:33:57;ht;74;32.20
2020-12-24 15:33:57;v;4.16
2020-12-24 16:04:00;1;123;123;123;123;123;123;123;123;123;123;
2020-12-24 16:04:00;2;123;122;123;123;123;122;123;123;126;126;
2020-12-24 16:04:00;3;140;138;137;136;135;135;135;134;134;134;
2020-12-24 16:04:00;4;120;119;119;119;119;120;120;120;120;120;
2020-12-24 16:04:00;5;123;123;123;123;123;122;123;123;123;123;
2020-12-24 16:04:00;ht;69;32.70
2020-12-24 16:04:00;v;4.16
2020-12-24 16:33:59;1;124;124;124;124;124;124;124;124;124;131;
2020-12-24 16:33:59;2;120;120;120;128;121;121;120;120;120;120;
2020-12-24 16:33:59;3;107;106;106;106;105;105;105;105;105;104;
2020-12-24 16:33:59;4;118;118;118;118;118;118;118;118;118;117;
2020-12-24 16:33:59;5;112;111;111;112;111;111;111;111;111;111;
2020-12-24 16:33:59;ht;73;30.70
2020-12-24 16:33:59;v;4.16
2020-12-24 17:04:01;1;124;124;124;124;124;124;124;124;124;124;
2020-12-24 17:04:01;2;123;123;123;123;123;123;123;123;123;123;
2020-12-24 17:04:01;3;139;138;138;138;138;138;138;138;138;138;
2020-12-24 17:04:01;4;119;119;119;119;119;119;119;119;118;119;
2020-12-24 17:04:01;5;110;110;110;110;110;110;110;110;110;110;
2020-12-24 17:04:01;ht;68;32.00
2020-12-24 17:04:01;v;4.16
2020-12-24 17:33:59;1;126;126;126;126;126;126;126;126;126;126;
2020-12-24 17:33:59;2;116;116;116;116;116;116;116;116;116;116;
2020-12-24 17:33:59;3;120;120;120;119;119;119;119;119;119;119;
2020-12-24 17:33:59;4;119;119;119;119;119;119;119;119;119;119;
2020-12-24 17:33:59;5;135;135;135;135;135;135;135;134;134;135;
2020-12-24 17:33:59;ht;71;31.10
2020-12-24 17:33:59;v;4.16
2020-12-24 18:03:56;1;125;125;125;125;125;125;125;125;125;125;
2020-12-24 18:03:56;2;120;120;120;120;120;120;120;120;120;120;
2020-12-24 18:03:56;3;132;132;132;132;132;132;131;131;131;131;
2020-12-24 18:03:56;4;119;119;118;119;119;118;119;119;118;118;
2020-12-24 18:03:56;5;106;105;106;106;105;105;106;105;106;105;
2020-12-24 18:03:56;ht;68;31.70
2020-12-24 18:03:56;v;4.17
2020-12-24 18:33:58;1;126;126;126;126;126;126;126;126;126;125;
2020-12-24 18:33:58;2;119;119;119;119;126;120;119;119;119;119;
2020-12-24 18:33:58;3;126;126;125;125;124;124;123;123;123;123;
2020-12-24 18:33:58;4;120;119;120;119;119;119;119;119;119;119;
2020-12-24 18:33:58;5;111;112;112;112;111;111;111;112;111;112;
2020-12-24 18:33:58;ht;70;31.00
2020-12-24 18:33:58;v;4.16
2020-12-24 19:03:59;1;123;123;123;123;123;123;123;123;123;123;
2020-12-24 19:03:59;2;123;123;123;123;123;123;123;123;123;123;
2020-12-24 19:03:59;3;126;125;124;124;123;123;123;123;122;122;
2020-12-24 19:03:59;4;120;120;120;120;120;120;120;120;120;120;
2020-12-24 19:03:59;5;119;119;119;119;119;119;119;119;119;119;
2020-12-24 19:03:59;ht;76;30.00
2020-12-24 19:03:59;v;4.17
2020-12-24 19:33:55;1;123;123;123;123;122;122;122;123;122;122;
2020-12-24 19:33:55;2;121;121;121;121;121;121;128;123;121;121;
2020-12-24 19:33:55;3;137;135;133;131;130;128;127;126;125;125;
2020-12-24 19:33:55;4;120;120;120;120;120;121;121;121;121;121;
2020-12-24 19:33:55;5;113;113;113;113;113;113;113;113;113;113;
2020-12-24 19:33:55;ht;90;28.10
2020-12-24 19:33:55;v;4.16
2020-12-24 20:03:58;1;123;123;122;123;123;122;122;123;123;123;
2020-12-24 20:03:58;2;121;121;129;121;121;121;121;120;121;121;
2020-12-24 20:03:58;3;105;105;104;104;104;103;103;103;102;102;
2020-12-24 20:03:58;4;118;118;118;118;118;118;118;118;118;118;
2020-12-24 20:03:58;5;121;120;121;121;121;121;120;121;121;121;
2020-12-24 20:03:58;ht;95;26.40
2020-12-24 20:03:58;v;4.16
2020-12-24 20:33:53;1;123;123;124;124;124;124;123;124;132;125;
2020-12-24 20:33:53;2;122;122;122;122;121;122;121;122;121;122;
2020-12-24 20:33:53;3;105;104;103;103;102;102;101;101;100;100;
2020-12-24 20:33:53;4;120;120;120;120;120;120;120;120;120;120;
2020-12-24 20:33:53;5;120;120;120;120;120;120;120;120;120;119;
2020-12-24 20:33:53;ht;99;24.60
2020-12-24 20:33:53;v;4.16
2020-12-24 21:03:52;1;126;126;126;126;126;126;126;127;126;126;
2020-12-24 21:03:52;2;121;121;121;121;121;121;122;122;122;122;
2020-12-24 21:03:52;3;94;94;93;93;92;92;92;92;92;91;
2020-12-24 21:03:52;4;120;120;120;120;120;120;120;120;120;120;
2020-12-24 21:03:52;5;126;126;126;126;126;126;126;126;126;126;
2020-12-24 21:03:52;ht;99;23.90
2020-12-24 21:03:52;v;4.16
2020-12-24 21:33:50;1;124;124;124;132;125;124;124;125;124;124;
2020-12-24 21:33:50;2;126;126;126;125;125;125;125;126;126;126;
2020-12-24 21:33:50;3;105;106;102;100;98;96;95;94;93;92;
2020-12-24 21:33:50;4;120;120;120;120;120;120;120;120;120;120;
2020-12-24 21:33:50;5;114;114;114;114;114;114;114;114;114;114;
2020-12-24 21:33:50;ht;99;22.60
2020-12-24 21:33:50;v;4.16
2020-12-24 22:03:51;1;122;122;122;122;122;125;125;123;122;122;
2020-12-24 22:03:51;2;125;125;125;125;125;125;125;125;125;125;
2020-12-24 22:03:51;3;93;92;91;91;90;89;89;88;88;88;
2020-12-24 22:03:51;4;121;121;121;121;121;121;121;121;121;121;
2020-12-24 22:03:51;5;127;127;127;127;127;127;127;127;127;127;
2020-12-24 22:03:51;ht;99;22.70
2020-12-24 22:03:51;v;4.16
2020-12-24 22:33:48;1;124;124;124;124;124;124;124;124;124;124;
2020-12-24 22:33:48;2;123;123;123;123;123;123;123;123;123;123;
2020-12-24 22:33:48;3;126;126;126;126;126;126;126;126;127;127;
2020-12-24 22:33:48;4;121;121;121;121;121;121;121;121;121;121;
2020-12-24 22:33:48;5;126;126;126;126;126;126;126;126;126;126;
2020-12-24 22:33:48;ht;99;20.90
2020-12-24 22:33:48;v;4.16
2020-12-24 23:03:48;1;125;125;125;125;125;125;125;125;124;131;
2020-12-24 23:03:48;2;122;130;124;123;123;123;123;123;123;123;
2020-12-24 23:03:48;3;69;69;69;69;69;68;68;68;71;73;
2020-12-24 23:03:48;4;120;120;120;120;120;120;120;120;120;120;
2020-12-24 23:03:48;5;124;124;124;124;124;124;124;124;124;124;
2020-12-24 23:03:48;ht;99;21.00
2020-12-24 23:03:48;v;4.16
2020-12-24 23:33:48;1;126;126;126;126;126;126;126;126;126;133;
2020-12-24 23:33:48;2;125;125;125;125;125;125;125;125;125;125;
2020-12-24 23:33:48;3;85;85;84;84;83;83;82;82;81;81;
2020-12-24 23:33:48;4;122;122;122;122;122;122;122;122;122;122;
2020-12-24 23:33:48;5;120;119;120;120;120;120;120;120;120;120;
2020-12-24 23:33:48;ht;99;21.30
2020-12-24 23:33:48;v;4.16
