2020-11-19 00:03:47;1;126;126;126;126;126;126;126;126;126;126;
2020-11-19 00:03:47;2;117;117;117;117;117;117;117;117;117;117;
2020-11-19 00:03:47;3;131;131;131;131;131;131;131;131;131;131;
2020-11-19 00:03:47;4;130;130;130;130;130;130;130;130;130;130;
2020-11-19 00:03:47;5;117;117;117;117;117;117;117;117;117;117;
2020-11-19 00:03:47;ht;99;16.50
2020-11-19 00:03:47;v;4.09
2020-11-19 00:33:49;1;127;126;127;127;127;127;127;127;127;127;
2020-11-19 00:33:49;2;127;127;127;127;127;127;127;127;127;127;
2020-11-19 00:33:49;3;133;133;133;133;133;133;133;133;133;133;
2020-11-19 00:33:49;4;131;131;131;131;131;131;131;131;131;131;
2020-11-19 00:33:49;5;122;122;122;121;122;121;121;121;121;121;
2020-11-19 00:33:49;ht;99;16.90
2020-11-19 00:33:49;v;4.09
2020-11-19 01:03:46;1;128;128;128;128;128;128;128;128;128;128;
2020-11-19 01:03:46;2;125;125;125;125;125;125;125;125;125;125;
2020-11-19 01:03:46;3;132;132;132;132;132;132;132;132;132;132;
2020-11-19 01:03:46;4;131;131;131;131;131;131;131;131;131;130;
2020-11-19 01:03:46;5;122;122;122;122;122;122;122;122;122;122;
2020-11-19 01:03:46;ht;99;16.80
2020-11-19 01:03:46;v;4.08
2020-11-19 01:33:48;1;127;127;127;127;127;127;127;127;127;127;
2020-11-19 01:33:48;2;125;124;125;124;124;124;124;125;125;124;
2020-11-19 01:33:48;3;126;127;127;127;127;127;127;126;127;127;
2020-11-19 01:33:48;4;130;131;130;130;131;130;130;131;130;130;
2020-11-19 01:33:48;5;121;122;122;122;122;121;122;121;121;122;
2020-11-19 01:33:48;ht;99;16.00
2020-11-19 01:33:48;v;4.08
2020-11-19 02:03:44;1;128;129;129;129;129;128;128;129;128;129;
2020-11-19 02:03:44;2;124;124;124;124;124;124;124;124;124;124;
2020-11-19 02:03:44;3;131;131;131;131;131;131;131;131;130;131;
2020-11-19 02:03:44;4;131;131;131;131;131;131;131;131;131;131;
2020-11-19 02:03:44;5;124;124;124;124;124;124;124;124;124;124;
2020-11-19 02:03:44;ht;99;15.90
2020-11-19 02:03:44;v;4.08
2020-11-19 02:33:45;1;127;127;127;127;127;127;127;127;127;127;
2020-11-19 02:33:45;2;123;123;123;123;123;123;123;123;123;123;
2020-11-19 02:33:45;3;140;141;140;140;140;140;140;140;140;140;
2020-11-19 02:33:45;4;131;131;131;131;131;131;131;131;131;131;
2020-11-19 02:33:45;5;121;121;121;121;121;121;121;121;121;121;
2020-11-19 02:33:45;ht;99;15.30
2020-11-19 02:33:45;v;4.08
2020-11-19 03:03:46;1;130;129;130;130;129;130;130;130;130;130;
2020-11-19 03:03:46;2;124;124;124;124;124;124;124;124;124;124;
2020-11-19 03:03:46;3;131;131;131;131;131;131;131;131;131;131;
2020-11-19 03:03:46;4;132;132;132;132;132;132;132;132;132;132;
2020-11-19 03:03:46;5;110;110;110;110;110;110;110;110;110;110;
2020-11-19 03:03:46;ht;99;15.10
2020-11-19 03:03:46;v;4.08
2020-11-19 03:33:47;1;128;127;128;127;127;127;127;127;127;127;
2020-11-19 03:33:47;2;123;124;124;124;124;124;124;124;124;124;
2020-11-19 03:33:47;3;134;135;134;134;134;134;134;135;135;135;
2020-11-19 03:33:47;4;131;131;131;131;131;131;131;131;131;131;
2020-11-19 03:33:47;5;122;122;122;123;123;123;122;123;123;122;
2020-11-19 03:33:47;ht;99;14.70
2020-11-19 03:33:47;v;4.08
2020-11-19 04:03:47;1;126;126;126;126;126;126;126;126;126;126;
2020-11-19 04:03:47;2;125;125;125;125;125;125;125;125;125;125;
2020-11-19 04:03:47;3;129;129;129;129;129;129;129;129;129;129;
2020-11-19 04:03:47;4;130;130;130;130;130;130;130;130;130;130;
2020-11-19 04:03:47;5;126;126;126;126;126;126;126;126;126;126;
2020-11-19 04:03:47;ht;99;14.30
2020-11-19 04:03:47;v;4.08
2020-11-19 04:33:47;1;126;126;126;126;126;126;126;126;126;126;
2020-11-19 04:33:47;2;125;125;125;125;124;125;125;125;124;125;
2020-11-19 04:33:47;3;129;129;129;130;130;130;129;129;130;130;
2020-11-19 04:33:47;4;130;130;130;130;130;130;130;130;130;130;
2020-11-19 04:33:47;5;117;117;117;116;117;117;117;117;117;116;
2020-11-19 04:33:47;ht;99;13.90
2020-11-19 04:33:47;v;4.08
2020-11-19 05:03:43;1;126;126;134;126;126;126;126;126;126;126;
2020-11-19 05:03:43;2;125;125;125;125;125;125;125;125;125;125;
2020-11-19 05:03:43;3;132;132;132;132;132;132;132;132;132;132;
2020-11-19 05:03:43;4;130;130;130;130;130;130;130;130;130;130;
2020-11-19 05:03:43;5;122;122;122;122;122;122;122;122;122;122;
2020-11-19 05:03:43;ht;99;13.10
2020-11-19 05:03:43;v;4.08
2020-11-19 05:33:47;1;130;129;136;132;130;130;130;130;130;130;
2020-11-19 05:33:47;2;125;131;126;125;125;125;125;125;125;125;
2020-11-19 05:33:47;3;124;124;124;124;124;124;125;124;125;124;
2020-11-19 05:33:47;4;131;131;131;131;131;131;131;131;131;131;
2020-11-19 05:33:47;5;121;121;121;121;121;121;121;121;121;121;
2020-11-19 05:33:47;ht;99;13.40
2020-11-19 05:33:47;v;4.08
2020-11-19 06:03:47;1;132;131;131;131;132;131;132;132;132;132;
2020-11-19 06:03:47;2;121;121;121;121;121;121;121;121;121;121;
2020-11-19 06:03:47;3;134;134;134;133;133;133;133;133;133;133;
2020-11-19 06:03:47;4;133;133;133;133;133;133;133;133;133;133;
2020-11-19 06:03:47;5;117;117;117;117;117;117;117;117;117;117;
2020-11-19 06:03:47;ht;99;13.50
2020-11-19 06:03:47;v;4.08
2020-11-19 06:33:47;1;122;122;122;122;122;122;122;122;122;122;
2020-11-19 06:33:47;2;125;125;125;125;125;125;125;125;125;125;
2020-11-19 06:33:47;3;123;123;123;123;123;123;123;123;123;123;
2020-11-19 06:33:47;4;130;130;130;130;130;130;130;130;130;130;
2020-11-19 06:33:47;5;118;118;118;118;118;118;118;118;118;118;
2020-11-19 06:33:47;ht;99;14.90
2020-11-19 06:33:47;v;4.08
2020-11-19 07:03:48;1;134;129;128;128;128;127;127;127;128;127;
2020-11-19 07:03:48;2;125;125;125;125;125;125;125;125;125;125;
2020-11-19 07:03:48;3;128;128;128;128;128;129;128;128;128;128;
2020-11-19 07:03:48;4;132;132;132;132;132;132;132;132;132;132;
2020-11-19 07:03:48;5;124;124;124;124;124;124;124;124;124;124;
2020-11-19 07:03:48;ht;99;16.20
2020-11-19 07:03:48;v;4.08
2020-11-19 07:33:45;1;127;134;128;127;127;127;126;126;126;126;
2020-11-19 07:33:45;2;117;117;117;117;117;117;117;117;117;117;
2020-11-19 07:33:45;3;130;130;130;130;130;130;130;130;130;130;
2020-11-19 07:33:45;4;130;130;131;130;131;130;130;130;130;131;
2020-11-19 07:33:45;5;121;121;121;121;121;121;121;121;121;121;
2020-11-19 07:33:45;ht;99;17.90
2020-11-19 07:33:45;v;4.08
2020-11-19 08:03:49;1;122;122;122;122;122;122;122;122;122;122;
2020-11-19 08:03:49;2;125;125;125;125;125;125;125;125;125;125;
2020-11-19 08:03:49;3;128;129;128;128;128;128;128;128;128;128;
2020-11-19 08:03:49;4;131;131;131;131;131;131;131;131;131;131;
2020-11-19 08:03:49;5;123;123;123;123;123;123;123;123;123;123;
2020-11-19 08:03:49;ht;99;19.50
2020-11-19 08:03:49;v;4.08
2020-11-19 08:33:50;1;128;128;128;128;128;128;128;128;128;128;
2020-11-19 08:33:50;2;122;122;122;122;122;122;122;122;122;122;
2020-11-19 08:33:50;3;129;129;129;129;129;129;129;129;128;128;
2020-11-19 08:33:50;4;129;129;129;129;129;129;129;129;129;129;
2020-11-19 08:33:50;5;125;125;125;125;125;125;125;125;125;125;
2020-11-19 08:33:50;ht;99;19.40
2020-11-19 08:33:50;v;4.08
2020-11-19 09:03:51;1;119;119;119;119;119;119;119;119;119;119;
2020-11-19 09:03:51;2;123;123;123;123;123;123;123;123;123;123;
2020-11-19 09:03:51;3;130;130;130;130;130;130;130;130;130;130;
2020-11-19 09:03:51;4;130;130;131;131;130;130;130;130;130;130;
2020-11-19 09:03:51;5;116;116;116;115;115;115;115;115;115;115;
2020-11-19 09:03:51;ht;99;22.10
2020-11-19 09:03:51;v;4.08
2020-11-19 09:33:54;1;124;124;124;124;124;124;124;124;124;124;
2020-11-19 09:33:54;2;129;124;122;122;122;122;122;122;122;122;
2020-11-19 09:33:54;3;129;129;128;128;128;128;128;128;128;128;
2020-11-19 09:33:54;4;129;128;129;128;129;129;129;129;129;128;
2020-11-19 09:33:54;5;1;2;1;1;2;1;2;1;1;2;
2020-11-19 09:33:54;ht;99;24.10
2020-11-19 09:33:54;v;4.08
2020-11-19 10:03:53;1;136;135;136;135;136;136;135;136;136;143;
2020-11-19 10:03:53;2;123;123;123;123;123;123;123;123;123;123;
2020-11-19 10:03:53;3;129;129;129;130;129;129;129;129;129;129;
2020-11-19 10:03:53;4;131;131;131;131;131;131;131;131;131;131;
2020-11-19 10:03:53;5;118;118;118;118;118;118;118;118;118;118;
2020-11-19 10:03:53;ht;99;24.40
2020-11-19 10:03:53;v;4.08
2020-11-19 10:33:53;1;126;126;126;126;131;131;127;127;126;127;
2020-11-19 10:33:53;2;123;123;123;123;123;123;122;123;123;123;
2020-11-19 10:33:53;3;131;131;131;131;131;131;131;131;131;131;
2020-11-19 10:33:53;4;131;131;131;131;131;131;131;131;131;131;
2020-11-19 10:33:53;5;2;2;2;2;1;2;2;2;2;2;
2020-11-19 10:33:53;ht;99;25.50
2020-11-19 10:33:53;v;4.08
2020-11-19 11:03:54;1;124;124;124;124;123;124;124;124;124;128;
2020-11-19 11:03:54;2;124;124;124;124;124;124;130;125;124;124;
2020-11-19 11:03:54;3;126;126;126;126;126;126;126;126;126;126;
2020-11-19 11:03:54;4;130;130;130;130;130;130;130;130;130;130;
2020-11-19 11:03:54;5;122;122;122;122;122;122;122;122;122;122;
2020-11-19 11:03:54;ht;92;26.20
2020-11-19 11:03:54;v;4.08
2020-11-19 11:33:55;1;122;122;122;122;122;122;122;122;122;130;
2020-11-19 11:33:55;2;122;122;122;122;122;122;122;122;122;122;
2020-11-19 11:33:55;3;129;128;128;128;128;128;128;128;128;128;
2020-11-19 11:33:55;4;130;130;130;130;130;130;130;130;130;130;
2020-11-19 11:33:55;5;113;113;112;113;113;112;113;112;113;113;
2020-11-19 11:33:55;ht;92;27.30
2020-11-19 11:33:55;v;4.08
2020-11-19 12:03:53;1;125;125;125;125;125;124;124;124;124;124;
2020-11-19 12:03:53;2;117;117;117;116;117;117;117;117;117;117;
2020-11-19 12:03:53;3;127;127;127;127;127;127;127;127;127;127;
2020-11-19 12:03:53;4;129;129;129;129;129;129;129;129;129;129;
2020-11-19 12:03:53;5;124;124;124;124;124;124;124;124;124;125;
2020-11-19 12:03:53;ht;62;27.90
2020-11-19 12:03:53;v;4.08
2020-11-19 12:33:56;1;125;125;125;125;125;125;125;125;125;125;
2020-11-19 12:33:56;2;117;117;124;118;117;117;117;117;117;117;
2020-11-19 12:33:56;3;122;122;122;121;121;121;121;121;121;121;
2020-11-19 12:33:56;4;131;131;131;131;131;131;131;131;131;131;
2020-11-19 12:33:56;5;115;115;115;115;115;115;115;115;115;115;
2020-11-19 12:33:56;ht;52;28.30
2020-11-19 12:33:56;v;4.08
2020-11-19 13:03:55;1;129;128;128;128;128;128;128;128;128;128;
2020-11-19 13:03:55;2;116;116;116;116;116;116;116;116;116;116;
2020-11-19 13:03:55;3;125;125;125;125;125;125;125;125;125;125;
2020-11-19 13:03:55;4;131;131;131;131;131;131;131;131;131;131;
2020-11-19 13:03:55;5;119;119;119;119;119;119;119;119;119;119;
2020-11-19 13:03:55;ht;58;28.30
2020-11-19 13:03:55;v;4.08
2020-11-19 13:33:59;1;127;127;126;127;131;130;127;127;127;127;
2020-11-19 13:33:59;2;124;123;124;123;123;124;123;124;123;123;
2020-11-19 13:33:59;3;125;125;125;125;125;125;125;125;125;125;
2020-11-19 13:33:59;4;130;130;130;130;130;130;131;130;130;130;
2020-11-19 13:33:59;5;118;118;118;118;118;118;118;118;118;118;
2020-11-19 13:33:59;ht;61;28.60
2020-11-19 13:33:59;v;4.08
2020-11-19 14:03:58;1;118;118;118;118;118;118;118;118;118;118;
2020-11-19 14:03:58;2;125;125;125;125;125;125;125;125;124;124;
2020-11-19 14:03:58;3;137;137;137;137;137;137;137;137;137;137;
2020-11-19 14:03:58;4;131;131;132;132;132;132;132;132;132;132;
2020-11-19 14:03:58;5;119;119;119;119;119;119;119;119;119;119;
2020-11-19 14:03:58;ht;45;28.80
2020-11-19 14:03:58;v;4.08
2020-11-19 14:33:58;1;140;140;140;139;139;140;140;140;147;141;
2020-11-19 14:33:58;2;120;120;120;120;119;120;120;120;120;120;
2020-11-19 14:33:58;3;127;127;127;127;127;126;126;126;126;127;
2020-11-19 14:33:58;4;133;132;133;133;133;133;132;132;133;132;
2020-11-19 14:33:58;5;2;1;2;2;2;1;2;2;2;2;
2020-11-19 14:33:58;ht;50;29.60
2020-11-19 14:33:58;v;4.08
2020-11-19 15:03:59;1;123;123;123;123;123;123;123;123;130;124;
2020-11-19 15:03:59;2;120;125;124;121;121;121;121;121;121;121;
2020-11-19 15:03:59;3;132;132;132;132;132;132;132;132;132;132;
2020-11-19 15:03:59;4;131;131;131;131;131;131;131;131;131;131;
2020-11-19 15:03:59;5;1;1;1;1;1;1;1;1;1;1;
2020-11-19 15:03:59;ht;49;27.80
2020-11-19 15:03:59;v;4.08
2020-11-19 15:33:58;1;126;134;126;126;126;126;126;126;126;126;
2020-11-19 15:33:58;2;123;122;123;123;123;122;123;123;123;123;
2020-11-19 15:33:58;3;122;122;122;122;122;122;121;122;122;121;
2020-11-19 15:33:58;4;130;130;130;130;130;130;130;130;130;130;
2020-11-19 15:33:58;5;123;123;123;123;123;123;123;123;123;123;
2020-11-19 15:33:58;ht;57;26.80
2020-11-19 15:33:58;v;4.08
2020-11-19 16:03:58;1;124;124;124;124;130;126;125;125;125;124;
2020-11-19 16:03:58;2;115;115;115;115;115;115;115;115;115;115;
2020-11-19 16:03:58;3;122;121;122;121;122;121;121;122;122;122;
2020-11-19 16:03:58;4;130;130;130;130;130;130;130;130;130;130;
2020-11-19 16:03:58;5;123;123;123;123;123;123;123;123;123;123;
2020-11-19 16:03:58;ht;46;29.10
2020-11-19 16:03:58;v;4.08
2020-11-19 16:33:57;1;134;126;126;126;125;125;125;125;125;125;
2020-11-19 16:33:57;2;122;122;122;122;122;122;122;122;122;122;
2020-11-19 16:33:57;3;113;113;113;113;113;113;113;113;113;113;
2020-11-19 16:33:57;4;131;131;131;131;131;131;131;131;131;131;
2020-11-19 16:33:57;5;126;126;126;126;125;126;126;126;126;126;
2020-11-19 16:33:57;ht;42;29.60
2020-11-19 16:33:57;v;4.08
2020-11-19 17:03:57;1;129;128;128;127;128;127;128;128;128;127;
2020-11-19 17:03:57;2;123;123;123;123;123;123;123;123;123;123;
2020-11-19 17:03:57;3;4;4;4;4;4;3;4;4;4;4;
2020-11-19 17:03:57;4;132;132;132;132;133;132;132;132;132;132;
2020-11-19 17:03:57;5;1;1;1;1;1;1;1;1;1;1;
2020-11-19 17:03:57;ht;44;28.90
2020-11-19 17:03:57;v;4.08
2020-11-19 17:33:57;1;137;137;137;137;137;144;138;137;137;137;
2020-11-19 17:33:57;2;120;120;120;120;120;120;120;120;120;120;
2020-11-19 17:33:57;3;39;39;39;39;39;39;39;39;39;39;
2020-11-19 17:33:57;4;129;129;129;129;129;129;129;129;129;129;
2020-11-19 17:33:57;5;122;122;122;122;122;122;122;122;122;122;
2020-11-19 17:33:57;ht;45;28.30
2020-11-19 17:33:57;v;4.08
2020-11-19 18:03:56;1;132;129;127;126;126;126;126;126;126;126;
2020-11-19 18:03:56;2;122;122;121;122;122;122;122;122;122;122;
2020-11-19 18:03:56;3;41;41;41;40;40;41;41;41;41;40;
2020-11-19 18:03:56;4;127;127;127;127;127;127;127;127;127;127;
2020-11-19 18:03:56;5;117;117;117;117;117;117;117;117;117;117;
2020-11-19 18:03:56;ht;48;27.70
2020-11-19 18:03:56;v;4.08
2020-11-19 18:33:55;1;123;123;122;123;123;123;123;123;123;123;
2020-11-19 18:33:55;2;122;122;122;122;122;122;122;122;122;122;
2020-11-19 18:33:55;3;50;50;50;50;50;51;50;50;50;50;
2020-11-19 18:33:55;4;129;129;129;129;129;129;129;129;129;129;
2020-11-19 18:33:55;5;121;121;121;121;121;121;121;121;121;121;
2020-11-19 18:33:55;ht;50;27.00
2020-11-19 18:33:55;v;4.08
2020-11-19 19:03:56;1;126;126;126;126;126;126;126;126;126;126;
2020-11-19 19:03:56;2;118;118;118;118;118;118;118;118;118;118;
2020-11-19 19:03:56;3;45;45;45;45;45;45;45;45;45;45;
2020-11-19 19:03:56;4;130;130;130;130;130;130;130;130;130;130;
2020-11-19 19:03:56;5;117;117;117;117;117;117;117;117;117;117;
2020-11-19 19:03:56;ht;55;25.40
2020-11-19 19:03:56;v;4.08
2020-11-19 19:33:52;1;127;134;128;127;127;127;127;127;127;127;
2020-11-19 19:33:52;2;124;124;124;124;124;124;124;124;124;124;
2020-11-19 19:33:52;3;44;44;44;44;44;44;44;44;43;44;
2020-11-19 19:33:52;4;130;130;130;131;130;130;130;131;130;130;
2020-11-19 19:33:52;5;122;122;123;122;122;122;123;122;123;123;
2020-11-19 19:33:52;ht;77;22.80
2020-11-19 19:33:52;v;4.08
2020-11-19 20:03:49;1;1;1;1;1;9;3;2;2;2;1;
2020-11-19 20:03:49;2;123;123;123;123;123;123;123;123;123;123;
2020-11-19 20:03:49;3;51;51;51;51;51;51;51;51;51;51;
2020-11-19 20:03:49;4;129;129;129;129;129;129;129;129;129;129;
2020-11-19 20:03:49;5;129;129;129;129;129;129;129;129;129;129;
2020-11-19 20:03:49;ht;96;20.70
2020-11-19 20:03:49;v;4.08
2020-11-19 20:33:50;1;123;122;123;123;123;123;123;123;123;122;
2020-11-19 20:33:50;2;123;124;124;124;124;124;124;123;124;124;
2020-11-19 20:33:50;3;49;49;49;49;49;49;49;49;49;49;
2020-11-19 20:33:50;4;129;129;128;128;129;128;129;128;129;128;
2020-11-19 20:33:50;5;1;1;1;1;1;1;1;1;1;1;
2020-11-19 20:33:50;ht;99;20.10
2020-11-19 20:33:50;v;4.08
2020-11-19 21:03:49;1;138;138;138;138;138;138;138;147;139;138;
2020-11-19 21:03:49;2;126;126;126;126;126;126;126;126;126;126;
2020-11-19 21:03:49;3;48;48;48;48;48;48;48;48;49;48;
2020-11-19 21:03:49;4;128;128;128;128;128;128;129;128;128;129;
2020-11-19 21:03:49;5;127;127;127;127;127;127;127;127;127;127;
2020-11-19 21:03:49;ht;99;18.80
2020-11-19 21:03:49;v;4.08
2020-11-19 21:33:48;1;126;126;126;126;126;126;126;126;126;126;
2020-11-19 21:33:48;2;125;125;125;125;125;125;125;125;125;124;
2020-11-19 21:33:48;3;49;49;49;49;49;49;49;49;49;49;
2020-11-19 21:33:48;4;126;126;126;126;126;126;126;126;126;126;
2020-11-19 21:33:48;5;128;129;129;129;129;129;129;129;129;129;
2020-11-19 21:33:48;ht;99;18.00
2020-11-19 21:33:48;v;4.08
2020-11-19 22:03:46;1;125;125;125;125;125;125;125;125;125;125;
2020-11-19 22:03:46;2;124;124;124;124;124;124;124;124;124;123;
2020-11-19 22:03:46;3;62;62;61;62;62;62;62;62;62;62;
2020-11-19 22:03:46;4;124;124;124;124;124;124;124;124;124;124;
2020-11-19 22:03:46;5;1;1;1;1;1;1;1;1;1;1;
2020-11-19 22:03:46;ht;99;17.70
2020-11-19 22:03:46;v;4.08
2020-11-19 22:33:48;1;126;126;131;126;126;126;126;126;126;126;
2020-11-19 22:33:48;2;125;125;125;125;125;125;125;125;125;125;
2020-11-19 22:33:48;3;67;66;67;67;66;67;67;67;66;67;
2020-11-19 22:33:48;4;125;125;125;125;125;125;125;125;125;125;
2020-11-19 22:33:48;5;2;1;2;2;2;2;2;2;2;2;
2020-11-19 22:33:48;ht;99;16.60
2020-11-19 22:33:48;v;4.08
2020-11-19 23:03:45;1;126;126;126;126;126;126;126;126;126;126;
2020-11-19 23:03:45;2;123;124;124;124;124;124;124;124;123;124;
2020-11-19 23:03:45;3;74;74;74;74;74;74;74;74;74;74;
2020-11-19 23:03:45;4;125;125;125;125;125;125;125;125;125;125;
2020-11-19 23:03:45;5;2;2;2;2;1;2;2;2;2;2;
2020-11-19 23:03:45;ht;99;16.10
2020-11-19 23:03:45;v;4.08
2020-11-19 23:33:47;1;124;124;124;124;124;124;124;124;124;124;
2020-11-19 23:33:47;2;124;123;124;124;124;123;124;124;124;124;
2020-11-19 23:33:47;3;65;65;65;65;65;65;65;65;65;65;
2020-11-19 23:33:47;4;128;128;128;128;128;128;128;128;128;128;
2020-11-19 23:33:47;5;118;118;119;118;118;119;118;118;118;118;
2020-11-19 23:33:47;ht;99;17.60
2020-11-19 23:33:47;v;4.08
