2020-12-08 00:03:47;1;121;121;121;121;121;121;121;121;121;121;
2020-12-08 00:03:47;2;109;108;109;108;108;108;109;109;109;108;
2020-12-08 00:03:47;3;78;78;78;78;78;78;78;78;78;78;
2020-12-08 00:03:47;4;118;118;118;118;118;118;118;118;118;118;
2020-12-08 00:03:47;5;88;88;88;88;88;88;88;88;88;88;
2020-12-08 00:03:47;ht;99;17.10
2020-12-08 00:03:47;v;3.97
2020-12-08 00:33:45;1;125;125;125;125;125;125;125;125;125;125;
2020-12-08 00:33:45;2;119;119;119;119;119;119;119;119;118;119;
2020-12-08 00:33:45;3;79;79;79;79;79;79;79;79;79;79;
2020-12-08 00:33:45;4;115;115;115;115;115;115;115;115;115;115;
2020-12-08 00:33:45;5;91;91;91;91;91;92;91;91;92;91;
2020-12-08 00:33:45;ht;99;16.60
2020-12-08 00:33:45;v;3.97
2020-12-08 01:03:46;1;127;127;128;127;127;127;127;127;127;127;
2020-12-08 01:03:46;2;113;113;113;113;113;113;113;113;113;113;
2020-12-08 01:03:46;3;88;88;88;88;88;88;88;88;88;88;
2020-12-08 01:03:46;4;114;114;114;114;114;114;114;114;114;114;
2020-12-08 01:03:46;5;86;86;86;86;86;86;86;86;86;86;
2020-12-08 01:03:46;ht;99;16.20
2020-12-08 01:03:46;v;3.96
2020-12-08 01:33:47;1;128;127;127;127;128;127;127;127;128;127;
2020-12-08 01:33:47;2;103;103;103;103;103;103;103;110;104;103;
2020-12-08 01:33:47;3;87;87;87;87;87;87;87;87;87;87;
2020-12-08 01:33:47;4;117;117;117;117;117;117;117;117;117;117;
2020-12-08 01:33:47;5;93;93;93;93;93;93;93;93;93;93;
2020-12-08 01:33:47;ht;99;15.40
2020-12-08 01:33:47;v;3.97
2020-12-08 02:03:47;1;134;135;135;135;134;135;135;134;135;134;
2020-12-08 02:03:47;2;107;107;107;107;107;107;107;107;107;107;
2020-12-08 02:03:47;3;89;88;88;88;88;89;88;89;88;88;
2020-12-08 02:03:47;4;76;76;76;76;76;76;76;76;76;76;
2020-12-08 02:03:47;5;89;89;89;89;89;89;89;89;89;89;
2020-12-08 02:03:47;ht;99;14.80
2020-12-08 02:03:47;v;3.97
2020-12-08 02:33:43;1;80;80;80;80;80;80;80;80;80;80;
2020-12-08 02:33:43;2;115;115;115;115;115;115;115;115;115;115;
2020-12-08 02:33:43;3;79;79;79;79;79;80;79;79;79;79;
2020-12-08 02:33:43;4;123;123;123;123;123;123;123;123;123;123;
2020-12-08 02:33:43;5;80;80;80;80;80;80;80;79;80;80;
2020-12-08 02:33:43;ht;99;14.30
2020-12-08 02:33:43;v;3.97
2020-12-08 03:03:47;1;111;111;111;111;111;111;111;111;111;111;
2020-12-08 03:03:47;2;123;123;123;123;123;123;123;123;123;123;
2020-12-08 03:03:47;3;101;102;102;102;103;103;103;103;103;103;
2020-12-08 03:03:47;4;2;2;2;2;2;2;2;2;2;2;
2020-12-08 03:03:47;5;93;93;93;93;93;93;94;93;94;94;
2020-12-08 03:03:47;ht;99;14.00
2020-12-08 03:03:47;v;3.97
2020-12-08 03:33:47;1;94;94;94;94;94;94;94;94;94;94;
2020-12-08 03:33:47;2;117;117;117;117;117;117;117;117;117;117;
2020-12-08 03:33:47;3;87;86;87;87;87;86;87;87;87;86;
2020-12-08 03:33:47;4;2;2;2;2;2;2;2;2;2;2;
2020-12-08 03:33:47;5;96;96;96;97;96;97;96;96;96;96;
2020-12-08 03:33:47;ht;99;13.80
2020-12-08 03:33:47;v;3.97
2020-12-08 04:03:46;1;108;109;108;109;109;109;109;108;108;108;
2020-12-08 04:03:46;2;116;115;115;116;116;115;116;116;116;116;
2020-12-08 04:03:46;3;84;84;84;83;83;83;83;83;83;83;
2020-12-08 04:03:46;4;67;67;67;67;66;67;66;66;66;67;
2020-12-08 04:03:46;5;87;87;87;87;87;87;87;87;87;87;
2020-12-08 04:03:46;ht;99;13.80
2020-12-08 04:03:46;v;3.97
2020-12-08 04:33:46;1;112;112;112;112;112;112;112;112;112;112;
2020-12-08 04:33:46;2;110;110;110;110;110;110;110;110;110;110;
2020-12-08 04:33:46;3;85;85;85;85;85;85;85;85;85;85;
2020-12-08 04:33:46;4;2;2;2;2;2;2;2;2;2;2;
2020-12-08 04:33:46;5;87;87;87;87;87;87;87;87;87;87;
2020-12-08 04:33:46;ht;99;13.70
2020-12-08 04:33:46;v;3.97
2020-12-08 05:03:45;1;131;131;131;131;131;131;131;131;131;131;
2020-12-08 05:03:45;2;114;114;114;114;114;114;114;114;114;114;
2020-12-08 05:03:45;3;89;90;89;95;91;90;90;90;90;89;
2020-12-08 05:03:45;4;2;2;2;2;2;2;2;2;2;2;
2020-12-08 05:03:45;5;88;89;89;89;89;89;89;89;89;89;
2020-12-08 05:03:45;ht;99;13.20
2020-12-08 05:03:45;v;3.97
2020-12-08 05:33:44;1;81;81;81;81;81;82;81;82;81;82;
2020-12-08 05:33:44;2;101;101;100;101;101;100;101;101;101;101;
2020-12-08 05:33:44;3;88;89;88;88;89;88;89;88;88;89;
2020-12-08 05:33:44;4;67;68;68;67;67;68;68;67;67;67;
2020-12-08 05:33:44;5;95;95;95;95;95;95;95;95;95;95;
2020-12-08 05:33:44;ht;99;13.60
2020-12-08 05:33:44;v;3.97
2020-12-08 06:03:44;1;99;99;99;99;98;99;98;99;99;99;
2020-12-08 06:03:44;2;82;82;82;82;83;82;82;82;83;82;
2020-12-08 06:03:44;3;89;88;89;88;89;88;89;89;88;88;
2020-12-08 06:03:44;4;67;67;67;67;67;67;67;67;67;67;
2020-12-08 06:03:44;5;101;101;101;101;101;101;101;101;101;101;
2020-12-08 06:03:44;ht;99;13.90
2020-12-08 06:03:44;v;3.96
2020-12-08 06:33:44;1;90;89;89;89;89;89;89;89;89;89;
2020-12-08 06:33:44;2;92;92;92;92;92;92;92;92;92;92;
2020-12-08 06:33:44;3;117;117;117;117;117;117;117;117;117;117;
2020-12-08 06:33:44;4;71;71;71;71;71;71;71;71;71;71;
2020-12-08 06:33:44;5;91;91;91;91;91;91;91;91;90;90;
2020-12-08 06:33:44;ht;99;16.10
2020-12-08 06:33:44;v;3.97
2020-12-08 07:03:45;1;104;104;104;104;104;104;104;104;104;104;
2020-12-08 07:03:45;2;98;98;97;97;98;98;98;97;98;97;
2020-12-08 07:03:45;3;118;118;118;118;118;118;118;118;118;118;
2020-12-08 07:03:45;4;68;68;68;68;68;68;68;68;69;69;
2020-12-08 07:03:45;5;87;88;88;88;88;88;88;88;88;88;
2020-12-08 07:03:45;ht;99;18.60
2020-12-08 07:03:45;v;3.97
2020-12-08 07:33:48;1;85;85;85;85;85;85;85;85;86;86;
2020-12-08 07:33:48;2;93;100;95;94;94;94;94;93;93;93;
2020-12-08 07:33:48;3;78;77;77;77;77;77;77;77;77;77;
2020-12-08 07:33:48;4;68;68;68;68;68;68;68;68;68;68;
2020-12-08 07:33:48;5;82;82;82;82;82;82;82;82;82;82;
2020-12-08 07:33:48;ht;99;20.00
2020-12-08 07:33:48;v;3.96
2020-12-08 08:03:49;1;85;85;85;85;86;85;86;85;85;85;
2020-12-08 08:03:49;2;2;2;2;2;2;2;2;2;2;2;
2020-12-08 08:03:49;3;82;81;81;81;81;81;82;81;81;81;
2020-12-08 08:03:49;4;2;2;2;2;2;2;2;2;2;2;
2020-12-08 08:03:49;5;94;94;93;93;94;94;93;94;93;93;
2020-12-08 08:03:49;ht;99;21.70
2020-12-08 08:03:49;v;3.97
2020-12-08 08:33:50;1;2;2;2;2;1;1;2;1;1;2;
2020-12-08 08:33:50;2;99;99;99;99;99;99;99;99;99;99;
2020-12-08 08:33:50;3;74;74;74;74;74;74;74;74;74;74;
2020-12-08 08:33:50;4;65;65;65;65;65;65;65;65;65;66;
2020-12-08 08:33:50;5;81;81;81;81;81;81;81;81;81;81;
2020-12-08 08:33:50;ht;99;23.80
2020-12-08 08:33:50;v;3.97
2020-12-08 09:03:53;1;85;85;85;85;85;85;85;85;85;85;
2020-12-08 09:03:53;2;114;114;114;114;114;114;114;114;114;114;
2020-12-08 09:03:53;3;82;82;82;82;82;82;82;82;82;82;
2020-12-08 09:03:53;4;65;65;65;65;65;65;65;65;65;65;
2020-12-08 09:03:53;5;83;83;83;83;83;83;83;83;83;83;
2020-12-08 09:03:53;ht;99;24.80
2020-12-08 09:03:53;v;3.96
2020-12-08 09:33:53;1;84;84;84;84;84;84;84;84;84;84;
2020-12-08 09:33:53;2;95;95;95;95;95;95;96;96;96;96;
2020-12-08 09:33:53;3;92;92;92;92;92;92;92;92;91;92;
2020-12-08 09:33:53;4;66;66;67;66;67;67;67;66;67;66;
2020-12-08 09:33:53;5;87;87;87;87;87;87;86;87;87;87;
2020-12-08 09:33:53;ht;91;26.40
2020-12-08 09:33:53;v;3.97
2020-12-08 10:03:54;1;87;87;87;87;87;87;87;87;87;87;
2020-12-08 10:03:54;2;92;91;91;91;91;91;91;91;92;92;
2020-12-08 10:03:54;3;85;85;85;85;85;85;85;85;85;85;
2020-12-08 10:03:54;4;68;68;68;68;68;68;68;68;68;68;
2020-12-08 10:03:54;5;83;83;83;83;83;83;83;83;83;83;
2020-12-08 10:03:54;ht;81;27.70
2020-12-08 10:03:54;v;3.97
2020-12-08 10:33:56;1;82;82;83;82;82;82;83;83;82;82;
2020-12-08 10:33:56;2;97;98;98;97;97;97;97;97;97;97;
2020-12-08 10:33:56;3;77;77;77;77;77;77;77;77;77;77;
2020-12-08 10:33:56;4;70;70;70;70;70;70;70;70;70;70;
2020-12-08 10:33:56;5;87;87;87;87;87;87;87;87;87;87;
2020-12-08 10:33:56;ht;67;28.40
2020-12-08 10:33:56;v;3.96
2020-12-08 11:03:55;1;83;83;83;83;83;83;83;83;83;83;
2020-12-08 11:03:55;2;2;2;2;2;2;1;2;2;2;2;
2020-12-08 11:03:55;3;89;89;89;89;89;89;89;90;89;89;
2020-12-08 11:03:55;4;68;68;68;68;68;68;68;68;68;68;
2020-12-08 11:03:55;5;86;86;86;86;86;86;86;86;86;86;
2020-12-08 11:03:55;ht;59;28.90
2020-12-08 11:03:55;v;3.96
2020-12-08 11:33:58;1;83;83;83;83;83;82;82;83;82;83;
2020-12-08 11:33:58;2;95;95;95;95;95;95;94;95;95;95;
2020-12-08 11:33:58;3;79;79;79;79;79;79;79;79;79;79;
2020-12-08 11:33:58;4;64;64;64;64;64;64;64;64;65;64;
2020-12-08 11:33:58;5;86;86;86;86;86;86;86;86;86;86;
2020-12-08 11:33:58;ht;56;29.40
2020-12-08 11:33:58;v;3.96
2020-12-08 12:03:58;1;80;80;80;80;80;80;80;80;80;80;
2020-12-08 12:03:58;2;99;99;99;99;99;99;99;99;99;99;
2020-12-08 12:03:58;3;81;81;81;81;81;81;81;81;81;81;
2020-12-08 12:03:58;4;65;65;65;65;65;65;64;65;65;65;
2020-12-08 12:03:58;5;82;82;82;82;82;82;82;82;82;82;
2020-12-08 12:03:58;ht;52;30.50
2020-12-08 12:03:58;v;3.96
2020-12-08 12:33:58;1;119;119;119;119;119;119;119;119;119;119;
2020-12-08 12:33:58;2;88;88;88;88;88;88;88;88;88;88;
2020-12-08 12:33:58;3;78;78;78;78;78;78;78;78;78;78;
2020-12-08 12:33:58;4;68;68;68;68;68;68;68;68;68;68;
2020-12-08 12:33:58;5;83;83;83;83;83;83;83;83;83;83;
2020-12-08 12:33:58;ht;53;31.10
2020-12-08 12:33:58;v;3.96
2020-12-08 13:03:59;1;84;84;84;84;84;84;84;84;84;84;
2020-12-08 13:03:59;2;2;2;2;2;1;2;2;2;2;2;
2020-12-08 13:03:59;3;75;75;75;75;75;75;75;75;75;75;
2020-12-08 13:03:59;4;2;2;2;2;2;2;2;2;2;2;
2020-12-08 13:03:59;5;86;86;86;86;86;86;86;86;86;86;
2020-12-08 13:03:59;ht;54;31.10
2020-12-08 13:03:59;v;3.96
2020-12-08 13:34:01;1;78;78;78;78;78;78;78;78;78;78;
2020-12-08 13:34:01;2;94;94;94;94;94;94;94;94;94;94;
2020-12-08 13:34:01;3;75;75;75;75;75;75;75;75;75;75;
2020-12-08 13:34:01;4;67;67;67;67;67;67;67;67;67;67;
2020-12-08 13:34:01;5;86;86;86;86;86;86;86;86;86;85;
2020-12-08 13:34:01;ht;49;31.50
2020-12-08 13:34:01;v;3.96
2020-12-08 14:03:58;1;88;88;87;87;87;87;87;88;88;87;
2020-12-08 14:03:58;2;94;94;93;94;94;94;93;94;94;94;
2020-12-08 14:03:58;3;75;75;75;75;75;75;75;75;75;75;
2020-12-08 14:03:58;4;72;72;72;72;72;72;72;72;72;72;
2020-12-08 14:03:58;5;86;86;86;86;86;85;86;86;86;86;
2020-12-08 14:03:58;ht;51;31.20
2020-12-08 14:03:58;v;3.96
2020-12-08 14:34:00;1;2;2;2;1;2;1;2;1;2;1;
2020-12-08 14:34:00;2;118;118;118;118;118;118;118;118;118;118;
2020-12-08 14:34:00;3;74;74;74;74;74;74;74;74;74;74;
2020-12-08 14:34:00;4;73;73;73;73;73;73;73;73;73;73;
2020-12-08 14:34:00;5;87;87;88;87;87;88;87;87;87;88;
2020-12-08 14:34:00;ht;49;31.70
2020-12-08 14:34:00;v;3.96
2020-12-08 15:03:58;1;2;1;1;1;2;1;2;1;1;2;
2020-12-08 15:03:58;2;91;91;92;91;91;92;92;92;92;92;
2020-12-08 15:03:58;3;74;73;74;74;74;74;74;73;74;74;
2020-12-08 15:03:58;4;81;81;81;81;81;81;81;81;81;81;
2020-12-08 15:03:58;5;96;96;96;96;96;96;96;96;96;96;
2020-12-08 15:03:58;ht;51;31.60
2020-12-08 15:03:58;v;3.96
2020-12-08 15:34:01;1;83;82;83;82;82;82;82;82;83;82;
2020-12-08 15:34:01;2;93;93;92;93;92;92;92;93;93;92;
2020-12-08 15:34:01;3;80;80;80;80;81;80;81;80;80;81;
2020-12-08 15:34:01;4;64;64;64;64;64;64;64;64;64;64;
2020-12-08 15:34:01;5;78;78;78;78;78;79;78;78;78;78;
2020-12-08 15:34:01;ht;50;32.10
2020-12-08 15:34:01;v;3.96
2020-12-08 16:03:59;1;88;88;87;87;87;88;87;88;88;87;
2020-12-08 16:03:59;2;107;107;106;107;106;107;107;107;107;107;
2020-12-08 16:03:59;3;68;68;68;68;68;68;68;68;68;68;
2020-12-08 16:03:59;4;74;74;74;74;74;74;75;74;74;74;
2020-12-08 16:03:59;5;82;82;82;82;82;82;82;82;82;82;
2020-12-08 16:03:59;ht;50;32.30
2020-12-08 16:03:59;v;3.96
2020-12-08 16:34:02;1;2;2;1;2;2;2;2;2;2;2;
2020-12-08 16:34:02;2;2;2;2;2;2;2;2;2;2;2;
2020-12-08 16:34:02;3;72;73;73;73;73;73;73;73;72;73;
2020-12-08 16:34:02;4;70;70;70;70;70;70;70;70;70;70;
2020-12-08 16:34:02;5;83;83;83;83;83;83;83;83;83;83;
2020-12-08 16:34:02;ht;51;32.10
2020-12-08 16:34:02;v;3.96
2020-12-08 17:04:00;1;84;83;83;83;84;83;83;83;83;83;
2020-12-08 17:04:00;2;2;2;2;2;2;2;2;2;2;2;
2020-12-08 17:04:00;3;81;81;81;81;81;81;81;81;81;81;
2020-12-08 17:04:00;4;63;63;63;63;63;63;63;63;63;63;
2020-12-08 17:04:00;5;91;91;91;91;91;91;91;91;91;91;
2020-12-08 17:04:00;ht;50;31.50
2020-12-08 17:04:00;v;3.96
2020-12-08 17:33:57;1;82;82;81;81;81;81;82;81;81;81;
2020-12-08 17:33:57;2;93;93;93;93;93;93;92;92;93;92;
2020-12-08 17:33:57;3;74;74;74;74;74;74;74;74;74;74;
2020-12-08 17:33:57;4;71;71;71;70;70;71;70;70;70;70;
2020-12-08 17:33:57;5;82;82;82;82;82;82;82;82;82;82;
2020-12-08 17:33:57;ht;54;31.50
2020-12-08 17:33:57;v;3.96
2020-12-08 18:03:59;1;87;87;86;86;86;86;86;86;86;86;
2020-12-08 18:03:59;2;86;86;86;86;86;86;86;86;86;86;
2020-12-08 18:03:59;3;76;76;76;76;76;76;76;76;76;76;
2020-12-08 18:03:59;4;65;65;65;65;65;65;65;65;65;65;
2020-12-08 18:03:59;5;81;82;81;81;81;81;81;81;81;81;
2020-12-08 18:03:59;ht;53;30.10
2020-12-08 18:03:59;v;3.96
2020-12-08 18:34:00;1;79;79;79;79;79;79;79;79;79;79;
2020-12-08 18:34:00;2;92;92;92;92;92;92;92;92;92;92;
2020-12-08 18:34:00;3;69;69;69;75;71;70;70;70;70;70;
2020-12-08 18:34:00;4;67;66;66;66;66;66;67;67;66;66;
2020-12-08 18:34:00;5;81;82;81;81;81;81;81;81;81;81;
2020-12-08 18:34:00;ht;56;29.90
2020-12-08 18:34:00;v;3.96
2020-12-08 19:03:55;1;87;87;87;87;87;87;87;87;87;87;
2020-12-08 19:03:55;2;84;84;84;84;84;84;84;84;84;84;
2020-12-08 19:03:55;3;80;79;80;80;80;80;79;79;79;79;
2020-12-08 19:03:55;4;64;64;64;65;64;64;64;64;64;65;
2020-12-08 19:03:55;5;91;91;91;91;91;91;91;91;91;91;
2020-12-08 19:03:55;ht;67;28.40
2020-12-08 19:03:55;v;3.96
2020-12-08 19:33:58;1;80;80;80;80;80;80;80;80;80;80;
2020-12-08 19:33:58;2;80;80;80;80;80;80;80;80;80;80;
2020-12-08 19:33:58;3;73;72;73;72;72;72;72;73;73;72;
2020-12-08 19:33:58;4;63;63;63;63;63;63;63;63;63;63;
2020-12-08 19:33:58;5;2;2;2;2;2;2;2;2;2;2;
2020-12-08 19:33:58;ht;91;26.90
2020-12-08 19:33:58;v;3.96
2020-12-08 20:03:54;1;80;80;80;80;80;80;80;80;80;80;
2020-12-08 20:03:54;2;103;103;103;103;103;103;104;104;103;103;
2020-12-08 20:03:54;3;79;79;79;79;79;79;79;79;79;79;
2020-12-08 20:03:54;4;62;62;62;73;64;63;63;62;62;63;
2020-12-08 20:03:54;5;77;77;76;76;76;76;76;76;76;76;
2020-12-08 20:03:54;ht;99;24.00
2020-12-08 20:03:54;v;3.96
2020-12-08 20:33:52;1;1;1;1;1;1;1;1;1;1;1;
2020-12-08 20:33:52;2;122;122;122;122;122;122;122;123;122;122;
2020-12-08 20:33:52;3;75;75;75;76;75;75;75;76;75;75;
2020-12-08 20:33:52;4;62;63;63;63;63;63;62;62;63;63;
2020-12-08 20:33:52;5;94;94;94;94;94;94;94;94;94;94;
2020-12-08 20:33:52;ht;99;22.20
2020-12-08 20:33:52;v;3.96
2020-12-08 21:03:49;1;1;1;1;1;1;1;1;1;1;1;
2020-12-08 21:03:49;2;117;118;118;118;118;118;117;118;118;118;
2020-12-08 21:03:49;3;73;73;73;73;73;73;73;73;73;73;
2020-12-08 21:03:49;4;63;63;63;63;63;63;63;63;63;64;
2020-12-08 21:03:49;5;101;101;101;101;101;101;101;101;101;101;
2020-12-08 21:03:49;ht;99;21.40
2020-12-08 21:03:49;v;3.96
2020-12-08 21:33:49;1;1;1;1;1;1;1;1;1;1;1;
2020-12-08 21:33:49;2;119;119;119;119;119;119;119;119;119;119;
2020-12-08 21:33:49;3;115;115;121;118;116;116;116;116;116;116;
2020-12-08 21:33:49;4;63;63;63;63;71;66;64;64;63;63;
2020-12-08 21:33:49;5;99;99;99;99;99;99;99;99;99;99;
2020-12-08 21:33:49;ht;99;20.40
2020-12-08 21:33:49;v;3.96
2020-12-08 22:03:49;1;125;125;125;125;124;124;125;125;125;125;
2020-12-08 22:03:49;2;111;111;111;111;111;111;111;111;111;111;
2020-12-08 22:03:49;3;91;91;91;91;91;91;91;91;90;91;
2020-12-08 22:03:49;4;73;72;72;72;72;73;72;72;72;72;
2020-12-08 22:03:49;5;86;86;86;87;86;86;86;86;86;86;
2020-12-08 22:03:49;ht;99;21.00
2020-12-08 22:03:49;v;3.96
2020-12-08 22:33:49;1;91;91;92;91;91;91;91;91;91;92;
2020-12-08 22:33:49;2;118;118;118;117;117;117;117;118;118;117;
2020-12-08 22:33:49;3;77;77;77;77;77;77;77;77;77;77;
2020-12-08 22:33:49;4;1;1;2;2;2;9;13;3;2;2;
2020-12-08 22:33:49;5;77;78;77;77;78;78;77;77;77;77;
2020-12-08 22:33:49;ht;99;19.30
2020-12-08 22:33:49;v;3.96
2020-12-08 23:03:47;1;125;125;126;125;125;126;125;126;125;125;
2020-12-08 23:03:47;2;85;85;85;85;85;86;85;85;85;85;
2020-12-08 23:03:47;3;74;74;74;74;74;74;74;74;75;74;
2020-12-08 23:03:47;4;65;64;64;64;64;64;64;64;64;64;
2020-12-08 23:03:47;5;86;86;86;86;86;86;86;86;86;86;
2020-12-08 23:03:47;ht;99;20.60
2020-12-08 23:03:47;v;3.96
2020-12-08 23:33:46;1;126;126;127;127;127;126;126;126;127;127;
2020-12-08 23:33:46;2;95;95;95;95;95;95;95;95;95;95;
2020-12-08 23:33:46;3;81;81;81;81;81;81;80;81;80;80;
2020-12-08 23:33:46;4;4;2;2;2;2;2;2;2;2;2;
2020-12-08 23:33:46;5;85;85;85;85;86;85;85;85;85;85;
2020-12-08 23:33:46;ht;99;18.80
2020-12-08 23:33:46;v;3.96
