2020-12-29 00:03:50;1;125;125;125;125;125;125;125;125;125;125;
2020-12-29 00:03:50;2;127;127;127;127;127;127;127;127;127;127;
2020-12-29 00:03:50;3;128;128;128;128;128;128;128;128;128;128;
2020-12-29 00:03:50;4;130;130;130;130;130;130;130;130;130;130;
2020-12-29 00:03:50;5;99;98;98;98;98;99;98;98;98;98;
2020-12-29 00:03:50;ht;99;20.90
2020-12-29 00:03:50;v;4.16
2020-12-29 00:33:51;1;120;120;120;120;120;120;120;120;120;120;
2020-12-29 00:33:51;2;123;123;123;123;123;123;123;123;123;123;
2020-12-29 00:33:51;3;116;116;116;116;116;116;116;116;116;116;
2020-12-29 00:33:51;4;118;118;119;119;118;119;119;118;118;118;
2020-12-29 00:33:51;5;128;128;128;128;128;128;128;128;128;128;
2020-12-29 00:33:51;ht;99;20.50
2020-12-29 00:33:51;v;4.16
2020-12-29 01:03:50;1;128;127;128;128;128;128;128;128;128;128;
2020-12-29 01:03:50;2;124;124;124;124;124;124;124;124;124;124;
2020-12-29 01:03:50;3;120;120;120;119;120;120;119;120;120;120;
2020-12-29 01:03:50;4;121;121;121;121;121;121;121;121;121;121;
2020-12-29 01:03:50;5;114;115;115;115;115;115;115;115;115;115;
2020-12-29 01:03:50;ht;99;20.10
2020-12-29 01:03:50;v;4.15
2020-12-29 01:33:50;1;121;121;121;121;121;121;121;121;121;121;
2020-12-29 01:33:50;2;122;122;122;122;122;122;122;122;122;122;
2020-12-29 01:33:50;3;43;43;43;43;43;43;43;43;43;43;
2020-12-29 01:33:50;4;119;119;119;119;119;119;119;119;119;119;
2020-12-29 01:33:50;5;123;123;123;123;123;123;123;123;123;123;
2020-12-29 01:33:50;ht;99;20.20
2020-12-29 01:33:50;v;4.15
2020-12-29 02:03:49;1;127;127;127;127;127;127;127;127;127;127;
2020-12-29 02:03:49;2;112;112;112;112;112;112;112;112;112;112;
2020-12-29 02:03:49;3;132;132;132;132;132;132;134;137;139;139;
2020-12-29 02:03:49;4;118;118;118;117;117;118;117;117;117;118;
2020-12-29 02:03:49;5;123;123;123;123;123;123;123;123;123;123;
2020-12-29 02:03:49;ht;99;19.90
2020-12-29 02:03:49;v;4.15
2020-12-29 02:33:48;1;128;128;128;128;128;128;128;128;128;128;
2020-12-29 02:33:48;2;122;122;122;123;122;122;122;123;123;122;
2020-12-29 02:33:48;3;116;116;118;122;120;119;117;117;116;116;
2020-12-29 02:33:48;4;119;119;118;118;119;118;119;118;118;119;
2020-12-29 02:33:48;5;121;121;121;121;121;121;121;121;121;121;
2020-12-29 02:33:48;ht;99;19.60
2020-12-29 02:33:48;v;4.15
2020-12-29 03:03:47;1;128;128;128;128;128;128;128;128;128;128;
2020-12-29 03:03:47;2;127;127;126;127;127;126;127;127;126;127;
2020-12-29 03:03:47;3;134;133;133;134;134;134;134;134;134;133;
2020-12-29 03:03:47;4;117;117;117;127;120;118;118;117;117;117;
2020-12-29 03:03:47;5;132;132;132;132;132;132;132;132;132;132;
2020-12-29 03:03:47;ht;99;19.40
2020-12-29 03:03:47;v;4.15
2020-12-29 03:33:46;1;127;127;127;127;127;127;127;127;127;127;
2020-12-29 03:33:46;2;128;128;128;128;128;128;128;128;128;128;
2020-12-29 03:33:46;3;52;51;51;51;50;50;50;50;49;49;
2020-12-29 03:33:46;4;119;119;119;120;120;120;120;120;120;120;
2020-12-29 03:33:46;5;98;98;98;98;98;98;98;98;98;98;
2020-12-29 03:33:46;ht;99;19.30
2020-12-29 03:33:46;v;4.15
2020-12-29 04:03:50;1;100;100;100;100;100;100;100;100;100;100;
2020-12-29 04:03:50;2;125;125;125;125;125;125;125;125;125;125;
2020-12-29 04:03:50;3;45;45;45;45;45;45;45;45;45;45;
2020-12-29 04:03:50;4;121;121;121;121;121;121;121;121;122;121;
2020-12-29 04:03:50;5;119;119;119;119;119;119;119;118;119;119;
2020-12-29 04:03:50;ht;99;19.30
2020-12-29 04:03:50;v;4.15
2020-12-29 04:33:49;1;126;126;126;126;126;126;126;126;126;126;
2020-12-29 04:33:49;2;115;115;115;115;115;115;115;115;115;116;
2020-12-29 04:33:49;3;43;43;43;43;43;43;44;43;43;43;
2020-12-29 04:33:49;4;122;122;122;122;122;123;122;122;123;122;
2020-12-29 04:33:49;5;127;127;127;127;127;127;127;127;127;127;
2020-12-29 04:33:49;ht;99;19.70
2020-12-29 04:33:49;v;4.15
2020-12-29 05:03:48;1;121;121;121;121;121;121;121;121;121;121;
2020-12-29 05:03:48;2;122;122;122;122;122;122;122;122;122;122;
2020-12-29 05:03:48;3;128;128;128;128;128;128;128;128;128;128;
2020-12-29 05:03:48;4;121;121;121;121;121;121;121;121;121;121;
2020-12-29 05:03:48;5;101;101;101;101;101;101;101;101;101;101;
2020-12-29 05:03:48;ht;99;19.90
2020-12-29 05:03:48;v;4.15
2020-12-29 05:33:47;1;1;2;1;2;2;1;2;1;1;1;
2020-12-29 05:33:47;2;120;120;120;120;120;120;120;120;121;121;
2020-12-29 05:33:47;3;43;43;43;43;43;43;43;43;43;43;
2020-12-29 05:33:47;4;111;111;111;111;111;111;111;111;111;111;
2020-12-29 05:33:47;5;124;125;124;125;125;125;125;124;125;125;
2020-12-29 05:33:47;ht;99;19.50
2020-12-29 05:33:47;v;4.15
2020-12-29 06:03:50;1;110;109;109;109;109;109;109;109;109;109;
2020-12-29 06:03:50;2;119;120;119;120;120;119;119;119;119;120;
2020-12-29 06:03:50;3;118;118;118;118;118;118;118;117;118;117;
2020-12-29 06:03:50;4;114;114;114;115;114;114;114;114;114;114;
2020-12-29 06:03:50;5;96;96;96;96;96;96;96;96;96;96;
2020-12-29 06:03:50;ht;99;18.90
2020-12-29 06:03:50;v;4.15
2020-12-29 06:33:49;1;131;131;131;131;131;131;131;131;131;131;
2020-12-29 06:33:49;2;109;109;109;109;109;109;109;109;109;109;
2020-12-29 06:33:49;3;43;43;43;43;43;43;43;43;43;43;
2020-12-29 06:33:49;4;115;115;115;115;115;115;115;115;115;115;
2020-12-29 06:33:49;5;123;123;123;123;123;123;123;123;123;123;
2020-12-29 06:33:49;ht;99;19.90
2020-12-29 06:33:49;v;4.15
2020-12-29 07:03:49;1;123;123;123;123;123;123;123;123;123;123;
2020-12-29 07:03:49;2;120;120;120;120;120;120;120;120;120;120;
2020-12-29 07:03:49;3;70;69;69;69;69;69;68;68;68;68;
2020-12-29 07:03:49;4;116;116;116;116;116;115;115;116;115;116;
2020-12-29 07:03:49;5;100;99;99;100;99;100;99;100;99;99;
2020-12-29 07:03:49;ht;99;21.60
2020-12-29 07:03:49;v;4.15
2020-12-29 07:33:49;1;122;122;122;122;122;122;122;122;122;122;
2020-12-29 07:33:49;2;122;122;122;122;122;122;122;122;122;122;
2020-12-29 07:33:49;3;129;129;129;129;129;129;129;129;129;129;
2020-12-29 07:33:49;4;118;118;118;118;118;118;118;118;118;118;
2020-12-29 07:33:49;5;94;94;94;94;94;94;94;94;94;94;
2020-12-29 07:33:49;ht;99;23.10
2020-12-29 07:33:49;v;4.15
2020-12-29 08:03:52;1;118;118;118;118;118;118;118;117;118;118;
2020-12-29 08:03:52;2;123;123;123;123;123;123;123;123;123;123;
2020-12-29 08:03:52;3;69;68;69;69;69;68;68;68;68;68;
2020-12-29 08:03:52;4;120;120;120;120;120;120;120;120;120;120;
2020-12-29 08:03:52;5;121;121;121;121;121;121;121;121;121;121;
2020-12-29 08:03:52;ht;99;25.30
2020-12-29 08:03:52;v;4.15
2020-12-29 08:33:51;1;114;114;114;114;114;114;114;114;114;114;
2020-12-29 08:33:51;2;115;115;115;115;115;115;115;115;115;115;
2020-12-29 08:33:51;3;79;78;78;78;78;78;78;78;78;78;
2020-12-29 08:33:51;4;119;119;119;119;119;119;119;119;118;119;
2020-12-29 08:33:51;5;110;110;109;110;109;110;109;110;110;110;
2020-12-29 08:33:51;ht;99;26.60
2020-12-29 08:33:51;v;4.16
2020-12-29 09:03:56;1;121;121;121;121;121;121;121;120;121;121;
2020-12-29 09:03:56;2;116;116;116;116;116;116;116;116;116;116;
2020-12-29 09:03:56;3;124;124;124;124;124;124;124;124;124;124;
2020-12-29 09:03:56;4;123;123;123;123;123;123;124;124;124;124;
2020-12-29 09:03:56;5;126;126;126;126;126;126;125;126;125;125;
2020-12-29 09:03:56;ht;99;27.90
2020-12-29 09:03:56;v;4.15
2020-12-29 09:33:54;1;126;126;126;126;126;126;126;126;126;126;
2020-12-29 09:33:54;2;109;109;109;109;109;109;109;109;109;109;
2020-12-29 09:33:54;3;136;136;136;135;135;135;135;135;135;135;
2020-12-29 09:33:54;4;118;118;118;117;117;117;117;117;117;117;
2020-12-29 09:33:54;5;116;116;116;116;116;116;116;116;116;116;
2020-12-29 09:33:54;ht;99;29.70
2020-12-29 09:33:54;v;4.16
2020-12-29 10:03:58;1;147;147;147;147;147;147;147;147;147;147;
2020-12-29 10:03:58;2;102;102;102;102;102;102;102;102;102;102;
2020-12-29 10:03:58;3;114;114;114;114;114;114;114;114;114;114;
2020-12-29 10:03:58;4;114;114;115;114;114;114;115;115;114;115;
2020-12-29 10:03:58;5;95;95;94;94;94;94;94;95;94;95;
2020-12-29 10:03:58;ht;99;30.90
2020-12-29 10:03:58;v;4.16
2020-12-29 10:33:59;1;2;1;2;1;2;2;2;2;2;2;
2020-12-29 10:33:59;2;109;109;109;109;109;109;110;109;109;109;
2020-12-29 10:33:59;3;136;136;136;136;136;136;136;136;136;136;
2020-12-29 10:33:59;4;111;111;111;110;110;110;110;111;110;110;
2020-12-29 10:33:59;5;94;94;94;94;94;94;95;94;94;94;
2020-12-29 10:33:59;ht;99;31.50
2020-12-29 10:33:59;v;4.16
2020-12-29 11:04:01;1;2;2;2;2;2;2;2;2;2;2;
2020-12-29 11:04:01;2;117;117;117;116;116;116;116;116;116;117;
2020-12-29 11:04:01;3;109;109;109;109;109;109;109;109;109;109;
2020-12-29 11:04:01;4;109;109;109;109;109;109;109;109;109;109;
2020-12-29 11:04:01;5;2;2;2;2;2;2;2;2;2;2;
2020-12-29 11:04:01;ht;98;34.90
2020-12-29 11:04:01;v;4.16
2020-12-29 11:34:00;1;121;121;121;121;121;121;121;121;121;121;
2020-12-29 11:34:00;2;114;114;114;114;114;114;114;114;114;114;
2020-12-29 11:34:00;3;131;131;131;131;131;131;131;132;132;132;
2020-12-29 11:34:00;4;116;115;115;115;115;115;115;115;115;115;
2020-12-29 11:34:00;5;2;2;2;2;2;2;2;2;2;2;
2020-12-29 11:34:00;ht;98;33.60
2020-12-29 11:34:00;v;4.16
2020-12-29 12:04:00;1;2;2;2;1;1;2;2;2;1;1;
2020-12-29 12:04:00;2;108;108;108;108;108;108;108;108;108;108;
2020-12-29 12:04:00;3;106;106;106;106;106;106;106;106;106;106;
2020-12-29 12:04:00;4;107;107;107;107;107;108;108;107;107;107;
2020-12-29 12:04:00;5;110;111;111;111;112;112;112;113;113;113;
2020-12-29 12:04:00;ht;95;33.70
2020-12-29 12:04:00;v;4.16
2020-12-29 12:34:00;1;115;115;115;115;115;115;115;115;115;115;
2020-12-29 12:34:00;2;102;102;102;102;102;102;102;102;102;102;
2020-12-29 12:34:00;3;119;120;119;119;119;119;119;120;119;120;
2020-12-29 12:34:00;4;114;114;114;114;113;113;114;114;113;113;
2020-12-29 12:34:00;5;114;115;115;115;115;116;116;116;116;116;
2020-12-29 12:34:00;ht;93;32.10
2020-12-29 12:34:00;v;4.16
2020-12-29 13:03:59;1;115;115;115;115;115;115;115;115;115;115;
2020-12-29 13:03:59;2;102;102;102;102;102;102;102;102;102;102;
2020-12-29 13:03:59;3;103;103;103;103;103;103;103;103;103;103;
2020-12-29 13:03:59;4;103;103;103;103;103;103;103;103;103;103;
2020-12-29 13:03:59;5;99;99;99;99;99;99;99;99;99;99;
2020-12-29 13:03:59;ht;91;34.30
2020-12-29 13:03:59;v;4.16
2020-12-29 13:34:00;1;118;118;118;118;118;118;118;118;118;118;
2020-12-29 13:34:00;2;2;2;2;2;2;2;2;2;2;2;
2020-12-29 13:34:00;3;126;127;126;126;127;127;126;126;126;126;
2020-12-29 13:34:00;4;103;103;103;103;103;103;103;103;103;103;
2020-12-29 13:34:00;5;95;95;95;95;95;95;95;95;95;95;
2020-12-29 13:34:00;ht;92;35.00
2020-12-29 13:34:00;v;4.16
2020-12-29 14:04:01;1;116;116;115;116;116;116;116;116;116;116;
2020-12-29 14:04:01;2;118;118;118;118;118;118;118;118;118;118;
2020-12-29 14:04:01;3;105;105;105;105;105;105;105;105;104;104;
2020-12-29 14:04:01;4;116;116;116;116;116;116;117;116;116;116;
2020-12-29 14:04:01;5;117;117;118;117;117;118;117;117;117;118;
2020-12-29 14:04:01;ht;89;35.60
2020-12-29 14:04:01;v;4.16
2020-12-29 14:34:04;1;118;118;118;118;118;118;118;118;118;118;
2020-12-29 14:34:04;2;106;106;106;106;106;106;106;106;106;106;
2020-12-29 14:34:04;3;127;127;127;127;127;127;127;127;127;127;
2020-12-29 14:34:04;4;118;118;118;118;118;118;118;118;118;118;
2020-12-29 14:34:04;5;97;98;98;98;98;97;97;98;98;98;
2020-12-29 14:34:04;ht;82;35.60
2020-12-29 14:34:04;v;4.17
2020-12-29 15:04:00;1;115;114;114;115;114;114;114;114;115;115;
2020-12-29 15:04:00;2;105;105;113;105;105;105;105;104;105;104;
2020-12-29 15:04:00;3;112;111;111;107;107;107;107;106;106;106;
2020-12-29 15:04:00;4;114;114;114;114;114;114;114;114;114;114;
2020-12-29 15:04:00;5;97;97;97;97;97;96;97;97;97;97;
2020-12-29 15:04:00;ht;88;35.40
2020-12-29 15:04:00;v;4.17
2020-12-29 15:34:02;1;118;118;118;118;118;118;118;118;118;118;
2020-12-29 15:34:02;2;102;103;103;110;104;103;103;103;103;103;
2020-12-29 15:34:02;3;135;136;136;134;133;133;132;132;131;131;
2020-12-29 15:34:02;4;105;105;105;105;105;105;105;105;105;105;
2020-12-29 15:34:02;5;1;1;1;1;1;1;1;1;1;1;
2020-12-29 15:34:02;ht;75;35.60
2020-12-29 15:34:02;v;4.17
2020-12-29 16:04:04;1;1;1;1;1;1;1;1;1;1;1;
2020-12-29 16:04:04;2;129;129;129;129;130;129;129;129;129;129;
2020-12-29 16:04:04;3;111;112;114;115;114;114;113;112;111;111;
2020-12-29 16:04:04;4;3;3;3;3;2;3;3;3;3;3;
2020-12-29 16:04:04;5;96;96;96;96;96;96;96;96;96;96;
2020-12-29 16:04:04;ht;72;35.20
2020-12-29 16:04:04;v;4.17
2020-12-29 16:34:03;1;124;124;124;124;124;124;124;124;124;124;
2020-12-29 16:34:03;2;99;99;99;99;99;99;107;101;100;100;
2020-12-29 16:34:03;3;124;123;123;122;122;122;121;121;121;121;
2020-12-29 16:34:03;4;123;123;123;123;123;123;123;123;123;123;
2020-12-29 16:34:03;5;124;124;124;124;124;124;124;124;124;124;
2020-12-29 16:34:03;ht;76;35.90
2020-12-29 16:34:03;v;4.17
2020-12-29 17:04:05;1;103;103;103;103;102;110;103;103;103;103;
2020-12-29 17:04:05;2;129;128;128;128;128;128;128;128;128;128;
2020-12-29 17:04:05;3;147;148;151;151;154;152;150;156;152;148;
2020-12-29 17:04:05;4;121;121;121;121;121;121;121;121;121;121;
2020-12-29 17:04:05;5;94;94;94;95;95;95;95;95;94;95;
2020-12-29 17:04:05;ht;67;35.50
2020-12-29 17:04:05;v;4.17
2020-12-29 17:34:03;1;132;132;132;132;132;132;132;137;136;133;
2020-12-29 17:34:03;2;116;116;116;116;116;116;116;116;116;116;
2020-12-29 17:34:03;3;114;114;114;113;113;113;112;112;112;113;
2020-12-29 17:34:03;4;121;121;121;121;121;121;121;121;121;121;
2020-12-29 17:34:03;5;96;96;96;96;96;96;96;96;96;96;
2020-12-29 17:34:03;ht;64;36.10
2020-12-29 17:34:03;v;4.17
2020-12-29 18:04:05;1;117;117;118;117;117;117;117;117;117;117;
2020-12-29 18:04:05;2;119;119;119;119;119;119;119;119;119;119;
2020-12-29 18:04:05;3;117;117;116;116;116;115;115;114;114;114;
2020-12-29 18:04:05;4;121;121;121;121;121;121;121;121;121;121;
2020-12-29 18:04:05;5;95;95;95;94;95;95;95;95;95;94;
2020-12-29 18:04:05;ht;68;36.00
2020-12-29 18:04:05;v;4.17
2020-12-29 18:34:02;1;124;124;124;124;124;124;124;131;125;124;
2020-12-29 18:34:02;2;117;117;117;117;117;117;117;117;117;117;
2020-12-29 18:34:02;3;112;112;112;111;111;111;111;111;110;110;
2020-12-29 18:34:02;4;118;117;117;117;118;117;117;117;117;117;
2020-12-29 18:34:02;5;90;90;90;91;90;91;90;90;90;91;
2020-12-29 18:34:02;ht;64;35.30
2020-12-29 18:34:02;v;4.17
2020-12-29 19:04:03;1;122;122;122;122;122;122;122;122;122;122;
2020-12-29 19:04:03;2;118;118;118;118;118;118;118;118;118;118;
2020-12-29 19:04:03;3;116;116;115;115;115;115;114;114;114;114;
2020-12-29 19:04:03;4;117;117;117;117;117;117;117;117;116;117;
2020-12-29 19:04:03;5;91;91;91;91;91;91;91;91;91;91;
2020-12-29 19:04:03;ht;68;35.80
2020-12-29 19:04:03;v;4.17
2020-12-29 19:34:00;1;127;127;127;127;127;127;127;127;127;127;
2020-12-29 19:34:00;2;121;121;128;123;121;121;121;121;121;121;
2020-12-29 19:34:00;3;109;110;112;112;111;110;110;109;109;108;
2020-12-29 19:34:00;4;110;110;110;109;110;110;110;109;109;109;
2020-12-29 19:34:00;5;90;90;90;90;90;90;90;90;90;90;
2020-12-29 19:34:00;ht;89;33.30
2020-12-29 19:34:00;v;4.17
2020-12-29 20:03:58;1;115;115;115;115;114;115;115;115;115;114;
2020-12-29 20:03:58;2;122;122;122;122;122;122;122;122;122;122;
2020-12-29 20:03:58;3;129;129;130;130;130;130;130;130;130;130;
2020-12-29 20:03:58;4;3;3;3;3;3;3;3;3;3;3;
2020-12-29 20:03:58;5;2;2;2;2;2;1;2;2;2;2;
2020-12-29 20:03:58;ht;90;31.80
2020-12-29 20:03:58;v;4.17
2020-12-29 20:33:58;1;126;126;126;126;126;126;126;126;126;126;
2020-12-29 20:33:58;2;113;110;110;110;109;110;110;110;110;110;
2020-12-29 20:33:58;3;111;111;111;110;111;111;111;111;111;112;
2020-12-29 20:33:58;4;134;134;133;134;134;134;134;134;133;134;
2020-12-29 20:33:58;5;91;91;91;91;91;91;91;91;91;91;
2020-12-29 20:33:58;ht;99;29.50
2020-12-29 20:33:58;v;4.17
2020-12-29 21:03:56;1;121;121;121;121;121;122;122;121;122;130;
2020-12-29 21:03:56;2;123;123;123;123;123;123;129;125;124;123;
2020-12-29 21:03:56;3;74;73;72;72;71;75;80;80;83;81;
2020-12-29 21:03:56;4;104;104;104;104;104;104;104;104;104;104;
2020-12-29 21:03:56;5;91;91;91;91;91;91;91;91;91;91;
2020-12-29 21:03:56;ht;99;28.10
2020-12-29 21:03:56;v;4.16
2020-12-29 21:33:53;1;126;127;127;127;127;127;127;127;127;127;
2020-12-29 21:33:53;2;128;128;128;128;128;128;128;128;128;128;
2020-12-29 21:33:53;3;113;113;113;113;113;113;113;113;113;112;
2020-12-29 21:33:53;4;106;107;107;107;107;106;107;106;107;107;
2020-12-29 21:33:53;5;92;92;92;92;92;92;92;92;92;91;
2020-12-29 21:33:53;ht;99;28.50
2020-12-29 21:33:53;v;4.17
2020-12-29 22:03:53;1;1;2;2;1;1;1;1;1;1;1;
2020-12-29 22:03:53;2;121;113;113;113;112;113;113;112;113;112;
2020-12-29 22:03:53;3;73;73;72;73;72;72;72;72;72;71;
2020-12-29 22:03:53;4;116;116;116;116;116;116;116;116;116;116;
2020-12-29 22:03:53;5;107;107;107;107;107;107;107;107;107;107;
2020-12-29 22:03:53;ht;99;27.60
2020-12-29 22:03:53;v;4.17
2020-12-29 22:33:54;1;121;121;121;121;121;120;121;121;121;129;
2020-12-29 22:33:54;2;114;114;114;114;113;113;114;114;114;114;
2020-12-29 22:33:54;3;133;133;133;133;133;133;133;133;133;133;
2020-12-29 22:33:54;4;116;116;116;116;116;116;116;116;116;116;
2020-12-29 22:33:54;5;112;113;112;112;112;112;112;112;112;112;
2020-12-29 22:33:54;ht;99;27.60
2020-12-29 22:33:54;v;4.16
2020-12-29 23:03:53;1;127;127;127;127;135;128;127;128;128;127;
2020-12-29 23:03:53;2;123;118;117;117;117;117;117;116;117;117;
2020-12-29 23:03:53;3;80;79;78;78;77;77;76;75;75;75;
2020-12-29 23:03:53;4;116;116;116;116;116;116;116;116;117;116;
2020-12-29 23:03:53;5;124;124;124;124;124;124;124;124;124;124;
2020-12-29 23:03:53;ht;99;24.50
2020-12-29 23:03:53;v;4.16
2020-12-29 23:33:52;1;127;127;127;127;133;130;127;127;127;127;
2020-12-29 23:33:52;2;119;119;119;119;119;119;119;119;119;119;
2020-12-29 23:33:52;3;58;58;58;58;57;57;57;57;56;56;
2020-12-29 23:33:52;4;120;119;120;120;119;120;119;120;120;119;
2020-12-29 23:33:52;5;94;94;94;94;94;94;94;94;94;94;
2020-12-29 23:33:52;ht;99;24.20
2020-12-29 23:33:52;v;4.16
