2020-12-12 00:03:48;1;130;130;130;130;130;130;130;130;130;130;
2020-12-12 00:03:48;2;120;120;120;120;120;120;120;120;120;120;
2020-12-12 00:03:48;3;121;121;121;121;121;121;121;121;121;121;
2020-12-12 00:03:48;4;95;95;95;95;95;95;95;95;95;95;
2020-12-12 00:03:48;5;94;95;95;95;95;95;95;95;95;95;
2020-12-12 00:03:48;ht;99;17.80
2020-12-12 00:03:48;v;3.92
2020-12-12 00:33:46;1;122;122;122;122;122;122;122;122;122;122;
2020-12-12 00:33:46;2;113;113;113;113;113;113;113;113;113;113;
2020-12-12 00:33:46;3;129;129;130;129;130;130;130;130;130;130;
2020-12-12 00:33:46;4;2;2;2;2;2;2;2;2;2;2;
2020-12-12 00:33:46;5;92;92;92;92;92;92;92;92;92;91;
2020-12-12 00:33:46;ht;99;18.10
2020-12-12 00:33:46;v;3.92
2020-12-12 01:03:49;1;126;126;126;126;126;126;126;126;126;126;
2020-12-12 01:03:49;2;121;121;121;121;121;121;121;121;121;121;
2020-12-12 01:03:49;3;119;119;119;119;119;119;119;119;119;119;
2020-12-12 01:03:49;4;98;98;98;99;98;98;98;98;98;98;
2020-12-12 01:03:49;5;94;94;95;94;95;94;95;94;95;94;
2020-12-12 01:03:49;ht;99;18.70
2020-12-12 01:03:49;v;3.92
2020-12-12 01:33:47;1;121;121;121;121;121;121;121;121;121;121;
2020-12-12 01:33:47;2;97;97;98;97;97;97;97;97;98;98;
2020-12-12 01:33:47;3;92;92;92;92;92;92;92;92;92;92;
2020-12-12 01:33:47;4;97;97;97;97;97;97;97;97;97;97;
2020-12-12 01:33:47;5;99;99;99;99;99;99;99;99;99;99;
2020-12-12 01:33:47;ht;99;18.20
2020-12-12 01:33:47;v;3.92
2020-12-12 02:03:46;1;115;115;115;115;115;115;115;115;115;115;
2020-12-12 02:03:46;2;96;96;96;96;96;96;96;96;96;96;
2020-12-12 02:03:46;3;103;103;103;103;103;103;103;103;103;103;
2020-12-12 02:03:46;4;95;95;95;95;95;95;95;95;95;95;
2020-12-12 02:03:46;5;95;95;95;95;95;95;95;95;95;95;
2020-12-12 02:03:46;ht;99;17.40
2020-12-12 02:03:46;v;3.92
2020-12-12 02:33:49;1;116;116;116;116;116;116;116;116;116;116;
2020-12-12 02:33:49;2;97;98;97;97;98;97;97;97;97;97;
2020-12-12 02:33:49;3;96;96;96;96;96;96;96;96;96;96;
2020-12-12 02:33:49;4;92;92;92;92;92;92;92;92;92;92;
2020-12-12 02:33:49;5;93;93;93;93;93;93;93;93;93;93;
2020-12-12 02:33:49;ht;99;17.50
2020-12-12 02:33:49;v;3.92
2020-12-12 03:03:46;1;121;121;121;121;121;121;121;121;121;121;
2020-12-12 03:03:46;2;1;1;2;2;1;2;1;1;2;2;
2020-12-12 03:03:46;3;119;120;120;120;120;120;120;120;120;119;
2020-12-12 03:03:46;4;93;93;93;93;94;93;94;93;93;93;
2020-12-12 03:03:46;5;108;108;108;108;108;108;109;108;108;109;
2020-12-12 03:03:46;ht;99;17.40
2020-12-12 03:03:46;v;3.92
2020-12-12 03:33:49;1;108;107;108;107;107;107;107;107;107;107;
2020-12-12 03:33:49;2;121;122;121;121;121;122;122;122;122;122;
2020-12-12 03:33:49;3;2;2;2;2;2;2;2;2;2;2;
2020-12-12 03:33:49;4;2;2;2;2;2;2;2;2;2;2;
2020-12-12 03:33:49;5;114;114;114;114;114;114;114;114;114;114;
2020-12-12 03:33:49;ht;99;17.70
2020-12-12 03:33:49;v;3.92
2020-12-12 04:03:47;1;116;116;116;116;116;116;116;116;116;116;
2020-12-12 04:03:47;2;108;109;109;109;109;109;109;109;108;109;
2020-12-12 04:03:47;3;121;121;121;121;121;121;121;121;121;121;
2020-12-12 04:03:47;4;93;93;93;93;93;93;93;93;93;93;
2020-12-12 04:03:47;5;93;94;93;94;94;94;94;94;94;94;
2020-12-12 04:03:47;ht;99;17.80
2020-12-12 04:03:47;v;3.92
2020-12-12 04:33:46;1;97;97;96;96;97;96;96;97;96;96;
2020-12-12 04:33:46;2;96;96;96;96;96;96;96;96;96;96;
2020-12-12 04:33:46;3;124;124;124;124;124;124;124;124;124;124;
2020-12-12 04:33:46;4;94;94;94;94;94;94;94;94;94;94;
2020-12-12 04:33:46;5;103;103;104;104;104;104;104;104;104;104;
2020-12-12 04:33:46;ht;99;17.40
2020-12-12 04:33:46;v;3.92
2020-12-12 05:03:48;1;127;127;127;127;127;127;127;127;126;127;
2020-12-12 05:03:48;2;97;97;97;97;97;96;97;97;97;97;
2020-12-12 05:03:48;3;121;121;121;121;121;121;121;121;121;121;
2020-12-12 05:03:48;4;99;99;99;99;99;99;99;99;99;99;
2020-12-12 05:03:48;5;89;89;89;89;89;89;89;89;89;89;
2020-12-12 05:03:48;ht;99;18.20
2020-12-12 05:03:48;v;3.92
2020-12-12 05:33:46;1;113;113;113;113;113;113;113;113;113;113;
2020-12-12 05:33:46;2;102;102;102;102;102;102;102;102;102;102;
2020-12-12 05:33:46;3;87;87;87;87;88;88;87;87;87;87;
2020-12-12 05:33:46;4;112;112;112;112;112;112;112;112;112;113;
2020-12-12 05:33:46;5;98;98;98;98;98;98;98;98;98;98;
2020-12-12 05:33:46;ht;99;17.00
2020-12-12 05:33:46;v;3.92
2020-12-12 06:03:49;1;119;119;119;119;119;119;119;119;119;119;
2020-12-12 06:03:49;2;104;104;104;104;104;104;104;104;104;104;
2020-12-12 06:03:49;3;129;129;129;129;129;129;129;129;129;129;
2020-12-12 06:03:49;4;89;89;90;90;90;90;89;89;90;90;
2020-12-12 06:03:49;5;94;95;95;94;94;94;94;95;95;94;
2020-12-12 06:03:49;ht;99;16.80
2020-12-12 06:03:49;v;3.92
2020-12-12 06:33:46;1;119;119;119;119;119;119;119;119;119;119;
2020-12-12 06:33:46;2;100;100;100;100;100;100;100;100;100;100;
2020-12-12 06:33:46;3;86;87;87;86;86;86;86;86;87;86;
2020-12-12 06:33:46;4;99;99;99;99;99;99;99;99;99;99;
2020-12-12 06:33:46;5;92;93;93;93;93;93;93;93;93;93;
2020-12-12 06:33:46;ht;99;17.70
2020-12-12 06:33:46;v;3.92
2020-12-12 07:03:49;1;109;109;109;109;109;109;109;109;109;109;
2020-12-12 07:03:49;2;104;105;105;105;104;104;105;104;104;105;
2020-12-12 07:03:49;3;96;96;96;96;96;96;96;96;96;96;
2020-12-12 07:03:49;4;92;92;92;92;92;92;92;92;92;92;
2020-12-12 07:03:49;5;92;91;92;92;92;92;92;92;92;92;
2020-12-12 07:03:49;ht;99;18.40
2020-12-12 07:03:49;v;3.92
2020-12-12 07:33:48;1;109;108;109;109;109;109;109;109;109;109;
2020-12-12 07:33:48;2;121;121;121;121;121;121;121;121;121;121;
2020-12-12 07:33:48;3;88;89;88;88;88;88;88;88;88;88;
2020-12-12 07:33:48;4;99;99;99;99;99;98;99;99;99;98;
2020-12-12 07:33:48;5;98;99;98;98;99;98;99;99;98;98;
2020-12-12 07:33:48;ht;99;18.90
2020-12-12 07:33:48;v;3.92
2020-12-12 08:03:46;1;114;114;114;114;114;114;114;114;114;114;
2020-12-12 08:03:46;2;117;117;117;117;117;117;117;117;117;117;
2020-12-12 08:03:46;3;116;116;116;116;116;116;116;116;116;116;
2020-12-12 08:03:46;4;93;92;92;92;93;92;92;92;93;92;
2020-12-12 08:03:46;5;91;91;91;91;91;91;90;90;91;90;
2020-12-12 08:03:46;ht;99;17.50
2020-12-12 08:03:46;v;3.92
2020-12-12 08:33:49;1;112;112;112;112;112;112;112;112;112;112;
2020-12-12 08:33:49;2;126;126;126;126;126;126;126;126;126;126;
2020-12-12 08:33:49;3;93;93;93;93;93;93;93;93;93;93;
2020-12-12 08:33:49;4;92;92;92;92;92;92;92;92;92;92;
2020-12-12 08:33:49;5;107;107;107;107;107;107;107;107;107;107;
2020-12-12 08:33:49;ht;99;15.80
2020-12-12 08:33:49;v;3.92
2020-12-12 09:03:46;1;116;116;116;116;116;116;116;116;116;116;
2020-12-12 09:03:46;2;111;111;111;111;111;112;112;112;112;112;
2020-12-12 09:03:46;3;108;108;108;108;108;108;108;108;108;108;
2020-12-12 09:03:46;4;92;92;92;92;92;92;92;92;92;92;
2020-12-12 09:03:46;5;100;100;108;101;101;101;101;101;101;101;
2020-12-12 09:03:46;ht;99;15.90
2020-12-12 09:03:46;v;3.92
2020-12-12 09:33:47;1;117;117;117;117;117;116;116;117;117;117;
2020-12-12 09:33:47;2;117;117;116;117;117;117;117;117;117;117;
2020-12-12 09:33:47;3;113;113;113;113;113;113;113;113;113;113;
2020-12-12 09:33:47;4;100;100;99;100;99;100;100;99;100;100;
2020-12-12 09:33:47;5;108;108;107;108;108;107;107;108;108;107;
2020-12-12 09:33:47;ht;99;15.70
2020-12-12 09:33:47;v;3.92
2020-12-12 10:03:45;1;116;116;116;116;116;116;116;116;116;116;
2020-12-12 10:03:45;2;111;111;111;111;111;111;111;111;111;111;
2020-12-12 10:03:45;3;96;96;96;96;96;96;96;96;96;96;
2020-12-12 10:03:45;4;90;90;90;90;90;90;89;90;90;90;
2020-12-12 10:03:45;5;103;103;103;103;103;103;103;103;103;103;
2020-12-12 10:03:45;ht;99;18.10
2020-12-12 10:03:45;v;3.92
2020-12-12 10:33:47;1;123;123;123;123;123;123;123;123;123;123;
2020-12-12 10:33:47;2;110;109;110;109;110;110;110;110;110;109;
2020-12-12 10:33:47;3;105;105;105;105;105;105;105;105;105;105;
2020-12-12 10:33:47;4;93;94;94;93;94;94;94;94;94;94;
2020-12-12 10:33:47;5;97;97;97;97;97;97;97;97;97;97;
2020-12-12 10:33:47;ht;99;17.30
2020-12-12 10:33:47;v;3.92
2020-12-12 11:03:45;1;112;112;112;112;112;112;112;112;112;112;
2020-12-12 11:03:45;2;116;116;116;116;116;116;116;116;116;116;
2020-12-12 11:03:45;3;100;100;100;100;100;100;100;100;100;100;
2020-12-12 11:03:45;4;123;123;123;123;123;123;123;123;123;123;
2020-12-12 11:03:45;5;108;108;108;108;108;108;108;108;108;108;
2020-12-12 11:03:45;ht;99;18.00
2020-12-12 11:03:45;v;3.92
2020-12-12 11:33:48;1;116;116;116;116;116;116;116;116;116;116;
2020-12-12 11:33:48;2;122;121;121;122;122;121;121;122;122;121;
2020-12-12 11:33:48;3;118;118;118;118;118;118;118;118;118;118;
2020-12-12 11:33:48;4;91;91;91;91;92;91;91;91;91;92;
2020-12-12 11:33:48;5;103;103;103;103;103;103;103;103;103;103;
2020-12-12 11:33:48;ht;99;20.30
2020-12-12 11:33:48;v;3.92
2020-12-12 12:03:48;1;123;123;123;123;123;123;123;123;123;123;
2020-12-12 12:03:48;2;118;118;118;118;118;118;118;117;118;118;
2020-12-12 12:03:48;3;103;103;103;103;103;103;103;103;103;103;
2020-12-12 12:03:48;4;91;91;91;91;91;91;91;91;91;91;
2020-12-12 12:03:48;5;98;98;98;98;98;98;98;98;98;98;
2020-12-12 12:03:48;ht;99;22.90
2020-12-12 12:03:48;v;3.92
2020-12-12 12:33:51;1;113;112;112;112;112;112;112;113;112;112;
2020-12-12 12:33:51;2;110;110;110;110;111;111;110;111;110;110;
2020-12-12 12:33:51;3;96;96;96;102;97;97;96;96;96;96;
2020-12-12 12:33:51;4;94;94;94;101;100;96;95;95;95;95;
2020-12-12 12:33:51;5;95;96;95;95;95;95;96;95;96;95;
2020-12-12 12:33:51;ht;99;25.30
2020-12-12 12:33:51;v;3.92
2020-12-12 13:03:55;1;104;104;104;104;104;103;104;104;104;103;
2020-12-12 13:03:55;2;121;121;121;121;121;121;121;121;121;121;
2020-12-12 13:03:55;3;116;116;116;116;116;116;116;116;115;115;
2020-12-12 13:03:55;4;91;91;91;91;91;91;91;91;91;91;
2020-12-12 13:03:55;5;102;101;101;102;101;101;102;101;102;101;
2020-12-12 13:03:55;ht;99;26.10
2020-12-12 13:03:55;v;3.92
2020-12-12 13:33:56;1;112;112;112;112;112;112;112;112;112;112;
2020-12-12 13:33:56;2;98;97;98;98;98;98;98;98;98;98;
2020-12-12 13:33:56;3;121;121;121;121;121;121;121;121;121;121;
2020-12-12 13:33:56;4;93;93;93;93;93;93;93;93;93;93;
2020-12-12 13:33:56;5;98;98;98;98;98;98;98;98;98;98;
2020-12-12 13:33:56;ht;99;26.10
2020-12-12 13:33:56;v;3.92
2020-12-12 14:03:54;1;113;113;113;113;113;113;113;113;113;113;
2020-12-12 14:03:54;2;2;2;2;2;2;2;1;2;2;1;
2020-12-12 14:03:54;3;103;103;103;103;103;103;103;103;103;103;
2020-12-12 14:03:54;4;88;88;89;88;88;88;88;88;88;88;
2020-12-12 14:03:54;5;92;92;92;92;92;92;92;92;92;92;
2020-12-12 14:03:54;ht;99;26.70
2020-12-12 14:03:54;v;3.92
2020-12-12 14:33:56;1;118;118;118;118;118;117;118;118;118;118;
2020-12-12 14:33:56;2;97;97;97;97;97;97;97;97;97;97;
2020-12-12 14:33:56;3;115;115;115;115;115;115;115;115;115;115;
2020-12-12 14:33:56;4;90;90;90;90;90;90;90;90;90;90;
2020-12-12 14:33:56;5;107;107;107;107;107;106;106;107;107;107;
2020-12-12 14:33:56;ht;99;27.30
2020-12-12 14:33:56;v;3.92
2020-12-12 15:03:53;1;115;115;115;115;115;115;115;115;115;115;
2020-12-12 15:03:53;2;122;122;122;122;122;122;122;122;122;122;
2020-12-12 15:03:53;3;121;121;121;121;121;121;121;121;121;121;
2020-12-12 15:03:53;4;103;103;103;103;103;103;103;103;103;103;
2020-12-12 15:03:53;5;105;105;105;105;105;105;105;105;105;105;
2020-12-12 15:03:53;ht;99;27.60
2020-12-12 15:03:53;v;3.92
2020-12-12 15:33:56;1;2;2;1;2;1;2;1;2;1;2;
2020-12-12 15:33:56;2;108;108;108;108;108;108;108;108;108;108;
2020-12-12 15:33:56;3;97;97;97;97;97;98;97;98;98;97;
2020-12-12 15:33:56;4;91;92;92;92;92;92;92;92;92;91;
2020-12-12 15:33:56;5;104;104;104;104;104;104;104;104;104;104;
2020-12-12 15:33:56;ht;99;28.40
2020-12-12 15:33:56;v;3.92
2020-12-12 16:03:55;1;113;113;113;113;113;113;113;113;113;113;
2020-12-12 16:03:55;2;99;99;99;99;99;99;100;99;99;99;
2020-12-12 16:03:55;3;121;121;121;121;121;121;121;121;121;121;
2020-12-12 16:03:55;4;92;92;92;92;92;92;92;92;92;92;
2020-12-12 16:03:55;5;110;110;110;110;110;110;110;110;110;110;
2020-12-12 16:03:55;ht;99;28.80
2020-12-12 16:03:55;v;3.92
2020-12-12 16:33:58;1;107;106;107;107;106;106;107;107;107;107;
2020-12-12 16:33:58;2;123;123;123;123;123;123;123;123;123;123;
2020-12-12 16:33:58;3;120;120;120;120;120;120;120;120;120;120;
2020-12-12 16:33:58;4;2;1;2;2;2;1;1;2;2;2;
2020-12-12 16:33:58;5;96;96;96;96;96;96;96;96;96;96;
2020-12-12 16:33:58;ht;99;28.50
2020-12-12 16:33:58;v;3.91
2020-12-12 17:03:57;1;116;116;116;116;115;115;115;115;115;115;
2020-12-12 17:03:57;2;117;117;117;117;117;117;117;117;117;117;
2020-12-12 17:03:57;3;100;100;100;100;100;100;100;100;100;100;
2020-12-12 17:03:57;4;89;89;89;89;89;89;89;89;89;89;
2020-12-12 17:03:57;5;100;100;100;100;100;100;100;100;100;100;
2020-12-12 17:03:57;ht;99;28.50
2020-12-12 17:03:57;v;3.92
2020-12-12 17:33:56;1;108;109;109;109;109;109;109;109;109;109;
2020-12-12 17:33:56;2;121;121;121;121;121;121;121;121;121;121;
2020-12-12 17:33:56;3;117;117;116;116;117;117;117;117;117;117;
2020-12-12 17:33:56;4;92;91;91;92;91;91;91;91;91;91;
2020-12-12 17:33:56;5;105;105;105;105;105;105;105;105;105;105;
2020-12-12 17:33:56;ht;99;27.20
2020-12-12 17:33:56;v;3.92
2020-12-12 18:03:54;1;107;107;107;107;107;107;107;107;107;107;
2020-12-12 18:03:54;2;121;121;121;121;121;121;121;121;121;121;
2020-12-12 18:03:54;3;118;118;118;118;118;118;118;118;118;118;
2020-12-12 18:03:54;4;91;91;91;91;91;91;91;91;91;91;
2020-12-12 18:03:54;5;104;104;104;104;104;104;104;104;104;104;
2020-12-12 18:03:54;ht;99;26.50
2020-12-12 18:03:54;v;3.91
2020-12-12 18:33:55;1;100;100;100;100;100;100;100;100;100;100;
2020-12-12 18:33:55;2;2;2;2;2;2;2;2;2;2;2;
2020-12-12 18:33:55;3;95;95;95;95;95;95;95;95;95;95;
2020-12-12 18:33:55;4;97;96;97;97;97;97;97;97;97;97;
2020-12-12 18:33:55;5;101;101;101;101;101;101;101;101;101;101;
2020-12-12 18:33:55;ht;99;24.50
2020-12-12 18:33:55;v;3.92
2020-12-12 19:03:54;1;114;114;114;114;114;114;114;114;114;114;
2020-12-12 19:03:54;2;126;126;126;126;126;127;126;127;126;127;
2020-12-12 19:03:54;3;121;121;121;120;120;120;121;120;121;121;
2020-12-12 19:03:54;4;89;89;90;89;90;90;90;90;90;90;
2020-12-12 19:03:54;5;101;101;101;101;101;101;101;101;101;101;
2020-12-12 19:03:54;ht;99;24.20
2020-12-12 19:03:54;v;3.92
2020-12-12 19:33:53;1;108;108;108;107;108;108;108;108;108;108;
2020-12-12 19:33:53;2;100;100;100;100;100;100;100;100;100;100;
2020-12-12 19:33:53;3;89;89;89;89;89;89;89;89;89;89;
2020-12-12 19:33:53;4;90;90;90;90;90;90;90;91;90;90;
2020-12-12 19:33:53;5;109;109;109;109;109;109;109;109;109;109;
2020-12-12 19:33:53;ht;99;23.60
2020-12-12 19:33:53;v;3.91
2020-12-12 20:03:51;1;115;115;115;115;115;115;115;115;115;115;
2020-12-12 20:03:51;2;115;115;115;115;115;115;115;115;115;115;
2020-12-12 20:03:51;3;99;99;99;99;99;100;99;99;99;99;
2020-12-12 20:03:51;4;89;89;89;89;89;89;89;89;89;89;
2020-12-12 20:03:51;5;111;111;111;111;111;111;111;111;111;111;
2020-12-12 20:03:51;ht;99;22.60
2020-12-12 20:03:51;v;3.91
2020-12-12 20:33:49;1;120;120;120;120;120;120;120;120;120;120;
2020-12-12 20:33:49;2;116;116;116;116;116;116;116;116;116;116;
2020-12-12 20:33:49;3;115;115;115;115;115;115;115;115;115;115;
2020-12-12 20:33:49;4;92;92;92;92;92;92;92;92;92;92;
2020-12-12 20:33:49;5;104;104;104;104;104;104;104;104;104;104;
2020-12-12 20:33:49;ht;99;22.50
2020-12-12 20:33:49;v;3.92
2020-12-12 21:03:50;1;115;115;115;115;115;115;115;115;115;115;
2020-12-12 21:03:50;2;121;121;121;121;121;121;121;121;121;121;
2020-12-12 21:03:50;3;122;122;122;122;122;122;122;122;122;122;
2020-12-12 21:03:50;4;90;90;90;90;91;90;90;90;90;90;
2020-12-12 21:03:50;5;97;97;96;97;97;97;97;97;97;97;
2020-12-12 21:03:50;ht;99;21.80
2020-12-12 21:03:50;v;3.92
2020-12-12 21:33:51;1;105;106;106;106;106;106;106;106;106;106;
2020-12-12 21:33:51;2;115;115;115;116;115;116;115;115;116;116;
2020-12-12 21:33:51;3;116;116;116;116;116;116;116;116;116;116;
2020-12-12 21:33:51;4;89;89;90;89;89;89;89;89;90;89;
2020-12-12 21:33:51;5;102;101;102;102;102;102;102;102;102;102;
2020-12-12 21:33:51;ht;99;21.30
2020-12-12 21:33:51;v;3.91
2020-12-12 22:03:47;1;1;2;1;2;1;2;1;2;1;2;
2020-12-12 22:03:47;2;121;122;122;122;122;122;122;122;122;122;
2020-12-12 22:03:47;3;130;129;130;130;130;130;130;130;130;130;
2020-12-12 22:03:47;4;91;91;91;91;91;91;91;91;91;91;
2020-12-12 22:03:47;5;96;96;96;96;96;96;96;96;96;96;
2020-12-12 22:03:47;ht;99;20.70
2020-12-12 22:03:47;v;3.92
2020-12-12 22:33:48;1;113;113;113;113;113;113;113;113;113;113;
2020-12-12 22:33:48;2;115;115;115;115;114;115;115;115;115;115;
2020-12-12 22:33:48;3;118;118;118;118;118;118;118;118;118;118;
2020-12-12 22:33:48;4;91;92;92;92;92;91;92;92;92;92;
2020-12-12 22:33:48;5;114;114;114;114;114;114;114;114;114;113;
2020-12-12 22:33:48;ht;99;20.30
2020-12-12 22:33:48;v;3.92
2020-12-12 23:03:48;1;114;115;115;114;114;115;115;114;114;115;
2020-12-12 23:03:48;2;117;118;118;118;117;117;117;117;117;117;
2020-12-12 23:03:48;3;121;120;120;120;121;121;121;120;121;120;
2020-12-12 23:03:48;4;129;129;129;129;129;129;129;129;129;129;
2020-12-12 23:03:48;5;97;97;97;97;97;97;97;97;97;97;
2020-12-12 23:03:48;ht;99;19.90
2020-12-12 23:03:48;v;3.91
2020-12-12 23:33:47;1;118;118;118;118;118;118;118;118;118;118;
2020-12-12 23:33:47;2;120;120;120;120;120;119;119;120;119;119;
2020-12-12 23:33:47;3;120;120;120;120;120;120;120;120;120;120;
2020-12-12 23:33:47;4;91;92;91;92;92;92;92;92;91;91;
2020-12-12 23:33:47;5;88;88;88;88;88;87;88;88;88;88;
2020-12-12 23:33:47;ht;99;19.80
2020-12-12 23:33:47;v;3.92
