2020-12-16 00:03:48;1;117;117;117;117;117;117;117;117;117;117;
2020-12-16 00:03:48;2;89;89;89;89;89;89;89;89;89;89;
2020-12-16 00:03:48;3;118;118;118;118;118;118;118;118;118;118;
2020-12-16 00:03:48;4;2;2;2;1;2;1;1;2;1;2;
2020-12-16 00:03:48;5;90;89;90;89;90;89;89;89;89;90;
2020-12-16 00:03:48;ht;99;19.20
2020-12-16 00:03:48;v;3.89
2020-12-16 00:33:47;1;114;113;114;113;114;113;113;113;114;113;
2020-12-16 00:33:47;2;118;118;118;118;118;118;118;118;118;118;
2020-12-16 00:33:47;3;96;96;96;96;96;96;96;97;96;96;
2020-12-16 00:33:47;4;91;91;91;92;92;92;92;91;91;92;
2020-12-16 00:33:47;5;92;92;92;92;92;92;92;92;92;92;
2020-12-16 00:33:47;ht;99;18.40
2020-12-16 00:33:47;v;3.89
2020-12-16 01:03:50;1;120;120;120;120;120;120;120;120;120;120;
2020-12-16 01:03:50;2;119;119;119;119;119;119;119;119;119;119;
2020-12-16 01:03:50;3;96;97;97;96;96;96;96;96;96;96;
2020-12-16 01:03:50;4;115;115;115;115;115;115;115;115;115;115;
2020-12-16 01:03:50;5;89;89;89;89;89;89;89;90;90;90;
2020-12-16 01:03:50;ht;99;18.00
2020-12-16 01:03:50;v;3.89
2020-12-16 01:33:48;1;110;110;110;110;110;110;110;110;111;110;
2020-12-16 01:33:48;2;133;128;127;127;127;127;127;127;127;127;
2020-12-16 01:33:48;3;120;120;120;120;120;120;120;120;120;120;
2020-12-16 01:33:48;4;1;1;1;2;1;1;1;1;1;2;
2020-12-16 01:33:48;5;86;86;86;86;86;86;86;86;86;86;
2020-12-16 01:33:48;ht;99;17.90
2020-12-16 01:33:48;v;3.89
2020-12-16 02:03:45;1;119;119;119;119;119;119;119;119;119;119;
2020-12-16 02:03:45;2;87;87;87;87;87;87;87;87;87;87;
2020-12-16 02:03:45;3;95;95;95;95;95;95;95;95;95;96;
2020-12-16 02:03:45;4;117;117;117;117;117;117;117;117;117;117;
2020-12-16 02:03:45;5;85;85;85;85;85;85;85;85;85;85;
2020-12-16 02:03:45;ht;99;17.80
2020-12-16 02:03:45;v;3.89
2020-12-16 02:33:48;1;125;125;125;125;125;125;125;125;125;125;
2020-12-16 02:33:48;2;120;120;120;120;120;120;120;120;120;120;
2020-12-16 02:33:48;3;104;103;103;104;104;103;104;104;104;104;
2020-12-16 02:33:48;4;117;117;117;117;117;117;117;117;117;117;
2020-12-16 02:33:48;5;85;85;84;85;84;84;85;85;85;85;
2020-12-16 02:33:48;ht;99;17.50
2020-12-16 02:33:48;v;3.89
2020-12-16 03:03:45;1;115;115;115;115;115;115;115;115;115;115;
2020-12-16 03:03:45;2;120;120;120;120;120;120;120;120;120;120;
2020-12-16 03:03:45;3;110;110;110;110;110;110;109;110;110;110;
2020-12-16 03:03:45;4;118;117;117;118;117;117;118;117;117;118;
2020-12-16 03:03:45;5;88;88;88;88;88;88;88;88;88;88;
2020-12-16 03:03:45;ht;99;17.30
2020-12-16 03:03:45;v;3.89
2020-12-16 03:33:48;1;122;122;122;122;122;122;122;122;122;122;
2020-12-16 03:33:48;2;126;126;126;126;126;126;126;126;126;126;
2020-12-16 03:33:48;3;89;89;89;89;89;89;89;89;89;89;
2020-12-16 03:33:48;4;2;2;2;2;2;2;2;2;2;2;
2020-12-16 03:33:48;5;87;87;87;87;87;87;87;87;87;87;
2020-12-16 03:33:48;ht;99;17.20
2020-12-16 03:33:48;v;3.89
2020-12-16 04:03:45;1;124;123;123;123;123;123;123;123;123;123;
2020-12-16 04:03:45;2;114;114;114;114;114;114;114;114;114;114;
2020-12-16 04:03:45;3;124;124;124;124;124;125;125;124;125;124;
2020-12-16 04:03:45;4;83;83;83;83;83;83;83;83;83;83;
2020-12-16 04:03:45;5;88;88;88;88;88;88;87;88;88;87;
2020-12-16 04:03:45;ht;99;17.10
2020-12-16 04:03:45;v;3.89
2020-12-16 04:33:47;1;117;117;117;117;117;117;117;117;117;117;
2020-12-16 04:33:47;2;124;124;124;124;124;124;124;124;124;124;
2020-12-16 04:33:47;3;115;115;115;115;115;115;115;115;115;115;
2020-12-16 04:33:47;4;2;1;2;2;1;1;2;1;1;1;
2020-12-16 04:33:47;5;104;104;104;104;104;103;104;104;104;104;
2020-12-16 04:33:47;ht;99;16.80
2020-12-16 04:33:47;v;3.89
2020-12-16 05:03:49;1;108;108;108;108;108;108;108;108;108;108;
2020-12-16 05:03:49;2;2;2;2;2;2;2;2;2;2;2;
2020-12-16 05:03:49;3;115;115;115;115;115;115;115;115;115;115;
2020-12-16 05:03:49;4;88;88;88;88;88;88;88;88;88;88;
2020-12-16 05:03:49;5;88;87;87;88;88;87;88;88;88;88;
2020-12-16 05:03:49;ht;99;16.40
2020-12-16 05:03:49;v;3.89
2020-12-16 05:33:46;1;124;124;124;124;124;124;125;124;124;125;
2020-12-16 05:33:46;2;106;106;106;106;105;105;105;105;106;106;
2020-12-16 05:33:46;3;132;132;132;132;132;132;132;131;132;131;
2020-12-16 05:33:46;4;91;91;91;91;91;91;91;91;91;91;
2020-12-16 05:33:46;5;94;94;94;94;94;94;94;94;94;94;
2020-12-16 05:33:46;ht;99;15.70
2020-12-16 05:33:46;v;3.89
2020-12-16 06:03:47;1;114;114;114;114;114;114;114;114;114;114;
2020-12-16 06:03:47;2;115;115;115;115;115;115;115;115;115;115;
2020-12-16 06:03:47;3;117;117;117;117;117;117;117;117;117;117;
2020-12-16 06:03:47;4;121;121;121;121;121;121;121;121;121;121;
2020-12-16 06:03:47;5;86;86;86;86;86;86;86;86;86;86;
2020-12-16 06:03:47;ht;99;15.60
2020-12-16 06:03:47;v;3.89
2020-12-16 06:33:48;1;117;117;117;117;117;117;117;117;117;117;
2020-12-16 06:33:48;2;88;88;88;88;88;88;88;88;88;88;
2020-12-16 06:33:48;3;96;96;96;96;96;96;96;96;96;96;
2020-12-16 06:33:48;4;79;79;79;79;79;79;79;79;79;79;
2020-12-16 06:33:48;5;85;85;85;85;85;85;85;85;85;85;
2020-12-16 06:33:48;ht;99;15.90
2020-12-16 06:33:48;v;3.89
2020-12-16 07:03:44;1;103;102;103;103;103;103;103;103;102;103;
2020-12-16 07:03:44;2;99;99;99;99;99;99;99;99;99;99;
2020-12-16 07:03:44;3;96;96;96;97;97;97;97;97;97;97;
2020-12-16 07:03:44;4;85;85;86;86;85;86;86;85;86;86;
2020-12-16 07:03:44;5;88;88;88;88;88;88;88;88;88;88;
2020-12-16 07:03:44;ht;99;16.20
2020-12-16 07:03:44;v;3.89
2020-12-16 07:33:45;1;103;102;103;103;102;103;102;103;102;103;
2020-12-16 07:33:45;2;96;96;96;96;96;96;96;96;96;96;
2020-12-16 07:33:45;3;88;88;88;89;88;88;88;88;88;88;
2020-12-16 07:33:45;4;85;85;85;85;85;85;85;85;85;85;
2020-12-16 07:33:45;5;81;81;81;81;81;81;81;81;81;81;
2020-12-16 07:33:45;ht;99;16.70
2020-12-16 07:33:45;v;3.89
2020-12-16 08:03:47;1;105;105;105;104;104;105;105;105;105;105;
2020-12-16 08:03:47;2;120;119;120;120;119;120;119;119;120;120;
2020-12-16 08:03:47;3;113;113;113;113;113;113;114;114;113;114;
2020-12-16 08:03:47;4;88;88;88;88;88;88;88;88;87;88;
2020-12-16 08:03:47;5;91;91;91;91;91;91;92;91;91;91;
2020-12-16 08:03:47;ht;99;17.40
2020-12-16 08:03:47;v;3.89
2020-12-16 08:33:49;1;102;102;102;102;102;102;102;102;102;102;
2020-12-16 08:33:49;2;112;112;112;112;112;112;112;112;112;112;
2020-12-16 08:33:49;3;115;115;115;115;115;115;115;115;115;115;
2020-12-16 08:33:49;4;83;83;83;83;83;83;83;83;83;83;
2020-12-16 08:33:49;5;89;89;89;89;89;89;89;89;89;89;
2020-12-16 08:33:49;ht;99;19.10
2020-12-16 08:33:49;v;3.89
2020-12-16 09:03:48;1;115;115;115;115;115;115;115;115;115;115;
2020-12-16 09:03:48;2;83;83;83;83;83;83;83;83;83;83;
2020-12-16 09:03:48;3;79;79;79;79;79;79;79;79;79;79;
2020-12-16 09:03:48;4;84;84;84;84;85;84;84;85;84;84;
2020-12-16 09:03:48;5;82;82;82;82;82;82;82;82;82;82;
2020-12-16 09:03:48;ht;99;19.70
2020-12-16 09:03:48;v;3.89
2020-12-16 09:33:48;1;107;107;107;107;107;107;107;107;107;107;
2020-12-16 09:33:48;2;91;90;90;90;90;90;90;90;91;90;
2020-12-16 09:33:48;3;85;85;86;85;85;85;85;85;85;85;
2020-12-16 09:33:48;4;81;81;81;81;81;81;81;82;81;81;
2020-12-16 09:33:48;5;89;89;89;89;89;89;89;89;89;89;
2020-12-16 09:33:48;ht;99;20.60
2020-12-16 09:33:48;v;3.89
2020-12-16 10:03:48;1;105;105;105;105;105;105;105;105;105;105;
2020-12-16 10:03:48;2;82;82;82;82;82;82;82;82;82;82;
2020-12-16 10:03:48;3;82;82;82;82;82;82;82;82;82;82;
2020-12-16 10:03:48;4;80;80;80;80;80;80;80;80;80;80;
2020-12-16 10:03:48;5;82;82;82;82;82;82;82;82;82;82;
2020-12-16 10:03:48;ht;99;21.00
2020-12-16 10:03:48;v;3.89
2020-12-16 10:33:49;1;109;109;109;109;109;108;109;109;109;109;
2020-12-16 10:33:49;2;89;89;89;89;89;89;89;89;89;89;
2020-12-16 10:33:49;3;87;87;87;87;87;87;87;87;87;87;
2020-12-16 10:33:49;4;85;85;85;85;85;85;85;85;85;85;
2020-12-16 10:33:49;5;86;86;85;85;85;85;85;85;85;85;
2020-12-16 10:33:49;ht;99;24.60
2020-12-16 10:33:49;v;3.89
2020-12-16 11:03:52;1;106;106;106;106;105;106;106;105;105;106;
2020-12-16 11:03:52;2;102;102;102;102;102;102;102;102;102;102;
2020-12-16 11:03:52;3;83;83;83;83;83;83;83;83;83;83;
2020-12-16 11:03:52;4;86;86;86;86;86;87;86;86;86;86;
2020-12-16 11:03:52;5;83;83;83;83;83;83;83;83;83;83;
2020-12-16 11:03:52;ht;99;25.00
2020-12-16 11:03:52;v;3.89
2020-12-16 11:33:51;1;112;111;112;112;112;111;112;112;111;112;
2020-12-16 11:33:51;2;89;89;89;89;89;89;90;90;89;89;
2020-12-16 11:33:51;3;2;2;2;2;1;2;2;2;2;2;
2020-12-16 11:33:51;4;83;84;84;84;84;84;84;84;84;84;
2020-12-16 11:33:51;5;92;92;92;92;92;92;92;92;92;92;
2020-12-16 11:33:51;ht;99;26.40
2020-12-16 11:33:51;v;3.89
2020-12-16 12:03:55;1;118;118;118;118;118;118;118;118;118;118;
2020-12-16 12:03:55;2;92;92;92;92;92;92;92;92;92;92;
2020-12-16 12:03:55;3;80;80;80;80;80;80;80;80;80;80;
2020-12-16 12:03:55;4;81;81;81;81;81;81;81;81;81;81;
2020-12-16 12:03:55;5;85;85;85;85;85;85;85;85;85;86;
2020-12-16 12:03:55;ht;99;26.90
2020-12-16 12:03:55;v;3.89
2020-12-16 12:33:52;1;128;128;128;128;128;128;128;128;128;128;
2020-12-16 12:33:52;2;95;94;94;94;94;94;94;94;94;94;
2020-12-16 12:33:52;3;82;82;82;82;82;82;82;82;82;82;
2020-12-16 12:33:52;4;85;85;85;85;85;85;85;85;85;85;
2020-12-16 12:33:52;5;85;85;85;85;85;85;85;85;85;85;
2020-12-16 12:33:52;ht;97;27.30
2020-12-16 12:33:52;v;3.89
2020-12-16 13:03:54;1;116;116;115;116;115;116;116;115;115;116;
2020-12-16 13:03:54;2;83;83;83;83;83;83;83;83;83;84;
2020-12-16 13:03:54;3;81;81;81;81;81;82;81;82;81;81;
2020-12-16 13:03:54;4;80;80;80;80;80;80;79;80;80;79;
2020-12-16 13:03:54;5;84;83;83;84;83;83;83;83;84;84;
2020-12-16 13:03:54;ht;96;27.80
2020-12-16 13:03:54;v;3.89
2020-12-16 13:33:57;1;107;107;106;107;106;106;106;107;107;106;
2020-12-16 13:33:57;2;91;91;91;91;91;91;91;91;91;91;
2020-12-16 13:33:57;3;82;82;82;82;82;82;82;82;82;82;
2020-12-16 13:33:57;4;84;84;84;85;84;84;85;84;84;84;
2020-12-16 13:33:57;5;85;85;86;86;85;85;86;86;86;86;
2020-12-16 13:33:57;ht;92;28.60
2020-12-16 13:33:57;v;3.89
2020-12-16 14:03:56;1;111;111;111;111;111;111;111;111;111;111;
2020-12-16 14:03:56;2;85;85;85;85;85;85;85;85;85;85;
2020-12-16 14:03:56;3;90;90;90;90;90;90;90;90;90;90;
2020-12-16 14:03:56;4;90;90;90;90;90;90;90;90;90;90;
2020-12-16 14:03:56;5;95;95;95;95;95;95;95;95;95;95;
2020-12-16 14:03:56;ht;90;29.20
2020-12-16 14:03:56;v;3.88
2020-12-16 14:33:56;1;2;2;1;2;1;2;1;2;2;2;
2020-12-16 14:33:56;2;101;101;102;101;102;101;101;102;102;101;
2020-12-16 14:33:56;3;84;84;84;83;83;84;84;84;84;83;
2020-12-16 14:33:56;4;84;84;84;84;84;84;84;84;84;84;
2020-12-16 14:33:56;5;86;87;86;86;87;86;87;87;87;87;
2020-12-16 14:33:56;ht;93;29.40
2020-12-16 14:33:56;v;3.89
2020-12-16 15:03:56;1;107;107;107;108;108;108;108;108;108;108;
2020-12-16 15:03:56;2;90;91;91;90;91;90;90;90;90;90;
2020-12-16 15:03:56;3;113;112;113;113;113;112;113;113;112;112;
2020-12-16 15:03:56;4;83;83;83;83;83;83;83;83;83;83;
2020-12-16 15:03:56;5;91;91;91;91;91;91;91;91;91;91;
2020-12-16 15:03:56;ht;71;29.60
2020-12-16 15:03:56;v;3.89
2020-12-16 15:33:57;1;119;119;119;119;119;119;119;119;119;119;
2020-12-16 15:33:57;2;121;121;120;121;121;121;121;120;120;120;
2020-12-16 15:33:57;3;82;82;82;82;82;82;82;82;82;82;
2020-12-16 15:33:57;4;81;80;80;80;80;80;80;80;80;80;
2020-12-16 15:33:57;5;84;84;84;84;84;84;84;84;84;84;
2020-12-16 15:33:57;ht;86;30.20
2020-12-16 15:33:57;v;3.88
2020-12-16 16:03:58;1;111;111;111;111;111;111;111;111;111;111;
2020-12-16 16:03:58;2;95;94;94;94;95;94;95;95;95;95;
2020-12-16 16:03:58;3;127;127;127;127;127;127;127;127;127;127;
2020-12-16 16:03:58;4;79;78;79;78;79;78;79;79;79;79;
2020-12-16 16:03:58;5;82;82;82;82;82;82;82;82;82;82;
2020-12-16 16:03:58;ht;68;31.10
2020-12-16 16:03:58;v;3.88
2020-12-16 16:34:00;1;104;103;103;103;103;103;103;103;103;103;
2020-12-16 16:34:00;2;110;110;110;110;110;110;110;110;110;110;
2020-12-16 16:34:00;3;80;80;80;80;80;80;80;80;80;80;
2020-12-16 16:34:00;4;81;81;81;81;81;81;81;82;81;81;
2020-12-16 16:34:00;5;82;82;82;83;82;82;82;83;82;83;
2020-12-16 16:34:00;ht;75;30.60
2020-12-16 16:34:00;v;3.88
2020-12-16 17:03:56;1;131;131;130;130;130;131;131;130;130;130;
2020-12-16 17:03:56;2;90;91;91;90;90;90;90;90;90;90;
2020-12-16 17:03:56;3;92;92;92;92;92;92;92;92;92;92;
2020-12-16 17:03:56;4;2;2;2;2;2;2;2;2;2;2;
2020-12-16 17:03:56;5;92;92;92;92;92;92;92;92;92;92;
2020-12-16 17:03:56;ht;67;30.20
2020-12-16 17:03:56;v;3.88
2020-12-16 17:33:57;1;122;122;122;122;122;122;122;122;122;122;
2020-12-16 17:33:57;2;82;82;82;83;83;83;83;83;83;83;
2020-12-16 17:33:57;3;80;81;81;81;81;81;81;81;81;81;
2020-12-16 17:33:57;4;78;78;79;79;79;79;79;79;79;79;
2020-12-16 17:33:57;5;86;86;86;86;86;86;86;86;86;86;
2020-12-16 17:33:57;ht;79;29.50
2020-12-16 17:33:57;v;3.88
2020-12-16 18:03:58;1;125;125;125;125;125;125;125;125;125;125;
2020-12-16 18:03:58;2;83;82;82;83;82;82;82;83;82;82;
2020-12-16 18:03:58;3;80;80;80;80;80;80;80;80;80;80;
2020-12-16 18:03:58;4;78;78;78;78;78;78;78;78;78;78;
2020-12-16 18:03:58;5;84;84;84;84;84;84;84;84;85;84;
2020-12-16 18:03:58;ht;88;29.70
2020-12-16 18:03:58;v;3.88
2020-12-16 18:33:58;1;128;128;128;128;128;128;128;128;128;128;
2020-12-16 18:33:58;2;90;90;91;90;90;90;91;91;91;90;
2020-12-16 18:33:58;3;117;116;117;117;117;117;116;116;117;117;
2020-12-16 18:33:58;4;80;80;80;80;80;80;80;80;80;80;
2020-12-16 18:33:58;5;85;85;85;85;85;85;85;85;85;85;
2020-12-16 18:33:58;ht;93;28.30
2020-12-16 18:33:58;v;3.88
2020-12-16 19:03:57;1;124;124;124;124;124;124;124;124;124;124;
2020-12-16 19:03:57;2;89;89;89;89;89;89;89;89;89;89;
2020-12-16 19:03:57;3;125;125;125;125;125;125;125;125;125;125;
2020-12-16 19:03:57;4;85;85;85;85;85;85;85;85;85;85;
2020-12-16 19:03:57;5;81;81;81;81;81;81;82;81;81;81;
2020-12-16 19:03:57;ht;99;27.30
2020-12-16 19:03:57;v;3.88
2020-12-16 19:33:55;1;115;115;115;115;115;115;115;115;114;115;
2020-12-16 19:33:55;2;90;90;90;90;90;90;90;90;91;90;
2020-12-16 19:33:55;3;122;122;122;122;122;122;122;122;122;122;
2020-12-16 19:33:55;4;89;89;89;89;89;89;89;89;89;89;
2020-12-16 19:33:55;5;90;90;90;90;90;90;90;90;90;90;
2020-12-16 19:33:55;ht;99;24.90
2020-12-16 19:33:55;v;3.88
2020-12-16 20:03:54;1;121;121;121;121;121;121;121;121;121;121;
2020-12-16 20:03:54;2;90;90;90;90;91;90;91;90;90;90;
2020-12-16 20:03:54;3;81;81;81;81;81;81;81;81;81;81;
2020-12-16 20:03:54;4;90;90;90;90;90;90;90;90;90;91;
2020-12-16 20:03:54;5;89;90;89;90;89;89;89;89;89;90;
2020-12-16 20:03:54;ht;99;22.10
2020-12-16 20:03:54;v;3.88
2020-12-16 20:33:51;1;118;118;118;118;118;118;118;118;118;118;
2020-12-16 20:33:51;2;93;93;93;93;93;93;93;93;93;92;
2020-12-16 20:33:51;3;129;129;129;129;129;129;129;129;129;129;
2020-12-16 20:33:51;4;93;93;93;93;93;93;93;93;93;93;
2020-12-16 20:33:51;5;85;84;84;85;85;85;85;85;85;85;
2020-12-16 20:33:51;ht;99;20.60
2020-12-16 20:33:51;v;3.89
2020-12-16 21:03:46;1;2;2;1;1;2;2;2;1;2;1;
2020-12-16 21:03:46;2;119;119;119;119;119;119;119;119;119;119;
2020-12-16 21:03:46;3;83;83;83;83;83;83;83;83;83;83;
2020-12-16 21:03:46;4;84;84;84;84;84;84;84;84;84;84;
2020-12-16 21:03:46;5;83;83;83;83;84;84;83;83;84;83;
2020-12-16 21:03:46;ht;99;19.80
2020-12-16 21:03:46;v;3.89
2020-12-16 21:33:50;1;119;119;118;118;119;119;118;119;118;118;
2020-12-16 21:33:50;2;95;94;94;95;95;94;95;94;95;95;
2020-12-16 21:33:50;3;84;84;84;84;84;84;84;84;84;84;
2020-12-16 21:33:50;4;89;89;89;89;89;89;89;89;89;89;
2020-12-16 21:33:50;5;92;92;92;92;93;92;92;93;92;92;
2020-12-16 21:33:50;ht;99;18.80
2020-12-16 21:33:50;v;3.88
2020-12-16 22:03:48;1;123;123;123;123;123;124;124;123;123;124;
2020-12-16 22:03:48;2;89;89;89;88;89;89;89;89;89;88;
2020-12-16 22:03:48;3;135;135;135;135;134;135;134;134;134;135;
2020-12-16 22:03:48;4;87;88;87;88;88;88;88;87;88;88;
2020-12-16 22:03:48;5;89;89;89;90;90;90;90;90;89;90;
2020-12-16 22:03:48;ht;99;17.40
2020-12-16 22:03:48;v;3.89
2020-12-16 22:33:45;1;122;123;123;123;123;123;122;123;123;123;
2020-12-16 22:33:45;2;1;1;1;1;1;1;2;1;1;1;
2020-12-16 22:33:45;3;87;87;87;88;87;87;87;87;87;87;
2020-12-16 22:33:45;4;117;117;117;117;117;117;117;117;117;117;
2020-12-16 22:33:45;5;91;91;91;91;91;91;91;91;91;91;
2020-12-16 22:33:45;ht;99;18.40
2020-12-16 22:33:45;v;3.88
2020-12-16 23:03:47;1;126;126;126;126;126;126;126;126;126;126;
2020-12-16 23:03:47;2;84;84;84;84;84;84;84;84;84;84;
2020-12-16 23:03:47;3;134;134;134;134;134;134;134;134;134;134;
2020-12-16 23:03:47;4;1;1;2;2;1;1;1;2;1;2;
2020-12-16 23:03:47;5;90;90;90;90;90;90;90;90;90;90;
2020-12-16 23:03:47;ht;99;18.00
2020-12-16 23:03:47;v;3.88
2020-12-16 23:33:49;1;124;124;124;124;124;124;124;124;124;124;
2020-12-16 23:33:49;2;105;105;105;105;105;105;105;105;105;105;
2020-12-16 23:33:49;3;85;86;85;85;85;85;86;85;85;85;
2020-12-16 23:33:49;4;95;95;95;95;95;95;94;95;95;95;
2020-12-16 23:33:49;5;99;100;100;100;99;99;100;100;100;100;
2020-12-16 23:33:49;ht;99;18.10
2020-12-16 23:33:49;v;3.88
