2021-12-14 00:03:50;1;134;134;134;134;134;134;134;134;134;134;
2021-12-14 00:03:50;2;17;17;18;17;17;17;17;17;17;17;
2021-12-14 00:03:50;3;109;109;109;109;109;109;109;109;109;109;
2021-12-14 00:03:50;4;122;123;122;122;122;122;123;122;122;123;
2021-12-14 00:03:50;5;2;2;2;2;2;2;2;2;2;2;
2021-12-14 00:03:50;ht;99;21.10
2021-12-14 00:03:50;v;4.15
2021-12-14 00:33:49;1;136;136;136;136;136;136;136;136;136;136;
2021-12-14 00:33:49;2;124;124;124;124;124;124;124;124;124;124;
2021-12-14 00:33:49;3;107;107;107;106;106;106;107;106;106;106;
2021-12-14 00:33:49;4;122;122;122;122;122;122;122;122;122;122;
2021-12-14 00:33:49;5;2;1;1;1;1;1;1;1;1;1;
2021-12-14 00:33:49;ht;99;20.60
2021-12-14 00:33:49;v;4.15
2021-12-14 01:03:48;1;138;138;138;138;138;138;138;138;138;138;
2021-12-14 01:03:48;2;16;16;16;16;16;16;16;16;16;16;
2021-12-14 01:03:48;3;110;111;110;110;110;110;110;110;110;110;
2021-12-14 01:03:48;4;120;120;120;120;120;120;120;120;120;120;
2021-12-14 01:03:48;5;1;2;1;1;1;1;1;1;1;1;
2021-12-14 01:03:48;ht;99;19.80
2021-12-14 01:03:48;v;4.15
2021-12-14 01:33:47;1;150;150;150;150;150;150;150;150;150;150;
2021-12-14 01:33:47;2;119;119;120;120;119;119;120;119;120;120;
2021-12-14 01:33:47;3;107;107;107;107;107;107;107;107;107;107;
2021-12-14 01:33:47;4;118;118;118;118;117;118;117;117;118;118;
2021-12-14 01:33:47;5;123;123;123;124;123;123;123;123;123;123;
2021-12-14 01:33:47;ht;99;20.30
2021-12-14 01:33:47;v;4.15
2021-12-14 02:03:46;1;137;137;137;137;136;137;136;137;137;137;
2021-12-14 02:03:46;2;91;91;91;91;91;91;91;91;91;91;
2021-12-14 02:03:46;3;109;109;109;109;109;109;109;109;109;109;
2021-12-14 02:03:46;4;117;117;117;117;117;117;117;117;117;117;
2021-12-14 02:03:46;5;122;122;122;122;122;122;122;122;122;122;
2021-12-14 02:03:46;ht;99;20.20
2021-12-14 02:03:46;v;4.15
2021-12-14 02:33:49;1;153;153;153;153;153;153;153;153;153;153;
2021-12-14 02:33:49;2;117;118;118;117;118;118;118;118;118;118;
2021-12-14 02:33:49;3;1;1;1;1;1;1;1;1;1;1;
2021-12-14 02:33:49;4;124;124;124;124;124;124;124;124;124;124;
2021-12-14 02:33:49;5;1;1;1;1;1;1;1;2;2;2;
2021-12-14 02:33:49;ht;99;19.70
2021-12-14 02:33:49;v;4.15
2021-12-14 03:03:48;1;135;135;135;135;135;135;135;135;135;135;
2021-12-14 03:03:48;2;123;123;123;123;123;123;123;123;123;123;
2021-12-14 03:03:48;3;1;1;1;1;1;2;1;1;1;1;
2021-12-14 03:03:48;4;120;120;120;120;120;120;120;120;120;120;
2021-12-14 03:03:48;5;123;123;123;123;122;123;122;122;122;122;
2021-12-14 03:03:48;ht;99;19.40
2021-12-14 03:03:48;v;4.15
2021-12-14 03:33:46;1;134;134;133;134;134;133;133;134;134;133;
2021-12-14 03:33:46;2;124;124;124;124;124;124;124;124;124;124;
2021-12-14 03:33:46;3;1;1;1;1;1;1;1;1;1;1;
2021-12-14 03:33:46;4;125;125;125;125;125;125;125;125;125;125;
2021-12-14 03:33:46;5;119;119;119;119;119;119;119;119;119;119;
2021-12-14 03:33:46;ht;99;19.70
2021-12-14 03:33:46;v;4.15
2021-12-14 04:03:49;1;143;143;143;143;143;143;143;143;143;143;
2021-12-14 04:03:49;2;127;127;127;127;127;127;127;127;126;127;
2021-12-14 04:03:49;3;2;1;1;1;1;1;1;1;1;1;
2021-12-14 04:03:49;4;121;121;120;121;120;121;120;120;120;120;
2021-12-14 04:03:49;5;121;121;121;121;121;121;121;121;121;121;
2021-12-14 04:03:49;ht;99;19.50
2021-12-14 04:03:49;v;4.15
2021-12-14 04:33:47;1;134;134;134;134;134;134;134;134;134;134;
2021-12-14 04:33:47;2;124;124;124;124;124;124;124;124;124;124;
2021-12-14 04:33:47;3;1;1;1;1;1;1;1;1;1;1;
2021-12-14 04:33:47;4;124;124;124;124;124;124;124;124;124;124;
2021-12-14 04:33:47;5;122;122;122;122;122;122;122;122;122;122;
2021-12-14 04:33:47;ht;99;19.20
2021-12-14 04:33:47;v;4.14
2021-12-14 05:03:45;1;135;135;135;135;135;135;135;135;135;135;
2021-12-14 05:03:45;2;16;16;16;16;16;16;16;16;16;16;
2021-12-14 05:03:45;3;1;1;1;1;1;1;2;1;1;1;
2021-12-14 05:03:45;4;123;123;123;123;123;123;123;123;123;123;
2021-12-14 05:03:45;5;124;124;124;123;123;123;123;123;123;123;
2021-12-14 05:03:45;ht;99;18.80
2021-12-14 05:03:45;v;4.14
2021-12-14 05:33:48;1;135;135;135;135;135;135;135;135;135;135;
2021-12-14 05:33:48;2;84;84;84;84;84;84;85;84;84;84;
2021-12-14 05:33:48;3;119;119;118;119;119;119;118;118;118;118;
2021-12-14 05:33:48;4;125;125;125;126;126;125;125;125;125;125;
2021-12-14 05:33:48;5;124;124;124;124;124;124;124;124;124;124;
2021-12-14 05:33:48;ht;99;18.10
2021-12-14 05:33:48;v;4.14
2021-12-14 06:03:45;1;135;135;135;135;135;135;135;135;135;135;
2021-12-14 06:03:45;2;15;16;15;15;16;15;15;16;15;16;
2021-12-14 06:03:45;3;2;1;1;1;2;1;1;1;1;1;
2021-12-14 06:03:45;4;120;120;120;120;120;120;120;120;120;120;
2021-12-14 06:03:45;5;2;1;1;1;2;1;1;1;2;2;
2021-12-14 06:03:45;ht;99;17.90
2021-12-14 06:03:45;v;4.14
2021-12-14 06:33:47;1;128;128;128;128;128;128;128;128;128;128;
2021-12-14 06:33:47;2;86;86;86;86;86;86;86;86;87;86;
2021-12-14 06:33:47;3;1;1;1;1;1;1;1;1;1;1;
2021-12-14 06:33:47;4;119;119;119;119;119;119;119;118;119;119;
2021-12-14 06:33:47;5;101;101;100;100;100;100;100;100;100;100;
2021-12-14 06:33:47;ht;99;20.30
2021-12-14 06:33:47;v;4.14
2021-12-14 07:03:50;1;133;133;133;133;133;133;133;133;133;133;
2021-12-14 07:03:50;2;86;86;86;86;86;86;86;86;86;86;
2021-12-14 07:03:50;3;32;32;32;32;32;32;32;32;32;32;
2021-12-14 07:03:50;4;123;123;123;123;123;123;123;123;123;123;
2021-12-14 07:03:50;5;128;128;128;128;128;128;128;128;128;128;
2021-12-14 07:03:50;ht;99;22.30
2021-12-14 07:03:50;v;4.15
2021-12-14 07:33:51;1;139;139;139;139;139;139;139;139;139;139;
2021-12-14 07:33:51;2;133;133;133;133;133;133;133;133;133;133;
2021-12-14 07:33:51;3;32;32;32;32;32;32;32;32;32;32;
2021-12-14 07:33:51;4;121;121;121;121;121;121;121;120;121;121;
2021-12-14 07:33:51;5;119;119;119;119;119;119;119;119;119;120;
2021-12-14 07:33:51;ht;99;22.70
2021-12-14 07:33:51;v;4.14
2021-12-14 08:03:53;1;136;136;136;136;136;136;136;136;136;136;
2021-12-14 08:03:53;2;93;94;94;94;94;94;94;94;94;94;
2021-12-14 08:03:53;3;32;32;32;32;32;32;32;32;32;32;
2021-12-14 08:03:53;4;125;125;125;125;125;125;125;125;125;125;
2021-12-14 08:03:53;5;2;1;1;1;2;1;1;2;1;2;
2021-12-14 08:03:53;ht;99;23.30
2021-12-14 08:03:53;v;4.15
2021-12-14 08:33:52;1;141;141;141;141;140;141;141;141;141;141;
2021-12-14 08:33:52;2;101;101;101;101;101;101;101;101;101;101;
2021-12-14 08:33:52;3;32;32;32;32;32;32;32;32;32;32;
2021-12-14 08:33:52;4;122;122;122;123;122;122;122;123;122;123;
2021-12-14 08:33:52;5;1;1;1;2;2;2;2;2;2;2;
2021-12-14 08:33:52;ht;99;24.20
2021-12-14 08:33:52;v;4.15
2021-12-14 09:03:51;1;144;144;144;144;144;144;144;144;144;144;
2021-12-14 09:03:51;2;90;90;90;90;90;90;90;90;90;90;
2021-12-14 09:03:51;3;32;32;32;32;32;32;32;32;32;32;
2021-12-14 09:03:51;4;120;120;120;119;120;120;120;120;120;120;
2021-12-14 09:03:51;5;2;1;1;1;1;1;1;1;1;1;
2021-12-14 09:03:51;ht;99;26.10
2021-12-14 09:03:51;v;4.15
2021-12-14 09:33:53;1;150;150;150;150;150;150;150;150;150;150;
2021-12-14 09:33:53;2;89;89;89;89;89;89;89;89;89;89;
2021-12-14 09:33:53;3;32;32;32;32;32;32;32;32;32;32;
2021-12-14 09:33:53;4;106;106;105;106;106;105;105;105;106;105;
2021-12-14 09:33:53;5;1;2;1;1;2;2;2;1;1;1;
2021-12-14 09:33:53;ht;99;27.40
2021-12-14 09:33:53;v;4.15
2021-12-14 10:03:55;1;149;149;148;148;149;149;148;148;149;148;
2021-12-14 10:03:55;2;92;92;93;93;93;92;93;93;93;93;
2021-12-14 10:03:55;3;35;36;35;36;36;35;36;36;35;35;
2021-12-14 10:03:55;4;123;123;123;123;123;123;123;123;123;123;
2021-12-14 10:03:55;5;2;2;2;2;2;2;2;2;2;2;
2021-12-14 10:03:55;ht;99;27.50
2021-12-14 10:03:55;v;4.15
2021-12-14 10:33:55;1;145;145;145;145;145;145;145;145;145;145;
2021-12-14 10:33:55;2;95;95;95;95;95;95;95;94;95;95;
2021-12-14 10:33:55;3;34;34;34;34;34;34;34;34;34;34;
2021-12-14 10:33:55;4;122;123;123;123;123;123;123;122;123;123;
2021-12-14 10:33:55;5;117;117;117;117;117;117;117;118;117;117;
2021-12-14 10:33:55;ht;99;27.60
2021-12-14 10:33:55;v;4.15
2021-12-14 11:04:00;1;145;145;145;145;145;145;145;145;145;145;
2021-12-14 11:04:00;2;85;84;84;84;84;84;84;84;84;84;
2021-12-14 11:04:00;3;36;36;36;36;36;36;36;36;36;36;
2021-12-14 11:04:00;4;117;118;117;117;118;117;118;118;118;117;
2021-12-14 11:04:00;5;1;1;1;1;1;1;1;1;1;1;
2021-12-14 11:04:00;ht;99;29.40
2021-12-14 11:04:00;v;4.15
2021-12-14 11:33:56;1;146;145;145;145;145;150;150;150;150;150;
2021-12-14 11:33:56;2;89;89;89;89;89;89;89;89;89;89;
2021-12-14 11:33:56;3;32;32;32;32;32;32;32;32;32;32;
2021-12-14 11:33:56;4;118;118;118;118;118;118;118;118;118;118;
2021-12-14 11:33:56;5;2;2;2;2;2;2;2;2;2;2;
2021-12-14 11:33:56;ht;99;29.80
2021-12-14 11:33:56;v;4.16
2021-12-14 12:03:57;1;145;145;145;145;145;145;145;145;145;145;
2021-12-14 12:03:57;2;128;128;128;128;128;128;128;128;128;128;
2021-12-14 12:03:57;3;35;35;35;35;35;35;35;35;35;35;
2021-12-14 12:03:57;4;121;121;120;120;120;119;120;120;120;119;
2021-12-14 12:03:57;5;2;1;1;1;1;1;1;1;1;1;
2021-12-14 12:03:57;ht;99;31.60
2021-12-14 12:03:57;v;4.16
2021-12-14 12:33:59;1;141;141;141;141;141;141;141;141;141;141;
2021-12-14 12:33:59;2;93;93;93;93;93;93;93;93;93;93;
2021-12-14 12:33:59;3;1;1;1;1;1;1;1;1;1;1;
2021-12-14 12:33:59;4;122;121;121;121;122;122;122;122;121;121;
2021-12-14 12:33:59;5;1;1;1;2;1;1;1;1;1;1;
2021-12-14 12:33:59;ht;99;29.90
2021-12-14 12:33:59;v;4.15
2021-12-14 13:04:01;1;147;147;147;147;147;147;147;147;147;147;
2021-12-14 13:04:01;2;91;91;91;91;91;91;91;91;91;90;
2021-12-14 13:04:01;3;32;32;32;32;32;32;32;32;32;31;
2021-12-14 13:04:01;4;123;123;123;123;123;123;123;123;123;123;
2021-12-14 13:04:01;5;124;124;124;124;124;124;124;124;124;124;
2021-12-14 13:04:01;ht;99;31.20
2021-12-14 13:04:01;v;4.16
2021-12-14 13:33:57;1;144;144;144;144;144;144;144;144;144;144;
2021-12-14 13:33:57;2;90;90;90;90;90;90;90;90;90;90;
2021-12-14 13:33:57;3;2;2;1;1;1;1;1;1;1;1;
2021-12-14 13:33:57;4;116;116;115;116;116;116;116;116;116;116;
2021-12-14 13:33:57;5;119;120;120;119;119;120;119;119;119;119;
2021-12-14 13:33:57;ht;99;29.60
2021-12-14 13:33:57;v;4.16
2021-12-14 14:03:58;1;144;143;144;143;144;144;144;144;144;144;
2021-12-14 14:03:58;2;127;127;127;127;127;127;127;127;127;127;
2021-12-14 14:03:58;3;32;32;32;32;32;32;32;32;32;32;
2021-12-14 14:03:58;4;125;125;125;125;125;125;125;124;125;124;
2021-12-14 14:03:58;5;2;1;1;1;2;1;1;1;1;1;
2021-12-14 14:03:58;ht;99;31.40
2021-12-14 14:03:58;v;4.16
2021-12-14 14:33:59;1;150;150;149;150;150;150;149;150;149;150;
2021-12-14 14:33:59;2;88;88;88;88;88;87;88;87;87;87;
2021-12-14 14:33:59;3;1;1;1;1;1;1;1;1;1;1;
2021-12-14 14:33:59;4;118;118;118;118;119;118;118;118;118;118;
2021-12-14 14:33:59;5;2;2;2;2;2;2;2;2;2;2;
2021-12-14 14:33:59;ht;96;33.50
2021-12-14 14:33:59;v;4.16
2021-12-14 15:03:57;1;149;149;148;148;148;149;149;149;149;149;
2021-12-14 15:03:57;2;22;22;22;22;22;22;22;22;22;22;
2021-12-14 15:03:57;3;1;1;1;1;1;1;1;1;1;1;
2021-12-14 15:03:57;4;113;113;114;114;113;113;113;113;113;113;
2021-12-14 15:03:57;5;1;1;1;1;1;1;1;1;1;1;
2021-12-14 15:03:57;ht;99;31.00
2021-12-14 15:03:57;v;4.16
2021-12-14 15:34:00;1;147;147;147;147;147;147;147;147;147;147;
2021-12-14 15:34:00;2;86;86;86;85;86;85;85;86;86;86;
2021-12-14 15:34:00;3;1;1;1;1;1;1;1;1;1;2;
2021-12-14 15:34:00;4;120;119;119;120;119;119;120;119;119;119;
2021-12-14 15:34:00;5;1;1;1;1;1;1;1;1;1;2;
2021-12-14 15:34:00;ht;94;32.20
2021-12-14 15:34:00;v;4.16
2021-12-14 16:03:57;1;149;149;149;150;150;150;150;150;149;149;
2021-12-14 16:03:57;2;125;126;126;126;126;126;126;126;126;126;
2021-12-14 16:03:57;3;1;1;1;1;1;1;2;1;1;1;
2021-12-14 16:03:57;4;124;124;125;125;125;125;125;125;125;125;
2021-12-14 16:03:57;5;124;124;124;124;124;124;124;124;124;124;
2021-12-14 16:03:57;ht;96;31.10
2021-12-14 16:03:57;v;4.17
2021-12-14 16:33:59;1;150;150;150;150;150;150;150;150;150;150;
2021-12-14 16:33:59;2;81;80;80;80;81;81;80;80;81;81;
2021-12-14 16:33:59;3;1;1;1;2;1;1;2;1;1;1;
2021-12-14 16:33:59;4;118;118;118;118;118;118;117;118;118;118;
2021-12-14 16:33:59;5;121;120;120;120;120;120;120;121;121;121;
2021-12-14 16:33:59;ht;93;33.10
2021-12-14 16:33:59;v;4.17
2021-12-14 17:04:01;1;150;150;150;150;150;150;150;150;150;150;
2021-12-14 17:04:01;2;88;88;88;88;88;88;88;88;88;88;
2021-12-14 17:04:01;3;1;1;1;2;1;1;1;1;2;2;
2021-12-14 17:04:01;4;118;118;118;118;118;118;118;118;118;118;
2021-12-14 17:04:01;5;2;2;2;2;2;1;2;2;2;1;
2021-12-14 17:04:01;ht;92;31.70
2021-12-14 17:04:01;v;4.16
2021-12-14 17:33:58;1;147;147;147;147;147;147;147;148;147;147;
2021-12-14 17:33:58;2;21;21;22;21;21;21;21;22;21;21;
2021-12-14 17:33:58;3;1;2;2;1;1;1;1;1;1;1;
2021-12-14 17:33:58;4;124;125;124;125;125;125;125;125;125;125;
2021-12-14 17:33:58;5;2;2;2;2;2;2;2;2;2;2;
2021-12-14 17:33:58;ht;92;32.30
2021-12-14 17:33:58;v;4.17
2021-12-14 18:04:00;1;149;149;149;149;149;149;149;149;149;149;
2021-12-14 18:04:00;2;21;21;21;21;21;21;21;21;21;21;
2021-12-14 18:04:00;3;1;1;1;1;2;1;1;1;1;1;
2021-12-14 18:04:00;4;123;123;123;123;123;123;123;122;122;123;
2021-12-14 18:04:00;5;1;1;1;1;1;1;1;1;1;1;
2021-12-14 18:04:00;ht;92;32.00
2021-12-14 18:04:00;v;4.16
2021-12-14 18:33:56;1;135;135;135;135;135;135;135;135;135;135;
2021-12-14 18:33:56;2;120;120;120;120;120;120;120;120;120;120;
2021-12-14 18:33:56;3;118;118;118;118;118;118;118;118;118;118;
2021-12-14 18:33:56;4;123;123;124;124;123;123;123;123;123;123;
2021-12-14 18:33:56;5;2;1;2;1;1;1;1;1;1;1;
2021-12-14 18:33:56;ht;90;33.00
2021-12-14 18:33:56;v;4.17
2021-12-14 19:03:57;1;151;151;151;151;151;150;150;150;150;150;
2021-12-14 19:03:57;2;120;120;120;120;120;120;120;120;120;120;
2021-12-14 19:03:57;3;120;121;121;120;121;121;121;121;120;120;
2021-12-14 19:03:57;4;120;120;120;120;120;120;120;120;120;120;
2021-12-14 19:03:57;5;2;2;2;2;2;2;2;2;2;2;
2021-12-14 19:03:57;ht;93;31.20
2021-12-14 19:03:57;v;4.17
2021-12-14 19:33:57;1;144;143;143;143;143;143;143;143;143;143;
2021-12-14 19:33:57;2;122;122;122;122;122;122;122;122;122;122;
2021-12-14 19:33:57;3;33;33;33;33;33;33;32;32;32;32;
2021-12-14 19:33:57;4;121;121;122;121;122;122;121;121;122;121;
2021-12-14 19:33:57;5;1;1;1;1;1;1;2;2;2;2;
2021-12-14 19:33:57;ht;99;28.00
2021-12-14 19:33:57;v;4.17
2021-12-14 20:03:54;1;145;145;145;145;145;145;145;145;145;144;
2021-12-14 20:03:54;2;17;17;18;18;18;18;18;18;17;17;
2021-12-14 20:03:54;3;25;25;25;25;25;25;25;25;25;25;
2021-12-14 20:03:54;4;118;118;118;118;118;118;118;118;118;118;
2021-12-14 20:03:54;5;125;125;125;125;125;125;125;125;125;125;
2021-12-14 20:03:54;ht;99;24.90
2021-12-14 20:03:54;v;4.16
2021-12-14 20:33:53;1;143;143;143;143;143;143;143;143;143;143;
2021-12-14 20:33:53;2;15;16;16;16;16;16;16;16;16;16;
2021-12-14 20:33:53;3;1;1;2;1;1;1;2;2;1;1;
2021-12-14 20:33:53;4;121;121;120;121;120;120;120;121;120;120;
2021-12-14 20:33:53;5;1;1;1;1;1;1;1;1;1;1;
2021-12-14 20:33:53;ht;99;21.60
2021-12-14 20:33:53;v;4.16
2021-12-14 21:03:49;1;143;143;143;143;143;143;143;143;143;143;
2021-12-14 21:03:49;2;15;15;15;15;15;15;15;15;15;15;
2021-12-14 21:03:49;3;115;115;114;115;114;115;114;114;114;114;
2021-12-14 21:03:49;4;125;125;126;125;125;126;126;126;126;126;
2021-12-14 21:03:49;5;115;115;115;115;115;115;115;115;115;115;
2021-12-14 21:03:49;ht;99;20.60
2021-12-14 21:03:49;v;4.16
2021-12-14 21:33:49;1;142;141;141;141;141;141;141;141;141;141;
2021-12-14 21:33:49;2;100;100;100;100;100;100;100;100;100;100;
2021-12-14 21:33:49;3;108;108;108;108;108;108;107;107;108;107;
2021-12-14 21:33:49;4;127;127;127;127;127;127;127;127;127;127;
2021-12-14 21:33:49;5;2;1;1;2;1;107;108;109;110;111;
2021-12-14 21:33:49;ht;99;20.30
2021-12-14 21:33:49;v;4.16
2021-12-14 22:03:49;1;138;138;138;138;138;138;138;138;138;138;
2021-12-14 22:03:49;2;15;15;15;15;15;15;15;15;15;15;
2021-12-14 22:03:49;3;115;115;115;115;115;115;115;115;115;115;
2021-12-14 22:03:49;4;121;121;121;121;121;121;121;121;121;121;
2021-12-14 22:03:49;5;124;124;124;124;124;124;125;125;125;125;
2021-12-14 22:03:49;ht;99;20.10
2021-12-14 22:03:49;v;4.16
2021-12-14 22:33:48;1;140;140;140;140;140;140;140;140;140;140;
2021-12-14 22:33:48;2;99;99;99;99;99;99;99;99;99;99;
2021-12-14 22:33:48;3;115;115;115;115;115;115;115;115;115;116;
2021-12-14 22:33:48;4;127;127;127;127;126;126;127;127;126;127;
2021-12-14 22:33:48;5;125;125;125;125;125;125;125;125;125;125;
2021-12-14 22:33:48;ht;99;19.70
2021-12-14 22:33:48;v;4.16
2021-12-14 23:03:47;1;140;140;140;140;140;140;140;140;140;140;
2021-12-14 23:03:47;2;90;90;90;90;90;90;90;90;90;90;
2021-12-14 23:03:47;3;123;123;123;123;123;123;123;123;123;123;
2021-12-14 23:03:47;4;126;127;126;127;127;126;126;127;127;126;
2021-12-14 23:03:47;5;125;126;126;126;125;125;125;126;125;126;
2021-12-14 23:03:47;ht;99;19.50
2021-12-14 23:03:47;v;4.16
2021-12-14 23:33:50;1;136;136;136;136;136;136;136;136;136;136;
2021-12-14 23:33:50;2;14;14;14;14;14;15;14;14;14;14;
2021-12-14 23:33:50;3;116;116;116;116;116;116;116;116;115;116;
2021-12-14 23:33:50;4;127;127;127;127;127;127;127;127;127;127;
2021-12-14 23:33:50;5;125;125;124;125;125;124;124;124;124;124;
2021-12-14 23:33:50;ht;99;18.70
2021-12-14 23:33:50;v;4.15
