2021-05-18 00:03:41;1;114;114;114;114;114;114;114;122;115;115;
2021-05-18 00:03:41;2;125;133;126;125;125;125;125;125;125;125;
2021-05-18 00:03:41;3;168;168;168;168;168;168;168;169;168;169;
2021-05-18 00:03:41;4;121;121;121;121;121;121;121;121;121;121;
2021-05-18 00:03:41;5;111;111;111;111;111;111;111;111;111;111;
2021-05-18 00:03:41;ht;99;10.70
2021-05-18 00:03:41;v;4.12
2021-05-18 00:33:43;1;115;114;115;114;114;114;114;114;114;114;
2021-05-18 00:33:43;2;118;118;118;118;118;118;119;118;118;118;
2021-05-18 00:33:43;3;176;176;176;176;176;176;176;176;176;176;
2021-05-18 00:33:43;4;120;120;120;120;120;120;120;120;120;119;
2021-05-18 00:33:43;5;113;113;113;113;113;113;113;113;113;113;
2021-05-18 00:33:43;ht;99;10.50
2021-05-18 00:33:43;v;4.12
2021-05-18 01:03:41;1;121;120;121;121;121;120;120;120;121;120;
2021-05-18 01:03:41;2;120;120;120;120;120;120;120;120;120;121;
2021-05-18 01:03:41;3;176;176;176;177;176;177;177;176;176;177;
2021-05-18 01:03:41;4;120;120;120;120;120;120;120;120;120;120;
2021-05-18 01:03:41;5;110;110;110;110;110;110;110;110;110;110;
2021-05-18 01:03:41;ht;99;10.50
2021-05-18 01:03:41;v;4.12
2021-05-18 01:33:42;1;115;115;115;115;115;116;115;115;115;115;
2021-05-18 01:33:42;2;124;124;124;124;124;124;124;124;124;124;
2021-05-18 01:33:42;3;168;168;168;168;168;168;168;168;168;168;
2021-05-18 01:33:42;4;119;119;119;119;119;119;119;119;119;119;
2021-05-18 01:33:42;5;117;117;117;117;117;117;117;117;117;117;
2021-05-18 01:33:42;ht;99;10.20
2021-05-18 01:33:42;v;4.12
2021-05-18 02:03:43;1;120;120;119;119;120;120;120;120;119;119;
2021-05-18 02:03:43;2;125;125;125;125;125;125;125;124;124;124;
2021-05-18 02:03:43;3;176;176;177;177;177;177;176;177;177;177;
2021-05-18 02:03:43;4;123;123;123;123;123;123;123;123;123;123;
2021-05-18 02:03:43;5;111;111;111;111;111;111;111;111;111;111;
2021-05-18 02:03:43;ht;99;8.60
2021-05-18 02:03:43;v;4.12
2021-05-18 02:33:40;1;117;116;116;117;116;116;116;116;116;116;
2021-05-18 02:33:40;2;123;123;123;123;123;123;123;123;123;123;
2021-05-18 02:33:40;3;176;176;176;176;176;176;176;176;176;176;
2021-05-18 02:33:40;4;121;121;121;121;120;121;121;120;121;121;
2021-05-18 02:33:40;5;110;110;110;110;110;109;110;110;110;110;
2021-05-18 02:33:40;ht;99;8.50
2021-05-18 02:33:40;v;4.12
2021-05-18 03:03:41;1;117;117;116;117;117;117;117;117;116;116;
2021-05-18 03:03:41;2;124;124;124;125;125;124;124;125;124;125;
2021-05-18 03:03:41;3;177;176;176;177;176;176;176;177;176;177;
2021-05-18 03:03:41;4;122;122;122;122;123;122;122;122;122;122;
2021-05-18 03:03:41;5;112;112;111;112;112;111;111;112;112;112;
2021-05-18 03:03:41;ht;99;7.80
2021-05-18 03:03:41;v;4.12
2021-05-18 03:33:41;1;118;117;117;117;117;118;117;117;117;118;
2021-05-18 03:33:41;2;125;124;125;125;124;125;124;124;124;124;
2021-05-18 03:33:41;3;176;176;176;176;176;176;176;176;176;176;
2021-05-18 03:33:41;4;122;122;122;122;122;122;121;121;121;122;
2021-05-18 03:33:41;5;119;119;119;119;119;119;119;118;119;119;
2021-05-18 03:33:41;ht;99;8.30
2021-05-18 03:33:41;v;4.12
2021-05-18 04:03:42;1;116;115;116;115;116;116;116;116;116;116;
2021-05-18 04:03:42;2;127;127;127;127;127;127;127;127;127;127;
2021-05-18 04:03:42;3;166;166;166;166;166;166;166;166;166;166;
2021-05-18 04:03:42;4;126;126;126;126;126;126;126;126;126;126;
2021-05-18 04:03:42;5;120;119;120;119;120;120;120;120;120;120;
2021-05-18 04:03:42;ht;99;8.20
2021-05-18 04:03:42;v;4.12
2021-05-18 04:33:42;1;120;119;119;119;119;119;119;119;119;120;
2021-05-18 04:33:42;2;127;127;127;127;127;127;127;127;127;127;
2021-05-18 04:33:42;3;175;175;175;176;176;176;176;176;176;176;
2021-05-18 04:33:42;4;115;115;115;115;115;115;115;115;115;115;
2021-05-18 04:33:42;5;119;120;120;120;120;120;120;120;120;127;
2021-05-18 04:33:42;ht;99;8.70
2021-05-18 04:33:42;v;4.12
2021-05-18 05:03:43;1;121;121;122;121;121;122;121;121;121;121;
2021-05-18 05:03:43;2;126;126;126;126;126;126;126;126;126;126;
2021-05-18 05:03:43;3;167;167;167;167;167;167;167;167;167;167;
2021-05-18 05:03:43;4;110;111;110;110;110;110;110;110;111;111;
2021-05-18 05:03:43;5;120;120;120;120;121;120;120;121;121;120;
2021-05-18 05:03:43;ht;99;7.00
2021-05-18 05:03:43;v;4.12
2021-05-18 05:33:43;1;119;118;119;118;119;119;119;118;118;118;
2021-05-18 05:33:43;2;116;116;116;117;117;117;117;116;116;116;
2021-05-18 05:33:43;3;177;177;177;177;177;177;177;177;177;177;
2021-05-18 05:33:43;4;113;112;112;112;112;113;112;113;113;112;
2021-05-18 05:33:43;5;116;116;116;116;116;116;116;116;116;116;
2021-05-18 05:33:43;ht;99;7.20
2021-05-18 05:33:43;v;4.11
2021-05-18 06:03:43;1;117;117;117;117;118;117;118;118;117;117;
2021-05-18 06:03:43;2;124;124;124;124;124;124;124;124;124;124;
2021-05-18 06:03:43;3;178;178;178;178;178;178;178;178;178;178;
2021-05-18 06:03:43;4;117;117;116;116;117;117;117;117;117;117;
2021-05-18 06:03:43;5;109;110;110;110;110;110;110;110;110;110;
2021-05-18 06:03:43;ht;99;8.00
2021-05-18 06:03:43;v;4.11
2021-05-18 06:33:44;1;119;118;119;118;119;119;118;118;118;118;
2021-05-18 06:33:44;2;127;127;127;127;127;127;127;127;127;127;
2021-05-18 06:33:44;3;177;177;177;177;177;177;177;178;178;177;
2021-05-18 06:33:44;4;123;123;123;123;123;123;123;123;123;123;
2021-05-18 06:33:44;5;108;108;108;108;108;108;108;115;110;109;
2021-05-18 06:33:44;ht;99;7.70
2021-05-18 06:33:44;v;4.11
2021-05-18 07:03:40;1;118;118;117;118;117;117;117;117;117;117;
2021-05-18 07:03:40;2;124;123;123;123;123;124;123;124;123;124;
2021-05-18 07:03:40;3;177;177;177;177;177;177;177;177;177;177;
2021-05-18 07:03:40;4;123;123;122;123;123;123;123;122;123;123;
2021-05-18 07:03:40;5;118;118;118;118;118;118;118;118;118;118;
2021-05-18 07:03:40;ht;99;7.50
2021-05-18 07:03:40;v;4.10
2021-05-18 07:33:40;1;112;111;111;111;111;111;111;112;111;111;
2021-05-18 07:33:40;2;120;120;121;120;120;120;120;120;120;120;
2021-05-18 07:33:40;3;177;177;177;177;177;177;177;177;177;177;
2021-05-18 07:33:40;4;121;121;121;121;122;121;122;121;121;122;
2021-05-18 07:33:40;5;115;115;115;115;115;115;115;115;115;116;
2021-05-18 07:33:40;ht;99;7.80
2021-05-18 07:33:40;v;4.11
2021-05-18 08:03:40;1;114;114;114;114;114;114;114;114;114;114;
2021-05-18 08:03:40;2;125;126;126;125;125;125;125;125;125;125;
2021-05-18 08:03:40;3;178;178;178;178;178;178;178;178;178;178;
2021-05-18 08:03:40;4;123;123;123;123;123;123;123;123;134;124;
2021-05-18 08:03:40;5;129;129;130;130;130;129;137;131;130;130;
2021-05-18 08:03:40;ht;99;8.30
2021-05-18 08:03:40;v;4.11
2021-05-18 08:33:41;1;135;135;135;135;135;135;135;135;135;135;
2021-05-18 08:33:41;2;115;115;115;114;115;114;114;114;114;114;
2021-05-18 08:33:41;3;180;179;180;179;179;180;180;180;180;179;
2021-05-18 08:33:41;4;133;126;124;124;123;123;123;123;123;123;
2021-05-18 08:33:41;5;131;131;130;131;131;131;131;130;131;131;
2021-05-18 08:33:41;ht;99;9.10
2021-05-18 08:33:41;v;4.12
2021-05-18 09:03:42;1;120;119;120;120;120;120;120;119;119;120;
2021-05-18 09:03:42;2;121;122;122;122;122;121;121;122;121;121;
2021-05-18 09:03:42;3;171;171;171;171;171;172;171;172;172;171;
2021-05-18 09:03:42;4;117;117;117;117;117;116;117;116;117;117;
2021-05-18 09:03:42;5;106;106;106;106;106;106;106;106;106;106;
2021-05-18 09:03:42;ht;99;10.40
2021-05-18 09:03:42;v;4.12
2021-05-18 09:33:45;1;114;114;114;114;114;114;114;114;114;114;
2021-05-18 09:33:45;2;122;122;122;122;122;122;122;122;122;122;
2021-05-18 09:33:45;3;182;182;183;182;182;182;182;182;182;182;
2021-05-18 09:33:45;4;124;123;124;124;124;124;124;124;124;124;
2021-05-18 09:33:45;5;115;122;117;116;116;116;115;116;116;116;
2021-05-18 09:33:45;ht;99;12.50
2021-05-18 09:33:45;v;4.12
2021-05-18 10:03:44;1;108;107;108;108;107;108;107;108;108;108;
2021-05-18 10:03:44;2;113;113;121;114;113;113;113;113;113;113;
2021-05-18 10:03:44;3;184;184;183;184;183;183;183;184;184;184;
2021-05-18 10:03:44;4;117;117;117;117;117;117;117;117;117;117;
2021-05-18 10:03:44;5;106;106;106;106;106;106;106;106;106;106;
2021-05-18 10:03:44;ht;99;14.10
2021-05-18 10:03:44;v;4.13
2021-05-18 10:33:44;1;114;114;114;114;114;114;114;114;114;114;
2021-05-18 10:33:44;2;119;119;118;119;119;118;119;119;119;119;
2021-05-18 10:33:44;3;183;183;183;183;183;183;183;183;183;183;
2021-05-18 10:33:44;4;119;119;119;119;119;119;119;119;119;119;
2021-05-18 10:33:44;5;104;104;104;104;104;104;104;104;104;104;
2021-05-18 10:33:44;ht;99;15.90
2021-05-18 10:33:44;v;4.13
2021-05-18 11:03:46;1;127;127;127;127;127;127;127;127;127;127;
2021-05-18 11:03:46;2;117;117;117;117;117;117;117;117;117;117;
2021-05-18 11:03:46;3;185;184;185;184;185;184;185;185;184;185;
2021-05-18 11:03:46;4;121;121;131;122;121;121;121;121;121;121;
2021-05-18 11:03:46;5;104;104;104;104;103;103;103;103;103;103;
2021-05-18 11:03:46;ht;99;17.60
2021-05-18 11:03:46;v;4.13
2021-05-18 11:33:50;1;118;118;117;117;117;117;117;117;117;117;
2021-05-18 11:33:50;2;110;110;110;110;110;110;110;110;110;110;
2021-05-18 11:33:50;3;176;176;176;176;176;176;176;176;176;176;
2021-05-18 11:33:50;4;117;118;118;117;118;118;118;118;118;118;
2021-05-18 11:33:50;5;108;108;108;108;108;107;108;107;107;107;
2021-05-18 11:33:50;ht;99;19.10
2021-05-18 11:33:50;v;4.13
2021-05-18 12:03:50;1;116;116;116;116;116;116;116;116;116;116;
2021-05-18 12:03:50;2;116;116;116;116;116;116;116;116;116;116;
2021-05-18 12:03:50;3;186;185;186;186;186;185;186;186;186;186;
2021-05-18 12:03:50;4;116;116;116;116;116;116;116;116;116;116;
2021-05-18 12:03:50;5;104;104;104;104;104;104;104;104;104;104;
2021-05-18 12:03:50;ht;99;20.00
2021-05-18 12:03:50;v;4.13
2021-05-18 12:33:52;1;123;123;123;123;123;123;123;123;123;123;
2021-05-18 12:33:52;2;117;117;117;117;117;117;117;117;117;117;
2021-05-18 12:33:52;3;182;182;182;182;182;182;182;182;182;182;
2021-05-18 12:33:52;4;119;119;119;119;119;119;119;119;119;119;
2021-05-18 12:33:52;5;121;121;121;121;121;121;121;121;121;121;
2021-05-18 12:33:52;ht;96;21.00
2021-05-18 12:33:52;v;4.13
2021-05-18 13:03:50;1;124;124;124;124;124;124;124;124;124;124;
2021-05-18 13:03:50;2;118;118;118;118;118;118;118;118;118;118;
2021-05-18 13:03:50;3;183;183;183;183;183;183;183;183;183;183;
2021-05-18 13:03:50;4;119;120;119;119;120;119;119;120;120;120;
2021-05-18 13:03:50;5;113;112;112;112;112;112;112;112;112;112;
2021-05-18 13:03:50;ht;93;21.10
2021-05-18 13:03:50;v;4.13
2021-05-18 13:33:52;1;116;116;116;116;116;116;116;116;116;116;
2021-05-18 13:33:52;2;115;115;115;115;115;114;115;115;115;115;
2021-05-18 13:33:52;3;183;183;183;183;183;183;183;183;183;183;
2021-05-18 13:33:52;4;110;110;110;110;110;110;110;110;110;110;
2021-05-18 13:33:52;5;108;108;109;108;108;108;108;108;109;108;
2021-05-18 13:33:52;ht;92;21.90
2021-05-18 13:33:52;v;4.13
2021-05-18 14:03:51;1;114;114;113;114;114;114;114;113;114;113;
2021-05-18 14:03:51;2;113;112;113;112;113;113;113;113;113;113;
2021-05-18 14:03:51;3;169;168;168;169;169;168;169;169;169;169;
2021-05-18 14:03:51;4;118;118;118;118;118;118;118;118;118;118;
2021-05-18 14:03:51;5;106;106;106;106;105;106;106;106;106;106;
2021-05-18 14:03:51;ht;92;22.20
2021-05-18 14:03:51;v;4.14
2021-05-18 14:33:53;1;118;118;118;118;118;118;118;118;118;118;
2021-05-18 14:33:53;2;124;124;124;124;124;124;124;124;124;124;
2021-05-18 14:33:53;3;177;177;177;177;177;177;177;177;177;177;
2021-05-18 14:33:53;4;118;118;118;118;118;118;118;118;118;118;
2021-05-18 14:33:53;5;100;100;100;100;100;100;100;100;100;101;
2021-05-18 14:33:53;ht;90;22.20
2021-05-18 14:33:53;v;4.14
2021-05-18 15:03:52;1;112;112;112;112;112;112;112;112;112;112;
2021-05-18 15:03:52;2;117;118;118;118;118;118;118;118;117;118;
2021-05-18 15:03:52;3;176;177;177;177;176;177;177;177;177;177;
2021-05-18 15:03:52;4;122;122;122;122;121;122;122;122;121;122;
2021-05-18 15:03:52;5;111;111;111;111;111;111;111;111;111;111;
2021-05-18 15:03:52;ht;90;22.10
2021-05-18 15:03:52;v;4.14
2021-05-18 15:33:50;1;117;117;117;117;117;117;117;117;117;117;
2021-05-18 15:33:50;2;119;120;120;119;120;120;120;120;120;120;
2021-05-18 15:33:50;3;176;176;176;176;176;176;176;176;176;176;
2021-05-18 15:33:50;4;118;118;118;118;118;118;118;118;118;118;
2021-05-18 15:33:50;5;126;127;127;126;127;127;127;127;127;127;
2021-05-18 15:33:50;ht;89;22.30
2021-05-18 15:33:50;v;4.14
2021-05-18 16:03:53;1;123;122;122;122;122;123;123;122;122;123;
2021-05-18 16:03:53;2;114;114;114;114;113;113;114;114;114;114;
2021-05-18 16:03:53;3;168;167;168;168;168;168;168;168;168;168;
2021-05-18 16:03:53;4;113;113;113;113;113;113;113;113;113;113;
2021-05-18 16:03:53;5;125;125;125;125;125;125;125;125;125;125;
2021-05-18 16:03:53;ht;90;21.80
2021-05-18 16:03:53;v;4.14
2021-05-18 16:33:50;1;112;112;112;112;112;112;112;112;112;112;
2021-05-18 16:33:50;2;117;117;117;117;117;116;116;117;117;117;
2021-05-18 16:33:50;3;167;167;167;167;167;167;167;167;167;167;
2021-05-18 16:33:50;4;107;107;107;107;107;107;107;107;106;107;
2021-05-18 16:33:50;5;107;106;106;106;107;107;106;106;106;106;
2021-05-18 16:33:50;ht;90;21.50
2021-05-18 16:33:50;v;4.14
2021-05-18 17:03:52;1;117;117;117;116;117;117;117;116;117;117;
2021-05-18 17:03:52;2;116;116;116;115;116;116;116;116;116;115;
2021-05-18 17:03:52;3;166;166;166;166;166;166;166;166;166;166;
2021-05-18 17:03:52;4;111;111;111;111;111;111;111;111;111;111;
2021-05-18 17:03:52;5;99;99;99;99;99;99;99;99;99;99;
2021-05-18 17:03:52;ht;92;20.80
2021-05-18 17:03:52;v;4.14
2021-05-18 17:33:49;1;122;121;122;122;122;122;122;122;122;122;
2021-05-18 17:33:49;2;112;112;112;112;112;112;112;112;112;112;
2021-05-18 17:33:49;3;166;166;166;166;166;166;166;166;166;166;
2021-05-18 17:33:49;4;118;118;118;118;118;118;118;118;118;118;
2021-05-18 17:33:49;5;105;105;106;105;105;106;106;105;105;106;
2021-05-18 17:33:49;ht;93;19.40
2021-05-18 17:33:49;v;4.14
2021-05-18 18:03:48;1;113;112;112;113;113;113;113;113;113;112;
2021-05-18 18:03:48;2;114;114;114;114;114;114;114;114;114;113;
2021-05-18 18:03:48;3;178;178;178;178;178;178;178;178;178;178;
2021-05-18 18:03:48;4;118;118;118;118;118;118;118;118;118;118;
2021-05-18 18:03:48;5;109;108;109;109;109;108;109;108;109;109;
2021-05-18 18:03:48;ht;99;17.10
2021-05-18 18:03:48;v;4.13
2021-05-18 18:33:46;1;116;116;116;116;116;115;116;116;116;116;
2021-05-18 18:33:46;2;121;120;121;121;120;121;120;121;121;121;
2021-05-18 18:33:46;3;162;162;162;162;162;162;162;162;162;162;
2021-05-18 18:33:46;4;116;117;116;117;117;117;117;117;117;116;
2021-05-18 18:33:46;5;101;101;101;101;101;102;101;101;101;101;
2021-05-18 18:33:46;ht;99;15.50
2021-05-18 18:33:46;v;4.13
2021-05-18 19:03:47;1;114;114;114;114;113;114;113;114;114;113;
2021-05-18 19:03:47;2;109;109;109;109;109;109;109;109;109;109;
2021-05-18 19:03:47;3;169;169;169;169;169;169;169;169;169;169;
2021-05-18 19:03:47;4;118;118;118;118;118;118;118;118;118;118;
2021-05-18 19:03:47;5;106;106;106;106;106;106;106;106;106;106;
2021-05-18 19:03:47;ht;99;15.10
2021-05-18 19:03:47;v;4.13
2021-05-18 19:33:47;1;118;118;118;118;118;118;118;118;118;118;
2021-05-18 19:33:47;2;115;115;115;115;115;115;115;115;115;115;
2021-05-18 19:33:47;3;169;169;169;169;169;169;169;169;169;169;
2021-05-18 19:33:47;4;121;121;121;121;121;121;121;121;121;121;
2021-05-18 19:33:47;5;116;116;116;116;116;116;116;116;116;116;
2021-05-18 19:33:47;ht;99;14.50
2021-05-18 19:33:47;v;4.13
2021-05-18 20:03:47;1;114;113;113;114;113;113;114;114;113;113;
2021-05-18 20:03:47;2;122;122;122;122;122;122;122;122;122;122;
2021-05-18 20:03:47;3;168;168;168;168;168;168;168;168;168;168;
2021-05-18 20:03:47;4;119;119;119;119;119;119;119;119;119;119;
2021-05-18 20:03:47;5;124;124;124;124;124;124;124;124;124;124;
2021-05-18 20:03:47;ht;99;13.80
2021-05-18 20:03:47;v;4.13
2021-05-18 20:33:47;1;113;112;113;113;113;113;112;113;113;112;
2021-05-18 20:33:47;2;124;123;124;124;123;123;124;124;123;123;
2021-05-18 20:33:47;3;174;174;174;174;174;174;174;174;174;174;
2021-05-18 20:33:47;4;115;115;114;115;115;115;115;115;115;114;
2021-05-18 20:33:47;5;114;114;114;114;114;114;114;114;114;114;
2021-05-18 20:33:47;ht;99;12.70
2021-05-18 20:33:47;v;4.12
2021-05-18 21:03:45;1;134;133;133;133;133;133;133;133;133;133;
2021-05-18 21:03:45;2;114;114;113;114;114;114;113;113;114;113;
2021-05-18 21:03:45;3;174;174;174;174;174;174;174;174;174;174;
2021-05-18 21:03:45;4;125;126;126;125;125;125;126;126;125;125;
2021-05-18 21:03:45;5;111;111;111;111;111;111;111;111;111;111;
2021-05-18 21:03:45;ht;99;12.40
2021-05-18 21:03:45;v;4.13
2021-05-18 21:33:44;1;132;132;132;132;132;132;132;132;132;132;
2021-05-18 21:33:44;2;1;1;1;1;1;1;1;1;1;1;
2021-05-18 21:33:44;3;176;176;176;176;176;176;176;176;176;176;
2021-05-18 21:33:44;4;115;115;115;115;115;115;115;115;115;115;
2021-05-18 21:33:44;5;115;115;115;115;115;115;115;115;115;115;
2021-05-18 21:33:44;ht;99;10.80
2021-05-18 21:33:44;v;4.13
2021-05-18 22:03:42;1;133;133;133;133;133;133;133;133;133;133;
2021-05-18 22:03:42;2;117;117;116;117;117;117;116;116;117;117;
2021-05-18 22:03:42;3;175;175;175;175;175;175;175;176;176;176;
2021-05-18 22:03:42;4;115;115;115;115;115;115;115;115;115;115;
2021-05-18 22:03:42;5;122;122;122;122;122;122;122;122;122;122;
2021-05-18 22:03:42;ht;99;12.50
2021-05-18 22:03:42;v;4.13
2021-05-18 22:33:45;1;121;121;121;121;121;120;121;120;120;121;
2021-05-18 22:33:45;2;115;115;115;115;115;115;115;115;115;115;
2021-05-18 22:33:45;3;168;168;168;168;167;167;168;167;168;167;
2021-05-18 22:33:45;4;124;124;124;124;124;124;124;124;124;124;
2021-05-18 22:33:45;5;114;114;114;114;114;114;114;114;114;114;
2021-05-18 22:33:45;ht;99;12.50
2021-05-18 22:33:45;v;4.13
2021-05-18 23:03:44;1;122;122;122;122;122;122;122;122;122;122;
2021-05-18 23:03:44;2;109;109;110;109;109;109;109;109;109;109;
2021-05-18 23:03:44;3;175;175;175;175;175;175;175;175;175;175;
2021-05-18 23:03:44;4;113;114;114;113;114;113;114;113;113;114;
2021-05-18 23:03:44;5;106;107;106;106;106;106;106;106;106;106;
2021-05-18 23:03:44;ht;99;12.60
2021-05-18 23:03:44;v;4.12
2021-05-18 23:33:43;1;121;121;121;121;120;121;121;121;121;120;
2021-05-18 23:33:43;2;114;114;113;114;114;114;114;114;114;114;
2021-05-18 23:33:43;3;167;167;167;167;167;168;168;168;167;167;
2021-05-18 23:33:43;4;121;121;121;121;121;121;121;121;121;121;
2021-05-18 23:33:43;5;109;109;109;109;109;109;109;116;110;109;
2021-05-18 23:33:43;ht;99;13.40
2021-05-18 23:33:43;v;4.13
