2021-04-21 00:03:47;1;129;129;129;129;129;129;129;129;128;129;
2021-04-21 00:03:47;2;127;127;127;127;127;127;127;127;127;127;
2021-04-21 00:03:47;3;169;169;169;169;169;169;169;169;169;169;
2021-04-21 00:03:47;4;124;124;124;124;124;124;124;124;124;124;
2021-04-21 00:03:47;5;126;126;126;126;126;126;126;126;126;126;
2021-04-21 00:03:47;ht;99;18.10
2021-04-21 00:03:47;v;4.14
2021-04-21 00:33:50;1;127;127;127;127;127;127;128;127;127;127;
2021-04-21 00:33:50;2;127;127;126;127;127;127;127;127;127;127;
2021-04-21 00:33:50;3;167;167;167;167;167;167;167;167;167;167;
2021-04-21 00:33:50;4;124;124;124;124;124;124;124;124;124;124;
2021-04-21 00:33:50;5;126;126;126;126;126;126;126;126;126;126;
2021-04-21 00:33:50;ht;99;17.50
2021-04-21 00:33:50;v;4.14
2021-04-21 01:03:47;1;129;128;128;128;128;127;127;127;127;127;
2021-04-21 01:03:47;2;127;127;127;127;127;127;127;127;127;127;
2021-04-21 01:03:47;3;164;164;164;164;164;164;164;164;164;164;
2021-04-21 01:03:47;4;124;124;124;124;123;123;124;124;123;124;
2021-04-21 01:03:47;5;126;126;126;126;126;126;126;126;126;126;
2021-04-21 01:03:47;ht;99;17.20
2021-04-21 01:03:47;v;4.14
2021-04-21 01:33:45;1;130;129;129;129;128;129;128;128;128;128;
2021-04-21 01:33:45;2;127;126;126;126;126;126;126;126;127;127;
2021-04-21 01:33:45;3;162;162;162;162;162;162;162;162;162;162;
2021-04-21 01:33:45;4;124;124;124;124;124;124;124;124;124;124;
2021-04-21 01:33:45;5;126;126;126;126;126;126;125;126;126;126;
2021-04-21 01:33:45;ht;99;17.40
2021-04-21 01:33:45;v;4.13
2021-04-21 02:03:47;1;129;129;129;129;129;129;128;129;129;129;
2021-04-21 02:03:47;2;125;125;125;125;125;125;125;125;125;125;
2021-04-21 02:03:47;3;165;165;165;165;165;165;165;165;166;165;
2021-04-21 02:03:47;4;124;124;124;124;124;124;124;124;124;124;
2021-04-21 02:03:47;5;127;127;127;127;127;127;127;127;127;127;
2021-04-21 02:03:47;ht;99;17.70
2021-04-21 02:03:47;v;4.14
2021-04-21 02:33:49;1;128;128;128;135;129;128;128;127;127;127;
2021-04-21 02:33:49;2;126;126;126;125;126;126;126;126;126;126;
2021-04-21 02:33:49;3;161;161;161;161;161;161;161;161;161;161;
2021-04-21 02:33:49;4;124;124;124;124;124;124;124;124;124;124;
2021-04-21 02:33:49;5;126;126;126;126;126;126;126;126;126;126;
2021-04-21 02:33:49;ht;99;17.60
2021-04-21 02:33:49;v;4.14
2021-04-21 03:03:46;1;130;129;129;129;129;128;128;128;128;128;
2021-04-21 03:03:46;2;125;125;125;125;125;125;125;125;125;125;
2021-04-21 03:03:46;3;164;165;165;164;164;164;164;164;164;164;
2021-04-21 03:03:46;4;124;124;124;124;124;124;124;124;124;124;
2021-04-21 03:03:46;5;127;127;127;127;127;127;127;127;127;127;
2021-04-21 03:03:46;ht;99;17.90
2021-04-21 03:03:46;v;4.14
2021-04-21 03:33:49;1;129;129;129;129;129;129;129;129;129;129;
2021-04-21 03:33:49;2;126;126;126;126;126;126;126;126;126;126;
2021-04-21 03:33:49;3;161;161;161;162;162;161;162;162;162;161;
2021-04-21 03:33:49;4;124;124;124;124;124;124;124;124;124;124;
2021-04-21 03:33:49;5;125;125;125;125;125;125;125;125;125;125;
2021-04-21 03:33:49;ht;99;18.00
2021-04-21 03:33:49;v;4.13
2021-04-21 04:03:47;1;127;127;127;127;127;127;127;127;127;127;
2021-04-21 04:03:47;2;126;126;126;126;126;126;126;126;126;126;
2021-04-21 04:03:47;3;165;165;165;165;165;165;165;165;165;165;
2021-04-21 04:03:47;4;124;124;124;124;124;124;124;124;124;124;
2021-04-21 04:03:47;5;126;126;126;126;126;126;126;126;126;126;
2021-04-21 04:03:47;ht;99;17.90
2021-04-21 04:03:47;v;4.13
2021-04-21 04:33:49;1;135;128;128;128;127;128;127;127;128;127;
2021-04-21 04:33:49;2;126;126;126;126;125;126;126;126;126;126;
2021-04-21 04:33:49;3;163;163;164;163;164;164;164;164;164;164;
2021-04-21 04:33:49;4;124;124;124;124;124;124;124;124;124;124;
2021-04-21 04:33:49;5;125;125;125;125;125;125;125;125;125;125;
2021-04-21 04:33:49;ht;99;17.80
2021-04-21 04:33:49;v;4.13
2021-04-21 05:03:47;1;129;128;128;128;128;128;128;128;128;128;
2021-04-21 05:03:47;2;125;125;125;125;125;125;125;125;125;125;
2021-04-21 05:03:47;3;165;165;165;165;165;165;165;165;165;165;
2021-04-21 05:03:47;4;124;124;124;124;124;124;124;124;124;124;
2021-04-21 05:03:47;5;126;126;126;126;126;126;126;126;126;126;
2021-04-21 05:03:47;ht;99;17.70
2021-04-21 05:03:47;v;4.13
2021-04-21 05:33:49;1;128;128;128;128;135;130;129;128;128;128;
2021-04-21 05:33:49;2;126;126;126;126;126;125;126;126;125;126;
2021-04-21 05:33:49;3;163;163;163;163;163;163;163;163;163;163;
2021-04-21 05:33:49;4;123;124;123;124;123;124;124;124;124;123;
2021-04-21 05:33:49;5;125;125;125;125;125;125;125;124;125;125;
2021-04-21 05:33:49;ht;99;17.70
2021-04-21 05:33:49;v;4.13
2021-04-21 06:03:47;1;129;128;128;128;129;129;129;129;129;129;
2021-04-21 06:03:47;2;126;126;126;126;126;126;126;126;126;126;
2021-04-21 06:03:47;3;165;165;165;165;165;165;165;165;165;165;
2021-04-21 06:03:47;4;124;124;124;124;124;124;124;124;124;124;
2021-04-21 06:03:47;5;125;125;126;126;126;125;125;126;125;125;
2021-04-21 06:03:47;ht;99;17.60
2021-04-21 06:03:47;v;4.13
2021-04-21 06:33:49;1;129;129;128;128;128;129;128;128;128;128;
2021-04-21 06:33:49;2;127;127;127;127;127;127;127;126;127;127;
2021-04-21 06:33:49;3;163;164;164;163;164;164;164;164;164;164;
2021-04-21 06:33:49;4;124;124;124;124;124;124;124;124;124;124;
2021-04-21 06:33:49;5;126;126;126;126;126;126;126;126;126;126;
2021-04-21 06:33:49;ht;99;17.60
2021-04-21 06:33:49;v;4.13
2021-04-21 07:03:47;1;128;127;127;127;127;127;127;127;127;128;
2021-04-21 07:03:47;2;126;126;126;127;126;126;126;127;126;126;
2021-04-21 07:03:47;3;164;164;164;164;164;164;164;164;164;164;
2021-04-21 07:03:47;4;124;124;124;124;124;124;124;124;124;124;
2021-04-21 07:03:47;5;126;126;126;126;126;125;126;126;126;126;
2021-04-21 07:03:47;ht;99;17.60
2021-04-21 07:03:47;v;4.13
2021-04-21 07:33:49;1;128;129;129;128;128;128;128;128;128;128;
2021-04-21 07:33:49;2;127;127;127;127;127;127;127;127;127;127;
2021-04-21 07:33:49;3;163;163;162;162;163;163;163;163;163;163;
2021-04-21 07:33:49;4;124;124;124;124;124;124;124;124;124;124;
2021-04-21 07:33:49;5;125;125;125;125;125;125;125;125;125;125;
2021-04-21 07:33:49;ht;99;17.90
2021-04-21 07:33:49;v;4.13
2021-04-21 08:03:47;1;129;129;128;128;128;129;128;129;129;129;
2021-04-21 08:03:47;2;125;125;125;125;125;125;125;125;125;125;
2021-04-21 08:03:47;3;165;166;166;166;165;165;165;166;165;166;
2021-04-21 08:03:47;4;123;123;123;123;123;123;123;123;123;123;
2021-04-21 08:03:47;5;123;123;123;123;123;123;123;123;123;123;
2021-04-21 08:03:47;ht;99;18.80
2021-04-21 08:03:47;v;4.14
2021-04-21 08:33:50;1;128;136;129;129;128;128;128;128;129;128;
2021-04-21 08:33:50;2;122;122;122;122;122;122;122;122;122;122;
2021-04-21 08:33:50;3;167;166;167;167;167;167;167;167;167;167;
2021-04-21 08:33:50;4;123;123;123;123;123;123;123;123;123;123;
2021-04-21 08:33:50;5;125;125;126;125;125;125;125;125;125;125;
2021-04-21 08:33:50;ht;99;19.60
2021-04-21 08:33:50;v;4.14
2021-04-21 09:03:49;1;129;128;128;128;128;128;128;128;128;128;
2021-04-21 09:03:49;2;120;120;119;120;120;120;120;120;120;120;
2021-04-21 09:03:49;3;169;169;169;168;168;168;168;169;169;168;
2021-04-21 09:03:49;4;123;123;123;123;123;123;123;123;122;123;
2021-04-21 09:03:49;5;126;126;126;126;126;126;126;126;125;126;
2021-04-21 09:03:49;ht;99;20.60
2021-04-21 09:03:49;v;4.14
2021-04-21 09:33:50;1;127;127;127;127;127;127;127;127;127;127;
2021-04-21 09:33:50;2;124;124;124;124;124;124;124;124;124;123;
2021-04-21 09:33:50;3;169;168;168;169;169;169;169;169;169;169;
2021-04-21 09:33:50;4;123;123;123;123;123;123;123;123;122;123;
2021-04-21 09:33:50;5;125;125;125;125;125;125;125;125;125;125;
2021-04-21 09:33:50;ht;99;21.50
2021-04-21 09:33:50;v;4.14
2021-04-21 10:03:51;1;127;128;127;128;128;127;128;128;128;128;
2021-04-21 10:03:51;2;124;124;124;124;124;124;124;124;124;124;
2021-04-21 10:03:51;3;168;168;168;168;168;168;168;168;168;168;
2021-04-21 10:03:51;4;122;122;122;122;122;122;122;122;122;122;
2021-04-21 10:03:51;5;125;125;125;125;125;125;125;125;125;125;
2021-04-21 10:03:51;ht;99;22.00
2021-04-21 10:03:51;v;4.14
2021-04-21 10:33:53;1;127;127;127;127;127;127;128;128;127;127;
2021-04-21 10:33:53;2;123;123;123;123;123;123;123;123;123;123;
2021-04-21 10:33:53;3;168;168;168;168;168;168;168;168;168;168;
2021-04-21 10:33:53;4;124;124;124;124;124;124;124;124;124;124;
2021-04-21 10:33:53;5;125;125;125;125;125;125;125;125;125;125;
2021-04-21 10:33:53;ht;99;22.00
2021-04-21 10:33:53;v;4.14
2021-04-21 11:03:50;1;129;128;128;128;128;128;128;128;128;128;
2021-04-21 11:03:50;2;125;125;125;125;125;125;125;125;125;125;
2021-04-21 11:03:50;3;167;167;167;167;167;167;167;167;167;167;
2021-04-21 11:03:50;4;123;123;123;123;123;123;123;123;123;123;
2021-04-21 11:03:50;5;125;125;125;125;125;125;125;125;125;125;
2021-04-21 11:03:50;ht;99;21.40
2021-04-21 11:03:50;v;4.14
2021-04-21 11:33:51;1;136;130;129;128;128;128;128;128;128;128;
2021-04-21 11:33:51;2;124;124;124;124;124;124;124;124;124;124;
2021-04-21 11:33:51;3;167;167;167;167;167;167;167;167;167;167;
2021-04-21 11:33:51;4;123;123;123;123;123;123;123;123;123;122;
2021-04-21 11:33:51;5;125;126;126;126;126;126;126;126;126;126;
2021-04-21 11:33:51;ht;99;21.20
2021-04-21 11:33:51;v;4.13
2021-04-21 12:03:51;1;128;128;128;128;128;128;129;128;128;128;
2021-04-21 12:03:51;2;126;126;126;126;126;126;126;126;126;126;
2021-04-21 12:03:51;3;168;169;169;169;169;169;169;169;169;169;
2021-04-21 12:03:51;4;124;124;124;124;124;124;124;124;124;124;
2021-04-21 12:03:51;5;123;123;123;123;123;123;123;123;123;123;
2021-04-21 12:03:51;ht;99;20.60
2021-04-21 12:03:51;v;4.14
#2021-04-21 12:14:51;1;129;129;129;129;129;129;129;129;130;129;
2021-04-21 12:14:51;2;125;125;125;125;125;125;125;125;125;125;
2021-04-21 12:14:51;3;218;218;218;218;218;218;218;218;218;218;
2021-04-21 12:14:51;4;123;123;123;123;123;123;123;123;123;123;
2021-04-21 12:14:51;5;126;126;126;126;126;126;126;126;126;126;
2021-04-21 12:14:51;ht;99;20.50
2021-04-21 12:14:51;v;4.13
2021-04-21 12:32:10;1;129;129;129;128;128;128;129;129;128;128;
2021-04-21 12:32:10;2;126;126;126;126;126;126;126;126;126;126;
2021-04-21 12:32:10;3;170;170;170;170;170;170;170;170;170;170;
2021-04-21 12:32:10;4;123;123;123;123;123;123;123;123;123;123;
2021-04-21 12:32:10;5;125;125;125;125;125;125;125;125;125;125;
2021-04-21 12:32:10;ht;99;20.40
2021-04-21 12:32:10;v;4.13
2021-04-21 13:04:05;1;129;128;128;128;129;128;128;128;129;128;
2021-04-21 13:04:05;2;123;123;123;123;123;123;123;123;123;123;
2021-04-21 13:04:05;3;169;170;169;170;170;170;170;170;170;170;
2021-04-21 13:04:05;4;122;122;122;122;122;122;122;122;122;121;
2021-04-21 13:04:05;5;124;124;124;124;124;124;124;124;124;124;
2021-04-21 13:04:05;ht;99;18.60
2021-04-21 13:04:05;v;4.13
2021-04-21 13:33:45;1;129;128;128;128;128;128;128;129;128;128;
2021-04-21 13:33:45;2;128;128;128;128;128;128;128;128;128;128;
2021-04-21 13:33:45;3;170;170;170;170;170;171;170;170;170;170;
2021-04-21 13:33:45;4;123;123;123;123;123;123;123;123;122;123;
2021-04-21 13:33:45;5;120;120;120;120;120;120;120;120;120;120;
2021-04-21 13:33:45;ht;99;19.70
2021-04-21 13:33:45;v;4.13
2021-04-21 14:03:49;1;129;129;129;129;129;129;129;129;129;129;
2021-04-21 14:03:49;2;126;126;126;126;126;126;126;126;126;126;
2021-04-21 14:03:49;3;172;172;172;172;172;172;172;172;172;172;
2021-04-21 14:03:49;4;125;125;125;125;125;124;125;124;124;124;
2021-04-21 14:03:49;5;123;123;123;123;123;123;123;123;122;123;
2021-04-21 14:03:49;ht;99;20.50
2021-04-21 14:03:49;v;4.13
2021-04-21 14:33:49;1;127;127;127;127;127;127;127;127;127;127;
2021-04-21 14:33:49;2;128;128;128;128;128;128;128;128;128;128;
2021-04-21 14:33:49;3;170;170;170;170;170;170;170;170;170;170;
2021-04-21 14:33:49;4;123;123;123;123;123;123;123;123;123;123;
2021-04-21 14:33:49;5;125;125;125;125;125;125;125;125;125;125;
2021-04-21 14:33:49;ht;99;20.80
2021-04-21 14:33:49;v;4.13
2021-04-21 15:03:49;1;129;129;129;129;129;129;128;129;129;129;
2021-04-21 15:03:49;2;125;125;125;125;125;125;125;125;125;125;
2021-04-21 15:03:49;3;168;168;168;169;168;168;168;168;169;169;
2021-04-21 15:03:49;4;124;124;124;124;124;124;123;124;124;123;
2021-04-21 15:03:49;5;123;123;123;123;123;123;122;123;123;123;
2021-04-21 15:03:49;ht;99;19.80
2021-04-21 15:03:49;v;4.13
2021-04-21 15:33:48;1;128;128;128;128;128;128;128;128;128;128;
2021-04-21 15:33:48;2;121;121;121;121;121;121;121;121;121;121;
2021-04-21 15:33:48;3;167;168;168;168;168;168;168;168;168;168;
2021-04-21 15:33:48;4;127;127;127;127;127;127;127;127;127;127;
2021-04-21 15:33:48;5;123;123;123;123;123;123;123;123;123;123;
2021-04-21 15:33:48;ht;99;19.90
2021-04-21 15:33:48;v;4.13
2021-04-21 16:03:48;1;128;128;128;128;128;128;128;128;128;128;
2021-04-21 16:03:48;2;124;124;124;124;124;124;124;124;124;124;
2021-04-21 16:03:48;3;169;170;169;169;169;169;169;169;169;169;
2021-04-21 16:03:48;4;123;123;123;123;123;123;123;123;123;123;
2021-04-21 16:03:48;5;123;123;123;123;123;123;123;122;123;123;
2021-04-21 16:03:48;ht;99;20.30
2021-04-21 16:03:48;v;4.13
2021-04-21 16:33:47;1;128;128;128;128;128;128;128;128;128;128;
2021-04-21 16:33:47;2;119;118;118;119;118;118;118;119;118;118;
2021-04-21 16:33:47;3;169;169;169;169;169;169;169;169;169;169;
2021-04-21 16:33:47;4;122;122;122;122;122;122;122;122;122;122;
2021-04-21 16:33:47;5;124;124;124;124;124;124;124;124;124;124;
2021-04-21 16:33:47;ht;99;20.60
2021-04-21 16:33:47;v;4.13
2021-04-21 17:03:51;1;128;128;128;128;128;128;128;128;128;128;
2021-04-21 17:03:51;2;126;126;126;126;126;126;126;126;126;126;
2021-04-21 17:03:51;3;169;169;169;169;169;169;169;169;169;169;
2021-04-21 17:03:51;4;122;122;122;122;122;122;121;122;121;121;
2021-04-21 17:03:51;5;123;123;123;123;123;123;123;123;123;123;
2021-04-21 17:03:51;ht;99;21.40
2021-04-21 17:03:51;v;4.13
2021-04-21 17:33:51;1;127;127;127;127;127;127;127;127;127;127;
2021-04-21 17:33:51;2;124;124;124;124;124;124;124;124;124;124;
2021-04-21 17:33:51;3;171;171;171;171;171;171;171;171;171;171;
2021-04-21 17:33:51;4;123;123;123;123;123;123;123;123;123;123;
2021-04-21 17:33:51;5;123;123;123;123;122;123;123;122;123;123;
2021-04-21 17:33:51;ht;99;21.80
2021-04-21 17:33:51;v;4.13
2021-04-21 18:03:51;1;128;128;128;128;128;128;128;128;128;128;
2021-04-21 18:03:51;2;121;121;122;121;121;121;121;121;121;121;
2021-04-21 18:03:51;3;171;171;171;171;171;171;171;171;171;171;
2021-04-21 18:03:51;4;123;123;123;123;123;123;123;123;123;123;
2021-04-21 18:03:51;5;123;123;123;123;123;123;123;123;123;123;
2021-04-21 18:03:51;ht;99;21.60
2021-04-21 18:03:51;v;4.13
2021-04-21 18:33:51;1;126;126;126;126;126;126;126;126;126;126;
2021-04-21 18:33:51;2;128;128;128;128;128;128;128;127;127;128;
2021-04-21 18:33:51;3;169;169;169;169;169;170;170;170;170;170;
2021-04-21 18:33:51;4;123;123;123;123;123;123;123;123;123;123;
2021-04-21 18:33:51;5;121;121;121;121;121;121;121;121;121;121;
2021-04-21 18:33:51;ht;99;22.00
2021-04-21 18:33:51;v;4.13
2021-04-21 19:03:47;1;127;127;127;127;127;127;127;127;127;127;
2021-04-21 19:03:47;2;127;127;127;127;127;127;127;127;128;127;
2021-04-21 19:03:47;3;169;169;169;169;169;169;169;169;169;169;
2021-04-21 19:03:47;4;123;123;123;123;123;123;123;122;122;122;
2021-04-21 19:03:47;5;124;124;124;124;123;124;124;124;124;124;
2021-04-21 19:03:47;ht;99;21.90
2021-04-21 19:03:47;v;4.13
2021-04-21 19:33:48;1;128;128;128;128;128;128;128;128;128;128;
2021-04-21 19:33:48;2;124;125;124;124;125;125;124;124;125;125;
2021-04-21 19:33:48;3;168;167;167;168;167;168;168;168;168;168;
2021-04-21 19:33:48;4;123;123;123;123;123;123;123;123;123;123;
2021-04-21 19:33:48;5;123;123;123;123;123;123;123;123;123;123;
2021-04-21 19:33:48;ht;99;20.50
2021-04-21 19:33:48;v;4.13
2021-04-21 20:03:48;1;129;128;129;128;129;128;128;129;129;129;
2021-04-21 20:03:48;2;125;125;125;125;125;125;125;125;125;125;
2021-04-21 20:03:48;3;184;184;184;184;184;184;183;184;184;184;
2021-04-21 20:03:48;4;124;124;124;124;124;124;124;124;124;124;
2021-04-21 20:03:48;5;124;124;124;124;124;124;123;124;124;124;
2021-04-21 20:03:48;ht;99;19.10
2021-04-21 20:03:48;v;4.13
2021-04-21 20:33:47;1;128;128;128;128;128;128;128;128;128;128;
2021-04-21 20:33:47;2;120;119;119;119;120;119;119;120;120;119;
2021-04-21 20:33:47;3;180;180;180;180;180;180;180;180;181;181;
2021-04-21 20:33:47;4;125;125;125;125;125;125;125;125;125;125;
2021-04-21 20:33:47;5;132;132;132;132;132;132;132;132;132;132;
2021-04-21 20:33:47;ht;99;19.10
2021-04-21 20:33:47;v;4.13
2021-04-21 21:03:51;1;125;125;125;125;125;125;125;125;125;125;
2021-04-21 21:03:51;2;120;120;120;120;120;120;120;120;120;120;
2021-04-21 21:03:51;3;178;178;178;178;177;178;178;178;178;178;
2021-04-21 21:03:51;4;128;128;128;128;128;128;128;128;128;128;
2021-04-21 21:03:51;5;124;124;124;123;123;123;123;123;123;123;
2021-04-21 21:03:51;ht;99;19.30
2021-04-21 21:03:51;v;4.13
2021-04-21 21:33:50;1;128;128;128;128;127;127;128;127;128;127;
2021-04-21 21:33:50;2;120;120;120;120;120;120;120;120;120;120;
2021-04-21 21:33:50;3;172;172;172;172;172;172;172;172;172;172;
2021-04-21 21:33:50;4;122;122;122;122;122;122;122;122;122;122;
2021-04-21 21:33:50;5;2;2;2;2;1;1;2;1;2;2;
2021-04-21 21:33:50;ht;99;19.20
2021-04-21 21:33:50;v;4.13
2021-04-21 22:03:48;1;128;128;128;128;128;128;128;128;128;128;
2021-04-21 22:03:48;2;121;121;121;121;121;121;121;121;121;121;
2021-04-21 22:03:48;3;175;175;175;175;175;175;175;175;175;175;
2021-04-21 22:03:48;4;126;126;126;126;125;125;125;125;125;125;
2021-04-21 22:03:48;5;126;126;126;126;126;126;126;126;126;126;
2021-04-21 22:03:48;ht;99;19.70
2021-04-21 22:03:48;v;4.13
2021-04-21 22:33:47;1;126;126;126;126;126;126;126;126;126;126;
2021-04-21 22:33:47;2;121;121;121;121;121;121;121;121;121;121;
2021-04-21 22:33:47;3;175;175;176;176;176;175;176;176;175;175;
2021-04-21 22:33:47;4;122;122;122;122;122;122;122;122;122;122;
2021-04-21 22:33:47;5;124;124;124;124;124;124;124;124;124;124;
2021-04-21 22:33:47;ht;99;20.40
2021-04-21 22:33:47;v;4.13
2021-04-21 23:03:47;1;127;127;127;127;127;127;127;127;127;127;
2021-04-21 23:03:47;2;134;133;133;134;133;134;133;133;134;133;
2021-04-21 23:03:47;3;176;176;176;176;176;176;176;176;176;176;
2021-04-21 23:03:47;4;123;123;123;123;123;123;123;123;123;123;
2021-04-21 23:03:47;5;127;127;127;127;127;127;127;127;126;126;
2021-04-21 23:03:47;ht;99;21.10
2021-04-21 23:03:47;v;4.13
2021-04-21 23:33:51;1;127;127;127;127;127;127;127;127;127;127;
2021-04-21 23:33:51;2;124;124;124;124;124;124;124;124;124;124;
2021-04-21 23:33:51;3;177;177;177;177;177;177;177;177;177;177;
2021-04-21 23:33:51;4;123;123;124;123;123;123;123;123;123;124;
2021-04-21 23:33:51;5;122;123;123;123;122;123;123;123;122;123;
2021-04-21 23:33:51;ht;99;21.20
2021-04-21 23:33:51;v;4.13
