2021-02-07 00:03:47;1;129;130;129;129;129;130;130;129;130;129;
2021-02-07 00:03:47;2;118;118;118;118;118;118;118;118;118;118;
2021-02-07 00:03:47;3;225;225;225;225;225;225;225;225;225;225;
2021-02-07 00:03:47;4;124;124;124;124;124;124;124;124;124;124;
2021-02-07 00:03:47;5;115;115;115;114;114;115;115;115;115;115;
2021-02-07 00:03:47;ht;99;18.90
2021-02-07 00:03:47;v;4.15
2021-02-07 00:33:46;1;124;124;124;124;124;124;124;124;124;124;
2021-02-07 00:33:46;2;119;119;119;119;119;119;119;119;119;119;
2021-02-07 00:33:46;3;221;221;221;221;221;221;221;221;221;221;
2021-02-07 00:33:46;4;124;124;124;124;124;124;124;124;124;124;
2021-02-07 00:33:46;5;116;116;116;116;116;116;116;116;116;116;
2021-02-07 00:33:46;ht;99;18.40
2021-02-07 00:33:46;v;4.15
2021-02-07 01:03:48;1;120;120;120;120;120;120;120;120;120;120;
2021-02-07 01:03:48;2;117;117;117;117;117;117;117;117;117;117;
2021-02-07 01:03:48;3;219;219;219;219;219;219;219;219;219;219;
2021-02-07 01:03:48;4;124;124;124;124;124;124;125;124;124;124;
2021-02-07 01:03:48;5;112;112;112;112;112;112;112;112;112;112;
2021-02-07 01:03:48;ht;99;17.80
2021-02-07 01:03:48;v;4.15
2021-02-07 01:33:45;1;125;125;125;125;125;125;125;125;124;125;
2021-02-07 01:33:45;2;120;120;120;120;120;120;120;120;120;120;
2021-02-07 01:33:45;3;219;219;219;219;219;219;219;219;219;219;
2021-02-07 01:33:45;4;124;124;124;124;124;124;124;124;124;124;
2021-02-07 01:33:45;5;112;112;112;112;112;112;112;112;112;112;
2021-02-07 01:33:45;ht;99;17.70
2021-02-07 01:33:45;v;4.15
2021-02-07 02:03:46;1;120;119;119;119;119;119;119;119;120;119;
2021-02-07 02:03:46;2;124;124;124;124;124;124;124;124;124;124;
2021-02-07 02:03:46;3;216;216;216;216;216;216;216;216;216;216;
2021-02-07 02:03:46;4;124;124;124;124;124;124;124;124;124;124;
2021-02-07 02:03:46;5;117;117;117;117;117;117;117;117;117;117;
2021-02-07 02:03:46;ht;99;16.90
2021-02-07 02:03:46;v;4.15
2021-02-07 02:33:48;1;128;127;128;128;127;128;127;128;128;128;
2021-02-07 02:33:48;2;123;123;123;123;123;123;123;123;123;123;
2021-02-07 02:33:48;3;216;216;216;216;216;216;216;216;216;216;
2021-02-07 02:33:48;4;125;125;125;125;125;125;125;125;125;125;
2021-02-07 02:33:48;5;116;115;115;116;116;116;116;117;117;117;
2021-02-07 02:33:48;ht;99;17.20
2021-02-07 02:33:48;v;4.15
2021-02-07 03:03:44;1;120;120;120;120;120;120;120;120;120;120;
2021-02-07 03:03:44;2;124;124;124;124;124;124;124;124;124;124;
2021-02-07 03:03:44;3;213;213;213;213;213;213;213;213;213;213;
2021-02-07 03:03:44;4;125;125;125;125;125;125;125;125;125;125;
2021-02-07 03:03:44;5;121;121;121;121;121;121;121;121;121;121;
2021-02-07 03:03:44;ht;99;15.80
2021-02-07 03:03:44;v;4.15
2021-02-07 03:33:45;1;128;128;128;128;128;128;128;128;128;128;
2021-02-07 03:33:45;2;124;124;124;124;124;124;124;124;124;124;
2021-02-07 03:33:45;3;211;211;211;211;211;211;211;211;211;211;
2021-02-07 03:33:45;4;124;124;124;124;124;124;124;124;124;124;
2021-02-07 03:33:45;5;120;120;120;120;120;120;120;120;120;120;
2021-02-07 03:33:45;ht;99;16.10
2021-02-07 03:33:45;v;4.15
2021-02-07 04:03:45;1;123;123;123;123;123;123;123;123;123;123;
2021-02-07 04:03:45;2;120;120;120;120;120;120;120;120;120;120;
2021-02-07 04:03:45;3;212;212;212;212;212;212;212;212;212;212;
2021-02-07 04:03:45;4;124;124;123;124;123;123;123;123;123;123;
2021-02-07 04:03:45;5;123;123;122;123;123;123;123;123;123;123;
2021-02-07 04:03:45;ht;99;16.30
2021-02-07 04:03:45;v;4.15
2021-02-07 04:33:45;1;121;121;121;121;121;121;121;121;121;121;
2021-02-07 04:33:45;2;124;124;124;125;124;124;124;124;124;124;
2021-02-07 04:33:45;3;211;210;211;211;211;211;211;211;211;211;
2021-02-07 04:33:45;4;124;124;124;124;124;124;124;124;124;124;
2021-02-07 04:33:45;5;123;123;122;123;123;123;123;123;123;123;
2021-02-07 04:33:45;ht;99;15.90
2021-02-07 04:33:45;v;4.15
2021-02-07 05:03:46;1;127;127;127;127;127;127;127;127;127;127;
2021-02-07 05:03:46;2;119;119;120;119;119;119;119;119;120;119;
2021-02-07 05:03:46;3;210;210;210;210;210;210;210;210;210;211;
2021-02-07 05:03:46;4;123;123;123;123;123;123;123;123;123;123;
2021-02-07 05:03:46;5;118;118;118;118;119;119;119;119;118;119;
2021-02-07 05:03:46;ht;99;16.00
2021-02-07 05:03:46;v;4.14
2021-02-07 05:33:46;1;130;130;130;130;130;130;130;130;130;130;
2021-02-07 05:33:46;2;119;118;118;118;118;118;118;118;118;118;
2021-02-07 05:33:46;3;209;209;209;209;209;209;209;209;209;209;
2021-02-07 05:33:46;4;124;124;124;124;124;124;124;124;124;124;
2021-02-07 05:33:46;5;119;119;119;119;119;119;119;119;119;119;
2021-02-07 05:33:46;ht;99;15.10
2021-02-07 05:33:46;v;4.14
2021-02-07 06:03:46;1;117;117;117;117;117;118;118;118;118;118;
2021-02-07 06:03:46;2;121;122;122;122;122;122;122;122;122;122;
2021-02-07 06:03:46;3;209;209;209;209;209;209;209;209;209;209;
2021-02-07 06:03:46;4;124;124;124;124;124;124;124;124;124;125;
2021-02-07 06:03:46;5;122;122;122;122;122;122;122;121;122;122;
2021-02-07 06:03:46;ht;99;15.40
2021-02-07 06:03:46;v;4.14
2021-02-07 06:33:46;1;117;117;118;118;118;118;118;117;117;117;
2021-02-07 06:33:46;2;118;118;119;118;118;118;118;118;118;119;
2021-02-07 06:33:46;3;207;207;207;207;207;207;208;208;208;208;
2021-02-07 06:33:46;4;122;121;121;121;122;121;121;122;121;121;
2021-02-07 06:33:46;5;123;122;123;123;123;123;123;123;123;123;
2021-02-07 06:33:46;ht;99;14.70
2021-02-07 06:33:46;v;4.14
2021-02-07 07:03:46;1;117;117;117;117;117;117;117;117;117;117;
2021-02-07 07:03:46;2;121;121;121;121;121;121;121;121;121;121;
2021-02-07 07:03:46;3;212;212;212;212;212;212;212;212;212;212;
2021-02-07 07:03:46;4;123;123;123;123;123;123;123;124;123;123;
2021-02-07 07:03:46;5;123;123;123;123;123;123;124;124;124;124;
2021-02-07 07:03:46;ht;99;16.70
2021-02-07 07:03:46;v;4.14
2021-02-07 07:33:46;1;121;121;121;121;121;121;121;121;121;121;
2021-02-07 07:33:46;2;122;122;122;122;121;122;122;122;122;122;
2021-02-07 07:33:46;3;223;224;224;224;223;224;223;224;224;224;
2021-02-07 07:33:46;4;125;125;125;125;125;125;125;125;125;125;
2021-02-07 07:33:46;5;125;126;126;126;126;126;125;126;126;126;
2021-02-07 07:33:46;ht;99;19.30
2021-02-07 07:33:46;v;4.14
2021-02-07 08:03:48;1;117;117;117;117;117;117;117;117;117;118;
2021-02-07 08:03:48;2;119;119;119;119;119;119;119;119;119;119;
2021-02-07 08:03:48;3;236;237;237;237;237;237;236;237;237;236;
2021-02-07 08:03:48;4;122;122;122;122;122;122;122;122;122;122;
2021-02-07 08:03:48;5;122;122;122;122;122;122;122;122;122;122;
2021-02-07 08:03:48;ht;99;21.90
2021-02-07 08:03:48;v;4.15
2021-02-07 08:33:47;1;135;135;135;135;135;135;135;135;135;135;
2021-02-07 08:33:47;2;122;123;123;122;123;123;123;123;122;123;
2021-02-07 08:33:47;3;242;242;242;242;242;242;242;242;243;242;
2021-02-07 08:33:47;4;123;123;134;124;124;123;123;123;123;123;
2021-02-07 08:33:47;5;123;123;123;123;123;123;123;123;123;123;
2021-02-07 08:33:47;ht;99;23.30
2021-02-07 08:33:47;v;4.15
2021-02-07 09:03:48;1;116;116;116;116;116;116;116;116;116;116;
2021-02-07 09:03:48;2;119;119;119;119;119;119;119;119;119;119;
2021-02-07 09:03:48;3;244;244;244;244;244;244;244;244;244;244;
2021-02-07 09:03:48;4;123;123;123;123;123;123;123;123;123;123;
2021-02-07 09:03:48;5;125;125;125;125;125;125;125;125;125;125;
2021-02-07 09:03:48;ht;99;25.50
2021-02-07 09:03:48;v;4.15
2021-02-07 09:33:50;1;116;116;116;116;116;115;116;116;116;116;
2021-02-07 09:33:50;2;122;122;122;122;122;122;122;122;122;122;
2021-02-07 09:33:50;3;244;244;244;244;244;244;244;244;244;244;
2021-02-07 09:33:50;4;121;121;121;121;121;121;121;121;121;121;
2021-02-07 09:33:50;5;124;125;124;124;125;125;125;125;125;124;
2021-02-07 09:33:50;ht;99;25.60
2021-02-07 09:33:50;v;4.15
2021-02-07 10:03:54;1;122;122;122;121;122;122;122;121;122;122;
2021-02-07 10:03:54;2;119;119;119;120;120;120;120;120;119;120;
2021-02-07 10:03:54;3;246;247;246;247;247;247;247;247;247;247;
2021-02-07 10:03:54;4;122;122;122;122;122;123;122;122;122;122;
2021-02-07 10:03:54;5;122;122;122;122;122;122;122;122;122;122;
2021-02-07 10:03:54;ht;99;27.00
2021-02-07 10:03:54;v;4.15
2021-02-07 10:33:55;1;118;117;118;117;117;118;118;118;118;118;
2021-02-07 10:33:55;2;118;118;118;118;118;119;118;119;118;118;
2021-02-07 10:33:55;3;249;249;249;249;249;250;249;249;249;249;
2021-02-07 10:33:55;4;121;121;121;121;121;121;121;121;121;121;
2021-02-07 10:33:55;5;123;123;123;123;123;123;123;123;123;123;
2021-02-07 10:33:55;ht;97;28.70
2021-02-07 10:33:55;v;4.15
2021-02-07 11:03:57;1;120;119;120;120;120;120;120;119;120;120;
2021-02-07 11:03:57;2;123;123;123;123;123;123;123;123;123;123;
2021-02-07 11:03:57;3;251;251;251;251;251;251;251;251;251;251;
2021-02-07 11:03:57;4;121;121;122;121;121;122;121;121;121;121;
2021-02-07 11:03:57;5;122;122;122;122;122;122;122;122;122;122;
2021-02-07 11:03:57;ht;95;28.90
2021-02-07 11:03:57;v;4.16
2021-02-07 11:33:55;1;118;117;118;117;117;118;117;118;118;117;
2021-02-07 11:33:55;2;116;116;115;116;116;116;116;116;116;116;
2021-02-07 11:33:55;3;252;252;252;252;252;252;252;252;252;252;
2021-02-07 11:33:55;4;120;120;120;120;120;120;120;120;120;120;
2021-02-07 11:33:55;5;123;123;123;123;123;123;122;122;123;123;
2021-02-07 11:33:55;ht;90;29.80
2021-02-07 11:33:55;v;4.15
2021-02-07 12:03:58;1;120;119;120;119;119;119;120;120;120;120;
2021-02-07 12:03:58;2;127;127;127;127;127;127;127;127;132;129;
2021-02-07 12:03:58;3;254;253;253;253;253;253;253;253;253;253;
2021-02-07 12:03:58;4;121;121;121;121;121;121;121;121;121;121;
2021-02-07 12:03:58;5;122;122;122;122;122;122;122;122;122;122;
2021-02-07 12:03:58;ht;94;29.20
2021-02-07 12:03:58;v;4.16
2021-02-07 12:33:57;1;122;122;122;122;122;122;122;122;122;122;
2021-02-07 12:33:57;2;118;118;118;118;118;118;118;118;118;118;
2021-02-07 12:33:57;3;254;254;255;255;254;255;254;254;255;255;
2021-02-07 12:33:57;4;123;123;123;123;123;123;123;123;123;123;
2021-02-07 12:33:57;5;122;122;122;122;122;122;122;122;122;122;
2021-02-07 12:33:57;ht;90;29.90
2021-02-07 12:33:57;v;4.16
2021-02-07 13:03:57;1;122;122;122;122;122;122;122;122;122;122;
2021-02-07 13:03:57;2;128;128;128;128;128;128;128;128;128;128;
2021-02-07 13:03:57;3;254;254;254;255;255;254;254;254;255;255;
2021-02-07 13:03:57;4;122;122;122;122;122;122;122;122;122;122;
2021-02-07 13:03:57;5;123;123;123;123;123;123;123;123;122;123;
2021-02-07 13:03:57;ht;91;30.60
2021-02-07 13:03:57;v;4.16
2021-02-07 13:33:58;1;122;122;122;121;122;122;122;122;121;122;
2021-02-07 13:33:58;2;117;117;117;117;117;117;117;117;117;117;
2021-02-07 13:33:58;3;255;256;256;256;256;256;256;256;256;256;
2021-02-07 13:33:58;4;122;122;121;122;122;121;121;121;121;121;
2021-02-07 13:33:58;5;119;119;118;119;118;118;118;118;119;118;
2021-02-07 13:33:58;ht;78;31.10
2021-02-07 13:33:58;v;4.16
2021-02-07 14:03:58;1;115;116;116;115;115;115;116;115;115;115;
2021-02-07 14:03:58;2;116;116;116;116;116;116;116;116;116;122;
2021-02-07 14:03:58;3;257;257;257;257;257;257;257;257;257;257;
2021-02-07 14:03:58;4;122;122;122;122;122;122;122;122;122;122;
2021-02-07 14:03:58;5;118;118;118;118;118;118;118;118;118;118;
2021-02-07 14:03:58;ht;88;31.40
2021-02-07 14:03:58;v;4.16
2021-02-07 14:34:00;1;126;126;126;125;126;125;125;126;126;126;
2021-02-07 14:34:00;2;119;118;119;119;119;119;119;119;118;119;
2021-02-07 14:34:00;3;259;259;259;259;259;259;259;259;259;259;
2021-02-07 14:34:00;4;121;121;121;122;122;122;122;121;122;122;
2021-02-07 14:34:00;5;121;121;121;121;121;121;121;121;121;121;
2021-02-07 14:34:00;ht;80;31.90
2021-02-07 14:34:00;v;4.16
2021-02-07 15:03:57;1;117;118;117;118;118;117;118;118;118;117;
2021-02-07 15:03:57;2;118;118;118;118;118;118;118;118;118;118;
2021-02-07 15:03:57;3;260;260;260;260;260;260;260;260;260;260;
2021-02-07 15:03:57;4;121;121;121;121;121;121;121;121;121;121;
2021-02-07 15:03:57;5;122;122;121;122;122;122;122;121;121;121;
2021-02-07 15:03:57;ht;81;30.90
2021-02-07 15:03:57;v;4.16
2021-02-07 15:34:00;1;127;127;126;127;127;126;127;126;126;126;
2021-02-07 15:34:00;2;124;124;124;124;124;124;124;124;124;124;
2021-02-07 15:34:00;3;262;262;262;262;262;262;262;262;262;262;
2021-02-07 15:34:00;4;122;122;122;122;122;122;122;122;122;122;
2021-02-07 15:34:00;5;121;121;121;121;121;121;121;121;121;121;
2021-02-07 15:34:00;ht;77;32.30
2021-02-07 15:34:00;v;4.16
2021-02-07 16:03:58;1;120;120;120;120;120;120;120;120;120;120;
2021-02-07 16:03:58;2;115;114;115;115;115;115;115;115;115;123;
2021-02-07 16:03:58;3;262;262;262;262;262;262;262;262;262;262;
2021-02-07 16:03:58;4;121;121;121;121;121;121;121;121;121;121;
2021-02-07 16:03:58;5;119;119;119;119;119;119;119;119;119;119;
2021-02-07 16:03:58;ht;68;32.40
2021-02-07 16:03:58;v;4.16
2021-02-07 16:34:01;1;117;116;117;116;116;117;116;116;116;116;
2021-02-07 16:34:01;2;116;116;117;117;116;117;116;117;116;117;
2021-02-07 16:34:01;3;263;263;263;263;263;263;263;263;263;263;
2021-02-07 16:34:01;4;122;122;122;122;122;122;122;122;122;122;
2021-02-07 16:34:01;5;117;117;117;117;117;117;117;117;117;117;
2021-02-07 16:34:01;ht;79;32.40
2021-02-07 16:34:01;v;4.16
2021-02-07 17:03:59;1;132;132;132;132;132;132;132;132;132;132;
2021-02-07 17:03:59;2;130;130;130;130;130;130;130;130;130;131;
2021-02-07 17:03:59;3;265;265;265;265;265;265;265;265;265;265;
2021-02-07 17:03:59;4;122;122;122;123;123;123;123;122;122;122;
2021-02-07 17:03:59;5;118;119;118;118;118;118;118;118;118;118;
2021-02-07 17:03:59;ht;70;32.10
2021-02-07 17:03:59;v;4.17
2021-02-07 17:34:01;1;133;133;133;133;133;133;133;133;133;133;
2021-02-07 17:34:01;2;127;128;128;127;128;127;127;127;127;127;
2021-02-07 17:34:01;3;265;265;265;265;265;265;265;265;265;265;
2021-02-07 17:34:01;4;121;121;121;121;121;121;121;121;121;121;
2021-02-07 17:34:01;5;121;121;121;121;120;121;121;121;121;120;
2021-02-07 17:34:01;ht;79;32.30
2021-02-07 17:34:01;v;4.16
2021-02-07 18:03:59;1;125;124;125;125;125;125;125;125;125;125;
2021-02-07 18:03:59;2;129;129;129;129;129;129;129;129;130;130;
2021-02-07 18:03:59;3;266;266;266;266;266;265;266;266;266;266;
2021-02-07 18:03:59;4;121;121;121;121;121;121;121;121;121;121;
2021-02-07 18:03:59;5;117;117;117;117;117;117;116;117;117;116;
2021-02-07 18:03:59;ht;71;34.00
2021-02-07 18:03:59;v;4.17
2021-02-07 18:34:01;1;124;124;124;124;124;123;124;124;124;124;
2021-02-07 18:34:01;2;124;124;123;124;124;123;124;124;124;124;
2021-02-07 18:34:01;3;263;264;263;263;264;263;264;264;264;264;
2021-02-07 18:34:01;4;121;121;121;121;121;121;121;121;121;121;
2021-02-07 18:34:01;5;119;119;119;119;119;119;119;119;119;119;
2021-02-07 18:34:01;ht;90;29.80
2021-02-07 18:34:01;v;4.16
2021-02-07 19:03:57;1;123;123;123;123;123;123;123;123;123;123;
2021-02-07 19:03:57;2;126;126;126;126;126;126;126;125;126;126;
2021-02-07 19:03:57;3;259;259;259;259;259;259;259;260;259;259;
2021-02-07 19:03:57;4;121;121;121;121;121;121;121;121;121;121;
2021-02-07 19:03:57;5;125;125;125;125;125;125;125;125;125;124;
2021-02-07 19:03:57;ht;91;29.00
2021-02-07 19:03:57;v;4.17
2021-02-07 19:33:56;1;123;123;123;122;122;123;122;123;123;123;
2021-02-07 19:33:56;2;121;121;121;121;121;121;120;121;121;121;
2021-02-07 19:33:56;3;253;253;253;254;253;253;254;253;254;254;
2021-02-07 19:33:56;4;122;122;122;122;122;122;122;122;122;122;
2021-02-07 19:33:56;5;118;118;118;118;119;119;119;119;119;119;
2021-02-07 19:33:56;ht;92;27.40
2021-02-07 19:33:56;v;4.16
2021-02-07 20:03:52;1;116;116;116;117;117;116;116;116;116;117;
2021-02-07 20:03:52;2;122;122;122;122;122;122;122;122;122;122;
2021-02-07 20:03:52;3;240;240;240;240;240;240;240;240;240;240;
2021-02-07 20:03:52;4;126;126;126;126;126;126;126;126;126;126;
2021-02-07 20:03:52;5;119;120;120;120;120;120;120;120;120;119;
2021-02-07 20:03:52;ht;95;25.60
2021-02-07 20:03:52;v;4.16
2021-02-07 20:33:51;1;116;116;117;117;116;116;117;116;117;117;
2021-02-07 20:33:51;2;120;119;119;120;120;120;120;119;119;119;
2021-02-07 20:33:51;3;231;230;230;230;231;230;230;231;231;231;
2021-02-07 20:33:51;4;127;127;127;127;127;127;127;127;127;127;
2021-02-07 20:33:51;5;116;116;116;116;116;116;116;116;116;116;
2021-02-07 20:33:51;ht;98;23.90
2021-02-07 20:33:51;v;4.16
2021-02-07 21:03:53;1;116;115;115;115;115;115;116;116;115;116;
2021-02-07 21:03:53;2;120;119;119;119;119;119;120;120;120;119;
2021-02-07 21:03:53;3;227;227;226;227;228;227;227;227;227;227;
2021-02-07 21:03:53;4;137;137;136;136;137;137;136;137;136;136;
2021-02-07 21:03:53;5;111;111;111;112;111;111;111;111;111;112;
2021-02-07 21:03:53;ht;99;23.20
2021-02-07 21:03:53;v;4.16
2021-02-07 21:33:49;1;128;128;128;128;128;128;128;128;128;128;
2021-02-07 21:33:49;2;122;122;122;122;122;122;122;122;122;122;
2021-02-07 21:33:49;3;224;224;225;225;224;224;224;224;225;224;
2021-02-07 21:33:49;4;124;124;124;124;124;124;124;124;124;124;
2021-02-07 21:33:49;5;119;119;119;119;119;119;119;119;119;119;
2021-02-07 21:33:49;ht;99;22.20
2021-02-07 21:33:49;v;4.16
2021-02-07 22:03:50;1;125;125;125;125;125;125;133;127;126;125;
2021-02-07 22:03:50;2;122;122;122;122;122;122;122;122;122;122;
2021-02-07 22:03:50;3;224;224;224;224;224;223;224;224;224;224;
2021-02-07 22:03:50;4;123;123;123;123;123;123;123;123;123;123;
2021-02-07 22:03:50;5;123;123;123;123;123;123;123;123;123;123;
2021-02-07 22:03:50;ht;99;22.30
2021-02-07 22:03:50;v;4.16
2021-02-07 22:33:50;1;123;123;123;123;123;123;123;123;123;123;
2021-02-07 22:33:50;2;118;118;118;118;118;118;118;118;118;118;
2021-02-07 22:33:50;3;221;221;221;221;221;221;221;221;221;221;
2021-02-07 22:33:50;4;123;123;123;123;123;123;123;123;123;123;
2021-02-07 22:33:50;5;1;1;2;2;2;2;2;2;2;2;
2021-02-07 22:33:50;ht;99;20.70
2021-02-07 22:33:50;v;4.16
2021-02-07 23:03:49;1;118;119;118;118;118;119;119;119;119;119;
2021-02-07 23:03:49;2;128;121;120;120;120;120;120;120;120;120;
2021-02-07 23:03:49;3;218;218;218;218;218;218;218;218;218;218;
2021-02-07 23:03:49;4;124;124;124;124;124;124;124;124;124;124;
2021-02-07 23:03:49;5;121;120;121;120;120;121;121;121;121;121;
2021-02-07 23:03:49;ht;99;20.30
2021-02-07 23:03:49;v;4.15
2021-02-07 23:33:48;1;120;120;120;120;120;120;120;120;120;120;
2021-02-07 23:33:48;2;121;121;121;121;121;121;121;121;121;121;
2021-02-07 23:33:48;3;218;218;218;218;218;218;218;218;218;218;
2021-02-07 23:33:48;4;123;123;123;123;123;123;123;123;123;123;
2021-02-07 23:33:48;5;125;125;125;125;125;126;126;125;125;126;
2021-02-07 23:33:48;ht;99;20.10
2021-02-07 23:33:48;v;4.16
