2021-11-22 00:03:49;1;119;119;119;119;119;119;119;119;119;119;
2021-11-22 00:03:49;2;101;101;101;101;101;101;101;101;101;101;
2021-11-22 00:03:49;3;29;29;29;29;29;29;29;29;29;29;
2021-11-22 00:03:49;4;117;117;117;117;117;117;117;117;117;117;
2021-11-22 00:03:49;5;116;116;116;116;116;116;116;116;116;116;
2021-11-22 00:03:49;ht;99;18.60
2021-11-22 00:03:49;v;4.16
2021-11-22 00:33:47;1;116;116;116;116;116;116;116;116;116;116;
2021-11-22 00:33:47;2;133;133;133;133;133;133;133;133;133;133;
2021-11-22 00:33:47;3;25;25;25;25;25;25;25;25;25;25;
2021-11-22 00:33:47;4;122;121;121;122;122;122;121;121;122;121;
2021-11-22 00:33:47;5;114;114;114;114;114;114;114;114;114;114;
2021-11-22 00:33:47;ht;99;19.40
2021-11-22 00:33:47;v;4.16
2021-11-22 01:03:45;1;119;119;119;119;119;119;119;119;119;119;
2021-11-22 01:03:45;2;137;137;137;137;137;137;137;137;137;137;
2021-11-22 01:03:45;3;32;32;32;32;32;32;32;32;32;32;
2021-11-22 01:03:45;4;116;116;116;116;115;116;116;116;116;116;
2021-11-22 01:03:45;5;118;118;118;118;117;118;118;118;118;118;
2021-11-22 01:03:45;ht;99;18.00
2021-11-22 01:03:45;v;4.16
2021-11-22 01:33:48;1;119;119;119;119;119;119;119;119;119;119;
2021-11-22 01:33:48;2;113;113;113;113;113;113;113;113;113;113;
2021-11-22 01:33:48;3;25;25;25;25;25;25;25;25;25;25;
2021-11-22 01:33:48;4;2;2;2;2;2;2;2;2;1;2;
2021-11-22 01:33:48;5;114;114;115;114;114;115;115;115;114;115;
2021-11-22 01:33:48;ht;99;19.20
2021-11-22 01:33:48;v;4.16
2021-11-22 02:03:46;1;120;120;121;120;120;120;120;120;121;120;
2021-11-22 02:03:46;2;101;101;102;102;102;102;102;103;103;103;
2021-11-22 02:03:46;3;32;32;32;32;32;32;32;32;32;32;
2021-11-22 02:03:46;4;120;120;120;120;120;120;120;120;120;120;
2021-11-22 02:03:46;5;109;109;109;110;109;109;109;109;109;109;
2021-11-22 02:03:46;ht;99;17.90
2021-11-22 02:03:46;v;4.16
2021-11-22 02:33:49;1;120;120;120;120;120;120;120;120;120;120;
2021-11-22 02:33:49;2;116;116;116;116;116;116;116;116;116;117;
2021-11-22 02:33:49;3;32;32;32;32;32;32;32;32;32;32;
2021-11-22 02:33:49;4;117;117;117;117;117;117;117;117;117;117;
2021-11-22 02:33:49;5;113;113;114;113;113;114;114;113;114;114;
2021-11-22 02:33:49;ht;99;17.00
2021-11-22 02:33:49;v;4.16
2021-11-22 03:03:46;1;130;130;130;130;130;130;130;130;130;130;
2021-11-22 03:03:46;2;118;118;118;118;118;118;118;118;118;118;
2021-11-22 03:03:46;3;32;32;32;32;32;32;32;32;32;32;
2021-11-22 03:03:46;4;110;111;110;110;110;111;111;110;110;111;
2021-11-22 03:03:46;5;129;129;129;129;129;129;129;129;129;129;
2021-11-22 03:03:46;ht;99;16.30
2021-11-22 03:03:46;v;4.16
2021-11-22 03:33:47;1;126;126;126;126;126;126;126;126;126;126;
2021-11-22 03:33:47;2;96;96;96;96;96;96;96;96;96;96;
2021-11-22 03:33:47;3;32;32;32;32;32;32;32;32;32;32;
2021-11-22 03:33:47;4;119;119;118;119;119;119;119;119;119;119;
2021-11-22 03:33:47;5;119;120;120;119;119;119;119;119;119;119;
2021-11-22 03:33:47;ht;99;15.20
2021-11-22 03:33:47;v;4.15
2021-11-22 04:03:43;1;132;132;132;132;132;132;132;132;132;132;
2021-11-22 04:03:43;2;90;90;90;90;90;90;91;90;91;90;
2021-11-22 04:03:43;3;32;32;32;32;32;32;32;32;32;32;
2021-11-22 04:03:43;4;121;121;121;121;121;121;121;121;121;121;
2021-11-22 04:03:43;5;118;118;118;118;118;118;118;118;118;118;
2021-11-22 04:03:43;ht;99;15.90
2021-11-22 04:03:43;v;4.15
2021-11-22 04:33:44;1;121;121;121;121;121;121;121;121;121;121;
2021-11-22 04:33:44;2;100;100;100;100;100;100;100;100;100;100;
2021-11-22 04:33:44;3;32;32;32;32;32;32;32;32;32;32;
2021-11-22 04:33:44;4;90;90;90;90;90;90;90;90;90;90;
2021-11-22 04:33:44;5;2;2;1;2;2;2;2;2;2;2;
2021-11-22 04:33:44;ht;99;13.70
2021-11-22 04:33:44;v;4.15
2021-11-22 05:03:44;1;132;132;132;132;132;132;132;132;132;132;
2021-11-22 05:03:44;2;126;126;126;126;126;125;125;125;126;126;
2021-11-22 05:03:44;3;30;30;30;30;30;30;30;30;30;30;
2021-11-22 05:03:44;4;113;113;114;114;114;113;114;114;114;114;
2021-11-22 05:03:44;5;121;121;122;121;122;122;122;121;122;122;
2021-11-22 05:03:44;ht;99;14.30
2021-11-22 05:03:44;v;4.15
2021-11-22 05:33:43;1;106;106;106;106;106;106;106;106;106;106;
2021-11-22 05:33:43;2;127;127;127;127;126;127;126;127;126;127;
2021-11-22 05:33:43;3;32;32;32;32;32;32;32;32;32;32;
2021-11-22 05:33:43;4;117;117;117;117;117;117;117;117;117;117;
2021-11-22 05:33:43;5;113;113;113;112;113;113;113;113;113;113;
2021-11-22 05:33:43;ht;99;13.90
2021-11-22 05:33:43;v;4.15
2021-11-22 06:03:43;1;131;131;131;131;131;131;131;131;131;131;
2021-11-22 06:03:43;2;26;26;26;26;26;26;26;26;26;26;
2021-11-22 06:03:43;3;32;32;32;32;32;32;32;32;32;32;
2021-11-22 06:03:43;4;121;121;121;121;121;121;121;121;121;121;
2021-11-22 06:03:43;5;99;99;99;98;98;99;99;99;98;99;
2021-11-22 06:03:43;ht;99;14.10
2021-11-22 06:03:43;v;4.15
2021-11-22 06:33:47;1;104;103;103;104;103;104;104;103;103;103;
2021-11-22 06:33:47;2;92;92;92;92;92;92;92;92;92;92;
2021-11-22 06:33:47;3;28;28;28;28;28;28;28;28;28;28;
2021-11-22 06:33:47;4;2;2;2;2;2;1;2;2;2;1;
2021-11-22 06:33:47;5;115;115;115;114;115;114;115;115;115;115;
2021-11-22 06:33:47;ht;99;17.10
2021-11-22 06:33:47;v;4.15
2021-11-22 07:03:49;1;118;118;118;118;118;118;118;119;118;119;
2021-11-22 07:03:49;2;95;95;95;95;95;95;95;95;95;95;
2021-11-22 07:03:49;3;35;35;35;35;35;35;35;35;35;35;
2021-11-22 07:03:49;4;2;2;2;2;2;2;2;2;2;2;
2021-11-22 07:03:49;5;102;102;102;102;102;102;102;102;102;102;
2021-11-22 07:03:49;ht;99;20.20
2021-11-22 07:03:49;v;4.15
2021-11-22 07:33:48;1;117;117;117;117;117;117;117;117;117;117;
2021-11-22 07:33:48;2;142;142;143;142;142;142;142;142;142;142;
2021-11-22 07:33:48;3;34;34;34;34;34;34;34;34;34;34;
2021-11-22 07:33:48;4;108;108;108;108;109;109;109;109;109;109;
2021-11-22 07:33:48;5;97;97;97;98;98;97;97;98;97;97;
2021-11-22 07:33:48;ht;99;24.50
2021-11-22 07:33:48;v;4.15
2021-11-22 08:03:51;1;121;121;121;121;121;121;121;121;120;121;
2021-11-22 08:03:51;2;127;127;127;127;127;127;127;127;127;127;
2021-11-22 08:03:51;3;32;32;32;32;32;32;32;32;32;32;
2021-11-22 08:03:51;4;2;2;2;2;2;2;2;1;2;2;
2021-11-22 08:03:51;5;106;106;106;106;106;106;106;106;106;106;
2021-11-22 08:03:51;ht;99;25.00
2021-11-22 08:03:51;v;4.15
2021-11-22 08:33:52;1;130;130;130;130;130;130;130;130;130;130;
2021-11-22 08:33:52;2;97;97;97;97;97;97;97;97;97;97;
2021-11-22 08:33:52;3;2;2;2;2;2;2;2;2;2;2;
2021-11-22 08:33:52;4;111;111;111;111;111;111;111;111;111;111;
2021-11-22 08:33:52;5;108;108;108;108;108;108;108;108;108;108;
2021-11-22 08:33:52;ht;99;26.70
2021-11-22 08:33:52;v;4.16
2021-11-22 09:03:54;1;122;122;122;122;122;122;122;122;122;122;
2021-11-22 09:03:54;2;98;98;98;98;98;98;98;98;98;98;
2021-11-22 09:03:54;3;110;110;109;109;109;109;109;109;109;109;
2021-11-22 09:03:54;4;122;122;122;122;122;122;122;122;122;122;
2021-11-22 09:03:54;5;121;121;121;121;121;121;121;121;121;121;
2021-11-22 09:03:54;ht;99;28.80
2021-11-22 09:03:54;v;4.16
2021-11-22 09:33:59;1;105;105;105;105;105;105;105;105;105;105;
2021-11-22 09:33:59;2;101;101;100;100;100;100;100;100;100;100;
2021-11-22 09:33:59;3;100;99;99;99;99;99;99;100;99;99;
2021-11-22 09:33:59;4;110;110;110;110;110;110;110;110;109;110;
2021-11-22 09:33:59;5;115;115;116;116;116;116;116;115;116;115;
2021-11-22 09:33:59;ht;98;29.20
2021-11-22 09:33:59;v;4.16
2021-11-22 10:04:00;1;132;132;132;132;132;132;132;132;132;132;
2021-11-22 10:04:00;2;105;105;105;105;105;105;105;105;105;105;
2021-11-22 10:04:00;3;105;104;104;104;105;104;104;104;104;104;
2021-11-22 10:04:00;4;115;115;115;115;115;115;115;115;115;115;
2021-11-22 10:04:00;5;2;1;1;1;1;1;1;1;1;1;
2021-11-22 10:04:00;ht;97;29.80
2021-11-22 10:04:00;v;4.16
2021-11-22 10:33:57;1;136;136;136;136;136;135;136;136;135;135;
2021-11-22 10:33:57;2;131;131;131;133;133;133;134;134;135;134;
2021-11-22 10:33:57;3;120;120;120;120;120;120;120;120;120;120;
2021-11-22 10:33:57;4;112;112;112;112;112;112;112;112;112;112;
2021-11-22 10:33:57;5;118;118;118;118;118;118;118;118;118;118;
2021-11-22 10:33:57;ht;94;30.80
2021-11-22 10:33:57;v;4.16
2021-11-22 11:03:59;1;105;105;104;105;105;105;105;105;104;105;
2021-11-22 11:03:59;2;96;96;96;96;96;96;96;96;96;96;
2021-11-22 11:03:59;3;1;1;1;1;1;1;1;1;1;1;
2021-11-22 11:03:59;4;1;2;2;1;1;1;1;2;1;1;
2021-11-22 11:03:59;5;109;109;109;109;109;109;109;109;109;109;
2021-11-22 11:03:59;ht;93;31.60
2021-11-22 11:03:59;v;4.16
2021-11-22 11:33:58;1;128;128;128;128;128;128;128;128;128;128;
2021-11-22 11:33:58;2;93;93;93;93;93;93;93;93;93;93;
2021-11-22 11:33:58;3;127;127;127;127;127;127;127;127;127;127;
2021-11-22 11:33:58;4;106;107;106;106;106;106;106;106;106;107;
2021-11-22 11:33:58;5;116;115;116;116;115;115;115;115;115;116;
2021-11-22 11:33:58;ht;93;32.90
2021-11-22 11:33:58;v;4.16
2021-11-22 12:04:02;1;118;118;118;118;118;118;118;118;118;118;
2021-11-22 12:04:02;2;58;58;58;58;58;58;58;58;58;58;
2021-11-22 12:04:02;3;124;124;124;124;124;124;124;124;124;124;
2021-11-22 12:04:02;4;106;106;106;106;106;106;106;106;106;106;
2021-11-22 12:04:02;5;104;104;104;104;104;104;104;104;104;104;
2021-11-22 12:04:02;ht;86;32.80
2021-11-22 12:04:02;v;4.16
2021-11-22 12:34:02;1;28;28;28;28;28;28;28;28;28;28;
2021-11-22 12:34:02;2;101;101;101;101;101;101;101;101;101;101;
2021-11-22 12:34:02;3;102;102;102;102;103;102;102;102;102;102;
2021-11-22 12:34:02;4;84;85;84;84;84;85;84;84;85;84;
2021-11-22 12:34:02;5;2;1;2;2;1;2;1;2;1;1;
2021-11-22 12:34:02;ht;86;33.60
2021-11-22 12:34:02;v;4.16
2021-11-22 13:04:03;1;135;135;135;135;135;135;135;135;135;135;
2021-11-22 13:04:03;2;93;93;93;93;93;93;93;93;93;93;
2021-11-22 13:04:03;3;112;112;112;112;112;112;112;112;112;112;
2021-11-22 13:04:03;4;105;105;104;104;104;104;104;104;104;104;
2021-11-22 13:04:03;5;1;1;1;1;1;1;1;1;1;1;
2021-11-22 13:04:03;ht;73;34.30
2021-11-22 13:04:03;v;4.16
2021-11-22 13:34:04;1;121;121;121;121;121;121;121;121;121;121;
2021-11-22 13:34:04;2;55;55;55;55;55;55;55;55;55;55;
2021-11-22 13:34:04;3;98;98;98;98;98;98;98;98;98;98;
2021-11-22 13:34:04;4;117;117;117;116;117;117;117;116;117;116;
2021-11-22 13:34:04;5;1;1;1;1;1;1;1;1;1;1;
2021-11-22 13:34:04;ht;73;35.40
2021-11-22 13:34:04;v;4.16
2021-11-22 14:04:01;1;124;124;124;124;124;124;124;123;123;124;
2021-11-22 14:04:01;2;100;100;100;100;100;100;100;100;100;100;
2021-11-22 14:04:01;3;1;1;1;1;1;1;1;1;1;1;
2021-11-22 14:04:01;4;109;109;109;109;109;109;109;109;109;109;
2021-11-22 14:04:01;5;2;2;2;2;2;2;2;2;2;2;
2021-11-22 14:04:01;ht;72;35.30
2021-11-22 14:04:01;v;4.17
2021-11-22 14:34:03;1;131;131;131;131;131;131;131;131;131;131;
2021-11-22 14:34:03;2;100;100;100;100;100;100;100;100;100;100;
2021-11-22 14:34:03;3;111;112;111;112;112;111;111;112;112;111;
2021-11-22 14:34:03;4;1;1;1;1;1;2;1;1;1;2;
2021-11-22 14:34:03;5;112;112;112;112;112;112;113;113;112;113;
2021-11-22 14:34:03;ht;74;35.30
2021-11-22 14:34:03;v;4.17
2021-11-22 15:04:00;1;109;109;109;109;109;109;109;109;109;109;
2021-11-22 15:04:00;2;94;94;95;94;94;94;95;94;94;95;
2021-11-22 15:04:00;3;122;122;122;123;122;123;122;123;122;123;
2021-11-22 15:04:00;4;1;1;1;2;1;1;2;1;1;1;
2021-11-22 15:04:00;5;1;1;1;1;1;1;1;1;1;1;
2021-11-22 15:04:00;ht;77;34.90
2021-11-22 15:04:00;v;4.17
2021-11-22 15:34:02;1;124;124;124;124;124;124;124;124;124;124;
2021-11-22 15:34:02;2;54;54;54;54;54;54;54;54;54;54;
2021-11-22 15:34:02;3;118;118;118;118;118;117;118;118;118;118;
2021-11-22 15:34:02;4;107;107;107;107;107;107;107;107;107;107;
2021-11-22 15:34:02;5;2;1;2;1;2;2;1;2;2;1;
2021-11-22 15:34:02;ht;72;35.50
2021-11-22 15:34:02;v;4.17
2021-11-22 16:04:04;1;111;111;111;111;111;111;111;111;111;111;
2021-11-22 16:04:04;2;49;49;49;49;49;49;49;49;49;49;
2021-11-22 16:04:04;3;115;114;114;115;114;115;114;115;114;114;
2021-11-22 16:04:04;4;118;118;118;118;118;118;118;118;118;118;
2021-11-22 16:04:04;5;119;119;119;120;119;119;119;119;119;119;
2021-11-22 16:04:04;ht;74;32.90
2021-11-22 16:04:04;v;4.17
2021-11-22 16:34:00;1;135;135;135;135;135;135;135;135;135;135;
2021-11-22 16:34:00;2;97;97;97;97;97;97;97;97;97;97;
2021-11-22 16:34:00;3;135;135;135;135;135;135;135;135;135;135;
2021-11-22 16:34:00;4;1;1;1;2;2;1;1;1;1;1;
2021-11-22 16:34:00;5;111;111;111;111;111;112;111;111;111;111;
2021-11-22 16:34:00;ht;78;35.10
2021-11-22 16:34:00;v;4.17
2021-11-22 17:04:01;1;118;118;118;118;118;118;118;118;118;118;
2021-11-22 17:04:01;2;135;135;135;135;135;135;135;136;137;137;
2021-11-22 17:04:01;3;102;102;102;102;102;102;101;102;102;102;
2021-11-22 17:04:01;4;106;106;106;106;106;106;106;106;106;106;
2021-11-22 17:04:01;5;109;109;109;109;109;109;109;109;109;109;
2021-11-22 17:04:01;ht;71;35.50
2021-11-22 17:04:01;v;4.17
2021-11-22 17:34:02;1;115;115;115;115;115;115;115;115;115;115;
2021-11-22 17:34:02;2;51;51;51;51;51;51;51;51;51;51;
2021-11-22 17:34:02;3;110;110;110;111;110;110;111;110;111;110;
2021-11-22 17:34:02;4;105;106;105;105;105;105;106;105;106;105;
2021-11-22 17:34:02;5;2;2;2;2;2;2;2;2;2;2;
2021-11-22 17:34:02;ht;73;35.30
2021-11-22 17:34:02;v;4.17
2021-11-22 18:04:02;1;115;115;115;115;115;115;115;115;115;115;
2021-11-22 18:04:02;2;102;103;102;102;102;102;102;102;102;102;
2021-11-22 18:04:02;3;134;134;134;134;134;134;134;134;135;135;
2021-11-22 18:04:02;4;119;119;119;119;119;119;119;119;119;119;
2021-11-22 18:04:02;5;1;1;1;1;1;1;1;1;1;1;
2021-11-22 18:04:02;ht;71;34.80
2021-11-22 18:04:02;v;4.17
2021-11-22 18:34:01;1;116;116;116;116;116;116;116;116;116;116;
2021-11-22 18:34:01;2;114;114;114;114;114;114;114;114;114;114;
2021-11-22 18:34:01;3;109;109;109;109;109;109;108;109;109;109;
2021-11-22 18:34:01;4;113;113;113;113;113;113;113;113;113;113;
2021-11-22 18:34:01;5;2;2;2;2;2;2;2;2;2;2;
2021-11-22 18:34:01;ht;60;36.90
2021-11-22 18:34:01;v;4.17
2021-11-22 19:04:00;1;114;114;115;114;115;114;115;114;114;114;
2021-11-22 19:04:00;2;86;86;86;86;86;86;86;86;86;86;
2021-11-22 19:04:00;3;1;1;1;1;1;1;1;1;1;1;
2021-11-22 19:04:00;4;113;113;113;113;113;113;113;113;113;113;
2021-11-22 19:04:00;5;105;105;105;105;105;105;105;105;105;105;
2021-11-22 19:04:00;ht;70;32.40
2021-11-22 19:04:00;v;4.17
2021-11-22 19:33:57;1;129;129;129;129;129;129;128;129;129;129;
2021-11-22 19:33:57;2;32;32;32;32;32;32;32;32;32;32;
2021-11-22 19:33:57;3;35;35;35;35;35;35;35;35;35;35;
2021-11-22 19:33:57;4;109;109;110;110;109;109;110;110;109;109;
2021-11-22 19:33:57;5;107;107;107;107;107;107;107;107;107;107;
2021-11-22 19:33:57;ht;79;30.40
2021-11-22 19:33:57;v;4.17
2021-11-22 20:03:57;1;122;121;121;122;121;121;121;121;122;122;
2021-11-22 20:03:57;2;96;96;96;96;96;96;96;96;96;96;
2021-11-22 20:03:57;3;32;32;32;32;32;32;32;32;32;32;
2021-11-22 20:03:57;4;82;82;82;82;82;82;82;82;82;82;
2021-11-22 20:03:57;5;99;99;99;99;99;99;100;99;99;99;
2021-11-22 20:03:57;ht;81;28.80
2021-11-22 20:03:57;v;4.17
2021-11-22 20:33:54;1;130;130;130;130;130;130;130;130;130;130;
2021-11-22 20:33:54;2;30;30;30;30;30;30;30;30;30;30;
2021-11-22 20:33:54;3;32;32;32;32;32;32;32;32;32;32;
2021-11-22 20:33:54;4;2;2;2;2;2;2;2;2;2;2;
2021-11-22 20:33:54;5;105;105;105;105;105;105;105;105;105;105;
2021-11-22 20:33:54;ht;86;27.20
2021-11-22 20:33:54;v;4.17
2021-11-22 21:03:55;1;121;121;121;121;121;121;121;121;121;121;
2021-11-22 21:03:55;2;28;28;28;29;29;29;29;28;29;29;
2021-11-22 21:03:55;3;32;32;32;32;32;32;32;32;32;32;
2021-11-22 21:03:55;4;118;118;118;118;118;118;118;118;118;118;
2021-11-22 21:03:55;5;109;109;109;109;109;109;109;109;109;109;
2021-11-22 21:03:55;ht;91;25.60
2021-11-22 21:03:55;v;4.17
2021-11-22 21:33:54;1;120;120;120;120;120;120;120;120;120;120;
2021-11-22 21:33:54;2;90;90;90;90;90;90;90;90;90;90;
2021-11-22 21:33:54;3;32;32;32;32;32;32;32;32;32;32;
2021-11-22 21:33:54;4;101;100;100;100;100;100;100;100;101;100;
2021-11-22 21:33:54;5;129;129;129;129;129;129;129;129;129;129;
2021-11-22 21:33:54;ht;95;24.00
2021-11-22 21:33:54;v;4.17
2021-11-22 22:03:52;1;124;124;124;124;124;124;124;124;124;124;
2021-11-22 22:03:52;2;93;93;93;93;93;93;93;93;93;93;
2021-11-22 22:03:52;3;32;32;32;32;32;32;32;32;32;32;
2021-11-22 22:03:52;4;118;118;118;118;118;118;118;118;118;118;
2021-11-22 22:03:52;5;119;119;119;119;119;119;119;120;119;119;
2021-11-22 22:03:52;ht;99;22.80
2021-11-22 22:03:52;v;4.17
2021-11-22 22:33:50;1;120;120;120;120;120;120;120;120;120;120;
2021-11-22 22:33:50;2;126;126;126;126;126;126;126;126;126;126;
2021-11-22 22:33:50;3;32;32;32;32;32;32;32;32;31;32;
2021-11-22 22:33:50;4;124;124;124;123;124;124;124;124;124;124;
2021-11-22 22:33:50;5;113;112;112;112;113;113;113;113;113;113;
2021-11-22 22:33:50;ht;99;21.90
2021-11-22 22:33:50;v;4.17
2021-11-22 23:03:51;1;121;121;120;120;121;121;121;121;120;121;
2021-11-22 23:03:51;2;137;137;137;137;137;137;137;137;137;137;
2021-11-22 23:03:51;3;32;32;32;32;32;32;32;32;32;32;
2021-11-22 23:03:51;4;99;99;99;99;99;99;99;99;99;99;
2021-11-22 23:03:51;5;125;125;125;125;125;125;125;125;124;125;
2021-11-22 23:03:51;ht;97;23.50
2021-11-22 23:03:51;v;4.17
2021-11-22 23:33:52;1;122;122;122;122;122;122;122;122;122;122;
2021-11-22 23:33:52;2;121;121;121;121;121;121;121;121;121;121;
2021-11-22 23:33:52;3;31;31;31;31;31;31;31;31;31;31;
2021-11-22 23:33:52;4;88;87;87;87;87;87;88;88;87;88;
2021-11-22 23:33:52;5;109;109;109;109;109;109;109;109;109;109;
2021-11-22 23:33:52;ht;97;23.60
2021-11-22 23:33:52;v;4.17
