2021-07-01 00:03:42;1;128;128;128;128;128;127;128;128;128;128;
2021-07-01 00:03:42;2;113;113;114;114;114;114;114;113;113;114;
2021-07-01 00:03:42;3;54;54;54;53;54;54;54;54;54;54;
2021-07-01 00:03:42;4;121;121;121;121;121;121;121;121;121;121;
2021-07-01 00:03:42;5;115;115;115;115;115;115;115;115;114;114;
2021-07-01 00:03:42;ht;99;4.30
2021-07-01 00:03:42;v;4.00
2021-07-01 00:33:40;1;125;132;125;125;125;125;125;125;125;125;
2021-07-01 00:33:40;2;122;122;122;122;122;122;122;122;122;122;
2021-07-01 00:33:40;3;54;54;54;54;54;54;54;54;54;54;
2021-07-01 00:33:40;4;125;125;125;125;125;125;125;125;125;125;
2021-07-01 00:33:40;5;115;115;115;115;115;115;115;115;115;115;
2021-07-01 00:33:40;ht;99;4.00
2021-07-01 00:33:40;v;4.00
2021-07-01 01:03:38;1;127;127;134;127;127;127;127;127;127;127;
2021-07-01 01:03:38;2;120;119;128;120;120;120;120;120;120;120;
2021-07-01 01:03:38;3;54;54;55;55;54;54;54;55;54;55;
2021-07-01 01:03:38;4;126;126;126;126;126;126;126;126;126;126;
2021-07-01 01:03:38;5;118;118;118;118;118;118;118;118;118;118;
2021-07-01 01:03:38;ht;99;3.80
2021-07-01 01:03:38;v;4.00
2021-07-01 01:33:40;1;121;121;121;121;121;121;121;121;121;121;
2021-07-01 01:33:40;2;124;124;124;124;124;124;124;124;124;124;
2021-07-01 01:33:40;3;55;55;55;55;55;55;55;55;55;55;
2021-07-01 01:33:40;4;119;118;119;119;119;119;119;119;119;119;
2021-07-01 01:33:40;5;115;116;116;116;116;116;116;115;115;115;
2021-07-01 01:33:40;ht;99;4.40
2021-07-01 01:33:40;v;3.99
2021-07-01 02:03:38;1;127;127;133;128;128;127;127;127;127;127;
2021-07-01 02:03:38;2;115;115;115;115;115;115;115;115;115;115;
2021-07-01 02:03:38;3;55;55;55;55;55;54;55;55;55;55;
2021-07-01 02:03:38;4;118;118;118;118;118;118;118;118;118;118;
2021-07-01 02:03:38;5;117;117;117;117;117;117;117;117;117;117;
2021-07-01 02:03:38;ht;99;4.30
2021-07-01 02:03:38;v;4.00
2021-07-01 02:33:41;1;122;122;130;123;122;122;123;122;122;122;
2021-07-01 02:33:41;2;121;120;121;120;120;120;121;120;120;120;
2021-07-01 02:33:41;3;54;54;54;54;54;54;54;54;54;54;
2021-07-01 02:33:41;4;119;119;119;119;119;119;119;119;119;119;
2021-07-01 02:33:41;5;121;121;121;121;121;121;121;121;121;121;
2021-07-01 02:33:41;ht;99;3.90
2021-07-01 02:33:41;v;4.00
2021-07-01 03:03:38;1;121;121;120;128;122;121;121;121;121;121;
2021-07-01 03:03:38;2;118;118;118;118;118;118;118;118;118;118;
2021-07-01 03:03:38;3;55;55;55;55;55;55;55;55;55;55;
2021-07-01 03:03:38;4;125;125;125;125;125;125;125;125;125;125;
2021-07-01 03:03:38;5;121;121;121;121;120;121;120;120;121;121;
2021-07-01 03:03:38;ht;99;3.70
2021-07-01 03:03:38;v;3.99
2021-07-01 03:33:41;1;123;123;122;129;124;123;123;123;123;123;
2021-07-01 03:33:41;2;118;118;118;118;118;118;118;118;118;118;
2021-07-01 03:33:41;3;55;55;55;55;55;55;55;55;55;55;
2021-07-01 03:33:41;4;115;116;116;116;115;116;116;116;115;116;
2021-07-01 03:33:41;5;122;122;122;122;122;122;122;122;121;122;
2021-07-01 03:33:41;ht;99;3.50
2021-07-01 03:33:41;v;3.99
2021-07-01 04:03:38;1;120;121;121;121;121;121;121;128;122;121;
2021-07-01 04:03:38;2;118;118;119;118;118;118;119;119;119;119;
2021-07-01 04:03:38;3;55;55;55;54;55;55;55;55;55;55;
2021-07-01 04:03:38;4;138;138;137;138;138;138;138;138;138;138;
2021-07-01 04:03:38;5;122;122;122;122;122;122;122;122;122;122;
2021-07-01 04:03:38;ht;99;3.20
2021-07-01 04:03:38;v;3.99
2021-07-01 04:33:40;1;128;123;123;122;122;122;122;122;122;122;
2021-07-01 04:33:40;2;121;121;121;121;121;121;120;120;121;120;
2021-07-01 04:33:40;3;55;55;55;55;55;55;55;55;55;55;
2021-07-01 04:33:40;4;137;137;137;137;137;138;137;137;137;137;
2021-07-01 04:33:40;5;121;121;121;122;121;121;121;121;121;121;
2021-07-01 04:33:40;ht;99;2.40
2021-07-01 04:33:40;v;3.99
2021-07-01 05:03:38;1;123;123;123;122;123;123;123;123;123;123;
2021-07-01 05:03:38;2;116;116;116;117;117;117;117;117;117;116;
2021-07-01 05:03:38;3;54;54;54;54;54;54;54;54;54;54;
2021-07-01 05:03:38;4;126;126;125;126;126;126;125;126;126;126;
2021-07-01 05:03:38;5;127;127;127;127;127;126;127;126;127;127;
2021-07-01 05:03:38;ht;99;2.10
2021-07-01 05:03:38;v;3.99
2021-07-01 05:33:39;1;124;123;124;124;124;124;124;124;124;124;
2021-07-01 05:33:39;2;121;121;121;121;121;121;121;121;121;121;
2021-07-01 05:33:39;3;56;55;56;56;56;56;56;56;56;56;
2021-07-01 05:33:39;4;123;123;123;123;122;123;123;122;123;123;
2021-07-01 05:33:39;5;120;120;120;120;120;120;120;120;120;120;
2021-07-01 05:33:39;ht;99;2.20
2021-07-01 05:33:39;v;3.99
2021-07-01 06:03:40;1;122;126;123;122;122;122;121;122;122;122;
2021-07-01 06:03:40;2;116;117;116;116;117;117;117;117;116;117;
2021-07-01 06:03:40;3;56;56;56;56;56;56;56;56;56;57;
2021-07-01 06:03:40;4;127;128;128;128;128;128;127;127;127;128;
2021-07-01 06:03:40;5;128;128;128;128;128;128;128;128;128;128;
2021-07-01 06:03:40;ht;99;2.10
2021-07-01 06:03:40;v;3.99
2021-07-01 06:33:37;1;124;123;132;124;124;124;124;124;124;124;
2021-07-01 06:33:37;2;1;1;1;1;1;2;1;9;2;2;
2021-07-01 06:33:37;3;56;57;57;57;56;56;57;57;56;57;
2021-07-01 06:33:37;4;126;126;126;126;126;126;126;126;126;126;
2021-07-01 06:33:37;5;127;126;126;126;126;127;126;127;127;126;
2021-07-01 06:33:37;ht;99;2.30
2021-07-01 06:33:37;v;3.99
2021-07-01 07:03:39;1;116;121;117;117;116;116;116;116;116;116;
2021-07-01 07:03:39;2;1;1;1;1;1;1;1;1;1;1;
2021-07-01 07:03:39;3;56;56;56;56;56;56;57;56;56;56;
2021-07-01 07:03:39;4;127;127;127;127;127;127;127;127;127;127;
2021-07-01 07:03:39;5;122;122;122;122;122;122;122;122;122;122;
2021-07-01 07:03:39;ht;99;2.30
2021-07-01 07:03:39;v;3.99
2021-07-01 07:33:40;1;119;119;119;119;125;121;119;119;119;119;
2021-07-01 07:33:40;2;125;124;124;125;125;125;124;125;125;124;
2021-07-01 07:33:40;3;56;56;56;56;56;56;56;56;56;56;
2021-07-01 07:33:40;4;128;127;128;127;128;128;127;127;127;128;
2021-07-01 07:33:40;5;120;120;120;120;120;120;120;120;120;120;
2021-07-01 07:33:40;ht;99;2.20
2021-07-01 07:33:40;v;3.99
2021-07-01 08:03:37;1;122;127;123;123;122;122;122;123;122;122;
2021-07-01 08:03:37;2;115;116;116;116;116;116;115;116;116;115;
2021-07-01 08:03:37;3;54;54;54;54;54;54;54;54;54;54;
2021-07-01 08:03:37;4;120;120;120;120;120;120;120;120;120;120;
2021-07-01 08:03:37;5;117;117;117;117;117;117;117;117;117;117;
2021-07-01 08:03:37;ht;99;2.70
2021-07-01 08:03:37;v;3.99
2021-07-01 08:33:39;1;115;115;122;116;115;115;115;115;115;115;
2021-07-01 08:33:39;2;117;118;118;118;117;118;118;117;118;118;
2021-07-01 08:33:39;3;56;55;55;55;55;55;56;55;55;56;
2021-07-01 08:33:39;4;120;120;120;120;120;120;120;120;120;120;
2021-07-01 08:33:39;5;116;116;116;116;116;116;116;116;116;116;
2021-07-01 08:33:39;ht;99;3.40
2021-07-01 08:33:39;v;3.99
2021-07-01 09:03:41;1;124;123;123;124;123;123;123;123;123;124;
2021-07-01 09:03:41;2;116;116;116;116;116;115;116;115;116;115;
2021-07-01 09:03:41;3;55;55;55;55;55;55;55;55;55;55;
2021-07-01 09:03:41;4;121;121;121;121;121;121;121;121;121;121;
2021-07-01 09:03:41;5;124;124;124;125;125;124;125;124;125;125;
2021-07-01 09:03:41;ht;99;4.80
2021-07-01 09:03:41;v;3.99
2021-07-01 09:33:40;1;124;124;124;123;123;124;124;124;124;124;
2021-07-01 09:33:40;2;113;113;113;113;113;113;113;113;113;113;
2021-07-01 09:33:40;3;53;53;53;53;53;53;53;53;53;53;
2021-07-01 09:33:40;4;123;123;123;123;123;123;123;123;123;123;
2021-07-01 09:33:40;5;113;113;113;113;113;113;113;113;113;113;
2021-07-01 09:33:40;ht;99;6.60
2021-07-01 09:33:40;v;3.99
2021-07-01 10:03:39;1;118;117;117;117;116;117;117;117;117;117;
2021-07-01 10:03:39;2;113;113;113;113;113;113;113;113;113;113;
2021-07-01 10:03:39;3;49;50;50;49;49;50;49;49;49;49;
2021-07-01 10:03:39;4;119;119;119;119;119;119;119;119;119;119;
2021-07-01 10:03:39;5;113;113;113;113;112;112;112;113;113;112;
2021-07-01 10:03:39;ht;99;7.90
2021-07-01 10:03:39;v;3.99
2021-07-01 10:33:40;1;120;119;119;119;119;119;120;120;119;119;
2021-07-01 10:33:40;2;114;114;114;114;114;114;114;114;114;114;
2021-07-01 10:33:40;3;47;47;47;47;47;47;47;47;47;47;
2021-07-01 10:33:40;4;121;121;121;121;121;121;121;121;121;121;
2021-07-01 10:33:40;5;117;117;117;117;117;117;117;117;117;117;
2021-07-01 10:33:40;ht;99;9.30
2021-07-01 10:33:40;v;3.99
2021-07-01 11:03:42;1;117;117;117;117;117;117;117;117;117;117;
2021-07-01 11:03:42;2;116;116;116;116;116;116;116;116;116;116;
2021-07-01 11:03:42;3;46;46;46;46;45;46;46;46;45;45;
2021-07-01 11:03:42;4;116;116;116;116;116;116;116;116;116;116;
2021-07-01 11:03:42;5;116;116;116;116;116;116;116;116;116;116;
2021-07-01 11:03:42;ht;99;11.40
2021-07-01 11:03:42;v;4.00
2021-07-01 11:33:46;1;118;118;118;118;118;118;118;118;118;118;
2021-07-01 11:33:46;2;114;114;114;114;114;114;114;114;114;113;
2021-07-01 11:33:46;3;43;43;43;43;43;43;43;43;43;43;
2021-07-01 11:33:46;4;113;113;113;113;113;113;113;113;113;113;
2021-07-01 11:33:46;5;119;119;119;119;119;119;118;119;119;119;
2021-07-01 11:33:46;ht;99;12.80
2021-07-01 11:33:46;v;4.00
2021-07-01 12:03:46;1;123;122;122;122;122;122;122;122;122;122;
2021-07-01 12:03:46;2;117;117;116;117;117;117;117;117;117;117;
2021-07-01 12:03:46;3;44;44;44;44;44;44;44;44;44;44;
2021-07-01 12:03:46;4;120;120;120;120;120;120;120;120;120;120;
2021-07-01 12:03:46;5;137;136;137;136;136;136;136;137;136;136;
2021-07-01 12:03:46;ht;99;13.80
2021-07-01 12:03:46;v;3.99
2021-07-01 12:33:46;1;121;121;121;121;121;121;121;121;121;121;
2021-07-01 12:33:46;2;116;116;116;116;116;116;116;116;116;116;
2021-07-01 12:33:46;3;45;45;45;45;45;45;45;45;45;45;
2021-07-01 12:33:46;4;118;117;117;118;118;118;117;117;117;118;
2021-07-01 12:33:46;5;121;121;121;121;121;121;121;121;121;121;
2021-07-01 12:33:46;ht;99;14.60
2021-07-01 12:33:46;v;4.00
2021-07-01 13:03:48;1;121;120;121;121;121;121;121;121;121;121;
2021-07-01 13:03:48;2;119;119;119;118;119;119;119;119;119;119;
2021-07-01 13:03:48;3;44;44;44;44;44;44;44;44;44;44;
2021-07-01 13:03:48;4;114;114;114;114;114;114;114;114;114;114;
2021-07-01 13:03:48;5;119;119;119;119;119;119;119;119;119;119;
2021-07-01 13:03:48;ht;99;15.40
2021-07-01 13:03:48;v;4.00
2021-07-01 13:33:46;1;121;121;121;121;121;121;121;121;121;121;
2021-07-01 13:33:46;2;118;118;118;118;118;118;118;118;118;119;
2021-07-01 13:33:46;3;44;44;44;44;44;44;44;44;44;44;
2021-07-01 13:33:46;4;108;108;108;108;107;108;108;108;108;108;
2021-07-01 13:33:46;5;118;118;118;118;118;118;118;118;118;118;
2021-07-01 13:33:46;ht;99;16.10
2021-07-01 13:33:46;v;4.00
2021-07-01 14:03:49;1;119;119;119;119;119;119;119;119;119;119;
2021-07-01 14:03:49;2;126;126;126;126;126;126;126;126;126;126;
2021-07-01 14:03:49;3;44;45;44;44;45;44;44;44;44;45;
2021-07-01 14:03:49;4;119;119;119;119;119;119;119;119;119;119;
2021-07-01 14:03:49;5;120;120;120;120;120;120;120;120;120;120;
2021-07-01 14:03:49;ht;98;16.90
2021-07-01 14:03:49;v;4.00
2021-07-01 14:33:47;1;120;120;120;120;120;120;120;120;120;120;
2021-07-01 14:33:47;2;118;118;118;118;118;118;118;118;117;118;
2021-07-01 14:33:47;3;45;44;44;45;45;45;45;44;44;44;
2021-07-01 14:33:47;4;120;121;120;120;121;120;121;121;120;121;
2021-07-01 14:33:47;5;112;112;112;112;112;112;112;112;112;112;
2021-07-01 14:33:47;ht;96;17.10
2021-07-01 14:33:47;v;4.00
2021-07-01 15:03:46;1;128;121;120;120;120;120;120;120;120;120;
2021-07-01 15:03:46;2;114;114;114;113;114;114;113;114;114;114;
2021-07-01 15:03:46;3;44;44;44;44;44;44;44;44;44;44;
2021-07-01 15:03:46;4;114;114;114;114;114;114;114;114;114;114;
2021-07-01 15:03:46;5;113;113;113;113;113;113;113;113;113;113;
2021-07-01 15:03:46;ht;93;17.80
2021-07-01 15:03:46;v;4.00
2021-07-01 15:33:50;1;118;118;118;118;118;118;118;118;118;118;
2021-07-01 15:33:50;2;107;108;108;107;108;108;108;108;107;108;
2021-07-01 15:33:50;3;44;44;44;44;44;44;44;44;44;44;
2021-07-01 15:33:50;4;116;116;116;116;116;116;116;116;116;116;
2021-07-01 15:33:50;5;122;122;122;122;122;122;122;122;122;122;
2021-07-01 15:33:50;ht;93;18.10
2021-07-01 15:33:50;v;4.00
2021-07-01 16:03:50;1;116;116;116;116;116;116;116;116;116;116;
2021-07-01 16:03:50;2;120;120;120;120;120;120;120;120;120;120;
2021-07-01 16:03:50;3;44;44;44;44;44;44;44;44;44;44;
2021-07-01 16:03:50;4;121;121;121;121;121;121;121;121;121;121;
2021-07-01 16:03:50;5;117;117;117;116;117;117;116;117;117;117;
2021-07-01 16:03:50;ht;93;17.80
2021-07-01 16:03:50;v;4.00
2021-07-01 16:33:49;1;118;118;118;118;118;118;118;118;118;118;
2021-07-01 16:33:49;2;118;118;118;118;118;118;118;118;118;118;
2021-07-01 16:33:49;3;44;44;44;44;44;44;44;44;44;44;
2021-07-01 16:33:49;4;116;116;116;116;116;116;116;116;116;116;
2021-07-01 16:33:49;5;113;113;113;113;113;113;113;113;113;113;
2021-07-01 16:33:49;ht;93;17.50
2021-07-01 16:33:49;v;4.00
2021-07-01 17:03:48;1;115;115;115;115;115;115;115;115;115;115;
2021-07-01 17:03:48;2;116;116;116;116;116;116;116;116;116;116;
2021-07-01 17:03:48;3;44;44;44;44;44;44;44;44;44;44;
2021-07-01 17:03:48;4;117;117;117;116;117;117;117;117;117;117;
2021-07-01 17:03:48;5;113;113;113;113;113;113;113;113;113;113;
2021-07-01 17:03:48;ht;95;17.00
2021-07-01 17:03:48;v;4.00
2021-07-01 17:33:46;1;119;119;119;119;119;119;119;119;119;119;
2021-07-01 17:33:46;2;121;121;121;121;121;121;121;121;121;121;
2021-07-01 17:33:46;3;44;44;44;44;44;44;44;44;43;44;
2021-07-01 17:33:46;4;117;117;117;117;117;117;117;117;117;117;
2021-07-01 17:33:46;5;112;112;112;112;112;112;112;112;112;112;
2021-07-01 17:33:46;ht;98;15.50
2021-07-01 17:33:46;v;3.99
2021-07-01 18:03:47;1;126;126;126;126;126;126;126;126;126;126;
2021-07-01 18:03:47;2;122;122;122;122;122;122;122;122;122;122;
2021-07-01 18:03:47;3;44;44;44;44;44;44;44;44;44;44;
2021-07-01 18:03:47;4;119;119;119;119;119;119;119;119;119;119;
2021-07-01 18:03:47;5;114;114;114;114;114;114;114;114;114;114;
2021-07-01 18:03:47;ht;99;13.00
2021-07-01 18:03:47;v;4.00
2021-07-01 18:33:42;1;123;123;123;123;123;123;123;123;123;123;
2021-07-01 18:33:42;2;128;128;128;128;128;128;128;128;128;128;
2021-07-01 18:33:42;3;44;45;45;45;45;45;45;45;45;45;
2021-07-01 18:33:42;4;122;122;122;122;122;122;122;122;122;122;
2021-07-01 18:33:42;5;112;112;112;112;112;112;112;112;112;112;
2021-07-01 18:33:42;ht;99;9.50
2021-07-01 18:33:42;v;4.00
2021-07-01 19:03:43;1;118;118;118;118;118;118;118;118;117;118;
2021-07-01 19:03:43;2;118;118;118;118;118;118;118;118;118;118;
2021-07-01 19:03:43;3;48;48;48;48;48;48;48;48;48;48;
2021-07-01 19:03:43;4;123;123;123;123;123;123;123;123;123;123;
2021-07-01 19:03:43;5;117;117;117;117;117;117;117;117;117;117;
2021-07-01 19:03:43;ht;99;9.40
2021-07-01 19:03:43;v;3.99
2021-07-01 19:33:44;1;129;130;129;129;129;129;129;129;129;129;
2021-07-01 19:33:44;2;112;113;113;112;112;112;112;112;112;113;
2021-07-01 19:33:44;3;50;50;50;50;50;50;50;50;50;50;
2021-07-01 19:33:44;4;121;121;121;121;121;121;121;121;121;121;
2021-07-01 19:33:44;5;112;112;113;112;112;113;112;112;112;112;
2021-07-01 19:33:44;ht;99;10.10
2021-07-01 19:33:44;v;3.99
2021-07-01 20:03:40;1;122;122;122;122;122;122;122;122;122;122;
2021-07-01 20:03:40;2;119;119;119;119;119;119;119;119;119;119;
2021-07-01 20:03:40;3;50;50;50;50;50;50;50;50;50;50;
2021-07-01 20:03:40;4;125;125;125;125;125;125;125;125;125;125;
2021-07-01 20:03:40;5;113;113;113;113;113;113;112;113;113;113;
2021-07-01 20:03:40;ht;99;9.20
2021-07-01 20:03:40;v;3.99
2021-07-01 20:33:41;1;119;119;119;119;119;119;119;119;119;119;
2021-07-01 20:33:41;2;114;114;114;115;114;114;115;114;114;114;
2021-07-01 20:33:41;3;51;51;50;51;50;51;50;50;50;50;
2021-07-01 20:33:41;4;120;120;120;120;120;121;120;121;121;120;
2021-07-01 20:33:41;5;124;124;124;124;124;124;124;124;124;124;
2021-07-01 20:33:41;ht;99;8.40
2021-07-01 20:33:41;v;3.99
2021-07-01 21:03:41;1;129;128;128;128;136;129;129;128;128;128;
2021-07-01 21:03:41;2;119;119;119;119;119;119;119;119;119;119;
2021-07-01 21:03:41;3;51;50;50;51;50;51;50;51;50;50;
2021-07-01 21:03:41;4;119;119;119;119;119;119;119;119;119;119;
2021-07-01 21:03:41;5;120;120;120;120;120;120;120;120;120;120;
2021-07-01 21:03:41;ht;99;7.10
2021-07-01 21:03:41;v;3.99
2021-07-01 21:33:41;1;121;120;120;120;120;120;120;120;120;120;
2021-07-01 21:33:41;2;117;117;117;116;117;117;117;116;116;117;
2021-07-01 21:33:41;3;51;51;51;51;51;51;51;51;51;51;
2021-07-01 21:33:41;4;118;118;118;118;118;118;118;118;118;118;
2021-07-01 21:33:41;5;124;124;124;123;124;124;123;124;124;123;
2021-07-01 21:33:41;ht;99;6.60
2021-07-01 21:33:41;v;3.99
2021-07-01 22:03:40;1;115;115;114;121;115;115;115;115;115;115;
2021-07-01 22:03:40;2;115;115;115;115;115;114;115;115;115;115;
2021-07-01 22:03:40;3;52;52;52;52;52;52;52;52;52;52;
2021-07-01 22:03:40;4;122;121;122;122;121;121;121;121;121;121;
2021-07-01 22:03:40;5;129;129;129;129;129;129;129;129;129;129;
2021-07-01 22:03:40;ht;99;6.40
2021-07-01 22:03:40;v;3.99
2021-07-01 22:33:39;1;130;129;130;129;129;129;129;129;129;129;
2021-07-01 22:33:39;2;116;115;116;115;116;115;115;115;116;115;
2021-07-01 22:33:39;3;53;53;53;53;53;53;53;53;53;53;
2021-07-01 22:33:39;4;127;127;127;126;127;127;127;127;126;127;
2021-07-01 22:33:39;5;135;135;135;135;136;135;135;136;135;135;
2021-07-01 22:33:39;ht;99;7.00
2021-07-01 22:33:39;v;3.99
2021-07-01 23:03:39;1;120;128;120;120;120;120;120;120;120;120;
2021-07-01 23:03:39;2;119;119;119;119;119;119;119;119;119;119;
2021-07-01 23:03:39;3;52;53;52;52;52;52;52;53;52;52;
2021-07-01 23:03:39;4;123;123;123;123;123;123;123;123;123;123;
2021-07-01 23:03:39;5;1;1;1;1;1;1;1;1;1;1;
2021-07-01 23:03:39;ht;99;6.10
2021-07-01 23:03:39;v;3.98
2021-07-01 23:33:42;1;121;121;121;121;121;121;121;121;121;121;
2021-07-01 23:33:42;2;117;117;117;117;117;117;117;117;117;117;
2021-07-01 23:33:42;3;51;51;51;51;51;51;51;51;51;51;
2021-07-01 23:33:42;4;127;127;127;127;127;127;127;127;127;127;
2021-07-01 23:33:42;5;122;122;122;122;122;122;122;122;122;122;
2021-07-01 23:33:42;ht;99;5.30
2021-07-01 23:33:42;v;3.99
