2021-10-02 00:03:44;1;122;123;122;122;122;122;122;122;122;122;
2021-10-02 00:03:44;2;121;121;121;121;121;121;121;121;121;121;
2021-10-02 00:03:44;3;27;26;26;27;27;27;27;27;27;27;
2021-10-02 00:03:44;4;126;126;126;126;126;126;126;126;126;126;
2021-10-02 00:03:44;5;131;131;131;131;131;131;131;131;131;131;
2021-10-02 00:03:44;ht;99;10.70
2021-10-02 00:03:44;v;3.83
2021-10-02 00:33:41;1;121;121;121;121;121;121;121;121;121;121;
2021-10-02 00:33:41;2;122;122;122;122;122;122;122;122;122;122;
2021-10-02 00:33:41;3;25;25;26;25;25;25;25;25;25;25;
2021-10-02 00:33:41;4;126;126;126;126;126;126;126;126;126;126;
2021-10-02 00:33:41;5;124;124;124;124;124;124;124;125;125;125;
2021-10-02 00:33:41;ht;99;11.90
2021-10-02 00:33:41;v;3.83
2021-10-02 01:03:43;1;124;124;124;124;123;124;124;124;123;124;
2021-10-02 01:03:43;2;1;1;1;1;1;2;1;1;1;2;
2021-10-02 01:03:43;3;26;26;26;26;25;26;25;25;25;25;
2021-10-02 01:03:43;4;121;122;121;121;122;121;121;122;121;122;
2021-10-02 01:03:43;5;117;117;117;117;117;117;118;117;117;117;
2021-10-02 01:03:43;ht;99;8.70
2021-10-02 01:03:43;v;3.82
2021-10-02 01:33:43;1;121;121;121;121;121;121;121;121;121;121;
2021-10-02 01:33:43;2;1;1;1;1;1;1;1;1;1;1;
2021-10-02 01:33:43;3;24;24;25;25;25;24;24;25;25;25;
2021-10-02 01:33:43;4;123;124;123;124;123;123;123;123;123;123;
2021-10-02 01:33:43;5;116;116;116;116;116;116;116;116;116;116;
2021-10-02 01:33:43;ht;99;11.00
2021-10-02 01:33:43;v;3.82
2021-10-02 02:03:39;1;122;122;122;121;121;122;122;122;122;122;
2021-10-02 02:03:39;2;1;1;1;1;1;1;1;1;1;1;
2021-10-02 02:03:39;3;26;25;26;26;25;25;26;26;26;25;
2021-10-02 02:03:39;4;118;118;118;119;119;119;119;119;118;119;
2021-10-02 02:03:39;5;117;117;117;117;117;117;117;117;116;117;
2021-10-02 02:03:39;ht;99;9.30
2021-10-02 02:03:39;v;3.83
2021-10-02 02:33:40;1;121;121;121;121;121;121;120;121;121;121;
2021-10-02 02:33:40;2;127;127;127;127;127;127;127;127;127;127;
2021-10-02 02:33:40;3;25;25;25;25;25;25;25;25;25;25;
2021-10-02 02:33:40;4;120;120;120;120;120;120;120;120;120;120;
2021-10-02 02:33:40;5;114;114;114;114;114;114;114;114;114;114;
2021-10-02 02:33:40;ht;99;9.50
2021-10-02 02:33:40;v;3.82
2021-10-02 03:03:41;1;118;117;118;118;118;118;118;118;118;118;
2021-10-02 03:03:41;2;1;1;1;1;2;2;1;1;1;1;
2021-10-02 03:03:41;3;25;25;25;25;25;25;24;25;24;24;
2021-10-02 03:03:41;4;121;121;121;122;121;121;121;121;122;122;
2021-10-02 03:03:41;5;119;119;119;119;119;119;118;118;118;118;
2021-10-02 03:03:41;ht;99;8.40
2021-10-02 03:03:41;v;3.82
2021-10-02 03:33:41;1;120;120;120;120;120;120;120;119;119;119;
2021-10-02 03:33:41;2;128;128;128;128;128;128;128;128;128;128;
2021-10-02 03:33:41;3;25;25;26;26;26;25;26;26;26;26;
2021-10-02 03:33:41;4;125;125;125;125;125;125;125;125;125;125;
2021-10-02 03:33:41;5;117;117;117;117;117;117;117;117;117;117;
2021-10-02 03:33:41;ht;99;8.50
2021-10-02 03:33:41;v;3.83
2021-10-02 04:03:41;1;118;118;118;118;118;118;118;118;118;118;
2021-10-02 04:03:41;2;122;122;122;122;122;122;122;122;122;121;
2021-10-02 04:03:41;3;24;25;25;25;25;24;25;25;25;25;
2021-10-02 04:03:41;4;124;124;124;124;124;124;124;124;124;124;
2021-10-02 04:03:41;5;118;118;118;118;118;118;118;118;119;119;
2021-10-02 04:03:41;ht;99;9.50
2021-10-02 04:03:41;v;3.83
2021-10-02 04:33:41;1;121;121;121;121;121;121;121;120;121;121;
2021-10-02 04:33:41;2;1;1;1;1;2;2;1;2;2;2;
2021-10-02 04:33:41;3;24;25;25;25;25;25;25;25;24;25;
2021-10-02 04:33:41;4;121;121;121;122;121;121;121;121;121;122;
2021-10-02 04:33:41;5;118;118;118;117;117;117;117;117;117;117;
2021-10-02 04:33:41;ht;99;9.60
2021-10-02 04:33:41;v;3.82
2021-10-02 05:03:41;1;1;2;1;2;2;1;1;1;1;2;
2021-10-02 05:03:41;2;1;1;1;2;1;1;1;1;2;1;
2021-10-02 05:03:41;3;25;25;25;25;24;25;25;25;25;24;
2021-10-02 05:03:41;4;116;116;116;116;116;116;116;116;116;116;
2021-10-02 05:03:41;5;117;117;116;116;116;116;116;116;116;116;
2021-10-02 05:03:41;ht;99;9.50
2021-10-02 05:03:41;v;3.82
2021-10-02 05:33:41;1;113;113;113;113;113;114;113;113;113;113;
2021-10-02 05:33:41;2;2;1;2;1;2;2;1;2;1;2;
2021-10-02 05:33:41;3;26;25;26;26;25;26;26;25;25;25;
2021-10-02 05:33:41;4;125;125;125;125;125;125;125;125;125;125;
2021-10-02 05:33:41;5;116;116;116;116;116;116;116;116;116;116;
2021-10-02 05:33:41;ht;99;7.20
2021-10-02 05:33:41;v;3.83
2021-10-02 06:03:41;1;118;117;117;117;117;117;117;117;117;117;
2021-10-02 06:03:41;2;115;115;115;115;115;115;115;115;114;115;
2021-10-02 06:03:41;3;25;25;25;25;24;25;25;24;25;24;
2021-10-02 06:03:41;4;124;124;125;124;124;125;125;124;124;124;
2021-10-02 06:03:41;5;122;122;122;122;122;122;122;122;122;122;
2021-10-02 06:03:41;ht;99;8.20
2021-10-02 06:03:41;v;3.82
2021-10-02 06:33:40;1;144;144;144;144;144;144;144;144;145;144;
2021-10-02 06:33:40;2;117;117;117;117;117;117;117;117;117;117;
2021-10-02 06:33:40;3;26;26;26;25;26;25;26;26;25;26;
2021-10-02 06:33:40;4;118;118;117;118;117;118;118;118;117;117;
2021-10-02 06:33:40;5;121;121;121;121;121;121;121;121;121;121;
2021-10-02 06:33:40;ht;99;8.90
2021-10-02 06:33:40;v;3.82
2021-10-02 07:03:40;1;99;99;99;99;99;99;99;100;99;99;
2021-10-02 07:03:40;2;116;116;116;116;116;116;115;115;115;115;
2021-10-02 07:03:40;3;25;25;25;25;25;25;25;25;25;25;
2021-10-02 07:03:40;4;117;117;117;117;117;117;117;117;117;117;
2021-10-02 07:03:40;5;128;128;128;128;128;128;127;128;128;128;
2021-10-02 07:03:40;ht;99;9.50
2021-10-02 07:03:40;v;3.83
2021-10-02 07:33:41;1;116;116;116;116;116;116;116;116;116;116;
2021-10-02 07:33:41;2;111;111;110;111;111;111;111;110;111;111;
2021-10-02 07:33:41;3;27;27;27;27;26;27;26;26;27;27;
2021-10-02 07:33:41;4;112;112;112;112;112;112;112;112;112;112;
2021-10-02 07:33:41;5;112;112;112;112;112;112;112;112;112;112;
2021-10-02 07:33:41;ht;99;12.00
2021-10-02 07:33:41;v;3.82
2021-10-02 08:03:43;1;98;98;98;98;98;98;98;98;98;98;
2021-10-02 08:03:43;2;124;124;124;124;124;124;124;124;124;124;
2021-10-02 08:03:43;3;35;35;35;35;35;35;34;34;35;34;
2021-10-02 08:03:43;4;113;113;113;113;113;113;113;113;113;113;
2021-10-02 08:03:43;5;109;110;109;109;110;110;109;109;109;109;
2021-10-02 08:03:43;ht;99;13.30
2021-10-02 08:03:43;v;3.82
2021-10-02 08:33:42;1;105;104;104;105;105;105;105;105;105;105;
2021-10-02 08:33:42;2;116;117;116;117;116;116;116;116;116;116;
2021-10-02 08:33:42;3;32;32;31;32;32;32;32;32;32;32;
2021-10-02 08:33:42;4;117;116;117;117;117;117;117;117;117;117;
2021-10-02 08:33:42;5;107;107;107;107;107;107;107;107;107;107;
2021-10-02 08:33:42;ht;99;15.50
2021-10-02 08:33:42;v;3.83
2021-10-02 09:03:47;1;120;120;120;120;120;120;120;120;120;120;
2021-10-02 09:03:47;2;125;125;125;125;125;125;125;125;125;125;
2021-10-02 09:03:47;3;113;113;113;113;113;113;113;113;113;113;
2021-10-02 09:03:47;4;119;120;119;119;119;119;119;120;119;120;
2021-10-02 09:03:47;5;109;109;109;109;109;110;110;110;110;110;
2021-10-02 09:03:47;ht;99;18.90
2021-10-02 09:03:47;v;3.83
2021-10-02 09:33:46;1;110;110;110;110;110;110;110;110;110;110;
2021-10-02 09:33:46;2;118;118;118;118;118;118;118;118;118;118;
2021-10-02 09:33:46;3;25;25;25;25;25;25;25;25;25;24;
2021-10-02 09:33:46;4;122;122;122;122;121;121;122;121;121;121;
2021-10-02 09:33:46;5;115;115;115;115;115;115;115;115;115;115;
2021-10-02 09:33:46;ht;99;20.60
2021-10-02 09:33:46;v;3.82
2021-10-02 10:03:51;1;119;119;120;119;119;119;119;119;119;119;
2021-10-02 10:03:51;2;121;121;121;121;121;121;121;121;121;121;
2021-10-02 10:03:51;3;25;25;25;25;26;25;26;26;25;25;
2021-10-02 10:03:51;4;126;126;125;125;126;126;126;125;126;125;
2021-10-02 10:03:51;5;112;112;112;112;112;112;112;112;112;112;
2021-10-02 10:03:51;ht;99;21.30
2021-10-02 10:03:51;v;3.82
2021-10-02 10:33:52;1;96;95;95;96;95;95;95;96;96;96;
2021-10-02 10:33:52;2;124;124;124;124;124;124;124;124;124;124;
2021-10-02 10:33:52;3;25;25;26;26;25;26;26;25;26;26;
2021-10-02 10:33:52;4;120;120;120;120;120;120;120;120;120;120;
2021-10-02 10:33:52;5;113;113;113;113;113;113;113;113;113;113;
2021-10-02 10:33:52;ht;99;22.70
2021-10-02 10:33:52;v;3.83
2021-10-02 11:03:50;1;125;125;125;124;124;124;125;125;125;124;
2021-10-02 11:03:50;2;109;110;110;109;110;110;110;110;110;110;
2021-10-02 11:03:50;3;26;26;26;26;26;26;26;26;26;26;
2021-10-02 11:03:50;4;128;128;128;129;129;130;130;131;131;131;
2021-10-02 11:03:50;5;1;1;1;1;1;1;1;1;1;1;
2021-10-02 11:03:50;ht;99;24.10
2021-10-02 11:03:50;v;3.82
2021-10-02 11:33:53;1;2;2;1;2;1;1;2;1;2;1;
2021-10-02 11:33:53;2;2;2;2;2;2;2;2;2;2;2;
2021-10-02 11:33:53;3;28;28;28;28;28;28;28;28;28;28;
2021-10-02 11:33:53;4;123;123;123;123;123;123;123;122;123;123;
2021-10-02 11:33:53;5;120;120;120;120;120;120;120;120;120;120;
2021-10-02 11:33:53;ht;99;23.60
2021-10-02 11:33:53;v;3.82
2021-10-02 12:03:53;1;122;121;121;121;122;122;122;121;121;121;
2021-10-02 12:03:53;2;112;112;112;112;112;112;112;113;112;112;
2021-10-02 12:03:53;3;28;28;28;28;28;28;28;27;28;28;
2021-10-02 12:03:53;4;119;119;119;119;119;119;118;118;118;118;
2021-10-02 12:03:53;5;2;2;2;2;2;2;2;2;2;2;
2021-10-02 12:03:53;ht;99;25.20
2021-10-02 12:03:53;v;3.83
2021-10-02 12:33:53;1;2;2;2;2;1;1;2;2;2;2;
2021-10-02 12:33:53;2;110;110;110;110;110;110;110;110;110;110;
2021-10-02 12:33:53;3;28;28;28;28;28;28;28;28;28;28;
2021-10-02 12:33:53;4;125;125;125;125;125;125;125;125;125;125;
2021-10-02 12:33:53;5;121;121;121;121;121;121;121;121;121;121;
2021-10-02 12:33:53;ht;99;26.20
2021-10-02 12:33:53;v;3.82
2021-10-02 13:03:54;1;116;116;116;116;116;116;116;116;116;116;
2021-10-02 13:03:54;2;122;122;122;122;122;122;122;122;122;122;
2021-10-02 13:03:54;3;29;29;29;29;29;29;29;29;29;29;
2021-10-02 13:03:54;4;122;122;122;122;122;122;122;122;122;122;
2021-10-02 13:03:54;5;113;113;113;113;113;113;113;113;112;112;
2021-10-02 13:03:54;ht;98;26.70
2021-10-02 13:03:54;v;3.82
2021-10-02 13:33:56;1;114;113;111;110;109;108;108;107;106;105;
2021-10-02 13:33:56;2;115;116;115;115;115;115;115;115;115;115;
2021-10-02 13:33:56;3;27;27;28;28;28;28;28;27;28;28;
2021-10-02 13:33:56;4;119;119;119;119;119;119;119;119;119;119;
2021-10-02 13:33:56;5;2;1;2;2;2;2;2;2;2;2;
2021-10-02 13:33:56;ht;95;25.40
2021-10-02 13:33:56;v;3.83
2021-10-02 14:03:52;1;116;116;116;116;116;116;116;116;116;116;
2021-10-02 14:03:52;2;112;112;112;112;112;112;112;112;112;112;
2021-10-02 14:03:52;3;28;28;28;28;28;27;27;27;27;27;
2021-10-02 14:03:52;4;112;112;112;113;112;112;112;113;112;113;
2021-10-02 14:03:52;5;118;117;118;118;118;118;118;118;118;118;
2021-10-02 14:03:52;ht;99;22.40
2021-10-02 14:03:52;v;3.83
2021-10-02 14:33:48;1;95;95;95;95;95;95;95;95;95;95;
2021-10-02 14:33:48;2;122;122;122;122;122;122;122;122;122;122;
2021-10-02 14:33:48;3;27;27;27;27;27;27;27;27;27;27;
2021-10-02 14:33:48;4;118;118;118;118;118;118;118;118;118;118;
2021-10-02 14:33:48;5;107;107;107;107;107;107;107;107;107;107;
2021-10-02 14:33:48;ht;99;22.80
2021-10-02 14:33:48;v;3.82
2021-10-02 15:03:50;1;112;112;112;112;112;112;112;112;112;112;
2021-10-02 15:03:50;2;116;116;116;116;116;116;116;116;116;116;
2021-10-02 15:03:50;3;123;123;123;123;123;123;123;123;123;124;
2021-10-02 15:03:50;4;109;109;109;109;109;109;109;109;109;109;
2021-10-02 15:03:50;5;1;1;1;1;1;1;1;1;1;1;
2021-10-02 15:03:50;ht;99;23.90
2021-10-02 15:03:50;v;3.82
2021-10-02 15:33:53;1;114;114;114;114;114;114;114;114;114;114;
2021-10-02 15:33:53;2;114;114;114;114;113;114;114;114;114;113;
2021-10-02 15:33:53;3;106;106;106;106;106;106;107;106;106;107;
2021-10-02 15:33:53;4;125;125;126;125;126;126;125;126;126;125;
2021-10-02 15:33:53;5;119;119;119;120;120;120;120;120;120;120;
2021-10-02 15:33:53;ht;99;23.80
2021-10-02 15:33:53;v;3.83
2021-10-02 16:03:50;1;120;120;120;120;120;120;120;120;120;120;
2021-10-02 16:03:50;2;114;114;114;114;114;114;114;114;114;114;
2021-10-02 16:03:50;3;95;95;95;95;95;95;95;95;95;95;
2021-10-02 16:03:50;4;108;109;109;109;110;110;113;113;113;113;
2021-10-02 16:03:50;5;106;106;106;106;106;106;106;106;106;106;
2021-10-02 16:03:50;ht;99;22.80
2021-10-02 16:03:50;v;3.82
2021-10-02 16:33:52;1;120;120;120;120;120;120;120;120;120;120;
2021-10-02 16:33:52;2;117;117;117;117;117;117;117;117;116;117;
2021-10-02 16:33:52;3;99;99;99;99;99;99;99;99;99;99;
2021-10-02 16:33:52;4;107;107;107;107;107;107;107;107;107;107;
2021-10-02 16:33:52;5;98;98;98;98;98;98;98;98;98;98;
2021-10-02 16:33:52;ht;99;22.90
2021-10-02 16:33:52;v;3.82
2021-10-02 17:03:49;1;113;112;113;112;112;113;113;113;113;113;
2021-10-02 17:03:49;2;113;113;113;113;113;113;113;113;113;113;
2021-10-02 17:03:49;3;122;122;122;122;122;122;122;122;122;122;
2021-10-02 17:03:49;4;121;122;121;122;122;121;121;122;121;121;
2021-10-02 17:03:49;5;119;119;119;119;119;119;119;119;119;119;
2021-10-02 17:03:49;ht;99;20.80
2021-10-02 17:03:49;v;3.82
2021-10-02 17:33:49;1;119;119;119;119;119;119;119;119;119;119;
2021-10-02 17:33:49;2;118;118;118;118;118;118;118;118;118;118;
2021-10-02 17:33:49;3;107;108;107;107;107;107;107;107;107;107;
2021-10-02 17:33:49;4;119;119;119;119;120;120;119;119;119;119;
2021-10-02 17:33:49;5;1;1;1;1;1;2;2;2;2;2;
2021-10-02 17:33:49;ht;99;20.20
2021-10-02 17:33:49;v;3.82
2021-10-02 18:03:48;1;93;93;93;93;93;93;93;93;93;93;
2021-10-02 18:03:48;2;124;124;124;124;124;124;124;124;124;124;
2021-10-02 18:03:48;3;115;115;114;114;114;114;114;114;114;114;
2021-10-02 18:03:48;4;120;120;120;120;120;120;120;120;120;120;
2021-10-02 18:03:48;5;108;108;108;108;108;106;106;106;106;106;
2021-10-02 18:03:48;ht;99;19.70
2021-10-02 18:03:48;v;3.82
2021-10-02 18:33:47;1;89;89;89;89;89;89;89;89;89;89;
2021-10-02 18:33:47;2;116;116;116;116;116;116;116;116;116;116;
2021-10-02 18:33:47;3;129;129;129;129;129;129;129;129;129;129;
2021-10-02 18:33:47;4;118;118;118;118;118;118;118;118;118;117;
2021-10-02 18:33:47;5;111;111;111;111;111;111;110;110;110;110;
2021-10-02 18:33:47;ht;99;19.30
2021-10-02 18:33:47;v;3.81
2021-10-02 19:03:46;1;121;121;121;121;121;121;121;121;121;120;
2021-10-02 19:03:46;2;117;117;117;117;117;117;117;117;117;117;
2021-10-02 19:03:46;3;127;126;127;126;126;126;127;126;127;127;
2021-10-02 19:03:46;4;122;122;122;122;122;122;122;122;122;122;
2021-10-02 19:03:46;5;103;103;103;103;103;103;103;103;103;103;
2021-10-02 19:03:46;ht;99;18.90
2021-10-02 19:03:46;v;3.82
2021-10-02 19:33:48;1;120;120;120;120;120;120;120;120;120;120;
2021-10-02 19:33:48;2;121;121;121;121;121;121;121;121;121;121;
2021-10-02 19:33:48;3;127;126;127;127;126;126;127;126;126;126;
2021-10-02 19:33:48;4;122;121;121;122;121;121;121;121;121;121;
2021-10-02 19:33:48;5;102;102;102;102;102;102;102;102;103;102;
2021-10-02 19:33:48;ht;99;17.90
2021-10-02 19:33:48;v;3.82
2021-10-02 20:03:45;1;2;2;1;2;2;2;2;2;2;2;
2021-10-02 20:03:45;2;115;115;115;115;115;115;115;115;115;115;
2021-10-02 20:03:45;3;35;34;34;34;34;35;34;34;34;34;
2021-10-02 20:03:45;4;119;119;119;118;119;119;119;119;118;118;
2021-10-02 20:03:45;5;118;118;118;118;118;118;118;118;118;118;
2021-10-02 20:03:45;ht;99;17.10
2021-10-02 20:03:45;v;3.82
2021-10-02 20:33:47;1;117;117;117;117;117;117;117;117;117;117;
2021-10-02 20:33:47;2;121;121;121;121;121;121;121;121;121;121;
2021-10-02 20:33:47;3;125;125;126;125;125;125;125;125;125;125;
2021-10-02 20:33:47;4;119;119;119;119;119;119;119;119;119;119;
2021-10-02 20:33:47;5;119;119;119;119;119;119;119;119;119;119;
2021-10-02 20:33:47;ht;99;16.20
2021-10-02 20:33:47;v;3.81
2021-10-02 21:03:47;1;115;115;115;115;115;115;115;115;115;115;
2021-10-02 21:03:47;2;117;117;117;117;116;116;115;116;115;115;
2021-10-02 21:03:47;3;35;35;35;35;34;35;35;35;35;34;
2021-10-02 21:03:47;4;121;121;121;121;121;121;121;121;121;121;
2021-10-02 21:03:47;5;120;120;120;120;120;121;121;121;121;121;
2021-10-02 21:03:47;ht;99;16.50
2021-10-02 21:03:47;v;3.82
2021-10-02 21:33:48;1;125;125;125;125;125;125;125;125;125;125;
2021-10-02 21:33:48;2;118;118;118;118;118;118;118;118;118;118;
2021-10-02 21:33:48;3;42;42;42;42;42;42;41;41;42;42;
2021-10-02 21:33:48;4;118;118;118;118;118;118;118;118;118;118;
2021-10-02 21:33:48;5;123;123;123;123;123;123;123;123;123;123;
2021-10-02 21:33:48;ht;99;17.20
2021-10-02 21:33:48;v;3.82
2021-10-02 22:03:45;1;122;122;122;122;122;122;122;122;122;122;
2021-10-02 22:03:45;2;2;1;2;2;2;2;2;2;2;2;
2021-10-02 22:03:45;3;1;1;1;2;2;1;1;1;1;1;
2021-10-02 22:03:45;4;127;127;127;126;127;127;126;126;127;126;
2021-10-02 22:03:45;5;113;113;113;112;113;112;112;112;112;112;
2021-10-02 22:03:45;ht;99;17.60
2021-10-02 22:03:45;v;3.81
2021-10-02 22:33:46;1;120;120;120;120;120;121;121;121;121;121;
2021-10-02 22:33:46;2;119;119;119;119;119;119;119;118;118;118;
2021-10-02 22:33:46;3;36;36;36;36;36;36;36;36;36;36;
2021-10-02 22:33:46;4;124;124;124;124;124;124;124;124;124;124;
2021-10-02 22:33:46;5;129;129;129;129;129;129;129;129;129;129;
2021-10-02 22:33:46;ht;99;15.70
2021-10-02 22:33:46;v;3.82
2021-10-02 23:03:46;1;121;121;121;121;121;121;121;121;121;121;
2021-10-02 23:03:46;2;126;126;126;126;126;126;126;126;126;126;
2021-10-02 23:03:46;3;35;36;35;35;35;35;35;35;35;35;
2021-10-02 23:03:46;4;125;125;126;126;126;125;125;125;125;125;
2021-10-02 23:03:46;5;119;119;119;119;119;119;119;119;120;120;
2021-10-02 23:03:46;ht;99;15.10
2021-10-02 23:03:46;v;3.82
2021-10-02 23:33:46;1;120;120;120;120;120;120;120;120;120;120;
2021-10-02 23:33:46;2;122;122;122;122;122;122;122;122;122;122;
2021-10-02 23:33:46;3;34;34;34;34;34;34;33;33;34;34;
2021-10-02 23:33:46;4;123;123;123;123;123;123;123;123;123;123;
2021-10-02 23:33:46;5;113;114;113;113;113;113;113;113;113;113;
2021-10-02 23:33:46;ht;99;14.70
2021-10-02 23:33:46;v;3.82
