2021-06-17 00:03:40;1;124;124;124;124;124;124;124;124;124;124;
2021-06-17 00:03:40;2;2;2;2;2;2;2;2;2;2;2;
2021-06-17 00:03:40;3;32;32;32;32;32;32;32;32;32;32;
2021-06-17 00:03:40;4;120;120;120;120;120;120;120;120;120;120;
2021-06-17 00:03:40;5;128;128;128;128;128;128;128;128;128;128;
2021-06-17 00:03:40;ht;99;6.60
2021-06-17 00:03:40;v;4.10
2021-06-17 00:33:39;1;122;121;121;121;121;121;121;121;121;121;
2021-06-17 00:33:39;2;125;126;126;126;126;126;126;125;126;126;
2021-06-17 00:33:39;3;32;32;32;34;33;33;33;33;33;33;
2021-06-17 00:33:39;4;120;120;120;120;120;120;120;120;120;120;
2021-06-17 00:33:39;5;112;112;112;112;112;112;112;112;112;112;
2021-06-17 00:33:39;ht;99;6.50
2021-06-17 00:33:39;v;4.10
2021-06-17 01:03:43;1;121;121;122;122;122;122;122;122;122;122;
2021-06-17 01:03:43;2;124;123;124;124;123;124;124;123;124;124;
2021-06-17 01:03:43;3;33;33;33;33;33;33;33;33;33;33;
2021-06-17 01:03:43;4;122;122;122;122;122;122;121;122;122;132;
2021-06-17 01:03:43;5;113;113;120;115;114;114;113;113;113;113;
2021-06-17 01:03:43;ht;99;6.40
2021-06-17 01:03:43;v;4.10
2021-06-17 01:33:42;1;123;123;122;123;122;123;123;123;122;123;
2021-06-17 01:33:42;2;124;125;125;125;124;124;125;124;125;125;
2021-06-17 01:33:42;3;33;33;33;33;33;33;33;34;34;34;
2021-06-17 01:33:42;4;121;121;132;122;121;121;121;121;121;121;
2021-06-17 01:33:42;5;119;119;119;119;119;119;119;119;119;119;
2021-06-17 01:33:42;ht;99;6.20
2021-06-17 01:33:42;v;4.10
2021-06-17 02:03:41;1;127;126;127;126;127;126;127;127;127;127;
2021-06-17 02:03:41;2;125;125;125;125;125;125;125;125;125;125;
2021-06-17 02:03:41;3;35;35;34;34;34;34;34;34;34;34;
2021-06-17 02:03:41;4;121;121;121;121;121;121;121;121;121;121;
2021-06-17 02:03:41;5;115;115;115;114;115;115;115;115;115;115;
2021-06-17 02:03:41;ht;99;6.10
2021-06-17 02:03:41;v;4.10
2021-06-17 02:33:40;1;129;129;129;129;129;129;129;129;129;129;
2021-06-17 02:33:40;2;122;123;122;123;123;122;123;122;123;122;
2021-06-17 02:33:40;3;34;34;34;34;34;34;35;34;34;34;
2021-06-17 02:33:40;4;121;121;121;121;121;121;121;121;121;121;
2021-06-17 02:33:40;5;111;111;111;111;111;110;111;111;111;111;
2021-06-17 02:33:40;ht;99;6.00
2021-06-17 02:33:40;v;4.10
2021-06-17 03:03:39;1;124;125;125;125;125;125;125;124;125;125;
2021-06-17 03:03:39;2;115;115;114;115;115;115;114;115;114;114;
2021-06-17 03:03:39;3;34;34;34;34;34;34;34;34;34;34;
2021-06-17 03:03:39;4;120;120;119;121;130;122;121;121;120;120;
2021-06-17 03:03:39;5;112;112;112;113;112;112;113;112;112;112;
2021-06-17 03:03:39;ht;99;6.00
2021-06-17 03:03:39;v;4.10
2021-06-17 03:33:38;1;1;1;1;1;1;1;1;1;1;1;
2021-06-17 03:33:38;2;122;123;123;123;122;123;122;122;122;123;
2021-06-17 03:33:38;3;35;35;35;35;35;35;35;35;35;34;
2021-06-17 03:33:38;4;121;121;121;121;120;121;131;123;122;121;
2021-06-17 03:33:38;5;132;131;131;131;131;131;132;131;132;131;
2021-06-17 03:33:38;ht;99;5.80
2021-06-17 03:33:38;v;4.09
2021-06-17 04:03:42;1;131;131;131;131;131;131;131;131;131;131;
2021-06-17 04:03:42;2;123;123;123;123;123;123;123;123;123;122;
2021-06-17 04:03:42;3;35;35;35;35;35;35;35;35;35;35;
2021-06-17 04:03:42;4;120;120;120;120;120;120;120;120;120;120;
2021-06-17 04:03:42;5;112;112;112;112;112;112;112;112;112;112;
2021-06-17 04:03:42;ht;99;5.80
2021-06-17 04:03:42;v;4.10
2021-06-17 04:33:41;1;141;141;142;141;142;141;141;141;141;141;
2021-06-17 04:33:41;2;121;120;121;120;121;121;120;121;121;121;
2021-06-17 04:33:41;3;35;35;35;35;35;35;35;35;35;35;
2021-06-17 04:33:41;4;123;123;123;123;123;122;123;124;123;135;
2021-06-17 04:33:41;5;112;112;112;112;112;112;112;112;113;112;
2021-06-17 04:33:41;ht;99;5.90
2021-06-17 04:33:41;v;4.10
2021-06-17 05:03:40;1;121;121;121;121;121;121;121;120;121;121;
2021-06-17 05:03:40;2;117;117;117;117;116;116;117;117;117;117;
2021-06-17 05:03:40;3;36;36;35;36;36;36;36;36;36;36;
2021-06-17 05:03:40;4;118;119;118;119;119;119;118;118;118;119;
2021-06-17 05:03:40;5;113;113;113;113;113;113;113;113;113;113;
2021-06-17 05:03:40;ht;99;5.90
2021-06-17 05:03:40;v;4.09
2021-06-17 05:33:38;1;119;119;119;118;119;119;118;118;118;119;
2021-06-17 05:33:38;2;116;116;116;116;115;116;116;116;116;116;
2021-06-17 05:33:38;3;36;36;36;36;36;36;36;36;36;36;
2021-06-17 05:33:38;4;118;118;118;118;118;118;118;118;118;118;
2021-06-17 05:33:38;5;113;113;113;113;113;113;113;113;113;113;
2021-06-17 05:33:38;ht;99;5.80
2021-06-17 05:33:38;v;4.10
2021-06-17 06:03:42;1;130;130;130;130;130;130;130;130;130;130;
2021-06-17 06:03:42;2;119;119;119;118;119;119;118;119;118;119;
2021-06-17 06:03:42;3;36;36;36;36;36;36;36;36;36;37;
2021-06-17 06:03:42;4;122;122;122;122;122;122;122;122;122;122;
2021-06-17 06:03:42;5;119;119;119;119;119;119;119;119;119;119;
2021-06-17 06:03:42;ht;99;5.60
2021-06-17 06:03:42;v;4.10
2021-06-17 06:33:41;1;118;118;118;118;118;118;118;118;118;118;
2021-06-17 06:33:41;2;122;122;122;122;122;122;122;122;122;122;
2021-06-17 06:33:41;3;36;36;35;35;36;35;36;35;35;36;
2021-06-17 06:33:41;4;120;120;119;120;126;122;121;120;120;120;
2021-06-17 06:33:41;5;111;111;111;111;111;111;111;112;112;112;
2021-06-17 06:33:41;ht;99;5.50
2021-06-17 06:33:41;v;4.09
2021-06-17 07:03:39;1;120;120;120;120;120;120;120;120;120;120;
2021-06-17 07:03:39;2;119;119;119;119;119;119;119;119;119;119;
2021-06-17 07:03:39;3;35;35;35;35;35;35;35;35;35;35;
2021-06-17 07:03:39;4;118;117;117;117;117;117;117;117;117;117;
2021-06-17 07:03:39;5;112;112;112;112;112;112;112;112;112;112;
2021-06-17 07:03:39;ht;99;5.40
2021-06-17 07:03:39;v;4.09
2021-06-17 07:33:42;1;122;121;122;122;122;122;122;122;122;121;
2021-06-17 07:33:42;2;120;121;120;121;121;120;120;120;120;120;
2021-06-17 07:33:42;3;36;36;35;35;35;36;35;36;35;35;
2021-06-17 07:33:42;4;117;117;117;117;117;117;117;117;117;117;
2021-06-17 07:33:42;5;113;113;113;113;113;113;113;113;113;113;
2021-06-17 07:33:42;ht;99;4.60
2021-06-17 07:33:42;v;4.09
2021-06-17 08:03:40;1;123;123;123;123;123;123;123;123;123;123;
2021-06-17 08:03:40;2;121;120;120;120;120;120;120;120;121;120;
2021-06-17 08:03:40;3;38;38;38;38;37;38;38;38;37;38;
2021-06-17 08:03:40;4;129;119;118;118;118;118;118;118;118;118;
2021-06-17 08:03:40;5;113;113;113;113;113;113;113;113;113;113;
2021-06-17 08:03:40;ht;99;4.00
2021-06-17 08:03:40;v;4.09
2021-06-17 08:33:38;1;121;120;121;121;121;120;121;121;121;121;
2021-06-17 08:33:38;2;121;122;121;121;121;121;122;121;121;121;
2021-06-17 08:33:38;3;40;40;40;40;40;41;40;40;40;40;
2021-06-17 08:33:38;4;120;120;120;120;120;120;120;120;120;119;
2021-06-17 08:33:38;5;109;109;110;109;109;109;109;109;109;110;
2021-06-17 08:33:38;ht;99;3.90
2021-06-17 08:33:38;v;4.09
2021-06-17 09:03:40;1;122;122;122;122;122;122;122;122;122;122;
2021-06-17 09:03:40;2;119;119;119;119;119;119;119;119;126;120;
2021-06-17 09:03:40;3;45;45;45;45;45;45;45;45;45;45;
2021-06-17 09:03:40;4;128;128;128;128;128;128;128;128;128;128;
2021-06-17 09:03:40;5;107;107;107;107;107;107;107;107;107;107;
2021-06-17 09:03:40;ht;99;6.50
2021-06-17 09:03:40;v;4.10
2021-06-17 09:33:39;1;118;118;117;118;118;117;118;117;118;118;
2021-06-17 09:33:39;2;119;118;119;119;118;118;118;119;119;119;
2021-06-17 09:33:39;3;45;45;46;45;46;45;45;45;45;45;
2021-06-17 09:33:39;4;125;125;125;125;125;125;125;125;125;125;
2021-06-17 09:33:39;5;118;118;118;118;118;118;117;118;118;118;
2021-06-17 09:33:39;ht;99;7.40
2021-06-17 09:33:39;v;4.11
2021-06-17 10:03:39;1;119;119;119;119;119;119;119;119;119;118;
2021-06-17 10:03:39;2;114;113;114;123;115;114;114;114;114;114;
2021-06-17 10:03:39;3;43;44;43;44;43;43;43;43;43;43;
2021-06-17 10:03:39;4;126;126;126;126;126;126;126;126;126;126;
2021-06-17 10:03:39;5;114;114;114;114;114;114;114;114;114;114;
2021-06-17 10:03:39;ht;99;8.60
2021-06-17 10:03:39;v;4.11
2021-06-17 10:33:41;1;117;117;117;117;117;117;117;117;117;117;
2021-06-17 10:33:41;2;114;114;115;115;115;115;115;115;119;117;
2021-06-17 10:33:41;3;44;44;44;44;44;44;44;44;43;43;
2021-06-17 10:33:41;4;125;125;125;125;125;125;125;125;125;125;
2021-06-17 10:33:41;5;114;115;115;115;115;115;115;115;115;115;
2021-06-17 10:33:41;ht;99;10.40
2021-06-17 10:33:41;v;4.11
2021-06-17 11:03:43;1;117;117;117;116;117;117;116;117;117;117;
2021-06-17 11:03:43;2;119;118;119;119;119;126;120;119;119;119;
2021-06-17 11:03:43;3;42;42;42;42;42;42;42;42;42;42;
2021-06-17 11:03:43;4;125;125;125;125;125;125;125;125;125;125;
2021-06-17 11:03:43;5;114;114;114;114;114;114;114;114;114;114;
2021-06-17 11:03:43;ht;99;11.00
2021-06-17 11:03:43;v;4.11
2021-06-17 11:33:47;1;121;121;121;121;121;121;121;121;121;121;
2021-06-17 11:33:47;2;116;117;117;125;118;117;117;118;117;117;
2021-06-17 11:33:47;3;40;40;40;40;40;40;40;40;40;40;
2021-06-17 11:33:47;4;117;117;117;117;117;117;117;117;117;117;
2021-06-17 11:33:47;5;117;117;117;117;117;117;117;117;117;117;
2021-06-17 11:33:47;ht;99;13.10
2021-06-17 11:33:47;v;4.11
2021-06-17 12:03:47;1;120;120;120;120;120;120;120;120;120;120;
2021-06-17 12:03:47;2;115;115;115;115;115;115;115;115;115;115;
2021-06-17 12:03:47;3;36;36;36;36;36;36;36;36;36;36;
2021-06-17 12:03:47;4;127;128;127;128;127;127;127;127;127;128;
2021-06-17 12:03:47;5;114;114;113;114;114;114;114;114;114;114;
2021-06-17 12:03:47;ht;99;13.60
2021-06-17 12:03:47;v;4.11
2021-06-17 12:33:48;1;123;123;123;123;123;123;123;123;123;123;
2021-06-17 12:33:48;2;116;116;116;116;116;116;116;116;116;116;
2021-06-17 12:33:48;3;31;31;31;31;31;31;32;31;31;31;
2021-06-17 12:33:48;4;127;127;127;127;127;127;127;127;127;127;
2021-06-17 12:33:48;5;115;115;115;115;115;115;115;115;115;115;
2021-06-17 12:33:48;ht;99;13.60
2021-06-17 12:33:48;v;4.12
2021-06-17 13:03:45;1;121;120;121;121;121;121;120;121;121;120;
2021-06-17 13:03:45;2;114;114;114;114;113;113;114;114;114;114;
2021-06-17 13:03:45;3;32;32;32;32;32;32;32;32;32;32;
2021-06-17 13:03:45;4;128;128;128;128;129;128;128;128;128;128;
2021-06-17 13:03:45;5;108;108;108;107;108;108;108;108;108;108;
2021-06-17 13:03:45;ht;96;14.20
2021-06-17 13:03:45;v;4.12
2021-06-17 13:33:47;1;122;122;122;122;121;121;122;122;122;122;
2021-06-17 13:33:47;2;119;118;119;119;119;119;118;118;119;118;
2021-06-17 13:33:47;3;32;33;32;32;32;32;32;32;32;33;
2021-06-17 13:33:47;4;129;129;129;129;129;129;129;129;129;129;
2021-06-17 13:33:47;5;109;108;108;108;108;109;109;109;109;109;
2021-06-17 13:33:47;ht;99;11.40
2021-06-17 13:33:47;v;4.12
2021-06-17 14:03:43;1;120;120;120;120;120;120;120;120;120;120;
2021-06-17 14:03:43;2;115;116;116;116;116;115;124;116;116;117;
2021-06-17 14:03:43;3;33;33;32;33;33;33;32;32;33;33;
2021-06-17 14:03:43;4;122;122;122;122;122;122;122;122;122;122;
2021-06-17 14:03:43;5;110;110;110;110;109;109;109;109;110;109;
2021-06-17 14:03:43;ht;98;13.40
2021-06-17 14:03:43;v;4.12
2021-06-17 14:33:48;1;114;114;114;114;114;114;114;114;114;114;
2021-06-17 14:33:48;2;119;119;119;119;119;119;119;119;119;119;
2021-06-17 14:33:48;3;30;30;31;30;30;30;30;30;30;30;
2021-06-17 14:33:48;4;116;116;116;116;116;116;116;116;116;116;
2021-06-17 14:33:48;5;110;110;110;110;110;110;110;110;110;110;
2021-06-17 14:33:48;ht;97;11.90
2021-06-17 14:33:48;v;4.12
2021-06-17 15:03:43;1;116;116;116;116;116;116;116;116;116;116;
2021-06-17 15:03:43;2;114;114;115;114;114;114;114;114;115;115;
2021-06-17 15:03:43;3;34;34;34;34;34;34;34;34;35;35;
2021-06-17 15:03:43;4;117;117;117;117;117;117;117;117;117;117;
2021-06-17 15:03:43;5;109;109;109;109;109;109;109;109;109;109;
2021-06-17 15:03:43;ht;99;11.90
2021-06-17 15:03:43;v;4.12
2021-06-17 15:33:47;1;118;118;118;118;118;118;118;117;118;118;
2021-06-17 15:33:47;2;120;120;120;120;120;120;120;120;120;120;
2021-06-17 15:33:47;3;37;37;37;37;37;37;37;37;37;37;
2021-06-17 15:33:47;4;116;116;116;116;116;116;116;116;116;116;
2021-06-17 15:33:47;5;111;112;111;112;111;111;111;111;112;111;
2021-06-17 15:33:47;ht;96;11.80
2021-06-17 15:33:47;v;4.12
2021-06-17 16:03:45;1;120;120;120;120;120;120;120;120;120;120;
2021-06-17 16:03:45;2;125;125;125;125;125;125;125;125;125;125;
2021-06-17 16:03:45;3;39;39;39;39;39;39;39;39;39;39;
2021-06-17 16:03:45;4;123;123;123;123;123;123;123;123;123;123;
2021-06-17 16:03:45;5;121;121;121;121;121;121;121;121;121;121;
2021-06-17 16:03:45;ht;99;11.70
2021-06-17 16:03:45;v;4.12
2021-06-17 16:33:44;1;116;116;116;116;116;116;116;116;116;116;
2021-06-17 16:33:44;2;118;118;118;118;118;118;118;118;118;118;
2021-06-17 16:33:44;3;41;41;41;41;41;41;41;41;41;41;
2021-06-17 16:33:44;4;119;119;119;119;119;119;119;119;119;119;
2021-06-17 16:33:44;5;125;125;125;125;125;125;125;125;125;125;
2021-06-17 16:33:44;ht;98;12.10
2021-06-17 16:33:44;v;4.12
2021-06-17 17:03:42;1;118;118;118;118;118;118;118;118;118;118;
2021-06-17 17:03:42;2;118;118;118;118;118;118;118;118;118;118;
2021-06-17 17:03:42;3;41;41;41;41;41;41;41;41;41;41;
2021-06-17 17:03:42;4;116;116;116;116;116;116;116;116;116;116;
2021-06-17 17:03:42;5;113;113;113;113;113;113;113;113;113;113;
2021-06-17 17:03:42;ht;99;11.30
2021-06-17 17:03:42;v;4.12
2021-06-17 17:33:44;1;117;117;117;117;117;117;117;117;117;117;
2021-06-17 17:33:44;2;116;116;116;116;116;116;116;116;116;116;
2021-06-17 17:33:44;3;43;42;43;42;42;43;43;43;42;42;
2021-06-17 17:33:44;4;120;119;120;120;120;120;120;120;120;120;
2021-06-17 17:33:44;5;111;111;111;111;111;111;111;111;111;111;
2021-06-17 17:33:44;ht;99;9.50
2021-06-17 17:33:44;v;4.11
2021-06-17 18:03:41;1;120;120;120;120;120;126;121;121;121;120;
2021-06-17 18:03:41;2;117;117;117;117;117;117;117;117;117;117;
2021-06-17 18:03:41;3;45;45;45;45;45;45;45;45;45;45;
2021-06-17 18:03:41;4;114;114;114;114;114;114;114;114;114;114;
2021-06-17 18:03:41;5;109;109;109;109;109;109;109;109;109;109;
2021-06-17 18:03:41;ht;99;8.90
2021-06-17 18:03:41;v;4.11
2021-06-17 18:33:42;1;116;116;116;116;117;116;117;117;116;117;
2021-06-17 18:33:42;2;121;121;121;120;121;120;120;121;121;130;
2021-06-17 18:33:42;3;46;46;46;46;46;46;46;46;46;46;
2021-06-17 18:33:42;4;123;123;123;123;123;123;123;123;123;123;
2021-06-17 18:33:42;5;109;109;109;109;109;109;109;109;109;109;
2021-06-17 18:33:42;ht;99;8.90
2021-06-17 18:33:42;v;4.11
2021-06-17 19:03:42;1;115;115;115;115;115;116;115;115;115;115;
2021-06-17 19:03:42;2;118;117;117;118;118;118;117;118;117;124;
2021-06-17 19:03:42;3;47;47;47;47;47;47;47;47;47;47;
2021-06-17 19:03:42;4;119;120;119;120;120;119;119;120;120;120;
2021-06-17 19:03:42;5;113;113;112;112;112;112;112;112;112;113;
2021-06-17 19:03:42;ht;99;8.70
2021-06-17 19:03:42;v;4.11
2021-06-17 19:33:43;1;125;124;125;124;125;125;124;124;125;124;
2021-06-17 19:33:43;2;118;118;117;117;118;117;122;120;119;118;
2021-06-17 19:33:43;3;48;48;48;48;48;48;48;48;48;48;
2021-06-17 19:33:43;4;122;122;121;122;122;122;122;122;122;122;
2021-06-17 19:33:43;5;110;110;109;110;110;110;110;110;109;109;
2021-06-17 19:33:43;ht;99;8.60
2021-06-17 19:33:43;v;4.10
2021-06-17 20:03:43;1;138;138;138;138;138;138;138;138;138;138;
2021-06-17 20:03:43;2;115;115;115;115;115;115;115;115;115;115;
2021-06-17 20:03:43;3;49;49;49;48;49;48;49;49;49;48;
2021-06-17 20:03:43;4;119;119;119;119;119;119;119;119;119;119;
2021-06-17 20:03:43;5;110;110;110;110;110;110;110;110;110;110;
2021-06-17 20:03:43;ht;99;8.60
2021-06-17 20:03:43;v;4.11
2021-06-17 20:33:39;1;119;119;119;120;119;120;119;120;120;120;
2021-06-17 20:33:39;2;116;116;124;117;116;116;116;116;116;116;
2021-06-17 20:33:39;3;49;49;49;49;49;49;49;49;49;49;
2021-06-17 20:33:39;4;123;123;123;123;123;123;123;123;123;123;
2021-06-17 20:33:39;5;111;111;111;111;111;111;111;111;111;111;
2021-06-17 20:33:39;ht;99;8.20
2021-06-17 20:33:39;v;4.11
2021-06-17 21:03:39;1;117;117;117;117;118;117;117;118;117;117;
2021-06-17 21:03:39;2;116;117;116;117;117;117;117;117;122;119;
2021-06-17 21:03:39;3;49;49;49;50;49;49;49;49;49;49;
2021-06-17 21:03:39;4;125;125;126;126;126;126;126;126;126;126;
2021-06-17 21:03:39;5;111;111;111;111;111;111;111;111;111;111;
2021-06-17 21:03:39;ht;99;6.90
2021-06-17 21:03:39;v;4.10
2021-06-17 21:33:38;1;120;120;120;120;120;120;120;120;120;120;
2021-06-17 21:33:38;2;117;117;118;118;118;118;126;118;118;118;
2021-06-17 21:33:38;3;50;51;50;50;51;50;50;50;50;50;
2021-06-17 21:33:38;4;125;125;125;125;125;125;125;125;125;125;
2021-06-17 21:33:38;5;112;112;112;112;112;112;112;112;112;112;
2021-06-17 21:33:38;ht;99;5.90
2021-06-17 21:33:38;v;4.10
2021-06-17 22:03:41;1;120;120;120;119;119;119;119;119;119;119;
2021-06-17 22:03:41;2;117;117;117;117;126;118;118;118;118;118;
2021-06-17 22:03:41;3;52;52;52;52;52;52;52;52;52;52;
2021-06-17 22:03:41;4;126;126;126;126;126;126;126;126;126;126;
2021-06-17 22:03:41;5;113;113;113;113;113;113;113;113;113;113;
2021-06-17 22:03:41;ht;99;5.00
2021-06-17 22:03:41;v;4.10
2021-06-17 22:33:39;1;118;118;118;118;118;118;118;118;118;118;
2021-06-17 22:33:39;2;117;117;117;117;117;117;116;116;117;117;
2021-06-17 22:33:39;3;53;53;53;53;53;53;53;53;54;53;
2021-06-17 22:33:39;4;128;127;127;127;127;127;127;127;127;127;
2021-06-17 22:33:39;5;113;113;114;114;114;114;114;114;114;114;
2021-06-17 22:33:39;ht;99;4.90
2021-06-17 22:33:39;v;4.10
2021-06-17 23:03:41;1;132;132;132;132;132;132;132;133;141;133;
2021-06-17 23:03:41;2;116;115;124;116;116;116;116;116;116;115;
2021-06-17 23:03:41;3;54;54;54;54;54;54;54;54;54;54;
2021-06-17 23:03:41;4;127;126;126;126;126;127;127;127;127;126;
2021-06-17 23:03:41;5;113;112;112;112;112;113;112;112;112;112;
2021-06-17 23:03:41;ht;99;4.50
2021-06-17 23:03:41;v;4.09
2021-06-17 23:33:39;1;119;118;118;118;119;119;119;119;119;119;
2021-06-17 23:33:39;2;118;118;118;118;118;118;118;118;118;118;
2021-06-17 23:33:39;3;54;54;54;54;54;55;54;54;54;55;
2021-06-17 23:33:39;4;127;127;127;127;127;127;127;127;127;127;
2021-06-17 23:33:39;5;151;151;151;151;151;151;151;151;151;151;
2021-06-17 23:33:39;ht;99;3.60
2021-06-17 23:33:39;v;4.10
