2021-04-12 00:03:44;1;131;131;131;131;130;131;130;131;130;130;
2021-04-12 00:03:44;2;1;2;1;2;1;2;2;2;2;2;
2021-04-12 00:03:44;3;146;146;146;146;146;146;146;146;146;146;
2021-04-12 00:03:44;4;125;125;125;125;125;125;125;125;125;125;
2021-04-12 00:03:44;5;126;126;126;126;126;126;126;126;126;126;
2021-04-12 00:03:44;ht;99;11.50
2021-04-12 00:03:44;v;4.13
2021-04-12 00:33:42;1;130;130;130;130;130;130;130;130;130;130;
2021-04-12 00:33:42;2;1;1;1;1;1;1;1;1;1;1;
2021-04-12 00:33:42;3;145;146;145;145;145;145;147;147;147;148;
2021-04-12 00:33:42;4;125;124;125;125;124;125;124;125;124;125;
2021-04-12 00:33:42;5;127;127;127;127;127;127;127;127;127;127;
2021-04-12 00:33:42;ht;99;11.60
2021-04-12 00:33:42;v;4.13
2021-04-12 01:03:44;1;130;130;130;130;130;130;130;130;130;130;
2021-04-12 01:03:44;2;1;1;1;1;1;1;1;1;1;1;
2021-04-12 01:03:44;3;146;146;146;146;146;146;146;146;146;146;
2021-04-12 01:03:44;4;124;124;124;123;124;124;124;124;124;123;
2021-04-12 01:03:44;5;124;124;124;124;124;124;124;124;124;124;
2021-04-12 01:03:44;ht;99;11.20
2021-04-12 01:03:44;v;4.12
2021-04-12 01:33:42;1;130;130;130;130;130;130;130;130;130;130;
2021-04-12 01:33:42;2;1;1;1;1;1;1;1;1;1;1;
2021-04-12 01:33:42;3;145;145;145;145;145;145;145;145;145;145;
2021-04-12 01:33:42;4;123;123;123;124;123;124;123;123;123;123;
2021-04-12 01:33:42;5;126;127;126;126;126;126;126;127;127;126;
2021-04-12 01:33:42;ht;99;11.20
2021-04-12 01:33:42;v;4.12
2021-04-12 02:03:43;1;130;130;130;130;130;130;130;130;130;130;
2021-04-12 02:03:43;2;1;1;1;1;1;1;1;1;2;1;
2021-04-12 02:03:43;3;145;145;145;145;145;145;145;145;145;145;
2021-04-12 02:03:43;4;123;123;123;123;131;126;124;124;123;123;
2021-04-12 02:03:43;5;125;125;125;125;125;125;125;125;125;125;
2021-04-12 02:03:43;ht;99;10.90
2021-04-12 02:03:43;v;4.12
2021-04-12 02:33:40;1;130;130;130;130;130;130;130;130;130;130;
2021-04-12 02:33:40;2;1;1;1;1;1;1;1;1;1;1;
2021-04-12 02:33:40;3;144;145;145;145;145;145;144;145;145;145;
2021-04-12 02:33:40;4;125;126;126;126;126;125;126;125;125;126;
2021-04-12 02:33:40;5;126;125;126;126;126;126;126;125;126;126;
2021-04-12 02:33:40;ht;99;11.10
2021-04-12 02:33:40;v;4.12
2021-04-12 03:03:42;1;130;130;130;130;130;130;130;130;130;130;
2021-04-12 03:03:42;2;1;1;1;1;1;1;1;1;1;1;
2021-04-12 03:03:42;3;145;145;145;145;145;145;145;145;145;145;
2021-04-12 03:03:42;4;122;122;122;123;122;123;122;122;123;123;
2021-04-12 03:03:42;5;125;125;125;125;126;125;125;126;126;126;
2021-04-12 03:03:42;ht;99;10.60
2021-04-12 03:03:42;v;4.12
2021-04-12 03:33:43;1;131;131;130;131;131;131;131;131;131;131;
2021-04-12 03:33:43;2;1;1;1;1;1;1;1;1;1;1;
2021-04-12 03:33:43;3;146;146;146;146;146;146;146;146;146;146;
2021-04-12 03:33:43;4;123;123;123;123;133;125;124;123;123;123;
2021-04-12 03:33:43;5;126;126;126;126;126;126;126;126;126;126;
2021-04-12 03:33:43;ht;99;10.60
2021-04-12 03:33:43;v;4.12
2021-04-12 04:03:40;1;131;131;131;131;131;131;131;131;131;131;
2021-04-12 04:03:40;2;1;1;1;1;1;1;1;1;1;1;
2021-04-12 04:03:40;3;144;144;144;144;144;144;144;144;144;144;
2021-04-12 04:03:40;4;122;122;122;122;133;123;122;122;122;122;
2021-04-12 04:03:40;5;127;127;127;127;127;127;127;127;127;127;
2021-04-12 04:03:40;ht;99;10.00
2021-04-12 04:03:40;v;4.12
2021-04-12 04:33:41;1;131;131;131;131;131;131;131;131;131;131;
2021-04-12 04:33:41;2;1;1;1;1;1;1;1;1;1;1;
2021-04-12 04:33:41;3;144;145;145;145;145;145;145;145;145;145;
2021-04-12 04:33:41;4;120;121;121;120;121;120;120;121;120;121;
2021-04-12 04:33:41;5;125;126;125;126;125;125;126;125;126;125;
2021-04-12 04:33:41;ht;99;10.40
2021-04-12 04:33:41;v;4.12
2021-04-12 05:03:42;1;130;130;130;130;130;130;130;130;130;130;
2021-04-12 05:03:42;2;1;1;1;1;1;1;1;1;1;1;
2021-04-12 05:03:42;3;144;144;144;144;144;144;144;144;144;144;
2021-04-12 05:03:42;4;121;121;121;121;121;121;121;121;122;121;
2021-04-12 05:03:42;5;125;126;125;126;126;126;126;126;125;126;
2021-04-12 05:03:42;ht;99;9.70
2021-04-12 05:03:42;v;4.12
2021-04-12 05:33:43;1;131;131;131;131;131;131;131;131;131;131;
2021-04-12 05:33:43;2;1;1;1;1;1;1;1;1;1;1;
2021-04-12 05:33:43;3;148;148;149;148;148;148;149;149;149;149;
2021-04-12 05:33:43;4;132;123;122;122;122;122;122;122;122;122;
2021-04-12 05:33:43;5;126;126;126;126;126;126;126;126;127;126;
2021-04-12 05:33:43;ht;99;9.40
2021-04-12 05:33:43;v;4.12
2021-04-12 06:03:40;1;131;131;130;130;131;131;130;131;131;131;
2021-04-12 06:03:40;2;1;1;1;1;1;1;1;1;1;1;
2021-04-12 06:03:40;3;145;145;145;145;145;145;145;145;145;145;
2021-04-12 06:03:40;4;123;123;123;123;122;123;122;122;122;122;
2021-04-12 06:03:40;5;126;125;125;125;126;125;125;126;126;126;
2021-04-12 06:03:40;ht;99;9.20
2021-04-12 06:03:40;v;4.12
2021-04-12 06:33:41;1;130;130;130;130;130;130;130;130;130;130;
2021-04-12 06:33:41;2;1;1;1;1;1;1;1;1;1;1;
2021-04-12 06:33:41;3;144;144;144;144;144;144;144;144;144;144;
2021-04-12 06:33:41;4;121;121;121;121;121;122;121;121;121;121;
2021-04-12 06:33:41;5;126;125;126;125;126;125;125;125;125;126;
2021-04-12 06:33:41;ht;99;9.70
2021-04-12 06:33:41;v;4.12
2021-04-12 07:03:41;1;131;130;130;131;131;131;131;130;130;131;
2021-04-12 07:03:41;2;119;119;119;119;119;119;119;119;119;118;
2021-04-12 07:03:41;3;145;145;145;145;145;146;145;145;145;145;
2021-04-12 07:03:41;4;123;123;123;123;123;123;123;123;123;123;
2021-04-12 07:03:41;5;126;126;126;126;126;126;126;126;126;126;
2021-04-12 07:03:41;ht;99;9.40
2021-04-12 07:03:41;v;4.12
2021-04-12 07:33:42;1;130;130;130;130;130;130;130;130;130;130;
2021-04-12 07:33:42;2;123;122;122;122;122;123;122;122;122;123;
2021-04-12 07:33:42;3;149;149;149;149;150;149;149;149;149;149;
2021-04-12 07:33:42;4;123;123;123;123;123;123;123;123;123;123;
2021-04-12 07:33:42;5;126;126;125;126;126;126;126;126;126;126;
2021-04-12 07:33:42;ht;99;9.80
2021-04-12 07:33:42;v;4.12
2021-04-12 08:03:43;1;130;130;130;130;130;130;130;130;130;130;
2021-04-12 08:03:43;2;123;122;123;122;122;122;123;122;123;122;
2021-04-12 08:03:43;3;151;151;152;152;151;152;152;151;151;152;
2021-04-12 08:03:43;4;124;124;123;123;124;124;123;123;124;124;
2021-04-12 08:03:43;5;127;127;127;127;127;127;127;127;127;127;
2021-04-12 08:03:43;ht;99;12.70
2021-04-12 08:03:43;v;4.12
2021-04-12 08:33:45;1;130;130;130;130;130;130;130;131;130;130;
2021-04-12 08:33:45;2;121;121;121;121;121;121;120;120;121;121;
2021-04-12 08:33:45;3;152;152;152;152;152;152;152;152;152;152;
2021-04-12 08:33:45;4;123;123;123;123;123;123;123;123;123;123;
2021-04-12 08:33:45;5;127;127;127;127;127;127;127;127;127;127;
2021-04-12 08:33:45;ht;99;14.60
2021-04-12 08:33:45;v;4.13
2021-04-12 09:03:43;1;128;128;128;128;128;128;128;128;128;128;
2021-04-12 09:03:43;2;124;124;124;124;124;124;124;124;124;124;
2021-04-12 09:03:43;3;155;155;155;155;155;156;156;156;156;156;
2021-04-12 09:03:43;4;123;123;123;123;123;123;123;123;123;123;
2021-04-12 09:03:43;5;127;127;127;127;127;127;127;127;127;127;
2021-04-12 09:03:43;ht;99;17.10
2021-04-12 09:03:43;v;4.12
2021-04-12 09:33:44;1;129;129;129;129;129;129;129;129;129;129;
2021-04-12 09:33:44;2;122;122;122;122;122;122;122;122;122;122;
2021-04-12 09:33:44;3;153;153;153;153;153;153;153;153;153;153;
2021-04-12 09:33:44;4;125;123;123;123;123;123;123;123;123;123;
2021-04-12 09:33:44;5;126;126;126;132;128;126;126;126;126;126;
2021-04-12 09:33:44;ht;99;19.10
2021-04-12 09:33:44;v;4.13
2021-04-12 10:03:47;1;127;127;127;127;127;127;127;127;127;127;
2021-04-12 10:03:47;2;124;124;124;124;124;124;124;124;124;124;
2021-04-12 10:03:47;3;155;155;155;155;155;155;155;155;155;155;
2021-04-12 10:03:47;4;122;122;122;122;122;122;122;121;122;121;
2021-04-12 10:03:47;5;127;127;127;127;127;127;127;127;127;127;
2021-04-12 10:03:47;ht;99;20.80
2021-04-12 10:03:47;v;4.13
2021-04-12 10:33:50;1;128;127;127;127;127;127;127;127;127;128;
2021-04-12 10:33:50;2;127;127;127;127;127;127;127;127;127;127;
2021-04-12 10:33:50;3;157;157;157;157;157;157;157;157;157;157;
2021-04-12 10:33:50;4;120;120;120;120;120;120;120;120;120;120;
2021-04-12 10:33:50;5;126;126;126;126;126;126;126;126;126;126;
2021-04-12 10:33:50;ht;99;22.40
2021-04-12 10:33:50;v;4.13
2021-04-12 11:03:50;1;127;127;127;127;127;127;127;127;127;127;
2021-04-12 11:03:50;2;121;121;121;121;121;121;121;121;121;121;
2021-04-12 11:03:50;3;162;162;162;161;162;162;162;161;162;162;
2021-04-12 11:03:50;4;122;122;122;122;122;122;122;122;122;122;
2021-04-12 11:03:50;5;125;125;125;125;125;125;125;125;125;125;
2021-04-12 11:03:50;ht;99;22.40
2021-04-12 11:03:50;v;4.13
#2021-04-12 11:19:10;1;130;130;130;130;130;130;129;130;130;129;
2021-04-12 11:19:10;2;121;121;121;121;121;121;121;121;121;121;
2021-04-12 11:19:10;3;218;218;218;218;218;218;218;218;218;218;
2021-04-12 11:19:10;4;126;126;126;126;126;126;126;126;126;126;
2021-04-12 11:19:10;5;127;127;127;127;127;127;127;127;127;127;
2021-04-12 11:19:10;ht;99;21.80
2021-04-12 11:19:10;v;4.13
2021-04-12 11:31:41;1;127;128;132;131;128;128;128;128;127;127;
2021-04-12 11:31:41;2;125;125;125;125;125;125;125;125;125;125;
2021-04-12 11:31:41;3;179;179;179;179;179;179;180;179;179;179;
2021-04-12 11:31:41;4;123;123;123;123;123;123;123;123;123;123;
2021-04-12 11:31:41;5;125;125;125;125;125;125;125;125;125;125;
2021-04-12 11:31:41;ht;99;23.00
2021-04-12 11:31:41;v;4.14
2021-04-12 12:04:10;1;128;132;128;128;128;128;128;128;128;128;
2021-04-12 12:04:10;2;122;122;122;122;122;123;122;123;122;122;
2021-04-12 12:04:10;3;175;175;175;175;175;175;175;176;175;176;
2021-04-12 12:04:10;4;123;123;123;123;122;123;123;123;123;123;
2021-04-12 12:04:10;5;124;125;125;125;125;125;124;125;124;125;
2021-04-12 12:04:10;ht;99;23.10
2021-04-12 12:04:10;v;4.14
2021-04-12 12:33:51;1;127;127;127;127;127;127;127;135;128;128;
2021-04-12 12:33:51;2;122;122;122;122;122;122;122;122;122;122;
2021-04-12 12:33:51;3;174;174;174;174;173;174;174;174;174;174;
2021-04-12 12:33:51;4;125;125;125;125;125;125;125;125;125;125;
2021-04-12 12:33:51;5;124;124;123;124;124;123;123;123;123;123;
2021-04-12 12:33:51;ht;99;22.90
2021-04-12 12:33:51;v;4.13
2021-04-12 13:03:54;1;127;127;127;127;127;127;127;127;127;127;
2021-04-12 13:03:54;2;121;121;121;121;121;121;121;121;121;121;
2021-04-12 13:03:54;3;173;173;173;173;173;173;173;173;173;173;
2021-04-12 13:03:54;4;122;122;122;122;122;122;122;122;122;122;
2021-04-12 13:03:54;5;123;123;123;123;123;123;123;124;123;123;
2021-04-12 13:03:54;ht;99;23.20
2021-04-12 13:03:54;v;4.14
2021-04-12 13:33:53;1;128;128;128;134;130;129;129;128;128;128;
2021-04-12 13:33:53;2;121;121;121;121;121;121;121;121;121;121;
2021-04-12 13:33:53;3;174;174;174;174;174;174;174;174;174;173;
2021-04-12 13:33:53;4;122;122;122;122;122;122;122;122;122;122;
2021-04-12 13:33:53;5;123;123;123;123;123;123;123;123;123;123;
2021-04-12 13:33:53;ht;99;23.80
2021-04-12 13:33:53;v;4.14
2021-04-12 14:03:52;1;125;125;125;125;130;128;126;126;125;125;
2021-04-12 14:03:52;2;121;121;121;121;121;121;121;121;121;121;
2021-04-12 14:03:52;3;172;172;172;172;172;172;172;172;172;172;
2021-04-12 14:03:52;4;124;124;124;124;124;124;124;124;124;124;
2021-04-12 14:03:52;5;124;124;124;124;124;124;124;124;124;124;
2021-04-12 14:03:52;ht;98;23.90
2021-04-12 14:03:52;v;4.14
2021-04-12 14:33:52;1;128;128;128;127;127;127;128;127;127;127;
2021-04-12 14:33:52;2;124;124;124;124;124;124;124;124;124;124;
2021-04-12 14:33:52;3;172;172;172;172;172;172;172;172;172;172;
2021-04-12 14:33:52;4;123;123;123;123;123;123;123;123;122;123;
2021-04-12 14:33:52;5;124;124;124;124;124;124;124;124;124;124;
2021-04-12 14:33:52;ht;99;24.90
2021-04-12 14:33:52;v;4.14
2021-04-12 15:03:51;1;128;128;128;128;128;128;128;128;128;128;
2021-04-12 15:03:51;2;125;125;125;125;125;125;125;125;125;125;
2021-04-12 15:03:51;3;172;172;173;172;172;172;172;172;173;172;
2021-04-12 15:03:51;4;123;123;123;123;123;123;123;123;123;123;
2021-04-12 15:03:51;5;124;124;124;124;124;124;124;124;124;124;
2021-04-12 15:03:51;ht;96;24.30
2021-04-12 15:03:51;v;4.14
2021-04-12 15:33:55;1;128;128;128;128;128;134;131;129;129;128;
2021-04-12 15:33:55;2;123;123;123;123;123;123;123;123;123;123;
2021-04-12 15:33:55;3;172;172;173;172;172;173;173;173;172;173;
2021-04-12 15:33:55;4;125;125;124;125;124;125;125;125;125;125;
2021-04-12 15:33:55;5;124;124;124;124;124;124;124;124;124;124;
2021-04-12 15:33:55;ht;95;24.20
2021-04-12 15:33:55;v;4.14
2021-04-12 16:03:50;1;130;128;128;128;127;128;127;127;127;127;
2021-04-12 16:03:50;2;115;115;115;115;115;115;115;115;115;115;
2021-04-12 16:03:50;3;172;172;172;172;172;172;172;172;172;172;
2021-04-12 16:03:50;4;123;123;123;123;123;123;123;123;123;123;
2021-04-12 16:03:50;5;125;125;125;125;125;125;125;125;125;125;
2021-04-12 16:03:50;ht;95;24.10
2021-04-12 16:03:50;v;4.15
2021-04-12 16:33:55;1;128;128;128;132;132;129;129;129;129;128;
2021-04-12 16:33:55;2;122;123;122;122;122;123;122;122;122;122;
2021-04-12 16:33:55;3;171;171;171;172;171;171;172;171;171;171;
2021-04-12 16:33:55;4;123;123;123;123;123;123;123;123;123;123;
2021-04-12 16:33:55;5;124;124;124;124;124;124;124;124;124;124;
2021-04-12 16:33:55;ht;97;24.70
2021-04-12 16:33:55;v;4.14
2021-04-12 17:03:54;1;127;127;127;127;127;127;127;127;127;127;
2021-04-12 17:03:54;2;120;120;120;120;120;120;120;120;120;120;
2021-04-12 17:03:54;3;171;172;172;172;171;172;171;171;171;171;
2021-04-12 17:03:54;4;124;124;124;123;124;124;124;124;124;124;
2021-04-12 17:03:54;5;125;125;125;125;125;125;125;125;125;125;
2021-04-12 17:03:54;ht;95;23.80
2021-04-12 17:03:54;v;4.14
2021-04-12 17:33:53;1;128;128;134;131;129;129;128;128;128;128;
2021-04-12 17:33:53;2;124;124;124;124;124;124;124;124;124;124;
2021-04-12 17:33:53;3;171;171;171;171;171;172;172;172;172;172;
2021-04-12 17:33:53;4;123;123;123;123;123;123;123;123;123;123;
2021-04-12 17:33:53;5;125;125;125;125;125;125;125;125;125;125;
2021-04-12 17:33:53;ht;99;23.90
2021-04-12 17:33:53;v;4.14
2021-04-12 18:03:51;1;128;128;128;128;128;128;136;129;129;128;
2021-04-12 18:03:51;2;122;122;122;122;122;122;122;122;122;122;
2021-04-12 18:03:51;3;170;170;170;170;170;170;170;170;170;170;
2021-04-12 18:03:51;4;123;123;123;123;123;123;123;123;123;123;
2021-04-12 18:03:51;5;124;125;125;125;125;125;125;125;125;125;
2021-04-12 18:03:51;ht;99;23.10
2021-04-12 18:03:51;v;4.14
2021-04-12 18:33:48;1;129;138;130;130;130;129;129;129;129;130;
2021-04-12 18:33:48;2;121;121;121;122;121;121;121;121;121;121;
2021-04-12 18:33:48;3;168;168;168;168;168;168;168;168;168;168;
2021-04-12 18:33:48;4;124;124;124;124;124;124;124;124;124;124;
2021-04-12 18:33:48;5;125;125;125;125;125;125;125;125;125;125;
2021-04-12 18:33:48;ht;99;21.30
2021-04-12 18:33:48;v;4.14
2021-04-12 19:03:48;1;129;135;131;129;129;129;129;129;129;129;
2021-04-12 19:03:48;2;124;124;124;124;124;124;124;124;124;124;
2021-04-12 19:03:48;3;163;163;163;163;163;163;163;163;163;163;
2021-04-12 19:03:48;4;124;124;124;124;124;124;124;124;124;124;
2021-04-12 19:03:48;5;126;126;126;126;126;126;126;126;126;126;
2021-04-12 19:03:48;ht;99;18.40
2021-04-12 19:03:48;v;4.14
2021-04-12 19:33:46;1;128;129;129;128;128;128;128;128;129;135;
2021-04-12 19:33:46;2;142;141;141;141;141;141;141;141;141;141;
2021-04-12 19:33:46;3;160;160;160;160;160;160;160;160;160;160;
2021-04-12 19:33:46;4;127;127;127;127;127;127;127;127;127;127;
2021-04-12 19:33:46;5;126;126;126;126;126;126;126;126;126;126;
2021-04-12 19:33:46;ht;99;17.10
2021-04-12 19:33:46;v;4.14
2021-04-12 20:03:48;1;129;129;129;130;129;129;130;130;135;131;
2021-04-12 20:03:48;2;124;124;124;124;124;124;132;125;124;124;
2021-04-12 20:03:48;3;158;158;158;158;158;158;158;158;158;158;
2021-04-12 20:03:48;4;123;123;123;123;123;123;123;123;123;123;
2021-04-12 20:03:48;5;125;125;125;126;126;125;125;125;126;126;
2021-04-12 20:03:48;ht;99;16.40
2021-04-12 20:03:48;v;4.14
2021-04-12 20:33:44;1;129;129;130;129;129;129;129;130;136;131;
2021-04-12 20:33:44;2;134;134;134;134;134;134;134;134;134;134;
2021-04-12 20:33:44;3;158;158;158;158;158;158;158;158;158;158;
2021-04-12 20:33:44;4;126;126;126;126;126;126;126;126;126;126;
2021-04-12 20:33:44;5;126;126;126;126;126;126;126;126;126;126;
2021-04-12 20:33:44;ht;99;15.70
2021-04-12 20:33:44;v;4.13
2021-04-12 21:03:44;1;130;130;130;130;130;130;130;130;130;130;
2021-04-12 21:03:44;2;134;134;134;134;134;134;134;134;134;134;
2021-04-12 21:03:44;3;159;160;160;160;160;159;160;160;159;159;
2021-04-12 21:03:44;4;123;123;123;123;123;123;123;123;123;123;
2021-04-12 21:03:44;5;126;126;126;126;126;126;126;126;126;126;
2021-04-12 21:03:44;ht;99;15.90
2021-04-12 21:03:44;v;4.13
2021-04-12 21:33:44;1;128;129;128;128;128;128;128;136;129;129;
2021-04-12 21:33:44;2;121;121;121;121;121;121;121;120;121;121;
2021-04-12 21:33:44;3;158;158;158;158;158;158;158;158;158;158;
2021-04-12 21:33:44;4;125;125;126;126;125;125;126;126;125;125;
2021-04-12 21:33:44;5;126;126;126;126;126;126;126;126;126;126;
2021-04-12 21:33:44;ht;99;15.20
2021-04-12 21:33:44;v;4.13
2021-04-12 22:03:44;1;129;129;129;136;130;129;129;129;129;130;
2021-04-12 22:03:44;2;122;121;121;121;121;121;121;121;121;121;
2021-04-12 22:03:44;3;157;157;157;157;157;157;157;157;157;157;
2021-04-12 22:03:44;4;123;123;123;123;123;123;123;123;123;123;
2021-04-12 22:03:44;5;126;126;126;126;126;126;126;126;126;126;
2021-04-12 22:03:44;ht;99;14.70
2021-04-12 22:03:44;v;4.13
2021-04-12 22:33:43;1;130;130;130;130;130;130;130;138;130;130;
2021-04-12 22:33:43;2;120;120;119;119;119;119;119;119;119;119;
2021-04-12 22:33:43;3;156;156;156;156;156;156;156;156;156;156;
2021-04-12 22:33:43;4;124;124;124;123;124;124;124;124;124;124;
2021-04-12 22:33:43;5;127;127;127;126;127;127;127;127;127;127;
2021-04-12 22:33:43;ht;99;14.10
2021-04-12 22:33:43;v;4.13
2021-04-12 23:03:42;1;129;129;128;128;136;130;129;129;128;128;
2021-04-12 23:03:42;2;119;119;119;119;119;119;119;119;119;119;
2021-04-12 23:03:42;3;157;156;156;156;156;157;157;156;157;156;
2021-04-12 23:03:42;4;123;123;123;123;123;123;123;123;123;123;
2021-04-12 23:03:42;5;127;127;127;127;127;127;127;127;127;127;
2021-04-12 23:03:42;ht;99;14.20
2021-04-12 23:03:42;v;4.13
2021-04-12 23:33:46;1;130;131;130;130;130;130;130;130;130;130;
2021-04-12 23:33:46;2;123;124;124;123;123;123;123;123;123;124;
2021-04-12 23:33:46;3;154;154;154;154;154;154;154;154;154;154;
2021-04-12 23:33:46;4;123;123;123;123;123;123;123;123;123;123;
2021-04-12 23:33:46;5;126;126;126;126;127;126;126;126;126;126;
2021-04-12 23:33:46;ht;99;13.40
2021-04-12 23:33:46;v;4.13