2021-09-22 00:03:40;1;120;120;120;120;120;120;120;120;120;120;
2021-09-22 00:03:40;2;2;1;1;2;1;1;2;2;2;2;
2021-09-22 00:03:40;3;35;35;35;35;35;35;35;35;35;35;
2021-09-22 00:03:40;4;1;2;2;2;1;2;2;2;2;2;
2021-09-22 00:03:40;5;124;125;124;125;124;125;124;125;125;125;
2021-09-22 00:03:40;ht;99;7.60
2021-09-22 00:03:40;v;3.89
2021-09-22 00:33:40;1;130;130;130;130;130;130;130;130;130;130;
2021-09-22 00:33:40;2;1;1;2;2;1;1;2;1;1;1;
2021-09-22 00:33:40;3;38;38;38;38;38;38;38;38;38;38;
2021-09-22 00:33:40;4;122;122;122;122;122;122;122;122;122;122;
2021-09-22 00:33:40;5;126;126;126;126;125;126;126;126;126;126;
2021-09-22 00:33:40;ht;99;7.00
2021-09-22 00:33:40;v;3.91
2021-09-22 01:03:39;1;125;125;125;124;125;124;125;125;125;124;
2021-09-22 01:03:39;2;1;2;2;2;1;1;2;1;2;1;
2021-09-22 01:03:39;3;37;38;38;38;38;38;38;38;38;38;
2021-09-22 01:03:39;4;116;116;116;116;116;116;116;116;116;116;
2021-09-22 01:03:39;5;125;126;125;125;125;125;125;125;125;125;
2021-09-22 01:03:39;ht;99;6.80
2021-09-22 01:03:39;v;3.90
2021-09-22 01:33:38;1;110;109;109;110;109;109;109;109;110;109;
2021-09-22 01:33:38;2;1;2;1;2;2;2;2;1;1;2;
2021-09-22 01:33:38;3;37;37;37;37;37;37;37;37;37;37;
2021-09-22 01:33:38;4;116;116;116;116;115;116;115;115;116;115;
2021-09-22 01:33:38;5;122;123;122;122;122;122;122;122;123;122;
2021-09-22 01:33:38;ht;99;6.70
2021-09-22 01:33:38;v;3.90
2021-09-22 02:03:42;1;128;128;128;128;128;128;128;128;128;128;
2021-09-22 02:03:42;2;2;1;1;1;2;1;1;1;1;2;
2021-09-22 02:03:42;3;31;31;31;31;31;31;31;31;31;31;
2021-09-22 02:03:42;4;116;116;116;116;116;116;116;116;116;115;
2021-09-22 02:03:42;5;127;127;127;127;127;127;127;127;126;127;
2021-09-22 02:03:42;ht;99;6.90
2021-09-22 02:03:42;v;3.91
2021-09-22 02:33:41;1;116;116;116;116;116;116;116;116;116;116;
2021-09-22 02:33:41;2;2;1;2;1;1;2;2;1;1;1;
2021-09-22 02:33:41;3;25;25;25;25;25;25;25;25;25;25;
2021-09-22 02:33:41;4;114;115;115;114;114;115;114;114;115;114;
2021-09-22 02:33:41;5;122;122;122;122;122;122;122;122;122;122;
2021-09-22 02:33:41;ht;99;7.50
2021-09-22 02:33:41;v;3.91
2021-09-22 03:03:41;1;129;129;129;129;129;129;129;129;129;129;
2021-09-22 03:03:41;2;108;108;108;108;108;108;108;108;108;108;
2021-09-22 03:03:41;3;26;26;26;26;26;26;26;26;26;26;
2021-09-22 03:03:41;4;116;115;116;116;115;116;116;115;116;116;
2021-09-22 03:03:41;5;126;126;126;126;126;126;126;126;126;126;
2021-09-22 03:03:41;ht;99;6.30
2021-09-22 03:03:41;v;3.90
2021-09-22 03:33:40;1;127;127;126;127;127;127;127;127;127;127;
2021-09-22 03:33:40;2;1;2;1;2;2;2;2;1;2;1;
2021-09-22 03:33:40;3;38;38;38;38;38;38;38;38;38;38;
2021-09-22 03:33:40;4;117;117;117;117;117;117;117;117;117;117;
2021-09-22 03:33:40;5;130;131;130;130;130;130;131;131;131;131;
2021-09-22 03:33:40;ht;99;5.50
2021-09-22 03:33:40;v;3.91
2021-09-22 04:03:39;1;127;127;126;127;126;126;127;127;127;126;
2021-09-22 04:03:39;2;115;115;115;115;115;115;115;115;115;115;
2021-09-22 04:03:39;3;38;38;38;38;38;38;38;38;38;38;
2021-09-22 04:03:39;4;109;109;109;109;109;109;109;109;109;109;
2021-09-22 04:03:39;5;123;123;124;124;124;124;124;124;124;124;
2021-09-22 04:03:39;ht;99;5.90
2021-09-22 04:03:39;v;3.91
2021-09-22 04:33:42;1;121;121;121;121;121;121;121;120;121;121;
2021-09-22 04:33:42;2;112;112;112;112;112;112;112;112;112;112;
2021-09-22 04:33:42;3;25;25;25;25;25;25;25;25;25;25;
2021-09-22 04:33:42;4;114;114;114;114;114;114;114;114;114;114;
2021-09-22 04:33:42;5;129;129;129;129;129;129;129;129;129;129;
2021-09-22 04:33:42;ht;99;7.10
2021-09-22 04:33:42;v;3.90
2021-09-22 05:03:41;1;125;125;125;125;125;125;126;126;126;126;
2021-09-22 05:03:41;2;120;120;120;120;120;120;120;120;120;120;
2021-09-22 05:03:41;3;26;26;26;26;26;26;26;26;26;26;
2021-09-22 05:03:41;4;2;2;2;2;2;2;2;2;1;2;
2021-09-22 05:03:41;5;114;114;114;114;114;114;114;114;114;114;
2021-09-22 05:03:41;ht;99;6.30
2021-09-22 05:03:41;v;3.91
2021-09-22 05:33:40;1;113;113;113;113;113;113;113;113;113;113;
2021-09-22 05:33:40;2;111;111;111;112;111;112;111;111;112;111;
2021-09-22 05:33:40;3;24;24;24;24;24;24;24;24;24;24;
2021-09-22 05:33:40;4;1;1;1;2;1;1;2;2;2;2;
2021-09-22 05:33:40;5;117;117;118;117;117;117;118;117;117;117;
2021-09-22 05:33:40;ht;99;7.50
2021-09-22 05:33:40;v;3.91
2021-09-22 06:03:40;1;126;126;126;126;126;127;127;126;127;127;
2021-09-22 06:03:40;2;100;100;100;100;100;100;100;100;100;100;
2021-09-22 06:03:40;3;25;25;25;25;25;25;25;25;25;25;
2021-09-22 06:03:40;4;117;117;117;117;117;117;117;117;117;117;
2021-09-22 06:03:40;5;118;118;118;118;118;118;118;118;118;118;
2021-09-22 06:03:40;ht;99;8.10
2021-09-22 06:03:40;v;3.90
2021-09-22 06:33:40;1;127;126;126;127;126;126;126;126;126;126;
2021-09-22 06:33:40;2;97;97;97;97;97;97;97;97;97;97;
2021-09-22 06:33:40;3;24;24;24;24;24;24;24;24;24;24;
2021-09-22 06:33:40;4;117;117;117;117;117;117;117;118;118;117;
2021-09-22 06:33:40;5;115;116;115;115;115;115;115;115;115;115;
2021-09-22 06:33:40;ht;99;7.90
2021-09-22 06:33:40;v;3.90
2021-09-22 07:03:40;1;124;123;123;123;124;123;123;124;123;123;
2021-09-22 07:03:40;2;104;104;104;104;103;104;104;104;104;104;
2021-09-22 07:03:40;3;24;24;24;24;24;24;24;24;24;24;
2021-09-22 07:03:40;4;119;119;119;119;119;119;119;119;119;119;
2021-09-22 07:03:40;5;126;125;126;125;126;126;125;126;126;126;
2021-09-22 07:03:40;ht;99;8.00
2021-09-22 07:03:40;v;3.91
2021-09-22 07:33:40;1;118;118;117;118;117;118;117;117;118;117;
2021-09-22 07:33:40;2;115;115;115;115;115;115;115;115;115;115;
2021-09-22 07:33:40;3;24;24;24;24;24;24;24;24;24;24;
2021-09-22 07:33:40;4;127;127;127;127;127;127;127;127;127;127;
2021-09-22 07:33:40;5;108;108;108;108;108;108;108;108;108;108;
2021-09-22 07:33:40;ht;99;8.90
2021-09-22 07:33:40;v;3.91
2021-09-22 08:03:40;1;119;119;119;119;119;119;119;119;119;119;
2021-09-22 08:03:40;2;105;105;105;105;105;105;105;105;105;105;
2021-09-22 08:03:40;3;23;24;24;24;24;24;24;24;24;23;
2021-09-22 08:03:40;4;121;122;122;122;121;121;121;122;121;122;
2021-09-22 08:03:40;5;113;113;113;114;114;113;113;113;113;114;
2021-09-22 08:03:40;ht;99;9.90
2021-09-22 08:03:40;v;3.90
2021-09-22 08:33:42;1;123;123;123;123;123;123;123;123;123;123;
2021-09-22 08:33:42;2;107;107;107;107;107;107;107;107;107;107;
2021-09-22 08:33:42;3;25;25;25;25;25;25;25;25;25;25;
2021-09-22 08:33:42;4;112;112;112;112;112;112;112;112;112;112;
2021-09-22 08:33:42;5;115;115;115;115;115;116;116;115;116;115;
2021-09-22 08:33:42;ht;99;11.80
2021-09-22 08:33:42;v;3.91
2021-09-22 09:03:45;1;122;122;122;122;122;122;122;122;122;122;
2021-09-22 09:03:45;2;119;120;119;120;119;119;120;120;119;120;
2021-09-22 09:03:45;3;25;25;25;25;25;25;25;25;25;25;
2021-09-22 09:03:45;4;118;118;118;118;118;118;118;118;118;118;
2021-09-22 09:03:45;5;124;124;124;124;124;124;124;124;124;124;
2021-09-22 09:03:45;ht;99;12.40
2021-09-22 09:03:45;v;3.91
2021-09-22 09:33:44;1;123;123;123;123;123;123;123;123;123;123;
2021-09-22 09:33:44;2;118;118;117;117;118;117;118;117;117;118;
2021-09-22 09:33:44;3;25;25;24;25;25;25;25;25;25;25;
2021-09-22 09:33:44;4;117;118;118;118;117;118;118;117;118;118;
2021-09-22 09:33:44;5;124;124;123;123;124;123;123;124;123;123;
2021-09-22 09:33:44;ht;99;13.80
2021-09-22 09:33:44;v;3.91
2021-09-22 10:03:44;1;104;104;104;104;104;104;104;104;104;104;
2021-09-22 10:03:44;2;111;111;111;112;111;111;111;112;112;112;
2021-09-22 10:03:44;3;36;36;36;36;36;36;36;36;36;36;
2021-09-22 10:03:44;4;110;110;110;110;110;110;110;110;110;110;
2021-09-22 10:03:44;5;122;122;122;122;122;122;122;122;122;122;
2021-09-22 10:03:44;ht;99;14.30
2021-09-22 10:03:44;v;3.90
2021-09-22 10:33:44;1;118;117;118;118;118;118;117;118;118;117;
2021-09-22 10:33:44;2;93;93;93;93;93;93;93;93;93;93;
2021-09-22 10:33:44;3;36;36;36;36;36;36;36;36;36;36;
2021-09-22 10:33:44;4;116;116;116;116;116;116;116;116;116;116;
2021-09-22 10:33:44;5;122;122;122;122;122;122;122;122;122;122;
2021-09-22 10:33:44;ht;99;14.60
2021-09-22 10:33:44;v;3.91
2021-09-22 11:03:45;1;111;111;111;111;111;111;111;111;111;111;
2021-09-22 11:03:45;2;106;106;106;106;106;106;106;106;106;106;
2021-09-22 11:03:45;3;36;36;36;36;36;36;36;36;36;36;
2021-09-22 11:03:45;4;126;127;127;127;127;127;127;126;127;127;
2021-09-22 11:03:45;5;119;119;119;119;119;119;119;119;119;119;
2021-09-22 11:03:45;ht;99;15.30
2021-09-22 11:03:45;v;3.91
2021-09-22 11:33:46;1;102;102;102;102;102;102;102;102;102;102;
2021-09-22 11:33:46;2;102;102;102;102;102;102;102;102;102;102;
2021-09-22 11:33:46;3;36;36;36;36;36;36;36;36;36;36;
2021-09-22 11:33:46;4;123;123;123;123;123;123;123;123;123;123;
2021-09-22 11:33:46;5;120;120;120;119;119;120;119;119;119;119;
2021-09-22 11:33:46;ht;99;16.00
2021-09-22 11:33:46;v;3.90
2021-09-22 12:03:47;1;104;104;105;104;105;105;105;105;105;105;
2021-09-22 12:03:47;2;101;101;101;101;101;101;101;101;101;100;
2021-09-22 12:03:47;3;36;36;36;36;36;36;36;36;36;36;
2021-09-22 12:03:47;4;127;127;128;128;128;127;128;128;128;128;
2021-09-22 12:03:47;5;123;123;123;123;123;123;123;123;123;123;
2021-09-22 12:03:47;ht;99;16.10
2021-09-22 12:03:47;v;3.91
2021-09-22 12:33:49;1;112;111;112;111;112;112;111;112;112;112;
2021-09-22 12:33:49;2;1;1;1;1;1;1;1;2;1;1;
2021-09-22 12:33:49;3;35;35;35;35;35;35;35;35;35;35;
2021-09-22 12:33:49;4;120;120;120;120;120;120;120;120;120;120;
2021-09-22 12:33:49;5;123;123;123;123;123;123;123;123;123;123;
2021-09-22 12:33:49;ht;99;16.20
2021-09-22 12:33:49;v;3.91
2021-09-22 13:03:46;1;121;121;121;121;121;121;121;121;122;121;
2021-09-22 13:03:46;2;101;101;101;101;101;101;101;101;101;101;
2021-09-22 13:03:46;3;36;36;36;36;36;36;36;36;36;36;
2021-09-22 13:03:46;4;117;117;117;117;117;117;117;117;117;117;
2021-09-22 13:03:46;5;129;129;129;129;129;129;129;129;129;129;
2021-09-22 13:03:46;ht;99;16.80
2021-09-22 13:03:46;v;3.91
2021-09-22 13:33:48;1;114;114;114;114;114;114;114;114;113;114;
2021-09-22 13:33:48;2;95;95;95;95;95;95;95;95;95;95;
2021-09-22 13:33:48;3;32;32;32;32;32;32;32;32;32;32;
2021-09-22 13:33:48;4;112;112;111;111;112;112;112;112;112;111;
2021-09-22 13:33:48;5;112;111;112;111;112;112;111;112;112;112;
2021-09-22 13:33:48;ht;99;16.70
2021-09-22 13:33:48;v;3.90
2021-09-22 14:03:46;1;96;96;96;96;96;96;96;96;96;96;
2021-09-22 14:03:46;2;109;109;109;109;109;109;109;109;109;109;
2021-09-22 14:03:46;3;35;35;35;35;35;35;35;35;35;35;
2021-09-22 14:03:46;4;109;109;109;109;109;109;109;109;109;109;
2021-09-22 14:03:46;5;117;117;117;117;117;117;117;117;117;117;
2021-09-22 14:03:46;ht;99;17.80
2021-09-22 14:03:46;v;3.91
2021-09-22 14:33:50;1;109;108;108;109;109;108;109;109;109;109;
2021-09-22 14:33:50;2;91;91;91;91;91;91;91;91;91;91;
2021-09-22 14:33:50;3;36;36;36;36;36;36;36;36;36;36;
2021-09-22 14:33:50;4;110;111;111;110;110;111;110;111;111;110;
2021-09-22 14:33:50;5;121;121;122;121;122;122;122;122;122;122;
2021-09-22 14:33:50;ht;99;17.50
2021-09-22 14:33:50;v;3.91
2021-09-22 15:03:49;1;103;102;102;102;102;102;102;102;102;102;
2021-09-22 15:03:49;2;92;92;92;92;92;92;92;92;92;92;
2021-09-22 15:03:49;3;32;32;32;32;32;32;32;32;32;32;
2021-09-22 15:03:49;4;113;113;113;113;113;113;113;113;113;113;
2021-09-22 15:03:49;5;1;1;1;1;1;1;1;1;1;1;
2021-09-22 15:03:49;ht;99;19.80
2021-09-22 15:03:49;v;3.90
2021-09-22 15:33:51;1;115;115;115;114;115;115;115;115;115;115;
2021-09-22 15:33:51;2;98;98;98;98;98;98;98;98;98;98;
2021-09-22 15:33:51;3;37;37;37;37;37;37;37;37;37;37;
2021-09-22 15:33:51;4;108;108;108;108;108;108;108;108;108;108;
2021-09-22 15:33:51;5;117;117;117;117;117;117;117;117;117;117;
2021-09-22 15:33:51;ht;99;19.00
2021-09-22 15:33:51;v;3.91
2021-09-22 16:03:51;1;112;112;112;112;112;112;112;112;112;112;
2021-09-22 16:03:51;2;95;95;95;95;95;95;95;95;95;95;
2021-09-22 16:03:51;3;33;33;33;33;33;33;33;33;33;33;
2021-09-22 16:03:51;4;109;109;109;110;109;110;109;109;109;110;
2021-09-22 16:03:51;5;119;119;119;119;119;119;119;119;119;119;
2021-09-22 16:03:51;ht;99;18.30
2021-09-22 16:03:51;v;3.91
2021-09-22 16:33:50;1;121;121;121;121;121;121;121;121;121;121;
2021-09-22 16:33:50;2;91;91;91;91;91;91;91;91;91;91;
2021-09-22 16:33:50;3;40;40;40;40;40;40;40;40;40;40;
2021-09-22 16:33:50;4;115;115;114;115;115;114;114;114;114;115;
2021-09-22 16:33:50;5;127;127;127;127;127;127;127;127;127;127;
2021-09-22 16:33:50;ht;99;17.70
2021-09-22 16:33:50;v;3.90
2021-09-22 17:03:48;1;116;116;116;116;116;116;116;116;116;116;
2021-09-22 17:03:48;2;94;95;94;94;95;95;94;94;94;94;
2021-09-22 17:03:48;3;40;40;40;40;40;40;40;40;40;40;
2021-09-22 17:03:48;4;105;105;105;105;105;105;105;104;105;105;
2021-09-22 17:03:48;5;124;124;124;124;124;124;124;124;124;124;
2021-09-22 17:03:48;ht;99;17.40
2021-09-22 17:03:48;v;3.91
2021-09-22 17:33:46;1;114;114;114;114;114;114;114;114;114;114;
2021-09-22 17:33:46;2;96;96;96;96;96;96;96;96;96;96;
2021-09-22 17:33:46;3;40;40;40;40;40;40;39;40;40;40;
2021-09-22 17:33:46;4;118;118;118;118;118;118;118;118;118;118;
2021-09-22 17:33:46;5;123;123;123;123;123;123;123;123;123;123;
2021-09-22 17:33:46;ht;99;17.30
2021-09-22 17:33:46;v;3.91
2021-09-22 18:03:49;1;120;120;120;120;120;120;120;120;120;120;
2021-09-22 18:03:49;2;121;121;121;121;121;121;121;121;121;121;
2021-09-22 18:03:49;3;32;32;32;32;32;32;32;32;32;32;
2021-09-22 18:03:49;4;107;107;107;107;107;107;107;107;107;107;
2021-09-22 18:03:49;5;113;113;113;113;113;113;113;113;113;113;
2021-09-22 18:03:49;ht;99;17.80
2021-09-22 18:03:49;v;3.91
2021-09-22 18:33:48;1;104;104;104;104;104;103;103;103;103;103;
2021-09-22 18:33:48;2;93;93;93;93;93;93;93;93;93;93;
2021-09-22 18:33:48;3;38;38;38;38;38;38;38;38;38;38;
2021-09-22 18:33:48;4;96;96;96;96;96;96;96;96;96;96;
2021-09-22 18:33:48;5;112;113;112;113;113;112;113;112;112;112;
2021-09-22 18:33:48;ht;99;16.50
2021-09-22 18:33:48;v;3.90
2021-09-22 19:03:45;1;115;115;114;115;115;115;115;114;115;114;
2021-09-22 19:03:45;2;1;1;1;2;1;2;2;2;2;1;
2021-09-22 19:03:45;3;120;120;120;120;120;120;120;120;120;120;
2021-09-22 19:03:45;4;117;117;117;117;117;117;117;117;117;117;
2021-09-22 19:03:45;5;118;118;119;118;119;118;118;118;118;118;
2021-09-22 19:03:45;ht;99;14.50
2021-09-22 19:03:45;v;3.90
2021-09-22 19:33:45;1;104;104;104;104;104;104;104;104;104;104;
2021-09-22 19:33:45;2;107;107;107;107;107;107;107;107;107;107;
2021-09-22 19:33:45;3;125;125;124;125;125;124;124;125;124;124;
2021-09-22 19:33:45;4;118;117;118;117;118;117;117;118;118;118;
2021-09-22 19:33:45;5;118;118;118;118;118;118;118;118;118;118;
2021-09-22 19:33:45;ht;99;12.50
2021-09-22 19:33:45;v;3.91
2021-09-22 20:03:44;1;122;122;122;122;122;122;122;122;122;122;
2021-09-22 20:03:44;2;1;2;1;2;1;1;1;1;1;1;
2021-09-22 20:03:44;3;25;25;25;24;25;25;25;25;25;25;
2021-09-22 20:03:44;4;128;128;128;128;128;128;128;128;128;128;
2021-09-22 20:03:44;5;121;121;121;121;121;121;121;121;121;121;
2021-09-22 20:03:44;ht;99;13.60
2021-09-22 20:03:44;v;3.90
2021-09-22 20:33:43;1;124;124;123;123;124;124;124;124;124;124;
2021-09-22 20:33:43;2;114;114;114;114;114;114;114;114;114;114;
2021-09-22 20:33:43;3;25;25;25;25;25;25;25;25;25;25;
2021-09-22 20:33:43;4;119;119;119;119;119;119;119;119;119;119;
2021-09-22 20:33:43;5;127;127;127;127;127;127;127;127;127;127;
2021-09-22 20:33:43;ht;99;14.10
2021-09-22 20:33:43;v;3.90
2021-09-22 21:03:47;1;121;121;121;121;121;121;121;121;121;121;
2021-09-22 21:03:47;2;1;1;1;1;1;2;1;1;1;1;
2021-09-22 21:03:47;3;24;25;25;25;25;24;24;25;25;25;
2021-09-22 21:03:47;4;116;116;116;116;116;116;116;116;116;116;
2021-09-22 21:03:47;5;1;1;2;2;2;2;1;2;2;2;
2021-09-22 21:03:47;ht;99;13.80
2021-09-22 21:03:47;v;3.90
2021-09-22 21:33:46;1;123;122;122;123;123;123;122;123;123;123;
2021-09-22 21:33:46;2;117;118;118;118;118;117;117;118;117;118;
2021-09-22 21:33:46;3;25;25;25;25;25;25;24;25;24;25;
2021-09-22 21:33:46;4;127;127;127;127;127;127;127;127;127;127;
2021-09-22 21:33:46;5;122;122;121;122;121;122;121;121;121;121;
2021-09-22 21:33:46;ht;99;13.70
2021-09-22 21:33:46;v;3.90
2021-09-22 22:03:45;1;120;120;120;120;120;120;120;120;120;120;
2021-09-22 22:03:45;2;121;121;121;121;122;121;121;121;122;121;
2021-09-22 22:03:45;3;25;25;25;25;25;25;25;25;25;25;
2021-09-22 22:03:45;4;123;124;123;124;123;123;124;123;123;123;
2021-09-22 22:03:45;5;113;113;113;113;113;113;113;113;113;113;
2021-09-22 22:03:45;ht;99;13.50
2021-09-22 22:03:45;v;3.90
2021-09-22 22:33:45;1;123;122;123;122;123;123;123;123;123;123;
2021-09-22 22:33:45;2;124;124;124;124;124;123;123;123;123;123;
2021-09-22 22:33:45;3;25;25;25;25;25;25;25;25;25;25;
2021-09-22 22:33:45;4;126;126;126;126;126;126;126;126;126;126;
2021-09-22 22:33:45;5;120;120;120;120;120;120;120;120;120;120;
2021-09-22 22:33:45;ht;99;13.20
2021-09-22 22:33:45;v;3.90
2021-09-22 23:03:43;1;120;120;120;120;120;120;120;120;120;120;
2021-09-22 23:03:43;2;112;112;112;112;112;112;112;112;112;112;
2021-09-22 23:03:43;3;27;27;27;27;27;27;27;27;26;26;
2021-09-22 23:03:43;4;123;123;123;123;123;123;123;123;123;123;
2021-09-22 23:03:43;5;120;120;120;120;120;120;120;120;120;120;
2021-09-22 23:03:43;ht;99;12.00
2021-09-22 23:03:43;v;3.90
2021-09-22 23:33:42;1;121;121;121;121;121;120;121;120;120;120;
2021-09-22 23:33:42;2;109;109;109;109;109;109;109;109;109;109;
2021-09-22 23:33:42;3;24;25;25;25;25;24;25;25;25;25;
2021-09-22 23:33:42;4;121;121;122;122;121;121;121;121;121;121;
2021-09-22 23:33:42;5;117;117;117;118;117;117;117;118;117;117;
2021-09-22 23:33:42;ht;99;12.30
2021-09-22 23:33:42;v;3.90
