2021-03-28 00:03:46;1;124;124;124;123;124;123;123;124;123;123;
2021-03-28 00:03:46;2;126;126;126;126;126;127;126;126;126;126;
2021-03-28 00:03:46;3;40;40;40;40;40;40;40;41;41;40;
2021-03-28 00:03:46;4;123;123;122;122;122;122;122;123;123;122;
2021-03-28 00:03:46;5;123;123;123;123;123;123;123;123;123;123;
2021-03-28 00:03:46;ht;99;13.90
2021-03-28 00:03:46;v;4.13
2021-03-28 00:33:45;1;124;124;123;124;124;124;124;124;124;124;
2021-03-28 00:33:45;2;125;125;125;125;125;125;125;125;124;125;
2021-03-28 00:33:45;3;40;40;40;40;40;40;40;40;40;40;
2021-03-28 00:33:45;4;124;124;124;124;124;124;124;124;124;124;
2021-03-28 00:33:45;5;122;122;122;122;122;122;122;122;122;122;
2021-03-28 00:33:45;ht;99;13.90
2021-03-28 00:33:45;v;4.13
2021-03-28 01:03:44;1;124;124;124;124;124;124;124;124;124;124;
2021-03-28 01:03:44;2;127;127;127;127;127;127;127;127;127;127;
2021-03-28 01:03:44;3;40;40;40;40;40;40;40;40;40;40;
2021-03-28 01:03:44;4;124;124;124;124;124;124;124;124;124;124;
2021-03-28 01:03:44;5;123;123;123;123;123;123;123;123;123;123;
2021-03-28 01:03:44;ht;99;13.60
2021-03-28 01:03:44;v;4.13
2021-03-28 01:33:42;1;125;125;125;125;125;125;125;125;125;125;
2021-03-28 01:33:42;2;125;126;126;126;126;126;126;126;126;126;
2021-03-28 01:33:42;3;39;39;39;39;39;39;39;39;39;39;
2021-03-28 01:33:42;4;124;124;124;124;124;124;124;124;124;123;
2021-03-28 01:33:42;5;122;122;122;122;122;122;122;122;122;122;
2021-03-28 01:33:42;ht;99;13.90
2021-03-28 01:33:42;v;4.13
2021-03-28 02:03:45;1;127;126;126;126;126;126;126;126;127;127;
2021-03-28 02:03:45;2;123;123;122;123;123;123;123;123;123;123;
2021-03-28 02:03:45;3;39;40;39;40;39;40;40;39;39;39;
2021-03-28 02:03:45;4;124;124;125;125;125;125;125;125;125;125;
2021-03-28 02:03:45;5;123;123;123;123;123;123;123;123;123;123;
2021-03-28 02:03:45;ht;99;13.60
2021-03-28 02:03:45;v;4.13
2021-03-28 02:33:44;1;129;129;129;130;129;129;129;129;129;130;
2021-03-28 02:33:44;2;127;127;127;127;127;127;127;127;127;127;
2021-03-28 02:33:44;3;37;37;37;37;37;37;37;37;37;37;
2021-03-28 02:33:44;4;125;125;125;125;125;125;125;125;125;125;
2021-03-28 02:33:44;5;122;122;122;122;122;122;122;122;122;122;
2021-03-28 02:33:44;ht;99;13.40
2021-03-28 02:33:44;v;4.13
2021-03-28 03:03:43;1;125;125;125;125;125;125;125;125;125;125;
2021-03-28 03:03:43;2;122;123;123;123;123;123;123;123;123;123;
2021-03-28 03:03:43;3;35;35;35;35;35;35;36;36;35;35;
2021-03-28 03:03:43;4;125;125;125;125;125;125;125;125;125;125;
2021-03-28 03:03:43;5;121;121;121;121;121;121;121;121;121;121;
2021-03-28 03:03:43;ht;99;13.20
2021-03-28 03:03:43;v;4.13
2021-03-28 03:33:46;1;128;128;128;128;128;128;128;128;128;128;
2021-03-28 03:33:46;2;123;123;123;123;123;123;123;123;123;123;
2021-03-28 03:33:46;3;35;35;35;35;35;35;35;35;35;34;
2021-03-28 03:33:46;4;125;125;125;125;125;125;125;125;125;125;
2021-03-28 03:33:46;5;119;119;119;119;119;119;119;119;119;119;
2021-03-28 03:33:46;ht;99;13.20
2021-03-28 03:33:46;v;4.12
2021-03-28 04:03:44;1;129;129;129;129;129;129;129;129;129;129;
2021-03-28 04:03:44;2;125;125;125;125;125;124;124;124;124;124;
2021-03-28 04:03:44;3;34;35;34;34;34;34;34;34;34;35;
2021-03-28 04:03:44;4;124;124;124;124;124;124;124;124;124;124;
2021-03-28 04:03:44;5;123;123;123;123;123;123;123;123;123;123;
2021-03-28 04:03:44;ht;99;13.70
2021-03-28 04:03:44;v;4.13
2021-03-28 04:33:43;1;136;136;136;136;136;136;136;136;136;136;
2021-03-28 04:33:43;2;127;127;127;127;127;127;127;127;127;127;
2021-03-28 04:33:43;3;34;34;34;34;34;34;34;34;34;34;
2021-03-28 04:33:43;4;123;123;123;123;123;123;123;123;123;123;
2021-03-28 04:33:43;5;122;122;122;122;122;122;122;122;122;122;
2021-03-28 04:33:43;ht;99;13.30
2021-03-28 04:33:43;v;4.12
2021-03-28 05:03:46;1;127;127;127;127;127;127;127;127;127;127;
2021-03-28 05:03:46;2;124;124;124;124;124;124;124;124;124;124;
2021-03-28 05:03:46;3;34;34;34;34;34;34;34;34;34;34;
2021-03-28 05:03:46;4;124;124;124;124;124;124;124;124;124;124;
2021-03-28 05:03:46;5;122;122;122;122;122;122;122;122;122;122;
2021-03-28 05:03:46;ht;99;13.40
2021-03-28 05:03:46;v;4.12
2021-03-28 05:33:45;1;126;126;126;126;126;126;126;126;126;126;
2021-03-28 05:33:45;2;122;122;122;122;122;122;122;122;122;122;
2021-03-28 05:33:45;3;34;34;34;34;34;34;34;34;34;35;
2021-03-28 05:33:45;4;123;124;123;123;123;124;123;123;123;124;
2021-03-28 05:33:45;5;123;123;123;123;123;123;123;123;123;123;
2021-03-28 05:33:45;ht;99;13.60
2021-03-28 05:33:45;v;4.13
2021-03-28 06:03:44;1;127;127;127;127;127;127;127;127;127;127;
2021-03-28 06:03:44;2;123;123;123;123;123;123;123;123;123;123;
2021-03-28 06:03:44;3;34;33;33;34;33;34;33;33;33;33;
2021-03-28 06:03:44;4;121;121;121;121;121;121;121;121;121;121;
2021-03-28 06:03:44;5;118;118;118;118;119;118;118;118;118;118;
2021-03-28 06:03:44;ht;99;13.70
2021-03-28 06:03:44;v;4.13
2021-03-28 06:33:42;1;127;127;127;127;127;127;127;127;127;127;
2021-03-28 06:33:42;2;126;126;126;126;126;126;126;126;126;126;
2021-03-28 06:33:42;3;33;34;34;34;34;34;34;33;34;33;
2021-03-28 06:33:42;4;122;123;122;122;123;122;122;122;122;123;
2021-03-28 06:33:42;5;122;122;122;122;122;122;122;122;122;122;
2021-03-28 06:33:42;ht;99;13.90
2021-03-28 06:33:42;v;4.12
2021-03-28 07:03:46;1;124;124;124;124;124;124;124;124;124;124;
2021-03-28 07:03:46;2;131;131;131;131;131;131;131;131;131;131;
2021-03-28 07:03:46;3;32;32;32;32;32;32;32;32;32;32;
2021-03-28 07:03:46;4;124;124;124;124;124;124;124;124;124;124;
2021-03-28 07:03:46;5;122;122;122;122;122;122;122;122;122;122;
2021-03-28 07:03:46;ht;99;14.00
2021-03-28 07:03:46;v;4.12
2021-03-28 07:33:45;1;125;125;125;125;125;125;125;125;125;125;
2021-03-28 07:33:45;2;127;127;127;127;127;127;127;127;127;127;
2021-03-28 07:33:45;3;32;32;32;32;32;32;32;32;32;32;
2021-03-28 07:33:45;4;124;125;125;125;125;125;125;125;125;125;
2021-03-28 07:33:45;5;124;124;124;124;124;124;124;124;124;124;
2021-03-28 07:33:45;ht;99;14.20
2021-03-28 07:33:45;v;4.13
2021-03-28 08:03:45;1;122;122;122;122;122;122;122;122;122;122;
2021-03-28 08:03:45;2;126;126;126;126;126;126;126;126;126;126;
2021-03-28 08:03:45;3;39;39;39;39;39;39;39;38;38;39;
2021-03-28 08:03:45;4;120;120;120;120;120;120;120;120;120;120;
2021-03-28 08:03:45;5;125;125;124;124;124;124;125;125;124;124;
2021-03-28 08:03:45;ht;99;14.60
2021-03-28 08:03:45;v;4.13
2021-03-28 08:33:44;1;134;134;134;134;134;134;134;134;134;134;
2021-03-28 08:33:44;2;121;121;121;121;121;121;121;121;121;121;
2021-03-28 08:33:44;3;55;55;55;55;55;55;55;55;55;55;
2021-03-28 08:33:44;4;120;120;120;120;120;120;120;120;120;120;
2021-03-28 08:33:44;5;126;126;126;126;126;126;126;126;126;126;
2021-03-28 08:33:44;ht;99;15.00
2021-03-28 08:33:44;v;4.13
2021-03-28 09:03:44;1;130;129;130;130;129;129;129;129;130;129;
2021-03-28 09:03:44;2;136;135;136;136;136;136;135;135;135;135;
2021-03-28 09:03:44;3;47;47;47;47;47;47;47;47;47;47;
2021-03-28 09:03:44;4;123;123;123;123;123;123;123;123;123;123;
2021-03-28 09:03:44;5;123;123;123;123;123;123;123;123;123;123;
2021-03-28 09:03:44;ht;99;15.60
2021-03-28 09:03:44;v;4.13
2021-03-28 09:33:45;1;127;127;127;127;127;127;127;127;127;127;
2021-03-28 09:33:45;2;117;117;117;117;117;117;117;117;117;117;
2021-03-28 09:33:45;3;48;48;48;48;48;48;48;48;48;48;
2021-03-28 09:33:45;4;123;123;123;123;124;123;123;124;124;124;
2021-03-28 09:33:45;5;124;124;124;124;124;124;124;124;124;124;
2021-03-28 09:33:45;ht;99;16.60
2021-03-28 09:33:45;v;4.13
2021-03-28 10:03:46;1;126;126;126;126;126;126;126;126;126;126;
2021-03-28 10:03:46;2;120;120;120;120;120;120;120;120;120;120;
2021-03-28 10:03:46;3;45;45;45;45;45;45;45;44;45;44;
2021-03-28 10:03:46;4;124;124;124;124;124;124;124;124;124;124;
2021-03-28 10:03:46;5;120;120;120;120;120;120;120;120;120;120;
2021-03-28 10:03:46;ht;99;17.90
2021-03-28 10:03:46;v;4.13
2021-03-28 10:33:48;1;124;123;123;123;123;123;123;123;124;123;
2021-03-28 10:33:48;2;124;124;124;125;124;124;125;124;124;124;
2021-03-28 10:33:48;3;41;41;41;41;41;41;41;41;41;41;
2021-03-28 10:33:48;4;124;124;124;124;124;124;124;124;124;124;
2021-03-28 10:33:48;5;121;121;121;121;121;121;121;121;121;121;
2021-03-28 10:33:48;ht;99;18.10
2021-03-28 10:33:48;v;4.13
2021-03-28 11:03:47;1;122;122;122;122;122;122;122;122;122;122;
2021-03-28 11:03:47;2;120;120;120;120;120;120;120;120;120;120;
2021-03-28 11:03:47;3;39;40;40;40;40;40;40;40;40;40;
2021-03-28 11:03:47;4;125;125;125;125;125;125;125;125;125;125;
2021-03-28 11:03:47;5;121;121;121;121;121;121;121;121;121;121;
2021-03-28 11:03:47;ht;99;18.40
2021-03-28 11:03:47;v;4.13
2021-03-28 11:33:50;1;129;129;129;129;129;129;129;129;129;129;
2021-03-28 11:33:50;2;115;115;115;115;115;115;115;115;115;115;
2021-03-28 11:33:50;3;43;43;43;43;43;43;43;43;43;43;
2021-03-28 11:33:50;4;125;125;125;125;125;125;125;125;125;125;
2021-03-28 11:33:50;5;119;119;119;119;119;120;119;119;119;119;
2021-03-28 11:33:50;ht;99;18.80
2021-03-28 11:33:50;v;4.13
2021-03-28 12:03:50;1;131;131;130;131;130;131;131;131;130;131;
2021-03-28 12:03:50;2;121;121;121;121;121;121;121;121;121;121;
2021-03-28 12:03:50;3;47;47;47;47;48;48;47;47;47;47;
2021-03-28 12:03:50;4;124;124;124;124;124;124;124;124;124;124;
2021-03-28 12:03:50;5;122;122;122;122;122;122;122;122;122;122;
2021-03-28 12:03:50;ht;99;18.60
2021-03-28 12:03:50;v;4.13
2021-03-28 12:33:49;1;128;128;128;128;127;128;127;128;128;128;
2021-03-28 12:33:49;2;121;121;121;121;121;121;121;121;121;121;
2021-03-28 12:33:49;3;50;50;50;50;50;50;50;50;50;50;
2021-03-28 12:33:49;4;124;124;124;124;124;124;124;124;124;124;
2021-03-28 12:33:49;5;120;120;120;120;120;120;120;120;120;120;
2021-03-28 12:33:49;ht;99;19.30
2021-03-28 12:33:49;v;4.13
2021-03-28 13:03:48;1;126;126;126;126;126;126;126;126;126;126;
2021-03-28 13:03:48;2;122;122;121;122;122;122;122;122;122;122;
2021-03-28 13:03:48;3;52;52;52;52;52;52;52;52;52;52;
2021-03-28 13:03:48;4;124;124;124;124;124;124;124;124;124;124;
2021-03-28 13:03:48;5;125;125;125;125;125;125;125;125;125;125;
2021-03-28 13:03:48;ht;99;19.60
2021-03-28 13:03:48;v;4.14
2021-03-28 13:33:48;1;123;123;123;123;123;123;123;123;123;123;
2021-03-28 13:33:48;2;122;122;122;122;122;122;122;122;122;122;
2021-03-28 13:33:48;3;52;52;52;52;52;52;52;52;52;52;
2021-03-28 13:33:48;4;124;124;124;124;124;124;124;124;124;124;
2021-03-28 13:33:48;5;123;123;123;123;123;123;123;123;123;123;
2021-03-28 13:33:48;ht;99;19.10
2021-03-28 13:33:48;v;4.14
2021-03-28 14:03:47;1;124;124;124;124;124;124;124;124;124;124;
2021-03-28 14:03:47;2;128;127;127;127;127;128;127;127;127;127;
2021-03-28 14:03:47;3;53;54;54;54;54;54;54;54;54;54;
2021-03-28 14:03:47;4;122;122;122;122;122;122;122;122;122;122;
2021-03-28 14:03:47;5;123;123;123;123;123;123;123;123;123;123;
2021-03-28 14:03:47;ht;99;19.80
2021-03-28 14:03:47;v;4.13
2021-03-28 14:33:47;1;129;129;129;129;129;129;129;129;129;129;
2021-03-28 14:33:47;2;139;140;139;139;139;140;140;140;139;139;
2021-03-28 14:33:47;3;53;53;52;53;52;53;53;52;53;52;
2021-03-28 14:33:47;4;123;123;123;123;123;123;123;123;123;123;
2021-03-28 14:33:47;5;123;123;123;123;123;123;123;123;123;123;
2021-03-28 14:33:47;ht;99;20.60
2021-03-28 14:33:47;v;4.13
2021-03-28 15:03:48;1;127;127;127;127;127;127;127;127;127;127;
2021-03-28 15:03:48;2;119;119;119;119;119;119;119;119;119;119;
2021-03-28 15:03:48;3;54;54;53;54;53;54;54;54;54;54;
2021-03-28 15:03:48;4;122;122;122;122;122;122;122;122;122;122;
2021-03-28 15:03:48;5;122;122;122;122;122;122;122;122;122;122;
2021-03-28 15:03:48;ht;99;20.70
2021-03-28 15:03:48;v;4.14
2021-03-28 15:33:48;1;129;129;129;129;129;129;129;129;129;129;
2021-03-28 15:33:48;2;132;132;132;132;132;132;132;132;132;132;
2021-03-28 15:33:48;3;52;52;52;52;52;52;52;52;52;52;
2021-03-28 15:33:48;4;121;121;121;121;121;121;121;121;121;121;
2021-03-28 15:33:48;5;122;122;122;122;122;122;122;122;122;122;
2021-03-28 15:33:48;ht;99;21.10
2021-03-28 15:33:48;v;4.14
2021-03-28 16:03:49;1;128;128;128;127;127;128;127;128;128;127;
2021-03-28 16:03:49;2;121;121;121;121;121;121;121;121;121;121;
2021-03-28 16:03:49;3;51;52;52;52;52;51;51;51;51;51;
2021-03-28 16:03:49;4;121;121;121;121;121;121;121;121;121;121;
2021-03-28 16:03:49;5;120;120;120;120;120;120;120;120;120;119;
2021-03-28 16:03:49;ht;99;21.60
2021-03-28 16:03:49;v;4.14
2021-03-28 16:33:50;1;129;129;128;128;129;128;128;128;128;128;
2021-03-28 16:33:50;2;113;112;112;112;113;112;112;112;112;112;
2021-03-28 16:33:50;3;52;51;51;52;51;52;52;52;52;52;
2021-03-28 16:33:50;4;122;122;122;122;122;122;122;122;123;123;
2021-03-28 16:33:50;5;124;124;124;124;124;124;124;124;123;124;
2021-03-28 16:33:50;ht;99;21.80
2021-03-28 16:33:50;v;4.14
2021-03-28 17:03:52;1;128;127;128;128;128;127;128;127;128;128;
2021-03-28 17:03:52;2;129;129;129;129;129;129;129;129;129;129;
2021-03-28 17:03:52;3;53;53;53;53;53;53;53;53;53;53;
2021-03-28 17:03:52;4;123;123;123;123;123;123;123;123;123;123;
2021-03-28 17:03:52;5;122;122;122;122;122;122;122;122;122;122;
2021-03-28 17:03:52;ht;99;23.10
2021-03-28 17:03:52;v;4.14
2021-03-28 17:33:50;1;127;128;127;127;127;127;128;127;127;127;
2021-03-28 17:33:50;2;121;121;121;121;120;121;121;121;120;120;
2021-03-28 17:33:50;3;49;49;49;49;49;49;49;49;49;49;
2021-03-28 17:33:50;4;124;123;123;123;123;123;123;123;123;123;
2021-03-28 17:33:50;5;122;122;122;122;122;122;122;122;122;122;
2021-03-28 17:33:50;ht;99;22.80
2021-03-28 17:33:50;v;4.14
2021-03-28 18:03:52;1;127;127;127;127;127;127;127;127;127;127;
2021-03-28 18:03:52;2;127;127;127;127;127;127;127;127;127;127;
2021-03-28 18:03:52;3;49;49;49;49;49;49;50;49;49;49;
2021-03-28 18:03:52;4;122;122;122;122;122;122;122;122;122;122;
2021-03-28 18:03:52;5;123;123;123;123;123;123;123;123;123;123;
2021-03-28 18:03:52;ht;99;21.90
2021-03-28 18:03:52;v;4.14
2021-03-28 18:33:49;1;133;133;132;132;133;132;133;133;132;132;
2021-03-28 18:33:49;2;121;121;121;122;122;122;122;122;122;122;
2021-03-28 18:33:49;3;51;52;51;51;51;51;51;52;51;51;
2021-03-28 18:33:49;4;123;123;123;123;123;123;123;123;123;123;
2021-03-28 18:33:49;5;124;125;124;125;125;125;125;125;125;125;
2021-03-28 18:33:49;ht;99;20.40
2021-03-28 18:33:49;v;4.14
2021-03-28 19:03:49;1;130;129;129;129;129;129;129;129;129;129;
2021-03-28 19:03:49;2;120;120;120;120;120;120;120;120;120;120;
2021-03-28 19:03:49;3;52;52;52;52;52;52;52;52;52;52;
2021-03-28 19:03:49;4;123;123;124;123;124;124;124;124;124;124;
2021-03-28 19:03:49;5;121;121;121;121;121;121;121;121;121;121;
2021-03-28 19:03:49;ht;99;18.40
2021-03-28 19:03:49;v;4.14
2021-03-28 19:33:47;1;133;132;133;133;132;133;133;132;132;133;
2021-03-28 19:33:47;2;124;124;124;124;124;124;124;124;124;124;
2021-03-28 19:33:47;3;55;55;55;55;55;55;55;55;55;55;
2021-03-28 19:33:47;4;122;122;122;121;122;122;122;122;122;122;
2021-03-28 19:33:47;5;124;124;124;124;124;124;124;124;124;124;
2021-03-28 19:33:47;ht;99;17.20
2021-03-28 19:33:47;v;4.13
2021-03-28 20:03:48;1;153;153;153;153;152;153;153;153;152;152;
2021-03-28 20:03:48;2;123;123;123;123;123;123;123;123;123;123;
2021-03-28 20:03:48;3;56;56;56;56;57;57;56;57;56;57;
2021-03-28 20:03:48;4;124;124;124;124;124;124;124;124;124;124;
2021-03-28 20:03:48;5;126;126;126;126;126;126;126;126;126;126;
2021-03-28 20:03:48;ht;99;16.40
2021-03-28 20:03:48;v;4.14
2021-03-28 20:33:44;1;134;134;133;133;134;134;134;134;134;134;
2021-03-28 20:33:44;2;124;124;124;124;124;124;124;124;124;124;
2021-03-28 20:33:44;3;57;57;57;57;57;57;57;57;57;57;
2021-03-28 20:33:44;4;123;123;123;123;123;123;124;123;123;123;
2021-03-28 20:33:44;5;118;118;118;118;118;118;118;118;118;118;
2021-03-28 20:33:44;ht;99;15.90
2021-03-28 20:33:44;v;4.13
2021-03-28 21:03:44;1;135;135;135;135;135;135;135;135;135;135;
2021-03-28 21:03:44;2;123;123;123;123;123;123;123;123;123;123;
2021-03-28 21:03:44;3;57;57;57;57;57;58;57;57;57;57;
2021-03-28 21:03:44;4;122;122;122;122;122;122;122;122;122;122;
2021-03-28 21:03:44;5;124;124;124;124;124;124;124;125;124;124;
2021-03-28 21:03:44;ht;99;15.70
2021-03-28 21:03:44;v;4.13
2021-03-28 21:33:44;1;130;130;130;130;130;130;130;130;130;131;
2021-03-28 21:33:44;2;121;121;121;121;121;121;121;121;121;121;
2021-03-28 21:33:44;3;56;57;57;57;57;57;57;56;56;56;
2021-03-28 21:33:44;4;121;121;121;122;121;122;122;122;122;121;
2021-03-28 21:33:44;5;122;122;122;122;122;122;122;122;122;122;
2021-03-28 21:33:44;ht;99;15.60
2021-03-28 21:33:44;v;4.13
2021-03-28 22:03:44;1;129;129;129;129;129;129;129;129;129;129;
2021-03-28 22:03:44;2;121;121;121;121;121;121;121;121;121;121;
2021-03-28 22:03:44;3;57;57;57;57;57;57;57;57;57;57;
2021-03-28 22:03:44;4;122;122;122;122;122;122;122;122;122;123;
2021-03-28 22:03:44;5;124;124;124;124;124;124;124;124;124;124;
2021-03-28 22:03:44;ht;99;15.20
2021-03-28 22:03:44;v;4.13
2021-03-28 22:33:44;1;128;128;128;129;128;128;128;128;128;128;
2021-03-28 22:33:44;2;123;123;123;123;123;123;123;123;123;123;
2021-03-28 22:33:44;3;57;57;57;57;57;57;57;57;57;57;
2021-03-28 22:33:44;4;123;123;123;123;123;123;123;123;123;123;
2021-03-28 22:33:44;5;124;124;124;124;124;125;124;124;124;124;
2021-03-28 22:33:44;ht;99;14.70
2021-03-28 22:33:44;v;4.13
2021-03-28 23:03:44;1;130;130;130;130;130;130;130;130;130;130;
2021-03-28 23:03:44;2;122;122;122;122;122;122;122;122;122;122;
2021-03-28 23:03:44;3;57;57;57;57;57;57;57;57;57;57;
2021-03-28 23:03:44;4;123;123;123;123;123;123;123;123;123;123;
2021-03-28 23:03:44;5;124;124;124;124;124;124;124;124;124;124;
2021-03-28 23:03:44;ht;99;14.10
2021-03-28 23:03:44;v;4.13
2021-03-28 23:33:43;1;131;132;131;131;131;131;131;132;131;131;
2021-03-28 23:33:43;2;123;123;123;123;123;123;123;123;123;123;
2021-03-28 23:33:43;3;58;58;58;58;58;58;58;58;58;58;
2021-03-28 23:33:43;4;123;123;123;123;123;123;123;123;123;123;
2021-03-28 23:33:43;5;125;124;125;124;124;124;124;124;124;124;
2021-03-28 23:33:43;ht;99;14.10
2021-03-28 23:33:43;v;4.13
