2021-06-24 00:03:44;1;122;122;122;122;122;122;122;122;122;122;
2021-06-24 00:03:44;2;119;119;119;119;119;119;119;119;119;119;
2021-06-24 00:03:44;3;31;31;31;31;31;31;32;31;31;31;
2021-06-24 00:03:44;4;120;120;120;120;120;120;120;120;120;120;
2021-06-24 00:03:44;5;119;119;119;119;119;119;119;119;119;119;
2021-06-24 00:03:44;ht;99;13.20
2021-06-24 00:03:44;v;4.08
2021-06-24 00:33:43;1;120;120;120;120;120;120;120;120;120;120;
2021-06-24 00:33:43;2;118;118;118;118;118;118;118;118;118;118;
2021-06-24 00:33:43;3;26;26;26;26;26;26;26;26;26;26;
2021-06-24 00:33:43;4;128;128;128;128;128;128;128;128;128;128;
2021-06-24 00:33:43;5;110;110;110;110;110;110;110;110;110;110;
2021-06-24 00:33:43;ht;99;13.30
2021-06-24 00:33:43;v;4.08
2021-06-24 01:03:45;1;124;121;121;121;120;120;120;120;120;120;
2021-06-24 01:03:45;2;116;116;116;116;116;116;116;116;116;116;
2021-06-24 01:03:45;3;25;26;26;26;26;26;26;26;25;26;
2021-06-24 01:03:45;4;127;127;127;127;127;128;127;127;127;127;
2021-06-24 01:03:45;5;124;124;124;124;124;124;124;124;124;124;
2021-06-24 01:03:45;ht;99;13.10
2021-06-24 01:03:45;v;4.07
2021-06-24 01:33:44;1;121;121;121;121;121;121;121;121;121;121;
2021-06-24 01:33:44;2;113;113;113;113;113;113;113;113;113;113;
2021-06-24 01:33:44;3;26;26;26;26;26;26;26;26;26;26;
2021-06-24 01:33:44;4;1;1;1;2;2;1;2;1;1;1;
2021-06-24 01:33:44;5;125;125;125;125;125;125;125;125;125;125;
2021-06-24 01:33:44;ht;99;13.00
2021-06-24 01:33:44;v;4.07
2021-06-24 02:03:42;1;122;122;122;122;122;122;122;122;122;122;
2021-06-24 02:03:42;2;112;112;112;112;112;112;112;112;112;112;
2021-06-24 02:03:42;3;25;24;24;25;25;25;25;24;25;25;
2021-06-24 02:03:42;4;124;124;124;124;124;124;124;124;124;124;
2021-06-24 02:03:42;5;123;123;123;123;123;123;123;123;123;123;
2021-06-24 02:03:42;ht;99;12.90
2021-06-24 02:03:42;v;4.07
2021-06-24 02:33:45;1;119;119;119;119;119;119;119;119;119;119;
2021-06-24 02:33:45;2;112;112;112;112;112;112;112;112;112;112;
2021-06-24 02:33:45;3;28;28;27;28;27;27;28;28;28;27;
2021-06-24 02:33:45;4;118;118;118;118;119;119;118;119;119;119;
2021-06-24 02:33:45;5;111;111;111;111;111;111;111;111;111;111;
2021-06-24 02:33:45;ht;99;12.90
2021-06-24 02:33:45;v;4.07
2021-06-24 03:03:43;1;121;121;121;121;121;121;121;121;121;121;
2021-06-24 03:03:43;2;113;113;113;112;113;113;113;113;113;113;
2021-06-24 03:03:43;3;29;29;29;29;29;29;29;29;29;29;
2021-06-24 03:03:43;4;118;118;117;118;118;118;118;118;117;118;
2021-06-24 03:03:43;5;124;124;124;124;124;124;124;124;124;124;
2021-06-24 03:03:43;ht;99;12.30
2021-06-24 03:03:43;v;4.07
2021-06-24 03:33:45;1;121;121;121;121;121;121;121;121;121;121;
2021-06-24 03:33:45;2;113;114;114;114;114;114;114;114;114;114;
2021-06-24 03:33:45;3;29;29;29;29;30;29;29;29;29;29;
2021-06-24 03:33:45;4;117;117;117;117;117;117;117;117;117;117;
2021-06-24 03:33:45;5;105;105;104;104;105;104;105;105;105;104;
2021-06-24 03:33:45;ht;99;11.90
2021-06-24 03:33:45;v;4.07
2021-06-24 04:03:42;1;121;121;121;121;121;121;121;121;121;121;
2021-06-24 04:03:42;2;115;115;115;115;115;115;115;115;115;115;
2021-06-24 04:03:42;3;29;30;30;30;30;29;29;29;30;30;
2021-06-24 04:03:42;4;116;116;116;116;116;116;116;116;116;116;
2021-06-24 04:03:42;5;107;107;107;107;107;107;107;107;107;107;
2021-06-24 04:03:42;ht;99;12.00
2021-06-24 04:03:42;v;4.07
2021-06-24 04:33:44;1;123;123;123;123;123;123;123;123;123;123;
2021-06-24 04:33:44;2;115;115;115;115;115;115;115;115;115;115;
2021-06-24 04:33:44;3;29;28;28;29;29;29;29;29;29;29;
2021-06-24 04:33:44;4;118;118;118;118;118;118;118;118;117;118;
2021-06-24 04:33:44;5;112;112;112;112;112;112;112;112;112;112;
2021-06-24 04:33:44;ht;99;11.40
2021-06-24 04:33:44;v;4.07
2021-06-24 05:03:41;1;122;122;122;122;122;122;122;122;122;122;
2021-06-24 05:03:41;2;116;116;116;116;116;116;116;116;116;116;
2021-06-24 05:03:41;3;29;28;29;28;28;28;28;28;28;29;
2021-06-24 05:03:41;4;130;130;130;130;130;130;130;131;130;130;
2021-06-24 05:03:41;5;118;118;118;118;118;118;118;118;118;118;
2021-06-24 05:03:41;ht;99;11.00
2021-06-24 05:03:41;v;4.07
2021-06-24 05:33:43;1;121;121;121;121;121;121;121;121;121;121;
2021-06-24 05:33:43;2;114;114;114;114;114;114;114;114;114;114;
2021-06-24 05:33:43;3;26;26;26;26;26;26;26;26;25;26;
2021-06-24 05:33:43;4;123;123;123;123;123;123;123;123;123;123;
2021-06-24 05:33:43;5;125;125;125;125;125;125;125;125;125;125;
2021-06-24 05:33:43;ht;99;11.30
2021-06-24 05:33:43;v;4.07
2021-06-24 06:03:44;1;120;120;120;120;120;120;120;120;120;120;
2021-06-24 06:03:44;2;116;116;116;116;116;116;116;116;116;116;
2021-06-24 06:03:44;3;21;21;21;21;21;21;21;21;21;21;
2021-06-24 06:03:44;4;118;118;118;119;118;119;119;118;118;118;
2021-06-24 06:03:44;5;121;121;121;121;121;121;121;121;121;121;
2021-06-24 06:03:44;ht;99;11.50
2021-06-24 06:03:44;v;4.07
2021-06-24 06:33:41;1;122;122;122;122;122;122;122;122;122;122;
2021-06-24 06:33:41;2;113;113;113;113;112;113;113;113;113;113;
2021-06-24 06:33:41;3;20;20;20;20;20;20;20;20;20;20;
2021-06-24 06:33:41;4;118;118;118;118;118;118;118;118;118;118;
2021-06-24 06:33:41;5;127;127;127;127;126;127;127;127;127;127;
2021-06-24 06:33:41;ht;99;11.50
2021-06-24 06:33:41;v;4.07
2021-06-24 07:03:43;1;124;124;124;124;124;124;124;124;124;124;
2021-06-24 07:03:43;2;118;118;118;118;118;118;118;118;118;118;
2021-06-24 07:03:43;3;19;19;19;19;19;19;19;19;19;19;
2021-06-24 07:03:43;4;114;114;114;114;114;114;114;114;114;114;
2021-06-24 07:03:43;5;129;129;129;129;129;129;129;129;129;129;
2021-06-24 07:03:43;ht;99;11.30
2021-06-24 07:03:43;v;4.07
2021-06-24 07:33:44;1;118;117;118;117;117;117;117;117;117;117;
2021-06-24 07:33:44;2;114;114;114;114;114;114;114;114;114;114;
2021-06-24 07:33:44;3;21;20;21;20;21;21;21;21;20;21;
2021-06-24 07:33:44;4;114;114;114;114;114;114;114;114;114;114;
2021-06-24 07:33:44;5;129;129;129;129;129;129;129;129;129;129;
2021-06-24 07:33:44;ht;99;9.50
2021-06-24 07:33:44;v;4.07
2021-06-24 08:03:41;1;122;122;122;122;122;122;122;122;122;122;
2021-06-24 08:03:41;2;115;115;115;115;115;115;115;115;115;115;
2021-06-24 08:03:41;3;24;24;24;24;24;24;24;24;24;24;
2021-06-24 08:03:41;4;115;115;115;115;115;115;115;115;115;115;
2021-06-24 08:03:41;5;109;109;109;109;109;109;109;109;109;109;
2021-06-24 08:03:41;ht;99;9.60
2021-06-24 08:03:41;v;4.07
2021-06-24 08:33:41;1;123;123;123;123;123;123;123;123;123;123;
2021-06-24 08:33:41;2;111;111;111;111;111;111;111;110;111;111;
2021-06-24 08:33:41;3;27;27;27;28;28;28;27;28;27;27;
2021-06-24 08:33:41;4;114;114;114;114;114;114;114;114;114;114;
2021-06-24 08:33:41;5;115;115;115;115;115;115;115;115;115;115;
2021-06-24 08:33:41;ht;99;10.00
2021-06-24 08:33:41;v;4.07
2021-06-24 09:03:42;1;118;118;118;118;118;118;118;118;118;118;
2021-06-24 09:03:42;2;117;117;117;117;117;117;117;117;117;117;
2021-06-24 09:03:42;3;33;33;33;33;33;33;33;33;33;33;
2021-06-24 09:03:42;4;120;120;120;120;120;120;120;120;120;120;
2021-06-24 09:03:42;5;113;113;113;113;113;113;113;113;113;113;
2021-06-24 09:03:42;ht;99;10.90
2021-06-24 09:03:42;v;4.07
2021-06-24 09:33:43;1;119;119;119;119;119;119;119;119;119;119;
2021-06-24 09:33:43;2;114;114;114;114;114;114;114;114;114;114;
2021-06-24 09:33:43;3;38;38;38;38;38;38;38;38;38;38;
2021-06-24 09:33:43;4;116;116;116;116;116;116;116;117;116;116;
2021-06-24 09:33:43;5;114;114;113;113;114;114;114;114;113;114;
2021-06-24 09:33:43;ht;99;12.00
2021-06-24 09:33:43;v;4.07
2021-06-24 10:03:41;1;117;117;117;117;117;117;117;117;117;117;
2021-06-24 10:03:41;2;108;108;108;108;108;108;108;108;108;108;
2021-06-24 10:03:41;3;34;34;34;34;34;34;34;34;34;34;
2021-06-24 10:03:41;4;127;127;127;127;127;127;127;127;127;127;
2021-06-24 10:03:41;5;108;108;108;108;108;108;108;108;108;108;
2021-06-24 10:03:41;ht;99;12.90
2021-06-24 10:03:41;v;4.07
2021-06-24 10:33:45;1;119;119;119;119;119;119;119;119;119;119;
2021-06-24 10:33:45;2;110;109;110;110;110;109;110;110;110;110;
2021-06-24 10:33:45;3;36;36;36;36;36;36;36;36;36;36;
2021-06-24 10:33:45;4;119;119;119;119;119;119;119;119;119;119;
2021-06-24 10:33:45;5;113;113;113;113;113;112;113;112;113;113;
2021-06-24 10:33:45;ht;99;13.20
2021-06-24 10:33:45;v;4.07
2021-06-24 11:03:43;1;123;123;123;123;123;123;123;123;123;123;
2021-06-24 11:03:43;2;113;113;113;113;113;113;113;113;113;114;
2021-06-24 11:03:43;3;40;40;40;40;40;40;40;40;40;40;
2021-06-24 11:03:43;4;121;121;121;121;121;121;121;121;121;121;
2021-06-24 11:03:43;5;111;111;111;111;111;111;111;111;111;111;
2021-06-24 11:03:43;ht;99;12.50
2021-06-24 11:03:43;v;4.07
2021-06-24 11:33:42;1;120;120;120;120;120;120;120;120;120;120;
2021-06-24 11:33:42;2;131;131;131;131;131;131;131;131;131;131;
2021-06-24 11:33:42;3;41;41;41;41;41;41;41;41;41;41;
2021-06-24 11:33:42;4;119;119;119;120;119;120;119;119;120;119;
2021-06-24 11:33:42;5;110;110;110;110;110;110;110;110;110;110;
2021-06-24 11:33:42;ht;99;12.10
2021-06-24 11:33:42;v;4.07
2021-06-24 12:03:44;1;128;128;127;128;128;127;128;128;128;127;
2021-06-24 12:03:44;2;110;110;110;110;110;110;110;109;110;110;
2021-06-24 12:03:44;3;41;41;41;41;41;41;41;41;41;41;
2021-06-24 12:03:44;4;115;115;115;115;115;115;115;115;115;115;
2021-06-24 12:03:44;5;116;116;116;116;116;116;116;116;116;116;
2021-06-24 12:03:44;ht;99;12.20
2021-06-24 12:03:44;v;4.07
2021-06-24 12:33:43;1;117;117;117;117;117;117;117;117;117;117;
2021-06-24 12:33:43;2;110;110;110;110;110;110;110;110;110;110;
2021-06-24 12:33:43;3;41;41;41;41;41;41;41;41;41;41;
2021-06-24 12:33:43;4;120;120;120;120;120;120;120;120;120;120;
2021-06-24 12:33:43;5;108;109;109;109;108;109;108;109;109;108;
2021-06-24 12:33:43;ht;99;12.90
2021-06-24 12:33:43;v;4.07
2021-06-24 13:03:46;1;118;118;118;118;118;118;118;119;118;118;
2021-06-24 13:03:46;2;112;112;112;112;112;112;112;112;112;112;
2021-06-24 13:03:46;3;44;44;44;44;44;44;44;44;44;44;
2021-06-24 13:03:46;4;118;118;118;118;118;118;118;118;118;118;
2021-06-24 13:03:46;5;107;107;107;107;107;107;107;107;107;107;
2021-06-24 13:03:46;ht;99;13.10
2021-06-24 13:03:46;v;4.07
2021-06-24 13:33:45;1;116;116;116;116;116;116;116;116;116;116;
2021-06-24 13:33:45;2;111;111;111;111;111;111;111;111;111;111;
2021-06-24 13:33:45;3;45;46;45;45;45;46;45;45;46;45;
2021-06-24 13:33:45;4;117;117;117;117;117;117;117;117;117;117;
2021-06-24 13:33:45;5;111;111;111;111;111;111;111;111;111;111;
2021-06-24 13:33:45;ht;99;14.30
2021-06-24 13:33:45;v;4.07
2021-06-24 14:03:46;1;119;119;119;119;119;119;119;119;119;119;
2021-06-24 14:03:46;2;107;107;106;107;106;106;106;106;106;107;
2021-06-24 14:03:46;3;47;47;47;47;47;46;46;47;47;46;
2021-06-24 14:03:46;4;115;115;115;115;115;115;115;115;115;115;
2021-06-24 14:03:46;5;111;111;111;111;111;111;110;111;111;111;
2021-06-24 14:03:46;ht;99;16.50
2021-06-24 14:03:46;v;4.07
2021-06-24 14:33:47;1;120;119;120;119;120;119;120;120;119;119;
2021-06-24 14:33:47;2;108;108;108;108;108;108;108;108;108;108;
2021-06-24 14:33:47;3;48;48;48;48;48;48;48;48;48;48;
2021-06-24 14:33:47;4;118;118;118;118;118;118;118;118;118;118;
2021-06-24 14:33:47;5;113;113;113;113;113;113;113;113;113;113;
2021-06-24 14:33:47;ht;99;16.20
2021-06-24 14:33:47;v;4.07
2021-06-24 15:03:49;1;117;117;117;117;117;117;117;117;117;117;
2021-06-24 15:03:49;2;112;111;112;111;111;111;112;112;112;112;
2021-06-24 15:03:49;3;48;48;48;48;48;48;48;48;48;48;
2021-06-24 15:03:49;4;113;113;113;113;113;113;113;113;113;113;
2021-06-24 15:03:49;5;112;112;112;112;112;112;112;112;112;112;
2021-06-24 15:03:49;ht;99;15.40
2021-06-24 15:03:49;v;4.07
2021-06-24 15:33:46;1;114;114;114;114;114;114;114;114;114;114;
2021-06-24 15:33:46;2;114;114;114;114;114;114;114;114;114;114;
2021-06-24 15:33:46;3;48;48;47;48;48;48;48;47;47;48;
2021-06-24 15:33:46;4;119;119;119;119;119;119;119;119;119;119;
2021-06-24 15:33:46;5;115;116;116;116;116;116;116;115;116;116;
2021-06-24 15:33:46;ht;99;17.00
2021-06-24 15:33:46;v;4.07
2021-06-24 16:03:49;1;116;116;116;116;116;116;116;116;116;116;
2021-06-24 16:03:49;2;114;114;114;114;114;114;114;114;114;114;
2021-06-24 16:03:49;3;48;48;48;48;48;48;48;48;48;48;
2021-06-24 16:03:49;4;115;115;115;115;115;115;115;115;115;115;
2021-06-24 16:03:49;5;106;106;106;106;106;106;106;106;106;106;
2021-06-24 16:03:49;ht;99;17.10
2021-06-24 16:03:49;v;4.07
2021-06-24 16:33:47;1;114;114;114;114;114;114;114;114;114;114;
2021-06-24 16:33:47;2;112;112;112;112;112;112;112;112;112;112;
2021-06-24 16:33:47;3;48;48;48;48;48;48;48;48;48;48;
2021-06-24 16:33:47;4;115;115;115;115;115;115;115;115;115;115;
2021-06-24 16:33:47;5;107;107;107;107;107;107;107;107;107;107;
2021-06-24 16:33:47;ht;99;16.50
2021-06-24 16:33:47;v;4.07
2021-06-24 17:03:49;1;125;125;125;125;125;125;125;125;125;125;
2021-06-24 17:03:49;2;111;111;111;111;111;111;111;111;111;111;
2021-06-24 17:03:49;3;48;48;48;48;48;48;48;48;48;48;
2021-06-24 17:03:49;4;122;122;122;122;122;122;123;123;123;122;
2021-06-24 17:03:49;5;108;108;108;108;108;108;108;108;108;108;
2021-06-24 17:03:49;ht;99;15.90
2021-06-24 17:03:49;v;4.07
2021-06-24 17:33:46;1;120;120;120;120;120;120;120;120;120;120;
2021-06-24 17:33:46;2;112;112;112;112;112;112;112;112;112;112;
2021-06-24 17:33:46;3;49;49;49;48;49;48;49;49;49;49;
2021-06-24 17:33:46;4;123;123;123;123;123;123;123;123;123;123;
2021-06-24 17:33:46;5;105;105;106;106;106;106;106;106;106;106;
2021-06-24 17:33:46;ht;99;14.80
2021-06-24 17:33:46;v;4.07
2021-06-24 18:03:46;1;124;124;124;124;124;124;124;124;124;124;
2021-06-24 18:03:46;2;112;112;112;112;112;112;112;112;112;112;
2021-06-24 18:03:46;3;50;50;50;50;49;49;50;50;49;49;
2021-06-24 18:03:46;4;125;125;125;125;125;125;125;125;125;125;
2021-06-24 18:03:46;5;116;116;116;116;116;116;116;115;116;116;
2021-06-24 18:03:46;ht;99;12.20
2021-06-24 18:03:46;v;4.07
2021-06-24 18:33:44;1;115;115;115;115;115;115;115;115;115;115;
2021-06-24 18:33:44;2;113;113;113;113;113;113;113;113;113;113;
2021-06-24 18:33:44;3;52;52;52;52;52;52;52;52;52;52;
2021-06-24 18:33:44;4;122;122;122;122;122;122;122;122;122;122;
2021-06-24 18:33:44;5;115;115;115;115;115;115;115;115;115;115;
2021-06-24 18:33:44;ht;99;11.60
2021-06-24 18:33:44;v;4.07
2021-06-24 19:03:40;1;119;119;119;119;119;119;119;119;119;119;
2021-06-24 19:03:40;2;112;112;112;112;112;112;112;112;112;113;
2021-06-24 19:03:40;3;52;52;53;53;52;52;52;53;52;53;
2021-06-24 19:03:40;4;118;118;118;118;118;118;118;118;118;118;
2021-06-24 19:03:40;5;115;115;115;115;115;115;115;115;115;115;
2021-06-24 19:03:40;ht;99;10.40
2021-06-24 19:03:40;v;4.07
2021-06-24 19:33:41;1;118;118;118;118;118;118;118;118;118;118;
2021-06-24 19:33:41;2;114;114;114;114;114;114;114;114;114;114;
2021-06-24 19:33:41;3;54;54;54;54;54;54;54;54;54;53;
2021-06-24 19:33:41;4;121;121;121;121;121;121;121;121;121;121;
2021-06-24 19:33:41;5;121;121;121;121;121;121;121;121;121;121;
2021-06-24 19:33:41;ht;99;11.20
2021-06-24 19:33:41;v;4.06
2021-06-24 20:03:42;1;116;116;116;116;116;116;116;116;116;116;
2021-06-24 20:03:42;2;113;113;113;113;113;113;113;113;113;113;
2021-06-24 20:03:42;3;55;55;55;55;55;55;55;55;55;55;
2021-06-24 20:03:42;4;121;121;121;121;121;121;121;121;121;121;
2021-06-24 20:03:42;5;117;117;117;117;117;117;117;117;117;117;
2021-06-24 20:03:42;ht;99;8.60
2021-06-24 20:03:42;v;4.07
2021-06-24 20:33:42;1;123;123;123;123;123;123;123;123;123;123;
2021-06-24 20:33:42;2;112;113;113;112;113;112;113;112;113;112;
2021-06-24 20:33:42;3;56;56;56;56;56;56;56;56;56;56;
2021-06-24 20:33:42;4;117;118;117;118;118;118;117;118;118;118;
2021-06-24 20:33:42;5;116;116;116;116;116;116;115;115;116;116;
2021-06-24 20:33:42;ht;99;8.40
2021-06-24 20:33:42;v;4.06
2021-06-24 21:03:41;1;120;120;121;121;121;120;121;121;121;121;
2021-06-24 21:03:41;2;113;113;113;114;113;114;114;113;113;113;
2021-06-24 21:03:41;3;55;55;55;55;55;55;55;55;55;55;
2021-06-24 21:03:41;4;123;123;123;123;123;123;123;123;123;123;
2021-06-24 21:03:41;5;109;109;110;110;110;109;109;109;109;109;
2021-06-24 21:03:41;ht;99;8.30
2021-06-24 21:03:41;v;4.06
2021-06-24 21:33:41;1;122;122;122;122;121;122;121;122;122;122;
2021-06-24 21:33:41;2;115;116;116;116;116;116;116;116;116;116;
2021-06-24 21:33:41;3;55;55;55;55;55;55;55;55;55;55;
2021-06-24 21:33:41;4;126;126;126;126;126;126;126;126;126;126;
2021-06-24 21:33:41;5;109;109;109;109;109;109;110;110;109;109;
2021-06-24 21:33:41;ht;99;8.10
2021-06-24 21:33:41;v;4.06
2021-06-24 22:03:40;1;116;116;116;116;116;116;116;116;116;116;
2021-06-24 22:03:40;2;118;118;118;118;118;118;118;118;118;118;
2021-06-24 22:03:40;3;55;56;55;55;56;55;55;55;55;55;
2021-06-24 22:03:40;4;128;128;128;128;128;128;128;128;128;128;
2021-06-24 22:03:40;5;109;109;109;109;108;109;109;109;109;109;
2021-06-24 22:03:40;ht;99;8.70
2021-06-24 22:03:40;v;4.06
2021-06-24 22:33:40;1;114;114;114;114;114;114;114;114;114;114;
2021-06-24 22:33:40;2;118;118;118;117;117;117;118;118;118;118;
2021-06-24 22:33:40;3;55;55;55;55;55;55;56;55;55;55;
2021-06-24 22:33:40;4;121;121;121;121;121;121;121;121;121;121;
2021-06-24 22:33:40;5;115;115;115;115;115;115;115;115;115;115;
2021-06-24 22:33:40;ht;99;8.60
2021-06-24 22:33:40;v;4.06
2021-06-24 23:03:39;1;130;130;130;130;130;130;130;130;130;130;
2021-06-24 23:03:39;2;123;123;123;123;123;123;123;123;123;123;
2021-06-24 23:03:39;3;55;55;55;55;55;55;55;55;55;55;
2021-06-24 23:03:39;4;127;127;127;127;127;127;127;127;127;127;
2021-06-24 23:03:39;5;107;107;107;107;107;107;107;107;107;107;
2021-06-24 23:03:39;ht;99;8.30
2021-06-24 23:03:39;v;4.06
2021-06-24 23:33:39;1;130;130;130;130;130;130;130;130;130;130;
2021-06-24 23:33:39;2;119;119;119;119;119;119;119;119;119;119;
2021-06-24 23:33:39;3;55;55;55;55;55;55;55;55;55;55;
2021-06-24 23:33:39;4;119;119;119;119;119;119;119;119;119;119;
2021-06-24 23:33:39;5;107;107;107;108;107;108;107;107;108;108;
2021-06-24 23:33:39;ht;99;8.00
2021-06-24 23:33:39;v;4.06
