2021-12-03 00:03:48;1;126;126;126;126;126;125;126;126;126;126;
2021-12-03 00:03:48;2;134;134;133;133;133;133;133;133;133;133;
2021-12-03 00:03:48;3;31;31;31;31;31;31;31;31;31;31;
2021-12-03 00:03:48;4;117;117;117;117;117;117;117;117;117;117;
2021-12-03 00:03:48;5;87;86;87;87;87;87;87;87;87;87;
2021-12-03 00:03:48;ht;99;18.60
2021-12-03 00:03:48;v;4.16
2021-12-03 00:33:47;1;142;142;142;142;142;142;142;142;142;142;
2021-12-03 00:33:47;2;133;133;132;132;132;132;132;132;132;132;
2021-12-03 00:33:47;3;31;31;31;31;31;31;31;31;31;31;
2021-12-03 00:33:47;4;117;117;117;117;117;117;117;117;117;117;
2021-12-03 00:33:47;5;98;92;92;92;91;92;91;91;91;91;
2021-12-03 00:33:47;ht;99;18.10
2021-12-03 00:33:47;v;4.16
2021-12-03 01:03:49;1;122;122;122;122;122;122;122;122;122;122;
2021-12-03 01:03:49;2;131;131;131;131;130;130;130;130;130;130;
2021-12-03 01:03:49;3;27;27;27;27;27;27;27;27;27;27;
2021-12-03 01:03:49;4;117;117;117;117;117;117;117;117;117;117;
2021-12-03 01:03:49;5;91;91;91;91;91;91;91;91;91;91;
2021-12-03 01:03:49;ht;99;18.30
2021-12-03 01:03:49;v;4.16
2021-12-03 01:33:47;1;117;117;117;117;117;117;117;117;117;117;
2021-12-03 01:33:47;2;131;131;131;131;131;131;131;131;131;131;
2021-12-03 01:33:47;3;33;33;33;33;33;33;33;33;33;33;
2021-12-03 01:33:47;4;116;116;116;116;116;116;116;116;116;116;
2021-12-03 01:33:47;5;92;92;92;92;92;92;92;92;92;92;
2021-12-03 01:33:47;ht;99;17.90
2021-12-03 01:33:47;v;4.16
2021-12-03 02:03:49;1;126;125;125;125;125;125;125;126;125;125;
2021-12-03 02:03:49;2;131;131;131;131;131;131;131;131;131;131;
2021-12-03 02:03:49;3;32;33;33;39;35;34;33;33;33;33;
2021-12-03 02:03:49;4;118;118;118;128;120;119;119;119;119;119;
2021-12-03 02:03:49;5;98;99;98;98;98;98;98;98;98;98;
2021-12-03 02:03:49;ht;99;16.70
2021-12-03 02:03:49;v;4.16
2021-12-03 02:33:46;1;124;124;124;124;124;124;124;124;124;124;
2021-12-03 02:33:46;2;132;132;132;131;131;131;131;131;131;131;
2021-12-03 02:33:46;3;33;33;33;33;33;33;33;33;33;33;
2021-12-03 02:33:46;4;127;127;127;127;127;127;127;127;127;127;
2021-12-03 02:33:46;5;86;86;86;86;93;87;86;86;86;86;
2021-12-03 02:33:46;ht;99;17.20
2021-12-03 02:33:46;v;4.16
2021-12-03 03:03:48;1;127;127;127;127;127;127;127;127;127;127;
2021-12-03 03:03:48;2;130;130;130;130;130;130;130;130;130;130;
2021-12-03 03:03:48;3;32;32;32;32;32;32;32;32;32;32;
2021-12-03 03:03:48;4;126;126;126;126;126;126;126;126;126;126;
2021-12-03 03:03:48;5;107;107;107;107;107;107;107;107;115;108;
2021-12-03 03:03:48;ht;99;16.70
2021-12-03 03:03:48;v;4.15
2021-12-03 03:33:45;1;126;126;126;126;126;126;126;126;126;126;
2021-12-03 03:33:45;2;130;130;130;130;130;130;130;130;130;130;
2021-12-03 03:33:45;3;38;42;34;33;33;33;33;33;34;34;
2021-12-03 03:33:45;4;136;132;129;128;129;128;128;128;128;128;
2021-12-03 03:33:45;5;87;87;87;87;87;87;87;87;87;87;
2021-12-03 03:33:45;ht;99;17.10
2021-12-03 03:33:45;v;4.15
2021-12-03 04:03:46;1;128;128;127;127;128;128;128;128;128;128;
2021-12-03 04:03:46;2;130;130;130;130;130;130;130;130;130;130;
2021-12-03 04:03:46;3;32;32;32;32;32;32;32;32;32;32;
2021-12-03 04:03:46;4;132;132;133;132;132;132;133;132;132;132;
2021-12-03 04:03:46;5;88;87;87;88;88;87;87;88;88;88;
2021-12-03 04:03:46;ht;99;16.30
2021-12-03 04:03:46;v;4.15
2021-12-03 04:33:47;1;91;91;90;90;91;90;90;90;91;90;
2021-12-03 04:33:47;2;133;133;133;133;133;133;133;133;133;133;
2021-12-03 04:33:47;3;33;33;33;33;33;33;33;33;33;33;
2021-12-03 04:33:47;4;116;116;116;117;116;116;116;116;116;116;
2021-12-03 04:33:47;5;101;101;102;102;101;102;107;104;102;102;
2021-12-03 04:33:47;ht;99;15.80
2021-12-03 04:33:47;v;4.15
2021-12-03 05:03:44;1;124;124;124;124;124;124;124;124;124;124;
2021-12-03 05:03:44;2;130;130;130;130;130;130;130;130;130;130;
2021-12-03 05:03:44;3;32;32;32;32;32;32;32;32;32;32;
2021-12-03 05:03:44;4;118;118;118;118;118;118;118;118;119;119;
2021-12-03 05:03:44;5;94;94;94;94;94;94;94;93;98;102;
2021-12-03 05:03:44;ht;99;15.50
2021-12-03 05:03:44;v;4.15
2021-12-03 05:33:44;1;130;129;129;130;130;130;129;129;129;129;
2021-12-03 05:33:44;2;132;132;132;132;132;132;132;132;132;133;
2021-12-03 05:33:44;3;32;32;32;32;33;34;33;33;32;32;
2021-12-03 05:33:44;4;118;118;118;117;118;117;118;117;118;118;
2021-12-03 05:33:44;5;99;99;99;99;99;99;99;99;99;99;
2021-12-03 05:33:44;ht;99;14.80
2021-12-03 05:33:44;v;4.15
2021-12-03 06:03:44;1;107;107;107;106;107;107;107;107;107;107;
2021-12-03 06:03:44;2;136;136;137;136;137;136;136;136;136;136;
2021-12-03 06:03:44;3;32;32;32;32;32;32;32;40;34;33;
2021-12-03 06:03:44;4;111;111;111;112;111;111;111;122;113;112;
2021-12-03 06:03:44;5;108;108;108;108;108;108;108;108;108;108;
2021-12-03 06:03:44;ht;99;16.10
2021-12-03 06:03:44;v;4.15
2021-12-03 06:33:45;1;118;118;118;118;118;118;118;118;118;118;
2021-12-03 06:33:45;2;132;133;133;132;133;133;133;133;133;133;
2021-12-03 06:33:45;3;34;34;34;34;34;34;34;42;35;35;
2021-12-03 06:33:45;4;115;115;115;126;117;116;115;115;115;116;
2021-12-03 06:33:45;5;91;91;91;91;91;90;91;91;90;91;
2021-12-03 06:33:45;ht;99;17.20
2021-12-03 06:33:45;v;4.15
2021-12-03 07:03:48;1;119;119;119;119;119;119;119;119;119;119;
2021-12-03 07:03:48;2;135;135;135;135;137;138;139;138;138;137;
2021-12-03 07:03:48;3;82;82;82;82;82;82;82;82;82;82;
2021-12-03 07:03:48;4;120;120;120;120;120;120;120;120;120;120;
2021-12-03 07:03:48;5;86;86;86;86;86;86;86;86;86;86;
2021-12-03 07:03:48;ht;99;19.60
2021-12-03 07:03:48;v;4.15
2021-12-03 07:33:47;1;106;106;106;105;105;105;105;106;105;105;
2021-12-03 07:33:47;2;136;136;136;136;136;136;135;136;136;135;
2021-12-03 07:33:47;3;75;75;75;75;75;75;75;75;75;75;
2021-12-03 07:33:47;4;110;110;110;110;110;110;110;110;110;110;
2021-12-03 07:33:47;5;88;88;88;88;88;88;88;88;88;88;
2021-12-03 07:33:47;ht;99;19.60
2021-12-03 07:33:47;v;4.16
2021-12-03 08:03:47;1;116;116;116;116;116;116;116;116;116;116;
2021-12-03 08:03:47;2;101;101;101;101;101;101;101;101;101;101;
2021-12-03 08:03:47;3;78;78;78;78;78;78;78;78;78;78;
2021-12-03 08:03:47;4;2;2;2;2;2;2;2;2;2;1;
2021-12-03 08:03:47;5;85;85;85;85;85;85;85;85;85;85;
2021-12-03 08:03:47;ht;99;22.50
2021-12-03 08:03:47;v;4.16
2021-12-03 08:33:49;1;100;100;100;100;100;100;100;100;100;100;
2021-12-03 08:33:49;2;143;143;143;143;143;144;143;143;143;143;
2021-12-03 08:33:49;3;25;25;25;25;25;25;25;25;25;25;
2021-12-03 08:33:49;4;119;119;119;119;119;119;119;119;119;119;
2021-12-03 08:33:49;5;83;83;83;83;83;83;83;83;83;83;
2021-12-03 08:33:49;ht;98;23.10
2021-12-03 08:33:49;v;4.16
2021-12-03 09:03:52;1;116;116;115;115;115;115;116;115;116;116;
2021-12-03 09:03:52;2;137;137;137;137;137;137;137;137;137;137;
2021-12-03 09:03:52;3;33;33;33;33;33;33;33;33;33;33;
2021-12-03 09:03:52;4;109;109;109;109;109;109;109;109;109;109;
2021-12-03 09:03:52;5;85;85;86;85;85;85;85;85;85;85;
2021-12-03 09:03:52;ht;92;25.70
2021-12-03 09:03:52;v;4.16
2021-12-03 09:33:52;1;82;84;85;87;89;90;92;93;95;96;
2021-12-03 09:33:52;2;141;141;141;141;141;141;141;141;141;141;
2021-12-03 09:33:52;3;32;32;32;32;32;32;32;32;32;32;
2021-12-03 09:33:52;4;121;121;121;121;121;121;121;121;121;121;
2021-12-03 09:33:52;5;88;89;88;89;89;89;89;88;89;89;
2021-12-03 09:33:52;ht;91;26.20
2021-12-03 09:33:52;v;4.16
2021-12-03 10:03:54;1;107;107;107;107;107;107;107;107;107;107;
2021-12-03 10:03:54;2;139;139;138;139;139;139;138;138;138;139;
2021-12-03 10:03:54;3;33;33;33;33;33;33;33;33;33;33;
2021-12-03 10:03:54;4;108;109;109;109;108;109;109;109;109;109;
2021-12-03 10:03:54;5;84;84;84;84;84;84;85;84;84;84;
2021-12-03 10:03:54;ht;89;27.70
2021-12-03 10:03:54;v;4.16
2021-12-03 10:33:56;1;122;122;122;122;122;122;122;122;122;122;
2021-12-03 10:33:56;2;138;138;138;138;138;138;139;139;139;139;
2021-12-03 10:33:56;3;33;33;33;33;33;33;33;33;33;33;
2021-12-03 10:33:56;4;115;115;115;115;115;115;115;115;115;115;
2021-12-03 10:33:56;5;88;88;88;88;88;88;88;88;88;88;
2021-12-03 10:33:56;ht;80;28.40
2021-12-03 10:33:56;v;4.16
2021-12-03 11:03:55;1;111;110;111;110;111;111;111;111;111;112;
2021-12-03 11:03:55;2;143;143;143;143;143;143;143;143;143;143;
2021-12-03 11:03:55;3;2;2;2;2;2;1;1;2;2;2;
2021-12-03 11:03:55;4;117;117;117;117;117;117;117;117;117;117;
2021-12-03 11:03:55;5;79;79;79;79;79;79;79;79;79;79;
2021-12-03 11:03:55;ht;76;29.20
2021-12-03 11:03:55;v;4.16
2021-12-03 11:33:59;1;117;117;117;117;117;117;117;117;117;117;
2021-12-03 11:33:59;2;133;133;133;133;133;133;133;133;133;133;
2021-12-03 11:33:59;3;35;35;35;35;35;35;35;35;35;35;
2021-12-03 11:33:59;4;122;122;122;122;122;122;122;122;122;122;
2021-12-03 11:33:59;5;80;80;80;80;80;80;80;80;80;80;
2021-12-03 11:33:59;ht;71;29.40
2021-12-03 11:33:59;v;4.16
2021-12-03 12:03:59;1;116;116;116;116;116;116;116;116;116;116;
2021-12-03 12:03:59;2;126;126;126;126;126;126;126;126;126;126;
2021-12-03 12:03:59;3;76;76;76;76;76;76;76;76;76;76;
2021-12-03 12:03:59;4;127;127;127;127;127;127;127;127;127;127;
2021-12-03 12:03:59;5;2;2;2;2;2;2;2;1;2;2;
2021-12-03 12:03:59;ht;63;30.50
2021-12-03 12:03:59;v;4.16
2021-12-03 12:34:00;1;119;119;119;119;119;119;119;119;119;119;
2021-12-03 12:34:00;2;127;127;127;127;127;127;127;127;127;127;
2021-12-03 12:34:00;3;2;2;2;2;2;2;2;2;1;2;
2021-12-03 12:34:00;4;113;113;113;113;113;113;113;113;113;113;
2021-12-03 12:34:00;5;79;79;79;79;80;79;79;79;79;79;
2021-12-03 12:34:00;ht;59;31.50
2021-12-03 12:34:00;v;4.16
2021-12-03 13:03:57;1;123;123;123;123;123;123;123;123;123;123;
2021-12-03 13:03:57;2;137;137;137;137;136;136;137;137;136;137;
2021-12-03 13:03:57;3;76;76;76;76;76;76;76;76;76;76;
2021-12-03 13:03:57;4;123;123;123;123;123;123;123;123;123;123;
2021-12-03 13:03:57;5;80;80;80;80;80;80;80;80;80;80;
2021-12-03 13:03:57;ht;58;32.40
2021-12-03 13:03:57;v;4.16
2021-12-03 13:34:00;1;122;122;122;122;121;121;121;121;121;121;
2021-12-03 13:34:00;2;145;145;145;145;145;145;145;145;145;145;
2021-12-03 13:34:00;3;76;76;76;76;76;76;76;76;76;76;
2021-12-03 13:34:00;4;118;118;118;118;118;118;118;118;118;118;
2021-12-03 13:34:00;5;96;95;96;96;96;96;96;96;95;95;
2021-12-03 13:34:00;ht;58;33.20
2021-12-03 13:34:00;v;4.16
2021-12-03 14:03:58;1;107;107;107;106;106;106;106;106;106;106;
2021-12-03 14:03:58;2;128;128;128;128;128;128;128;128;128;128;
2021-12-03 14:03:58;3;1;1;2;2;1;2;2;2;1;2;
2021-12-03 14:03:58;4;125;125;125;125;125;125;125;125;125;125;
2021-12-03 14:03:58;5;91;92;91;91;91;91;91;91;91;91;
2021-12-03 14:03:58;ht;53;32.40
2021-12-03 14:03:58;v;4.17
2021-12-03 14:34:01;1;114;114;114;114;114;114;114;114;114;114;
2021-12-03 14:34:01;2;141;142;141;142;142;142;141;141;141;142;
2021-12-03 14:34:01;3;112;111;112;112;112;112;112;112;112;112;
2021-12-03 14:34:01;4;121;121;121;121;121;121;121;121;121;121;
2021-12-03 14:34:01;5;2;1;1;2;2;1;1;2;1;2;
2021-12-03 14:34:01;ht;56;33.20
2021-12-03 14:34:01;v;4.17
2021-12-03 15:04:00;1;114;113;113;113;113;113;113;113;113;113;
2021-12-03 15:04:00;2;136;136;136;136;136;136;136;136;136;136;
2021-12-03 15:04:00;3;90;90;91;91;92;92;92;93;93;93;
2021-12-03 15:04:00;4;121;121;121;121;121;121;121;121;121;121;
2021-12-03 15:04:00;5;2;2;1;1;1;1;1;2;2;1;
2021-12-03 15:04:00;ht;56;33.00
2021-12-03 15:04:00;v;4.17
2021-12-03 15:33:58;1;115;115;115;115;115;115;115;115;115;115;
2021-12-03 15:33:58;2;139;139;139;139;139;139;139;139;139;139;
2021-12-03 15:33:58;3;79;79;79;79;79;79;79;79;79;79;
2021-12-03 15:33:58;4;120;120;120;120;120;120;120;120;120;120;
2021-12-03 15:33:58;5;79;79;79;79;79;79;79;79;79;79;
2021-12-03 15:33:58;ht;58;32.00
2021-12-03 15:33:58;v;4.17
2021-12-03 16:04:01;1;111;111;111;111;111;111;111;111;111;111;
2021-12-03 16:04:01;2;131;131;131;131;131;131;131;131;131;131;
2021-12-03 16:04:01;3;76;76;76;76;76;76;76;76;76;76;
2021-12-03 16:04:01;4;120;120;120;120;120;120;120;120;120;119;
2021-12-03 16:04:01;5;2;2;1;2;1;1;2;2;1;2;
2021-12-03 16:04:01;ht;58;32.70
2021-12-03 16:04:01;v;4.17
2021-12-03 16:33:59;1;116;116;116;116;116;116;116;116;116;116;
2021-12-03 16:33:59;2;137;137;137;137;137;137;137;137;137;137;
2021-12-03 16:33:59;3;1;1;2;1;1;2;2;1;1;1;
2021-12-03 16:33:59;4;119;119;119;119;119;119;119;119;119;119;
2021-12-03 16:33:59;5;87;87;87;87;87;87;87;87;87;87;
2021-12-03 16:33:59;ht;59;31.30
2021-12-03 16:33:59;v;4.17
2021-12-03 17:04:01;1;115;115;115;115;115;115;115;115;115;115;
2021-12-03 17:04:01;2;138;137;137;137;137;137;137;137;137;137;
2021-12-03 17:04:01;3;83;83;83;83;83;83;83;83;83;83;
2021-12-03 17:04:01;4;120;120;120;120;120;120;120;120;120;120;
2021-12-03 17:04:01;5;2;1;2;2;2;2;2;2;2;2;
2021-12-03 17:04:01;ht;58;31.70
2021-12-03 17:04:01;v;4.17
2021-12-03 17:33:57;1;2;2;2;2;2;2;2;2;2;2;
2021-12-03 17:33:57;2;132;131;132;132;132;131;132;131;131;132;
2021-12-03 17:33:57;3;34;34;34;34;34;34;34;34;34;34;
2021-12-03 17:33:57;4;117;117;117;117;117;117;117;117;117;117;
2021-12-03 17:33:57;5;1;2;2;1;1;2;1;1;2;2;
2021-12-03 17:33:57;ht;62;30.40
2021-12-03 17:33:57;v;4.17
2021-12-03 18:03:57;1;98;98;97;97;98;97;98;98;98;97;
2021-12-03 18:03:57;2;137;137;137;137;137;137;137;137;137;137;
2021-12-03 18:03:57;3;34;34;34;34;34;34;34;34;34;34;
2021-12-03 18:03:57;4;115;116;116;116;116;116;116;116;116;116;
2021-12-03 18:03:57;5;89;89;89;89;89;89;89;89;89;89;
2021-12-03 18:03:57;ht;67;30.20
2021-12-03 18:03:57;v;4.17
2021-12-03 18:33:56;1;111;111;111;111;111;111;111;111;111;111;
2021-12-03 18:33:56;2;145;145;145;145;145;145;145;145;145;145;
2021-12-03 18:33:56;3;75;75;75;75;75;75;75;75;75;75;
2021-12-03 18:33:56;4;117;117;117;117;117;117;117;117;117;117;
2021-12-03 18:33:56;5;2;2;2;2;2;2;2;2;2;1;
2021-12-03 18:33:56;ht;61;30.90
2021-12-03 18:33:56;v;4.17
2021-12-03 19:03:55;1;121;121;121;121;121;121;121;121;121;121;
2021-12-03 19:03:55;2;135;135;135;135;135;135;135;135;135;135;
2021-12-03 19:03:55;3;33;33;33;33;33;33;33;33;33;33;
2021-12-03 19:03:55;4;124;124;124;124;124;124;124;124;124;124;
2021-12-03 19:03:55;5;86;86;86;86;86;86;86;86;86;86;
2021-12-03 19:03:55;ht;67;29.00
2021-12-03 19:03:55;v;4.17
2021-12-03 19:33:53;1;97;97;97;97;97;97;97;97;97;97;
2021-12-03 19:33:53;2;135;134;134;134;134;134;134;134;134;134;
2021-12-03 19:33:53;3;32;32;32;32;32;32;32;32;32;32;
2021-12-03 19:33:53;4;111;111;111;111;111;111;111;111;111;111;
2021-12-03 19:33:53;5;76;76;76;76;76;76;76;76;76;76;
2021-12-03 19:33:53;ht;72;27.90
2021-12-03 19:33:53;v;4.17
2021-12-03 20:03:55;1;123;123;123;123;123;123;123;123;123;123;
2021-12-03 20:03:55;2;129;131;132;133;133;132;132;131;132;133;
2021-12-03 20:03:55;3;25;25;25;25;25;25;25;25;25;25;
2021-12-03 20:03:55;4;120;120;120;120;120;120;120;120;120;120;
2021-12-03 20:03:55;5;2;1;2;2;1;2;1;1;2;1;
2021-12-03 20:03:55;ht;79;26.40
2021-12-03 20:03:55;v;4.17
2021-12-03 20:33:55;1;114;114;114;114;114;114;114;114;114;114;
2021-12-03 20:33:55;2;144;144;144;143;144;144;144;144;144;144;
2021-12-03 20:33:55;3;25;25;25;25;25;25;25;25;25;25;
2021-12-03 20:33:55;4;118;118;118;118;118;118;118;118;118;118;
2021-12-03 20:33:55;5;94;94;94;94;94;94;94;94;94;94;
2021-12-03 20:33:55;ht;78;26.00
2021-12-03 20:33:55;v;4.17
2021-12-03 21:03:54;1;112;112;112;112;112;112;112;112;112;112;
2021-12-03 21:03:54;2;129;130;129;129;129;129;129;129;129;129;
2021-12-03 21:03:54;3;25;25;25;25;25;25;25;25;25;25;
2021-12-03 21:03:54;4;127;127;127;127;127;127;127;127;128;127;
2021-12-03 21:03:54;5;84;84;84;84;84;84;84;84;83;83;
2021-12-03 21:03:54;ht;81;25.40
2021-12-03 21:03:54;v;4.17
2021-12-03 21:33:53;1;115;115;115;115;115;115;115;115;115;115;
2021-12-03 21:33:53;2;131;131;131;131;131;131;131;131;131;131;
2021-12-03 21:33:53;3;25;25;25;25;25;25;25;25;25;25;
2021-12-03 21:33:53;4;117;117;117;117;117;117;117;117;117;117;
2021-12-03 21:33:53;5;107;107;107;107;107;107;107;107;107;107;
2021-12-03 21:33:53;ht;86;24.40
2021-12-03 21:33:53;v;4.17
2021-12-03 22:03:51;1;125;125;125;125;125;125;125;125;125;125;
2021-12-03 22:03:51;2;131;131;131;131;131;131;131;131;131;131;
2021-12-03 22:03:51;3;30;30;30;30;30;30;30;30;30;30;
2021-12-03 22:03:51;4;131;131;131;131;131;131;131;131;131;131;
2021-12-03 22:03:51;5;107;107;107;107;107;107;107;107;107;107;
2021-12-03 22:03:51;ht;91;23.20
2021-12-03 22:03:51;v;4.17
2021-12-03 22:33:48;1;116;116;116;116;116;116;116;116;116;116;
2021-12-03 22:33:48;2;131;131;131;132;134;135;134;134;133;133;
2021-12-03 22:33:48;3;26;26;26;26;26;26;26;26;26;26;
2021-12-03 22:33:48;4;118;118;118;118;118;118;118;118;118;118;
2021-12-03 22:33:48;5;95;95;95;95;95;95;95;96;95;95;
2021-12-03 22:33:48;ht;94;22.30
2021-12-03 22:33:48;v;4.17
2021-12-03 23:03:49;1;116;116;116;116;116;116;116;116;116;116;
2021-12-03 23:03:49;2;130;130;130;130;130;130;130;130;130;130;
2021-12-03 23:03:49;3;27;27;27;27;27;27;27;27;27;27;
2021-12-03 23:03:49;4;118;118;118;118;118;118;118;118;118;118;
2021-12-03 23:03:49;5;1;2;1;1;1;2;1;1;2;2;
2021-12-03 23:03:49;ht;96;21.30
2021-12-03 23:03:49;v;4.16
2021-12-03 23:33:49;1;117;117;117;116;116;117;117;117;117;117;
2021-12-03 23:33:49;2;131;131;132;132;130;130;129;128;128;127;
2021-12-03 23:33:49;3;121;121;121;121;121;121;121;121;121;121;
2021-12-03 23:33:49;4;122;122;122;122;122;122;122;122;122;122;
2021-12-03 23:33:49;5;81;81;81;81;81;81;81;81;81;81;
2021-12-03 23:33:49;ht;99;20.90
2021-12-03 23:33:49;v;4.16
