2021-05-23 00:03:45;1;129;129;129;129;129;130;130;131;131;130;
2021-05-23 00:03:45;2;120;120;120;120;120;120;120;120;120;120;
2021-05-23 00:03:45;3;164;164;164;164;164;164;164;164;164;164;
2021-05-23 00:03:45;4;117;117;117;117;117;117;117;117;117;117;
2021-05-23 00:03:45;5;125;125;125;125;125;125;125;125;125;125;
2021-05-23 00:03:45;ht;99;11.50
2021-05-23 00:03:45;v;4.11
2021-05-23 00:33:43;1;133;133;133;134;133;133;134;134;134;134;
2021-05-23 00:33:43;2;124;124;123;123;124;124;124;124;124;123;
2021-05-23 00:33:43;3;158;158;159;159;158;159;159;159;159;159;
2021-05-23 00:33:43;4;116;116;116;116;116;116;116;117;116;116;
2021-05-23 00:33:43;5;122;122;123;122;122;122;123;122;122;122;
2021-05-23 00:33:43;ht;99;11.50
2021-05-23 00:33:43;v;4.11
2021-05-23 01:03:41;1;132;132;132;133;133;133;133;133;133;133;
2021-05-23 01:03:41;2;121;122;122;122;121;121;122;122;122;122;
2021-05-23 01:03:41;3;163;163;163;163;163;163;163;163;163;163;
2021-05-23 01:03:41;4;119;119;119;119;119;119;119;119;119;119;
2021-05-23 01:03:41;5;125;125;125;125;125;125;125;125;125;125;
2021-05-23 01:03:41;ht;99;10.60
2021-05-23 01:03:41;v;4.10
2021-05-23 01:33:43;1;130;130;130;130;130;131;131;131;131;131;
2021-05-23 01:33:43;2;123;123;123;123;123;123;123;122;123;122;
2021-05-23 01:33:43;3;163;163;163;163;163;163;163;163;163;163;
2021-05-23 01:33:43;4;117;118;117;118;118;118;118;118;117;118;
2021-05-23 01:33:43;5;116;116;116;117;117;116;116;116;116;116;
2021-05-23 01:33:43;ht;99;10.20
2021-05-23 01:33:43;v;4.10
2021-05-23 02:03:44;1;130;130;130;130;130;129;130;129;130;130;
2021-05-23 02:03:44;2;124;124;124;124;124;124;124;124;124;124;
2021-05-23 02:03:44;3;162;162;162;162;162;162;162;162;162;162;
2021-05-23 02:03:44;4;120;120;120;120;120;120;120;120;120;120;
2021-05-23 02:03:44;5;124;124;123;123;124;124;123;124;131;124;
2021-05-23 02:03:44;ht;99;10.00
2021-05-23 02:03:44;v;4.10
2021-05-23 02:33:41;1;126;125;125;125;125;125;124;124;124;124;
2021-05-23 02:33:41;2;131;131;131;131;131;131;131;131;131;131;
2021-05-23 02:33:41;3;163;163;163;163;163;163;163;163;163;163;
2021-05-23 02:33:41;4;120;120;120;120;120;120;120;120;120;120;
2021-05-23 02:33:41;5;121;121;121;121;121;121;121;127;122;122;
2021-05-23 02:33:41;ht;99;9.80
2021-05-23 02:33:41;v;4.10
2021-05-23 03:03:42;1;127;127;127;127;127;127;126;126;126;126;
2021-05-23 03:03:42;2;121;121;122;121;121;121;122;121;122;122;
2021-05-23 03:03:42;3;161;161;161;161;161;161;161;161;161;161;
2021-05-23 03:03:42;4;120;120;120;121;120;120;120;120;120;120;
2021-05-23 03:03:42;5;117;117;117;117;117;117;117;118;117;117;
2021-05-23 03:03:42;ht;99;9.70
2021-05-23 03:03:42;v;4.10
2021-05-23 03:33:44;1;130;130;130;130;130;130;129;129;129;129;
2021-05-23 03:33:44;2;125;125;124;125;124;125;124;124;124;125;
2021-05-23 03:33:44;3;164;164;164;164;164;164;164;164;164;164;
2021-05-23 03:33:44;4;118;118;118;118;119;118;118;118;118;118;
2021-05-23 03:33:44;5;123;122;123;123;122;122;122;122;123;122;
2021-05-23 03:33:44;ht;99;9.90
2021-05-23 03:33:44;v;4.10
2021-05-23 04:03:40;1;127;127;127;127;127;127;127;127;127;127;
2021-05-23 04:03:40;2;123;123;123;123;123;123;123;123;123;123;
2021-05-23 04:03:40;3;161;161;161;161;161;161;161;161;161;161;
2021-05-23 04:03:40;4;116;116;116;116;116;117;127;118;117;116;
2021-05-23 04:03:40;5;117;117;117;117;117;117;117;117;117;117;
2021-05-23 04:03:40;ht;99;10.30
2021-05-23 04:03:40;v;4.10
2021-05-23 04:33:42;1;132;131;131;131;131;131;131;131;131;131;
2021-05-23 04:33:42;2;125;125;124;125;125;125;125;125;125;125;
2021-05-23 04:33:42;3;160;159;159;160;160;160;161;160;160;160;
2021-05-23 04:33:42;4;117;117;117;117;129;119;118;118;118;117;
2021-05-23 04:33:42;5;121;121;121;121;121;121;121;121;121;121;
2021-05-23 04:33:42;ht;99;9.90
2021-05-23 04:33:42;v;4.10
2021-05-23 05:03:43;1;127;127;127;128;128;128;128;128;128;128;
2021-05-23 05:03:43;2;122;122;122;121;121;121;121;121;121;121;
2021-05-23 05:03:43;3;159;159;159;159;159;159;159;159;159;159;
2021-05-23 05:03:43;4;119;119;119;120;119;119;120;120;120;120;
2021-05-23 05:03:43;5;121;121;121;121;122;122;122;122;122;122;
2021-05-23 05:03:43;ht;99;10.10
2021-05-23 05:03:43;v;4.10
2021-05-23 05:33:44;1;127;127;127;127;127;127;127;127;127;127;
2021-05-23 05:33:44;2;126;125;126;126;125;126;126;126;125;125;
2021-05-23 05:33:44;3;162;162;162;162;162;162;162;162;161;162;
2021-05-23 05:33:44;4;127;127;127;127;127;127;127;127;127;127;
2021-05-23 05:33:44;5;125;126;126;125;126;126;126;126;125;126;
2021-05-23 05:33:44;ht;99;9.80
2021-05-23 05:33:44;v;4.10
2021-05-23 06:03:41;1;123;124;123;124;123;123;124;124;124;124;
2021-05-23 06:03:41;2;122;122;122;122;122;121;121;121;121;121;
2021-05-23 06:03:41;3;161;161;161;161;161;161;161;161;161;161;
2021-05-23 06:03:41;4;122;122;122;122;122;122;122;122;122;122;
2021-05-23 06:03:41;5;124;124;124;124;124;124;124;124;124;124;
2021-05-23 06:03:41;ht;99;9.50
2021-05-23 06:03:41;v;4.10
2021-05-23 06:33:42;1;127;126;126;127;127;126;126;126;127;126;
2021-05-23 06:33:42;2;117;117;117;116;117;116;117;116;116;116;
2021-05-23 06:33:42;3;154;154;154;154;154;154;154;154;155;155;
2021-05-23 06:33:42;4;120;120;120;120;120;120;120;120;120;120;
2021-05-23 06:33:42;5;115;114;115;115;115;114;115;114;115;114;
2021-05-23 06:33:42;ht;99;9.80
2021-05-23 06:33:42;v;4.10
2021-05-23 07:03:43;1;124;124;124;124;124;124;124;124;124;124;
2021-05-23 07:03:43;2;120;120;120;120;120;120;120;120;120;120;
2021-05-23 07:03:43;3;158;158;158;158;158;158;158;158;158;158;
2021-05-23 07:03:43;4;122;122;122;122;122;122;122;122;122;122;
2021-05-23 07:03:43;5;123;123;124;123;124;123;123;124;124;124;
2021-05-23 07:03:43;ht;99;9.70
2021-05-23 07:03:43;v;4.10
2021-05-23 07:33:40;1;127;127;127;127;127;128;127;127;127;128;
2021-05-23 07:33:40;2;117;117;117;117;116;117;117;116;116;116;
2021-05-23 07:33:40;3;157;158;157;157;157;157;157;157;157;157;
2021-05-23 07:33:40;4;121;121;120;120;120;120;120;120;120;120;
2021-05-23 07:33:40;5;126;127;126;127;126;127;126;126;127;127;
2021-05-23 07:33:40;ht;99;9.70
2021-05-23 07:33:40;v;4.10
2021-05-23 08:03:41;1;126;126;126;126;126;126;126;126;126;126;
2021-05-23 08:03:41;2;118;118;118;118;118;118;118;118;118;118;
2021-05-23 08:03:41;3;160;160;160;160;160;160;160;160;160;160;
2021-05-23 08:03:41;4;121;121;120;121;120;121;120;121;120;121;
2021-05-23 08:03:41;5;116;117;116;116;116;117;117;117;117;117;
2021-05-23 08:03:41;ht;99;9.50
2021-05-23 08:03:41;v;4.10
2021-05-23 08:33:43;1;131;131;131;131;131;131;131;131;131;131;
2021-05-23 08:33:43;2;118;119;118;118;118;118;118;118;118;118;
2021-05-23 08:33:43;3;159;159;159;160;160;159;160;160;159;160;
2021-05-23 08:33:43;4;119;119;119;119;119;119;119;119;119;119;
2021-05-23 08:33:43;5;119;119;119;119;119;118;118;119;119;119;
2021-05-23 08:33:43;ht;99;9.80
2021-05-23 08:33:43;v;4.10
2021-05-23 09:03:44;1;129;129;129;129;128;129;129;129;129;129;
2021-05-23 09:03:44;2;113;113;113;113;113;113;113;113;113;113;
2021-05-23 09:03:44;3;161;161;161;161;161;161;161;161;161;161;
2021-05-23 09:03:44;4;127;127;127;127;127;127;127;127;127;127;
2021-05-23 09:03:44;5;109;109;109;109;110;109;110;109;109;109;
2021-05-23 09:03:44;ht;99;10.20
2021-05-23 09:03:44;v;4.11
2021-05-23 09:33:41;1;125;125;124;124;124;124;124;124;124;124;
2021-05-23 09:33:41;2;116;116;116;116;116;116;115;115;115;115;
2021-05-23 09:33:41;3;157;157;157;157;157;157;157;157;157;157;
2021-05-23 09:33:41;4;117;117;117;117;117;117;117;117;117;117;
2021-05-23 09:33:41;5;116;117;116;117;117;117;117;117;117;116;
2021-05-23 09:33:41;ht;99;10.80
2021-05-23 09:33:41;v;4.11
2021-05-23 10:03:44;1;126;126;126;126;126;126;126;126;126;126;
2021-05-23 10:03:44;2;112;112;112;112;112;112;112;112;112;112;
2021-05-23 10:03:44;3;159;160;159;159;160;160;160;160;159;160;
2021-05-23 10:03:44;4;128;128;128;128;128;128;128;128;128;128;
2021-05-23 10:03:44;5;116;116;116;115;116;115;116;116;116;116;
2021-05-23 10:03:44;ht;99;11.40
2021-05-23 10:03:44;v;4.11
2021-05-23 10:33:42;1;128;128;127;127;128;127;127;127;127;128;
2021-05-23 10:33:42;2;119;119;119;119;119;119;119;119;119;119;
2021-05-23 10:33:42;3;161;161;161;161;161;161;161;161;161;161;
2021-05-23 10:33:42;4;109;108;109;109;108;109;109;109;109;109;
2021-05-23 10:33:42;5;111;112;112;111;112;112;112;112;112;112;
2021-05-23 10:33:42;ht;99;12.40
2021-05-23 10:33:42;v;4.11
2021-05-23 11:03:46;1;126;126;126;126;126;126;126;126;126;126;
2021-05-23 11:03:46;2;125;125;125;125;125;125;125;125;125;125;
2021-05-23 11:03:46;3;159;159;159;159;159;159;159;159;158;159;
2021-05-23 11:03:46;4;127;127;127;127;127;127;127;127;127;127;
2021-05-23 11:03:46;5;112;112;112;112;112;112;112;112;112;113;
2021-05-23 11:03:46;ht;99;13.00
2021-05-23 11:03:46;v;4.12
2021-05-23 11:33:46;1;127;127;127;127;127;127;127;127;127;127;
2021-05-23 11:33:46;2;134;134;134;134;134;134;134;134;134;134;
2021-05-23 11:33:46;3;160;160;160;160;160;160;160;160;160;160;
2021-05-23 11:33:46;4;118;118;118;118;118;118;118;118;118;118;
2021-05-23 11:33:46;5;115;115;116;116;116;116;116;116;115;116;
2021-05-23 11:33:46;ht;99;12.50
2021-05-23 11:33:46;v;4.12
2021-05-23 12:03:45;1;125;125;125;125;125;125;125;125;125;125;
2021-05-23 12:03:45;2;127;127;127;127;127;127;127;127;127;127;
2021-05-23 12:03:45;3;159;159;159;158;159;158;159;158;159;159;
2021-05-23 12:03:45;4;117;117;117;117;117;117;117;117;117;117;
2021-05-23 12:03:45;5;112;111;112;112;112;112;112;112;112;112;
2021-05-23 12:03:45;ht;99;13.00
2021-05-23 12:03:45;v;4.12
2021-05-23 12:33:45;1;127;127;127;127;127;127;127;127;127;127;
2021-05-23 12:33:45;2;116;116;116;116;116;116;116;116;116;116;
2021-05-23 12:33:45;3;163;163;163;163;163;162;162;163;163;162;
2021-05-23 12:33:45;4;122;122;122;122;122;122;122;122;122;122;
2021-05-23 12:33:45;5;118;118;118;118;118;118;118;118;118;118;
2021-05-23 12:33:45;ht;99;13.60
2021-05-23 12:33:45;v;4.12
2021-05-23 13:03:46;1;127;127;127;127;127;127;127;127;127;127;
2021-05-23 13:03:46;2;123;123;123;123;123;123;123;123;123;123;
2021-05-23 13:03:46;3;164;164;164;164;164;164;164;164;164;164;
2021-05-23 13:03:46;4;117;117;116;116;117;117;116;117;117;116;
2021-05-23 13:03:46;5;124;124;124;124;123;123;123;123;123;124;
2021-05-23 13:03:46;ht;99;15.10
2021-05-23 13:03:46;v;4.12
2021-05-23 13:33:47;1;124;123;124;124;124;124;124;124;124;124;
2021-05-23 13:33:47;2;119;119;119;119;118;119;119;119;119;119;
2021-05-23 13:33:47;3;162;161;162;162;161;161;161;161;161;162;
2021-05-23 13:33:47;4;116;116;116;116;116;116;116;116;116;116;
2021-05-23 13:33:47;5;116;116;116;117;116;117;117;117;116;116;
2021-05-23 13:33:47;ht;99;15.50
2021-05-23 13:33:47;v;4.12
2021-05-23 14:03:45;1;136;136;136;136;136;136;136;136;136;136;
2021-05-23 14:03:45;2;121;121;121;121;121;121;121;121;121;121;
2021-05-23 14:03:45;3;164;164;164;164;164;164;164;164;164;164;
2021-05-23 14:03:45;4;115;115;115;115;115;115;115;115;115;115;
2021-05-23 14:03:45;5;110;111;111;111;111;111;111;111;111;111;
2021-05-23 14:03:45;ht;99;16.80
2021-05-23 14:03:45;v;4.12
2021-05-23 14:33:48;1;128;128;128;128;128;128;128;128;128;128;
2021-05-23 14:33:48;2;121;121;121;121;121;121;121;121;121;121;
2021-05-23 14:33:48;3;161;160;161;161;161;161;161;161;161;161;
2021-05-23 14:33:48;4;117;117;117;117;117;117;117;117;117;117;
2021-05-23 14:33:48;5;114;114;114;114;114;114;114;114;114;114;
2021-05-23 14:33:48;ht;99;17.10
2021-05-23 14:33:48;v;4.13
2021-05-23 15:03:46;1;130;130;130;130;130;130;130;130;130;130;
2021-05-23 15:03:46;2;116;116;116;116;116;116;116;116;116;116;
2021-05-23 15:03:46;3;161;161;161;161;161;161;161;161;161;161;
2021-05-23 15:03:46;4;115;115;114;115;115;115;114;114;114;115;
2021-05-23 15:03:46;5;112;112;112;112;112;112;112;112;112;112;
2021-05-23 15:03:46;ht;99;17.60
2021-05-23 15:03:46;v;4.13
2021-05-23 15:33:50;1;128;128;128;128;128;128;128;128;129;129;
2021-05-23 15:33:50;2;125;125;124;125;125;125;125;125;125;125;
2021-05-23 15:33:50;3;161;161;161;161;161;161;161;161;161;161;
2021-05-23 15:33:50;4;115;115;115;115;115;115;115;115;115;115;
2021-05-23 15:33:50;5;113;113;113;114;114;114;113;113;113;113;
2021-05-23 15:33:50;ht;99;18.20
2021-05-23 15:33:50;v;4.12
2021-05-23 16:03:49;1;126;126;126;126;126;126;126;126;126;126;
2021-05-23 16:03:49;2;117;117;117;117;117;117;117;117;117;117;
2021-05-23 16:03:49;3;166;166;166;166;166;166;166;166;166;166;
2021-05-23 16:03:49;4;116;116;116;116;116;116;116;116;116;116;
2021-05-23 16:03:49;5;121;121;121;121;121;121;121;121;121;121;
2021-05-23 16:03:49;ht;95;17.70
2021-05-23 16:03:49;v;4.13
2021-05-23 16:33:48;1;132;132;132;132;132;132;132;132;132;132;
2021-05-23 16:33:48;2;121;120;121;121;121;121;121;121;121;121;
2021-05-23 16:33:48;3;164;163;163;163;163;163;163;163;163;163;
2021-05-23 16:33:48;4;119;119;119;119;119;119;119;119;119;119;
2021-05-23 16:33:48;5;114;114;114;114;114;114;114;114;114;114;
2021-05-23 16:33:48;ht;93;17.50
2021-05-23 16:33:48;v;4.13
2021-05-23 17:03:46;1;127;127;127;127;127;127;127;127;127;127;
2021-05-23 17:03:46;2;116;116;115;116;115;116;116;116;116;115;
2021-05-23 17:03:46;3;161;161;161;161;161;161;161;161;161;161;
2021-05-23 17:03:46;4;116;116;116;116;116;116;116;116;116;116;
2021-05-23 17:03:46;5;118;118;118;118;118;118;118;118;118;118;
2021-05-23 17:03:46;ht;91;16.80
2021-05-23 17:03:46;v;4.13
2021-05-23 17:33:49;1;128;128;128;129;129;130;129;129;129;129;
2021-05-23 17:33:49;2;123;123;123;123;123;123;122;123;123;123;
2021-05-23 17:33:49;3;162;163;163;162;163;163;163;163;163;163;
2021-05-23 17:33:49;4;117;117;117;117;117;117;117;116;117;117;
2021-05-23 17:33:49;5;124;124;124;124;124;123;124;123;123;124;
2021-05-23 17:33:49;ht;97;15.70
2021-05-23 17:33:49;v;4.13
2021-05-23 18:03:46;1;122;123;123;124;124;123;123;123;123;124;
2021-05-23 18:03:46;2;114;115;115;114;115;114;115;115;114;115;
2021-05-23 18:03:46;3;161;161;161;161;161;161;161;161;161;161;
2021-05-23 18:03:46;4;120;120;120;120;120;120;120;120;120;120;
2021-05-23 18:03:46;5;112;112;112;112;112;112;112;112;113;112;
2021-05-23 18:03:46;ht;99;13.60
2021-05-23 18:03:46;v;4.13
2021-05-23 18:33:45;1;126;126;126;125;126;126;126;126;126;126;
2021-05-23 18:33:45;2;122;122;122;123;122;122;123;122;122;122;
2021-05-23 18:33:45;3;157;158;157;157;158;157;157;157;158;157;
2021-05-23 18:33:45;4;122;123;123;122;123;123;122;122;123;122;
2021-05-23 18:33:45;5;128;128;128;128;128;128;127;128;128;128;
2021-05-23 18:33:45;ht;99;10.60
2021-05-23 18:33:45;v;4.12
2021-05-23 19:03:43;1;130;130;130;129;129;129;129;130;130;130;
2021-05-23 19:03:43;2;119;118;118;118;118;118;118;119;118;119;
2021-05-23 19:03:43;3;155;155;155;155;155;155;155;155;155;155;
2021-05-23 19:03:43;4;119;119;119;118;119;119;119;118;119;118;
2021-05-23 19:03:43;5;121;121;121;121;121;121;121;121;121;121;
2021-05-23 19:03:43;ht;99;11.20
2021-05-23 19:03:43;v;4.11
2021-05-23 19:33:44;1;127;127;127;127;127;126;127;127;127;127;
2021-05-23 19:33:44;2;120;120;120;120;120;120;120;120;120;120;
2021-05-23 19:33:44;3;160;160;159;159;160;159;160;160;159;160;
2021-05-23 19:33:44;4;122;123;122;122;123;123;123;123;123;123;
2021-05-23 19:33:44;5;118;119;118;118;118;118;119;118;119;119;
2021-05-23 19:33:44;ht;99;10.20
2021-05-23 19:33:44;v;4.11
2021-05-23 20:03:40;1;127;127;128;128;128;127;128;128;128;128;
2021-05-23 20:03:40;2;115;115;115;115;115;115;115;115;115;115;
2021-05-23 20:03:40;3;159;159;159;159;159;159;159;159;159;159;
2021-05-23 20:03:40;4;117;117;117;117;117;116;117;117;117;117;
2021-05-23 20:03:40;5;122;122;122;122;122;122;122;122;122;122;
2021-05-23 20:03:40;ht;99;9.90
2021-05-23 20:03:40;v;4.11
2021-05-23 20:33:41;1;129;129;129;129;129;129;129;129;129;129;
2021-05-23 20:33:41;2;117;117;117;117;117;117;117;118;118;117;
2021-05-23 20:33:41;3;159;159;159;159;159;159;159;159;159;159;
2021-05-23 20:33:41;4;119;119;119;119;119;119;119;119;119;119;
2021-05-23 20:33:41;5;118;115;113;113;113;113;112;113;113;112;
2021-05-23 20:33:41;ht;99;8.00
2021-05-23 20:33:41;v;4.11
2021-05-23 21:03:41;1;130;130;130;130;130;130;130;130;130;130;
2021-05-23 21:03:41;2;116;116;117;117;116;116;117;117;117;116;
2021-05-23 21:03:41;3;152;152;152;152;152;152;152;152;152;152;
2021-05-23 21:03:41;4;119;119;119;119;119;119;119;119;119;119;
2021-05-23 21:03:41;5;110;110;110;111;110;110;110;110;110;110;
2021-05-23 21:03:41;ht;99;7.60
2021-05-23 21:03:41;v;4.11
2021-05-23 21:33:40;1;131;130;130;130;130;130;130;130;130;130;
2021-05-23 21:33:40;2;118;118;118;118;118;118;118;118;118;118;
2021-05-23 21:33:40;3;152;152;152;152;152;152;152;152;152;152;
2021-05-23 21:33:40;4;119;119;119;119;119;119;119;119;119;119;
2021-05-23 21:33:40;5;111;111;111;111;112;112;111;112;111;111;
2021-05-23 21:33:40;ht;99;7.30
2021-05-23 21:33:40;v;4.10
2021-05-23 22:03:40;1;128;128;128;127;127;127;127;127;127;126;
2021-05-23 22:03:40;2;119;119;119;119;119;119;119;119;119;119;
2021-05-23 22:03:40;3;159;159;159;159;159;159;159;159;159;159;
2021-05-23 22:03:40;4;118;118;118;118;118;118;118;118;118;118;
2021-05-23 22:03:40;5;110;111;111;111;111;111;111;110;111;111;
2021-05-23 22:03:40;ht;99;7.70
2021-05-23 22:03:40;v;4.11
2021-05-23 22:33:39;1;125;125;125;125;125;125;126;126;126;126;
2021-05-23 22:33:39;2;120;121;120;121;121;120;121;121;120;121;
2021-05-23 22:33:39;3;154;154;154;154;154;154;154;154;154;154;
2021-05-23 22:33:39;4;109;109;109;109;109;109;109;109;109;109;
2021-05-23 22:33:39;5;111;111;111;111;111;111;111;111;111;111;
2021-05-23 22:33:39;ht;99;7.50
2021-05-23 22:33:39;v;4.08
2021-05-23 23:03:39;1;127;126;127;127;126;126;126;126;126;125;
2021-05-23 23:03:39;2;118;117;117;117;118;117;118;118;117;117;
2021-05-23 23:03:39;3;159;159;159;159;159;159;159;159;159;159;
2021-05-23 23:03:39;4;113;114;113;114;114;114;114;113;114;114;
2021-05-23 23:03:39;5;113;113;113;113;113;113;113;113;113;113;
2021-05-23 23:03:39;ht;99;7.30
2021-05-23 23:03:39;v;4.10
2021-05-23 23:33:43;1;129;129;129;128;128;128;128;128;128;128;
2021-05-23 23:33:43;2;121;121;121;121;121;121;121;121;121;121;
2021-05-23 23:33:43;3;153;153;153;153;153;153;153;153;153;153;
2021-05-23 23:33:43;4;119;119;118;118;118;118;119;119;118;119;
2021-05-23 23:33:43;5;114;113;114;114;114;114;114;114;114;121;
2021-05-23 23:33:43;ht;99;8.00
2021-05-23 23:33:43;v;4.10
