2021-01-10 00:03:50;1;124;124;124;124;124;124;124;124;124;124;
2021-01-10 00:03:50;2;123;123;123;123;123;123;123;123;123;123;
2021-01-10 00:03:50;3;0;0;0;0;0;0;0;0;0;0;
2021-01-10 00:03:50;4;114;114;114;114;114;114;114;114;114;114;
2021-01-10 00:03:50;5;126;126;126;126;127;127;127;126;126;126;
2021-01-10 00:03:50;ht;99;20.40
2021-01-10 00:03:50;v;4.16
2021-01-10 00:33:50;1;125;125;125;125;132;126;125;126;125;125;
2021-01-10 00:33:50;2;124;124;124;124;124;124;124;124;124;124;
2021-01-10 00:33:50;3;14;15;15;14;15;14;15;14;15;15;
2021-01-10 00:33:50;4;117;117;117;117;117;117;117;117;117;117;
2021-01-10 00:33:50;5;127;127;127;127;128;128;127;127;128;128;
2021-01-10 00:33:50;ht;99;19.70
2021-01-10 00:33:50;v;4.16
2021-01-10 01:03:50;1;127;127;128;128;127;134;129;128;128;128;
2021-01-10 01:03:50;2;124;124;124;124;124;124;124;124;124;124;
2021-01-10 01:03:50;3;14;14;14;14;14;14;14;14;14;14;
2021-01-10 01:03:50;4;124;124;124;124;124;124;124;124;124;124;
2021-01-10 01:03:50;5;125;125;125;125;125;125;125;125;125;125;
2021-01-10 01:03:50;ht;99;19.80
2021-01-10 01:03:50;v;4.15
2021-01-10 01:33:49;1;127;127;127;127;127;127;127;127;127;135;
2021-01-10 01:33:49;2;125;125;125;125;125;125;125;125;125;125;
2021-01-10 01:33:49;3;13;13;13;13;13;13;13;13;13;13;
2021-01-10 01:33:49;4;122;122;122;122;122;122;122;122;122;122;
2021-01-10 01:33:49;5;125;125;125;125;125;125;125;125;125;125;
2021-01-10 01:33:49;ht;99;19.90
2021-01-10 01:33:49;v;4.15
2021-01-10 02:03:48;1;123;123;123;123;123;123;123;123;123;123;
2021-01-10 02:03:48;2;124;124;124;124;124;124;124;124;124;124;
2021-01-10 02:03:48;3;19;19;19;19;19;19;19;19;19;19;
2021-01-10 02:03:48;4;124;124;124;124;124;124;124;124;124;124;
2021-01-10 02:03:48;5;128;128;128;128;128;128;128;128;128;128;
2021-01-10 02:03:48;ht;99;18.80
2021-01-10 02:03:48;v;4.15
2021-01-10 02:33:47;1;125;125;125;125;132;126;125;125;125;125;
2021-01-10 02:33:47;2;122;122;122;122;121;121;122;122;122;121;
2021-01-10 02:33:47;3;16;16;16;16;16;16;16;16;16;16;
2021-01-10 02:33:47;4;124;124;124;124;124;124;124;124;124;124;
2021-01-10 02:33:47;5;128;128;128;128;128;128;128;128;128;128;
2021-01-10 02:33:47;ht;99;19.10
2021-01-10 02:33:47;v;4.15
2021-01-10 03:03:50;1;126;126;126;126;126;126;126;126;126;126;
2021-01-10 03:03:50;2;126;124;124;124;124;124;124;123;123;124;
2021-01-10 03:03:50;3;19;19;19;19;19;19;19;19;19;19;
2021-01-10 03:03:50;4;124;125;125;125;124;125;125;125;125;125;
2021-01-10 03:03:50;5;127;128;127;127;128;127;127;127;128;127;
2021-01-10 03:03:50;ht;99;19.10
2021-01-10 03:03:50;v;4.15
2021-01-10 03:33:49;1;126;126;126;125;133;127;126;126;126;126;
2021-01-10 03:33:49;2;132;124;124;124;123;124;124;124;124;124;
2021-01-10 03:33:49;3;19;19;19;19;19;19;19;19;19;19;
2021-01-10 03:33:49;4;119;119;119;118;119;119;119;119;119;119;
2021-01-10 03:33:49;5;127;127;127;127;127;127;127;127;127;127;
2021-01-10 03:33:49;ht;99;18.10
2021-01-10 03:33:49;v;4.15
2021-01-10 04:03:47;1;127;127;127;127;127;127;127;127;127;127;
2021-01-10 04:03:47;2;122;128;123;122;122;122;122;122;122;122;
2021-01-10 04:03:47;3;20;20;20;20;20;20;20;20;20;20;
2021-01-10 04:03:47;4;116;116;116;116;116;116;116;116;116;116;
2021-01-10 04:03:47;5;129;129;129;129;129;129;129;129;129;129;
2021-01-10 04:03:47;ht;99;17.80
2021-01-10 04:03:47;v;4.15
2021-01-10 04:33:49;1;125;125;125;125;125;125;125;125;125;125;
2021-01-10 04:33:49;2;123;123;130;125;124;123;123;123;123;123;
2021-01-10 04:33:49;3;20;20;20;20;20;20;20;20;20;20;
2021-01-10 04:33:49;4;121;121;121;121;121;121;121;121;121;121;
2021-01-10 04:33:49;5;129;128;128;129;129;129;129;129;128;129;
2021-01-10 04:33:49;ht;99;16.90
2021-01-10 04:33:49;v;4.15
2021-01-10 05:03:47;1;124;124;124;124;124;124;124;124;124;124;
2021-01-10 05:03:47;2;123;123;129;125;123;123;123;123;123;123;
2021-01-10 05:03:47;3;21;21;21;21;21;21;21;21;21;21;
2021-01-10 05:03:47;4;118;119;118;118;119;119;119;119;119;119;
2021-01-10 05:03:47;5;129;129;129;129;129;129;129;129;129;129;
2021-01-10 05:03:47;ht;99;16.90
2021-01-10 05:03:47;v;4.14
2021-01-10 05:33:49;1;127;128;128;128;127;128;128;128;128;128;
2021-01-10 05:33:49;2;123;123;124;123;123;123;123;123;123;123;
2021-01-10 05:33:49;3;26;26;26;26;26;26;26;26;26;26;
2021-01-10 05:33:49;4;126;126;127;126;126;126;126;126;126;126;
2021-01-10 05:33:49;5;114;114;114;114;114;114;114;114;114;114;
2021-01-10 05:33:49;ht;99;17.30
2021-01-10 05:33:49;v;4.15
2021-01-10 06:03:46;1;125;125;124;125;124;125;125;124;125;125;
2021-01-10 06:03:46;2;122;123;129;124;123;123;123;123;123;122;
2021-01-10 06:03:46;3;0;0;0;0;0;0;0;0;0;0;
2021-01-10 06:03:46;4;115;115;115;115;115;115;115;115;115;115;
2021-01-10 06:03:46;5;128;128;128;128;128;128;128;128;128;128;
2021-01-10 06:03:46;ht;99;17.00
2021-01-10 06:03:46;v;4.15
2021-01-10 06:33:48;1;126;126;126;126;126;126;126;126;126;126;
2021-01-10 06:33:48;2;124;124;124;124;124;124;124;124;124;124;
2021-01-10 06:33:48;3;0;0;0;0;0;0;0;0;0;0;
2021-01-10 06:33:48;4;112;112;113;112;113;113;113;113;113;113;
2021-01-10 06:33:48;5;123;123;123;123;123;123;123;123;123;123;
2021-01-10 06:33:48;ht;99;18.30
2021-01-10 06:33:48;v;4.14
2021-01-10 07:03:46;1;125;125;125;125;125;132;126;125;125;125;
2021-01-10 07:03:46;2;124;124;124;124;124;124;124;124;124;124;
2021-01-10 07:03:46;3;12;12;12;12;12;12;12;12;12;12;
2021-01-10 07:03:46;4;98;98;98;98;98;99;99;98;98;98;
2021-01-10 07:03:46;5;127;127;127;127;127;127;127;127;127;127;
2021-01-10 07:03:46;ht;99;20.40
2021-01-10 07:03:46;v;4.14
2021-01-10 07:33:50;1;125;125;125;125;125;125;132;126;125;125;
2021-01-10 07:33:50;2;124;124;124;124;124;124;124;124;124;124;
2021-01-10 07:33:50;3;18;18;18;18;18;18;18;18;18;18;
2021-01-10 07:33:50;4;97;97;97;97;97;97;97;97;97;97;
2021-01-10 07:33:50;5;121;121;121;121;121;121;121;121;121;121;
2021-01-10 07:33:50;ht;99;22.20
2021-01-10 07:33:50;v;4.15
2021-01-10 08:03:51;1;121;122;127;124;122;121;121;121;121;121;
2021-01-10 08:03:51;2;118;118;118;118;118;118;118;118;118;118;
2021-01-10 08:03:51;3;25;26;25;25;26;25;25;25;25;26;
2021-01-10 08:03:51;4;92;92;92;92;92;92;92;92;92;92;
2021-01-10 08:03:51;5;121;121;121;121;121;121;121;121;121;121;
2021-01-10 08:03:51;ht;99;24.10
2021-01-10 08:03:51;v;4.15
2021-01-10 08:33:54;1;125;124;124;124;124;132;125;124;124;124;
2021-01-10 08:33:54;2;125;125;125;125;125;125;125;125;125;125;
2021-01-10 08:33:54;3;30;30;30;30;30;30;30;30;30;30;
2021-01-10 08:33:54;4;88;88;88;88;88;88;88;88;88;88;
2021-01-10 08:33:54;5;123;123;123;123;123;123;124;123;123;123;
2021-01-10 08:33:54;ht;99;26.30
2021-01-10 08:33:54;v;4.15
2021-01-10 09:03:54;1;124;124;124;124;124;124;124;124;124;124;
2021-01-10 09:03:54;2;116;116;116;116;116;116;116;116;116;116;
2021-01-10 09:03:54;3;29;29;29;29;29;29;29;29;29;29;
2021-01-10 09:03:54;4;116;116;116;116;116;116;116;116;116;116;
2021-01-10 09:03:54;5;120;120;120;120;120;120;120;120;120;120;
2021-01-10 09:03:54;ht;99;27.50
2021-01-10 09:03:54;v;4.16
2021-01-10 09:33:56;1;125;125;125;132;127;126;126;125;125;125;
2021-01-10 09:33:56;2;117;117;116;117;117;117;117;117;117;117;
2021-01-10 09:33:56;3;32;32;32;32;32;32;32;32;32;32;
2021-01-10 09:33:56;4;120;120;119;120;120;120;120;120;120;120;
2021-01-10 09:33:56;5;121;121;121;121;121;121;121;121;121;121;
2021-01-10 09:33:56;ht;99;29.20
2021-01-10 09:33:56;v;4.16
2021-01-10 10:03:54;1;124;125;124;124;124;124;124;130;126;125;
2021-01-10 10:03:54;2;117;116;117;117;117;117;117;117;116;117;
2021-01-10 10:03:54;3;34;34;34;34;34;34;34;34;34;34;
2021-01-10 10:03:54;4;119;119;119;119;119;119;119;119;119;119;
2021-01-10 10:03:54;5;123;124;123;123;123;123;124;123;124;123;
2021-01-10 10:03:54;ht;99;30.40
2021-01-10 10:03:54;v;4.16
2021-01-10 10:33:59;1;123;123;123;123;123;123;123;123;123;129;
2021-01-10 10:33:59;2;117;117;117;117;117;117;117;117;117;117;
2021-01-10 10:33:59;3;27;27;27;27;27;27;27;27;27;27;
2021-01-10 10:33:59;4;121;121;121;121;121;121;121;121;121;121;
2021-01-10 10:33:59;5;125;125;125;125;125;125;125;125;125;124;
2021-01-10 10:33:59;ht;99;31.30
2021-01-10 10:33:59;v;4.16
2021-01-10 11:04:00;1;127;126;127;127;127;127;135;127;127;127;
2021-01-10 11:04:00;2;130;130;130;130;130;131;131;131;131;131;
2021-01-10 11:04:00;3;25;25;24;24;24;25;24;24;24;25;
2021-01-10 11:04:00;4;121;121;121;121;121;121;121;121;121;121;
2021-01-10 11:04:00;5;122;122;122;122;122;122;122;122;122;122;
2021-01-10 11:04:00;ht;94;31.80
2021-01-10 11:04:00;v;4.16
2021-01-10 11:33:57;1;124;124;124;124;127;128;125;124;124;124;
2021-01-10 11:33:57;2;122;122;122;122;122;122;122;122;122;122;
2021-01-10 11:33:57;3;23;23;23;24;24;23;24;23;24;23;
2021-01-10 11:33:57;4;119;119;119;119;119;119;119;119;119;119;
2021-01-10 11:33:57;5;120;120;120;120;120;120;120;120;121;120;
2021-01-10 11:33:57;ht;93;32.10
2021-01-10 11:33:57;v;4.16
2021-01-10 12:04:00;1;125;125;125;125;125;125;125;133;126;125;
2021-01-10 12:04:00;2;120;120;120;120;120;120;120;120;120;120;
2021-01-10 12:04:00;3;24;24;24;23;24;24;24;24;23;24;
2021-01-10 12:04:00;4;123;123;123;123;123;123;123;123;123;123;
2021-01-10 12:04:00;5;117;117;117;117;117;117;117;117;117;117;
2021-01-10 12:04:00;ht;91;32.60
2021-01-10 12:04:00;v;4.16
2021-01-10 12:33:58;1;120;120;120;120;120;120;120;120;120;120;
2021-01-10 12:33:58;2;121;121;121;121;121;121;121;121;121;121;
2021-01-10 12:33:58;3;23;23;23;23;23;23;23;23;23;23;
2021-01-10 12:33:58;4;116;115;115;115;115;116;115;116;116;116;
2021-01-10 12:33:58;5;123;123;123;123;123;123;123;123;123;123;
2021-01-10 12:33:58;ht;90;33.60
2021-01-10 12:33:58;v;4.16
2021-01-10 13:04:02;1;123;122;122;122;122;122;122;128;124;123;
2021-01-10 13:04:02;2;122;122;122;122;122;122;122;122;122;122;
2021-01-10 13:04:02;3;22;22;22;22;22;22;22;22;22;22;
2021-01-10 13:04:02;4;114;114;114;114;114;114;114;114;114;114;
2021-01-10 13:04:02;5;123;123;123;123;123;123;123;123;123;123;
2021-01-10 13:04:02;ht;86;33.70
2021-01-10 13:04:02;v;4.16
2021-01-10 13:34:02;1;125;125;125;125;125;125;125;125;131;127;
2021-01-10 13:34:02;2;121;121;121;121;121;121;121;121;121;121;
2021-01-10 13:34:02;3;21;21;21;21;21;21;21;21;21;21;
2021-01-10 13:34:02;4;118;118;118;118;118;118;118;118;118;118;
2021-01-10 13:34:02;5;123;123;123;123;123;123;123;123;123;123;
2021-01-10 13:34:02;ht;87;33.90
2021-01-10 13:34:02;v;4.16
2021-01-10 14:04:03;1;124;123;123;123;123;123;123;123;123;123;
2021-01-10 14:04:03;2;118;118;118;118;118;118;118;118;118;118;
2021-01-10 14:04:03;3;21;21;21;21;21;21;21;21;21;21;
2021-01-10 14:04:03;4;117;117;117;117;117;117;117;117;117;117;
2021-01-10 14:04:03;5;122;122;122;123;123;123;123;123;123;123;
2021-01-10 14:04:03;ht;83;34.30
2021-01-10 14:04:03;v;4.16
2021-01-10 14:34:04;1;122;121;121;130;122;122;121;122;122;122;
2021-01-10 14:34:04;2;120;120;120;120;120;120;120;120;120;120;
2021-01-10 14:34:04;3;21;20;21;20;21;21;20;20;21;21;
2021-01-10 14:34:04;4;118;118;118;118;118;118;118;118;118;118;
2021-01-10 14:34:04;5;122;122;122;122;122;122;122;122;122;122;
2021-01-10 14:34:04;ht;80;34.50
2021-01-10 14:34:04;v;4.16
2021-01-10 15:04:00;1;123;123;123;129;125;124;123;123;123;123;
2021-01-10 15:04:00;2;123;123;123;124;124;123;124;124;124;124;
2021-01-10 15:04:00;3;20;20;20;20;20;20;20;20;20;20;
2021-01-10 15:04:00;4;113;113;113;113;114;113;113;114;114;114;
2021-01-10 15:04:00;5;122;122;122;122;122;122;122;122;122;122;
2021-01-10 15:04:00;ht;82;35.20
2021-01-10 15:04:00;v;4.17
2021-01-10 15:34:02;1;124;124;124;130;126;124;124;124;124;124;
2021-01-10 15:34:02;2;122;121;122;122;122;122;122;122;122;122;
2021-01-10 15:34:02;3;19;19;19;19;19;19;19;19;19;19;
2021-01-10 15:34:02;4;113;114;114;114;114;114;114;114;114;114;
2021-01-10 15:34:02;5;121;121;121;121;121;120;120;121;121;121;
2021-01-10 15:34:02;ht;76;34.70
2021-01-10 15:34:02;v;4.17
2021-01-10 16:04:04;1;123;123;123;131;123;123;123;123;122;122;
2021-01-10 16:04:04;2;121;121;121;121;121;121;121;121;121;121;
2021-01-10 16:04:04;3;17;17;17;17;17;17;17;17;17;17;
2021-01-10 16:04:04;4;1;1;1;2;2;1;1;1;1;2;
2021-01-10 16:04:04;5;123;123;123;123;123;122;123;123;123;123;
2021-01-10 16:04:04;ht;74;35.50
2021-01-10 16:04:04;v;4.17
2021-01-10 16:34:02;1;122;122;122;122;122;122;123;122;122;122;
2021-01-10 16:34:02;2;118;118;118;118;118;118;118;118;118;118;
2021-01-10 16:34:02;3;18;18;18;18;18;18;18;18;18;18;
2021-01-10 16:34:02;4;2;2;2;2;2;2;2;2;2;2;
2021-01-10 16:34:02;5;119;119;119;119;119;119;119;119;119;119;
2021-01-10 16:34:02;ht;73;35.30
2021-01-10 16:34:02;v;4.17
2021-01-10 17:04:04;1;117;117;117;120;120;117;117;117;117;117;
2021-01-10 17:04:04;2;117;117;117;117;117;117;117;117;117;117;
2021-01-10 17:04:04;3;4;4;4;4;4;4;4;4;4;4;
2021-01-10 17:04:04;4;120;120;120;120;120;120;120;120;120;120;
2021-01-10 17:04:04;5;118;118;118;118;118;118;118;118;118;117;
2021-01-10 17:04:04;ht;75;35.50
2021-01-10 17:04:04;v;4.17
2021-01-10 17:34:01;1;120;120;120;120;126;122;120;120;120;120;
2021-01-10 17:34:01;2;125;125;125;125;125;125;125;125;125;125;
2021-01-10 17:34:01;3;15;15;15;15;15;15;15;15;15;15;
2021-01-10 17:34:01;4;120;120;120;120;120;120;120;120;120;120;
2021-01-10 17:34:01;5;119;119;119;119;119;119;119;119;119;119;
2021-01-10 17:34:01;ht;75;35.10
2021-01-10 17:34:01;v;4.17
2021-01-10 18:04:03;1;124;124;124;124;123;124;131;125;124;124;
2021-01-10 18:04:03;2;119;119;119;119;119;119;119;119;119;119;
2021-01-10 18:04:03;3;15;15;15;15;16;15;15;15;15;15;
2021-01-10 18:04:03;4;112;112;112;112;112;112;112;112;112;112;
2021-01-10 18:04:03;5;122;122;122;122;122;122;122;122;122;122;
2021-01-10 18:04:03;ht;79;34.20
2021-01-10 18:04:03;v;4.17
2021-01-10 18:34:03;1;125;125;125;125;125;125;125;125;124;125;
2021-01-10 18:34:03;2;119;119;119;119;119;119;119;119;119;119;
2021-01-10 18:34:03;3;16;16;16;16;16;16;16;16;16;16;
2021-01-10 18:34:03;4;117;117;117;117;117;117;117;117;117;117;
2021-01-10 18:34:03;5;124;124;124;124;124;124;124;124;124;124;
2021-01-10 18:34:03;ht;79;34.40
2021-01-10 18:34:03;v;4.17
2021-01-10 19:03:59;1;125;125;125;125;125;125;125;125;125;125;
2021-01-10 19:03:59;2;118;118;118;118;118;118;118;118;118;118;
2021-01-10 19:03:59;3;4;5;4;4;5;4;4;4;4;4;
2021-01-10 19:03:59;4;120;120;120;120;120;120;120;120;120;120;
2021-01-10 19:03:59;5;120;120;120;119;120;120;120;120;120;120;
2021-01-10 19:03:59;ht;85;33.70
2021-01-10 19:03:59;v;4.17
2021-01-10 19:34:03;1;126;126;126;126;126;134;127;126;126;126;
2021-01-10 19:34:03;2;120;120;120;119;120;119;120;120;120;120;
2021-01-10 19:34:03;3;11;11;11;11;11;11;11;11;11;11;
2021-01-10 19:34:03;4;119;119;119;118;119;119;119;119;119;119;
2021-01-10 19:34:03;5;121;121;122;121;121;121;121;121;121;121;
2021-01-10 19:34:03;ht;88;32.70
2021-01-10 19:34:03;v;4.17
2021-01-10 20:04:01;1;128;128;128;128;128;128;135;130;129;129;
2021-01-10 20:04:01;2;118;118;118;118;118;118;118;118;118;118;
2021-01-10 20:04:01;3;13;12;12;13;12;13;13;13;12;12;
2021-01-10 20:04:01;4;89;90;90;90;90;90;90;90;90;90;
2021-01-10 20:04:01;5;121;121;121;121;121;121;121;121;121;121;
2021-01-10 20:04:01;ht;92;32.10
2021-01-10 20:04:01;v;4.17
2021-01-10 20:33:57;1;126;126;126;126;133;128;126;126;126;126;
2021-01-10 20:33:57;2;125;125;125;125;125;125;125;125;125;125;
2021-01-10 20:33:57;3;7;7;7;7;7;7;7;7;7;7;
2021-01-10 20:33:57;4;1;1;1;1;1;1;1;1;1;1;
2021-01-10 20:33:57;5;124;124;124;124;124;124;125;124;124;124;
2021-01-10 20:33:57;ht;99;24.70
2021-01-10 20:33:57;v;4.17
2021-01-10 21:03:52;1;123;123;123;123;123;123;123;123;123;122;
2021-01-10 21:03:52;2;121;121;121;121;121;121;121;121;121;121;
2021-01-10 21:03:52;3;9;9;9;9;9;9;9;9;9;9;
2021-01-10 21:03:52;4;117;118;117;118;117;117;118;117;118;117;
2021-01-10 21:03:52;5;123;123;122;123;123;123;123;123;123;123;
2021-01-10 21:03:52;ht;99;24.40
2021-01-10 21:03:52;v;4.16
2021-01-10 21:33:51;1;124;124;124;124;132;125;125;125;125;124;
2021-01-10 21:33:51;2;122;122;122;122;122;122;122;122;122;122;
2021-01-10 21:33:51;3;10;11;11;11;11;10;11;11;10;10;
2021-01-10 21:33:51;4;119;119;119;119;119;119;119;119;119;119;
2021-01-10 21:33:51;5;119;119;119;119;119;119;119;119;119;119;
2021-01-10 21:33:51;ht;99;23.80
2021-01-10 21:33:51;v;4.16
2021-01-10 22:03:50;1;127;127;132;129;127;127;127;127;127;127;
2021-01-10 22:03:50;2;123;122;122;123;123;123;123;122;123;122;
2021-01-10 22:03:50;3;11;11;11;11;11;11;11;11;11;11;
2021-01-10 22:03:50;4;114;114;114;114;114;114;114;114;114;114;
2021-01-10 22:03:50;5;120;120;120;120;120;120;120;120;120;120;
2021-01-10 22:03:50;ht;99;23.60
2021-01-10 22:03:50;v;4.16
2021-01-10 22:33:53;1;127;133;128;127;127;127;127;127;127;127;
2021-01-10 22:33:53;2;122;122;122;121;122;121;122;122;121;122;
2021-01-10 22:33:53;3;12;12;12;12;12;12;12;12;12;12;
2021-01-10 22:33:53;4;127;127;127;127;127;127;127;127;127;127;
2021-01-10 22:33:53;5;123;123;123;123;123;123;123;123;123;123;
2021-01-10 22:33:53;ht;99;23.70
2021-01-10 22:33:53;v;4.16
2021-01-10 23:03:51;1;125;125;125;125;125;125;125;125;126;125;
2021-01-10 23:03:51;2;124;124;124;124;124;124;124;124;124;124;
2021-01-10 23:03:51;3;12;12;12;12;12;12;12;12;12;12;
2021-01-10 23:03:51;4;119;119;119;119;119;119;119;119;119;119;
2021-01-10 23:03:51;5;124;124;124;124;124;124;124;124;124;124;
2021-01-10 23:03:51;ht;99;23.40
2021-01-10 23:03:51;v;4.16
2021-01-10 23:33:49;1;127;127;127;127;135;128;128;128;128;128;
2021-01-10 23:33:49;2;124;124;124;124;123;124;124;124;124;124;
2021-01-10 23:33:49;3;11;12;12;12;12;12;12;12;12;12;
2021-01-10 23:33:49;4;122;122;122;122;122;122;122;122;122;122;
2021-01-10 23:33:49;5;123;123;123;123;123;123;123;123;123;123;
2021-01-10 23:33:49;ht;99;23.30
2021-01-10 23:33:49;v;4.16
