2021-04-08 00:03:50;1;129;129;129;129;129;130;130;130;130;130;
2021-04-08 00:03:50;2;118;119;119;119;119;119;119;119;119;119;
2021-04-08 00:03:50;3;49;50;50;50;50;50;50;50;50;50;
2021-04-08 00:03:50;4;125;125;125;125;125;125;125;125;125;125;
2021-04-08 00:03:50;5;121;121;121;121;121;121;120;121;121;120;
2021-04-08 00:03:50;ht;99;20.40
2021-04-08 00:03:50;v;4.14
2021-04-08 00:33:49;1;131;130;131;131;130;130;131;131;131;130;
2021-04-08 00:33:49;2;118;118;119;119;119;119;119;119;119;119;
2021-04-08 00:33:49;3;50;50;50;50;50;50;50;50;50;50;
2021-04-08 00:33:49;4;125;125;125;125;125;125;125;125;125;125;
2021-04-08 00:33:49;5;122;122;122;122;122;122;122;122;122;122;
2021-04-08 00:33:49;ht;99;20.40
2021-04-08 00:33:49;v;4.14
2021-04-08 01:03:48;1;136;136;136;136;136;136;136;136;136;136;
2021-04-08 01:03:48;2;120;120;119;119;119;119;119;119;119;119;
2021-04-08 01:03:48;3;49;49;50;49;49;49;49;49;49;49;
2021-04-08 01:03:48;4;124;125;125;125;125;125;125;125;125;125;
2021-04-08 01:03:48;5;123;122;123;123;123;123;123;123;123;123;
2021-04-08 01:03:48;ht;99;20.20
2021-04-08 01:03:48;v;4.14
2021-04-08 01:33:47;1;137;137;137;136;137;137;137;136;137;136;
2021-04-08 01:33:47;2;120;120;120;120;120;120;120;120;120;120;
2021-04-08 01:33:47;3;50;50;50;50;50;50;50;50;50;50;
2021-04-08 01:33:47;4;125;125;125;125;125;125;125;125;125;125;
2021-04-08 01:33:47;5;121;121;122;121;122;121;121;121;121;121;
2021-04-08 01:33:47;ht;99;20.00
2021-04-08 01:33:47;v;4.14
2021-04-08 02:03:46;1;132;132;131;132;131;131;131;132;133;133;
2021-04-08 02:03:46;2;120;120;120;120;120;120;120;120;120;120;
2021-04-08 02:03:46;3;49;49;50;50;50;50;50;50;50;50;
2021-04-08 02:03:46;4;125;125;125;125;125;125;125;125;125;125;
2021-04-08 02:03:46;5;123;123;123;123;123;123;123;123;123;123;
2021-04-08 02:03:46;ht;99;19.70
2021-04-08 02:03:46;v;4.14
2021-04-08 02:33:50;1;135;135;135;135;135;135;135;135;135;135;
2021-04-08 02:33:50;2;121;121;121;121;121;121;121;121;121;121;
2021-04-08 02:33:50;3;50;50;50;50;50;50;50;50;50;50;
2021-04-08 02:33:50;4;125;125;125;125;125;125;125;125;125;125;
2021-04-08 02:33:50;5;121;121;121;121;121;121;121;121;121;121;
2021-04-08 02:33:50;ht;99;19.70
2021-04-08 02:33:50;v;4.14
2021-04-08 03:03:49;1;130;130;129;130;130;130;129;130;129;130;
2021-04-08 03:03:49;2;121;121;121;121;121;121;121;121;121;121;
2021-04-08 03:03:49;3;50;50;50;50;50;50;50;50;50;50;
2021-04-08 03:03:49;4;125;125;125;125;125;125;125;125;125;125;
2021-04-08 03:03:49;5;123;123;123;123;123;123;123;123;123;123;
2021-04-08 03:03:49;ht;99;19.30
2021-04-08 03:03:49;v;4.14
2021-04-08 03:33:47;1;117;117;117;117;117;117;117;117;117;117;
2021-04-08 03:33:47;2;121;121;121;121;121;121;121;121;121;121;
2021-04-08 03:33:47;3;50;50;50;50;50;50;50;50;50;50;
2021-04-08 03:33:47;4;125;125;125;125;125;125;125;125;125;125;
2021-04-08 03:33:47;5;123;123;123;123;123;123;123;123;123;123;
2021-04-08 03:33:47;ht;99;19.20
2021-04-08 03:33:47;v;4.14
2021-04-08 04:03:46;1;137;137;137;136;137;137;136;137;137;137;
2021-04-08 04:03:46;2;121;121;121;121;121;120;121;121;121;121;
2021-04-08 04:03:46;3;48;49;49;49;49;49;49;49;49;49;
2021-04-08 04:03:46;4;125;125;125;125;125;125;125;125;125;125;
2021-04-08 04:03:46;5;1;2;1;2;1;1;1;1;1;1;
2021-04-08 04:03:46;ht;99;18.90
2021-04-08 04:03:46;v;4.14
2021-04-08 04:33:49;1;130;130;129;130;129;130;130;130;130;130;
2021-04-08 04:33:49;2;120;120;120;120;120;120;120;120;120;120;
2021-04-08 04:33:49;3;49;49;49;49;49;49;49;49;49;49;
2021-04-08 04:33:49;4;125;125;125;124;125;125;125;125;125;125;
2021-04-08 04:33:49;5;130;130;130;130;130;130;130;130;130;130;
2021-04-08 04:33:49;ht;99;18.80
2021-04-08 04:33:49;v;4.14
2021-04-08 05:03:47;1;130;130;130;130;130;130;130;130;130;130;
2021-04-08 05:03:47;2;119;120;119;120;120;120;120;119;120;119;
2021-04-08 05:03:47;3;49;49;49;49;49;49;49;49;49;50;
2021-04-08 05:03:47;4;124;125;124;125;125;125;125;124;124;125;
2021-04-08 05:03:47;5;126;125;125;125;125;125;125;126;126;126;
2021-04-08 05:03:47;ht;99;18.60
2021-04-08 05:03:47;v;4.14
2021-04-08 05:33:50;1;135;135;135;135;135;135;135;135;135;135;
2021-04-08 05:33:50;2;120;119;120;119;120;120;120;119;120;120;
2021-04-08 05:33:50;3;50;50;50;50;51;50;51;50;50;50;
2021-04-08 05:33:50;4;125;125;125;125;125;125;125;125;125;125;
2021-04-08 05:33:50;5;123;123;123;123;123;123;123;123;123;123;
2021-04-08 05:33:50;ht;99;18.80
2021-04-08 05:33:50;v;4.14
2021-04-08 06:03:48;1;125;124;125;125;124;125;125;125;125;125;
2021-04-08 06:03:48;2;120;120;120;120;120;120;120;120;120;120;
2021-04-08 06:03:48;3;50;50;50;50;50;50;50;50;50;50;
2021-04-08 06:03:48;4;124;125;125;125;125;125;125;135;127;126;
2021-04-08 06:03:48;5;126;126;126;126;126;126;126;126;126;126;
2021-04-08 06:03:48;ht;99;18.80
2021-04-08 06:03:48;v;4.14
2021-04-08 06:33:46;1;127;127;127;127;127;127;127;127;127;127;
2021-04-08 06:33:46;2;122;121;121;121;121;121;121;121;122;122;
2021-04-08 06:33:46;3;50;50;49;49;49;49;49;49;49;49;
2021-04-08 06:33:46;4;135;126;125;125;125;125;125;125;125;125;
2021-04-08 06:33:46;5;125;125;132;125;125;125;125;125;125;125;
2021-04-08 06:33:46;ht;99;18.60
2021-04-08 06:33:46;v;4.13
2021-04-08 07:03:49;1;127;128;127;127;128;127;128;128;127;128;
2021-04-08 07:03:49;2;122;122;122;122;122;122;122;122;122;122;
2021-04-08 07:03:49;3;49;49;48;49;48;48;48;49;49;48;
2021-04-08 07:03:49;4;125;125;125;125;125;125;125;125;125;124;
2021-04-08 07:03:49;5;126;126;126;126;126;126;126;126;126;126;
2021-04-08 07:03:49;ht;99;19.00
2021-04-08 07:03:49;v;4.13
2021-04-08 07:33:47;1;128;128;128;129;128;128;128;129;129;128;
2021-04-08 07:33:47;2;121;122;122;122;122;123;122;122;122;122;
2021-04-08 07:33:47;3;51;51;51;51;51;51;51;51;51;51;
2021-04-08 07:33:47;4;125;125;125;125;125;125;125;125;125;125;
2021-04-08 07:33:47;5;124;123;124;124;124;124;124;124;124;124;
2021-04-08 07:33:47;ht;99;19.30
2021-04-08 07:33:47;v;4.14
2021-04-08 08:03:46;1;129;129;129;128;128;128;128;128;128;128;
2021-04-08 08:03:46;2;121;121;121;121;121;121;121;121;121;121;
2021-04-08 08:03:46;3;53;52;53;52;52;53;53;53;52;53;
2021-04-08 08:03:46;4;123;123;123;123;123;123;123;123;123;123;
2021-04-08 08:03:46;5;120;121;120;120;121;120;121;121;120;121;
2021-04-08 08:03:46;ht;99;19.80
2021-04-08 08:03:46;v;4.14
2021-04-08 08:33:50;1;129;129;129;129;130;130;129;129;129;129;
2021-04-08 08:33:50;2;120;120;127;122;121;120;120;120;120;120;
2021-04-08 08:33:50;3;53;53;53;53;53;53;53;53;53;53;
2021-04-08 08:33:50;4;124;124;124;124;124;124;124;124;124;124;
2021-04-08 08:33:50;5;125;125;124;125;125;124;124;125;125;125;
2021-04-08 08:33:50;ht;99;20.50
2021-04-08 08:33:50;v;4.14
2021-04-08 09:03:50;1;127;128;127;128;128;127;127;127;127;127;
2021-04-08 09:03:50;2;128;125;124;124;124;124;124;124;124;124;
2021-04-08 09:03:50;3;52;52;52;52;52;52;52;51;52;51;
2021-04-08 09:03:50;4;125;125;125;125;125;125;125;125;125;125;
2021-04-08 09:03:50;5;119;120;120;120;120;120;120;120;119;120;
2021-04-08 09:03:50;ht;99;22.70
2021-04-08 09:03:50;v;4.14
2021-04-08 09:33:51;1;126;126;126;126;126;126;126;126;126;126;
2021-04-08 09:33:51;2;120;120;120;120;120;120;120;120;120;120;
2021-04-08 09:33:51;3;48;48;48;48;49;48;48;48;48;48;
2021-04-08 09:33:51;4;124;124;124;124;124;124;124;124;124;124;
2021-04-08 09:33:51;5;123;123;123;123;123;123;123;123;123;123;
2021-04-08 09:33:51;ht;99;25.10
2021-04-08 09:33:51;v;4.14
2021-04-08 10:03:50;1;127;128;128;127;127;127;127;127;127;127;
2021-04-08 10:03:50;2;122;122;122;122;122;122;122;122;122;122;
2021-04-08 10:03:50;3;48;48;48;48;49;48;49;48;48;49;
2021-04-08 10:03:50;4;123;123;123;123;123;123;123;123;123;123;
2021-04-08 10:03:50;5;121;121;121;121;119;120;120;120;120;120;
2021-04-08 10:03:50;ht;99;26.60
2021-04-08 10:03:50;v;4.14
2021-04-08 10:33:55;1;127;127;127;127;127;127;127;128;127;127;
2021-04-08 10:33:55;2;122;122;122;121;122;121;122;121;121;121;
2021-04-08 10:33:55;3;46;46;46;46;46;46;46;46;46;46;
2021-04-08 10:33:55;4;123;123;123;123;123;123;123;123;123;123;
2021-04-08 10:33:55;5;122;122;122;122;122;122;121;122;122;122;
2021-04-08 10:33:55;ht;99;27.80
2021-04-08 10:33:55;v;4.14
2021-04-08 11:03:56;1;127;127;127;127;127;127;127;127;127;128;
2021-04-08 11:03:56;2;122;122;122;122;122;122;122;122;122;122;
2021-04-08 11:03:56;3;46;46;46;47;46;46;47;46;46;46;
2021-04-08 11:03:56;4;121;121;121;121;121;121;121;121;121;121;
2021-04-08 11:03:56;5;123;123;123;123;123;123;123;123;123;123;
2021-04-08 11:03:56;ht;99;29.10
2021-04-08 11:03:56;v;4.15
2021-04-08 11:33:55;1;1;1;1;1;1;1;1;1;1;1;
2021-04-08 11:33:55;2;123;124;124;124;124;124;124;124;124;128;
2021-04-08 11:33:55;3;45;45;44;45;45;45;45;44;44;44;
2021-04-08 11:33:55;4;123;123;123;123;123;123;123;123;123;123;
2021-04-08 11:33:55;5;122;122;122;122;122;122;122;122;122;122;
2021-04-08 11:33:55;ht;99;29.20
2021-04-08 11:33:55;v;4.15
2021-04-08 12:03:59;1;1;1;1;1;1;1;1;1;1;1;
2021-04-08 12:03:59;2;120;121;121;121;121;121;121;120;121;120;
2021-04-08 12:03:59;3;45;44;44;44;44;44;45;45;44;44;
2021-04-08 12:03:59;4;121;121;121;121;121;121;121;121;121;121;
2021-04-08 12:03:59;5;122;122;122;122;122;122;122;122;122;122;
2021-04-08 12:03:59;ht;99;30.40
2021-04-08 12:03:59;v;4.15
2021-04-08 12:33:59;1;127;127;127;127;127;127;127;127;127;127;
2021-04-08 12:33:59;2;123;123;123;123;123;123;123;123;123;123;
2021-04-08 12:33:59;3;44;44;44;44;44;44;44;44;44;45;
2021-04-08 12:33:59;4;120;120;120;120;120;120;120;120;120;120;
2021-04-08 12:33:59;5;122;122;122;122;122;122;122;122;122;122;
2021-04-08 12:33:59;ht;99;31.40
2021-04-08 12:33:59;v;4.15
2021-04-08 13:03:56;1;1;2;1;1;1;2;1;1;1;1;
2021-04-08 13:03:56;2;122;121;122;122;122;122;121;122;122;121;
2021-04-08 13:03:56;3;43;43;43;43;44;43;43;43;43;43;
2021-04-08 13:03:56;4;122;122;122;122;121;122;122;122;122;122;
2021-04-08 13:03:56;5;122;122;122;122;122;122;122;122;122;122;
2021-04-08 13:03:56;ht;99;30.60
2021-04-08 13:03:56;v;4.15
2021-04-08 13:33:57;1;119;118;118;118;119;118;118;118;118;119;
2021-04-08 13:33:57;2;122;121;121;122;121;121;121;122;121;121;
2021-04-08 13:33:57;3;42;42;42;42;42;42;42;42;42;42;
2021-04-08 13:33:57;4;122;122;122;122;122;122;122;122;122;122;
2021-04-08 13:33:57;5;122;122;122;122;122;122;122;122;122;122;
2021-04-08 13:33:57;ht;99;32.00
2021-04-08 13:33:57;v;4.15
2021-04-08 14:03:59;1;131;131;131;131;131;131;131;131;131;131;
2021-04-08 14:03:59;2;123;123;123;123;123;123;123;123;123;123;
2021-04-08 14:03:59;3;43;43;43;43;43;43;43;43;43;43;
2021-04-08 14:03:59;4;120;120;120;120;120;120;120;120;120;120;
2021-04-08 14:03:59;5;121;121;121;121;121;121;121;121;121;121;
2021-04-08 14:03:59;ht;99;32.40
2021-04-08 14:03:59;v;4.15
2021-04-08 14:33:56;1;127;127;127;127;127;127;127;127;127;127;
2021-04-08 14:33:56;2;120;121;120;120;121;121;121;121;120;121;
2021-04-08 14:33:56;3;43;43;43;43;43;43;43;43;43;43;
2021-04-08 14:33:56;4;121;121;121;121;121;121;121;121;121;121;
2021-04-08 14:33:56;5;123;123;123;123;123;123;123;123;123;123;
2021-04-08 14:33:56;ht;99;31.40
2021-04-08 14:33:56;v;4.15
2021-04-08 15:03:59;1;127;127;127;127;127;127;127;127;127;127;
2021-04-08 15:03:59;2;123;123;124;123;123;124;123;124;123;124;
2021-04-08 15:03:59;3;42;42;42;42;42;42;42;42;42;42;
2021-04-08 15:03:59;4;121;121;121;121;121;120;121;121;121;121;
2021-04-08 15:03:59;5;120;120;121;121;121;121;121;121;121;121;
2021-04-08 15:03:59;ht;99;32.90
2021-04-08 15:03:59;v;4.16
2021-04-08 15:34:01;1;128;128;128;128;128;128;128;128;128;128;
2021-04-08 15:34:01;2;121;121;121;121;121;120;121;121;120;120;
2021-04-08 15:34:01;3;43;43;43;43;43;43;43;43;43;43;
2021-04-08 15:34:01;4;120;120;119;120;120;120;120;120;120;120;
2021-04-08 15:34:01;5;121;121;122;121;121;121;121;121;121;121;
2021-04-08 15:34:01;ht;99;31.00
2021-04-08 15:34:01;v;4.15
2021-04-08 16:03:57;1;129;129;129;129;129;129;129;129;129;129;
2021-04-08 16:03:57;2;123;123;123;123;122;123;123;123;123;122;
2021-04-08 16:03:57;3;44;44;44;44;44;44;44;44;44;44;
2021-04-08 16:03:57;4;121;121;121;121;121;121;121;121;121;121;
2021-04-08 16:03:57;5;121;122;122;121;122;122;122;122;122;122;
2021-04-08 16:03:57;ht;99;30.50
2021-04-08 16:03:57;v;4.16
2021-04-08 16:33:57;1;125;126;126;126;126;126;126;125;125;125;
2021-04-08 16:33:57;2;121;122;122;121;121;122;121;122;122;121;
2021-04-08 16:33:57;3;44;44;44;44;44;44;44;44;44;44;
2021-04-08 16:33:57;4;121;121;121;121;121;121;121;121;121;121;
2021-04-08 16:33:57;5;122;122;122;122;122;122;122;122;122;122;
2021-04-08 16:33:57;ht;99;30.20
2021-04-08 16:33:57;v;4.16
2021-04-08 17:03:57;1;128;128;128;128;128;128;128;128;128;128;
2021-04-08 17:03:57;2;122;122;122;122;122;122;122;122;122;122;
2021-04-08 17:03:57;3;44;44;44;43;44;43;44;44;44;44;
2021-04-08 17:03:57;4;122;121;122;122;122;122;122;122;122;122;
2021-04-08 17:03:57;5;122;121;122;122;122;121;122;129;123;122;
2021-04-08 17:03:57;ht;99;30.20
2021-04-08 17:03:57;v;4.16
2021-04-08 17:33:56;1;125;124;124;124;124;125;124;124;125;124;
2021-04-08 17:33:56;2;122;122;121;121;122;121;121;122;121;121;
2021-04-08 17:33:56;3;44;44;44;44;44;44;44;44;44;44;
2021-04-08 17:33:56;4;121;121;121;120;121;121;120;121;121;121;
2021-04-08 17:33:56;5;123;123;122;122;123;123;122;122;122;122;
2021-04-08 17:33:56;ht;99;30.20
2021-04-08 17:33:56;v;4.16
2021-04-08 18:03:55;1;125;125;125;126;125;126;126;126;126;126;
2021-04-08 18:03:55;2;123;122;122;123;123;123;122;123;122;123;
2021-04-08 18:03:55;3;45;45;45;45;45;45;45;45;45;45;
2021-04-08 18:03:55;4;122;122;122;122;122;122;122;122;122;122;
2021-04-08 18:03:55;5;123;123;123;123;123;123;123;123;123;123;
2021-04-08 18:03:55;ht;99;29.20
2021-04-08 18:03:55;v;4.16
2021-04-08 18:33:54;1;123;123;123;122;122;123;122;122;122;123;
2021-04-08 18:33:54;2;121;121;121;122;122;122;121;121;122;122;
2021-04-08 18:33:54;3;47;47;47;47;46;47;47;47;47;47;
2021-04-08 18:33:54;4;122;122;122;122;122;121;122;122;122;121;
2021-04-08 18:33:54;5;123;122;122;122;123;123;123;123;123;123;
2021-04-08 18:33:54;ht;99;27.80
2021-04-08 18:33:54;v;4.16
2021-04-08 19:03:55;1;135;135;135;135;135;135;135;135;135;135;
2021-04-08 19:03:55;2;123;123;122;122;123;123;122;123;123;123;
2021-04-08 19:03:55;3;47;47;47;47;47;47;47;47;47;47;
2021-04-08 19:03:55;4;122;122;121;122;122;121;121;122;122;121;
2021-04-08 19:03:55;5;122;122;122;122;122;122;122;122;123;122;
2021-04-08 19:03:55;ht;99;27.10
2021-04-08 19:03:55;v;4.15
2021-04-08 19:33:51;1;128;128;128;128;128;128;128;128;128;128;
2021-04-08 19:33:51;2;134;134;134;134;134;134;134;134;134;133;
2021-04-08 19:33:51;3;47;47;47;47;47;47;47;47;47;47;
2021-04-08 19:33:51;4;123;123;123;123;123;123;123;123;123;123;
2021-04-08 19:33:51;5;122;121;121;121;121;121;121;121;121;121;
2021-04-08 19:33:51;ht;99;26.20
2021-04-08 19:33:51;v;4.15
2021-04-08 20:03:55;1;137;137;137;137;137;137;137;137;137;137;
2021-04-08 20:03:55;2;121;121;121;121;121;121;121;121;121;121;
2021-04-08 20:03:55;3;48;48;48;48;48;48;48;48;48;48;
2021-04-08 20:03:55;4;123;123;123;123;123;122;123;123;123;123;
2021-04-08 20:03:55;5;122;123;122;123;122;123;123;123;123;123;
2021-04-08 20:03:55;ht;99;25.70
2021-04-08 20:03:55;v;4.15
2021-04-08 20:33:54;1;137;137;137;138;137;137;137;138;137;137;
2021-04-08 20:33:54;2;121;121;121;121;121;121;121;121;121;121;
2021-04-08 20:33:54;3;49;48;48;48;48;48;48;48;48;48;
2021-04-08 20:33:54;4;122;123;123;123;122;123;122;122;123;123;
2021-04-08 20:33:54;5;121;121;122;122;121;121;121;121;121;122;
2021-04-08 20:33:54;ht;99;25.80
2021-04-08 20:33:54;v;4.15
2021-04-08 21:03:53;1;137;137;137;137;137;137;137;137;137;137;
2021-04-08 21:03:53;2;122;122;122;122;122;122;122;122;122;122;
2021-04-08 21:03:53;3;49;49;49;49;49;49;49;49;49;49;
2021-04-08 21:03:53;4;122;122;122;122;122;122;122;122;121;122;
2021-04-08 21:03:53;5;122;122;122;122;122;122;122;122;122;122;
2021-04-08 21:03:53;ht;99;25.60
2021-04-08 21:03:53;v;4.15
2021-04-08 21:33:52;1;132;132;132;131;132;132;131;131;131;132;
2021-04-08 21:33:52;2;120;119;120;120;119;119;120;120;120;119;
2021-04-08 21:33:52;3;48;48;48;48;48;48;48;48;48;48;
2021-04-08 21:33:52;4;122;122;122;122;121;122;122;122;121;122;
2021-04-08 21:33:52;5;122;122;122;122;122;123;122;122;122;122;
2021-04-08 21:33:52;ht;99;25.60
2021-04-08 21:33:52;v;4.15
2021-04-08 22:03:51;1;133;133;133;133;133;133;133;133;133;133;
2021-04-08 22:03:51;2;116;116;116;116;116;116;116;116;116;116;
2021-04-08 22:03:51;3;47;48;48;47;47;48;47;47;47;48;
2021-04-08 22:03:51;4;122;122;122;122;122;121;122;122;122;122;
2021-04-08 22:03:51;5;121;122;122;122;122;122;121;122;122;122;
2021-04-08 22:03:51;ht;99;25.30
2021-04-08 22:03:51;v;4.15
2021-04-08 22:33:54;1;133;133;133;133;133;133;133;133;133;133;
2021-04-08 22:33:54;2;120;119;119;119;120;119;120;120;120;120;
2021-04-08 22:33:54;3;48;48;48;48;48;48;48;48;48;48;
2021-04-08 22:33:54;4;122;122;122;122;122;122;122;122;121;121;
2021-04-08 22:33:54;5;120;120;120;120;120;120;120;120;120;120;
2021-04-08 22:33:54;ht;99;25.40
2021-04-08 22:33:54;v;4.15
2021-04-08 23:03:53;1;132;132;132;132;132;132;132;132;132;132;
2021-04-08 23:03:53;2;123;123;123;123;123;123;123;123;123;123;
2021-04-08 23:03:53;3;49;49;49;49;49;49;48;49;49;49;
2021-04-08 23:03:53;4;122;122;122;122;122;122;122;122;122;122;
2021-04-08 23:03:53;5;123;123;123;123;123;123;123;123;123;124;
2021-04-08 23:03:53;ht;99;24.70
2021-04-08 23:03:53;v;4.15
2021-04-08 23:33:51;1;131;130;130;130;130;130;130;130;130;131;
2021-04-08 23:33:51;2;119;119;119;119;119;119;119;119;119;119;
2021-04-08 23:33:51;3;48;48;48;49;49;49;48;48;49;48;
2021-04-08 23:33:51;4;122;122;123;122;123;123;122;123;122;122;
2021-04-08 23:33:51;5;123;123;123;123;123;123;123;123;123;123;
2021-04-08 23:33:51;ht;99;24.70
2021-04-08 23:33:51;v;4.15
