2021-06-09 00:03:44;1;120;120;120;120;120;120;120;120;120;120;
2021-06-09 00:03:44;2;117;117;117;117;117;117;117;117;117;117;
2021-06-09 00:03:44;3;5;5;5;5;5;5;5;5;5;5;
2021-06-09 00:03:44;4;121;122;121;122;122;122;122;122;121;122;
2021-06-09 00:03:44;5;118;118;118;118;118;118;118;118;118;118;
2021-06-09 00:03:44;ht;99;12.40
2021-06-09 00:03:44;v;4.04
2021-06-09 00:33:42;1;121;120;121;120;120;120;120;120;120;120;
2021-06-09 00:33:42;2;117;116;117;117;117;117;117;117;117;117;
2021-06-09 00:33:42;3;4;4;4;4;4;4;4;4;4;4;
2021-06-09 00:33:42;4;120;120;120;120;120;120;120;120;120;120;
2021-06-09 00:33:42;5;119;119;119;119;119;119;119;119;119;119;
2021-06-09 00:33:42;ht;99;11.60
2021-06-09 00:33:42;v;4.04
2021-06-09 01:03:45;1;121;121;121;121;121;121;121;121;121;121;
2021-06-09 01:03:45;2;117;117;117;117;117;117;117;117;117;117;
2021-06-09 01:03:45;3;4;4;4;4;4;4;4;4;4;4;
2021-06-09 01:03:45;4;121;121;121;121;120;121;121;121;121;121;
2021-06-09 01:03:45;5;118;117;117;118;118;118;117;118;118;118;
2021-06-09 01:03:45;ht;99;12.40
2021-06-09 01:03:45;v;4.04
2021-06-09 01:33:42;1;118;118;118;118;118;118;118;118;118;118;
2021-06-09 01:33:42;2;117;116;117;117;117;116;116;117;117;117;
2021-06-09 01:33:42;3;4;4;4;4;4;4;4;4;4;4;
2021-06-09 01:33:42;4;125;125;125;125;125;125;125;125;125;125;
2021-06-09 01:33:42;5;117;117;117;117;117;117;117;117;117;117;
2021-06-09 01:33:42;ht;99;12.50
2021-06-09 01:33:42;v;4.04
2021-06-09 02:03:45;1;127;126;126;126;126;126;126;126;126;126;
2021-06-09 02:03:45;2;117;117;117;117;117;117;117;117;117;117;
2021-06-09 02:03:45;3;4;4;4;4;4;4;4;4;4;4;
2021-06-09 02:03:45;4;118;118;118;118;118;118;118;118;118;118;
2021-06-09 02:03:45;5;118;117;118;118;118;118;118;118;118;118;
2021-06-09 02:03:45;ht;99;12.70
2021-06-09 02:03:45;v;4.04
2021-06-09 02:33:43;1;131;131;130;130;130;130;130;130;130;130;
2021-06-09 02:33:43;2;115;115;116;116;115;115;116;116;116;115;
2021-06-09 02:33:43;3;3;3;3;3;3;3;3;3;3;3;
2021-06-09 02:33:43;4;125;125;125;125;125;125;125;125;125;125;
2021-06-09 02:33:43;5;116;116;116;116;116;116;116;116;116;116;
2021-06-09 02:33:43;ht;99;11.90
2021-06-09 02:33:43;v;4.04
2021-06-09 03:03:45;1;130;138;131;131;131;130;130;130;130;130;
2021-06-09 03:03:45;2;113;112;113;113;113;113;113;112;113;113;
2021-06-09 03:03:45;3;3;3;3;3;3;3;3;3;3;3;
2021-06-09 03:03:45;4;127;127;127;127;127;127;127;127;127;127;
2021-06-09 03:03:45;5;120;120;120;119;119;120;120;120;120;120;
2021-06-09 03:03:45;ht;99;13.10
2021-06-09 03:03:45;v;4.04
2021-06-09 03:33:43;1;125;125;132;125;125;125;125;125;125;125;
2021-06-09 03:33:43;2;117;117;117;117;117;117;117;117;117;117;
2021-06-09 03:33:43;3;3;2;3;3;3;3;3;3;2;3;
2021-06-09 03:33:43;4;124;124;124;124;124;124;124;124;124;124;
2021-06-09 03:33:43;5;119;119;119;119;119;119;119;119;119;119;
2021-06-09 03:33:43;ht;99;12.20
2021-06-09 03:33:43;v;4.04
2021-06-09 04:03:41;1;128;136;129;129;129;128;128;128;128;128;
2021-06-09 04:03:41;2;117;117;116;117;117;116;117;117;116;117;
2021-06-09 04:03:41;3;3;3;3;3;3;3;3;3;3;3;
2021-06-09 04:03:41;4;126;126;126;126;126;126;126;126;126;126;
2021-06-09 04:03:41;5;129;129;129;129;129;129;129;129;129;129;
2021-06-09 04:03:41;ht;99;12.20
2021-06-09 04:03:41;v;4.04
2021-06-09 04:33:44;1;124;124;124;124;124;124;124;124;124;124;
2021-06-09 04:33:44;2;116;115;116;116;116;115;116;116;116;116;
2021-06-09 04:33:44;3;2;2;2;2;2;2;2;2;2;2;
2021-06-09 04:33:44;4;120;120;120;120;120;120;120;120;120;120;
2021-06-09 04:33:44;5;126;126;126;126;126;126;126;126;126;126;
2021-06-09 04:33:44;ht;99;12.70
2021-06-09 04:33:44;v;4.04
2021-06-09 05:03:42;1;117;121;119;117;117;117;117;117;117;117;
2021-06-09 05:03:42;2;120;120;120;120;120;120;120;120;120;120;
2021-06-09 05:03:42;3;2;2;2;2;2;2;2;2;2;2;
2021-06-09 05:03:42;4;123;123;123;123;123;123;123;123;123;123;
2021-06-09 05:03:42;5;129;129;130;129;129;129;129;129;129;129;
2021-06-09 05:03:42;ht;99;12.50
2021-06-09 05:03:42;v;4.04
2021-06-09 05:33:45;1;128;128;128;128;128;135;128;128;128;128;
2021-06-09 05:33:45;2;118;118;118;118;118;118;117;118;117;118;
2021-06-09 05:33:45;3;2;2;2;2;2;2;2;2;2;2;
2021-06-09 05:33:45;4;124;124;124;124;124;124;124;124;125;124;
2021-06-09 05:33:45;5;122;122;122;122;122;122;122;122;122;122;
2021-06-09 05:33:45;ht;99;12.30
2021-06-09 05:33:45;v;4.04
2021-06-09 06:03:43;1;124;123;123;123;123;123;123;123;123;123;
2021-06-09 06:03:43;2;119;119;119;119;119;119;119;119;119;119;
2021-06-09 06:03:43;3;1;1;1;1;1;1;1;1;1;1;
2021-06-09 06:03:43;4;114;114;115;115;115;115;115;114;114;114;
2021-06-09 06:03:43;5;115;115;114;114;114;115;115;115;115;115;
2021-06-09 06:03:43;ht;99;12.30
2021-06-09 06:03:43;v;4.04
2021-06-09 06:33:41;1;117;117;117;117;117;117;117;117;117;117;
2021-06-09 06:33:41;2;117;117;117;117;116;117;117;117;117;117;
2021-06-09 06:33:41;3;1;1;1;1;1;1;1;1;1;1;
2021-06-09 06:33:41;4;123;123;123;123;123;123;123;123;123;123;
2021-06-09 06:33:41;5;118;118;118;118;118;118;117;117;117;117;
2021-06-09 06:33:41;ht;99;12.20
2021-06-09 06:33:41;v;4.04
2021-06-09 07:03:44;1;123;130;124;123;123;123;123;123;123;123;
2021-06-09 07:03:44;2;114;114;114;114;114;114;114;114;114;114;
2021-06-09 07:03:44;3;2;2;3;2;2;2;3;2;3;3;
2021-06-09 07:03:44;4;125;125;125;125;125;125;125;125;125;125;
2021-06-09 07:03:44;5;123;123;123;123;123;123;123;123;123;123;
2021-06-09 07:03:44;ht;99;11.80
2021-06-09 07:03:44;v;4.04
2021-06-09 07:33:42;1;123;123;123;123;123;123;123;122;123;123;
2021-06-09 07:33:42;2;117;117;117;117;117;117;117;117;117;117;
2021-06-09 07:33:42;3;3;3;3;3;3;3;3;3;3;3;
2021-06-09 07:33:42;4;113;113;113;113;112;113;113;113;113;113;
2021-06-09 07:33:42;5;117;117;117;117;117;117;117;117;117;117;
2021-06-09 07:33:42;ht;99;11.80
2021-06-09 07:33:42;v;4.04
2021-06-09 08:03:44;1;130;129;129;128;128;128;128;128;128;128;
2021-06-09 08:03:44;2;121;121;121;121;121;121;121;121;121;121;
2021-06-09 08:03:44;3;5;5;5;5;6;5;5;5;5;5;
2021-06-09 08:03:44;4;116;116;116;116;116;115;116;116;116;116;
2021-06-09 08:03:44;5;113;113;113;112;112;113;112;112;112;113;
2021-06-09 08:03:44;ht;99;11.80
2021-06-09 08:03:44;v;4.04
2021-06-09 08:33:42;1;129;129;129;128;129;129;129;129;129;129;
2021-06-09 08:33:42;2;114;115;114;114;114;114;114;114;114;114;
2021-06-09 08:33:42;3;8;8;8;8;8;8;8;8;8;8;
2021-06-09 08:33:42;4;118;118;118;118;118;118;118;118;118;118;
2021-06-09 08:33:42;5;113;113;113;113;113;113;113;113;113;113;
2021-06-09 08:33:42;ht;99;12.60
2021-06-09 08:33:42;v;4.04
2021-06-09 09:03:45;1;130;130;130;130;130;130;129;129;129;130;
2021-06-09 09:03:45;2;119;119;119;119;118;119;118;119;119;119;
2021-06-09 09:03:45;3;11;11;11;11;11;11;11;11;11;11;
2021-06-09 09:03:45;4;122;122;122;122;122;122;122;122;122;122;
2021-06-09 09:03:45;5;115;115;115;115;115;115;115;115;115;115;
2021-06-09 09:03:45;ht;99;12.90
2021-06-09 09:03:45;v;4.04
2021-06-09 09:33:44;1;118;118;118;118;118;118;118;118;118;118;
2021-06-09 09:33:44;2;126;126;126;126;126;126;126;126;126;126;
2021-06-09 09:33:44;3;8;8;8;8;8;8;8;8;8;8;
2021-06-09 09:33:44;4;142;142;143;142;142;142;142;143;143;143;
2021-06-09 09:33:44;5;115;115;115;115;115;115;115;115;115;115;
2021-06-09 09:33:44;ht;99;13.60
2021-06-09 09:33:44;v;4.05
2021-06-09 10:03:43;1;121;121;121;121;121;121;121;121;121;121;
2021-06-09 10:03:43;2;110;110;110;110;110;110;110;110;110;110;
2021-06-09 10:03:43;3;5;5;5;5;5;5;5;5;5;5;
2021-06-09 10:03:43;4;116;116;116;116;116;116;116;116;116;115;
2021-06-09 10:03:43;5;121;121;121;121;121;121;121;121;121;121;
2021-06-09 10:03:43;ht;99;14.00
2021-06-09 10:03:43;v;4.04
2021-06-09 10:33:47;1;127;126;126;126;126;126;126;126;126;126;
2021-06-09 10:33:47;2;109;110;109;109;109;109;109;109;110;110;
2021-06-09 10:33:47;3;7;8;7;8;7;7;8;8;8;7;
2021-06-09 10:33:47;4;135;135;135;135;135;135;135;135;135;135;
2021-06-09 10:33:47;5;132;132;132;132;132;132;132;132;132;132;
2021-06-09 10:33:47;ht;99;15.30
2021-06-09 10:33:47;v;4.07
2021-06-09 11:03:44;1;124;124;123;123;123;123;123;123;123;123;
2021-06-09 11:03:44;2;118;118;118;118;118;118;118;118;118;118;
2021-06-09 11:03:44;3;7;7;7;7;7;7;7;7;7;7;
2021-06-09 11:03:44;4;122;122;122;122;122;122;122;122;122;122;
2021-06-09 11:03:44;5;126;126;126;126;126;126;126;126;126;126;
2021-06-09 11:03:44;ht;99;16.80
2021-06-09 11:03:44;v;4.07
2021-06-09 11:33:47;1;128;128;128;128;128;128;128;128;128;128;
2021-06-09 11:33:47;2;112;112;112;112;112;112;112;112;112;112;
2021-06-09 11:33:47;3;4;4;4;4;4;4;4;4;4;4;
2021-06-09 11:33:47;4;111;111;111;111;111;111;111;111;111;111;
2021-06-09 11:33:47;5;115;115;114;114;114;114;114;115;114;114;
2021-06-09 11:33:47;ht;99;19.00
2021-06-09 11:33:47;v;4.09
2021-06-09 12:03:51;1;126;126;126;126;126;126;126;126;126;126;
2021-06-09 12:03:51;2;115;115;115;115;115;115;115;115;115;115;
2021-06-09 12:03:51;3;2;2;2;2;2;2;2;2;2;2;
2021-06-09 12:03:51;4;122;122;122;122;122;122;122;122;122;122;
2021-06-09 12:03:51;5;115;115;115;115;115;115;115;115;115;115;
2021-06-09 12:03:51;ht;99;20.20
2021-06-09 12:03:51;v;4.10
2021-06-09 12:33:52;1;120;120;120;120;120;120;120;120;120;120;
2021-06-09 12:33:52;2;112;112;112;112;112;113;112;112;112;112;
2021-06-09 12:33:52;3;4;4;4;4;4;4;4;4;4;4;
2021-06-09 12:33:52;4;117;117;117;117;117;117;117;117;117;117;
2021-06-09 12:33:52;5;112;112;112;112;112;112;112;112;112;112;
2021-06-09 12:33:52;ht;99;21.00
2021-06-09 12:33:52;v;4.10
2021-06-09 13:03:48;1;125;125;124;125;125;125;125;125;125;125;
2021-06-09 13:03:48;2;111;111;111;111;111;111;111;111;111;111;
2021-06-09 13:03:48;3;3;3;3;3;3;3;3;3;3;3;
2021-06-09 13:03:48;4;118;118;118;118;118;118;118;118;118;118;
2021-06-09 13:03:48;5;112;112;112;112;113;112;113;112;112;112;
2021-06-09 13:03:48;ht;99;19.90
2021-06-09 13:03:48;v;4.09
2021-06-09 13:33:49;1;117;117;117;117;117;117;117;117;117;117;
2021-06-09 13:33:49;2;116;116;116;116;116;116;116;116;116;116;
2021-06-09 13:33:49;3;3;3;3;3;3;3;3;3;3;3;
2021-06-09 13:33:49;4;118;118;118;118;118;118;118;118;118;118;
2021-06-09 13:33:49;5;111;111;111;111;111;111;111;111;111;111;
2021-06-09 13:33:49;ht;99;20.10
2021-06-09 13:33:49;v;4.09
2021-06-09 14:03:51;1;123;123;123;123;123;123;123;123;123;123;
2021-06-09 14:03:51;2;110;110;110;110;110;110;110;110;110;109;
2021-06-09 14:03:51;3;4;4;4;4;4;5;4;4;4;4;
2021-06-09 14:03:51;4;128;128;128;128;128;128;128;128;127;128;
2021-06-09 14:03:51;5;116;116;116;116;116;116;116;116;116;116;
2021-06-09 14:03:51;ht;99;21.40
2021-06-09 14:03:51;v;4.11
2021-06-09 14:33:52;1;119;119;119;119;119;119;119;119;119;119;
2021-06-09 14:33:52;2;116;116;116;116;116;116;116;116;116;116;
2021-06-09 14:33:52;3;2;2;2;2;3;2;2;2;2;2;
2021-06-09 14:33:52;4;126;126;126;126;126;126;126;126;126;126;
2021-06-09 14:33:52;5;117;117;117;117;117;117;117;117;117;117;
2021-06-09 14:33:52;ht;99;20.90
2021-06-09 14:33:52;v;4.10
2021-06-09 15:03:48;1;115;114;115;115;115;114;115;115;115;115;
2021-06-09 15:03:48;2;116;116;116;116;116;116;116;116;116;116;
2021-06-09 15:03:48;3;2;2;2;2;2;2;2;2;2;2;
2021-06-09 15:03:48;4;123;123;123;123;123;123;123;123;123;123;
2021-06-09 15:03:48;5;118;118;118;117;118;118;118;117;118;118;
2021-06-09 15:03:48;ht;99;20.90
2021-06-09 15:03:48;v;4.10
2021-06-09 15:33:50;1;118;118;118;118;118;118;118;118;118;118;
2021-06-09 15:33:50;2;127;127;127;127;127;127;127;127;127;127;
2021-06-09 15:33:50;3;0;0;0;0;0;0;0;0;0;0;
2021-06-09 15:33:50;4;118;118;118;117;118;117;118;118;117;118;
2021-06-09 15:33:50;5;119;119;119;119;119;119;119;119;119;119;
2021-06-09 15:33:50;ht;99;20.80
2021-06-09 15:33:50;v;4.10
2021-06-09 16:03:50;1;121;121;121;121;121;121;121;121;121;121;
2021-06-09 16:03:50;2;115;115;115;114;115;115;115;114;115;115;
2021-06-09 16:03:50;3;1;1;1;1;1;1;1;1;1;1;
2021-06-09 16:03:50;4;127;127;127;127;127;127;127;128;128;128;
2021-06-09 16:03:50;5;117;117;117;117;117;117;117;117;117;117;
2021-06-09 16:03:50;ht;99;20.60
2021-06-09 16:03:50;v;4.10
2021-06-09 16:33:50;1;120;120;120;120;120;120;120;120;120;119;
2021-06-09 16:33:50;2;119;119;119;119;119;119;119;119;119;119;
2021-06-09 16:33:50;3;2;1;2;1;2;2;2;2;2;2;
2021-06-09 16:33:50;4;125;125;125;125;125;125;125;125;125;125;
2021-06-09 16:33:50;5;111;111;111;111;111;111;111;111;111;111;
2021-06-09 16:33:50;ht;99;20.00
2021-06-09 16:33:50;v;4.09
2021-06-09 17:03:49;1;117;117;117;116;117;117;117;117;117;117;
2021-06-09 17:03:49;2;120;120;120;120;120;120;120;120;120;120;
2021-06-09 17:03:49;3;2;2;2;2;2;2;2;2;2;2;
2021-06-09 17:03:49;4;126;127;127;127;127;126;127;127;127;127;
2021-06-09 17:03:49;5;114;114;114;113;113;114;114;114;113;114;
2021-06-09 17:03:49;ht;99;19.70
2021-06-09 17:03:49;v;4.09
2021-06-09 17:33:48;1;126;126;126;126;126;126;126;126;126;126;
2021-06-09 17:33:48;2;113;113;113;113;112;113;113;113;113;113;
2021-06-09 17:33:48;3;2;2;2;2;2;2;2;2;2;2;
2021-06-09 17:33:48;4;112;112;112;112;112;112;112;112;112;112;
2021-06-09 17:33:48;5;113;113;113;113;113;113;113;113;113;113;
2021-06-09 17:33:48;ht;99;18.90
2021-06-09 17:33:48;v;4.09
2021-06-09 18:03:47;1;116;114;114;114;114;114;114;114;114;114;
2021-06-09 18:03:47;2;118;118;118;118;118;118;118;118;118;118;
2021-06-09 18:03:47;3;2;2;2;2;2;2;2;2;2;2;
2021-06-09 18:03:47;4;117;117;117;117;117;117;117;117;117;117;
2021-06-09 18:03:47;5;111;111;111;110;110;111;111;110;111;110;
2021-06-09 18:03:47;ht;99;18.70
2021-06-09 18:03:47;v;4.09
2021-06-09 18:33:49;1;137;144;138;137;137;136;137;136;136;136;
2021-06-09 18:33:49;2;115;115;115;115;115;115;115;115;114;115;
2021-06-09 18:33:49;3;2;2;2;2;2;2;2;2;2;2;
2021-06-09 18:33:49;4;126;126;126;126;126;126;126;126;126;126;
2021-06-09 18:33:49;5;114;114;114;115;115;115;114;115;115;114;
2021-06-09 18:33:49;ht;99;18.40
2021-06-09 18:33:49;v;4.09
2021-06-09 19:03:47;1;119;119;119;119;119;119;119;119;119;119;
2021-06-09 19:03:47;2;119;119;119;120;120;119;120;120;120;120;
2021-06-09 19:03:47;3;3;2;3;3;3;3;3;2;3;3;
2021-06-09 19:03:47;4;123;123;123;123;123;123;123;123;123;123;
2021-06-09 19:03:47;5;116;116;116;116;116;116;116;116;116;116;
2021-06-09 19:03:47;ht;99;17.70
2021-06-09 19:03:47;v;4.09
2021-06-09 19:33:49;1;118;117;117;117;117;117;117;117;117;117;
2021-06-09 19:33:49;2;119;119;119;119;119;119;119;119;119;119;
2021-06-09 19:33:49;3;3;3;3;3;3;3;3;3;4;3;
2021-06-09 19:33:49;4;116;116;116;116;116;116;116;116;116;116;
2021-06-09 19:33:49;5;119;119;119;119;119;119;119;119;119;119;
2021-06-09 19:33:49;ht;99;18.20
2021-06-09 19:33:49;v;4.09
2021-06-09 20:03:47;1;124;124;124;124;124;124;124;124;124;124;
2021-06-09 20:03:47;2;119;119;119;119;119;119;119;118;119;119;
2021-06-09 20:03:47;3;3;3;3;3;3;3;3;3;3;3;
2021-06-09 20:03:47;4;115;115;115;115;115;115;115;115;115;115;
2021-06-09 20:03:47;5;119;119;119;118;119;119;119;119;119;119;
2021-06-09 20:03:47;ht;99;17.50
2021-06-09 20:03:47;v;4.09
2021-06-09 20:33:48;1;121;120;120;120;120;120;120;120;120;120;
2021-06-09 20:33:48;2;118;118;118;118;118;118;118;118;118;118;
2021-06-09 20:33:48;3;4;4;4;4;4;4;4;4;4;4;
2021-06-09 20:33:48;4;121;121;121;121;121;121;121;121;121;121;
2021-06-09 20:33:48;5;121;121;121;121;121;121;121;121;121;121;
2021-06-09 20:33:48;ht;99;17.60
2021-06-09 20:33:48;v;4.09
2021-06-09 21:03:46;1;125;125;125;125;125;125;125;125;125;125;
2021-06-09 21:03:46;2;120;120;120;120;120;120;120;120;120;121;
2021-06-09 21:03:46;3;4;4;4;4;4;4;4;4;4;4;
2021-06-09 21:03:46;4;116;116;116;116;116;116;116;116;116;116;
2021-06-09 21:03:46;5;122;122;122;122;122;122;122;122;122;122;
2021-06-09 21:03:46;ht;99;17.10
2021-06-09 21:03:46;v;4.09
2021-06-09 21:33:47;1;132;129;127;127;127;127;127;127;127;127;
2021-06-09 21:33:47;2;124;124;124;124;124;124;124;124;124;124;
2021-06-09 21:33:47;3;4;4;4;4;4;4;4;4;4;4;
2021-06-09 21:33:47;4;138;139;138;139;139;139;138;139;138;139;
2021-06-09 21:33:47;5;119;119;119;119;119;119;119;118;119;119;
2021-06-09 21:33:47;ht;99;16.70
2021-06-09 21:33:47;v;4.09
2021-06-09 22:03:48;1;127;135;129;128;128;128;128;127;128;128;
2021-06-09 22:03:48;2;126;126;126;126;126;126;126;126;126;126;
2021-06-09 22:03:48;3;4;4;4;4;4;4;4;4;4;4;
2021-06-09 22:03:48;4;1;1;1;2;1;1;1;1;1;1;
2021-06-09 22:03:48;5;118;118;118;117;118;118;117;118;118;118;
2021-06-09 22:03:48;ht;99;16.60
2021-06-09 22:03:48;v;4.09
2021-06-09 22:33:45;1;125;125;125;125;125;124;124;124;125;125;
2021-06-09 22:33:45;2;142;142;142;142;142;142;142;142;142;142;
2021-06-09 22:33:45;3;5;5;5;5;5;5;5;5;5;5;
2021-06-09 22:33:45;4;128;127;128;128;128;127;128;127;128;127;
2021-06-09 22:33:45;5;2;2;2;2;2;2;2;2;2;2;
2021-06-09 22:33:45;ht;99;16.30
2021-06-09 22:33:45;v;4.09
2021-06-09 23:03:45;1;127;127;127;127;127;127;127;127;127;127;
2021-06-09 23:03:45;2;120;120;120;120;120;120;120;120;120;120;
2021-06-09 23:03:45;3;5;5;5;5;5;5;5;5;5;5;
2021-06-09 23:03:45;4;139;139;139;139;139;139;139;139;139;139;
2021-06-09 23:03:45;5;1;1;1;2;1;1;1;1;1;1;
2021-06-09 23:03:45;ht;99;16.00
2021-06-09 23:03:45;v;4.09
2021-06-09 23:33:46;1;128;127;127;127;127;127;127;127;127;127;
2021-06-09 23:33:46;2;124;124;124;124;124;124;124;124;124;124;
2021-06-09 23:33:46;3;4;4;5;5;5;5;5;5;5;5;
2021-06-09 23:33:46;4;143;144;144;144;144;144;144;144;144;144;
2021-06-09 23:33:46;5;1;1;1;1;1;1;1;1;1;1;
2021-06-09 23:33:46;ht;99;15.50
2021-06-09 23:33:46;v;4.08
