2021-12-23 00:03:50;1;128;128;128;128;128;128;128;128;128;128;
2021-12-23 00:03:50;2;125;125;125;125;125;125;125;125;125;125;
2021-12-23 00:03:50;3;2;2;2;1;2;1;2;2;2;2;
2021-12-23 00:03:50;4;127;127;127;127;127;127;127;127;127;127;
2021-12-23 00:03:50;5;124;124;124;124;124;124;124;124;124;124;
2021-12-23 00:03:50;ht;99;21.60
2021-12-23 00:03:50;v;4.17
2021-12-23 00:33:50;1;128;128;128;128;128;128;128;128;128;128;
2021-12-23 00:33:50;2;130;130;130;130;130;130;130;130;130;130;
2021-12-23 00:33:50;3;117;117;117;117;117;117;117;117;117;117;
2021-12-23 00:33:50;4;124;124;124;124;124;124;124;124;124;124;
2021-12-23 00:33:50;5;125;125;125;125;125;125;125;125;125;125;
2021-12-23 00:33:50;ht;99;20.50
2021-12-23 00:33:50;v;4.17
2021-12-23 01:03:49;1;131;131;131;131;131;131;131;131;131;131;
2021-12-23 01:03:49;2;125;125;125;125;125;124;125;125;125;125;
2021-12-23 01:03:49;3;1;2;2;1;1;2;2;2;2;2;
2021-12-23 01:03:49;4;126;126;126;126;126;126;126;126;126;126;
2021-12-23 01:03:49;5;123;123;123;123;123;123;123;123;123;123;
2021-12-23 01:03:49;ht;99;20.10
2021-12-23 01:03:49;v;4.17
2021-12-23 01:33:48;1;128;128;128;128;128;128;128;128;128;128;
2021-12-23 01:33:48;2;125;126;125;125;126;126;125;126;126;126;
2021-12-23 01:33:48;3;2;2;1;2;2;2;2;2;2;2;
2021-12-23 01:33:48;4;122;122;122;122;122;122;122;122;122;122;
2021-12-23 01:33:48;5;125;125;125;125;125;125;125;125;125;125;
2021-12-23 01:33:48;ht;99;19.60
2021-12-23 01:33:48;v;4.16
2021-12-23 02:03:47;1;125;125;125;125;125;125;125;126;125;125;
2021-12-23 02:03:47;2;124;124;124;124;124;124;124;124;124;124;
2021-12-23 02:03:47;3;2;2;2;2;2;2;2;2;2;2;
2021-12-23 02:03:47;4;122;123;122;122;122;122;122;122;122;122;
2021-12-23 02:03:47;5;125;125;125;125;125;125;125;125;125;125;
2021-12-23 02:03:47;ht;99;19.60
2021-12-23 02:03:47;v;4.17
2021-12-23 02:33:50;1;129;129;129;129;129;129;129;129;129;129;
2021-12-23 02:33:50;2;124;124;124;124;124;124;124;124;124;124;
2021-12-23 02:33:50;3;1;2;1;1;1;1;2;1;1;2;
2021-12-23 02:33:50;4;123;123;123;123;123;124;124;124;124;124;
2021-12-23 02:33:50;5;125;125;125;125;125;125;125;125;125;125;
2021-12-23 02:33:50;ht;99;19.20
2021-12-23 02:33:50;v;4.17
2021-12-23 03:03:48;1;123;123;123;123;123;124;124;124;123;123;
2021-12-23 03:03:48;2;127;127;128;127;128;127;127;127;128;128;
2021-12-23 03:03:48;3;2;2;2;2;1;1;2;2;1;2;
2021-12-23 03:03:48;4;122;122;122;122;122;122;122;122;122;122;
2021-12-23 03:03:48;5;123;123;123;123;123;123;123;123;123;123;
2021-12-23 03:03:48;ht;99;19.80
2021-12-23 03:03:48;v;4.16
2021-12-23 03:33:46;1;126;126;126;126;126;126;126;126;126;126;
2021-12-23 03:33:46;2;116;116;116;116;116;116;116;116;116;116;
2021-12-23 03:33:46;3;2;2;2;2;2;2;2;2;2;2;
2021-12-23 03:33:46;4;126;125;125;125;126;125;125;126;125;126;
2021-12-23 03:33:46;5;124;124;125;124;124;124;124;124;124;124;
2021-12-23 03:33:46;ht;99;19.50
2021-12-23 03:33:46;v;4.16
2021-12-23 04:03:49;1;115;115;115;115;115;115;115;115;115;115;
2021-12-23 04:03:49;2;2;2;2;2;2;2;2;2;2;2;
2021-12-23 04:03:49;3;2;2;2;1;1;2;2;2;2;2;
2021-12-23 04:03:49;4;122;122;122;122;122;122;122;122;122;122;
2021-12-23 04:03:49;5;128;128;128;128;128;128;128;128;128;128;
2021-12-23 04:03:49;ht;99;19.80
2021-12-23 04:03:49;v;4.16
2021-12-23 04:33:47;1;123;123;123;123;123;123;123;123;123;123;
2021-12-23 04:33:47;2;127;126;126;126;126;126;127;126;126;126;
2021-12-23 04:33:47;3;115;115;115;115;115;115;115;115;115;115;
2021-12-23 04:33:47;4;124;124;124;124;124;124;124;124;124;124;
2021-12-23 04:33:47;5;127;127;127;127;127;127;127;127;127;127;
2021-12-23 04:33:47;ht;99;18.70
2021-12-23 04:33:47;v;4.16
2021-12-23 05:03:49;1;100;100;100;100;100;100;100;100;100;100;
2021-12-23 05:03:49;2;129;129;129;129;129;129;129;129;129;129;
2021-12-23 05:03:49;3;121;121;121;121;121;121;121;121;121;121;
2021-12-23 05:03:49;4;122;122;122;122;122;122;122;122;122;122;
2021-12-23 05:03:49;5;128;128;128;128;128;128;128;128;128;128;
2021-12-23 05:03:49;ht;99;19.00
2021-12-23 05:03:49;v;4.16
2021-12-23 05:33:47;1;125;125;125;125;125;125;125;125;125;125;
2021-12-23 05:33:47;2;134;134;133;134;134;134;134;134;134;134;
2021-12-23 05:33:47;3;126;126;126;126;126;127;127;127;127;127;
2021-12-23 05:33:47;4;130;130;130;130;130;130;130;130;130;130;
2021-12-23 05:33:47;5;99;99;99;99;100;100;100;100;100;100;
2021-12-23 05:33:47;ht;99;17.90
2021-12-23 05:33:47;v;4.16
2021-12-23 06:03:48;1;124;124;124;124;124;124;124;124;124;124;
2021-12-23 06:03:48;2;135;136;137;136;136;136;135;135;135;144;
2021-12-23 06:03:48;3;2;2;2;2;1;1;1;1;1;2;
2021-12-23 06:03:48;4;123;123;123;123;123;123;123;123;123;123;
2021-12-23 06:03:48;5;127;127;127;127;127;127;127;127;127;127;
2021-12-23 06:03:48;ht;99;17.00
2021-12-23 06:03:48;v;4.16
2021-12-23 06:33:45;1;2;1;1;1;1;1;1;1;1;2;
2021-12-23 06:33:45;2;125;125;125;125;125;125;125;125;125;125;
2021-12-23 06:33:45;3;1;1;1;1;1;2;1;1;1;2;
2021-12-23 06:33:45;4;124;124;124;124;124;124;124;124;124;124;
2021-12-23 06:33:45;5;127;127;127;127;128;127;127;127;134;128;
2021-12-23 06:33:45;ht;99;19.80
2021-12-23 06:33:45;v;4.16
2021-12-23 07:03:48;1;84;84;84;85;85;85;85;85;85;85;
2021-12-23 07:03:48;2;2;2;2;2;2;2;2;2;2;2;
2021-12-23 07:03:48;3;2;2;2;2;2;2;2;2;2;2;
2021-12-23 07:03:48;4;127;127;127;127;127;127;128;128;128;127;
2021-12-23 07:03:48;5;90;89;89;89;89;89;89;89;89;88;
2021-12-23 07:03:48;ht;99;22.10
2021-12-23 07:03:48;v;4.16
2021-12-23 07:33:49;1;124;124;124;124;124;124;124;124;124;124;
2021-12-23 07:33:49;2;2;2;1;1;1;1;2;2;2;2;
2021-12-23 07:33:49;3;1;1;1;1;1;1;1;1;1;1;
2021-12-23 07:33:49;4;118;118;118;118;118;118;118;118;118;127;
2021-12-23 07:33:49;5;127;127;127;127;127;127;127;127;127;127;
2021-12-23 07:33:49;ht;97;23.50
2021-12-23 07:33:49;v;4.16
2021-12-23 08:03:52;1;90;90;90;90;90;90;90;90;90;90;
2021-12-23 08:03:52;2;120;119;119;119;120;120;120;119;119;119;
2021-12-23 08:03:52;3;1;1;1;1;1;1;1;1;1;1;
2021-12-23 08:03:52;4;120;120;120;120;120;120;120;120;120;126;
2021-12-23 08:03:52;5;92;92;91;92;92;92;99;93;92;92;
2021-12-23 08:03:52;ht;93;25.30
2021-12-23 08:03:52;v;4.16
2021-12-23 08:33:52;1;1;1;1;1;1;2;1;1;1;1;
2021-12-23 08:33:52;2;121;121;122;121;121;122;121;122;122;122;
2021-12-23 08:33:52;3;2;2;2;2;2;2;1;2;2;2;
2021-12-23 08:33:52;4;120;120;120;120;120;120;120;120;120;119;
2021-12-23 08:33:52;5;90;89;89;97;92;90;90;89;89;89;
2021-12-23 08:33:52;ht;92;26.40
2021-12-23 08:33:52;v;4.16
2021-12-23 09:03:53;1;1;1;1;1;1;1;1;1;1;1;
2021-12-23 09:03:53;2;111;111;111;111;111;111;111;112;111;111;
2021-12-23 09:03:53;3;1;1;1;1;1;1;1;1;1;1;
2021-12-23 09:03:53;4;118;118;118;118;118;118;118;118;118;118;
2021-12-23 09:03:53;5;2;2;2;5;9;3;2;2;2;2;
2021-12-23 09:03:53;ht;88;28.80
2021-12-23 09:03:53;v;4.16
2021-12-23 09:33:56;1;84;84;84;84;84;84;84;84;84;84;
2021-12-23 09:33:56;2;117;117;118;117;117;117;117;117;117;117;
2021-12-23 09:33:56;3;1;1;1;1;1;1;1;1;1;1;
2021-12-23 09:33:56;4;129;130;125;125;124;124;124;124;124;124;
2021-12-23 09:33:56;5;120;120;120;119;119;120;120;121;120;120;
2021-12-23 09:33:56;ht;85;30.30
2021-12-23 09:33:56;v;4.16
2021-12-23 10:03:56;1;93;93;93;93;93;93;93;93;93;93;
2021-12-23 10:03:56;2;118;118;118;118;118;118;118;118;118;118;
2021-12-23 10:03:56;3;2;2;2;2;2;2;2;1;2;2;
2021-12-23 10:03:56;4;123;123;123;123;123;123;124;124;124;123;
2021-12-23 10:03:56;5;125;125;125;125;125;125;125;125;125;125;
2021-12-23 10:03:56;ht;80;31.50
2021-12-23 10:03:56;v;4.17
2021-12-23 10:33:57;1;1;1;1;2;1;1;1;1;1;2;
2021-12-23 10:33:57;2;119;119;119;119;119;119;119;119;119;119;
2021-12-23 10:33:57;3;1;1;1;1;1;1;1;1;1;1;
2021-12-23 10:33:57;4;127;127;127;127;127;127;127;127;128;138;
2021-12-23 10:33:57;5;119;119;120;120;119;119;119;119;119;119;
2021-12-23 10:33:57;ht;75;32.40
2021-12-23 10:33:57;v;4.17
2021-12-23 11:04:00;1;90;90;90;90;90;90;90;90;90;90;
2021-12-23 11:04:00;2;119;119;120;119;119;119;119;119;119;119;
2021-12-23 11:04:00;3;121;121;121;120;120;120;120;121;120;120;
2021-12-23 11:04:00;4;124;124;124;124;124;124;124;124;124;125;
2021-12-23 11:04:00;5;3;2;2;8;4;2;2;2;2;2;
2021-12-23 11:04:00;ht;68;33.30
2021-12-23 11:04:00;v;4.16
2021-12-23 11:33:59;1;119;119;119;119;119;119;119;119;119;119;
2021-12-23 11:33:59;2;123;123;123;123;123;123;124;123;123;123;
2021-12-23 11:33:59;3;2;2;2;2;2;2;2;2;2;1;
2021-12-23 11:33:59;4;122;122;122;122;124;123;123;123;123;122;
2021-12-23 11:33:59;5;121;121;121;121;121;121;121;121;121;121;
2021-12-23 11:33:59;ht;58;34.00
2021-12-23 11:33:59;v;4.17
2021-12-23 12:04:03;1;1;2;1;1;2;2;1;1;1;1;
2021-12-23 12:04:03;2;122;122;122;122;122;122;122;122;122;122;
2021-12-23 12:04:03;3;1;1;1;1;1;1;1;1;1;1;
2021-12-23 12:04:03;4;125;124;123;123;123;123;123;123;124;124;
2021-12-23 12:04:03;5;125;125;125;125;125;125;125;125;125;125;
2021-12-23 12:04:03;ht;56;34.00
2021-12-23 12:04:03;v;4.17
2021-12-23 12:33:59;1;115;115;115;115;115;115;115;115;115;115;
2021-12-23 12:33:59;2;121;120;120;120;120;120;120;120;121;120;
2021-12-23 12:33:59;3;96;96;96;96;96;96;96;96;96;96;
2021-12-23 12:33:59;4;123;123;123;131;128;125;124;124;125;124;
2021-12-23 12:33:59;5;2;1;1;1;2;1;1;1;1;9;
2021-12-23 12:33:59;ht;54;34.60
2021-12-23 12:33:59;v;4.17
2021-12-23 13:04:05;1;1;2;1;2;2;2;2;2;2;2;
2021-12-23 13:04:05;2;123;123;123;123;123;123;123;123;123;123;
2021-12-23 13:04:05;3;131;131;138;132;131;132;131;131;131;131;
2021-12-23 13:04:05;4;124;124;125;124;124;124;124;125;124;124;
2021-12-23 13:04:05;5;2;2;2;2;2;2;2;2;2;2;
2021-12-23 13:04:05;ht;47;35.30
2021-12-23 13:04:05;v;4.17
2021-12-23 13:34:02;1;1;1;1;1;1;1;1;1;1;1;
2021-12-23 13:34:02;2;119;119;119;119;119;119;119;119;119;119;
2021-12-23 13:34:02;3;131;131;131;131;131;131;131;131;131;132;
2021-12-23 13:34:02;4;124;124;124;123;123;123;123;123;123;123;
2021-12-23 13:34:02;5;2;2;2;2;2;2;2;2;2;2;
2021-12-23 13:34:02;ht;50;34.80
2021-12-23 13:34:02;v;4.17
2021-12-23 14:04:03;1;124;124;124;124;124;124;124;124;124;124;
2021-12-23 14:04:03;2;119;119;119;119;119;119;119;119;119;119;
2021-12-23 14:04:03;3;1;1;1;1;1;1;1;1;1;1;
2021-12-23 14:04:03;4;122;121;121;120;120;120;120;120;120;120;
2021-12-23 14:04:03;5;1;1;1;1;2;1;2;2;3;3;
2021-12-23 14:04:03;ht;49;36.60
2021-12-23 14:04:03;v;4.17
2021-12-23 14:34:00;1;117;117;117;118;118;118;118;117;118;118;
2021-12-23 14:34:00;2;120;120;120;120;120;120;120;120;120;120;
2021-12-23 14:34:00;3;2;2;2;2;2;9;5;4;3;3;
2021-12-23 14:34:00;4;123;124;124;123;123;123;123;123;123;123;
2021-12-23 14:34:00;5;125;125;125;125;125;125;125;125;125;125;
2021-12-23 14:34:00;ht;44;36.30
2021-12-23 14:34:00;v;4.17
2021-12-23 15:04:02;1;122;122;122;122;121;122;122;122;122;122;
2021-12-23 15:04:02;2;126;126;126;126;126;126;126;126;126;126;
2021-12-23 15:04:02;3;123;122;123;123;123;123;129;123;123;123;
2021-12-23 15:04:02;4;125;125;125;125;125;125;125;125;125;125;
2021-12-23 15:04:02;5;120;120;120;120;120;120;120;120;120;120;
2021-12-23 15:04:02;ht;44;36.00
2021-12-23 15:04:02;v;4.17
2021-12-23 15:34:04;1;2;1;1;1;1;1;1;1;1;2;
2021-12-23 15:34:04;2;120;120;120;120;120;120;120;120;120;120;
2021-12-23 15:34:04;3;90;90;90;90;90;91;91;91;90;90;
2021-12-23 15:34:04;4;124;124;124;124;124;124;124;124;124;124;
2021-12-23 15:34:04;5;2;2;2;2;1;1;9;4;2;2;
2021-12-23 15:34:04;ht;50;37.00
2021-12-23 15:34:04;v;4.17
2021-12-23 16:04:02;1;1;1;2;1;1;2;2;2;1;1;
2021-12-23 16:04:02;2;120;120;120;120;120;120;121;120;120;120;
2021-12-23 16:04:02;3;1;2;2;2;2;1;1;1;1;1;
2021-12-23 16:04:02;4;122;122;122;122;122;122;122;122;122;122;
2021-12-23 16:04:02;5;2;2;9;4;2;2;2;2;2;2;
2021-12-23 16:04:02;ht;50;36.50
2021-12-23 16:04:02;v;4.17
2021-12-23 16:34:03;1;87;87;87;87;88;87;87;87;87;87;
2021-12-23 16:34:03;2;117;117;117;117;117;117;117;117;117;117;
2021-12-23 16:34:03;3;1;1;1;1;1;1;1;1;1;1;
2021-12-23 16:34:03;4;2;2;2;2;2;2;2;2;2;2;
2021-12-23 16:34:03;5;2;2;2;2;2;2;1;2;2;2;
2021-12-23 16:34:03;ht;47;35.90
2021-12-23 16:34:03;v;4.17
2021-12-23 17:04:04;1;2;1;1;1;1;1;1;2;2;1;
2021-12-23 17:04:04;2;118;118;118;118;118;118;118;118;118;118;
2021-12-23 17:04:04;3;119;119;119;119;119;119;119;119;119;119;
2021-12-23 17:04:04;4;125;125;125;125;125;125;125;125;125;126;
2021-12-23 17:04:04;5;2;8;5;3;2;2;2;2;2;1;
2021-12-23 17:04:04;ht;45;35.80
2021-12-23 17:04:04;v;4.17
2021-12-23 17:34:00;1;118;118;118;118;118;118;118;118;118;118;
2021-12-23 17:34:00;2;121;121;121;121;121;121;121;121;121;121;
2021-12-23 17:34:00;3;2;2;2;2;2;2;8;7;3;3;
2021-12-23 17:34:00;4;123;123;123;123;123;123;123;124;123;123;
2021-12-23 17:34:00;5;2;2;2;2;2;2;2;2;2;2;
2021-12-23 17:34:00;ht;45;35.20
2021-12-23 17:34:00;v;4.18
2021-12-23 18:04:00;1;84;84;84;84;84;84;84;84;84;84;
2021-12-23 18:04:00;2;119;119;119;119;119;120;119;119;119;119;
2021-12-23 18:04:00;3;135;127;127;126;126;126;126;126;126;126;
2021-12-23 18:04:00;4;127;127;127;127;127;127;127;127;127;127;
2021-12-23 18:04:00;5;2;2;2;2;2;2;2;2;2;2;
2021-12-23 18:04:00;ht;44;35.30
2021-12-23 18:04:00;v;4.18
2021-12-23 18:33:59;1;119;118;119;119;118;118;119;119;118;118;
2021-12-23 18:33:59;2;119;118;118;119;119;119;119;118;118;118;
2021-12-23 18:33:59;3;1;2;1;2;2;2;2;2;2;1;
2021-12-23 18:33:59;4;122;122;122;122;122;122;122;122;122;124;
2021-12-23 18:33:59;5;2;2;2;8;3;2;2;2;2;2;
2021-12-23 18:33:59;ht;45;34.40
2021-12-23 18:33:59;v;4.17
2021-12-23 19:04:02;1;2;2;2;2;2;2;2;2;2;2;
2021-12-23 19:04:02;2;2;2;2;2;2;2;2;2;2;2;
2021-12-23 19:04:02;3;119;119;119;119;119;119;119;126;121;120;
2021-12-23 19:04:02;4;124;124;124;124;124;124;125;125;125;125;
2021-12-23 19:04:02;5;2;2;2;2;2;2;2;2;2;2;
2021-12-23 19:04:02;ht;45;33.80
2021-12-23 19:04:02;v;4.18
2021-12-23 19:33:59;1;88;88;88;88;88;88;88;88;88;88;
2021-12-23 19:33:59;2;2;2;1;2;2;2;2;2;2;2;
2021-12-23 19:33:59;3;2;2;1;2;1;2;1;1;1;1;
2021-12-23 19:33:59;4;125;125;125;125;125;125;125;125;125;125;
2021-12-23 19:33:59;5;2;2;1;2;2;2;2;2;2;2;
2021-12-23 19:33:59;ht;56;31.20
2021-12-23 19:33:59;v;4.18
2021-12-23 20:03:58;1;92;91;92;92;92;91;92;91;92;91;
2021-12-23 20:03:58;2;122;123;123;122;123;122;122;122;122;123;
2021-12-23 20:03:58;3;25;25;25;25;25;25;25;32;27;26;
2021-12-23 20:03:58;4;126;126;126;126;126;126;126;126;126;126;
2021-12-23 20:03:58;5;3;2;2;2;2;2;1;1;1;1;
2021-12-23 20:03:58;ht;68;27.90
2021-12-23 20:03:58;v;4.17
2021-12-23 20:33:54;1;108;108;107;108;107;108;108;108;108;108;
2021-12-23 20:33:54;2;128;128;128;128;127;127;127;127;135;130;
2021-12-23 20:33:54;3;91;91;91;91;91;91;91;90;91;91;
2021-12-23 20:33:54;4;123;123;123;123;123;123;123;123;123;123;
2021-12-23 20:33:54;5;82;82;82;81;82;81;81;81;81;82;
2021-12-23 20:33:54;ht;70;26.60
2021-12-23 20:33:54;v;4.18
2021-12-23 21:03:54;1;91;91;91;91;91;91;91;91;91;91;
2021-12-23 21:03:54;2;118;119;118;118;119;119;119;119;119;119;
2021-12-23 21:03:54;3;99;99;99;99;99;99;99;100;105;103;
2021-12-23 21:03:54;4;123;123;124;123;123;124;123;123;123;123;
2021-12-23 21:03:54;5;93;93;93;93;93;92;93;93;93;93;
2021-12-23 21:03:54;ht;71;25.50
2021-12-23 21:03:54;v;4.18
2021-12-23 21:33:52;1;85;85;85;85;85;85;85;85;85;85;
2021-12-23 21:33:52;2;120;119;120;119;120;120;119;119;120;120;
2021-12-23 21:33:52;3;2;1;1;1;1;1;1;1;1;8;
2021-12-23 21:33:52;4;127;127;126;126;126;126;127;126;126;127;
2021-12-23 21:33:52;5;2;2;2;1;1;2;2;2;1;2;
2021-12-23 21:33:52;ht;72;24.90
2021-12-23 21:33:52;v;4.17
2021-12-23 22:03:50;1;120;120;120;120;120;120;120;120;120;120;
2021-12-23 22:03:50;2;122;122;122;122;122;122;121;123;122;123;
2021-12-23 22:03:50;3;3;3;3;2;2;2;2;2;2;2;
2021-12-23 22:03:50;4;127;127;127;127;127;127;127;127;127;127;
2021-12-23 22:03:50;5;123;123;123;123;123;123;123;123;123;123;
2021-12-23 22:03:50;ht;76;24.00
2021-12-23 22:03:50;v;4.17
2021-12-23 22:33:51;1;126;127;127;127;127;127;127;127;127;127;
2021-12-23 22:33:51;2;124;125;125;125;124;125;125;125;125;125;
2021-12-23 22:33:51;3;115;115;115;122;118;116;116;116;116;116;
2021-12-23 22:33:51;4;125;125;125;125;125;125;125;125;125;125;
2021-12-23 22:33:51;5;129;129;129;129;129;129;129;129;129;129;
2021-12-23 22:33:51;ht;90;21.70
2021-12-23 22:33:51;v;4.17
2021-12-23 23:03:48;1;1;1;1;1;1;2;1;1;1;1;
2021-12-23 23:03:48;2;120;119;119;119;120;119;119;119;119;119;
2021-12-23 23:03:48;3;1;1;1;1;2;2;2;1;1;1;
2021-12-23 23:03:48;4;125;125;125;125;125;125;126;125;125;125;
2021-12-23 23:03:48;5;126;126;126;127;126;126;126;126;126;126;
2021-12-23 23:03:48;ht;74;24.30
2021-12-23 23:03:48;v;4.17
2021-12-23 23:33:49;1;120;120;120;120;120;120;120;120;120;120;
2021-12-23 23:33:49;2;122;123;123;123;123;123;123;122;123;123;
2021-12-23 23:33:49;3;1;1;1;1;1;7;10;3;2;2;
2021-12-23 23:33:49;4;122;122;122;121;121;121;121;121;121;121;
2021-12-23 23:33:49;5;119;119;119;119;118;119;119;119;119;119;
2021-12-23 23:33:49;ht;73;24.30
2021-12-23 23:33:49;v;4.17
