2021-06-30 00:03:39;1;119;119;119;119;119;119;119;119;119;119;
2021-06-30 00:03:39;2;115;115;115;115;115;115;115;115;115;115;
2021-06-30 00:03:39;3;56;56;56;56;56;56;56;56;56;56;
2021-06-30 00:03:39;4;122;122;122;122;122;122;122;122;122;122;
2021-06-30 00:03:39;5;118;118;118;118;118;118;117;117;117;118;
2021-06-30 00:03:39;ht;99;0.20
2021-06-30 00:03:39;v;4.01
2021-06-30 00:33:35;1;121;120;120;120;120;120;120;120;120;120;
2021-06-30 00:33:35;2;1;1;1;1;2;1;1;1;1;1;
2021-06-30 00:33:35;3;59;58;58;58;58;59;58;58;58;58;
2021-06-30 00:33:35;4;126;126;126;126;126;126;126;126;126;126;
2021-06-30 00:33:35;5;119;119;119;119;119;119;119;119;119;119;
2021-06-30 00:33:35;ht;99;0.10
2021-06-30 00:33:35;v;4.00
2021-06-30 01:03:35;1;120;120;120;119;119;119;128;120;120;120;
2021-06-30 01:03:35;2;1;1;1;1;1;2;1;1;1;1;
2021-06-30 01:03:35;3;59;58;58;58;58;58;58;58;58;58;
2021-06-30 01:03:35;4;126;126;126;126;126;126;126;126;126;126;
2021-06-30 01:03:35;5;119;119;119;119;119;119;119;119;119;119;
2021-06-30 01:03:35;ht;99;-0.50
2021-06-30 01:03:35;v;4.00
2021-06-30 01:33:35;1;119;120;119;127;120;120;120;120;120;120;
2021-06-30 01:33:35;2;1;1;1;1;1;1;1;8;2;2;
2021-06-30 01:33:35;3;60;59;60;60;59;59;59;60;59;59;
2021-06-30 01:33:35;4;123;123;123;123;123;123;123;123;123;123;
2021-06-30 01:33:35;5;119;119;119;119;119;119;119;119;119;119;
2021-06-30 01:33:35;ht;99;-0.80
2021-06-30 01:33:35;v;4.00
2021-06-30 02:03:39;1;121;121;121;121;120;120;120;120;121;121;
2021-06-30 02:03:39;2;1;1;1;1;1;1;1;1;1;7;
2021-06-30 02:03:39;3;57;57;57;57;57;56;57;57;57;57;
2021-06-30 02:03:39;4;118;118;118;118;118;118;118;118;118;118;
2021-06-30 02:03:39;5;132;132;132;132;132;132;132;132;132;132;
2021-06-30 02:03:39;ht;99;-0.90
2021-06-30 02:03:39;v;4.00
2021-06-30 02:33:39;1;130;130;130;130;130;138;131;130;130;130;
2021-06-30 02:33:39;2;1;1;1;1;1;1;1;1;1;1;
2021-06-30 02:33:39;3;59;58;59;59;59;58;58;58;58;58;
2021-06-30 02:33:39;4;121;121;121;121;121;121;121;121;121;121;
2021-06-30 02:33:39;5;133;133;133;133;133;133;133;132;132;132;
2021-06-30 02:33:39;ht;99;-0.90
2021-06-30 02:33:39;v;4.00
2021-06-30 03:03:39;1;130;130;130;139;131;131;131;130;130;130;
2021-06-30 03:03:39;2;1;1;1;1;1;1;1;1;1;1;
2021-06-30 03:03:39;3;59;60;60;60;60;59;59;60;59;60;
2021-06-30 03:03:39;4;118;117;118;117;118;118;118;118;118;118;
2021-06-30 03:03:39;5;119;118;119;118;119;118;119;118;118;118;
2021-06-30 03:03:39;ht;99;-1.40
2021-06-30 03:03:39;v;4.00
2021-06-30 03:33:38;1;121;120;121;121;128;121;121;121;121;121;
2021-06-30 03:33:38;2;2;1;2;2;2;2;2;2;2;2;
2021-06-30 03:33:38;3;60;60;61;60;60;60;60;60;60;60;
2021-06-30 03:33:38;4;122;122;122;122;122;122;122;122;122;122;
2021-06-30 03:33:38;5;132;132;132;132;132;132;132;132;132;132;
2021-06-30 03:33:38;ht;99;-1.70
2021-06-30 03:33:38;v;4.00
2021-06-30 04:03:37;1;120;120;120;120;120;120;120;120;120;120;
2021-06-30 04:03:37;2;118;118;117;117;117;118;117;117;118;118;
2021-06-30 04:03:37;3;60;60;59;60;60;60;60;59;59;59;
2021-06-30 04:03:37;4;124;124;124;124;124;124;124;124;124;124;
2021-06-30 04:03:37;5;141;141;141;141;141;141;141;141;141;141;
2021-06-30 04:03:37;ht;99;-1.20
2021-06-30 04:03:37;v;4.00
2021-06-30 04:33:37;1;120;120;120;120;120;119;120;119;120;120;
2021-06-30 04:33:37;2;1;1;1;2;1;1;1;1;1;1;
2021-06-30 04:33:37;3;57;58;57;57;58;57;57;57;57;57;
2021-06-30 04:33:37;4;126;126;126;126;126;126;126;126;126;126;
2021-06-30 04:33:37;5;117;117;117;117;117;117;117;117;117;118;
2021-06-30 04:33:37;ht;99;-0.70
2021-06-30 04:33:37;v;4.00
2021-06-30 05:03:36;1;119;119;118;126;119;119;119;119;119;119;
2021-06-30 05:03:36;2;1;2;2;2;1;2;2;1;1;2;
2021-06-30 05:03:36;3;60;60;60;60;60;60;60;60;59;60;
2021-06-30 05:03:36;4;126;126;126;126;126;126;126;126;126;126;
2021-06-30 05:03:36;5;133;133;133;133;133;133;133;133;133;133;
2021-06-30 05:03:36;ht;99;-1.30
2021-06-30 05:03:36;v;4.00
2021-06-30 05:33:36;1;119;118;118;128;119;119;119;119;118;119;
2021-06-30 05:33:36;2;1;1;1;1;1;1;1;1;1;1;
2021-06-30 05:33:36;3;60;60;60;60;60;60;60;60;60;60;
2021-06-30 05:33:36;4;125;125;125;126;126;126;126;126;126;126;
2021-06-30 05:33:36;5;134;135;135;134;135;134;134;134;134;134;
2021-06-30 05:33:36;ht;99;-1.60
2021-06-30 05:33:36;v;4.00
2021-06-30 06:03:35;1;119;119;119;119;119;119;119;119;119;119;
2021-06-30 06:03:35;2;117;117;117;117;117;117;117;117;117;117;
2021-06-30 06:03:35;3;61;61;61;61;61;61;61;61;61;61;
2021-06-30 06:03:35;4;124;124;124;124;123;124;123;124;124;123;
2021-06-30 06:03:35;5;117;117;118;118;118;118;118;117;118;117;
2021-06-30 06:03:35;ht;99;-1.30
2021-06-30 06:03:35;v;4.00
2021-06-30 06:33:35;1;119;118;118;124;119;119;119;119;119;119;
2021-06-30 06:33:35;2;116;117;116;117;117;117;117;117;117;117;
2021-06-30 06:33:35;3;60;60;60;60;60;60;60;60;61;60;
2021-06-30 06:33:35;4;124;123;124;123;124;123;124;124;124;124;
2021-06-30 06:33:35;5;118;118;117;118;117;117;117;118;117;117;
2021-06-30 06:33:35;ht;99;-2.00
2021-06-30 06:33:35;v;3.99
2021-06-30 07:03:39;1;120;120;120;120;120;127;120;120;120;120;
2021-06-30 07:03:39;2;117;117;117;117;117;118;118;118;117;117;
2021-06-30 07:03:39;3;61;61;61;61;61;61;61;61;61;61;
2021-06-30 07:03:39;4;123;123;123;123;123;123;123;123;123;123;
2021-06-30 07:03:39;5;118;118;118;118;118;118;118;118;118;118;
2021-06-30 07:03:39;ht;99;-1.90
2021-06-30 07:03:39;v;4.00
2021-06-30 07:33:38;1;120;120;119;120;120;119;128;120;120;120;
2021-06-30 07:33:38;2;117;117;117;117;116;116;116;116;116;117;
2021-06-30 07:33:38;3;60;59;59;59;59;59;59;59;60;60;
2021-06-30 07:33:38;4;122;122;122;122;122;122;122;122;122;122;
2021-06-30 07:33:38;5;120;120;120;120;120;120;120;120;120;120;
2021-06-30 07:33:38;ht;99;-1.80
2021-06-30 07:33:38;v;4.00
2021-06-30 08:03:37;1;121;120;120;120;121;120;120;120;120;120;
2021-06-30 08:03:37;2;119;119;119;119;119;118;119;119;118;118;
2021-06-30 08:03:37;3;57;57;57;57;57;57;57;57;57;57;
2021-06-30 08:03:37;4;124;124;124;124;123;123;124;124;124;123;
2021-06-30 08:03:37;5;118;118;118;118;118;117;117;117;118;118;
2021-06-30 08:03:37;ht;99;-1.70
2021-06-30 08:03:37;v;3.99
2021-06-30 08:33:36;1;120;120;120;120;120;120;120;120;120;120;
2021-06-30 08:33:36;2;119;119;119;119;119;119;119;119;119;119;
2021-06-30 08:33:36;3;61;61;61;61;61;61;61;61;61;61;
2021-06-30 08:33:36;4;121;121;121;121;121;121;121;121;121;121;
2021-06-30 08:33:36;5;120;120;120;120;120;120;120;120;120;120;
2021-06-30 08:33:36;ht;99;-0.20
2021-06-30 08:33:36;v;4.00
2021-06-30 09:03:37;1;124;132;125;124;124;124;123;123;124;124;
2021-06-30 09:03:37;2;8;2;2;2;2;1;1;1;1;1;
2021-06-30 09:03:37;3;59;59;59;59;59;58;59;59;59;59;
2021-06-30 09:03:37;4;123;123;123;123;123;122;123;123;123;123;
2021-06-30 09:03:37;5;126;126;126;126;126;126;126;126;126;126;
2021-06-30 09:03:37;ht;99;1.50
2021-06-30 09:03:37;v;4.00
2021-06-30 09:33:38;1;121;120;119;119;119;119;119;118;119;118;
2021-06-30 09:33:38;2;118;117;118;118;118;118;118;118;118;118;
2021-06-30 09:33:38;3;53;53;53;53;53;53;53;53;53;53;
2021-06-30 09:33:38;4;118;118;119;119;118;119;119;119;119;119;
2021-06-30 09:33:38;5;116;115;116;115;115;115;116;116;116;116;
2021-06-30 09:33:38;ht;99;3.80
2021-06-30 09:33:38;v;4.00
2021-06-30 10:03:41;1;128;121;120;120;120;120;120;119;120;119;
2021-06-30 10:03:41;2;117;118;117;118;117;118;117;117;118;117;
2021-06-30 10:03:41;3;54;54;54;54;54;54;54;54;54;54;
2021-06-30 10:03:41;4;118;118;118;118;118;118;117;118;118;118;
2021-06-30 10:03:41;5;123;123;123;123;123;123;123;123;123;123;
2021-06-30 10:03:41;ht;99;5.60
2021-06-30 10:03:41;v;4.00
2021-06-30 10:33:40;1;120;120;120;120;120;120;120;120;120;120;
2021-06-30 10:33:40;2;120;120;120;120;120;120;120;120;121;120;
2021-06-30 10:33:40;3;50;50;50;50;50;50;50;50;50;50;
2021-06-30 10:33:40;4;119;119;119;119;119;119;118;119;119;119;
2021-06-30 10:33:40;5;114;114;114;114;114;114;114;114;114;114;
2021-06-30 10:33:40;ht;99;7.70
2021-06-30 10:33:40;v;4.01
2021-06-30 11:03:41;1;119;119;119;118;119;119;119;119;119;119;
2021-06-30 11:03:41;2;122;122;122;122;122;122;122;122;122;122;
2021-06-30 11:03:41;3;48;48;48;48;48;48;48;48;48;48;
2021-06-30 11:03:41;4;133;133;133;133;133;133;133;133;133;133;
2021-06-30 11:03:41;5;119;119;119;119;119;119;119;119;119;119;
2021-06-30 11:03:41;ht;99;10.00
2021-06-30 11:03:41;v;4.01
2021-06-30 11:33:43;1;119;118;118;118;118;118;118;118;118;118;
2021-06-30 11:33:43;2;117;117;117;117;117;117;117;117;117;117;
2021-06-30 11:33:43;3;50;50;50;50;50;50;50;50;50;50;
2021-06-30 11:33:43;4;116;116;116;116;116;116;115;116;116;116;
2021-06-30 11:33:43;5;138;138;138;138;138;138;138;138;138;138;
2021-06-30 11:33:43;ht;99;10.90
2021-06-30 11:33:43;v;4.01
2021-06-30 12:03:42;1;126;126;126;126;126;126;126;126;126;126;
2021-06-30 12:03:42;2;115;115;115;115;115;115;115;115;115;115;
2021-06-30 12:03:42;3;46;46;46;46;47;46;46;46;47;47;
2021-06-30 12:03:42;4;118;118;118;118;118;118;118;118;118;119;
2021-06-30 12:03:42;5;135;136;135;135;135;136;135;135;135;135;
2021-06-30 12:03:42;ht;99;11.80
2021-06-30 12:03:42;v;4.01
2021-06-30 12:33:46;1;118;118;118;118;118;118;118;118;118;118;
2021-06-30 12:33:46;2;114;114;114;114;114;114;114;113;114;114;
2021-06-30 12:33:46;3;48;48;48;48;48;48;48;49;49;48;
2021-06-30 12:33:46;4;117;117;117;117;117;117;117;117;117;117;
2021-06-30 12:33:46;5;116;116;116;116;116;116;116;116;116;116;
2021-06-30 12:33:46;ht;99;12.90
2021-06-30 12:33:46;v;4.01
2021-06-30 13:03:47;1;117;116;116;116;116;116;116;116;116;116;
2021-06-30 13:03:47;2;115;115;115;115;115;115;115;115;115;115;
2021-06-30 13:03:47;3;48;48;48;48;48;48;48;48;48;48;
2021-06-30 13:03:47;4;121;121;120;120;120;121;121;121;121;121;
2021-06-30 13:03:47;5;116;116;116;116;116;116;116;116;115;116;
2021-06-30 13:03:47;ht;96;13.50
2021-06-30 13:03:47;v;4.01
2021-06-30 13:33:47;1;119;119;119;119;119;119;119;119;119;119;
2021-06-30 13:33:47;2;119;119;119;119;119;119;119;119;119;119;
2021-06-30 13:33:47;3;47;47;47;47;47;47;47;47;47;47;
2021-06-30 13:33:47;4;116;116;116;116;116;116;116;116;116;116;
2021-06-30 13:33:47;5;120;120;120;120;120;120;120;120;120;120;
2021-06-30 13:33:47;ht;94;13.40
2021-06-30 13:33:47;v;4.01
2021-06-30 14:03:43;1;126;126;126;126;126;126;126;126;126;126;
2021-06-30 14:03:43;2;118;118;118;118;118;118;118;117;118;118;
2021-06-30 14:03:43;3;48;48;48;48;48;48;48;48;48;48;
2021-06-30 14:03:43;4;123;123;123;123;123;123;123;123;123;123;
2021-06-30 14:03:43;5;123;123;123;123;123;123;123;123;123;123;
2021-06-30 14:03:43;ht;93;14.10
2021-06-30 14:03:43;v;4.01
2021-06-30 14:33:44;1;125;125;125;125;125;125;125;125;125;125;
2021-06-30 14:33:44;2;120;120;120;120;120;120;120;120;120;120;
2021-06-30 14:33:44;3;44;45;44;45;45;45;45;44;45;45;
2021-06-30 14:33:44;4;122;122;122;122;122;122;122;122;122;122;
2021-06-30 14:33:44;5;114;114;114;114;114;114;114;114;114;114;
2021-06-30 14:33:44;ht;92;14.50
2021-06-30 14:33:44;v;4.01
2021-06-30 15:03:46;1;120;121;120;120;120;120;120;120;120;120;
2021-06-30 15:03:46;2;117;118;117;118;118;118;118;118;118;118;
2021-06-30 15:03:46;3;46;46;46;46;46;46;46;46;46;46;
2021-06-30 15:03:46;4;119;119;119;119;119;119;119;119;119;119;
2021-06-30 15:03:46;5;117;117;117;117;117;117;117;117;117;117;
2021-06-30 15:03:46;ht;91;14.60
2021-06-30 15:03:46;v;4.01
2021-06-30 15:33:47;1;117;117;117;117;117;117;117;117;117;117;
2021-06-30 15:33:47;2;114;114;114;114;114;114;114;114;113;114;
2021-06-30 15:33:47;3;46;46;46;46;46;46;46;46;46;46;
2021-06-30 15:33:47;4;115;115;116;116;116;116;115;115;115;116;
2021-06-30 15:33:47;5;123;123;123;123;123;123;123;123;123;123;
2021-06-30 15:33:47;ht;90;14.50
2021-06-30 15:33:47;v;4.01
2021-06-30 16:03:48;1;117;117;117;117;117;117;117;117;117;117;
2021-06-30 16:03:48;2;117;117;117;117;117;117;117;117;117;117;
2021-06-30 16:03:48;3;45;45;45;45;45;45;45;45;45;45;
2021-06-30 16:03:48;4;119;119;119;119;119;119;119;119;119;119;
2021-06-30 16:03:48;5;135;135;134;135;134;134;134;135;135;134;
2021-06-30 16:03:48;ht;90;14.00
2021-06-30 16:03:48;v;4.01
2021-06-30 16:33:44;1;124;124;124;124;124;124;124;124;124;124;
2021-06-30 16:33:44;2;112;112;112;112;112;112;112;112;112;112;
2021-06-30 16:33:44;3;46;46;46;46;46;46;46;46;46;46;
2021-06-30 16:33:44;4;119;119;119;119;119;119;119;119;119;119;
2021-06-30 16:33:44;5;113;114;114;114;114;114;114;114;114;114;
2021-06-30 16:33:44;ht;90;13.70
2021-06-30 16:33:44;v;4.01
2021-06-30 17:03:43;1;119;119;119;119;119;119;119;119;119;119;
2021-06-30 17:03:43;2;117;117;117;117;117;117;117;117;117;117;
2021-06-30 17:03:43;3;45;45;45;45;45;45;45;45;45;45;
2021-06-30 17:03:43;4;115;115;115;115;115;115;115;115;115;115;
2021-06-30 17:03:43;5;113;114;114;114;114;113;113;113;114;114;
2021-06-30 17:03:43;ht;93;13.00
2021-06-30 17:03:43;v;4.01
2021-06-30 17:33:43;1;123;123;123;123;123;123;123;124;123;124;
2021-06-30 17:33:43;2;110;110;110;110;110;110;110;110;110;110;
2021-06-30 17:33:43;3;45;45;45;45;45;45;45;45;45;45;
2021-06-30 17:33:43;4;116;116;116;116;116;116;116;116;116;116;
2021-06-30 17:33:43;5;118;118;118;118;118;118;118;118;118;118;
2021-06-30 17:33:43;ht;95;12.10
2021-06-30 17:33:43;v;4.01
2021-06-30 18:03:46;1;125;124;124;124;124;124;124;124;124;124;
2021-06-30 18:03:46;2;128;128;128;128;128;128;128;128;128;128;
2021-06-30 18:03:46;3;45;45;45;45;45;45;45;45;45;45;
2021-06-30 18:03:46;4;121;121;121;121;121;121;121;121;121;121;
2021-06-30 18:03:46;5;118;119;118;118;118;118;118;118;118;118;
2021-06-30 18:03:46;ht;99;10.00
2021-06-30 18:03:46;v;4.01
2021-06-30 18:33:43;1;126;126;126;126;126;126;126;126;126;126;
2021-06-30 18:33:43;2;114;113;113;113;113;114;114;113;114;113;
2021-06-30 18:33:43;3;48;47;47;47;48;47;47;48;47;47;
2021-06-30 18:33:43;4;125;126;126;126;126;126;126;126;125;126;
2021-06-30 18:33:43;5;119;119;119;118;119;119;119;118;119;119;
2021-06-30 18:33:43;ht;99;8.30
2021-06-30 18:33:43;v;4.01
2021-06-30 19:03:43;1;122;122;122;122;122;122;122;122;122;122;
2021-06-30 19:03:43;2;124;125;125;125;125;124;125;124;124;125;
2021-06-30 19:03:43;3;49;49;50;50;49;49;49;50;49;49;
2021-06-30 19:03:43;4;116;116;116;116;116;116;116;116;116;116;
2021-06-30 19:03:43;5;120;120;120;120;120;120;120;120;120;120;
2021-06-30 19:03:43;ht;99;8.70
2021-06-30 19:03:43;v;4.00
2021-06-30 19:33:39;1;121;120;120;120;120;121;121;121;120;120;
2021-06-30 19:33:39;2;127;127;126;127;127;127;127;127;127;127;
2021-06-30 19:33:39;3;50;50;50;50;50;50;50;50;50;50;
2021-06-30 19:33:39;4;114;114;114;114;114;114;114;114;114;114;
2021-06-30 19:33:39;5;130;130;129;130;130;130;130;130;130;130;
2021-06-30 19:33:39;ht;99;8.20
2021-06-30 19:33:39;v;4.00
2021-06-30 20:03:40;1;121;120;120;120;119;120;120;120;120;120;
2021-06-30 20:03:40;2;122;122;121;122;121;122;122;121;122;122;
2021-06-30 20:03:40;3;51;51;51;51;51;51;51;51;51;51;
2021-06-30 20:03:40;4;117;117;117;117;117;117;117;117;117;117;
2021-06-30 20:03:40;5;121;121;121;121;121;121;121;121;121;121;
2021-06-30 20:03:40;ht;99;7.40
2021-06-30 20:03:40;v;4.00
2021-06-30 20:33:40;1;120;120;119;120;120;120;120;120;120;120;
2021-06-30 20:33:40;2;123;123;123;123;123;123;123;123;123;123;
2021-06-30 20:33:40;3;50;50;51;51;50;50;51;51;51;51;
2021-06-30 20:33:40;4;117;117;117;117;117;117;117;117;117;117;
2021-06-30 20:33:40;5;120;121;120;121;121;121;121;120;121;121;
2021-06-30 20:33:40;ht;99;6.80
2021-06-30 20:33:40;v;4.00
2021-06-30 21:03:39;1;121;121;121;121;121;121;121;121;121;121;
2021-06-30 21:03:39;2;121;121;120;120;120;121;121;121;121;120;
2021-06-30 21:03:39;3;52;52;52;52;52;52;52;52;52;52;
2021-06-30 21:03:39;4;118;118;118;118;118;118;118;118;118;118;
2021-06-30 21:03:39;5;117;117;117;117;117;117;117;117;117;117;
2021-06-30 21:03:39;ht;99;6.40
2021-06-30 21:03:39;v;4.00
2021-06-30 21:33:39;1;120;120;120;120;120;120;119;120;120;120;
2021-06-30 21:33:39;2;116;116;116;116;116;116;116;116;116;116;
2021-06-30 21:33:39;3;52;52;53;53;53;53;53;52;53;53;
2021-06-30 21:33:39;4;118;118;118;118;118;118;118;118;118;118;
2021-06-30 21:33:39;5;124;124;124;124;124;124;124;124;124;124;
2021-06-30 21:33:39;ht;99;6.60
2021-06-30 21:33:39;v;4.00
2021-06-30 22:03:43;1;120;120;120;120;125;121;120;120;120;120;
2021-06-30 22:03:43;2;115;115;115;115;115;115;115;115;115;115;
2021-06-30 22:03:43;3;51;51;51;51;51;51;51;51;51;51;
2021-06-30 22:03:43;4;118;118;118;119;119;118;119;118;119;119;
2021-06-30 22:03:43;5;120;120;120;120;120;120;120;121;121;121;
2021-06-30 22:03:43;ht;99;5.50
2021-06-30 22:03:43;v;4.00
2021-06-30 22:33:41;1;127;127;127;127;127;127;127;127;127;127;
2021-06-30 22:33:41;2;114;114;114;114;114;114;114;114;114;115;
2021-06-30 22:33:41;3;52;52;52;52;52;53;52;52;52;52;
2021-06-30 22:33:41;4;119;119;119;119;119;119;119;119;119;119;
2021-06-30 22:33:41;5;121;122;121;121;121;121;121;121;122;121;
2021-06-30 22:33:41;ht;99;5.60
2021-06-30 22:33:41;v;4.00
2021-06-30 23:03:40;1;124;123;123;123;123;122;123;123;123;123;
2021-06-30 23:03:40;2;115;115;115;115;115;115;115;115;115;115;
2021-06-30 23:03:40;3;53;53;53;53;53;53;53;53;53;53;
2021-06-30 23:03:40;4;119;119;119;119;119;119;119;119;119;119;
2021-06-30 23:03:40;5;118;118;118;118;118;118;118;118;118;118;
2021-06-30 23:03:40;ht;99;5.30
2021-06-30 23:03:40;v;4.00
2021-06-30 23:33:39;1;130;129;129;129;129;129;129;129;129;129;
2021-06-30 23:33:39;2;121;121;121;121;120;121;121;121;121;120;
2021-06-30 23:33:39;3;53;53;53;53;53;53;53;53;53;53;
2021-06-30 23:33:39;4;122;122;122;122;122;122;122;122;122;122;
2021-06-30 23:33:39;5;115;115;114;115;115;115;115;115;115;115;
2021-06-30 23:33:39;ht;99;4.50
2021-06-30 23:33:39;v;4.00
