2022-01-23 00:03:52;1;134;134;134;134;133;134;134;134;134;134;
2022-01-23 00:03:52;2;121;121;121;121;121;121;121;121;121;121;
2022-01-23 00:03:52;3;25;24;25;25;25;25;25;25;25;25;
2022-01-23 00:03:52;4;124;124;125;124;124;124;124;124;124;124;
2022-01-23 00:03:52;5;128;127;127;127;127;128;127;127;127;127;
2022-01-23 00:03:52;ht;99;23.20
2022-01-23 00:03:52;v;4.17
2022-01-23 00:33:48;1;132;132;132;132;132;132;132;132;132;132;
2022-01-23 00:33:48;2;123;123;123;123;123;123;123;123;123;123;
2022-01-23 00:33:48;3;26;26;26;26;26;26;26;26;26;26;
2022-01-23 00:33:48;4;120;120;120;120;119;119;120;120;120;120;
2022-01-23 00:33:48;5;124;123;123;124;123;124;123;124;124;124;
2022-01-23 00:33:48;ht;99;23.60
2022-01-23 00:33:48;v;4.17
2022-01-23 01:03:49;1;123;123;123;123;123;123;123;123;123;123;
2022-01-23 01:03:49;2;122;122;122;122;122;122;122;122;122;122;
2022-01-23 01:03:49;3;25;25;26;26;26;26;26;25;26;25;
2022-01-23 01:03:49;4;118;119;119;119;119;119;119;119;119;119;
2022-01-23 01:03:49;5;119;119;119;119;119;119;119;119;119;119;
2022-01-23 01:03:49;ht;99;23.40
2022-01-23 01:03:49;v;4.16
2022-01-23 01:33:51;1;129;129;129;129;129;129;129;129;129;129;
2022-01-23 01:33:51;2;123;123;123;123;123;123;123;123;123;123;
2022-01-23 01:33:51;3;25;26;26;26;25;26;25;26;25;25;
2022-01-23 01:33:51;4;122;122;122;122;122;122;122;122;121;122;
2022-01-23 01:33:51;5;123;123;123;123;123;123;123;123;123;123;
2022-01-23 01:33:51;ht;99;22.60
2022-01-23 01:33:51;v;4.16
2022-01-23 02:03:51;1;129;129;129;129;128;128;128;128;128;128;
2022-01-23 02:03:51;2;122;122;122;122;122;122;122;122;122;122;
2022-01-23 02:03:51;3;32;32;32;32;32;32;32;32;32;32;
2022-01-23 02:03:51;4;121;120;121;120;120;121;121;121;121;121;
2022-01-23 02:03:51;5;121;121;121;121;121;121;121;121;121;121;
2022-01-23 02:03:51;ht;99;21.80
2022-01-23 02:03:51;v;4.17
2022-01-23 02:33:51;1;116;116;115;116;115;116;115;115;115;115;
2022-01-23 02:33:51;2;123;123;123;123;123;123;123;123;123;123;
2022-01-23 02:33:51;3;32;32;32;32;32;32;32;32;32;32;
2022-01-23 02:33:51;4;120;120;120;120;120;120;120;120;120;120;
2022-01-23 02:33:51;5;128;128;128;128;127;128;128;128;128;127;
2022-01-23 02:33:51;ht;99;21.40
2022-01-23 02:33:51;v;4.16
2022-01-23 03:03:51;1;126;126;126;126;126;126;126;126;126;126;
2022-01-23 03:03:51;2;127;127;127;127;127;127;127;127;127;127;
2022-01-23 03:03:51;3;1;1;1;1;1;1;1;1;1;1;
2022-01-23 03:03:51;4;127;127;127;127;127;127;127;127;127;127;
2022-01-23 03:03:51;5;130;130;130;130;130;130;130;130;130;130;
2022-01-23 03:03:51;ht;99;21.10
2022-01-23 03:03:51;v;4.16
2022-01-23 03:33:50;1;127;127;127;127;127;127;127;127;127;127;
2022-01-23 03:33:50;2;123;124;124;124;124;124;124;124;123;123;
2022-01-23 03:33:50;3;111;111;111;111;111;111;111;111;111;111;
2022-01-23 03:33:50;4;114;114;114;114;114;114;114;114;114;114;
2022-01-23 03:33:50;5;120;119;119;119;119;119;119;119;119;119;
2022-01-23 03:33:50;ht;99;21.20
2022-01-23 03:33:50;v;4.16
2022-01-23 04:03:49;1;132;132;132;132;132;132;132;132;132;132;
2022-01-23 04:03:49;2;127;127;127;127;127;128;128;128;128;127;
2022-01-23 04:03:49;3;32;32;32;32;32;32;32;32;32;32;
2022-01-23 04:03:49;4;120;120;120;120;120;120;120;120;120;120;
2022-01-23 04:03:49;5;125;125;125;125;125;125;125;125;125;125;
2022-01-23 04:03:49;ht;99;21.40
2022-01-23 04:03:49;v;4.16
2022-01-23 04:33:48;1;131;131;131;131;131;131;131;131;131;131;
2022-01-23 04:33:48;2;124;124;124;124;124;124;124;124;124;124;
2022-01-23 04:33:48;3;32;32;32;32;32;32;32;32;32;31;
2022-01-23 04:33:48;4;130;130;130;130;130;130;130;130;130;130;
2022-01-23 04:33:48;5;121;121;121;121;122;121;121;122;121;121;
2022-01-23 04:33:48;ht;99;21.60
2022-01-23 04:33:48;v;4.16
2022-01-23 05:03:48;1;127;127;127;127;127;127;127;127;127;127;
2022-01-23 05:03:48;2;126;126;126;126;126;126;126;126;126;126;
2022-01-23 05:03:48;3;32;31;32;32;32;32;32;32;32;32;
2022-01-23 05:03:48;4;123;123;123;123;123;123;123;123;123;123;
2022-01-23 05:03:48;5;121;120;121;121;120;120;120;120;120;120;
2022-01-23 05:03:48;ht;99;21.20
2022-01-23 05:03:48;v;4.16
2022-01-23 05:33:47;1;129;129;129;129;129;129;129;129;129;129;
2022-01-23 05:33:47;2;113;113;113;113;113;113;113;113;113;113;
2022-01-23 05:33:47;3;114;114;114;114;114;114;114;114;114;114;
2022-01-23 05:33:47;4;127;127;127;127;127;127;127;127;127;127;
2022-01-23 05:33:47;5;2;2;2;2;2;2;2;2;2;2;
2022-01-23 05:33:47;ht;99;22.20
2022-01-23 05:33:47;v;4.16
2022-01-23 06:03:50;1;124;124;124;124;124;124;124;124;124;124;
2022-01-23 06:03:50;2;114;114;114;114;114;114;114;114;114;114;
2022-01-23 06:03:50;3;114;114;114;114;114;114;114;114;115;114;
2022-01-23 06:03:50;4;118;118;118;118;118;118;118;117;118;117;
2022-01-23 06:03:50;5;121;121;121;121;121;122;121;122;122;121;
2022-01-23 06:03:50;ht;99;22.20
2022-01-23 06:03:50;v;4.16
2022-01-23 06:33:49;1;134;134;134;134;134;134;134;134;134;134;
2022-01-23 06:33:49;2;119;119;119;119;119;119;119;119;119;119;
2022-01-23 06:33:49;3;114;114;114;114;114;114;114;114;114;114;
2022-01-23 06:33:49;4;126;126;126;126;126;125;126;126;126;126;
2022-01-23 06:33:49;5;119;119;119;119;119;119;120;120;120;119;
2022-01-23 06:33:49;ht;99;22.20
2022-01-23 06:33:49;v;4.16
2022-01-23 07:03:48;1;130;130;130;130;130;130;130;130;130;130;
2022-01-23 07:03:48;2;119;119;119;119;119;119;119;119;119;119;
2022-01-23 07:03:48;3;1;1;1;2;1;1;1;1;1;1;
2022-01-23 07:03:48;4;133;133;132;132;132;132;132;132;132;132;
2022-01-23 07:03:48;5;105;105;105;105;105;105;105;105;105;105;
2022-01-23 07:03:48;ht;99;22.00
2022-01-23 07:03:48;v;4.15
2022-01-23 07:33:47;1;122;122;122;122;122;122;122;122;122;122;
2022-01-23 07:33:47;2;117;118;118;118;118;118;118;118;118;118;
2022-01-23 07:33:47;3;121;121;121;121;121;121;121;121;121;121;
2022-01-23 07:33:47;4;132;132;132;132;132;132;133;132;133;133;
2022-01-23 07:33:47;5;2;2;2;2;2;2;2;2;2;2;
2022-01-23 07:33:47;ht;99;21.90
2022-01-23 07:33:47;v;4.16
2022-01-23 08:03:50;1;140;140;140;140;140;140;140;140;140;140;
2022-01-23 08:03:50;2;105;105;105;105;105;105;105;105;105;105;
2022-01-23 08:03:50;3;121;120;120;120;120;120;120;120;120;120;
2022-01-23 08:03:50;4;128;128;128;128;128;128;128;128;128;128;
2022-01-23 08:03:50;5;105;105;105;105;105;105;105;105;105;105;
2022-01-23 08:03:50;ht;99;21.90
2022-01-23 08:03:50;v;4.16
2022-01-23 08:33:49;1;130;130;130;130;130;130;130;130;130;130;
2022-01-23 08:33:49;2;117;117;117;117;117;117;117;117;117;117;
2022-01-23 08:33:49;3;107;107;107;107;107;107;107;107;107;107;
2022-01-23 08:33:49;4;124;124;123;124;124;124;124;124;124;124;
2022-01-23 08:33:49;5;124;123;123;123;123;123;123;123;123;123;
2022-01-23 08:33:49;ht;99;21.90
2022-01-23 08:33:49;v;4.16
2022-01-23 09:03:48;1;135;135;135;135;135;135;135;135;135;135;
2022-01-23 09:03:48;2;114;114;114;114;114;114;114;114;114;114;
2022-01-23 09:03:48;3;117;117;118;117;117;117;117;117;117;117;
2022-01-23 09:03:48;4;121;121;121;121;121;121;121;121;121;121;
2022-01-23 09:03:48;5;110;110;110;110;110;110;110;110;110;110;
2022-01-23 09:03:48;ht;99;21.80
2022-01-23 09:03:48;v;4.15
2022-01-23 09:33:47;1;129;129;129;129;128;129;129;129;129;129;
2022-01-23 09:33:47;2;127;127;127;127;127;127;127;127;127;127;
2022-01-23 09:33:47;3;1;1;1;1;1;1;1;1;2;1;
2022-01-23 09:33:47;4;130;130;130;130;130;130;130;130;130;130;
2022-01-23 09:33:47;5;104;104;104;104;104;104;104;104;104;104;
2022-01-23 09:33:47;ht;99;22.00
2022-01-23 09:33:47;v;4.16
2022-01-23 10:03:47;1;125;125;125;125;125;125;125;125;125;125;
2022-01-23 10:03:47;2;127;127;127;127;127;127;127;127;127;127;
2022-01-23 10:03:47;3;106;106;106;106;106;106;106;106;106;106;
2022-01-23 10:03:47;4;116;116;116;116;116;116;117;116;116;116;
2022-01-23 10:03:47;5;127;127;127;127;127;127;127;127;127;127;
2022-01-23 10:03:47;ht;99;22.40
2022-01-23 10:03:47;v;4.15
2022-01-23 10:33:50;1;120;120;120;120;120;120;120;120;120;120;
2022-01-23 10:33:50;2;125;125;125;126;125;125;125;125;125;125;
2022-01-23 10:33:50;3;106;106;106;106;106;106;106;106;106;106;
2022-01-23 10:33:50;4;108;108;108;108;108;108;108;108;109;108;
2022-01-23 10:33:50;5;104;104;104;104;104;104;104;104;104;104;
2022-01-23 10:33:50;ht;99;22.30
2022-01-23 10:33:50;v;4.15
2022-01-23 11:03:50;1;118;118;118;118;118;118;118;118;118;118;
2022-01-23 11:03:50;2;128;128;128;128;128;128;128;128;128;128;
2022-01-23 11:03:50;3;91;91;91;91;91;91;91;91;91;91;
2022-01-23 11:03:50;4;118;118;118;118;118;118;118;117;117;117;
2022-01-23 11:03:50;5;96;96;96;96;96;96;96;96;96;96;
2022-01-23 11:03:50;ht;99;22.40
2022-01-23 11:03:50;v;4.15
2022-01-23 11:33:49;1;138;138;138;138;138;138;138;138;138;138;
2022-01-23 11:33:49;2;127;127;127;127;127;127;127;127;127;127;
2022-01-23 11:33:49;3;94;94;94;94;94;94;94;94;94;94;
2022-01-23 11:33:49;4;128;128;128;128;128;128;128;128;128;128;
2022-01-23 11:33:49;5;108;108;108;108;108;108;108;107;108;108;
2022-01-23 11:33:49;ht;99;22.70
2022-01-23 11:33:49;v;4.16
2022-01-23 12:03:49;1;136;136;136;136;136;136;136;136;136;136;
2022-01-23 12:03:49;2;99;99;99;99;99;99;99;99;99;99;
2022-01-23 12:03:49;3;117;117;117;117;117;117;117;117;117;117;
2022-01-23 12:03:49;4;117;117;117;117;117;117;117;117;117;117;
2022-01-23 12:03:49;5;2;1;2;1;1;1;2;1;1;1;
2022-01-23 12:03:49;ht;99;23.40
2022-01-23 12:03:49;v;4.16
2022-01-23 12:33:49;1;132;133;133;133;132;132;133;132;132;133;
2022-01-23 12:33:49;2;127;127;127;127;127;127;127;127;127;127;
2022-01-23 12:33:49;3;93;93;93;93;93;93;93;93;93;93;
2022-01-23 12:33:49;4;119;119;119;119;119;119;119;119;119;119;
2022-01-23 12:33:49;5;103;103;103;103;103;103;103;103;102;102;
2022-01-23 12:33:49;ht;99;22.40
2022-01-23 12:33:49;v;4.16
2022-01-23 13:03:50;1;120;120;120;120;120;120;120;120;120;120;
2022-01-23 13:03:50;2;105;105;105;105;106;105;105;105;105;105;
2022-01-23 13:03:50;3;35;35;35;35;35;35;35;35;35;35;
2022-01-23 13:03:50;4;124;124;124;124;124;124;124;124;124;124;
2022-01-23 13:03:50;5;113;113;113;113;113;113;113;113;113;113;
2022-01-23 13:03:50;ht;99;23.90
2022-01-23 13:03:50;v;4.16
2022-01-23 13:33:52;1;140;140;140;140;140;140;140;140;140;140;
2022-01-23 13:33:52;2;118;118;118;118;118;118;118;118;118;118;
2022-01-23 13:33:52;3;33;33;33;33;33;33;33;33;33;33;
2022-01-23 13:33:52;4;123;123;123;123;123;123;123;123;123;123;
2022-01-23 13:33:52;5;100;100;100;100;100;100;100;100;100;100;
2022-01-23 13:33:52;ht;99;25.00
2022-01-23 13:33:52;v;4.16
2022-01-23 14:03:50;1;141;141;141;141;141;141;141;141;141;141;
2022-01-23 14:03:50;2;125;124;124;124;124;124;124;124;124;124;
2022-01-23 14:03:50;3;27;27;27;27;27;27;27;27;27;26;
2022-01-23 14:03:50;4;138;138;138;138;138;138;138;138;138;138;
2022-01-23 14:03:50;5;106;106;106;106;106;107;106;107;106;107;
2022-01-23 14:03:50;ht;99;25.50
2022-01-23 14:03:50;v;4.16
2022-01-23 14:33:54;1;132;132;131;131;132;132;132;132;132;131;
2022-01-23 14:33:54;2;114;114;114;114;114;114;114;114;114;114;
2022-01-23 14:33:54;3;25;25;25;25;25;25;25;25;25;25;
2022-01-23 14:33:54;4;139;139;139;139;139;139;139;139;139;139;
2022-01-23 14:33:54;5;108;108;108;108;108;108;108;108;108;108;
2022-01-23 14:33:54;ht;99;26.40
2022-01-23 14:33:54;v;4.16
2022-01-23 15:03:54;1;132;132;131;131;132;131;131;131;132;131;
2022-01-23 15:03:54;2;122;122;122;122;122;122;122;122;122;122;
2022-01-23 15:03:54;3;26;26;26;26;26;26;26;26;26;26;
2022-01-23 15:03:54;4;121;121;121;121;121;121;121;121;121;121;
2022-01-23 15:03:54;5;110;110;110;111;110;110;111;110;111;110;
2022-01-23 15:03:54;ht;99;26.90
2022-01-23 15:03:54;v;4.16
2022-01-23 15:33:54;1;133;133;133;133;133;133;133;133;133;133;
2022-01-23 15:33:54;2;125;125;125;125;126;125;125;125;125;125;
2022-01-23 15:33:54;3;106;106;106;106;106;106;106;106;106;106;
2022-01-23 15:33:54;4;105;105;105;105;105;105;105;105;104;105;
2022-01-23 15:33:54;5;107;107;107;107;107;107;107;107;107;107;
2022-01-23 15:33:54;ht;99;26.10
2022-01-23 15:33:54;v;4.16
2022-01-23 16:03:54;1;132;132;132;132;132;132;132;132;132;132;
2022-01-23 16:03:54;2;122;122;122;122;122;122;122;122;122;122;
2022-01-23 16:03:54;3;94;94;94;94;93;94;94;93;93;93;
2022-01-23 16:03:54;4;116;116;116;116;116;117;116;116;116;116;
2022-01-23 16:03:54;5;99;99;99;99;99;99;99;99;99;99;
2022-01-23 16:03:54;ht;99;26.30
2022-01-23 16:03:54;v;4.16
2022-01-23 16:33:53;1;132;132;132;132;132;132;132;132;132;132;
2022-01-23 16:33:53;2;121;121;121;121;121;121;121;121;121;121;
2022-01-23 16:33:53;3;1;1;1;1;1;1;1;1;1;1;
2022-01-23 16:33:53;4;118;118;117;118;118;118;118;118;118;118;
2022-01-23 16:33:53;5;99;99;99;99;99;98;99;99;99;99;
2022-01-23 16:33:53;ht;99;27.00
2022-01-23 16:33:53;v;4.17
2022-01-23 17:03:54;1;139;139;139;139;139;139;139;139;140;139;
2022-01-23 17:03:54;2;119;119;119;119;119;119;119;119;119;119;
2022-01-23 17:03:54;3;1;1;2;1;2;1;1;1;1;1;
2022-01-23 17:03:54;4;109;109;109;110;109;109;109;109;109;109;
2022-01-23 17:03:54;5;120;120;120;120;120;120;120;120;120;120;
2022-01-23 17:03:54;ht;99;26.70
2022-01-23 17:03:54;v;4.17
2022-01-23 17:33:54;1;138;138;138;138;138;138;138;138;138;138;
2022-01-23 17:33:54;2;121;121;121;121;121;121;121;121;121;121;
2022-01-23 17:33:54;3;114;114;114;114;114;114;114;114;114;114;
2022-01-23 17:33:54;4;1;2;2;1;2;2;2;1;1;1;
2022-01-23 17:33:54;5;106;106;106;106;106;106;106;106;106;106;
2022-01-23 17:33:54;ht;99;29.10
2022-01-23 17:33:54;v;4.16
2022-01-23 18:03:55;1;136;136;136;136;136;136;136;136;136;136;
2022-01-23 18:03:55;2;119;119;119;119;119;119;119;119;119;119;
2022-01-23 18:03:55;3;1;1;1;2;1;1;2;2;1;2;
2022-01-23 18:03:55;4;122;121;121;122;122;121;122;121;122;122;
2022-01-23 18:03:55;5;121;120;120;120;121;121;120;120;120;120;
2022-01-23 18:03:55;ht;99;26.60
2022-01-23 18:03:55;v;4.16
2022-01-23 18:33:55;1;129;129;129;129;129;129;129;129;129;129;
2022-01-23 18:33:55;2;121;121;121;121;121;121;121;121;121;121;
2022-01-23 18:33:55;3;1;1;1;1;1;1;1;1;1;1;
2022-01-23 18:33:55;4;130;131;130;130;130;130;130;130;130;130;
2022-01-23 18:33:55;5;114;114;114;114;114;114;114;114;114;114;
2022-01-23 18:33:55;ht;99;27.00
2022-01-23 18:33:55;v;4.17
2022-01-23 19:03:55;1;39;39;39;40;40;39;39;39;40;39;
2022-01-23 19:03:55;2;118;118;118;118;118;118;118;118;118;118;
2022-01-23 19:03:55;3;116;116;116;116;116;116;116;116;116;117;
2022-01-23 19:03:55;4;122;122;122;122;122;122;122;122;122;122;
2022-01-23 19:03:55;5;99;99;99;99;99;99;99;99;99;99;
2022-01-23 19:03:55;ht;99;27.10
2022-01-23 19:03:55;v;4.16
2022-01-23 19:33:55;1;33;33;33;33;33;33;33;33;33;33;
2022-01-23 19:33:55;2;121;121;121;121;121;121;121;121;121;121;
2022-01-23 19:33:55;3;25;25;25;25;25;25;25;24;25;25;
2022-01-23 19:33:55;4;122;122;122;122;122;121;122;122;122;122;
2022-01-23 19:33:55;5;101;101;100;101;100;100;101;100;100;100;
2022-01-23 19:33:55;ht;99;25.00
2022-01-23 19:33:55;v;4.16
2022-01-23 20:03:53;1;122;122;122;122;122;122;122;122;122;122;
2022-01-23 20:03:53;2;118;118;118;118;118;118;118;117;117;118;
2022-01-23 20:03:53;3;24;24;24;24;24;24;24;24;24;24;
2022-01-23 20:03:53;4;122;122;122;122;122;121;122;122;122;122;
2022-01-23 20:03:53;5;2;2;2;2;2;2;2;2;2;2;
2022-01-23 20:03:53;ht;99;24.00
2022-01-23 20:03:53;v;4.16
