2022-01-07 00:03:47;1;123;123;123;123;122;123;123;123;123;123;
2022-01-07 00:03:47;2;124;123;124;124;124;124;124;124;124;123;
2022-01-07 00:03:47;3;48;48;48;48;48;48;48;48;48;48;
2022-01-07 00:03:47;4;129;129;129;129;130;129;129;129;129;129;
2022-01-07 00:03:47;5;2;1;1;1;1;1;2;1;2;1;
2022-01-07 00:03:47;ht;98;19.20
2022-01-07 00:03:47;v;4.16
2022-01-07 00:33:45;1;123;123;123;123;123;123;123;123;123;123;
2022-01-07 00:33:45;2;121;121;121;121;121;121;121;121;121;121;
2022-01-07 00:33:45;3;32;32;32;32;32;32;31;32;31;32;
2022-01-07 00:33:45;4;1;1;1;1;2;1;1;1;1;1;
2022-01-07 00:33:45;5;124;125;124;125;124;124;124;125;125;125;
2022-01-07 00:33:45;ht;97;18.60
2022-01-07 00:33:45;v;4.16
2022-01-07 01:03:47;1;125;125;125;125;125;125;125;125;125;125;
2022-01-07 01:03:47;2;119;119;119;119;119;119;119;119;119;119;
2022-01-07 01:03:47;3;32;32;32;32;32;32;32;32;32;32;
2022-01-07 01:03:47;4;1;1;1;1;1;1;1;2;2;1;
2022-01-07 01:03:47;5;120;120;120;120;121;121;121;121;121;121;
2022-01-07 01:03:47;ht;99;17.20
2022-01-07 01:03:47;v;4.15
2022-01-07 01:33:44;1;121;121;121;121;121;121;121;121;121;121;
2022-01-07 01:33:44;2;119;119;119;119;119;119;119;119;119;119;
2022-01-07 01:33:44;3;32;32;32;32;32;32;32;32;32;32;
2022-01-07 01:33:44;4;128;128;128;128;128;128;128;128;128;128;
2022-01-07 01:33:44;5;126;125;125;125;126;125;125;125;125;125;
2022-01-07 01:33:44;ht;99;18.20
2022-01-07 01:33:44;v;4.15
2022-01-07 02:03:46;1;123;123;123;123;123;123;123;123;123;123;
2022-01-07 02:03:46;2;121;121;121;121;121;121;121;120;121;120;
2022-01-07 02:03:46;3;32;32;32;32;32;32;32;32;32;32;
2022-01-07 02:03:46;4;77;79;82;85;87;89;91;93;95;97;
2022-01-07 02:03:46;5;120;121;120;120;120;121;120;121;121;121;
2022-01-07 02:03:46;ht;99;16.60
2022-01-07 02:03:46;v;4.15
2022-01-07 02:33:47;1;121;121;121;121;121;121;121;121;121;121;
2022-01-07 02:33:47;2;119;119;119;119;119;119;119;119;119;119;
2022-01-07 02:33:47;3;32;32;32;32;32;31;32;32;32;31;
2022-01-07 02:33:47;4;134;133;133;133;133;133;133;133;133;133;
2022-01-07 02:33:47;5;124;124;123;124;124;124;124;124;124;123;
2022-01-07 02:33:47;ht;99;15.60
2022-01-07 02:33:47;v;4.15
2022-01-07 03:03:47;1;120;120;120;120;120;120;120;120;120;120;
2022-01-07 03:03:47;2;119;119;119;119;119;119;119;119;119;120;
2022-01-07 03:03:47;3;25;25;25;25;26;25;25;25;26;25;
2022-01-07 03:03:47;4;133;133;133;133;133;133;133;133;133;133;
2022-01-07 03:03:47;5;120;120;120;120;121;121;121;122;122;122;
2022-01-07 03:03:47;ht;99;14.80
2022-01-07 03:03:47;v;4.15
2022-01-07 03:33:43;1;123;123;123;123;123;123;123;123;123;123;
2022-01-07 03:33:43;2;120;120;120;120;120;120;120;120;120;120;
2022-01-07 03:33:43;3;28;28;28;29;28;28;28;28;29;28;
2022-01-07 03:33:43;4;132;132;132;132;132;132;132;132;132;132;
2022-01-07 03:33:43;5;125;125;125;125;125;125;125;125;125;125;
2022-01-07 03:33:43;ht;99;15.60
2022-01-07 03:33:43;v;4.15
2022-01-07 04:03:47;1;127;127;127;127;127;127;127;127;127;127;
2022-01-07 04:03:47;2;119;119;119;119;119;119;119;119;119;119;
2022-01-07 04:03:47;3;31;31;31;31;31;31;31;31;31;30;
2022-01-07 04:03:47;4;135;135;135;135;135;135;135;135;135;135;
2022-01-07 04:03:47;5;129;129;129;129;129;129;129;130;129;129;
2022-01-07 04:03:47;ht;99;15.30
2022-01-07 04:03:47;v;4.15
2022-01-07 04:33:47;1;124;124;124;124;124;124;124;124;124;124;
2022-01-07 04:33:47;2;123;123;123;123;123;123;123;123;123;123;
2022-01-07 04:33:47;3;31;31;31;31;31;31;31;31;31;31;
2022-01-07 04:33:47;4;133;133;133;133;133;133;133;133;133;133;
2022-01-07 04:33:47;5;107;106;107;106;106;106;106;106;107;106;
2022-01-07 04:33:47;ht;99;15.90
2022-01-07 04:33:47;v;4.14
2022-01-07 05:03:47;1;127;127;127;127;127;127;127;127;127;127;
2022-01-07 05:03:47;2;124;125;124;124;124;124;124;124;124;124;
2022-01-07 05:03:47;3;32;32;32;32;32;32;32;32;32;32;
2022-01-07 05:03:47;4;122;122;122;122;122;122;122;122;122;122;
2022-01-07 05:03:47;5;127;127;127;127;127;127;127;127;127;127;
2022-01-07 05:03:47;ht;99;17.40
2022-01-07 05:03:47;v;4.14
2022-01-07 05:33:43;1;127;127;127;127;127;127;127;127;127;127;
2022-01-07 05:33:43;2;126;126;126;127;127;127;127;127;126;126;
2022-01-07 05:33:43;3;32;32;32;31;32;31;32;32;32;31;
2022-01-07 05:33:43;4;121;121;121;121;121;121;121;121;121;121;
2022-01-07 05:33:43;5;128;129;129;129;129;128;129;129;129;129;
2022-01-07 05:33:43;ht;99;17.20
2022-01-07 05:33:43;v;4.15
2022-01-07 06:03:45;1;127;127;127;127;127;127;127;127;127;127;
2022-01-07 06:03:45;2;122;122;122;122;122;122;122;122;122;122;
2022-01-07 06:03:45;3;32;32;32;32;32;32;32;32;32;32;
2022-01-07 06:03:45;4;1;1;1;1;1;1;1;1;1;1;
2022-01-07 06:03:45;5;123;123;123;123;123;123;123;123;123;123;
2022-01-07 06:03:45;ht;99;17.10
2022-01-07 06:03:45;v;4.14
2022-01-07 06:33:46;1;121;121;121;121;121;121;121;121;121;121;
2022-01-07 06:33:46;2;2;1;2;1;1;2;1;2;2;2;
2022-01-07 06:33:46;3;32;32;32;32;32;32;32;32;32;32;
2022-01-07 06:33:46;4;120;120;120;119;120;120;119;119;119;119;
2022-01-07 06:33:46;5;2;1;1;1;1;1;1;2;2;1;
2022-01-07 06:33:46;ht;99;16.70
2022-01-07 06:33:46;v;4.14
2022-01-07 07:03:48;1;126;126;126;126;126;126;126;126;126;126;
2022-01-07 07:03:48;2;2;2;2;1;2;2;2;2;2;2;
2022-01-07 07:03:48;3;33;33;33;33;33;33;33;33;32;33;
2022-01-07 07:03:48;4;128;128;128;128;128;128;128;128;128;128;
2022-01-07 07:03:48;5;2;2;2;2;2;2;2;2;2;2;
2022-01-07 07:03:48;ht;99;18.70
2022-01-07 07:03:48;v;4.15
2022-01-07 07:33:47;1;123;123;123;123;123;123;123;123;123;123;
2022-01-07 07:33:47;2;119;119;119;119;119;119;119;119;119;119;
2022-01-07 07:33:47;3;32;32;32;32;32;32;32;32;32;32;
2022-01-07 07:33:47;4;117;117;117;117;117;117;117;117;117;116;
2022-01-07 07:33:47;5;1;1;1;1;1;1;1;1;1;1;
2022-01-07 07:33:47;ht;99;20.30
2022-01-07 07:33:47;v;4.14
2022-01-07 08:03:52;1;126;126;126;126;126;126;126;126;126;126;
2022-01-07 08:03:52;2;121;121;121;121;121;121;121;121;121;121;
2022-01-07 08:03:52;3;30;30;30;30;30;30;30;30;30;30;
2022-01-07 08:03:52;4;2;2;1;2;2;2;1;2;1;2;
2022-01-07 08:03:52;5;123;123;123;123;123;123;123;123;123;123;
2022-01-07 08:03:52;ht;99;21.90
2022-01-07 08:03:52;v;4.15
2022-01-07 08:33:49;1;122;121;121;121;121;121;121;122;122;122;
2022-01-07 08:33:49;2;123;123;123;123;123;123;123;123;123;123;
2022-01-07 08:33:49;3;30;30;30;30;30;30;30;30;30;30;
2022-01-07 08:33:49;4;120;120;121;121;121;121;121;121;120;121;
2022-01-07 08:33:49;5;108;108;108;108;108;108;108;108;108;108;
2022-01-07 08:33:49;ht;99;23.60
2022-01-07 08:33:49;v;4.15
2022-01-07 09:03:52;1;121;121;121;121;121;121;121;121;121;121;
2022-01-07 09:03:52;2;125;125;125;125;125;125;125;125;125;125;
2022-01-07 09:03:52;3;1;1;1;1;1;1;1;1;1;1;
2022-01-07 09:03:52;4;121;121;122;122;122;122;122;122;122;122;
2022-01-07 09:03:52;5;1;1;1;1;1;1;2;1;1;2;
2022-01-07 09:03:52;ht;97;25.20
2022-01-07 09:03:52;v;4.15
2022-01-07 09:33:53;1;120;120;120;120;120;120;120;120;120;120;
2022-01-07 09:33:53;2;119;119;119;119;119;119;119;119;119;119;
2022-01-07 09:33:53;3;119;119;119;119;119;119;119;119;119;119;
2022-01-07 09:33:53;4;122;123;123;123;123;123;124;124;124;124;
2022-01-07 09:33:53;5;1;1;1;1;1;1;1;1;1;1;
2022-01-07 09:33:53;ht;95;26.20
2022-01-07 09:33:53;v;4.15
2022-01-07 10:03:54;1;117;117;117;117;117;117;117;117;117;117;
2022-01-07 10:03:54;2;116;116;116;116;116;116;116;116;116;116;
2022-01-07 10:03:54;3;120;120;120;120;120;120;120;120;119;120;
2022-01-07 10:03:54;4;122;121;121;121;121;121;121;121;121;121;
2022-01-07 10:03:54;5;122;122;123;122;122;122;122;122;122;122;
2022-01-07 10:03:54;ht;92;27.50
2022-01-07 10:03:54;v;4.15
2022-01-07 10:33:57;1;120;120;120;120;120;120;120;120;120;120;
2022-01-07 10:33:57;2;118;118;118;118;118;118;118;118;118;118;
2022-01-07 10:33:57;3;119;118;119;118;118;119;119;118;118;118;
2022-01-07 10:33:57;4;118;119;118;118;118;119;118;118;119;118;
2022-01-07 10:33:57;5;1;1;1;1;1;2;2;2;2;2;
2022-01-07 10:33:57;ht;90;29.00
2022-01-07 10:33:57;v;4.16
2022-01-07 11:03:56;1;118;118;118;118;118;118;118;118;118;118;
2022-01-07 11:03:56;2;121;121;121;121;121;121;121;121;121;121;
2022-01-07 11:03:56;3;119;118;119;119;119;119;119;119;119;118;
2022-01-07 11:03:56;4;124;124;124;124;124;124;124;124;124;124;
2022-01-07 11:03:56;5;1;1;1;1;1;1;1;2;1;1;
2022-01-07 11:03:56;ht;83;29.90
2022-01-07 11:03:56;v;4.16
2022-01-07 11:33:57;1;120;120;120;120;120;120;120;120;120;120;
2022-01-07 11:33:57;2;121;121;121;121;121;121;121;121;121;121;
2022-01-07 11:33:57;3;119;119;119;119;119;119;119;119;119;120;
2022-01-07 11:33:57;4;121;120;121;120;121;120;120;120;120;121;
2022-01-07 11:33:57;5;2;1;1;1;1;1;1;1;1;1;
2022-01-07 11:33:57;ht;81;31.20
2022-01-07 11:33:57;v;4.16
2022-01-07 12:03:59;1;122;122;122;122;122;122;122;122;122;122;
2022-01-07 12:03:59;2;2;2;2;2;2;2;2;2;2;2;
2022-01-07 12:03:59;3;119;119;119;119;119;119;119;119;119;119;
2022-01-07 12:03:59;4;122;122;122;122;122;122;122;122;122;122;
2022-01-07 12:03:59;5;2;2;2;2;2;2;2;2;2;2;
2022-01-07 12:03:59;ht;74;31.10
2022-01-07 12:03:59;v;4.16
2022-01-07 12:34:01;1;121;121;121;121;121;121;121;121;121;121;
2022-01-07 12:34:01;2;123;123;122;123;123;123;123;123;123;123;
2022-01-07 12:34:01;3;122;122;121;122;122;122;121;121;121;121;
2022-01-07 12:34:01;4;123;123;124;123;123;123;123;123;123;124;
2022-01-07 12:34:01;5;1;1;1;1;1;1;1;1;1;1;
2022-01-07 12:34:01;ht;70;31.90
2022-01-07 12:34:01;v;4.16
2022-01-07 13:04:00;1;127;127;127;127;127;127;127;127;127;127;
2022-01-07 13:04:00;2;122;122;122;122;122;122;122;122;122;122;
2022-01-07 13:04:00;3;121;121;121;121;121;121;121;121;121;121;
2022-01-07 13:04:00;4;116;116;117;116;116;116;117;117;116;116;
2022-01-07 13:04:00;5;1;1;1;1;1;1;1;1;1;1;
2022-01-07 13:04:00;ht;69;32.60
2022-01-07 13:04:00;v;4.16
2022-01-07 13:33:59;1;122;122;122;122;122;122;122;122;122;122;
2022-01-07 13:33:59;2;123;123;123;123;123;123;123;123;123;123;
2022-01-07 13:33:59;3;1;1;1;1;1;1;1;1;1;1;
2022-01-07 13:33:59;4;121;121;121;121;121;121;121;121;121;121;
2022-01-07 13:33:59;5;2;2;2;2;2;2;2;2;2;2;
2022-01-07 13:33:59;ht;63;33.10
2022-01-07 13:33:59;v;4.16
2022-01-07 14:03:59;1;122;122;122;122;122;122;122;122;122;122;
2022-01-07 14:03:59;2;124;124;124;124;124;124;124;124;124;124;
2022-01-07 14:03:59;3;119;119;118;119;119;119;118;119;119;119;
2022-01-07 14:03:59;4;120;120;120;120;120;120;120;120;120;120;
2022-01-07 14:03:59;5;124;124;124;124;124;124;124;124;124;124;
2022-01-07 14:03:59;ht;64;33.00
2022-01-07 14:03:59;v;4.16
2022-01-07 14:34:03;1;122;122;122;122;122;122;122;122;122;122;
2022-01-07 14:34:03;2;119;119;119;119;119;119;119;119;119;119;
2022-01-07 14:34:03;3;120;120;120;120;120;120;120;120;120;119;
2022-01-07 14:34:03;4;118;118;118;119;118;119;119;118;119;118;
2022-01-07 14:34:03;5;1;1;1;1;1;1;1;1;1;1;
2022-01-07 14:34:03;ht;61;33.90
2022-01-07 14:34:03;v;4.16
2022-01-07 15:04:03;1;122;122;122;121;121;121;122;121;121;121;
2022-01-07 15:04:03;2;117;117;117;117;117;117;117;117;117;117;
2022-01-07 15:04:03;3;119;119;119;119;119;119;119;119;119;118;
2022-01-07 15:04:03;4;2;1;1;1;1;2;2;1;1;1;
2022-01-07 15:04:03;5;1;1;1;1;1;1;1;1;1;1;
2022-01-07 15:04:03;ht;64;33.50
2022-01-07 15:04:03;v;4.16
2022-01-07 15:33:59;1;123;122;122;122;122;123;122;123;122;122;
2022-01-07 15:33:59;2;117;117;117;117;117;117;117;117;117;117;
2022-01-07 15:33:59;3;113;113;113;113;113;113;113;113;113;113;
2022-01-07 15:33:59;4;120;120;120;120;120;120;120;120;120;120;
2022-01-07 15:33:59;5;1;1;1;1;1;2;2;2;2;2;
2022-01-07 15:33:59;ht;61;34.20
2022-01-07 15:33:59;v;4.17
2022-01-07 16:04:04;1;120;120;120;120;120;120;120;120;120;120;
2022-01-07 16:04:04;2;126;126;126;126;126;126;126;126;126;126;
2022-01-07 16:04:04;3;118;118;118;118;118;118;118;118;118;118;
2022-01-07 16:04:04;4;120;120;120;120;120;120;120;120;120;119;
2022-01-07 16:04:04;5;1;2;1;2;1;2;1;1;1;1;
2022-01-07 16:04:04;ht;56;34.20
2022-01-07 16:04:04;v;4.16
2022-01-07 16:33:59;1;124;124;124;124;124;124;124;124;124;124;
2022-01-07 16:33:59;2;119;119;119;119;119;119;119;119;119;119;
2022-01-07 16:33:59;3;117;117;117;117;117;117;117;117;116;116;
2022-01-07 16:33:59;4;122;122;122;122;122;122;123;122;122;122;
2022-01-07 16:33:59;5;1;1;1;1;1;1;1;1;1;1;
2022-01-07 16:33:59;ht;59;34.10
2022-01-07 16:33:59;v;4.16
2022-01-07 17:04:00;1;123;123;123;123;123;123;123;123;123;123;
2022-01-07 17:04:00;2;119;119;119;119;119;119;119;119;119;119;
2022-01-07 17:04:00;3;118;118;118;118;118;119;118;118;118;118;
2022-01-07 17:04:00;4;118;118;118;118;118;118;118;118;118;118;
2022-01-07 17:04:00;5;2;2;2;2;2;1;2;2;2;2;
2022-01-07 17:04:00;ht;61;34.10
2022-01-07 17:04:00;v;4.17
2022-01-07 17:33:59;1;121;121;121;121;121;121;121;121;121;121;
2022-01-07 17:33:59;2;118;118;118;118;118;118;118;118;118;118;
2022-01-07 17:33:59;3;117;117;117;117;117;117;117;117;117;117;
2022-01-07 17:33:59;4;2;2;2;2;2;1;1;1;1;1;
2022-01-07 17:33:59;5;1;1;1;1;1;1;1;1;1;1;
2022-01-07 17:33:59;ht;62;34.10
2022-01-07 17:33:59;v;4.17
2022-01-07 18:03:58;1;121;121;121;121;121;121;121;122;121;121;
2022-01-07 18:03:58;2;121;121;121;121;121;121;121;121;121;121;
2022-01-07 18:03:58;3;118;118;118;118;118;118;118;117;118;117;
2022-01-07 18:03:58;4;131;131;131;131;131;131;131;131;131;131;
2022-01-07 18:03:58;5;2;1;1;2;1;1;1;1;1;1;
2022-01-07 18:03:58;ht;59;33.40
2022-01-07 18:03:58;v;4.17
2022-01-07 18:34:00;1;123;123;123;123;123;123;124;124;124;124;
2022-01-07 18:34:00;2;138;138;138;138;138;138;138;138;138;138;
2022-01-07 18:34:00;3;122;122;122;122;122;122;122;122;122;122;
2022-01-07 18:34:00;4;123;123;123;123;123;123;123;123;123;123;
2022-01-07 18:34:00;5;2;1;2;2;2;2;2;2;2;2;
2022-01-07 18:34:00;ht;64;31.90
2022-01-07 18:34:00;v;4.17
2022-01-07 19:03:56;1;124;124;124;124;124;124;124;124;124;124;
2022-01-07 19:03:56;2;2;2;2;2;2;2;2;2;2;2;
2022-01-07 19:03:56;3;118;118;118;118;118;117;118;118;117;118;
2022-01-07 19:03:56;4;124;122;122;122;122;122;122;122;122;122;
2022-01-07 19:03:56;5;1;1;1;1;1;1;1;1;1;2;
2022-01-07 19:03:56;ht;72;31.30
2022-01-07 19:03:56;v;4.17
2022-01-07 19:33:56;1;124;124;124;124;124;124;124;124;124;124;
2022-01-07 19:33:56;2;131;131;131;131;130;130;130;130;130;131;
2022-01-07 19:33:56;3;1;1;1;1;1;1;1;1;1;1;
2022-01-07 19:33:56;4;121;121;121;120;120;121;121;120;121;120;
2022-01-07 19:33:56;5;1;1;1;1;1;1;1;1;1;1;
2022-01-07 19:33:56;ht;74;30.30
2022-01-07 19:33:56;v;4.17
2022-01-07 20:03:55;1;124;124;124;124;124;124;124;124;124;124;
2022-01-07 20:03:55;2;117;117;117;117;117;117;117;117;117;117;
2022-01-07 20:03:55;3;32;32;31;32;32;31;31;32;32;31;
2022-01-07 20:03:55;4;123;123;123;123;123;123;123;123;123;123;
2022-01-07 20:03:55;5;2;2;2;2;2;2;2;2;2;2;
2022-01-07 20:03:55;ht;85;26.60
2022-01-07 20:03:55;v;4.17
2022-01-07 20:33:56;1;122;122;122;122;122;122;122;122;122;122;
2022-01-07 20:33:56;2;122;122;122;122;122;122;122;122;122;122;
2022-01-07 20:33:56;3;26;26;25;25;26;25;25;25;26;25;
2022-01-07 20:33:56;4;134;134;134;134;134;134;134;134;134;134;
2022-01-07 20:33:56;5;118;118;118;118;118;118;118;118;118;118;
2022-01-07 20:33:56;ht;87;25.60
2022-01-07 20:33:56;v;4.16
2022-01-07 21:03:50;1;122;122;122;122;122;122;122;122;122;122;
2022-01-07 21:03:50;2;118;118;118;118;118;118;118;118;118;118;
2022-01-07 21:03:50;3;35;35;35;35;35;35;35;35;34;34;
2022-01-07 21:03:50;4;122;122;122;122;122;122;122;121;122;122;
2022-01-07 21:03:50;5;126;126;126;126;126;126;126;126;126;126;
2022-01-07 21:03:50;ht;94;24.10
2022-01-07 21:03:50;v;4.16
2022-01-07 21:33:53;1;120;120;120;120;120;120;120;120;120;120;
2022-01-07 21:33:53;2;117;117;117;117;117;117;117;117;117;117;
2022-01-07 21:33:53;3;35;35;35;35;35;35;35;35;35;35;
2022-01-07 21:33:53;4;120;120;121;120;120;120;120;120;120;120;
2022-01-07 21:33:53;5;124;124;124;124;124;123;123;124;124;123;
2022-01-07 21:33:53;ht;95;24.20
2022-01-07 21:33:53;v;4.16
2022-01-07 22:03:51;1;123;123;123;123;123;123;123;123;123;123;
2022-01-07 22:03:51;2;120;120;120;120;120;120;120;120;120;120;
2022-01-07 22:03:51;3;33;33;33;33;32;33;33;33;33;33;
2022-01-07 22:03:51;4;121;121;121;121;121;122;121;121;121;121;
2022-01-07 22:03:51;5;123;123;123;123;123;123;123;123;123;123;
2022-01-07 22:03:51;ht;96;24.10
2022-01-07 22:03:51;v;4.17
2022-01-07 22:33:53;1;117;117;117;117;117;117;117;117;117;117;
2022-01-07 22:33:53;2;124;123;124;124;123;123;124;124;124;124;
2022-01-07 22:33:53;3;33;33;33;33;33;33;33;33;33;33;
2022-01-07 22:33:53;4;1;2;1;2;2;2;1;2;2;1;
2022-01-07 22:33:53;5;1;1;1;2;1;1;1;1;1;2;
2022-01-07 22:33:53;ht;98;23.40
2022-01-07 22:33:53;v;4.16
2022-01-07 23:03:50;1;125;125;125;125;125;125;125;125;125;125;
2022-01-07 23:03:50;2;120;120;120;120;120;120;120;120;120;120;
2022-01-07 23:03:50;3;33;33;33;33;33;33;33;33;33;33;
2022-01-07 23:03:50;4;121;121;121;121;121;121;121;121;121;121;
2022-01-07 23:03:50;5;126;127;126;127;127;127;127;126;126;126;
2022-01-07 23:03:50;ht;99;23.20
2022-01-07 23:03:50;v;4.16
2022-01-07 23:33:51;1;123;123;123;123;123;123;123;123;123;123;
2022-01-07 23:33:51;2;126;126;126;126;126;126;126;126;126;126;
2022-01-07 23:33:51;3;34;34;34;34;34;33;34;34;34;34;
2022-01-07 23:33:51;4;121;121;121;121;121;121;121;121;121;121;
2022-01-07 23:33:51;5;126;126;126;126;126;126;126;126;125;126;
2022-01-07 23:33:51;ht;99;22.40
2022-01-07 23:33:51;v;4.16
