fecha_hora;mmca
2021-07-29 17:50;50
2021-07-29 17:55;50
2021-07-29 18:00;51
2021-07-29 18:05;47
2021-07-29 18:10;52
2021-07-29 18:15;52
2021-07-29 18:20;52
2021-07-29 18:25;51
2021-07-29 18:30;255
2021-07-29 18:35;4095
2021-07-29 18:40;4095
2021-07-29 18:45;4095
2021-07-29 18:50;4095
2021-07-29 18:55;4095
2021-07-29 19:00;4095
2021-07-29 19:05;4095
2021-07-29 19:10;4095
2021-07-29 19:15;4095
2021-07-29 19:20;4095
2021-07-29 19:25;4095
2021-07-29 19:30;4095
2021-07-29 19:35;4095
2021-07-29 19:40;4095
2021-07-29 19:45;3992
2021-07-29 19:50;3870
2021-07-29 19:55;3751
2021-07-29 20:00;3636
2021-07-29 20:05;3526
2021-07-29 20:10;3420
2021-07-29 20:15;3319
2021-07-29 20:20;3221
2021-07-29 20:25;3126
2021-07-29 20:30;3035
2021-07-29 20:35;2946
2021-07-29 20:40;2861
2021-07-29 20:45;2779
2021-07-29 20:50;2700
2021-07-29 20:55;2621
2021-07-29 21:00;2547
2021-07-29 21:05;2475
2021-07-29 21:10;2406
2021-07-29 21:15;2340
2021-07-29 21:20;2276
2021-07-29 21:25;2214
2021-07-29 21:30;2154
2021-07-29 21:35;2095
2021-07-29 21:40;2039
2021-07-29 21:45;1984
2021-07-29 21:50;1930
2021-07-29 21:55;1879
2021-07-29 22:00;1830
2021-07-29 22:05;1781
2021-07-29 22:10;1735
2021-07-29 22:15;1690
2021-07-29 22:20;1647
2021-07-29 22:25;1604
2021-07-29 22:30;1562
2021-07-29 22:35;1522
2021-07-29 22:40;1483
2021-07-29 22:45;1444
2021-07-29 22:50;1407
2021-07-29 22:55;1371
2021-07-29 23:00;1336
2021-07-29 23:05;1301
2021-07-29 23:10;1268
2021-07-29 23:15;1236
2021-07-29 23:20;1204
2021-07-29 23:25;1173
2021-07-29 23:30;1144
2021-07-29 23:35;1116
2021-07-29 23:40;1089
2021-07-29 23:45;1062
2021-07-29 23:50;1036
2021-07-29 23:55;1011
2021-07-30 00:00;986
2021-07-30 00:05;962
2021-07-30 00:10;939
2021-07-30 00:15;916
2021-07-30 00:20;894
2021-07-30 00:25;872
2021-07-30 00:30;851
2021-07-30 00:35;830
2021-07-30 00:40;810
2021-07-30 00:45;790
2021-07-30 00:50;771
2021-07-30 00:55;752
2021-07-30 01:00;734
2021-07-30 01:05;716
2021-07-30 01:10;699
2021-07-30 01:15;681
2021-07-30 01:20;666
2021-07-30 01:25;649
2021-07-30 01:30;632
2021-07-30 01:35;616
2021-07-30 01:40;600
2021-07-30 01:45;584
2021-07-30 01:50;569
2021-07-30 01:55;554
2021-07-30 02:00;540
2021-07-30 02:05;526
2021-07-30 02:10;513
2021-07-30 02:15;499
2021-07-30 02:20;486
2021-07-30 02:25;473
2021-07-30 02:30;460
2021-07-30 02:35;448
2021-07-30 02:40;436
2021-07-30 02:45;424
2021-07-30 02:50;413
2021-07-30 02:55;402
2021-07-30 03:00;391
2021-07-30 03:05;380
2021-07-30 03:10;370
2021-07-30 03:15;359
2021-07-30 03:20;350
2021-07-30 03:25;340
2021-07-30 03:30;330
2021-07-30 03:35;320
2021-07-30 03:40;311
2021-07-30 03:45;301
2021-07-30 03:50;292
2021-07-30 03:55;283
2021-07-30 04:00;274
2021-07-30 04:05;266
2021-07-30 04:10;258
2021-07-30 04:15;249
2021-07-30 04:20;241
2021-07-30 04:25;234
2021-07-30 04:30;226
2021-07-30 04:35;218
2021-07-30 04:40;210
2021-07-30 04:45;203
2021-07-30 04:50;197
2021-07-30 04:55;190
2021-07-30 05:00;183
2021-07-30 05:05;176
2021-07-30 05:10;169
2021-07-30 05:15;162
2021-07-30 05:20;155
2021-07-30 05:25;148
2021-07-30 05:30;140
2021-07-30 05:35;132
2021-07-30 05:40;125
2021-07-30 05:45;118
2021-07-30 05:50;111
2021-07-30 05:55;104
2021-07-30 06:00;97
2021-07-30 06:05;90
2021-07-30 06:10;84
2021-07-30 06:15;77
2021-07-30 06:20;71
2021-07-30 06:25;65
2021-07-30 06:30;60
2021-07-30 06:35;54
2021-07-30 06:40;52
2021-07-30 06:45;52
2021-07-30 06:50;52
2021-07-30 06:55;52
2021-07-30 07:00;52
2021-07-30 07:05;52
2021-07-30 07:10;52
2021-07-30 07:15;52
2021-07-30 07:20;52
2021-07-30 07:25;52
2021-07-30 07:30;52
2021-07-30 07:35;52
2021-07-30 07:40;52
2021-07-30 07:45;52
2021-07-30 07:50;52
2021-07-30 07:55;52
2021-07-30 08:00;52
2021-07-30 08:05;52
2021-07-30 08:10;52
2021-07-30 08:15;52
2021-07-30 08:20;52
2021-07-30 08:25;52
2021-07-30 08:30;52
2021-07-30 08:35;52
2021-07-30 08:40;52
2021-07-30 08:45;52
2021-07-30 08:50;52
2021-07-30 08:55;52
2021-07-30 09:00;52
2021-07-30 09:05;52
2021-07-30 09:10;52
2021-07-30 09:15;52
2021-07-30 09:20;52
2021-07-30 09:25;52
2021-07-30 09:30;52
2021-07-30 09:35;52
2021-07-30 09:40;52
2021-07-30 09:45;52
2021-07-30 09:50;52
2021-07-30 09:55;52
2021-07-30 10:00;52
2021-07-30 10:05;52
2021-07-30 10:10;52
2021-07-30 10:15;52
2021-07-30 10:20;52
2021-07-30 10:25;52
2021-07-30 10:30;52
2021-07-30 10:35;52
2021-07-30 10:40;52
2021-07-30 10:45;52
2021-07-30 10:50;52
2021-07-30 10:55;52
2021-07-30 11:00;52
2021-07-30 11:05;52
2021-07-30 11:10;52
2021-07-30 11:15;52
2021-07-30 11:20;52
2021-07-30 11:25;52
2021-07-30 11:30;52
2021-07-30 11:35;52
2021-07-30 11:40;52
2021-07-30 11:45;52
2021-07-30 11:50;52
2021-07-30 11:55;52
2021-07-30 12:00;52
2021-07-30 12:05;52
2021-07-30 12:10;52
2021-07-30 12:15;52
2021-07-30 12:20;52
2021-07-30 12:25;52
2021-07-30 12:30;52
2021-07-30 12:35;52
2021-07-30 12:40;52
2021-07-30 12:45;52
2021-07-30 12:50;52
2021-07-30 12:55;52
2021-07-30 13:00;52
2021-07-30 13:05;52
2021-07-30 13:10;52
2021-07-30 13:15;52
2021-07-30 13:20;52
2021-07-30 13:25;52
2021-07-30 13:30;52
2021-07-30 13:35;52
2021-07-30 13:40;52
2021-07-30 13:45;52
2021-07-30 13:50;52
2021-07-30 13:55;52
2021-07-30 14:00;52
2021-07-30 14:05;52
2021-07-30 14:10;52
2021-07-30 14:15;52
2021-07-30 14:20;52
2021-07-30 14:25;52
2021-07-30 14:30;52
2021-07-30 14:35;52
2021-07-30 14:40;52
2021-07-30 14:45;52
2021-07-30 14:50;52
2021-07-30 14:55;52
2021-07-30 15:00;52
2021-07-30 15:05;52
2021-07-30 15:10;52
2021-07-30 15:15;52
2021-07-30 15:20;52
2021-07-30 15:25;52
2021-07-30 15:30;52
2021-07-30 15:35;52
2021-07-30 15:40;52
2021-07-30 15:45;52
2021-07-30 15:50;52
2021-07-30 15:55;52
2021-07-30 16:00;52
2021-07-30 16:05;52
2021-07-30 16:10;52
2021-07-30 16:15;52
2021-07-30 16:20;52
2021-07-30 16:25;52
2021-07-30 16:30;52
2021-07-30 16:35;52
2021-07-30 16:40;52
2021-07-30 16:45;52
2021-07-30 16:50;52
2021-07-30 16:55;52
2021-07-30 17:00;52
2021-07-30 17:05;52
2021-07-30 17:10;52
2021-07-30 17:15;52
2021-07-30 17:20;52
2021-07-30 17:25;52
2021-07-30 17:30;53
2021-07-30 17:35;52
2021-07-30 17:40;52
2021-07-30 17:45;52
2021-07-30 17:50;52
2021-07-30 17:55;52
2021-07-30 18:00;52
2021-07-30 18:05;53
2021-07-30 18:10;52
2021-07-30 18:15;52
2021-07-30 18:20;52
2021-07-30 18:25;52
2021-07-30 18:30;52
2021-07-30 18:35;52
2021-07-30 18:40;52
2021-07-30 18:45;52
2021-07-30 18:50;52
2021-07-30 18:55;52
2021-07-30 19:00;52
2021-07-30 19:05;52
2021-07-30 19:10;52
2021-07-30 19:15;52
2021-07-30 19:20;52
2021-07-30 19:25;52
2021-07-30 19:30;52
2021-07-30 19:35;52
2021-07-30 19:40;52
2021-07-30 19:45;52
2021-07-30 19:50;52
2021-07-30 19:55;52
2021-07-30 20:00;52
2021-07-30 20:05;52
2021-07-30 20:10;52
2021-07-30 20:15;52
2021-07-30 20:20;52
2021-07-30 20:25;52
2021-07-30 20:30;52
2021-07-30 20:35;52
2021-07-30 20:40;52
2021-07-30 20:45;52
2021-07-30 20:50;52
2021-07-30 20:55;52
2021-07-30 21:00;52
2021-07-30 21:05;52
2021-07-30 21:10;52
2021-07-30 21:15;52
2021-07-30 21:20;52
2021-07-30 21:25;52
2021-07-30 21:30;52
2021-07-30 21:35;52
2021-07-30 21:40;52
2021-07-30 21:45;52
2021-07-30 21:50;52
2021-07-30 21:55;52
2021-07-30 22:00;52
2021-07-30 22:05;52
2021-07-30 22:10;52
2021-07-30 22:15;52
2021-07-30 22:20;52
2021-07-30 22:25;52
2021-07-30 22:30;52
2021-07-30 22:35;52
2021-07-30 22:40;52
2021-07-30 22:45;52
2021-07-30 22:50;52
2021-07-30 22:55;52
2021-07-30 23:00;52
2021-07-30 23:05;52
2021-07-30 23:10;52
2021-07-30 23:15;52
2021-07-30 23:20;52
2021-07-30 23:25;52
2021-07-30 23:30;52
2021-07-30 23:35;52
2021-07-30 23:40;52
2021-07-30 23:45;52
2021-07-30 23:50;52
2021-07-30 23:55;52
2021-07-31 00:00;52
2021-07-31 00:05;52
2021-07-31 00:10;52
2021-07-31 00:15;52
2021-07-31 00:20;52
2021-07-31 00:25;52
2021-07-31 00:30;52
2021-07-31 00:35;52
2021-07-31 00:40;52
2021-07-31 00:45;52
2021-07-31 00:50;52
2021-07-31 00:55;52
2021-07-31 01:00;52
2021-07-31 01:05;52
2021-07-31 01:10;52
2021-07-31 01:15;52
2021-07-31 01:20;52
2021-07-31 01:25;53
2021-07-31 01:30;52
2021-07-31 01:35;52
2021-07-31 01:40;52
2021-07-31 01:45;52
2021-07-31 01:50;52
2021-07-31 01:55;52
2021-07-31 02:00;52
2021-07-31 02:05;52
2021-07-31 02:10;52
2021-07-31 02:15;52
2021-07-31 02:20;52
2021-07-31 02:25;53
2021-07-31 02:30;52
2021-07-31 02:35;52
2021-07-31 02:40;52
2021-07-31 02:45;52
2021-07-31 02:50;52
2021-07-31 02:55;52
2021-07-31 03:00;52
2021-07-31 03:05;52
2021-07-31 03:10;52
2021-07-31 03:15;52
2021-07-31 03:20;52
2021-07-31 03:25;53
2021-07-31 03:30;52
2021-07-31 03:35;52
2021-07-31 03:40;52
2021-07-31 03:45;52
2021-07-31 03:50;52
2021-07-31 03:55;52
2021-07-31 04:00;52
2021-07-31 04:05;52
2021-07-31 04:10;52
2021-07-31 04:15;52
2021-07-31 04:20;52
2021-07-31 04:25;52
2021-07-31 04:30;52
2021-07-31 04:35;52
2021-07-31 04:40;52
2021-07-31 04:45;52
2021-07-31 04:50;52
2021-07-31 04:55;52
2021-07-31 05:00;52
2021-07-31 05:05;52
2021-07-31 05:10;52
2021-07-31 05:15;52
2021-07-31 05:20;52
2021-07-31 05:25;53
2021-07-31 05:30;52
2021-07-31 05:35;53
2021-07-31 05:40;52
2021-07-31 05:45;52
2021-07-31 05:50;52
2021-07-31 05:55;53
2021-07-31 06:00;52
2021-07-31 06:05;52
2021-07-31 06:10;52
2021-07-31 06:15;52
2021-07-31 06:20;52
2021-07-31 06:25;52
2021-07-31 06:30;52
2021-07-31 06:35;52
2021-07-31 06:40;52
2021-07-31 06:45;52
2021-07-31 06:50;52
2021-07-31 06:55;52
2021-07-31 07:00;52
2021-07-31 07:05;52
2021-07-31 07:10;52
2021-07-31 07:15;52
2021-07-31 07:20;52
2021-07-31 07:25;52
2021-07-31 07:30;52
2021-07-31 07:35;53
2021-07-31 07:40;53
2021-07-31 07:45;52
2021-07-31 07:50;52
2021-07-31 07:55;52
2021-07-31 08:00;52
2021-07-31 08:05;52
2021-07-31 08:10;52
2021-07-31 08:15;52
2021-07-31 08:20;52
2021-07-31 08:25;52
2021-07-31 08:30;52
2021-07-31 08:35;52
2021-07-31 08:40;52
2021-07-31 08:45;53
2021-07-31 08:50;53
2021-07-31 08:55;53
2021-07-31 09:00;52
2021-07-31 09:05;52
2021-07-31 09:10;52
2021-07-31 09:15;52
2021-07-31 09:20;52
2021-07-31 09:25;53
2021-07-31 09:30;52
2021-07-31 09:35;52
2021-07-31 09:40;52
2021-07-31 09:45;52
2021-07-31 09:50;52
2021-07-31 09:55;52
2021-07-31 10:00;52
2021-07-31 10:05;52
2021-07-31 10:10;52
2021-07-31 10:15;52
2021-07-31 10:20;52
2021-07-31 10:25;52
2021-07-31 10:30;52
2021-07-31 10:35;52
2021-07-31 10:40;52
2021-07-31 10:45;52
2021-07-31 10:50;52
2021-07-31 10:55;52
2021-07-31 11:00;52
2021-07-31 11:05;52
2021-07-31 11:10;52
2021-07-31 11:15;52
2021-07-31 11:20;52
2021-07-31 11:25;52
2021-07-31 11:30;52
2021-07-31 11:35;52
2021-07-31 11:40;52
2021-07-31 11:45;52
2021-07-31 11:50;52
2021-07-31 11:55;52
2021-07-31 12:00;52
2021-07-31 12:05;52
2021-07-31 12:10;52
2021-07-31 12:15;52
2021-07-31 12:20;52
2021-07-31 12:25;52
2021-07-31 12:30;52
2021-07-31 12:35;52
2021-07-31 12:40;52
2021-07-31 12:45;52
2021-07-31 12:50;52
2021-07-31 12:55;52
2021-07-31 13:00;52
2021-07-31 13:05;52
2021-07-31 13:10;52
2021-07-31 13:15;52
2021-07-31 13:20;52
2021-07-31 13:25;52
2021-07-31 13:30;52
2021-07-31 13:35;52
2021-07-31 13:40;52
2021-07-31 13:45;52
2021-07-31 13:50;52
2021-07-31 13:55;52
2021-07-31 14:00;52
2021-07-31 14:05;52
2021-07-31 14:10;52
2021-07-31 14:15;52
2021-07-31 14:20;52
2021-07-31 14:25;52
2021-07-31 14:30;52
2021-07-31 14:35;52
2021-07-31 14:40;52
2021-07-31 14:45;52
2021-07-31 14:50;52
2021-07-31 14:55;52
2021-07-31 15:00;52
2021-07-31 15:05;52
2021-07-31 15:10;52
2021-07-31 15:15;52
2021-07-31 15:20;52
2021-07-31 15:25;52
2021-07-31 15:30;52
2021-07-31 15:35;52
2021-07-31 15:40;52
2021-07-31 15:45;52
2021-07-31 15:50;52
2021-07-31 15:55;52
2021-07-31 16:00;52
2021-07-31 16:05;52
2021-07-31 16:10;52
2021-07-31 16:15;52
2021-07-31 16:20;52
2021-07-31 16:25;52
2021-07-31 16:30;52
2021-07-31 16:35;52
2021-07-31 16:40;52
2021-07-31 16:45;52
2021-07-31 16:50;52
2021-07-31 16:55;52
2021-07-31 17:00;52
2021-07-31 17:05;52
2021-07-31 17:10;52
2021-07-31 17:15;52
2021-07-31 17:20;52
2021-07-31 17:25;52
2021-07-31 17:30;52
2021-07-31 17:35;52
2021-07-31 17:40;52
2021-07-31 17:45;52
2021-07-31 17:50;52
2021-07-31 17:55;52
2021-07-31 18:00;52
2021-07-31 18:05;52
2021-07-31 18:10;52
2021-07-31 18:15;52
2021-07-31 18:20;52
2021-07-31 18:25;52
2021-07-31 18:30;52
2021-07-31 18:35;52
2021-07-31 18:40;52
2021-07-31 18:45;52
2021-07-31 18:50;52
2021-07-31 18:55;52
2021-07-31 19:00;52
2021-07-31 19:05;52
2021-07-31 19:10;52
2021-07-31 19:15;52
2021-07-31 19:20;52
2021-07-31 19:25;52
2021-07-31 19:30;52
2021-07-31 19:35;52
2021-07-31 19:40;52
2021-07-31 19:45;52
2021-07-31 19:50;52
2021-07-31 19:55;52
2021-07-31 20:00;52
2021-07-31 20:05;52
2021-07-31 20:10;52
2021-07-31 20:15;52
2021-07-31 20:20;52
2021-07-31 20:25;52
2021-07-31 20:30;52
2021-07-31 20:35;52
2021-07-31 20:40;52
2021-07-31 20:45;52
2021-07-31 20:50;52
2021-07-31 20:55;52
2021-07-31 21:00;52
2021-07-31 21:05;52
2021-07-31 21:10;52
2021-07-31 21:15;52
2021-07-31 21:20;52
2021-07-31 21:25;53
2021-07-31 21:30;52
2021-07-31 21:35;53
2021-07-31 21:40;52
2021-07-31 21:45;52
2021-07-31 21:50;52
2021-07-31 21:55;52
2021-07-31 22:00;52
2021-07-31 22:05;52
2021-07-31 22:10;52
2021-07-31 22:15;52
2021-07-31 22:20;52
2021-07-31 22:25;52
2021-07-31 22:30;52
2021-07-31 22:35;53
2021-07-31 22:40;52
2021-07-31 22:45;53
2021-07-31 22:50;52
2021-07-31 22:55;52
2021-07-31 23:00;52
2021-07-31 23:05;53
2021-07-31 23:10;52
2021-07-31 23:15;52
2021-07-31 23:20;52
2021-07-31 23:25;52
2021-07-31 23:30;52
2021-07-31 23:35;52
2021-07-31 23:40;52
2021-07-31 23:45;52
2021-07-31 23:50;52
2021-07-31 23:55;53
2021-08-01 00:00;52
2021-08-01 00:05;52
2021-08-01 00:10;52
2021-08-01 00:15;52
2021-08-01 00:20;52
2021-08-01 00:25;53
2021-08-01 00:30;53
2021-08-01 00:35;53
2021-08-01 00:40;52
2021-08-01 00:45;52
2021-08-01 00:50;52
2021-08-01 00:55;52
2021-08-01 01:00;52
2021-08-01 01:05;53
2021-08-01 01:10;53
2021-08-01 01:15;53
2021-08-01 01:20;52
2021-08-01 01:25;52
2021-08-01 01:30;52
2021-08-01 01:35;52
2021-08-01 01:40;52
2021-08-01 01:45;52
2021-08-01 01:50;52
2021-08-01 01:55;53
2021-08-01 02:00;52
2021-08-01 02:05;53
2021-08-01 02:10;53
2021-08-01 02:15;52
2021-08-01 02:20;52
2021-08-01 02:25;52
2021-08-01 02:30;52
2021-08-01 02:35;52
2021-08-01 02:40;52
2021-08-01 02:45;53
2021-08-01 02:50;53
2021-08-01 02:55;53
2021-08-01 03:00;52
2021-08-01 03:05;52
2021-08-01 03:10;53
2021-08-01 03:15;53
2021-08-01 03:20;52
2021-08-01 03:25;53
2021-08-01 03:30;52
2021-08-01 03:35;53
2021-08-01 03:40;52
2021-08-01 03:45;52
2021-08-01 03:50;52
2021-08-01 03:55;52
2021-08-01 04:00;53
2021-08-01 04:05;53
2021-08-01 04:10;52
2021-08-01 04:15;52
2021-08-01 04:20;52
2021-08-01 04:25;53
2021-08-01 04:30;52
2021-08-01 04:35;52
2021-08-01 04:40;52
2021-08-01 04:45;52
2021-08-01 04:50;52
2021-08-01 04:55;53
2021-08-01 05:00;52
2021-08-01 05:05;52
2021-08-01 05:10;53
2021-08-01 05:15;52
2021-08-01 05:20;52
2021-08-01 05:25;53
2021-08-01 05:30;53
2021-08-01 05:35;53
2021-08-01 05:40;52
2021-08-01 05:45;52
2021-08-01 05:50;52
2021-08-01 05:55;53
2021-08-01 06:00;53
2021-08-01 06:05;53
2021-08-01 06:10;52
2021-08-01 06:15;53
2021-08-01 06:20;53
2021-08-01 06:25;52
2021-08-01 06:30;52
2021-08-01 06:35;53
2021-08-01 06:40;52
2021-08-01 06:45;53
2021-08-01 06:50;53
2021-08-01 06:55;53
2021-08-01 07:00;52
2021-08-01 07:05;53
2021-08-01 07:10;52
2021-08-01 07:15;53
2021-08-01 07:20;53
2021-08-01 07:25;52
2021-08-01 07:30;52
2021-08-01 07:35;52
2021-08-01 07:40;52
2021-08-01 07:45;52
2021-08-01 07:50;53
2021-08-01 07:55;53
2021-08-01 08:00;53
2021-08-01 08:05;52
2021-08-01 08:10;53
2021-08-01 08:15;53
2021-08-01 08:20;53
2021-08-01 08:25;53
2021-08-01 08:30;53
2021-08-01 08:35;52
2021-08-01 08:40;53
2021-08-01 08:45;53
2021-08-01 08:50;53
2021-08-01 08:55;53
2021-08-01 09:00;52
2021-08-01 09:05;53
2021-08-01 09:10;52
2021-08-01 09:15;52
2021-08-01 09:20;52
2021-08-01 09:25;52
2021-08-01 09:30;52
2021-08-01 09:35;53
2021-08-01 09:40;53
2021-08-01 09:45;53
2021-08-01 09:50;52
2021-08-01 09:55;52
2021-08-01 10:00;52
2021-08-01 10:05;53
2021-08-01 10:10;52
2021-08-01 10:15;52
2021-08-01 10:20;52
2021-08-01 10:25;52
2021-08-01 10:30;52
2021-08-01 10:35;52
2021-08-01 10:40;52
2021-08-01 10:45;52
2021-08-01 10:50;52
2021-08-01 10:55;52
2021-08-01 11:00;52
2021-08-01 11:05;52
2021-08-01 11:10;52
2021-08-01 11:15;52
2021-08-01 11:20;52
2021-08-01 11:25;52
2021-08-01 11:30;52
2021-08-01 11:35;52
2021-08-01 11:40;52
2021-08-01 11:45;52
2021-08-01 11:50;52
2021-08-01 11:55;52
2021-08-01 12:00;52
2021-08-01 12:05;52
2021-08-01 12:10;52
2021-08-01 12:15;52
2021-08-01 12:20;52
2021-08-01 12:25;52
2021-08-01 12:30;52
2021-08-01 12:35;52
2021-08-01 12:40;52
2021-08-01 12:45;52
2021-08-01 12:50;52
2021-08-01 12:55;52
2021-08-01 13:00;52
2021-08-01 13:05;52
2021-08-01 13:10;52
2021-08-01 13:15;52
2021-08-01 13:20;52
2021-08-01 13:25;52
2021-08-01 13:30;52
2021-08-01 13:35;52
2021-08-01 13:40;52
2021-08-01 13:45;52
2021-08-01 13:50;52
2021-08-01 13:55;52
2021-08-01 14:00;52
2021-08-01 14:05;52
2021-08-01 14:10;52
2021-08-01 14:15;52
2021-08-01 14:20;52
2021-08-01 14:25;52
2021-08-01 14:30;52
2021-08-01 14:35;52
2021-08-01 14:40;52
2021-08-01 14:45;52
2021-08-01 14:50;52
2021-08-01 14:55;52
2021-08-01 15:00;52
2021-08-01 15:05;52
2021-08-01 15:10;52
2021-08-01 15:15;52
2021-08-01 15:20;52
2021-08-01 15:25;52
2021-08-01 15:30;52
2021-08-01 15:35;53
2021-08-01 15:40;52
2021-08-01 15:45;52
2021-08-01 15:50;52
2021-08-01 15:55;52
2021-08-01 16:00;52
2021-08-01 16:05;52
2021-08-01 16:10;52
2021-08-01 16:15;52
2021-08-01 16:20;52
2021-08-01 16:25;52
2021-08-01 16:30;52
2021-08-01 16:35;52
2021-08-01 16:40;52
2021-08-01 16:45;52
2021-08-01 16:50;52
2021-08-01 16:55;52
2021-08-01 17:00;52
2021-08-01 17:05;52
2021-08-01 17:10;52
2021-08-01 17:15;52
2021-08-01 17:20;52
2021-08-01 17:25;52
2021-08-01 17:30;52
2021-08-01 17:35;52
2021-08-01 17:40;52
2021-08-01 17:45;52
2021-08-01 17:50;52
2021-08-01 17:55;52
2021-08-01 18:00;52
2021-08-01 18:05;53
2021-08-01 18:10;52
2021-08-01 18:15;52
2021-08-01 18:20;52
2021-08-01 18:25;52
2021-08-01 18:30;52
2021-08-01 18:35;52
2021-08-01 18:40;52
2021-08-01 18:45;52
2021-08-01 18:50;52
2021-08-01 18:55;52
2021-08-01 19:00;52
2021-08-01 19:05;53
2021-08-01 19:10;53
2021-08-01 19:15;53
2021-08-01 19:20;53
2021-08-01 19:25;52
2021-08-01 19:30;52
2021-08-01 19:35;52
2021-08-01 19:40;52
2021-08-01 19:45;53
2021-08-01 19:50;52
2021-08-01 19:55;52
2021-08-01 20:00;52
2021-08-01 20:05;52
2021-08-01 20:10;52
2021-08-01 20:15;53
2021-08-01 20:20;52
2021-08-01 20:25;52
2021-08-01 20:30;52
2021-08-01 20:35;52
2021-08-01 20:40;53
2021-08-01 20:45;52
2021-08-01 20:50;52
2021-08-01 20:55;53
2021-08-01 21:00;52
2021-08-01 21:05;52
2021-08-01 21:10;52
2021-08-01 21:15;52
2021-08-01 21:20;52
2021-08-01 21:25;52
2021-08-01 21:30;52
2021-08-01 21:35;52
2021-08-01 21:40;52
2021-08-01 21:45;52
2021-08-01 21:50;52
2021-08-01 21:55;53
2021-08-01 22:00;52
2021-08-01 22:05;53
2021-08-01 22:10;52
2021-08-01 22:15;52
2021-08-01 22:20;52
2021-08-01 22:25;52
2021-08-01 22:30;52
2021-08-01 22:35;53
2021-08-01 22:40;53
2021-08-01 22:45;53
2021-08-01 22:50;52
2021-08-01 22:55;52
2021-08-01 23:00;52
2021-08-01 23:05;52
2021-08-01 23:10;52
2021-08-01 23:15;53
2021-08-01 23:20;53
2021-08-01 23:25;52
2021-08-01 23:30;52
2021-08-01 23:35;52
2021-08-01 23:40;52
2021-08-01 23:45;53
2021-08-01 23:50;53
2021-08-01 23:55;53
2021-08-02 00:00;52
2021-08-02 00:05;53
2021-08-02 00:10;53
2021-08-02 00:15;53
2021-08-02 00:20;53
2021-08-02 00:25;53
2021-08-02 00:30;52
2021-08-02 00:35;52
2021-08-02 00:40;52
2021-08-02 00:45;52
2021-08-02 00:50;52
2021-08-02 00:55;53
2021-08-02 01:00;52
2021-08-02 01:05;53
2021-08-02 01:10;53
2021-08-02 01:15;53
2021-08-02 01:20;52
2021-08-02 01:25;53
2021-08-02 01:30;53
2021-08-02 01:35;53
2021-08-02 01:40;53
2021-08-02 01:45;53
2021-08-02 01:50;52
2021-08-02 01:55;52
2021-08-02 02:00;52
2021-08-02 02:05;53
2021-08-02 02:10;53
2021-08-02 02:15;53
2021-08-02 02:20;52
2021-08-02 02:25;53
2021-08-02 02:30;52
2021-08-02 02:35;52
2021-08-02 02:40;52
2021-08-02 02:45;53
2021-08-02 02:50;53
2021-08-02 02:55;53
2021-08-02 03:00;53
2021-08-02 03:05;53
2021-08-02 03:10;52
2021-08-02 03:15;52
2021-08-02 03:20;52
2021-08-02 03:25;53
2021-08-02 03:30;52
2021-08-02 03:35;53
2021-08-02 03:40;53
2021-08-02 03:45;53
2021-08-02 03:50;53
2021-08-02 03:55;53
2021-08-02 04:00;53
2021-08-02 04:05;53
2021-08-02 04:10;52
2021-08-02 04:15;52
2021-08-02 04:20;52
2021-08-02 04:25;53
2021-08-02 04:30;52
2021-08-02 04:35;53
2021-08-02 04:40;53
2021-08-02 04:45;53
2021-08-02 04:50;53
2021-08-02 04:55;52
2021-08-02 05:00;53
2021-08-02 05:05;53
2021-08-02 05:10;53
2021-08-02 05:15;52
2021-08-02 05:20;53
2021-08-02 05:25;53
2021-08-02 05:30;52
2021-08-02 05:35;52
2021-08-02 05:40;52
2021-08-02 05:45;52
2021-08-02 05:50;52
2021-08-02 05:55;52
2021-08-02 06:00;52
2021-08-02 06:05;53
2021-08-02 06:10;52
2021-08-02 06:15;52
2021-08-02 06:20;52
2021-08-02 06:25;52
2021-08-02 06:30;52
2021-08-02 06:35;52
2021-08-02 06:40;52
2021-08-02 06:45;52
2021-08-02 06:50;52
2021-08-02 06:55;52
2021-08-02 07:00;52
2021-08-02 07:05;52
2021-08-02 07:10;52
2021-08-02 07:15;52
2021-08-02 07:20;52
2021-08-02 07:25;53
2021-08-02 07:30;52
2021-08-02 07:35;53
2021-08-02 07:40;52
2021-08-02 07:45;52
2021-08-02 07:50;52
2021-08-02 07:55;52
2021-08-02 08:00;52
2021-08-02 08:05;53
2021-08-02 08:10;53
2021-08-02 08:15;53
2021-08-02 08:20;52
2021-08-02 08:25;53
2021-08-02 08:30;52
2021-08-02 08:35;52
2021-08-02 08:40;52
2021-08-02 08:45;53
2021-08-02 08:50;52
2021-08-02 08:55;52
2021-08-02 09:00;52
2021-08-02 09:05;52
2021-08-02 09:10;52
2021-08-02 09:15;52
2021-08-02 09:20;52
2021-08-02 09:25;52
2021-08-02 09:30;52
2021-08-02 09:35;52
2021-08-02 09:40;52
2021-08-02 09:45;52
2021-08-02 09:50;52
2021-08-02 09:55;52
2021-08-02 10:00;52
2021-08-02 10:05;52
2021-08-02 10:10;52
2021-08-02 10:15;53
2021-08-02 10:20;52
2021-08-02 10:25;52
2021-08-02 10:30;52
2021-08-02 10:35;52
2021-08-02 10:40;52
2021-08-02 10:45;52
2021-08-02 10:50;52
2021-08-02 10:55;52
2021-08-02 11:00;52
2021-08-02 11:05;52
2021-08-02 11:10;52
2021-08-02 11:15;52
2021-08-02 11:20;52
2021-08-02 11:25;52
2021-08-02 11:30;52
2021-08-02 11:35;52
2021-08-02 11:40;52
2021-08-02 11:45;52
2021-08-02 11:50;52
2021-08-02 11:55;52
2021-08-02 12:00;52
2021-08-02 12:05;52
2021-08-02 12:10;52
2021-08-02 12:15;52
2021-08-02 12:20;52
2021-08-02 12:25;52
2021-08-02 12:30;52
2021-08-02 12:35;52
2021-08-02 12:40;52
2021-08-02 12:45;52
2021-08-02 12:50;52
2021-08-02 12:55;52
2021-08-02 13:00;52
2021-08-02 13:05;52
2021-08-02 13:10;52
2021-08-02 13:15;52
2021-08-02 13:20;52
2021-08-02 13:25;52
2021-08-02 13:30;52
2021-08-02 13:35;52
2021-08-02 13:40;52
2021-08-02 13:45;52
2021-08-02 13:50;52
2021-08-02 13:55;52
2021-08-02 14:00;52
2021-08-02 14:05;52
2021-08-02 14:10;52
2021-08-02 14:15;52
2021-08-02 14:20;52
2021-08-02 14:25;52
2021-08-02 14:30;52
2021-08-02 14:35;52
2021-08-02 14:40;52
2021-08-02 14:45;52
2021-08-02 14:50;52
2021-08-02 14:55;52
2021-08-02 15:00;52
2021-08-02 15:05;52
2021-08-02 15:10;52
2021-08-02 15:15;52
2021-08-02 15:20;52
2021-08-02 15:25;52
2021-08-02 15:30;52
2021-08-02 15:35;52
2021-08-02 15:40;52
2021-08-02 15:45;52
2021-08-02 15:50;52
2021-08-02 15:55;52
2021-08-02 16:00;52
2021-08-02 16:05;52
2021-08-02 16:10;52
2021-08-02 16:15;52
2021-08-02 16:20;52
2021-08-02 16:25;52
2021-08-02 16:30;52
2021-08-02 16:35;52
2021-08-02 16:40;52
2021-08-02 16:45;52
2021-08-02 16:50;52
2021-08-02 16:55;52
2021-08-02 17:00;52
2021-08-02 17:05;52
2021-08-02 17:10;52
2021-08-02 17:15;52
2021-08-02 17:20;52
2021-08-02 17:25;53
2021-08-02 17:30;52
2021-08-02 17:35;53
2021-08-02 17:40;52
2021-08-02 17:45;53
2021-08-02 17:50;52
2021-08-02 17:55;52
2021-08-02 18:00;52
2021-08-02 18:05;52
2021-08-02 18:10;52
2021-08-02 18:15;52
2021-08-02 18:20;52
2021-08-02 18:25;53
2021-08-02 18:30;53
2021-08-02 18:35;52
2021-08-02 18:40;52
2021-08-02 18:45;52
2021-08-02 18:50;52
2021-08-02 18:55;53
2021-08-02 19:00;53
2021-08-02 19:05;53
2021-08-02 19:10;52
2021-08-02 19:15;53
2021-08-02 19:20;53
2021-08-02 19:25;52
2021-08-02 19:30;52
2021-08-02 19:35;53
2021-08-02 19:40;52
2021-08-02 19:45;52
2021-08-02 19:50;53
2021-08-02 19:55;53
2021-08-02 20:00;52
2021-08-02 20:05;53
2021-08-02 20:10;52
2021-08-02 20:15;53
2021-08-02 20:20;53
2021-08-02 20:25;53
2021-08-02 20:30;53
2021-08-02 20:35;53
2021-08-02 20:40;53
2021-08-02 20:45;53
2021-08-02 20:50;52
2021-08-02 20:55;53
2021-08-02 21:00;52
2021-08-02 21:05;53
2021-08-02 21:10;53
2021-08-02 21:15;52
2021-08-02 21:20;53
2021-08-02 21:25;53
2021-08-02 21:30;53
2021-08-02 21:35;52
2021-08-02 21:40;52
2021-08-02 21:45;53
2021-08-02 21:50;52
2021-08-02 21:55;52
2021-08-02 22:00;53
2021-08-02 22:05;53
2021-08-02 22:10;53
2021-08-02 22:15;53
2021-08-02 22:20;52
2021-08-02 22:25;52
2021-08-02 22:30;52
2021-08-02 22:35;52
2021-08-02 22:40;52
2021-08-02 22:45;52
2021-08-02 22:50;52
2021-08-02 22:55;52
2021-08-02 23:00;52
2021-08-02 23:05;52
2021-08-02 23:10;52
2021-08-02 23:15;52
2021-08-02 23:20;52
2021-08-02 23:25;52
2021-08-02 23:30;52
2021-08-02 23:35;52
2021-08-02 23:40;52
2021-08-02 23:45;53
2021-08-02 23:50;53
2021-08-02 23:55;53
2021-08-03 00:00;52
2021-08-03 00:05;53
2021-08-03 00:10;52
2021-08-03 00:15;52
2021-08-03 00:20;52
2021-08-03 00:25;52
2021-08-03 00:30;52
2021-08-03 00:35;52
2021-08-03 00:40;52
2021-08-03 00:45;52
2021-08-03 00:50;53
2021-08-03 00:55;53
2021-08-03 01:00;53
2021-08-03 01:05;52
2021-08-03 01:10;52
2021-08-03 01:15;53
2021-08-03 01:20;53
2021-08-03 01:25;53
2021-08-03 01:30;52
2021-08-03 01:35;53
2021-08-03 01:40;52
2021-08-03 01:45;52
2021-08-03 01:50;53
2021-08-03 01:55;52
2021-08-03 02:00;52
2021-08-03 02:05;52
2021-08-03 02:10;52
2021-08-03 02:15;52
2021-08-03 02:20;52
2021-08-03 02:25;53
2021-08-03 02:30;53
2021-08-03 02:35;52
2021-08-03 02:40;52
2021-08-03 02:45;52
2021-08-03 02:50;52
2021-08-03 02:55;53
2021-08-03 03:00;52
2021-08-03 03:05;53
2021-08-03 03:10;52
2021-08-03 03:15;52
2021-08-03 03:20;52
2021-08-03 03:25;52
2021-08-03 03:30;52
2021-08-03 03:35;53
2021-08-03 03:40;52
2021-08-03 03:45;52
2021-08-03 03:50;52
2021-08-03 03:55;52
2021-08-03 04:00;53
2021-08-03 04:05;52
2021-08-03 04:10;53
2021-08-03 04:15;53
2021-08-03 04:20;52
2021-08-03 04:25;52
2021-08-03 04:30;52
2021-08-03 04:35;52
2021-08-03 04:40;53
2021-08-03 04:45;53
2021-08-03 04:50;53
2021-08-03 04:55;53
2021-08-03 05:00;52
2021-08-03 05:05;53
2021-08-03 05:10;53
2021-08-03 05:15;53
2021-08-03 05:20;53
2021-08-03 05:25;53
2021-08-03 05:30;52
2021-08-03 05:35;53
2021-08-03 05:40;52
2021-08-03 05:45;52
2021-08-03 05:50;53
2021-08-03 05:55;53
2021-08-03 06:00;53
2021-08-03 06:05;53
2021-08-03 06:10;53
2021-08-03 06:15;53
2021-08-03 06:20;52
2021-08-03 06:25;53
2021-08-03 06:30;52
2021-08-03 06:35;53
2021-08-03 06:40;52
2021-08-03 06:45;53
2021-08-03 06:50;53
2021-08-03 06:55;52
2021-08-03 07:00;52
2021-08-03 07:05;52
2021-08-03 07:10;52
2021-08-03 07:15;53
2021-08-03 07:20;52
2021-08-03 07:25;52
2021-08-03 07:30;53
2021-08-03 07:35;53
2021-08-03 07:40;52
2021-08-03 07:45;52
2021-08-03 07:50;53
2021-08-03 07:55;53
2021-08-03 08:00;52
2021-08-03 08:05;53
2021-08-03 08:10;53
2021-08-03 08:15;53
2021-08-03 08:20;53
2021-08-03 08:25;53
2021-08-03 08:30;52
2021-08-03 08:35;52
2021-08-03 08:40;53
2021-08-03 08:45;52
2021-08-03 08:50;52
2021-08-03 08:55;52
2021-08-03 09:00;52
2021-08-03 09:05;52
2021-08-03 09:10;52
2021-08-03 09:15;53
2021-08-03 09:20;52
2021-08-03 09:25;52
2021-08-03 09:30;53
2021-08-03 09:35;52
2021-08-03 09:40;52
2021-08-03 09:45;52
2021-08-03 09:50;53
2021-08-03 09:55;53
2021-08-03 10:00;52
2021-08-03 10:05;53
2021-08-03 10:10;52
2021-08-03 10:15;53
2021-08-03 10:20;52
2021-08-03 10:25;52
2021-08-03 10:30;52
2021-08-03 10:35;52
2021-08-03 10:40;53
2021-08-03 10:45;53
2021-08-03 10:50;52
2021-08-03 10:55;53
2021-08-03 11:00;53
2021-08-03 11:05;52
2021-08-03 11:10;52
2021-08-03 11:15;53
2021-08-03 11:20;52
2021-08-03 11:25;53
2021-08-03 11:30;53
2021-08-03 11:35;53
2021-08-03 11:40;52
2021-08-03 11:45;53
2021-08-03 11:50;53
2021-08-03 11:55;52
2021-08-03 12:00;52
2021-08-03 12:05;52
2021-08-03 12:10;52
2021-08-03 12:15;52
2021-08-03 12:20;52
2021-08-03 12:25;53
2021-08-03 12:30;52
2021-08-03 12:35;52
2021-08-03 12:40;52
2021-08-03 12:45;53
2021-08-03 12:50;52
2021-08-03 12:55;52
2021-08-03 13:00;52
2021-08-03 13:05;52
2021-08-03 13:10;53
2021-08-03 13:15;52
2021-08-03 13:20;52
2021-08-03 13:25;52
2021-08-03 13:30;52
2021-08-03 13:35;52
2021-08-03 13:40;52
2021-08-03 13:45;52
2021-08-03 13:50;52
2021-08-03 13:55;52
2021-08-03 14:00;52
2021-08-03 14:05;52
2021-08-03 14:10;52
2021-08-03 14:15;52
2021-08-03 14:20;52
2021-08-03 14:25;52
2021-08-03 14:30;52
2021-08-03 14:35;52
2021-08-03 14:40;52
2021-08-03 14:45;52
2021-08-03 14:50;52
2021-08-03 14:55;52
2021-08-03 15:00;52
2021-08-03 15:05;52
2021-08-03 15:10;52
2021-08-03 15:15;52
2021-08-03 15:20;52
2021-08-03 15:25;52
2021-08-03 15:30;52
2021-08-03 15:35;52
2021-08-03 15:40;52
2021-08-03 15:45;52
2021-08-03 15:50;52
2021-08-03 15:55;52
2021-08-03 16:00;52
2021-08-03 16:05;53
2021-08-03 16:10;52
2021-08-03 16:15;52
2021-08-03 16:20;52
2021-08-03 16:25;52
2021-08-03 16:30;52
2021-08-03 16:35;52
2021-08-03 16:40;52
2021-08-03 16:45;52
2021-08-03 16:50;52
2021-08-03 16:55;52
2021-08-03 17:00;52
2021-08-03 17:05;53
2021-08-03 17:10;52
2021-08-03 17:15;52
2021-08-03 17:20;53
2021-08-03 17:25;53
2021-08-03 17:30;52
2021-08-03 17:35;52
2021-08-03 17:40;52
2021-08-03 17:45;52
2021-08-03 17:50;52
2021-08-03 17:55;52
2021-08-03 18:00;52
2021-08-03 18:05;52
2021-08-03 18:10;52
2021-08-03 18:15;53
2021-08-03 18:20;52
2021-08-03 18:25;53
2021-08-03 18:30;52
2021-08-03 18:35;53
2021-08-03 18:40;52
2021-08-03 18:45;53
2021-08-03 18:50;52
2021-08-03 18:55;52
2021-08-03 19:00;52
2021-08-03 19:05;52
2021-08-03 19:10;53
2021-08-03 19:15;53
2021-08-03 19:20;53
2021-08-03 19:25;53
2021-08-03 19:30;53
2021-08-03 19:35;53
2021-08-03 19:40;52
2021-08-03 19:45;53
2021-08-03 19:50;52
2021-08-03 19:55;52
2021-08-03 20:00;53
2021-08-03 20:05;52
2021-08-03 20:10;53
2021-08-03 20:15;53
2021-08-03 20:20;53
2021-08-03 20:25;53
2021-08-03 20:30;53
2021-08-03 20:35;53
2021-08-03 20:40;52
2021-08-03 20:45;53
2021-08-03 20:50;53
2021-08-03 20:55;52
2021-08-03 21:00;52
2021-08-03 21:05;53
2021-08-03 21:10;53
2021-08-03 21:15;53
2021-08-03 21:20;53
2021-08-03 21:25;52
2021-08-03 21:30;53
2021-08-03 21:35;53
2021-08-03 21:40;52
2021-08-03 21:45;53
2021-08-03 21:50;53
2021-08-03 21:55;53
2021-08-03 22:00;53
2021-08-03 22:05;53
2021-08-03 22:10;53
2021-08-03 22:15;52
2021-08-03 22:20;53
2021-08-03 22:25;52
2021-08-03 22:30;52
2021-08-03 22:35;52
2021-08-03 22:40;53
2021-08-03 22:45;52
2021-08-03 22:50;52
2021-08-03 22:55;53
2021-08-03 23:00;53
2021-08-03 23:05;53
2021-08-03 23:10;53
2021-08-03 23:15;53
2021-08-03 23:20;52
2021-08-03 23:25;53
2021-08-03 23:30;53
2021-08-03 23:35;52
2021-08-03 23:40;53
2021-08-03 23:45;53
2021-08-03 23:50;53
2021-08-03 23:55;53
2021-08-04 00:00;53
2021-08-04 00:05;52
2021-08-04 00:10;53
2021-08-04 00:15;52
2021-08-04 00:20;53
2021-08-04 00:25;52
2021-08-04 00:30;53
2021-08-04 00:35;53
2021-08-04 00:40;53
2021-08-04 00:45;53
2021-08-04 00:50;53
2021-08-04 00:55;53
2021-08-04 01:00;53
2021-08-04 01:05;53
2021-08-04 01:10;53
2021-08-04 01:15;53
2021-08-04 01:20;53
2021-08-04 01:25;53
2021-08-04 01:30;53
2021-08-04 01:35;53
2021-08-04 01:40;53
2021-08-04 01:45;53
2021-08-04 01:50;53
2021-08-04 01:55;53
2021-08-04 02:00;53
2021-08-04 02:05;53
2021-08-04 02:10;53
2021-08-04 02:15;53
2021-08-04 02:20;53
2021-08-04 02:25;53
2021-08-04 02:30;53
2021-08-04 02:35;53
2021-08-04 02:40;53
2021-08-04 02:45;53
2021-08-04 02:50;53
2021-08-04 02:55;53
2021-08-04 03:00;53
2021-08-04 03:05;53
2021-08-04 03:10;53
2021-08-04 03:15;53
2021-08-04 03:20;53
2021-08-04 03:25;53
2021-08-04 03:30;53
2021-08-04 03:35;53
2021-08-04 03:40;53
2021-08-04 03:45;53
2021-08-04 03:50;53
2021-08-04 03:55;53
2021-08-04 04:00;53
2021-08-04 04:05;53
2021-08-04 04:10;53
2021-08-04 04:15;53
2021-08-04 04:20;53
2021-08-04 04:25;53
2021-08-04 04:30;53
2021-08-04 04:35;53
2021-08-04 04:40;52
2021-08-04 04:45;53
2021-08-04 04:50;53
2021-08-04 04:55;53
2021-08-04 05:00;53
2021-08-04 05:05;53
2021-08-04 05:10;53
2021-08-04 05:15;53
2021-08-04 05:20;53
2021-08-04 05:25;53
2021-08-04 05:30;53
2021-08-04 05:35;53
2021-08-04 05:40;53
2021-08-04 05:45;53
2021-08-04 05:50;53
2021-08-04 05:55;53
2021-08-04 06:00;53
2021-08-04 06:05;53
2021-08-04 06:10;53
2021-08-04 06:15;53
2021-08-04 06:20;53
2021-08-04 06:25;53
2021-08-04 06:30;53
2021-08-04 06:35;53
2021-08-04 06:40;53
2021-08-04 06:45;53
2021-08-04 06:50;53
2021-08-04 06:55;53
2021-08-04 07:00;53
2021-08-04 07:05;53
2021-08-04 07:10;53
2021-08-04 07:15;53
2021-08-04 07:20;53
2021-08-04 07:25;53
2021-08-04 07:30;53
2021-08-04 07:35;53
2021-08-04 07:40;53
2021-08-04 07:45;53
2021-08-04 07:50;53
2021-08-04 07:55;53
2021-08-04 08:00;53
2021-08-04 08:05;53
2021-08-04 08:10;53
2021-08-04 08:15;53
2021-08-04 08:20;53
2021-08-04 08:25;53
2021-08-04 08:30;53
2021-08-04 08:35;53
2021-08-04 08:40;53
2021-08-04 08:45;53
2021-08-04 08:50;53
2021-08-04 08:55;53
2021-08-04 09:00;53
2021-08-04 09:05;53
2021-08-04 09:10;53
2021-08-04 09:15;53
2021-08-04 09:20;53
2021-08-04 09:25;53
2021-08-04 09:30;53
2021-08-04 09:35;53
2021-08-04 09:40;53
2021-08-04 09:45;53
2021-08-04 09:50;53
2021-08-04 09:55;53
2021-08-04 10:00;53
2021-08-04 10:05;52
2021-08-04 10:10;53
2021-08-04 10:15;52
2021-08-04 10:20;53
2021-08-04 10:25;53
2021-08-04 10:30;52
2021-08-04 10:35;53
2021-08-04 10:40;52
2021-08-04 10:45;52
2021-08-04 10:50;52
2021-08-04 10:55;52
2021-08-04 11:00;53
2021-08-04 11:05;52
2021-08-04 11:10;52
2021-08-04 11:15;52
2021-08-04 11:20;53
2021-08-04 11:25;52
2021-08-04 11:30;53
2021-08-04 11:35;52
2021-08-04 11:40;53
2021-08-04 11:45;52
2021-08-04 11:50;52
2021-08-04 11:55;52
2021-08-04 12:00;52
2021-08-04 12:05;52
2021-08-04 12:10;52
2021-08-04 12:15;52
2021-08-04 12:20;52
2021-08-04 12:25;53
2021-08-04 12:30;52
2021-08-04 12:35;52
2021-08-04 12:40;53
2021-08-04 12:45;53
2021-08-04 12:50;52
2021-08-04 12:55;53
2021-08-04 13:00;53
2021-08-04 13:05;53
2021-08-04 13:10;52
2021-08-04 13:15;52
2021-08-04 13:20;52
2021-08-04 13:25;52
2021-08-04 13:30;53
2021-08-04 13:35;53
2021-08-04 13:40;52
2021-08-04 13:45;52
2021-08-04 13:50;52
2021-08-04 13:55;53
2021-08-04 14:00;52
2021-08-04 14:05;52
2021-08-04 14:10;52
2021-08-04 14:15;52
2021-08-04 14:20;52
2021-08-04 14:25;52
2021-08-04 14:30;53
2021-08-04 14:35;52
2021-08-04 14:40;52
2021-08-04 14:45;52
2021-08-04 14:50;53
2021-08-04 14:55;53
2021-08-04 15:00;52
2021-08-04 15:05;52
2021-08-04 15:10;52
2021-08-04 15:15;52
