2021-11-18 00:03:42;1;132;132;132;132;132;132;132;132;132;132;
2021-11-18 00:03:42;2;70;70;70;69;69;69;69;69;69;68;
2021-11-18 00:03:42;3;24;31;26;25;24;24;24;24;24;24;
2021-11-18 00:03:42;4;118;118;118;118;118;118;118;127;121;119;
2021-11-18 00:03:42;5;2;2;2;2;2;2;2;2;2;2;
2021-11-18 00:03:42;ht;99;11.20
2021-11-18 00:03:42;v;4.13
2021-11-18 00:33:44;1;135;135;134;134;134;134;134;134;134;134;
2021-11-18 00:33:44;2;52;52;52;52;52;52;52;52;52;52;
2021-11-18 00:33:44;3;23;23;23;23;23;23;23;23;23;23;
2021-11-18 00:33:44;4;2;1;1;1;2;1;1;1;2;2;
2021-11-18 00:33:44;5;130;130;130;130;130;130;130;130;130;130;
2021-11-18 00:33:44;ht;99;11.00
2021-11-18 00:33:44;v;4.14
2021-11-18 01:03:41;1;135;135;135;135;135;135;135;135;135;135;
2021-11-18 01:03:41;2;127;127;127;128;127;127;127;127;127;127;
2021-11-18 01:03:41;3;23;23;23;23;23;23;23;23;23;23;
2021-11-18 01:03:41;4;85;85;85;85;85;85;85;85;85;85;
2021-11-18 01:03:41;5;113;113;113;113;113;113;113;113;113;114;
2021-11-18 01:03:41;ht;99;10.00
2021-11-18 01:03:41;v;4.14
2021-11-18 01:33:42;1;136;136;136;136;136;136;136;136;136;136;
2021-11-18 01:33:42;2;116;116;116;116;116;116;116;116;116;116;
2021-11-18 01:33:42;3;25;25;25;25;25;25;25;25;25;25;
2021-11-18 01:33:42;4;112;111;112;112;112;111;111;112;112;111;
2021-11-18 01:33:42;5;111;111;111;111;111;111;111;111;111;111;
2021-11-18 01:33:42;ht;99;9.30
2021-11-18 01:33:42;v;4.13
2021-11-18 02:03:43;1;136;136;136;136;136;136;136;136;136;136;
2021-11-18 02:03:43;2;129;129;130;130;130;130;129;130;130;130;
2021-11-18 02:03:43;3;24;24;24;24;24;24;24;24;23;23;
2021-11-18 02:03:43;4;98;97;97;97;97;98;98;97;98;97;
2021-11-18 02:03:43;5;90;90;91;90;90;90;90;91;90;90;
2021-11-18 02:03:43;ht;99;8.70
2021-11-18 02:03:43;v;4.13
2021-11-18 02:33:43;1;126;126;126;126;126;126;126;126;126;126;
2021-11-18 02:33:43;2;122;122;122;122;122;122;122;122;122;122;
2021-11-18 02:33:43;3;24;24;24;24;24;24;24;24;24;24;
2021-11-18 02:33:43;4;94;94;94;94;94;94;94;94;94;94;
2021-11-18 02:33:43;5;109;109;109;109;109;109;109;110;110;109;
2021-11-18 02:33:43;ht;99;8.10
2021-11-18 02:33:43;v;4.13
2021-11-18 03:03:39;1;130;130;130;130;130;130;130;130;130;130;
2021-11-18 03:03:39;2;123;123;123;124;124;124;124;123;124;124;
2021-11-18 03:03:39;3;24;24;24;24;24;24;24;24;24;24;
2021-11-18 03:03:39;4;94;94;94;94;94;94;94;94;94;94;
2021-11-18 03:03:39;5;113;113;113;113;113;113;113;114;113;113;
2021-11-18 03:03:39;ht;99;8.40
2021-11-18 03:03:39;v;4.13
2021-11-18 03:33:40;1;126;126;126;126;126;126;126;126;126;126;
2021-11-18 03:33:40;2;44;43;44;44;44;43;44;44;44;43;
2021-11-18 03:33:40;3;26;26;26;26;26;26;26;26;26;26;
2021-11-18 03:33:40;4;94;94;94;94;94;94;93;94;94;94;
2021-11-18 03:33:40;5;116;116;116;116;116;116;116;116;116;116;
2021-11-18 03:33:40;ht;99;8.20
2021-11-18 03:33:40;v;4.13
2021-11-18 04:03:40;1;128;128;129;129;129;128;128;129;128;129;
2021-11-18 04:03:40;2;108;108;108;108;108;108;108;108;108;109;
2021-11-18 04:03:40;3;25;25;25;25;25;25;25;25;25;25;
2021-11-18 04:03:40;4;85;85;85;85;85;85;85;85;85;85;
2021-11-18 04:03:40;5;114;114;114;114;114;114;114;114;114;114;
2021-11-18 04:03:40;ht;99;9.00
2021-11-18 04:03:40;v;4.13
2021-11-18 04:33:40;1;130;130;130;130;130;130;130;130;130;130;
2021-11-18 04:33:40;2;42;42;42;43;42;42;42;42;42;42;
2021-11-18 04:33:40;3;25;25;25;25;25;25;25;25;25;25;
2021-11-18 04:33:40;4;129;129;129;129;129;129;129;129;129;129;
2021-11-18 04:33:40;5;123;123;123;123;123;123;123;123;123;123;
2021-11-18 04:33:40;ht;99;8.10
2021-11-18 04:33:40;v;4.13
2021-11-18 05:03:40;1;137;137;137;137;137;137;138;137;137;137;
2021-11-18 05:03:40;2;135;135;135;135;135;135;135;135;135;135;
2021-11-18 05:03:40;3;27;27;27;27;27;27;27;27;27;27;
2021-11-18 05:03:40;4;85;85;85;85;86;85;85;85;85;85;
2021-11-18 05:03:40;5;114;114;114;114;114;114;114;114;114;114;
2021-11-18 05:03:40;ht;99;7.10
2021-11-18 05:03:40;v;4.13
2021-11-18 05:33:40;1;128;128;128;128;128;128;128;128;128;128;
2021-11-18 05:33:40;2;127;127;127;127;127;127;127;127;127;127;
2021-11-18 05:33:40;3;27;27;27;27;27;27;27;27;27;27;
2021-11-18 05:33:40;4;95;95;95;95;96;95;95;95;95;95;
2021-11-18 05:33:40;5;138;138;138;138;138;138;138;138;138;138;
2021-11-18 05:33:40;ht;99;7.70
2021-11-18 05:33:40;v;4.13
2021-11-18 06:03:39;1;133;132;133;132;132;133;132;132;132;132;
2021-11-18 06:03:39;2;114;115;115;115;115;115;114;115;114;115;
2021-11-18 06:03:39;3;27;27;27;27;27;27;27;27;27;27;
2021-11-18 06:03:39;4;86;86;86;86;86;86;86;86;86;86;
2021-11-18 06:03:39;5;122;123;122;122;122;122;123;122;122;123;
2021-11-18 06:03:39;ht;99;7.20
2021-11-18 06:03:39;v;4.13
2021-11-18 06:33:39;1;123;122;122;122;123;123;122;122;123;122;
2021-11-18 06:33:39;2;131;131;131;131;131;131;131;131;131;131;
2021-11-18 06:33:39;3;24;24;24;24;24;24;24;24;24;24;
2021-11-18 06:33:39;4;106;106;106;106;106;107;106;106;106;106;
2021-11-18 06:33:39;5;116;117;116;117;116;117;117;116;116;117;
2021-11-18 06:33:39;ht;99;9.90
2021-11-18 06:33:39;v;4.13
2021-11-18 07:03:41;1;135;135;135;135;135;135;135;135;135;135;
2021-11-18 07:03:41;2;130;131;131;130;130;130;130;130;136;138;
2021-11-18 07:03:41;3;33;33;33;33;33;33;33;33;33;33;
2021-11-18 07:03:41;4;88;87;87;88;87;87;87;88;88;88;
2021-11-18 07:03:41;5;122;122;122;122;122;122;122;122;122;122;
2021-11-18 07:03:41;ht;99;14.40
2021-11-18 07:03:41;v;4.13
2021-11-18 07:33:45;1;135;135;135;135;135;135;135;135;135;135;
2021-11-18 07:33:45;2;128;128;128;128;128;128;128;128;128;128;
2021-11-18 07:33:45;3;32;32;32;32;32;32;32;32;32;32;
2021-11-18 07:33:45;4;107;107;107;107;107;107;107;107;107;107;
2021-11-18 07:33:45;5;127;128;128;128;127;128;128;127;127;128;
2021-11-18 07:33:45;ht;99;15.50
2021-11-18 07:33:45;v;4.13
2021-11-18 08:03:46;1;137;137;137;137;137;137;137;137;137;137;
2021-11-18 08:03:46;2;130;130;130;130;130;130;130;130;130;130;
2021-11-18 08:03:46;3;35;35;35;35;35;35;35;35;35;35;
2021-11-18 08:03:46;4;111;111;111;111;111;111;111;111;111;111;
2021-11-18 08:03:46;5;109;110;109;110;110;110;110;110;109;110;
2021-11-18 08:03:46;ht;99;17.10
2021-11-18 08:03:46;v;4.14
2021-11-18 08:33:49;1;140;140;140;139;140;140;140;140;140;140;
2021-11-18 08:33:49;2;139;138;138;138;140;143;143;143;142;144;
2021-11-18 08:33:49;3;35;35;35;35;35;35;35;35;35;35;
2021-11-18 08:33:49;4;100;100;100;100;100;100;100;100;100;100;
2021-11-18 08:33:49;5;108;108;108;108;108;108;108;108;108;108;
2021-11-18 08:33:49;ht;99;18.90
2021-11-18 08:33:49;v;4.14
2021-11-18 09:03:50;1;143;143;143;143;143;143;143;143;143;143;
2021-11-18 09:03:50;2;136;136;136;136;136;136;136;136;136;136;
2021-11-18 09:03:50;3;36;36;36;36;36;36;36;36;36;36;
2021-11-18 09:03:50;4;130;130;130;130;130;130;129;130;129;130;
2021-11-18 09:03:50;5;1;2;2;2;1;2;2;2;2;2;
2021-11-18 09:03:50;ht;94;22.00
2021-11-18 09:03:50;v;4.14
2021-11-18 09:33:52;1;147;146;146;146;146;147;146;147;146;147;
2021-11-18 09:33:52;2;136;136;136;137;136;136;136;137;136;136;
2021-11-18 09:33:52;3;36;36;36;35;36;36;36;36;36;36;
2021-11-18 09:33:52;4;103;103;102;102;102;103;102;103;102;103;
2021-11-18 09:33:52;5;125;125;125;125;125;125;125;125;125;125;
2021-11-18 09:33:52;ht;81;22.70
2021-11-18 09:33:52;v;4.14
2021-11-18 10:03:51;1;143;142;142;142;142;143;142;142;142;143;
2021-11-18 10:03:51;2;137;137;137;137;137;138;137;137;137;137;
2021-11-18 10:03:51;3;35;35;35;35;35;35;35;35;35;35;
2021-11-18 10:03:51;4;111;111;111;111;111;111;111;111;111;111;
2021-11-18 10:03:51;5;1;1;1;1;1;1;1;1;1;1;
2021-11-18 10:03:51;ht;67;22.90
2021-11-18 10:03:51;v;4.14
2021-11-18 10:33:55;1;142;142;142;142;142;142;142;142;142;141;
2021-11-18 10:33:55;2;137;137;137;137;137;137;137;137;137;137;
2021-11-18 10:33:55;3;35;35;35;35;35;35;35;35;35;35;
2021-11-18 10:33:55;4;94;94;94;94;94;94;94;94;94;94;
2021-11-18 10:33:55;5;128;128;128;128;128;128;128;128;128;128;
2021-11-18 10:33:55;ht;68;23.80
2021-11-18 10:33:55;v;4.15
2021-11-18 11:03:51;1;156;155;155;155;155;155;155;155;155;155;
2021-11-18 11:03:51;2;138;138;138;138;138;138;138;138;138;138;
2021-11-18 11:03:51;3;113;113;113;113;113;113;113;113;113;113;
2021-11-18 11:03:51;4;96;96;97;96;97;96;96;96;96;96;
2021-11-18 11:03:51;5;110;110;110;110;111;111;111;111;111;111;
2021-11-18 11:03:51;ht;65;25.40
2021-11-18 11:03:51;v;4.15
2021-11-18 11:33:53;1;144;144;144;144;144;144;144;144;144;144;
2021-11-18 11:33:53;2;138;138;139;139;138;138;139;138;139;139;
2021-11-18 11:33:53;3;123;123;123;123;123;123;123;123;123;123;
2021-11-18 11:33:53;4;88;88;88;88;88;88;88;88;88;88;
2021-11-18 11:33:53;5;114;114;114;114;114;114;114;114;114;114;
2021-11-18 11:33:53;ht;68;26.00
2021-11-18 11:33:53;v;4.15
2021-11-18 12:03:56;1;144;144;144;144;144;144;144;144;147;148;
2021-11-18 12:03:56;2;152;153;154;153;153;155;155;152;151;149;
2021-11-18 12:03:56;3;36;36;36;36;36;36;36;36;36;36;
2021-11-18 12:03:56;4;83;84;83;84;84;84;84;84;83;84;
2021-11-18 12:03:56;5;2;2;2;2;2;2;1;2;2;2;
2021-11-18 12:03:56;ht;65;25.70
2021-11-18 12:03:56;v;4.15
2021-11-18 12:33:54;1;144;144;144;144;144;144;144;144;144;144;
2021-11-18 12:33:54;2;137;137;137;137;137;137;137;137;137;137;
2021-11-18 12:33:54;3;35;35;35;35;35;35;35;35;35;35;
2021-11-18 12:33:54;4;90;90;90;90;90;90;90;90;90;90;
2021-11-18 12:33:54;5;126;126;126;126;126;126;126;126;126;126;
2021-11-18 12:33:54;ht;67;26.30
2021-11-18 12:33:54;v;4.15
2021-11-18 13:03:57;1;145;145;145;145;145;145;145;145;145;145;
2021-11-18 13:03:57;2;141;141;142;141;142;141;142;143;146;148;
2021-11-18 13:03:57;3;37;37;37;37;37;37;37;37;37;37;
2021-11-18 13:03:57;4;101;101;101;101;101;101;101;101;101;101;
2021-11-18 13:03:57;5;1;1;1;1;1;1;1;1;1;1;
2021-11-18 13:03:57;ht;57;26.70
2021-11-18 13:03:57;v;4.15
2021-11-18 13:33:56;1;149;149;149;149;150;152;154;154;152;152;
2021-11-18 13:33:56;2;149;147;148;149;150;151;150;150;151;153;
2021-11-18 13:33:56;3;35;35;35;35;35;35;35;35;35;35;
2021-11-18 13:33:56;4;83;83;83;83;83;83;84;84;83;84;
2021-11-18 13:33:56;5;124;124;124;124;124;124;124;124;124;124;
2021-11-18 13:33:56;ht;62;27.80
2021-11-18 13:33:56;v;4.15
2021-11-18 14:03:55;1;151;150;151;151;150;150;150;150;150;150;
2021-11-18 14:03:55;2;145;145;145;145;145;145;145;145;145;145;
2021-11-18 14:03:55;3;35;35;35;35;35;35;35;35;35;35;
2021-11-18 14:03:55;4;125;125;125;125;125;125;125;125;125;125;
2021-11-18 14:03:55;5;2;2;2;2;2;2;1;2;1;2;
2021-11-18 14:03:55;ht;60;27.30
2021-11-18 14:03:55;v;4.15
2021-11-18 14:33:59;1;148;147;148;148;147;148;148;148;147;148;
2021-11-18 14:33:59;2;137;137;137;137;138;137;137;137;137;137;
2021-11-18 14:33:59;3;1;1;1;1;1;1;1;1;1;1;
2021-11-18 14:33:59;4;1;1;1;1;1;2;1;1;1;1;
2021-11-18 14:33:59;5;1;1;1;1;1;1;1;1;1;1;
2021-11-18 14:33:59;ht;56;27.80
2021-11-18 14:33:59;v;4.15
2021-11-18 15:03:58;1;152;152;151;152;151;153;155;157;157;155;
2021-11-18 15:03:58;2;158;157;158;161;161;162;161;163;164;164;
2021-11-18 15:03:58;3;126;126;126;126;126;125;125;126;126;126;
2021-11-18 15:03:58;4;87;87;87;87;87;86;87;87;87;87;
2021-11-18 15:03:58;5;124;124;124;124;124;124;124;124;124;124;
2021-11-18 15:03:58;ht;60;29.30
2021-11-18 15:03:58;v;4.16
2021-11-18 15:33:57;1;144;144;144;144;144;144;144;144;144;144;
2021-11-18 15:33:57;2;137;137;137;137;137;137;137;137;137;137;
2021-11-18 15:33:57;3;116;116;117;117;117;117;117;117;117;117;
2021-11-18 15:33:57;4;91;91;91;91;91;91;91;91;91;91;
2021-11-18 15:33:57;5;113;113;113;113;113;113;113;112;112;113;
2021-11-18 15:33:57;ht;56;28.60
2021-11-18 15:33:57;v;4.16
2021-11-18 16:03:57;1;145;144;145;145;144;144;144;145;144;144;
2021-11-18 16:03:57;2;137;137;137;137;137;137;137;137;137;137;
2021-11-18 16:03:57;3;121;121;121;121;121;121;121;121;121;121;
2021-11-18 16:03:57;4;89;88;88;88;88;88;88;88;88;88;
2021-11-18 16:03:57;5;113;113;112;113;113;112;113;113;113;113;
2021-11-18 16:03:57;ht;56;28.70
2021-11-18 16:03:57;v;4.16
2021-11-18 16:33:56;1;146;146;146;146;146;146;146;145;146;146;
2021-11-18 16:33:56;2;137;137;137;137;137;137;137;137;137;137;
2021-11-18 16:33:56;3;121;121;121;120;121;121;121;121;121;121;
2021-11-18 16:33:56;4;1;1;1;1;1;2;1;1;2;1;
2021-11-18 16:33:56;5;110;110;110;111;110;110;110;110;110;110;
2021-11-18 16:33:56;ht;54;28.30
2021-11-18 16:33:56;v;4.16
2021-11-18 17:03:55;1;143;143;143;143;143;143;143;143;143;143;
2021-11-18 17:03:55;2;139;142;144;144;143;142;142;142;146;147;
2021-11-18 17:03:55;3;2;1;2;2;2;2;1;2;2;2;
2021-11-18 17:03:55;4;89;89;88;89;89;88;89;89;89;89;
2021-11-18 17:03:55;5;127;127;127;127;127;127;127;127;127;127;
2021-11-18 17:03:55;ht;53;29.40
2021-11-18 17:03:55;v;4.16
2021-11-18 17:33:55;1;144;144;144;144;144;144;145;144;144;144;
2021-11-18 17:33:55;2;136;136;136;136;136;136;136;136;136;136;
2021-11-18 17:33:55;3;119;119;119;119;119;119;119;119;119;119;
2021-11-18 17:33:55;4;88;88;88;88;88;88;88;88;88;88;
2021-11-18 17:33:55;5;116;116;116;116;116;116;116;116;116;116;
2021-11-18 17:33:55;ht;54;28.60
2021-11-18 17:33:55;v;4.16
2021-11-18 18:03:58;1;149;149;149;149;149;149;149;149;149;150;
2021-11-18 18:03:58;2;161;161;161;161;161;161;161;161;161;161;
2021-11-18 18:03:58;3;107;108;107;108;108;107;108;108;107;108;
2021-11-18 18:03:58;4;116;116;116;116;116;116;116;116;116;116;
2021-11-18 18:03:58;5;116;116;116;116;116;116;116;115;116;116;
2021-11-18 18:03:58;ht;54;28.00
2021-11-18 18:03:58;v;4.16
2021-11-18 18:33:55;1;149;149;149;149;149;149;149;149;149;149;
2021-11-18 18:33:55;2;134;134;134;134;134;134;134;134;134;133;
2021-11-18 18:33:55;3;134;134;134;134;134;134;134;134;134;134;
2021-11-18 18:33:55;4;119;119;119;119;119;119;119;119;119;119;
2021-11-18 18:33:55;5;128;128;128;127;127;128;127;127;128;128;
2021-11-18 18:33:55;ht;55;27.10
2021-11-18 18:33:55;v;4.16
2021-11-18 19:03:52;1;136;136;136;136;136;136;136;136;136;136;
2021-11-18 19:03:52;2;131;131;131;131;131;131;131;131;131;131;
2021-11-18 19:03:52;3;35;35;35;35;35;35;35;35;35;35;
2021-11-18 19:03:52;4;89;89;89;89;89;89;89;89;88;89;
2021-11-18 19:03:52;5;127;127;127;127;127;127;127;127;127;127;
2021-11-18 19:03:52;ht;67;25.60
2021-11-18 19:03:52;v;4.16
2021-11-18 19:33:51;1;138;138;138;138;137;138;138;138;137;138;
2021-11-18 19:33:51;2;123;123;123;124;123;124;123;124;126;128;
2021-11-18 19:33:51;3;38;38;38;38;37;38;38;38;38;38;
2021-11-18 19:33:51;4;82;82;82;82;82;82;82;82;82;82;
2021-11-18 19:33:51;5;127;127;126;127;127;127;127;127;127;127;
2021-11-18 19:33:51;ht;85;22.30
2021-11-18 19:33:51;v;4.16
2021-11-18 20:03:52;1;128;128;128;128;128;128;128;128;128;128;
2021-11-18 20:03:52;2;123;123;123;123;123;123;123;123;123;123;
2021-11-18 20:03:52;3;31;31;31;31;31;31;31;31;31;31;
2021-11-18 20:03:52;4;118;118;117;118;118;118;118;118;118;118;
2021-11-18 20:03:52;5;122;122;122;122;121;122;122;122;122;122;
2021-11-18 20:03:52;ht;88;20.60
2021-11-18 20:03:52;v;4.16
2021-11-18 20:33:46;1;124;124;124;124;124;124;124;124;124;124;
2021-11-18 20:33:46;2;138;139;139;139;138;139;139;139;140;139;
2021-11-18 20:33:46;3;27;27;27;27;27;27;27;27;27;27;
2021-11-18 20:33:46;4;118;118;118;118;118;118;118;118;118;118;
2021-11-18 20:33:46;5;2;2;2;2;2;2;2;1;2;2;
2021-11-18 20:33:46;ht;99;17.70
2021-11-18 20:33:46;v;4.16
2021-11-18 21:03:49;1;126;126;125;126;126;126;125;126;126;126;
2021-11-18 21:03:49;2;118;118;118;118;118;118;118;118;118;118;
2021-11-18 21:03:49;3;32;32;32;32;32;32;32;32;32;32;
2021-11-18 21:03:49;4;84;84;84;84;84;84;84;84;84;85;
2021-11-18 21:03:49;5;2;2;2;2;2;2;2;2;2;2;
2021-11-18 21:03:49;ht;99;17.50
2021-11-18 21:03:49;v;4.16
2021-11-18 21:33:46;1;139;139;139;140;139;139;139;139;139;139;
2021-11-18 21:33:46;2;111;111;111;111;111;111;111;111;111;111;
2021-11-18 21:33:46;3;32;32;32;32;32;32;32;32;32;32;
2021-11-18 21:33:46;4;1;1;1;2;1;1;1;1;1;1;
2021-11-18 21:33:46;5;114;114;114;114;114;114;113;114;114;113;
2021-11-18 21:33:46;ht;94;17.70
2021-11-18 21:33:46;v;4.15
2021-11-18 22:03:48;1;126;126;126;126;126;127;127;128;129;129;
2021-11-18 22:03:48;2;143;143;142;141;140;140;139;139;139;138;
2021-11-18 22:03:48;3;32;32;32;32;32;32;32;32;32;32;
2021-11-18 22:03:48;4;96;95;96;95;95;96;95;95;96;96;
2021-11-18 22:03:48;5;124;124;124;124;124;124;124;124;124;124;
2021-11-18 22:03:48;ht;99;15.50
2021-11-18 22:03:48;v;4.15
2021-11-18 22:33:44;1;125;125;125;125;125;125;125;125;125;125;
2021-11-18 22:33:44;2;133;133;133;133;132;133;133;133;133;133;
2021-11-18 22:33:44;3;32;32;32;32;32;32;32;32;32;32;
2021-11-18 22:33:44;4;90;90;90;90;90;90;90;90;90;90;
2021-11-18 22:33:44;5;120;120;120;120;120;120;120;120;120;120;
2021-11-18 22:33:44;ht;99;16.50
2021-11-18 22:33:44;v;4.15
2021-11-18 23:03:45;1;135;135;135;135;135;135;135;135;135;135;
2021-11-18 23:03:45;2;63;63;63;63;63;63;63;63;63;63;
2021-11-18 23:03:45;3;32;32;32;32;32;32;32;32;32;32;
2021-11-18 23:03:45;4;118;118;118;118;118;118;118;118;118;118;
2021-11-18 23:03:45;5;117;117;117;117;117;117;117;117;117;117;
2021-11-18 23:03:45;ht;99;15.60
2021-11-18 23:03:45;v;4.15
2021-11-18 23:33:45;1;126;126;126;125;126;126;126;126;126;126;
2021-11-18 23:33:45;2;116;115;115;115;115;115;116;115;115;115;
2021-11-18 23:33:45;3;30;30;30;30;30;30;30;30;30;30;
2021-11-18 23:33:45;4;106;107;106;107;106;106;106;106;106;106;
2021-11-18 23:33:45;5;118;117;118;118;118;117;118;117;118;118;
2021-11-18 23:33:45;ht;99;15.70
2021-11-18 23:33:45;v;4.15
