2022-10-19 00:04:26;1;106;106;105;106;106;106;106;106;106;106;
2022-10-19 00:04:26;2;107;107;106;107;106;108;106;106;106;106;
2022-10-19 00:04:26;3;108;108;108;108;108;108;108;108;108;109;
2022-10-19 00:04:26;ht;68;21.80
2022-10-19 00:04:26;v;4.20
2022-10-19 00:34:29;1;108;109;108;108;108;108;108;108;108;108;
2022-10-19 00:34:29;2;107;107;107;107;107;107;107;107;108;107;
2022-10-19 00:34:29;3;109;109;109;109;108;109;109;109;109;108;
2022-10-19 00:34:29;ht;68;21.70
2022-10-19 00:34:29;v;4.20
2022-10-19 01:04:27;1;109;109;109;109;109;112;109;109;109;109;
2022-10-19 01:04:27;2;106;106;106;106;105;106;106;107;106;106;
2022-10-19 01:04:27;3;109;109;108;109;109;109;109;109;109;109;
2022-10-19 01:04:27;ht;68;21.60
2022-10-19 01:04:27;v;4.20
2022-10-19 01:34:30;1;108;108;108;108;108;108;108;108;108;109;
2022-10-19 01:34:30;2;106;107;107;106;106;106;106;107;107;106;
2022-10-19 01:34:30;3;108;109;109;109;109;108;109;113;111;109;
2022-10-19 01:34:30;ht;68;21.50
2022-10-19 01:34:30;v;4.19
2022-10-19 02:04:28;1;108;107;107;107;107;108;108;108;108;108;
2022-10-19 02:04:28;2;104;104;109;106;106;105;105;104;104;104;
2022-10-19 02:04:28;3;109;109;109;109;109;109;109;108;109;109;
2022-10-19 02:04:28;ht;68;21.40
2022-10-19 02:04:28;v;4.20
2022-10-19 02:34:26;1;108;108;109;108;108;108;108;108;108;109;
2022-10-19 02:34:26;2;107;107;108;107;108;108;108;108;107;107;
2022-10-19 02:34:26;3;109;109;108;109;115;110;109;108;109;109;
2022-10-19 02:34:26;ht;68;21.30
2022-10-19 02:34:26;v;4.19
2022-10-19 03:04:28;1;105;104;104;104;104;104;105;104;104;104;
2022-10-19 03:04:28;2;107;107;107;107;107;107;107;107;107;107;
2022-10-19 03:04:28;3;109;108;108;109;109;109;109;108;109;109;
2022-10-19 03:04:28;ht;68;21.30
2022-10-19 03:04:28;v;4.20
2022-10-19 03:34:26;1;109;108;108;109;108;108;108;108;108;109;
2022-10-19 03:34:26;2;108;107;107;107;108;108;108;107;108;107;
2022-10-19 03:34:26;3;109;109;109;108;108;108;109;108;109;109;
2022-10-19 03:34:26;ht;68;21.20
2022-10-19 03:34:26;v;4.19
2022-10-19 04:04:28;1;109;108;108;109;109;109;112;109;108;109;
2022-10-19 04:04:28;2;108;107;108;108;107;109;108;108;113;108;
2022-10-19 04:04:28;3;109;109;109;109;109;108;109;109;109;108;
2022-10-19 04:04:28;ht;68;21.10
2022-10-19 04:04:28;v;4.20
2022-10-19 04:34:26;1;108;109;109;109;109;109;109;109;108;109;
2022-10-19 04:34:26;2;105;106;105;105;106;105;105;106;105;105;
2022-10-19 04:34:26;3;109;108;108;114;110;109;109;109;108;108;
2022-10-19 04:34:26;ht;68;21.00
2022-10-19 04:34:26;v;4.19
2022-10-19 05:04:29;1;108;107;107;107;107;107;111;108;108;108;
2022-10-19 05:04:29;2;107;107;107;107;106;107;107;107;107;106;
2022-10-19 05:04:29;3;109;109;108;109;109;109;109;109;109;109;
2022-10-19 05:04:29;ht;68;21.00
2022-10-19 05:04:29;v;4.20
2022-10-19 05:34:26;1;105;105;106;106;106;105;106;105;106;106;
2022-10-19 05:34:26;2;107;108;107;108;108;108;108;108;108;108;
2022-10-19 05:34:26;3;109;109;109;109;109;108;109;109;109;109;
2022-10-19 05:34:26;ht;68;20.90
2022-10-19 05:34:26;v;4.19
2022-10-19 06:04:29;1;108;107;108;107;108;108;108;111;108;108;
2022-10-19 06:04:29;2;108;108;108;108;108;107;108;108;108;107;
2022-10-19 06:04:29;3;109;109;109;109;108;109;108;109;109;108;
2022-10-19 06:04:29;ht;68;20.80
2022-10-19 06:04:29;v;4.19
2022-10-19 06:34:26;1;105;105;105;105;105;105;105;105;105;105;
2022-10-19 06:34:26;2;108;107;107;108;108;108;108;108;107;108;
2022-10-19 06:34:26;3;108;108;108;108;108;108;108;108;108;108;
2022-10-19 06:34:26;ht;68;20.80
2022-10-19 06:34:26;v;4.19
2022-10-19 07:04:28;1;106;106;107;106;107;106;106;107;107;107;
2022-10-19 07:04:28;2;108;108;108;108;108;108;108;107;108;108;
2022-10-19 07:04:28;3;108;109;109;109;109;108;109;109;109;109;
2022-10-19 07:04:28;ht;68;20.70
2022-10-19 07:04:28;v;4.20
2022-10-19 07:34:26;1;108;108;108;108;108;109;108;108;108;108;
2022-10-19 07:34:26;2;107;107;107;107;107;109;107;108;107;107;
2022-10-19 07:34:26;3;108;108;108;108;108;108;108;108;107;108;
2022-10-19 07:34:26;ht;68;20.70
2022-10-19 07:34:26;v;4.17
2022-10-19 08:04:28;1;108;107;107;107;107;107;107;108;108;108;
2022-10-19 08:04:28;2;107;108;108;108;108;108;108;108;108;107;
2022-10-19 08:04:28;3;108;108;108;108;108;108;108;108;108;108;
2022-10-19 08:04:28;ht;69;20.70
2022-10-19 08:04:28;v;4.19
2022-10-19 08:34:25;1;108;109;108;108;109;108;109;109;109;109;
2022-10-19 08:34:25;2;109;109;109;109;109;109;109;109;108;108;
2022-10-19 08:34:25;3;110;109;108;108;108;108;108;108;109;108;
2022-10-19 08:34:25;ht;69;20.70
2022-10-19 08:34:25;v;4.18
2022-10-19 09:04:27;1;109;108;109;108;108;109;108;108;109;109;
2022-10-19 09:04:27;2;108;108;108;108;107;108;108;107;108;108;
2022-10-19 09:04:27;3;108;108;108;108;108;108;108;108;108;108;
2022-10-19 09:04:27;ht;70;20.70
2022-10-19 09:04:27;v;4.19
2022-10-19 09:34:25;1;89;88;88;88;88;88;89;88;89;88;
2022-10-19 09:34:25;2;106;106;106;106;106;106;106;106;106;106;
2022-10-19 09:34:25;3;108;107;116;109;108;108;108;108;108;108;
2022-10-19 09:34:25;ht;70;20.90
2022-10-19 09:34:25;v;4.18
2022-10-19 10:04:27;1;89;89;89;89;89;89;89;89;89;89;
2022-10-19 10:04:27;2;104;104;104;105;105;105;104;104;111;105;
2022-10-19 10:04:27;3;109;109;109;108;109;109;109;109;109;109;
2022-10-19 10:04:27;ht;73;21.30
2022-10-19 10:04:27;v;4.19
2022-10-19 10:34:30;1;89;89;89;89;89;89;89;89;89;89;
2022-10-19 10:34:30;2;105;105;107;107;106;106;105;105;106;106;
2022-10-19 10:34:30;3;109;109;108;108;113;111;109;109;109;109;
2022-10-19 10:34:30;ht;74;21.60
2022-10-19 10:34:30;v;4.19
2022-10-19 11:04:37;1;89;89;89;89;89;89;89;89;89;89;
2022-10-19 11:04:37;2;105;104;104;104;104;104;104;110;106;105;
2022-10-19 11:04:37;3;108;109;108;108;109;109;109;109;109;109;
2022-10-19 11:04:37;ht;73;21.80
2022-10-19 11:04:37;v;4.18
2022-10-19 11:34:26;1;87;87;87;87;87;87;87;87;87;87;
2022-10-19 11:34:26;2;107;108;108;108;107;107;107;107;107;107;
2022-10-19 11:34:26;3;109;115;109;108;109;108;108;109;109;109;
2022-10-19 11:34:26;ht;73;22.00
2022-10-19 11:34:26;v;4.18
2022-10-19 12:04:29;1;88;88;88;88;88;88;88;88;88;88;
2022-10-19 12:04:29;2;104;104;104;104;104;104;104;104;105;105;
2022-10-19 12:04:29;3;108;109;109;109;108;108;108;109;109;109;
2022-10-19 12:04:29;ht;73;22.20
2022-10-19 12:04:29;v;4.18
2022-10-19 12:34:27;1;109;109;108;109;109;108;108;108;108;108;
2022-10-19 12:34:27;2;84;84;84;84;84;84;84;84;84;84;
2022-10-19 12:34:27;3;108;109;116;109;109;109;109;108;108;108;
2022-10-19 12:34:27;ht;72;22.30
2022-10-19 12:34:27;v;4.18
2022-10-19 13:04:26;1;108;108;108;108;108;108;108;108;108;108;
2022-10-19 13:04:26;2;88;88;88;88;88;88;89;88;88;88;
2022-10-19 13:04:26;3;108;110;117;109;109;109;109;109;109;109;
2022-10-19 13:04:26;ht;72;22.40
2022-10-19 13:04:26;v;4.18
2022-10-19 13:34:29;1;109;108;108;108;108;108;108;108;108;108;
2022-10-19 13:34:29;2;88;88;88;87;88;88;88;88;88;88;
2022-10-19 13:34:29;3;108;109;109;115;109;109;109;109;109;108;
2022-10-19 13:34:29;ht;72;22.40
2022-10-19 13:34:29;v;4.16
2022-10-19 14:04:28;1;109;108;108;107;108;107;107;108;107;107;
2022-10-19 14:04:28;2;87;87;87;87;87;87;87;87;87;87;
2022-10-19 14:04:28;3;108;108;108;108;109;109;108;117;109;108;
2022-10-19 14:04:28;ht;71;22.50
2022-10-19 14:04:28;v;4.18
2022-10-19 14:34:26;1;109;109;109;109;109;108;108;109;108;108;
2022-10-19 14:34:26;2;89;89;89;89;89;89;89;89;89;89;
2022-10-19 14:34:26;3;108;109;108;114;110;109;108;109;109;109;
2022-10-19 14:34:26;ht;72;22.60
2022-10-19 14:34:26;v;4.17
2022-10-19 15:04:49;1;109;109;108;108;108;108;108;108;108;109;
2022-10-19 15:04:49;2;88;88;89;88;88;88;88;88;88;88;
2022-10-19 15:04:49;3;115;109;109;109;109;108;109;109;109;110;
2022-10-19 15:04:49;ht;73;22.60
2022-10-19 15:04:49;v;4.18
2022-10-19 15:34:24;1;107;107;107;108;107;107;107;107;107;107;
2022-10-19 15:34:24;2;88;89;88;88;88;88;88;88;88;88;
2022-10-19 15:34:24;3;109;115;110;109;109;109;109;109;109;109;
2022-10-19 15:34:24;ht;72;22.80
2022-10-19 15:34:24;v;4.17
2022-10-19 16:04:41;1;108;108;108;109;108;108;108;108;108;108;
2022-10-19 16:04:41;2;87;88;87;87;87;88;87;87;88;87;
2022-10-19 16:04:41;3;107;107;107;107;108;107;111;109;108;107;
2022-10-19 16:04:41;ht;75;22.80
2022-10-19 16:04:41;v;4.18
2022-10-19 16:34:26;1;108;108;108;108;108;108;108;108;108;108;
2022-10-19 16:34:26;2;86;86;86;86;86;86;86;86;86;86;
2022-10-19 16:34:26;3;108;107;107;107;112;110;108;108;108;108;
2022-10-19 16:34:26;ht;75;22.80
2022-10-19 16:34:26;v;4.15
2022-10-19 17:04:30;1;109;108;108;109;108;109;108;109;108;108;
2022-10-19 17:04:30;2;87;87;87;87;87;87;87;87;87;87;
2022-10-19 17:04:30;3;107;107;115;108;108;108;107;107;108;107;
2022-10-19 17:04:30;ht;75;22.80
2022-10-19 17:04:30;v;4.17
2022-10-19 17:34:29;1;109;109;108;108;108;108;108;108;112;109;
2022-10-19 17:34:29;2;88;88;93;89;88;88;89;88;89;88;
2022-10-19 17:34:29;3;107;108;108;108;108;108;108;108;108;108;
2022-10-19 17:34:29;ht;76;23.00
2022-10-19 17:34:29;v;4.19
2022-10-19 18:04:28;1;107;106;106;107;106;106;106;107;107;107;
2022-10-19 18:04:28;2;88;88;88;88;88;88;88;88;88;88;
2022-10-19 18:04:28;3;107;108;114;109;109;108;108;108;108;107;
2022-10-19 18:04:28;ht;75;23.00
2022-10-19 18:04:28;v;4.15
2022-10-19 18:34:27;1;109;108;108;108;109;109;108;108;108;109;
2022-10-19 18:34:27;2;88;88;88;88;88;88;89;88;88;88;
2022-10-19 18:34:27;3;107;107;107;108;107;107;107;108;107;107;
2022-10-19 18:34:27;ht;74;22.90
2022-10-19 18:34:27;v;4.18
2022-10-19 19:04:31;1;107;107;108;108;108;108;107;107;107;108;
2022-10-19 19:04:31;2;89;89;88;89;88;88;88;88;88;88;
2022-10-19 19:04:31;3;107;107;108;107;108;108;107;107;108;108;
2022-10-19 19:04:31;ht;74;22.70
2022-10-19 19:04:31;v;4.18
2022-10-19 19:34:30;1;108;108;108;108;108;108;108;108;108;108;
2022-10-19 19:34:30;2;88;88;88;88;88;88;88;88;88;88;
2022-10-19 19:34:30;3;108;108;108;107;107;108;107;107;107;108;
2022-10-19 19:34:30;ht;76;22.60
2022-10-19 19:34:30;v;4.18
2022-10-19 20:04:28;1;109;112;109;109;108;109;109;108;108;108;
2022-10-19 20:04:28;2;89;89;89;89;94;90;89;89;89;89;
2022-10-19 20:04:28;3;109;109;109;109;109;109;109;109;109;109;
2022-10-19 20:04:28;ht;77;22.40
2022-10-19 20:04:28;v;4.17
2022-10-19 20:34:27;1;108;107;107;108;108;108;108;108;108;107;
2022-10-19 20:34:27;2;88;88;89;89;88;88;89;89;88;88;
2022-10-19 20:34:27;3;109;109;110;109;109;109;109;109;109;110;
2022-10-19 20:34:27;ht;77;22.20
2022-10-19 20:34:27;v;4.18
2022-10-19 21:04:30;1;108;108;108;108;108;108;108;108;108;108;
2022-10-19 21:04:30;2;87;87;86;87;87;87;86;87;87;87;
2022-10-19 21:04:30;3;109;108;108;108;109;109;108;109;109;108;
2022-10-19 21:04:30;ht;77;22.00
2022-10-19 21:04:30;v;4.15
2022-10-19 21:34:29;1;108;108;108;108;108;108;109;108;109;108;
2022-10-19 21:34:29;2;90;89;89;89;90;89;89;89;90;89;
2022-10-19 21:34:29;3;108;108;109;108;109;109;109;108;109;109;
2022-10-19 21:34:29;ht;76;21.90
2022-10-19 21:34:29;v;4.18
2022-10-19 22:04:27;1;108;108;108;108;108;108;109;108;108;108;
2022-10-19 22:04:27;2;85;87;85;85;85;85;85;85;85;86;
2022-10-19 22:04:27;3;108;109;108;108;109;109;108;108;109;108;
2022-10-19 22:04:27;ht;76;21.80
2022-10-19 22:04:27;v;4.17
2022-10-19 22:34:30;1;108;108;108;109;109;108;108;108;108;108;
2022-10-19 22:34:30;2;87;87;87;87;87;87;87;87;87;87;
2022-10-19 22:34:30;3;108;108;109;108;108;109;108;108;109;109;
2022-10-19 22:34:30;ht;77;21.70
2022-10-19 22:34:30;v;4.18
2022-10-19 23:04:28;1;109;108;109;109;108;109;108;110;109;108;
2022-10-19 23:04:28;2;87;87;88;86;86;87;87;87;86;87;
2022-10-19 23:04:28;3;109;114;110;109;109;109;109;109;109;109;
2022-10-19 23:04:28;ht;76;21.60
2022-10-19 23:04:28;v;4.17
2022-10-19 23:34:26;1;106;107;106;106;106;106;106;106;106;106;
2022-10-19 23:34:26;2;89;89;89;89;89;89;89;89;89;89;
2022-10-19 23:34:26;3;114;110;109;109;109;110;109;109;109;109;
2022-10-19 23:34:26;ht;76;21.50
2022-10-19 23:34:26;v;4.18
