2020-12-22 00:03:37;4.24;74;16.70;0;0.00
2020-12-22 00:33:36;4.23;63;17.60;0;0.00
2020-12-22 01:03:40;4.23;65;17.40;0;0.00
2020-12-22 01:33:40;4.24;74;15.70;0;0.00
2020-12-22 02:03:38;4.23;74;15.50;0;0.00
2020-12-22 02:33:37;4.23;74;15.20;0;0.00
2020-12-22 03:03:40;4.23;70;15.50;0;0.00
2020-12-22 03:33:38;4.23;64;16.00;0;0.00
2020-12-22 04:03:37;4.23;70;15.10;0;0.00
2020-12-22 04:33:39;4.23;72;14.70;0;0.00
2020-12-22 05:03:37;4.23;78;13.90;0;0.00
2020-12-22 05:33:39;4.23;82;13.40;0;0.00
2020-12-22 06:03:36;4.22;81;13.40;0;0.00
2020-12-22 06:33:38;4.22;76;14.30;0;0.00
2020-12-22 07:03:36;4.23;65;17.50;0;0.00
2020-12-22 07:33:40;4.23;64;19.00;0;0.00
2020-12-22 08:03:42;4.23;56;20.90;0;1.50
2020-12-22 08:33:41;4.23;52;22.90;0;1.50
2020-12-22 09:03:42;4.24;47;24.70;0;0.00
2020-12-22 09:33:44;4.24;38;25.60;0;2.49
2020-12-22 10:03:48;4.24;36;26.70;0;1.80
2020-12-22 10:33:48;4.24;32;28.50;0;1.50
2020-12-22 11:03:50;4.24;28;28.70;0;3.08
2020-12-22 11:33:47;4.24;25;28.80;0;3.08
2020-12-22 12:03:50;4.24;27;29.30;0;3.78
2020-12-22 12:33:49;4.24;27;30.20;0;2.29
2020-12-22 13:03:52;4.24;24;29.70;0;1.80
2020-12-22 13:33:52;4.25;26;30.50;0;2.79
2020-12-22 14:03:51;4.25;24;30.60;0;1.10
2020-12-22 14:33:51;4.25;24;30.50;0;2.29
2020-12-22 15:03:51;4.25;25;31.30;0;1.90
2020-12-22 15:33:51;4.25;26;31.10;0;2.00
2020-12-22 16:03:51;4.25;26;30.50;0;2.19
2020-12-22 16:33:50;4.25;24;30.90;0;1.70
2020-12-22 17:03:50;4.25;26;30.60;0;2.09
2020-12-22 17:33:48;4.25;24;30.10;0;3.68
2020-12-22 18:03:51;4.25;28;29.70;0;1.10
2020-12-22 18:33:49;4.25;27;29.30;0;1.90
2020-12-22 19:03:50;4.25;31;28.10;0;0.00
2020-12-22 19:33:46;4.25;36;26.30;0;0.00
2020-12-22 20:03:45;4.25;50;23.00;0;0.00
2020-12-22 20:33:45;4.25;50;21.80;0;0.00
2020-12-22 21:03:39;4.25;51;21.00;0;0.00
2020-12-22 21:33:42;4.25;52;20.70;0;0.00
2020-12-22 22:03:39;4.25;52;20.20;0;0.00
2020-12-22 22:33:41;4.24;59;19.00;0;0.00
2020-12-22 23:03:42;4.24;57;18.90;0;0.00
2020-12-22 23:33:38;4.24;62;17.70;0;0.00
