2020-12-25 00:03:41;4.24;71;21.10;0;0.00
2020-12-25 00:33:43;4.24;74;20.60;0;0.00
2020-12-25 01:03:41;4.24;74;20.80;0;0.00
2020-12-25 01:33:43;4.24;73;20.30;0;0.00
2020-12-25 02:03:41;4.24;73;20.10;0;0.00
2020-12-25 02:33:43;4.24;69;20.60;0;0.00
2020-12-25 03:03:41;4.24;66;20.90;0;0.00
2020-12-25 03:33:43;4.24;70;20.40;0;0.00
2020-12-25 04:03:41;4.24;77;19.80;0;0.00
2020-12-25 04:33:43;4.24;78;19.80;0;0.00
2020-12-25 05:03:41;4.24;78;19.70;0;0.00
2020-12-25 05:33:42;4.23;82;19.50;0;0.00
2020-12-25 06:03:40;4.23;82;19.50;0;0.00
2020-12-25 06:33:41;4.23;86;19.50;0;0.00
2020-12-25 07:03:39;4.23;79;20.50;0;0.00
2020-12-25 07:33:41;4.24;77;21.20;0;0.00
2020-12-25 08:03:44;4.24;69;22.90;0;0.00
2020-12-25 08:33:44;4.24;65;22.90;0;1.60
2020-12-25 09:03:44;4.24;66;23.40;0;0.00
2020-12-25 09:33:45;4.24;61;24.30;0;0.00
2020-12-25 10:03:43;4.24;49;26.70;0;0.00
2020-12-25 10:33:47;4.24;51;26.10;0;0.00
2020-12-25 11:03:46;4.24;54;25.40;0;0.00
2020-12-25 11:33:45;4.24;52;26.50;0;1.10
2020-12-25 12:03:45;4.24;50;27.10;0;2.39
2020-12-25 12:33:46;4.24;49;27.30;0;1.60
2020-12-25 13:03:46;4.24;48;29.80;0;0.00
2020-12-25 13:33:49;4.24;50;28.90;0;2.09
2020-12-25 14:03:52;4.25;50;28.60;0;1.80
2020-12-25 14:33:49;4.24;45;30.10;0;0.00
2020-12-25 15:03:51;4.25;47;29.60;0;0.00
2020-12-25 15:33:49;4.25;53;28.30;0;0.00
2020-12-25 16:03:46;4.25;56;27.40;0;1.40
2020-12-25 16:33:46;4.25;54;28.20;0;0.00
2020-12-25 17:03:47;4.25;60;28.00;0;0.00
2020-12-25 17:33:48;4.25;63;26.60;0;0.00
2020-12-25 18:03:47;4.25;58;26.90;0;0.00
2020-12-25 18:33:47;4.25;61;27.00;0;0.00
2020-12-25 19:03:46;4.25;65;26.30;0;0.00
2020-12-25 19:33:45;4.25;65;25.40;0;1.60
2020-12-25 20:03:43;4.24;68;24.80;0;0.00
2020-12-25 20:33:44;4.25;71;24.50;0;1.30
2020-12-25 21:03:41;4.24;71;24.50;0;0.00
2020-12-25 21:33:47;4.24;67;24.50;0;1.40
2020-12-25 22:03:43;4.24;63;24.80;0;0.00
2020-12-25 22:33:44;4.24;57;25.10;0;0.00
2020-12-25 23:03:46;4.24;58;25.20;0;0.00
2020-12-25 23:33:43;4.24;58;24.80;0;0.00
