2021-1-24 0:2:41;4.35;99;22.70;11;0.376;0.073;24.21;75.5;0.072;25.9241;25.875;26.462;26.151;378;377;378;378;378;378;378;378;378;378;256;256;256;256;256;256;256;256;256;256;240;240;240;240;240;240;240;240;240;240
2021-1-24 0:32:39;4.34;99;22.70;11;0.384;0.071;24.21;75.5;0.070;26.6541;25.291;27.208;25.561;376;376;376;376;376;376;376;376;376;376;256;256;256;256;256;256;256;256;256;256;240;240;240;240;240;240;240;240;240;240
2021-1-24 1:2:42;4.34;99;22.90;11;0.391;0.069;24.21;75.5;0.069;27.3521;24.714;27.920;24.977;369;369;369;369;369;369;369;369;369;369;256;256;256;256;256;256;256;256;256;256;240;240;240;240;240;240;240;240;240;240
2021-1-24 1:32:40;4.34;99;23.20;11;0.384;0.071;24.21;75.5;0.070;26.6541;25.291;27.208;25.561;370;370;370;370;370;370;370;370;370;370;255;255;255;255;255;255;255;255;255;255;240;240;240;240;240;240;240;240;240;240
2021-1-24 2:2:39;4.34;99;23.00;11;0.384;0.071;24.21;75.5;0.070;26.6541;25.291;27.208;25.561;374;374;374;374;375;375;375;375;375;375;256;256;256;256;256;256;256;256;256;256;240;240;240;240;240;240;240;240;240;240
2021-1-24 2:32:41;4.34;99;22.20;11;0.384;0.071;24.21;75.5;0.070;26.6541;25.291;27.208;25.561;377;377;377;377;377;377;377;378;378;378;255;255;255;255;255;255;255;255;255;255;240;240;240;240;240;240;240;240;240;240
2021-1-24 3:2:39;4.33;99;21.80;11;0.376;0.073;24.21;75.5;0.072;25.9311;25.880;26.474;26.125;382;382;382;382;382;382;382;383;383;383;255;255;255;255;255;255;255;255;255;255;240;240;240;240;240;240;240;240;240;240
2021-1-24 3:32:41;4.33;99;21.40;11;0.384;0.071;24.21;75.5;0.070;26.6611;25.296;27.220;25.535;383;383;383;383;383;383;383;383;383;383;255;255;255;255;255;255;255;255;255;255;240;240;240;240;240;240;240;240;240;240
2021-1-24 4:2:38;4.33;99;22.00;11;0.384;0.071;24.21;75.5;0.070;26.6611;25.296;27.220;25.535;388;388;388;388;388;388;388;388;388;388;255;255;255;255;255;256;255;255;255;255;240;240;240;240;240;240;240;240;240;240
2021-1-24 4:32:40;4.33;99;21.90;11;0.384;0.071;24.21;75.5;0.070;26.6611;25.296;27.220;25.535;383;383;383;383;383;383;383;383;383;383;255;255;255;255;255;255;255;255;255;255;240;240;240;240;240;240;240;240;240;240
2021-1-24 5:2:42;4.33;99;22.50;11;0.384;0.071;24.21;75.5;0.070;26.6611;25.296;27.220;25.535;377;377;377;377;377;377;377;377;377;377;255;255;255;255;255;255;255;255;255;255;240;240;240;240;240;240;240;240;240;240
2021-1-24 5:32:40;4.33;99;22.60;11;0.384;0.071;24.21;75.5;0.070;26.6611;25.296;27.220;25.535;377;377;377;378;378;378;378;378;378;378;255;255;255;255;255;255;255;255;255;255;240;240;240;240;240;240;240;240;240;240
2021-1-24 6:2:42;4.33;99;22.10;11;0.384;0.071;24.21;75.5;0.070;26.6611;25.296;27.220;25.535;378;377;378;378;378;378;378;378;378;378;255;255;255;255;255;255;255;255;255;255;240;240;240;240;240;240;240;240;240;240
2021-1-24 6:32:40;4.33;99;22.60;11;0.384;0.071;24.21;75.5;0.070;26.6611;25.296;27.220;25.535;375;375;375;375;375;375;375;375;375;375;255;255;255;255;255;255;255;255;255;255;240;240;240;240;240;240;240;240;240;240
2021-1-24 7:2:43;4.33;99;25.10;11;0.384;0.071;24.21;75.5;0.070;26.6611;25.296;27.220;25.535;362;361;361;362;362;362;362;362;362;362;255;255;255;255;255;255;255;255;255;255;240;240;240;240;240;240;240;240;240;240
2021-1-24 7:32:42;4.34;99;24.30;11;0.384;0.071;24.21;75.5;0.070;26.6611;25.296;27.220;25.535;360;360;360;360;360;360;360;360;360;360;255;255;255;255;255;255;255;255;255;256;240;240;240;240;240;240;240;240;240;240
2021-1-24 8:2:41;4.34;99;24.80;11;0.384;0.071;24.21;75.5;0.070;26.6611;25.296;27.220;25.535;357;357;357;357;357;357;357;357;357;357;255;255;255;255;255;255;255;255;255;255;240;240;240;240;240;240;240;240;240;240
2021-1-24 8:32:41;4.35;99;26.20;11;0.384;0.071;24.21;75.5;0.070;26.6611;25.296;27.220;25.535;354;354;354;354;354;354;354;354;354;354;255;255;255;255;255;255;255;255;255;255;240;240;240;240;240;240;240;240;239;239
2021-1-24 9:2:43;4.36;99;31.30;11;0.384;0.071;24.21;75.5;0.070;26.6611;25.296;27.220;25.535;358;358;358;358;358;358;358;358;358;358;255;255;255;255;255;255;255;255;255;255;239;239;239;239;239;240;239;239;239;240
2021-1-24 9:32:48;4.38;99;32.50;11;0.384;0.071;24.21;75.5;0.070;26.6611;25.296;27.220;25.535;369;369;370;370;370;370;370;370;370;370;255;255;255;255;255;255;255;255;255;255;239;239;239;239;239;239;239;239;239;239
2021-1-24 10:2:52;4.39;99;33.70;11;0.384;0.071;24.21;75.5;0.070;26.6611;25.296;27.220;25.535;384;384;384;384;384;384;384;384;384;384;255;255;255;255;255;255;255;255;255;255;239;239;239;239;239;239;239;239;239;239
2021-1-24 10:32:54;4.40;99;35.10;11;0.384;0.071;24.21;75.5;0.070;26.6611;25.296;27.220;25.535;397;397;397;397;397;397;397;398;397;398;255;255;255;255;255;255;255;255;255;255;240;240;240;240;240;240;240;240;240;240
2021-1-24 11:2:54;4.41;99;36.40;11;0.391;0.069;24.21;75.5;0.069;27.3591;24.719;27.933;24.952;412;412;412;412;412;412;412;413;413;413;255;255;255;255;255;255;255;255;255;255;240;240;240;240;240;240;240;240;240;240
2021-1-24 11:32:55;4.41;99;35.70;11;0.386;0.070;24.41;75.9;0.069;26.8581;24.861;27.421;25.096;423;422;423;423;423;423;423;423;423;423;255;255;255;255;255;255;255;255;255;255;240;240;240;240;240;240;240;240;240;240
2021-1-24 12:2:57;4.41;99;37.20;11;0.386;0.070;24.21;75.5;0.069;26.8581;24.861;27.421;25.096;444;444;444;444;444;444;444;444;444;444;255;255;255;255;255;255;255;255;255;255;240;240;240;240;240;240;240;240;240;240
2021-1-24 12:32:56;4.41;99;35.30;11;0.386;0.070;24.21;75.5;0.069;26.8651;24.866;27.434;25.071;455;455;455;455;455;455;455;455;455;455;255;255;255;255;255;255;255;255;255;255;240;240;240;240;240;240;240;240;240;240
2021-1-24 13:3:0;4.41;99;36.90;11;0.378;0.071;24.41;75.9;0.071;26.1551;25.443;26.708;25.652;451;451;451;452;452;452;452;452;452;452;255;255;255;255;255;255;255;255;255;255;240;240;240;240;240;240;240;240;240;240
2021-1-24 13:33:0;4.42;99;38.30;11;0.388;0.068;24.21;75.5;0.068;27.0521;24.437;27.625;24.639;459;459;460;460;460;460;460;460;460;460;255;255;255;255;255;255;255;255;255;255;240;241;240;241;240;241;240;240;240;241
2021-1-24 14:3:0;4.42;99;37.50;11;0.378;0.071;24.21;75.5;0.071;26.1551;25.443;26.708;25.652;466;466;466;466;466;466;466;466;466;466;255;255;255;255;255;255;255;255;255;255;241;241;241;241;241;241;241;241;241;241
2021-1-24 14:33:1;4.42;99;37.10;11;0.388;0.068;24.21;75.5;0.068;27.0521;24.437;27.625;24.639;464;464;464;465;465;465;465;465;465;465;255;255;255;255;255;255;255;255;255;255;241;241;241;241;241;241;241;241;241;241
2021-1-24 15:2:59;4.43;99;36.90;11;0.388;0.068;24.21;75.5;0.068;27.0521;24.437;27.625;24.639;465;465;465;466;465;465;466;466;466;466;255;255;255;255;255;255;255;255;255;255;241;241;241;241;241;241;241;241;241;241
2021-1-24 15:33:1;4.43;99;39.50;11;0.388;0.068;24.21;75.5;0.068;27.0521;24.437;27.625;24.639;469;469;469;469;469;469;469;469;470;470;255;255;255;255;255;255;255;255;255;255;241;241;241;241;241;241;241;241;241;241
2021-1-24 16:3:0;4.43;99;40.00;11;0.388;0.068;24.41;75.9;0.068;27.0521;24.437;27.625;24.639;466;466;466;466;466;466;466;466;466;467;255;255;255;255;255;255;255;255;255;255;241;241;241;241;241;241;241;241;241;241
2021-1-24 16:33:4;4.43;99;37.70;11;0.381;0.070;24.41;75.9;0.070;26.3611;25.007;26.919;25.213;466;466;466;466;466;466;466;466;466;466;255;255;256;255;255;256;255;255;255;255;241;241;241;241;241;241;241;241;241;241
2021-1-24 17:3:2;4.43;99;38.40;11;0.381;0.070;24.41;75.9;0.070;26.3611;25.007;26.919;25.213;457;457;457;457;457;457;457;458;458;458;255;255;255;256;255;255;255;255;255;255;241;241;241;241;241;241;241;241;241;241
2021-1-24 17:33:0;4.43;99;36.10;11;0.379;0.071;24.41;75.9;0.071;26.1621;25.448;26.721;25.626;448;449;449;449;449;449;449;449;449;449;255;255;255;255;255;255;256;255;255;255;241;241;241;241;241;241;241;241;241;241
2021-1-24 18:2:59;4.41;99;32.40;11;0.381;0.070;24.41;75.9;0.070;26.3681;25.012;26.931;25.187;429;429;429;429;429;429;429;429;429;429;255;255;255;255;255;255;255;255;255;255;240;241;241;241;241;241;241;241;241;241
2021-1-24 18:32:56;4.41;99;34.10;11;0.388;0.068;24.41;75.9;0.068;27.0521;24.437;27.625;24.639;419;419;419;419;419;419;419;420;420;420;255;255;255;255;255;255;255;255;255;255;240;241;241;240;241;240;241;240;241;241
2021-1-24 19:2:56;4.41;99;33.80;11;0.388;0.068;24.41;75.9;0.068;27.0591;24.443;27.638;24.614;408;408;408;408;408;408;408;408;408;408;255;255;255;255;255;255;255;255;255;255;240;240;240;240;240;240;240;240;240;240
2021-1-24 19:32:51;4.41;99;31.60;11;0.379;0.071;24.41;75.9;0.071;26.1621;25.448;26.721;25.626;395;396;396;396;396;396;396;396;396;396;255;255;255;255;255;255;255;255;255;255;240;240;240;240;240;240;240;240;240;240
2021-1-24 20:2:52;4.39;99;28.90;11;0.388;0.068;24.41;75.9;0.068;27.0591;24.443;27.638;24.614;378;378;378;378;378;378;378;378;378;378;255;255;255;255;255;255;255;255;255;255;240;240;240;240;240;240;240;240;240;240
2021-1-24 20:32:49;4.38;99;27.10;11;0.381;0.070;24.41;75.9;0.070;26.3681;25.012;26.931;25.187;391;391;391;391;391;391;391;392;392;392;255;255;255;255;255;255;255;255;255;255;240;240;240;240;240;240;240;240;240;240
2021-1-24 21:2:45;4.37;99;27.40;11;0.381;0.070;24.41;75.9;0.070;26.3681;25.012;26.931;25.187;392;392;393;393;393;393;393;393;393;393;255;255;255;255;255;255;255;255;255;255;240;240;240;240;240;240;240;240;240;240
2021-1-24 21:32:43;4.37;99;26.60;11;0.388;0.068;24.41;75.9;0.068;27.0591;24.443;27.638;24.614;397;397;397;397;397;397;397;397;398;398;255;255;255;255;255;255;255;255;255;255;240;240;240;240;240;240;240;240;240;240
2021-1-24 22:2:46;4.36;99;26.00;11;0.381;0.070;24.41;75.9;0.070;26.3751;25.017;26.944;25.162;400;400;400;400;400;400;400;400;400;401;255;255;255;255;255;255;255;255;255;255;240;240;240;240;240;240;240;240;240;240
2021-1-24 22:32:43;4.36;99;25.20;11;0.381;0.070;24.41;75.9;0.070;26.3681;25.012;26.931;25.187;403;403;403;403;403;403;403;403;403;403;255;255;255;255;255;255;255;255;255;255;240;240;240;240;240;240;240;240;240;240
2021-1-24 23:2:44;4.35;99;24.90;11;0.388;0.068;24.41;75.9;0.068;27.0671;24.448;27.650;24.589;403;403;403;403;403;403;403;404;404;404;255;255;255;255;255;255;255;255;255;255;240;240;240;240;240;240;240;240;240;240
2021-1-24 23:32:41;4.35;99;24.20;11;0.381;0.070;24.41;75.9;0.070;26.3751;25.017;26.944;25.162;413;413;413;413;413;413;413;413;413;413;255;255;255;255;255;255;255;255;255;255;240;240;240;240;240;240;240;240;240;240
