2021-1-26 0:2:42;4.35;99;23.80;11;0.380;0.069;24.71;76.4;0.069;26.2831;24.949;26.871;24.971;459;459;460;460;460;460;460;460;460;460;255;255;255;255;255;255;255;255;255;255;241;241;241;241;241;241;241;241;241;241
2021-1-26 0:32:41;4.35;99;23.70;11;0.380;0.069;24.91;76.8;0.069;26.2761;24.944;26.859;24.996;461;461;461;461;461;461;461;461;461;461;255;255;255;255;255;255;255;255;255;255;241;241;241;241;241;241;241;241;241;241
2021-1-26 1:2:41;4.35;99;23.80;11;0.380;0.069;24.71;76.4;0.069;26.2831;24.949;26.871;24.971;460;460;460;460;460;460;460;460;460;460;255;255;255;255;255;255;255;255;255;255;241;241;241;241;241;241;241;241;241;241
2021-1-26 1:32:40;4.35;99;23.50;11;0.380;0.069;24.71;76.4;0.069;26.2831;24.949;26.871;24.971;470;470;470;470;470;470;470;470;470;470;255;255;255;255;255;255;255;255;255;255;241;241;241;241;241;241;241;241;241;241
2021-1-26 2:2:44;4.35;99;23.70;11;0.387;0.068;24.71;76.4;0.068;26.9731;24.382;27.576;24.403;467;467;467;467;467;467;468;468;468;468;255;255;255;255;255;255;255;255;255;255;241;241;241;241;241;241;241;241;241;241
2021-1-26 2:32:43;4.35;99;23.90;11;0.380;0.069;24.71;76.4;0.069;26.2831;24.949;26.871;24.971;463;463;463;463;464;464;464;464;464;464;255;255;255;255;255;255;255;255;255;255;240;240;241;241;241;240;241;241;241;241
2021-1-26 3:2:42;4.34;99;21.90;11;0.380;0.069;24.71;76.4;0.069;26.2831;24.949;26.871;24.971;480;480;480;480;480;480;480;480;480;480;255;255;255;255;255;255;255;255;255;255;241;241;241;241;241;241;241;241;241;241
2021-1-26 3:32:41;4.33;99;21.10;11;0.380;0.069;24.91;76.8;0.069;26.2831;24.949;26.871;24.971;478;478;478;478;478;478;478;478;478;478;255;255;255;255;255;255;255;255;255;255;241;241;241;241;241;241;241;241;241;241
2021-1-26 4:2:38;4.33;99;21.40;11;0.372;0.071;24.91;76.8;0.071;25.5701;25.528;26.147;25.518;474;474;474;474;474;474;474;474;474;474;255;255;255;255;255;255;255;255;255;255;241;241;241;241;241;241;241;241;241;241
2021-1-26 4:32:40;4.33;99;21.50;11;0.380;0.069;24.91;76.8;0.069;26.2831;24.949;26.871;24.971;475;476;475;476;476;476;476;476;476;476;255;255;255;255;255;255;255;255;255;255;241;241;241;241;241;241;241;241;241;241
2021-1-26 5:2:38;4.33;99;21.60;11;0.372;0.071;24.91;76.8;0.071;25.5631;25.522;26.134;25.544;479;479;479;479;479;479;479;479;479;479;255;255;255;255;255;255;255;255;255;255;241;241;241;241;241;241;241;241;241;241
2021-1-26 5:32:39;4.33;99;21.70;11;0.380;0.069;24.91;76.8;0.069;26.2831;24.949;26.871;24.971;480;480;480;480;480;480;480;480;480;481;255;255;255;255;255;255;255;255;255;255;241;241;241;241;241;241;241;241;241;241
2021-1-26 6:2:41;4.33;99;21.90;11;0.380;0.069;24.71;76.4;0.069;26.2831;24.949;26.871;24.971;470;470;470;470;470;470;470;470;470;470;255;255;255;255;255;255;255;255;255;255;241;241;241;241;241;241;241;241;241;241
2021-1-26 6:32:39;4.33;99;22.10;11;0.380;0.069;24.91;76.8;0.069;26.2831;24.949;26.871;24.971;474;474;474;474;474;474;474;474;474;474;255;255;255;255;255;255;255;255;255;255;241;241;241;241;241;241;241;241;241;241
2021-1-26 7:2:41;4.33;99;22.30;11;0.380;0.069;24.91;76.8;0.069;26.2831;24.949;26.871;24.971;474;474;474;474;474;474;474;474;474;474;255;255;255;255;255;255;255;255;255;255;241;241;241;241;241;241;241;241;241;241
2021-1-26 7:32:40;4.33;99;22.70;11;0.380;0.069;24.91;76.8;0.069;26.2831;24.949;26.871;24.971;468;468;468;468;468;468;468;468;468;468;255;255;255;255;255;255;255;255;255;255;241;241;241;241;241;241;241;241;241;241
2021-1-26 8:2:43;4.34;99;22.70;11;0.380;0.069;24.91;76.8;0.069;26.2831;24.949;26.871;24.971;459;459;459;459;459;459;459;459;459;459;255;255;255;255;255;255;255;255;255;255;240;241;241;241;241;240;241;241;241;240
2021-1-26 8:32:42;4.35;99;22.80;11;0.380;0.069;24.91;76.8;0.069;26.2831;24.949;26.871;24.971;449;449;449;449;450;450;450;450;450;450;255;255;255;255;255;255;255;255;255;255;241;241;241;241;240;241;241;241;241;241
2021-1-26 9:2:41;4.35;99;23.20;11;0.387;0.068;24.91;76.8;0.068;26.9731;24.382;27.576;24.403;445;445;445;445;445;445;445;446;446;446;255;255;255;255;255;255;255;255;255;255;240;241;241;240;240;241;240;240;241;240
2021-1-26 9:32:41;4.36;99;24.80;11;0.380;0.069;24.91;76.8;0.069;26.2831;24.949;26.871;24.971;445;445;445;445;445;445;445;445;446;446;255;255;255;255;255;255;255;255;255;255;240;240;240;240;240;240;240;240;240;240
2021-1-26 10:2:43;4.38;99;31.20;11;0.380;0.069;24.91;76.8;0.069;26.2831;24.949;26.871;24.971;454;454;454;454;454;454;454;454;454;454;255;255;255;255;255;255;255;255;255;255;240;240;240;240;240;240;241;240;240;240
2021-1-26 10:32:48;4.38;99;27.60;11;0.372;0.071;24.91;76.8;0.071;25.5631;25.522;26.134;25.544;462;462;462;462;462;462;462;462;462;462;255;255;255;255;255;255;255;255;255;255;240;240;240;241;241;240;240;240;241;241
2021-1-26 11:2:45;4.38;99;26.60;11;0.380;0.069;24.91;76.8;0.069;26.2831;24.949;26.871;24.971;463;463;463;463;463;463;463;463;463;463;255;255;255;255;255;255;255;255;255;255;241;241;241;241;241;240;240;240;240;241
2021-1-26 11:32:46;4.38;99;29.10;11;0.380;0.069;24.91;76.8;0.069;26.2831;24.949;26.871;24.971;472;472;472;472;472;472;472;472;472;472;255;255;255;255;255;255;255;255;255;255;241;240;241;241;240;241;240;241;241;241
2021-1-26 12:2:48;4.38;99;29.20;11;0.380;0.069;24.91;76.8;0.069;26.2831;24.949;26.871;24.971;474;474;474;474;474;475;474;475;475;475;255;255;255;255;255;255;255;255;255;255;240;240;241;241;241;241;240;241;241;241
2021-1-26 12:32:51;4.38;99;28.40;11;0.372;0.071;24.91;76.8;0.071;25.5701;25.528;26.147;25.518;480;481;481;481;481;481;481;481;481;481;255;255;255;255;255;255;255;255;255;255;241;241;241;241;241;241;241;241;241;241
2021-1-26 13:2:50;4.39;99;29.70;11;0.372;0.071;24.91;76.8;0.071;25.5701;25.528;26.147;25.518;490;491;491;491;491;491;491;491;491;491;255;255;255;255;255;255;255;255;255;255;241;241;241;241;241;241;241;241;241;241
2021-1-26 13:32:49;4.39;99;29.40;11;0.380;0.069;24.91;76.8;0.069;26.2831;24.949;26.871;24.971;491;491;491;491;491;491;491;491;491;491;255;255;255;255;255;255;255;255;255;255;241;241;241;241;241;241;241;241;241;241
2021-1-26 14:2:48;4.39;99;28.90;11;0.372;0.071;24.91;76.8;0.071;25.5701;25.528;26.147;25.518;485;485;485;486;486;486;486;486;486;486;255;255;255;255;255;255;255;255;255;255;241;241;241;241;241;241;241;241;241;241
2021-1-26 14:32:52;4.41;99;32.00;11;0.372;0.071;24.91;76.8;0.071;25.5701;25.528;26.147;25.518;521;521;521;521;522;521;521;522;522;522;255;255;255;255;255;255;255;255;255;255;241;241;241;241;241;241;241;241;241;241
2021-1-26 15:2:55;4.40;99;28.90;11;0.380;0.069;24.91;76.8;0.069;26.2911;24.955;26.884;24.945;514;514;514;514;514;514;515;515;515;515;254;255;254;255;254;254;254;255;254;254;241;241;241;241;241;241;241;241;241;241
2021-1-26 15:32:52;4.40;99;29.20;11;0.372;0.071;24.91;76.8;0.071;25.5701;25.528;26.147;25.518;512;513;513;513;513;513;513;513;513;513;255;255;255;255;255;255;255;255;255;255;241;241;241;241;241;241;241;241;241;241
2021-1-26 16:2:53;4.40;99;29.00;11;0.372;0.071;24.91;76.8;0.071;25.5701;25.528;26.147;25.518;519;519;519;519;519;519;519;519;519;519;255;255;255;255;255;255;255;255;255;255;241;241;241;241;241;241;241;241;241;241
2021-1-26 16:32:50;4.41;99;31.80;11;0.372;0.071;24.91;76.8;0.071;25.5701;25.528;26.147;25.518;530;530;530;530;530;530;530;530;530;530;255;255;255;255;255;255;255;255;255;255;241;241;241;241;241;241;241;241;241;241
2021-1-26 17:2:53;4.41;99;29.30;11;0.380;0.069;24.91;76.8;0.069;26.2911;24.955;26.884;24.945;521;521;521;521;521;521;521;521;522;521;255;255;255;255;255;255;255;255;255;255;241;241;241;241;241;241;241;241;241;241
2021-1-26 17:32:50;4.40;99;28.60;11;0.380;0.069;24.91;76.8;0.069;26.2911;24.955;26.884;24.945;512;512;512;512;512;512;512;512;512;512;255;255;255;255;255;255;255;255;255;255;241;241;241;241;241;241;241;241;241;241
2021-1-26 18:2:49;4.39;99;27.40;11;0.380;0.069;24.91;76.8;0.069;26.2911;24.955;26.884;24.945;497;497;497;497;497;497;498;498;498;498;255;255;255;255;255;255;255;255;255;255;241;241;241;241;241;241;241;241;241;241
2021-1-26 18:32:46;4.38;99;26.10;11;0.380;0.069;24.91;76.8;0.069;26.2911;24.955;26.884;24.945;479;479;479;479;479;479;479;479;479;479;255;255;255;255;255;255;255;255;255;255;241;241;241;241;241;241;241;241;241;241
2021-1-26 19:2:45;4.38;99;25.90;11;0.374;0.070;24.91;76.8;0.070;25.7851;25.093;26.367;25.084;474;474;474;474;474;474;474;474;474;474;255;255;255;255;255;255;255;255;255;255;241;241;241;241;241;241;241;241;241;241
2021-1-26 19:32:44;4.37;99;25.00;11;0.375;0.070;24.91;76.8;0.070;25.7921;25.099;26.380;25.058;474;475;474;474;475;475;475;475;475;475;255;255;255;255;255;255;255;255;255;255;241;241;241;241;241;241;241;241;241;241
2021-1-26 20:2:45;4.36;99;24.40;11;0.379;0.069;24.91;76.8;0.069;26.1711;24.866;26.762;24.857;484;483;484;484;484;484;484;484;484;484;255;255;255;255;255;255;255;255;255;255;241;241;241;241;241;241;241;241;241;241
2021-1-26 20:32:42;4.35;99;23.70;11;0.374;0.070;24.91;76.8;0.070;25.7851;25.093;26.367;25.084;494;494;494;494;494;494;494;494;494;494;255;255;255;255;255;255;255;255;255;255;241;241;241;241;241;241;241;241;241;241
2021-1-26 21:2:42;4.35;99;23.70;11;0.374;0.070;24.91;76.8;0.070;25.7851;25.093;26.367;25.084;496;496;496;496;496;496;496;496;496;496;255;255;255;255;255;255;255;255;255;255;241;241;241;241;241;241;241;241;241;241
2021-1-26 21:32:42;4.35;99;23.30;11;0.372;0.071;24.91;76.8;0.071;25.5701;25.528;26.147;25.518;505;505;505;505;505;506;505;505;506;506;255;255;255;255;255;255;255;255;255;255;241;241;241;241;241;241;241;241;241;241
2021-1-26 22:2:41;4.35;99;23.60;11;0.379;0.069;24.91;76.8;0.069;26.1711;24.866;26.762;24.857;508;508;508;508;508;508;508;508;508;508;255;255;255;255;255;255;255;255;255;255;241;241;241;241;241;241;241;241;241;241
2021-1-26 22:32:40;4.35;99;23.20;11;0.379;0.069;24.91;76.8;0.069;26.1791;24.872;26.775;24.832;508;508;508;508;508;508;509;508;509;508;255;255;255;255;255;255;255;255;255;255;241;241;241;241;241;241;241;241;241;241
2021-1-26 23:2:40;4.35;99;23.20;11;0.379;0.069;24.91;76.8;0.069;26.1791;24.872;26.775;24.832;503;503;504;503;504;503;504;504;504;504;255;255;255;255;255;255;255;255;255;255;241;241;241;241;241;241;241;241;241;241
2021-1-26 23:32:43;4.34;99;23.10;11;0.375;0.070;24.91;76.8;0.070;25.7921;25.099;26.380;25.058;506;506;506;506;506;506;506;506;506;506;255;255;255;255;255;255;255;255;255;255;241;241;241;241;241;241;241;241;241;241
