2021-1-27 0:2:43;4.35;99;23.00;11;0.379;0.069;24.91;76.8;0.069;26.1791;24.872;26.775;24.832;509;509;509;509;509;509;509;509;509;509;255;255;255;255;255;255;255;255;255;255;241;241;241;241;241;241;241;241;241;241
2021-1-27 0:32:42;4.34;99;22.40;11;0.374;0.070;24.91;76.8;0.070;25.7851;25.093;26.367;25.084;516;516;516;516;516;517;517;517;517;517;255;255;255;255;255;255;255;255;255;255;241;241;241;241;241;241;241;241;241;241
2021-1-27 1:2:40;4.34;99;22.20;11;0.379;0.069;24.91;76.8;0.069;26.1711;24.866;26.762;24.857;518;518;518;518;518;518;518;518;518;518;255;255;255;255;255;255;255;255;255;255;241;241;241;241;241;241;241;241;241;241
2021-1-27 1:32:43;4.34;99;21.90;11;0.375;0.070;24.91;76.8;0.070;25.7921;25.099;26.380;25.058;520;520;520;521;521;521;521;521;521;521;255;255;255;255;255;255;255;255;255;255;241;241;241;241;241;241;241;241;241;241
2021-1-27 2:2:41;4.33;99;21.50;11;0.379;0.069;24.91;76.8;0.069;26.1711;24.866;26.762;24.857;532;532;532;532;533;532;533;533;533;533;255;255;255;255;255;255;255;255;255;255;241;241;241;241;241;241;241;241;241;241
2021-1-27 2:32:39;4.33;99;22.20;11;0.379;0.069;24.91;76.8;0.069;26.1791;24.872;26.775;24.832;533;533;533;533;533;534;534;534;534;534;255;255;255;255;255;255;255;255;255;255;241;241;241;241;241;241;241;241;241;241
2021-1-27 3:2:41;4.33;99;21.90;11;0.379;0.069;24.91;76.8;0.069;26.1791;24.872;26.775;24.832;535;535;535;535;535;535;535;535;535;535;255;255;255;255;255;255;255;255;255;255;241;241;241;241;241;241;241;241;241;241
2021-1-27 3:32:39;4.33;99;21.60;11;0.379;0.069;24.91;76.8;0.069;26.1791;24.872;26.775;24.832;537;537;537;537;537;537;537;537;537;537;255;255;255;255;255;255;255;255;255;255;241;241;241;241;241;241;241;241;241;241
2021-1-27 4:2:41;4.33;99;21.10;11;0.379;0.069;24.91;76.8;0.069;26.1711;24.866;26.762;24.857;536;536;536;536;536;536;536;536;536;537;255;255;255;255;255;255;255;255;255;255;241;241;241;241;241;241;241;241;241;241
2021-1-27 4:32:38;4.33;99;20.50;11;0.386;0.068;24.91;76.8;0.068;26.8581;24.303;27.464;24.294;536;536;536;536;536;536;536;536;536;536;255;255;255;255;255;255;255;255;255;255;241;241;241;241;241;241;241;241;241;242
2021-1-27 5:2:39;4.33;99;20.70;11;0.379;0.069;24.91;76.8;0.069;26.1791;24.872;26.775;24.832;538;538;538;538;538;539;539;538;539;539;255;255;255;255;255;255;255;255;255;255;241;242;241;241;241;241;241;242;241;242
2021-1-27 5:32:40;4.33;99;20.40;11;0.379;0.069;24.91;76.8;0.069;26.1791;24.872;26.775;24.832;539;539;539;539;540;540;540;540;540;540;255;255;255;255;255;255;255;255;255;255;241;241;241;241;241;241;241;241;241;241
2021-1-27 6:2:41;4.32;99;20.20;11;0.379;0.069;24.91;76.8;0.069;26.1791;24.872;26.775;24.832;536;536;536;536;536;536;536;536;536;536;255;255;255;255;256;255;255;255;255;255;241;241;241;241;241;241;241;241;241;241
2021-1-27 6:32:37;4.32;99;19.80;11;0.379;0.069;24.91;76.8;0.069;26.1711;24.866;26.762;24.857;528;528;528;529;529;529;529;529;529;529;255;255;255;255;256;255;255;255;255;255;241;241;241;241;241;241;242;242;241;241
2021-1-27 7:2:37;4.32;99;21.40;11;0.379;0.069;24.91;76.8;0.069;26.1791;24.872;26.775;24.832;517;517;517;517;517;517;517;518;518;518;255;255;256;255;255;255;255;255;255;255;241;241;241;241;241;241;241;241;241;241
2021-1-27 7:32:39;4.33;99;22.80;11;0.379;0.069;24.91;76.8;0.069;26.1791;24.872;26.775;24.832;508;508;508;508;508;508;508;508;508;508;255;256;255;255;255;255;255;255;255;255;241;241;241;241;241;241;241;241;241;241
2021-1-27 8:2:41;4.33;99;25.50;11;0.379;0.069;24.91;76.8;0.069;26.1711;24.866;26.762;24.857;494;494;494;494;494;494;495;495;494;495;255;255;255;255;255;255;255;255;255;255;241;241;241;241;241;241;241;241;241;241
2021-1-27 8:32:40;4.35;99;30.10;11;0.371;0.071;24.91;76.8;0.071;25.4601;25.442;26.040;25.401;487;487;487;487;487;487;487;487;487;487;255;255;255;255;255;255;255;255;255;255;241;241;241;241;241;241;241;241;241;241
2021-1-27 9:2:46;4.35;99;32.30;11;0.379;0.069;24.91;76.8;0.069;26.1791;24.872;26.775;24.832;479;479;479;479;479;479;479;479;479;479;256;255;256;255;255;255;255;256;255;255;241;241;241;241;241;241;241;241;241;241
2021-1-27 9:32:45;4.38;99;34.20;11;0.379;0.069;24.91;76.8;0.069;26.1711;24.866;26.762;24.857;477;476;477;477;477;477;477;477;477;477;255;255;255;255;255;255;255;255;255;255;241;241;241;241;241;241;241;241;241;241
2021-1-27 10:2:46;4.38;99;35.10;11;0.371;0.071;24.91;76.8;0.071;25.4601;25.442;26.040;25.401;482;482;482;482;482;482;482;482;482;482;255;256;256;255;255;255;255;255;255;255;241;241;241;241;241;241;241;241;241;241
2021-1-27 10:32:50;4.39;99;35.40;11;0.381;0.068;24.91;76.8;0.068;26.3671;24.442;26.962;24.432;486;486;486;486;486;486;486;486;486;486;255;255;255;255;255;255;255;255;255;255;241;241;241;241;241;241;241;241;241;241
2021-1-27 11:2:53;4.40;99;37.70;11;0.381;0.068;24.91;76.8;0.068;26.3741;24.447;26.975;24.407;496;496;496;496;496;496;496;496;496;496;255;256;255;256;255;255;255;256;255;256;241;241;241;241;241;241;241;241;241;241
2021-1-27 11:32:53;4.41;99;37.90;11;0.381;0.068;24.91;76.8;0.068;26.3671;24.442;26.962;24.432;528;528;528;528;528;528;528;529;529;529;256;256;256;256;256;256;256;256;256;256;241;241;241;241;241;241;241;241;241;241
2021-1-27 12:2:54;4.41;99;36.80;11;0.381;0.068;24.91;76.8;0.068;26.3741;24.447;26.975;24.407;551;551;551;551;551;551;551;552;551;552;256;256;256;256;256;256;256;256;256;256;242;242;242;242;242;241;242;242;241;242
2021-1-27 12:32:58;4.42;99;36.40;11;0.373;0.069;24.91;76.8;0.070;25.6691;25.004;26.248;24.995;563;563;563;563;563;563;563;563;563;563;256;256;256;255;256;256;256;256;256;255;242;242;242;242;242;242;242;242;242;242
2021-1-27 13:2:58;4.42;99;37.90;11;0.381;0.068;24.91;76.8;0.068;26.3741;24.447;26.975;24.407;574;574;574;574;574;574;575;575;575;575;256;256;256;256;256;256;256;256;256;256;242;242;242;242;242;242;242;242;242;242
2021-1-27 13:33:0;4.43;99;36.40;11;0.381;0.068;24.91;76.8;0.068;26.3671;24.442;26.962;24.432;580;580;580;580;580;580;580;580;580;580;256;256;256;256;256;256;256;256;256;256;243;243;242;243;243;242;243;243;243;243
2021-1-27 14:3:3;4.43;99;37.00;11;0.373;0.069;24.91;76.8;0.070;25.6761;25.009;26.260;24.969;585;585;585;585;585;585;585;585;585;585;256;256;256;256;256;256;256;256;256;256;242;242;242;242;242;242;242;242;242;242
2021-1-27 14:33:1;4.43;99;39.80;11;0.381;0.068;24.91;76.8;0.068;26.3671;24.442;26.962;24.432;585;585;585;585;585;585;585;585;585;586;256;256;256;256;256;256;256;256;256;256;242;242;242;242;242;242;242;242;242;242
2021-1-27 15:3:0;4.43;99;36.70;11;0.373;0.069;24.91;76.8;0.070;25.6691;25.004;26.248;24.995;585;585;585;585;585;585;585;585;585;585;256;256;256;256;256;256;256;256;256;256;242;242;242;242;242;242;242;242;242;242
2021-1-27 15:33:3;4.43;99;33.80;11;0.381;0.068;24.91;76.8;0.068;26.3671;24.442;26.962;24.432;574;574;574;574;574;574;574;574;574;574;256;256;256;256;256;256;256;256;256;256;242;242;242;242;242;242;242;242;242;242
2021-1-27 16:3:1;4.43;99;34.80;11;0.381;0.068;24.91;76.8;0.068;26.3741;24.447;26.975;24.407;575;575;575;575;575;576;576;576;576;576;256;256;256;256;256;256;256;256;256;256;242;242;242;242;242;242;242;242;242;242
2021-1-27 16:32:58;4.43;99;35.30;11;0.373;0.069;24.91;76.8;0.070;25.6761;25.009;26.260;24.969;582;582;582;582;582;582;583;583;583;583;256;256;256;256;256;256;256;256;256;256;243;243;243;243;243;243;243;243;243;243
2021-1-27 17:3:0;4.43;99;35.10;11;0.365;0.071;24.91;76.8;0.071;24.9451;25.578;25.513;25.537;571;571;571;571;571;571;572;572;572;572;256;256;256;256;256;256;256;256;256;256;243;243;243;242;243;243;243;243;242;243
2021-1-27 17:33:0;4.42;99;33.90;11;0.376;0.068;24.91;76.8;0.068;25.8811;24.584;26.470;24.545;558;558;558;558;558;558;558;559;559;559;256;256;256;256;256;256;256;256;256;256;242;242;242;242;242;242;242;242;242;242
2021-1-27 18:2:58;4.41;99;31.70;11;0.383;0.067;24.91;76.8;0.067;26.5611;24.028;27.165;23.990;543;543;543;543;543;543;544;544;544;544;256;256;256;256;256;256;256;256;256;256;242;242;242;242;242;242;242;242;242;242
2021-1-27 18:32:52;4.41;99;30.50;11;0.383;0.067;24.91;76.8;0.067;26.5611;24.028;27.165;23.990;534;534;534;534;534;534;534;534;534;534;256;256;256;256;256;256;256;256;256;256;242;242;242;242;242;242;242;242;242;242
2021-1-27 19:2:52;4.40;99;29.20;11;0.376;0.068;24.91;76.8;0.068;25.8811;24.584;26.470;24.545;526;525;526;526;526;526;526;526;526;526;256;256;256;256;256;256;256;256;256;256;242;242;242;241;241;241;242;242;241;241
2021-1-27 19:32:50;4.38;99;27.70;11;0.368;0.070;24.91;76.8;0.070;25.1701;25.146;25.743;25.105;520;520;520;520;520;520;520;520;520;520;256;256;256;256;256;256;256;256;256;256;242;242;242;242;242;242;242;242;242;242
2021-1-27 20:2:46;4.38;99;26.00;11;0.376;0.068;24.91;76.8;0.068;25.8811;24.584;26.470;24.545;524;524;524;524;524;524;524;524;524;524;256;256;256;256;256;256;256;256;256;256;242;242;242;242;242;242;242;242;242;242
2021-1-27 20:32:44;4.37;99;24.60;11;0.368;0.070;24.91;76.8;0.070;25.1701;25.146;25.743;25.105;528;528;528;528;528;528;528;528;528;528;256;256;256;256;256;256;256;256;256;256;242;242;242;242;242;242;242;242;242;242
2021-1-27 21:2:45;4.36;99;24.00;11;0.376;0.068;25.11;77.3;0.068;25.8811;24.584;26.470;24.545;536;536;536;536;536;536;536;536;536;536;256;256;256;256;256;256;256;256;256;256;242;242;242;242;242;242;242;242;242;242
2021-1-27 21:32:42;4.35;99;23.80;11;0.376;0.068;24.91;76.8;0.068;25.8811;24.584;26.470;24.545;536;536;536;536;536;536;536;537;537;537;256;256;256;256;255;256;256;256;256;256;242;242;242;242;242;242;242;242;242;242
2021-1-27 22:2:41;4.35;99;23.40;11;0.376;0.068;25.11;77.3;0.068;25.8811;24.584;26.470;24.545;534;534;534;534;534;534;534;534;534;534;256;256;256;256;256;255;256;256;256;256;242;242;242;242;242;242;242;242;242;242
2021-1-27 22:32:41;4.35;99;22.60;11;0.368;0.070;25.11;77.3;0.070;25.1701;25.146;25.743;25.105;537;537;537;537;537;537;537;537;537;537;256;256;256;256;255;256;256;255;256;255;242;242;242;242;242;242;242;242;242;242
2021-1-27 23:2:40;4.35;99;22.50;11;0.368;0.070;25.11;77.3;0.070;25.1771;25.151;25.755;25.080;535;535;535;535;535;535;535;535;535;535;256;255;256;256;255;256;256;255;256;256;242;242;242;242;242;242;242;242;242;242
2021-1-27 23:32:43;4.35;99;22.00;11;0.368;0.070;24.91;76.8;0.070;25.1701;25.146;25.743;25.105;535;535;535;535;535;535;535;535;535;535;256;256;256;256;255;255;256;256;256;256;242;242;242;242;242;242;242;242;242;242
