2021-1-22 0:2:37;4.33;99;20.40;11;0.396;0.070;23.71;74.7;0.068;27.8001;24.535;28.340;25.007;330;330;330;330;330;330;330;330;330;330;255;255;255;255;255;255;255;255;255;255;241;241;241;241;241;241;241;241;241;241
2021-1-22 0:32:37;4.33;99;20.50;11;0.389;0.071;23.71;74.7;0.070;27.1211;25.117;27.653;25.570;330;330;330;330;330;330;330;330;330;330;255;255;255;255;255;255;255;255;255;255;240;241;240;241;240;241;240;241;240;241
2021-1-22 1:2:37;4.33;99;20.50;11;0.389;0.071;23.71;74.7;0.070;27.1211;25.117;27.653;25.570;332;332;332;332;332;332;332;332;333;333;255;255;255;255;255;255;255;255;255;255;241;241;241;241;241;241;241;241;241;241
2021-1-22 1:32:37;4.33;99;20.10;11;0.389;0.071;23.71;74.7;0.070;27.1211;25.117;27.653;25.570;335;335;335;335;335;335;335;336;335;336;255;255;255;255;255;255;255;255;255;255;241;241;241;241;241;241;241;241;241;241
2021-1-22 2:2:36;4.33;99;20.10;11;0.389;0.071;23.71;74.7;0.070;27.1211;25.117;27.653;25.570;330;330;331;331;331;331;331;331;331;331;255;255;255;255;255;255;255;255;255;255;241;241;241;241;241;241;241;241;241;241
2021-1-22 2:32:36;4.33;99;19.80;11;0.385;0.072;23.71;74.7;0.070;26.7341;25.351;27.259;25.807;334;334;334;334;334;334;334;334;334;334;255;255;255;255;255;255;255;255;255;255;240;240;241;241;241;240;241;241;241;241
2021-1-22 3:2:36;4.33;99;19.60;11;0.385;0.072;23.71;74.7;0.070;26.7341;25.351;27.259;25.807;332;332;332;332;332;333;332;333;333;333;255;255;255;255;255;255;255;255;255;255;241;241;241;241;241;241;241;241;241;241
2021-1-22 3:32:40;4.32;99;19.40;11;0.396;0.069;23.71;74.7;0.068;27.8071;24.540;28.353;24.982;332;332;332;332;332;333;332;333;333;333;255;255;255;255;255;255;255;255;255;255;240;240;240;240;240;240;240;240;240;240
2021-1-22 4:2:39;4.33;99;20.90;11;0.389;0.071;23.71;74.7;0.070;27.1211;25.117;27.653;25.570;325;324;325;325;325;325;325;325;325;325;255;255;255;255;255;255;255;255;255;255;240;240;240;241;240;241;240;240;240;240
2021-1-22 4:32:39;4.33;99;21.30;11;0.389;0.071;23.71;74.7;0.070;27.1281;25.122;27.665;25.544;320;320;320;320;320;320;320;320;320;320;255;255;255;255;255;255;255;255;255;255;240;240;240;240;240;240;240;240;240;240
2021-1-22 5:2:40;4.33;99;21.50;11;0.389;0.071;23.71;74.7;0.070;27.1211;25.117;27.653;25.570;320;320;320;320;320;320;320;320;320;320;255;255;255;255;255;255;255;255;255;255;240;240;240;240;240;240;240;240;240;240
2021-1-22 5:32:41;4.33;99;21.70;11;0.389;0.071;23.71;74.7;0.070;27.1211;25.117;27.653;25.570;317;317;317;317;317;317;317;317;317;318;255;255;255;255;255;255;255;255;255;255;240;240;240;240;240;240;240;240;240;240
2021-1-22 6:2:38;4.33;99;20.90;11;0.396;0.069;23.71;74.7;0.068;27.8071;24.540;28.353;24.982;326;326;326;326;326;326;326;326;326;326;255;255;255;255;255;255;255;255;255;255;240;240;240;240;240;240;240;240;240;240
2021-1-22 6:32:39;4.33;99;21.00;11;0.377;0.073;23.71;74.7;0.072;26.0021;25.937;26.512;26.404;329;329;329;329;329;329;329;329;329;329;255;255;255;255;255;255;255;255;255;255;240;240;240;240;240;240;240;240;240;240
2021-1-22 7:2:40;4.33;99;23.60;11;0.385;0.072;23.71;74.7;0.070;26.7341;25.351;27.259;25.807;317;317;317;317;317;317;317;317;317;317;255;255;255;255;255;255;255;255;255;255;240;241;240;241;240;240;240;241;240;240
2021-1-22 7:32:41;4.33;99;25.00;11;0.389;0.071;23.71;74.7;0.070;27.1211;25.117;27.653;25.570;307;307;307;307;307;307;307;307;307;307;255;255;255;255;255;255;255;255;255;255;241;240;241;241;240;240;241;240;241;240
2021-1-22 8:2:40;4.34;99;26.90;11;0.396;0.069;23.71;74.7;0.068;27.8071;24.540;28.353;24.982;301;301;301;301;301;301;301;301;301;301;255;255;255;255;255;255;255;255;255;255;240;240;240;240;240;240;240;240;240;240
2021-1-22 8:32:45;4.35;99;27.70;11;0.389;0.071;23.71;74.7;0.070;27.1281;25.122;27.665;25.544;302;301;302;302;302;302;302;302;302;302;255;255;255;255;255;255;255;255;255;255;240;240;240;240;240;240;240;240;240;240
2021-1-22 9:2:43;4.36;99;28.40;11;0.389;0.071;23.71;74.7;0.070;27.1281;25.122;27.665;25.544;303;303;303;303;303;303;303;303;303;303;255;255;255;255;255;255;255;255;255;255;240;240;240;240;240;240;240;240;240;240
2021-1-22 9:32:47;4.37;99;29.50;11;0.389;0.071;23.71;74.7;0.070;27.1281;25.122;27.665;25.544;315;315;315;315;315;315;315;315;315;315;255;255;255;255;255;255;255;255;255;255;240;240;240;240;240;240;240;240;240;240
2021-1-22 10:2:49;4.38;99;31.50;11;0.389;0.071;23.71;74.7;0.070;27.1211;25.117;27.653;25.570;326;326;326;326;326;327;327;326;326;327;255;255;255;255;255;255;255;255;255;255;240;240;240;240;240;240;240;240;240;240
2021-1-22 10:32:47;4.38;99;31.40;11;0.389;0.071;23.71;74.7;0.070;27.1211;25.117;27.653;25.570;339;339;339;339;339;339;339;339;339;339;255;255;255;255;255;255;255;255;255;255;240;240;240;240;240;240;240;240;240;240
2021-1-22 11:2:52;4.39;99;31.70;11;0.389;0.071;23.71;74.7;0.070;27.1281;25.122;27.665;25.544;352;352;352;352;352;353;352;353;353;353;255;255;255;255;255;255;255;255;255;255;240;240;240;240;240;240;240;240;240;240
2021-1-22 11:32:54;4.40;99;31.70;11;0.389;0.071;23.71;74.7;0.070;27.1281;25.122;27.665;25.544;370;370;370;371;370;371;371;371;371;371;255;255;255;255;255;255;255;255;255;255;240;240;240;240;240;240;240;240;240;240
2021-1-22 12:2:52;4.40;99;33.70;11;0.385;0.072;23.71;74.7;0.070;26.7411;25.356;27.271;25.781;381;381;381;381;381;381;381;381;381;381;255;255;255;255;255;255;255;255;255;255;240;240;240;240;240;240;240;240;240;240
2021-1-22 12:32:56;4.41;99;34.00;11;0.389;0.071;23.71;74.7;0.070;27.1281;25.122;27.665;25.544;400;401;401;401;401;401;401;401;401;401;256;256;255;255;255;255;255;255;255;256;241;241;241;241;241;241;241;241;241;241
2021-1-22 13:2:57;4.41;99;32.20;11;0.377;0.073;23.71;74.7;0.072;26.0091;25.942;26.524;26.378;397;397;397;397;397;397;397;397;397;397;255;255;255;255;255;255;255;255;255;255;241;241;241;241;241;241;241;241;241;241
2021-1-22 13:32:53;4.41;99;34.60;11;0.389;0.071;23.71;74.7;0.070;27.1281;25.122;27.665;25.544;399;399;399;399;399;399;399;399;399;399;256;255;256;256;256;256;256;256;255;256;241;241;241;241;241;241;241;241;241;241
2021-1-22 14:2:54;4.41;99;34.60;11;0.383;0.071;23.71;74.7;0.070;26.6181;25.265;27.146;25.689;396;397;397;397;397;397;397;397;397;397;256;256;256;256;256;256;256;255;255;255;241;241;241;241;241;241;241;241;241;241
2021-1-22 14:32:56;4.41;99;33.50;11;0.389;0.071;23.71;74.7;0.070;27.1281;25.122;27.665;25.544;406;406;406;406;406;407;407;407;407;407;255;255;255;256;255;256;256;256;256;255;241;241;241;241;241;241;241;241;241;241
2021-1-22 15:2:57;4.41;99;33.30;11;0.389;0.071;23.71;74.7;0.070;27.1281;25.122;27.665;25.544;395;395;395;395;395;395;395;395;395;395;256;255;255;256;256;255;255;255;256;255;241;241;241;241;241;241;241;241;241;241
2021-1-22 15:32:53;4.41;99;34.70;11;0.389;0.071;23.71;74.7;0.070;27.1281;25.122;27.665;25.544;406;406;406;406;406;406;407;407;407;407;255;255;256;256;256;256;256;256;256;255;241;241;241;241;241;241;241;241;241;241
2021-1-22 16:2:54;4.41;99;32.50;11;0.391;0.070;23.71;74.7;0.069;27.3161;24.689;27.857;25.103;391;391;391;391;391;391;391;391;391;391;255;256;255;256;255;256;255;256;256;256;241;241;241;241;241;241;241;241;241;241
2021-1-22 16:32:55;4.41;99;32.40;11;0.389;0.071;23.71;74.7;0.070;27.1351;25.128;27.678;25.519;400;400;400;400;400;401;400;401;401;401;256;255;256;256;256;256;255;256;255;255;241;241;241;241;241;241;241;241;241;241
2021-1-22 17:2:55;4.41;99;34.70;11;0.389;0.071;23.71;74.7;0.070;27.1351;25.128;27.678;25.519;400;400;400;400;400;400;400;400;400;400;255;255;255;255;255;255;256;256;256;256;241;241;241;241;241;241;241;241;241;241
2021-1-22 17:32:56;4.41;99;33.90;11;0.391;0.070;23.71;74.7;0.069;27.3161;24.689;27.857;25.103;394;394;394;394;394;394;394;394;394;394;255;256;256;256;256;256;256;256;255;255;241;241;241;241;241;241;241;241;241;241
2021-1-22 18:2:57;4.41;99;30.40;11;0.389;0.071;23.71;74.7;0.070;27.1351;25.128;27.678;25.519;382;382;382;382;382;382;382;382;382;382;255;255;256;255;256;255;255;256;255;256;241;241;241;241;241;241;241;241;241;241
2021-1-22 18:32:52;4.41;99;32.70;11;0.383;0.071;23.71;74.7;0.070;26.6251;25.270;27.158;25.663;374;374;374;374;374;374;374;374;374;374;255;256;255;255;256;256;256;256;255;256;241;241;241;241;241;241;241;241;241;241
2021-1-22 19:2:54;4.40;99;31.40;11;0.384;0.071;23.71;74.7;0.070;26.6321;25.275;27.170;25.638;367;367;367;367;367;367;367;367;367;367;256;256;255;255;256;255;256;256;256;256;240;240;240;240;240;240;240;240;240;240
2021-1-22 19:32:51;4.40;99;29.90;11;0.383;0.071;23.71;74.7;0.070;26.6251;25.270;27.158;25.663;357;357;357;357;357;357;357;357;357;357;255;256;255;255;256;255;256;256;255;255;240;240;240;240;240;240;240;240;240;240
2021-1-22 20:2:50;4.38;99;27.20;11;0.384;0.071;23.91;75.1;0.070;26.6321;25.275;27.170;25.638;344;344;344;344;344;344;344;344;344;344;256;255;255;255;256;255;255;255;255;255;240;240;240;240;240;240;240;240;240;240
2021-1-22 20:32:45;4.37;99;24.70;11;0.391;0.070;23.91;75.1;0.069;27.3231;24.693;27.870;25.078;358;357;358;358;358;358;358;358;358;358;256;255;256;256;256;256;256;256;256;255;240;240;240;240;240;240;240;240;240;240
2021-1-22 21:2:43;4.35;99;23.50;11;0.384;0.071;23.91;75.1;0.070;26.6321;25.275;27.170;25.638;361;361;361;361;361;361;361;361;361;361;256;256;256;256;256;256;255;256;255;256;240;240;240;241;240;241;240;241;241;240
2021-1-22 21:32:43;4.35;99;23.10;11;0.391;0.070;23.71;74.7;0.069;27.3231;24.693;27.870;25.078;361;361;361;361;361;361;361;361;361;361;256;255;256;256;256;256;256;256;256;256;240;241;240;241;241;240;241;240;240;241
2021-1-22 22:2:41;4.35;99;22.70;11;0.391;0.070;23.91;75.1;0.069;27.3301;24.699;27.882;25.053;364;364;364;365;365;365;365;365;365;365;255;256;256;256;256;256;256;256;256;256;240;241;241;240;240;240;240;240;240;240
2021-1-22 22:32:40;4.34;99;22.20;11;0.391;0.070;23.91;75.1;0.069;27.3301;24.699;27.882;25.053;363;363;363;364;363;364;363;364;364;364;256;256;256;256;256;256;256;256;256;256;241;241;241;241;241;241;241;241;241;241
2021-1-22 23:2:42;4.34;99;22.30;11;0.384;0.071;23.91;75.1;0.070;26.6321;25.275;27.170;25.638;359;359;359;359;359;359;359;359;359;359;256;255;256;256;256;255;255;256;256;256;240;240;241;240;240;240;240;240;240;241
2021-1-22 23:32:40;4.34;99;22.00;11;0.391;0.070;23.91;75.1;0.069;27.3301;24.699;27.882;25.053;355;355;355;355;355;355;355;355;355;355;256;256;256;256;256;256;256;256;256;256;241;240;240;240;240;240;240;240;240;241
