2021-06-06 00:04:12;4.12;156.29;99;8.30
2021-06-06 00:34:17;4.12;156.29;99;8.00
2021-06-06 01:04:12;4.12;157.90;99;8.70
2021-06-06 01:34:12;4.12;158.71;99;8.70
2021-06-06 02:04:12;4.12;159.35;99;8.90
2021-06-06 02:34:13;4.12;157.58;99;8.60
2021-06-06 03:04:13;4.12;156.93;99;8.50
2021-06-06 03:34:13;4.12;156.61;99;7.80
2021-06-06 04:04:13;4.12;158.71;99;8.00
2021-06-06 04:34:13;4.11;158.38;99;7.40
2021-06-06 05:04:13;4.11;159.03;99;6.50
2021-06-06 05:34:12;4.11;159.35;99;6.70
2021-06-06 06:04:16;4.11;158.38;99;6.40
2021-06-06 06:34:14;4.11;160.00;99;6.40
2021-06-06 07:04:13;4.11;160.00;99;6.10
2021-06-06 07:34:11;4.11;159.35;99;6.00
2021-06-06 08:04:14;4.11;156.93;99;5.80
2021-06-06 08:34:13;4.11;156.29;99;7.60
2021-06-06 09:04:13;4.11;157.90;99;9.10
2021-06-06 09:34:15;4.11;156.29;99;10.30
2021-06-06 10:04:17;4.11;157.58;97;11.70
2021-06-06 10:34:17;4.11;156.29;94;12.70
2021-06-06 11:04:18;4.12;158.38;91;13.10
2021-06-06 11:34:18;4.12;159.35;91;14.00
2021-06-06 12:04:18;4.12;160.00;88;15.00
2021-06-06 12:34:20;4.12;158.71;84;15.80
2021-06-06 13:04:18;4.12;160.32;81;16.50
2021-06-06 13:34:21;4.12;157.58;80;17.10
2021-06-06 14:04:20;4.12;159.67;74;17.40
2021-06-06 14:34:24;4.12;160.00;70;17.80
2021-06-06 15:04:23;4.12;159.03;72;17.50
2021-06-06 15:34:22;4.13;160.64;73;17.70
2021-06-06 16:04:21;4.13;161.28;70;17.60
2021-06-06 16:34:19;4.13;158.71;74;17.20
2021-06-06 17:04:23;4.13;158.22;79;16.10
2021-06-06 17:34:20;4.13;160.00;91;13.80
2021-06-06 18:04:16;4.12;158.22;92;13.00
2021-06-06 18:34:20;4.12;158.22;99;12.10
2021-06-06 19:04:19;4.12;158.22;99;11.70
2021-06-06 19:34:17;4.12;160.00;99;11.60
2021-06-06 20:04:15;4.12;158.71;99;10.50
2021-06-06 20:34:17;4.12;160.64;99;9.90
2021-06-06 21:04:14;4.12;159.35;99;9.20
2021-06-06 21:34:15;4.12;160.96;99;9.20
2021-06-06 22:04:15;4.12;160.00;99;8.10
2021-06-06 22:34:15;4.12;158.22;99;8.20
2021-06-06 23:04:15;4.12;159.35;99;8.60
2021-06-06 23:34:16;4.12;157.90;99;9.10
